REGION,SETTLEMENTDATE,TOTALDEMAND,RRP,PERIODTYPE
QLD1,"2003/10/01 00:30",4777.79167,14.96,TRADE
QLD1,"2003/10/01 01:00",4620.905,14.57,TRADE
QLD1,"2003/10/01 01:30",4456.69167,15.11,TRADE
QLD1,"2003/10/01 02:00",4334.82667,14.71,TRADE
QLD1,"2003/10/01 02:30",4200.99667,14.28,TRADE
QLD1,"2003/10/01 03:00",4161.52167,14.26,TRADE
QLD1,"2003/10/01 03:30",4090.63667,13.35,TRADE
QLD1,"2003/10/01 04:00",4070.34833,12.36,TRADE
QLD1,"2003/10/01 04:30",4088.73667,11.82,TRADE
QLD1,"2003/10/01 05:00",4152.32333,12.04,TRADE
QLD1,"2003/10/01 05:30",4303.18833,14.29,TRADE
QLD1,"2003/10/01 06:00",4517.92667,15.02,TRADE
QLD1,"2003/10/01 06:30",4829.53833,14.88,TRADE
QLD1,"2003/10/01 07:00",5139.74,16.15,TRADE
QLD1,"2003/10/01 07:30",5419.98833,17.11,TRADE
QLD1,"2003/10/01 08:00",5673.76667,18.78,TRADE
QLD1,"2003/10/01 08:30",5882.04,18.75,TRADE
QLD1,"2003/10/01 09:00",5914.58333,18.8,TRADE
QLD1,"2003/10/01 09:30",5936.435,18.8,TRADE
QLD1,"2003/10/01 10:00",5909.225,18.8,TRADE
QLD1,"2003/10/01 10:30",5886.59,18.78,TRADE
QLD1,"2003/10/01 11:00",5834.565,18.57,TRADE
QLD1,"2003/10/01 11:30",5855.26167,18.39,TRADE
QLD1,"2003/10/01 12:00",5876.645,18.36,TRADE
QLD1,"2003/10/01 12:30",5830.43,17.55,TRADE
QLD1,"2003/10/01 13:00",5807.75667,18.59,TRADE
QLD1,"2003/10/01 13:30",5839.96667,22.87,TRADE
QLD1,"2003/10/01 14:00",5801.17167,19.96,TRADE
QLD1,"2003/10/01 14:30",5813.45333,18.77,TRADE
QLD1,"2003/10/01 15:00",5810.82333,24.59,TRADE
QLD1,"2003/10/01 15:30",5840.18167,27.91,TRADE
QLD1,"2003/10/01 16:00",5863.515,22.32,TRADE
QLD1,"2003/10/01 16:30",5904.63167,18.8,TRADE
QLD1,"2003/10/01 17:00",6009.12333,21.65,TRADE
QLD1,"2003/10/01 17:30",6091.295,22.89,TRADE
QLD1,"2003/10/01 18:00",6223.20667,37.37,TRADE
QLD1,"2003/10/01 18:30",6311.44667,39.24,TRADE
QLD1,"2003/10/01 19:00",6197.84667,37.76,TRADE
QLD1,"2003/10/01 19:30",6017.405,20.93,TRADE
QLD1,"2003/10/01 20:00",5862.56167,18.8,TRADE
QLD1,"2003/10/01 20:30",5746.435,19.31,TRADE
QLD1,"2003/10/01 21:00",5575.58833,18.72,TRADE
QLD1,"2003/10/01 21:30",5471.67667,18.44,TRADE
QLD1,"2003/10/01 22:00",5397.97167,17.24,TRADE
QLD1,"2003/10/01 22:30",5347.88833,18.42,TRADE
QLD1,"2003/10/01 23:00",5215.96833,17.42,TRADE
QLD1,"2003/10/01 23:30",5237.56333,18.33,TRADE
QLD1,"2003/10/02 00:00",5053.02167,17.33,TRADE
QLD1,"2003/10/02 00:30",4839.87667,16.24,TRADE
QLD1,"2003/10/02 01:00",4652.19833,14.41,TRADE
QLD1,"2003/10/02 01:30",4500.20167,14.98,TRADE
QLD1,"2003/10/02 02:00",4372.73167,14.78,TRADE
QLD1,"2003/10/02 02:30",4256.05833,14.25,TRADE
QLD1,"2003/10/02 03:00",4217.37667,14.37,TRADE
QLD1,"2003/10/02 03:30",4140.215,14,TRADE
QLD1,"2003/10/02 04:00",4119.42667,13.7,TRADE
QLD1,"2003/10/02 04:30",4142.48,13.36,TRADE
QLD1,"2003/10/02 05:00",4220.01,13.85,TRADE
QLD1,"2003/10/02 05:30",4393.61667,14.52,TRADE
QLD1,"2003/10/02 06:00",4532.64667,14.84,TRADE
QLD1,"2003/10/02 06:30",4875.785,15.03,TRADE
QLD1,"2003/10/02 07:00",5165.72667,16.49,TRADE
QLD1,"2003/10/02 07:30",5545.08,17.52,TRADE
QLD1,"2003/10/02 08:00",5755.59833,18.8,TRADE
QLD1,"2003/10/02 08:30",5842.345,18.72,TRADE
QLD1,"2003/10/02 09:00",5908.985,18.77,TRADE
QLD1,"2003/10/02 09:30",5991.66167,20.4,TRADE
QLD1,"2003/10/02 10:00",5941.91667,18.58,TRADE
QLD1,"2003/10/02 10:30",5931.24,17.98,TRADE
QLD1,"2003/10/02 11:00",5880.34833,17.77,TRADE
QLD1,"2003/10/02 11:30",5839.645,17.58,TRADE
QLD1,"2003/10/02 12:00",5874.035,17.22,TRADE
QLD1,"2003/10/02 12:30",5872.66833,17.12,TRADE
QLD1,"2003/10/02 13:00",5789.33833,17.51,TRADE
QLD1,"2003/10/02 13:30",5777.27833,18.08,TRADE
QLD1,"2003/10/02 14:00",5762.41667,19.76,TRADE
QLD1,"2003/10/02 14:30",5810.70833,19.78,TRADE
QLD1,"2003/10/02 15:00",5755.42167,18.8,TRADE
QLD1,"2003/10/02 15:30",5756.06667,18.93,TRADE
QLD1,"2003/10/02 16:00",5764.52167,20.61,TRADE
QLD1,"2003/10/02 16:30",5787.87833,18.8,TRADE
QLD1,"2003/10/02 17:00",5756.285,9.36,TRADE
QLD1,"2003/10/02 17:30",5835.98833,11.15,TRADE
QLD1,"2003/10/02 18:00",6069.43167,12.27,TRADE
QLD1,"2003/10/02 18:30",6241.24167,37.08,TRADE
QLD1,"2003/10/02 19:00",6160.77833,24.98,TRADE
QLD1,"2003/10/02 19:30",5848.33833,11.78,TRADE
QLD1,"2003/10/02 20:00",5706.06667,11.82,TRADE
QLD1,"2003/10/02 20:30",5620.465,12.25,TRADE
QLD1,"2003/10/02 21:00",5483.4,12.73,TRADE
QLD1,"2003/10/02 21:30",5289.73,11.82,TRADE
QLD1,"2003/10/02 22:00",5252.63833,12.67,TRADE
QLD1,"2003/10/02 22:30",5242.63167,13.83,TRADE
QLD1,"2003/10/02 23:00",5133.53,13.56,TRADE
QLD1,"2003/10/02 23:30",5193.705,14.81,TRADE
QLD1,"2003/10/03 00:00",5005.76,13.19,TRADE
QLD1,"2003/10/03 00:30",4812.025,11.83,TRADE
QLD1,"2003/10/03 01:00",4641.355,11.78,TRADE
QLD1,"2003/10/03 01:30",4468.73,11.24,TRADE
QLD1,"2003/10/03 02:00",4359.34167,11.26,TRADE
QLD1,"2003/10/03 02:30",4216.16667,12.12,TRADE
QLD1,"2003/10/03 03:00",4155.25333,11.8,TRADE
QLD1,"2003/10/03 03:30",4130.69,11.11,TRADE
QLD1,"2003/10/03 04:00",4124.14,11.12,TRADE
QLD1,"2003/10/03 04:30",4140.69,12.01,TRADE
QLD1,"2003/10/03 05:00",4208.52167,12.44,TRADE
QLD1,"2003/10/03 05:30",4350.91,12.05,TRADE
QLD1,"2003/10/03 06:00",4468.42333,10.38,TRADE
QLD1,"2003/10/03 06:30",4858.405,16.21,TRADE
QLD1,"2003/10/03 07:00",5204.66,15.42,TRADE
QLD1,"2003/10/03 07:30",5547.92833,16.98,TRADE
QLD1,"2003/10/03 08:00",5885.14333,18.77,TRADE
QLD1,"2003/10/03 08:30",6064.73333,18.8,TRADE
QLD1,"2003/10/03 09:00",6143.30167,18.8,TRADE
QLD1,"2003/10/03 09:30",6193.49667,18.8,TRADE
QLD1,"2003/10/03 10:00",6168.38167,18.37,TRADE
QLD1,"2003/10/03 10:30",6143.545,17.62,TRADE
QLD1,"2003/10/03 11:00",6063.265,17.15,TRADE
QLD1,"2003/10/03 11:30",6056.245,17.36,TRADE
QLD1,"2003/10/03 12:00",6020.72,17.43,TRADE
QLD1,"2003/10/03 12:30",6051.94167,17.59,TRADE
QLD1,"2003/10/03 13:00",6021.36167,17.55,TRADE
QLD1,"2003/10/03 13:30",6000.46333,18.2,TRADE
QLD1,"2003/10/03 14:00",5956.06333,18.57,TRADE
QLD1,"2003/10/03 14:30",5951.08,19.96,TRADE
QLD1,"2003/10/03 15:00",5918.95833,19.68,TRADE
QLD1,"2003/10/03 15:30",5882.135,18.8,TRADE
QLD1,"2003/10/03 16:00",5788.56167,18.8,TRADE
QLD1,"2003/10/03 16:30",5786.05833,18.85,TRADE
QLD1,"2003/10/03 17:00",5850.565,18.8,TRADE
QLD1,"2003/10/03 17:30",5864.64167,19.12,TRADE
QLD1,"2003/10/03 18:00",5948.31,21.77,TRADE
QLD1,"2003/10/03 18:30",6041.32167,31.97,TRADE
QLD1,"2003/10/03 19:00",5999.99333,37.22,TRADE
QLD1,"2003/10/03 19:30",5856.11167,23,TRADE
QLD1,"2003/10/03 20:00",5735.895,18.89,TRADE
QLD1,"2003/10/03 20:30",5566.87333,18.77,TRADE
QLD1,"2003/10/03 21:00",5356.17167,18.38,TRADE
QLD1,"2003/10/03 21:30",5280.79667,18.6,TRADE
QLD1,"2003/10/03 22:00",5159.60667,17.55,TRADE
QLD1,"2003/10/03 22:30",5106.82333,17.82,TRADE
QLD1,"2003/10/03 23:00",5003.785,16.52,TRADE
QLD1,"2003/10/03 23:30",5001.43667,17.58,TRADE
QLD1,"2003/10/04 00:00",4795.59,15.99,TRADE
QLD1,"2003/10/04 00:30",4570.01833,15.41,TRADE
QLD1,"2003/10/04 01:00",4450.325,15.06,TRADE
QLD1,"2003/10/04 01:30",4273.675,13.72,TRADE
QLD1,"2003/10/04 02:00",4121.59333,11.88,TRADE
QLD1,"2003/10/04 02:30",4037.32,12.13,TRADE
QLD1,"2003/10/04 03:00",3975.73667,12.19,TRADE
QLD1,"2003/10/04 03:30",3959.40667,13.05,TRADE
QLD1,"2003/10/04 04:00",3928.80667,12.2,TRADE
QLD1,"2003/10/04 04:30",3948.80667,11.87,TRADE
QLD1,"2003/10/04 05:00",3982.86167,11.93,TRADE
QLD1,"2003/10/04 05:30",4051.37333,12.75,TRADE
QLD1,"2003/10/04 06:00",4143.53167,13.02,TRADE
QLD1,"2003/10/04 06:30",4297.52,12.05,TRADE
QLD1,"2003/10/04 07:00",4482.06,13.05,TRADE
QLD1,"2003/10/04 07:30",4733.35167,14.35,TRADE
QLD1,"2003/10/04 08:00",4950.64167,15.48,TRADE
QLD1,"2003/10/04 08:30",5202.50333,17.01,TRADE
QLD1,"2003/10/04 09:00",5340.64,18.75,TRADE
QLD1,"2003/10/04 09:30",5413.92667,18.8,TRADE
QLD1,"2003/10/04 10:00",5414.74833,18.8,TRADE
QLD1,"2003/10/04 10:30",5431.75667,18.8,TRADE
QLD1,"2003/10/04 11:00",5400.38,18.8,TRADE
QLD1,"2003/10/04 11:30",5334.41333,18.04,TRADE
QLD1,"2003/10/04 12:00",5284.8,16.16,TRADE
QLD1,"2003/10/04 12:30",5217.62333,15.74,TRADE
QLD1,"2003/10/04 13:00",5204.14667,16.06,TRADE
QLD1,"2003/10/04 13:30",5160.67,15.83,TRADE
QLD1,"2003/10/04 14:00",5123.85167,15.56,TRADE
QLD1,"2003/10/04 14:30",5084.07833,15.53,TRADE
QLD1,"2003/10/04 15:00",5036.575,15.53,TRADE
QLD1,"2003/10/04 15:30",5047.52167,15.55,TRADE
QLD1,"2003/10/04 16:00",5040.10833,15.33,TRADE
QLD1,"2003/10/04 16:30",5066.79,15.37,TRADE
QLD1,"2003/10/04 17:00",5124.17833,15.56,TRADE
QLD1,"2003/10/04 17:30",5276.55667,16.05,TRADE
QLD1,"2003/10/04 18:00",5491.31167,18.22,TRADE
QLD1,"2003/10/04 18:30",5765.16833,20.07,TRADE
QLD1,"2003/10/04 19:00",5793.67333,21.59,TRADE
QLD1,"2003/10/04 19:30",5649.09,18.94,TRADE
QLD1,"2003/10/04 20:00",5489.09167,18.47,TRADE
QLD1,"2003/10/04 20:30",5331.26833,18.02,TRADE
QLD1,"2003/10/04 21:00",5191.235,16.25,TRADE
QLD1,"2003/10/04 21:30",5095.40167,15.37,TRADE
QLD1,"2003/10/04 22:00",4999.51833,14.88,TRADE
QLD1,"2003/10/04 22:30",4978.95,15.34,TRADE
QLD1,"2003/10/04 23:00",4971.17167,14.94,TRADE
QLD1,"2003/10/04 23:30",5003.98167,16.01,TRADE
QLD1,"2003/10/05 00:00",4830.98667,14.93,TRADE
QLD1,"2003/10/05 00:30",4635.60333,14.08,TRADE
QLD1,"2003/10/05 01:00",4511.38,12.31,TRADE
QLD1,"2003/10/05 01:30",4346.65167,11.8,TRADE
QLD1,"2003/10/05 02:00",4177.63833,11.8,TRADE
QLD1,"2003/10/05 02:30",4048.32167,11.8,TRADE
QLD1,"2003/10/05 03:00",3903.41167,10.94,TRADE
QLD1,"2003/10/05 03:30",3897.08,11.8,TRADE
QLD1,"2003/10/05 04:00",3855.58,11.16,TRADE
QLD1,"2003/10/05 04:30",3822.73167,10.32,TRADE
QLD1,"2003/10/05 05:00",3834.40167,9.86,TRADE
QLD1,"2003/10/05 05:30",3858.02,10.12,TRADE
QLD1,"2003/10/05 06:00",3854.54333,9.8,TRADE
QLD1,"2003/10/05 06:30",3944.72667,9.11,TRADE
QLD1,"2003/10/05 07:00",4093.20333,9.58,TRADE
QLD1,"2003/10/05 07:30",4299.54833,10.54,TRADE
QLD1,"2003/10/05 08:00",4582.29333,12.09,TRADE
QLD1,"2003/10/05 08:30",4807.23333,12.93,TRADE
QLD1,"2003/10/05 09:00",4943.75667,13.44,TRADE
QLD1,"2003/10/05 09:30",5038.07333,14.17,TRADE
QLD1,"2003/10/05 10:00",5091.11,14.37,TRADE
QLD1,"2003/10/05 10:30",5124.675,14.59,TRADE
QLD1,"2003/10/05 11:00",5094.19667,14.34,TRADE
QLD1,"2003/10/05 11:30",5056.07833,14.46,TRADE
QLD1,"2003/10/05 12:00",5025.56333,14.4,TRADE
QLD1,"2003/10/05 12:30",5015.09667,14.22,TRADE
QLD1,"2003/10/05 13:00",5007.01667,13.87,TRADE
QLD1,"2003/10/05 13:30",4968.95333,13.72,TRADE
QLD1,"2003/10/05 14:00",4956.34167,13.08,TRADE
QLD1,"2003/10/05 14:30",4933.825,12.86,TRADE
QLD1,"2003/10/05 15:00",4886.66,12.63,TRADE
QLD1,"2003/10/05 15:30",4936.71667,13.61,TRADE
QLD1,"2003/10/05 16:00",4936.2,13.8,TRADE
QLD1,"2003/10/05 16:30",4964.05667,13.91,TRADE
QLD1,"2003/10/05 17:00",5076.70667,14.47,TRADE
QLD1,"2003/10/05 17:30",5194.37,14.84,TRADE
QLD1,"2003/10/05 18:00",5458.37667,16.82,TRADE
QLD1,"2003/10/05 18:30",5782.035,18.98,TRADE
QLD1,"2003/10/05 19:00",5816.12333,18.97,TRADE
QLD1,"2003/10/05 19:30",5638.79667,18.32,TRADE
QLD1,"2003/10/05 20:00",5468.99,16.91,TRADE
QLD1,"2003/10/05 20:30",5300.53167,15.07,TRADE
QLD1,"2003/10/05 21:00",5121.46167,14.63,TRADE
QLD1,"2003/10/05 21:30",5135.23,14.73,TRADE
QLD1,"2003/10/05 22:00",5072.12167,14.53,TRADE
QLD1,"2003/10/05 22:30",4972.93333,14.2,TRADE
QLD1,"2003/10/05 23:00",4912.28667,13.77,TRADE
QLD1,"2003/10/05 23:30",4938.04833,14.6,TRADE
QLD1,"2003/10/06 00:00",4783.70833,13.58,TRADE
QLD1,"2003/10/06 00:30",4611.59833,13.13,TRADE
QLD1,"2003/10/06 01:00",4503.59,11.99,TRADE
QLD1,"2003/10/06 01:30",4313.62833,11.8,TRADE
QLD1,"2003/10/06 02:00",4167.32,11.66,TRADE
QLD1,"2003/10/06 02:30",4101.955,11.67,TRADE
QLD1,"2003/10/06 03:00",3994.23333,10.66,TRADE
QLD1,"2003/10/06 03:30",4007.18833,10.93,TRADE
QLD1,"2003/10/06 04:00",3989.91667,10.42,TRADE
QLD1,"2003/10/06 04:30",3964.21333,10.01,TRADE
QLD1,"2003/10/06 05:00",4028.40167,10.24,TRADE
QLD1,"2003/10/06 05:30",4174.37333,11.37,TRADE
QLD1,"2003/10/06 06:00",4347.46333,11.13,TRADE
QLD1,"2003/10/06 06:30",4788.675,12.83,TRADE
QLD1,"2003/10/06 07:00",5154.80833,13.7,TRADE
QLD1,"2003/10/06 07:30",5572.625,15.63,TRADE
QLD1,"2003/10/06 08:00",5802.795,16.57,TRADE
QLD1,"2003/10/06 08:30",5940.68667,18.4,TRADE
QLD1,"2003/10/06 09:00",5982.14,18.59,TRADE
QLD1,"2003/10/06 09:30",5958.265,18.8,TRADE
QLD1,"2003/10/06 10:00",5942.89,18.8,TRADE
QLD1,"2003/10/06 10:30",5870.81,16.95,TRADE
QLD1,"2003/10/06 11:00",5915.92667,17.6,TRADE
QLD1,"2003/10/06 11:30",5899.24,18.64,TRADE
QLD1,"2003/10/06 12:00",5880.53333,20.47,TRADE
QLD1,"2003/10/06 12:30",5905.655,20.6,TRADE
QLD1,"2003/10/06 13:00",5852.95333,20.48,TRADE
QLD1,"2003/10/06 13:30",5855.61667,19.56,TRADE
QLD1,"2003/10/06 14:00",5857.10333,19.06,TRADE
QLD1,"2003/10/06 14:30",5856.85,18.8,TRADE
QLD1,"2003/10/06 15:00",5843.66833,18.74,TRADE
QLD1,"2003/10/06 15:30",5842.055,18.57,TRADE
QLD1,"2003/10/06 16:00",5892.03167,18.76,TRADE
QLD1,"2003/10/06 16:30",5946.165,18.8,TRADE
QLD1,"2003/10/06 17:00",6056.955,19.72,TRADE
QLD1,"2003/10/06 17:30",6112.89333,20.29,TRADE
QLD1,"2003/10/06 18:00",6272.305,22.88,TRADE
QLD1,"2003/10/06 18:30",6376.91167,26.03,TRADE
QLD1,"2003/10/06 19:00",6299.67333,30.62,TRADE
QLD1,"2003/10/06 19:30",6085.935,20.6,TRADE
QLD1,"2003/10/06 20:00",5930.32833,19.09,TRADE
QLD1,"2003/10/06 20:30",5767.50167,18.78,TRADE
QLD1,"2003/10/06 21:00",5561.89,18.29,TRADE
QLD1,"2003/10/06 21:30",5479.01,18.35,TRADE
QLD1,"2003/10/06 22:00",5332.94333,16.43,TRADE
QLD1,"2003/10/06 22:30",5296.57167,16.25,TRADE
QLD1,"2003/10/06 23:00",5152.70167,14.96,TRADE
QLD1,"2003/10/06 23:30",5184.59667,16.69,TRADE
QLD1,"2003/10/07 00:00",4997.92833,15.2,TRADE
QLD1,"2003/10/07 00:30",4790.21167,14.64,TRADE
QLD1,"2003/10/07 01:00",4647.70333,14.32,TRADE
QLD1,"2003/10/07 01:30",4478.23667,13.13,TRADE
QLD1,"2003/10/07 02:00",4354.11167,13.11,TRADE
QLD1,"2003/10/07 02:30",4228.41,12.35,TRADE
QLD1,"2003/10/07 03:00",4155.93333,12.67,TRADE
QLD1,"2003/10/07 03:30",4118.41833,11.82,TRADE
QLD1,"2003/10/07 04:00",4059.14,11.21,TRADE
QLD1,"2003/10/07 04:30",4100.01667,11.44,TRADE
QLD1,"2003/10/07 05:00",4197.87167,11.83,TRADE
QLD1,"2003/10/07 05:30",4363.715,13.64,TRADE
QLD1,"2003/10/07 06:00",4583.97667,14.21,TRADE
QLD1,"2003/10/07 06:30",4959.93667,14.58,TRADE
QLD1,"2003/10/07 07:00",5348.365,16.93,TRADE
QLD1,"2003/10/07 07:30",5792.71833,18.2,TRADE
QLD1,"2003/10/07 08:00",6025.11833,18.82,TRADE
QLD1,"2003/10/07 08:30",6094.40333,18.98,TRADE
QLD1,"2003/10/07 09:00",6098.38667,18.8,TRADE
QLD1,"2003/10/07 09:30",6060.34,18.79,TRADE
QLD1,"2003/10/07 10:00",5974.735,18.49,TRADE
QLD1,"2003/10/07 10:30",5930.06833,18.28,TRADE
QLD1,"2003/10/07 11:00",5883.57667,18.73,TRADE
QLD1,"2003/10/07 11:30",5888.73667,19.22,TRADE
QLD1,"2003/10/07 12:00",5884.97167,18.8,TRADE
QLD1,"2003/10/07 12:30",5883.11667,18.15,TRADE
QLD1,"2003/10/07 13:00",5802.625,17.21,TRADE
QLD1,"2003/10/07 13:30",5801.21333,16.67,TRADE
QLD1,"2003/10/07 14:00",5799.89333,15.6,TRADE
QLD1,"2003/10/07 14:30",5822.325,15.52,TRADE
QLD1,"2003/10/07 15:00",5768.74,15.42,TRADE
QLD1,"2003/10/07 15:30",5734.23167,14.99,TRADE
QLD1,"2003/10/07 16:00",5784.48167,15.08,TRADE
QLD1,"2003/10/07 16:30",5852.05333,15.27,TRADE
QLD1,"2003/10/07 17:00",5938.47333,15.6,TRADE
QLD1,"2003/10/07 17:30",6073.515,16.91,TRADE
QLD1,"2003/10/07 18:00",6303.85667,18.8,TRADE
QLD1,"2003/10/07 18:30",6346.90667,18.98,TRADE
QLD1,"2003/10/07 19:00",6288.10833,19.07,TRADE
QLD1,"2003/10/07 19:30",6061.415,18.64,TRADE
QLD1,"2003/10/07 20:00",5950.58833,18.8,TRADE
QLD1,"2003/10/07 20:30",5824.455,18.74,TRADE
QLD1,"2003/10/07 21:00",5617.19667,17.18,TRADE
QLD1,"2003/10/07 21:30",5450.44667,14.85,TRADE
QLD1,"2003/10/07 22:00",5378.315,14.91,TRADE
QLD1,"2003/10/07 22:30",5337.38333,15.46,TRADE
QLD1,"2003/10/07 23:00",5229.13667,14.66,TRADE
QLD1,"2003/10/07 23:30",5224.90333,15.31,TRADE
QLD1,"2003/10/08 00:00",4989,14.26,TRADE
QLD1,"2003/10/08 00:30",4840.795,13.49,TRADE
QLD1,"2003/10/08 01:00",4630.29833,11.83,TRADE
QLD1,"2003/10/08 01:30",4407.59,11.29,TRADE
QLD1,"2003/10/08 02:00",4293.175,11.42,TRADE
QLD1,"2003/10/08 02:30",4159.91667,11.11,TRADE
QLD1,"2003/10/08 03:00",4058.73833,11.02,TRADE
QLD1,"2003/10/08 03:30",4049.51167,10.94,TRADE
QLD1,"2003/10/08 04:00",4057.47167,11.29,TRADE
QLD1,"2003/10/08 04:30",4081.785,11.11,TRADE
QLD1,"2003/10/08 05:00",4141.92,11.55,TRADE
QLD1,"2003/10/08 05:30",4319.83,12.81,TRADE
QLD1,"2003/10/08 06:00",4527.84167,13.6,TRADE
QLD1,"2003/10/08 06:30",4944.81667,13.69,TRADE
QLD1,"2003/10/08 07:00",5345.46,14.82,TRADE
QLD1,"2003/10/08 07:30",5710.53833,16.09,TRADE
QLD1,"2003/10/08 08:00",5834.06833,16.41,TRADE
QLD1,"2003/10/08 08:30",5982.38333,18.14,TRADE
QLD1,"2003/10/08 09:00",5945.38833,17.99,TRADE
QLD1,"2003/10/08 09:30",5938.85,18.22,TRADE
QLD1,"2003/10/08 10:00",5853.15333,16.61,TRADE
QLD1,"2003/10/08 10:30",5857.26167,16.77,TRADE
QLD1,"2003/10/08 11:00",5819.19667,16.02,TRADE
QLD1,"2003/10/08 11:30",5846.22833,16.19,TRADE
QLD1,"2003/10/08 12:00",5831.05,16.74,TRADE
QLD1,"2003/10/08 12:30",5816.275,16.24,TRADE
QLD1,"2003/10/08 13:00",5790.83167,16.29,TRADE
QLD1,"2003/10/08 13:30",5804.83667,17.92,TRADE
QLD1,"2003/10/08 14:00",5712.79333,17.01,TRADE
QLD1,"2003/10/08 14:30",5799.115,18.65,TRADE
QLD1,"2003/10/08 15:00",5817.93833,17.16,TRADE
QLD1,"2003/10/08 15:30",5797.75,16.27,TRADE
QLD1,"2003/10/08 16:00",5790.60167,15.89,TRADE
QLD1,"2003/10/08 16:30",5788.23333,16.76,TRADE
QLD1,"2003/10/08 17:00",5831.84667,16.92,TRADE
QLD1,"2003/10/08 17:30",5843.4,17.54,TRADE
QLD1,"2003/10/08 18:00",5931.67167,17.58,TRADE
QLD1,"2003/10/08 18:30",6112.78333,18.7,TRADE
QLD1,"2003/10/08 19:00",6194.79667,18.8,TRADE
QLD1,"2003/10/08 19:30",6019.56,18.22,TRADE
QLD1,"2003/10/08 20:00",5818.79167,15.59,TRADE
QLD1,"2003/10/08 20:30",5695.22333,16.85,TRADE
QLD1,"2003/10/08 21:00",5536.905,15.06,TRADE
QLD1,"2003/10/08 21:30",5445.04333,14.63,TRADE
QLD1,"2003/10/08 22:00",5387.1,14.35,TRADE
QLD1,"2003/10/08 22:30",5313.90167,14.5,TRADE
QLD1,"2003/10/08 23:00",5159.09333,14.05,TRADE
QLD1,"2003/10/08 23:30",5150.93,14.66,TRADE
QLD1,"2003/10/09 00:00",4980.25667,14.12,TRADE
QLD1,"2003/10/09 00:30",4764.96167,12.73,TRADE
QLD1,"2003/10/09 01:00",4599.77,11.85,TRADE
QLD1,"2003/10/09 01:30",4441.65,12.24,TRADE
QLD1,"2003/10/09 02:00",4306.73167,11.9,TRADE
QLD1,"2003/10/09 02:30",4155.54,11.8,TRADE
QLD1,"2003/10/09 03:00",4109.56667,11.85,TRADE
QLD1,"2003/10/09 03:30",4051.23167,11.07,TRADE
QLD1,"2003/10/09 04:00",4044.31667,10.5,TRADE
QLD1,"2003/10/09 04:30",4071.59,10.85,TRADE
QLD1,"2003/10/09 05:00",4127.77167,10.9,TRADE
QLD1,"2003/10/09 05:30",4330.12167,11.89,TRADE
QLD1,"2003/10/09 06:00",4517.39,12.75,TRADE
QLD1,"2003/10/09 06:30",4927.56833,13.41,TRADE
QLD1,"2003/10/09 07:00",5336.31167,14.82,TRADE
QLD1,"2003/10/09 07:30",5704.18167,16.08,TRADE
QLD1,"2003/10/09 08:00",5888.44333,16.2,TRADE
QLD1,"2003/10/09 08:30",6000.78167,16.63,TRADE
QLD1,"2003/10/09 09:00",5981.27833,15.98,TRADE
QLD1,"2003/10/09 09:30",5889.01667,15.34,TRADE
QLD1,"2003/10/09 10:00",5894.11333,15.12,TRADE
QLD1,"2003/10/09 10:30",5885.04667,15.08,TRADE
QLD1,"2003/10/09 11:00",5873.165,15.02,TRADE
QLD1,"2003/10/09 11:30",5939.97333,15.58,TRADE
QLD1,"2003/10/09 12:00",5924.8,15.58,TRADE
QLD1,"2003/10/09 12:30",5965.96833,15.62,TRADE
QLD1,"2003/10/09 13:00",5940.075,15.52,TRADE
QLD1,"2003/10/09 13:30",5963.355,15.88,TRADE
QLD1,"2003/10/09 14:00",5991.15333,16.44,TRADE
QLD1,"2003/10/09 14:30",5959.13333,15.78,TRADE
QLD1,"2003/10/09 15:00",5931.97,15.33,TRADE
QLD1,"2003/10/09 15:30",5944.74167,15.38,TRADE
QLD1,"2003/10/09 16:00",5946.46667,15.52,TRADE
QLD1,"2003/10/09 16:30",5925.695,15.32,TRADE
QLD1,"2003/10/09 17:00",5926.515,15.39,TRADE
QLD1,"2003/10/09 17:30",5940.09,15.92,TRADE
QLD1,"2003/10/09 18:00",6109.97167,18.56,TRADE
QLD1,"2003/10/09 18:30",6297.405,18.8,TRADE
QLD1,"2003/10/09 19:00",6368.89167,19.08,TRADE
QLD1,"2003/10/09 19:30",6186.25667,18.8,TRADE
QLD1,"2003/10/09 20:00",6061.405,18.2,TRADE
QLD1,"2003/10/09 20:30",5919.32667,18.2,TRADE
QLD1,"2003/10/09 21:00",5782.57833,18.21,TRADE
QLD1,"2003/10/09 21:30",5598.36833,16.02,TRADE
QLD1,"2003/10/09 22:00",5463.46833,15.24,TRADE
QLD1,"2003/10/09 22:30",5398.9,16.32,TRADE
QLD1,"2003/10/09 23:00",5248.32,15.34,TRADE
QLD1,"2003/10/09 23:30",5274.64167,16.9,TRADE
QLD1,"2003/10/10 00:00",5059.46833,15,TRADE
QLD1,"2003/10/10 00:30",4824.13833,13.68,TRADE
QLD1,"2003/10/10 01:00",4648.98333,11.9,TRADE
QLD1,"2003/10/10 01:30",4424.21833,11.8,TRADE
QLD1,"2003/10/10 02:00",4315.18333,12.55,TRADE
QLD1,"2003/10/10 02:30",4176.42333,11.85,TRADE
QLD1,"2003/10/10 03:00",4141.58333,11.97,TRADE
QLD1,"2003/10/10 03:30",4093.91833,11.87,TRADE
QLD1,"2003/10/10 04:00",4080.98,11.84,TRADE
QLD1,"2003/10/10 04:30",4116.68333,11.8,TRADE
QLD1,"2003/10/10 05:00",4150.475,11.89,TRADE
QLD1,"2003/10/10 05:30",4320.36667,12.52,TRADE
QLD1,"2003/10/10 06:00",4492.68667,13.29,TRADE
QLD1,"2003/10/10 06:30",4898.345,13.32,TRADE
QLD1,"2003/10/10 07:00",5305.23,15.69,TRADE
QLD1,"2003/10/10 07:30",5698.20833,17.44,TRADE
QLD1,"2003/10/10 08:00",5957.72167,18.8,TRADE
QLD1,"2003/10/10 08:30",6016.84333,18.8,TRADE
QLD1,"2003/10/10 09:00",5990.37833,18.8,TRADE
QLD1,"2003/10/10 09:30",5997.12833,18.8,TRADE
QLD1,"2003/10/10 10:00",5962.07333,18.8,TRADE
QLD1,"2003/10/10 10:30",5969.38,18.8,TRADE
QLD1,"2003/10/10 11:00",5948.44333,18.8,TRADE
QLD1,"2003/10/10 11:30",5953.41833,18.8,TRADE
QLD1,"2003/10/10 12:00",5928.585,19.44,TRADE
QLD1,"2003/10/10 12:30",5939.70333,18.99,TRADE
QLD1,"2003/10/10 13:00",5856.285,18.8,TRADE
QLD1,"2003/10/10 13:30",5855.20333,18.8,TRADE
QLD1,"2003/10/10 14:00",5853.97167,18.59,TRADE
QLD1,"2003/10/10 14:30",5861.63667,18.38,TRADE
QLD1,"2003/10/10 15:00",5791.66333,18,TRADE
QLD1,"2003/10/10 15:30",5703.80667,17.24,TRADE
QLD1,"2003/10/10 16:00",5731.01667,16.71,TRADE
QLD1,"2003/10/10 16:30",5775.01333,16.58,TRADE
QLD1,"2003/10/10 17:00",5839.51667,16.72,TRADE
QLD1,"2003/10/10 17:30",5876.315,17.79,TRADE
QLD1,"2003/10/10 18:00",5929.7,18.47,TRADE
QLD1,"2003/10/10 18:30",6037.71167,18.87,TRADE
QLD1,"2003/10/10 19:00",6083.75333,23.16,TRADE
QLD1,"2003/10/10 19:30",5895.07167,18.8,TRADE
QLD1,"2003/10/10 20:00",5756.705,18.37,TRADE
QLD1,"2003/10/10 20:30",5562.81167,17.79,TRADE
QLD1,"2003/10/10 21:00",5438.335,16.82,TRADE
QLD1,"2003/10/10 21:30",5337.79167,15.27,TRADE
QLD1,"2003/10/10 22:00",5264.64833,14.71,TRADE
QLD1,"2003/10/10 22:30",5253.74833,16.2,TRADE
QLD1,"2003/10/10 23:00",5180.78,14.98,TRADE
QLD1,"2003/10/10 23:30",5218.73333,17.01,TRADE
QLD1,"2003/10/11 00:00",5044.60667,15.59,TRADE
QLD1,"2003/10/11 00:30",4790.70667,12.98,TRADE
QLD1,"2003/10/11 01:00",4625.03333,14.27,TRADE
QLD1,"2003/10/11 01:30",4437.93,13.17,TRADE
QLD1,"2003/10/11 02:00",4306.34667,11.9,TRADE
QLD1,"2003/10/11 02:30",4182.14333,13.74,TRADE
QLD1,"2003/10/11 03:00",4096.25667,13.82,TRADE
QLD1,"2003/10/11 03:30",4047.6,13.25,TRADE
QLD1,"2003/10/11 04:00",4024.35833,12.45,TRADE
QLD1,"2003/10/11 04:30",3999.94833,11.89,TRADE
QLD1,"2003/10/11 05:00",4015.11833,11.8,TRADE
QLD1,"2003/10/11 05:30",4078.16,12.24,TRADE
QLD1,"2003/10/11 06:00",4159.18167,13.06,TRADE
QLD1,"2003/10/11 06:30",4310.695,11.72,TRADE
QLD1,"2003/10/11 07:00",4498.44833,12.88,TRADE
QLD1,"2003/10/11 07:30",4761.72167,13.85,TRADE
QLD1,"2003/10/11 08:00",5007.165,15.25,TRADE
QLD1,"2003/10/11 08:30",5222.89667,18.05,TRADE
QLD1,"2003/10/11 09:00",5333.84833,18.75,TRADE
QLD1,"2003/10/11 09:30",5382.69333,22.94,TRADE
QLD1,"2003/10/11 10:00",5376.74,21.79,TRADE
QLD1,"2003/10/11 10:30",5359.225,18.8,TRADE
QLD1,"2003/10/11 11:00",5302.91833,18.77,TRADE
QLD1,"2003/10/11 11:30",5247.07667,18.44,TRADE
QLD1,"2003/10/11 12:00",5201.72667,17.97,TRADE
QLD1,"2003/10/11 12:30",5146.45833,16.13,TRADE
QLD1,"2003/10/11 13:00",5097.39167,14.93,TRADE
QLD1,"2003/10/11 13:30",5080.76,14.58,TRADE
QLD1,"2003/10/11 14:00",5043.24167,14.44,TRADE
QLD1,"2003/10/11 14:30",5007.90167,14.42,TRADE
QLD1,"2003/10/11 15:00",4993.30667,14.36,TRADE
QLD1,"2003/10/11 15:30",5023.81167,14.4,TRADE
QLD1,"2003/10/11 16:00",5040.77167,14.46,TRADE
QLD1,"2003/10/11 16:30",5016.22167,14.42,TRADE
QLD1,"2003/10/11 17:00",5091.57167,14.8,TRADE
QLD1,"2003/10/11 17:30",5200.28833,15.11,TRADE
QLD1,"2003/10/11 18:00",5354.86333,17.82,TRADE
QLD1,"2003/10/11 18:30",5626.265,23.39,TRADE
QLD1,"2003/10/11 19:00",5759.47167,36.08,TRADE
QLD1,"2003/10/11 19:30",5620.11,28.74,TRADE
QLD1,"2003/10/11 20:00",5490.78333,18.8,TRADE
QLD1,"2003/10/11 20:30",5300.72167,17.75,TRADE
QLD1,"2003/10/11 21:00",5129.66667,15.77,TRADE
QLD1,"2003/10/11 21:30",5039.06,14.68,TRADE
QLD1,"2003/10/11 22:00",4977.51333,14.26,TRADE
QLD1,"2003/10/11 22:30",4985.4,14.75,TRADE
QLD1,"2003/10/11 23:00",4953.81833,14.59,TRADE
QLD1,"2003/10/11 23:30",4985.095,15.29,TRADE
QLD1,"2003/10/12 00:00",4813.18333,14.39,TRADE
QLD1,"2003/10/12 00:30",4637.245,13.06,TRADE
QLD1,"2003/10/12 01:00",4505.87667,11.88,TRADE
QLD1,"2003/10/12 01:30",4305.13,11.31,TRADE
QLD1,"2003/10/12 02:00",4165.74833,11.47,TRADE
QLD1,"2003/10/12 02:30",4069.425,11.63,TRADE
QLD1,"2003/10/12 03:00",3991.105,11.78,TRADE
QLD1,"2003/10/12 03:30",3934.49667,10.98,TRADE
QLD1,"2003/10/12 04:00",3909.57667,9.98,TRADE
QLD1,"2003/10/12 04:30",3907.11667,9.59,TRADE
QLD1,"2003/10/12 05:00",3900.71333,9.68,TRADE
QLD1,"2003/10/12 05:30",3950.58333,9.68,TRADE
QLD1,"2003/10/12 06:00",3986.145,9.75,TRADE
QLD1,"2003/10/12 06:30",4065.28167,10.08,TRADE
QLD1,"2003/10/12 07:00",4160.91333,9.36,TRADE
QLD1,"2003/10/12 07:30",4385.06167,10.55,TRADE
QLD1,"2003/10/12 08:00",4613.04167,12.25,TRADE
QLD1,"2003/10/12 08:30",4818.77167,13.34,TRADE
QLD1,"2003/10/12 09:00",4952.39667,13.64,TRADE
QLD1,"2003/10/12 09:30",5021.03333,13.92,TRADE
QLD1,"2003/10/12 10:00",5044.34833,14.12,TRADE
QLD1,"2003/10/12 10:30",5056.25667,14.12,TRADE
QLD1,"2003/10/12 11:00",5008.90667,13.59,TRADE
QLD1,"2003/10/12 11:30",4967.74,12.94,TRADE
QLD1,"2003/10/12 12:00",4923.30333,11.88,TRADE
QLD1,"2003/10/12 12:30",4950.83333,12.25,TRADE
QLD1,"2003/10/12 13:00",4919.45333,12.17,TRADE
QLD1,"2003/10/12 13:30",4873.26,11.9,TRADE
QLD1,"2003/10/12 14:00",4863.495,11.97,TRADE
QLD1,"2003/10/12 14:30",4846.19333,11.92,TRADE
QLD1,"2003/10/12 15:00",4845.28,11.93,TRADE
QLD1,"2003/10/12 15:30",4875.51,11.99,TRADE
QLD1,"2003/10/12 16:00",4868.715,11.96,TRADE
QLD1,"2003/10/12 16:30",4880.09667,12.02,TRADE
QLD1,"2003/10/12 17:00",4986.28667,12.83,TRADE
QLD1,"2003/10/12 17:30",5194.555,13.88,TRADE
QLD1,"2003/10/12 18:00",5451.67833,15.16,TRADE
QLD1,"2003/10/12 18:30",5721.68167,18.21,TRADE
QLD1,"2003/10/12 19:00",5860.22667,20.33,TRADE
QLD1,"2003/10/12 19:30",5735.87333,19.48,TRADE
QLD1,"2003/10/12 20:00",5631.23333,18.92,TRADE
QLD1,"2003/10/12 20:30",5388.71,17.75,TRADE
QLD1,"2003/10/12 21:00",5269.89,16.55,TRADE
QLD1,"2003/10/12 21:30",5235.34833,15.25,TRADE
QLD1,"2003/10/12 22:00",5052.04333,14.28,TRADE
QLD1,"2003/10/12 22:30",4988.09833,14.35,TRADE
QLD1,"2003/10/12 23:00",4940.26,14.32,TRADE
QLD1,"2003/10/12 23:30",4958.93833,14.48,TRADE
QLD1,"2003/10/13 00:00",4814.22833,13.85,TRADE
QLD1,"2003/10/13 00:30",4644.66167,12.29,TRADE
QLD1,"2003/10/13 01:00",4516.605,11.85,TRADE
QLD1,"2003/10/13 01:30",4343.49667,11.67,TRADE
QLD1,"2003/10/13 02:00",4237.965,11.46,TRADE
QLD1,"2003/10/13 02:30",4142.24667,11.73,TRADE
QLD1,"2003/10/13 03:00",4090.35833,11.69,TRADE
QLD1,"2003/10/13 03:30",4050.42167,11.4,TRADE
QLD1,"2003/10/13 04:00",4076.54167,11.43,TRADE
QLD1,"2003/10/13 04:30",4064.22833,11.42,TRADE
QLD1,"2003/10/13 05:00",4046.81333,11.44,TRADE
QLD1,"2003/10/13 05:30",4286.08167,12.85,TRADE
QLD1,"2003/10/13 06:00",4501.345,13.05,TRADE
QLD1,"2003/10/13 06:30",4897.695,13.13,TRADE
QLD1,"2003/10/13 07:00",5283.55833,14.27,TRADE
QLD1,"2003/10/13 07:30",5681.93833,15.76,TRADE
QLD1,"2003/10/13 08:00",5868.53333,16.26,TRADE
QLD1,"2003/10/13 08:30",5946.48667,16.91,TRADE
QLD1,"2003/10/13 09:00",5886.32667,15.14,TRADE
QLD1,"2003/10/13 09:30",5853.96833,14.79,TRADE
QLD1,"2003/10/13 10:00",5796.72667,14.66,TRADE
QLD1,"2003/10/13 10:30",5789.95,14.83,TRADE
QLD1,"2003/10/13 11:00",5726.265,14.59,TRADE
QLD1,"2003/10/13 11:30",5740.225,14.88,TRADE
QLD1,"2003/10/13 12:00",5733.61333,14.87,TRADE
QLD1,"2003/10/13 12:30",5703.265,14.9,TRADE
QLD1,"2003/10/13 13:00",5698.47667,14.96,TRADE
QLD1,"2003/10/13 13:30",5683.3,15.06,TRADE
QLD1,"2003/10/13 14:00",5667.20667,15.45,TRADE
QLD1,"2003/10/13 14:30",5656.02333,15.36,TRADE
QLD1,"2003/10/13 15:00",5636.695,14.95,TRADE
QLD1,"2003/10/13 15:30",5653.465,15.44,TRADE
QLD1,"2003/10/13 16:00",5682.26,15.53,TRADE
QLD1,"2003/10/13 16:30",5715.68,15.31,TRADE
QLD1,"2003/10/13 17:00",5761.28667,15.54,TRADE
QLD1,"2003/10/13 17:30",5809.235,16.19,TRADE
QLD1,"2003/10/13 18:00",5943.80333,16.7,TRADE
QLD1,"2003/10/13 18:30",6196.84,18.83,TRADE
QLD1,"2003/10/13 19:00",6241.53167,18.82,TRADE
QLD1,"2003/10/13 19:30",6007.33667,17.19,TRADE
QLD1,"2003/10/13 20:00",5829.08667,15.99,TRADE
QLD1,"2003/10/13 20:30",5734.145,17.52,TRADE
QLD1,"2003/10/13 21:00",5468.715,15.58,TRADE
QLD1,"2003/10/13 21:30",5437.97333,15.55,TRADE
QLD1,"2003/10/13 22:00",5359.27333,14.82,TRADE
QLD1,"2003/10/13 22:30",5264.67167,14.9,TRADE
QLD1,"2003/10/13 23:00",5201.99333,14.56,TRADE
QLD1,"2003/10/13 23:30",5174.23667,14.94,TRADE
QLD1,"2003/10/14 00:00",5030.02,14.72,TRADE
QLD1,"2003/10/14 00:30",4862.14,14.51,TRADE
QLD1,"2003/10/14 01:00",4700.695,13.92,TRADE
QLD1,"2003/10/14 01:30",4565.72667,12.77,TRADE
QLD1,"2003/10/14 02:00",4400.85667,11.87,TRADE
QLD1,"2003/10/14 02:30",4233.11333,11.82,TRADE
QLD1,"2003/10/14 03:00",4167.74667,11.9,TRADE
QLD1,"2003/10/14 03:30",4113.775,11.87,TRADE
QLD1,"2003/10/14 04:00",4132.64833,11.85,TRADE
QLD1,"2003/10/14 04:30",4099.57667,11.84,TRADE
QLD1,"2003/10/14 05:00",4168.85833,11.92,TRADE
QLD1,"2003/10/14 05:30",4339.2,12.92,TRADE
QLD1,"2003/10/14 06:00",4575.56667,13.47,TRADE
QLD1,"2003/10/14 06:30",4975.85333,13.46,TRADE
QLD1,"2003/10/14 07:00",5390.21833,15.82,TRADE
QLD1,"2003/10/14 07:30",5736.99,16.24,TRADE
QLD1,"2003/10/14 08:00",5868.36833,15.7,TRADE
QLD1,"2003/10/14 08:30",5925.24333,14.88,TRADE
QLD1,"2003/10/14 09:00",5902.76167,14.4,TRADE
QLD1,"2003/10/14 09:30",5866.765,14.65,TRADE
QLD1,"2003/10/14 10:00",5811.17833,14.67,TRADE
QLD1,"2003/10/14 10:30",5781.50667,14.59,TRADE
QLD1,"2003/10/14 11:00",5759.24333,14.65,TRADE
QLD1,"2003/10/14 11:30",5739.895,15.17,TRADE
QLD1,"2003/10/14 12:00",5702.75667,15,TRADE
QLD1,"2003/10/14 12:30",5696.16333,14.93,TRADE
QLD1,"2003/10/14 13:00",5671.99,14.93,TRADE
QLD1,"2003/10/14 13:30",5692.82667,15.78,TRADE
QLD1,"2003/10/14 14:00",5663.28167,15.58,TRADE
QLD1,"2003/10/14 14:30",5715.86167,15,TRADE
QLD1,"2003/10/14 15:00",5679.04333,14.43,TRADE
QLD1,"2003/10/14 15:30",5706.86333,14.46,TRADE
QLD1,"2003/10/14 16:00",5716.56167,14.5,TRADE
QLD1,"2003/10/14 16:30",5774.12333,14.9,TRADE
QLD1,"2003/10/14 17:00",5848.52667,15.04,TRADE
QLD1,"2003/10/14 17:30",5940.855,15.11,TRADE
QLD1,"2003/10/14 18:00",6079.28,16.09,TRADE
QLD1,"2003/10/14 18:30",6239.53,17.51,TRADE
QLD1,"2003/10/14 19:00",6323.18333,18.65,TRADE
QLD1,"2003/10/14 19:30",6054.97333,16.06,TRADE
QLD1,"2003/10/14 20:00",5959.69,15.88,TRADE
QLD1,"2003/10/14 20:30",5839.45667,16.74,TRADE
QLD1,"2003/10/14 21:00",5637.72667,15.74,TRADE
QLD1,"2003/10/14 21:30",5524.50667,15.09,TRADE
QLD1,"2003/10/14 22:00",5422.70667,14.35,TRADE
QLD1,"2003/10/14 22:30",5365.62333,15.62,TRADE
QLD1,"2003/10/14 23:00",5225.18833,14.26,TRADE
QLD1,"2003/10/14 23:30",5258.63667,15.58,TRADE
QLD1,"2003/10/15 00:00",5088.08833,14.12,TRADE
QLD1,"2003/10/15 00:30",4846.04167,11.85,TRADE
QLD1,"2003/10/15 01:00",4670.17333,11.8,TRADE
QLD1,"2003/10/15 01:30",4482.39333,11.67,TRADE
QLD1,"2003/10/15 02:00",4354.385,11.38,TRADE
QLD1,"2003/10/15 02:30",4227.485,11.7,TRADE
QLD1,"2003/10/15 03:00",4147.31333,11.49,TRADE
QLD1,"2003/10/15 03:30",4119.57667,10.75,TRADE
QLD1,"2003/10/15 04:00",4061.57167,9.63,TRADE
QLD1,"2003/10/15 04:30",4109.46,9.94,TRADE
QLD1,"2003/10/15 05:00",4150.195,9.93,TRADE
QLD1,"2003/10/15 05:30",4345.57167,11.14,TRADE
QLD1,"2003/10/15 06:00",4549.22,12.15,TRADE
QLD1,"2003/10/15 06:30",4936.72833,13.2,TRADE
QLD1,"2003/10/15 07:00",5387.37667,14.45,TRADE
QLD1,"2003/10/15 07:30",5718.17167,15.88,TRADE
QLD1,"2003/10/15 08:00",5862.895,17.9,TRADE
QLD1,"2003/10/15 08:30",5902.04833,16.77,TRADE
QLD1,"2003/10/15 09:00",5873.55,15.54,TRADE
QLD1,"2003/10/15 09:30",5845.58,15.33,TRADE
QLD1,"2003/10/15 10:00",5807.85833,15.35,TRADE
QLD1,"2003/10/15 10:30",5806.23667,15.64,TRADE
QLD1,"2003/10/15 11:00",5747.33,15.13,TRADE
QLD1,"2003/10/15 11:30",5776.725,15.58,TRADE
QLD1,"2003/10/15 12:00",5832.54333,17.57,TRADE
QLD1,"2003/10/15 12:30",5745.425,15.94,TRADE
QLD1,"2003/10/15 13:00",5742.985,14.86,TRADE
QLD1,"2003/10/15 13:30",5761.35167,14.64,TRADE
QLD1,"2003/10/15 14:00",5780.43167,14.45,TRADE
QLD1,"2003/10/15 14:30",5824.45833,14.52,TRADE
QLD1,"2003/10/15 15:00",5756.52833,14.58,TRADE
QLD1,"2003/10/15 15:30",5732.54833,14.59,TRADE
QLD1,"2003/10/15 16:00",5785.635,14.79,TRADE
QLD1,"2003/10/15 16:30",5813.40333,14.91,TRADE
QLD1,"2003/10/15 17:00",5773.24833,14.78,TRADE
QLD1,"2003/10/15 17:30",5783.79667,14.44,TRADE
QLD1,"2003/10/15 18:00",5939.29667,15.2,TRADE
QLD1,"2003/10/15 18:30",6119.25,16.44,TRADE
QLD1,"2003/10/15 19:00",6175.51,16.39,TRADE
QLD1,"2003/10/15 19:30",6023.19667,15.36,TRADE
QLD1,"2003/10/15 20:00",5911.93167,15.34,TRADE
QLD1,"2003/10/15 20:30",5761.11167,14.89,TRADE
QLD1,"2003/10/15 21:00",5611.94167,14.58,TRADE
QLD1,"2003/10/15 21:30",5519.80167,14.92,TRADE
QLD1,"2003/10/15 22:00",5441.27167,14.63,TRADE
QLD1,"2003/10/15 22:30",5336.64333,14.35,TRADE
QLD1,"2003/10/15 23:00",5222.17167,13.93,TRADE
QLD1,"2003/10/15 23:30",5194.18833,14.26,TRADE
QLD1,"2003/10/16 00:00",5047.65333,13.6,TRADE
QLD1,"2003/10/16 00:30",4814.32333,11.83,TRADE
QLD1,"2003/10/16 01:00",4625.74,11.78,TRADE
QLD1,"2003/10/16 01:30",4461.7,11.78,TRADE
QLD1,"2003/10/16 02:00",4317.545,11.34,TRADE
QLD1,"2003/10/16 02:30",4182.35333,11.91,TRADE
QLD1,"2003/10/16 03:00",4149.075,11.64,TRADE
QLD1,"2003/10/16 03:30",4098.86167,10.72,TRADE
QLD1,"2003/10/16 04:00",4075.645,10.01,TRADE
QLD1,"2003/10/16 04:30",4070.98,10.12,TRADE
QLD1,"2003/10/16 05:00",4187.235,11.42,TRADE
QLD1,"2003/10/16 05:30",4344.17667,11.99,TRADE
QLD1,"2003/10/16 06:00",4559.44167,12.74,TRADE
QLD1,"2003/10/16 06:30",4960.35167,12.49,TRADE
QLD1,"2003/10/16 07:00",5365.06833,15,TRADE
QLD1,"2003/10/16 07:30",5704.17,16.07,TRADE
QLD1,"2003/10/16 08:00",5841.88667,15.44,TRADE
QLD1,"2003/10/16 08:30",5921.41667,15.11,TRADE
QLD1,"2003/10/16 09:00",5886.00167,15.01,TRADE
QLD1,"2003/10/16 09:30",5935.30667,15.17,TRADE
QLD1,"2003/10/16 10:00",5860.7,14.98,TRADE
QLD1,"2003/10/16 10:30",5832.93167,14.81,TRADE
QLD1,"2003/10/16 11:00",5831.16,14.79,TRADE
QLD1,"2003/10/16 11:30",5855.11167,15.1,TRADE
QLD1,"2003/10/16 12:00",5883.6,15.35,TRADE
QLD1,"2003/10/16 12:30",5864.61333,15.47,TRADE
QLD1,"2003/10/16 13:00",5863.49667,15.11,TRADE
QLD1,"2003/10/16 13:30",5859.57,15.1,TRADE
QLD1,"2003/10/16 14:00",5831.79833,15.18,TRADE
QLD1,"2003/10/16 14:30",5826.33333,15.38,TRADE
QLD1,"2003/10/16 15:00",5785.03833,15.36,TRADE
QLD1,"2003/10/16 15:30",5741.64,14.99,TRADE
QLD1,"2003/10/16 16:00",5760.435,14.75,TRADE
QLD1,"2003/10/16 16:30",5789.39333,14.47,TRADE
QLD1,"2003/10/16 17:00",5845.165,14.84,TRADE
QLD1,"2003/10/16 17:30",5861.30333,14.61,TRADE
QLD1,"2003/10/16 18:00",6046.76667,15.91,TRADE
QLD1,"2003/10/16 18:30",6200.80167,16.57,TRADE
QLD1,"2003/10/16 19:00",6220,16.71,TRADE
QLD1,"2003/10/16 19:30",6031.72833,15.09,TRADE
QLD1,"2003/10/16 20:00",5954.24833,15.48,TRADE
QLD1,"2003/10/16 20:30",5830.535,15.64,TRADE
QLD1,"2003/10/16 21:00",5570.02333,14.63,TRADE
QLD1,"2003/10/16 21:30",5478.46,14.42,TRADE
QLD1,"2003/10/16 22:00",5346.93167,13.62,TRADE
QLD1,"2003/10/16 22:30",5301.685,14.3,TRADE
QLD1,"2003/10/16 23:00",5189.27333,13.41,TRADE
QLD1,"2003/10/16 23:30",5218.03,14.31,TRADE
QLD1,"2003/10/17 00:00",5028.88667,13.37,TRADE
QLD1,"2003/10/17 00:30",4792.26,11.87,TRADE
QLD1,"2003/10/17 01:00",4584.53667,11.64,TRADE
QLD1,"2003/10/17 01:30",4401.78,11.87,TRADE
QLD1,"2003/10/17 02:00",4277.31,11.8,TRADE
QLD1,"2003/10/17 02:30",4179.095,11.69,TRADE
QLD1,"2003/10/17 03:00",4080.93667,11.65,TRADE
QLD1,"2003/10/17 03:30",3932.41167,10.36,TRADE
QLD1,"2003/10/17 04:00",3975.625,10.33,TRADE
QLD1,"2003/10/17 04:30",4001.395,9.84,TRADE
QLD1,"2003/10/17 05:00",4054.23333,10.36,TRADE
QLD1,"2003/10/17 05:30",4259.16667,11.54,TRADE
QLD1,"2003/10/17 06:00",4520.905,12.43,TRADE
QLD1,"2003/10/17 06:30",4921.10833,12.48,TRADE
QLD1,"2003/10/17 07:00",5387.42667,14.46,TRADE
QLD1,"2003/10/17 07:30",5753.78333,16.51,TRADE
QLD1,"2003/10/17 08:00",5928.33833,17.74,TRADE
QLD1,"2003/10/17 08:30",5975.865,17.11,TRADE
QLD1,"2003/10/17 09:00",5962.71,16,TRADE
QLD1,"2003/10/17 09:30",5936.56667,16.23,TRADE
QLD1,"2003/10/17 10:00",5899.505,15.3,TRADE
QLD1,"2003/10/17 10:30",5879.34667,15.55,TRADE
QLD1,"2003/10/17 11:00",5839.17667,15.34,TRADE
QLD1,"2003/10/17 11:30",5802.94167,15.26,TRADE
QLD1,"2003/10/17 12:00",5802.43667,16.03,TRADE
QLD1,"2003/10/17 12:30",5825.55833,15.53,TRADE
QLD1,"2003/10/17 13:00",5693.00333,14.74,TRADE
QLD1,"2003/10/17 13:30",5021.22333,11.24,TRADE
QLD1,"2003/10/17 14:00",4795.69,11.45,TRADE
QLD1,"2003/10/17 14:30",5241.23667,13.59,TRADE
QLD1,"2003/10/17 15:00",5618.51833,14.42,TRADE
QLD1,"2003/10/17 15:30",5663.75333,13.47,TRADE
QLD1,"2003/10/17 16:00",5684.33333,14.1,TRADE
QLD1,"2003/10/17 16:30",5682.23667,14.04,TRADE
QLD1,"2003/10/17 17:00",5716.07167,14.46,TRADE
QLD1,"2003/10/17 17:30",5761.60833,14.38,TRADE
QLD1,"2003/10/17 18:00",5853.15167,15.02,TRADE
QLD1,"2003/10/17 18:30",5953.255,15.83,TRADE
QLD1,"2003/10/17 19:00",5978.54167,16.27,TRADE
QLD1,"2003/10/17 19:30",5819.75667,15.27,TRADE
QLD1,"2003/10/17 20:00",5729.52167,15.15,TRADE
QLD1,"2003/10/17 20:30",5579.865,14.9,TRADE
QLD1,"2003/10/17 21:00",5389.74,13.95,TRADE
QLD1,"2003/10/17 21:30",5302.66,12.63,TRADE
QLD1,"2003/10/17 22:00",5258.08,12.06,TRADE
QLD1,"2003/10/17 22:30",5214.04,12.62,TRADE
QLD1,"2003/10/17 23:00",5106.54333,11.97,TRADE
QLD1,"2003/10/17 23:30",5170.94333,14.2,TRADE
QLD1,"2003/10/18 00:00",4998.63,12.76,TRADE
QLD1,"2003/10/18 00:30",4760.58167,11.8,TRADE
QLD1,"2003/10/18 01:00",4584.09,11.8,TRADE
QLD1,"2003/10/18 01:30",4354.83333,11,TRADE
QLD1,"2003/10/18 02:00",4250.435,10.79,TRADE
QLD1,"2003/10/18 02:30",4136.415,11.35,TRADE
QLD1,"2003/10/18 03:00",4069.78833,10.1,TRADE
QLD1,"2003/10/18 03:30",4004.16833,9.13,TRADE
QLD1,"2003/10/18 04:00",3962.44167,7.8,TRADE
QLD1,"2003/10/18 04:30",3915.13333,5.45,TRADE
QLD1,"2003/10/18 05:00",3951.60833,5.44,TRADE
QLD1,"2003/10/18 05:30",4032.54167,7.66,TRADE
QLD1,"2003/10/18 06:00",4049.00667,8.51,TRADE
QLD1,"2003/10/18 06:30",4300.565,9.27,TRADE
QLD1,"2003/10/18 07:00",4533.63,10.04,TRADE
QLD1,"2003/10/18 07:30",4787.09333,11.1,TRADE
QLD1,"2003/10/18 08:00",5054.70333,11.41,TRADE
QLD1,"2003/10/18 08:30",5261.45833,11.83,TRADE
QLD1,"2003/10/18 09:00",5337.46667,11.82,TRADE
QLD1,"2003/10/18 09:30",5476.74333,11.93,TRADE
QLD1,"2003/10/18 10:00",5472.24167,11.85,TRADE
QLD1,"2003/10/18 10:30",5415.18667,11.9,TRADE
QLD1,"2003/10/18 11:00",5348.40167,11.82,TRADE
QLD1,"2003/10/18 11:30",5324.96833,11.8,TRADE
QLD1,"2003/10/18 12:00",5269.41833,11.8,TRADE
QLD1,"2003/10/18 12:30",5272.80833,11.8,TRADE
QLD1,"2003/10/18 13:00",5168.94667,11.8,TRADE
QLD1,"2003/10/18 13:30",5154.88167,11.8,TRADE
QLD1,"2003/10/18 14:00",5108.085,11.8,TRADE
QLD1,"2003/10/18 14:30",5112.68667,11.8,TRADE
QLD1,"2003/10/18 15:00",5075.845,11.9,TRADE
QLD1,"2003/10/18 15:30",5086.13333,12.03,TRADE
QLD1,"2003/10/18 16:00",5105.11667,12.46,TRADE
QLD1,"2003/10/18 16:30",5136.065,12.6,TRADE
QLD1,"2003/10/18 17:00",5173.12833,12.97,TRADE
QLD1,"2003/10/18 17:30",5251.245,12.73,TRADE
QLD1,"2003/10/18 18:00",5402.70667,12.7,TRADE
QLD1,"2003/10/18 18:30",5653.52333,14.06,TRADE
QLD1,"2003/10/18 19:00",5758.05333,14.52,TRADE
QLD1,"2003/10/18 19:30",5568.90333,13.96,TRADE
QLD1,"2003/10/18 20:00",5441.405,13.58,TRADE
QLD1,"2003/10/18 20:30",5280.39,12.01,TRADE
QLD1,"2003/10/18 21:00",5129.51833,11.64,TRADE
QLD1,"2003/10/18 21:30",4999.50667,11.77,TRADE
QLD1,"2003/10/18 22:00",4933.74667,11.34,TRADE
QLD1,"2003/10/18 22:30",4906.89167,11.94,TRADE
QLD1,"2003/10/18 23:00",4891.96333,11.8,TRADE
QLD1,"2003/10/18 23:30",4941.995,12.43,TRADE
QLD1,"2003/10/19 00:00",4782.73667,11.69,TRADE
QLD1,"2003/10/19 00:30",4561.24333,11.14,TRADE
QLD1,"2003/10/19 01:00",4415.06,10.9,TRADE
QLD1,"2003/10/19 01:30",4258.18167,10.88,TRADE
QLD1,"2003/10/19 02:00",4138.07333,10.13,TRADE
QLD1,"2003/10/19 02:30",3979.29667,9,TRADE
QLD1,"2003/10/19 03:00",3889.56167,7.12,TRADE
QLD1,"2003/10/19 03:30",3851.79167,7.72,TRADE
QLD1,"2003/10/19 04:00",3853.52,6.85,TRADE
QLD1,"2003/10/19 04:30",3881.085,4.79,TRADE
QLD1,"2003/10/19 05:00",3870.68,4.76,TRADE
QLD1,"2003/10/19 05:30",3886.41833,4.7,TRADE
QLD1,"2003/10/19 06:00",3955.99333,6.32,TRADE
QLD1,"2003/10/19 06:30",4001.305,5.87,TRADE
QLD1,"2003/10/19 07:00",4172,8.34,TRADE
QLD1,"2003/10/19 07:30",4389.73167,8.95,TRADE
QLD1,"2003/10/19 08:00",4640.38,10.39,TRADE
QLD1,"2003/10/19 08:30",4798.10667,10.42,TRADE
QLD1,"2003/10/19 09:00",4997.51667,11.76,TRADE
QLD1,"2003/10/19 09:30",5099.94333,11.78,TRADE
QLD1,"2003/10/19 10:00",5149.91167,11.8,TRADE
QLD1,"2003/10/19 10:30",5166.575,11.8,TRADE
QLD1,"2003/10/19 11:00",5160.85833,11.8,TRADE
QLD1,"2003/10/19 11:30",5140.68,11.8,TRADE
QLD1,"2003/10/19 12:00",5160.55833,11.8,TRADE
QLD1,"2003/10/19 12:30",5121.5,11.8,TRADE
QLD1,"2003/10/19 13:00",5077.91833,11.78,TRADE
QLD1,"2003/10/19 13:30",5023.385,12.06,TRADE
QLD1,"2003/10/19 14:00",5006.215,11.82,TRADE
QLD1,"2003/10/19 14:30",4950.025,11.8,TRADE
QLD1,"2003/10/19 15:00",4949.555,11.8,TRADE
QLD1,"2003/10/19 15:30",4928.85,11.65,TRADE
QLD1,"2003/10/19 16:00",4944.46333,12.43,TRADE
QLD1,"2003/10/19 16:30",4995.28,12.1,TRADE
QLD1,"2003/10/19 17:00",5038.325,12.51,TRADE
QLD1,"2003/10/19 17:30",5174.48833,13.08,TRADE
QLD1,"2003/10/19 18:00",5358.87833,13.77,TRADE
QLD1,"2003/10/19 18:30",5649.945,15.9,TRADE
QLD1,"2003/10/19 19:00",5772.57,16.32,TRADE
QLD1,"2003/10/19 19:30",5660.65667,15.39,TRADE
QLD1,"2003/10/19 20:00",5530.46,15.09,TRADE
QLD1,"2003/10/19 20:30",5347.53667,14.67,TRADE
QLD1,"2003/10/19 21:00",5226.40833,14.05,TRADE
QLD1,"2003/10/19 21:30",5110.66667,13.4,TRADE
QLD1,"2003/10/19 22:00",4993.56333,12.39,TRADE
QLD1,"2003/10/19 22:30",4969.17,12.96,TRADE
QLD1,"2003/10/19 23:00",4883.74833,12.36,TRADE
QLD1,"2003/10/19 23:30",4922.61833,13.74,TRADE
QLD1,"2003/10/20 00:00",4768.12833,12.51,TRADE
QLD1,"2003/10/20 00:30",4561.33833,11.78,TRADE
QLD1,"2003/10/20 01:00",4439.91167,11.3,TRADE
QLD1,"2003/10/20 01:30",4274.57333,11.57,TRADE
QLD1,"2003/10/20 02:00",4164.83333,10.67,TRADE
QLD1,"2003/10/20 02:30",4056.245,10.09,TRADE
QLD1,"2003/10/20 03:00",3975.475,9.63,TRADE
QLD1,"2003/10/20 03:30",3977.38333,9.62,TRADE
QLD1,"2003/10/20 04:00",3937.64667,9.4,TRADE
QLD1,"2003/10/20 04:30",3980.16167,9.5,TRADE
QLD1,"2003/10/20 05:00",4061.175,9.84,TRADE
QLD1,"2003/10/20 05:30",4201.48167,10.8,TRADE
QLD1,"2003/10/20 06:00",4377.01833,11.68,TRADE
QLD1,"2003/10/20 06:30",4783.96667,13.32,TRADE
QLD1,"2003/10/20 07:00",5197.27,14.75,TRADE
QLD1,"2003/10/20 07:30",5603.62,15.77,TRADE
QLD1,"2003/10/20 08:00",5782.02,16.2,TRADE
QLD1,"2003/10/20 08:30",5922.795,16.29,TRADE
QLD1,"2003/10/20 09:00",5978.05333,16.28,TRADE
QLD1,"2003/10/20 09:30",6030.325,16.03,TRADE
QLD1,"2003/10/20 10:00",5986.17667,15.66,TRADE
QLD1,"2003/10/20 10:30",5935.15,15.46,TRADE
QLD1,"2003/10/20 11:00",5877.995,15.22,TRADE
QLD1,"2003/10/20 11:30",5930.855,15.77,TRADE
QLD1,"2003/10/20 12:00",5920.33,15.75,TRADE
QLD1,"2003/10/20 12:30",5910.02,15.75,TRADE
QLD1,"2003/10/20 13:00",5833.91667,15.5,TRADE
QLD1,"2003/10/20 13:30",5856.13,15.43,TRADE
QLD1,"2003/10/20 14:00",5863.80833,15.18,TRADE
QLD1,"2003/10/20 14:30",5919.26167,15.06,TRADE
QLD1,"2003/10/20 15:00",5894.42167,15.16,TRADE
QLD1,"2003/10/20 15:30",5913.35667,15.08,TRADE
QLD1,"2003/10/20 16:00",5918.475,14.98,TRADE
QLD1,"2003/10/20 16:30",5943.62667,14.98,TRADE
QLD1,"2003/10/20 17:00",5974.79167,15.44,TRADE
QLD1,"2003/10/20 17:30",6000.04333,15.48,TRADE
QLD1,"2003/10/20 18:00",6111.53,15.22,TRADE
QLD1,"2003/10/20 18:30",6286.23,16.67,TRADE
QLD1,"2003/10/20 19:00",6293.93833,17.72,TRADE
QLD1,"2003/10/20 19:30",6104.005,15.12,TRADE
QLD1,"2003/10/20 20:00",5932.89833,15.28,TRADE
QLD1,"2003/10/20 20:30",5769.66167,15.16,TRADE
QLD1,"2003/10/20 21:00",5591.59167,14.4,TRADE
QLD1,"2003/10/20 21:30",5558.25333,14.34,TRADE
QLD1,"2003/10/20 22:00",5463.77667,13.15,TRADE
QLD1,"2003/10/20 22:30",5381.765,14.24,TRADE
QLD1,"2003/10/20 23:00",5292.61833,13.33,TRADE
QLD1,"2003/10/20 23:30",5259.06333,14.16,TRADE
QLD1,"2003/10/21 00:00",5067.68,12.87,TRADE
QLD1,"2003/10/21 00:30",4844.37,11.82,TRADE
QLD1,"2003/10/21 01:00",4655.63833,11.8,TRADE
QLD1,"2003/10/21 01:30",4427.90333,11.13,TRADE
QLD1,"2003/10/21 02:00",4339.05167,11.24,TRADE
QLD1,"2003/10/21 02:30",4226.38167,10.75,TRADE
QLD1,"2003/10/21 03:00",4123.90667,10.57,TRADE
QLD1,"2003/10/21 03:30",4113.40333,9.82,TRADE
QLD1,"2003/10/21 04:00",4074.28333,9.25,TRADE
QLD1,"2003/10/21 04:30",4084.96,9.14,TRADE
QLD1,"2003/10/21 05:00",4183.71167,9.71,TRADE
QLD1,"2003/10/21 05:30",4357.995,10.77,TRADE
QLD1,"2003/10/21 06:00",4573.37167,12.05,TRADE
QLD1,"2003/10/21 06:30",4976.46,11.82,TRADE
QLD1,"2003/10/21 07:00",5379.63,12.35,TRADE
QLD1,"2003/10/21 07:30",5772.86667,14.63,TRADE
QLD1,"2003/10/21 08:00",5940.595,14,TRADE
QLD1,"2003/10/21 08:30",6024.97,12.3,TRADE
QLD1,"2003/10/21 09:00",5994.88667,11.94,TRADE
QLD1,"2003/10/21 09:30",6019.655,11.89,TRADE
QLD1,"2003/10/21 10:00",5957.40667,12.05,TRADE
QLD1,"2003/10/21 10:30",5993.035,12.82,TRADE
QLD1,"2003/10/21 11:00",6010.815,12.27,TRADE
QLD1,"2003/10/21 11:30",6028.07667,13.93,TRADE
QLD1,"2003/10/21 12:00",6018.46333,13.23,TRADE
QLD1,"2003/10/21 12:30",6019.355,13.74,TRADE
QLD1,"2003/10/21 13:00",6045.63833,14.27,TRADE
QLD1,"2003/10/21 13:30",6035.92833,14.4,TRADE
QLD1,"2003/10/21 14:00",6075.405,14.63,TRADE
QLD1,"2003/10/21 14:30",6112.85,15.51,TRADE
QLD1,"2003/10/21 15:00",6054.27,14.38,TRADE
QLD1,"2003/10/21 15:30",6059.01167,14.68,TRADE
QLD1,"2003/10/21 16:00",6059.20167,14.71,TRADE
QLD1,"2003/10/21 16:30",6071.85167,14.32,TRADE
QLD1,"2003/10/21 17:00",6087.64,13.68,TRADE
QLD1,"2003/10/21 17:30",6030.105,11.87,TRADE
QLD1,"2003/10/21 18:00",6137.335,14.38,TRADE
QLD1,"2003/10/21 18:30",6288.125,15.68,TRADE
QLD1,"2003/10/21 19:00",6379.89333,17.08,TRADE
QLD1,"2003/10/21 19:30",6227.28667,15.04,TRADE
QLD1,"2003/10/21 20:00",6052.63667,15.15,TRADE
QLD1,"2003/10/21 20:30",5946.42333,15.79,TRADE
QLD1,"2003/10/21 21:00",5731.69167,14.64,TRADE
QLD1,"2003/10/21 21:30",5600.26667,14.48,TRADE
QLD1,"2003/10/21 22:00",5511.97333,14.26,TRADE
QLD1,"2003/10/21 22:30",5448.48,14.49,TRADE
QLD1,"2003/10/21 23:00",5320.22,14.25,TRADE
QLD1,"2003/10/21 23:30",5345.08833,14.79,TRADE
QLD1,"2003/10/22 00:00",5119.35833,13.98,TRADE
QLD1,"2003/10/22 00:30",4900.03667,13.57,TRADE
QLD1,"2003/10/22 01:00",4711.31167,12.9,TRADE
QLD1,"2003/10/22 01:30",4521.26833,11.78,TRADE
QLD1,"2003/10/22 02:00",4422.09333,12.28,TRADE
QLD1,"2003/10/22 02:30",4312.54333,11.82,TRADE
QLD1,"2003/10/22 03:00",4242.325,11.46,TRADE
QLD1,"2003/10/22 03:30",4177.21333,10.38,TRADE
QLD1,"2003/10/22 04:00",4200.22,9.75,TRADE
QLD1,"2003/10/22 04:30",4246.29167,9.74,TRADE
QLD1,"2003/10/22 05:00",4285.95167,9.8,TRADE
QLD1,"2003/10/22 05:30",4435.45333,11.06,TRADE
QLD1,"2003/10/22 06:00",4705.56167,12.72,TRADE
QLD1,"2003/10/22 06:30",5065.94333,10.61,TRADE
QLD1,"2003/10/22 07:00",5511.08167,13.57,TRADE
QLD1,"2003/10/22 07:30",5867.32,15.6,TRADE
QLD1,"2003/10/22 08:00",6102.67667,16.24,TRADE
QLD1,"2003/10/22 08:30",6142.54333,14.83,TRADE
QLD1,"2003/10/22 09:00",6196.90167,14.3,TRADE
QLD1,"2003/10/22 09:30",6194.07,14.3,TRADE
QLD1,"2003/10/22 10:00",6210.31,14.32,TRADE
QLD1,"2003/10/22 10:30",6239.55,14.62,TRADE
QLD1,"2003/10/22 11:00",6229.28167,14.4,TRADE
QLD1,"2003/10/22 11:30",6279.68667,15.96,TRADE
QLD1,"2003/10/22 12:00",6293.52667,15.53,TRADE
QLD1,"2003/10/22 12:30",6331.11333,15.81,TRADE
QLD1,"2003/10/22 13:00",6337.9,16.12,TRADE
QLD1,"2003/10/22 13:30",6337.17667,16.08,TRADE
QLD1,"2003/10/22 14:00",6383.28,15.99,TRADE
QLD1,"2003/10/22 14:30",6380.32167,15.19,TRADE
QLD1,"2003/10/22 15:00",6356.60333,15.12,TRADE
QLD1,"2003/10/22 15:30",6331.34167,15.5,TRADE
QLD1,"2003/10/22 16:00",6375.665,16.15,TRADE
QLD1,"2003/10/22 16:30",6349.35833,15.37,TRADE
QLD1,"2003/10/22 17:00",6364.95333,15.82,TRADE
QLD1,"2003/10/22 17:30",6269.465,15.28,TRADE
QLD1,"2003/10/22 18:00",6289.10833,15.07,TRADE
QLD1,"2003/10/22 18:30",6411.05,15.76,TRADE
QLD1,"2003/10/22 19:00",6563.075,17.85,TRADE
QLD1,"2003/10/22 19:30",6362.90333,16.21,TRADE
QLD1,"2003/10/22 20:00",6205.365,15.52,TRADE
QLD1,"2003/10/22 20:30",6006.05333,16.04,TRADE
QLD1,"2003/10/22 21:00",5833.94667,15.09,TRADE
QLD1,"2003/10/22 21:30",5758.02833,15.15,TRADE
QLD1,"2003/10/22 22:00",5654.20833,14.66,TRADE
QLD1,"2003/10/22 22:30",5530.61,14.73,TRADE
QLD1,"2003/10/22 23:00",5440.245,14.4,TRADE
QLD1,"2003/10/22 23:30",5395.72167,14.53,TRADE
QLD1,"2003/10/23 00:00",5196.97,14.08,TRADE
QLD1,"2003/10/23 00:30",4959.47,12.92,TRADE
QLD1,"2003/10/23 01:00",4755.60667,11.82,TRADE
QLD1,"2003/10/23 01:30",4553.73333,11.65,TRADE
QLD1,"2003/10/23 02:00",4410.375,11.31,TRADE
QLD1,"2003/10/23 02:30",4359.41,11.74,TRADE
QLD1,"2003/10/23 03:00",4275.95667,11.19,TRADE
QLD1,"2003/10/23 03:30",4239.36833,10.54,TRADE
QLD1,"2003/10/23 04:00",4213.57,9.84,TRADE
QLD1,"2003/10/23 04:30",4237.245,9.88,TRADE
QLD1,"2003/10/23 05:00",4302.91,10.25,TRADE
QLD1,"2003/10/23 05:30",4476.88833,11.43,TRADE
QLD1,"2003/10/23 06:00",4640.61667,12.05,TRADE
QLD1,"2003/10/23 06:30",5056.72333,12.94,TRADE
QLD1,"2003/10/23 07:00",5483.935,14.31,TRADE
QLD1,"2003/10/23 07:30",5838.20833,15.13,TRADE
QLD1,"2003/10/23 08:00",6038.785,15.49,TRADE
QLD1,"2003/10/23 08:30",6180.28,15.27,TRADE
QLD1,"2003/10/23 09:00",6234.69833,15.49,TRADE
QLD1,"2003/10/23 09:30",6283.18333,15.38,TRADE
QLD1,"2003/10/23 10:00",6296.95333,15.47,TRADE
QLD1,"2003/10/23 10:30",6284.95833,15.48,TRADE
QLD1,"2003/10/23 11:00",6237.32833,15.59,TRADE
QLD1,"2003/10/23 11:30",6267.42667,16.09,TRADE
QLD1,"2003/10/23 12:00",6322.80333,16.22,TRADE
QLD1,"2003/10/23 12:30",6339.24,16.22,TRADE
QLD1,"2003/10/23 13:00",6381.78167,16.24,TRADE
QLD1,"2003/10/23 13:30",6368.935,16.37,TRADE
QLD1,"2003/10/23 14:00",6368.05833,16.37,TRADE
QLD1,"2003/10/23 14:30",6361.77167,16.28,TRADE
QLD1,"2003/10/23 15:00",6340.34667,16.29,TRADE
QLD1,"2003/10/23 15:30",6301.31167,15.27,TRADE
QLD1,"2003/10/23 16:00",6329.68667,15.54,TRADE
QLD1,"2003/10/23 16:30",6301.55333,15.85,TRADE
QLD1,"2003/10/23 17:00",6281.70833,15.05,TRADE
QLD1,"2003/10/23 17:30",6237.85667,15.54,TRADE
QLD1,"2003/10/23 18:00",6323.49833,14.05,TRADE
QLD1,"2003/10/23 18:30",6438.33,15.57,TRADE
QLD1,"2003/10/23 19:00",6475.30833,15.62,TRADE
QLD1,"2003/10/23 19:30",6357.39333,12.48,TRADE
QLD1,"2003/10/23 20:00",6221.605,14.45,TRADE
QLD1,"2003/10/23 20:30",6056.58667,14.54,TRADE
QLD1,"2003/10/23 21:00",5836.74333,13.13,TRADE
QLD1,"2003/10/23 21:30",5751.58333,15.12,TRADE
QLD1,"2003/10/23 22:00",5600.05167,14.52,TRADE
QLD1,"2003/10/23 22:30",5490.14167,14.71,TRADE
QLD1,"2003/10/23 23:00",5341.76667,14.18,TRADE
QLD1,"2003/10/23 23:30",5373.98833,14.61,TRADE
QLD1,"2003/10/24 00:00",5144.39833,14.11,TRADE
QLD1,"2003/10/24 00:30",4949.14,13.47,TRADE
QLD1,"2003/10/24 01:00",4763.28833,12.6,TRADE
QLD1,"2003/10/24 01:30",4556.85,11.82,TRADE
QLD1,"2003/10/24 02:00",4448.63833,11.65,TRADE
QLD1,"2003/10/24 02:30",4344.45667,11.82,TRADE
QLD1,"2003/10/24 03:00",4316.35,11.65,TRADE
QLD1,"2003/10/24 03:30",4266.45167,10.87,TRADE
QLD1,"2003/10/24 04:00",4216.38333,10,TRADE
QLD1,"2003/10/24 04:30",4244.00167,10.58,TRADE
QLD1,"2003/10/24 05:00",4310.255,10.78,TRADE
QLD1,"2003/10/24 05:30",4481.29,11.74,TRADE
QLD1,"2003/10/24 06:00",4670.40667,12.39,TRADE
QLD1,"2003/10/24 06:30",5085.82333,13.63,TRADE
QLD1,"2003/10/24 07:00",5603.735,15.13,TRADE
QLD1,"2003/10/24 07:30",6037.495,16.76,TRADE
QLD1,"2003/10/24 08:00",6302.95833,18.5,TRADE
QLD1,"2003/10/24 08:30",6349.19667,17.41,TRADE
QLD1,"2003/10/24 09:00",6495.13333,17.37,TRADE
QLD1,"2003/10/24 09:30",6501.55167,18.75,TRADE
QLD1,"2003/10/24 10:00",6457.61333,17.44,TRADE
QLD1,"2003/10/24 10:30",6467.90833,17.24,TRADE
QLD1,"2003/10/24 11:00",6528.05167,18.32,TRADE
QLD1,"2003/10/24 11:30",6559.39333,18.05,TRADE
QLD1,"2003/10/24 12:00",6572.58167,18.67,TRADE
QLD1,"2003/10/24 12:30",6592.19,18.79,TRADE
QLD1,"2003/10/24 13:00",6574.425,19.04,TRADE
QLD1,"2003/10/24 13:30",6616.765,19.66,TRADE
QLD1,"2003/10/24 14:00",6622.07333,18.8,TRADE
QLD1,"2003/10/24 14:30",6599.33333,18.8,TRADE
QLD1,"2003/10/24 15:00",6509.66167,18.26,TRADE
QLD1,"2003/10/24 15:30",6412.59667,17.08,TRADE
QLD1,"2003/10/24 16:00",6271.49167,16.59,TRADE
QLD1,"2003/10/24 16:30",6325.72833,16.71,TRADE
QLD1,"2003/10/24 17:00",6309.67,16.62,TRADE
QLD1,"2003/10/24 17:30",6317.92667,16.74,TRADE
QLD1,"2003/10/24 18:00",6305.09333,16.65,TRADE
QLD1,"2003/10/24 18:30",6271.69833,16.56,TRADE
QLD1,"2003/10/24 19:00",6231.05667,16.55,TRADE
QLD1,"2003/10/24 19:30",6003.69333,15.96,TRADE
QLD1,"2003/10/24 20:00",5801.80333,15.02,TRADE
QLD1,"2003/10/24 20:30",5674.18833,14.83,TRADE
QLD1,"2003/10/24 21:00",5492.32333,14.17,TRADE
QLD1,"2003/10/24 21:30",5422.67167,14.41,TRADE
QLD1,"2003/10/24 22:00",5336.855,13.84,TRADE
QLD1,"2003/10/24 22:30",5279.505,14.4,TRADE
QLD1,"2003/10/24 23:00",5195.8,14.1,TRADE
QLD1,"2003/10/24 23:30",5217.41833,14.51,TRADE
QLD1,"2003/10/25 00:00",5008.815,13.77,TRADE
QLD1,"2003/10/25 00:30",4771.72667,12.33,TRADE
QLD1,"2003/10/25 01:00",4570.99,11.67,TRADE
QLD1,"2003/10/25 01:30",4408.10667,11.25,TRADE
QLD1,"2003/10/25 02:00",4283.13833,11.12,TRADE
QLD1,"2003/10/25 02:30",4169.46667,11.18,TRADE
QLD1,"2003/10/25 03:00",4096.035,10.97,TRADE
QLD1,"2003/10/25 03:30",4037.61,10.53,TRADE
QLD1,"2003/10/25 04:00",4058.77167,10.11,TRADE
QLD1,"2003/10/25 04:30",4087.18,9.76,TRADE
QLD1,"2003/10/25 05:00",4121.04333,10.08,TRADE
QLD1,"2003/10/25 05:30",4199.18167,10.48,TRADE
QLD1,"2003/10/25 06:00",4222.96167,11.12,TRADE
QLD1,"2003/10/25 06:30",4421.73333,10.65,TRADE
QLD1,"2003/10/25 07:00",4630.62667,11.12,TRADE
QLD1,"2003/10/25 07:30",4944.67833,12.81,TRADE
QLD1,"2003/10/25 08:00",5249.86833,14.42,TRADE
QLD1,"2003/10/25 08:30",5427.91333,14.86,TRADE
QLD1,"2003/10/25 09:00",5574.19833,16.23,TRADE
QLD1,"2003/10/25 09:30",5693.205,17.66,TRADE
QLD1,"2003/10/25 10:00",5714.07333,17.28,TRADE
QLD1,"2003/10/25 10:30",5682.98,16.59,TRADE
QLD1,"2003/10/25 11:00",5680.525,16.67,TRADE
QLD1,"2003/10/25 11:30",5685.19667,16.53,TRADE
QLD1,"2003/10/25 12:00",5698.07,17.13,TRADE
QLD1,"2003/10/25 12:30",5616.56167,16.42,TRADE
QLD1,"2003/10/25 13:00",5589.42667,16.29,TRADE
QLD1,"2003/10/25 13:30",5616.68167,15.88,TRADE
QLD1,"2003/10/25 14:00",5608.145,15.08,TRADE
QLD1,"2003/10/25 14:30",5608.28667,15.31,TRADE
QLD1,"2003/10/25 15:00",5617.22833,15.31,TRADE
QLD1,"2003/10/25 15:30",5575.09,15.24,TRADE
QLD1,"2003/10/25 16:00",5569.95333,15.42,TRADE
QLD1,"2003/10/25 16:30",5595.58167,15.32,TRADE
QLD1,"2003/10/25 17:00",5712.41167,15.7,TRADE
QLD1,"2003/10/25 17:30",5784.43833,16.15,TRADE
QLD1,"2003/10/25 18:00",5893.97,16.72,TRADE
QLD1,"2003/10/25 18:30",6069.10167,17.51,TRADE
QLD1,"2003/10/25 19:00",6120.315,18.61,TRADE
QLD1,"2003/10/25 19:30",5914.17,16.37,TRADE
QLD1,"2003/10/25 20:00",5820.905,15.73,TRADE
QLD1,"2003/10/25 20:30",5615.77167,15.04,TRADE
QLD1,"2003/10/25 21:00",5511.21667,14.56,TRADE
QLD1,"2003/10/25 21:30",5427.94333,14.4,TRADE
QLD1,"2003/10/25 22:00",5325.94167,13.45,TRADE
QLD1,"2003/10/25 22:30",5299.90667,14.01,TRADE
QLD1,"2003/10/25 23:00",5262.835,13.77,TRADE
QLD1,"2003/10/25 23:30",5267.19333,14.36,TRADE
QLD1,"2003/10/26 00:00",5129.22167,13.85,TRADE
QLD1,"2003/10/26 00:30",4961.455,12.94,TRADE
QLD1,"2003/10/26 01:00",4754.47167,11.85,TRADE
QLD1,"2003/10/26 01:30",4504.02167,11.67,TRADE
QLD1,"2003/10/26 02:00",4363.65,10.95,TRADE
QLD1,"2003/10/26 02:30",4245.72667,10.61,TRADE
QLD1,"2003/10/26 03:00",4180.90167,9.78,TRADE
QLD1,"2003/10/26 03:30",4139.81667,9.86,TRADE
QLD1,"2003/10/26 04:00",4083.855,9.42,TRADE
QLD1,"2003/10/26 04:30",4068.645,9.74,TRADE
QLD1,"2003/10/26 05:00",4091.57667,9.68,TRADE
QLD1,"2003/10/26 05:30",4058.70333,9.53,TRADE
QLD1,"2003/10/26 06:00",4135.155,9.69,TRADE
QLD1,"2003/10/26 06:30",4272.73667,9.73,TRADE
QLD1,"2003/10/26 07:00",4470.625,10.73,TRADE
QLD1,"2003/10/26 07:30",4706.58667,10.91,TRADE
QLD1,"2003/10/26 08:00",4950.18333,12.77,TRADE
QLD1,"2003/10/26 08:30",5126.95167,13.06,TRADE
QLD1,"2003/10/26 09:00",5270.33667,14.06,TRADE
QLD1,"2003/10/26 09:30",5399.35667,14.38,TRADE
QLD1,"2003/10/26 10:00",5447.455,14.49,TRADE
QLD1,"2003/10/26 10:30",5467.44667,14.65,TRADE
QLD1,"2003/10/26 11:00",5464.07333,14.75,TRADE
QLD1,"2003/10/26 11:30",5492.04167,14.85,TRADE
QLD1,"2003/10/26 12:00",5498.67167,14.95,TRADE
QLD1,"2003/10/26 12:30",5492.485,15.19,TRADE
QLD1,"2003/10/26 13:00",5434.91,15.54,TRADE
QLD1,"2003/10/26 13:30",5480.645,15.23,TRADE
QLD1,"2003/10/26 14:00",5458.915,15.97,TRADE
QLD1,"2003/10/26 14:30",5447.19833,15.28,TRADE
QLD1,"2003/10/26 15:00",5448.85167,15,TRADE
QLD1,"2003/10/26 15:30",5391.12833,14.83,TRADE
QLD1,"2003/10/26 16:00",5372.01333,14.96,TRADE
QLD1,"2003/10/26 16:30",5311.79333,14.9,TRADE
QLD1,"2003/10/26 17:00",5349.85333,14.46,TRADE
QLD1,"2003/10/26 17:30",5409.56667,14.57,TRADE
QLD1,"2003/10/26 18:00",5561.31,14.97,TRADE
QLD1,"2003/10/26 18:30",5776.35833,14.97,TRADE
QLD1,"2003/10/26 19:00",5954.90167,17.54,TRADE
QLD1,"2003/10/26 19:30",5839.74167,15.68,TRADE
QLD1,"2003/10/26 20:00",5763.09,16.23,TRADE
QLD1,"2003/10/26 20:30",5600.43667,15.17,TRADE
QLD1,"2003/10/26 21:00",5496.67167,14.72,TRADE
QLD1,"2003/10/26 21:30",5421.67333,14.52,TRADE
QLD1,"2003/10/26 22:00",5223.02,12.71,TRADE
QLD1,"2003/10/26 22:30",5156.92333,12.83,TRADE
QLD1,"2003/10/26 23:00",5011.42667,11.79,TRADE
QLD1,"2003/10/26 23:30",5050.43667,12.53,TRADE
QLD1,"2003/10/27 00:00",4884.025,11.73,TRADE
QLD1,"2003/10/27 00:30",4683.44167,12.01,TRADE
QLD1,"2003/10/27 01:00",4537.37667,11.91,TRADE
QLD1,"2003/10/27 01:30",4436.57,12.24,TRADE
QLD1,"2003/10/27 02:00",4303.64167,11.04,TRADE
QLD1,"2003/10/27 02:30",4254.29667,11.85,TRADE
QLD1,"2003/10/27 03:00",4140.89667,11.02,TRADE
QLD1,"2003/10/27 03:30",4127.46167,10.96,TRADE
QLD1,"2003/10/27 04:00",4107.67,10.93,TRADE
QLD1,"2003/10/27 04:30",4178.9,11.22,TRADE
QLD1,"2003/10/27 05:00",4271.22833,11.86,TRADE
QLD1,"2003/10/27 05:30",4416.98833,13.96,TRADE
QLD1,"2003/10/27 06:00",4662.43333,13.39,TRADE
QLD1,"2003/10/27 06:30",5087.53667,14.05,TRADE
QLD1,"2003/10/27 07:00",5494.70833,16.21,TRADE
QLD1,"2003/10/27 07:30",5875.105,17.58,TRADE
QLD1,"2003/10/27 08:00",6117.92667,18.42,TRADE
QLD1,"2003/10/27 08:30",6174.215,17.28,TRADE
QLD1,"2003/10/27 09:00",6233.93333,16.68,TRADE
QLD1,"2003/10/27 09:30",6258.59,15.79,TRADE
QLD1,"2003/10/27 10:00",6254.38833,15.65,TRADE
QLD1,"2003/10/27 10:30",6221.58167,15.97,TRADE
QLD1,"2003/10/27 11:00",6235.38167,16.02,TRADE
QLD1,"2003/10/27 11:30",6286.15833,16.4,TRADE
QLD1,"2003/10/27 12:00",6280.91167,16.37,TRADE
QLD1,"2003/10/27 12:30",6214.525,16.15,TRADE
QLD1,"2003/10/27 13:00",6208.65833,16.1,TRADE
QLD1,"2003/10/27 13:30",6252.36833,17.14,TRADE
QLD1,"2003/10/27 14:00",6273.96667,16.77,TRADE
QLD1,"2003/10/27 14:30",6301.56833,16.47,TRADE
QLD1,"2003/10/27 15:00",6265.07667,15.96,TRADE
QLD1,"2003/10/27 15:30",6240.91833,15.85,TRADE
QLD1,"2003/10/27 16:00",6231.46667,15.82,TRADE
QLD1,"2003/10/27 16:30",6246.15,15.74,TRADE
QLD1,"2003/10/27 17:00",6252.78667,15.73,TRADE
QLD1,"2003/10/27 17:30",6199.06167,15.49,TRADE
QLD1,"2003/10/27 18:00",6165.22833,15.77,TRADE
QLD1,"2003/10/27 18:30",6287.04333,16.22,TRADE
QLD1,"2003/10/27 19:00",6345.49,16.32,TRADE
QLD1,"2003/10/27 19:30",6194.19833,15.59,TRADE
QLD1,"2003/10/27 20:00",6020.46167,15.38,TRADE
QLD1,"2003/10/27 20:30",5829.85667,15.34,TRADE
QLD1,"2003/10/27 21:00",5649.76,15.06,TRADE
QLD1,"2003/10/27 21:30",5591.25667,16.03,TRADE
QLD1,"2003/10/27 22:00",5464.22667,13.45,TRADE
QLD1,"2003/10/27 22:30",5350.34667,13.99,TRADE
QLD1,"2003/10/27 23:00",5209.32167,12.67,TRADE
QLD1,"2003/10/27 23:30",5206.65833,14.53,TRADE
QLD1,"2003/10/28 00:00",5032.20667,13.88,TRADE
QLD1,"2003/10/28 00:30",4812.19,12.86,TRADE
QLD1,"2003/10/28 01:00",4651.63167,12,TRADE
QLD1,"2003/10/28 01:30",4482.07833,11.69,TRADE
QLD1,"2003/10/28 02:00",4314.385,10.42,TRADE
QLD1,"2003/10/28 02:30",4221.53833,10.63,TRADE
QLD1,"2003/10/28 03:00",4176.31833,10,TRADE
QLD1,"2003/10/28 03:30",4156.17,9.7,TRADE
QLD1,"2003/10/28 04:00",4153.46,9.71,TRADE
QLD1,"2003/10/28 04:30",4191.18,10.39,TRADE
QLD1,"2003/10/28 05:00",4254.25333,11.25,TRADE
QLD1,"2003/10/28 05:30",4404.76833,13.11,TRADE
QLD1,"2003/10/28 06:00",4604.64,13.99,TRADE
QLD1,"2003/10/28 06:30",5060.46333,14.15,TRADE
QLD1,"2003/10/28 07:00",5507.225,16.97,TRADE
QLD1,"2003/10/28 07:30",5893.25833,18.39,TRADE
QLD1,"2003/10/28 08:00",6020.86833,17.94,TRADE
QLD1,"2003/10/28 08:30",5959.69333,14.72,TRADE
QLD1,"2003/10/28 09:00",6114.68667,15.84,TRADE
QLD1,"2003/10/28 09:30",6251.97,16.73,TRADE
QLD1,"2003/10/28 10:00",6233.65167,16.36,TRADE
QLD1,"2003/10/28 10:30",6241.67333,16.79,TRADE
QLD1,"2003/10/28 11:00",6277.105,17,TRADE
QLD1,"2003/10/28 11:30",6296.43,17.61,TRADE
QLD1,"2003/10/28 12:00",6325.31333,17.31,TRADE
QLD1,"2003/10/28 12:30",6352.09,17.48,TRADE
QLD1,"2003/10/28 13:00",6335.59833,18.2,TRADE
QLD1,"2003/10/28 13:30",6358.18167,18.84,TRADE
QLD1,"2003/10/28 14:00",6387.585,18.8,TRADE
QLD1,"2003/10/28 14:30",6412.685,18.4,TRADE
QLD1,"2003/10/28 15:00",6358.03333,18.05,TRADE
QLD1,"2003/10/28 15:30",6335.28833,18.46,TRADE
QLD1,"2003/10/28 16:00",6401.395,18.8,TRADE
QLD1,"2003/10/28 16:30",6371.035,18.63,TRADE
QLD1,"2003/10/28 17:00",6382.855,18.02,TRADE
QLD1,"2003/10/28 17:30",6328.705,17.19,TRADE
QLD1,"2003/10/28 18:00",6399.46333,17.08,TRADE
QLD1,"2003/10/28 18:30",6492.73833,16.63,TRADE
QLD1,"2003/10/28 19:00",6553.71167,17.89,TRADE
QLD1,"2003/10/28 19:30",6387.04833,15.99,TRADE
QLD1,"2003/10/28 20:00",6242.51833,16.18,TRADE
QLD1,"2003/10/28 20:30",6074.765,16.04,TRADE
QLD1,"2003/10/28 21:00",5879.60167,15.53,TRADE
QLD1,"2003/10/28 21:30",5778.585,16.19,TRADE
QLD1,"2003/10/28 22:00",5664.14667,14.99,TRADE
QLD1,"2003/10/28 22:30",5549.37333,16.02,TRADE
QLD1,"2003/10/28 23:00",5384.895,14.67,TRADE
QLD1,"2003/10/28 23:30",5367.79333,15.46,TRADE
QLD1,"2003/10/29 00:00",5102.6,14.46,TRADE
QLD1,"2003/10/29 00:30",4919.86833,14.39,TRADE
QLD1,"2003/10/29 01:00",4761.71667,13.51,TRADE
QLD1,"2003/10/29 01:30",4579.48833,13.89,TRADE
QLD1,"2003/10/29 02:00",4468,12.88,TRADE
QLD1,"2003/10/29 02:30",4354.72833,11.25,TRADE
QLD1,"2003/10/29 03:00",4304.645,10.98,TRADE
QLD1,"2003/10/29 03:30",4303.74,10.7,TRADE
QLD1,"2003/10/29 04:00",4304.42833,10.65,TRADE
QLD1,"2003/10/29 04:30",4321.91667,11.15,TRADE
QLD1,"2003/10/29 05:00",4405.665,11.97,TRADE
QLD1,"2003/10/29 05:30",4506.27333,14.56,TRADE
QLD1,"2003/10/29 06:00",4768.915,15.37,TRADE
QLD1,"2003/10/29 06:30",5149.56,15.25,TRADE
QLD1,"2003/10/29 07:00",5591.46167,17.76,TRADE
QLD1,"2003/10/29 07:30",5977.80833,18.85,TRADE
QLD1,"2003/10/29 08:00",6205.94333,18.84,TRADE
QLD1,"2003/10/29 08:30",6314.235,18.8,TRADE
QLD1,"2003/10/29 09:00",6346.365,17.75,TRADE
QLD1,"2003/10/29 09:30",6336.72333,17.3,TRADE
QLD1,"2003/10/29 10:00",6298.22667,17.5,TRADE
QLD1,"2003/10/29 10:30",6339.89833,17.69,TRADE
QLD1,"2003/10/29 11:00",6301.15,18.37,TRADE
QLD1,"2003/10/29 11:30",6409.04333,18.48,TRADE
QLD1,"2003/10/29 12:00",6511,18.8,TRADE
QLD1,"2003/10/29 12:30",6521.94333,18.8,TRADE
QLD1,"2003/10/29 13:00",6516.78333,18.82,TRADE
QLD1,"2003/10/29 13:30",6569.54667,19.15,TRADE
QLD1,"2003/10/29 14:00",6632.45667,18.8,TRADE
QLD1,"2003/10/29 14:30",6651.40167,18.8,TRADE
QLD1,"2003/10/29 15:00",6643.77,18.57,TRADE
QLD1,"2003/10/29 15:30",6605.63167,17.66,TRADE
QLD1,"2003/10/29 16:00",6609.585,17.16,TRADE
QLD1,"2003/10/29 16:30",6635.79167,17.42,TRADE
QLD1,"2003/10/29 17:00",6635.28333,17.35,TRADE
QLD1,"2003/10/29 17:30",6594.46167,17.35,TRADE
QLD1,"2003/10/29 18:00",6551.52333,17.32,TRADE
QLD1,"2003/10/29 18:30",6561.29333,17.01,TRADE
QLD1,"2003/10/29 19:00",6699.365,18.57,TRADE
QLD1,"2003/10/29 19:30",6515.77,17.38,TRADE
QLD1,"2003/10/29 20:00",6305.1,16.98,TRADE
QLD1,"2003/10/29 20:30",6164.40833,17,TRADE
QLD1,"2003/10/29 21:00",5967.055,15.63,TRADE
QLD1,"2003/10/29 21:30",5882.825,16.01,TRADE
QLD1,"2003/10/29 22:00",5743.54833,16.07,TRADE
QLD1,"2003/10/29 22:30",5564.46667,15.84,TRADE
QLD1,"2003/10/29 23:00",5405.675,15.21,TRADE
QLD1,"2003/10/29 23:30",5362.405,15.75,TRADE
QLD1,"2003/10/30 00:00",5160.295,15.06,TRADE
QLD1,"2003/10/30 00:30",4932.47333,14.62,TRADE
QLD1,"2003/10/30 01:00",4757.25667,14.17,TRADE
QLD1,"2003/10/30 01:30",4587.98667,13.46,TRADE
QLD1,"2003/10/30 02:00",4447.32333,13.27,TRADE
QLD1,"2003/10/30 02:30",4353.00333,12.39,TRADE
QLD1,"2003/10/30 03:00",4268.49333,11.44,TRADE
QLD1,"2003/10/30 03:30",4271.16667,10.94,TRADE
QLD1,"2003/10/30 04:00",4249.96167,10.93,TRADE
QLD1,"2003/10/30 04:30",4312.50667,11.61,TRADE
QLD1,"2003/10/30 05:00",4354.54833,13.53,TRADE
QLD1,"2003/10/30 05:30",4528.165,14.31,TRADE
QLD1,"2003/10/30 06:00",4726.27333,15.3,TRADE
QLD1,"2003/10/30 06:30",5098.23667,15.44,TRADE
QLD1,"2003/10/30 07:00",5512.96167,16,TRADE
QLD1,"2003/10/30 07:30",5914.15167,17.47,TRADE
QLD1,"2003/10/30 08:00",6144.80833,17.14,TRADE
QLD1,"2003/10/30 08:30",6222.18833,16.33,TRADE
QLD1,"2003/10/30 09:00",6229.48833,16.03,TRADE
QLD1,"2003/10/30 09:30",6269.01333,15.99,TRADE
QLD1,"2003/10/30 10:00",6282.84,16.09,TRADE
QLD1,"2003/10/30 10:30",6293.24667,16.18,TRADE
QLD1,"2003/10/30 11:00",6264.33667,15.86,TRADE
QLD1,"2003/10/30 11:30",6334.61833,15.78,TRADE
QLD1,"2003/10/30 12:00",6360.10333,15.54,TRADE
QLD1,"2003/10/30 12:30",6368.465,15.72,TRADE
QLD1,"2003/10/30 13:00",6405.00167,16.36,TRADE
QLD1,"2003/10/30 13:30",6396.39667,16.42,TRADE
QLD1,"2003/10/30 14:00",6405.035,17.01,TRADE
QLD1,"2003/10/30 14:30",6433.22667,16.9,TRADE
QLD1,"2003/10/30 15:00",6435.68333,16.42,TRADE
QLD1,"2003/10/30 15:30",6432.425,16.36,TRADE
QLD1,"2003/10/30 16:00",6403.87167,16.3,TRADE
QLD1,"2003/10/30 16:30",6424.22333,16.37,TRADE
QLD1,"2003/10/30 17:00",6380.00333,16.25,TRADE
QLD1,"2003/10/30 17:30",6330.64333,15.77,TRADE
QLD1,"2003/10/30 18:00",6343.40667,15.76,TRADE
QLD1,"2003/10/30 18:30",6414.76833,16.03,TRADE
QLD1,"2003/10/30 19:00",6571.2,18.14,TRADE
QLD1,"2003/10/30 19:30",6434.955,17.57,TRADE
QLD1,"2003/10/30 20:00",6321.91333,16.94,TRADE
QLD1,"2003/10/30 20:30",6189.41333,17.21,TRADE
QLD1,"2003/10/30 21:00",5973.28167,16.13,TRADE
QLD1,"2003/10/30 21:30",5833.025,16.17,TRADE
QLD1,"2003/10/30 22:00",5683.57667,15.78,TRADE
QLD1,"2003/10/30 22:30",5582.14667,16.55,TRADE
QLD1,"2003/10/30 23:00",5424.69667,16.71,TRADE
QLD1,"2003/10/30 23:30",5411.86,16.62,TRADE
QLD1,"2003/10/31 00:00",5182.59833,15.94,TRADE
QLD1,"2003/10/31 00:30",4969.95833,15.3,TRADE
QLD1,"2003/10/31 01:00",4756.60833,14.89,TRADE
QLD1,"2003/10/31 01:30",4626.54833,14.6,TRADE
QLD1,"2003/10/31 02:00",4489.83,14.39,TRADE
QLD1,"2003/10/31 02:30",4376.78667,12.41,TRADE
QLD1,"2003/10/31 03:00",4332.805,11.6,TRADE
QLD1,"2003/10/31 03:30",4322.07333,10.99,TRADE
QLD1,"2003/10/31 04:00",4342.35,10.84,TRADE
QLD1,"2003/10/31 04:30",4369.38167,11.53,TRADE
QLD1,"2003/10/31 05:00",4405.68667,13.04,TRADE
QLD1,"2003/10/31 05:30",4459.25333,14.83,TRADE
QLD1,"2003/10/31 06:00",4712.72333,16.02,TRADE
QLD1,"2003/10/31 06:30",5126.60833,17.39,TRADE
QLD1,"2003/10/31 07:00",5570.375,18.78,TRADE
QLD1,"2003/10/31 07:30",5928.39667,19.05,TRADE
QLD1,"2003/10/31 08:00",6140.57667,19.14,TRADE
QLD1,"2003/10/31 08:30",6280.05667,19.38,TRADE
QLD1,"2003/10/31 09:00",6350.455,19.21,TRADE
QLD1,"2003/10/31 09:30",6440.32167,19.99,TRADE
QLD1,"2003/10/31 10:00",6402.49333,18.83,TRADE
QLD1,"2003/10/31 10:30",6425.22167,18.8,TRADE
QLD1,"2003/10/31 11:00",6451.48333,18.8,TRADE
QLD1,"2003/10/31 11:30",6483.97333,18.93,TRADE
QLD1,"2003/10/31 12:00",6461.72333,18.75,TRADE
QLD1,"2003/10/31 12:30",6482.61833,18.8,TRADE
QLD1,"2003/10/31 13:00",6496.48,18.8,TRADE
QLD1,"2003/10/31 13:30",6491.09833,19.02,TRADE
QLD1,"2003/10/31 14:00",6498.42833,19.08,TRADE
QLD1,"2003/10/31 14:30",6486.07833,18.72,TRADE
QLD1,"2003/10/31 15:00",6480.47,18.42,TRADE
QLD1,"2003/10/31 15:30",6415.20333,18.54,TRADE
QLD1,"2003/10/31 16:00",6413.51167,18.58,TRADE
QLD1,"2003/10/31 16:30",6458.18833,19.51,TRADE
QLD1,"2003/10/31 17:00",6448.02167,19.13,TRADE
QLD1,"2003/10/31 17:30",6386.4,18.8,TRADE
QLD1,"2003/10/31 18:00",6399.7,18.8,TRADE
QLD1,"2003/10/31 18:30",6380.09333,18.8,TRADE
QLD1,"2003/10/31 19:00",6274.975,18.9,TRADE
QLD1,"2003/10/31 19:30",6048.44167,18.45,TRADE
QLD1,"2003/10/31 20:00",5953.015,17.22,TRADE
QLD1,"2003/10/31 20:30",5806.17167,16.21,TRADE
QLD1,"2003/10/31 21:00",5636.25,15.32,TRADE
QLD1,"2003/10/31 21:30",5577.855,17.25,TRADE
QLD1,"2003/10/31 22:00",5509.31167,15.34,TRADE
QLD1,"2003/10/31 22:30",5383.86167,15.15,TRADE
QLD1,"2003/10/31 23:00",5339.415,15.44,TRADE
QLD1,"2003/10/31 23:30",5337.93833,15.58,TRADE
QLD1,"2003/11/01 00:00",5116.86,14.82,TRADE
