REGION,SETTLEMENTDATE,TOTALDEMAND,RRP,PERIODTYPE
VIC1,"2014/03/01 00:30:00",4777.62,39.1,TRADE
VIC1,"2014/03/01 01:00:00",4573.61,37.93,TRADE
VIC1,"2014/03/01 01:30:00",4370.54,37.75,TRADE
VIC1,"2014/03/01 02:00:00",4224.54,33.07,TRADE
VIC1,"2014/03/01 02:30:00",4183.59,36.48,TRADE
VIC1,"2014/03/01 03:00:00",4101.62,36.62,TRADE
VIC1,"2014/03/01 03:30:00",4100.9,36.67,TRADE
VIC1,"2014/03/01 04:00:00",4141.45,36.64,TRADE
VIC1,"2014/03/01 04:30:00",4176.37,36.53,TRADE
VIC1,"2014/03/01 05:00:00",4217.63,37.62,TRADE
VIC1,"2014/03/01 05:30:00",4348.86,38.16,TRADE
VIC1,"2014/03/01 06:00:00",4529.95,38.36,TRADE
VIC1,"2014/03/01 06:30:00",4700.94,39.08,TRADE
VIC1,"2014/03/01 07:00:00",4937.99,41.13,TRADE
VIC1,"2014/03/01 07:30:00",4957.37,41.14,TRADE
VIC1,"2014/03/01 08:00:00",5115.07,41.56,TRADE
VIC1,"2014/03/01 08:30:00",5218.75,41.67,TRADE
VIC1,"2014/03/01 09:00:00",5230.71,41.67,TRADE
VIC1,"2014/03/01 09:30:00",5276.97,41.64,TRADE
VIC1,"2014/03/01 10:00:00",5298.63,41.51,TRADE
VIC1,"2014/03/01 10:30:00",5261.96,40.8,TRADE
VIC1,"2014/03/01 11:00:00",5299.99,41.21,TRADE
VIC1,"2014/03/01 11:30:00",5254.31,40.88,TRADE
VIC1,"2014/03/01 12:00:00",5266.26,40.86,TRADE
VIC1,"2014/03/01 12:30:00",5278.15,40.91,TRADE
VIC1,"2014/03/01 13:00:00",5269.1,40.91,TRADE
VIC1,"2014/03/01 13:30:00",5225.85,40.87,TRADE
VIC1,"2014/03/01 14:00:00",5182.7,40.69,TRADE
VIC1,"2014/03/01 14:30:00",5155.43,40.67,TRADE
VIC1,"2014/03/01 15:00:00",5182.7,40.87,TRADE
VIC1,"2014/03/01 15:30:00",5204.26,40.92,TRADE
VIC1,"2014/03/01 16:00:00",5241.36,40.85,TRADE
VIC1,"2014/03/01 16:30:00",5268.68,40.85,TRADE
VIC1,"2014/03/01 17:00:00",5273.65,41.52,TRADE
VIC1,"2014/03/01 17:30:00",5280.65,41.08,TRADE
VIC1,"2014/03/01 18:00:00",5244.17,41.34,TRADE
VIC1,"2014/03/01 18:30:00",5130.89,40.66,TRADE
VIC1,"2014/03/01 19:00:00",5111.47,41.03,TRADE
VIC1,"2014/03/01 19:30:00",5086.46,40.44,TRADE
VIC1,"2014/03/01 20:00:00",5186.6,40.91,TRADE
VIC1,"2014/03/01 20:30:00",5041.96,40.67,TRADE
VIC1,"2014/03/01 21:00:00",4922.88,39.86,TRADE
VIC1,"2014/03/01 21:30:00",4787.43,40.51,TRADE
VIC1,"2014/03/01 22:00:00",4665.04,38.36,TRADE
VIC1,"2014/03/01 22:30:00",4633.61,38.54,TRADE
VIC1,"2014/03/01 23:00:00",4664.52,39.15,TRADE
VIC1,"2014/03/01 23:30:00",5096.61,40.93,TRADE
VIC1,"2014/03/02 00:00:00",5126.64,41.16,TRADE
VIC1,"2014/03/02 00:30:00",4735.03,37.89,TRADE
VIC1,"2014/03/02 01:00:00",4472.33,37.39,TRADE
VIC1,"2014/03/02 01:30:00",4299.11,36.79,TRADE
VIC1,"2014/03/02 02:00:00",4215.2,36.37,TRADE
VIC1,"2014/03/02 02:30:00",4118.08,35.68,TRADE
VIC1,"2014/03/02 03:00:00",4015.22,33.8,TRADE
VIC1,"2014/03/02 03:30:00",3973.43,33.12,TRADE
VIC1,"2014/03/02 04:00:00",3954.69,30.59,TRADE
VIC1,"2014/03/02 04:30:00",3947.79,34.87,TRADE
VIC1,"2014/03/02 05:00:00",4024.19,35.73,TRADE
VIC1,"2014/03/02 05:30:00",4063.57,36.42,TRADE
VIC1,"2014/03/02 06:00:00",4092.22,36.86,TRADE
VIC1,"2014/03/02 06:30:00",4202.03,36.91,TRADE
VIC1,"2014/03/02 07:00:00",4310.15,38.06,TRADE
VIC1,"2014/03/02 07:30:00",4370.15,38.34,TRADE
VIC1,"2014/03/02 08:00:00",4521.17,38.86,TRADE
VIC1,"2014/03/02 08:30:00",4644.62,38.73,TRADE
VIC1,"2014/03/02 09:00:00",4752.91,39.73,TRADE
VIC1,"2014/03/02 09:30:00",4863.04,41.62,TRADE
VIC1,"2014/03/02 10:00:00",4866.74,41.23,TRADE
VIC1,"2014/03/02 10:30:00",4894.67,40.97,TRADE
VIC1,"2014/03/02 11:00:00",4881.07,40.65,TRADE
VIC1,"2014/03/02 11:30:00",4911.26,39.79,TRADE
VIC1,"2014/03/02 12:00:00",4882.42,39.53,TRADE
VIC1,"2014/03/02 12:30:00",4816.22,40.09,TRADE
VIC1,"2014/03/02 13:00:00",4824.86,40.79,TRADE
VIC1,"2014/03/02 13:30:00",4837.81,41.04,TRADE
VIC1,"2014/03/02 14:00:00",4889.66,40.89,TRADE
VIC1,"2014/03/02 14:30:00",4881,40.87,TRADE
VIC1,"2014/03/02 15:00:00",4927.28,40.23,TRADE
VIC1,"2014/03/02 15:30:00",4995.73,40.27,TRADE
VIC1,"2014/03/02 16:00:00",5132.47,41,TRADE
VIC1,"2014/03/02 16:30:00",5186.77,42.04,TRADE
VIC1,"2014/03/02 17:00:00",5297.75,42.63,TRADE
VIC1,"2014/03/02 17:30:00",5302.42,42.23,TRADE
VIC1,"2014/03/02 18:00:00",5353.96,41.68,TRADE
VIC1,"2014/03/02 18:30:00",5213.6,40.97,TRADE
VIC1,"2014/03/02 19:00:00",5166.33,40.96,TRADE
VIC1,"2014/03/02 19:30:00",5273.08,41.03,TRADE
VIC1,"2014/03/02 20:00:00",5370.48,41.21,TRADE
VIC1,"2014/03/02 20:30:00",5149.99,40.76,TRADE
VIC1,"2014/03/02 21:00:00",5010.18,40.82,TRADE
VIC1,"2014/03/02 21:30:00",4860.91,40.71,TRADE
VIC1,"2014/03/02 22:00:00",4645.48,38.08,TRADE
VIC1,"2014/03/02 22:30:00",4574.19,38.24,TRADE
VIC1,"2014/03/02 23:00:00",4601.68,38.05,TRADE
VIC1,"2014/03/02 23:30:00",4969.59,38.65,TRADE
VIC1,"2014/03/03 00:00:00",5084.62,40.21,TRADE
VIC1,"2014/03/03 00:30:00",4757.49,38.22,TRADE
VIC1,"2014/03/03 01:00:00",4549.36,37.64,TRADE
VIC1,"2014/03/03 01:30:00",4378.19,35.35,TRADE
VIC1,"2014/03/03 02:00:00",4279.56,35.34,TRADE
VIC1,"2014/03/03 02:30:00",4192,35.35,TRADE
VIC1,"2014/03/03 03:00:00",4157.92,35.68,TRADE
VIC1,"2014/03/03 03:30:00",4175.9,35.97,TRADE
VIC1,"2014/03/03 04:00:00",4264.11,36.62,TRADE
VIC1,"2014/03/03 04:30:00",4393.11,38.06,TRADE
VIC1,"2014/03/03 05:00:00",4631.22,39.53,TRADE
VIC1,"2014/03/03 05:30:00",5038.62,41.16,TRADE
VIC1,"2014/03/03 06:00:00",5469.02,43.17,TRADE
VIC1,"2014/03/03 06:30:00",5909.02,48.08,TRADE
VIC1,"2014/03/03 07:00:00",6167.36,49.67,TRADE
VIC1,"2014/03/03 07:30:00",6079.24,48.9,TRADE
VIC1,"2014/03/03 08:00:00",6106.35,48.54,TRADE
VIC1,"2014/03/03 08:30:00",6157.45,49.67,TRADE
VIC1,"2014/03/03 09:00:00",6117.39,48.73,TRADE
VIC1,"2014/03/03 09:30:00",6103.09,48.7,TRADE
VIC1,"2014/03/03 10:00:00",6140.75,47.86,TRADE
VIC1,"2014/03/03 10:30:00",6174.39,47.33,TRADE
VIC1,"2014/03/03 11:00:00",6255.12,48.15,TRADE
VIC1,"2014/03/03 11:30:00",6295.92,49.5,TRADE
VIC1,"2014/03/03 12:00:00",6318.97,49.51,TRADE
VIC1,"2014/03/03 12:30:00",6320,49.69,TRADE
VIC1,"2014/03/03 13:00:00",6444.97,50.38,TRADE
VIC1,"2014/03/03 13:30:00",6487.53,50.77,TRADE
VIC1,"2014/03/03 14:00:00",6550.14,48.97,TRADE
VIC1,"2014/03/03 14:30:00",6542.5,48.92,TRADE
VIC1,"2014/03/03 15:00:00",6572.26,48.26,TRADE
VIC1,"2014/03/03 15:30:00",6714.31,49.53,TRADE
VIC1,"2014/03/03 16:00:00",6726.62,50.04,TRADE
VIC1,"2014/03/03 16:30:00",6793.8,49.8,TRADE
VIC1,"2014/03/03 17:00:00",6772.27,49.18,TRADE
VIC1,"2014/03/03 17:30:00",6606.18,48.27,TRADE
VIC1,"2014/03/03 18:00:00",6502.37,46.71,TRADE
VIC1,"2014/03/03 18:30:00",6374.91,42.34,TRADE
VIC1,"2014/03/03 19:00:00",6251.74,40.91,TRADE
VIC1,"2014/03/03 19:30:00",6261.49,40.98,TRADE
VIC1,"2014/03/03 20:00:00",6217.77,41.64,TRADE
VIC1,"2014/03/03 20:30:00",6056.34,40.91,TRADE
VIC1,"2014/03/03 21:00:00",5823.82,40.77,TRADE
VIC1,"2014/03/03 21:30:00",5579.21,40.91,TRADE
VIC1,"2014/03/03 22:00:00",5319.4,40.91,TRADE
VIC1,"2014/03/03 22:30:00",5255.49,40.91,TRADE
VIC1,"2014/03/03 23:00:00",5233.01,40.52,TRADE
VIC1,"2014/03/03 23:30:00",5614.82,40.91,TRADE
VIC1,"2014/03/04 00:00:00",5628.81,40.83,TRADE
VIC1,"2014/03/04 00:30:00",5207.78,38.8,TRADE
VIC1,"2014/03/04 01:00:00",4975.65,38.06,TRADE
VIC1,"2014/03/04 01:30:00",4797.3,38.08,TRADE
VIC1,"2014/03/04 02:00:00",4696.87,37.97,TRADE
VIC1,"2014/03/04 02:30:00",4589.5,37.99,TRADE
VIC1,"2014/03/04 03:00:00",4475.37,38,TRADE
VIC1,"2014/03/04 03:30:00",4531.9,38.03,TRADE
VIC1,"2014/03/04 04:00:00",4578.68,38.03,TRADE
VIC1,"2014/03/04 04:30:00",4720.63,38.7,TRADE
VIC1,"2014/03/04 05:00:00",4893.91,39.86,TRADE
VIC1,"2014/03/04 05:30:00",5240.97,40.63,TRADE
VIC1,"2014/03/04 06:00:00",5595.73,40.91,TRADE
VIC1,"2014/03/04 06:30:00",5963.55,47.33,TRADE
VIC1,"2014/03/04 07:00:00",6193.6,52.68,TRADE
VIC1,"2014/03/04 07:30:00",6134.99,43.61,TRADE
VIC1,"2014/03/04 08:00:00",6202.71,40.91,TRADE
VIC1,"2014/03/04 08:30:00",6275.82,46.88,TRADE
VIC1,"2014/03/04 09:00:00",6375.02,53.44,TRADE
VIC1,"2014/03/04 09:30:00",6441.92,53.78,TRADE
VIC1,"2014/03/04 10:00:00",6596.83,54.9,TRADE
VIC1,"2014/03/04 10:30:00",6721.43,55.11,TRADE
VIC1,"2014/03/04 11:00:00",6865,55.29,TRADE
VIC1,"2014/03/04 11:30:00",6940.01,56.08,TRADE
VIC1,"2014/03/04 12:00:00",7082.2,56.94,TRADE
VIC1,"2014/03/04 12:30:00",7187.57,57.02,TRADE
VIC1,"2014/03/04 13:00:00",7341.99,56.74,TRADE
VIC1,"2014/03/04 13:30:00",7375.96,57.02,TRADE
VIC1,"2014/03/04 14:00:00",7407.14,56.17,TRADE
VIC1,"2014/03/04 14:30:00",7449.48,56.37,TRADE
VIC1,"2014/03/04 15:00:00",7563.96,57.02,TRADE
VIC1,"2014/03/04 15:30:00",7687.05,57.1,TRADE
VIC1,"2014/03/04 16:00:00",7804.69,62.23,TRADE
VIC1,"2014/03/04 16:30:00",7823.45,62.82,TRADE
VIC1,"2014/03/04 17:00:00",7767.57,62.5,TRADE
VIC1,"2014/03/04 17:30:00",7559.55,54.96,TRADE
VIC1,"2014/03/04 18:00:00",7463.32,54.34,TRADE
VIC1,"2014/03/04 18:30:00",7135.24,52.67,TRADE
VIC1,"2014/03/04 19:00:00",7002.01,56.27,TRADE
VIC1,"2014/03/04 19:30:00",6924.6,53.69,TRADE
VIC1,"2014/03/04 20:00:00",6868.56,51.44,TRADE
VIC1,"2014/03/04 20:30:00",6648.46,52.92,TRADE
VIC1,"2014/03/04 21:00:00",6444.6,53.27,TRADE
VIC1,"2014/03/04 21:30:00",6077.6,49.54,TRADE
VIC1,"2014/03/04 22:00:00",5769.29,45.57,TRADE
VIC1,"2014/03/04 22:30:00",5618.52,43.52,TRADE
VIC1,"2014/03/04 23:00:00",5520.17,40.91,TRADE
VIC1,"2014/03/04 23:30:00",5813.87,40.91,TRADE
VIC1,"2014/03/05 00:00:00",5761.07,41.33,TRADE
VIC1,"2014/03/05 00:30:00",5372.26,40.91,TRADE
VIC1,"2014/03/05 01:00:00",5094.74,39.41,TRADE
VIC1,"2014/03/05 01:30:00",4960.1,39.25,TRADE
VIC1,"2014/03/05 02:00:00",4843.05,38.17,TRADE
VIC1,"2014/03/05 02:30:00",4695.63,38.18,TRADE
VIC1,"2014/03/05 03:00:00",4650.34,38.2,TRADE
VIC1,"2014/03/05 03:30:00",4618.1,38.13,TRADE
VIC1,"2014/03/05 04:00:00",4669.16,38.41,TRADE
VIC1,"2014/03/05 04:30:00",4784.77,38.88,TRADE
VIC1,"2014/03/05 05:00:00",4970.28,41.07,TRADE
VIC1,"2014/03/05 05:30:00",5353.55,41.16,TRADE
VIC1,"2014/03/05 06:00:00",5725.03,44.34,TRADE
VIC1,"2014/03/05 06:30:00",6164.06,50.6,TRADE
VIC1,"2014/03/05 07:00:00",6488.06,47.41,TRADE
VIC1,"2014/03/05 07:30:00",6393.5,43.73,TRADE
VIC1,"2014/03/05 08:00:00",6403.61,45.35,TRADE
VIC1,"2014/03/05 08:30:00",6514.67,49.05,TRADE
VIC1,"2014/03/05 09:00:00",6558.92,46.29,TRADE
VIC1,"2014/03/05 09:30:00",6515.39,47.15,TRADE
VIC1,"2014/03/05 10:00:00",6500.1,48.88,TRADE
VIC1,"2014/03/05 10:30:00",6518.31,47.78,TRADE
VIC1,"2014/03/05 11:00:00",6498.43,55.79,TRADE
VIC1,"2014/03/05 11:30:00",6421.3,52.55,TRADE
VIC1,"2014/03/05 12:00:00",6420.28,52.53,TRADE
VIC1,"2014/03/05 12:30:00",6394.02,50.96,TRADE
VIC1,"2014/03/05 13:00:00",6366.95,52.1,TRADE
VIC1,"2014/03/05 13:30:00",6315.35,47.7,TRADE
VIC1,"2014/03/05 14:00:00",6293.48,43.47,TRADE
VIC1,"2014/03/05 14:30:00",6274.26,45.08,TRADE
VIC1,"2014/03/05 15:00:00",6242.99,48.37,TRADE
VIC1,"2014/03/05 15:30:00",6237.93,41.32,TRADE
VIC1,"2014/03/05 16:00:00",6187.48,41.14,TRADE
VIC1,"2014/03/05 16:30:00",6165.02,40.91,TRADE
VIC1,"2014/03/05 17:00:00",6125.99,40.91,TRADE
VIC1,"2014/03/05 17:30:00",6009.06,40.72,TRADE
VIC1,"2014/03/05 18:00:00",5847.66,39.04,TRADE
VIC1,"2014/03/05 18:30:00",5742.18,40.91,TRADE
VIC1,"2014/03/05 19:00:00",5765,41.48,TRADE
VIC1,"2014/03/05 19:30:00",5772.86,44.19,TRADE
VIC1,"2014/03/05 20:00:00",5705.98,40.91,TRADE
VIC1,"2014/03/05 20:30:00",5552.97,41.79,TRADE
VIC1,"2014/03/05 21:00:00",5363.83,40.91,TRADE
VIC1,"2014/03/05 21:30:00",5088.47,40.91,TRADE
VIC1,"2014/03/05 22:00:00",4835.66,39.9,TRADE
VIC1,"2014/03/05 22:30:00",4760.45,40.14,TRADE
VIC1,"2014/03/05 23:00:00",4793.86,39.82,TRADE
VIC1,"2014/03/05 23:30:00",5168.07,42,TRADE
VIC1,"2014/03/06 00:00:00",5251.05,42.23,TRADE
VIC1,"2014/03/06 00:30:00",4867.91,40.82,TRADE
VIC1,"2014/03/06 01:00:00",4594.14,38.13,TRADE
VIC1,"2014/03/06 01:30:00",4480.23,38.07,TRADE
VIC1,"2014/03/06 02:00:00",4354.89,38.17,TRADE
VIC1,"2014/03/06 02:30:00",4245.63,38.11,TRADE
VIC1,"2014/03/06 03:00:00",4185.64,38.04,TRADE
VIC1,"2014/03/06 03:30:00",4164.73,38.08,TRADE
VIC1,"2014/03/06 04:00:00",4209.88,38.22,TRADE
VIC1,"2014/03/06 04:30:00",4313.63,40.36,TRADE
VIC1,"2014/03/06 05:00:00",4543.78,40.89,TRADE
VIC1,"2014/03/06 05:30:00",4968.74,42.57,TRADE
VIC1,"2014/03/06 06:00:00",5311.13,48.75,TRADE
VIC1,"2014/03/06 06:30:00",5742.18,51.55,TRADE
VIC1,"2014/03/06 07:00:00",5984.93,49.21,TRADE
VIC1,"2014/03/06 07:30:00",5877.1,46.94,TRADE
VIC1,"2014/03/06 08:00:00",5863.18,48.1,TRADE
VIC1,"2014/03/06 08:30:00",5879.86,50.04,TRADE
VIC1,"2014/03/06 09:00:00",5829.79,49.48,TRADE
VIC1,"2014/03/06 09:30:00",5836.52,47.33,TRADE
VIC1,"2014/03/06 10:00:00",5843.35,46.86,TRADE
VIC1,"2014/03/06 10:30:00",5859.33,46.94,TRADE
VIC1,"2014/03/06 11:00:00",5884.5,46.57,TRADE
VIC1,"2014/03/06 11:30:00",5920.36,46.52,TRADE
VIC1,"2014/03/06 12:00:00",5923.92,45.53,TRADE
VIC1,"2014/03/06 12:30:00",5926.34,46.87,TRADE
VIC1,"2014/03/06 13:00:00",5952.95,47.38,TRADE
VIC1,"2014/03/06 13:30:00",5959.87,48.55,TRADE
VIC1,"2014/03/06 14:00:00",5995.9,47.93,TRADE
VIC1,"2014/03/06 14:30:00",5972.91,47.44,TRADE
VIC1,"2014/03/06 15:00:00",5962.67,50.34,TRADE
VIC1,"2014/03/06 15:30:00",5938.21,47.92,TRADE
VIC1,"2014/03/06 16:00:00",5889.55,48.26,TRADE
VIC1,"2014/03/06 16:30:00",5879.97,50.9,TRADE
VIC1,"2014/03/06 17:00:00",5875.52,50.31,TRADE
VIC1,"2014/03/06 17:30:00",5772.29,47.52,TRADE
VIC1,"2014/03/06 18:00:00",5615.2,46.91,TRADE
VIC1,"2014/03/06 18:30:00",5540.06,49.78,TRADE
VIC1,"2014/03/06 19:00:00",5474.75,51.02,TRADE
VIC1,"2014/03/06 19:30:00",5547.26,53.52,TRADE
VIC1,"2014/03/06 20:00:00",5570.52,56.02,TRADE
VIC1,"2014/03/06 20:30:00",5421.98,50.9,TRADE
VIC1,"2014/03/06 21:00:00",5295.64,47.41,TRADE
VIC1,"2014/03/06 21:30:00",5068.1,45.95,TRADE
VIC1,"2014/03/06 22:00:00",4832.99,46.01,TRADE
VIC1,"2014/03/06 22:30:00",4732.05,45.61,TRADE
VIC1,"2014/03/06 23:00:00",4701.93,45.14,TRADE
VIC1,"2014/03/06 23:30:00",5085.93,46.87,TRADE
VIC1,"2014/03/07 00:00:00",5111.66,49.88,TRADE
VIC1,"2014/03/07 00:30:00",4814.98,44.61,TRADE
VIC1,"2014/03/07 01:00:00",4561.7,41.85,TRADE
VIC1,"2014/03/07 01:30:00",4423.22,38.14,TRADE
VIC1,"2014/03/07 02:00:00",4326.98,38.05,TRADE
VIC1,"2014/03/07 02:30:00",4244.23,38,TRADE
VIC1,"2014/03/07 03:00:00",4176.48,38,TRADE
VIC1,"2014/03/07 03:30:00",4192.4,38.48,TRADE
VIC1,"2014/03/07 04:00:00",4221.66,38.21,TRADE
VIC1,"2014/03/07 04:30:00",4317.25,38.34,TRADE
VIC1,"2014/03/07 05:00:00",4526.85,40.86,TRADE
VIC1,"2014/03/07 05:30:00",4893.24,40.36,TRADE
VIC1,"2014/03/07 06:00:00",5280.88,40.86,TRADE
VIC1,"2014/03/07 06:30:00",5733.45,43.01,TRADE
VIC1,"2014/03/07 07:00:00",6015.37,46.94,TRADE
VIC1,"2014/03/07 07:30:00",5941.13,45.79,TRADE
VIC1,"2014/03/07 08:00:00",5923.54,45.56,TRADE
VIC1,"2014/03/07 08:30:00",5943.8,45.7,TRADE
VIC1,"2014/03/07 09:00:00",5945.4,45.48,TRADE
VIC1,"2014/03/07 09:30:00",5909.51,40.91,TRADE
VIC1,"2014/03/07 10:00:00",5880.04,40.91,TRADE
VIC1,"2014/03/07 10:30:00",5970.65,40.91,TRADE
VIC1,"2014/03/07 11:00:00",5972.03,40.86,TRADE
VIC1,"2014/03/07 11:30:00",5974.37,40.91,TRADE
VIC1,"2014/03/07 12:00:00",5964.63,45.27,TRADE
VIC1,"2014/03/07 12:30:00",5946.26,46.89,TRADE
VIC1,"2014/03/07 13:00:00",5952.68,45.63,TRADE
VIC1,"2014/03/07 13:30:00",5903.95,45.55,TRADE
VIC1,"2014/03/07 14:00:00",5901.43,42.62,TRADE
VIC1,"2014/03/07 14:30:00",5823.59,41.37,TRADE
VIC1,"2014/03/07 15:00:00",5790.14,40.92,TRADE
VIC1,"2014/03/07 15:30:00",5841.83,40.91,TRADE
VIC1,"2014/03/07 16:00:00",5813.14,40.91,TRADE
VIC1,"2014/03/07 16:30:00",5781.15,40.91,TRADE
VIC1,"2014/03/07 17:00:00",5813.98,40.91,TRADE
VIC1,"2014/03/07 17:30:00",5754.05,40.91,TRADE
VIC1,"2014/03/07 18:00:00",5637.4,40.86,TRADE
VIC1,"2014/03/07 18:30:00",5529.91,40.91,TRADE
VIC1,"2014/03/07 19:00:00",5510.39,40.91,TRADE
VIC1,"2014/03/07 19:30:00",5506.51,40.91,TRADE
VIC1,"2014/03/07 20:00:00",5426.17,40.91,TRADE
VIC1,"2014/03/07 20:30:00",5261.96,40.86,TRADE
VIC1,"2014/03/07 21:00:00",5049.93,39.5,TRADE
VIC1,"2014/03/07 21:30:00",4849.28,38.7,TRADE
VIC1,"2014/03/07 22:00:00",4692.73,38.2,TRADE
VIC1,"2014/03/07 22:30:00",4647.35,38.2,TRADE
VIC1,"2014/03/07 23:00:00",4662.46,38.2,TRADE
VIC1,"2014/03/07 23:30:00",5030.53,39.87,TRADE
VIC1,"2014/03/08 00:00:00",5098.27,40.5,TRADE
VIC1,"2014/03/08 00:30:00",4690.41,38.1,TRADE
VIC1,"2014/03/08 01:00:00",4403.44,37.86,TRADE
VIC1,"2014/03/08 01:30:00",4197.51,37.07,TRADE
VIC1,"2014/03/08 02:00:00",4080.33,35.17,TRADE
VIC1,"2014/03/08 02:30:00",3979.21,25.91,TRADE
VIC1,"2014/03/08 03:00:00",3916.01,30.41,TRADE
VIC1,"2014/03/08 03:30:00",3900.32,25.03,TRADE
VIC1,"2014/03/08 04:00:00",3909.74,25.29,TRADE
VIC1,"2014/03/08 04:30:00",3932.3,31.77,TRADE
VIC1,"2014/03/08 05:00:00",4020.27,37.01,TRADE
VIC1,"2014/03/08 05:30:00",4138.84,37.27,TRADE
VIC1,"2014/03/08 06:00:00",4341.23,38.13,TRADE
VIC1,"2014/03/08 06:30:00",4505.27,38.27,TRADE
VIC1,"2014/03/08 07:00:00",4701.57,38.8,TRADE
VIC1,"2014/03/08 07:30:00",4765.06,38.46,TRADE
VIC1,"2014/03/08 08:00:00",4934.26,39.82,TRADE
VIC1,"2014/03/08 08:30:00",5024.46,39.55,TRADE
VIC1,"2014/03/08 09:00:00",5104.35,39.17,TRADE
VIC1,"2014/03/08 09:30:00",5134.08,39.86,TRADE
VIC1,"2014/03/08 10:00:00",5193.28,40.28,TRADE
VIC1,"2014/03/08 10:30:00",5181.38,41.49,TRADE
VIC1,"2014/03/08 11:00:00",5175.22,40.9,TRADE
VIC1,"2014/03/08 11:30:00",5109.88,40.28,TRADE
VIC1,"2014/03/08 12:00:00",5161.36,42.18,TRADE
VIC1,"2014/03/08 12:30:00",5139.66,41.68,TRADE
VIC1,"2014/03/08 13:00:00",5128.86,41.91,TRADE
VIC1,"2014/03/08 13:30:00",5131.83,41.59,TRADE
VIC1,"2014/03/08 14:00:00",5163.67,42.6,TRADE
VIC1,"2014/03/08 14:30:00",5220.03,42.84,TRADE
VIC1,"2014/03/08 15:00:00",5327.97,42.57,TRADE
VIC1,"2014/03/08 15:30:00",5405.19,43.46,TRADE
VIC1,"2014/03/08 16:00:00",5510.69,44.85,TRADE
VIC1,"2014/03/08 16:30:00",5547.07,43.82,TRADE
VIC1,"2014/03/08 17:00:00",5584.38,45.9,TRADE
VIC1,"2014/03/08 17:30:00",5566.47,44.11,TRADE
VIC1,"2014/03/08 18:00:00",5517.49,43.11,TRADE
VIC1,"2014/03/08 18:30:00",5416.5,42.04,TRADE
VIC1,"2014/03/08 19:00:00",5414.48,42.01,TRADE
VIC1,"2014/03/08 19:30:00",5439.3,43.76,TRADE
VIC1,"2014/03/08 20:00:00",5457.96,41.13,TRADE
VIC1,"2014/03/08 20:30:00",5280.69,44.48,TRADE
VIC1,"2014/03/08 21:00:00",5154.5,42.06,TRADE
VIC1,"2014/03/08 21:30:00",4973.18,40.51,TRADE
VIC1,"2014/03/08 22:00:00",4893.22,40.53,TRADE
VIC1,"2014/03/08 22:30:00",4858.8,40.62,TRADE
VIC1,"2014/03/08 23:00:00",4870.96,40.59,TRADE
VIC1,"2014/03/08 23:30:00",5258.64,42.78,TRADE
VIC1,"2014/03/09 00:00:00",5291.96,42.09,TRADE
VIC1,"2014/03/09 00:30:00",4893.53,40.28,TRADE
VIC1,"2014/03/09 01:00:00",4609.22,39.23,TRADE
VIC1,"2014/03/09 01:30:00",4468.15,38.13,TRADE
VIC1,"2014/03/09 02:00:00",4312.03,38.09,TRADE
VIC1,"2014/03/09 02:30:00",4200.51,38.15,TRADE
VIC1,"2014/03/09 03:00:00",4138.53,38.2,TRADE
VIC1,"2014/03/09 03:30:00",4088.83,38.13,TRADE
VIC1,"2014/03/09 04:00:00",4066.28,38.03,TRADE
VIC1,"2014/03/09 04:30:00",3998.56,36.88,TRADE
VIC1,"2014/03/09 05:00:00",4021.4,38,TRADE
VIC1,"2014/03/09 05:30:00",4097.62,38,TRADE
VIC1,"2014/03/09 06:00:00",4177.45,37.95,TRADE
VIC1,"2014/03/09 06:30:00",4256.82,38.02,TRADE
VIC1,"2014/03/09 07:00:00",4325.59,38.55,TRADE
VIC1,"2014/03/09 07:30:00",4325.68,38.73,TRADE
VIC1,"2014/03/09 08:00:00",4497.06,40.3,TRADE
VIC1,"2014/03/09 08:30:00",4650.27,40.28,TRADE
VIC1,"2014/03/09 09:00:00",4783.55,40.28,TRADE
VIC1,"2014/03/09 09:30:00",4900.59,40.7,TRADE
VIC1,"2014/03/09 10:00:00",4948.38,40.65,TRADE
VIC1,"2014/03/09 10:30:00",4939.41,41.86,TRADE
VIC1,"2014/03/09 11:00:00",4676.09,39.99,TRADE
VIC1,"2014/03/09 11:30:00",5205.22,43.73,TRADE
VIC1,"2014/03/09 12:00:00",5309.18,44.51,TRADE
VIC1,"2014/03/09 12:30:00",5342.08,44.38,TRADE
VIC1,"2014/03/09 13:00:00",5415.24,44.82,TRADE
VIC1,"2014/03/09 13:30:00",5542.39,46.45,TRADE
VIC1,"2014/03/09 14:00:00",5638.17,47.01,TRADE
VIC1,"2014/03/09 14:30:00",5772.18,47.76,TRADE
VIC1,"2014/03/09 15:00:00",5866.21,48.99,TRADE
VIC1,"2014/03/09 15:30:00",6014.24,49.27,TRADE
VIC1,"2014/03/09 16:00:00",6184.89,50.95,TRADE
VIC1,"2014/03/09 16:30:00",6254.98,52.43,TRADE
VIC1,"2014/03/09 17:00:00",6319.75,59.9,TRADE
VIC1,"2014/03/09 17:30:00",6408.18,61.43,TRADE
VIC1,"2014/03/09 18:00:00",6363.92,54.55,TRADE
VIC1,"2014/03/09 18:30:00",6232.16,51.9,TRADE
VIC1,"2014/03/09 19:00:00",6118.09,51.52,TRADE
VIC1,"2014/03/09 19:30:00",6083.79,50.69,TRADE
VIC1,"2014/03/09 20:00:00",6007.03,48.07,TRADE
VIC1,"2014/03/09 20:30:00",5768.22,44.61,TRADE
VIC1,"2014/03/09 21:00:00",5583.29,43.25,TRADE
VIC1,"2014/03/09 21:30:00",5385.33,40.56,TRADE
VIC1,"2014/03/09 22:00:00",5131.63,39.75,TRADE
VIC1,"2014/03/09 22:30:00",5042.18,40.28,TRADE
VIC1,"2014/03/09 23:00:00",4980.63,40.34,TRADE
VIC1,"2014/03/09 23:30:00",5352.01,43.03,TRADE
VIC1,"2014/03/10 00:00:00",5371.66,43,TRADE
VIC1,"2014/03/10 00:30:00",4912.85,39.9,TRADE
VIC1,"2014/03/10 01:00:00",4573.39,38.19,TRADE
VIC1,"2014/03/10 01:30:00",4436.53,38,TRADE
VIC1,"2014/03/10 02:00:00",4332.63,38,TRADE
VIC1,"2014/03/10 02:30:00",4225.17,38,TRADE
VIC1,"2014/03/10 03:00:00",4132.25,38,TRADE
VIC1,"2014/03/10 03:30:00",4058,37.79,TRADE
VIC1,"2014/03/10 04:00:00",4060.59,37.63,TRADE
VIC1,"2014/03/10 04:30:00",4061.65,37.45,TRADE
VIC1,"2014/03/10 05:00:00",4131.52,38.07,TRADE
VIC1,"2014/03/10 05:30:00",4280.48,38.17,TRADE
VIC1,"2014/03/10 06:00:00",4392.78,38.13,TRADE
VIC1,"2014/03/10 06:30:00",4523.03,38.2,TRADE
VIC1,"2014/03/10 07:00:00",4646.87,38.2,TRADE
VIC1,"2014/03/10 07:30:00",4744,38.55,TRADE
VIC1,"2014/03/10 08:00:00",4957.4,39.52,TRADE
VIC1,"2014/03/10 08:30:00",5150.8,39.99,TRADE
VIC1,"2014/03/10 09:00:00",5352.59,40.89,TRADE
VIC1,"2014/03/10 09:30:00",5517.88,42.21,TRADE
VIC1,"2014/03/10 10:00:00",5630.72,46.53,TRADE
VIC1,"2014/03/10 10:30:00",5789.14,46.39,TRADE
VIC1,"2014/03/10 11:00:00",6064.03,47.19,TRADE
VIC1,"2014/03/10 11:30:00",6168.33,48.73,TRADE
VIC1,"2014/03/10 12:00:00",6287.86,49.18,TRADE
VIC1,"2014/03/10 12:30:00",6318.97,48.33,TRADE
VIC1,"2014/03/10 13:00:00",6361.38,48.25,TRADE
VIC1,"2014/03/10 13:30:00",6441.78,48.14,TRADE
VIC1,"2014/03/10 14:00:00",6525.57,48.99,TRADE
VIC1,"2014/03/10 14:30:00",6496.3,49.38,TRADE
VIC1,"2014/03/10 15:00:00",6498.45,49.67,TRADE
VIC1,"2014/03/10 15:30:00",6487.37,48.57,TRADE
VIC1,"2014/03/10 16:00:00",6538.96,49.58,TRADE
VIC1,"2014/03/10 16:30:00",6526.56,50.51,TRADE
VIC1,"2014/03/10 17:00:00",6455.88,50.45,TRADE
VIC1,"2014/03/10 17:30:00",6367.14,47.69,TRADE
VIC1,"2014/03/10 18:00:00",6235.97,47.13,TRADE
VIC1,"2014/03/10 18:30:00",6079.08,47.07,TRADE
VIC1,"2014/03/10 19:00:00",5983.31,47.34,TRADE
VIC1,"2014/03/10 19:30:00",5975.03,47.95,TRADE
VIC1,"2014/03/10 20:00:00",5915.1,48.08,TRADE
VIC1,"2014/03/10 20:30:00",5760.74,45.41,TRADE
VIC1,"2014/03/10 21:00:00",5563.58,41.45,TRADE
VIC1,"2014/03/10 21:30:00",5324.25,42.21,TRADE
VIC1,"2014/03/10 22:00:00",5047.63,40.45,TRADE
VIC1,"2014/03/10 22:30:00",4976.83,40.62,TRADE
VIC1,"2014/03/10 23:00:00",4986.42,40.86,TRADE
VIC1,"2014/03/10 23:30:00",5333.27,43.23,TRADE
VIC1,"2014/03/11 00:00:00",5364.28,42.36,TRADE
VIC1,"2014/03/11 00:30:00",4999.47,40.28,TRADE
VIC1,"2014/03/11 01:00:00",4720.34,39.15,TRADE
VIC1,"2014/03/11 01:30:00",4561.28,38.13,TRADE
VIC1,"2014/03/11 02:00:00",4453.23,38.16,TRADE
VIC1,"2014/03/11 02:30:00",4336.13,38.03,TRADE
VIC1,"2014/03/11 03:00:00",4237.95,38.07,TRADE
VIC1,"2014/03/11 03:30:00",4263.45,38.02,TRADE
VIC1,"2014/03/11 04:00:00",4253.7,37.82,TRADE
VIC1,"2014/03/11 04:30:00",4396.3,38.15,TRADE
VIC1,"2014/03/11 05:00:00",4595.42,39.92,TRADE
VIC1,"2014/03/11 05:30:00",4933.54,39.93,TRADE
VIC1,"2014/03/11 06:00:00",5397.78,40.34,TRADE
VIC1,"2014/03/11 06:30:00",5853.46,47.9,TRADE
VIC1,"2014/03/11 07:00:00",6100.59,52.11,TRADE
VIC1,"2014/03/11 07:30:00",6119.66,41.06,TRADE
VIC1,"2014/03/11 08:00:00",6307.29,48.84,TRADE
VIC1,"2014/03/11 08:30:00",6464.45,50.92,TRADE
VIC1,"2014/03/11 09:00:00",6563.09,50.76,TRADE
VIC1,"2014/03/11 09:30:00",6589.07,50.86,TRADE
VIC1,"2014/03/11 10:00:00",6633.09,51.71,TRADE
VIC1,"2014/03/11 10:30:00",6732.44,51.8,TRADE
VIC1,"2014/03/11 11:00:00",6790.65,54.2,TRADE
VIC1,"2014/03/11 11:30:00",6788.14,51.36,TRADE
VIC1,"2014/03/11 12:00:00",6845.54,48.92,TRADE
VIC1,"2014/03/11 12:30:00",6878.64,50.55,TRADE
VIC1,"2014/03/11 13:00:00",6909.87,57.29,TRADE
VIC1,"2014/03/11 13:30:00",6961.42,57.81,TRADE
VIC1,"2014/03/11 14:00:00",6954.18,60.11,TRADE
VIC1,"2014/03/11 14:30:00",6996.9,59.23,TRADE
VIC1,"2014/03/11 15:00:00",7019.62,57.87,TRADE
VIC1,"2014/03/11 15:30:00",7155.41,61.61,TRADE
VIC1,"2014/03/11 16:00:00",7167.64,57.71,TRADE
VIC1,"2014/03/11 16:30:00",7061.75,54.93,TRADE
VIC1,"2014/03/11 17:00:00",6934.53,53.08,TRADE
VIC1,"2014/03/11 17:30:00",6708.91,51.35,TRADE
VIC1,"2014/03/11 18:00:00",6581.44,55.36,TRADE
VIC1,"2014/03/11 18:30:00",6406.81,51.48,TRADE
VIC1,"2014/03/11 19:00:00",6369.01,53.5,TRADE
VIC1,"2014/03/11 19:30:00",6288.28,48.72,TRADE
VIC1,"2014/03/11 20:00:00",6153.56,48.06,TRADE
VIC1,"2014/03/11 20:30:00",5934.8,49.54,TRADE
VIC1,"2014/03/11 21:00:00",5747.77,46.92,TRADE
VIC1,"2014/03/11 21:30:00",5484.24,45.4,TRADE
VIC1,"2014/03/11 22:00:00",5262.33,41.71,TRADE
VIC1,"2014/03/11 22:30:00",5118.12,40.59,TRADE
VIC1,"2014/03/11 23:00:00",5044.25,40.28,TRADE
VIC1,"2014/03/11 23:30:00",5432.45,44.21,TRADE
VIC1,"2014/03/12 00:00:00",5389.83,44.55,TRADE
VIC1,"2014/03/12 00:30:00",5008.11,41.02,TRADE
VIC1,"2014/03/12 01:00:00",4746.1,39.55,TRADE
VIC1,"2014/03/12 01:30:00",4555.57,38.21,TRADE
VIC1,"2014/03/12 02:00:00",4459.14,38.08,TRADE
VIC1,"2014/03/12 02:30:00",4342.99,38.15,TRADE
VIC1,"2014/03/12 03:00:00",4272.4,38.17,TRADE
VIC1,"2014/03/12 03:30:00",4226.67,38.48,TRADE
VIC1,"2014/03/12 04:00:00",4313.7,38.12,TRADE
VIC1,"2014/03/12 04:30:00",4450.67,38.9,TRADE
VIC1,"2014/03/12 05:00:00",4678.2,40.9,TRADE
VIC1,"2014/03/12 05:30:00",5057.22,46.59,TRADE
VIC1,"2014/03/12 06:00:00",5437.93,49.63,TRADE
VIC1,"2014/03/12 06:30:00",5877.98,53.27,TRADE
VIC1,"2014/03/12 07:00:00",6113.25,57.6,TRADE
VIC1,"2014/03/12 07:30:00",5983.31,53.89,TRADE
VIC1,"2014/03/12 08:00:00",5956.63,53.56,TRADE
VIC1,"2014/03/12 08:30:00",5965.9,54.94,TRADE
VIC1,"2014/03/12 09:00:00",5960.79,54.33,TRADE
VIC1,"2014/03/12 09:30:00",5950.8,54.01,TRADE
VIC1,"2014/03/12 10:00:00",5955.03,53.81,TRADE
VIC1,"2014/03/12 10:30:00",5919.35,52.61,TRADE
VIC1,"2014/03/12 11:00:00",5942.83,53.69,TRADE
VIC1,"2014/03/12 11:30:00",5960.41,50.92,TRADE
VIC1,"2014/03/12 12:00:00",5972.03,53.12,TRADE
VIC1,"2014/03/12 12:30:00",5984.71,54.18,TRADE
VIC1,"2014/03/12 13:00:00",6004.09,53.03,TRADE
VIC1,"2014/03/12 13:30:00",6011.95,52.27,TRADE
VIC1,"2014/03/12 14:00:00",6029.54,53.45,TRADE
VIC1,"2014/03/12 14:30:00",5985.31,52.97,TRADE
VIC1,"2014/03/12 15:00:00",5941.88,52.02,TRADE
VIC1,"2014/03/12 15:30:00",5957.33,54.56,TRADE
VIC1,"2014/03/12 16:00:00",6011.93,54.75,TRADE
VIC1,"2014/03/12 16:30:00",6027.65,54.06,TRADE
VIC1,"2014/03/12 17:00:00",5967.65,53.76,TRADE
VIC1,"2014/03/12 17:30:00",5818.63,49.33,TRADE
VIC1,"2014/03/12 18:00:00",5742.03,49.43,TRADE
VIC1,"2014/03/12 18:30:00",5675.56,50.03,TRADE
VIC1,"2014/03/12 19:00:00",5684.71,52.27,TRADE
VIC1,"2014/03/12 19:30:00",5765.92,54.36,TRADE
VIC1,"2014/03/12 20:00:00",5701.52,52.52,TRADE
VIC1,"2014/03/12 20:30:00",5520.4,52.91,TRADE
VIC1,"2014/03/12 21:00:00",5360.39,47.98,TRADE
VIC1,"2014/03/12 21:30:00",5159.57,46.26,TRADE
VIC1,"2014/03/12 22:00:00",4994.09,43.78,TRADE
VIC1,"2014/03/12 22:30:00",4919.28,44.02,TRADE
VIC1,"2014/03/12 23:00:00",4922.53,43.38,TRADE
VIC1,"2014/03/12 23:30:00",5297.38,45.78,TRADE
VIC1,"2014/03/13 00:00:00",5330.59,47.48,TRADE
VIC1,"2014/03/13 00:30:00",4969.79,42.14,TRADE
VIC1,"2014/03/13 01:00:00",4704.46,40.24,TRADE
VIC1,"2014/03/13 01:30:00",4558.71,38.64,TRADE
VIC1,"2014/03/13 02:00:00",4454.1,38.21,TRADE
VIC1,"2014/03/13 02:30:00",4368.87,38.2,TRADE
VIC1,"2014/03/13 03:00:00",4331.84,38.19,TRADE
VIC1,"2014/03/13 03:30:00",4320.84,38.2,TRADE
VIC1,"2014/03/13 04:00:00",4351.01,38.61,TRADE
VIC1,"2014/03/13 04:30:00",4476.9,40.05,TRADE
VIC1,"2014/03/13 05:00:00",4693.38,41.56,TRADE
VIC1,"2014/03/13 05:30:00",5080.3,46.53,TRADE
VIC1,"2014/03/13 06:00:00",5427.93,50.12,TRADE
VIC1,"2014/03/13 06:30:00",5853.17,52.93,TRADE
VIC1,"2014/03/13 07:00:00",6103.24,53.27,TRADE
VIC1,"2014/03/13 07:30:00",5931.8,50.39,TRADE
VIC1,"2014/03/13 08:00:00",5879.19,49.87,TRADE
VIC1,"2014/03/13 08:30:00",5888.29,49.92,TRADE
VIC1,"2014/03/13 09:00:00",5857.95,49.73,TRADE
VIC1,"2014/03/13 09:30:00",5852.04,49.64,TRADE
VIC1,"2014/03/13 10:00:00",5870.53,49.65,TRADE
VIC1,"2014/03/13 10:30:00",5889.67,49.42,TRADE
VIC1,"2014/03/13 11:00:00",5959.09,49.8,TRADE
VIC1,"2014/03/13 11:30:00",5959.02,50.23,TRADE
VIC1,"2014/03/13 12:00:00",5964.85,49.07,TRADE
VIC1,"2014/03/13 12:30:00",5986.61,49.58,TRADE
VIC1,"2014/03/13 13:00:00",6025.45,48.9,TRADE
VIC1,"2014/03/13 13:30:00",6067.76,49.82,TRADE
VIC1,"2014/03/13 14:00:00",6067.63,53.47,TRADE
VIC1,"2014/03/13 14:30:00",6086.63,49,TRADE
VIC1,"2014/03/13 15:00:00",6077.47,50.08,TRADE
VIC1,"2014/03/13 15:30:00",6151.39,49.52,TRADE
VIC1,"2014/03/13 16:00:00",6178.88,49.98,TRADE
VIC1,"2014/03/13 16:30:00",6172.27,50.94,TRADE
VIC1,"2014/03/13 17:00:00",6128.45,52.46,TRADE
VIC1,"2014/03/13 17:30:00",5969.42,52.98,TRADE
VIC1,"2014/03/13 18:00:00",5875.69,53.2,TRADE
VIC1,"2014/03/13 18:30:00",5763.31,48.96,TRADE
VIC1,"2014/03/13 19:00:00",5786.61,54.4,TRADE
VIC1,"2014/03/13 19:30:00",5883.17,55.25,TRADE
VIC1,"2014/03/13 20:00:00",5792.93,53.54,TRADE
VIC1,"2014/03/13 20:30:00",5598.25,50,TRADE
VIC1,"2014/03/13 21:00:00",5422.22,49.1,TRADE
VIC1,"2014/03/13 21:30:00",5180.18,46.93,TRADE
VIC1,"2014/03/13 22:00:00",4990.87,44.32,TRADE
VIC1,"2014/03/13 22:30:00",4917.14,45.41,TRADE
VIC1,"2014/03/13 23:00:00",4918.01,45.3,TRADE
VIC1,"2014/03/13 23:30:00",5285.98,45.98,TRADE
VIC1,"2014/03/14 00:00:00",5269.01,46.97,TRADE
VIC1,"2014/03/14 00:30:00",4974.17,43.35,TRADE
VIC1,"2014/03/14 01:00:00",4769.91,41.63,TRADE
VIC1,"2014/03/14 01:30:00",4605.36,40.58,TRADE
VIC1,"2014/03/14 02:00:00",4463.28,39.38,TRADE
VIC1,"2014/03/14 02:30:00",4371.87,39.16,TRADE
VIC1,"2014/03/14 03:00:00",4341.45,40.38,TRADE
VIC1,"2014/03/14 03:30:00",4345.41,40.25,TRADE
VIC1,"2014/03/14 04:00:00",4394.92,40.63,TRADE
VIC1,"2014/03/14 04:30:00",4534.27,40.63,TRADE
VIC1,"2014/03/14 05:00:00",4743.42,42.52,TRADE
VIC1,"2014/03/14 05:30:00",5086.12,47.24,TRADE
VIC1,"2014/03/14 06:00:00",5437,48.57,TRADE
VIC1,"2014/03/14 06:30:00",5828.37,53,TRADE
VIC1,"2014/03/14 07:00:00",6100.83,56.87,TRADE
VIC1,"2014/03/14 07:30:00",5975.77,52.4,TRADE
VIC1,"2014/03/14 08:00:00",5953.12,51,TRADE
VIC1,"2014/03/14 08:30:00",6017.99,52.79,TRADE
VIC1,"2014/03/14 09:00:00",6030.28,52.14,TRADE
VIC1,"2014/03/14 09:30:00",6044.11,50.37,TRADE
VIC1,"2014/03/14 10:00:00",6055.36,51.46,TRADE
VIC1,"2014/03/14 10:30:00",6129.62,50.51,TRADE
VIC1,"2014/03/14 11:00:00",6120.16,49.57,TRADE
VIC1,"2014/03/14 11:30:00",6184.69,49.42,TRADE
VIC1,"2014/03/14 12:00:00",6194.84,51.08,TRADE
VIC1,"2014/03/14 12:30:00",6191.34,47.83,TRADE
VIC1,"2014/03/14 13:00:00",6226.79,48.45,TRADE
VIC1,"2014/03/14 13:30:00",6264.96,52.03,TRADE
VIC1,"2014/03/14 14:00:00",6287.81,53.25,TRADE
VIC1,"2014/03/14 14:30:00",6333.37,53.74,TRADE
VIC1,"2014/03/14 15:00:00",6355.44,54.01,TRADE
VIC1,"2014/03/14 15:30:00",6482.17,53.05,TRADE
VIC1,"2014/03/14 16:00:00",6551.66,53.69,TRADE
VIC1,"2014/03/14 16:30:00",6532.75,53.61,TRADE
VIC1,"2014/03/14 17:00:00",6541.85,54.24,TRADE
VIC1,"2014/03/14 17:30:00",6364.29,52.19,TRADE
VIC1,"2014/03/14 18:00:00",6196.87,52.95,TRADE
VIC1,"2014/03/14 18:30:00",6077.62,54.43,TRADE
VIC1,"2014/03/14 19:00:00",6017.53,55.26,TRADE
VIC1,"2014/03/14 19:30:00",6058.73,55.17,TRADE
VIC1,"2014/03/14 20:00:00",5956.26,53.81,TRADE
VIC1,"2014/03/14 20:30:00",5783.81,51.05,TRADE
VIC1,"2014/03/14 21:00:00",5583.77,48.49,TRADE
VIC1,"2014/03/14 21:30:00",5395.53,48.34,TRADE
VIC1,"2014/03/14 22:00:00",5197.15,43.27,TRADE
VIC1,"2014/03/14 22:30:00",5091.73,43.81,TRADE
VIC1,"2014/03/14 23:00:00",5097.15,44.03,TRADE
VIC1,"2014/03/14 23:30:00",5364.19,45.96,TRADE
VIC1,"2014/03/15 00:00:00",5325.34,47.29,TRADE
VIC1,"2014/03/15 00:30:00",4927.91,43.53,TRADE
VIC1,"2014/03/15 01:00:00",4705.71,40.12,TRADE
VIC1,"2014/03/15 01:30:00",4512.07,38.57,TRADE
VIC1,"2014/03/15 02:00:00",4386.49,38.17,TRADE
VIC1,"2014/03/15 02:30:00",4308.46,38.17,TRADE
VIC1,"2014/03/15 03:00:00",4192.52,38.17,TRADE
VIC1,"2014/03/15 03:30:00",4157.27,38.22,TRADE
VIC1,"2014/03/15 04:00:00",4168.3,38.7,TRADE
VIC1,"2014/03/15 04:30:00",4229.97,39.17,TRADE
VIC1,"2014/03/15 05:00:00",4280.89,39.95,TRADE
VIC1,"2014/03/15 05:30:00",4394.69,41.73,TRADE
VIC1,"2014/03/15 06:00:00",4515.62,40.67,TRADE
VIC1,"2014/03/15 06:30:00",4711.56,41.18,TRADE
VIC1,"2014/03/15 07:00:00",4851.85,42.36,TRADE
VIC1,"2014/03/15 07:30:00",4788.37,39.78,TRADE
VIC1,"2014/03/15 08:00:00",4922.03,43.94,TRADE
VIC1,"2014/03/15 08:30:00",5126.12,46.13,TRADE
VIC1,"2014/03/15 09:00:00",5236.22,43.02,TRADE
VIC1,"2014/03/15 09:30:00",5243.83,39.9,TRADE
VIC1,"2014/03/15 10:00:00",5197.71,39.89,TRADE
VIC1,"2014/03/15 10:30:00",5200.45,40.63,TRADE
VIC1,"2014/03/15 11:00:00",5180.37,39.85,TRADE
VIC1,"2014/03/15 11:30:00",5066.92,38.31,TRADE
VIC1,"2014/03/15 12:00:00",5075.18,38.17,TRADE
VIC1,"2014/03/15 12:30:00",5021.37,38.2,TRADE
VIC1,"2014/03/15 13:00:00",4873.39,37.12,TRADE
VIC1,"2014/03/15 13:30:00",4862.87,40.32,TRADE
VIC1,"2014/03/15 14:00:00",4877,40.63,TRADE
VIC1,"2014/03/15 14:30:00",4976.94,40.85,TRADE
VIC1,"2014/03/15 15:00:00",5122.12,42.98,TRADE
VIC1,"2014/03/15 15:30:00",5225.2,44.56,TRADE
VIC1,"2014/03/15 16:00:00",5252.18,44.06,TRADE
VIC1,"2014/03/15 16:30:00",5301.34,44.87,TRADE
VIC1,"2014/03/15 17:00:00",5312.23,45.51,TRADE
VIC1,"2014/03/15 17:30:00",5271.23,44.96,TRADE
VIC1,"2014/03/15 18:00:00",5171.94,39.13,TRADE
VIC1,"2014/03/15 18:30:00",5177.95,39.93,TRADE
VIC1,"2014/03/15 19:00:00",5090.73,40.58,TRADE
VIC1,"2014/03/15 19:30:00",5060.86,40.06,TRADE
VIC1,"2014/03/15 20:00:00",4980.61,39.99,TRADE
VIC1,"2014/03/15 20:30:00",4858.5,41.27,TRADE
VIC1,"2014/03/15 21:00:00",4757.34,40.63,TRADE
VIC1,"2014/03/15 21:30:00",4595.62,40.21,TRADE
VIC1,"2014/03/15 22:00:00",4443.13,39.07,TRADE
VIC1,"2014/03/15 22:30:00",4432.2,41.93,TRADE
VIC1,"2014/03/15 23:00:00",4486.98,40.63,TRADE
VIC1,"2014/03/15 23:30:00",4853.83,43.11,TRADE
VIC1,"2014/03/16 00:00:00",4898.64,44.21,TRADE
VIC1,"2014/03/16 00:30:00",4565.4,39.05,TRADE
VIC1,"2014/03/16 01:00:00",4301.45,38.45,TRADE
VIC1,"2014/03/16 01:30:00",4137.58,37.59,TRADE
VIC1,"2014/03/16 02:00:00",3928.47,37.54,TRADE
VIC1,"2014/03/16 02:30:00",3854.49,37.54,TRADE
VIC1,"2014/03/16 03:00:00",3791.67,37.72,TRADE
VIC1,"2014/03/16 03:30:00",3782.27,38.02,TRADE
VIC1,"2014/03/16 04:00:00",3782.03,37.48,TRADE
VIC1,"2014/03/16 04:30:00",3798.9,38.08,TRADE
VIC1,"2014/03/16 05:00:00",3879.32,38.17,TRADE
VIC1,"2014/03/16 05:30:00",3958.51,38.2,TRADE
VIC1,"2014/03/16 06:00:00",4050.85,38.2,TRADE
VIC1,"2014/03/16 06:30:00",4166.41,38.17,TRADE
VIC1,"2014/03/16 07:00:00",4286.94,39.01,TRADE
VIC1,"2014/03/16 07:30:00",4242.87,37.8,TRADE
VIC1,"2014/03/16 08:00:00",4393.19,38.97,TRADE
VIC1,"2014/03/16 08:30:00",4532.26,39.6,TRADE
VIC1,"2014/03/16 09:00:00",4597.16,38.37,TRADE
VIC1,"2014/03/16 09:30:00",4558.7,38.22,TRADE
VIC1,"2014/03/16 10:00:00",4481.2,38.17,TRADE
VIC1,"2014/03/16 10:30:00",4513.74,39.82,TRADE
VIC1,"2014/03/16 11:00:00",4559.54,40.81,TRADE
VIC1,"2014/03/16 11:30:00",4528.66,39.38,TRADE
VIC1,"2014/03/16 12:00:00",4543.67,40.19,TRADE
VIC1,"2014/03/16 12:30:00",4500.46,38.17,TRADE
VIC1,"2014/03/16 13:00:00",4495.43,38.65,TRADE
VIC1,"2014/03/16 13:30:00",4478.36,38.17,TRADE
VIC1,"2014/03/16 14:00:00",4509.03,38.34,TRADE
VIC1,"2014/03/16 14:30:00",4604.37,38.57,TRADE
VIC1,"2014/03/16 15:00:00",4622.68,38.2,TRADE
VIC1,"2014/03/16 15:30:00",4756.99,38.2,TRADE
VIC1,"2014/03/16 16:00:00",4731.81,38.2,TRADE
VIC1,"2014/03/16 16:30:00",4805.89,38.77,TRADE
VIC1,"2014/03/16 17:00:00",4956.86,40.63,TRADE
VIC1,"2014/03/16 17:30:00",5024.18,41.2,TRADE
VIC1,"2014/03/16 18:00:00",5022.19,40.63,TRADE
VIC1,"2014/03/16 18:30:00",5032.8,44.8,TRADE
VIC1,"2014/03/16 19:00:00",5098.66,45.68,TRADE
VIC1,"2014/03/16 19:30:00",5198.75,47.92,TRADE
VIC1,"2014/03/16 20:00:00",5163.46,46.54,TRADE
VIC1,"2014/03/16 20:30:00",5066.74,45.34,TRADE
VIC1,"2014/03/16 21:00:00",4949.66,44.29,TRADE
VIC1,"2014/03/16 21:30:00",4743.78,40.24,TRADE
VIC1,"2014/03/16 22:00:00",4475.98,38.49,TRADE
VIC1,"2014/03/16 22:30:00",4343.71,38.2,TRADE
VIC1,"2014/03/16 23:00:00",4320.27,38.2,TRADE
VIC1,"2014/03/16 23:30:00",4671.48,39.34,TRADE
VIC1,"2014/03/17 00:00:00",4750.86,40.39,TRADE
VIC1,"2014/03/17 00:30:00",4458.19,38.17,TRADE
VIC1,"2014/03/17 01:00:00",4269.9,38.05,TRADE
VIC1,"2014/03/17 01:30:00",4118.88,37.24,TRADE
VIC1,"2014/03/17 02:00:00",4022.42,36.47,TRADE
VIC1,"2014/03/17 02:30:00",3925.06,34.52,TRADE
VIC1,"2014/03/17 03:00:00",3829.59,34.1,TRADE
VIC1,"2014/03/17 03:30:00",3854.72,34.12,TRADE
VIC1,"2014/03/17 04:00:00",3863.83,30.27,TRADE
VIC1,"2014/03/17 04:30:00",4037.01,38.09,TRADE
VIC1,"2014/03/17 05:00:00",4317.61,39.09,TRADE
VIC1,"2014/03/17 05:30:00",4690.2,43.25,TRADE
VIC1,"2014/03/17 06:00:00",5121.64,46.4,TRADE
VIC1,"2014/03/17 06:30:00",5626.62,52.52,TRADE
VIC1,"2014/03/17 07:00:00",5885.7,53.93,TRADE
VIC1,"2014/03/17 07:30:00",5809.19,53.27,TRADE
VIC1,"2014/03/17 08:00:00",5736.8,52.09,TRADE
VIC1,"2014/03/17 08:30:00",5765.25,53.57,TRADE
VIC1,"2014/03/17 09:00:00",5768.22,52.84,TRADE
VIC1,"2014/03/17 09:30:00",5853.16,52.53,TRADE
VIC1,"2014/03/17 10:00:00",5936.14,53.87,TRADE
VIC1,"2014/03/17 10:30:00",5947.12,53.48,TRADE
VIC1,"2014/03/17 11:00:00",5905.83,49.77,TRADE
VIC1,"2014/03/17 11:30:00",5882.47,47.62,TRADE
VIC1,"2014/03/17 12:00:00",5901.82,47.16,TRADE
VIC1,"2014/03/17 12:30:00",5928.48,47.38,TRADE
VIC1,"2014/03/17 13:00:00",5925.12,46.89,TRADE
VIC1,"2014/03/17 13:30:00",5952.31,47.2,TRADE
VIC1,"2014/03/17 14:00:00",5965.95,47.8,TRADE
VIC1,"2014/03/17 14:30:00",5943.02,50.1,TRADE
VIC1,"2014/03/17 15:00:00",5976.11,48.72,TRADE
VIC1,"2014/03/17 15:30:00",5973.71,50.62,TRADE
VIC1,"2014/03/17 16:00:00",6036.24,49.5,TRADE
VIC1,"2014/03/17 16:30:00",6040.29,49.13,TRADE
VIC1,"2014/03/17 17:00:00",6033.72,48.94,TRADE
VIC1,"2014/03/17 17:30:00",5834.3,44.04,TRADE
VIC1,"2014/03/17 18:00:00",5779.71,44.69,TRADE
VIC1,"2014/03/17 18:30:00",5728.43,51.41,TRADE
VIC1,"2014/03/17 19:00:00",5746.11,53.61,TRADE
VIC1,"2014/03/17 19:30:00",5782.94,52.96,TRADE
VIC1,"2014/03/17 20:00:00",5683.83,51.6,TRADE
VIC1,"2014/03/17 20:30:00",5508.99,49.8,TRADE
VIC1,"2014/03/17 21:00:00",5342.29,47.22,TRADE
VIC1,"2014/03/17 21:30:00",5130.92,49.29,TRADE
VIC1,"2014/03/17 22:00:00",4884.9,47.45,TRADE
VIC1,"2014/03/17 22:30:00",4848.29,47.97,TRADE
VIC1,"2014/03/17 23:00:00",4839.37,46.97,TRADE
VIC1,"2014/03/17 23:30:00",5212.46,45.75,TRADE
VIC1,"2014/03/18 00:00:00",5246.49,47.23,TRADE
VIC1,"2014/03/18 00:30:00",4953.91,42.17,TRADE
VIC1,"2014/03/18 01:00:00",4720.87,39.82,TRADE
VIC1,"2014/03/18 01:30:00",4561.8,40,TRADE
VIC1,"2014/03/18 02:00:00",4455.79,41.26,TRADE
VIC1,"2014/03/18 02:30:00",4381.54,41.26,TRADE
VIC1,"2014/03/18 03:00:00",4325.23,41.79,TRADE
VIC1,"2014/03/18 03:30:00",4349.77,42.57,TRADE
VIC1,"2014/03/18 04:00:00",4353.33,42.25,TRADE
VIC1,"2014/03/18 04:30:00",4516.28,45.49,TRADE
VIC1,"2014/03/18 05:00:00",4692.01,47.42,TRADE
VIC1,"2014/03/18 05:30:00",4995.33,54.97,TRADE
VIC1,"2014/03/18 06:00:00",5348.21,68.93,TRADE
VIC1,"2014/03/18 06:30:00",5833.25,56.98,TRADE
VIC1,"2014/03/18 07:00:00",6081.78,59.05,TRADE
VIC1,"2014/03/18 07:30:00",5916.08,54.73,TRADE
VIC1,"2014/03/18 08:00:00",5889.47,54.35,TRADE
VIC1,"2014/03/18 08:30:00",5959.5,55.64,TRADE
VIC1,"2014/03/18 09:00:00",5923.83,55.12,TRADE
VIC1,"2014/03/18 09:30:00",5967.3,53.97,TRADE
VIC1,"2014/03/18 10:00:00",5920.31,52.3,TRADE
VIC1,"2014/03/18 10:30:00",5929.04,52.67,TRADE
VIC1,"2014/03/18 11:00:00",5867.1,52.65,TRADE
VIC1,"2014/03/18 11:30:00",5904.84,52.05,TRADE
VIC1,"2014/03/18 12:00:00",5906.77,48.97,TRADE
VIC1,"2014/03/18 12:30:00",5897.8,48.91,TRADE
VIC1,"2014/03/18 13:00:00",5940.68,47.64,TRADE
VIC1,"2014/03/18 13:30:00",5886.08,48.82,TRADE
VIC1,"2014/03/18 14:00:00",5931.94,51.5,TRADE
VIC1,"2014/03/18 14:30:00",5949.9,47.15,TRADE
VIC1,"2014/03/18 15:00:00",5918.73,49.66,TRADE
VIC1,"2014/03/18 15:30:00",5963.98,49.6,TRADE
VIC1,"2014/03/18 16:00:00",6022.46,46.21,TRADE
VIC1,"2014/03/18 16:30:00",6059.51,46.44,TRADE
VIC1,"2014/03/18 17:00:00",5978.86,50.14,TRADE
VIC1,"2014/03/18 17:30:00",5857.1,43.75,TRADE
VIC1,"2014/03/18 18:00:00",5773.06,41.69,TRADE
VIC1,"2014/03/18 18:30:00",5703.96,49.62,TRADE
VIC1,"2014/03/18 19:00:00",5721.68,50.36,TRADE
VIC1,"2014/03/18 19:30:00",5784.79,50.16,TRADE
VIC1,"2014/03/18 20:00:00",5696.86,48.13,TRADE
VIC1,"2014/03/18 20:30:00",5544.65,45.96,TRADE
VIC1,"2014/03/18 21:00:00",5361.17,45.55,TRADE
VIC1,"2014/03/18 21:30:00",5118.09,45.73,TRADE
VIC1,"2014/03/18 22:00:00",4947.37,44.21,TRADE
VIC1,"2014/03/18 22:30:00",4869.36,43.97,TRADE
VIC1,"2014/03/18 23:00:00",4822.88,43.47,TRADE
VIC1,"2014/03/18 23:30:00",5194.42,46.03,TRADE
VIC1,"2014/03/19 00:00:00",5174.5,48.12,TRADE
VIC1,"2014/03/19 00:30:00",4864.62,45.85,TRADE
VIC1,"2014/03/19 01:00:00",4703.97,42.62,TRADE
VIC1,"2014/03/19 01:30:00",4566.13,40.62,TRADE
VIC1,"2014/03/19 02:00:00",4398.78,39.7,TRADE
VIC1,"2014/03/19 02:30:00",4338.17,39.03,TRADE
VIC1,"2014/03/19 03:00:00",4206.39,38.13,TRADE
VIC1,"2014/03/19 03:30:00",4235.42,38.2,TRADE
VIC1,"2014/03/19 04:00:00",4278.3,39.71,TRADE
VIC1,"2014/03/19 04:30:00",4412.59,41,TRADE
VIC1,"2014/03/19 05:00:00",4634.47,42.08,TRADE
VIC1,"2014/03/19 05:30:00",4979.67,48.03,TRADE
VIC1,"2014/03/19 06:00:00",5357.62,50.09,TRADE
VIC1,"2014/03/19 06:30:00",5811.66,54.82,TRADE
VIC1,"2014/03/19 07:00:00",6029.59,55.51,TRADE
VIC1,"2014/03/19 07:30:00",5900.43,48.97,TRADE
VIC1,"2014/03/19 08:00:00",5841.07,48.38,TRADE
VIC1,"2014/03/19 08:30:00",5909.87,51.2,TRADE
VIC1,"2014/03/19 09:00:00",5905.05,50.9,TRADE
VIC1,"2014/03/19 09:30:00",5921.01,49.83,TRADE
VIC1,"2014/03/19 10:00:00",5942,49.96,TRADE
VIC1,"2014/03/19 10:30:00",5945.18,52.75,TRADE
VIC1,"2014/03/19 11:00:00",5975.24,55.38,TRADE
VIC1,"2014/03/19 11:30:00",5973.62,53.97,TRADE
VIC1,"2014/03/19 12:00:00",5981.6,51.97,TRADE
VIC1,"2014/03/19 12:30:00",5969.42,52.65,TRADE
VIC1,"2014/03/19 13:00:00",5983.33,51.91,TRADE
VIC1,"2014/03/19 13:30:00",5950.71,54.29,TRADE
VIC1,"2014/03/19 14:00:00",5943.6,53.18,TRADE
VIC1,"2014/03/19 14:30:00",5898.89,50.89,TRADE
VIC1,"2014/03/19 15:00:00",5927.81,52.68,TRADE
VIC1,"2014/03/19 15:30:00",5962.84,50.86,TRADE
VIC1,"2014/03/19 16:00:00",6024.88,51.62,TRADE
VIC1,"2014/03/19 16:30:00",6015.32,51.6,TRADE
VIC1,"2014/03/19 17:00:00",5976.8,51.57,TRADE
VIC1,"2014/03/19 17:30:00",5906.97,47.79,TRADE
VIC1,"2014/03/19 18:00:00",5835.83,47.34,TRADE
VIC1,"2014/03/19 18:30:00",5760.45,53.53,TRADE
VIC1,"2014/03/19 19:00:00",5808.64,52.28,TRADE
VIC1,"2014/03/19 19:30:00",5861.5,52.81,TRADE
VIC1,"2014/03/19 20:00:00",5730.84,51.35,TRADE
VIC1,"2014/03/19 20:30:00",5575.75,46.79,TRADE
VIC1,"2014/03/19 21:00:00",5414.77,44.43,TRADE
VIC1,"2014/03/19 21:30:00",5178.55,43.85,TRADE
VIC1,"2014/03/19 22:00:00",4980.92,42.76,TRADE
VIC1,"2014/03/19 22:30:00",4908.56,44.89,TRADE
VIC1,"2014/03/19 23:00:00",4894.75,45.27,TRADE
VIC1,"2014/03/19 23:30:00",5229.54,46.31,TRADE
VIC1,"2014/03/20 00:00:00",5243.39,47.87,TRADE
VIC1,"2014/03/20 00:30:00",4977.66,44.23,TRADE
VIC1,"2014/03/20 01:00:00",4759.89,42.25,TRADE
VIC1,"2014/03/20 01:30:00",4605.26,40.66,TRADE
VIC1,"2014/03/20 02:00:00",4462.33,40.1,TRADE
VIC1,"2014/03/20 02:30:00",4340.25,39.58,TRADE
VIC1,"2014/03/20 03:00:00",4285.38,38.99,TRADE
VIC1,"2014/03/20 03:30:00",4267.87,38.51,TRADE
VIC1,"2014/03/20 04:00:00",4307.42,40.26,TRADE
VIC1,"2014/03/20 04:30:00",4478.1,41.22,TRADE
VIC1,"2014/03/20 05:00:00",4678.31,42.47,TRADE
VIC1,"2014/03/20 05:30:00",5039.22,52.37,TRADE
VIC1,"2014/03/20 06:00:00",5410.02,47.93,TRADE
VIC1,"2014/03/20 06:30:00",5844.72,52.85,TRADE
VIC1,"2014/03/20 07:00:00",6091.06,55,TRADE
VIC1,"2014/03/20 07:30:00",5899.81,49.77,TRADE
VIC1,"2014/03/20 08:00:00",5859.71,47.95,TRADE
VIC1,"2014/03/20 08:30:00",5924.29,49.95,TRADE
VIC1,"2014/03/20 09:00:00",5898.56,53.04,TRADE
VIC1,"2014/03/20 09:30:00",5875.76,53.93,TRADE
VIC1,"2014/03/20 10:00:00",5909.54,53.26,TRADE
VIC1,"2014/03/20 10:30:00",5981.69,52.91,TRADE
VIC1,"2014/03/20 11:00:00",6032.6,53.21,TRADE
VIC1,"2014/03/20 11:30:00",6027.55,51.97,TRADE
VIC1,"2014/03/20 12:00:00",6083.63,51.44,TRADE
VIC1,"2014/03/20 12:30:00",6172.33,53.12,TRADE
VIC1,"2014/03/20 13:00:00",6219.3,54.56,TRADE
VIC1,"2014/03/20 13:30:00",6300.27,59.04,TRADE
VIC1,"2014/03/20 14:00:00",6310.37,58.93,TRADE
VIC1,"2014/03/20 14:30:00",6364.78,53.16,TRADE
VIC1,"2014/03/20 15:00:00",6422.67,55.06,TRADE
VIC1,"2014/03/20 15:30:00",6544.49,58.15,TRADE
VIC1,"2014/03/20 16:00:00",6594.9,60.27,TRADE
VIC1,"2014/03/20 16:30:00",6646.68,61.23,TRADE
VIC1,"2014/03/20 17:00:00",6658.02,61.07,TRADE
VIC1,"2014/03/20 17:30:00",6504.67,53.92,TRADE
VIC1,"2014/03/20 18:00:00",6371.39,53.34,TRADE
VIC1,"2014/03/20 18:30:00",6208,57.95,TRADE
VIC1,"2014/03/20 19:00:00",6219.36,55.58,TRADE
VIC1,"2014/03/20 19:30:00",6249.35,53.86,TRADE
VIC1,"2014/03/20 20:00:00",6107.52,54.01,TRADE
VIC1,"2014/03/20 20:30:00",5886.58,48.99,TRADE
VIC1,"2014/03/20 21:00:00",5638.82,46.63,TRADE
VIC1,"2014/03/20 21:30:00",5366.24,45.61,TRADE
VIC1,"2014/03/20 22:00:00",5116.66,41.53,TRADE
VIC1,"2014/03/20 22:30:00",4996.2,43.22,TRADE
VIC1,"2014/03/20 23:00:00",4946.72,42.14,TRADE
VIC1,"2014/03/20 23:30:00",5269.5,42.25,TRADE
VIC1,"2014/03/21 00:00:00",5241.38,43.52,TRADE
VIC1,"2014/03/21 00:30:00",4901.53,41.13,TRADE
VIC1,"2014/03/21 01:00:00",4683.99,40.66,TRADE
VIC1,"2014/03/21 01:30:00",4515.43,39.58,TRADE
VIC1,"2014/03/21 02:00:00",4415.31,38.69,TRADE
VIC1,"2014/03/21 02:30:00",4352.15,38.45,TRADE
VIC1,"2014/03/21 03:00:00",4309.97,38.44,TRADE
VIC1,"2014/03/21 03:30:00",4309.1,38.29,TRADE
VIC1,"2014/03/21 04:00:00",4333.15,39.79,TRADE
VIC1,"2014/03/21 04:30:00",4459.84,40.62,TRADE
VIC1,"2014/03/21 05:00:00",4682.65,41.57,TRADE
VIC1,"2014/03/21 05:30:00",5111.89,43.35,TRADE
VIC1,"2014/03/21 06:00:00",5512.75,44.2,TRADE
VIC1,"2014/03/21 06:30:00",5949.05,48.57,TRADE
VIC1,"2014/03/21 07:00:00",6240.47,55.14,TRADE
VIC1,"2014/03/21 07:30:00",6064.63,49.94,TRADE
VIC1,"2014/03/21 08:00:00",6062.33,47.95,TRADE
VIC1,"2014/03/21 08:30:00",6111.06,48.37,TRADE
VIC1,"2014/03/21 09:00:00",6132.6,48.2,TRADE
VIC1,"2014/03/21 09:30:00",6155.67,47,TRADE
VIC1,"2014/03/21 10:00:00",6147.26,45.99,TRADE
VIC1,"2014/03/21 10:30:00",6205.63,50.85,TRADE
VIC1,"2014/03/21 11:00:00",6209.78,48.51,TRADE
VIC1,"2014/03/21 11:30:00",6268.83,47.88,TRADE
VIC1,"2014/03/21 12:00:00",6221.7,44.71,TRADE
VIC1,"2014/03/21 12:30:00",6205.9,43.96,TRADE
VIC1,"2014/03/21 13:00:00",6259.61,44.09,TRADE
VIC1,"2014/03/21 13:30:00",6204.04,46.41,TRADE
VIC1,"2014/03/21 14:00:00",6172.83,47.49,TRADE
VIC1,"2014/03/21 14:30:00",6025.73,42.3,TRADE
VIC1,"2014/03/21 15:00:00",5946.55,43.33,TRADE
VIC1,"2014/03/21 15:30:00",5913.04,44.14,TRADE
VIC1,"2014/03/21 16:00:00",5956.51,43.11,TRADE
VIC1,"2014/03/21 16:30:00",5857.78,42.7,TRADE
VIC1,"2014/03/21 17:00:00",5816.8,41.89,TRADE
VIC1,"2014/03/21 17:30:00",5710.7,41.03,TRADE
VIC1,"2014/03/21 18:00:00",5670.22,41.22,TRADE
VIC1,"2014/03/21 18:30:00",5585.8,41.62,TRADE
VIC1,"2014/03/21 19:00:00",5570.74,41.28,TRADE
VIC1,"2014/03/21 19:30:00",5530.43,41.14,TRADE
VIC1,"2014/03/21 20:00:00",5330.52,40.11,TRADE
VIC1,"2014/03/21 20:30:00",5211.36,39.01,TRADE
VIC1,"2014/03/21 21:00:00",5030.3,40.68,TRADE
VIC1,"2014/03/21 21:30:00",4828.04,41.47,TRADE
VIC1,"2014/03/21 22:00:00",4672.73,40.19,TRADE
VIC1,"2014/03/21 22:30:00",4570.96,40.74,TRADE
VIC1,"2014/03/21 23:00:00",4578.71,40.04,TRADE
VIC1,"2014/03/21 23:30:00",4954.1,41.42,TRADE
VIC1,"2014/03/22 00:00:00",4963.15,41.63,TRADE
VIC1,"2014/03/22 00:30:00",4651.07,39.82,TRADE
VIC1,"2014/03/22 01:00:00",4461.47,37.84,TRADE
VIC1,"2014/03/22 01:30:00",4278.09,37.51,TRADE
VIC1,"2014/03/22 02:00:00",4106.28,36.76,TRADE
VIC1,"2014/03/22 02:30:00",4051.9,36.71,TRADE
VIC1,"2014/03/22 03:00:00",3979.91,36.51,TRADE
VIC1,"2014/03/22 03:30:00",3985.58,36.8,TRADE
VIC1,"2014/03/22 04:00:00",3974.97,36.66,TRADE
VIC1,"2014/03/22 04:30:00",3966.53,36.57,TRADE
VIC1,"2014/03/22 05:00:00",4030.92,37.17,TRADE
VIC1,"2014/03/22 05:30:00",4208.18,38.1,TRADE
VIC1,"2014/03/22 06:00:00",4407.06,39.82,TRADE
VIC1,"2014/03/22 06:30:00",4684.71,40.49,TRADE
VIC1,"2014/03/22 07:00:00",4841.21,41.99,TRADE
VIC1,"2014/03/22 07:30:00",4855.65,41.01,TRADE
VIC1,"2014/03/22 08:00:00",4996.13,41.96,TRADE
VIC1,"2014/03/22 08:30:00",5102.99,44.11,TRADE
VIC1,"2014/03/22 09:00:00",5140.51,43.35,TRADE
VIC1,"2014/03/22 09:30:00",5053.09,41.2,TRADE
VIC1,"2014/03/22 10:00:00",5017.43,41.55,TRADE
VIC1,"2014/03/22 10:30:00",5020.45,41.6,TRADE
VIC1,"2014/03/22 11:00:00",5026.8,41.94,TRADE
VIC1,"2014/03/22 11:30:00",5031.76,42.52,TRADE
VIC1,"2014/03/22 12:00:00",5008.85,43.3,TRADE
VIC1,"2014/03/22 12:30:00",4979.62,43.04,TRADE
VIC1,"2014/03/22 13:00:00",4951.06,42.04,TRADE
VIC1,"2014/03/22 13:30:00",4915.32,41.26,TRADE
VIC1,"2014/03/22 14:00:00",4932.93,42.65,TRADE
VIC1,"2014/03/22 14:30:00",4942.43,43.32,TRADE
VIC1,"2014/03/22 15:00:00",4941.11,43.86,TRADE
VIC1,"2014/03/22 15:30:00",4960.9,44.16,TRADE
VIC1,"2014/03/22 16:00:00",5020.49,44.39,TRADE
VIC1,"2014/03/22 16:30:00",5135.15,45.25,TRADE
VIC1,"2014/03/22 17:00:00",5179.09,44.65,TRADE
VIC1,"2014/03/22 17:30:00",5239.29,45.13,TRADE
VIC1,"2014/03/22 18:00:00",5188.36,45.6,TRADE
VIC1,"2014/03/22 18:30:00",5191.6,45.54,TRADE
VIC1,"2014/03/22 19:00:00",5250.97,46.18,TRADE
VIC1,"2014/03/22 19:30:00",5252.2,46.52,TRADE
VIC1,"2014/03/22 20:00:00",5150.53,45.96,TRADE
VIC1,"2014/03/22 20:30:00",5060.43,45.25,TRADE
VIC1,"2014/03/22 21:00:00",4973.89,43.8,TRADE
VIC1,"2014/03/22 21:30:00",4832.96,43.28,TRADE
VIC1,"2014/03/22 22:00:00",4677.93,40.45,TRADE
VIC1,"2014/03/22 22:30:00",4626.63,45.15,TRADE
VIC1,"2014/03/22 23:00:00",4656.82,45.18,TRADE
VIC1,"2014/03/22 23:30:00",5021.01,47.69,TRADE
VIC1,"2014/03/23 00:00:00",5034.04,49.21,TRADE
VIC1,"2014/03/23 00:30:00",4782.22,44.39,TRADE
VIC1,"2014/03/23 01:00:00",4604.45,40.97,TRADE
VIC1,"2014/03/23 01:30:00",4385.56,39.7,TRADE
VIC1,"2014/03/23 02:00:00",4249.22,39.16,TRADE
VIC1,"2014/03/23 02:30:00",4116.06,38.44,TRADE
VIC1,"2014/03/23 03:00:00",4042.21,38.25,TRADE
VIC1,"2014/03/23 03:30:00",3956.27,38.21,TRADE
VIC1,"2014/03/23 04:00:00",3970.97,38.15,TRADE
VIC1,"2014/03/23 04:30:00",4007.65,38.25,TRADE
VIC1,"2014/03/23 05:00:00",4036.48,38.31,TRADE
VIC1,"2014/03/23 05:30:00",4141.34,39.02,TRADE
VIC1,"2014/03/23 06:00:00",4205.46,40.41,TRADE
VIC1,"2014/03/23 06:30:00",4350,40.72,TRADE
VIC1,"2014/03/23 07:00:00",4498.41,43.47,TRADE
VIC1,"2014/03/23 07:30:00",4469.34,41.5,TRADE
VIC1,"2014/03/23 08:00:00",4584.98,44.71,TRADE
VIC1,"2014/03/23 08:30:00",4749.93,46.61,TRADE
VIC1,"2014/03/23 09:00:00",4790.41,46.06,TRADE
VIC1,"2014/03/23 09:30:00",4851.74,47.12,TRADE
VIC1,"2014/03/23 10:00:00",4836.12,46.77,TRADE
VIC1,"2014/03/23 10:30:00",4884.37,45.99,TRADE
VIC1,"2014/03/23 11:00:00",4814.73,44.81,TRADE
VIC1,"2014/03/23 11:30:00",4817.3,44.3,TRADE
VIC1,"2014/03/23 12:00:00",4837.5,42.72,TRADE
VIC1,"2014/03/23 12:30:00",4737.12,41.84,TRADE
VIC1,"2014/03/23 13:00:00",4725.61,41.46,TRADE
VIC1,"2014/03/23 13:30:00",4722.31,42.13,TRADE
VIC1,"2014/03/23 14:00:00",4712.07,42.73,TRADE
VIC1,"2014/03/23 14:30:00",4741.05,42.67,TRADE
VIC1,"2014/03/23 15:00:00",4791.31,43.23,TRADE
VIC1,"2014/03/23 15:30:00",4836.96,43.46,TRADE
VIC1,"2014/03/23 16:00:00",4901.62,43.88,TRADE
VIC1,"2014/03/23 16:30:00",4984.12,44.88,TRADE
VIC1,"2014/03/23 17:00:00",5121.24,45.92,TRADE
VIC1,"2014/03/23 17:30:00",5168.65,45.81,TRADE
VIC1,"2014/03/23 18:00:00",5145.66,46.37,TRADE
VIC1,"2014/03/23 18:30:00",5126.09,46.82,TRADE
VIC1,"2014/03/23 19:00:00",5251.37,49.62,TRADE
VIC1,"2014/03/23 19:30:00",5324.95,50.43,TRADE
VIC1,"2014/03/23 20:00:00",5242.3,48.38,TRADE
VIC1,"2014/03/23 20:30:00",5129.64,47.49,TRADE
VIC1,"2014/03/23 21:00:00",4966.37,46.27,TRADE
VIC1,"2014/03/23 21:30:00",4796.67,45.03,TRADE
VIC1,"2014/03/23 22:00:00",4570.1,42.07,TRADE
VIC1,"2014/03/23 22:30:00",4538.72,42.76,TRADE
VIC1,"2014/03/23 23:00:00",4559.93,43.72,TRADE
VIC1,"2014/03/23 23:30:00",4923.45,45.98,TRADE
VIC1,"2014/03/24 00:00:00",4994.75,47.18,TRADE
VIC1,"2014/03/24 00:30:00",4771.75,41.19,TRADE
VIC1,"2014/03/24 01:00:00",4606.75,40.5,TRADE
VIC1,"2014/03/24 01:30:00",4455.62,39.94,TRADE
VIC1,"2014/03/24 02:00:00",4333.29,39.81,TRADE
VIC1,"2014/03/24 02:30:00",4204.67,38.71,TRADE
VIC1,"2014/03/24 03:00:00",4124.33,38.26,TRADE
VIC1,"2014/03/24 03:30:00",4135.62,38.49,TRADE
VIC1,"2014/03/24 04:00:00",4186.1,39.1,TRADE
VIC1,"2014/03/24 04:30:00",4348.84,41.84,TRADE
VIC1,"2014/03/24 05:00:00",4572.44,44.47,TRADE
VIC1,"2014/03/24 05:30:00",4919.79,50.05,TRADE
VIC1,"2014/03/24 06:00:00",5341.22,52.97,TRADE
VIC1,"2014/03/24 06:30:00",5881.26,58.53,TRADE
VIC1,"2014/03/24 07:00:00",6214.84,89.25,TRADE
VIC1,"2014/03/24 07:30:00",6042.14,56.71,TRADE
VIC1,"2014/03/24 08:00:00",6021.33,56.47,TRADE
VIC1,"2014/03/24 08:30:00",6033.83,56.55,TRADE
VIC1,"2014/03/24 09:00:00",5949.03,56.85,TRADE
VIC1,"2014/03/24 09:30:00",5936.22,56.61,TRADE
VIC1,"2014/03/24 10:00:00",5879.16,55.48,TRADE
VIC1,"2014/03/24 10:30:00",5840.96,53.79,TRADE
VIC1,"2014/03/24 11:00:00",5904.02,54.39,TRADE
VIC1,"2014/03/24 11:30:00",5877.76,54.34,TRADE
VIC1,"2014/03/24 12:00:00",5944.03,52,TRADE
VIC1,"2014/03/24 12:30:00",5916.99,49.5,TRADE
VIC1,"2014/03/24 13:00:00",5878.04,52.64,TRADE
VIC1,"2014/03/24 13:30:00",5866.73,51.27,TRADE
VIC1,"2014/03/24 14:00:00",5865.25,49.06,TRADE
VIC1,"2014/03/24 14:30:00",5795.76,49.37,TRADE
VIC1,"2014/03/24 15:00:00",5825.23,49.14,TRADE
VIC1,"2014/03/24 15:30:00",5862.61,49.6,TRADE
VIC1,"2014/03/24 16:00:00",5911.6,51.41,TRADE
VIC1,"2014/03/24 16:30:00",5942.47,53.05,TRADE
VIC1,"2014/03/24 17:00:00",5909.88,54.31,TRADE
VIC1,"2014/03/24 17:30:00",5846.83,52.42,TRADE
VIC1,"2014/03/24 18:00:00",5797.85,52.05,TRADE
VIC1,"2014/03/24 18:30:00",5701.97,52.78,TRADE
VIC1,"2014/03/24 19:00:00",5778.73,53.1,TRADE
VIC1,"2014/03/24 19:30:00",5792.67,51.78,TRADE
VIC1,"2014/03/24 20:00:00",5652.72,50.15,TRADE
VIC1,"2014/03/24 20:30:00",5485.84,48.36,TRADE
VIC1,"2014/03/24 21:00:00",5330.86,44.79,TRADE
VIC1,"2014/03/24 21:30:00",5079.65,43.2,TRADE
VIC1,"2014/03/24 22:00:00",4826.29,39.82,TRADE
VIC1,"2014/03/24 22:30:00",4738.17,44.23,TRADE
VIC1,"2014/03/24 23:00:00",4688.18,43.65,TRADE
VIC1,"2014/03/24 23:30:00",4976.84,45.29,TRADE
VIC1,"2014/03/25 00:00:00",5059.36,46.69,TRADE
VIC1,"2014/03/25 00:30:00",4876.73,43.83,TRADE
VIC1,"2014/03/25 01:00:00",4659.81,40.56,TRADE
VIC1,"2014/03/25 01:30:00",4485.91,39.38,TRADE
VIC1,"2014/03/25 02:00:00",4320.19,38.19,TRADE
VIC1,"2014/03/25 02:30:00",4244.27,38.15,TRADE
VIC1,"2014/03/25 03:00:00",4171.61,38.1,TRADE
VIC1,"2014/03/25 03:30:00",4160.12,38.17,TRADE
VIC1,"2014/03/25 04:00:00",4197.11,38.13,TRADE
VIC1,"2014/03/25 04:30:00",4341.7,38.6,TRADE
VIC1,"2014/03/25 05:00:00",4539.5,41.58,TRADE
VIC1,"2014/03/25 05:30:00",4961.55,47.23,TRADE
VIC1,"2014/03/25 06:00:00",5308.56,49.3,TRADE
VIC1,"2014/03/25 06:30:00",5831.36,53.27,TRADE
VIC1,"2014/03/25 07:00:00",6106.16,55.34,TRADE
VIC1,"2014/03/25 07:30:00",6007.26,53.72,TRADE
VIC1,"2014/03/25 08:00:00",5961.42,50.28,TRADE
VIC1,"2014/03/25 08:30:00",6031.32,54.19,TRADE
VIC1,"2014/03/25 09:00:00",6012.3,54.2,TRADE
VIC1,"2014/03/25 09:30:00",5950.07,52.67,TRADE
VIC1,"2014/03/25 10:00:00",5891.83,53.71,TRADE
VIC1,"2014/03/25 10:30:00",5889.59,53.67,TRADE
VIC1,"2014/03/25 11:00:00",5869.36,53.65,TRADE
VIC1,"2014/03/25 11:30:00",5867.11,54.07,TRADE
VIC1,"2014/03/25 12:00:00",5845.27,52.25,TRADE
VIC1,"2014/03/25 12:30:00",5843.17,50.1,TRADE
VIC1,"2014/03/25 13:00:00",5889.15,49.93,TRADE
VIC1,"2014/03/25 13:30:00",5920.33,51.98,TRADE
VIC1,"2014/03/25 14:00:00",5925.82,52.83,TRADE
VIC1,"2014/03/25 14:30:00",5853.4,50.21,TRADE
VIC1,"2014/03/25 15:00:00",5829.8,49.31,TRADE
VIC1,"2014/03/25 15:30:00",5900.56,49.14,TRADE
VIC1,"2014/03/25 16:00:00",5945.06,49.52,TRADE
VIC1,"2014/03/25 16:30:00",5934.88,49.4,TRADE
VIC1,"2014/03/25 17:00:00",5873.25,52.69,TRADE
VIC1,"2014/03/25 17:30:00",5708.49,51.07,TRADE
VIC1,"2014/03/25 18:00:00",5619.16,51.08,TRADE
VIC1,"2014/03/25 18:30:00",5566.38,53.79,TRADE
VIC1,"2014/03/25 19:00:00",5618.95,53.29,TRADE
VIC1,"2014/03/25 19:30:00",5638.95,50.71,TRADE
VIC1,"2014/03/25 20:00:00",5509.68,49.95,TRADE
VIC1,"2014/03/25 20:30:00",5297.82,51.06,TRADE
VIC1,"2014/03/25 21:00:00",5157.33,49.22,TRADE
VIC1,"2014/03/25 21:30:00",4913.67,48.17,TRADE
VIC1,"2014/03/25 22:00:00",4691.31,44.49,TRADE
VIC1,"2014/03/25 22:30:00",4616.58,46,TRADE
VIC1,"2014/03/25 23:00:00",4625.15,47.16,TRADE
VIC1,"2014/03/25 23:30:00",4933.08,48.53,TRADE
VIC1,"2014/03/26 00:00:00",4963.75,51.18,TRADE
VIC1,"2014/03/26 00:30:00",4725.82,46.38,TRADE
VIC1,"2014/03/26 01:00:00",4553.91,42.73,TRADE
VIC1,"2014/03/26 01:30:00",4403.61,40.56,TRADE
VIC1,"2014/03/26 02:00:00",4236.83,40.44,TRADE
VIC1,"2014/03/26 02:30:00",4170.76,39.87,TRADE
VIC1,"2014/03/26 03:00:00",4123.01,39.14,TRADE
VIC1,"2014/03/26 03:30:00",4125.15,39.25,TRADE
VIC1,"2014/03/26 04:00:00",4157.83,39.53,TRADE
VIC1,"2014/03/26 04:30:00",4297.45,42.62,TRADE
VIC1,"2014/03/26 05:00:00",4541.5,45.6,TRADE
VIC1,"2014/03/26 05:30:00",4875.22,56.14,TRADE
VIC1,"2014/03/26 06:00:00",5291.53,56.89,TRADE
VIC1,"2014/03/26 06:30:00",5747.85,59.91,TRADE
VIC1,"2014/03/26 07:00:00",5994.06,61.43,TRADE
VIC1,"2014/03/26 07:30:00",5845.58,56.74,TRADE
VIC1,"2014/03/26 08:00:00",5837.35,57.02,TRADE
VIC1,"2014/03/26 08:30:00",5905.21,57.03,TRADE
VIC1,"2014/03/26 09:00:00",5870.23,56.97,TRADE
VIC1,"2014/03/26 09:30:00",5880.19,57.02,TRADE
VIC1,"2014/03/26 10:00:00",5941.25,55.84,TRADE
VIC1,"2014/03/26 10:30:00",6001.08,57.02,TRADE
VIC1,"2014/03/26 11:00:00",6018.59,57.33,TRADE
VIC1,"2014/03/26 11:30:00",6085.45,60.13,TRADE
VIC1,"2014/03/26 12:00:00",6090.29,59.51,TRADE
VIC1,"2014/03/26 12:30:00",6138.72,56.81,TRADE
VIC1,"2014/03/26 13:00:00",6128,58.8,TRADE
VIC1,"2014/03/26 13:30:00",6143.91,55.82,TRADE
VIC1,"2014/03/26 14:00:00",6209.66,55.42,TRADE
VIC1,"2014/03/26 14:30:00",6194.06,54.92,TRADE
VIC1,"2014/03/26 15:00:00",6194.41,53.57,TRADE
VIC1,"2014/03/26 15:30:00",6174.39,52.92,TRADE
VIC1,"2014/03/26 16:00:00",6071.75,50.29,TRADE
VIC1,"2014/03/26 16:30:00",6031.48,50.03,TRADE
VIC1,"2014/03/26 17:00:00",6033.71,50.17,TRADE
VIC1,"2014/03/26 17:30:00",5930.44,49.84,TRADE
VIC1,"2014/03/26 18:00:00",5814.59,51.48,TRADE
VIC1,"2014/03/26 18:30:00",5753.75,50.49,TRADE
VIC1,"2014/03/26 19:00:00",5822.16,51.58,TRADE
VIC1,"2014/03/26 19:30:00",5742.33,50.18,TRADE
VIC1,"2014/03/26 20:00:00",5610.09,51.63,TRADE
VIC1,"2014/03/26 20:30:00",5421.88,52.36,TRADE
VIC1,"2014/03/26 21:00:00",5297.8,50.8,TRADE
VIC1,"2014/03/26 21:30:00",5092.96,49.77,TRADE
VIC1,"2014/03/26 22:00:00",4887.37,41.79,TRADE
VIC1,"2014/03/26 22:30:00",4804.04,46.6,TRADE
VIC1,"2014/03/26 23:00:00",4806.75,45.94,TRADE
VIC1,"2014/03/26 23:30:00",5144.29,48.5,TRADE
VIC1,"2014/03/27 00:00:00",5147.1,49.76,TRADE
VIC1,"2014/03/27 00:30:00",4885.3,45.73,TRADE
VIC1,"2014/03/27 01:00:00",4722.64,44.76,TRADE
VIC1,"2014/03/27 01:30:00",4600.67,40.66,TRADE
VIC1,"2014/03/27 02:00:00",4452.14,40.53,TRADE
VIC1,"2014/03/27 02:30:00",4354.55,40.47,TRADE
VIC1,"2014/03/27 03:00:00",4314.6,40.26,TRADE
VIC1,"2014/03/27 03:30:00",4296.94,40.52,TRADE
VIC1,"2014/03/27 04:00:00",4337.65,40.62,TRADE
VIC1,"2014/03/27 04:30:00",4479.94,44.5,TRADE
VIC1,"2014/03/27 05:00:00",4663.16,46.53,TRADE
VIC1,"2014/03/27 05:30:00",5004.58,50.04,TRADE
VIC1,"2014/03/27 06:00:00",5361.58,54.42,TRADE
VIC1,"2014/03/27 06:30:00",5834.08,54.93,TRADE
VIC1,"2014/03/27 07:00:00",6114.16,65.62,TRADE
VIC1,"2014/03/27 07:30:00",5997.06,56.16,TRADE
VIC1,"2014/03/27 08:00:00",6025.98,56.21,TRADE
VIC1,"2014/03/27 08:30:00",6053.76,55.37,TRADE
VIC1,"2014/03/27 09:00:00",6072.49,56.38,TRADE
VIC1,"2014/03/27 09:30:00",6072.44,57.02,TRADE
VIC1,"2014/03/27 10:00:00",6086.34,56.73,TRADE
VIC1,"2014/03/27 10:30:00",6067.85,56.78,TRADE
VIC1,"2014/03/27 11:00:00",6090.89,61.6,TRADE
VIC1,"2014/03/27 11:30:00",6145.89,56.66,TRADE
VIC1,"2014/03/27 12:00:00",6163.52,56.05,TRADE
VIC1,"2014/03/27 12:30:00",6187.17,56.37,TRADE
VIC1,"2014/03/27 13:00:00",6175.38,56.03,TRADE
VIC1,"2014/03/27 13:30:00",6194.82,58.14,TRADE
VIC1,"2014/03/27 14:00:00",6217.61,58.38,TRADE
VIC1,"2014/03/27 14:30:00",6202.85,57.44,TRADE
VIC1,"2014/03/27 15:00:00",6186.26,55.64,TRADE
VIC1,"2014/03/27 15:30:00",6204.8,56.89,TRADE
VIC1,"2014/03/27 16:00:00",6237.01,63.88,TRADE
VIC1,"2014/03/27 16:30:00",6284.55,57.51,TRADE
VIC1,"2014/03/27 17:00:00",6254.3,57.58,TRADE
VIC1,"2014/03/27 17:30:00",6133.39,55.79,TRADE
VIC1,"2014/03/27 18:00:00",6041.64,56.27,TRADE
VIC1,"2014/03/27 18:30:00",5987.46,55.41,TRADE
VIC1,"2014/03/27 19:00:00",6072.94,55.2,TRADE
VIC1,"2014/03/27 19:30:00",6021.27,53.9,TRADE
VIC1,"2014/03/27 20:00:00",5875.99,53.25,TRADE
VIC1,"2014/03/27 20:30:00",5683.38,52.56,TRADE
VIC1,"2014/03/27 21:00:00",5473.12,53.66,TRADE
VIC1,"2014/03/27 21:30:00",5245.54,51.45,TRADE
VIC1,"2014/03/27 22:00:00",5029.49,49.5,TRADE
VIC1,"2014/03/27 22:30:00",4965.97,50.2,TRADE
VIC1,"2014/03/27 23:00:00",4962.66,50.08,TRADE
VIC1,"2014/03/27 23:30:00",5250.06,54.62,TRADE
VIC1,"2014/03/28 00:00:00",5247.34,58.1,TRADE
VIC1,"2014/03/28 00:30:00",4987.65,53.03,TRADE
VIC1,"2014/03/28 01:00:00",4786.7,49.35,TRADE
VIC1,"2014/03/28 01:30:00",4655.99,43.47,TRADE
VIC1,"2014/03/28 02:00:00",4514.84,43.59,TRADE
VIC1,"2014/03/28 02:30:00",4412.99,42.38,TRADE
VIC1,"2014/03/28 03:00:00",4347.19,42.15,TRADE
VIC1,"2014/03/28 03:30:00",4355.58,43.42,TRADE
VIC1,"2014/03/28 04:00:00",4369.74,45.08,TRADE
VIC1,"2014/03/28 04:30:00",4485.93,49.46,TRADE
VIC1,"2014/03/28 05:00:00",4641.99,54.26,TRADE
VIC1,"2014/03/28 05:30:00",5014.13,59.98,TRADE
VIC1,"2014/03/28 06:00:00",5383.34,53.97,TRADE
VIC1,"2014/03/28 06:30:00",5826.04,81.38,TRADE
VIC1,"2014/03/28 07:00:00",6223.45,154.46,TRADE
VIC1,"2014/03/28 07:30:00",6129.51,61.62,TRADE
VIC1,"2014/03/28 08:00:00",6059.36,56.84,TRADE
VIC1,"2014/03/28 08:30:00",6151.46,59.09,TRADE
VIC1,"2014/03/28 09:00:00",6137.63,58.54,TRADE
VIC1,"2014/03/28 09:30:00",6152.27,56.55,TRADE
VIC1,"2014/03/28 10:00:00",6100.29,55.19,TRADE
VIC1,"2014/03/28 10:30:00",6111.87,55.18,TRADE
VIC1,"2014/03/28 11:00:00",6134.84,55.88,TRADE
VIC1,"2014/03/28 11:30:00",6118.54,53.75,TRADE
VIC1,"2014/03/28 12:00:00",6008.67,55.94,TRADE
VIC1,"2014/03/28 12:30:00",5967.08,55.03,TRADE
VIC1,"2014/03/28 13:00:00",5965.57,55.42,TRADE
VIC1,"2014/03/28 13:30:00",5920.2,54.95,TRADE
VIC1,"2014/03/28 14:00:00",5898.01,55.25,TRADE
VIC1,"2014/03/28 14:30:00",5846.79,53.1,TRADE
VIC1,"2014/03/28 15:00:00",5862.44,55.03,TRADE
VIC1,"2014/03/28 15:30:00",5868.05,53.6,TRADE
VIC1,"2014/03/28 16:00:00",5918.18,55.65,TRADE
VIC1,"2014/03/28 16:30:00",5948.36,55.58,TRADE
VIC1,"2014/03/28 17:00:00",5920.16,50.18,TRADE
VIC1,"2014/03/28 17:30:00",5849.26,54.53,TRADE
VIC1,"2014/03/28 18:00:00",5740.69,52.14,TRADE
VIC1,"2014/03/28 18:30:00",5675.55,55.98,TRADE
VIC1,"2014/03/28 19:00:00",5807.5,60.58,TRADE
VIC1,"2014/03/28 19:30:00",5745.08,55.85,TRADE
VIC1,"2014/03/28 20:00:00",5645.86,54.65,TRADE
VIC1,"2014/03/28 20:30:00",5442.2,52.86,TRADE
VIC1,"2014/03/28 21:00:00",5319.75,51.1,TRADE
VIC1,"2014/03/28 21:30:00",5171.73,52.08,TRADE
VIC1,"2014/03/28 22:00:00",4991.95,48.91,TRADE
VIC1,"2014/03/28 22:30:00",4918.33,50.13,TRADE
VIC1,"2014/03/28 23:00:00",4916.81,49.31,TRADE
VIC1,"2014/03/28 23:30:00",5245.27,51.9,TRADE
VIC1,"2014/03/29 00:00:00",5219.45,54.66,TRADE
VIC1,"2014/03/29 00:30:00",4939.6,49.2,TRADE
VIC1,"2014/03/29 01:00:00",4725.46,45.82,TRADE
VIC1,"2014/03/29 01:30:00",4592.72,41.65,TRADE
VIC1,"2014/03/29 02:00:00",4409.58,40.62,TRADE
VIC1,"2014/03/29 02:30:00",4347.05,41.59,TRADE
VIC1,"2014/03/29 03:00:00",4231.55,41.49,TRADE
VIC1,"2014/03/29 03:30:00",4244.76,41.76,TRADE
VIC1,"2014/03/29 04:00:00",4225.64,41.58,TRADE
VIC1,"2014/03/29 04:30:00",4258.49,41.51,TRADE
VIC1,"2014/03/29 05:00:00",4344.96,42.42,TRADE
VIC1,"2014/03/29 05:30:00",4432.55,43.15,TRADE
VIC1,"2014/03/29 06:00:00",4608.26,44.3,TRADE
VIC1,"2014/03/29 06:30:00",4758.2,45.95,TRADE
VIC1,"2014/03/29 07:00:00",4922.05,47.8,TRADE
VIC1,"2014/03/29 07:30:00",4946.62,48.13,TRADE
VIC1,"2014/03/29 08:00:00",5033.81,50.15,TRADE
VIC1,"2014/03/29 08:30:00",5149.9,53.47,TRADE
VIC1,"2014/03/29 09:00:00",5169.48,49.44,TRADE
VIC1,"2014/03/29 09:30:00",5173.36,48.97,TRADE
VIC1,"2014/03/29 10:00:00",5166.47,48.39,TRADE
VIC1,"2014/03/29 10:30:00",5126.76,47.97,TRADE
VIC1,"2014/03/29 11:00:00",5097.64,47.46,TRADE
VIC1,"2014/03/29 11:30:00",5072.54,46.83,TRADE
VIC1,"2014/03/29 12:00:00",5055.39,46.55,TRADE
VIC1,"2014/03/29 12:30:00",5080.37,46.35,TRADE
VIC1,"2014/03/29 13:00:00",5048.29,45.85,TRADE
VIC1,"2014/03/29 13:30:00",4998.39,44.83,TRADE
VIC1,"2014/03/29 14:00:00",4992.68,43.47,TRADE
VIC1,"2014/03/29 14:30:00",4983.99,43.41,TRADE
VIC1,"2014/03/29 15:00:00",5009.77,43.94,TRADE
VIC1,"2014/03/29 15:30:00",5042.16,44.07,TRADE
VIC1,"2014/03/29 16:00:00",5132.12,44.73,TRADE
VIC1,"2014/03/29 16:30:00",5226.77,45.35,TRADE
VIC1,"2014/03/29 17:00:00",5248.74,46.38,TRADE
VIC1,"2014/03/29 17:30:00",5322.17,46.52,TRADE
VIC1,"2014/03/29 18:00:00",5309.42,46.83,TRADE
VIC1,"2014/03/29 18:30:00",5306.79,51.72,TRADE
VIC1,"2014/03/29 19:00:00",5339.34,50.28,TRADE
VIC1,"2014/03/29 19:30:00",5294.43,50.08,TRADE
VIC1,"2014/03/29 20:00:00",5227.22,49.14,TRADE
VIC1,"2014/03/29 20:30:00",5099.55,47.57,TRADE
VIC1,"2014/03/29 21:00:00",4989.31,46.49,TRADE
VIC1,"2014/03/29 21:30:00",4900.84,47.48,TRADE
VIC1,"2014/03/29 22:00:00",4768.56,46.33,TRADE
VIC1,"2014/03/29 22:30:00",4739.08,46.68,TRADE
VIC1,"2014/03/29 23:00:00",4751.75,45.85,TRADE
VIC1,"2014/03/29 23:30:00",5072.25,47.73,TRADE
VIC1,"2014/03/30 00:00:00",5067.13,49.28,TRADE
VIC1,"2014/03/30 00:30:00",4837.38,46.04,TRADE
VIC1,"2014/03/30 01:00:00",4644.6,42.96,TRADE
VIC1,"2014/03/30 01:30:00",4477.51,40.76,TRADE
VIC1,"2014/03/30 02:00:00",4318.92,40.66,TRADE
VIC1,"2014/03/30 02:30:00",4212.31,40.62,TRADE
VIC1,"2014/03/30 03:00:00",4126.85,40.62,TRADE
VIC1,"2014/03/30 03:30:00",4040.87,38.47,TRADE
VIC1,"2014/03/30 04:00:00",4047.12,38.13,TRADE
VIC1,"2014/03/30 04:30:00",4061.91,38.38,TRADE
VIC1,"2014/03/30 05:00:00",4078.67,38.31,TRADE
VIC1,"2014/03/30 05:30:00",4169.74,38.91,TRADE
VIC1,"2014/03/30 06:00:00",4253.52,38.64,TRADE
VIC1,"2014/03/30 06:30:00",4394.06,39.52,TRADE
VIC1,"2014/03/30 07:00:00",4497.72,41.4,TRADE
VIC1,"2014/03/30 07:30:00",4502.52,41.7,TRADE
VIC1,"2014/03/30 08:00:00",4635.16,43.46,TRADE
VIC1,"2014/03/30 08:30:00",4728.56,44.48,TRADE
VIC1,"2014/03/30 09:00:00",4778.55,44.58,TRADE
VIC1,"2014/03/30 09:30:00",4894.08,44.95,TRADE
VIC1,"2014/03/30 10:00:00",4876.25,44.86,TRADE
VIC1,"2014/03/30 10:30:00",4889.56,45.13,TRADE
VIC1,"2014/03/30 11:00:00",4855.62,44.9,TRADE
VIC1,"2014/03/30 11:30:00",4915.32,45.09,TRADE
VIC1,"2014/03/30 12:00:00",4912.4,44.83,TRADE
VIC1,"2014/03/30 12:30:00",4932.1,44.7,TRADE
VIC1,"2014/03/30 13:00:00",4932.77,44.95,TRADE
VIC1,"2014/03/30 13:30:00",4931.75,45.22,TRADE
VIC1,"2014/03/30 14:00:00",4976.52,45.97,TRADE
VIC1,"2014/03/30 14:30:00",5073.8,47.54,TRADE
VIC1,"2014/03/30 15:00:00",5111.07,48.32,TRADE
VIC1,"2014/03/30 15:30:00",5154.69,46.71,TRADE
VIC1,"2014/03/30 16:00:00",5261.44,47.68,TRADE
VIC1,"2014/03/30 16:30:00",5333.75,47.77,TRADE
VIC1,"2014/03/30 17:00:00",5394.73,48.92,TRADE
VIC1,"2014/03/30 17:30:00",5438.39,51.49,TRADE
VIC1,"2014/03/30 18:00:00",5432.76,51.06,TRADE
VIC1,"2014/03/30 18:30:00",5422.81,53.43,TRADE
VIC1,"2014/03/30 19:00:00",5565.77,52.44,TRADE
VIC1,"2014/03/30 19:30:00",5456,49.28,TRADE
VIC1,"2014/03/30 20:00:00",5355.44,48.33,TRADE
VIC1,"2014/03/30 20:30:00",5207.06,47.83,TRADE
VIC1,"2014/03/30 21:00:00",5037.15,44.68,TRADE
VIC1,"2014/03/30 21:30:00",4858.77,42.64,TRADE
VIC1,"2014/03/30 22:00:00",4690.28,40.91,TRADE
VIC1,"2014/03/30 22:30:00",4602.08,40.85,TRADE
VIC1,"2014/03/30 23:00:00",4613.86,40.78,TRADE
VIC1,"2014/03/30 23:30:00",4879.36,42.79,TRADE
VIC1,"2014/03/31 00:00:00",4946.21,44.08,TRADE
VIC1,"2014/03/31 00:30:00",4717.65,42.03,TRADE
VIC1,"2014/03/31 01:00:00",4557.11,40.16,TRADE
VIC1,"2014/03/31 01:30:00",4386.43,38.22,TRADE
VIC1,"2014/03/31 02:00:00",4282.24,37.98,TRADE
VIC1,"2014/03/31 02:30:00",4155.03,38,TRADE
VIC1,"2014/03/31 03:00:00",4086.66,38.03,TRADE
VIC1,"2014/03/31 03:30:00",4107.55,38,TRADE
VIC1,"2014/03/31 04:00:00",4129.26,38.3,TRADE
VIC1,"2014/03/31 04:30:00",4225.67,40.66,TRADE
VIC1,"2014/03/31 05:00:00",4468.87,40.87,TRADE
VIC1,"2014/03/31 05:30:00",4855.52,44.39,TRADE
VIC1,"2014/03/31 06:00:00",5190.44,46.75,TRADE
VIC1,"2014/03/31 06:30:00",5724.92,52.95,TRADE
VIC1,"2014/03/31 07:00:00",5947.38,52.02,TRADE
VIC1,"2014/03/31 07:30:00",5811.82,47.89,TRADE
VIC1,"2014/03/31 08:00:00",5857.06,48.12,TRADE
VIC1,"2014/03/31 08:30:00",5918.65,49.43,TRADE
VIC1,"2014/03/31 09:00:00",5949.23,48.54,TRADE
VIC1,"2014/03/31 09:30:00",6023.42,50.17,TRADE
VIC1,"2014/03/31 10:00:00",6108.01,49.8,TRADE
VIC1,"2014/03/31 10:30:00",6197.34,52.24,TRADE
VIC1,"2014/03/31 11:00:00",6260.86,55.91,TRADE
VIC1,"2014/03/31 11:30:00",6315.19,54.63,TRADE
VIC1,"2014/03/31 12:00:00",6382.09,55.16,TRADE
VIC1,"2014/03/31 12:30:00",6455.37,56.08,TRADE
VIC1,"2014/03/31 13:00:00",6569.5,56.09,TRADE
VIC1,"2014/03/31 13:30:00",6661.61,61.18,TRADE
VIC1,"2014/03/31 14:00:00",6742.79,56.02,TRADE
VIC1,"2014/03/31 14:30:00",6738.3,57.01,TRADE
VIC1,"2014/03/31 15:00:00",6750.91,57.02,TRADE
VIC1,"2014/03/31 15:30:00",6849.22,56.93,TRADE
VIC1,"2014/03/31 16:00:00",6956.41,59.41,TRADE
VIC1,"2014/03/31 16:30:00",6946,61.94,TRADE
VIC1,"2014/03/31 17:00:00",6926.47,61.29,TRADE
VIC1,"2014/03/31 17:30:00",6787.98,57.1,TRADE
VIC1,"2014/03/31 18:00:00",6609.4,56.02,TRADE
VIC1,"2014/03/31 18:30:00",6505.8,55.85,TRADE
VIC1,"2014/03/31 19:00:00",6527.64,56.02,TRADE
VIC1,"2014/03/31 19:30:00",6350.39,55.39,TRADE
VIC1,"2014/03/31 20:00:00",6177.17,52.95,TRADE
VIC1,"2014/03/31 20:30:00",5973.69,51.88,TRADE
VIC1,"2014/03/31 21:00:00",5789.81,50.82,TRADE
VIC1,"2014/03/31 21:30:00",5498.13,50.01,TRADE
VIC1,"2014/03/31 22:00:00",5221.49,47.68,TRADE
VIC1,"2014/03/31 22:30:00",5147.24,46.12,TRADE
VIC1,"2014/03/31 23:00:00",5099.46,46.52,TRADE
VIC1,"2014/03/31 23:30:00",5447.86,48.18,TRADE
VIC1,"2014/04/01 00:00:00",5432.9,49.5,TRADE
