REGION,SETTLEMENTDATE,TOTALDEMAND,RRP,PERIODTYPE
SNOWY1,"2003/01/01 00:30",74.90833,20.31,TRADE
SNOWY1,"2003/01/01 01:00",71.60667,17.39,TRADE
SNOWY1,"2003/01/01 01:30",77.63,17.39,TRADE
SNOWY1,"2003/01/01 02:00",68.085,14.28,TRADE
SNOWY1,"2003/01/01 02:30",69.63,11.25,TRADE
SNOWY1,"2003/01/01 03:00",70.35,9.47,TRADE
SNOWY1,"2003/01/01 03:30",62.36,9.85,TRADE
SNOWY1,"2003/01/01 04:00",69.76833,6.6,TRADE
SNOWY1,"2003/01/01 04:30",66.725,7.71,TRADE
SNOWY1,"2003/01/01 05:00",73.91833,6.48,TRADE
SNOWY1,"2003/01/01 05:30",60.21167,6.75,TRADE
SNOWY1,"2003/01/01 06:00",67.01667,6.4,TRADE
SNOWY1,"2003/01/01 06:30",64.82,7.49,TRADE
SNOWY1,"2003/01/01 07:00",68.025,5.99,TRADE
SNOWY1,"2003/01/01 07:30",67.27333,6.55,TRADE
SNOWY1,"2003/01/01 08:00",34.145,10.48,TRADE
SNOWY1,"2003/01/01 08:30",3.04,11.77,TRADE
SNOWY1,"2003/01/01 09:00",3.21667,12.61,TRADE
SNOWY1,"2003/01/01 09:30",0,14.87,TRADE
SNOWY1,"2003/01/01 10:00",4.8,14.86,TRADE
SNOWY1,"2003/01/01 10:30",2.12167,14.81,TRADE
SNOWY1,"2003/01/01 11:00",2.90333,15.06,TRADE
SNOWY1,"2003/01/01 11:30",8.28333,15.08,TRADE
SNOWY1,"2003/01/01 12:00",0.455,14.91,TRADE
SNOWY1,"2003/01/01 12:30",3.33167,14.83,TRADE
SNOWY1,"2003/01/01 13:00",8.11333,14.86,TRADE
SNOWY1,"2003/01/01 13:30",4.99333,14.86,TRADE
SNOWY1,"2003/01/01 14:00",2.89667,14.81,TRADE
SNOWY1,"2003/01/01 14:30",2.935,14.78,TRADE
SNOWY1,"2003/01/01 15:00",2.98833,15.01,TRADE
SNOWY1,"2003/01/01 15:30",0.91667,14.91,TRADE
SNOWY1,"2003/01/01 16:00",5.76667,15.02,TRADE
SNOWY1,"2003/01/01 16:30",2.39333,15.09,TRADE
SNOWY1,"2003/01/01 17:00",2.45167,15.17,TRADE
SNOWY1,"2003/01/01 17:30",5.25333,15.23,TRADE
SNOWY1,"2003/01/01 18:00",2.60167,15.79,TRADE
SNOWY1,"2003/01/01 18:30",8.32333,16.4,TRADE
SNOWY1,"2003/01/01 19:00",1.07333,16.17,TRADE
SNOWY1,"2003/01/01 19:30",2.79333,16.34,TRADE
SNOWY1,"2003/01/01 20:00",1.80167,16.53,TRADE
SNOWY1,"2003/01/01 20:30",2.22167,16.89,TRADE
SNOWY1,"2003/01/01 21:00",5.54667,16.55,TRADE
SNOWY1,"2003/01/01 21:30",1.65,16.46,TRADE
SNOWY1,"2003/01/01 22:00",2.27833,15.76,TRADE
SNOWY1,"2003/01/01 22:30",1.64833,16.19,TRADE
SNOWY1,"2003/01/01 23:00",1.69667,15.32,TRADE
SNOWY1,"2003/01/01 23:30",4.73167,17.18,TRADE
SNOWY1,"2003/01/02 00:00",5.14,16.66,TRADE
SNOWY1,"2003/01/02 00:30",2.52167,15.6,TRADE
SNOWY1,"2003/01/02 01:00",2.61333,14.91,TRADE
SNOWY1,"2003/01/02 01:30",7.15667,15.01,TRADE
SNOWY1,"2003/01/02 02:00",7.62667,10.64,TRADE
SNOWY1,"2003/01/02 02:30",54.57167,10.19,TRADE
SNOWY1,"2003/01/02 03:00",66.10833,9.82,TRADE
SNOWY1,"2003/01/02 03:30",65.82833,8.44,TRADE
SNOWY1,"2003/01/02 04:00",69.27833,6.97,TRADE
SNOWY1,"2003/01/02 04:30",67.605,8.77,TRADE
SNOWY1,"2003/01/02 05:00",66.46,8.77,TRADE
SNOWY1,"2003/01/02 05:30",37,10.7,TRADE
SNOWY1,"2003/01/02 06:00",1.65,10.82,TRADE
SNOWY1,"2003/01/02 06:30",2.52667,12.98,TRADE
SNOWY1,"2003/01/02 07:00",4.93333,14.37,TRADE
SNOWY1,"2003/01/02 07:30",25.095,13.74,TRADE
SNOWY1,"2003/01/02 08:00",3.23167,15.48,TRADE
SNOWY1,"2003/01/02 08:30",4.10833,18.45,TRADE
SNOWY1,"2003/01/02 09:00",1.535,18.61,TRADE
SNOWY1,"2003/01/02 09:30",6.44333,18.44,TRADE
SNOWY1,"2003/01/02 10:00",4.465,19.76,TRADE
SNOWY1,"2003/01/02 10:30",9.64333,19.18,TRADE
SNOWY1,"2003/01/02 11:00",8.57833,20.89,TRADE
SNOWY1,"2003/01/02 11:30",12.96167,20.68,TRADE
SNOWY1,"2003/01/02 12:00",4.145,21.15,TRADE
SNOWY1,"2003/01/02 12:30",11.33,18.69,TRADE
SNOWY1,"2003/01/02 13:00",7.25667,17.23,TRADE
SNOWY1,"2003/01/02 13:30",12.97,17.49,TRADE
SNOWY1,"2003/01/02 14:00",13.36667,18.13,TRADE
SNOWY1,"2003/01/02 14:30",9.235,19.19,TRADE
SNOWY1,"2003/01/02 15:00",13.59333,19.38,TRADE
SNOWY1,"2003/01/02 15:30",12.655,21.91,TRADE
SNOWY1,"2003/01/02 16:00",5.21833,21.76,TRADE
SNOWY1,"2003/01/02 16:30",10.95833,22.83,TRADE
SNOWY1,"2003/01/02 17:00",7.52333,23.46,TRADE
SNOWY1,"2003/01/02 17:30",10.03167,22,TRADE
SNOWY1,"2003/01/02 18:00",6.215,19.15,TRADE
SNOWY1,"2003/01/02 18:30",7.87833,17.74,TRADE
SNOWY1,"2003/01/02 19:00",2.955,17.35,TRADE
SNOWY1,"2003/01/02 19:30",3.50833,17.57,TRADE
SNOWY1,"2003/01/02 20:00",5.325,18.78,TRADE
SNOWY1,"2003/01/02 20:30",6.41833,19.13,TRADE
SNOWY1,"2003/01/02 21:00",10.71333,18.49,TRADE
SNOWY1,"2003/01/02 21:30",0.52333,18.9,TRADE
SNOWY1,"2003/01/02 22:00",8.21833,17.82,TRADE
SNOWY1,"2003/01/02 22:30",6.16833,19.52,TRADE
SNOWY1,"2003/01/02 23:00",4.38167,18.6,TRADE
SNOWY1,"2003/01/02 23:30",4.13,20.41,TRADE
SNOWY1,"2003/01/03 00:00",5.245,19.9,TRADE
SNOWY1,"2003/01/03 00:30",6.85833,19.65,TRADE
SNOWY1,"2003/01/03 01:00",6.14,17.21,TRADE
SNOWY1,"2003/01/03 01:30",8.80667,16.8,TRADE
SNOWY1,"2003/01/03 02:00",8.88833,12.34,TRADE
SNOWY1,"2003/01/03 02:30",6.48167,10.62,TRADE
SNOWY1,"2003/01/03 03:00",2.00833,9.31,TRADE
SNOWY1,"2003/01/03 03:30",26.71,9.31,TRADE
SNOWY1,"2003/01/03 04:00",26.19333,8.87,TRADE
SNOWY1,"2003/01/03 04:30",32.61167,10.42,TRADE
SNOWY1,"2003/01/03 05:00",25.59,10.75,TRADE
SNOWY1,"2003/01/03 05:30",0.91333,12.99,TRADE
SNOWY1,"2003/01/03 06:00",0.755,14.94,TRADE
SNOWY1,"2003/01/03 06:30",1.32,15.4,TRADE
SNOWY1,"2003/01/03 07:00",7.82833,16.45,TRADE
SNOWY1,"2003/01/03 07:30",11.205,14.76,TRADE
SNOWY1,"2003/01/03 08:00",5.68167,17.82,TRADE
SNOWY1,"2003/01/03 08:30",12.395,22.38,TRADE
SNOWY1,"2003/01/03 09:00",4.51667,23.8,TRADE
SNOWY1,"2003/01/03 09:30",3.45667,24.37,TRADE
SNOWY1,"2003/01/03 10:00",2.92167,24.74,TRADE
SNOWY1,"2003/01/03 10:30",8.98833,24.73,TRADE
SNOWY1,"2003/01/03 11:00",6.57,24.32,TRADE
SNOWY1,"2003/01/03 11:30",6.94667,23.42,TRADE
SNOWY1,"2003/01/03 12:00",4.62167,24.79,TRADE
SNOWY1,"2003/01/03 12:30",9.16833,24.77,TRADE
SNOWY1,"2003/01/03 13:00",4.53167,23.99,TRADE
SNOWY1,"2003/01/03 13:30",5.34667,23.73,TRADE
SNOWY1,"2003/01/03 14:00",6.99167,24.16,TRADE
SNOWY1,"2003/01/03 14:30",14.25,24.37,TRADE
SNOWY1,"2003/01/03 15:00",12.61833,24.34,TRADE
SNOWY1,"2003/01/03 15:30",5.71333,25.85,TRADE
SNOWY1,"2003/01/03 16:00",7.55333,26.74,TRADE
SNOWY1,"2003/01/03 16:30",10.78167,25.76,TRADE
SNOWY1,"2003/01/03 17:00",15,24.96,TRADE
SNOWY1,"2003/01/03 17:30",14.20833,20.68,TRADE
SNOWY1,"2003/01/03 18:00",11.07167,17.96,TRADE
SNOWY1,"2003/01/03 18:30",5.20333,17.29,TRADE
SNOWY1,"2003/01/03 19:00",9.825,18.35,TRADE
SNOWY1,"2003/01/03 19:30",8.875,19.35,TRADE
SNOWY1,"2003/01/03 20:00",8.55,20.66,TRADE
SNOWY1,"2003/01/03 20:30",13.83333,21.42,TRADE
SNOWY1,"2003/01/03 21:00",15.005,20.58,TRADE
SNOWY1,"2003/01/03 21:30",7.76667,21.31,TRADE
SNOWY1,"2003/01/03 22:00",12.00667,19.92,TRADE
SNOWY1,"2003/01/03 22:30",10.30667,24.39,TRADE
SNOWY1,"2003/01/03 23:00",4.97,23.48,TRADE
SNOWY1,"2003/01/03 23:30",11.09333,25.77,TRADE
SNOWY1,"2003/01/04 00:00",10.59,24.48,TRADE
SNOWY1,"2003/01/04 00:30",9.64667,23.05,TRADE
SNOWY1,"2003/01/04 01:00",1.075,19.51,TRADE
SNOWY1,"2003/01/04 01:30",6.32167,18.66,TRADE
SNOWY1,"2003/01/04 02:00",4.27167,14.62,TRADE
SNOWY1,"2003/01/04 02:30",11.38333,11.91,TRADE
SNOWY1,"2003/01/04 03:00",60.22667,10.97,TRADE
SNOWY1,"2003/01/04 03:30",77.46,9.85,TRADE
SNOWY1,"2003/01/04 04:00",67.02333,9.22,TRADE
SNOWY1,"2003/01/04 04:30",66.14167,9.93,TRADE
SNOWY1,"2003/01/04 05:00",72.24667,9.81,TRADE
SNOWY1,"2003/01/04 05:30",69.58167,10.44,TRADE
SNOWY1,"2003/01/04 06:00",66.55,10.77,TRADE
SNOWY1,"2003/01/04 06:30",68.155,11.25,TRADE
SNOWY1,"2003/01/04 07:00",44.17167,13.27,TRADE
SNOWY1,"2003/01/04 07:30",4.67667,15.01,TRADE
SNOWY1,"2003/01/04 08:00",6.02,16.25,TRADE
SNOWY1,"2003/01/04 08:30",9.17833,17.92,TRADE
SNOWY1,"2003/01/04 09:00",6.33667,19.17,TRADE
SNOWY1,"2003/01/04 09:30",6.86833,21.39,TRADE
SNOWY1,"2003/01/04 10:00",8.36167,21.99,TRADE
SNOWY1,"2003/01/04 10:30",3.43833,21.4,TRADE
SNOWY1,"2003/01/04 11:00",5.01333,22.35,TRADE
SNOWY1,"2003/01/04 11:30",4.10333,21.46,TRADE
SNOWY1,"2003/01/04 12:00",11.02333,20.23,TRADE
SNOWY1,"2003/01/04 12:30",6.065,18.71,TRADE
SNOWY1,"2003/01/04 13:00",5.18167,18.88,TRADE
SNOWY1,"2003/01/04 13:30",0.25333,19.25,TRADE
SNOWY1,"2003/01/04 14:00",4.32167,18.55,TRADE
SNOWY1,"2003/01/04 14:30",3.57,18.33,TRADE
SNOWY1,"2003/01/04 15:00",5.86167,19.89,TRADE
SNOWY1,"2003/01/04 15:30",3.46,21.32,TRADE
SNOWY1,"2003/01/04 16:00",7.54333,21.58,TRADE
SNOWY1,"2003/01/04 16:30",2.24833,24.05,TRADE
SNOWY1,"2003/01/04 17:00",3.99833,24.93,TRADE
SNOWY1,"2003/01/04 17:30",4.72667,24.91,TRADE
SNOWY1,"2003/01/04 18:00",6.985,23.86,TRADE
SNOWY1,"2003/01/04 18:30",5.89667,21.24,TRADE
SNOWY1,"2003/01/04 19:00",6.28833,20.71,TRADE
SNOWY1,"2003/01/04 19:30",6.29333,22.88,TRADE
SNOWY1,"2003/01/04 20:00",8.84,24,TRADE
SNOWY1,"2003/01/04 20:30",4.29,23.84,TRADE
SNOWY1,"2003/01/04 21:00",4.70167,22.95,TRADE
SNOWY1,"2003/01/04 21:30",0.75333,21.39,TRADE
SNOWY1,"2003/01/04 22:00",2.78167,20.06,TRADE
SNOWY1,"2003/01/04 22:30",4.835,18.98,TRADE
SNOWY1,"2003/01/04 23:00",12.10833,18.26,TRADE
SNOWY1,"2003/01/04 23:30",5.06833,18.94,TRADE
SNOWY1,"2003/01/05 00:00",7.735,18.05,TRADE
SNOWY1,"2003/01/05 00:30",12.825,16.93,TRADE
SNOWY1,"2003/01/05 01:00",11.21167,15.16,TRADE
SNOWY1,"2003/01/05 01:30",6.68333,15.3,TRADE
SNOWY1,"2003/01/05 02:00",5.595,13.06,TRADE
SNOWY1,"2003/01/05 02:30",6.30667,10.64,TRADE
SNOWY1,"2003/01/05 03:00",5.05333,8.43,TRADE
SNOWY1,"2003/01/05 03:30",5.91333,8.28,TRADE
SNOWY1,"2003/01/05 04:00",11.73,8.06,TRADE
SNOWY1,"2003/01/05 04:30",72.675,8.25,TRADE
SNOWY1,"2003/01/05 05:00",73.05333,8.18,TRADE
SNOWY1,"2003/01/05 05:30",70.155,8.09,TRADE
SNOWY1,"2003/01/05 06:00",72.26167,8.31,TRADE
SNOWY1,"2003/01/05 06:30",67.19333,9.73,TRADE
SNOWY1,"2003/01/05 07:00",25.105,14.01,TRADE
SNOWY1,"2003/01/05 07:30",1.47333,14.09,TRADE
SNOWY1,"2003/01/05 08:00",6.56667,15.27,TRADE
SNOWY1,"2003/01/05 08:30",4.58,16.5,TRADE
SNOWY1,"2003/01/05 09:00",2.725,18.84,TRADE
SNOWY1,"2003/01/05 09:30",7.46167,20.49,TRADE
SNOWY1,"2003/01/05 10:00",3.26833,21.01,TRADE
SNOWY1,"2003/01/05 10:30",6.905,22.29,TRADE
SNOWY1,"2003/01/05 11:00",7.31333,23.86,TRADE
SNOWY1,"2003/01/05 11:30",7.35333,24.44,TRADE
SNOWY1,"2003/01/05 12:00",7.98,24.7,TRADE
SNOWY1,"2003/01/05 12:30",3.18667,24.99,TRADE
SNOWY1,"2003/01/05 13:00",8.80333,24.86,TRADE
SNOWY1,"2003/01/05 13:30",14.42167,24.83,TRADE
SNOWY1,"2003/01/05 14:00",5.28667,24.85,TRADE
SNOWY1,"2003/01/05 14:30",7.36,24.9,TRADE
SNOWY1,"2003/01/05 15:00",9.165,24.93,TRADE
SNOWY1,"2003/01/05 15:30",4.075,25.07,TRADE
SNOWY1,"2003/01/05 16:00",7.98667,25.37,TRADE
SNOWY1,"2003/01/05 16:30",13.21333,25.56,TRADE
SNOWY1,"2003/01/05 17:00",5.11333,25.53,TRADE
SNOWY1,"2003/01/05 17:30",5.99833,25.21,TRADE
SNOWY1,"2003/01/05 18:00",3.55333,25.08,TRADE
SNOWY1,"2003/01/05 18:30",5.13333,24.82,TRADE
SNOWY1,"2003/01/05 19:00",5.77667,23.37,TRADE
SNOWY1,"2003/01/05 19:30",2.86833,24.65,TRADE
SNOWY1,"2003/01/05 20:00",3.43333,24.95,TRADE
SNOWY1,"2003/01/05 20:30",7.03667,23.93,TRADE
SNOWY1,"2003/01/05 21:00",5.63833,22.73,TRADE
SNOWY1,"2003/01/05 21:30",3.22667,21.44,TRADE
SNOWY1,"2003/01/05 22:00",7.20667,19.48,TRADE
SNOWY1,"2003/01/05 22:30",4.395,18.48,TRADE
SNOWY1,"2003/01/05 23:00",5.585,16.72,TRADE
SNOWY1,"2003/01/05 23:30",1.04167,17.57,TRADE
SNOWY1,"2003/01/06 00:00",9.725,16.98,TRADE
SNOWY1,"2003/01/06 00:30",5.51,15.59,TRADE
SNOWY1,"2003/01/06 01:00",4.8,14.94,TRADE
SNOWY1,"2003/01/06 01:30",5.71,15.42,TRADE
SNOWY1,"2003/01/06 02:00",6,11.55,TRADE
SNOWY1,"2003/01/06 02:30",64.34,9.83,TRADE
SNOWY1,"2003/01/06 03:00",72.855,8.75,TRADE
SNOWY1,"2003/01/06 03:30",65.41333,8.36,TRADE
SNOWY1,"2003/01/06 04:00",69.84167,8.36,TRADE
SNOWY1,"2003/01/06 04:30",72.34833,9.58,TRADE
SNOWY1,"2003/01/06 05:00",42.96167,10.78,TRADE
SNOWY1,"2003/01/06 05:30",6,14.53,TRADE
SNOWY1,"2003/01/06 06:00",5.01167,16.17,TRADE
SNOWY1,"2003/01/06 06:30",4.86167,17.37,TRADE
SNOWY1,"2003/01/06 07:00",12.7,18.76,TRADE
SNOWY1,"2003/01/06 07:30",13.01167,18.2,TRADE
SNOWY1,"2003/01/06 08:00",6.60167,23.85,TRADE
SNOWY1,"2003/01/06 08:30",25.36333,26.63,TRADE
SNOWY1,"2003/01/06 09:00",8.98167,27.44,TRADE
SNOWY1,"2003/01/06 09:30",9.32333,32.53,TRADE
SNOWY1,"2003/01/06 10:00",11.63667,32.8,TRADE
SNOWY1,"2003/01/06 10:30",11.5,31.23,TRADE
SNOWY1,"2003/01/06 11:00",17.52333,36.62,TRADE
SNOWY1,"2003/01/06 11:30",11.24,38.74,TRADE
SNOWY1,"2003/01/06 12:00",5.82167,40.59,TRADE
SNOWY1,"2003/01/06 12:30",9.66833,43.49,TRADE
SNOWY1,"2003/01/06 13:00",12.50167,44.63,TRADE
SNOWY1,"2003/01/06 13:30",24.78833,53.56,TRADE
SNOWY1,"2003/01/06 14:00",24.20167,62.23,TRADE
SNOWY1,"2003/01/06 14:30",14.26167,62.75,TRADE
SNOWY1,"2003/01/06 15:00",18.845,63.09,TRADE
SNOWY1,"2003/01/06 15:30",11.56167,63.09,TRADE
SNOWY1,"2003/01/06 16:00",28.62833,63.09,TRADE
SNOWY1,"2003/01/06 16:30",8.69833,63.09,TRADE
SNOWY1,"2003/01/06 17:00",11.01333,53.73,TRADE
SNOWY1,"2003/01/06 17:30",10.65,40.15,TRADE
SNOWY1,"2003/01/06 18:00",9.12333,37.27,TRADE
SNOWY1,"2003/01/06 18:30",3.91333,35.06,TRADE
SNOWY1,"2003/01/06 19:00",11.785,30.78,TRADE
SNOWY1,"2003/01/06 19:30",3.545,36.47,TRADE
SNOWY1,"2003/01/06 20:00",9.445,36.35,TRADE
SNOWY1,"2003/01/06 20:30",4.09,32.13,TRADE
SNOWY1,"2003/01/06 21:00",4.105,27.02,TRADE
SNOWY1,"2003/01/06 21:30",8.225,26.47,TRADE
SNOWY1,"2003/01/06 22:00",6.38,23.75,TRADE
SNOWY1,"2003/01/06 22:30",7.42,23.45,TRADE
SNOWY1,"2003/01/06 23:00",6.15333,22.83,TRADE
SNOWY1,"2003/01/06 23:30",2.64833,25.83,TRADE
SNOWY1,"2003/01/07 00:00",5.31333,25.13,TRADE
SNOWY1,"2003/01/07 00:30",8.83333,22.04,TRADE
SNOWY1,"2003/01/07 01:00",0.82833,18.32,TRADE
SNOWY1,"2003/01/07 01:30",7.99333,19.14,TRADE
SNOWY1,"2003/01/07 02:00",11.515,15.62,TRADE
SNOWY1,"2003/01/07 02:30",9.96,14.16,TRADE
SNOWY1,"2003/01/07 03:00",36.315,10.97,TRADE
SNOWY1,"2003/01/07 03:30",53.57667,10.7,TRADE
SNOWY1,"2003/01/07 04:00",62.72667,10.7,TRADE
SNOWY1,"2003/01/07 04:30",71.135,12.81,TRADE
SNOWY1,"2003/01/07 05:00",69.95,13.84,TRADE
SNOWY1,"2003/01/07 05:30",33.77,14.88,TRADE
SNOWY1,"2003/01/07 06:00",16.59167,17.56,TRADE
SNOWY1,"2003/01/07 06:30",7.78,21.86,TRADE
SNOWY1,"2003/01/07 07:00",10.60333,25.18,TRADE
SNOWY1,"2003/01/07 07:30",19.67667,22.88,TRADE
SNOWY1,"2003/01/07 08:00",7.11667,26.02,TRADE
SNOWY1,"2003/01/07 08:30",12.51667,34.55,TRADE
SNOWY1,"2003/01/07 09:00",15.94333,37.4,TRADE
SNOWY1,"2003/01/07 09:30",11.52167,36.89,TRADE
SNOWY1,"2003/01/07 10:00",28.00167,39,TRADE
SNOWY1,"2003/01/07 10:30",9.075,40.93,TRADE
SNOWY1,"2003/01/07 11:00",12.15,44.94,TRADE
SNOWY1,"2003/01/07 11:30",23.02667,59.83,TRADE
SNOWY1,"2003/01/07 12:00",29.075,63.45,TRADE
SNOWY1,"2003/01/07 12:30",11.515,63.4,TRADE
SNOWY1,"2003/01/07 13:00",10.06167,63.34,TRADE
SNOWY1,"2003/01/07 13:30",10.31,66.01,TRADE
SNOWY1,"2003/01/07 14:00",1.91333,64.69,TRADE
SNOWY1,"2003/01/07 14:30",4.96333,63.09,TRADE
SNOWY1,"2003/01/07 15:00",12.66333,63.09,TRADE
SNOWY1,"2003/01/07 15:30",9.2,63.09,TRADE
SNOWY1,"2003/01/07 16:00",12.51667,60.69,TRADE
SNOWY1,"2003/01/07 16:30",8.43833,47.84,TRADE
SNOWY1,"2003/01/07 17:00",13.55333,39.48,TRADE
SNOWY1,"2003/01/07 17:30",9.46667,32.84,TRADE
SNOWY1,"2003/01/07 18:00",13.78,29.48,TRADE
SNOWY1,"2003/01/07 18:30",7.08833,25.82,TRADE
SNOWY1,"2003/01/07 19:00",3.80833,25.02,TRADE
SNOWY1,"2003/01/07 19:30",2.08833,25.03,TRADE
SNOWY1,"2003/01/07 20:00",1.29167,24.67,TRADE
SNOWY1,"2003/01/07 20:30",9.63333,24.04,TRADE
SNOWY1,"2003/01/07 21:00",9.97333,21.81,TRADE
SNOWY1,"2003/01/07 21:30",1.64833,21.61,TRADE
SNOWY1,"2003/01/07 22:00",4.81,18.68,TRADE
SNOWY1,"2003/01/07 22:30",2.55,22.34,TRADE
SNOWY1,"2003/01/07 23:00",2.19667,21.08,TRADE
SNOWY1,"2003/01/07 23:30",4.59333,23.43,TRADE
SNOWY1,"2003/01/08 00:00",1.885,21.57,TRADE
SNOWY1,"2003/01/08 00:30",3.61667,20.25,TRADE
SNOWY1,"2003/01/08 01:00",2.31167,18.24,TRADE
SNOWY1,"2003/01/08 01:30",3.80333,18.16,TRADE
SNOWY1,"2003/01/08 02:00",1.38833,16.41,TRADE
SNOWY1,"2003/01/08 02:30",6.935,14.5,TRADE
SNOWY1,"2003/01/08 03:00",23.05667,12.01,TRADE
SNOWY1,"2003/01/08 03:30",57.63167,8.97,TRADE
SNOWY1,"2003/01/08 04:00",67.54,10.67,TRADE
SNOWY1,"2003/01/08 04:30",62.44,13.09,TRADE
SNOWY1,"2003/01/08 05:00",41.68667,14.67,TRADE
SNOWY1,"2003/01/08 05:30",2.92,15.87,TRADE
SNOWY1,"2003/01/08 06:00",3.525,17.08,TRADE
SNOWY1,"2003/01/08 06:30",2.53167,20.61,TRADE
SNOWY1,"2003/01/08 07:00",4.47833,22.35,TRADE
SNOWY1,"2003/01/08 07:30",16.575,19.23,TRADE
SNOWY1,"2003/01/08 08:00",8.26667,24.44,TRADE
SNOWY1,"2003/01/08 08:30",15.5,26.56,TRADE
SNOWY1,"2003/01/08 09:00",2.72167,28.41,TRADE
SNOWY1,"2003/01/08 09:30",7.55667,32.21,TRADE
SNOWY1,"2003/01/08 10:00",9.745,35.98,TRADE
SNOWY1,"2003/01/08 10:30",15.96333,37.01,TRADE
SNOWY1,"2003/01/08 11:00",18.32833,37.8,TRADE
SNOWY1,"2003/01/08 11:30",10.095,39.27,TRADE
SNOWY1,"2003/01/08 12:00",12.38333,45.05,TRADE
SNOWY1,"2003/01/08 12:30",19.47667,49.1,TRADE
SNOWY1,"2003/01/08 13:00",15.84,45.17,TRADE
SNOWY1,"2003/01/08 13:30",6.75833,45.05,TRADE
SNOWY1,"2003/01/08 14:00",2.78,45.3,TRADE
SNOWY1,"2003/01/08 14:30",11.77167,52.07,TRADE
SNOWY1,"2003/01/08 15:00",8.18667,53.16,TRADE
SNOWY1,"2003/01/08 15:30",2.90833,45.44,TRADE
SNOWY1,"2003/01/08 16:00",9.09833,56.81,TRADE
SNOWY1,"2003/01/08 16:30",4.64333,40.37,TRADE
SNOWY1,"2003/01/08 17:00",13.52,31.57,TRADE
SNOWY1,"2003/01/08 17:30",3.51833,25.4,TRADE
SNOWY1,"2003/01/08 18:00",11.49,22.74,TRADE
SNOWY1,"2003/01/08 18:30",4.305,18.83,TRADE
SNOWY1,"2003/01/08 19:00",2.925,17.19,TRADE
SNOWY1,"2003/01/08 19:30",0,16.22,TRADE
SNOWY1,"2003/01/08 20:00",0.95,16.55,TRADE
SNOWY1,"2003/01/08 20:30",1.85333,17.18,TRADE
SNOWY1,"2003/01/08 21:00",6.04167,16.67,TRADE
SNOWY1,"2003/01/08 21:30",6.785,16.9,TRADE
SNOWY1,"2003/01/08 22:00",2.79167,16.04,TRADE
SNOWY1,"2003/01/08 22:30",2.05667,18.56,TRADE
SNOWY1,"2003/01/08 23:00",2.92333,16.91,TRADE
SNOWY1,"2003/01/08 23:30",0.84833,19.21,TRADE
SNOWY1,"2003/01/09 00:00",1.91667,17.54,TRADE
SNOWY1,"2003/01/09 00:30",3.32833,16.31,TRADE
SNOWY1,"2003/01/09 01:00",6.12667,15.62,TRADE
SNOWY1,"2003/01/09 01:30",2.61,15.77,TRADE
SNOWY1,"2003/01/09 02:00",3.22667,14.69,TRADE
SNOWY1,"2003/01/09 02:30",4.05,11.14,TRADE
SNOWY1,"2003/01/09 03:00",2.78833,9.81,TRADE
SNOWY1,"2003/01/09 03:30",4.00667,9.37,TRADE
SNOWY1,"2003/01/09 04:00",1.37333,9.65,TRADE
SNOWY1,"2003/01/09 04:30",1.60167,10.17,TRADE
SNOWY1,"2003/01/09 05:00",1.78667,10.88,TRADE
SNOWY1,"2003/01/09 05:30",2.705,12.72,TRADE
SNOWY1,"2003/01/09 06:00",3.84667,14.51,TRADE
SNOWY1,"2003/01/09 06:30",3.96833,16.75,TRADE
SNOWY1,"2003/01/09 07:00",9.345,17.34,TRADE
SNOWY1,"2003/01/09 07:30",5.48167,16.5,TRADE
SNOWY1,"2003/01/09 08:00",2.72667,18.99,TRADE
SNOWY1,"2003/01/09 08:30",7.5,21.62,TRADE
SNOWY1,"2003/01/09 09:00",11.29167,20.9,TRADE
SNOWY1,"2003/01/09 09:30",15.62667,22.69,TRADE
SNOWY1,"2003/01/09 10:00",2.76333,23.25,TRADE
SNOWY1,"2003/01/09 10:30",6.76667,22.92,TRADE
SNOWY1,"2003/01/09 11:00",4.155,24.09,TRADE
SNOWY1,"2003/01/09 11:30",2.64167,23.32,TRADE
SNOWY1,"2003/01/09 12:00",3.07833,24.43,TRADE
SNOWY1,"2003/01/09 12:30",6.91833,20.81,TRADE
SNOWY1,"2003/01/09 13:00",6.11,23.11,TRADE
SNOWY1,"2003/01/09 13:30",8.03167,21.49,TRADE
SNOWY1,"2003/01/09 14:00",4.815,23.15,TRADE
SNOWY1,"2003/01/09 14:30",0.82667,23.18,TRADE
SNOWY1,"2003/01/09 15:00",1.83,22.44,TRADE
SNOWY1,"2003/01/09 15:30",10.25333,24.15,TRADE
SNOWY1,"2003/01/09 16:00",18.33833,23.22,TRADE
SNOWY1,"2003/01/09 16:30",11.76833,22.05,TRADE
SNOWY1,"2003/01/09 17:00",12.34333,20.76,TRADE
SNOWY1,"2003/01/09 17:30",0,20.24,TRADE
SNOWY1,"2003/01/09 18:00",6.97333,17.96,TRADE
SNOWY1,"2003/01/09 18:30",10.28,16.7,TRADE
SNOWY1,"2003/01/09 19:00",6.605,16.71,TRADE
SNOWY1,"2003/01/09 19:30",1.40833,17.52,TRADE
SNOWY1,"2003/01/09 20:00",3.01333,17.94,TRADE
SNOWY1,"2003/01/09 20:30",10.365,17.92,TRADE
SNOWY1,"2003/01/09 21:00",4.51167,17.34,TRADE
SNOWY1,"2003/01/09 21:30",3.24333,18.36,TRADE
SNOWY1,"2003/01/09 22:00",1.455,16.63,TRADE
SNOWY1,"2003/01/09 22:30",12.50167,20.06,TRADE
SNOWY1,"2003/01/09 23:00",4.04667,19.95,TRADE
SNOWY1,"2003/01/09 23:30",4.5,22.07,TRADE
SNOWY1,"2003/01/10 00:00",9.03667,20.41,TRADE
SNOWY1,"2003/01/10 00:30",9.74,19.47,TRADE
SNOWY1,"2003/01/10 01:00",4.40833,16.88,TRADE
SNOWY1,"2003/01/10 01:30",4.5,17.79,TRADE
SNOWY1,"2003/01/10 02:00",3.64167,15.46,TRADE
SNOWY1,"2003/01/10 02:30",4.55167,12.13,TRADE
SNOWY1,"2003/01/10 03:00",5.20833,11.52,TRADE
SNOWY1,"2003/01/10 03:30",5.42667,10.68,TRADE
SNOWY1,"2003/01/10 04:00",2.4,10.66,TRADE
SNOWY1,"2003/01/10 04:30",2.20833,12.97,TRADE
SNOWY1,"2003/01/10 05:00",5.40167,13.28,TRADE
SNOWY1,"2003/01/10 05:30",0.31667,15.1,TRADE
SNOWY1,"2003/01/10 06:00",7.44833,17.38,TRADE
SNOWY1,"2003/01/10 06:30",6.815,20.12,TRADE
SNOWY1,"2003/01/10 07:00",19.94,22.03,TRADE
SNOWY1,"2003/01/10 07:30",10.375,19.81,TRADE
SNOWY1,"2003/01/10 08:00",3.40333,24.36,TRADE
SNOWY1,"2003/01/10 08:30",26.24833,31.15,TRADE
SNOWY1,"2003/01/10 09:00",11.59,30.44,TRADE
SNOWY1,"2003/01/10 09:30",10.545,33.82,TRADE
SNOWY1,"2003/01/10 10:00",14.81667,28.12,TRADE
SNOWY1,"2003/01/10 10:30",22.98833,27.27,TRADE
SNOWY1,"2003/01/10 11:00",13.12167,27.25,TRADE
SNOWY1,"2003/01/10 11:30",6.78333,28.98,TRADE
SNOWY1,"2003/01/10 12:00",5.12333,28.91,TRADE
SNOWY1,"2003/01/10 12:30",14.295,30.1,TRADE
SNOWY1,"2003/01/10 13:00",2.40333,31.71,TRADE
SNOWY1,"2003/01/10 13:30",25.77,31.3,TRADE
SNOWY1,"2003/01/10 14:00",9.05333,30.22,TRADE
SNOWY1,"2003/01/10 14:30",9.47333,28.41,TRADE
SNOWY1,"2003/01/10 15:00",17.47167,27.53,TRADE
SNOWY1,"2003/01/10 15:30",8.335,27.36,TRADE
SNOWY1,"2003/01/10 16:00",4.185,30.15,TRADE
SNOWY1,"2003/01/10 16:30",8.63333,26.63,TRADE
SNOWY1,"2003/01/10 17:00",4.64167,25.38,TRADE
SNOWY1,"2003/01/10 17:30",4.97167,23.33,TRADE
SNOWY1,"2003/01/10 18:00",7.53333,22.53,TRADE
SNOWY1,"2003/01/10 18:30",8.15667,19.25,TRADE
SNOWY1,"2003/01/10 19:00",8.79167,20.33,TRADE
SNOWY1,"2003/01/10 19:30",4.90833,20.45,TRADE
SNOWY1,"2003/01/10 20:00",7.76333,19.8,TRADE
SNOWY1,"2003/01/10 20:30",4.35833,19.92,TRADE
SNOWY1,"2003/01/10 21:00",3.70333,18.9,TRADE
SNOWY1,"2003/01/10 21:30",3.39167,20.37,TRADE
SNOWY1,"2003/01/10 22:00",2.83333,19.6,TRADE
SNOWY1,"2003/01/10 22:30",1.26333,23.16,TRADE
SNOWY1,"2003/01/10 23:00",4.33667,23.31,TRADE
SNOWY1,"2003/01/10 23:30",5.82167,26.78,TRADE
SNOWY1,"2003/01/11 00:00",3.82667,25.67,TRADE
SNOWY1,"2003/01/11 00:30",1.99667,23.83,TRADE
SNOWY1,"2003/01/11 01:00",5.86,21.43,TRADE
SNOWY1,"2003/01/11 01:30",2.07833,21.46,TRADE
SNOWY1,"2003/01/11 02:00",6.61,17.41,TRADE
SNOWY1,"2003/01/11 02:30",2.85833,15.83,TRADE
SNOWY1,"2003/01/11 03:00",9.57167,15.16,TRADE
SNOWY1,"2003/01/11 03:30",2.55833,14.02,TRADE
SNOWY1,"2003/01/11 04:00",1.93,13.78,TRADE
SNOWY1,"2003/01/11 04:30",4.38167,13.98,TRADE
SNOWY1,"2003/01/11 05:00",5.35333,14.52,TRADE
SNOWY1,"2003/01/11 05:30",2.53,15.09,TRADE
SNOWY1,"2003/01/11 06:00",8.45167,17.12,TRADE
SNOWY1,"2003/01/11 06:30",4.03167,18.22,TRADE
SNOWY1,"2003/01/11 07:00",3.09167,17.65,TRADE
SNOWY1,"2003/01/11 07:30",2.82833,19.87,TRADE
SNOWY1,"2003/01/11 08:00",5.30333,24.64,TRADE
SNOWY1,"2003/01/11 08:30",13.225,27.45,TRADE
SNOWY1,"2003/01/11 09:00",2.22833,30.85,TRADE
SNOWY1,"2003/01/11 09:30",5.795,33.89,TRADE
SNOWY1,"2003/01/11 10:00",17.77,29.5,TRADE
SNOWY1,"2003/01/11 10:30",12.71667,27.52,TRADE
SNOWY1,"2003/01/11 11:00",27.49667,27.35,TRADE
SNOWY1,"2003/01/11 11:30",20.04333,26.98,TRADE
SNOWY1,"2003/01/11 12:00",16.22167,25.74,TRADE
SNOWY1,"2003/01/11 12:30",20.445,25.55,TRADE
SNOWY1,"2003/01/11 13:00",6.91667,25.5,TRADE
SNOWY1,"2003/01/11 13:30",17.67167,25.35,TRADE
SNOWY1,"2003/01/11 14:00",18.13167,25.4,TRADE
SNOWY1,"2003/01/11 14:30",14.895,25.75,TRADE
SNOWY1,"2003/01/11 15:00",11.59833,26.8,TRADE
SNOWY1,"2003/01/11 15:30",10.92667,25.53,TRADE
SNOWY1,"2003/01/11 16:00",10.365,26.63,TRADE
SNOWY1,"2003/01/11 16:30",15.15,25.06,TRADE
SNOWY1,"2003/01/11 17:00",12.57167,24.73,TRADE
SNOWY1,"2003/01/11 17:30",16.77667,24.97,TRADE
SNOWY1,"2003/01/11 18:00",10.39833,25.12,TRADE
SNOWY1,"2003/01/11 18:30",7.66833,24.63,TRADE
SNOWY1,"2003/01/11 19:00",8.29667,24.53,TRADE
SNOWY1,"2003/01/11 19:30",13.21333,24.64,TRADE
SNOWY1,"2003/01/11 20:00",6.01667,25.29,TRADE
SNOWY1,"2003/01/11 20:30",11.87833,23.8,TRADE
SNOWY1,"2003/01/11 21:00",19.68333,22.99,TRADE
SNOWY1,"2003/01/11 21:30",9.49,23.39,TRADE
SNOWY1,"2003/01/11 22:00",18.07667,21.11,TRADE
SNOWY1,"2003/01/11 22:30",11.00833,22.76,TRADE
SNOWY1,"2003/01/11 23:00",17.34333,21.24,TRADE
SNOWY1,"2003/01/11 23:30",13.10167,24.72,TRADE
SNOWY1,"2003/01/12 00:00",14.93,21.81,TRADE
SNOWY1,"2003/01/12 00:30",14.47,18.56,TRADE
SNOWY1,"2003/01/12 01:00",15.01667,16.48,TRADE
SNOWY1,"2003/01/12 01:30",16.27,16.14,TRADE
SNOWY1,"2003/01/12 02:00",23.71833,12.26,TRADE
SNOWY1,"2003/01/12 02:30",18.73333,10.08,TRADE
SNOWY1,"2003/01/12 03:00",12.16167,10.17,TRADE
SNOWY1,"2003/01/12 03:30",17.60333,11.09,TRADE
SNOWY1,"2003/01/12 04:00",5.83333,10.78,TRADE
SNOWY1,"2003/01/12 04:30",7.24333,10.73,TRADE
SNOWY1,"2003/01/12 05:00",13.64833,10.47,TRADE
SNOWY1,"2003/01/12 05:30",11.96333,9.43,TRADE
SNOWY1,"2003/01/12 06:00",6.10667,9.77,TRADE
SNOWY1,"2003/01/12 06:30",6.48167,8.84,TRADE
SNOWY1,"2003/01/12 07:00",13.64333,10.8,TRADE
SNOWY1,"2003/01/12 07:30",12.16667,12.18,TRADE
SNOWY1,"2003/01/12 08:00",9.205,14.86,TRADE
SNOWY1,"2003/01/12 08:30",8.86167,15.65,TRADE
SNOWY1,"2003/01/12 09:00",13.93833,16.01,TRADE
SNOWY1,"2003/01/12 09:30",14.61,17.81,TRADE
SNOWY1,"2003/01/12 10:00",24.69333,18.59,TRADE
SNOWY1,"2003/01/12 10:30",19.05833,22.47,TRADE
SNOWY1,"2003/01/12 11:00",14.46667,23.57,TRADE
SNOWY1,"2003/01/12 11:30",20.16833,24.06,TRADE
SNOWY1,"2003/01/12 12:00",20.40333,24.36,TRADE
SNOWY1,"2003/01/12 12:30",16.85,24.68,TRADE
SNOWY1,"2003/01/12 13:00",18.25833,24.02,TRADE
SNOWY1,"2003/01/12 13:30",19.575,23.75,TRADE
SNOWY1,"2003/01/12 14:00",11.93,23.53,TRADE
SNOWY1,"2003/01/12 14:30",28.18833,24.08,TRADE
SNOWY1,"2003/01/12 15:00",18.31833,25.75,TRADE
SNOWY1,"2003/01/12 15:30",23.33833,26.35,TRADE
SNOWY1,"2003/01/12 16:00",29.27833,27.25,TRADE
SNOWY1,"2003/01/12 16:30",16.82333,27,TRADE
SNOWY1,"2003/01/12 17:00",20.205,27.25,TRADE
SNOWY1,"2003/01/12 17:30",22.005,28.4,TRADE
SNOWY1,"2003/01/12 18:00",16.125,27.71,TRADE
SNOWY1,"2003/01/12 18:30",30.43333,27.04,TRADE
SNOWY1,"2003/01/12 19:00",26.72,26.82,TRADE
SNOWY1,"2003/01/12 19:30",23.14833,26.49,TRADE
SNOWY1,"2003/01/12 20:00",26.235,26.68,TRADE
SNOWY1,"2003/01/12 20:30",21.17,26.35,TRADE
SNOWY1,"2003/01/12 21:00",24.87833,23.95,TRADE
SNOWY1,"2003/01/12 21:30",15.665,24.35,TRADE
SNOWY1,"2003/01/12 22:00",25.21667,20.04,TRADE
SNOWY1,"2003/01/12 22:30",19.03833,21.05,TRADE
SNOWY1,"2003/01/12 23:00",13.705,17.89,TRADE
SNOWY1,"2003/01/12 23:30",23.215,21.01,TRADE
SNOWY1,"2003/01/13 00:00",13.17167,17.49,TRADE
SNOWY1,"2003/01/13 00:30",15.27833,16.22,TRADE
SNOWY1,"2003/01/13 01:00",13.34333,15.43,TRADE
SNOWY1,"2003/01/13 01:30",17.71833,15.95,TRADE
SNOWY1,"2003/01/13 02:00",13.7,14.77,TRADE
SNOWY1,"2003/01/13 02:30",18.16667,11.31,TRADE
SNOWY1,"2003/01/13 03:00",22.94833,9.88,TRADE
SNOWY1,"2003/01/13 03:30",38.74167,9.07,TRADE
SNOWY1,"2003/01/13 04:00",43.495,9.86,TRADE
SNOWY1,"2003/01/13 04:30",53.01,11.17,TRADE
SNOWY1,"2003/01/13 05:00",28.665,11.36,TRADE
SNOWY1,"2003/01/13 05:30",9.475,15.85,TRADE
SNOWY1,"2003/01/13 06:00",27.085,16.89,TRADE
SNOWY1,"2003/01/13 06:30",16.81333,20.37,TRADE
SNOWY1,"2003/01/13 07:00",17.415,20.45,TRADE
SNOWY1,"2003/01/13 07:30",15.21333,19.22,TRADE
SNOWY1,"2003/01/13 08:00",26.08167,24.86,TRADE
SNOWY1,"2003/01/13 08:30",31.235,29.73,TRADE
SNOWY1,"2003/01/13 09:00",21.75833,32.95,TRADE
SNOWY1,"2003/01/13 09:30",14.115,34.2,TRADE
SNOWY1,"2003/01/13 10:00",18.71167,27.25,TRADE
SNOWY1,"2003/01/13 10:30",18.345,27.13,TRADE
SNOWY1,"2003/01/13 11:00",17.75833,28.45,TRADE
SNOWY1,"2003/01/13 11:30",22.16167,37.7,TRADE
SNOWY1,"2003/01/13 12:00",24,37.55,TRADE
SNOWY1,"2003/01/13 12:30",24.78,37.72,TRADE
SNOWY1,"2003/01/13 13:00",21.15833,37.8,TRADE
SNOWY1,"2003/01/13 13:30",18.535,37.82,TRADE
SNOWY1,"2003/01/13 14:00",17.95167,39.09,TRADE
SNOWY1,"2003/01/13 14:30",17.33167,40.54,TRADE
SNOWY1,"2003/01/13 15:00",25.12,39.88,TRADE
SNOWY1,"2003/01/13 15:30",19.64333,44.76,TRADE
SNOWY1,"2003/01/13 16:00",17.57333,43.9,TRADE
SNOWY1,"2003/01/13 16:30",23.43333,37.8,TRADE
SNOWY1,"2003/01/13 17:00",27.69833,35.08,TRADE
SNOWY1,"2003/01/13 17:30",13.95667,28.7,TRADE
SNOWY1,"2003/01/13 18:00",15.78667,26.75,TRADE
SNOWY1,"2003/01/13 18:30",14.67667,22.18,TRADE
SNOWY1,"2003/01/13 19:00",9.42167,22.24,TRADE
SNOWY1,"2003/01/13 19:30",9.27333,27.25,TRADE
SNOWY1,"2003/01/13 20:00",9.01333,26.61,TRADE
SNOWY1,"2003/01/13 20:30",12.165,25.05,TRADE
SNOWY1,"2003/01/13 21:00",15.04333,23.16,TRADE
SNOWY1,"2003/01/13 21:30",11.925,22.82,TRADE
SNOWY1,"2003/01/13 22:00",12.44333,18.44,TRADE
SNOWY1,"2003/01/13 22:30",8.84667,19.99,TRADE
SNOWY1,"2003/01/13 23:00",2.45833,18.28,TRADE
SNOWY1,"2003/01/13 23:30",9.76833,20.83,TRADE
SNOWY1,"2003/01/14 00:00",6.59333,20.09,TRADE
SNOWY1,"2003/01/14 00:30",6.64167,17.17,TRADE
SNOWY1,"2003/01/14 01:00",5.215,16.19,TRADE
SNOWY1,"2003/01/14 01:30",9.75167,16.05,TRADE
SNOWY1,"2003/01/14 02:00",6.88167,12.25,TRADE
SNOWY1,"2003/01/14 02:30",7.045,11.67,TRADE
SNOWY1,"2003/01/14 03:00",6.85333,10.22,TRADE
SNOWY1,"2003/01/14 03:30",9.89833,10.51,TRADE
SNOWY1,"2003/01/14 04:00",12.74667,10.5,TRADE
SNOWY1,"2003/01/14 04:30",13.64667,10.41,TRADE
SNOWY1,"2003/01/14 05:00",64.40333,10.13,TRADE
SNOWY1,"2003/01/14 05:30",3.02667,15.56,TRADE
SNOWY1,"2003/01/14 06:00",8.52667,16.53,TRADE
SNOWY1,"2003/01/14 06:30",8.92333,18.81,TRADE
SNOWY1,"2003/01/14 07:00",14.89,21.5,TRADE
SNOWY1,"2003/01/14 07:30",20.58833,18.59,TRADE
SNOWY1,"2003/01/14 08:00",13.05333,25.87,TRADE
SNOWY1,"2003/01/14 08:30",12.555,27.09,TRADE
SNOWY1,"2003/01/14 09:00",23.475,26.88,TRADE
SNOWY1,"2003/01/14 09:30",20.685,25.94,TRADE
SNOWY1,"2003/01/14 10:00",16.01833,26.16,TRADE
SNOWY1,"2003/01/14 10:30",13.43833,25.98,TRADE
SNOWY1,"2003/01/14 11:00",13.695,25.57,TRADE
SNOWY1,"2003/01/14 11:30",18.37,26.5,TRADE
SNOWY1,"2003/01/14 12:00",10.67167,26.6,TRADE
SNOWY1,"2003/01/14 12:30",6.51167,26.28,TRADE
SNOWY1,"2003/01/14 13:00",5.905,26.12,TRADE
SNOWY1,"2003/01/14 13:30",8.81333,26.44,TRADE
SNOWY1,"2003/01/14 14:00",14.24,26.92,TRADE
SNOWY1,"2003/01/14 14:30",17.545,27.04,TRADE
SNOWY1,"2003/01/14 15:00",10.15833,26.67,TRADE
SNOWY1,"2003/01/14 15:30",7.02167,34.48,TRADE
SNOWY1,"2003/01/14 16:00",22.30833,34.86,TRADE
SNOWY1,"2003/01/14 16:30",17.33833,28,TRADE
SNOWY1,"2003/01/14 17:00",16.21,25.97,TRADE
SNOWY1,"2003/01/14 17:30",18.24667,22.12,TRADE
SNOWY1,"2003/01/14 18:00",9.665,19.5,TRADE
SNOWY1,"2003/01/14 18:30",13.31333,16.68,TRADE
SNOWY1,"2003/01/14 19:00",5.19333,18.38,TRADE
SNOWY1,"2003/01/14 19:30",10.47,20.86,TRADE
SNOWY1,"2003/01/14 20:00",12.61667,26.19,TRADE
SNOWY1,"2003/01/14 20:30",8.55167,22.38,TRADE
SNOWY1,"2003/01/14 21:00",14.615,20.86,TRADE
SNOWY1,"2003/01/14 21:30",7.84667,21.33,TRADE
SNOWY1,"2003/01/14 22:00",5.86833,18.6,TRADE
SNOWY1,"2003/01/14 22:30",14.35,21.34,TRADE
SNOWY1,"2003/01/14 23:00",6.33167,24.1,TRADE
SNOWY1,"2003/01/14 23:30",6.02333,24.92,TRADE
SNOWY1,"2003/01/15 00:00",5.33833,24.16,TRADE
SNOWY1,"2003/01/15 00:30",5.49167,19.9,TRADE
SNOWY1,"2003/01/15 01:00",2.915,16.33,TRADE
SNOWY1,"2003/01/15 01:30",10.935,15.95,TRADE
SNOWY1,"2003/01/15 02:00",5.215,13.41,TRADE
SNOWY1,"2003/01/15 02:30",3.33333,12.04,TRADE
SNOWY1,"2003/01/15 03:00",6.62167,10.85,TRADE
SNOWY1,"2003/01/15 03:30",7.18333,10.57,TRADE
SNOWY1,"2003/01/15 04:00",0,10.56,TRADE
SNOWY1,"2003/01/15 04:30",6.20167,12.89,TRADE
SNOWY1,"2003/01/15 05:00",1.20833,14.56,TRADE
SNOWY1,"2003/01/15 05:30",6.58333,16.52,TRADE
SNOWY1,"2003/01/15 06:00",0.08667,19.07,TRADE
SNOWY1,"2003/01/15 06:30",9.97333,20.63,TRADE
SNOWY1,"2003/01/15 07:00",4.745,19.79,TRADE
SNOWY1,"2003/01/15 07:30",7.985,17.05,TRADE
SNOWY1,"2003/01/15 08:00",9.99833,20.26,TRADE
SNOWY1,"2003/01/15 08:30",15.37,21.08,TRADE
SNOWY1,"2003/01/15 09:00",5.09167,22.36,TRADE
SNOWY1,"2003/01/15 09:30",11.63333,23.8,TRADE
SNOWY1,"2003/01/15 10:00",3.32,24.38,TRADE
SNOWY1,"2003/01/15 10:30",9.04833,24.01,TRADE
SNOWY1,"2003/01/15 11:00",12.67333,21.38,TRADE
SNOWY1,"2003/01/15 11:30",4.755,22.12,TRADE
SNOWY1,"2003/01/15 12:00",5.73833,22.77,TRADE
SNOWY1,"2003/01/15 12:30",2.8,23.71,TRADE
SNOWY1,"2003/01/15 13:00",3.50833,24.1,TRADE
SNOWY1,"2003/01/15 13:30",4.61167,23.84,TRADE
SNOWY1,"2003/01/15 14:00",6.245,24.94,TRADE
SNOWY1,"2003/01/15 14:30",7.38833,25.94,TRADE
SNOWY1,"2003/01/15 15:00",6.09,26.28,TRADE
SNOWY1,"2003/01/15 15:30",4.54333,26.65,TRADE
SNOWY1,"2003/01/15 16:00",7.53333,27.19,TRADE
SNOWY1,"2003/01/15 16:30",7.30667,26.08,TRADE
SNOWY1,"2003/01/15 17:00",7.07667,25.15,TRADE
SNOWY1,"2003/01/15 17:30",5.89333,22.78,TRADE
SNOWY1,"2003/01/15 18:00",9.50833,19.32,TRADE
SNOWY1,"2003/01/15 18:30",4.49,17.03,TRADE
SNOWY1,"2003/01/15 19:00",2.64,17.98,TRADE
SNOWY1,"2003/01/15 19:30",5.75667,21.07,TRADE
SNOWY1,"2003/01/15 20:00",2.91333,21.29,TRADE
SNOWY1,"2003/01/15 20:30",7.87167,21.98,TRADE
SNOWY1,"2003/01/15 21:00",5.855,20.56,TRADE
SNOWY1,"2003/01/15 21:30",9.31333,21.57,TRADE
SNOWY1,"2003/01/15 22:00",13.25667,19.38,TRADE
SNOWY1,"2003/01/15 22:30",4.87333,22.37,TRADE
SNOWY1,"2003/01/15 23:00",8.31333,22.08,TRADE
SNOWY1,"2003/01/15 23:30",9.81833,24.61,TRADE
SNOWY1,"2003/01/16 00:00",6.22,22.91,TRADE
SNOWY1,"2003/01/16 00:30",4.39333,19.04,TRADE
SNOWY1,"2003/01/16 01:00",11.91833,16.48,TRADE
SNOWY1,"2003/01/16 01:30",8.84667,16.32,TRADE
SNOWY1,"2003/01/16 02:00",9.10667,13.49,TRADE
SNOWY1,"2003/01/16 02:30",12.66333,11.01,TRADE
SNOWY1,"2003/01/16 03:00",3.82333,10.58,TRADE
SNOWY1,"2003/01/16 03:30",4.96667,10.6,TRADE
SNOWY1,"2003/01/16 04:00",2.71333,10.26,TRADE
SNOWY1,"2003/01/16 04:30",2.83167,10.84,TRADE
SNOWY1,"2003/01/16 05:00",3.395,12.96,TRADE
SNOWY1,"2003/01/16 05:30",7.765,15.58,TRADE
SNOWY1,"2003/01/16 06:00",5.76167,18.72,TRADE
SNOWY1,"2003/01/16 06:30",0.18833,21.59,TRADE
SNOWY1,"2003/01/16 07:00",4.48167,25.26,TRADE
SNOWY1,"2003/01/16 07:30",11.86833,22.17,TRADE
SNOWY1,"2003/01/16 08:00",3.78,25.27,TRADE
SNOWY1,"2003/01/16 08:30",8.39167,26.67,TRADE
SNOWY1,"2003/01/16 09:00",12.06333,26.49,TRADE
SNOWY1,"2003/01/16 09:30",8.84833,25.23,TRADE
SNOWY1,"2003/01/16 10:00",5.27667,26.94,TRADE
SNOWY1,"2003/01/16 10:30",7.41167,26.78,TRADE
SNOWY1,"2003/01/16 11:00",1.41,27.08,TRADE
SNOWY1,"2003/01/16 11:30",19.15,27.28,TRADE
SNOWY1,"2003/01/16 12:00",10.29833,27.25,TRADE
SNOWY1,"2003/01/16 12:30",20.77667,34.46,TRADE
SNOWY1,"2003/01/16 13:00",6.62,37.18,TRADE
SNOWY1,"2003/01/16 13:30",15.58667,40.82,TRADE
SNOWY1,"2003/01/16 14:00",12.655,42.58,TRADE
SNOWY1,"2003/01/16 14:30",8.95,44.43,TRADE
SNOWY1,"2003/01/16 15:00",11.16167,45,TRADE
SNOWY1,"2003/01/16 15:30",14.75,44.3,TRADE
SNOWY1,"2003/01/16 16:00",19.84167,47.24,TRADE
SNOWY1,"2003/01/16 16:30",12.95667,44.8,TRADE
SNOWY1,"2003/01/16 17:00",13.705,40.42,TRADE
SNOWY1,"2003/01/16 17:30",6.355,31.89,TRADE
SNOWY1,"2003/01/16 18:00",2.755,27.96,TRADE
SNOWY1,"2003/01/16 18:30",8.89167,25.23,TRADE
SNOWY1,"2003/01/16 19:00",4.745,25.55,TRADE
SNOWY1,"2003/01/16 19:30",4.39333,26.16,TRADE
SNOWY1,"2003/01/16 20:00",9.61167,26.39,TRADE
SNOWY1,"2003/01/16 20:30",17.455,27.49,TRADE
SNOWY1,"2003/01/16 21:00",4.90167,26.98,TRADE
SNOWY1,"2003/01/16 21:30",1.83333,27.27,TRADE
SNOWY1,"2003/01/16 22:00",9.05,28.24,TRADE
SNOWY1,"2003/01/16 22:30",18.765,30.26,TRADE
SNOWY1,"2003/01/16 23:00",5.57167,28.82,TRADE
SNOWY1,"2003/01/16 23:30",1.44833,30.54,TRADE
SNOWY1,"2003/01/17 00:00",0.04167,27.1,TRADE
SNOWY1,"2003/01/17 00:30",8.64333,24.85,TRADE
SNOWY1,"2003/01/17 01:00",1.94167,21.71,TRADE
SNOWY1,"2003/01/17 01:30",7.79333,19.38,TRADE
SNOWY1,"2003/01/17 02:00",8.35,16.6,TRADE
SNOWY1,"2003/01/17 02:30",5.05333,15.23,TRADE
SNOWY1,"2003/01/17 03:00",0.82833,13.42,TRADE
SNOWY1,"2003/01/17 03:30",5.17333,13.67,TRADE
SNOWY1,"2003/01/17 04:00",4.76833,13.61,TRADE
SNOWY1,"2003/01/17 04:30",2.88167,16.01,TRADE
SNOWY1,"2003/01/17 05:00",2.87333,17.21,TRADE
SNOWY1,"2003/01/17 05:30",4.27167,24.71,TRADE
SNOWY1,"2003/01/17 06:00",8.29667,26.6,TRADE
SNOWY1,"2003/01/17 06:30",16.74,23.54,TRADE
SNOWY1,"2003/01/17 07:00",10.665,26.46,TRADE
SNOWY1,"2003/01/17 07:30",12.27333,24.26,TRADE
SNOWY1,"2003/01/17 08:00",11.25167,33.68,TRADE
SNOWY1,"2003/01/17 08:30",33.965,39.04,TRADE
SNOWY1,"2003/01/17 09:00",10.82667,38.79,TRADE
SNOWY1,"2003/01/17 09:30",36.61667,45.79,TRADE
SNOWY1,"2003/01/17 10:00",19.925,45.79,TRADE
SNOWY1,"2003/01/17 10:30",30.11167,52.66,TRADE
SNOWY1,"2003/01/17 11:00",9.91,56.14,TRADE
SNOWY1,"2003/01/17 11:30",11.75167,53.38,TRADE
SNOWY1,"2003/01/17 12:00",18.2,62.91,TRADE
SNOWY1,"2003/01/17 12:30",23.29167,75.43,TRADE
SNOWY1,"2003/01/17 13:00",34.925,92.26,TRADE
SNOWY1,"2003/01/17 13:30",20.335,108.87,TRADE
SNOWY1,"2003/01/17 14:00",15.855,88.52,TRADE
SNOWY1,"2003/01/17 14:30",17.225,83.13,TRADE
SNOWY1,"2003/01/17 15:00",34.65167,93.62,TRADE
SNOWY1,"2003/01/17 15:30",9.64,109.99,TRADE
SNOWY1,"2003/01/17 16:00",10.47833,138.6,TRADE
SNOWY1,"2003/01/17 16:30",8.58167,83.25,TRADE
SNOWY1,"2003/01/17 17:00",15.18833,76.15,TRADE
SNOWY1,"2003/01/17 17:30",9.05667,53.37,TRADE
SNOWY1,"2003/01/17 18:00",27.54,48.42,TRADE
SNOWY1,"2003/01/17 18:30",10.69167,47.71,TRADE
SNOWY1,"2003/01/17 19:00",6.7,45,TRADE
SNOWY1,"2003/01/17 19:30",11.53667,45,TRADE
SNOWY1,"2003/01/17 20:00",3.55167,44.01,TRADE
SNOWY1,"2003/01/17 20:30",11.00667,40.49,TRADE
SNOWY1,"2003/01/17 21:00",7.85333,38.59,TRADE
SNOWY1,"2003/01/17 21:30",6.645,41.84,TRADE
SNOWY1,"2003/01/17 22:00",7.10667,35.22,TRADE
SNOWY1,"2003/01/17 22:30",24.34833,42.23,TRADE
SNOWY1,"2003/01/17 23:00",1,35.98,TRADE
SNOWY1,"2003/01/17 23:30",3.71,34.74,TRADE
SNOWY1,"2003/01/18 00:00",3.05833,29.41,TRADE
SNOWY1,"2003/01/18 00:30",8.16333,27.91,TRADE
SNOWY1,"2003/01/18 01:00",2.035,25.82,TRADE
SNOWY1,"2003/01/18 01:30",5.79667,25.45,TRADE
SNOWY1,"2003/01/18 02:00",17.94333,16.38,TRADE
SNOWY1,"2003/01/18 02:30",6.34833,14.17,TRADE
SNOWY1,"2003/01/18 03:00",5.69,11.49,TRADE
SNOWY1,"2003/01/18 03:30",8.26667,10.86,TRADE
SNOWY1,"2003/01/18 04:00",4.17,10.65,TRADE
SNOWY1,"2003/01/18 04:30",2.09333,10.92,TRADE
SNOWY1,"2003/01/18 05:00",10.20667,12.07,TRADE
SNOWY1,"2003/01/18 05:30",7.59667,14.53,TRADE
SNOWY1,"2003/01/18 06:00",8.83833,16.05,TRADE
SNOWY1,"2003/01/18 06:30",1.85833,16.93,TRADE
SNOWY1,"2003/01/18 07:00",5.25333,19.38,TRADE
SNOWY1,"2003/01/18 07:30",17.175,20.52,TRADE
SNOWY1,"2003/01/18 08:00",10.73833,28.22,TRADE
SNOWY1,"2003/01/18 08:30",7.12833,35.01,TRADE
SNOWY1,"2003/01/18 09:00",10.40833,52.58,TRADE
SNOWY1,"2003/01/18 09:30",14.69833,58.58,TRADE
SNOWY1,"2003/01/18 10:00",0.43833,58.77,TRADE
SNOWY1,"2003/01/18 10:30",11.825,69.89,TRADE
SNOWY1,"2003/01/18 11:00",8.66667,64.08,TRADE
SNOWY1,"2003/01/18 11:30",5.63667,83.85,TRADE
SNOWY1,"2003/01/18 12:00",12.89667,94.78,TRADE
SNOWY1,"2003/01/18 12:30",1.55833,84.65,TRADE
SNOWY1,"2003/01/18 13:00",20.85167,177.5,TRADE
SNOWY1,"2003/01/18 13:30",21.52167,150.3,TRADE
SNOWY1,"2003/01/18 14:00",5.445,248.18,TRADE
SNOWY1,"2003/01/18 14:30",6.43167,150.33,TRADE
SNOWY1,"2003/01/18 15:00",17.68333,205.25,TRADE
SNOWY1,"2003/01/18 15:30",11.21667,250.2,TRADE
SNOWY1,"2003/01/18 16:00",13.25333,218.3,TRADE
SNOWY1,"2003/01/18 16:30",13.675,178.95,TRADE
SNOWY1,"2003/01/18 17:00",8.625,228.76,TRADE
SNOWY1,"2003/01/18 17:30",3.58333,256.16,TRADE
SNOWY1,"2003/01/18 18:00",6.48667,255.99,TRADE
SNOWY1,"2003/01/18 18:30",1.08667,229.08,TRADE
SNOWY1,"2003/01/18 19:00",4.85667,96.36,TRADE
SNOWY1,"2003/01/18 19:30",42.73167,71.41,TRADE
SNOWY1,"2003/01/18 20:00",0.33167,107.54,TRADE
SNOWY1,"2003/01/18 20:30",18.60667,38.1,TRADE
SNOWY1,"2003/01/18 21:00",11.90167,30.77,TRADE
SNOWY1,"2003/01/18 21:30",6.67833,46.94,TRADE
SNOWY1,"2003/01/18 22:00",7.13333,36.82,TRADE
SNOWY1,"2003/01/18 22:30",6.16333,28.69,TRADE
SNOWY1,"2003/01/18 23:00",8.10167,25.73,TRADE
SNOWY1,"2003/01/18 23:30",17.07167,25.3,TRADE
SNOWY1,"2003/01/19 00:00",8.70167,23.87,TRADE
SNOWY1,"2003/01/19 00:30",16.10333,20.24,TRADE
SNOWY1,"2003/01/19 01:00",9.38667,17.92,TRADE
SNOWY1,"2003/01/19 01:30",19.405,18.42,TRADE
SNOWY1,"2003/01/19 02:00",14.63167,16.44,TRADE
SNOWY1,"2003/01/19 02:30",24.21833,15.82,TRADE
SNOWY1,"2003/01/19 03:00",13.53,15.29,TRADE
SNOWY1,"2003/01/19 03:30",12.925,15,TRADE
SNOWY1,"2003/01/19 04:00",17.14333,15.34,TRADE
SNOWY1,"2003/01/19 04:30",13.97167,15.18,TRADE
SNOWY1,"2003/01/19 05:00",23.66167,15.31,TRADE
SNOWY1,"2003/01/19 05:30",9.11333,16.02,TRADE
SNOWY1,"2003/01/19 06:00",18.59167,16.57,TRADE
SNOWY1,"2003/01/19 06:30",20.13,17.13,TRADE
SNOWY1,"2003/01/19 07:00",19.64667,16.47,TRADE
SNOWY1,"2003/01/19 07:30",25.16167,16.54,TRADE
SNOWY1,"2003/01/19 08:00",17.81333,19.21,TRADE
SNOWY1,"2003/01/19 08:30",21.43667,20.43,TRADE
SNOWY1,"2003/01/19 09:00",8.53833,21,TRADE
SNOWY1,"2003/01/19 09:30",13.12333,21.78,TRADE
SNOWY1,"2003/01/19 10:00",14.305,24.3,TRADE
SNOWY1,"2003/01/19 10:30",13.41333,25.41,TRADE
SNOWY1,"2003/01/19 11:00",21.78333,25.79,TRADE
SNOWY1,"2003/01/19 11:30",16.28,26.17,TRADE
SNOWY1,"2003/01/19 12:00",14.18167,30.08,TRADE
SNOWY1,"2003/01/19 12:30",13.72667,30.55,TRADE
SNOWY1,"2003/01/19 13:00",19.73667,27.55,TRADE
SNOWY1,"2003/01/19 13:30",6.96333,31.31,TRADE
SNOWY1,"2003/01/19 14:00",19.90833,33.72,TRADE
SNOWY1,"2003/01/19 14:30",9.92667,34.44,TRADE
SNOWY1,"2003/01/19 15:00",16.46167,34.33,TRADE
SNOWY1,"2003/01/19 15:30",10.71667,35.1,TRADE
SNOWY1,"2003/01/19 16:00",8.46833,36.77,TRADE
SNOWY1,"2003/01/19 16:30",14.34167,34.24,TRADE
SNOWY1,"2003/01/19 17:00",13.23667,34.96,TRADE
SNOWY1,"2003/01/19 17:30",9.675,34.2,TRADE
SNOWY1,"2003/01/19 18:00",20.95333,34.51,TRADE
SNOWY1,"2003/01/19 18:30",15.39167,33.54,TRADE
SNOWY1,"2003/01/19 19:00",7.405,33.41,TRADE
SNOWY1,"2003/01/19 19:30",3.50667,32.95,TRADE
SNOWY1,"2003/01/19 20:00",8.17,32.79,TRADE
SNOWY1,"2003/01/19 20:30",14.56833,24.48,TRADE
SNOWY1,"2003/01/19 21:00",8.97667,21.92,TRADE
SNOWY1,"2003/01/19 21:30",10.015,22.05,TRADE
SNOWY1,"2003/01/19 22:00",10.72833,20.73,TRADE
SNOWY1,"2003/01/19 22:30",18.47833,23.58,TRADE
SNOWY1,"2003/01/19 23:00",7.14167,19.14,TRADE
SNOWY1,"2003/01/19 23:30",6.03667,20.93,TRADE
SNOWY1,"2003/01/20 00:00",7.05167,17.21,TRADE
SNOWY1,"2003/01/20 00:30",8.2,15.19,TRADE
SNOWY1,"2003/01/20 01:00",8.14833,13.18,TRADE
SNOWY1,"2003/01/20 01:30",8.615,15.36,TRADE
SNOWY1,"2003/01/20 02:00",8.67,14.51,TRADE
SNOWY1,"2003/01/20 02:30",1.29333,13.47,TRADE
SNOWY1,"2003/01/20 03:00",11.795,10.54,TRADE
SNOWY1,"2003/01/20 03:30",9.77333,10.37,TRADE
SNOWY1,"2003/01/20 04:00",4.60667,10.94,TRADE
SNOWY1,"2003/01/20 04:30",11.16,11.06,TRADE
SNOWY1,"2003/01/20 05:00",5.67833,11.54,TRADE
SNOWY1,"2003/01/20 05:30",8.43667,14.91,TRADE
SNOWY1,"2003/01/20 06:00",4.395,16.65,TRADE
SNOWY1,"2003/01/20 06:30",8.665,19.09,TRADE
SNOWY1,"2003/01/20 07:00",6.60667,24.46,TRADE
SNOWY1,"2003/01/20 07:30",19.75333,21.46,TRADE
SNOWY1,"2003/01/20 08:00",9.36833,24.64,TRADE
SNOWY1,"2003/01/20 08:30",24.35333,28.39,TRADE
SNOWY1,"2003/01/20 09:00",22.22667,31.95,TRADE
SNOWY1,"2003/01/20 09:30",19.74667,28.79,TRADE
SNOWY1,"2003/01/20 10:00",8.89833,27.49,TRADE
SNOWY1,"2003/01/20 10:30",12.995,32.89,TRADE
SNOWY1,"2003/01/20 11:00",14.625,35.72,TRADE
SNOWY1,"2003/01/20 11:30",14.95,37.8,TRADE
SNOWY1,"2003/01/20 12:00",34.68667,53.56,TRADE
SNOWY1,"2003/01/20 12:30",7.69167,54.81,TRADE
SNOWY1,"2003/01/20 13:00",6.91833,59.16,TRADE
SNOWY1,"2003/01/20 13:30",21.45833,59.59,TRADE
SNOWY1,"2003/01/20 14:00",42.07,62,TRADE
SNOWY1,"2003/01/20 14:30",18.92667,62.36,TRADE
SNOWY1,"2003/01/20 15:00",20.47833,62.18,TRADE
SNOWY1,"2003/01/20 15:30",20.285,70.99,TRADE
SNOWY1,"2003/01/20 16:00",22.02833,66.63,TRADE
SNOWY1,"2003/01/20 16:30",25.49167,59.17,TRADE
SNOWY1,"2003/01/20 17:00",54.66167,56.33,TRADE
SNOWY1,"2003/01/20 17:30",10.96333,39.2,TRADE
SNOWY1,"2003/01/20 18:00",15.55833,34.46,TRADE
SNOWY1,"2003/01/20 18:30",11.70833,28.92,TRADE
SNOWY1,"2003/01/20 19:00",14.81,31.22,TRADE
SNOWY1,"2003/01/20 19:30",18.49,34.43,TRADE
SNOWY1,"2003/01/20 20:00",16.20167,35.12,TRADE
SNOWY1,"2003/01/20 20:30",10.17167,33.84,TRADE
SNOWY1,"2003/01/20 21:00",20.61167,27.18,TRADE
SNOWY1,"2003/01/20 21:30",20.925,33.64,TRADE
SNOWY1,"2003/01/20 22:00",8.16833,24.47,TRADE
SNOWY1,"2003/01/20 22:30",7.455,25.36,TRADE
SNOWY1,"2003/01/20 23:00",0.935,24.62,TRADE
SNOWY1,"2003/01/20 23:30",8.32,26.7,TRADE
SNOWY1,"2003/01/21 00:00",5.53667,22.45,TRADE
SNOWY1,"2003/01/21 00:30",1.24167,20.2,TRADE
SNOWY1,"2003/01/21 01:00",7.53,17.14,TRADE
SNOWY1,"2003/01/21 01:30",9.84167,17.86,TRADE
SNOWY1,"2003/01/21 02:00",8.60667,12.73,TRADE
SNOWY1,"2003/01/21 02:30",5.125,10.9,TRADE
SNOWY1,"2003/01/21 03:00",5.46833,10.72,TRADE
SNOWY1,"2003/01/21 03:30",2.375,9.61,TRADE
SNOWY1,"2003/01/21 04:00",6.54,9.11,TRADE
SNOWY1,"2003/01/21 04:30",8.10667,11.28,TRADE
SNOWY1,"2003/01/21 05:00",5.415,12.08,TRADE
SNOWY1,"2003/01/21 05:30",8.21167,16.67,TRADE
SNOWY1,"2003/01/21 06:00",3.635,18.58,TRADE
SNOWY1,"2003/01/21 06:30",7.03667,23.18,TRADE
SNOWY1,"2003/01/21 07:00",14.475,26.62,TRADE
SNOWY1,"2003/01/21 07:30",12.1,24.13,TRADE
SNOWY1,"2003/01/21 08:00",11.17667,26.57,TRADE
SNOWY1,"2003/01/21 08:30",20.30167,26.83,TRADE
SNOWY1,"2003/01/21 09:00",12.57167,26.54,TRADE
SNOWY1,"2003/01/21 09:30",20.58167,31.7,TRADE
SNOWY1,"2003/01/21 10:00",25.53,36.87,TRADE
SNOWY1,"2003/01/21 10:30",11.795,35.74,TRADE
SNOWY1,"2003/01/21 11:00",18.59667,37.35,TRADE
SNOWY1,"2003/01/21 11:30",24.72833,44.68,TRADE
SNOWY1,"2003/01/21 12:00",8.14833,60.7,TRADE
SNOWY1,"2003/01/21 12:30",16.75667,66.74,TRADE
SNOWY1,"2003/01/21 13:00",22.71833,58.88,TRADE
SNOWY1,"2003/01/21 13:30",11.22,62.61,TRADE
SNOWY1,"2003/01/21 14:00",13.285,63.09,TRADE
SNOWY1,"2003/01/21 14:30",21.18833,64.3,TRADE
SNOWY1,"2003/01/21 15:00",11.045,63.32,TRADE
SNOWY1,"2003/01/21 15:30",16.78833,70.95,TRADE
SNOWY1,"2003/01/21 16:00",18.39,111.14,TRADE
SNOWY1,"2003/01/21 16:30",17.72,37.8,TRADE
SNOWY1,"2003/01/21 17:00",21.68667,45.37,TRADE
SNOWY1,"2003/01/21 17:30",31.225,36.47,TRADE
SNOWY1,"2003/01/21 18:00",17.435,40.29,TRADE
SNOWY1,"2003/01/21 18:30",13.18167,33.07,TRADE
SNOWY1,"2003/01/21 19:00",18.64333,32.4,TRADE
SNOWY1,"2003/01/21 19:30",11.105,32.13,TRADE
SNOWY1,"2003/01/21 20:00",7.59167,28.64,TRADE
SNOWY1,"2003/01/21 20:30",3.89333,27.04,TRADE
SNOWY1,"2003/01/21 21:00",7.635,28.85,TRADE
SNOWY1,"2003/01/21 21:30",8.91667,30.42,TRADE
SNOWY1,"2003/01/21 22:00",9.37333,29.58,TRADE
SNOWY1,"2003/01/21 22:30",6.25,32.82,TRADE
SNOWY1,"2003/01/21 23:00",0,25.96,TRADE
SNOWY1,"2003/01/21 23:30",9.57667,26.66,TRADE
SNOWY1,"2003/01/22 00:00",4.98667,24.47,TRADE
SNOWY1,"2003/01/22 00:30",6.32833,22.96,TRADE
SNOWY1,"2003/01/22 01:00",5.70833,21.9,TRADE
SNOWY1,"2003/01/22 01:30",10.58833,20.98,TRADE
SNOWY1,"2003/01/22 02:00",8.535,17.51,TRADE
SNOWY1,"2003/01/22 02:30",6.08833,15.26,TRADE
SNOWY1,"2003/01/22 03:00",7.46167,14.2,TRADE
SNOWY1,"2003/01/22 03:30",3.205,14.64,TRADE
SNOWY1,"2003/01/22 04:00",2.82167,14.88,TRADE
SNOWY1,"2003/01/22 04:30",1.21667,17.82,TRADE
SNOWY1,"2003/01/22 05:00",5.45667,19.29,TRADE
SNOWY1,"2003/01/22 05:30",2.71833,21.85,TRADE
SNOWY1,"2003/01/22 06:00",10.78167,25.26,TRADE
SNOWY1,"2003/01/22 06:30",11.94333,27.67,TRADE
SNOWY1,"2003/01/22 07:00",17.11,30.85,TRADE
SNOWY1,"2003/01/22 07:30",16.83333,26.84,TRADE
SNOWY1,"2003/01/22 08:00",15.17,28.47,TRADE
SNOWY1,"2003/01/22 08:30",14.875,30.42,TRADE
SNOWY1,"2003/01/22 09:00",16.615,31.22,TRADE
SNOWY1,"2003/01/22 09:30",38.94333,30.95,TRADE
SNOWY1,"2003/01/22 10:00",25.21833,32.72,TRADE
SNOWY1,"2003/01/22 10:30",12.72833,25.09,TRADE
SNOWY1,"2003/01/22 11:00",19.35167,22.44,TRADE
SNOWY1,"2003/01/22 11:30",20.26,24.95,TRADE
SNOWY1,"2003/01/22 12:00",17.08333,32.35,TRADE
SNOWY1,"2003/01/22 12:30",21.71833,36.03,TRADE
SNOWY1,"2003/01/22 13:00",13.76,34.1,TRADE
SNOWY1,"2003/01/22 13:30",8.37167,33.58,TRADE
SNOWY1,"2003/01/22 14:00",15.46667,32.75,TRADE
SNOWY1,"2003/01/22 14:30",16.24,26.94,TRADE
SNOWY1,"2003/01/22 15:00",14.50833,28.58,TRADE
SNOWY1,"2003/01/22 15:30",8.54333,26.02,TRADE
SNOWY1,"2003/01/22 16:00",13.60333,24.2,TRADE
SNOWY1,"2003/01/22 16:30",14.04167,22.82,TRADE
SNOWY1,"2003/01/22 17:00",11.61,21.21,TRADE
SNOWY1,"2003/01/22 17:30",16.60833,18.51,TRADE
SNOWY1,"2003/01/22 18:00",18.23,22.12,TRADE
SNOWY1,"2003/01/22 18:30",11.54667,20.05,TRADE
SNOWY1,"2003/01/22 19:00",11.855,17.2,TRADE
SNOWY1,"2003/01/22 19:30",14.43333,20.96,TRADE
SNOWY1,"2003/01/22 20:00",10.48333,20,TRADE
SNOWY1,"2003/01/22 20:30",8.17667,21.16,TRADE
SNOWY1,"2003/01/22 21:00",7.31667,20,TRADE
SNOWY1,"2003/01/22 21:30",16.64833,20.73,TRADE
SNOWY1,"2003/01/22 22:00",9.47667,21.71,TRADE
SNOWY1,"2003/01/22 22:30",3.97333,24.87,TRADE
SNOWY1,"2003/01/22 23:00",11.67667,23.44,TRADE
SNOWY1,"2003/01/22 23:30",5.97,23.65,TRADE
SNOWY1,"2003/01/23 00:00",8.64667,22.34,TRADE
SNOWY1,"2003/01/23 00:30",10.84,23.27,TRADE
SNOWY1,"2003/01/23 01:00",9.03833,20.95,TRADE
SNOWY1,"2003/01/23 01:30",20.805,20.14,TRADE
SNOWY1,"2003/01/23 02:00",13.92333,15.74,TRADE
SNOWY1,"2003/01/23 02:30",5.68,14.02,TRADE
SNOWY1,"2003/01/23 03:00",8.57167,11.49,TRADE
SNOWY1,"2003/01/23 03:30",8.35333,10.58,TRADE
SNOWY1,"2003/01/23 04:00",8.63,11.22,TRADE
SNOWY1,"2003/01/23 04:30",15.575,19.32,TRADE
SNOWY1,"2003/01/23 05:00",16.88667,21.91,TRADE
SNOWY1,"2003/01/23 05:30",16.77667,24.44,TRADE
SNOWY1,"2003/01/23 06:00",16.15833,25.27,TRADE
SNOWY1,"2003/01/23 06:30",14.49667,26.57,TRADE
SNOWY1,"2003/01/23 07:00",13.135,26.24,TRADE
SNOWY1,"2003/01/23 07:30",32.54,21.05,TRADE
SNOWY1,"2003/01/23 08:00",6.88,24.72,TRADE
SNOWY1,"2003/01/23 08:30",15.335,25.89,TRADE
SNOWY1,"2003/01/23 09:00",14.335,25.57,TRADE
SNOWY1,"2003/01/23 09:30",27.495,23.06,TRADE
SNOWY1,"2003/01/23 10:00",18.82833,24.97,TRADE
SNOWY1,"2003/01/23 10:30",11.56333,24.52,TRADE
SNOWY1,"2003/01/23 11:00",49.565,23.35,TRADE
SNOWY1,"2003/01/23 11:30",18.41,21.8,TRADE
SNOWY1,"2003/01/23 12:00",8.87167,22.96,TRADE
SNOWY1,"2003/01/23 12:30",16.98333,22.41,TRADE
SNOWY1,"2003/01/23 13:00",11.99333,23.18,TRADE
SNOWY1,"2003/01/23 13:30",11.18333,23.65,TRADE
SNOWY1,"2003/01/23 14:00",12.9,23.84,TRADE
SNOWY1,"2003/01/23 14:30",8.97167,22.73,TRADE
SNOWY1,"2003/01/23 15:00",43.755,21.36,TRADE
SNOWY1,"2003/01/23 15:30",26.96833,22.01,TRADE
SNOWY1,"2003/01/23 16:00",11.12167,25.04,TRADE
SNOWY1,"2003/01/23 16:30",10.96833,22.2,TRADE
SNOWY1,"2003/01/23 17:00",0,22.14,TRADE
SNOWY1,"2003/01/23 17:30",11.335,22.27,TRADE
SNOWY1,"2003/01/23 18:00",10.75333,21.62,TRADE
SNOWY1,"2003/01/23 18:30",11.03333,19.95,TRADE
SNOWY1,"2003/01/23 19:00",13.255,18.35,TRADE
SNOWY1,"2003/01/23 19:30",8.14333,23.57,TRADE
SNOWY1,"2003/01/23 20:00",13.235,23.36,TRADE
SNOWY1,"2003/01/23 20:30",17.125,21.56,TRADE
SNOWY1,"2003/01/23 21:00",6.555,18.97,TRADE
SNOWY1,"2003/01/23 21:30",6.74167,25.63,TRADE
SNOWY1,"2003/01/23 22:00",20.73,27.05,TRADE
SNOWY1,"2003/01/23 22:30",11.615,26.46,TRADE
SNOWY1,"2003/01/23 23:00",7.31333,25.55,TRADE
SNOWY1,"2003/01/23 23:30",15.22333,26.26,TRADE
SNOWY1,"2003/01/24 00:00",14.37333,26.04,TRADE
SNOWY1,"2003/01/24 00:30",10.69333,24.23,TRADE
SNOWY1,"2003/01/24 01:00",13.8,22.48,TRADE
SNOWY1,"2003/01/24 01:30",20.08667,20.08,TRADE
SNOWY1,"2003/01/24 02:00",13.95167,16.45,TRADE
SNOWY1,"2003/01/24 02:30",12.22667,13.82,TRADE
SNOWY1,"2003/01/24 03:00",13.645,12.26,TRADE
SNOWY1,"2003/01/24 03:30",14.64667,12.15,TRADE
SNOWY1,"2003/01/24 04:00",8.61333,12.59,TRADE
SNOWY1,"2003/01/24 04:30",10.12333,13.07,TRADE
SNOWY1,"2003/01/24 05:00",9.5,15.06,TRADE
SNOWY1,"2003/01/24 05:30",12.61333,20.24,TRADE
SNOWY1,"2003/01/24 06:00",12.175,23.67,TRADE
SNOWY1,"2003/01/24 06:30",13.10833,24.7,TRADE
SNOWY1,"2003/01/24 07:00",21.78167,27.18,TRADE
SNOWY1,"2003/01/24 07:30",15.31667,24.03,TRADE
SNOWY1,"2003/01/24 08:00",25.16,26.54,TRADE
SNOWY1,"2003/01/24 08:30",24.05833,26.69,TRADE
SNOWY1,"2003/01/24 09:00",19.73,25.85,TRADE
SNOWY1,"2003/01/24 09:30",31.49167,24.86,TRADE
SNOWY1,"2003/01/24 10:00",18.57,25.25,TRADE
SNOWY1,"2003/01/24 10:30",12.11833,29.63,TRADE
SNOWY1,"2003/01/24 11:00",31.95,25.63,TRADE
SNOWY1,"2003/01/24 11:30",29.845,30.14,TRADE
SNOWY1,"2003/01/24 12:00",7.12167,33.16,TRADE
SNOWY1,"2003/01/24 12:30",30.94333,40.77,TRADE
SNOWY1,"2003/01/24 13:00",11.54333,40.58,TRADE
SNOWY1,"2003/01/24 13:30",28.29667,45.79,TRADE
SNOWY1,"2003/01/24 14:00",11.16333,49.92,TRADE
SNOWY1,"2003/01/24 14:30",13.40667,60.68,TRADE
SNOWY1,"2003/01/24 15:00",14.54167,52.31,TRADE
SNOWY1,"2003/01/24 15:30",18.94,52.13,TRADE
SNOWY1,"2003/01/24 16:00",3.14333,45.43,TRADE
SNOWY1,"2003/01/24 16:30",17.45,42.2,TRADE
SNOWY1,"2003/01/24 17:00",19.05333,39.82,TRADE
SNOWY1,"2003/01/24 17:30",20.74,34.36,TRADE
SNOWY1,"2003/01/24 18:00",20.14333,30.73,TRADE
SNOWY1,"2003/01/24 18:30",21.68167,27.49,TRADE
SNOWY1,"2003/01/24 19:00",17.53167,27.08,TRADE
SNOWY1,"2003/01/24 19:30",18.84333,26.55,TRADE
SNOWY1,"2003/01/24 20:00",22.715,30.16,TRADE
SNOWY1,"2003/01/24 20:30",18.30833,34.47,TRADE
SNOWY1,"2003/01/24 21:00",12.58333,28.38,TRADE
SNOWY1,"2003/01/24 21:30",18.185,37.55,TRADE
SNOWY1,"2003/01/24 22:00",23.82167,32.4,TRADE
SNOWY1,"2003/01/24 22:30",23.29833,34.94,TRADE
SNOWY1,"2003/01/24 23:00",20.00667,29.58,TRADE
SNOWY1,"2003/01/24 23:30",22.15,35.98,TRADE
SNOWY1,"2003/01/25 00:00",16.37667,30.77,TRADE
SNOWY1,"2003/01/25 00:30",30.13167,23.52,TRADE
SNOWY1,"2003/01/25 01:00",16.65667,20.14,TRADE
SNOWY1,"2003/01/25 01:30",18.60167,21.65,TRADE
SNOWY1,"2003/01/25 02:00",21.48167,15.89,TRADE
SNOWY1,"2003/01/25 02:30",22.60667,14.67,TRADE
SNOWY1,"2003/01/25 03:00",14.60667,11.46,TRADE
SNOWY1,"2003/01/25 03:30",13.79833,12,TRADE
SNOWY1,"2003/01/25 04:00",13.20667,12.06,TRADE
SNOWY1,"2003/01/25 04:30",17.565,13.47,TRADE
SNOWY1,"2003/01/25 05:00",9.35667,14.4,TRADE
SNOWY1,"2003/01/25 05:30",14.795,14.07,TRADE
SNOWY1,"2003/01/25 06:00",13.42833,16.29,TRADE
SNOWY1,"2003/01/25 06:30",7.41667,16.65,TRADE
SNOWY1,"2003/01/25 07:00",19.42167,19.85,TRADE
SNOWY1,"2003/01/25 07:30",17.14833,23.13,TRADE
SNOWY1,"2003/01/25 08:00",14.64667,34.96,TRADE
SNOWY1,"2003/01/25 08:30",27.24,40.58,TRADE
SNOWY1,"2003/01/25 09:00",12.105,40.59,TRADE
SNOWY1,"2003/01/25 09:30",29.90833,47.76,TRADE
SNOWY1,"2003/01/25 10:00",28.78667,48.53,TRADE
SNOWY1,"2003/01/25 10:30",31.125,62,TRADE
SNOWY1,"2003/01/25 11:00",32.71,62,TRADE
SNOWY1,"2003/01/25 11:30",37.67833,62.14,TRADE
SNOWY1,"2003/01/25 12:00",26.21167,75.28,TRADE
SNOWY1,"2003/01/25 12:30",20.38,70.15,TRADE
SNOWY1,"2003/01/25 13:00",15.375,89.57,TRADE
SNOWY1,"2003/01/25 13:30",25.39333,93.15,TRADE
SNOWY1,"2003/01/25 14:00",24.38333,93.15,TRADE
SNOWY1,"2003/01/25 14:30",24.67833,93.15,TRADE
SNOWY1,"2003/01/25 15:00",33.53667,134.28,TRADE
SNOWY1,"2003/01/25 15:30",28.29167,225.59,TRADE
SNOWY1,"2003/01/25 16:00",33.865,222.43,TRADE
SNOWY1,"2003/01/25 16:30",18.64333,93.15,TRADE
SNOWY1,"2003/01/25 17:00",25.23667,93.15,TRADE
SNOWY1,"2003/01/25 17:30",10.12,93.15,TRADE
SNOWY1,"2003/01/25 18:00",22.38667,75.64,TRADE
SNOWY1,"2003/01/25 18:30",25.795,63.19,TRADE
SNOWY1,"2003/01/25 19:00",18.10333,63.09,TRADE
SNOWY1,"2003/01/25 19:30",18.61,63.09,TRADE
SNOWY1,"2003/01/25 20:00",15.775,61.91,TRADE
SNOWY1,"2003/01/25 20:30",44.81667,42.17,TRADE
SNOWY1,"2003/01/25 21:00",38.8,42.26,TRADE
SNOWY1,"2003/01/25 21:30",12.92333,40.66,TRADE
SNOWY1,"2003/01/25 22:00",24.61833,40.22,TRADE
SNOWY1,"2003/01/25 22:30",12.045,39.56,TRADE
SNOWY1,"2003/01/25 23:00",10.04,32.86,TRADE
SNOWY1,"2003/01/25 23:30",18.6,31.59,TRADE
SNOWY1,"2003/01/26 00:00",24.28333,26.06,TRADE
SNOWY1,"2003/01/26 00:30",10.42167,20.25,TRADE
SNOWY1,"2003/01/26 01:00",15.28167,16.58,TRADE
SNOWY1,"2003/01/26 01:30",13.41167,19.15,TRADE
SNOWY1,"2003/01/26 02:00",15.82167,15.29,TRADE
SNOWY1,"2003/01/26 02:30",11.41667,14.42,TRADE
SNOWY1,"2003/01/26 03:00",8.84333,13.12,TRADE
SNOWY1,"2003/01/26 03:30",11.44,10.87,TRADE
SNOWY1,"2003/01/26 04:00",10.44,11.14,TRADE
SNOWY1,"2003/01/26 04:30",7.125,10.92,TRADE
SNOWY1,"2003/01/26 05:00",13.85667,10.81,TRADE
SNOWY1,"2003/01/26 05:30",10.72833,11.25,TRADE
SNOWY1,"2003/01/26 06:00",13.49667,11.24,TRADE
SNOWY1,"2003/01/26 06:30",12.78,12.89,TRADE
SNOWY1,"2003/01/26 07:00",11.47667,13.47,TRADE
SNOWY1,"2003/01/26 07:30",11.045,13.85,TRADE
SNOWY1,"2003/01/26 08:00",14.03833,16.51,TRADE
SNOWY1,"2003/01/26 08:30",9.72833,19.69,TRADE
SNOWY1,"2003/01/26 09:00",21.52667,22.98,TRADE
SNOWY1,"2003/01/26 09:30",16.89333,26.41,TRADE
SNOWY1,"2003/01/26 10:00",16.04167,28.74,TRADE
SNOWY1,"2003/01/26 10:30",12.81333,32.29,TRADE
SNOWY1,"2003/01/26 11:00",12.23667,34,TRADE
SNOWY1,"2003/01/26 11:30",18.51167,39.04,TRADE
SNOWY1,"2003/01/26 12:00",21.82333,40.16,TRADE
SNOWY1,"2003/01/26 12:30",19.465,40.55,TRADE
SNOWY1,"2003/01/26 13:00",24.62167,40.55,TRADE
SNOWY1,"2003/01/26 13:30",12.72833,40.55,TRADE
SNOWY1,"2003/01/26 14:00",15.055,40.4,TRADE
SNOWY1,"2003/01/26 14:30",25.98833,40.55,TRADE
SNOWY1,"2003/01/26 15:00",14.83667,40.55,TRADE
SNOWY1,"2003/01/26 15:30",17.87667,40.55,TRADE
SNOWY1,"2003/01/26 16:00",13.44,40.55,TRADE
SNOWY1,"2003/01/26 16:30",24.245,40.55,TRADE
SNOWY1,"2003/01/26 17:00",19.27,40.55,TRADE
SNOWY1,"2003/01/26 17:30",14.88833,40.55,TRADE
SNOWY1,"2003/01/26 18:00",21.33,37.1,TRADE
SNOWY1,"2003/01/26 18:30",17.37833,33.38,TRADE
SNOWY1,"2003/01/26 19:00",8.76,33.43,TRADE
SNOWY1,"2003/01/26 19:30",15.44833,36.3,TRADE
SNOWY1,"2003/01/26 20:00",15.08,37.87,TRADE
SNOWY1,"2003/01/26 20:30",16.17167,33.24,TRADE
SNOWY1,"2003/01/26 21:00",6.91833,29.92,TRADE
SNOWY1,"2003/01/26 21:30",10.205,29.2,TRADE
SNOWY1,"2003/01/26 22:00",11.78833,25,TRADE
SNOWY1,"2003/01/26 22:30",8.365,23.16,TRADE
SNOWY1,"2003/01/26 23:00",8.155,19.12,TRADE
SNOWY1,"2003/01/26 23:30",9.23333,22.06,TRADE
SNOWY1,"2003/01/27 00:00",6.50333,18.69,TRADE
SNOWY1,"2003/01/27 00:30",16.985,16.11,TRADE
SNOWY1,"2003/01/27 01:00",12.46667,12.11,TRADE
SNOWY1,"2003/01/27 01:30",14.66,12.87,TRADE
SNOWY1,"2003/01/27 02:00",13.18333,10.03,TRADE
SNOWY1,"2003/01/27 02:30",11.03,8.61,TRADE
SNOWY1,"2003/01/27 03:00",9.10167,8.83,TRADE
SNOWY1,"2003/01/27 03:30",3.98667,8.97,TRADE
SNOWY1,"2003/01/27 04:00",8.25167,8.6,TRADE
SNOWY1,"2003/01/27 04:30",6.61167,9.06,TRADE
SNOWY1,"2003/01/27 05:00",4.91833,9.5,TRADE
SNOWY1,"2003/01/27 05:30",6.55,10.51,TRADE
SNOWY1,"2003/01/27 06:00",8.97,9.4,TRADE
SNOWY1,"2003/01/27 06:30",7.47667,10.5,TRADE
SNOWY1,"2003/01/27 07:00",5.89667,10.28,TRADE
SNOWY1,"2003/01/27 07:30",11.87833,12.38,TRADE
SNOWY1,"2003/01/27 08:00",9.20833,14.95,TRADE
SNOWY1,"2003/01/27 08:30",9.745,17.36,TRADE
SNOWY1,"2003/01/27 09:00",11.69333,19.47,TRADE
SNOWY1,"2003/01/27 09:30",6.42333,21.39,TRADE
SNOWY1,"2003/01/27 10:00",13.28333,22.98,TRADE
SNOWY1,"2003/01/27 10:30",13.85,23.4,TRADE
SNOWY1,"2003/01/27 11:00",6.015,24.56,TRADE
SNOWY1,"2003/01/27 11:30",8.075,25.42,TRADE
SNOWY1,"2003/01/27 12:00",12.98333,25.51,TRADE
SNOWY1,"2003/01/27 12:30",9.93833,25.41,TRADE
SNOWY1,"2003/01/27 13:00",7.30333,25.08,TRADE
SNOWY1,"2003/01/27 13:30",9.275,25.45,TRADE
SNOWY1,"2003/01/27 14:00",11.27,24.69,TRADE
SNOWY1,"2003/01/27 14:30",6.61667,24.89,TRADE
SNOWY1,"2003/01/27 15:00",10.38,24.92,TRADE
SNOWY1,"2003/01/27 15:30",9.96833,24.99,TRADE
SNOWY1,"2003/01/27 16:00",1.47167,25.18,TRADE
SNOWY1,"2003/01/27 16:30",13.35,25.12,TRADE
SNOWY1,"2003/01/27 17:00",4.17,25.77,TRADE
SNOWY1,"2003/01/27 17:30",10.97833,25.27,TRADE
SNOWY1,"2003/01/27 18:00",12.55,24.57,TRADE
SNOWY1,"2003/01/27 18:30",10.33667,24.4,TRADE
SNOWY1,"2003/01/27 19:00",12.93167,24.26,TRADE
SNOWY1,"2003/01/27 19:30",7.94,24.42,TRADE
SNOWY1,"2003/01/27 20:00",6.52,24.69,TRADE
SNOWY1,"2003/01/27 20:30",12.765,24.32,TRADE
SNOWY1,"2003/01/27 21:00",14.09833,23.42,TRADE
SNOWY1,"2003/01/27 21:30",11.76,23.87,TRADE
SNOWY1,"2003/01/27 22:00",11.7,22.01,TRADE
SNOWY1,"2003/01/27 22:30",6.63167,21.45,TRADE
SNOWY1,"2003/01/27 23:00",12.07833,19.48,TRADE
SNOWY1,"2003/01/27 23:30",22.65833,21.99,TRADE
SNOWY1,"2003/01/28 00:00",15.735,20.67,TRADE
SNOWY1,"2003/01/28 00:30",9.93,18.93,TRADE
SNOWY1,"2003/01/28 01:00",9.21167,13.98,TRADE
SNOWY1,"2003/01/28 01:30",12.63833,13.97,TRADE
SNOWY1,"2003/01/28 02:00",19.59667,11.11,TRADE
SNOWY1,"2003/01/28 02:30",10.57833,10.59,TRADE
SNOWY1,"2003/01/28 03:00",6.025,9.52,TRADE
SNOWY1,"2003/01/28 03:30",9.46333,8.48,TRADE
SNOWY1,"2003/01/28 04:00",9.495,8.85,TRADE
SNOWY1,"2003/01/28 04:30",8.12833,10.34,TRADE
SNOWY1,"2003/01/28 05:00",7.89333,9.95,TRADE
SNOWY1,"2003/01/28 05:30",14.035,14.56,TRADE
SNOWY1,"2003/01/28 06:00",17.70333,16.82,TRADE
SNOWY1,"2003/01/28 06:30",14.885,18.95,TRADE
SNOWY1,"2003/01/28 07:00",25.61333,24.08,TRADE
SNOWY1,"2003/01/28 07:30",29.20667,20.41,TRADE
SNOWY1,"2003/01/28 08:00",38.01833,21.79,TRADE
SNOWY1,"2003/01/28 08:30",32.805,24.53,TRADE
SNOWY1,"2003/01/28 09:00",15.56,25.5,TRADE
SNOWY1,"2003/01/28 09:30",20.11667,25.77,TRADE
SNOWY1,"2003/01/28 10:00",22.92167,24.51,TRADE
SNOWY1,"2003/01/28 10:30",12.37667,24.81,TRADE
SNOWY1,"2003/01/28 11:00",14.73667,25.33,TRADE
SNOWY1,"2003/01/28 11:30",29.81667,25.26,TRADE
SNOWY1,"2003/01/28 12:00",11.415,25,TRADE
SNOWY1,"2003/01/28 12:30",12.22333,24.96,TRADE
SNOWY1,"2003/01/28 13:00",22.99833,25.09,TRADE
SNOWY1,"2003/01/28 13:30",16.36,25.02,TRADE
SNOWY1,"2003/01/28 14:00",22.185,25.59,TRADE
SNOWY1,"2003/01/28 14:30",14.07,26.56,TRADE
SNOWY1,"2003/01/28 15:00",15.33833,34.69,TRADE
SNOWY1,"2003/01/28 15:30",18.83667,33.27,TRADE
SNOWY1,"2003/01/28 16:00",18.97833,34.03,TRADE
SNOWY1,"2003/01/28 16:30",24.63667,28.65,TRADE
SNOWY1,"2003/01/28 17:00",20.42667,25.74,TRADE
SNOWY1,"2003/01/28 17:30",3.91333,24.57,TRADE
SNOWY1,"2003/01/28 18:00",21.365,23.23,TRADE
SNOWY1,"2003/01/28 18:30",14.27167,21.56,TRADE
SNOWY1,"2003/01/28 19:00",17.81167,22.01,TRADE
SNOWY1,"2003/01/28 19:30",27.27667,22.03,TRADE
SNOWY1,"2003/01/28 20:00",29.97333,22.02,TRADE
SNOWY1,"2003/01/28 20:30",10.99,22.01,TRADE
SNOWY1,"2003/01/28 21:00",11.15,21.74,TRADE
SNOWY1,"2003/01/28 21:30",22.42667,22,TRADE
SNOWY1,"2003/01/28 22:00",27.96333,22.01,TRADE
SNOWY1,"2003/01/28 22:30",8.94167,27.7,TRADE
SNOWY1,"2003/01/28 23:00",7.82333,23.41,TRADE
SNOWY1,"2003/01/28 23:30",4.28,24.65,TRADE
SNOWY1,"2003/01/29 00:00",8.42667,22.77,TRADE
SNOWY1,"2003/01/29 00:30",6.64667,19.34,TRADE
SNOWY1,"2003/01/29 01:00",5.72833,18.68,TRADE
SNOWY1,"2003/01/29 01:30",8.01167,19.74,TRADE
SNOWY1,"2003/01/29 02:00",16.80167,15.09,TRADE
SNOWY1,"2003/01/29 02:30",3.86333,13.54,TRADE
SNOWY1,"2003/01/29 03:00",7.15833,11.74,TRADE
SNOWY1,"2003/01/29 03:30",7.29833,11.56,TRADE
SNOWY1,"2003/01/29 04:00",5.71,11.61,TRADE
SNOWY1,"2003/01/29 04:30",8.3,13.78,TRADE
SNOWY1,"2003/01/29 05:00",5.08167,15.64,TRADE
SNOWY1,"2003/01/29 05:30",18.84,21.14,TRADE
SNOWY1,"2003/01/29 06:00",6.65333,22.71,TRADE
SNOWY1,"2003/01/29 06:30",11.93333,28.96,TRADE
SNOWY1,"2003/01/29 07:00",22.13667,37.45,TRADE
SNOWY1,"2003/01/29 07:30",29.35,23.01,TRADE
SNOWY1,"2003/01/29 08:00",21.12333,24.72,TRADE
SNOWY1,"2003/01/29 08:30",12.92333,25.64,TRADE
SNOWY1,"2003/01/29 09:00",17.41,27.48,TRADE
SNOWY1,"2003/01/29 09:30",5.265,32.55,TRADE
SNOWY1,"2003/01/29 10:00",14.87,34.39,TRADE
SNOWY1,"2003/01/29 10:30",27.33167,30.8,TRADE
SNOWY1,"2003/01/29 11:00",23.71333,40.19,TRADE
SNOWY1,"2003/01/29 11:30",17.05167,49.83,TRADE
SNOWY1,"2003/01/29 12:00",9.42,68.99,TRADE
SNOWY1,"2003/01/29 12:30",16.13667,137.28,TRADE
SNOWY1,"2003/01/29 13:00",12.01667,92.18,TRADE
SNOWY1,"2003/01/29 13:30",15.185,107.08,TRADE
SNOWY1,"2003/01/29 14:00",22.555,202.38,TRADE
SNOWY1,"2003/01/29 14:30",22.46667,157.88,TRADE
SNOWY1,"2003/01/29 15:00",15.375,243.68,TRADE
SNOWY1,"2003/01/29 15:30",7.68,270.46,TRADE
SNOWY1,"2003/01/29 16:00",18.55667,274.73,TRADE
SNOWY1,"2003/01/29 16:30",12.74667,158.21,TRADE
SNOWY1,"2003/01/29 17:00",2.01,98.12,TRADE
SNOWY1,"2003/01/29 17:30",21.18667,52.54,TRADE
SNOWY1,"2003/01/29 18:00",6.85667,44.35,TRADE
SNOWY1,"2003/01/29 18:30",5.17333,39.4,TRADE
SNOWY1,"2003/01/29 19:00",1.43833,31.14,TRADE
SNOWY1,"2003/01/29 19:30",21.64,36.49,TRADE
SNOWY1,"2003/01/29 20:00",10.98667,34.19,TRADE
SNOWY1,"2003/01/29 20:30",15.995,31.79,TRADE
SNOWY1,"2003/01/29 21:00",9.25,26.43,TRADE
SNOWY1,"2003/01/29 21:30",24.355,27.73,TRADE
SNOWY1,"2003/01/29 22:00",9.515,25.73,TRADE
SNOWY1,"2003/01/29 22:30",7.25333,31.78,TRADE
SNOWY1,"2003/01/29 23:00",7.205,25.6,TRADE
SNOWY1,"2003/01/29 23:30",7.74167,27.21,TRADE
SNOWY1,"2003/01/30 00:00",9.75,24.5,TRADE
SNOWY1,"2003/01/30 00:30",12.075,21.17,TRADE
SNOWY1,"2003/01/30 01:00",7.87167,17.64,TRADE
SNOWY1,"2003/01/30 01:30",14.75,16.17,TRADE
SNOWY1,"2003/01/30 02:00",10.76667,14.02,TRADE
SNOWY1,"2003/01/30 02:30",10.02667,14.23,TRADE
SNOWY1,"2003/01/30 03:00",5.1,11.62,TRADE
SNOWY1,"2003/01/30 03:30",15.65667,11.04,TRADE
SNOWY1,"2003/01/30 04:00",7.72667,11.11,TRADE
SNOWY1,"2003/01/30 04:30",9.145,12.01,TRADE
SNOWY1,"2003/01/30 05:00",27.615,15.1,TRADE
SNOWY1,"2003/01/30 05:30",14.725,20.57,TRADE
SNOWY1,"2003/01/30 06:00",14.91667,27.7,TRADE
SNOWY1,"2003/01/30 06:30",5.14667,37.81,TRADE
SNOWY1,"2003/01/30 07:00",22.99667,47.14,TRADE
SNOWY1,"2003/01/30 07:30",16.91833,30.18,TRADE
SNOWY1,"2003/01/30 08:00",19.79333,37.59,TRADE
SNOWY1,"2003/01/30 08:30",26.59667,40.02,TRADE
SNOWY1,"2003/01/30 09:00",19.915,56.32,TRADE
SNOWY1,"2003/01/30 09:30",21.96333,89.38,TRADE
SNOWY1,"2003/01/30 10:00",25.00833,68.75,TRADE
SNOWY1,"2003/01/30 10:30",20.42667,104.25,TRADE
SNOWY1,"2003/01/30 11:00",23.2,132.71,TRADE
SNOWY1,"2003/01/30 11:30",7.55167,59.19,TRADE
SNOWY1,"2003/01/30 12:00",9.59167,104.79,TRADE
SNOWY1,"2003/01/30 12:30",10.55167,77.47,TRADE
SNOWY1,"2003/01/30 13:00",18.86167,28.41,TRADE
SNOWY1,"2003/01/30 13:30",9.12833,125.22,TRADE
SNOWY1,"2003/01/30 14:00",3.41167,248.73,TRADE
SNOWY1,"2003/01/30 14:30",1.89667,1248.42,TRADE
SNOWY1,"2003/01/30 15:00",0,260.94,TRADE
SNOWY1,"2003/01/30 15:30",0.34167,805.82,TRADE
SNOWY1,"2003/01/30 16:00",3.455,1136.24,TRADE
SNOWY1,"2003/01/30 16:30",3.705,217.28,TRADE
SNOWY1,"2003/01/30 17:00",12.42,1064.76,TRADE
SNOWY1,"2003/01/30 17:30",1.865,96.43,TRADE
SNOWY1,"2003/01/30 18:00",6.075,44.08,TRADE
SNOWY1,"2003/01/30 18:30",9.69833,34.46,TRADE
SNOWY1,"2003/01/30 19:00",0,64.74,TRADE
SNOWY1,"2003/01/30 19:30",7.785,94.66,TRADE
SNOWY1,"2003/01/30 20:00",5.59,92.32,TRADE
SNOWY1,"2003/01/30 20:30",9.88667,35.69,TRADE
SNOWY1,"2003/01/30 21:00",13.43,30.35,TRADE
SNOWY1,"2003/01/30 21:30",12.62833,38.6,TRADE
SNOWY1,"2003/01/30 22:00",7.14333,28.88,TRADE
SNOWY1,"2003/01/30 22:30",0.01,38.23,TRADE
SNOWY1,"2003/01/30 23:00",0,30.99,TRADE
SNOWY1,"2003/01/30 23:30",4.25833,31.21,TRADE
SNOWY1,"2003/01/31 00:00",3.155,24.11,TRADE
SNOWY1,"2003/01/31 00:30",3.18,21.9,TRADE
SNOWY1,"2003/01/31 01:00",4.025,20.92,TRADE
SNOWY1,"2003/01/31 01:30",0,22.58,TRADE
SNOWY1,"2003/01/31 02:00",6.845,18.62,TRADE
SNOWY1,"2003/01/31 02:30",1.70167,16.41,TRADE
SNOWY1,"2003/01/31 03:00",3.57667,15.03,TRADE
SNOWY1,"2003/01/31 03:30",0.91833,14.41,TRADE
SNOWY1,"2003/01/31 04:00",0,14.88,TRADE
SNOWY1,"2003/01/31 04:30",2.23667,15.86,TRADE
SNOWY1,"2003/01/31 05:00",4.77,16.11,TRADE
SNOWY1,"2003/01/31 05:30",2.15333,17.83,TRADE
SNOWY1,"2003/01/31 06:00",2.62167,19.19,TRADE
SNOWY1,"2003/01/31 06:30",4.07333,21.43,TRADE
SNOWY1,"2003/01/31 07:00",9.22167,26.45,TRADE
SNOWY1,"2003/01/31 07:30",38.15167,21.66,TRADE
SNOWY1,"2003/01/31 08:00",25.035,20.91,TRADE
SNOWY1,"2003/01/31 08:30",0.88167,19.6,TRADE
SNOWY1,"2003/01/31 09:00",10.63667,21.94,TRADE
SNOWY1,"2003/01/31 09:30",23.44167,24,TRADE
SNOWY1,"2003/01/31 10:00",7.715,23.66,TRADE
SNOWY1,"2003/01/31 10:30",6.59,25.35,TRADE
SNOWY1,"2003/01/31 11:00",4.13833,25.08,TRADE
SNOWY1,"2003/01/31 11:30",6.67667,24.46,TRADE
SNOWY1,"2003/01/31 12:00",4.72,24.5,TRADE
SNOWY1,"2003/01/31 12:30",9.18833,25.64,TRADE
SNOWY1,"2003/01/31 13:00",15.76167,31.51,TRADE
SNOWY1,"2003/01/31 13:30",10.82167,33.77,TRADE
SNOWY1,"2003/01/31 14:00",20.94833,32.33,TRADE
SNOWY1,"2003/01/31 14:30",15.245,28.71,TRADE
SNOWY1,"2003/01/31 15:00",7.97667,23.62,TRADE
SNOWY1,"2003/01/31 15:30",10.37,21.68,TRADE
SNOWY1,"2003/01/31 16:00",8.945,21.22,TRADE
SNOWY1,"2003/01/31 16:30",5.70167,17.87,TRADE
SNOWY1,"2003/01/31 17:00",13.34,17.14,TRADE
SNOWY1,"2003/01/31 17:30",15.31667,16.84,TRADE
SNOWY1,"2003/01/31 18:00",9.38167,15.49,TRADE
SNOWY1,"2003/01/31 18:30",5.22167,15.08,TRADE
SNOWY1,"2003/01/31 19:00",5.98833,14.99,TRADE
SNOWY1,"2003/01/31 19:30",3.04333,15.8,TRADE
SNOWY1,"2003/01/31 20:00",6.66667,18.06,TRADE
SNOWY1,"2003/01/31 20:30",15.77333,17.02,TRADE
SNOWY1,"2003/01/31 21:00",6.915,15.77,TRADE
SNOWY1,"2003/01/31 21:30",8.76833,19.35,TRADE
SNOWY1,"2003/01/31 22:00",10.61333,19.55,TRADE
SNOWY1,"2003/01/31 22:30",8.565,23.35,TRADE
SNOWY1,"2003/01/31 23:00",3.44167,22.1,TRADE
SNOWY1,"2003/01/31 23:30",2.84,20.23,TRADE
SNOWY1,"2003/02/01 00:00",9.44667,18.81,TRADE
