REGION,SETTLEMENTDATE,TOTALDEMAND,RRP,PERIODTYPE
VIC1,"2013/08/01 00:30:00",5579.5,58.63,TRADE
VIC1,"2013/08/01 01:00:00",5296.31,54.89,TRADE
VIC1,"2013/08/01 01:30:00",5203.12,56.51,TRADE
VIC1,"2013/08/01 02:00:00",5068.44,54.66,TRADE
VIC1,"2013/08/01 02:30:00",4910.61,53.13,TRADE
VIC1,"2013/08/01 03:00:00",4766.87,49.12,TRADE
VIC1,"2013/08/01 03:30:00",4720.9,49.15,TRADE
VIC1,"2013/08/01 04:00:00",4675.85,48.55,TRADE
VIC1,"2013/08/01 04:30:00",4652.68,49.86,TRADE
VIC1,"2013/08/01 05:00:00",4715.7,50.04,TRADE
VIC1,"2013/08/01 05:30:00",4875.21,51.78,TRADE
VIC1,"2013/08/01 06:00:00",5125.78,51.94,TRADE
VIC1,"2013/08/01 06:30:00",5659.09,54.47,TRADE
VIC1,"2013/08/01 07:00:00",6193.57,62.5,TRADE
VIC1,"2013/08/01 07:30:00",6524.51,58.99,TRADE
VIC1,"2013/08/01 08:00:00",6845.88,63.05,TRADE
VIC1,"2013/08/01 08:30:00",6909.96,62.32,TRADE
VIC1,"2013/08/01 09:00:00",6831.94,59.8,TRADE
VIC1,"2013/08/01 09:30:00",6790.43,58.52,TRADE
VIC1,"2013/08/01 10:00:00",6618.12,55.72,TRADE
VIC1,"2013/08/01 10:30:00",6464.16,57.64,TRADE
VIC1,"2013/08/01 11:00:00",6363.37,55.22,TRADE
VIC1,"2013/08/01 11:30:00",6232.29,54.67,TRADE
VIC1,"2013/08/01 12:00:00",6158.52,54.74,TRADE
VIC1,"2013/08/01 12:30:00",6065.04,54.06,TRADE
VIC1,"2013/08/01 13:00:00",6007.93,53.16,TRADE
VIC1,"2013/08/01 13:30:00",6034.24,53.77,TRADE
VIC1,"2013/08/01 14:00:00",6022.91,54.12,TRADE
VIC1,"2013/08/01 14:30:00",5986.24,54.15,TRADE
VIC1,"2013/08/01 15:00:00",5962.68,54.27,TRADE
VIC1,"2013/08/01 15:30:00",5939.01,54.38,TRADE
VIC1,"2013/08/01 16:00:00",5979.52,54.76,TRADE
VIC1,"2013/08/01 16:30:00",6072.59,54.87,TRADE
VIC1,"2013/08/01 17:00:00",6283.6,54.75,TRADE
VIC1,"2013/08/01 17:30:00",6560.53,57.18,TRADE
VIC1,"2013/08/01 18:00:00",6974.05,63.67,TRADE
VIC1,"2013/08/01 18:30:00",7144.43,69.7,TRADE
VIC1,"2013/08/01 19:00:00",7091.77,63.98,TRADE
VIC1,"2013/08/01 19:30:00",6904.9,58.93,TRADE
VIC1,"2013/08/01 20:00:00",6768.92,55.98,TRADE
VIC1,"2013/08/01 20:30:00",6611.47,54.77,TRADE
VIC1,"2013/08/01 21:00:00",6464.92,53.96,TRADE
VIC1,"2013/08/01 21:30:00",6229.22,52.02,TRADE
VIC1,"2013/08/01 22:00:00",5916.6,47.65,TRADE
VIC1,"2013/08/01 22:30:00",5721.49,53.2,TRADE
VIC1,"2013/08/01 23:00:00",5532.56,49.88,TRADE
VIC1,"2013/08/01 23:30:00",5674.81,51.19,TRADE
VIC1,"2013/08/02 00:00:00",5700.9,54.01,TRADE
VIC1,"2013/08/02 00:30:00",5382.79,51.63,TRADE
VIC1,"2013/08/02 01:00:00",5092.63,48.33,TRADE
VIC1,"2013/08/02 01:30:00",5001.85,47.37,TRADE
VIC1,"2013/08/02 02:00:00",4796.5,45.85,TRADE
VIC1,"2013/08/02 02:30:00",4603.77,43.65,TRADE
VIC1,"2013/08/02 03:00:00",4509.13,43.81,TRADE
VIC1,"2013/08/02 03:30:00",4461.22,43.64,TRADE
VIC1,"2013/08/02 04:00:00",4396.75,41.97,TRADE
VIC1,"2013/08/02 04:30:00",4413.81,41.91,TRADE
VIC1,"2013/08/02 05:00:00",4462.41,42.85,TRADE
VIC1,"2013/08/02 05:30:00",4590.49,42.81,TRADE
VIC1,"2013/08/02 06:00:00",4853.61,44.74,TRADE
VIC1,"2013/08/02 06:30:00",5363.75,48.86,TRADE
VIC1,"2013/08/02 07:00:00",5876.2,50.19,TRADE
VIC1,"2013/08/02 07:30:00",6215.63,52.81,TRADE
VIC1,"2013/08/02 08:00:00",6603.3,57,TRADE
VIC1,"2013/08/02 08:30:00",6655.62,58.57,TRADE
VIC1,"2013/08/02 09:00:00",6597.86,56.54,TRADE
VIC1,"2013/08/02 09:30:00",6562.67,56.83,TRADE
VIC1,"2013/08/02 10:00:00",6513.92,56.05,TRADE
VIC1,"2013/08/02 10:30:00",6529.42,56.03,TRADE
VIC1,"2013/08/02 11:00:00",6469.72,56.04,TRADE
VIC1,"2013/08/02 11:30:00",6323.21,53.15,TRADE
VIC1,"2013/08/02 12:00:00",6462.99,54.35,TRADE
VIC1,"2013/08/02 12:30:00",6607.22,55.05,TRADE
VIC1,"2013/08/02 13:00:00",6703.19,55.21,TRADE
VIC1,"2013/08/02 13:30:00",6769.98,55.32,TRADE
VIC1,"2013/08/02 14:00:00",6700.91,54.87,TRADE
VIC1,"2013/08/02 14:30:00",6642.22,54.43,TRADE
VIC1,"2013/08/02 15:00:00",6443.3,52.7,TRADE
VIC1,"2013/08/02 15:30:00",6274.27,51.86,TRADE
VIC1,"2013/08/02 16:00:00",6271.59,51.87,TRADE
VIC1,"2013/08/02 16:30:00",6369.08,51.87,TRADE
VIC1,"2013/08/02 17:00:00",6641.55,55.82,TRADE
VIC1,"2013/08/02 17:30:00",6762.12,55.03,TRADE
VIC1,"2013/08/02 18:00:00",7012.83,59.46,TRADE
VIC1,"2013/08/02 18:30:00",7013.39,56.98,TRADE
VIC1,"2013/08/02 19:00:00",6975.22,57.64,TRADE
VIC1,"2013/08/02 19:30:00",6790.24,55.24,TRADE
VIC1,"2013/08/02 20:00:00",6614.77,55.49,TRADE
VIC1,"2013/08/02 20:30:00",6413.58,58.62,TRADE
VIC1,"2013/08/02 21:00:00",6312.8,59.16,TRADE
VIC1,"2013/08/02 21:30:00",6132.55,58.49,TRADE
VIC1,"2013/08/02 22:00:00",5937.24,57.04,TRADE
VIC1,"2013/08/02 22:30:00",5773.09,64.02,TRADE
VIC1,"2013/08/02 23:00:00",5616.14,57.31,TRADE
VIC1,"2013/08/02 23:30:00",5881.98,62.19,TRADE
VIC1,"2013/08/03 00:00:00",5932.78,65.29,TRADE
VIC1,"2013/08/03 00:30:00",5553.51,58.51,TRADE
VIC1,"2013/08/03 01:00:00",5287.38,57.32,TRADE
VIC1,"2013/08/03 01:30:00",5195.43,58.12,TRADE
VIC1,"2013/08/03 02:00:00",4975.09,55.49,TRADE
VIC1,"2013/08/03 02:30:00",4777.51,53.28,TRADE
VIC1,"2013/08/03 03:00:00",4615.23,50.35,TRADE
VIC1,"2013/08/03 03:30:00",4524.54,50.07,TRADE
VIC1,"2013/08/03 04:00:00",4423.78,48.68,TRADE
VIC1,"2013/08/03 04:30:00",4364.19,45.55,TRADE
VIC1,"2013/08/03 05:00:00",4420.81,48.09,TRADE
VIC1,"2013/08/03 05:30:00",4470.6,47.06,TRADE
VIC1,"2013/08/03 06:00:00",4507.32,45.67,TRADE
VIC1,"2013/08/03 06:30:00",4698.08,47.89,TRADE
VIC1,"2013/08/03 07:00:00",4873.38,49.91,TRADE
VIC1,"2013/08/03 07:30:00",4977.04,48.11,TRADE
VIC1,"2013/08/03 08:00:00",5242.37,50.79,TRADE
VIC1,"2013/08/03 08:30:00",5482.85,51.93,TRADE
VIC1,"2013/08/03 09:00:00",5616.42,52.65,TRADE
VIC1,"2013/08/03 09:30:00",5686.31,53.98,TRADE
VIC1,"2013/08/03 10:00:00",5685.78,52.35,TRADE
VIC1,"2013/08/03 10:30:00",5623.04,51.74,TRADE
VIC1,"2013/08/03 11:00:00",5559.13,51.87,TRADE
VIC1,"2013/08/03 11:30:00",5451.6,49.37,TRADE
VIC1,"2013/08/03 12:00:00",5432.71,49.49,TRADE
VIC1,"2013/08/03 12:30:00",5392.87,47.13,TRADE
VIC1,"2013/08/03 13:00:00",5486.65,50.19,TRADE
VIC1,"2013/08/03 13:30:00",5566.85,52.39,TRADE
VIC1,"2013/08/03 14:00:00",5542.28,53.07,TRADE
VIC1,"2013/08/03 14:30:00",5508.9,52.68,TRADE
VIC1,"2013/08/03 15:00:00",5513.91,53.6,TRADE
VIC1,"2013/08/03 15:30:00",5545.87,54.45,TRADE
VIC1,"2013/08/03 16:00:00",5668.17,54.96,TRADE
VIC1,"2013/08/03 16:30:00",5821.26,55.18,TRADE
VIC1,"2013/08/03 17:00:00",6116.31,58.26,TRADE
VIC1,"2013/08/03 17:30:00",6427.37,56.7,TRADE
VIC1,"2013/08/03 18:00:00",6595.02,60.83,TRADE
VIC1,"2013/08/03 18:30:00",6543.93,58.66,TRADE
VIC1,"2013/08/03 19:00:00",6453.15,57.41,TRADE
VIC1,"2013/08/03 19:30:00",6239.99,55.71,TRADE
VIC1,"2013/08/03 20:00:00",6047.89,55.12,TRADE
VIC1,"2013/08/03 20:30:00",5910.48,54.82,TRADE
VIC1,"2013/08/03 21:00:00",5819.2,55.06,TRADE
VIC1,"2013/08/03 21:30:00",5696.26,54.27,TRADE
VIC1,"2013/08/03 22:00:00",5503.68,52.68,TRADE
VIC1,"2013/08/03 22:30:00",5391.58,54.06,TRADE
VIC1,"2013/08/03 23:00:00",5324.12,56.19,TRADE
VIC1,"2013/08/03 23:30:00",5637.13,63.93,TRADE
VIC1,"2013/08/04 00:00:00",5700.41,72.3,TRADE
VIC1,"2013/08/04 00:30:00",5422.79,57.25,TRADE
VIC1,"2013/08/04 01:00:00",5089.36,55.67,TRADE
VIC1,"2013/08/04 01:30:00",4944.5,54.46,TRADE
VIC1,"2013/08/04 02:00:00",4723.9,52.5,TRADE
VIC1,"2013/08/04 02:30:00",4517.98,46.61,TRADE
VIC1,"2013/08/04 03:00:00",4359.45,44.77,TRADE
VIC1,"2013/08/04 03:30:00",4284.12,45.96,TRADE
VIC1,"2013/08/04 04:00:00",4164.35,44.84,TRADE
VIC1,"2013/08/04 04:30:00",4142.4,45.8,TRADE
VIC1,"2013/08/04 05:00:00",4087.08,44.17,TRADE
VIC1,"2013/08/04 05:30:00",4071.56,44.5,TRADE
VIC1,"2013/08/04 06:00:00",4141.76,44.96,TRADE
VIC1,"2013/08/04 06:30:00",4264.73,46.42,TRADE
VIC1,"2013/08/04 07:00:00",4445.61,48.59,TRADE
VIC1,"2013/08/04 07:30:00",4434.27,47.4,TRADE
VIC1,"2013/08/04 08:00:00",4647.12,51.97,TRADE
VIC1,"2013/08/04 08:30:00",4983.96,54.22,TRADE
VIC1,"2013/08/04 09:00:00",5125.07,56.08,TRADE
VIC1,"2013/08/04 09:30:00",5292.59,60.33,TRADE
VIC1,"2013/08/04 10:00:00",5280.25,57.48,TRADE
VIC1,"2013/08/04 10:30:00",5360.19,56.05,TRADE
VIC1,"2013/08/04 11:00:00",5265.89,53.72,TRADE
VIC1,"2013/08/04 11:30:00",5245.45,53.82,TRADE
VIC1,"2013/08/04 12:00:00",5196.14,53.37,TRADE
VIC1,"2013/08/04 12:30:00",5109.64,51.35,TRADE
VIC1,"2013/08/04 13:00:00",5090.86,49.19,TRADE
VIC1,"2013/08/04 13:30:00",5193.64,48.64,TRADE
VIC1,"2013/08/04 14:00:00",5190.65,52.94,TRADE
VIC1,"2013/08/04 14:30:00",5199.22,53.97,TRADE
VIC1,"2013/08/04 15:00:00",5218.84,54.23,TRADE
VIC1,"2013/08/04 15:30:00",5330.35,55.89,TRADE
VIC1,"2013/08/04 16:00:00",5438.08,58.35,TRADE
VIC1,"2013/08/04 16:30:00",5595.52,57.87,TRADE
VIC1,"2013/08/04 17:00:00",5829.6,60.9,TRADE
VIC1,"2013/08/04 17:30:00",5971.25,57.02,TRADE
VIC1,"2013/08/04 18:00:00",6302.12,67.83,TRADE
VIC1,"2013/08/04 18:30:00",6453.13,71.51,TRADE
VIC1,"2013/08/04 19:00:00",6314.32,66.35,TRADE
VIC1,"2013/08/04 19:30:00",6173.58,59.77,TRADE
VIC1,"2013/08/04 20:00:00",6043.87,59.26,TRADE
VIC1,"2013/08/04 20:30:00",5959.33,61.01,TRADE
VIC1,"2013/08/04 21:00:00",5831.16,59.16,TRADE
VIC1,"2013/08/04 21:30:00",5684.16,58.35,TRADE
VIC1,"2013/08/04 22:00:00",5388.95,52.95,TRADE
VIC1,"2013/08/04 22:30:00",5217.3,53.35,TRADE
VIC1,"2013/08/04 23:00:00",5083.43,52.16,TRADE
VIC1,"2013/08/04 23:30:00",5286.08,54.38,TRADE
VIC1,"2013/08/05 00:00:00",5327.3,55.45,TRADE
VIC1,"2013/08/05 00:30:00",5089.78,54.64,TRADE
VIC1,"2013/08/05 01:00:00",4877.48,52.65,TRADE
VIC1,"2013/08/05 01:30:00",4792.81,51.08,TRADE
VIC1,"2013/08/05 02:00:00",4674.97,48.85,TRADE
VIC1,"2013/08/05 02:30:00",4519.74,43.31,TRADE
VIC1,"2013/08/05 03:00:00",4396.09,42.93,TRADE
VIC1,"2013/08/05 03:30:00",4312.66,43.05,TRADE
VIC1,"2013/08/05 04:00:00",4271.42,41.08,TRADE
VIC1,"2013/08/05 04:30:00",4323.68,43.76,TRADE
VIC1,"2013/08/05 05:00:00",4338.75,44.17,TRADE
VIC1,"2013/08/05 05:30:00",4564.46,47.39,TRADE
VIC1,"2013/08/05 06:00:00",4793.22,49.16,TRADE
VIC1,"2013/08/05 06:30:00",5293.62,52.64,TRADE
VIC1,"2013/08/05 07:00:00",5829.3,56.14,TRADE
VIC1,"2013/08/05 07:30:00",6229.17,56.93,TRADE
VIC1,"2013/08/05 08:00:00",6497.91,61.81,TRADE
VIC1,"2013/08/05 08:30:00",6616.57,61.97,TRADE
VIC1,"2013/08/05 09:00:00",6582.37,59.47,TRADE
VIC1,"2013/08/05 09:30:00",6626.74,56.43,TRADE
VIC1,"2013/08/05 10:00:00",6559.63,55.23,TRADE
VIC1,"2013/08/05 10:30:00",6427.66,55.13,TRADE
VIC1,"2013/08/05 11:00:00",6267.22,54.62,TRADE
VIC1,"2013/08/05 11:30:00",6277.87,55.14,TRADE
VIC1,"2013/08/05 12:00:00",6287.2,55.16,TRADE
VIC1,"2013/08/05 12:30:00",6358.98,55.17,TRADE
VIC1,"2013/08/05 13:00:00",6296.64,55.58,TRADE
VIC1,"2013/08/05 13:30:00",6314.2,55.81,TRADE
VIC1,"2013/08/05 14:00:00",6342.29,55.59,TRADE
VIC1,"2013/08/05 14:30:00",6291.34,55.21,TRADE
VIC1,"2013/08/05 15:00:00",6253.04,55.11,TRADE
VIC1,"2013/08/05 15:30:00",6259.81,55.22,TRADE
VIC1,"2013/08/05 16:00:00",6286.92,55.42,TRADE
VIC1,"2013/08/05 16:30:00",6326.96,55.07,TRADE
VIC1,"2013/08/05 17:00:00",6444.56,55.46,TRADE
VIC1,"2013/08/05 17:30:00",6572.02,55.12,TRADE
VIC1,"2013/08/05 18:00:00",6912.81,63.4,TRADE
VIC1,"2013/08/05 18:30:00",6990.14,65.13,TRADE
VIC1,"2013/08/05 19:00:00",6912.37,62.84,TRADE
VIC1,"2013/08/05 19:30:00",6687.71,57.65,TRADE
VIC1,"2013/08/05 20:00:00",6556.09,55.47,TRADE
VIC1,"2013/08/05 20:30:00",6377.6,56.71,TRADE
VIC1,"2013/08/05 21:00:00",6181.3,55.11,TRADE
VIC1,"2013/08/05 21:30:00",5969.4,53.18,TRADE
VIC1,"2013/08/05 22:00:00",5703.14,51.62,TRADE
VIC1,"2013/08/05 22:30:00",5510.72,52.81,TRADE
VIC1,"2013/08/05 23:00:00",5347.14,54.34,TRADE
VIC1,"2013/08/05 23:30:00",5546.49,55.09,TRADE
VIC1,"2013/08/06 00:00:00",5592.69,56.82,TRADE
VIC1,"2013/08/06 00:30:00",5251.07,52.45,TRADE
VIC1,"2013/08/06 01:00:00",4975.05,50.2,TRADE
VIC1,"2013/08/06 01:30:00",4862.34,48.82,TRADE
VIC1,"2013/08/06 02:00:00",4651.44,46.91,TRADE
VIC1,"2013/08/06 02:30:00",4521.04,44.55,TRADE
VIC1,"2013/08/06 03:00:00",4373.01,43.77,TRADE
VIC1,"2013/08/06 03:30:00",4312.27,43.57,TRADE
VIC1,"2013/08/06 04:00:00",4305.14,42.56,TRADE
VIC1,"2013/08/06 04:30:00",4272.52,41.5,TRADE
VIC1,"2013/08/06 05:00:00",4298.07,45.18,TRADE
VIC1,"2013/08/06 05:30:00",4504.98,46.52,TRADE
VIC1,"2013/08/06 06:00:00",4733.05,47.82,TRADE
VIC1,"2013/08/06 06:30:00",5242.42,52.58,TRADE
VIC1,"2013/08/06 07:00:00",5768.51,68.36,TRADE
VIC1,"2013/08/06 07:30:00",6130.6,57.53,TRADE
VIC1,"2013/08/06 08:00:00",6442.05,63.39,TRADE
VIC1,"2013/08/06 08:30:00",6527.41,61.96,TRADE
VIC1,"2013/08/06 09:00:00",6456.47,59.54,TRADE
VIC1,"2013/08/06 09:30:00",6444.58,58.12,TRADE
VIC1,"2013/08/06 10:00:00",6366.65,60.71,TRADE
VIC1,"2013/08/06 10:30:00",6232.76,57.29,TRADE
VIC1,"2013/08/06 11:00:00",6087.87,55.8,TRADE
VIC1,"2013/08/06 11:30:00",6032.86,55.55,TRADE
VIC1,"2013/08/06 12:00:00",6061.08,55.08,TRADE
VIC1,"2013/08/06 12:30:00",6022.03,54.4,TRADE
VIC1,"2013/08/06 13:00:00",6024.17,54.05,TRADE
VIC1,"2013/08/06 13:30:00",6048.14,53.73,TRADE
VIC1,"2013/08/06 14:00:00",6011.77,54.05,TRADE
VIC1,"2013/08/06 14:30:00",6009.79,54.66,TRADE
VIC1,"2013/08/06 15:00:00",5982.07,55.41,TRADE
VIC1,"2013/08/06 15:30:00",6013,56.41,TRADE
VIC1,"2013/08/06 16:00:00",6083.8,56.98,TRADE
VIC1,"2013/08/06 16:30:00",6239.34,56.11,TRADE
VIC1,"2013/08/06 17:00:00",6424.81,56.51,TRADE
VIC1,"2013/08/06 17:30:00",6645.15,61.36,TRADE
VIC1,"2013/08/06 18:00:00",7006.77,91.33,TRADE
VIC1,"2013/08/06 18:30:00",7132.89,92.79,TRADE
VIC1,"2013/08/06 19:00:00",7066.56,80.61,TRADE
VIC1,"2013/08/06 19:30:00",6902.22,61.01,TRADE
VIC1,"2013/08/06 20:00:00",6776.41,60.92,TRADE
VIC1,"2013/08/06 20:30:00",6604.27,61.74,TRADE
VIC1,"2013/08/06 21:00:00",6524.58,69.54,TRADE
VIC1,"2013/08/06 21:30:00",6249.61,60.83,TRADE
VIC1,"2013/08/06 22:00:00",5990.72,55.82,TRADE
VIC1,"2013/08/06 22:30:00",5783.97,62.18,TRADE
VIC1,"2013/08/06 23:00:00",5658.72,72.79,TRADE
VIC1,"2013/08/06 23:30:00",5881.96,91.22,TRADE
VIC1,"2013/08/07 00:00:00",5941.86,125.35,TRADE
VIC1,"2013/08/07 00:30:00",5455.34,62.12,TRADE
VIC1,"2013/08/07 01:00:00",5128.03,54.43,TRADE
VIC1,"2013/08/07 01:30:00",5119.06,54.27,TRADE
VIC1,"2013/08/07 02:00:00",5177.3,53.3,TRADE
VIC1,"2013/08/07 02:30:00",5051,48.79,TRADE
VIC1,"2013/08/07 03:00:00",4904.41,46.93,TRADE
VIC1,"2013/08/07 03:30:00",4811.28,47.03,TRADE
VIC1,"2013/08/07 04:00:00",4683.36,45.4,TRADE
VIC1,"2013/08/07 04:30:00",4710.69,46.12,TRADE
VIC1,"2013/08/07 05:00:00",4794.13,47.2,TRADE
VIC1,"2013/08/07 05:30:00",4955.26,49.21,TRADE
VIC1,"2013/08/07 06:00:00",5216.62,51.29,TRADE
VIC1,"2013/08/07 06:30:00",5728.24,54.97,TRADE
VIC1,"2013/08/07 07:00:00",6271.09,75.66,TRADE
VIC1,"2013/08/07 07:30:00",6621.18,53.52,TRADE
VIC1,"2013/08/07 08:00:00",6916.6,59.09,TRADE
VIC1,"2013/08/07 08:30:00",7037.96,59.04,TRADE
VIC1,"2013/08/07 09:00:00",6994.78,57.52,TRADE
VIC1,"2013/08/07 09:30:00",6971.01,56.27,TRADE
VIC1,"2013/08/07 10:00:00",6833.72,54.91,TRADE
VIC1,"2013/08/07 10:30:00",6700.51,59.86,TRADE
VIC1,"2013/08/07 11:00:00",6579.01,69.26,TRADE
VIC1,"2013/08/07 11:30:00",6539.85,85.27,TRADE
VIC1,"2013/08/07 12:00:00",6535.22,68.96,TRADE
VIC1,"2013/08/07 12:30:00",6541.84,90.33,TRADE
VIC1,"2013/08/07 13:00:00",6519.98,72.29,TRADE
VIC1,"2013/08/07 13:30:00",6571.57,63.45,TRADE
VIC1,"2013/08/07 14:00:00",6570.21,65.21,TRADE
VIC1,"2013/08/07 14:30:00",6588.82,56.34,TRADE
VIC1,"2013/08/07 15:00:00",6489.9,55,TRADE
VIC1,"2013/08/07 15:30:00",6430.4,56,TRADE
VIC1,"2013/08/07 16:00:00",6450.75,57.8,TRADE
VIC1,"2013/08/07 16:30:00",6656.68,60.4,TRADE
VIC1,"2013/08/07 17:00:00",6944.62,61.16,TRADE
VIC1,"2013/08/07 17:30:00",7129.35,56.3,TRADE
VIC1,"2013/08/07 18:00:00",7392.51,68.64,TRADE
VIC1,"2013/08/07 18:30:00",7350.83,61.83,TRADE
VIC1,"2013/08/07 19:00:00",7241.97,60.16,TRADE
VIC1,"2013/08/07 19:30:00",7042.17,54.63,TRADE
VIC1,"2013/08/07 20:00:00",6851.75,55.43,TRADE
VIC1,"2013/08/07 20:30:00",6669.57,61.35,TRADE
VIC1,"2013/08/07 21:00:00",6518.39,54.04,TRADE
VIC1,"2013/08/07 21:30:00",6278.71,53.44,TRADE
VIC1,"2013/08/07 22:00:00",6021.21,51.7,TRADE
VIC1,"2013/08/07 22:30:00",5780.8,64.15,TRADE
VIC1,"2013/08/07 23:00:00",5601.28,55.14,TRADE
VIC1,"2013/08/07 23:30:00",5801.44,56.16,TRADE
VIC1,"2013/08/08 00:00:00",5801.48,66.93,TRADE
VIC1,"2013/08/08 00:30:00",5479.55,59.21,TRADE
VIC1,"2013/08/08 01:00:00",5261.01,58.36,TRADE
VIC1,"2013/08/08 01:30:00",5150.09,56.47,TRADE
VIC1,"2013/08/08 02:00:00",5000.02,55.36,TRADE
VIC1,"2013/08/08 02:30:00",4817.18,51.95,TRADE
VIC1,"2013/08/08 03:00:00",4662.94,47.59,TRADE
VIC1,"2013/08/08 03:30:00",4595.48,46.71,TRADE
VIC1,"2013/08/08 04:00:00",4564.37,46.72,TRADE
VIC1,"2013/08/08 04:30:00",4590.9,46.77,TRADE
VIC1,"2013/08/08 05:00:00",4643.38,50.5,TRADE
VIC1,"2013/08/08 05:30:00",4823.45,54.25,TRADE
VIC1,"2013/08/08 06:00:00",5079.77,56.06,TRADE
VIC1,"2013/08/08 06:30:00",5644.95,55.72,TRADE
VIC1,"2013/08/08 07:00:00",6232.95,60.85,TRADE
VIC1,"2013/08/08 07:30:00",6551.5,52.79,TRADE
VIC1,"2013/08/08 08:00:00",6911.35,57.29,TRADE
VIC1,"2013/08/08 08:30:00",7042.53,58.35,TRADE
VIC1,"2013/08/08 09:00:00",6980.89,57.98,TRADE
VIC1,"2013/08/08 09:30:00",6928.06,57.97,TRADE
VIC1,"2013/08/08 10:00:00",6834.9,56.1,TRADE
VIC1,"2013/08/08 10:30:00",6718.73,55.04,TRADE
VIC1,"2013/08/08 11:00:00",6582.44,56.1,TRADE
VIC1,"2013/08/08 11:30:00",6486.06,53.01,TRADE
VIC1,"2013/08/08 12:00:00",6441.74,55.23,TRADE
VIC1,"2013/08/08 12:30:00",6398.29,55,TRADE
VIC1,"2013/08/08 13:00:00",6327.09,54.97,TRADE
VIC1,"2013/08/08 13:30:00",6338.07,55.68,TRADE
VIC1,"2013/08/08 14:00:00",6338.12,54.71,TRADE
VIC1,"2013/08/08 14:30:00",6266.35,54.06,TRADE
VIC1,"2013/08/08 15:00:00",6229.68,53.92,TRADE
VIC1,"2013/08/08 15:30:00",6198.2,53.71,TRADE
VIC1,"2013/08/08 16:00:00",6204.06,53.6,TRADE
VIC1,"2013/08/08 16:30:00",6304.35,52.8,TRADE
VIC1,"2013/08/08 17:00:00",6459.15,53.91,TRADE
VIC1,"2013/08/08 17:30:00",6662.63,54.04,TRADE
VIC1,"2013/08/08 18:00:00",7066,65.17,TRADE
VIC1,"2013/08/08 18:30:00",7312.12,63.9,TRADE
VIC1,"2013/08/08 19:00:00",7244.69,55.81,TRADE
VIC1,"2013/08/08 19:30:00",7064.76,53.52,TRADE
VIC1,"2013/08/08 20:00:00",6864.02,51.8,TRADE
VIC1,"2013/08/08 20:30:00",6701.46,52.26,TRADE
VIC1,"2013/08/08 21:00:00",6576.16,51.7,TRADE
VIC1,"2013/08/08 21:30:00",6251.05,50.63,TRADE
VIC1,"2013/08/08 22:00:00",5953.17,48.07,TRADE
VIC1,"2013/08/08 22:30:00",5717.92,56.3,TRADE
VIC1,"2013/08/08 23:00:00",5539.9,51.21,TRADE
VIC1,"2013/08/08 23:30:00",5727.87,51.21,TRADE
VIC1,"2013/08/09 00:00:00",5787.53,52,TRADE
VIC1,"2013/08/09 00:30:00",5473.37,49.69,TRADE
VIC1,"2013/08/09 01:00:00",5177.8,47.46,TRADE
VIC1,"2013/08/09 01:30:00",5034.57,45.86,TRADE
VIC1,"2013/08/09 02:00:00",4838.98,43.35,TRADE
VIC1,"2013/08/09 02:30:00",4627.6,43.31,TRADE
VIC1,"2013/08/09 03:00:00",4481.24,40.42,TRADE
VIC1,"2013/08/09 03:30:00",4401.63,40.11,TRADE
VIC1,"2013/08/09 04:00:00",4338.21,39.47,TRADE
VIC1,"2013/08/09 04:30:00",4360.66,39.58,TRADE
VIC1,"2013/08/09 05:00:00",4391.71,40.56,TRADE
VIC1,"2013/08/09 05:30:00",4555.07,43.49,TRADE
VIC1,"2013/08/09 06:00:00",4857.18,44.97,TRADE
VIC1,"2013/08/09 06:30:00",5365.77,46.88,TRADE
VIC1,"2013/08/09 07:00:00",5911.2,51.99,TRADE
VIC1,"2013/08/09 07:30:00",6290.43,49.87,TRADE
VIC1,"2013/08/09 08:00:00",6696.9,55.02,TRADE
VIC1,"2013/08/09 08:30:00",6939.48,55.52,TRADE
VIC1,"2013/08/09 09:00:00",7039.93,55.37,TRADE
VIC1,"2013/08/09 09:30:00",7138.06,55.05,TRADE
VIC1,"2013/08/09 10:00:00",7110.17,54.72,TRADE
VIC1,"2013/08/09 10:30:00",7065.78,54.96,TRADE
VIC1,"2013/08/09 11:00:00",7034.85,54.79,TRADE
VIC1,"2013/08/09 11:30:00",6969.88,55.23,TRADE
VIC1,"2013/08/09 12:00:00",6987.11,54.4,TRADE
VIC1,"2013/08/09 12:30:00",7050.89,55,TRADE
VIC1,"2013/08/09 13:00:00",6957.65,54.35,TRADE
VIC1,"2013/08/09 13:30:00",6997.73,54.69,TRADE
VIC1,"2013/08/09 14:00:00",6986.6,54.85,TRADE
VIC1,"2013/08/09 14:30:00",6988.29,54.38,TRADE
VIC1,"2013/08/09 15:00:00",6918,55.1,TRADE
VIC1,"2013/08/09 15:30:00",6837.93,55.07,TRADE
VIC1,"2013/08/09 16:00:00",6824.86,54.49,TRADE
VIC1,"2013/08/09 16:30:00",6827.79,51.94,TRADE
VIC1,"2013/08/09 17:00:00",6980.79,52.11,TRADE
VIC1,"2013/08/09 17:30:00",6969.35,51.53,TRADE
VIC1,"2013/08/09 18:00:00",7164.8,55.03,TRADE
VIC1,"2013/08/09 18:30:00",7167.98,55.11,TRADE
VIC1,"2013/08/09 19:00:00",7046.46,54.32,TRADE
VIC1,"2013/08/09 19:30:00",6897.41,52.95,TRADE
VIC1,"2013/08/09 20:00:00",6688.14,50.75,TRADE
VIC1,"2013/08/09 20:30:00",6561.06,49.63,TRADE
VIC1,"2013/08/09 21:00:00",6444.71,51.32,TRADE
VIC1,"2013/08/09 21:30:00",6193.61,49.59,TRADE
VIC1,"2013/08/09 22:00:00",5965.5,49.91,TRADE
VIC1,"2013/08/09 22:30:00",5816.29,61.48,TRADE
VIC1,"2013/08/09 23:00:00",5736.31,55.1,TRADE
VIC1,"2013/08/09 23:30:00",5974.42,55.43,TRADE
VIC1,"2013/08/10 00:00:00",6005.43,57.39,TRADE
VIC1,"2013/08/10 00:30:00",5662.15,55.08,TRADE
VIC1,"2013/08/10 01:00:00",5361.01,52.97,TRADE
VIC1,"2013/08/10 01:30:00",5235.66,52.7,TRADE
VIC1,"2013/08/10 02:00:00",5031.88,50.28,TRADE
VIC1,"2013/08/10 02:30:00",4809.64,46.56,TRADE
VIC1,"2013/08/10 03:00:00",4656.62,45.02,TRADE
VIC1,"2013/08/10 03:30:00",4545.33,44.12,TRADE
VIC1,"2013/08/10 04:00:00",4435.7,43.6,TRADE
VIC1,"2013/08/10 04:30:00",4322.56,42.78,TRADE
VIC1,"2013/08/10 05:00:00",4310.83,43.7,TRADE
VIC1,"2013/08/10 05:30:00",4341.63,43.7,TRADE
VIC1,"2013/08/10 06:00:00",4460.88,43.94,TRADE
VIC1,"2013/08/10 06:30:00",4696.56,46.39,TRADE
VIC1,"2013/08/10 07:00:00",4885.6,48.18,TRADE
VIC1,"2013/08/10 07:30:00",4951.82,49.28,TRADE
VIC1,"2013/08/10 08:00:00",5176.58,50.6,TRADE
VIC1,"2013/08/10 08:30:00",5392.44,51.5,TRADE
VIC1,"2013/08/10 09:00:00",5521.21,53.21,TRADE
VIC1,"2013/08/10 09:30:00",5533.76,52.75,TRADE
VIC1,"2013/08/10 10:00:00",5445,51.87,TRADE
VIC1,"2013/08/10 10:30:00",5359.4,49.61,TRADE
VIC1,"2013/08/10 11:00:00",5211.13,48.23,TRADE
VIC1,"2013/08/10 11:30:00",5108.5,47.36,TRADE
VIC1,"2013/08/10 12:00:00",5059.13,48.64,TRADE
VIC1,"2013/08/10 12:30:00",5008.35,46.84,TRADE
VIC1,"2013/08/10 13:00:00",4974.46,46.9,TRADE
VIC1,"2013/08/10 13:30:00",4941.94,46.4,TRADE
VIC1,"2013/08/10 14:00:00",4918,46.69,TRADE
VIC1,"2013/08/10 14:30:00",4849.92,46.66,TRADE
VIC1,"2013/08/10 15:00:00",4878.49,46.69,TRADE
VIC1,"2013/08/10 15:30:00",4923.22,47.09,TRADE
VIC1,"2013/08/10 16:00:00",4996.25,48.29,TRADE
VIC1,"2013/08/10 16:30:00",5107.66,51.05,TRADE
VIC1,"2013/08/10 17:00:00",5287.98,50.26,TRADE
VIC1,"2013/08/10 17:30:00",5466.46,52.39,TRADE
VIC1,"2013/08/10 18:00:00",5806.51,58.24,TRADE
VIC1,"2013/08/10 18:30:00",6149.74,59.8,TRADE
VIC1,"2013/08/10 19:00:00",6145.86,58.94,TRADE
VIC1,"2013/08/10 19:30:00",5977.95,56.9,TRADE
VIC1,"2013/08/10 20:00:00",5861.15,57.02,TRADE
VIC1,"2013/08/10 20:30:00",5798.28,56.72,TRADE
VIC1,"2013/08/10 21:00:00",5727.95,55.49,TRADE
VIC1,"2013/08/10 21:30:00",5609.91,57.74,TRADE
VIC1,"2013/08/10 22:00:00",5448.72,57.13,TRADE
VIC1,"2013/08/10 22:30:00",5421.13,56.7,TRADE
VIC1,"2013/08/10 23:00:00",5406.35,56.19,TRADE
VIC1,"2013/08/10 23:30:00",5663.05,59.33,TRADE
VIC1,"2013/08/11 00:00:00",5654.16,65.34,TRADE
VIC1,"2013/08/11 00:30:00",5389.48,56.7,TRADE
VIC1,"2013/08/11 01:00:00",5075.63,53.95,TRADE
VIC1,"2013/08/11 01:30:00",4962.7,53.39,TRADE
VIC1,"2013/08/11 02:00:00",4750.24,51.69,TRADE
VIC1,"2013/08/11 02:30:00",4570.98,47.77,TRADE
VIC1,"2013/08/11 03:00:00",4419.06,46.41,TRADE
VIC1,"2013/08/11 03:30:00",4300.1,46.43,TRADE
VIC1,"2013/08/11 04:00:00",4258.64,45.01,TRADE
VIC1,"2013/08/11 04:30:00",4172.63,43.7,TRADE
VIC1,"2013/08/11 05:00:00",4171.59,44.57,TRADE
VIC1,"2013/08/11 05:30:00",4186.5,45.33,TRADE
VIC1,"2013/08/11 06:00:00",4221.39,45.06,TRADE
VIC1,"2013/08/11 06:30:00",4290.27,44.67,TRADE
VIC1,"2013/08/11 07:00:00",4454.47,46.34,TRADE
VIC1,"2013/08/11 07:30:00",4436.19,47.72,TRADE
VIC1,"2013/08/11 08:00:00",4671.96,47.33,TRADE
VIC1,"2013/08/11 08:30:00",4948.77,47.56,TRADE
VIC1,"2013/08/11 09:00:00",5049.05,48.88,TRADE
VIC1,"2013/08/11 09:30:00",5167.26,49.2,TRADE
VIC1,"2013/08/11 10:00:00",5143.3,49.52,TRADE
VIC1,"2013/08/11 10:30:00",5158.03,49.43,TRADE
VIC1,"2013/08/11 11:00:00",5055.15,48.86,TRADE
VIC1,"2013/08/11 11:30:00",5007.15,46.81,TRADE
VIC1,"2013/08/11 12:00:00",4896.11,45.96,TRADE
VIC1,"2013/08/11 12:30:00",4826.69,43.7,TRADE
VIC1,"2013/08/11 13:00:00",4756.14,43.7,TRADE
VIC1,"2013/08/11 13:30:00",4732.03,41.67,TRADE
VIC1,"2013/08/11 14:00:00",4647.68,39.24,TRADE
VIC1,"2013/08/11 14:30:00",4592.39,43.57,TRADE
VIC1,"2013/08/11 15:00:00",4582.6,43.08,TRADE
VIC1,"2013/08/11 15:30:00",4616.74,45.39,TRADE
VIC1,"2013/08/11 16:00:00",4702.4,46.18,TRADE
VIC1,"2013/08/11 16:30:00",4832.96,47.07,TRADE
VIC1,"2013/08/11 17:00:00",5062.79,50.04,TRADE
VIC1,"2013/08/11 17:30:00",5289.13,51.53,TRADE
VIC1,"2013/08/11 18:00:00",5731.01,58.31,TRADE
VIC1,"2013/08/11 18:30:00",6102.93,60.76,TRADE
VIC1,"2013/08/11 19:00:00",6085.6,57.49,TRADE
VIC1,"2013/08/11 19:30:00",5994.89,54.28,TRADE
VIC1,"2013/08/11 20:00:00",5855.64,54.24,TRADE
VIC1,"2013/08/11 20:30:00",5785.78,55.26,TRADE
VIC1,"2013/08/11 21:00:00",5670.17,52.89,TRADE
VIC1,"2013/08/11 21:30:00",5510.18,51.39,TRADE
VIC1,"2013/08/11 22:00:00",5265.51,48.42,TRADE
VIC1,"2013/08/11 22:30:00",5129.52,47.39,TRADE
VIC1,"2013/08/11 23:00:00",5027.69,45.52,TRADE
VIC1,"2013/08/11 23:30:00",5251.54,47.54,TRADE
VIC1,"2013/08/12 00:00:00",5275.62,48.32,TRADE
VIC1,"2013/08/12 00:30:00",4944.53,43.69,TRADE
VIC1,"2013/08/12 01:00:00",4754.99,43.1,TRADE
VIC1,"2013/08/12 01:30:00",4662.85,42.81,TRADE
VIC1,"2013/08/12 02:00:00",4522.61,41.22,TRADE
VIC1,"2013/08/12 02:30:00",4388.72,39.69,TRADE
VIC1,"2013/08/12 03:00:00",4274.14,37.14,TRADE
VIC1,"2013/08/12 03:30:00",4185.11,36.93,TRADE
VIC1,"2013/08/12 04:00:00",4074.29,35.67,TRADE
VIC1,"2013/08/12 04:30:00",4088.54,38.89,TRADE
VIC1,"2013/08/12 05:00:00",4186.65,37.3,TRADE
VIC1,"2013/08/12 05:30:00",4390.47,43.41,TRADE
VIC1,"2013/08/12 06:00:00",4628.12,44.38,TRADE
VIC1,"2013/08/12 06:30:00",5122.38,47.26,TRADE
VIC1,"2013/08/12 07:00:00",5720.03,54.22,TRADE
VIC1,"2013/08/12 07:30:00",6027.63,52.58,TRADE
VIC1,"2013/08/12 08:00:00",6267.57,55.28,TRADE
VIC1,"2013/08/12 08:30:00",6354.03,55.41,TRADE
VIC1,"2013/08/12 09:00:00",6312.98,56.1,TRADE
VIC1,"2013/08/12 09:30:00",6299.73,55.64,TRADE
VIC1,"2013/08/12 10:00:00",6333.96,54.67,TRADE
VIC1,"2013/08/12 10:30:00",6316.04,54.96,TRADE
VIC1,"2013/08/12 11:00:00",6267.98,54.93,TRADE
VIC1,"2013/08/12 11:30:00",6288.13,54.71,TRADE
VIC1,"2013/08/12 12:00:00",6287.28,54.22,TRADE
VIC1,"2013/08/12 12:30:00",6211.32,53.36,TRADE
VIC1,"2013/08/12 13:00:00",6239.46,54,TRADE
VIC1,"2013/08/12 13:30:00",6181.94,53,TRADE
VIC1,"2013/08/12 14:00:00",6160.08,52.94,TRADE
VIC1,"2013/08/12 14:30:00",5843.36,51.62,TRADE
VIC1,"2013/08/12 15:00:00",5737.97,51.33,TRADE
VIC1,"2013/08/12 15:30:00",5963.13,50.71,TRADE
VIC1,"2013/08/12 16:00:00",6003.76,52.04,TRADE
VIC1,"2013/08/12 16:30:00",6148.83,55.18,TRADE
VIC1,"2013/08/12 17:00:00",6364.63,56.26,TRADE
VIC1,"2013/08/12 17:30:00",6579.81,55.73,TRADE
VIC1,"2013/08/12 18:00:00",6892.95,66.29,TRADE
VIC1,"2013/08/12 18:30:00",7081.65,61.42,TRADE
VIC1,"2013/08/12 19:00:00",7129.27,61.73,TRADE
VIC1,"2013/08/12 19:30:00",6897.74,59.63,TRADE
VIC1,"2013/08/12 20:00:00",6755.12,55.79,TRADE
VIC1,"2013/08/12 20:30:00",6552.75,54.58,TRADE
VIC1,"2013/08/12 21:00:00",6490.71,54.49,TRADE
VIC1,"2013/08/12 21:30:00",6217.7,52.86,TRADE
VIC1,"2013/08/12 22:00:00",5984.95,52.08,TRADE
VIC1,"2013/08/12 22:30:00",5697.89,53.15,TRADE
VIC1,"2013/08/12 23:00:00",5543.31,52.7,TRADE
VIC1,"2013/08/12 23:30:00",5732.34,52.28,TRADE
VIC1,"2013/08/13 00:00:00",5711.59,55.7,TRADE
VIC1,"2013/08/13 00:30:00",5422.88,53.81,TRADE
VIC1,"2013/08/13 01:00:00",5164.18,52.59,TRADE
VIC1,"2013/08/13 01:30:00",5112.38,50.52,TRADE
VIC1,"2013/08/13 02:00:00",4963.53,49.58,TRADE
VIC1,"2013/08/13 02:30:00",4762.6,48.04,TRADE
VIC1,"2013/08/13 03:00:00",4632.27,45.56,TRADE
VIC1,"2013/08/13 03:30:00",4520.01,43.75,TRADE
VIC1,"2013/08/13 04:00:00",4483.29,43.8,TRADE
VIC1,"2013/08/13 04:30:00",4481.28,43.7,TRADE
VIC1,"2013/08/13 05:00:00",4548.27,44.27,TRADE
VIC1,"2013/08/13 05:30:00",4831.4,49.3,TRADE
VIC1,"2013/08/13 06:00:00",5048.01,50.27,TRADE
VIC1,"2013/08/13 06:30:00",5596.85,53.68,TRADE
VIC1,"2013/08/13 07:00:00",6136.17,59.54,TRADE
VIC1,"2013/08/13 07:30:00",6421.13,52.02,TRADE
VIC1,"2013/08/13 08:00:00",6664.93,55.77,TRADE
VIC1,"2013/08/13 08:30:00",6762.08,56.61,TRADE
VIC1,"2013/08/13 09:00:00",6643.65,54.99,TRADE
VIC1,"2013/08/13 09:30:00",6651.43,54.31,TRADE
VIC1,"2013/08/13 10:00:00",6450.97,54.2,TRADE
VIC1,"2013/08/13 10:30:00",6281.93,53.27,TRADE
VIC1,"2013/08/13 11:00:00",6216.95,52.08,TRADE
VIC1,"2013/08/13 11:30:00",6044.54,50.18,TRADE
VIC1,"2013/08/13 12:00:00",6029.02,49.62,TRADE
VIC1,"2013/08/13 12:30:00",5903.55,47.43,TRADE
VIC1,"2013/08/13 13:00:00",5921.49,47.45,TRADE
VIC1,"2013/08/13 13:30:00",5924.84,47.62,TRADE
VIC1,"2013/08/13 14:00:00",5895.47,47.76,TRADE
VIC1,"2013/08/13 14:30:00",5896.68,48.34,TRADE
VIC1,"2013/08/13 15:00:00",5853.17,48.96,TRADE
VIC1,"2013/08/13 15:30:00",5848.77,49.18,TRADE
VIC1,"2013/08/13 16:00:00",5867.14,49.33,TRADE
VIC1,"2013/08/13 16:30:00",5980.54,48.88,TRADE
VIC1,"2013/08/13 17:00:00",6027.51,48.93,TRADE
VIC1,"2013/08/13 17:30:00",6293.27,50.41,TRADE
VIC1,"2013/08/13 18:00:00",6562.5,54.46,TRADE
VIC1,"2013/08/13 18:30:00",6801.91,56.23,TRADE
VIC1,"2013/08/13 19:00:00",6814.35,54.94,TRADE
VIC1,"2013/08/13 19:30:00",6626.83,53.59,TRADE
VIC1,"2013/08/13 20:00:00",6511.51,53.01,TRADE
VIC1,"2013/08/13 20:30:00",6312.03,52.61,TRADE
VIC1,"2013/08/13 21:00:00",6257.81,55.34,TRADE
VIC1,"2013/08/13 21:30:00",5991.19,56.16,TRADE
VIC1,"2013/08/13 22:00:00",5726.18,51.45,TRADE
VIC1,"2013/08/13 22:30:00",5489.11,51.2,TRADE
VIC1,"2013/08/13 23:00:00",5357.48,48.98,TRADE
VIC1,"2013/08/13 23:30:00",5571.37,53.54,TRADE
VIC1,"2013/08/14 00:00:00",5582.45,55.96,TRADE
VIC1,"2013/08/14 00:30:00",5312.19,54.58,TRADE
VIC1,"2013/08/14 01:00:00",5009.37,48.2,TRADE
VIC1,"2013/08/14 01:30:00",4928.58,46.52,TRADE
VIC1,"2013/08/14 02:00:00",4688.81,43.03,TRADE
VIC1,"2013/08/14 02:30:00",4538.62,43.5,TRADE
VIC1,"2013/08/14 03:00:00",4341.47,43.13,TRADE
VIC1,"2013/08/14 03:30:00",4296.18,40.21,TRADE
VIC1,"2013/08/14 04:00:00",4238.28,40.33,TRADE
VIC1,"2013/08/14 04:30:00",4227.62,37.36,TRADE
VIC1,"2013/08/14 05:00:00",4275.23,41.55,TRADE
VIC1,"2013/08/14 05:30:00",4453.36,43.66,TRADE
VIC1,"2013/08/14 06:00:00",4728.48,45.37,TRADE
VIC1,"2013/08/14 06:30:00",5212.78,51.68,TRADE
VIC1,"2013/08/14 07:00:00",5751.91,54.87,TRADE
VIC1,"2013/08/14 07:30:00",5992.13,52.67,TRADE
VIC1,"2013/08/14 08:00:00",6278.39,53.6,TRADE
VIC1,"2013/08/14 08:30:00",6357.18,53.88,TRADE
VIC1,"2013/08/14 09:00:00",6362.88,53.85,TRADE
VIC1,"2013/08/14 09:30:00",6447.04,53.91,TRADE
VIC1,"2013/08/14 10:00:00",6425.87,53.97,TRADE
VIC1,"2013/08/14 10:30:00",6364.11,54.66,TRADE
VIC1,"2013/08/14 11:00:00",6349.25,54.24,TRADE
VIC1,"2013/08/14 11:30:00",6321.27,54.38,TRADE
VIC1,"2013/08/14 12:00:00",6264.15,53.88,TRADE
VIC1,"2013/08/14 12:30:00",6332.76,53.92,TRADE
VIC1,"2013/08/14 13:00:00",6316.37,55.33,TRADE
VIC1,"2013/08/14 13:30:00",6363.97,55.39,TRADE
VIC1,"2013/08/14 14:00:00",6357.44,55.65,TRADE
VIC1,"2013/08/14 14:30:00",6386.88,55.01,TRADE
VIC1,"2013/08/14 15:00:00",6390.6,54.6,TRADE
VIC1,"2013/08/14 15:30:00",6350.23,53.97,TRADE
VIC1,"2013/08/14 16:00:00",6261.66,53.74,TRADE
VIC1,"2013/08/14 16:30:00",6382.1,53.92,TRADE
VIC1,"2013/08/14 17:00:00",6460.29,53.83,TRADE
VIC1,"2013/08/14 17:30:00",6639.81,54.51,TRADE
VIC1,"2013/08/14 18:00:00",6908.85,57.01,TRADE
VIC1,"2013/08/14 18:30:00",7077.04,60.89,TRADE
VIC1,"2013/08/14 19:00:00",6996.73,59.37,TRADE
VIC1,"2013/08/14 19:30:00",6861.55,56.59,TRADE
VIC1,"2013/08/14 20:00:00",6723.47,54.46,TRADE
VIC1,"2013/08/14 20:30:00",6540,53.97,TRADE
VIC1,"2013/08/14 21:00:00",6457.59,54.32,TRADE
VIC1,"2013/08/14 21:30:00",6243.44,55.9,TRADE
VIC1,"2013/08/14 22:00:00",5937.33,53.75,TRADE
VIC1,"2013/08/14 22:30:00",5644.24,53.77,TRADE
VIC1,"2013/08/14 23:00:00",5518.69,55.17,TRADE
VIC1,"2013/08/14 23:30:00",5737.88,53.97,TRADE
VIC1,"2013/08/15 00:00:00",5756.03,57.16,TRADE
VIC1,"2013/08/15 00:30:00",5444.07,56.5,TRADE
VIC1,"2013/08/15 01:00:00",5205.05,53.67,TRADE
VIC1,"2013/08/15 01:30:00",5122.92,51,TRADE
VIC1,"2013/08/15 02:00:00",4994.07,48.85,TRADE
VIC1,"2013/08/15 02:30:00",4789.57,49.27,TRADE
VIC1,"2013/08/15 03:00:00",4619.46,47.12,TRADE
VIC1,"2013/08/15 03:30:00",4544.63,46.77,TRADE
VIC1,"2013/08/15 04:00:00",4511.66,47.41,TRADE
VIC1,"2013/08/15 04:30:00",4545.6,45.94,TRADE
VIC1,"2013/08/15 05:00:00",4586.95,47.05,TRADE
VIC1,"2013/08/15 05:30:00",4733.43,50.22,TRADE
VIC1,"2013/08/15 06:00:00",4980.26,53.32,TRADE
VIC1,"2013/08/15 06:30:00",5499.98,57.87,TRADE
VIC1,"2013/08/15 07:00:00",6072.3,73.06,TRADE
VIC1,"2013/08/15 07:30:00",6387.81,54.06,TRADE
VIC1,"2013/08/15 08:00:00",6772.61,62.47,TRADE
VIC1,"2013/08/15 08:30:00",6862.58,59.46,TRADE
VIC1,"2013/08/15 09:00:00",6798.35,61.75,TRADE
VIC1,"2013/08/15 09:30:00",6741.68,57.08,TRADE
VIC1,"2013/08/15 10:00:00",6548.66,57.3,TRADE
VIC1,"2013/08/15 10:30:00",6402.61,55.48,TRADE
VIC1,"2013/08/15 11:00:00",6269.98,54.99,TRADE
VIC1,"2013/08/15 11:30:00",6198.69,53.77,TRADE
VIC1,"2013/08/15 12:00:00",6115.31,54.89,TRADE
VIC1,"2013/08/15 12:30:00",6116.29,56.41,TRADE
VIC1,"2013/08/15 13:00:00",6032.81,54.64,TRADE
VIC1,"2013/08/15 13:30:00",6034.16,54.12,TRADE
VIC1,"2013/08/15 14:00:00",5969.61,50.67,TRADE
VIC1,"2013/08/15 14:30:00",5939.45,51.5,TRADE
VIC1,"2013/08/15 15:00:00",5903.24,51.7,TRADE
VIC1,"2013/08/15 15:30:00",5864.23,51.68,TRADE
VIC1,"2013/08/15 16:00:00",5919.27,52.85,TRADE
VIC1,"2013/08/15 16:30:00",6033.56,51.92,TRADE
VIC1,"2013/08/15 17:00:00",6171.76,53.13,TRADE
VIC1,"2013/08/15 17:30:00",6329.82,52.6,TRADE
VIC1,"2013/08/15 18:00:00",6654.98,56.31,TRADE
VIC1,"2013/08/15 18:30:00",6879.41,59.24,TRADE
VIC1,"2013/08/15 19:00:00",6862.54,57.78,TRADE
VIC1,"2013/08/15 19:30:00",6710.24,55.82,TRADE
VIC1,"2013/08/15 20:00:00",6547.42,54.35,TRADE
VIC1,"2013/08/15 20:30:00",6402.62,57.5,TRADE
VIC1,"2013/08/15 21:00:00",6240.39,54.92,TRADE
VIC1,"2013/08/15 21:30:00",5974.41,53.13,TRADE
VIC1,"2013/08/15 22:00:00",5712.76,51.24,TRADE
VIC1,"2013/08/15 22:30:00",5539.15,58.17,TRADE
VIC1,"2013/08/15 23:00:00",5395.08,50.36,TRADE
VIC1,"2013/08/15 23:30:00",5616.34,51.09,TRADE
VIC1,"2013/08/16 00:00:00",5597.31,54.73,TRADE
VIC1,"2013/08/16 00:30:00",5267.08,51.06,TRADE
VIC1,"2013/08/16 01:00:00",4991.59,48.94,TRADE
VIC1,"2013/08/16 01:30:00",4872.82,47.58,TRADE
VIC1,"2013/08/16 02:00:00",4657.68,46.16,TRADE
VIC1,"2013/08/16 02:30:00",4478.67,44.76,TRADE
VIC1,"2013/08/16 03:00:00",4376.32,44.59,TRADE
VIC1,"2013/08/16 03:30:00",4308.37,43.7,TRADE
VIC1,"2013/08/16 04:00:00",4247.09,42.79,TRADE
VIC1,"2013/08/16 04:30:00",4272.59,43.28,TRADE
VIC1,"2013/08/16 05:00:00",4334.51,43.7,TRADE
VIC1,"2013/08/16 05:30:00",4526.29,46.67,TRADE
VIC1,"2013/08/16 06:00:00",4782.04,47.33,TRADE
VIC1,"2013/08/16 06:30:00",5278.13,52.09,TRADE
VIC1,"2013/08/16 07:00:00",5792.55,70.59,TRADE
VIC1,"2013/08/16 07:30:00",6103.22,57.11,TRADE
VIC1,"2013/08/16 08:00:00",6366.7,60.06,TRADE
VIC1,"2013/08/16 08:30:00",6472.2,60.17,TRADE
VIC1,"2013/08/16 09:00:00",6387.28,58.37,TRADE
VIC1,"2013/08/16 09:30:00",6331.98,58.24,TRADE
VIC1,"2013/08/16 10:00:00",6201.38,57.18,TRADE
VIC1,"2013/08/16 10:30:00",6075.38,54.92,TRADE
VIC1,"2013/08/16 11:00:00",5867.63,53.55,TRADE
VIC1,"2013/08/16 11:30:00",5794.27,52.18,TRADE
VIC1,"2013/08/16 12:00:00",5740.19,50.91,TRADE
VIC1,"2013/08/16 12:30:00",5673.92,49.85,TRADE
VIC1,"2013/08/16 13:00:00",5579.98,49.88,TRADE
VIC1,"2013/08/16 13:30:00",5609.11,50.33,TRADE
VIC1,"2013/08/16 14:00:00",5349.1,47.58,TRADE
VIC1,"2013/08/16 14:30:00",5389.43,49.61,TRADE
VIC1,"2013/08/16 15:00:00",5505.9,49.46,TRADE
VIC1,"2013/08/16 15:30:00",5478.56,49.13,TRADE
VIC1,"2013/08/16 16:00:00",5515.33,49.74,TRADE
VIC1,"2013/08/16 16:30:00",5594.6,49.68,TRADE
VIC1,"2013/08/16 17:00:00",5729.28,51.3,TRADE
VIC1,"2013/08/16 17:30:00",5907.99,51.88,TRADE
VIC1,"2013/08/16 18:00:00",6231.7,57.94,TRADE
VIC1,"2013/08/16 18:30:00",6465.59,59.35,TRADE
VIC1,"2013/08/16 19:00:00",6400.05,56.47,TRADE
VIC1,"2013/08/16 19:30:00",6280.71,54.42,TRADE
VIC1,"2013/08/16 20:00:00",6141.93,53.87,TRADE
VIC1,"2013/08/16 20:30:00",5973.5,56.15,TRADE
VIC1,"2013/08/16 21:00:00",5857.57,55.21,TRADE
VIC1,"2013/08/16 21:30:00",5661.63,53.46,TRADE
VIC1,"2013/08/16 22:00:00",5486.85,52.25,TRADE
VIC1,"2013/08/16 22:30:00",5391.08,53.71,TRADE
VIC1,"2013/08/16 23:00:00",5293.18,54.88,TRADE
VIC1,"2013/08/16 23:30:00",5602.28,56.04,TRADE
VIC1,"2013/08/17 00:00:00",5598.52,64.66,TRADE
VIC1,"2013/08/17 00:30:00",5242.42,55.08,TRADE
VIC1,"2013/08/17 01:00:00",4952.44,52.35,TRADE
VIC1,"2013/08/17 01:30:00",4811.23,49.75,TRADE
VIC1,"2013/08/17 02:00:00",4689.58,48.21,TRADE
VIC1,"2013/08/17 02:30:00",4496.15,46.86,TRADE
VIC1,"2013/08/17 03:00:00",4324.45,45.84,TRADE
VIC1,"2013/08/17 03:30:00",4260.39,46.08,TRADE
VIC1,"2013/08/17 04:00:00",4161.2,44.95,TRADE
VIC1,"2013/08/17 04:30:00",4159.13,45.36,TRADE
VIC1,"2013/08/17 05:00:00",4204.41,46.47,TRADE
VIC1,"2013/08/17 05:30:00",4266.53,46.69,TRADE
VIC1,"2013/08/17 06:00:00",4364.5,46.69,TRADE
VIC1,"2013/08/17 06:30:00",4466.34,46.54,TRADE
VIC1,"2013/08/17 07:00:00",4661.89,47.46,TRADE
VIC1,"2013/08/17 07:30:00",4737.76,49.24,TRADE
VIC1,"2013/08/17 08:00:00",4963.44,53.85,TRADE
VIC1,"2013/08/17 08:30:00",5201.9,53.34,TRADE
VIC1,"2013/08/17 09:00:00",5300.08,53.92,TRADE
VIC1,"2013/08/17 09:30:00",5317.9,54.55,TRADE
VIC1,"2013/08/17 10:00:00",5218.18,53.43,TRADE
VIC1,"2013/08/17 10:30:00",5207.67,54.69,TRADE
VIC1,"2013/08/17 11:00:00",5135.58,52.05,TRADE
VIC1,"2013/08/17 11:30:00",5026,49.39,TRADE
VIC1,"2013/08/17 12:00:00",4972.75,52.28,TRADE
VIC1,"2013/08/17 12:30:00",4943.31,52.47,TRADE
VIC1,"2013/08/17 13:00:00",4874.11,51.15,TRADE
VIC1,"2013/08/17 13:30:00",4863.15,48.74,TRADE
VIC1,"2013/08/17 14:00:00",4894.77,49.1,TRADE
VIC1,"2013/08/17 14:30:00",4842.17,46.88,TRADE
VIC1,"2013/08/17 15:00:00",4941.02,47.07,TRADE
VIC1,"2013/08/17 15:30:00",5046.1,48.6,TRADE
VIC1,"2013/08/17 16:00:00",5113.96,49.3,TRADE
VIC1,"2013/08/17 16:30:00",5215.48,49.81,TRADE
VIC1,"2013/08/17 17:00:00",5418.55,51.98,TRADE
VIC1,"2013/08/17 17:30:00",5618.65,51.22,TRADE
VIC1,"2013/08/17 18:00:00",5906.37,55.88,TRADE
VIC1,"2013/08/17 18:30:00",6095.01,53.9,TRADE
VIC1,"2013/08/17 19:00:00",6077.06,53.64,TRADE
VIC1,"2013/08/17 19:30:00",5957.81,50.82,TRADE
VIC1,"2013/08/17 20:00:00",5827.68,49.91,TRADE
VIC1,"2013/08/17 20:30:00",5680.61,51.7,TRADE
VIC1,"2013/08/17 21:00:00",5575.36,50.66,TRADE
VIC1,"2013/08/17 21:30:00",5414.45,51.04,TRADE
VIC1,"2013/08/17 22:00:00",5312.74,50.43,TRADE
VIC1,"2013/08/17 22:30:00",5197.87,49.13,TRADE
VIC1,"2013/08/17 23:00:00",5151.86,48.18,TRADE
VIC1,"2013/08/17 23:30:00",5377.68,48.71,TRADE
VIC1,"2013/08/18 00:00:00",5409.03,50.43,TRADE
VIC1,"2013/08/18 00:30:00",5111.72,50.19,TRADE
VIC1,"2013/08/18 01:00:00",4865.07,48.51,TRADE
VIC1,"2013/08/18 01:30:00",4718.07,46.52,TRADE
VIC1,"2013/08/18 02:00:00",4500.46,44.23,TRADE
VIC1,"2013/08/18 02:30:00",4276.04,40.48,TRADE
VIC1,"2013/08/18 03:00:00",4168.33,38.57,TRADE
VIC1,"2013/08/18 03:30:00",4068.35,37.83,TRADE
VIC1,"2013/08/18 04:00:00",4031.22,37.84,TRADE
VIC1,"2013/08/18 04:30:00",3970.31,39.25,TRADE
VIC1,"2013/08/18 05:00:00",3957.8,39.92,TRADE
VIC1,"2013/08/18 05:30:00",3955.39,40.17,TRADE
VIC1,"2013/08/18 06:00:00",3956.49,39.36,TRADE
VIC1,"2013/08/18 06:30:00",4066.44,40.2,TRADE
VIC1,"2013/08/18 07:00:00",4194.28,41.33,TRADE
VIC1,"2013/08/18 07:30:00",4195.92,41.73,TRADE
VIC1,"2013/08/18 08:00:00",4355.19,43.63,TRADE
VIC1,"2013/08/18 08:30:00",4564.68,43.7,TRADE
VIC1,"2013/08/18 09:00:00",4680,44.36,TRADE
VIC1,"2013/08/18 09:30:00",4748.24,43.92,TRADE
VIC1,"2013/08/18 10:00:00",4799.53,45.31,TRADE
VIC1,"2013/08/18 10:30:00",4805.98,46.52,TRADE
VIC1,"2013/08/18 11:00:00",4784.06,46.61,TRADE
VIC1,"2013/08/18 11:30:00",4756.56,45.56,TRADE
VIC1,"2013/08/18 12:00:00",4718.68,46.23,TRADE
VIC1,"2013/08/18 12:30:00",4863.96,50.92,TRADE
VIC1,"2013/08/18 13:00:00",4822.63,44.2,TRADE
VIC1,"2013/08/18 13:30:00",4804.16,44.59,TRADE
VIC1,"2013/08/18 14:00:00",4801.9,44.07,TRADE
VIC1,"2013/08/18 14:30:00",4730.83,43.87,TRADE
VIC1,"2013/08/18 15:00:00",4744.68,43.88,TRADE
VIC1,"2013/08/18 15:30:00",4794.11,45.46,TRADE
VIC1,"2013/08/18 16:00:00",4887.12,46.13,TRADE
VIC1,"2013/08/18 16:30:00",5155.37,47.53,TRADE
VIC1,"2013/08/18 17:00:00",5349.32,49.63,TRADE
VIC1,"2013/08/18 17:30:00",5537.89,49.94,TRADE
VIC1,"2013/08/18 18:00:00",5816.61,54.63,TRADE
VIC1,"2013/08/18 18:30:00",6074.96,57.25,TRADE
VIC1,"2013/08/18 19:00:00",6087.94,57.86,TRADE
VIC1,"2013/08/18 19:30:00",5930.28,53.76,TRADE
VIC1,"2013/08/18 20:00:00",5829.54,54.79,TRADE
VIC1,"2013/08/18 20:30:00",5726.43,56.78,TRADE
VIC1,"2013/08/18 21:00:00",5683.64,56.85,TRADE
VIC1,"2013/08/18 21:30:00",5568.41,55.53,TRADE
VIC1,"2013/08/18 22:00:00",5377.12,49.36,TRADE
VIC1,"2013/08/18 22:30:00",5189.54,49.27,TRADE
VIC1,"2013/08/18 23:00:00",5035.51,49.42,TRADE
VIC1,"2013/08/18 23:30:00",5309.86,49.77,TRADE
VIC1,"2013/08/19 00:00:00",5401.65,52.21,TRADE
VIC1,"2013/08/19 00:30:00",5139.94,49.9,TRADE
VIC1,"2013/08/19 01:00:00",4923.4,47.58,TRADE
VIC1,"2013/08/19 01:30:00",4743.43,45.96,TRADE
VIC1,"2013/08/19 02:00:00",4613.39,44.67,TRADE
VIC1,"2013/08/19 02:30:00",4428.87,42.23,TRADE
VIC1,"2013/08/19 03:00:00",4336.05,42.08,TRADE
VIC1,"2013/08/19 03:30:00",4308.61,40.61,TRADE
VIC1,"2013/08/19 04:00:00",4263.42,39.51,TRADE
VIC1,"2013/08/19 04:30:00",4301.32,41.95,TRADE
VIC1,"2013/08/19 05:00:00",4387.16,43.69,TRADE
VIC1,"2013/08/19 05:30:00",4577.45,45.74,TRADE
VIC1,"2013/08/19 06:00:00",4801.92,46.56,TRADE
VIC1,"2013/08/19 06:30:00",5392.18,50.67,TRADE
VIC1,"2013/08/19 07:00:00",5967.14,56.94,TRADE
VIC1,"2013/08/19 07:30:00",6239.13,54.27,TRADE
VIC1,"2013/08/19 08:00:00",6616.84,58.39,TRADE
VIC1,"2013/08/19 08:30:00",6704.02,59.23,TRADE
VIC1,"2013/08/19 09:00:00",6600.92,60.49,TRADE
VIC1,"2013/08/19 09:30:00",6612.27,58.89,TRADE
VIC1,"2013/08/19 10:00:00",6555.53,58.34,TRADE
VIC1,"2013/08/19 10:30:00",6433.69,58.1,TRADE
VIC1,"2013/08/19 11:00:00",6330.14,56.26,TRADE
VIC1,"2013/08/19 11:30:00",6310.29,57.51,TRADE
VIC1,"2013/08/19 12:00:00",6313.71,57.5,TRADE
VIC1,"2013/08/19 12:30:00",6289.2,57.82,TRADE
VIC1,"2013/08/19 13:00:00",6302.57,58.74,TRADE
VIC1,"2013/08/19 13:30:00",6339.21,58.56,TRADE
VIC1,"2013/08/19 14:00:00",6342.36,58.69,TRADE
VIC1,"2013/08/19 14:30:00",6364.56,58.77,TRADE
VIC1,"2013/08/19 15:00:00",6333.31,58.32,TRADE
VIC1,"2013/08/19 15:30:00",6330.97,58.04,TRADE
VIC1,"2013/08/19 16:00:00",6322.23,58.15,TRADE
VIC1,"2013/08/19 16:30:00",6416.88,60.11,TRADE
VIC1,"2013/08/19 17:00:00",6626.37,61.23,TRADE
VIC1,"2013/08/19 17:30:00",6908.3,59.57,TRADE
VIC1,"2013/08/19 18:00:00",7185.41,72.96,TRADE
VIC1,"2013/08/19 18:30:00",7344.13,93.95,TRADE
VIC1,"2013/08/19 19:00:00",7271.84,68.55,TRADE
VIC1,"2013/08/19 19:30:00",7114.13,62,TRADE
VIC1,"2013/08/19 20:00:00",6939.69,63.38,TRADE
VIC1,"2013/08/19 20:30:00",6747.94,74.46,TRADE
VIC1,"2013/08/19 21:00:00",6708.8,64.07,TRADE
VIC1,"2013/08/19 21:30:00",6429.92,61.52,TRADE
VIC1,"2013/08/19 22:00:00",6222.38,58.15,TRADE
VIC1,"2013/08/19 22:30:00",5902.58,67.98,TRADE
VIC1,"2013/08/19 23:00:00",5673.12,59.23,TRADE
VIC1,"2013/08/19 23:30:00",5871.21,58.71,TRADE
VIC1,"2013/08/20 00:00:00",5903.68,62.86,TRADE
VIC1,"2013/08/20 00:30:00",5610.48,60.76,TRADE
VIC1,"2013/08/20 01:00:00",5393.46,59.02,TRADE
VIC1,"2013/08/20 01:30:00",5298.15,57.3,TRADE
VIC1,"2013/08/20 02:00:00",5102.1,55.48,TRADE
VIC1,"2013/08/20 02:30:00",4922.5,53.22,TRADE
VIC1,"2013/08/20 03:00:00",4743.8,53.25,TRADE
VIC1,"2013/08/20 03:30:00",4673.82,51.03,TRADE
VIC1,"2013/08/20 04:00:00",4611.66,50.11,TRADE
VIC1,"2013/08/20 04:30:00",4654.42,50.79,TRADE
VIC1,"2013/08/20 05:00:00",4716.23,51.62,TRADE
VIC1,"2013/08/20 05:30:00",4926.02,54.2,TRADE
VIC1,"2013/08/20 06:00:00",5181.56,56.06,TRADE
VIC1,"2013/08/20 06:30:00",5723.03,64.49,TRADE
VIC1,"2013/08/20 07:00:00",6295.74,82.38,TRADE
VIC1,"2013/08/20 07:30:00",6580.88,61.4,TRADE
VIC1,"2013/08/20 08:00:00",6897.57,79.21,TRADE
VIC1,"2013/08/20 08:30:00",7012.26,64.76,TRADE
VIC1,"2013/08/20 09:00:00",6949,68.72,TRADE
VIC1,"2013/08/20 09:30:00",7019.13,69.65,TRADE
VIC1,"2013/08/20 10:00:00",6893.82,62.46,TRADE
VIC1,"2013/08/20 10:30:00",6764.46,63.07,TRADE
VIC1,"2013/08/20 11:00:00",6650.34,64.51,TRADE
VIC1,"2013/08/20 11:30:00",6571.24,62.8,TRADE
VIC1,"2013/08/20 12:00:00",6584.8,63.08,TRADE
VIC1,"2013/08/20 12:30:00",6512.65,62.33,TRADE
VIC1,"2013/08/20 13:00:00",6540.31,62.95,TRADE
VIC1,"2013/08/20 13:30:00",6561.46,86.02,TRADE
VIC1,"2013/08/20 14:00:00",6610.82,91.01,TRADE
VIC1,"2013/08/20 14:30:00",6519.1,61.61,TRADE
VIC1,"2013/08/20 15:00:00",6467.84,62.84,TRADE
VIC1,"2013/08/20 15:30:00",6465.17,61.71,TRADE
VIC1,"2013/08/20 16:00:00",6510.62,60.55,TRADE
VIC1,"2013/08/20 16:30:00",6622.4,64.01,TRADE
VIC1,"2013/08/20 17:00:00",6719.98,70.96,TRADE
VIC1,"2013/08/20 17:30:00",7005.13,77.79,TRADE
VIC1,"2013/08/20 18:00:00",7265.13,127.78,TRADE
VIC1,"2013/08/20 18:30:00",7489.25,117.92,TRADE
VIC1,"2013/08/20 19:00:00",7439.75,151.99,TRADE
VIC1,"2013/08/20 19:30:00",7261.64,68.66,TRADE
VIC1,"2013/08/20 20:00:00",7082.7,71.4,TRADE
VIC1,"2013/08/20 20:30:00",6913.07,115.52,TRADE
VIC1,"2013/08/20 21:00:00",6803.7,88.11,TRADE
VIC1,"2013/08/20 21:30:00",6552.36,64.91,TRADE
VIC1,"2013/08/20 22:00:00",6319.13,61.28,TRADE
VIC1,"2013/08/20 22:30:00",5965.12,70.35,TRADE
VIC1,"2013/08/20 23:00:00",5838.52,68.47,TRADE
VIC1,"2013/08/20 23:30:00",6015.39,84.74,TRADE
VIC1,"2013/08/21 00:00:00",6022.9,99.8,TRADE
VIC1,"2013/08/21 00:30:00",5698.45,71.34,TRADE
VIC1,"2013/08/21 01:00:00",5484.34,62.6,TRADE
VIC1,"2013/08/21 01:30:00",5338.4,60.6,TRADE
VIC1,"2013/08/21 02:00:00",5178.5,58.97,TRADE
VIC1,"2013/08/21 02:30:00",5009.11,55.18,TRADE
VIC1,"2013/08/21 03:00:00",4862.57,55.37,TRADE
VIC1,"2013/08/21 03:30:00",4769.93,54.98,TRADE
VIC1,"2013/08/21 04:00:00",4667.91,55.69,TRADE
VIC1,"2013/08/21 04:30:00",4656.07,54.99,TRADE
VIC1,"2013/08/21 05:00:00",4749.81,55.46,TRADE
VIC1,"2013/08/21 05:30:00",4908.4,57.79,TRADE
VIC1,"2013/08/21 06:00:00",5174.17,55.85,TRADE
VIC1,"2013/08/21 06:30:00",5731.1,66.71,TRADE
VIC1,"2013/08/21 07:00:00",6279.77,81.38,TRADE
VIC1,"2013/08/21 07:30:00",6532.39,65.46,TRADE
VIC1,"2013/08/21 08:00:00",6868.77,73.8,TRADE
VIC1,"2013/08/21 08:30:00",6975.31,72.94,TRADE
VIC1,"2013/08/21 09:00:00",6811.6,71.34,TRADE
VIC1,"2013/08/21 09:30:00",6819.7,64.01,TRADE
VIC1,"2013/08/21 10:00:00",6613.37,62.57,TRADE
VIC1,"2013/08/21 10:30:00",6425.06,62.79,TRADE
VIC1,"2013/08/21 11:00:00",6322.91,64.55,TRADE
VIC1,"2013/08/21 11:30:00",6275.48,62.08,TRADE
VIC1,"2013/08/21 12:00:00",6287.77,62.54,TRADE
VIC1,"2013/08/21 12:30:00",6247.46,62.09,TRADE
VIC1,"2013/08/21 13:00:00",6235.98,61.91,TRADE
VIC1,"2013/08/21 13:30:00",6302.51,62.81,TRADE
VIC1,"2013/08/21 14:00:00",6289.17,63.48,TRADE
VIC1,"2013/08/21 14:30:00",6302.19,63.25,TRADE
VIC1,"2013/08/21 15:00:00",6226.5,61.44,TRADE
VIC1,"2013/08/21 15:30:00",6152.12,61.91,TRADE
VIC1,"2013/08/21 16:00:00",6118.52,62,TRADE
VIC1,"2013/08/21 16:30:00",6280.81,62.1,TRADE
VIC1,"2013/08/21 17:00:00",6458.75,63.13,TRADE
VIC1,"2013/08/21 17:30:00",6630.53,55.88,TRADE
VIC1,"2013/08/21 18:00:00",6928.9,70.68,TRADE
VIC1,"2013/08/21 18:30:00",7096.9,70.09,TRADE
VIC1,"2013/08/21 19:00:00",7047.32,64.23,TRADE
VIC1,"2013/08/21 19:30:00",6891.69,59.58,TRADE
VIC1,"2013/08/21 20:00:00",6769.81,57.17,TRADE
VIC1,"2013/08/21 20:30:00",6631.07,58.8,TRADE
VIC1,"2013/08/21 21:00:00",6474.81,60.66,TRADE
VIC1,"2013/08/21 21:30:00",6174.14,58.36,TRADE
VIC1,"2013/08/21 22:00:00",5922.85,55.79,TRADE
VIC1,"2013/08/21 22:30:00",5700.75,57.76,TRADE
VIC1,"2013/08/21 23:00:00",5550.89,55.09,TRADE
VIC1,"2013/08/21 23:30:00",5805.05,55.71,TRADE
VIC1,"2013/08/22 00:00:00",5827.33,56.32,TRADE
VIC1,"2013/08/22 00:30:00",5533.09,55.13,TRADE
VIC1,"2013/08/22 01:00:00",5196.39,53.92,TRADE
VIC1,"2013/08/22 01:30:00",5075.4,51.36,TRADE
VIC1,"2013/08/22 02:00:00",4946.26,49.47,TRADE
VIC1,"2013/08/22 02:30:00",4800.41,48.95,TRADE
VIC1,"2013/08/22 03:00:00",4655.84,47.3,TRADE
VIC1,"2013/08/22 03:30:00",4561.32,47.06,TRADE
VIC1,"2013/08/22 04:00:00",4446.36,44.61,TRADE
VIC1,"2013/08/22 04:30:00",4463.72,45.47,TRADE
VIC1,"2013/08/22 05:00:00",4494.61,47.4,TRADE
VIC1,"2013/08/22 05:30:00",4697.63,50.35,TRADE
VIC1,"2013/08/22 06:00:00",4922.57,50.1,TRADE
VIC1,"2013/08/22 06:30:00",5466.39,55.44,TRADE
VIC1,"2013/08/22 07:00:00",6023.99,65.84,TRADE
VIC1,"2013/08/22 07:30:00",6314.54,60.21,TRADE
VIC1,"2013/08/22 08:00:00",6663.5,62.89,TRADE
VIC1,"2013/08/22 08:30:00",6784.14,63.12,TRADE
VIC1,"2013/08/22 09:00:00",6710.53,63.9,TRADE
VIC1,"2013/08/22 09:30:00",6703.39,63.09,TRADE
VIC1,"2013/08/22 10:00:00",6556.95,60.6,TRADE
VIC1,"2013/08/22 10:30:00",6396.7,57.46,TRADE
VIC1,"2013/08/22 11:00:00",6294.32,57.88,TRADE
VIC1,"2013/08/22 11:30:00",6241.31,56.29,TRADE
VIC1,"2013/08/22 12:00:00",6206.73,57.21,TRADE
VIC1,"2013/08/22 12:30:00",6196.44,55.46,TRADE
VIC1,"2013/08/22 13:00:00",6160.27,55.28,TRADE
VIC1,"2013/08/22 13:30:00",6224.27,55.22,TRADE
VIC1,"2013/08/22 14:00:00",6260.05,56.37,TRADE
VIC1,"2013/08/22 14:30:00",6211.22,56.52,TRADE
VIC1,"2013/08/22 15:00:00",6164.16,56.64,TRADE
VIC1,"2013/08/22 15:30:00",6112.31,55.91,TRADE
VIC1,"2013/08/22 16:00:00",6201.84,57.52,TRADE
VIC1,"2013/08/22 16:30:00",6381.83,58.74,TRADE
VIC1,"2013/08/22 17:00:00",6606.91,59.36,TRADE
VIC1,"2013/08/22 17:30:00",6810.08,55.07,TRADE
VIC1,"2013/08/22 18:00:00",7061.41,60.64,TRADE
VIC1,"2013/08/22 18:30:00",7146.28,63.94,TRADE
VIC1,"2013/08/22 19:00:00",7047.44,62.58,TRADE
VIC1,"2013/08/22 19:30:00",6807.07,58.11,TRADE
VIC1,"2013/08/22 20:00:00",6670.25,59.37,TRADE
VIC1,"2013/08/22 20:30:00",6552.45,62.32,TRADE
VIC1,"2013/08/22 21:00:00",6403.55,59.24,TRADE
VIC1,"2013/08/22 21:30:00",6182.73,58.86,TRADE
VIC1,"2013/08/22 22:00:00",5881.03,54.96,TRADE
VIC1,"2013/08/22 22:30:00",5679.03,55.1,TRADE
VIC1,"2013/08/22 23:00:00",5523.48,55.26,TRADE
VIC1,"2013/08/22 23:30:00",5684.65,57.33,TRADE
VIC1,"2013/08/23 00:00:00",5668.52,59.22,TRADE
VIC1,"2013/08/23 00:30:00",5368.18,55.43,TRADE
VIC1,"2013/08/23 01:00:00",5101.68,53.57,TRADE
VIC1,"2013/08/23 01:30:00",4965,50.4,TRADE
VIC1,"2013/08/23 02:00:00",4805.92,46.65,TRADE
VIC1,"2013/08/23 02:30:00",4604.03,44.47,TRADE
VIC1,"2013/08/23 03:00:00",4453.66,43.74,TRADE
VIC1,"2013/08/23 03:30:00",4352.59,43.69,TRADE
VIC1,"2013/08/23 04:00:00",4297.7,41.59,TRADE
VIC1,"2013/08/23 04:30:00",4317.89,41.85,TRADE
VIC1,"2013/08/23 05:00:00",4357.42,43.26,TRADE
VIC1,"2013/08/23 05:30:00",4549.71,45.9,TRADE
VIC1,"2013/08/23 06:00:00",4795.05,45.89,TRADE
VIC1,"2013/08/23 06:30:00",5286.08,50.56,TRADE
VIC1,"2013/08/23 07:00:00",5735.81,54.31,TRADE
VIC1,"2013/08/23 07:30:00",6101.19,57.89,TRADE
VIC1,"2013/08/23 08:00:00",6461.89,59.03,TRADE
VIC1,"2013/08/23 08:30:00",6641.46,58.55,TRADE
VIC1,"2013/08/23 09:00:00",6633.8,60.22,TRADE
VIC1,"2013/08/23 09:30:00",6726.77,62.8,TRADE
VIC1,"2013/08/23 10:00:00",6695.59,61.61,TRADE
VIC1,"2013/08/23 10:30:00",6650.93,60.72,TRADE
VIC1,"2013/08/23 11:00:00",6612.17,60.3,TRADE
VIC1,"2013/08/23 11:30:00",6608.28,59.23,TRADE
VIC1,"2013/08/23 12:00:00",6529.01,58.69,TRADE
VIC1,"2013/08/23 12:30:00",6495.09,59.51,TRADE
VIC1,"2013/08/23 13:00:00",6391.43,59.42,TRADE
VIC1,"2013/08/23 13:30:00",6405.23,60.39,TRADE
VIC1,"2013/08/23 14:00:00",6404.44,59.57,TRADE
VIC1,"2013/08/23 14:30:00",6417.55,59.64,TRADE
VIC1,"2013/08/23 15:00:00",6317.6,55.72,TRADE
VIC1,"2013/08/23 15:30:00",6228.33,55.2,TRADE
VIC1,"2013/08/23 16:00:00",6232.65,55.64,TRADE
VIC1,"2013/08/23 16:30:00",6288.6,56.63,TRADE
VIC1,"2013/08/23 17:00:00",6372.07,59.07,TRADE
VIC1,"2013/08/23 17:30:00",6453.29,54.93,TRADE
VIC1,"2013/08/23 18:00:00",6608.23,59.38,TRADE
VIC1,"2013/08/23 18:30:00",6733.51,60.68,TRADE
VIC1,"2013/08/23 19:00:00",6689.01,60.88,TRADE
VIC1,"2013/08/23 19:30:00",6536.45,56.29,TRADE
VIC1,"2013/08/23 20:00:00",6382.53,59.51,TRADE
VIC1,"2013/08/23 20:30:00",6213.76,63.18,TRADE
VIC1,"2013/08/23 21:00:00",6068.26,64.73,TRADE
VIC1,"2013/08/23 21:30:00",5929.74,61.3,TRADE
VIC1,"2013/08/23 22:00:00",5719.42,61.05,TRADE
VIC1,"2013/08/23 22:30:00",5601.73,72.74,TRADE
VIC1,"2013/08/23 23:00:00",5490.18,62.57,TRADE
VIC1,"2013/08/23 23:30:00",5751.21,64.89,TRADE
VIC1,"2013/08/24 00:00:00",5784.72,92.77,TRADE
VIC1,"2013/08/24 00:30:00",5476.58,61.64,TRADE
VIC1,"2013/08/24 01:00:00",5203.86,59.47,TRADE
VIC1,"2013/08/24 01:30:00",5045.31,60.2,TRADE
VIC1,"2013/08/24 02:00:00",4824.69,57.97,TRADE
VIC1,"2013/08/24 02:30:00",4656.2,54.5,TRADE
VIC1,"2013/08/24 03:00:00",4535.05,54,TRADE
VIC1,"2013/08/24 03:30:00",4422.43,51.31,TRADE
VIC1,"2013/08/24 04:00:00",4345.5,49.57,TRADE
VIC1,"2013/08/24 04:30:00",4302.16,48.72,TRADE
VIC1,"2013/08/24 05:00:00",4282.34,49.35,TRADE
VIC1,"2013/08/24 05:30:00",4305.45,50.29,TRADE
VIC1,"2013/08/24 06:00:00",4384.54,49.93,TRADE
VIC1,"2013/08/24 06:30:00",4539.2,52.99,TRADE
VIC1,"2013/08/24 07:00:00",4764.01,55.47,TRADE
VIC1,"2013/08/24 07:30:00",4871.39,56.19,TRADE
VIC1,"2013/08/24 08:00:00",5062.33,57.59,TRADE
VIC1,"2013/08/24 08:30:00",5315.11,58.18,TRADE
VIC1,"2013/08/24 09:00:00",5432.59,58.49,TRADE
VIC1,"2013/08/24 09:30:00",5531.36,60.68,TRADE
VIC1,"2013/08/24 10:00:00",5571.38,60.87,TRADE
VIC1,"2013/08/24 10:30:00",5574.81,60.35,TRADE
VIC1,"2013/08/24 11:00:00",5569.72,60.36,TRADE
VIC1,"2013/08/24 11:30:00",5530.49,59.15,TRADE
VIC1,"2013/08/24 12:00:00",5465.06,56.59,TRADE
VIC1,"2013/08/24 12:30:00",5426.98,55.21,TRADE
VIC1,"2013/08/24 13:00:00",5345.82,54.96,TRADE
VIC1,"2013/08/24 13:30:00",5347.63,55.16,TRADE
VIC1,"2013/08/24 14:00:00",5319.96,54.81,TRADE
VIC1,"2013/08/24 14:30:00",5314.4,54.52,TRADE
VIC1,"2013/08/24 15:00:00",5302.53,54.52,TRADE
VIC1,"2013/08/24 15:30:00",5277.62,54.91,TRADE
VIC1,"2013/08/24 16:00:00",5315.69,55.17,TRADE
VIC1,"2013/08/24 16:30:00",5410.52,55.23,TRADE
VIC1,"2013/08/24 17:00:00",5490.47,56.08,TRADE
VIC1,"2013/08/24 17:30:00",5629.46,53.83,TRADE
VIC1,"2013/08/24 18:00:00",5884.09,60.46,TRADE
VIC1,"2013/08/24 18:30:00",6050.03,61.79,TRADE
VIC1,"2013/08/24 19:00:00",6081.85,60.56,TRADE
VIC1,"2013/08/24 19:30:00",5987.82,56.05,TRADE
VIC1,"2013/08/24 20:00:00",5863.17,56.8,TRADE
VIC1,"2013/08/24 20:30:00",5746.58,58,TRADE
VIC1,"2013/08/24 21:00:00",5600.98,55.85,TRADE
VIC1,"2013/08/24 21:30:00",5451.48,53.92,TRADE
VIC1,"2013/08/24 22:00:00",5330.66,53.27,TRADE
VIC1,"2013/08/24 22:30:00",5290.34,54.38,TRADE
VIC1,"2013/08/24 23:00:00",5271.56,54.62,TRADE
VIC1,"2013/08/24 23:30:00",5553.01,55.23,TRADE
VIC1,"2013/08/25 00:00:00",5591.01,56.39,TRADE
VIC1,"2013/08/25 00:30:00",5317.82,55.05,TRADE
VIC1,"2013/08/25 01:00:00",5018.3,53.78,TRADE
VIC1,"2013/08/25 01:30:00",4871.24,49.54,TRADE
VIC1,"2013/08/25 02:00:00",4719.52,47.98,TRADE
VIC1,"2013/08/25 02:30:00",4478.54,44.46,TRADE
VIC1,"2013/08/25 03:00:00",4318.99,43.48,TRADE
VIC1,"2013/08/25 03:30:00",4214.97,43.03,TRADE
VIC1,"2013/08/25 04:00:00",4136.53,42.9,TRADE
VIC1,"2013/08/25 04:30:00",4115.06,40.61,TRADE
VIC1,"2013/08/25 05:00:00",4090.57,41.43,TRADE
VIC1,"2013/08/25 05:30:00",4084.26,39.69,TRADE
VIC1,"2013/08/25 06:00:00",4145.12,41.82,TRADE
VIC1,"2013/08/25 06:30:00",4256.77,43.29,TRADE
VIC1,"2013/08/25 07:00:00",4407.55,43.85,TRADE
VIC1,"2013/08/25 07:30:00",4362.43,44.01,TRADE
VIC1,"2013/08/25 08:00:00",4550.56,46.22,TRADE
VIC1,"2013/08/25 08:30:00",4719.65,47.29,TRADE
VIC1,"2013/08/25 09:00:00",4801.5,49.28,TRADE
VIC1,"2013/08/25 09:30:00",4841.2,49.19,TRADE
VIC1,"2013/08/25 10:00:00",4856.08,48.77,TRADE
VIC1,"2013/08/25 10:30:00",4940.87,51.61,TRADE
VIC1,"2013/08/25 11:00:00",4974.85,49.68,TRADE
VIC1,"2013/08/25 11:30:00",4972.19,49.52,TRADE
VIC1,"2013/08/25 12:00:00",4956.68,48.85,TRADE
VIC1,"2013/08/25 12:30:00",4934.37,48.4,TRADE
VIC1,"2013/08/25 13:00:00",4926.11,47.74,TRADE
VIC1,"2013/08/25 13:30:00",4946.94,47.7,TRADE
VIC1,"2013/08/25 14:00:00",4938.77,48.03,TRADE
VIC1,"2013/08/25 14:30:00",4917.74,47.78,TRADE
VIC1,"2013/08/25 15:00:00",4894.77,48.04,TRADE
VIC1,"2013/08/25 15:30:00",4922.79,47.99,TRADE
VIC1,"2013/08/25 16:00:00",5018.18,48.35,TRADE
VIC1,"2013/08/25 16:30:00",5143.2,49.06,TRADE
VIC1,"2013/08/25 17:00:00",5284.73,53.12,TRADE
VIC1,"2013/08/25 17:30:00",5537.99,53.61,TRADE
VIC1,"2013/08/25 18:00:00",5860.69,57.89,TRADE
VIC1,"2013/08/25 18:30:00",6142.03,62.06,TRADE
VIC1,"2013/08/25 19:00:00",6178.89,63.36,TRADE
VIC1,"2013/08/25 19:30:00",6074.27,56.81,TRADE
VIC1,"2013/08/25 20:00:00",5966.98,56.97,TRADE
VIC1,"2013/08/25 20:30:00",5838.43,59.41,TRADE
VIC1,"2013/08/25 21:00:00",5730.21,56.84,TRADE
VIC1,"2013/08/25 21:30:00",5556.72,55.42,TRADE
VIC1,"2013/08/25 22:00:00",5347.14,54.55,TRADE
VIC1,"2013/08/25 22:30:00",5184.95,55.18,TRADE
VIC1,"2013/08/25 23:00:00",5195.02,55.51,TRADE
VIC1,"2013/08/25 23:30:00",5435.24,55.15,TRADE
VIC1,"2013/08/26 00:00:00",5456.17,56.51,TRADE
VIC1,"2013/08/26 00:30:00",5157.07,54.9,TRADE
VIC1,"2013/08/26 01:00:00",4885.58,53.66,TRADE
VIC1,"2013/08/26 01:30:00",4763,52.72,TRADE
VIC1,"2013/08/26 02:00:00",4652.52,50.87,TRADE
VIC1,"2013/08/26 02:30:00",4526.89,46.2,TRADE
VIC1,"2013/08/26 03:00:00",4435.85,47.13,TRADE
VIC1,"2013/08/26 03:30:00",4367.23,45.65,TRADE
VIC1,"2013/08/26 04:00:00",4318.71,44.84,TRADE
VIC1,"2013/08/26 04:30:00",4337.72,46.07,TRADE
VIC1,"2013/08/26 05:00:00",4411.92,48.4,TRADE
VIC1,"2013/08/26 05:30:00",4539.9,51.18,TRADE
VIC1,"2013/08/26 06:00:00",4809.6,49.25,TRADE
VIC1,"2013/08/26 06:30:00",5284.84,53.3,TRADE
VIC1,"2013/08/26 07:00:00",5806.36,56.75,TRADE
VIC1,"2013/08/26 07:30:00",6058.32,56.68,TRADE
VIC1,"2013/08/26 08:00:00",6310.73,62.53,TRADE
VIC1,"2013/08/26 08:30:00",6358.63,57.37,TRADE
VIC1,"2013/08/26 09:00:00",6236.61,57.18,TRADE
VIC1,"2013/08/26 09:30:00",6230.79,56.24,TRADE
VIC1,"2013/08/26 10:00:00",6023.82,55.75,TRADE
VIC1,"2013/08/26 10:30:00",5942.05,55.76,TRADE
VIC1,"2013/08/26 11:00:00",5961.82,55.99,TRADE
VIC1,"2013/08/26 11:30:00",5962.83,55.22,TRADE
VIC1,"2013/08/26 12:00:00",5979.36,55.29,TRADE
VIC1,"2013/08/26 12:30:00",6043.99,56.03,TRADE
VIC1,"2013/08/26 13:00:00",6062.05,58.03,TRADE
VIC1,"2013/08/26 13:30:00",6079.75,58.88,TRADE
VIC1,"2013/08/26 14:00:00",6079.3,59.26,TRADE
VIC1,"2013/08/26 14:30:00",6046.57,58.2,TRADE
VIC1,"2013/08/26 15:00:00",6045.84,57.7,TRADE
VIC1,"2013/08/26 15:30:00",5968.6,56.69,TRADE
VIC1,"2013/08/26 16:00:00",6015.9,56.51,TRADE
VIC1,"2013/08/26 16:30:00",6102.1,54.7,TRADE
VIC1,"2013/08/26 17:00:00",6260.97,56.31,TRADE
VIC1,"2013/08/26 17:30:00",6413.02,58.35,TRADE
VIC1,"2013/08/26 18:00:00",6639.28,70.1,TRADE
VIC1,"2013/08/26 18:30:00",6865.05,73.43,TRADE
VIC1,"2013/08/26 19:00:00",6815.31,67.36,TRADE
VIC1,"2013/08/26 19:30:00",6657.83,66.05,TRADE
VIC1,"2013/08/26 20:00:00",6515.16,60.97,TRADE
VIC1,"2013/08/26 20:30:00",6385.36,63.4,TRADE
VIC1,"2013/08/26 21:00:00",6272.88,60.27,TRADE
VIC1,"2013/08/26 21:30:00",6030.8,55.29,TRADE
VIC1,"2013/08/26 22:00:00",5784.5,55.12,TRADE
VIC1,"2013/08/26 22:30:00",5638.82,57.24,TRADE
VIC1,"2013/08/26 23:00:00",5568.91,55.8,TRADE
VIC1,"2013/08/26 23:30:00",5836.57,56.78,TRADE
VIC1,"2013/08/27 00:00:00",5877.61,59.34,TRADE
VIC1,"2013/08/27 00:30:00",5531.58,56.08,TRADE
VIC1,"2013/08/27 01:00:00",5275.43,54.77,TRADE
VIC1,"2013/08/27 01:30:00",5098.51,52.62,TRADE
VIC1,"2013/08/27 02:00:00",4921.47,48.85,TRADE
VIC1,"2013/08/27 02:30:00",4800.4,47.22,TRADE
VIC1,"2013/08/27 03:00:00",4675.11,46.35,TRADE
VIC1,"2013/08/27 03:30:00",4571.61,45.55,TRADE
VIC1,"2013/08/27 04:00:00",4515.14,45.4,TRADE
VIC1,"2013/08/27 04:30:00",4532.62,45.04,TRADE
VIC1,"2013/08/27 05:00:00",4601.02,46.2,TRADE
VIC1,"2013/08/27 05:30:00",4801.99,48.46,TRADE
VIC1,"2013/08/27 06:00:00",4996.4,48.09,TRADE
VIC1,"2013/08/27 06:30:00",5482.84,49.9,TRADE
VIC1,"2013/08/27 07:00:00",5959.14,55.66,TRADE
VIC1,"2013/08/27 07:30:00",6134.06,53.75,TRADE
VIC1,"2013/08/27 08:00:00",6373.65,55.29,TRADE
VIC1,"2013/08/27 08:30:00",6387.26,54.93,TRADE
VIC1,"2013/08/27 09:00:00",6237.86,53.64,TRADE
VIC1,"2013/08/27 09:30:00",6190.88,52.79,TRADE
VIC1,"2013/08/27 10:00:00",6123.46,52.71,TRADE
VIC1,"2013/08/27 10:30:00",6095.03,53.69,TRADE
VIC1,"2013/08/27 11:00:00",6039.03,52.7,TRADE
VIC1,"2013/08/27 11:30:00",6030.41,51.7,TRADE
VIC1,"2013/08/27 12:00:00",6045.92,51.7,TRADE
VIC1,"2013/08/27 12:30:00",6019.91,51.7,TRADE
VIC1,"2013/08/27 13:00:00",5979.09,50.06,TRADE
VIC1,"2013/08/27 13:30:00",5985.64,52.93,TRADE
VIC1,"2013/08/27 14:00:00",5939.05,53.79,TRADE
VIC1,"2013/08/27 14:30:00",5960.57,53.98,TRADE
VIC1,"2013/08/27 15:00:00",5911.27,53.22,TRADE
VIC1,"2013/08/27 15:30:00",5926.58,54.28,TRADE
VIC1,"2013/08/27 16:00:00",5970.44,54.9,TRADE
VIC1,"2013/08/27 16:30:00",6050.94,56.53,TRADE
VIC1,"2013/08/27 17:00:00",6119.6,54.97,TRADE
VIC1,"2013/08/27 17:30:00",6246.72,54.25,TRADE
VIC1,"2013/08/27 18:00:00",6388.74,58.16,TRADE
VIC1,"2013/08/27 18:30:00",6632.01,61.97,TRADE
VIC1,"2013/08/27 19:00:00",6656.28,58.74,TRADE
VIC1,"2013/08/27 19:30:00",6508.05,55.91,TRADE
VIC1,"2013/08/27 20:00:00",6339.6,54.24,TRADE
VIC1,"2013/08/27 20:30:00",6222.04,54.26,TRADE
VIC1,"2013/08/27 21:00:00",6087.47,54.69,TRADE
VIC1,"2013/08/27 21:30:00",5831.32,53.73,TRADE
VIC1,"2013/08/27 22:00:00",5634.27,51.26,TRADE
VIC1,"2013/08/27 22:30:00",5442.58,55.42,TRADE
VIC1,"2013/08/27 23:00:00",5346.2,55.38,TRADE
VIC1,"2013/08/27 23:30:00",5612.34,63.91,TRADE
VIC1,"2013/08/28 00:00:00",5687.56,64.5,TRADE
VIC1,"2013/08/28 00:30:00",5316.81,57.38,TRADE
VIC1,"2013/08/28 01:00:00",4998.31,54.3,TRADE
VIC1,"2013/08/28 01:30:00",4900.22,53.83,TRADE
VIC1,"2013/08/28 02:00:00",4738.45,54.3,TRADE
VIC1,"2013/08/28 02:30:00",4547.35,52.07,TRADE
VIC1,"2013/08/28 03:00:00",4389.24,49.31,TRADE
VIC1,"2013/08/28 03:30:00",4366.36,49.1,TRADE
VIC1,"2013/08/28 04:00:00",4301.31,47.76,TRADE
VIC1,"2013/08/28 04:30:00",4271.53,46.61,TRADE
VIC1,"2013/08/28 05:00:00",4326.74,46.69,TRADE
VIC1,"2013/08/28 05:30:00",4508.54,48.75,TRADE
VIC1,"2013/08/28 06:00:00",4726.46,47.37,TRADE
VIC1,"2013/08/28 06:30:00",5197.42,51.5,TRADE
VIC1,"2013/08/28 07:00:00",5682.71,51.38,TRADE
VIC1,"2013/08/28 07:30:00",5900.64,53.99,TRADE
VIC1,"2013/08/28 08:00:00",6127.33,55.22,TRADE
VIC1,"2013/08/28 08:30:00",6224.56,55.6,TRADE
VIC1,"2013/08/28 09:00:00",6124.47,54.23,TRADE
VIC1,"2013/08/28 09:30:00",6105.14,53.53,TRADE
VIC1,"2013/08/28 10:00:00",6028.63,53.21,TRADE
VIC1,"2013/08/28 10:30:00",6008.99,54.43,TRADE
VIC1,"2013/08/28 11:00:00",5957.08,54.29,TRADE
VIC1,"2013/08/28 11:30:00",5914.65,53.8,TRADE
VIC1,"2013/08/28 12:00:00",5869.45,53.7,TRADE
VIC1,"2013/08/28 12:30:00",5796.54,53.65,TRADE
VIC1,"2013/08/28 13:00:00",5756.41,53.79,TRADE
VIC1,"2013/08/28 13:30:00",5760.26,53.64,TRADE
VIC1,"2013/08/28 14:00:00",5775.38,52.82,TRADE
VIC1,"2013/08/28 14:30:00",5720.66,52.04,TRADE
VIC1,"2013/08/28 15:00:00",5660.09,50.3,TRADE
VIC1,"2013/08/28 15:30:00",5644.66,50.75,TRADE
VIC1,"2013/08/28 16:00:00",5700.38,52.61,TRADE
VIC1,"2013/08/28 16:30:00",5803.32,52.73,TRADE
VIC1,"2013/08/28 17:00:00",5874.84,51.32,TRADE
VIC1,"2013/08/28 17:30:00",5940.51,52.11,TRADE
VIC1,"2013/08/28 18:00:00",6102.48,52.55,TRADE
VIC1,"2013/08/28 18:30:00",6245.29,54.35,TRADE
VIC1,"2013/08/28 19:00:00",6322.23,52.79,TRADE
VIC1,"2013/08/28 19:30:00",6177.64,49.44,TRADE
VIC1,"2013/08/28 20:00:00",6060.47,49.45,TRADE
VIC1,"2013/08/28 20:30:00",5936.32,53.71,TRADE
VIC1,"2013/08/28 21:00:00",5783.82,54.99,TRADE
VIC1,"2013/08/28 21:30:00",5613.07,55.61,TRADE
VIC1,"2013/08/28 22:00:00",5402.67,52.73,TRADE
VIC1,"2013/08/28 22:30:00",5261.05,55.54,TRADE
VIC1,"2013/08/28 23:00:00",5167.5,55.37,TRADE
VIC1,"2013/08/28 23:30:00",5474.5,58.26,TRADE
VIC1,"2013/08/29 00:00:00",5523.86,59.68,TRADE
VIC1,"2013/08/29 00:30:00",5203.83,57.19,TRADE
VIC1,"2013/08/29 01:00:00",4887.57,54.39,TRADE
VIC1,"2013/08/29 01:30:00",4777.84,51.78,TRADE
VIC1,"2013/08/29 02:00:00",4598.03,49.2,TRADE
VIC1,"2013/08/29 02:30:00",4434.17,47.29,TRADE
VIC1,"2013/08/29 03:00:00",4338.29,46.64,TRADE
VIC1,"2013/08/29 03:30:00",4214.85,46.53,TRADE
VIC1,"2013/08/29 04:00:00",4117.78,44.93,TRADE
VIC1,"2013/08/29 04:30:00",4159.24,46.71,TRADE
VIC1,"2013/08/29 05:00:00",4225.01,46.98,TRADE
VIC1,"2013/08/29 05:30:00",4331.27,48.86,TRADE
VIC1,"2013/08/29 06:00:00",4532.13,49.5,TRADE
VIC1,"2013/08/29 06:30:00",4985.09,50.86,TRADE
VIC1,"2013/08/29 07:00:00",5441.9,56.09,TRADE
VIC1,"2013/08/29 07:30:00",5692.23,54.13,TRADE
VIC1,"2013/08/29 08:00:00",5960.93,57.68,TRADE
VIC1,"2013/08/29 08:30:00",6126.79,61.61,TRADE
VIC1,"2013/08/29 09:00:00",6056.48,62.63,TRADE
VIC1,"2013/08/29 09:30:00",6024.86,64.65,TRADE
VIC1,"2013/08/29 10:00:00",5990.37,62.11,TRADE
VIC1,"2013/08/29 10:30:00",5928.66,59.47,TRADE
VIC1,"2013/08/29 11:00:00",5937.45,59.49,TRADE
VIC1,"2013/08/29 11:30:00",5919.17,58.18,TRADE
VIC1,"2013/08/29 12:00:00",5870.13,56.27,TRADE
VIC1,"2013/08/29 12:30:00",5851.59,54.99,TRADE
VIC1,"2013/08/29 13:00:00",5831.57,54.98,TRADE
VIC1,"2013/08/29 13:30:00",5858.44,54.91,TRADE
VIC1,"2013/08/29 14:00:00",5845.95,55.16,TRADE
VIC1,"2013/08/29 14:30:00",5760.96,55.01,TRADE
VIC1,"2013/08/29 15:00:00",5732.91,55.12,TRADE
VIC1,"2013/08/29 15:30:00",5724.74,55.24,TRADE
VIC1,"2013/08/29 16:00:00",5789.82,55.4,TRADE
VIC1,"2013/08/29 16:30:00",5839.53,55.2,TRADE
VIC1,"2013/08/29 17:00:00",5855.17,54.34,TRADE
VIC1,"2013/08/29 17:30:00",5994.04,52.99,TRADE
VIC1,"2013/08/29 18:00:00",6201.55,60.67,TRADE
VIC1,"2013/08/29 18:30:00",6281.3,61.97,TRADE
VIC1,"2013/08/29 19:00:00",6265.44,58.52,TRADE
VIC1,"2013/08/29 19:30:00",6089.25,54.41,TRADE
VIC1,"2013/08/29 20:00:00",5945.63,51.94,TRADE
VIC1,"2013/08/29 20:30:00",5848.4,52.25,TRADE
VIC1,"2013/08/29 21:00:00",5725.01,54.85,TRADE
VIC1,"2013/08/29 21:30:00",5471.4,53.79,TRADE
VIC1,"2013/08/29 22:00:00",5266.62,51.7,TRADE
VIC1,"2013/08/29 22:30:00",5124.07,55.06,TRADE
VIC1,"2013/08/29 23:00:00",5063.79,54.61,TRADE
VIC1,"2013/08/29 23:30:00",5294.77,55.96,TRADE
VIC1,"2013/08/30 00:00:00",5329.03,54.83,TRADE
VIC1,"2013/08/30 00:30:00",4996.51,52.5,TRADE
VIC1,"2013/08/30 01:00:00",4732.38,51.23,TRADE
VIC1,"2013/08/30 01:30:00",4594.33,47.09,TRADE
VIC1,"2013/08/30 02:00:00",4434.79,44.75,TRADE
VIC1,"2013/08/30 02:30:00",4230.59,42.85,TRADE
VIC1,"2013/08/30 03:00:00",4116.44,42.85,TRADE
VIC1,"2013/08/30 03:30:00",4041.52,40.02,TRADE
VIC1,"2013/08/30 04:00:00",3998.64,38.2,TRADE
VIC1,"2013/08/30 04:30:00",3987.87,38.48,TRADE
VIC1,"2013/08/30 05:00:00",4033.85,41.83,TRADE
VIC1,"2013/08/30 05:30:00",4210.79,45.32,TRADE
VIC1,"2013/08/30 06:00:00",4423.53,46.16,TRADE
VIC1,"2013/08/30 06:30:00",4895.75,46.8,TRADE
VIC1,"2013/08/30 07:00:00",5343.64,50.74,TRADE
VIC1,"2013/08/30 07:30:00",5508.85,50.57,TRADE
VIC1,"2013/08/30 08:00:00",5824,55.12,TRADE
VIC1,"2013/08/30 08:30:00",5947.65,55.45,TRADE
VIC1,"2013/08/30 09:00:00",5950.01,53.72,TRADE
VIC1,"2013/08/30 09:30:00",5873.65,52.68,TRADE
VIC1,"2013/08/30 10:00:00",5780.61,52.98,TRADE
VIC1,"2013/08/30 10:30:00",5748.57,53.62,TRADE
VIC1,"2013/08/30 11:00:00",5707.34,53.57,TRADE
VIC1,"2013/08/30 11:30:00",5679.03,52.12,TRADE
VIC1,"2013/08/30 12:00:00",5698.31,51.42,TRADE
VIC1,"2013/08/30 12:30:00",5669.41,52.89,TRADE
VIC1,"2013/08/30 13:00:00",5644.25,48.68,TRADE
VIC1,"2013/08/30 13:30:00",5670.1,48.85,TRADE
VIC1,"2013/08/30 14:00:00",5652.01,52.12,TRADE
VIC1,"2013/08/30 14:30:00",5588.06,51.33,TRADE
VIC1,"2013/08/30 15:00:00",5573.35,52.01,TRADE
VIC1,"2013/08/30 15:30:00",5536.23,53.06,TRADE
VIC1,"2013/08/30 16:00:00",5518.95,53.26,TRADE
VIC1,"2013/08/30 16:30:00",5562.84,53.66,TRADE
VIC1,"2013/08/30 17:00:00",5662.86,49.17,TRADE
VIC1,"2013/08/30 17:30:00",5712.8,48.99,TRADE
VIC1,"2013/08/30 18:00:00",5900.71,52.98,TRADE
VIC1,"2013/08/30 18:30:00",6103.28,54.25,TRADE
VIC1,"2013/08/30 19:00:00",6161.55,54.32,TRADE
VIC1,"2013/08/30 19:30:00",6001.02,53.44,TRADE
VIC1,"2013/08/30 20:00:00",5901.69,53.19,TRADE
VIC1,"2013/08/30 20:30:00",5834.82,56.34,TRADE
VIC1,"2013/08/30 21:00:00",5782.87,57.13,TRADE
VIC1,"2013/08/30 21:30:00",5612.22,54.83,TRADE
VIC1,"2013/08/30 22:00:00",5368.02,52.65,TRADE
VIC1,"2013/08/30 22:30:00",5276.82,56.6,TRADE
VIC1,"2013/08/30 23:00:00",5247.83,56.63,TRADE
VIC1,"2013/08/30 23:30:00",5509.32,56.19,TRADE
VIC1,"2013/08/31 00:00:00",5578.83,58.35,TRADE
VIC1,"2013/08/31 00:30:00",5228.06,58.36,TRADE
VIC1,"2013/08/31 01:00:00",4912.41,55.68,TRADE
VIC1,"2013/08/31 01:30:00",4775.95,54.54,TRADE
VIC1,"2013/08/31 02:00:00",4607.24,52.59,TRADE
VIC1,"2013/08/31 02:30:00",4431.8,52.35,TRADE
VIC1,"2013/08/31 03:00:00",4293.39,51.92,TRADE
VIC1,"2013/08/31 03:30:00",4224.93,51.04,TRADE
VIC1,"2013/08/31 04:00:00",4195.11,48.08,TRADE
VIC1,"2013/08/31 04:30:00",4119.7,47.57,TRADE
VIC1,"2013/08/31 05:00:00",4167.19,47.12,TRADE
VIC1,"2013/08/31 05:30:00",4220.56,47.65,TRADE
VIC1,"2013/08/31 06:00:00",4272.8,47.71,TRADE
VIC1,"2013/08/31 06:30:00",4434.37,49.05,TRADE
VIC1,"2013/08/31 07:00:00",4542.89,49.43,TRADE
VIC1,"2013/08/31 07:30:00",4566.32,49.24,TRADE
VIC1,"2013/08/31 08:00:00",4720.75,50.41,TRADE
VIC1,"2013/08/31 08:30:00",4802.67,50.41,TRADE
VIC1,"2013/08/31 09:00:00",4852.35,51.56,TRADE
VIC1,"2013/08/31 09:30:00",4864.11,51.22,TRADE
VIC1,"2013/08/31 10:00:00",4877.62,51.7,TRADE
VIC1,"2013/08/31 10:30:00",4772.81,50.77,TRADE
VIC1,"2013/08/31 11:00:00",4724.54,48.4,TRADE
VIC1,"2013/08/31 11:30:00",4660.62,47.48,TRADE
VIC1,"2013/08/31 12:00:00",4622.61,47.72,TRADE
VIC1,"2013/08/31 12:30:00",4543.63,47.38,TRADE
VIC1,"2013/08/31 13:00:00",4510.02,47.21,TRADE
VIC1,"2013/08/31 13:30:00",4480.25,47.12,TRADE
VIC1,"2013/08/31 14:00:00",4399.4,47.17,TRADE
VIC1,"2013/08/31 14:30:00",4454.81,47.14,TRADE
VIC1,"2013/08/31 15:00:00",4468.66,47.37,TRADE
VIC1,"2013/08/31 15:30:00",4509.18,48.24,TRADE
VIC1,"2013/08/31 16:00:00",4611.57,50.74,TRADE
VIC1,"2013/08/31 16:30:00",4722.7,50.46,TRADE
VIC1,"2013/08/31 17:00:00",4843.17,51.7,TRADE
VIC1,"2013/08/31 17:30:00",4987.93,51.23,TRADE
VIC1,"2013/08/31 18:00:00",5216.98,54.75,TRADE
VIC1,"2013/08/31 18:30:00",5434.79,60.24,TRADE
VIC1,"2013/08/31 19:00:00",5454.73,59.93,TRADE
VIC1,"2013/08/31 19:30:00",5271.31,52.19,TRADE
VIC1,"2013/08/31 20:00:00",5174.89,51.32,TRADE
VIC1,"2013/08/31 20:30:00",5016.35,51.43,TRADE
VIC1,"2013/08/31 21:00:00",4926.67,49.91,TRADE
VIC1,"2013/08/31 21:30:00",4791.61,47.64,TRADE
VIC1,"2013/08/31 22:00:00",4702.73,47.02,TRADE
VIC1,"2013/08/31 22:30:00",4650.83,46.97,TRADE
VIC1,"2013/08/31 23:00:00",4682.04,46.92,TRADE
VIC1,"2013/08/31 23:30:00",4959.52,47.33,TRADE
VIC1,"2013/09/01 00:00:00",5067.07,48.9,TRADE
