REGION,SETTLEMENTDATE,TOTALDEMAND,RRP,PERIODTYPE
SNOWY1,"1999/05/01 00:30",3.08333,30.72,TRADE
SNOWY1,"1999/05/01 01:00",4.475,32.47,TRADE
SNOWY1,"1999/05/01 01:30",3.15833,31.71,TRADE
SNOWY1,"1999/05/01 02:00",15.81167,27.24,TRADE
SNOWY1,"1999/05/01 02:30",4.27167,22.73,TRADE
SNOWY1,"1999/05/01 03:00",8.13167,22.73,TRADE
SNOWY1,"1999/05/01 03:30",0.615,19.74,TRADE
SNOWY1,"1999/05/01 04:00",35.47,14.58,TRADE
SNOWY1,"1999/05/01 04:30",41.73167,13.15,TRADE
SNOWY1,"1999/05/01 05:00",42.46167,12.74,TRADE
SNOWY1,"1999/05/01 05:30",43.26333,15.32,TRADE
SNOWY1,"1999/05/01 06:00",43.04,17,TRADE
SNOWY1,"1999/05/01 06:30",43.625,19.95,TRADE
SNOWY1,"1999/05/01 07:00",47.30667,21.95,TRADE
SNOWY1,"1999/05/01 07:30",7.57,24.74,TRADE
SNOWY1,"1999/05/01 08:00",8.65667,26.12,TRADE
SNOWY1,"1999/05/01 08:30",7.70833,31.24,TRADE
SNOWY1,"1999/05/01 09:00",8.595,30.97,TRADE
SNOWY1,"1999/05/01 09:30",8.95667,37.68,TRADE
SNOWY1,"1999/05/01 10:00",11.585,35.74,TRADE
SNOWY1,"1999/05/01 10:30",13.465,37.11,TRADE
SNOWY1,"1999/05/01 11:00",13.12167,35.27,TRADE
SNOWY1,"1999/05/01 11:30",10.39333,34.25,TRADE
SNOWY1,"1999/05/01 12:00",10.99,33.62,TRADE
SNOWY1,"1999/05/01 12:30",8.38333,34.11,TRADE
SNOWY1,"1999/05/01 13:00",10.73333,33.42,TRADE
SNOWY1,"1999/05/01 13:30",9.265,30.42,TRADE
SNOWY1,"1999/05/01 14:00",3.71833,27.46,TRADE
SNOWY1,"1999/05/01 14:30",4.72333,27.42,TRADE
SNOWY1,"1999/05/01 15:00",6.115,26.97,TRADE
SNOWY1,"1999/05/01 15:30",8.56333,26.66,TRADE
SNOWY1,"1999/05/01 16:00",7.98333,27.95,TRADE
SNOWY1,"1999/05/01 16:30",15.88167,28.34,TRADE
SNOWY1,"1999/05/01 17:00",11.81333,28.26,TRADE
SNOWY1,"1999/05/01 17:30",10.14167,31.3,TRADE
SNOWY1,"1999/05/01 18:00",17.79333,43.95,TRADE
SNOWY1,"1999/05/01 18:30",18.07667,48.35,TRADE
SNOWY1,"1999/05/01 19:00",22.77167,37.02,TRADE
SNOWY1,"1999/05/01 19:30",17.015,30.58,TRADE
SNOWY1,"1999/05/01 20:00",11.79167,29.86,TRADE
SNOWY1,"1999/05/01 20:30",9.42167,28.75,TRADE
SNOWY1,"1999/05/01 21:00",11.02167,29.15,TRADE
SNOWY1,"1999/05/01 21:30",10.02,28.67,TRADE
SNOWY1,"1999/05/01 22:00",9.61833,27.27,TRADE
SNOWY1,"1999/05/01 22:30",16.07667,28.2,TRADE
SNOWY1,"1999/05/01 23:00",6.82833,27.86,TRADE
SNOWY1,"1999/05/01 23:30",8.89667,29.49,TRADE
SNOWY1,"1999/05/02 00:00",7.765,28.76,TRADE
SNOWY1,"1999/05/02 00:30",7.77333,28.17,TRADE
SNOWY1,"1999/05/02 01:00",3.59,18.18,TRADE
SNOWY1,"1999/05/02 01:30",10.025,23.96,TRADE
SNOWY1,"1999/05/02 02:00",10.81,20.12,TRADE
SNOWY1,"1999/05/02 02:30",34.01,16.63,TRADE
SNOWY1,"1999/05/02 03:00",43.28,15.39,TRADE
SNOWY1,"1999/05/02 03:30",43.60333,14.63,TRADE
SNOWY1,"1999/05/02 04:00",40.99333,13.93,TRADE
SNOWY1,"1999/05/02 04:30",40.05667,12.84,TRADE
SNOWY1,"1999/05/02 05:00",39.77333,12.8,TRADE
SNOWY1,"1999/05/02 05:30",35.88167,12.85,TRADE
SNOWY1,"1999/05/02 06:00",30.51167,13.51,TRADE
SNOWY1,"1999/05/02 06:30",34.04,14.49,TRADE
SNOWY1,"1999/05/02 07:00",37.10167,15.89,TRADE
SNOWY1,"1999/05/02 07:30",45.87167,14.95,TRADE
SNOWY1,"1999/05/02 08:00",32.55167,23.31,TRADE
SNOWY1,"1999/05/02 08:30",43.38167,25.77,TRADE
SNOWY1,"1999/05/02 09:00",31.79167,29.03,TRADE
SNOWY1,"1999/05/02 09:30",10.64667,31.6,TRADE
SNOWY1,"1999/05/02 10:00",1.66167,28.44,TRADE
SNOWY1,"1999/05/02 10:30",1.62667,28.21,TRADE
SNOWY1,"1999/05/02 11:00",5.59667,26.99,TRADE
SNOWY1,"1999/05/02 11:30",5.35,23.68,TRADE
SNOWY1,"1999/05/02 12:00",6.09,26.55,TRADE
SNOWY1,"1999/05/02 12:30",6.30667,22.14,TRADE
SNOWY1,"1999/05/02 13:00",4.95167,24.19,TRADE
SNOWY1,"1999/05/02 13:30",6.47667,18.85,TRADE
SNOWY1,"1999/05/02 14:00",5.85333,16.86,TRADE
SNOWY1,"1999/05/02 14:30",2.55167,15.9,TRADE
SNOWY1,"1999/05/02 15:00",2.43667,15.44,TRADE
SNOWY1,"1999/05/02 15:30",2.72667,14.94,TRADE
SNOWY1,"1999/05/02 16:00",3.29833,15.83,TRADE
SNOWY1,"1999/05/02 16:30",1.40667,15.4,TRADE
SNOWY1,"1999/05/02 17:00",6.035,18.87,TRADE
SNOWY1,"1999/05/02 17:30",3.98333,19.82,TRADE
SNOWY1,"1999/05/02 18:00",11.785,31.8,TRADE
SNOWY1,"1999/05/02 18:30",3.16167,38.63,TRADE
SNOWY1,"1999/05/02 19:00",4.90167,35.99,TRADE
SNOWY1,"1999/05/02 19:30",3.08167,32.66,TRADE
SNOWY1,"1999/05/02 20:00",2.86167,31.87,TRADE
SNOWY1,"1999/05/02 20:30",3.06,30.54,TRADE
SNOWY1,"1999/05/02 21:00",2.81,29.2,TRADE
SNOWY1,"1999/05/02 21:30",2.14167,25.72,TRADE
SNOWY1,"1999/05/02 22:00",1.42667,20.58,TRADE
SNOWY1,"1999/05/02 22:30",2.875,26.5,TRADE
SNOWY1,"1999/05/02 23:00",1.795,23.64,TRADE
SNOWY1,"1999/05/02 23:30",10.525,26.26,TRADE
SNOWY1,"1999/05/03 00:00",2.73833,22.41,TRADE
SNOWY1,"1999/05/03 00:30",2.29,24.02,TRADE
SNOWY1,"1999/05/03 01:00",4.84667,17.49,TRADE
SNOWY1,"1999/05/03 01:30",1.875,22.04,TRADE
SNOWY1,"1999/05/03 02:00",0.87,17.3,TRADE
SNOWY1,"1999/05/03 02:30",3.26667,17.22,TRADE
SNOWY1,"1999/05/03 03:00",3.915,14.85,TRADE
SNOWY1,"1999/05/03 03:30",11.52667,14.16,TRADE
SNOWY1,"1999/05/03 04:00",36.64833,13.03,TRADE
SNOWY1,"1999/05/03 04:30",34.85167,13.77,TRADE
SNOWY1,"1999/05/03 05:00",35.20167,14.5,TRADE
SNOWY1,"1999/05/03 05:30",35.73667,14.87,TRADE
SNOWY1,"1999/05/03 06:00",37.20333,16.24,TRADE
SNOWY1,"1999/05/03 06:30",37.52667,20.91,TRADE
SNOWY1,"1999/05/03 07:00",46.27833,34.15,TRADE
SNOWY1,"1999/05/03 07:30",4.15667,33.15,TRADE
SNOWY1,"1999/05/03 08:00",1.89333,45.85,TRADE
SNOWY1,"1999/05/03 08:30",4.06,52.33,TRADE
SNOWY1,"1999/05/03 09:00",10.53667,60.13,TRADE
SNOWY1,"1999/05/03 09:30",0.675,57.04,TRADE
SNOWY1,"1999/05/03 10:00",3.12667,54.41,TRADE
SNOWY1,"1999/05/03 10:30",4.40167,33.06,TRADE
SNOWY1,"1999/05/03 11:00",2.14833,29.56,TRADE
SNOWY1,"1999/05/03 11:30",9.00167,29.62,TRADE
SNOWY1,"1999/05/03 12:00",3.32,29.33,TRADE
SNOWY1,"1999/05/03 12:30",3.62167,28.93,TRADE
SNOWY1,"1999/05/03 13:00",4.12333,21.68,TRADE
SNOWY1,"1999/05/03 13:30",3.05333,27.76,TRADE
SNOWY1,"1999/05/03 14:00",3.53667,25.08,TRADE
SNOWY1,"1999/05/03 14:30",0.475,20.4,TRADE
SNOWY1,"1999/05/03 15:00",5.37333,17.41,TRADE
SNOWY1,"1999/05/03 15:30",1.015,18.52,TRADE
SNOWY1,"1999/05/03 16:00",3.595,17.59,TRADE
SNOWY1,"1999/05/03 16:30",2.18833,17.09,TRADE
SNOWY1,"1999/05/03 17:00",13.74167,19.52,TRADE
SNOWY1,"1999/05/03 17:30",2.645,23.66,TRADE
SNOWY1,"1999/05/03 18:00",0.43,48.03,TRADE
SNOWY1,"1999/05/03 18:30",2.36667,53.33,TRADE
SNOWY1,"1999/05/03 19:00",5.4,49.95,TRADE
SNOWY1,"1999/05/03 19:30",1.14167,35.19,TRADE
SNOWY1,"1999/05/03 20:00",9.45833,29.21,TRADE
SNOWY1,"1999/05/03 20:30",6.56333,23.39,TRADE
SNOWY1,"1999/05/03 21:00",6.45833,25.39,TRADE
SNOWY1,"1999/05/03 21:30",6.40333,23.37,TRADE
SNOWY1,"1999/05/03 22:00",5.73667,20.69,TRADE
SNOWY1,"1999/05/03 22:30",6.39667,28.34,TRADE
SNOWY1,"1999/05/03 23:00",1.585,25.06,TRADE
SNOWY1,"1999/05/03 23:30",6.24667,32.89,TRADE
SNOWY1,"1999/05/04 00:00",39.43333,42.79,TRADE
SNOWY1,"1999/05/04 00:30",2.34167,34.87,TRADE
SNOWY1,"1999/05/04 01:00",3.475,34.54,TRADE
SNOWY1,"1999/05/04 01:30",7.72833,39.31,TRADE
SNOWY1,"1999/05/04 02:00",8.24833,34.67,TRADE
SNOWY1,"1999/05/04 02:30",3.54167,28.45,TRADE
SNOWY1,"1999/05/04 03:00",5.87833,27.94,TRADE
SNOWY1,"1999/05/04 03:30",0.80833,23.99,TRADE
SNOWY1,"1999/05/04 04:00",5.83833,19.88,TRADE
SNOWY1,"1999/05/04 04:30",30.76833,15.58,TRADE
SNOWY1,"1999/05/04 05:00",40.15833,15.07,TRADE
SNOWY1,"1999/05/04 05:30",38.73167,18.67,TRADE
SNOWY1,"1999/05/04 06:00",43.01,22.41,TRADE
SNOWY1,"1999/05/04 06:30",6.965,27.57,TRADE
SNOWY1,"1999/05/04 07:00",9.04167,34.34,TRADE
SNOWY1,"1999/05/04 07:30",2.29833,34.79,TRADE
SNOWY1,"1999/05/04 08:00",7.50167,50.57,TRADE
SNOWY1,"1999/05/04 08:30",6.23167,53.68,TRADE
SNOWY1,"1999/05/04 09:00",6.64333,48.12,TRADE
SNOWY1,"1999/05/04 09:30",2.52833,44.68,TRADE
SNOWY1,"1999/05/04 10:00",0.85167,49.11,TRADE
SNOWY1,"1999/05/04 10:30",0.3,32.12,TRADE
SNOWY1,"1999/05/04 11:00",0.285,28.75,TRADE
SNOWY1,"1999/05/04 11:30",1.705,24.17,TRADE
SNOWY1,"1999/05/04 12:00",2.58833,29.92,TRADE
SNOWY1,"1999/05/04 12:30",3.21833,35.22,TRADE
SNOWY1,"1999/05/04 13:00",1.37167,32.95,TRADE
SNOWY1,"1999/05/04 13:30",0.725,41.46,TRADE
SNOWY1,"1999/05/04 14:00",3.37333,31.08,TRADE
SNOWY1,"1999/05/04 14:30",0.63333,28.76,TRADE
SNOWY1,"1999/05/04 15:00",4.73167,24.49,TRADE
SNOWY1,"1999/05/04 15:30",6.795,23.45,TRADE
SNOWY1,"1999/05/04 16:00",1.95167,22.16,TRADE
SNOWY1,"1999/05/04 16:30",0,20.59,TRADE
SNOWY1,"1999/05/04 17:00",1.265,20.56,TRADE
SNOWY1,"1999/05/04 17:30",7.66167,23.11,TRADE
SNOWY1,"1999/05/04 18:00",3.31167,47.41,TRADE
SNOWY1,"1999/05/04 18:30",1.89,52.53,TRADE
SNOWY1,"1999/05/04 19:00",4.57,37.57,TRADE
SNOWY1,"1999/05/04 19:30",3.305,29.82,TRADE
SNOWY1,"1999/05/04 20:00",3.06833,31.44,TRADE
SNOWY1,"1999/05/04 20:30",7.55833,30.69,TRADE
SNOWY1,"1999/05/04 21:00",2.93333,27.31,TRADE
SNOWY1,"1999/05/04 21:30",3.85333,26.99,TRADE
SNOWY1,"1999/05/04 22:00",3.49,24.37,TRADE
SNOWY1,"1999/05/04 22:30",7.37667,31.29,TRADE
SNOWY1,"1999/05/04 23:00",0.96833,27.06,TRADE
SNOWY1,"1999/05/04 23:30",14.36833,32.72,TRADE
SNOWY1,"1999/05/05 00:00",4.755,31.68,TRADE
SNOWY1,"1999/05/05 00:30",3.69167,29.78,TRADE
SNOWY1,"1999/05/05 01:00",1.31833,26.75,TRADE
SNOWY1,"1999/05/05 01:30",8.02333,30.12,TRADE
SNOWY1,"1999/05/05 02:00",6.72667,26.24,TRADE
SNOWY1,"1999/05/05 02:30",3.61667,21.54,TRADE
SNOWY1,"1999/05/05 03:00",2.29667,21.06,TRADE
SNOWY1,"1999/05/05 03:30",4.45,20.06,TRADE
SNOWY1,"1999/05/05 04:00",2.415,16.21,TRADE
SNOWY1,"1999/05/05 04:30",38.18333,14.75,TRADE
SNOWY1,"1999/05/05 05:00",42.61333,14.85,TRADE
SNOWY1,"1999/05/05 05:30",38.03333,17.32,TRADE
SNOWY1,"1999/05/05 06:00",35.91833,16.99,TRADE
SNOWY1,"1999/05/05 06:30",10.975,23.76,TRADE
SNOWY1,"1999/05/05 07:00",9.31,32.81,TRADE
SNOWY1,"1999/05/05 07:30",13.34,34.61,TRADE
SNOWY1,"1999/05/05 08:00",6.395,49.3,TRADE
SNOWY1,"1999/05/05 08:30",16.71667,44.7,TRADE
SNOWY1,"1999/05/05 09:00",15.49833,29.41,TRADE
SNOWY1,"1999/05/05 09:30",16.11833,39.07,TRADE
SNOWY1,"1999/05/05 10:00",14.98667,33.44,TRADE
SNOWY1,"1999/05/05 10:30",18.205,29.31,TRADE
SNOWY1,"1999/05/05 11:00",14.81167,28.17,TRADE
SNOWY1,"1999/05/05 11:30",14.84667,28.14,TRADE
SNOWY1,"1999/05/05 12:00",7.625,27.66,TRADE
SNOWY1,"1999/05/05 12:30",10.92667,21.82,TRADE
SNOWY1,"1999/05/05 13:00",12.16333,27.29,TRADE
SNOWY1,"1999/05/05 13:30",18.93667,29.5,TRADE
SNOWY1,"1999/05/05 14:00",18.75667,29.42,TRADE
SNOWY1,"1999/05/05 14:30",21.06,26.6,TRADE
SNOWY1,"1999/05/05 15:00",19.93833,25.23,TRADE
SNOWY1,"1999/05/05 15:30",20.005,19.84,TRADE
SNOWY1,"1999/05/05 16:00",17.40833,24.44,TRADE
SNOWY1,"1999/05/05 16:30",13.775,20.44,TRADE
SNOWY1,"1999/05/05 17:00",13.28833,21.41,TRADE
SNOWY1,"1999/05/05 17:30",4.26333,30.59,TRADE
SNOWY1,"1999/05/05 18:00",11.265,47.8,TRADE
SNOWY1,"1999/05/05 18:30",10.745,43.02,TRADE
SNOWY1,"1999/05/05 19:00",6.8,31.22,TRADE
SNOWY1,"1999/05/05 19:30",10.84667,24.02,TRADE
SNOWY1,"1999/05/05 20:00",11.51333,26.13,TRADE
SNOWY1,"1999/05/05 20:30",3.39,27.99,TRADE
SNOWY1,"1999/05/05 21:00",6.08,21.66,TRADE
SNOWY1,"1999/05/05 21:30",6.29833,21.01,TRADE
SNOWY1,"1999/05/05 22:00",6.915,22.46,TRADE
SNOWY1,"1999/05/05 22:30",11.42833,27.54,TRADE
SNOWY1,"1999/05/05 23:00",4.33833,26.5,TRADE
SNOWY1,"1999/05/05 23:30",8.30167,29.18,TRADE
SNOWY1,"1999/05/06 00:00",7.23833,29.53,TRADE
SNOWY1,"1999/05/06 00:30",8.745,29.8,TRADE
SNOWY1,"1999/05/06 01:00",4.284,26.34,TRADE
SNOWY1,"1999/05/06 01:30",9.025,28.63,TRADE
SNOWY1,"1999/05/06 02:00",5.39333,25.78,TRADE
SNOWY1,"1999/05/06 02:30",3.83667,22.33,TRADE
SNOWY1,"1999/05/06 03:00",16.46167,22.08,TRADE
SNOWY1,"1999/05/06 03:30",5.57333,18.65,TRADE
SNOWY1,"1999/05/06 04:00",3.58833,15.13,TRADE
SNOWY1,"1999/05/06 04:30",33.28333,14.56,TRADE
SNOWY1,"1999/05/06 05:00",36.25333,14.51,TRADE
SNOWY1,"1999/05/06 05:30",38.09667,15.95,TRADE
SNOWY1,"1999/05/06 06:00",38.97667,16.6,TRADE
SNOWY1,"1999/05/06 06:30",23.70833,20.94,TRADE
SNOWY1,"1999/05/06 07:00",7.65,28.98,TRADE
SNOWY1,"1999/05/06 07:30",6.76333,25.32,TRADE
SNOWY1,"1999/05/06 08:00",14.22667,32.46,TRADE
SNOWY1,"1999/05/06 08:30",8.26667,34.54,TRADE
SNOWY1,"1999/05/06 09:00",4.67333,28.34,TRADE
SNOWY1,"1999/05/06 09:30",7.68333,30.67,TRADE
SNOWY1,"1999/05/06 10:00",8.60167,30.19,TRADE
SNOWY1,"1999/05/06 10:30",4.52833,25.02,TRADE
SNOWY1,"1999/05/06 11:00",9.20667,25.02,TRADE
SNOWY1,"1999/05/06 11:30",7.21833,24.81,TRADE
SNOWY1,"1999/05/06 12:00",7.27333,26.52,TRADE
SNOWY1,"1999/05/06 12:30",8.57833,27.34,TRADE
SNOWY1,"1999/05/06 13:00",1.055,29.6,TRADE
SNOWY1,"1999/05/06 13:30",7.145,32.84,TRADE
SNOWY1,"1999/05/06 14:00",5.04167,31.22,TRADE
SNOWY1,"1999/05/06 14:30",2.26667,30.32,TRADE
SNOWY1,"1999/05/06 15:00",6.09667,28.22,TRADE
SNOWY1,"1999/05/06 15:30",11.26,15.44,TRADE
SNOWY1,"1999/05/06 16:00",11.14,14.62,TRADE
SNOWY1,"1999/05/06 16:30",7.20667,17.22,TRADE
SNOWY1,"1999/05/06 17:00",9.22667,16.51,TRADE
SNOWY1,"1999/05/06 17:30",3.86667,24.11,TRADE
SNOWY1,"1999/05/06 18:00",4.32833,39.09,TRADE
SNOWY1,"1999/05/06 18:30",12.8,41.29,TRADE
SNOWY1,"1999/05/06 19:00",15.36333,32.17,TRADE
SNOWY1,"1999/05/06 19:30",8.22167,25.81,TRADE
SNOWY1,"1999/05/06 20:00",9.57667,23.56,TRADE
SNOWY1,"1999/05/06 20:30",6.16167,22.87,TRADE
SNOWY1,"1999/05/06 21:00",4.07667,20.93,TRADE
SNOWY1,"1999/05/06 21:30",9.15667,16.55,TRADE
SNOWY1,"1999/05/06 22:00",3.105,16.41,TRADE
SNOWY1,"1999/05/06 22:30",4.47,26.06,TRADE
SNOWY1,"1999/05/06 23:00",2.55333,23.91,TRADE
SNOWY1,"1999/05/06 23:30",5.21167,28.74,TRADE
SNOWY1,"1999/05/07 00:00",7.075,27.58,TRADE
SNOWY1,"1999/05/07 00:30",2.33333,25.97,TRADE
SNOWY1,"1999/05/07 01:00",5.05667,24.33,TRADE
SNOWY1,"1999/05/07 01:30",6.93833,28.13,TRADE
SNOWY1,"1999/05/07 02:00",4.82167,24.13,TRADE
SNOWY1,"1999/05/07 02:30",6.36667,22.13,TRADE
SNOWY1,"1999/05/07 03:00",6.85333,18.14,TRADE
SNOWY1,"1999/05/07 03:30",25.56,14.83,TRADE
SNOWY1,"1999/05/07 04:00",39.64,14.6,TRADE
SNOWY1,"1999/05/07 04:30",37.50833,14.58,TRADE
SNOWY1,"1999/05/07 05:00",40.03167,16.36,TRADE
SNOWY1,"1999/05/07 05:30",22.08167,21.87,TRADE
SNOWY1,"1999/05/07 06:00",3.77333,20.5,TRADE
SNOWY1,"1999/05/07 06:30",5.87167,25.98,TRADE
SNOWY1,"1999/05/07 07:00",2.52667,32.31,TRADE
SNOWY1,"1999/05/07 07:30",5.71833,33.02,TRADE
SNOWY1,"1999/05/07 08:00",10.27333,43.94,TRADE
SNOWY1,"1999/05/07 08:30",12.40667,45.59,TRADE
SNOWY1,"1999/05/07 09:00",8.82167,31.74,TRADE
SNOWY1,"1999/05/07 09:30",6.27667,39.12,TRADE
SNOWY1,"1999/05/07 10:00",4.42667,40.93,TRADE
SNOWY1,"1999/05/07 10:30",1.445,38.5,TRADE
SNOWY1,"1999/05/07 11:00",0.62,32.38,TRADE
SNOWY1,"1999/05/07 11:30",6.715,44.93,TRADE
SNOWY1,"1999/05/07 12:00",2.19,31.68,TRADE
SNOWY1,"1999/05/07 12:30",2.84,33.14,TRADE
SNOWY1,"1999/05/07 13:00",2.27333,34.03,TRADE
SNOWY1,"1999/05/07 13:30",3.27833,35.92,TRADE
SNOWY1,"1999/05/07 14:00",10.85,31.9,TRADE
SNOWY1,"1999/05/07 14:30",11.265,32.63,TRADE
SNOWY1,"1999/05/07 15:00",8.05333,30.84,TRADE
SNOWY1,"1999/05/07 15:30",4.38667,28.33,TRADE
SNOWY1,"1999/05/07 16:00",11.45333,26.99,TRADE
SNOWY1,"1999/05/07 16:30",10.305,21.06,TRADE
SNOWY1,"1999/05/07 17:00",12.28,20.34,TRADE
SNOWY1,"1999/05/07 17:30",4.46,21.58,TRADE
SNOWY1,"1999/05/07 18:00",14.56333,44.28,TRADE
SNOWY1,"1999/05/07 18:30",7.695,35.75,TRADE
SNOWY1,"1999/05/07 19:00",10.79,26.69,TRADE
SNOWY1,"1999/05/07 19:30",9.21833,19.01,TRADE
SNOWY1,"1999/05/07 20:00",8.81667,26.03,TRADE
SNOWY1,"1999/05/07 20:30",6.87667,23.54,TRADE
SNOWY1,"1999/05/07 21:00",13.18833,18.65,TRADE
SNOWY1,"1999/05/07 21:30",8.47167,18.32,TRADE
SNOWY1,"1999/05/07 22:00",1.70333,18,TRADE
SNOWY1,"1999/05/07 22:30",8.13833,21.74,TRADE
SNOWY1,"1999/05/07 23:00",10.41167,18.72,TRADE
SNOWY1,"1999/05/07 23:30",3.64167,33.32,TRADE
SNOWY1,"1999/05/08 00:00",7.00167,32.85,TRADE
SNOWY1,"1999/05/08 00:30",8.61667,28.93,TRADE
SNOWY1,"1999/05/08 01:00",9.955,27.31,TRADE
SNOWY1,"1999/05/08 01:30",10.44667,29.26,TRADE
SNOWY1,"1999/05/08 02:00",8.19333,25.3,TRADE
SNOWY1,"1999/05/08 02:30",3.98833,21.37,TRADE
SNOWY1,"1999/05/08 03:00",3.92,16.48,TRADE
SNOWY1,"1999/05/08 03:30",8.185,13.76,TRADE
SNOWY1,"1999/05/08 04:00",41.04167,13.57,TRADE
SNOWY1,"1999/05/08 04:30",43.23667,10.79,TRADE
SNOWY1,"1999/05/08 05:00",43.15167,10.74,TRADE
SNOWY1,"1999/05/08 05:30",44.55833,11.52,TRADE
SNOWY1,"1999/05/08 06:00",43.36,12.17,TRADE
SNOWY1,"1999/05/08 06:30",44.14833,15.32,TRADE
SNOWY1,"1999/05/08 07:00",43.525,15.64,TRADE
SNOWY1,"1999/05/08 07:30",36.89,17.44,TRADE
SNOWY1,"1999/05/08 08:00",9.90833,21.75,TRADE
SNOWY1,"1999/05/08 08:30",10.32333,27.98,TRADE
SNOWY1,"1999/05/08 09:00",15.28167,28.17,TRADE
SNOWY1,"1999/05/08 09:30",10.85,31.1,TRADE
SNOWY1,"1999/05/08 10:00",8.00333,32.29,TRADE
SNOWY1,"1999/05/08 10:30",6.57,29.21,TRADE
SNOWY1,"1999/05/08 11:00",4.15,28.09,TRADE
SNOWY1,"1999/05/08 11:30",7.45667,27.97,TRADE
SNOWY1,"1999/05/08 12:00",10.12667,28.34,TRADE
SNOWY1,"1999/05/08 12:30",8.42833,28.88,TRADE
SNOWY1,"1999/05/08 13:00",4.31333,29.7,TRADE
SNOWY1,"1999/05/08 13:30",3.88167,29.1,TRADE
SNOWY1,"1999/05/08 14:00",3.39833,27.02,TRADE
SNOWY1,"1999/05/08 14:30",1.21,27.01,TRADE
SNOWY1,"1999/05/08 15:00",1.42333,26.53,TRADE
SNOWY1,"1999/05/08 15:30",0.125,22.03,TRADE
SNOWY1,"1999/05/08 16:00",4.45167,26.85,TRADE
SNOWY1,"1999/05/08 16:30",2.025,25.78,TRADE
SNOWY1,"1999/05/08 17:00",1.755,27.06,TRADE
SNOWY1,"1999/05/08 17:30",2.57667,27.22,TRADE
SNOWY1,"1999/05/08 18:00",12.75,39.61,TRADE
SNOWY1,"1999/05/08 18:30",7.7,45.81,TRADE
SNOWY1,"1999/05/08 19:00",6.895,39.44,TRADE
SNOWY1,"1999/05/08 19:30",5.91833,32.47,TRADE
SNOWY1,"1999/05/08 20:00",2.96667,32.99,TRADE
SNOWY1,"1999/05/08 20:30",3.98333,30.26,TRADE
SNOWY1,"1999/05/08 21:00",4.73167,30.16,TRADE
SNOWY1,"1999/05/08 21:30",3.99833,27.82,TRADE
SNOWY1,"1999/05/08 22:00",3.13333,26.81,TRADE
SNOWY1,"1999/05/08 22:30",23.815,27.4,TRADE
SNOWY1,"1999/05/08 23:00",3.44833,27.87,TRADE
SNOWY1,"1999/05/08 23:30",6.77,28.48,TRADE
SNOWY1,"1999/05/09 00:00",8.31167,29.64,TRADE
SNOWY1,"1999/05/09 00:30",5.34,28.44,TRADE
SNOWY1,"1999/05/09 01:00",0,26.02,TRADE
SNOWY1,"1999/05/09 01:30",3.855,27.83,TRADE
SNOWY1,"1999/05/09 02:00",2.935,23.3,TRADE
SNOWY1,"1999/05/09 02:30",3.13833,17.86,TRADE
SNOWY1,"1999/05/09 03:00",19.64333,15.44,TRADE
SNOWY1,"1999/05/09 03:30",38.14,14.46,TRADE
SNOWY1,"1999/05/09 04:00",36.77667,13.61,TRADE
SNOWY1,"1999/05/09 04:30",38.50167,11.78,TRADE
SNOWY1,"1999/05/09 05:00",36.24167,12.53,TRADE
SNOWY1,"1999/05/09 05:30",36.66833,11.74,TRADE
SNOWY1,"1999/05/09 06:00",38.87,12.48,TRADE
SNOWY1,"1999/05/09 06:30",33.32833,13.06,TRADE
SNOWY1,"1999/05/09 07:00",29.35333,13.04,TRADE
SNOWY1,"1999/05/09 07:30",54.99,12.69,TRADE
SNOWY1,"1999/05/09 08:00",57.68,16.87,TRADE
SNOWY1,"1999/05/09 08:30",56.86167,24.2,TRADE
SNOWY1,"1999/05/09 09:00",60.34333,26.77,TRADE
SNOWY1,"1999/05/09 09:30",41.15833,28.14,TRADE
SNOWY1,"1999/05/09 10:00",60.23833,29.79,TRADE
SNOWY1,"1999/05/09 10:30",52.51833,28.44,TRADE
SNOWY1,"1999/05/09 11:00",7.57833,27.42,TRADE
SNOWY1,"1999/05/09 11:30",1.00667,25.72,TRADE
SNOWY1,"1999/05/09 12:00",1.83833,24.24,TRADE
SNOWY1,"1999/05/09 12:30",2.14667,22.06,TRADE
SNOWY1,"1999/05/09 13:00",0.37833,16.81,TRADE
SNOWY1,"1999/05/09 13:30",0.77833,16.69,TRADE
SNOWY1,"1999/05/09 14:00",0,15.72,TRADE
SNOWY1,"1999/05/09 14:30",0,15.89,TRADE
SNOWY1,"1999/05/09 15:00",0,15.46,TRADE
SNOWY1,"1999/05/09 15:30",0,15.53,TRADE
SNOWY1,"1999/05/09 16:00",0,15.75,TRADE
SNOWY1,"1999/05/09 16:30",0,16.2,TRADE
SNOWY1,"1999/05/09 17:00",0,17.31,TRADE
SNOWY1,"1999/05/09 17:30",2.65167,23.46,TRADE
SNOWY1,"1999/05/09 18:00",11.17333,34.16,TRADE
SNOWY1,"1999/05/09 18:30",4.04167,38.48,TRADE
SNOWY1,"1999/05/09 19:00",4.22167,37.78,TRADE
SNOWY1,"1999/05/09 19:30",8.13333,36.69,TRADE
SNOWY1,"1999/05/09 20:00",6.76167,36.17,TRADE
SNOWY1,"1999/05/09 20:30",4.98833,32.81,TRADE
SNOWY1,"1999/05/09 21:00",4.93833,31.21,TRADE
SNOWY1,"1999/05/09 21:30",4.755,29.38,TRADE
SNOWY1,"1999/05/09 22:00",4.215,25.71,TRADE
SNOWY1,"1999/05/09 22:30",3.80667,27.23,TRADE
SNOWY1,"1999/05/09 23:00",2.93667,26.35,TRADE
SNOWY1,"1999/05/09 23:30",28.17667,30.9,TRADE
SNOWY1,"1999/05/10 00:00",1.62333,26.14,TRADE
SNOWY1,"1999/05/10 00:30",0,25.41,TRADE
SNOWY1,"1999/05/10 02:00",15.584,22.1,TRADE
SNOWY1,"1999/05/10 02:30",6.15,20.39,TRADE
SNOWY1,"1999/05/10 03:00",2.95,15.13,TRADE
SNOWY1,"1999/05/10 03:30",0,15.53,TRADE
SNOWY1,"1999/05/10 04:00",0,14.52,TRADE
SNOWY1,"1999/05/10 04:30",0,15.96,TRADE
SNOWY1,"1999/05/10 05:00",0,16.39,TRADE
SNOWY1,"1999/05/10 05:30",0,16.68,TRADE
SNOWY1,"1999/05/10 06:00",0,18.82,TRADE
SNOWY1,"1999/05/10 06:30",1.42167,24.35,TRADE
SNOWY1,"1999/05/10 07:00",4.77167,37.59,TRADE
SNOWY1,"1999/05/10 07:30",2.33333,38.1,TRADE
SNOWY1,"1999/05/10 08:00",6.65333,57.18,TRADE
SNOWY1,"1999/05/10 08:30",7.79667,59.7,TRADE
SNOWY1,"1999/05/10 09:00",8.26,57.94,TRADE
SNOWY1,"1999/05/10 09:30",2.76,58.45,TRADE
SNOWY1,"1999/05/10 10:00",6.315,58.84,TRADE
SNOWY1,"1999/05/10 10:30",5.13833,57.79,TRADE
SNOWY1,"1999/05/10 11:00",9.70667,54.58,TRADE
SNOWY1,"1999/05/10 11:30",13.71333,41.2,TRADE
SNOWY1,"1999/05/10 12:00",3.68,48.92,TRADE
SNOWY1,"1999/05/10 12:30",2.41833,37.37,TRADE
SNOWY1,"1999/05/10 13:00",7.18333,34.06,TRADE
SNOWY1,"1999/05/10 13:30",3.085,37.31,TRADE
SNOWY1,"1999/05/10 14:00",2.69833,34.31,TRADE
SNOWY1,"1999/05/10 14:30",4.09667,34.28,TRADE
SNOWY1,"1999/05/10 15:00",4.42333,29.19,TRADE
SNOWY1,"1999/05/10 15:30",1.12333,27.21,TRADE
SNOWY1,"1999/05/10 16:00",5.74333,28.24,TRADE
SNOWY1,"1999/05/10 16:30",4.43333,28.73,TRADE
SNOWY1,"1999/05/10 17:00",0.65167,28.22,TRADE
SNOWY1,"1999/05/10 17:30",1.15167,38.14,TRADE
SNOWY1,"1999/05/10 18:00",4.40667,59.91,TRADE
SNOWY1,"1999/05/10 18:30",6.57833,61.59,TRADE
SNOWY1,"1999/05/10 19:00",6.39667,49.9,TRADE
SNOWY1,"1999/05/10 19:30",1.46,44.67,TRADE
SNOWY1,"1999/05/10 20:00",1.97333,40.16,TRADE
SNOWY1,"1999/05/10 20:30",1.08833,43.35,TRADE
SNOWY1,"1999/05/10 21:00",3.13167,41.29,TRADE
SNOWY1,"1999/05/10 21:30",3.295,33.67,TRADE
SNOWY1,"1999/05/10 22:00",0.53,29.08,TRADE
SNOWY1,"1999/05/10 22:30",8.94167,33.88,TRADE
SNOWY1,"1999/05/10 23:00",4.00667,34.39,TRADE
SNOWY1,"1999/05/10 23:30",7.05333,41.1,TRADE
SNOWY1,"1999/05/11 00:00",6.82,39.37,TRADE
SNOWY1,"1999/05/11 00:30",4.8,34.62,TRADE
SNOWY1,"1999/05/11 01:00",1.21667,34.54,TRADE
SNOWY1,"1999/05/11 01:30",5.33167,35.01,TRADE
SNOWY1,"1999/05/11 02:00",4.22667,32.76,TRADE
SNOWY1,"1999/05/11 02:30",1.93333,27.66,TRADE
SNOWY1,"1999/05/11 03:00",2.615,25.75,TRADE
SNOWY1,"1999/05/11 03:30",1.88,23.61,TRADE
SNOWY1,"1999/05/11 04:00",0.42,19.17,TRADE
SNOWY1,"1999/05/11 04:30",0.18,16.44,TRADE
SNOWY1,"1999/05/11 05:00",0,16.52,TRADE
SNOWY1,"1999/05/11 05:30",3.58667,20.18,TRADE
SNOWY1,"1999/05/11 06:00",15.42667,23.88,TRADE
SNOWY1,"1999/05/11 06:30",12.59833,28.24,TRADE
SNOWY1,"1999/05/11 07:00",14.47667,42.26,TRADE
SNOWY1,"1999/05/11 07:30",13.72,40.02,TRADE
SNOWY1,"1999/05/11 08:00",12.01,58.45,TRADE
SNOWY1,"1999/05/11 08:30",8.195,60.13,TRADE
SNOWY1,"1999/05/11 09:00",7.185,56.15,TRADE
SNOWY1,"1999/05/11 09:30",5.37333,57.06,TRADE
SNOWY1,"1999/05/11 10:00",1.545,56.33,TRADE
SNOWY1,"1999/05/11 10:30",4.19333,48.98,TRADE
SNOWY1,"1999/05/11 11:00",2.34667,41.45,TRADE
SNOWY1,"1999/05/11 11:30",2.48333,35.3,TRADE
SNOWY1,"1999/05/11 12:00",2.865,48.98,TRADE
SNOWY1,"1999/05/11 12:30",2.40167,38.48,TRADE
SNOWY1,"1999/05/11 13:00",4.28333,35.47,TRADE
SNOWY1,"1999/05/11 13:30",2.875,47.27,TRADE
SNOWY1,"1999/05/11 14:00",1.46167,44.35,TRADE
SNOWY1,"1999/05/11 14:30",0.44833,45.36,TRADE
SNOWY1,"1999/05/11 15:00",4.8,40.03,TRADE
SNOWY1,"1999/05/11 15:30",3.53333,33.03,TRADE
SNOWY1,"1999/05/11 16:00",0.215,34.19,TRADE
SNOWY1,"1999/05/11 16:30",3.50167,31.49,TRADE
SNOWY1,"1999/05/11 17:00",1.335,35.78,TRADE
SNOWY1,"1999/05/11 17:30",2.95667,51.17,TRADE
SNOWY1,"1999/05/11 18:00",8.03,68.57,TRADE
SNOWY1,"1999/05/11 18:30",4.41333,63.5,TRADE
SNOWY1,"1999/05/11 19:00",11.74333,53.66,TRADE
SNOWY1,"1999/05/11 19:30",3.67333,37.76,TRADE
SNOWY1,"1999/05/11 20:00",5.00333,42.8,TRADE
SNOWY1,"1999/05/11 20:30",0,41.47,TRADE
SNOWY1,"1999/05/11 21:00",2.1,35.95,TRADE
SNOWY1,"1999/05/11 21:30",0.41833,31.26,TRADE
SNOWY1,"1999/05/11 22:00",1.96333,26.95,TRADE
SNOWY1,"1999/05/11 22:30",3.465,33.32,TRADE
SNOWY1,"1999/05/11 23:00",1.04333,31.97,TRADE
SNOWY1,"1999/05/11 23:30",1.15333,34.46,TRADE
SNOWY1,"1999/05/12 00:00",3.43167,31.98,TRADE
SNOWY1,"1999/05/12 00:30",1.86333,29.39,TRADE
SNOWY1,"1999/05/12 01:00",4.92,26.3,TRADE
SNOWY1,"1999/05/12 01:30",3.92,27.82,TRADE
SNOWY1,"1999/05/12 02:00",6.355,21.74,TRADE
SNOWY1,"1999/05/12 02:30",44.28167,16.59,TRADE
SNOWY1,"1999/05/12 03:00",70.19667,16.7,TRADE
SNOWY1,"1999/05/12 03:30",69.73333,15.52,TRADE
SNOWY1,"1999/05/12 04:00",69.54,14.76,TRADE
SNOWY1,"1999/05/12 04:30",71.57333,14.15,TRADE
SNOWY1,"1999/05/12 05:00",70.70667,14.46,TRADE
SNOWY1,"1999/05/12 05:30",69.77,15.12,TRADE
SNOWY1,"1999/05/12 06:00",71.17167,15.5,TRADE
SNOWY1,"1999/05/12 06:30",70.24167,18.33,TRADE
SNOWY1,"1999/05/12 07:00",55.66167,25.07,TRADE
SNOWY1,"1999/05/12 07:30",11.81833,21.99,TRADE
SNOWY1,"1999/05/12 08:00",8.17333,33.67,TRADE
SNOWY1,"1999/05/12 08:30",5.415,34.49,TRADE
SNOWY1,"1999/05/12 09:00",3.31,27.79,TRADE
SNOWY1,"1999/05/12 09:30",10.12333,30.52,TRADE
SNOWY1,"1999/05/12 10:00",7.60333,29.61,TRADE
SNOWY1,"1999/05/12 10:30",3.015,27.85,TRADE
SNOWY1,"1999/05/12 11:00",2.18333,27.99,TRADE
SNOWY1,"1999/05/12 11:30",3.475,25.48,TRADE
SNOWY1,"1999/05/12 12:00",9.15667,27.83,TRADE
SNOWY1,"1999/05/12 12:30",3.82667,25.95,TRADE
SNOWY1,"1999/05/12 13:00",2.47833,22.8,TRADE
SNOWY1,"1999/05/12 13:30",12.725,27.29,TRADE
SNOWY1,"1999/05/12 14:00",6.28667,26.7,TRADE
SNOWY1,"1999/05/12 14:30",5.56,25.01,TRADE
SNOWY1,"1999/05/12 15:00",5.67667,19.88,TRADE
SNOWY1,"1999/05/12 15:30",3.95333,17.6,TRADE
SNOWY1,"1999/05/12 16:00",1.46,23.35,TRADE
SNOWY1,"1999/05/12 16:30",1.62167,24.45,TRADE
SNOWY1,"1999/05/12 17:00",0,24.87,TRADE
SNOWY1,"1999/05/12 17:30",10.95167,32.9,TRADE
SNOWY1,"1999/05/12 18:00",13.96167,52.13,TRADE
SNOWY1,"1999/05/12 18:30",8.45,47.18,TRADE
SNOWY1,"1999/05/12 19:00",13.11167,31.55,TRADE
SNOWY1,"1999/05/12 19:30",6.46167,24.77,TRADE
SNOWY1,"1999/05/12 20:00",3.61667,20.16,TRADE
SNOWY1,"1999/05/12 20:30",8.24333,20.25,TRADE
SNOWY1,"1999/05/12 21:00",5.54667,16.51,TRADE
SNOWY1,"1999/05/12 21:30",6.44833,15.99,TRADE
SNOWY1,"1999/05/12 22:00",1.22,17.75,TRADE
SNOWY1,"1999/05/12 22:30",6.795,28.5,TRADE
SNOWY1,"1999/05/12 23:00",4.41167,21.32,TRADE
SNOWY1,"1999/05/12 23:30",6.735,26.66,TRADE
SNOWY1,"1999/05/13 00:00",5.43667,23.46,TRADE
SNOWY1,"1999/05/13 00:30",3.135,25.65,TRADE
SNOWY1,"1999/05/13 01:00",2.79,18.56,TRADE
SNOWY1,"1999/05/13 01:30",12.76667,24.25,TRADE
SNOWY1,"1999/05/13 02:00",4.225,20.49,TRADE
SNOWY1,"1999/05/13 02:30",27.79833,16.4,TRADE
SNOWY1,"1999/05/13 03:00",65.08833,15.62,TRADE
SNOWY1,"1999/05/13 03:30",72.19333,15.35,TRADE
SNOWY1,"1999/05/13 04:00",71.47,14.8,TRADE
SNOWY1,"1999/05/13 04:30",73.25333,14.43,TRADE
SNOWY1,"1999/05/13 05:00",70.69667,14.26,TRADE
SNOWY1,"1999/05/13 05:30",70.635,15.57,TRADE
SNOWY1,"1999/05/13 06:00",70.98667,15.45,TRADE
SNOWY1,"1999/05/13 06:30",71.42,16.94,TRADE
SNOWY1,"1999/05/13 07:00",58.525,23.1,TRADE
SNOWY1,"1999/05/13 07:30",11.25167,21.69,TRADE
SNOWY1,"1999/05/13 08:00",9.51,31.61,TRADE
SNOWY1,"1999/05/13 08:30",9.73833,40.88,TRADE
SNOWY1,"1999/05/13 09:00",7.50667,30.49,TRADE
SNOWY1,"1999/05/13 09:30",9.845,38.95,TRADE
SNOWY1,"1999/05/13 10:00",9.505,41.42,TRADE
SNOWY1,"1999/05/13 10:30",6.14167,29.36,TRADE
SNOWY1,"1999/05/13 11:00",8.71667,29.97,TRADE
SNOWY1,"1999/05/13 11:30",5.37167,28.75,TRADE
SNOWY1,"1999/05/13 12:00",8.13333,28.54,TRADE
SNOWY1,"1999/05/13 12:30",9.015,27.91,TRADE
SNOWY1,"1999/05/13 13:00",24.125,28.81,TRADE
SNOWY1,"1999/05/13 13:30",3.768,29.91,TRADE
SNOWY1,"1999/05/13 15:30",6.2325,21.6,TRADE
SNOWY1,"1999/05/13 16:00",7.33,27.15,TRADE
SNOWY1,"1999/05/13 16:30",25.29833,21.49,TRADE
SNOWY1,"1999/05/13 17:00",8.54333,24.1,TRADE
SNOWY1,"1999/05/13 17:30",2.26167,37.06,TRADE
SNOWY1,"1999/05/13 18:00",7.93,58.12,TRADE
SNOWY1,"1999/05/13 18:30",5.53167,59.42,TRADE
SNOWY1,"1999/05/13 19:00",12.15667,52.07,TRADE
SNOWY1,"1999/05/13 19:30",6.61833,39.41,TRADE
SNOWY1,"1999/05/13 20:00",3.865,29.58,TRADE
SNOWY1,"1999/05/13 20:30",2.09667,30.99,TRADE
SNOWY1,"1999/05/13 21:00",3.86167,29.29,TRADE
SNOWY1,"1999/05/13 21:30",5.42167,23.05,TRADE
SNOWY1,"1999/05/13 22:00",3.71167,22.09,TRADE
SNOWY1,"1999/05/13 22:30",7.09333,30.06,TRADE
SNOWY1,"1999/05/13 23:00",6.84667,27.78,TRADE
SNOWY1,"1999/05/13 23:30",2.87667,31.6,TRADE
SNOWY1,"1999/05/14 00:00",6.12167,28.66,TRADE
SNOWY1,"1999/05/14 00:30",5.52333,28.41,TRADE
SNOWY1,"1999/05/14 01:00",7.23333,26.94,TRADE
SNOWY1,"1999/05/14 01:30",5.95333,28.71,TRADE
SNOWY1,"1999/05/14 02:00",4.30167,24.78,TRADE
SNOWY1,"1999/05/14 02:30",2.66833,20.62,TRADE
SNOWY1,"1999/05/14 03:00",4.57333,16.87,TRADE
SNOWY1,"1999/05/14 03:30",2.03167,15.89,TRADE
SNOWY1,"1999/05/14 04:00",3.18,14.75,TRADE
SNOWY1,"1999/05/14 04:30",45.06333,13.47,TRADE
SNOWY1,"1999/05/14 05:00",72.28333,13.53,TRADE
SNOWY1,"1999/05/14 05:30",70.28167,15.7,TRADE
SNOWY1,"1999/05/14 06:00",70.34333,16.27,TRADE
SNOWY1,"1999/05/14 06:30",52.87833,20.31,TRADE
SNOWY1,"1999/05/14 07:00",9.005,28.18,TRADE
SNOWY1,"1999/05/14 07:30",7.44333,23.03,TRADE
SNOWY1,"1999/05/14 08:00",12.12333,40.17,TRADE
SNOWY1,"1999/05/14 08:30",3.34,52.12,TRADE
SNOWY1,"1999/05/14 09:00",12.67833,38.73,TRADE
SNOWY1,"1999/05/14 09:30",8.1,43.69,TRADE
SNOWY1,"1999/05/14 10:00",5.77833,44.42,TRADE
SNOWY1,"1999/05/14 10:30",8.405,33.93,TRADE
SNOWY1,"1999/05/14 11:00",8.205,33.25,TRADE
SNOWY1,"1999/05/14 11:30",11.31,29.06,TRADE
SNOWY1,"1999/05/14 12:00",7.785,28.91,TRADE
SNOWY1,"1999/05/14 12:30",12.09667,29.71,TRADE
SNOWY1,"1999/05/14 13:00",7.63833,28.51,TRADE
SNOWY1,"1999/05/14 13:30",10.475,32.08,TRADE
SNOWY1,"1999/05/14 14:00",7.01333,29.09,TRADE
SNOWY1,"1999/05/14 14:30",11.34667,27.86,TRADE
SNOWY1,"1999/05/14 15:00",5.935,25.19,TRADE
SNOWY1,"1999/05/14 15:30",13.57167,16.04,TRADE
SNOWY1,"1999/05/14 16:00",9.065,18.23,TRADE
SNOWY1,"1999/05/14 16:30",7.57167,16.55,TRADE
SNOWY1,"1999/05/14 17:00",14.03833,17.55,TRADE
SNOWY1,"1999/05/14 17:30",6.19167,27.6,TRADE
SNOWY1,"1999/05/14 18:00",11.61167,50.01,TRADE
SNOWY1,"1999/05/14 18:30",15.79667,51.64,TRADE
SNOWY1,"1999/05/14 19:00",14.63,40.27,TRADE
SNOWY1,"1999/05/14 19:30",6.40833,29.35,TRADE
SNOWY1,"1999/05/14 20:00",14.35167,27.09,TRADE
SNOWY1,"1999/05/14 20:30",9.52,24.95,TRADE
SNOWY1,"1999/05/14 21:00",8.39667,22.5,TRADE
SNOWY1,"1999/05/14 21:30",8.25,17.75,TRADE
SNOWY1,"1999/05/14 22:00",1.86833,18.07,TRADE
SNOWY1,"1999/05/14 22:30",11.71667,27.35,TRADE
SNOWY1,"1999/05/14 23:00",4.74,28.22,TRADE
SNOWY1,"1999/05/14 23:30",17.38333,33.22,TRADE
SNOWY1,"1999/05/15 00:00",8.36833,29.8,TRADE
SNOWY1,"1999/05/15 00:30",5.12333,26.89,TRADE
SNOWY1,"1999/05/15 01:00",2.79333,26.6,TRADE
SNOWY1,"1999/05/15 01:30",4.02833,27.88,TRADE
SNOWY1,"1999/05/15 02:00",4.34333,24.4,TRADE
SNOWY1,"1999/05/15 02:30",0.785,20.76,TRADE
SNOWY1,"1999/05/15 03:00",1.75,17.18,TRADE
SNOWY1,"1999/05/15 03:30",18.76167,15.63,TRADE
SNOWY1,"1999/05/15 04:00",71.87833,14.67,TRADE
SNOWY1,"1999/05/15 04:30",73.01167,12.94,TRADE
SNOWY1,"1999/05/15 05:00",71,12.75,TRADE
SNOWY1,"1999/05/15 05:30",72.14333,12.71,TRADE
SNOWY1,"1999/05/15 06:00",70.43333,12.93,TRADE
SNOWY1,"1999/05/15 06:30",71.88667,14.15,TRADE
SNOWY1,"1999/05/15 07:00",69.64833,15.22,TRADE
SNOWY1,"1999/05/15 07:30",64.95833,18.92,TRADE
SNOWY1,"1999/05/15 08:00",2.24667,22.32,TRADE
SNOWY1,"1999/05/15 08:30",4.06667,26.01,TRADE
SNOWY1,"1999/05/15 09:00",7.745,26.99,TRADE
SNOWY1,"1999/05/15 09:30",23.82333,31.63,TRADE
SNOWY1,"1999/05/15 10:00",9.50667,32.33,TRADE
SNOWY1,"1999/05/15 10:30",12.08333,33.61,TRADE
SNOWY1,"1999/05/15 11:00",6.02167,28.24,TRADE
SNOWY1,"1999/05/15 11:30",5.125,28.28,TRADE
SNOWY1,"1999/05/15 12:00",4.41833,28.32,TRADE
SNOWY1,"1999/05/15 12:30",5.63333,28.44,TRADE
SNOWY1,"1999/05/15 13:00",5.86833,28.54,TRADE
SNOWY1,"1999/05/15 13:30",9.36,28.56,TRADE
SNOWY1,"1999/05/15 14:00",3.25833,28.83,TRADE
SNOWY1,"1999/05/15 14:30",5.20167,29.03,TRADE
SNOWY1,"1999/05/15 15:00",1.59667,28.44,TRADE
SNOWY1,"1999/05/15 15:30",4.32167,28.44,TRADE
SNOWY1,"1999/05/15 16:00",8.51333,28.44,TRADE
SNOWY1,"1999/05/15 16:30",3.96333,27.6,TRADE
SNOWY1,"1999/05/15 17:00",9.47333,27.94,TRADE
SNOWY1,"1999/05/15 17:30",4.995,30.7,TRADE
SNOWY1,"1999/05/15 18:00",6.56,39.15,TRADE
SNOWY1,"1999/05/15 18:30",12.18333,41.3,TRADE
SNOWY1,"1999/05/15 19:00",10.915,39.76,TRADE
SNOWY1,"1999/05/15 19:30",10.98333,35.96,TRADE
SNOWY1,"1999/05/15 20:00",10.16833,30.04,TRADE
SNOWY1,"1999/05/15 20:30",6.39167,29.57,TRADE
SNOWY1,"1999/05/15 21:00",9.61333,30.11,TRADE
SNOWY1,"1999/05/15 21:30",13.55167,28.44,TRADE
SNOWY1,"1999/05/15 22:00",3.06,27.94,TRADE
SNOWY1,"1999/05/15 22:30",1.45,27.33,TRADE
SNOWY1,"1999/05/15 23:00",3.07167,26.04,TRADE
SNOWY1,"1999/05/15 23:30",9.80167,27.33,TRADE
SNOWY1,"1999/05/16 00:00",3.88833,27.5,TRADE
SNOWY1,"1999/05/16 00:30",6.49167,27.97,TRADE
SNOWY1,"1999/05/16 01:00",2.725,26.23,TRADE
SNOWY1,"1999/05/16 01:30",13.70667,28.15,TRADE
SNOWY1,"1999/05/16 02:00",12.49333,25.44,TRADE
SNOWY1,"1999/05/16 02:30",3.15,21.2,TRADE
SNOWY1,"1999/05/16 03:00",5.97667,18.83,TRADE
SNOWY1,"1999/05/16 03:30",44.84667,15.44,TRADE
SNOWY1,"1999/05/16 04:00",70.71667,14.37,TRADE
SNOWY1,"1999/05/16 04:30",66.35333,14.68,TRADE
SNOWY1,"1999/05/16 05:00",68.01,13.44,TRADE
SNOWY1,"1999/05/16 05:30",64.83667,13.97,TRADE
SNOWY1,"1999/05/16 06:00",68.65333,14.79,TRADE
SNOWY1,"1999/05/16 06:30",71.325,15.81,TRADE
SNOWY1,"1999/05/16 07:00",69.78833,16.89,TRADE
SNOWY1,"1999/05/16 07:30",77.095,15.87,TRADE
SNOWY1,"1999/05/16 08:00",76.795,22.21,TRADE
SNOWY1,"1999/05/16 08:30",21.64167,27.57,TRADE
SNOWY1,"1999/05/16 09:00",7.33333,27.97,TRADE
SNOWY1,"1999/05/16 09:30",22.38,31.4,TRADE
SNOWY1,"1999/05/16 10:00",15.27667,31.3,TRADE
SNOWY1,"1999/05/16 10:30",4.6,30.34,TRADE
SNOWY1,"1999/05/16 11:00",3.78833,28.19,TRADE
SNOWY1,"1999/05/16 11:30",2.34167,28.44,TRADE
SNOWY1,"1999/05/16 12:00",4.165,24.42,TRADE
SNOWY1,"1999/05/16 12:30",1.01667,23.37,TRADE
SNOWY1,"1999/05/16 13:00",4.19333,22.79,TRADE
SNOWY1,"1999/05/16 13:30",5.81,23.77,TRADE
SNOWY1,"1999/05/16 14:00",6.385,23.56,TRADE
SNOWY1,"1999/05/16 14:30",8.665,24.13,TRADE
SNOWY1,"1999/05/16 15:00",3.435,19.51,TRADE
SNOWY1,"1999/05/16 15:30",2.37167,18.51,TRADE
SNOWY1,"1999/05/16 16:00",2.34,22.36,TRADE
SNOWY1,"1999/05/16 16:30",1.895,25.35,TRADE
SNOWY1,"1999/05/16 17:00",1.63,23.67,TRADE
SNOWY1,"1999/05/16 17:30",19.22167,29.26,TRADE
SNOWY1,"1999/05/16 18:00",3.15167,41.45,TRADE
SNOWY1,"1999/05/16 18:30",10.52333,49.51,TRADE
SNOWY1,"1999/05/16 19:00",7.415,42.65,TRADE
SNOWY1,"1999/05/16 19:30",12.02667,39.34,TRADE
SNOWY1,"1999/05/16 20:00",12.445,35.52,TRADE
SNOWY1,"1999/05/16 20:30",7.65,35.51,TRADE
SNOWY1,"1999/05/16 21:00",5.09,33.16,TRADE
SNOWY1,"1999/05/16 21:30",6.37167,32.28,TRADE
SNOWY1,"1999/05/16 22:00",3.81333,28.6,TRADE
SNOWY1,"1999/05/16 22:30",9.65333,28.14,TRADE
SNOWY1,"1999/05/16 23:00",3.88667,27.88,TRADE
SNOWY1,"1999/05/16 23:30",13.60667,28.26,TRADE
SNOWY1,"1999/05/17 00:00",1.64333,27.29,TRADE
SNOWY1,"1999/05/17 00:30",2.14,25.77,TRADE
SNOWY1,"1999/05/17 01:00",3.64333,23.93,TRADE
SNOWY1,"1999/05/17 01:30",0.86333,26.53,TRADE
SNOWY1,"1999/05/17 02:00",5.51333,24.98,TRADE
SNOWY1,"1999/05/17 02:30",1.93833,23.04,TRADE
SNOWY1,"1999/05/17 03:00",0.59,20.17,TRADE
SNOWY1,"1999/05/17 03:30",46.28333,16.72,TRADE
SNOWY1,"1999/05/17 04:00",72.04833,14.02,TRADE
SNOWY1,"1999/05/17 04:30",75.70667,14.43,TRADE
SNOWY1,"1999/05/17 05:00",76.22667,14.85,TRADE
SNOWY1,"1999/05/17 05:30",75.165,18.7,TRADE
SNOWY1,"1999/05/17 06:00",78.41167,20.89,TRADE
SNOWY1,"1999/05/17 06:30",42.695,25.32,TRADE
SNOWY1,"1999/05/17 07:00",20.80667,33.37,TRADE
SNOWY1,"1999/05/17 07:30",13.75833,30.32,TRADE
SNOWY1,"1999/05/17 08:00",16.92,44.2,TRADE
SNOWY1,"1999/05/17 08:30",18.91833,52.67,TRADE
SNOWY1,"1999/05/17 09:00",19.735,48.4,TRADE
SNOWY1,"1999/05/17 09:30",17.16333,56.26,TRADE
SNOWY1,"1999/05/17 10:00",20.41167,54.43,TRADE
SNOWY1,"1999/05/17 10:30",18.86333,49.35,TRADE
SNOWY1,"1999/05/17 11:00",16.545,40.58,TRADE
SNOWY1,"1999/05/17 11:30",16.69667,32.75,TRADE
SNOWY1,"1999/05/17 12:00",13.92167,31.29,TRADE
SNOWY1,"1999/05/17 12:30",13.74167,29.17,TRADE
SNOWY1,"1999/05/17 13:00",15.07167,27.82,TRADE
SNOWY1,"1999/05/17 13:30",10.185,25.06,TRADE
SNOWY1,"1999/05/17 14:00",13.655,24.37,TRADE
SNOWY1,"1999/05/17 14:30",5.95833,22.54,TRADE
SNOWY1,"1999/05/17 15:00",12.35833,25.02,TRADE
SNOWY1,"1999/05/17 15:30",9.96,24.32,TRADE
SNOWY1,"1999/05/17 16:00",13.125,24.68,TRADE
SNOWY1,"1999/05/17 16:30",11.53,23.78,TRADE
SNOWY1,"1999/05/17 17:00",13.31667,24.14,TRADE
SNOWY1,"1999/05/17 17:30",4.47667,43.8,TRADE
SNOWY1,"1999/05/17 18:00",14.56667,62.66,TRADE
SNOWY1,"1999/05/17 18:30",6.41,61.66,TRADE
SNOWY1,"1999/05/17 19:00",12.86833,59.61,TRADE
SNOWY1,"1999/05/17 19:30",12.965,51.07,TRADE
SNOWY1,"1999/05/17 20:00",14.18833,44.74,TRADE
SNOWY1,"1999/05/17 20:30",11.055,37.19,TRADE
SNOWY1,"1999/05/17 21:00",15.365,44.24,TRADE
SNOWY1,"1999/05/17 21:30",9.83667,33.02,TRADE
SNOWY1,"1999/05/17 22:00",8.61667,28.24,TRADE
SNOWY1,"1999/05/17 22:30",6.39333,33.56,TRADE
SNOWY1,"1999/05/17 23:00",7.57167,29.64,TRADE
SNOWY1,"1999/05/17 23:30",24.75333,35.38,TRADE
SNOWY1,"1999/05/18 00:00",16.00833,34.53,TRADE
SNOWY1,"1999/05/18 00:30",7.41667,33.57,TRADE
SNOWY1,"1999/05/18 01:00",6.655,29.38,TRADE
SNOWY1,"1999/05/18 01:30",24.105,35.32,TRADE
SNOWY1,"1999/05/18 02:00",9.92,35.59,TRADE
SNOWY1,"1999/05/18 02:30",8.95,29.45,TRADE
SNOWY1,"1999/05/18 03:00",4.74833,25.17,TRADE
SNOWY1,"1999/05/18 03:30",4.83333,22.47,TRADE
SNOWY1,"1999/05/18 04:00",2.97167,18.12,TRADE
SNOWY1,"1999/05/18 04:30",42.295,16.64,TRADE
SNOWY1,"1999/05/18 05:00",70.18333,16.75,TRADE
SNOWY1,"1999/05/18 05:30",71.65833,20.21,TRADE
SNOWY1,"1999/05/18 06:00",52.335,21.62,TRADE
SNOWY1,"1999/05/18 06:30",4.46333,25.44,TRADE
SNOWY1,"1999/05/18 07:00",6.345,44.31,TRADE
SNOWY1,"1999/05/18 07:30",6.29167,31.77,TRADE
SNOWY1,"1999/05/18 08:00",1.27167,55.42,TRADE
SNOWY1,"1999/05/18 08:30",2.31,55.77,TRADE
SNOWY1,"1999/05/18 09:00",0.43667,47.95,TRADE
SNOWY1,"1999/05/18 09:30",0.295,56.01,TRADE
SNOWY1,"1999/05/18 10:00",0.97,56.28,TRADE
SNOWY1,"1999/05/18 10:30",1.02833,43.75,TRADE
SNOWY1,"1999/05/18 11:00",0.93833,37.58,TRADE
SNOWY1,"1999/05/18 11:30",0.12167,35.26,TRADE
SNOWY1,"1999/05/18 12:00",0.23,43.01,TRADE
SNOWY1,"1999/05/18 12:30",0.175,39.61,TRADE
SNOWY1,"1999/05/18 13:00",0.81333,33.75,TRADE
SNOWY1,"1999/05/18 13:30",1.93333,36.19,TRADE
SNOWY1,"1999/05/18 14:00",1.25333,35.09,TRADE
SNOWY1,"1999/05/18 14:30",0,34.1,TRADE
SNOWY1,"1999/05/18 15:00",0.61333,28.37,TRADE
SNOWY1,"1999/05/18 15:30",1.625,27.68,TRADE
SNOWY1,"1999/05/18 16:00",2.91333,29.26,TRADE
SNOWY1,"1999/05/18 16:30",3.47667,28.43,TRADE
SNOWY1,"1999/05/18 17:00",2.7,38.13,TRADE
SNOWY1,"1999/05/18 17:30",5.11333,48.69,TRADE
SNOWY1,"1999/05/18 18:00",3.78833,61.18,TRADE
SNOWY1,"1999/05/18 18:30",11.28667,60.13,TRADE
SNOWY1,"1999/05/18 19:00",8.66333,57.79,TRADE
SNOWY1,"1999/05/18 19:30",9.94667,48.55,TRADE
SNOWY1,"1999/05/18 20:00",8.02333,45.8,TRADE
SNOWY1,"1999/05/18 20:30",4.83167,39.11,TRADE
SNOWY1,"1999/05/18 21:00",5.09833,41.58,TRADE
SNOWY1,"1999/05/18 21:30",2.53167,32.9,TRADE
SNOWY1,"1999/05/18 22:00",8.11833,31.91,TRADE
SNOWY1,"1999/05/18 22:30",9.83833,39.3,TRADE
SNOWY1,"1999/05/18 23:00",3.75333,33.93,TRADE
SNOWY1,"1999/05/18 23:30",3.10667,40.48,TRADE
SNOWY1,"1999/05/19 00:00",10.85667,36.09,TRADE
SNOWY1,"1999/05/19 00:30",11.07,34.54,TRADE
SNOWY1,"1999/05/19 01:00",5.16167,33.22,TRADE
SNOWY1,"1999/05/19 01:30",23.61667,35.82,TRADE
SNOWY1,"1999/05/19 02:00",4.6,32.66,TRADE
SNOWY1,"1999/05/19 02:30",2.585,27.66,TRADE
SNOWY1,"1999/05/19 03:00",9.16,27.34,TRADE
SNOWY1,"1999/05/19 03:30",3.45167,25.18,TRADE
SNOWY1,"1999/05/19 04:00",1.725,22.96,TRADE
SNOWY1,"1999/05/19 04:30",2.48167,22.44,TRADE
SNOWY1,"1999/05/19 05:00",2.48167,22.53,TRADE
SNOWY1,"1999/05/19 05:30",4.80333,24.63,TRADE
SNOWY1,"1999/05/19 06:00",3.32,25.03,TRADE
SNOWY1,"1999/05/19 06:30",9.27167,43.83,TRADE
SNOWY1,"1999/05/19 07:00",2.97167,56.1,TRADE
SNOWY1,"1999/05/19 07:30",6.73833,47.7,TRADE
SNOWY1,"1999/05/19 08:00",0.46333,60.13,TRADE
SNOWY1,"1999/05/19 08:30",1.84,60.13,TRADE
SNOWY1,"1999/05/19 09:00",3.64167,58.82,TRADE
SNOWY1,"1999/05/19 09:30",4.20667,60.11,TRADE
SNOWY1,"1999/05/19 10:00",0.19167,60.13,TRADE
SNOWY1,"1999/05/19 10:30",0,59.14,TRADE
SNOWY1,"1999/05/19 11:00",2.21,55.68,TRADE
SNOWY1,"1999/05/19 11:30",9.14667,50.82,TRADE
SNOWY1,"1999/05/19 12:00",1.74167,42.01,TRADE
SNOWY1,"1999/05/19 12:30",1.95667,38.75,TRADE
SNOWY1,"1999/05/19 13:00",2.73167,31.07,TRADE
SNOWY1,"1999/05/19 13:30",2.72667,33.82,TRADE
SNOWY1,"1999/05/19 14:00",0.52833,39.45,TRADE
SNOWY1,"1999/05/19 14:30",2.15333,38.61,TRADE
SNOWY1,"1999/05/19 15:00",2.73667,37.59,TRADE
SNOWY1,"1999/05/19 15:30",2.13667,32.17,TRADE
SNOWY1,"1999/05/19 16:00",1.375,31.59,TRADE
SNOWY1,"1999/05/19 16:30",1.565,29.63,TRADE
SNOWY1,"1999/05/19 17:00",2.80333,29.92,TRADE
SNOWY1,"1999/05/19 17:30",1.18333,49.91,TRADE
SNOWY1,"1999/05/19 18:00",4.94,59.59,TRADE
SNOWY1,"1999/05/19 18:30",0.48,57.58,TRADE
SNOWY1,"1999/05/19 19:00",11.62333,49.29,TRADE
SNOWY1,"1999/05/19 19:30",12.50667,42.2,TRADE
SNOWY1,"1999/05/19 20:00",3.135,35.3,TRADE
SNOWY1,"1999/05/19 20:30",3.47667,50.58,TRADE
SNOWY1,"1999/05/19 21:00",1.89667,47.67,TRADE
SNOWY1,"1999/05/19 21:30",5.57833,43.27,TRADE
SNOWY1,"1999/05/19 22:00",1.75333,29.66,TRADE
SNOWY1,"1999/05/19 22:30",3.83333,39.39,TRADE
SNOWY1,"1999/05/19 23:00",2.28167,35.45,TRADE
SNOWY1,"1999/05/19 23:30",0.58167,45.14,TRADE
SNOWY1,"1999/05/20 00:00",0.6,43.46,TRADE
SNOWY1,"1999/05/20 00:30",1.55167,45.68,TRADE
SNOWY1,"1999/05/20 01:00",1.55,34.54,TRADE
SNOWY1,"1999/05/20 01:30",6.46833,41.21,TRADE
SNOWY1,"1999/05/20 02:00",3.48833,35.35,TRADE
SNOWY1,"1999/05/20 02:30",2.32,28.23,TRADE
SNOWY1,"1999/05/20 03:00",7.37,27.64,TRADE
SNOWY1,"1999/05/20 03:30",18.16167,27.77,TRADE
SNOWY1,"1999/05/20 04:00",1.72167,25.18,TRADE
SNOWY1,"1999/05/20 04:30",2.82,20.06,TRADE
SNOWY1,"1999/05/20 05:00",2.36333,19.24,TRADE
SNOWY1,"1999/05/20 05:30",6.75333,21.98,TRADE
SNOWY1,"1999/05/20 06:00",4.77,23.59,TRADE
SNOWY1,"1999/05/20 06:30",5.03167,29.14,TRADE
SNOWY1,"1999/05/20 07:00",1.92,44.7,TRADE
SNOWY1,"1999/05/20 07:30",10.39,40.62,TRADE
SNOWY1,"1999/05/20 08:00",10.985,57.17,TRADE
SNOWY1,"1999/05/20 08:30",10.93667,53.45,TRADE
SNOWY1,"1999/05/20 09:00",7.21333,40.54,TRADE
SNOWY1,"1999/05/20 09:30",3.65833,54.07,TRADE
SNOWY1,"1999/05/20 10:00",5.11833,51.83,TRADE
SNOWY1,"1999/05/20 10:30",3.23333,45.29,TRADE
SNOWY1,"1999/05/20 11:00",6.05,38.4,TRADE
SNOWY1,"1999/05/20 11:30",1.98833,35.01,TRADE
SNOWY1,"1999/05/20 12:00",0.045,41.19,TRADE
SNOWY1,"1999/05/20 12:30",0.915,42.36,TRADE
SNOWY1,"1999/05/20 13:00",0.575,40.72,TRADE
SNOWY1,"1999/05/20 13:30",2.66333,45.52,TRADE
SNOWY1,"1999/05/20 14:00",4.20833,43.81,TRADE
SNOWY1,"1999/05/20 14:30",4.85167,37.91,TRADE
SNOWY1,"1999/05/20 15:00",5.07,38.31,TRADE
SNOWY1,"1999/05/20 15:30",4.93667,28.3,TRADE
SNOWY1,"1999/05/20 16:00",2.35,33.56,TRADE
SNOWY1,"1999/05/20 16:30",2.45667,32.48,TRADE
SNOWY1,"1999/05/20 17:00",0.345,34.28,TRADE
SNOWY1,"1999/05/20 17:30",3.73333,44.45,TRADE
SNOWY1,"1999/05/20 18:00",0.93,66.18,TRADE
SNOWY1,"1999/05/20 18:30",7.10833,53.79,TRADE
SNOWY1,"1999/05/20 19:00",6.64167,43.86,TRADE
SNOWY1,"1999/05/20 19:30",4.13167,51.98,TRADE
SNOWY1,"1999/05/20 20:00",2.925,49.86,TRADE
SNOWY1,"1999/05/20 20:30",4.95833,46.17,TRADE
SNOWY1,"1999/05/20 21:00",2.67833,39.76,TRADE
SNOWY1,"1999/05/20 21:30",4.09167,30.29,TRADE
SNOWY1,"1999/05/20 22:00",1.60833,24,TRADE
SNOWY1,"1999/05/20 22:30",6.11,33.27,TRADE
SNOWY1,"1999/05/20 23:00",4.60333,30.15,TRADE
SNOWY1,"1999/05/20 23:30",9.51333,40.28,TRADE
SNOWY1,"1999/05/21 00:00",5.45,33.83,TRADE
SNOWY1,"1999/05/21 00:30",1.67333,32.46,TRADE
SNOWY1,"1999/05/21 01:00",3.62167,27.15,TRADE
SNOWY1,"1999/05/21 01:30",5.00833,30.74,TRADE
SNOWY1,"1999/05/21 02:00",2.52,26.95,TRADE
SNOWY1,"1999/05/21 02:30",3.385,21.62,TRADE
SNOWY1,"1999/05/21 03:00",5.40833,19.34,TRADE
SNOWY1,"1999/05/21 03:30",1.855,16.38,TRADE
SNOWY1,"1999/05/21 04:00",54.54833,14.71,TRADE
SNOWY1,"1999/05/21 04:30",70.80167,14.63,TRADE
SNOWY1,"1999/05/21 05:00",69.64667,14.73,TRADE
SNOWY1,"1999/05/21 05:30",71.69167,18.28,TRADE
SNOWY1,"1999/05/21 06:00",71.24667,16.41,TRADE
SNOWY1,"1999/05/21 06:30",50.085,22.05,TRADE
SNOWY1,"1999/05/21 07:00",17.465,29.65,TRADE
SNOWY1,"1999/05/21 07:30",4.49833,28.96,TRADE
SNOWY1,"1999/05/21 08:00",18.755,48.52,TRADE
SNOWY1,"1999/05/21 08:30",7.47833,47.53,TRADE
SNOWY1,"1999/05/21 09:00",2.865,50.19,TRADE
SNOWY1,"1999/05/21 09:30",5.33667,52.65,TRADE
SNOWY1,"1999/05/21 10:00",5.415,54.83,TRADE
SNOWY1,"1999/05/21 10:30",5.14667,50.26,TRADE
SNOWY1,"1999/05/21 11:00",5.33,34.26,TRADE
SNOWY1,"1999/05/21 11:30",0.35833,48.22,TRADE
SNOWY1,"1999/05/21 12:00",4.755,45.74,TRADE
SNOWY1,"1999/05/21 12:30",3.92667,44.58,TRADE
SNOWY1,"1999/05/21 13:00",5.52,34.8,TRADE
SNOWY1,"1999/05/21 13:30",3.90333,38.68,TRADE
SNOWY1,"1999/05/21 14:00",5.11667,31.95,TRADE
SNOWY1,"1999/05/21 14:30",0.76333,33.36,TRADE
SNOWY1,"1999/05/21 15:00",1.505,28.32,TRADE
SNOWY1,"1999/05/21 15:30",1.02667,27.16,TRADE
SNOWY1,"1999/05/21 16:00",0.94,27.71,TRADE
SNOWY1,"1999/05/21 16:30",0.58,26.46,TRADE
SNOWY1,"1999/05/21 17:00",6.84833,30.89,TRADE
SNOWY1,"1999/05/21 17:30",11.79833,37.68,TRADE
SNOWY1,"1999/05/21 18:00",5.23833,49.82,TRADE
SNOWY1,"1999/05/21 18:30",9.50167,42.6,TRADE
SNOWY1,"1999/05/21 19:00",11.16333,36.52,TRADE
SNOWY1,"1999/05/21 19:30",2.56167,25.43,TRADE
SNOWY1,"1999/05/21 20:00",0.44,23.77,TRADE
SNOWY1,"1999/05/21 20:30",2.18833,23.53,TRADE
SNOWY1,"1999/05/21 21:00",5.01,29.26,TRADE
SNOWY1,"1999/05/21 21:30",4.68333,22.58,TRADE
SNOWY1,"1999/05/21 22:00",2.84833,18.72,TRADE
SNOWY1,"1999/05/21 22:30",8.43667,31.91,TRADE
SNOWY1,"1999/05/21 23:00",12.69,29.97,TRADE
SNOWY1,"1999/05/21 23:30",13.71667,35.75,TRADE
SNOWY1,"1999/05/22 00:00",4.45167,33.83,TRADE
SNOWY1,"1999/05/22 00:30",5.92667,29.12,TRADE
SNOWY1,"1999/05/22 01:00",2.85167,27.27,TRADE
SNOWY1,"1999/05/22 01:30",3.34,29.31,TRADE
SNOWY1,"1999/05/22 02:00",1.62167,27.86,TRADE
SNOWY1,"1999/05/22 02:30",2.46833,24.1,TRADE
SNOWY1,"1999/05/22 03:00",0.74,22.05,TRADE
SNOWY1,"1999/05/22 03:30",18.50667,16.54,TRADE
SNOWY1,"1999/05/22 04:00",67.64833,14.92,TRADE
SNOWY1,"1999/05/22 04:30",68.57667,13.79,TRADE
SNOWY1,"1999/05/22 05:00",67.74,12.98,TRADE
SNOWY1,"1999/05/22 05:30",67.05667,14.52,TRADE
SNOWY1,"1999/05/22 06:00",69.95,14.81,TRADE
SNOWY1,"1999/05/22 06:30",68.81167,17.45,TRADE
SNOWY1,"1999/05/22 07:00",68.78333,18.84,TRADE
SNOWY1,"1999/05/22 07:30",65.72667,22.39,TRADE
SNOWY1,"1999/05/22 08:00",72.00167,26.73,TRADE
SNOWY1,"1999/05/22 08:30",38.655,31.54,TRADE
SNOWY1,"1999/05/22 09:00",5.15333,36.75,TRADE
SNOWY1,"1999/05/22 09:30",5.92333,39.38,TRADE
SNOWY1,"1999/05/22 10:00",4.97333,37.09,TRADE
SNOWY1,"1999/05/22 10:30",4.125,37.32,TRADE
SNOWY1,"1999/05/22 11:00",5.26333,33.44,TRADE
SNOWY1,"1999/05/22 11:30",1.92167,32.8,TRADE
SNOWY1,"1999/05/22 12:00",6.25,31.43,TRADE
SNOWY1,"1999/05/22 12:30",1.62,33.8,TRADE
SNOWY1,"1999/05/22 13:00",3.99333,28.44,TRADE
SNOWY1,"1999/05/22 13:30",3.595,28.72,TRADE
SNOWY1,"1999/05/22 14:00",3.79167,29.13,TRADE
SNOWY1,"1999/05/22 14:30",1.50833,29.15,TRADE
SNOWY1,"1999/05/22 15:00",2.675,27.98,TRADE
SNOWY1,"1999/05/22 15:30",4.04833,27.49,TRADE
SNOWY1,"1999/05/22 16:00",2.045,28.22,TRADE
SNOWY1,"1999/05/22 16:30",3.425,24.69,TRADE
SNOWY1,"1999/05/22 17:00",0.60167,25.88,TRADE
SNOWY1,"1999/05/22 17:30",5.81167,31.95,TRADE
SNOWY1,"1999/05/22 18:00",3.05167,39.63,TRADE
SNOWY1,"1999/05/22 18:30",5.41833,35.1,TRADE
SNOWY1,"1999/05/22 19:00",3.17667,28.6,TRADE
SNOWY1,"1999/05/22 19:30",3.61167,27.61,TRADE
SNOWY1,"1999/05/22 20:00",3.29,26.55,TRADE
SNOWY1,"1999/05/22 20:30",1.09,26.18,TRADE
SNOWY1,"1999/05/22 21:00",4.135,26.92,TRADE
SNOWY1,"1999/05/22 21:30",2.07667,27.58,TRADE
SNOWY1,"1999/05/22 22:00",1.44333,24.43,TRADE
SNOWY1,"1999/05/22 22:30",2.17167,26.74,TRADE
SNOWY1,"1999/05/22 23:00",0.28833,24.69,TRADE
SNOWY1,"1999/05/22 23:30",10.02667,28.07,TRADE
SNOWY1,"1999/05/23 00:00",3.19333,25.95,TRADE
SNOWY1,"1999/05/23 00:30",1.86,26.33,TRADE
SNOWY1,"1999/05/23 01:00",1.19833,25.44,TRADE
SNOWY1,"1999/05/23 01:30",10.96667,28.24,TRADE
SNOWY1,"1999/05/23 02:00",2.16,23.13,TRADE
SNOWY1,"1999/05/23 02:30",42.815,17.28,TRADE
SNOWY1,"1999/05/23 03:00",72.34667,15.93,TRADE
SNOWY1,"1999/05/23 03:30",67.97667,13.77,TRADE
SNOWY1,"1999/05/23 04:00",69.61,12.43,TRADE
SNOWY1,"1999/05/23 04:30",70.37167,12.22,TRADE
SNOWY1,"1999/05/23 05:00",68.65333,11.91,TRADE
SNOWY1,"1999/05/23 05:30",69.645,12.11,TRADE
SNOWY1,"1999/05/23 06:00",69.35833,12.22,TRADE
SNOWY1,"1999/05/23 06:30",67.45333,13.05,TRADE
SNOWY1,"1999/05/23 07:00",67.625,13.32,TRADE
SNOWY1,"1999/05/23 07:30",74.73167,12.24,TRADE
SNOWY1,"1999/05/23 08:00",64.935,13.96,TRADE
SNOWY1,"1999/05/23 08:30",71.465,14.79,TRADE
SNOWY1,"1999/05/23 09:00",71.415,18.41,TRADE
SNOWY1,"1999/05/23 09:30",65.67167,23.15,TRADE
SNOWY1,"1999/05/23 10:00",72.79667,25.55,TRADE
SNOWY1,"1999/05/23 10:30",68.91167,26.94,TRADE
SNOWY1,"1999/05/23 11:00",70.48667,26.07,TRADE
SNOWY1,"1999/05/23 11:30",69.38,26.46,TRADE
SNOWY1,"1999/05/23 12:00",67.42833,26.94,TRADE
SNOWY1,"1999/05/23 12:30",66.31333,27.33,TRADE
SNOWY1,"1999/05/23 13:00",71.97333,27.31,TRADE
SNOWY1,"1999/05/23 13:30",93.7,27.86,TRADE
SNOWY1,"1999/05/23 14:00",70.485,25.93,TRADE
SNOWY1,"1999/05/23 14:30",69.85167,25.84,TRADE
SNOWY1,"1999/05/23 15:00",69.92833,24.86,TRADE
SNOWY1,"1999/05/23 15:30",9.70833,20.81,TRADE
SNOWY1,"1999/05/23 16:00",3.28,24.5,TRADE
SNOWY1,"1999/05/23 16:30",1.755,22.06,TRADE
SNOWY1,"1999/05/23 17:00",4.005,24.62,TRADE
SNOWY1,"1999/05/23 17:30",15.84,28.19,TRADE
SNOWY1,"1999/05/23 18:00",7.24333,34.82,TRADE
SNOWY1,"1999/05/23 18:30",6.46667,32.52,TRADE
SNOWY1,"1999/05/23 19:00",3.29833,27.82,TRADE
SNOWY1,"1999/05/23 19:30",2.94667,26.93,TRADE
SNOWY1,"1999/05/23 20:00",3.96167,28.44,TRADE
SNOWY1,"1999/05/23 20:30",2.23167,27.24,TRADE
SNOWY1,"1999/05/23 21:00",1.10667,25.59,TRADE
SNOWY1,"1999/05/23 21:30",6.6,19.22,TRADE
SNOWY1,"1999/05/23 22:00",3.455,17.29,TRADE
SNOWY1,"1999/05/23 22:30",1.71833,22.03,TRADE
SNOWY1,"1999/05/23 23:00",1.74833,18.7,TRADE
SNOWY1,"1999/05/23 23:30",18.15,26.4,TRADE
SNOWY1,"1999/05/24 00:00",0.72167,26.25,TRADE
SNOWY1,"1999/05/24 00:30",3.46667,24.4,TRADE
SNOWY1,"1999/05/24 01:00",1.65,16.4,TRADE
SNOWY1,"1999/05/24 01:30",3.06167,23.85,TRADE
SNOWY1,"1999/05/24 02:00",3.01333,21.22,TRADE
SNOWY1,"1999/05/24 02:30",43.90833,16.64,TRADE
SNOWY1,"1999/05/24 03:00",72.28833,15.7,TRADE
SNOWY1,"1999/05/24 03:30",72.80833,14.4,TRADE
SNOWY1,"1999/05/24 04:00",74.21667,12.82,TRADE
SNOWY1,"1999/05/24 04:30",73.045,12.69,TRADE
SNOWY1,"1999/05/24 05:00",74.35167,12.47,TRADE
SNOWY1,"1999/05/24 05:30",69.58,14.76,TRADE
SNOWY1,"1999/05/24 06:00",72.68167,16.17,TRADE
SNOWY1,"1999/05/24 06:30",6.18,19.1,TRADE
SNOWY1,"1999/05/24 07:00",7.135,23.95,TRADE
SNOWY1,"1999/05/24 07:30",12.77667,20.78,TRADE
SNOWY1,"1999/05/24 08:00",11.22833,29.9,TRADE
SNOWY1,"1999/05/24 08:30",10.40667,34.54,TRADE
SNOWY1,"1999/05/24 09:00",9.40167,29.66,TRADE
SNOWY1,"1999/05/24 09:30",5.31333,43.56,TRADE
SNOWY1,"1999/05/24 10:00",5.17333,39.16,TRADE
SNOWY1,"1999/05/24 10:30",8.95667,36.99,TRADE
SNOWY1,"1999/05/24 11:00",4.01667,45.96,TRADE
SNOWY1,"1999/05/24 11:30",0.3,41.45,TRADE
SNOWY1,"1999/05/24 12:00",4.83,48.48,TRADE
SNOWY1,"1999/05/24 12:30",2.84667,41.66,TRADE
SNOWY1,"1999/05/24 13:00",1.925,36.96,TRADE
SNOWY1,"1999/05/24 13:30",7.72333,41.72,TRADE
SNOWY1,"1999/05/24 14:00",4.73,33.53,TRADE
SNOWY1,"1999/05/24 14:30",10.765,37.31,TRADE
SNOWY1,"1999/05/24 15:00",1.9,33.92,TRADE
SNOWY1,"1999/05/24 15:30",2.17,40.18,TRADE
SNOWY1,"1999/05/24 16:00",7.87333,49.89,TRADE
SNOWY1,"1999/05/24 16:30",3.91333,36.76,TRADE
SNOWY1,"1999/05/24 17:00",6.78,48.81,TRADE
SNOWY1,"1999/05/24 17:30",4.39667,52.21,TRADE
SNOWY1,"1999/05/24 18:00",2.70333,73.33,TRADE
SNOWY1,"1999/05/24 18:30",4.91667,48.25,TRADE
SNOWY1,"1999/05/24 19:00",4.95833,31.55,TRADE
SNOWY1,"1999/05/24 19:30",6.41333,24.56,TRADE
SNOWY1,"1999/05/24 20:00",2.78833,23.17,TRADE
SNOWY1,"1999/05/24 20:30",4.27333,27.19,TRADE
SNOWY1,"1999/05/24 21:00",3.82,20.15,TRADE
SNOWY1,"1999/05/24 21:30",5.99333,19.93,TRADE
SNOWY1,"1999/05/24 22:00",1.80167,20.01,TRADE
SNOWY1,"1999/05/24 22:30",5.03667,27.48,TRADE
SNOWY1,"1999/05/24 23:00",0.80167,25.28,TRADE
SNOWY1,"1999/05/24 23:30",4.19667,30.37,TRADE
SNOWY1,"1999/05/25 00:00",7.405,29.27,TRADE
SNOWY1,"1999/05/25 00:30",4.965,28.72,TRADE
SNOWY1,"1999/05/25 01:00",3.33333,26.88,TRADE
SNOWY1,"1999/05/25 01:30",4.795,29.28,TRADE
SNOWY1,"1999/05/25 02:00",3.46667,27.92,TRADE
SNOWY1,"1999/05/25 02:30",2.76833,23.41,TRADE
SNOWY1,"1999/05/25 03:00",3.56333,21.04,TRADE
SNOWY1,"1999/05/25 03:30",2.34667,16.16,TRADE
SNOWY1,"1999/05/25 04:00",2.41,14.4,TRADE
SNOWY1,"1999/05/25 04:30",1.56333,11.1,TRADE
SNOWY1,"1999/05/25 05:00",2.77167,11.24,TRADE
SNOWY1,"1999/05/25 05:30",1.855,14.05,TRADE
SNOWY1,"1999/05/25 06:00",2.17167,16.13,TRADE
SNOWY1,"1999/05/25 06:30",9.67,21.07,TRADE
SNOWY1,"1999/05/25 07:00",15.78333,27.28,TRADE
SNOWY1,"1999/05/25 07:30",3.52167,21.95,TRADE
SNOWY1,"1999/05/25 08:00",6.76667,33.36,TRADE
SNOWY1,"1999/05/25 08:30",8.54333,34.54,TRADE
SNOWY1,"1999/05/25 09:00",3.33833,29.28,TRADE
SNOWY1,"1999/05/25 09:30",8.28833,31.93,TRADE
SNOWY1,"1999/05/25 10:00",4.51167,31.99,TRADE
SNOWY1,"1999/05/25 10:30",1.345,28.55,TRADE
SNOWY1,"1999/05/25 11:00",10.46333,28.33,TRADE
SNOWY1,"1999/05/25 11:30",4.115,29.56,TRADE
SNOWY1,"1999/05/25 12:00",5.14833,30.04,TRADE
SNOWY1,"1999/05/25 12:30",3.07,30.19,TRADE
SNOWY1,"1999/05/25 13:00",7.46833,30.72,TRADE
SNOWY1,"1999/05/25 13:30",3.83333,33.26,TRADE
SNOWY1,"1999/05/25 14:00",4.34,32.76,TRADE
SNOWY1,"1999/05/25 14:30",6.845,31.91,TRADE
SNOWY1,"1999/05/25 15:00",3.81833,32.73,TRADE
SNOWY1,"1999/05/25 15:30",5.605,30.57,TRADE
SNOWY1,"1999/05/25 16:00",7.66667,32.43,TRADE
SNOWY1,"1999/05/25 16:30",2.31833,30.66,TRADE
SNOWY1,"1999/05/25 17:00",7.73333,30.18,TRADE
SNOWY1,"1999/05/25 17:30",7.34833,38.41,TRADE
SNOWY1,"1999/05/25 18:00",4.54333,55.88,TRADE
SNOWY1,"1999/05/25 18:30",2.76333,51.65,TRADE
SNOWY1,"1999/05/25 19:00",4.78667,36.38,TRADE
SNOWY1,"1999/05/25 19:30",0.84167,34.62,TRADE
SNOWY1,"1999/05/25 20:00",1.97,27.3,TRADE
SNOWY1,"1999/05/25 20:30",1.37667,27.18,TRADE
SNOWY1,"1999/05/25 21:00",1.04333,26.04,TRADE
SNOWY1,"1999/05/25 21:30",2.12,23.68,TRADE
SNOWY1,"1999/05/25 22:00",0.01,23.66,TRADE
SNOWY1,"1999/05/25 22:30",0.51,25.94,TRADE
SNOWY1,"1999/05/25 23:00",1.985,25.39,TRADE
SNOWY1,"1999/05/25 23:30",7.85667,33.17,TRADE
SNOWY1,"1999/05/26 00:00",0.93667,32.97,TRADE
SNOWY1,"1999/05/26 00:30",1.38167,30.94,TRADE
SNOWY1,"1999/05/26 01:00",1.87,28.44,TRADE
SNOWY1,"1999/05/26 01:30",3.49167,31.35,TRADE
SNOWY1,"1999/05/26 02:00",0.55667,30.06,TRADE
SNOWY1,"1999/05/26 02:30",1.73,26.31,TRADE
SNOWY1,"1999/05/26 03:00",1.485,23.36,TRADE
SNOWY1,"1999/05/26 03:30",4.13167,18.77,TRADE
SNOWY1,"1999/05/26 04:00",1.87333,16.16,TRADE
SNOWY1,"1999/05/26 04:30",23.675,12.96,TRADE
SNOWY1,"1999/05/26 05:00",33.56833,14.31,TRADE
SNOWY1,"1999/05/26 05:30",35.6,20.07,TRADE
SNOWY1,"1999/05/26 06:00",37.47667,18.51,TRADE
SNOWY1,"1999/05/26 06:30",11.745,24.12,TRADE
SNOWY1,"1999/05/26 07:00",4.35667,30.57,TRADE
SNOWY1,"1999/05/26 07:30",10.18667,27.07,TRADE
SNOWY1,"1999/05/26 08:00",1.62833,33.81,TRADE
SNOWY1,"1999/05/26 08:30",6.22833,34.54,TRADE
SNOWY1,"1999/05/26 09:00",4.895,43.14,TRADE
SNOWY1,"1999/05/26 09:30",1.08333,45.52,TRADE
SNOWY1,"1999/05/26 10:00",0.50167,43.6,TRADE
SNOWY1,"1999/05/26 10:30",1.77833,32.52,TRADE
SNOWY1,"1999/05/26 11:00",0.70667,42.67,TRADE
SNOWY1,"1999/05/26 11:30",1.665,33.13,TRADE
SNOWY1,"1999/05/26 12:00",0,32.75,TRADE
SNOWY1,"1999/05/26 12:30",0.41333,39.9,TRADE
SNOWY1,"1999/05/26 13:00",8.75333,44.58,TRADE
SNOWY1,"1999/05/26 13:30",4.13667,44.15,TRADE
SNOWY1,"1999/05/26 14:00",0,44.58,TRADE
SNOWY1,"1999/05/26 14:30",0.37667,44.1,TRADE
SNOWY1,"1999/05/26 15:00",1.43333,38.92,TRADE
SNOWY1,"1999/05/26 15:30",0.07833,37.45,TRADE
SNOWY1,"1999/05/26 16:00",0.74167,29.24,TRADE
SNOWY1,"1999/05/26 16:30",1.35167,33.63,TRADE
SNOWY1,"1999/05/26 17:00",0.045,37.91,TRADE
SNOWY1,"1999/05/26 17:30",8.51,50.63,TRADE
SNOWY1,"1999/05/26 18:00",2.37667,59.89,TRADE
SNOWY1,"1999/05/26 18:30",14.39333,48.2,TRADE
SNOWY1,"1999/05/26 19:00",6.415,32.65,TRADE
SNOWY1,"1999/05/26 19:30",4.73333,29.49,TRADE
SNOWY1,"1999/05/26 20:00",3.31,27.4,TRADE
SNOWY1,"1999/05/26 20:30",0.125,25.25,TRADE
SNOWY1,"1999/05/26 21:00",2.71833,19.11,TRADE
SNOWY1,"1999/05/26 21:30",5.88833,19.17,TRADE
SNOWY1,"1999/05/26 22:00",1.34167,22.4,TRADE
SNOWY1,"1999/05/26 22:30",2.04167,29.78,TRADE
SNOWY1,"1999/05/26 23:00",3.13667,29.21,TRADE
SNOWY1,"1999/05/26 23:30",5.38333,34.72,TRADE
SNOWY1,"1999/05/27 00:00",6.28667,35.19,TRADE
SNOWY1,"1999/05/27 00:30",2.87833,34.54,TRADE
SNOWY1,"1999/05/27 01:00",3.06167,32.43,TRADE
SNOWY1,"1999/05/27 01:30",5.875,34.58,TRADE
SNOWY1,"1999/05/27 02:00",3.60167,32.57,TRADE
SNOWY1,"1999/05/27 02:30",3.51833,28.04,TRADE
SNOWY1,"1999/05/27 03:00",7.30167,27.73,TRADE
SNOWY1,"1999/05/27 03:30",1.33167,24.47,TRADE
SNOWY1,"1999/05/27 04:00",5.51167,20.29,TRADE
SNOWY1,"1999/05/27 04:30",4.06,14.14,TRADE
SNOWY1,"1999/05/27 05:00",2.45167,17.18,TRADE
SNOWY1,"1999/05/27 05:30",9.775,23.33,TRADE
SNOWY1,"1999/05/27 06:00",3.23667,23.97,TRADE
SNOWY1,"1999/05/27 06:30",4.67,28.02,TRADE
SNOWY1,"1999/05/27 07:00",6.15667,32.91,TRADE
SNOWY1,"1999/05/27 07:30",3.08333,32.05,TRADE
SNOWY1,"1999/05/27 08:00",34.12,48.36,TRADE
SNOWY1,"1999/05/27 08:30",55.57167,49.1,TRADE
SNOWY1,"1999/05/27 09:00",54.175,43.57,TRADE
SNOWY1,"1999/05/27 09:30",53.915,52.04,TRADE
SNOWY1,"1999/05/27 10:00",51.45333,44.38,TRADE
SNOWY1,"1999/05/27 10:30",43.30667,39.3,TRADE
SNOWY1,"1999/05/27 11:00",20.56,32.37,TRADE
SNOWY1,"1999/05/27 11:30",41.735,43.97,TRADE
SNOWY1,"1999/05/27 12:00",50.68167,40.93,TRADE
SNOWY1,"1999/05/27 12:30",49.3,36.98,TRADE
SNOWY1,"1999/05/27 13:00",50.37833,29.68,TRADE
SNOWY1,"1999/05/27 13:30",54.34167,32.95,TRADE
SNOWY1,"1999/05/27 14:00",49.70333,30.7,TRADE
SNOWY1,"1999/05/27 14:30",47.85833,30.99,TRADE
SNOWY1,"1999/05/27 15:00",49.26333,28.67,TRADE
SNOWY1,"1999/05/27 15:30",46.99667,27.36,TRADE
SNOWY1,"1999/05/27 16:00",45.30167,30.64,TRADE
SNOWY1,"1999/05/27 16:30",49.12,30.9,TRADE
SNOWY1,"1999/05/27 17:00",68.27167,21.32,TRADE
SNOWY1,"1999/05/27 17:30",66.23667,38.82,TRADE
SNOWY1,"1999/05/27 18:00",53.57667,58.21,TRADE
SNOWY1,"1999/05/27 18:30",54.75,57.03,TRADE
SNOWY1,"1999/05/27 19:00",50.52,51.02,TRADE
SNOWY1,"1999/05/27 19:30",42.87167,49.52,TRADE
SNOWY1,"1999/05/27 20:00",2.05,52.22,TRADE
SNOWY1,"1999/05/27 20:30",2.28333,55.72,TRADE
SNOWY1,"1999/05/27 21:00",3.24833,53.5,TRADE
SNOWY1,"1999/05/27 21:30",5.87833,39.53,TRADE
SNOWY1,"1999/05/27 22:00",0.42833,30.56,TRADE
SNOWY1,"1999/05/27 22:30",7.25333,34.09,TRADE
SNOWY1,"1999/05/27 23:00",5.305,34.15,TRADE
SNOWY1,"1999/05/27 23:30",10.65667,48.54,TRADE
SNOWY1,"1999/05/28 00:00",11.66,47.47,TRADE
SNOWY1,"1999/05/28 00:30",12.99,43.75,TRADE
SNOWY1,"1999/05/28 01:00",10.13,36.99,TRADE
SNOWY1,"1999/05/28 01:30",10,39.81,TRADE
SNOWY1,"1999/05/28 02:00",8.22333,32.73,TRADE
SNOWY1,"1999/05/28 02:30",7.475,27.8,TRADE
SNOWY1,"1999/05/28 03:00",8.505,26.39,TRADE
SNOWY1,"1999/05/28 03:30",5.35833,19.08,TRADE
SNOWY1,"1999/05/28 04:00",9.49167,13.99,TRADE
SNOWY1,"1999/05/28 04:30",9.645,14.24,TRADE
SNOWY1,"1999/05/28 05:00",3.25667,14.41,TRADE
SNOWY1,"1999/05/28 05:30",3.025,20.69,TRADE
SNOWY1,"1999/05/28 06:00",8.05167,22.42,TRADE
SNOWY1,"1999/05/28 06:30",7.87667,28.15,TRADE
SNOWY1,"1999/05/28 07:00",18.425,32.41,TRADE
SNOWY1,"1999/05/28 07:30",23.51,37.54,TRADE
SNOWY1,"1999/05/28 08:00",14.76833,52.77,TRADE
SNOWY1,"1999/05/28 08:30",94.82167,51.3,TRADE
SNOWY1,"1999/05/28 09:00",111.53667,53.74,TRADE
SNOWY1,"1999/05/28 09:30",114.22167,49.43,TRADE
SNOWY1,"1999/05/28 10:00",117.14167,47.04,TRADE
SNOWY1,"1999/05/28 10:30",112.085,41.41,TRADE
SNOWY1,"1999/05/28 11:00",114.685,35.56,TRADE
SNOWY1,"1999/05/28 11:30",113.19833,31.87,TRADE
SNOWY1,"1999/05/28 12:00",107.66333,37.18,TRADE
SNOWY1,"1999/05/28 12:30",108.56,44.94,TRADE
SNOWY1,"1999/05/28 13:00",106.945,35.46,TRADE
SNOWY1,"1999/05/28 13:30",106.79167,38.93,TRADE
SNOWY1,"1999/05/28 14:00",109.49333,36.38,TRADE
SNOWY1,"1999/05/28 14:30",105.31,32,TRADE
SNOWY1,"1999/05/28 15:00",100.445,29.88,TRADE
SNOWY1,"1999/05/28 15:30",63.925,25.44,TRADE
SNOWY1,"1999/05/28 16:00",58.87833,21.49,TRADE
SNOWY1,"1999/05/28 16:30",21.235,21.9,TRADE
SNOWY1,"1999/05/28 17:00",0.93167,22.49,TRADE
SNOWY1,"1999/05/28 17:30",1.925,39.78,TRADE
SNOWY1,"1999/05/28 18:00",3.91667,56.6,TRADE
SNOWY1,"1999/05/28 18:30",9.3,55.04,TRADE
SNOWY1,"1999/05/28 19:00",7.52333,48.07,TRADE
SNOWY1,"1999/05/28 19:30",6.35833,41.08,TRADE
SNOWY1,"1999/05/28 20:00",0.875,31.34,TRADE
SNOWY1,"1999/05/28 20:30",2.38167,34.47,TRADE
SNOWY1,"1999/05/28 21:00",3.76,30.43,TRADE
SNOWY1,"1999/05/28 21:30",3.95167,29.14,TRADE
SNOWY1,"1999/05/28 22:00",0.12833,25.08,TRADE
SNOWY1,"1999/05/28 22:30",16.73,38.7,TRADE
SNOWY1,"1999/05/28 23:00",6.585,38.1,TRADE
SNOWY1,"1999/05/28 23:30",12.02167,56.97,TRADE
SNOWY1,"1999/05/29 00:00",7.62667,50.69,TRADE
SNOWY1,"1999/05/29 00:30",5.44667,40.22,TRADE
SNOWY1,"1999/05/29 01:00",9.23333,44.91,TRADE
SNOWY1,"1999/05/29 01:30",13.81833,43.48,TRADE
SNOWY1,"1999/05/29 02:00",14.06,33.9,TRADE
SNOWY1,"1999/05/29 02:30",7.02167,27.22,TRADE
SNOWY1,"1999/05/29 03:00",5.93833,26.61,TRADE
SNOWY1,"1999/05/29 03:30",4.61,22.6,TRADE
SNOWY1,"1999/05/29 04:00",2.47667,18,TRADE
SNOWY1,"1999/05/29 04:30",6.32667,14.66,TRADE
SNOWY1,"1999/05/29 05:00",7.635,14.93,TRADE
SNOWY1,"1999/05/29 05:30",8.20333,15.37,TRADE
SNOWY1,"1999/05/29 06:00",5.97333,15.92,TRADE
SNOWY1,"1999/05/29 06:30",5.19667,20.03,TRADE
SNOWY1,"1999/05/29 07:00",6.29333,22.03,TRADE
SNOWY1,"1999/05/29 07:30",7.89333,25.14,TRADE
SNOWY1,"1999/05/29 08:00",7.40833,30.67,TRADE
SNOWY1,"1999/05/29 08:30",6.28167,36.86,TRADE
SNOWY1,"1999/05/29 09:00",9.62833,40.57,TRADE
SNOWY1,"1999/05/29 09:30",5.425,47.01,TRADE
SNOWY1,"1999/05/29 10:00",5.80333,41.67,TRADE
SNOWY1,"1999/05/29 10:30",6.59167,41.3,TRADE
SNOWY1,"1999/05/29 11:00",5.53,41.09,TRADE
SNOWY1,"1999/05/29 11:30",5.365,39.58,TRADE
SNOWY1,"1999/05/29 12:00",3.025,37.82,TRADE
SNOWY1,"1999/05/29 12:30",6.19667,39.16,TRADE
SNOWY1,"1999/05/29 13:00",4.79333,39.69,TRADE
SNOWY1,"1999/05/29 13:30",6.53167,39.73,TRADE
SNOWY1,"1999/05/29 14:00",2.45333,39.84,TRADE
SNOWY1,"1999/05/29 14:30",4.04833,39.86,TRADE
SNOWY1,"1999/05/29 15:00",9.09667,41.3,TRADE
SNOWY1,"1999/05/29 15:30",6.055,40.87,TRADE
SNOWY1,"1999/05/29 16:00",6.63167,41.3,TRADE
SNOWY1,"1999/05/29 16:30",6.84833,40.28,TRADE
SNOWY1,"1999/05/29 17:00",4.02833,41.69,TRADE
SNOWY1,"1999/05/29 17:30",4.99333,55.31,TRADE
SNOWY1,"1999/05/29 18:00",3.13333,87.26,TRADE
SNOWY1,"1999/05/29 18:30",1.31833,53.71,TRADE
SNOWY1,"1999/05/29 19:00",1.95,42.71,TRADE
SNOWY1,"1999/05/29 19:30",3.135,39.89,TRADE
SNOWY1,"1999/05/29 20:00",8.16167,35.58,TRADE
SNOWY1,"1999/05/29 20:30",4.62167,33.95,TRADE
SNOWY1,"1999/05/29 21:00",8.46667,33.11,TRADE
SNOWY1,"1999/05/29 21:30",11.055,29.44,TRADE
SNOWY1,"1999/05/29 22:00",8.41167,27.41,TRADE
SNOWY1,"1999/05/29 22:30",10.70167,28.08,TRADE
SNOWY1,"1999/05/29 23:00",3.41333,27.34,TRADE
SNOWY1,"1999/05/29 23:30",27.05,29.93,TRADE
SNOWY1,"1999/05/30 00:00",14.02167,29.41,TRADE
SNOWY1,"1999/05/30 00:30",16.69667,28.44,TRADE
SNOWY1,"1999/05/30 01:00",12.00833,28.44,TRADE
SNOWY1,"1999/05/30 01:30",11.43,28.39,TRADE
SNOWY1,"1999/05/30 02:00",13.29667,27.18,TRADE
SNOWY1,"1999/05/30 02:30",9.74,22.28,TRADE
SNOWY1,"1999/05/30 03:00",9.83167,16.3,TRADE
SNOWY1,"1999/05/30 03:30",6.29667,15.75,TRADE
SNOWY1,"1999/05/30 04:00",10.14667,14.13,TRADE
SNOWY1,"1999/05/30 04:30",10.98833,12.99,TRADE
SNOWY1,"1999/05/30 05:00",22.08,12.59,TRADE
SNOWY1,"1999/05/30 05:30",41.32,12.89,TRADE
SNOWY1,"1999/05/30 06:00",42.20667,12.93,TRADE
SNOWY1,"1999/05/30 06:30",41.98667,13.39,TRADE
SNOWY1,"1999/05/30 07:00",40.23833,13.82,TRADE
SNOWY1,"1999/05/30 07:30",41.15167,14.18,TRADE
SNOWY1,"1999/05/30 08:00",38.41667,14.9,TRADE
SNOWY1,"1999/05/30 08:30",46.76833,16.91,TRADE
SNOWY1,"1999/05/30 09:00",44.765,23.03,TRADE
SNOWY1,"1999/05/30 09:30",10.91667,26.43,TRADE
SNOWY1,"1999/05/30 10:00",18.60833,28.44,TRADE
SNOWY1,"1999/05/30 10:30",15.3,28.65,TRADE
SNOWY1,"1999/05/30 11:00",10.04,28.16,TRADE
SNOWY1,"1999/05/30 11:30",8.21833,28.44,TRADE
SNOWY1,"1999/05/30 12:00",7.935,28.44,TRADE
SNOWY1,"1999/05/30 12:30",20.05667,28.65,TRADE
SNOWY1,"1999/05/30 13:00",8.92167,27.54,TRADE
SNOWY1,"1999/05/30 13:30",10.45667,27.51,TRADE
SNOWY1,"1999/05/30 14:00",8.2,26.63,TRADE
SNOWY1,"1999/05/30 14:30",7.98333,24.91,TRADE
SNOWY1,"1999/05/30 15:00",8.27667,23.61,TRADE
SNOWY1,"1999/05/30 15:30",7.47333,23.84,TRADE
SNOWY1,"1999/05/30 16:00",7.99,17.78,TRADE
SNOWY1,"1999/05/30 16:30",7.29833,20.25,TRADE
SNOWY1,"1999/05/30 17:00",8.765,22.8,TRADE
SNOWY1,"1999/05/30 17:30",12.77333,29.15,TRADE
SNOWY1,"1999/05/30 18:00",7.86333,32.38,TRADE
SNOWY1,"1999/05/30 18:30",13.36167,31.32,TRADE
SNOWY1,"1999/05/30 19:00",9.06667,29.22,TRADE
SNOWY1,"1999/05/30 19:30",6.76,28.37,TRADE
SNOWY1,"1999/05/30 20:00",4.28667,27.79,TRADE
SNOWY1,"1999/05/30 20:30",8.755,24.27,TRADE
SNOWY1,"1999/05/30 21:00",17.34833,16.28,TRADE
SNOWY1,"1999/05/30 21:30",7.05667,17.21,TRADE
SNOWY1,"1999/05/30 22:00",9.185,16.23,TRADE
SNOWY1,"1999/05/30 22:30",10.555,16.58,TRADE
SNOWY1,"1999/05/30 23:00",9.24833,15.56,TRADE
SNOWY1,"1999/05/30 23:30",10.49333,18.33,TRADE
SNOWY1,"1999/05/31 00:00",11.29,16.05,TRADE
SNOWY1,"1999/05/31 00:30",11.56333,15.68,TRADE
SNOWY1,"1999/05/31 01:00",7.06,14.71,TRADE
SNOWY1,"1999/05/31 01:30",10.345,17.31,TRADE
SNOWY1,"1999/05/31 02:00",11.775,14.98,TRADE
SNOWY1,"1999/05/31 02:30",11.985,12.98,TRADE
SNOWY1,"1999/05/31 03:00",13.745,12.31,TRADE
SNOWY1,"1999/05/31 03:30",10.70333,12.42,TRADE
SNOWY1,"1999/05/31 04:00",11.565,12.49,TRADE
SNOWY1,"1999/05/31 04:30",7.12167,7.4,TRADE
SNOWY1,"1999/05/31 05:00",6.99667,8.24,TRADE
SNOWY1,"1999/05/31 05:30",9.34833,11.15,TRADE
SNOWY1,"1999/05/31 06:00",9.215,11.78,TRADE
SNOWY1,"1999/05/31 06:30",14.39333,18.9,TRADE
SNOWY1,"1999/05/31 07:00",11.61833,26.94,TRADE
SNOWY1,"1999/05/31 07:30",13.38667,22.96,TRADE
SNOWY1,"1999/05/31 08:00",8.19,32.21,TRADE
SNOWY1,"1999/05/31 08:30",15.15333,34.54,TRADE
SNOWY1,"1999/05/31 09:00",3.29167,28.52,TRADE
SNOWY1,"1999/05/31 09:30",5.265,36.71,TRADE
SNOWY1,"1999/05/31 10:00",6.05667,37.12,TRADE
SNOWY1,"1999/05/31 10:30",10.04333,35.52,TRADE
SNOWY1,"1999/05/31 11:00",11.60667,34.4,TRADE
SNOWY1,"1999/05/31 11:30",4.965,30.38,TRADE
SNOWY1,"1999/05/31 12:00",1.74833,29.85,TRADE
SNOWY1,"1999/05/31 12:30",7.085,28.04,TRADE
SNOWY1,"1999/05/31 13:00",11.25667,27.47,TRADE
SNOWY1,"1999/05/31 13:30",4.69833,42.18,TRADE
SNOWY1,"1999/05/31 14:00",3.85167,42.4,TRADE
SNOWY1,"1999/05/31 14:30",9.23167,38.9,TRADE
SNOWY1,"1999/05/31 15:00",4.615,32.72,TRADE
SNOWY1,"1999/05/31 15:30",11.73,28.35,TRADE
SNOWY1,"1999/05/31 16:00",11.65333,29.2,TRADE
SNOWY1,"1999/05/31 16:30",17.49167,30.46,TRADE
SNOWY1,"1999/05/31 17:00",3.76167,35.84,TRADE
SNOWY1,"1999/05/31 17:30",3.02667,45.47,TRADE
SNOWY1,"1999/05/31 18:00",15.53333,56.55,TRADE
SNOWY1,"1999/05/31 18:30",16.01667,43.61,TRADE
SNOWY1,"1999/05/31 19:00",7.645,33.42,TRADE
SNOWY1,"1999/05/31 19:30",3.22333,34.1,TRADE
SNOWY1,"1999/05/31 20:00",3.885,29.07,TRADE
SNOWY1,"1999/05/31 20:30",8.26,27.33,TRADE
SNOWY1,"1999/05/31 21:00",6.545,25.04,TRADE
SNOWY1,"1999/05/31 21:30",3.87667,24.95,TRADE
SNOWY1,"1999/05/31 22:00",3.72333,22.45,TRADE
SNOWY1,"1999/05/31 22:30",9.50333,29.67,TRADE
SNOWY1,"1999/05/31 23:00",5.08333,26.72,TRADE
SNOWY1,"1999/05/31 23:30",17.07667,34.92,TRADE
SNOWY1,"1999/06/01 00:00",5.78333,33.28,TRADE
