REGION,SETTLEMENTDATE,TOTALDEMAND,RRP,PERIODTYPE
SNOWY1,"2007/06/01 00:30:00",32.27,53.4,TRADE
SNOWY1,"2007/06/01 01:00:00",35.66,46.75,TRADE
SNOWY1,"2007/06/01 01:30:00",43.75,77.02,TRADE
SNOWY1,"2007/06/01 02:00:00",41.12,79.04,TRADE
SNOWY1,"2007/06/01 02:30:00",32.79,68.43,TRADE
SNOWY1,"2007/06/01 03:00:00",36.04,57.69,TRADE
SNOWY1,"2007/06/01 03:30:00",35.47,40.15,TRADE
SNOWY1,"2007/06/01 04:00:00",32.73,37.91,TRADE
SNOWY1,"2007/06/01 04:30:00",37.26,33.42,TRADE
SNOWY1,"2007/06/01 05:00:00",37.65,34.33,TRADE
SNOWY1,"2007/06/01 05:30:00",40.49,50.95,TRADE
SNOWY1,"2007/06/01 06:00:00",30.9,45.34,TRADE
SNOWY1,"2007/06/01 06:30:00",33.87,78.23,TRADE
SNOWY1,"2007/06/01 07:00:00",42.83,85.18,TRADE
SNOWY1,"2007/06/01 07:30:00",45.95,74.44,TRADE
SNOWY1,"2007/06/01 08:00:00",55.98,78.27,TRADE
SNOWY1,"2007/06/01 08:30:00",58.3,89.51,TRADE
SNOWY1,"2007/06/01 09:00:00",51.07,71.37,TRADE
SNOWY1,"2007/06/01 09:30:00",55.43,78.38,TRADE
SNOWY1,"2007/06/01 10:00:00",55.46,68.25,TRADE
SNOWY1,"2007/06/01 10:30:00",54.94,64.51,TRADE
SNOWY1,"2007/06/01 11:00:00",59.96,67.91,TRADE
SNOWY1,"2007/06/01 11:30:00",49.24,63.75,TRADE
SNOWY1,"2007/06/01 12:00:00",37.05,59.46,TRADE
SNOWY1,"2007/06/01 12:30:00",41.62,57.64,TRADE
SNOWY1,"2007/06/01 13:00:00",34.05,59.54,TRADE
SNOWY1,"2007/06/01 13:30:00",50.5,56.57,TRADE
SNOWY1,"2007/06/01 14:00:00",40.04,57.73,TRADE
SNOWY1,"2007/06/01 14:30:00",44.15,56.72,TRADE
SNOWY1,"2007/06/01 15:00:00",44.56,55,TRADE
SNOWY1,"2007/06/01 15:30:00",43.96,54.97,TRADE
SNOWY1,"2007/06/01 16:00:00",37.21,55,TRADE
SNOWY1,"2007/06/01 16:30:00",27.87,58.76,TRADE
SNOWY1,"2007/06/01 17:00:00",33.97,59.45,TRADE
SNOWY1,"2007/06/01 17:30:00",38.75,98.53,TRADE
SNOWY1,"2007/06/01 18:00:00",40.83,293.64,TRADE
SNOWY1,"2007/06/01 18:30:00",40.93,109.27,TRADE
SNOWY1,"2007/06/01 19:00:00",38.73,77.2,TRADE
SNOWY1,"2007/06/01 19:30:00",48.3,64.26,TRADE
SNOWY1,"2007/06/01 20:00:00",34.79,64.04,TRADE
SNOWY1,"2007/06/01 20:30:00",39.85,58.29,TRADE
SNOWY1,"2007/06/01 21:00:00",36.74,58.14,TRADE
SNOWY1,"2007/06/01 21:30:00",47.65,62.68,TRADE
SNOWY1,"2007/06/01 22:00:00",32.03,59.98,TRADE
SNOWY1,"2007/06/01 22:30:00",36.81,81.01,TRADE
SNOWY1,"2007/06/01 23:00:00",38.01,71.37,TRADE
SNOWY1,"2007/06/01 23:30:00",34.13,83.11,TRADE
SNOWY1,"2007/06/02 00:00:00",37.9,63.3,TRADE
SNOWY1,"2007/06/02 00:30:00",33.02,58.86,TRADE
SNOWY1,"2007/06/02 01:00:00",33.82,45.08,TRADE
SNOWY1,"2007/06/02 01:30:00",38.28,50.45,TRADE
SNOWY1,"2007/06/02 02:00:00",34.65,49.87,TRADE
SNOWY1,"2007/06/02 02:30:00",30.08,40.91,TRADE
SNOWY1,"2007/06/02 03:00:00",33.15,44.33,TRADE
SNOWY1,"2007/06/02 03:30:00",31.62,40.7,TRADE
SNOWY1,"2007/06/02 04:00:00",74.94,34.73,TRADE
SNOWY1,"2007/06/02 04:30:00",76.82,26.77,TRADE
SNOWY1,"2007/06/02 05:00:00",74.28,26.79,TRADE
SNOWY1,"2007/06/02 05:30:00",74.34,37.16,TRADE
SNOWY1,"2007/06/02 06:00:00",69.64,35.05,TRADE
SNOWY1,"2007/06/02 06:30:00",70.96,41.23,TRADE
SNOWY1,"2007/06/02 07:00:00",40.67,41.28,TRADE
SNOWY1,"2007/06/02 07:30:00",39.59,49.39,TRADE
SNOWY1,"2007/06/02 08:00:00",37.94,52.91,TRADE
SNOWY1,"2007/06/02 08:30:00",44.38,61.09,TRADE
SNOWY1,"2007/06/02 09:00:00",33.56,65.79,TRADE
SNOWY1,"2007/06/02 09:30:00",25.34,69.62,TRADE
SNOWY1,"2007/06/02 10:00:00",36.39,67.16,TRADE
SNOWY1,"2007/06/02 10:30:00",35.54,64.45,TRADE
SNOWY1,"2007/06/02 11:00:00",33.54,64.79,TRADE
SNOWY1,"2007/06/02 11:30:00",29.88,60.75,TRADE
SNOWY1,"2007/06/02 12:00:00",38.42,57.37,TRADE
SNOWY1,"2007/06/02 12:30:00",32.82,51.54,TRADE
SNOWY1,"2007/06/02 13:00:00",29.43,43.14,TRADE
SNOWY1,"2007/06/02 13:30:00",34.34,41.43,TRADE
SNOWY1,"2007/06/02 14:00:00",30.93,39.66,TRADE
SNOWY1,"2007/06/02 14:30:00",30.57,39.65,TRADE
SNOWY1,"2007/06/02 15:00:00",26.72,40.37,TRADE
SNOWY1,"2007/06/02 15:30:00",27.99,45.9,TRADE
SNOWY1,"2007/06/02 16:00:00",33.44,46.24,TRADE
SNOWY1,"2007/06/02 16:30:00",33.82,53.68,TRADE
SNOWY1,"2007/06/02 17:00:00",32.41,68.65,TRADE
SNOWY1,"2007/06/02 17:30:00",32.83,89.86,TRADE
SNOWY1,"2007/06/02 18:00:00",48.97,165,TRADE
SNOWY1,"2007/06/02 18:30:00",35.47,133.81,TRADE
SNOWY1,"2007/06/02 19:00:00",30.05,95.56,TRADE
SNOWY1,"2007/06/02 19:30:00",27.92,80.34,TRADE
SNOWY1,"2007/06/02 20:00:00",28.11,70.25,TRADE
SNOWY1,"2007/06/02 20:30:00",32.74,70.62,TRADE
SNOWY1,"2007/06/02 21:00:00",31.24,67.25,TRADE
SNOWY1,"2007/06/02 21:30:00",19.57,60.27,TRADE
SNOWY1,"2007/06/02 22:00:00",32,57.56,TRADE
SNOWY1,"2007/06/02 22:30:00",35.39,67.58,TRADE
SNOWY1,"2007/06/02 23:00:00",41.85,64.82,TRADE
SNOWY1,"2007/06/02 23:30:00",36.68,66.84,TRADE
SNOWY1,"2007/06/03 00:00:00",34.06,59.71,TRADE
SNOWY1,"2007/06/03 00:30:00",34.71,61.24,TRADE
SNOWY1,"2007/06/03 01:00:00",37.16,48.12,TRADE
SNOWY1,"2007/06/03 01:30:00",35.34,50.84,TRADE
SNOWY1,"2007/06/03 02:00:00",38.45,47.76,TRADE
SNOWY1,"2007/06/03 02:30:00",30.72,43.6,TRADE
SNOWY1,"2007/06/03 03:00:00",34.48,41.51,TRADE
SNOWY1,"2007/06/03 03:30:00",32.32,41,TRADE
SNOWY1,"2007/06/03 04:00:00",30.47,35.18,TRADE
SNOWY1,"2007/06/03 04:30:00",67.73,36.19,TRADE
SNOWY1,"2007/06/03 05:00:00",72.11,35.59,TRADE
SNOWY1,"2007/06/03 05:30:00",71.2,35.45,TRADE
SNOWY1,"2007/06/03 06:00:00",73.07,35.29,TRADE
SNOWY1,"2007/06/03 06:30:00",56.53,39.27,TRADE
SNOWY1,"2007/06/03 07:00:00",35.1,41.53,TRADE
SNOWY1,"2007/06/03 07:30:00",34.06,36.8,TRADE
SNOWY1,"2007/06/03 08:00:00",35.39,42.01,TRADE
SNOWY1,"2007/06/03 08:30:00",39.88,46.24,TRADE
SNOWY1,"2007/06/03 09:00:00",34.43,51.36,TRADE
SNOWY1,"2007/06/03 09:30:00",41.51,57.27,TRADE
SNOWY1,"2007/06/03 10:00:00",10.17,59.49,TRADE
SNOWY1,"2007/06/03 10:30:00",28.97,52.79,TRADE
SNOWY1,"2007/06/03 11:00:00",28.25,49.96,TRADE
SNOWY1,"2007/06/03 11:30:00",34.39,42.29,TRADE
SNOWY1,"2007/06/03 12:00:00",34.79,43.02,TRADE
SNOWY1,"2007/06/03 12:30:00",29.65,40.23,TRADE
SNOWY1,"2007/06/03 13:00:00",37.59,37.65,TRADE
SNOWY1,"2007/06/03 13:30:00",36.31,39.23,TRADE
SNOWY1,"2007/06/03 14:00:00",32.83,37.28,TRADE
SNOWY1,"2007/06/03 14:30:00",43.59,38.53,TRADE
SNOWY1,"2007/06/03 15:00:00",40.6,37.73,TRADE
SNOWY1,"2007/06/03 15:30:00",38.37,36.27,TRADE
SNOWY1,"2007/06/03 16:00:00",37.39,38.15,TRADE
SNOWY1,"2007/06/03 16:30:00",38.32,40.78,TRADE
SNOWY1,"2007/06/03 17:00:00",34.2,52.69,TRADE
SNOWY1,"2007/06/03 17:30:00",28.03,83.05,TRADE
SNOWY1,"2007/06/03 18:00:00",34.37,127.67,TRADE
SNOWY1,"2007/06/03 18:30:00",29.96,116.25,TRADE
SNOWY1,"2007/06/03 19:00:00",27.63,90.8,TRADE
SNOWY1,"2007/06/03 19:30:00",34.52,87.97,TRADE
SNOWY1,"2007/06/03 20:00:00",35.1,85.58,TRADE
SNOWY1,"2007/06/03 20:30:00",17.54,76.51,TRADE
SNOWY1,"2007/06/03 21:00:00",28.4,85.75,TRADE
SNOWY1,"2007/06/03 21:30:00",45.03,84.33,TRADE
SNOWY1,"2007/06/03 22:00:00",33.42,58.31,TRADE
SNOWY1,"2007/06/03 22:30:00",31.77,77.89,TRADE
SNOWY1,"2007/06/03 23:00:00",31.1,68.24,TRADE
SNOWY1,"2007/06/03 23:30:00",43.9,65.11,TRADE
SNOWY1,"2007/06/04 00:00:00",37.26,48.08,TRADE
SNOWY1,"2007/06/04 00:30:00",35.34,40.84,TRADE
SNOWY1,"2007/06/04 01:00:00",29.99,42.62,TRADE
SNOWY1,"2007/06/04 01:30:00",43.41,50.43,TRADE
SNOWY1,"2007/06/04 02:00:00",39.16,46.53,TRADE
SNOWY1,"2007/06/04 02:30:00",54.37,34.9,TRADE
SNOWY1,"2007/06/04 03:00:00",69.2,33.96,TRADE
SNOWY1,"2007/06/04 03:30:00",67.47,31.05,TRADE
SNOWY1,"2007/06/04 04:00:00",68.37,28.68,TRADE
SNOWY1,"2007/06/04 04:30:00",68.57,34.72,TRADE
SNOWY1,"2007/06/04 05:00:00",61.35,34.88,TRADE
SNOWY1,"2007/06/04 05:30:00",59.33,43.7,TRADE
SNOWY1,"2007/06/04 06:00:00",28.89,49.52,TRADE
SNOWY1,"2007/06/04 06:30:00",36.13,72.05,TRADE
SNOWY1,"2007/06/04 07:00:00",44.59,76.77,TRADE
SNOWY1,"2007/06/04 07:30:00",49.58,60.51,TRADE
SNOWY1,"2007/06/04 08:00:00",58.77,80.36,TRADE
SNOWY1,"2007/06/04 08:30:00",57.42,78.77,TRADE
SNOWY1,"2007/06/04 09:00:00",52.23,66.62,TRADE
SNOWY1,"2007/06/04 09:30:00",46.08,70.01,TRADE
SNOWY1,"2007/06/04 10:00:00",52.41,62.48,TRADE
SNOWY1,"2007/06/04 10:30:00",46.9,59.54,TRADE
SNOWY1,"2007/06/04 11:00:00",40.55,57.72,TRADE
SNOWY1,"2007/06/04 11:30:00",46.5,60.44,TRADE
SNOWY1,"2007/06/04 12:00:00",47.14,60.27,TRADE
SNOWY1,"2007/06/04 12:30:00",44.67,59.62,TRADE
SNOWY1,"2007/06/04 13:00:00",39.12,55.13,TRADE
SNOWY1,"2007/06/04 13:30:00",37.34,60.69,TRADE
SNOWY1,"2007/06/04 14:00:00",58.55,61.84,TRADE
SNOWY1,"2007/06/04 14:30:00",35.7,60.14,TRADE
SNOWY1,"2007/06/04 15:00:00",29.16,60.74,TRADE
SNOWY1,"2007/06/04 15:30:00",39.03,55,TRADE
SNOWY1,"2007/06/04 16:00:00",38.73,55,TRADE
SNOWY1,"2007/06/04 16:30:00",36.61,58.1,TRADE
SNOWY1,"2007/06/04 17:00:00",41.12,58.71,TRADE
SNOWY1,"2007/06/04 17:30:00",42.02,93.15,TRADE
SNOWY1,"2007/06/04 18:00:00",48.48,213.81,TRADE
SNOWY1,"2007/06/04 18:30:00",52.42,130.64,TRADE
SNOWY1,"2007/06/04 19:00:00",54.04,100.03,TRADE
SNOWY1,"2007/06/04 19:30:00",51.47,76.93,TRADE
SNOWY1,"2007/06/04 20:00:00",35.57,67.51,TRADE
SNOWY1,"2007/06/04 20:30:00",43.46,72.18,TRADE
SNOWY1,"2007/06/04 21:00:00",47.23,70.39,TRADE
SNOWY1,"2007/06/04 21:30:00",47.54,72.87,TRADE
SNOWY1,"2007/06/04 22:00:00",44.97,64.89,TRADE
SNOWY1,"2007/06/04 22:30:00",42.82,68.32,TRADE
SNOWY1,"2007/06/04 23:00:00",38.49,58.18,TRADE
SNOWY1,"2007/06/04 23:30:00",41.33,64.34,TRADE
SNOWY1,"2007/06/05 00:00:00",37.17,52.09,TRADE
SNOWY1,"2007/06/05 00:30:00",42.05,52.46,TRADE
SNOWY1,"2007/06/05 01:00:00",31.04,52.75,TRADE
SNOWY1,"2007/06/05 01:30:00",34.97,61.36,TRADE
SNOWY1,"2007/06/05 02:00:00",38.88,55.29,TRADE
SNOWY1,"2007/06/05 02:30:00",37.8,49,TRADE
SNOWY1,"2007/06/05 03:00:00",33.59,41.45,TRADE
SNOWY1,"2007/06/05 03:30:00",46.2,36.9,TRADE
SNOWY1,"2007/06/05 04:00:00",66.81,30.61,TRADE
SNOWY1,"2007/06/05 04:30:00",69.72,28.08,TRADE
SNOWY1,"2007/06/05 05:00:00",69.03,30.45,TRADE
SNOWY1,"2007/06/05 05:30:00",52.51,39.14,TRADE
SNOWY1,"2007/06/05 06:00:00",33.41,40.15,TRADE
SNOWY1,"2007/06/05 06:30:00",35.6,54.54,TRADE
SNOWY1,"2007/06/05 07:00:00",49.67,74.42,TRADE
SNOWY1,"2007/06/05 07:30:00",40.79,60.13,TRADE
SNOWY1,"2007/06/05 08:00:00",41.39,82.81,TRADE
SNOWY1,"2007/06/05 08:30:00",28.59,75.98,TRADE
SNOWY1,"2007/06/05 09:00:00",35.48,65.55,TRADE
SNOWY1,"2007/06/05 09:30:00",44.29,67.05,TRADE
SNOWY1,"2007/06/05 10:00:00",30.06,60.49,TRADE
SNOWY1,"2007/06/05 10:30:00",31.8,58.86,TRADE
SNOWY1,"2007/06/05 11:00:00",32.44,61.58,TRADE
SNOWY1,"2007/06/05 11:30:00",28.43,64.04,TRADE
SNOWY1,"2007/06/05 12:00:00",29.57,63.02,TRADE
SNOWY1,"2007/06/05 12:30:00",23.89,58.61,TRADE
SNOWY1,"2007/06/05 13:00:00",34.72,55,TRADE
SNOWY1,"2007/06/05 13:30:00",36.17,55,TRADE
SNOWY1,"2007/06/05 14:00:00",31.01,54.84,TRADE
SNOWY1,"2007/06/05 14:30:00",32.51,53.55,TRADE
SNOWY1,"2007/06/05 15:00:00",34.02,54.44,TRADE
SNOWY1,"2007/06/05 15:30:00",38.99,55,TRADE
SNOWY1,"2007/06/05 16:00:00",42.25,57.43,TRADE
SNOWY1,"2007/06/05 16:30:00",34.49,64.44,TRADE
SNOWY1,"2007/06/05 17:00:00",34.04,72.62,TRADE
SNOWY1,"2007/06/05 17:30:00",43.22,106.03,TRADE
SNOWY1,"2007/06/05 18:00:00",45.54,206.89,TRADE
SNOWY1,"2007/06/05 18:30:00",32.03,139.23,TRADE
SNOWY1,"2007/06/05 19:00:00",39.61,98.44,TRADE
SNOWY1,"2007/06/05 19:30:00",37.64,77.87,TRADE
SNOWY1,"2007/06/05 20:00:00",33.99,70.51,TRADE
SNOWY1,"2007/06/05 20:30:00",37,75.73,TRADE
SNOWY1,"2007/06/05 21:00:00",35.62,66,TRADE
SNOWY1,"2007/06/05 21:30:00",37.75,60.24,TRADE
SNOWY1,"2007/06/05 22:00:00",29.03,50.67,TRADE
SNOWY1,"2007/06/05 22:30:00",18.77,62.25,TRADE
SNOWY1,"2007/06/05 23:00:00",31.64,51.15,TRADE
SNOWY1,"2007/06/05 23:30:00",37.12,60.72,TRADE
SNOWY1,"2007/06/06 00:00:00",31.81,44.52,TRADE
SNOWY1,"2007/06/06 00:30:00",33.1,45.15,TRADE
SNOWY1,"2007/06/06 01:00:00",37.88,43.8,TRADE
SNOWY1,"2007/06/06 01:30:00",42.33,47.12,TRADE
SNOWY1,"2007/06/06 02:00:00",37.63,38.99,TRADE
SNOWY1,"2007/06/06 02:30:00",39.46,40.01,TRADE
SNOWY1,"2007/06/06 03:00:00",53.94,35.26,TRADE
SNOWY1,"2007/06/06 03:30:00",68.57,28.71,TRADE
SNOWY1,"2007/06/06 04:00:00",88.33,24.9,TRADE
SNOWY1,"2007/06/06 04:30:00",88.58,24.25,TRADE
SNOWY1,"2007/06/06 05:00:00",79.84,28.75,TRADE
SNOWY1,"2007/06/06 05:30:00",83.19,32.54,TRADE
SNOWY1,"2007/06/06 06:00:00",69.93,39.25,TRADE
SNOWY1,"2007/06/06 06:30:00",48.83,53.06,TRADE
SNOWY1,"2007/06/06 07:00:00",56.65,61.55,TRADE
SNOWY1,"2007/06/06 07:30:00",58.8,57.12,TRADE
SNOWY1,"2007/06/06 08:00:00",57.2,64.04,TRADE
SNOWY1,"2007/06/06 08:30:00",54.38,63.28,TRADE
SNOWY1,"2007/06/06 09:00:00",48.62,58.12,TRADE
SNOWY1,"2007/06/06 09:30:00",42.17,63.06,TRADE
SNOWY1,"2007/06/06 10:00:00",46.86,64.8,TRADE
SNOWY1,"2007/06/06 10:30:00",44.63,60.22,TRADE
SNOWY1,"2007/06/06 11:00:00",44.61,55.6,TRADE
SNOWY1,"2007/06/06 11:30:00",36.98,58.42,TRADE
SNOWY1,"2007/06/06 12:00:00",45.13,59.84,TRADE
SNOWY1,"2007/06/06 12:30:00",41.57,58.83,TRADE
SNOWY1,"2007/06/06 13:00:00",44.33,57.91,TRADE
SNOWY1,"2007/06/06 13:30:00",51.58,55.79,TRADE
SNOWY1,"2007/06/06 14:00:00",41.69,55,TRADE
SNOWY1,"2007/06/06 14:30:00",45.2,55,TRADE
SNOWY1,"2007/06/06 15:00:00",41.4,55,TRADE
SNOWY1,"2007/06/06 15:30:00",45.44,55,TRADE
SNOWY1,"2007/06/06 16:00:00",48.95,55.36,TRADE
SNOWY1,"2007/06/06 16:30:00",48.95,58.07,TRADE
SNOWY1,"2007/06/06 17:00:00",49.29,64.41,TRADE
SNOWY1,"2007/06/06 17:30:00",61.81,114.21,TRADE
SNOWY1,"2007/06/06 18:00:00",60.97,157.2,TRADE
SNOWY1,"2007/06/06 18:30:00",59.13,134.68,TRADE
SNOWY1,"2007/06/06 19:00:00",54.63,119.84,TRADE
SNOWY1,"2007/06/06 19:30:00",49.59,84.83,TRADE
SNOWY1,"2007/06/06 20:00:00",35.56,64.15,TRADE
SNOWY1,"2007/06/06 20:30:00",48.39,60.56,TRADE
SNOWY1,"2007/06/06 21:00:00",46.45,57.44,TRADE
SNOWY1,"2007/06/06 21:30:00",47.79,59.78,TRADE
SNOWY1,"2007/06/06 22:00:00",40.96,52.46,TRADE
SNOWY1,"2007/06/06 22:30:00",38.74,63.06,TRADE
SNOWY1,"2007/06/06 23:00:00",43.54,60.99,TRADE
SNOWY1,"2007/06/06 23:30:00",42.8,70.63,TRADE
SNOWY1,"2007/06/07 00:00:00",41.35,58.82,TRADE
SNOWY1,"2007/06/07 00:30:00",45.42,52.99,TRADE
SNOWY1,"2007/06/07 01:00:00",45.51,49.49,TRADE
SNOWY1,"2007/06/07 01:30:00",54.26,58.44,TRADE
SNOWY1,"2007/06/07 02:00:00",48.03,46.88,TRADE
SNOWY1,"2007/06/07 02:30:00",45.96,47.45,TRADE
SNOWY1,"2007/06/07 03:00:00",36.59,38.65,TRADE
SNOWY1,"2007/06/07 03:30:00",71.22,31.42,TRADE
SNOWY1,"2007/06/07 04:00:00",75.46,28.39,TRADE
SNOWY1,"2007/06/07 04:30:00",73.1,28.07,TRADE
SNOWY1,"2007/06/07 05:00:00",70.75,29.31,TRADE
SNOWY1,"2007/06/07 05:30:00",72.29,32.59,TRADE
SNOWY1,"2007/06/07 06:00:00",72.24,37.42,TRADE
SNOWY1,"2007/06/07 06:30:00",45.56,54.03,TRADE
SNOWY1,"2007/06/07 07:00:00",44.13,57.4,TRADE
SNOWY1,"2007/06/07 07:30:00",48.28,55,TRADE
SNOWY1,"2007/06/07 08:00:00",55.63,63.14,TRADE
SNOWY1,"2007/06/07 08:30:00",50.75,86.1,TRADE
SNOWY1,"2007/06/07 09:00:00",52.04,71.34,TRADE
SNOWY1,"2007/06/07 09:30:00",47.67,71.76,TRADE
SNOWY1,"2007/06/07 10:00:00",54.71,80.57,TRADE
SNOWY1,"2007/06/07 10:30:00",51.63,71.94,TRADE
SNOWY1,"2007/06/07 11:00:00",47.21,83,TRADE
SNOWY1,"2007/06/07 11:30:00",57.1,59.47,TRADE
SNOWY1,"2007/06/07 12:00:00",53.09,71.84,TRADE
SNOWY1,"2007/06/07 12:30:00",51.37,85.84,TRADE
SNOWY1,"2007/06/07 13:00:00",42.42,62.81,TRADE
SNOWY1,"2007/06/07 13:30:00",49,68.32,TRADE
SNOWY1,"2007/06/07 14:00:00",40.16,68.65,TRADE
SNOWY1,"2007/06/07 14:30:00",39.36,72,TRADE
SNOWY1,"2007/06/07 15:00:00",50.33,58.44,TRADE
SNOWY1,"2007/06/07 15:30:00",47.36,56.81,TRADE
SNOWY1,"2007/06/07 16:00:00",44.95,65.69,TRADE
SNOWY1,"2007/06/07 16:30:00",53.58,85.92,TRADE
SNOWY1,"2007/06/07 17:00:00",44.78,80.57,TRADE
SNOWY1,"2007/06/07 17:30:00",44.59,166.36,TRADE
SNOWY1,"2007/06/07 18:00:00",50.56,258.25,TRADE
SNOWY1,"2007/06/07 18:30:00",50.48,149.92,TRADE
SNOWY1,"2007/06/07 19:00:00",55.28,122.55,TRADE
SNOWY1,"2007/06/07 19:30:00",48.36,105.94,TRADE
SNOWY1,"2007/06/07 20:00:00",24.49,78.14,TRADE
SNOWY1,"2007/06/07 20:30:00",40.34,71.92,TRADE
SNOWY1,"2007/06/07 21:00:00",41.74,61.41,TRADE
SNOWY1,"2007/06/07 21:30:00",49.58,65.82,TRADE
SNOWY1,"2007/06/07 22:00:00",41.27,64.61,TRADE
SNOWY1,"2007/06/07 22:30:00",42.98,98.18,TRADE
SNOWY1,"2007/06/07 23:00:00",40.13,74.27,TRADE
SNOWY1,"2007/06/07 23:30:00",35.75,79.58,TRADE
SNOWY1,"2007/06/08 00:00:00",41.18,66.2,TRADE
SNOWY1,"2007/06/08 00:30:00",35.66,60.39,TRADE
SNOWY1,"2007/06/08 01:00:00",33.04,57.27,TRADE
SNOWY1,"2007/06/08 01:30:00",37.48,60.33,TRADE
SNOWY1,"2007/06/08 02:00:00",27.99,53.17,TRADE
SNOWY1,"2007/06/08 02:30:00",37.81,55.56,TRADE
SNOWY1,"2007/06/08 03:00:00",42.59,44.94,TRADE
SNOWY1,"2007/06/08 03:30:00",44.95,41.89,TRADE
SNOWY1,"2007/06/08 04:00:00",33.51,36.96,TRADE
SNOWY1,"2007/06/08 04:30:00",36.94,38.59,TRADE
SNOWY1,"2007/06/08 05:00:00",37.34,39.47,TRADE
SNOWY1,"2007/06/08 05:30:00",41.57,48.97,TRADE
SNOWY1,"2007/06/08 06:00:00",41.34,49.69,TRADE
SNOWY1,"2007/06/08 06:30:00",40.28,59.1,TRADE
SNOWY1,"2007/06/08 07:00:00",52.98,69.69,TRADE
SNOWY1,"2007/06/08 07:30:00",38.73,62.88,TRADE
SNOWY1,"2007/06/08 08:00:00",51.76,81.43,TRADE
SNOWY1,"2007/06/08 08:30:00",50.38,88.68,TRADE
SNOWY1,"2007/06/08 09:00:00",43.35,84.74,TRADE
SNOWY1,"2007/06/08 09:30:00",42.35,91.02,TRADE
SNOWY1,"2007/06/08 10:00:00",56.34,101.05,TRADE
SNOWY1,"2007/06/08 10:30:00",56.29,94.19,TRADE
SNOWY1,"2007/06/08 11:00:00",54.75,79.68,TRADE
SNOWY1,"2007/06/08 11:30:00",53.14,80.25,TRADE
SNOWY1,"2007/06/08 12:00:00",44.84,73.18,TRADE
SNOWY1,"2007/06/08 12:30:00",47.67,57.56,TRADE
SNOWY1,"2007/06/08 13:00:00",48.42,55,TRADE
SNOWY1,"2007/06/08 13:30:00",35.78,85.52,TRADE
SNOWY1,"2007/06/08 14:00:00",55.42,72,TRADE
SNOWY1,"2007/06/08 14:30:00",47.92,58.36,TRADE
SNOWY1,"2007/06/08 15:00:00",43.52,72,TRADE
SNOWY1,"2007/06/08 15:30:00",32.2,75.18,TRADE
SNOWY1,"2007/06/08 16:00:00",28.97,89.43,TRADE
SNOWY1,"2007/06/08 16:30:00",50.25,109.87,TRADE
SNOWY1,"2007/06/08 17:00:00",50.33,97.34,TRADE
SNOWY1,"2007/06/08 17:30:00",57.03,266.48,TRADE
SNOWY1,"2007/06/08 18:00:00",53.16,322.77,TRADE
SNOWY1,"2007/06/08 18:30:00",57.98,195.61,TRADE
SNOWY1,"2007/06/08 19:00:00",49.55,149.76,TRADE
SNOWY1,"2007/06/08 19:30:00",48.88,115.98,TRADE
SNOWY1,"2007/06/08 20:00:00",28.18,97.33,TRADE
SNOWY1,"2007/06/08 20:30:00",35.24,103.53,TRADE
SNOWY1,"2007/06/08 21:00:00",40.71,109.06,TRADE
SNOWY1,"2007/06/08 21:30:00",44.09,105.34,TRADE
SNOWY1,"2007/06/08 22:00:00",44.42,87.02,TRADE
SNOWY1,"2007/06/08 22:30:00",14.31,105.84,TRADE
SNOWY1,"2007/06/08 23:00:00",26.98,79.12,TRADE
SNOWY1,"2007/06/08 23:30:00",26,88.25,TRADE
SNOWY1,"2007/06/09 00:00:00",28.71,79.91,TRADE
SNOWY1,"2007/06/09 00:30:00",35.51,79.33,TRADE
SNOWY1,"2007/06/09 01:00:00",35.4,60.62,TRADE
SNOWY1,"2007/06/09 01:30:00",35.73,63.1,TRADE
SNOWY1,"2007/06/09 02:00:00",35.52,56.73,TRADE
SNOWY1,"2007/06/09 02:30:00",35.86,42.24,TRADE
SNOWY1,"2007/06/09 03:00:00",32.14,40.86,TRADE
SNOWY1,"2007/06/09 03:30:00",41.39,47.8,TRADE
SNOWY1,"2007/06/09 04:00:00",42.77,57.53,TRADE
SNOWY1,"2007/06/09 04:30:00",35.8,52,TRADE
SNOWY1,"2007/06/09 05:00:00",35.89,52.29,TRADE
SNOWY1,"2007/06/09 05:30:00",35.43,54.96,TRADE
SNOWY1,"2007/06/09 06:00:00",34.74,54.29,TRADE
SNOWY1,"2007/06/09 06:30:00",34.01,70.93,TRADE
SNOWY1,"2007/06/09 07:00:00",42.34,58.89,TRADE
SNOWY1,"2007/06/09 07:30:00",26.91,54.27,TRADE
SNOWY1,"2007/06/09 08:00:00",27.95,68.69,TRADE
SNOWY1,"2007/06/09 08:30:00",44.24,91.32,TRADE
SNOWY1,"2007/06/09 09:00:00",43.79,101.32,TRADE
SNOWY1,"2007/06/09 09:30:00",40.14,152.21,TRADE
SNOWY1,"2007/06/09 10:00:00",35.65,120,TRADE
SNOWY1,"2007/06/09 10:30:00",44.21,119.83,TRADE
SNOWY1,"2007/06/09 11:00:00",30.45,95,TRADE
SNOWY1,"2007/06/09 11:30:00",32.43,83.88,TRADE
SNOWY1,"2007/06/09 12:00:00",24.42,83.96,TRADE
SNOWY1,"2007/06/09 12:30:00",27.68,85.67,TRADE
SNOWY1,"2007/06/09 13:00:00",27.61,86.26,TRADE
SNOWY1,"2007/06/09 13:30:00",40,89.08,TRADE
SNOWY1,"2007/06/09 14:00:00",28.89,76.72,TRADE
SNOWY1,"2007/06/09 14:30:00",26.84,74.99,TRADE
SNOWY1,"2007/06/09 15:00:00",28.83,70.43,TRADE
SNOWY1,"2007/06/09 15:30:00",40.78,73.59,TRADE
SNOWY1,"2007/06/09 16:00:00",53.85,88.33,TRADE
SNOWY1,"2007/06/09 16:30:00",39.3,90,TRADE
SNOWY1,"2007/06/09 17:00:00",30.94,97.43,TRADE
SNOWY1,"2007/06/09 17:30:00",31.15,137.16,TRADE
SNOWY1,"2007/06/09 18:00:00",38.67,263.48,TRADE
SNOWY1,"2007/06/09 18:30:00",30.36,164.1,TRADE
SNOWY1,"2007/06/09 19:00:00",30.45,133.82,TRADE
SNOWY1,"2007/06/09 19:30:00",34.33,104.07,TRADE
SNOWY1,"2007/06/09 20:00:00",32.6,90,TRADE
SNOWY1,"2007/06/09 20:30:00",34.57,72.17,TRADE
SNOWY1,"2007/06/09 21:00:00",35.96,83.46,TRADE
SNOWY1,"2007/06/09 21:30:00",39.21,75.18,TRADE
SNOWY1,"2007/06/09 22:00:00",37.67,59.4,TRADE
SNOWY1,"2007/06/09 22:30:00",29.47,78.55,TRADE
SNOWY1,"2007/06/09 23:00:00",27.03,58.06,TRADE
SNOWY1,"2007/06/09 23:30:00",26.15,69.63,TRADE
SNOWY1,"2007/06/10 00:00:00",29.41,54.4,TRADE
SNOWY1,"2007/06/10 00:30:00",37.5,62.2,TRADE
SNOWY1,"2007/06/10 01:00:00",42.61,59.24,TRADE
SNOWY1,"2007/06/10 01:30:00",36.68,62.12,TRADE
SNOWY1,"2007/06/10 02:00:00",40.82,56.7,TRADE
SNOWY1,"2007/06/10 02:30:00",44.69,50.09,TRADE
SNOWY1,"2007/06/10 03:00:00",36.59,51.02,TRADE
SNOWY1,"2007/06/10 03:30:00",42.16,47.67,TRADE
SNOWY1,"2007/06/10 04:00:00",66.23,40.58,TRADE
SNOWY1,"2007/06/10 04:30:00",77.19,40.07,TRADE
SNOWY1,"2007/06/10 05:00:00",79.71,40.77,TRADE
SNOWY1,"2007/06/10 05:30:00",78.04,38.75,TRADE
SNOWY1,"2007/06/10 06:00:00",69.92,42.48,TRADE
SNOWY1,"2007/06/10 06:30:00",48.49,43.91,TRADE
SNOWY1,"2007/06/10 07:00:00",37.76,45.87,TRADE
SNOWY1,"2007/06/10 07:30:00",34.68,39.79,TRADE
SNOWY1,"2007/06/10 08:00:00",39.66,46.57,TRADE
SNOWY1,"2007/06/10 08:30:00",38.63,54.18,TRADE
SNOWY1,"2007/06/10 09:00:00",43.76,54.37,TRADE
SNOWY1,"2007/06/10 09:30:00",50.05,58.65,TRADE
SNOWY1,"2007/06/10 10:00:00",49.04,60.45,TRADE
SNOWY1,"2007/06/10 10:30:00",28.54,60.18,TRADE
SNOWY1,"2007/06/10 11:00:00",37.21,59.63,TRADE
SNOWY1,"2007/06/10 11:30:00",39.21,56.48,TRADE
SNOWY1,"2007/06/10 12:00:00",34.25,52.19,TRADE
SNOWY1,"2007/06/10 12:30:00",37.93,50.08,TRADE
SNOWY1,"2007/06/10 13:00:00",40.55,48.3,TRADE
SNOWY1,"2007/06/10 13:30:00",41.39,52.18,TRADE
SNOWY1,"2007/06/10 14:00:00",36.96,46.31,TRADE
SNOWY1,"2007/06/10 14:30:00",34.61,45.87,TRADE
SNOWY1,"2007/06/10 15:00:00",41.66,44.75,TRADE
SNOWY1,"2007/06/10 15:30:00",39.6,49.56,TRADE
SNOWY1,"2007/06/10 16:00:00",37.11,46.12,TRADE
SNOWY1,"2007/06/10 16:30:00",41.45,51.35,TRADE
SNOWY1,"2007/06/10 17:00:00",40.61,66.74,TRADE
SNOWY1,"2007/06/10 17:30:00",42.82,79.5,TRADE
SNOWY1,"2007/06/10 18:00:00",52.43,118.08,TRADE
SNOWY1,"2007/06/10 18:30:00",38.86,107.07,TRADE
SNOWY1,"2007/06/10 19:00:00",36.48,95.8,TRADE
SNOWY1,"2007/06/10 19:30:00",36.1,83.85,TRADE
SNOWY1,"2007/06/10 20:00:00",35.96,76.03,TRADE
SNOWY1,"2007/06/10 20:30:00",27.39,85.23,TRADE
SNOWY1,"2007/06/10 21:00:00",27.17,83.76,TRADE
SNOWY1,"2007/06/10 21:30:00",33.35,69.51,TRADE
SNOWY1,"2007/06/10 22:00:00",37.17,68.8,TRADE
SNOWY1,"2007/06/10 22:30:00",36.03,93.81,TRADE
SNOWY1,"2007/06/10 23:00:00",35.05,82.94,TRADE
SNOWY1,"2007/06/10 23:30:00",22.68,80.31,TRADE
SNOWY1,"2007/06/11 00:00:00",27.88,74.41,TRADE
SNOWY1,"2007/06/11 00:30:00",38.93,62.23,TRADE
SNOWY1,"2007/06/11 01:00:00",40.15,40.24,TRADE
SNOWY1,"2007/06/11 01:30:00",32.99,50.22,TRADE
SNOWY1,"2007/06/11 02:00:00",35.09,46.38,TRADE
SNOWY1,"2007/06/11 02:30:00",40.85,49.57,TRADE
SNOWY1,"2007/06/11 03:00:00",55.72,35.13,TRADE
SNOWY1,"2007/06/11 03:30:00",66.52,34.39,TRADE
SNOWY1,"2007/06/11 04:00:00",69.24,32.05,TRADE
SNOWY1,"2007/06/11 04:30:00",67.85,33.3,TRADE
SNOWY1,"2007/06/11 05:00:00",69.51,30.16,TRADE
SNOWY1,"2007/06/11 05:30:00",70.56,30.54,TRADE
SNOWY1,"2007/06/11 06:00:00",62.26,28.94,TRADE
SNOWY1,"2007/06/11 06:30:00",38.22,39.65,TRADE
SNOWY1,"2007/06/11 07:00:00",30.58,41.92,TRADE
SNOWY1,"2007/06/11 07:30:00",30.21,36.26,TRADE
SNOWY1,"2007/06/11 08:00:00",36.55,46.44,TRADE
SNOWY1,"2007/06/11 08:30:00",45.31,54.69,TRADE
SNOWY1,"2007/06/11 09:00:00",40.96,56.45,TRADE
SNOWY1,"2007/06/11 09:30:00",32.12,63.87,TRADE
SNOWY1,"2007/06/11 10:00:00",33.29,65,TRADE
SNOWY1,"2007/06/11 10:30:00",31.59,63.99,TRADE
SNOWY1,"2007/06/11 11:00:00",33.22,64.04,TRADE
SNOWY1,"2007/06/11 11:30:00",33.24,60.97,TRADE
SNOWY1,"2007/06/11 12:00:00",34.65,53.29,TRADE
SNOWY1,"2007/06/11 12:30:00",38.92,57.31,TRADE
SNOWY1,"2007/06/11 13:00:00",28.07,54.88,TRADE
SNOWY1,"2007/06/11 13:30:00",39.39,52.34,TRADE
SNOWY1,"2007/06/11 14:00:00",38.8,49.64,TRADE
SNOWY1,"2007/06/11 14:30:00",40.48,51.88,TRADE
SNOWY1,"2007/06/11 15:00:00",35.4,53.67,TRADE
SNOWY1,"2007/06/11 15:30:00",37.85,56.78,TRADE
SNOWY1,"2007/06/11 16:00:00",38.65,62.16,TRADE
SNOWY1,"2007/06/11 16:30:00",33.41,63.66,TRADE
SNOWY1,"2007/06/11 17:00:00",33.89,77.98,TRADE
SNOWY1,"2007/06/11 17:30:00",46.91,182.03,TRADE
SNOWY1,"2007/06/11 18:00:00",38.1,371.09,TRADE
SNOWY1,"2007/06/11 18:30:00",43.5,299.64,TRADE
SNOWY1,"2007/06/11 19:00:00",37.61,225.81,TRADE
SNOWY1,"2007/06/11 19:30:00",39.37,135.63,TRADE
SNOWY1,"2007/06/11 20:00:00",31.34,122.26,TRADE
SNOWY1,"2007/06/11 20:30:00",33.58,108.01,TRADE
SNOWY1,"2007/06/11 21:00:00",41.37,95.37,TRADE
SNOWY1,"2007/06/11 21:30:00",38.82,84.14,TRADE
SNOWY1,"2007/06/11 22:00:00",24.35,66.09,TRADE
SNOWY1,"2007/06/11 22:30:00",27.8,92.18,TRADE
SNOWY1,"2007/06/11 23:00:00",28.35,83.56,TRADE
SNOWY1,"2007/06/11 23:30:00",19.1,88.05,TRADE
SNOWY1,"2007/06/12 00:00:00",29.15,75.64,TRADE
SNOWY1,"2007/06/12 00:30:00",38.97,61.92,TRADE
SNOWY1,"2007/06/12 01:00:00",31.25,52.14,TRADE
SNOWY1,"2007/06/12 01:30:00",33.01,79.32,TRADE
SNOWY1,"2007/06/12 02:00:00",32.52,72.39,TRADE
SNOWY1,"2007/06/12 02:30:00",29.32,61.93,TRADE
SNOWY1,"2007/06/12 03:00:00",34.63,53.51,TRADE
SNOWY1,"2007/06/12 03:30:00",35.86,50.44,TRADE
SNOWY1,"2007/06/12 04:00:00",29.46,41.52,TRADE
SNOWY1,"2007/06/12 04:30:00",27.83,45.39,TRADE
SNOWY1,"2007/06/12 05:00:00",35.12,44.63,TRADE
SNOWY1,"2007/06/12 05:30:00",35.38,53.3,TRADE
SNOWY1,"2007/06/12 06:00:00",32.76,72.87,TRADE
SNOWY1,"2007/06/12 06:30:00",27.85,92.35,TRADE
SNOWY1,"2007/06/12 07:00:00",38,113.84,TRADE
SNOWY1,"2007/06/12 07:30:00",44.84,113.26,TRADE
SNOWY1,"2007/06/12 08:00:00",52.09,132.97,TRADE
SNOWY1,"2007/06/12 08:30:00",35.25,132.94,TRADE
SNOWY1,"2007/06/12 09:00:00",44.83,105.88,TRADE
SNOWY1,"2007/06/12 09:30:00",46.56,93.34,TRADE
SNOWY1,"2007/06/12 10:00:00",39.39,85.96,TRADE
SNOWY1,"2007/06/12 10:30:00",37.04,85.43,TRADE
SNOWY1,"2007/06/12 11:00:00",29.98,84.85,TRADE
SNOWY1,"2007/06/12 11:30:00",41.03,82.27,TRADE
SNOWY1,"2007/06/12 12:00:00",34.39,82.08,TRADE
SNOWY1,"2007/06/12 12:30:00",29.89,88.04,TRADE
SNOWY1,"2007/06/12 13:00:00",30.2,75.77,TRADE
SNOWY1,"2007/06/12 13:30:00",34.26,72.62,TRADE
SNOWY1,"2007/06/12 14:00:00",26.99,70.89,TRADE
SNOWY1,"2007/06/12 14:30:00",41.49,72,TRADE
SNOWY1,"2007/06/12 15:00:00",29.26,67.94,TRADE
SNOWY1,"2007/06/12 15:30:00",37.81,68.99,TRADE
SNOWY1,"2007/06/12 16:00:00",34.47,75.59,TRADE
SNOWY1,"2007/06/12 16:30:00",41.66,88.2,TRADE
SNOWY1,"2007/06/12 17:00:00",32.97,82.2,TRADE
SNOWY1,"2007/06/12 17:30:00",37.54,259.93,TRADE
SNOWY1,"2007/06/12 18:00:00",38.57,5201.92,TRADE
SNOWY1,"2007/06/12 18:30:00",36.87,449.49,TRADE
SNOWY1,"2007/06/12 19:00:00",24.84,403.11,TRADE
SNOWY1,"2007/06/12 19:30:00",27.54,299.52,TRADE
SNOWY1,"2007/06/12 20:00:00",36.57,186.3,TRADE
SNOWY1,"2007/06/12 20:30:00",42.38,133.84,TRADE
SNOWY1,"2007/06/12 21:00:00",48.73,136.51,TRADE
SNOWY1,"2007/06/12 21:30:00",29.66,117.52,TRADE
SNOWY1,"2007/06/12 22:00:00",42.65,98.04,TRADE
SNOWY1,"2007/06/12 22:30:00",37.84,129.62,TRADE
SNOWY1,"2007/06/12 23:00:00",43.26,112.68,TRADE
SNOWY1,"2007/06/12 23:30:00",25.06,112.93,TRADE
SNOWY1,"2007/06/13 00:00:00",36.25,111.74,TRADE
SNOWY1,"2007/06/13 00:30:00",25.43,99.59,TRADE
SNOWY1,"2007/06/13 01:00:00",24.61,78.6,TRADE
SNOWY1,"2007/06/13 01:30:00",36.29,78.11,TRADE
SNOWY1,"2007/06/13 02:00:00",30.11,64.19,TRADE
SNOWY1,"2007/06/13 02:30:00",39.32,71.75,TRADE
SNOWY1,"2007/06/13 03:00:00",34.68,62.74,TRADE
SNOWY1,"2007/06/13 03:30:00",45.81,56.66,TRADE
SNOWY1,"2007/06/13 04:00:00",28.28,51.7,TRADE
SNOWY1,"2007/06/13 04:30:00",38.12,55.72,TRADE
SNOWY1,"2007/06/13 05:00:00",34.69,56.29,TRADE
SNOWY1,"2007/06/13 05:30:00",23.42,62.53,TRADE
SNOWY1,"2007/06/13 06:00:00",23.46,63.16,TRADE
SNOWY1,"2007/06/13 06:30:00",29.56,134.56,TRADE
SNOWY1,"2007/06/13 07:00:00",26.55,214.78,TRADE
SNOWY1,"2007/06/13 07:30:00",44.93,123.75,TRADE
SNOWY1,"2007/06/13 08:00:00",52.15,156.01,TRADE
SNOWY1,"2007/06/13 08:30:00",48.97,149.15,TRADE
SNOWY1,"2007/06/13 09:00:00",52.78,114.29,TRADE
SNOWY1,"2007/06/13 09:30:00",44.87,103.39,TRADE
SNOWY1,"2007/06/13 10:00:00",53.43,91.06,TRADE
SNOWY1,"2007/06/13 10:30:00",48.3,91.09,TRADE
SNOWY1,"2007/06/13 11:00:00",41.52,91.87,TRADE
SNOWY1,"2007/06/13 11:30:00",23.36,91.25,TRADE
SNOWY1,"2007/06/13 12:00:00",35.73,91.25,TRADE
SNOWY1,"2007/06/13 12:30:00",49.39,91.61,TRADE
SNOWY1,"2007/06/13 13:00:00",48.66,91.27,TRADE
SNOWY1,"2007/06/13 13:30:00",44.01,91.25,TRADE
SNOWY1,"2007/06/13 14:00:00",44.2,91.25,TRADE
SNOWY1,"2007/06/13 14:30:00",38.13,91.77,TRADE
SNOWY1,"2007/06/13 15:00:00",38.02,91.85,TRADE
SNOWY1,"2007/06/13 15:30:00",48.9,95.02,TRADE
SNOWY1,"2007/06/13 16:00:00",31.57,110.91,TRADE
SNOWY1,"2007/06/13 16:30:00",50.45,127.17,TRADE
SNOWY1,"2007/06/13 17:00:00",51.03,146.61,TRADE
SNOWY1,"2007/06/13 17:30:00",37.36,297.62,TRADE
SNOWY1,"2007/06/13 18:00:00",48.32,7715.69,TRADE
SNOWY1,"2007/06/13 18:30:00",41.38,7432.57,TRADE
SNOWY1,"2007/06/13 19:00:00",29.04,7143.03,TRADE
SNOWY1,"2007/06/13 19:30:00",29.53,4687.9,TRADE
SNOWY1,"2007/06/13 20:00:00",32.91,462.2,TRADE
SNOWY1,"2007/06/13 20:30:00",24.67,186.56,TRADE
SNOWY1,"2007/06/13 21:00:00",42.9,157.25,TRADE
SNOWY1,"2007/06/13 21:30:00",48.38,173.4,TRADE
SNOWY1,"2007/06/13 22:00:00",44.93,129.15,TRADE
SNOWY1,"2007/06/13 22:30:00",40.98,187.62,TRADE
SNOWY1,"2007/06/13 23:00:00",37.29,180.19,TRADE
SNOWY1,"2007/06/13 23:30:00",30.73,157.13,TRADE
SNOWY1,"2007/06/14 00:00:00",27.28,90.31,TRADE
SNOWY1,"2007/06/14 00:30:00",22.49,100.55,TRADE
SNOWY1,"2007/06/14 01:00:00",26.28,121.08,TRADE
SNOWY1,"2007/06/14 01:30:00",33.92,104,TRADE
SNOWY1,"2007/06/14 02:00:00",41.39,99.77,TRADE
SNOWY1,"2007/06/14 02:30:00",35.28,63.28,TRADE
SNOWY1,"2007/06/14 03:00:00",37.45,66.41,TRADE
SNOWY1,"2007/06/14 03:30:00",40.1,58.67,TRADE
SNOWY1,"2007/06/14 04:00:00",29.1,53.71,TRADE
SNOWY1,"2007/06/14 04:30:00",38.41,49.73,TRADE
SNOWY1,"2007/06/14 05:00:00",33.78,51.95,TRADE
SNOWY1,"2007/06/14 05:30:00",27.23,62.47,TRADE
SNOWY1,"2007/06/14 06:00:00",30.39,78.71,TRADE
SNOWY1,"2007/06/14 06:30:00",39.85,160.21,TRADE
SNOWY1,"2007/06/14 07:00:00",49.03,223.9,TRADE
SNOWY1,"2007/06/14 07:30:00",37.41,239.26,TRADE
SNOWY1,"2007/06/14 08:00:00",47.73,299.52,TRADE
SNOWY1,"2007/06/14 08:30:00",48.57,295.52,TRADE
SNOWY1,"2007/06/14 09:00:00",46.1,241.33,TRADE
SNOWY1,"2007/06/14 09:30:00",37.82,204.21,TRADE
SNOWY1,"2007/06/14 10:00:00",50.54,150.07,TRADE
SNOWY1,"2007/06/14 10:30:00",34.91,189.18,TRADE
SNOWY1,"2007/06/14 11:00:00",36.18,186.32,TRADE
SNOWY1,"2007/06/14 11:30:00",35.2,166.62,TRADE
SNOWY1,"2007/06/14 12:00:00",24.93,150,TRADE
SNOWY1,"2007/06/14 12:30:00",32.7,155.81,TRADE
SNOWY1,"2007/06/14 13:00:00",31.85,152.75,TRADE
SNOWY1,"2007/06/14 13:30:00",42.22,155.68,TRADE
SNOWY1,"2007/06/14 14:00:00",35.57,167.54,TRADE
SNOWY1,"2007/06/14 14:30:00",45.71,174.31,TRADE
SNOWY1,"2007/06/14 15:00:00",31.35,150,TRADE
SNOWY1,"2007/06/14 15:30:00",27.29,149.11,TRADE
SNOWY1,"2007/06/14 16:00:00",33.08,223.62,TRADE
SNOWY1,"2007/06/14 16:30:00",30.47,251.22,TRADE
SNOWY1,"2007/06/14 17:00:00",47.31,114.83,TRADE
SNOWY1,"2007/06/14 17:30:00",47.13,448.13,TRADE
SNOWY1,"2007/06/14 18:00:00",62.88,6868.66,TRADE
SNOWY1,"2007/06/14 18:30:00",44.73,2923.28,TRADE
SNOWY1,"2007/06/14 19:00:00",51.47,2290.16,TRADE
SNOWY1,"2007/06/14 19:30:00",42.4,390.89,TRADE
SNOWY1,"2007/06/14 20:00:00",36.21,283.94,TRADE
SNOWY1,"2007/06/14 20:30:00",51.93,216.88,TRADE
SNOWY1,"2007/06/14 21:00:00",52.33,175.96,TRADE
SNOWY1,"2007/06/14 21:30:00",59.08,152.41,TRADE
SNOWY1,"2007/06/14 22:00:00",42.98,163.03,TRADE
SNOWY1,"2007/06/14 22:30:00",30.44,166.42,TRADE
SNOWY1,"2007/06/14 23:00:00",30.36,145.54,TRADE
SNOWY1,"2007/06/14 23:30:00",19.36,135.25,TRADE
SNOWY1,"2007/06/15 00:00:00",28.16,106.27,TRADE
SNOWY1,"2007/06/15 00:30:00",30.16,112.74,TRADE
SNOWY1,"2007/06/15 01:00:00",23.43,82.7,TRADE
SNOWY1,"2007/06/15 01:30:00",30.09,112.48,TRADE
SNOWY1,"2007/06/15 02:00:00",41.67,106.35,TRADE
SNOWY1,"2007/06/15 02:30:00",31.95,85.53,TRADE
SNOWY1,"2007/06/15 03:00:00",38.97,67.95,TRADE
SNOWY1,"2007/06/15 03:30:00",35.38,59.74,TRADE
SNOWY1,"2007/06/15 04:00:00",36.66,61.35,TRADE
SNOWY1,"2007/06/15 04:30:00",31.23,55.34,TRADE
SNOWY1,"2007/06/15 05:00:00",32.72,56.03,TRADE
SNOWY1,"2007/06/15 05:30:00",32.2,62.74,TRADE
SNOWY1,"2007/06/15 06:00:00",33.39,70.87,TRADE
SNOWY1,"2007/06/15 06:30:00",20.75,107.4,TRADE
SNOWY1,"2007/06/15 07:00:00",35.4,130.54,TRADE
SNOWY1,"2007/06/15 07:30:00",47,132.32,TRADE
SNOWY1,"2007/06/15 08:00:00",43.55,231.98,TRADE
SNOWY1,"2007/06/15 08:30:00",38.17,225.56,TRADE
SNOWY1,"2007/06/15 09:00:00",45.87,197.41,TRADE
SNOWY1,"2007/06/15 09:30:00",41.88,243.71,TRADE
SNOWY1,"2007/06/15 10:00:00",36.91,156.53,TRADE
SNOWY1,"2007/06/15 10:30:00",31.19,161.01,TRADE
SNOWY1,"2007/06/15 11:00:00",23.8,166.78,TRADE
SNOWY1,"2007/06/15 11:30:00",35.01,152.05,TRADE
SNOWY1,"2007/06/15 12:00:00",11.74,144.47,TRADE
SNOWY1,"2007/06/15 12:30:00",20.78,121.25,TRADE
SNOWY1,"2007/06/15 13:00:00",36.75,112.33,TRADE
SNOWY1,"2007/06/15 13:30:00",34.64,146.83,TRADE
SNOWY1,"2007/06/15 14:00:00",38.2,111.25,TRADE
SNOWY1,"2007/06/15 14:30:00",18.29,107.77,TRADE
SNOWY1,"2007/06/15 15:00:00",38.86,121.25,TRADE
SNOWY1,"2007/06/15 15:30:00",28.26,114.02,TRADE
SNOWY1,"2007/06/15 16:00:00",30.4,133.27,TRADE
SNOWY1,"2007/06/15 16:30:00",32.31,176.82,TRADE
SNOWY1,"2007/06/15 17:00:00",31.29,115.57,TRADE
SNOWY1,"2007/06/15 17:30:00",26.99,895.56,TRADE
SNOWY1,"2007/06/15 18:00:00",30.65,1266.77,TRADE
SNOWY1,"2007/06/15 18:30:00",28.38,417.24,TRADE
SNOWY1,"2007/06/15 19:00:00",28.84,375.8,TRADE
SNOWY1,"2007/06/15 19:30:00",32.15,299.52,TRADE
SNOWY1,"2007/06/15 20:00:00",30.98,153.56,TRADE
SNOWY1,"2007/06/15 20:30:00",26.04,173.16,TRADE
SNOWY1,"2007/06/15 21:00:00",39.2,182.78,TRADE
SNOWY1,"2007/06/15 21:30:00",58.34,160.5,TRADE
SNOWY1,"2007/06/15 22:00:00",38.42,129.65,TRADE
SNOWY1,"2007/06/15 22:30:00",37.83,156.81,TRADE
SNOWY1,"2007/06/15 23:00:00",36.88,192.38,TRADE
SNOWY1,"2007/06/15 23:30:00",33.22,215.92,TRADE
SNOWY1,"2007/06/16 00:00:00",39.79,158.58,TRADE
SNOWY1,"2007/06/16 00:30:00",34.3,121.17,TRADE
SNOWY1,"2007/06/16 01:00:00",27.12,115.16,TRADE
SNOWY1,"2007/06/16 01:30:00",39.87,100.97,TRADE
SNOWY1,"2007/06/16 02:00:00",29.31,68.4,TRADE
SNOWY1,"2007/06/16 02:30:00",31.18,80.05,TRADE
SNOWY1,"2007/06/16 03:00:00",34.29,90.8,TRADE
SNOWY1,"2007/06/16 03:30:00",36.1,76.12,TRADE
SNOWY1,"2007/06/16 04:00:00",38.04,68.46,TRADE
SNOWY1,"2007/06/16 04:30:00",33.02,63.72,TRADE
SNOWY1,"2007/06/16 05:00:00",34.45,65.57,TRADE
SNOWY1,"2007/06/16 05:30:00",49.67,63.39,TRADE
SNOWY1,"2007/06/16 06:00:00",42.02,72.42,TRADE
SNOWY1,"2007/06/16 06:30:00",31.57,90.66,TRADE
SNOWY1,"2007/06/16 07:00:00",31.8,73.16,TRADE
SNOWY1,"2007/06/16 07:30:00",43.72,51.9,TRADE
SNOWY1,"2007/06/16 08:00:00",40.33,86.31,TRADE
SNOWY1,"2007/06/16 08:30:00",41.7,152.9,TRADE
SNOWY1,"2007/06/16 09:00:00",39.63,147.43,TRADE
SNOWY1,"2007/06/16 09:30:00",47.91,274.7,TRADE
SNOWY1,"2007/06/16 10:00:00",34.01,154.31,TRADE
SNOWY1,"2007/06/16 10:30:00",43.54,227.09,TRADE
SNOWY1,"2007/06/16 11:00:00",37.44,200.2,TRADE
SNOWY1,"2007/06/16 11:30:00",34.44,156.75,TRADE
SNOWY1,"2007/06/16 12:00:00",36.97,221.75,TRADE
SNOWY1,"2007/06/16 12:30:00",40.39,149.87,TRADE
SNOWY1,"2007/06/16 13:00:00",38.72,126.13,TRADE
SNOWY1,"2007/06/16 13:30:00",42.72,111.18,TRADE
SNOWY1,"2007/06/16 14:00:00",38.27,103.75,TRADE
SNOWY1,"2007/06/16 14:30:00",29.51,101.5,TRADE
SNOWY1,"2007/06/16 15:00:00",33.45,96.48,TRADE
SNOWY1,"2007/06/16 15:30:00",38.2,94.54,TRADE
SNOWY1,"2007/06/16 16:00:00",33.64,106.36,TRADE
SNOWY1,"2007/06/16 16:30:00",38.17,132.28,TRADE
SNOWY1,"2007/06/16 17:00:00",41.16,218.46,TRADE
SNOWY1,"2007/06/16 17:30:00",32.77,382.77,TRADE
SNOWY1,"2007/06/16 18:00:00",49.87,5951.18,TRADE
SNOWY1,"2007/06/16 18:30:00",50.57,738.65,TRADE
SNOWY1,"2007/06/16 19:00:00",45.86,323.19,TRADE
SNOWY1,"2007/06/16 19:30:00",41.17,279.61,TRADE
SNOWY1,"2007/06/16 20:00:00",32.61,234.95,TRADE
SNOWY1,"2007/06/16 20:30:00",26.77,151.45,TRADE
SNOWY1,"2007/06/16 21:00:00",30.72,130.91,TRADE
SNOWY1,"2007/06/16 21:30:00",43.64,119.06,TRADE
SNOWY1,"2007/06/16 22:00:00",38.02,110.15,TRADE
SNOWY1,"2007/06/16 22:30:00",36.02,191.52,TRADE
SNOWY1,"2007/06/16 23:00:00",25.76,130.74,TRADE
SNOWY1,"2007/06/16 23:30:00",37.55,135.72,TRADE
SNOWY1,"2007/06/17 00:00:00",39.27,112.18,TRADE
SNOWY1,"2007/06/17 00:30:00",29.55,107.55,TRADE
SNOWY1,"2007/06/17 01:00:00",25.72,95.72,TRADE
SNOWY1,"2007/06/17 01:30:00",41.07,106.57,TRADE
SNOWY1,"2007/06/17 02:00:00",37.85,80.14,TRADE
SNOWY1,"2007/06/17 02:30:00",38.09,79.73,TRADE
SNOWY1,"2007/06/17 03:00:00",39.33,98.08,TRADE
SNOWY1,"2007/06/17 03:30:00",47.75,66.65,TRADE
SNOWY1,"2007/06/17 04:00:00",43.49,63.65,TRADE
SNOWY1,"2007/06/17 04:30:00",34.59,57.98,TRADE
SNOWY1,"2007/06/17 05:00:00",34.62,49.96,TRADE
SNOWY1,"2007/06/17 05:30:00",36.8,58,TRADE
SNOWY1,"2007/06/17 06:00:00",33.07,66.64,TRADE
SNOWY1,"2007/06/17 06:30:00",32.4,49.11,TRADE
SNOWY1,"2007/06/17 07:00:00",32.84,71.9,TRADE
SNOWY1,"2007/06/17 07:30:00",48.85,50.79,TRADE
SNOWY1,"2007/06/17 08:00:00",45.86,60.14,TRADE
SNOWY1,"2007/06/17 08:30:00",42.41,66.64,TRADE
SNOWY1,"2007/06/17 09:00:00",49.07,77.62,TRADE
SNOWY1,"2007/06/17 09:30:00",55.17,91.25,TRADE
SNOWY1,"2007/06/17 10:00:00",44.71,91.25,TRADE
SNOWY1,"2007/06/17 10:30:00",41.66,91.25,TRADE
SNOWY1,"2007/06/17 11:00:00",45.09,91.25,TRADE
SNOWY1,"2007/06/17 11:30:00",40.98,88.21,TRADE
SNOWY1,"2007/06/17 12:00:00",41.47,76.46,TRADE
SNOWY1,"2007/06/17 12:30:00",44.86,75.52,TRADE
SNOWY1,"2007/06/17 13:00:00",44.44,69.41,TRADE
SNOWY1,"2007/06/17 13:30:00",40.53,70.4,TRADE
SNOWY1,"2007/06/17 14:00:00",40.91,58.74,TRADE
SNOWY1,"2007/06/17 14:30:00",35.99,50.32,TRADE
SNOWY1,"2007/06/17 15:00:00",33.54,43.2,TRADE
SNOWY1,"2007/06/17 15:30:00",37.03,50.37,TRADE
SNOWY1,"2007/06/17 16:00:00",35.58,50.59,TRADE
SNOWY1,"2007/06/17 16:30:00",39.38,62.94,TRADE
SNOWY1,"2007/06/17 17:00:00",39.47,83.83,TRADE
SNOWY1,"2007/06/17 17:30:00",31.71,106.77,TRADE
SNOWY1,"2007/06/17 18:00:00",48.83,147.85,TRADE
SNOWY1,"2007/06/17 18:30:00",44.17,147.14,TRADE
SNOWY1,"2007/06/17 19:00:00",45.8,129.8,TRADE
SNOWY1,"2007/06/17 19:30:00",38.12,134.71,TRADE
SNOWY1,"2007/06/17 20:00:00",43.28,106.48,TRADE
SNOWY1,"2007/06/17 20:30:00",40.47,90.86,TRADE
SNOWY1,"2007/06/17 21:00:00",38.32,81.22,TRADE
SNOWY1,"2007/06/17 21:30:00",44.98,59.49,TRADE
SNOWY1,"2007/06/17 22:00:00",45.56,58.09,TRADE
SNOWY1,"2007/06/17 22:30:00",30.97,75.97,TRADE
SNOWY1,"2007/06/17 23:00:00",36.74,58,TRADE
SNOWY1,"2007/06/17 23:30:00",36.53,56.23,TRADE
SNOWY1,"2007/06/18 00:00:00",33.11,51.43,TRADE
SNOWY1,"2007/06/18 00:30:00",45.01,54.16,TRADE
SNOWY1,"2007/06/18 01:00:00",37.11,52.15,TRADE
SNOWY1,"2007/06/18 01:30:00",42.03,61.25,TRADE
SNOWY1,"2007/06/18 02:00:00",43.94,54.41,TRADE
SNOWY1,"2007/06/18 02:30:00",39.55,42.51,TRADE
SNOWY1,"2007/06/18 03:00:00",40.21,40.3,TRADE
SNOWY1,"2007/06/18 03:30:00",59.3,34.94,TRADE
SNOWY1,"2007/06/18 04:00:00",71.86,25.19,TRADE
SNOWY1,"2007/06/18 04:30:00",70.68,35,TRADE
SNOWY1,"2007/06/18 05:00:00",79.05,36.83,TRADE
SNOWY1,"2007/06/18 05:30:00",67.61,47.62,TRADE
SNOWY1,"2007/06/18 06:00:00",33.93,53.96,TRADE
SNOWY1,"2007/06/18 06:30:00",32.77,70.98,TRADE
SNOWY1,"2007/06/18 07:00:00",46.85,84.11,TRADE
SNOWY1,"2007/06/18 07:30:00",38.07,66.76,TRADE
SNOWY1,"2007/06/18 08:00:00",41.01,95.06,TRADE
SNOWY1,"2007/06/18 08:30:00",48.09,106.51,TRADE
SNOWY1,"2007/06/18 09:00:00",43.16,84.39,TRADE
SNOWY1,"2007/06/18 09:30:00",46.85,90.41,TRADE
SNOWY1,"2007/06/18 10:00:00",41.69,89.31,TRADE
SNOWY1,"2007/06/18 10:30:00",44.18,91.03,TRADE
SNOWY1,"2007/06/18 11:00:00",55.03,121.54,TRADE
SNOWY1,"2007/06/18 11:30:00",35.55,111.68,TRADE
SNOWY1,"2007/06/18 12:00:00",37.65,147.18,TRADE
SNOWY1,"2007/06/18 12:30:00",40.27,162.88,TRADE
SNOWY1,"2007/06/18 13:00:00",49.47,146.72,TRADE
SNOWY1,"2007/06/18 13:30:00",45.67,152.66,TRADE
SNOWY1,"2007/06/18 14:00:00",45.86,154.84,TRADE
SNOWY1,"2007/06/18 14:30:00",41.55,185.9,TRADE
SNOWY1,"2007/06/18 15:00:00",32.72,180.27,TRADE
SNOWY1,"2007/06/18 15:30:00",38.11,150.54,TRADE
SNOWY1,"2007/06/18 16:00:00",38.7,188.49,TRADE
SNOWY1,"2007/06/18 16:30:00",44.66,241.64,TRADE
SNOWY1,"2007/06/18 17:00:00",34.44,235.8,TRADE
SNOWY1,"2007/06/18 17:30:00",40.93,978.63,TRADE
SNOWY1,"2007/06/18 18:00:00",37.27,1903.68,TRADE
SNOWY1,"2007/06/18 18:30:00",36.7,598.38,TRADE
SNOWY1,"2007/06/18 19:00:00",43.2,334.14,TRADE
SNOWY1,"2007/06/18 19:30:00",36.29,271.92,TRADE
SNOWY1,"2007/06/18 20:00:00",42.36,216.47,TRADE
SNOWY1,"2007/06/18 20:30:00",33.13,275.2,TRADE
SNOWY1,"2007/06/18 21:00:00",45.29,222.98,TRADE
SNOWY1,"2007/06/18 21:30:00",49.58,236.47,TRADE
SNOWY1,"2007/06/18 22:00:00",53.65,162.42,TRADE
SNOWY1,"2007/06/18 22:30:00",42.8,246.51,TRADE
SNOWY1,"2007/06/18 23:00:00",44.52,196.79,TRADE
SNOWY1,"2007/06/18 23:30:00",34.42,186.19,TRADE
SNOWY1,"2007/06/19 00:00:00",41.48,129.68,TRADE
SNOWY1,"2007/06/19 00:30:00",36.31,94.19,TRADE
SNOWY1,"2007/06/19 01:00:00",35.75,106.23,TRADE
SNOWY1,"2007/06/19 01:30:00",44.22,87.99,TRADE
SNOWY1,"2007/06/19 02:00:00",44.74,82.94,TRADE
SNOWY1,"2007/06/19 02:30:00",45.82,63.07,TRADE
SNOWY1,"2007/06/19 03:00:00",45.34,62.73,TRADE
SNOWY1,"2007/06/19 03:30:00",41.84,54.68,TRADE
SNOWY1,"2007/06/19 04:00:00",38.56,52.72,TRADE
SNOWY1,"2007/06/19 04:30:00",37.56,51.81,TRADE
SNOWY1,"2007/06/19 05:00:00",33.11,50.83,TRADE
SNOWY1,"2007/06/19 05:30:00",36.07,56.2,TRADE
SNOWY1,"2007/06/19 06:00:00",38.27,61.11,TRADE
SNOWY1,"2007/06/19 06:30:00",45.84,111.42,TRADE
SNOWY1,"2007/06/19 07:00:00",57.99,103.49,TRADE
SNOWY1,"2007/06/19 07:30:00",52.93,67.93,TRADE
SNOWY1,"2007/06/19 08:00:00",56.44,150.27,TRADE
SNOWY1,"2007/06/19 08:30:00",32.07,187.02,TRADE
SNOWY1,"2007/06/19 09:00:00",7.37,131.14,TRADE
SNOWY1,"2007/06/19 09:30:00",6.18,133.96,TRADE
SNOWY1,"2007/06/19 10:00:00",23.59,137.37,TRADE
SNOWY1,"2007/06/19 10:30:00",30.81,136.22,TRADE
SNOWY1,"2007/06/19 11:00:00",37.68,160.25,TRADE
SNOWY1,"2007/06/19 11:30:00",38.41,218.26,TRADE
SNOWY1,"2007/06/19 12:00:00",39.55,207.28,TRADE
SNOWY1,"2007/06/19 12:30:00",46.2,218.09,TRADE
SNOWY1,"2007/06/19 13:00:00",46.39,187.73,TRADE
SNOWY1,"2007/06/19 13:30:00",34.09,235.64,TRADE
SNOWY1,"2007/06/19 14:00:00",56.31,201.47,TRADE
SNOWY1,"2007/06/19 14:30:00",45.84,238.65,TRADE
SNOWY1,"2007/06/19 15:00:00",63.16,214.8,TRADE
SNOWY1,"2007/06/19 15:30:00",38.69,168.12,TRADE
SNOWY1,"2007/06/19 16:00:00",42.67,206.7,TRADE
SNOWY1,"2007/06/19 16:30:00",54.86,284.43,TRADE
SNOWY1,"2007/06/19 17:00:00",58.33,289.07,TRADE
SNOWY1,"2007/06/19 17:30:00",40.12,2748.46,TRADE
SNOWY1,"2007/06/19 18:00:00",45.58,6383.03,TRADE
SNOWY1,"2007/06/19 18:30:00",41.86,1038.52,TRADE
SNOWY1,"2007/06/19 19:00:00",41.95,299.64,TRADE
SNOWY1,"2007/06/19 19:30:00",44.64,196.4,TRADE
SNOWY1,"2007/06/19 20:00:00",39.55,202.89,TRADE
SNOWY1,"2007/06/19 20:30:00",45.3,189.67,TRADE
SNOWY1,"2007/06/19 21:00:00",36.15,194.54,TRADE
SNOWY1,"2007/06/19 21:30:00",34.9,151.64,TRADE
SNOWY1,"2007/06/19 22:00:00",47.52,133.54,TRADE
SNOWY1,"2007/06/19 22:30:00",41.25,218.75,TRADE
SNOWY1,"2007/06/19 23:00:00",36.95,191.19,TRADE
SNOWY1,"2007/06/19 23:30:00",25.56,198.64,TRADE
SNOWY1,"2007/06/20 00:00:00",38.81,140.92,TRADE
SNOWY1,"2007/06/20 00:30:00",41.48,143.66,TRADE
SNOWY1,"2007/06/20 01:00:00",40.57,91.57,TRADE
SNOWY1,"2007/06/20 01:30:00",38.37,113.13,TRADE
SNOWY1,"2007/06/20 02:00:00",44.24,103.23,TRADE
SNOWY1,"2007/06/20 02:30:00",45.63,63.79,TRADE
SNOWY1,"2007/06/20 03:00:00",38.74,59.14,TRADE
SNOWY1,"2007/06/20 03:30:00",36.28,44.73,TRADE
SNOWY1,"2007/06/20 04:00:00",40.36,30.62,TRADE
SNOWY1,"2007/06/20 04:30:00",38.69,38.22,TRADE
SNOWY1,"2007/06/20 05:00:00",40.45,45.83,TRADE
SNOWY1,"2007/06/20 05:30:00",44.71,58.99,TRADE
SNOWY1,"2007/06/20 06:00:00",44.81,81.9,TRADE
SNOWY1,"2007/06/20 06:30:00",54.32,147.63,TRADE
SNOWY1,"2007/06/20 07:00:00",63.39,187.16,TRADE
SNOWY1,"2007/06/20 07:30:00",38.9,214.83,TRADE
SNOWY1,"2007/06/20 08:00:00",51.48,293.09,TRADE
SNOWY1,"2007/06/20 08:30:00",40.34,351.87,TRADE
SNOWY1,"2007/06/20 09:00:00",37.49,249.58,TRADE
SNOWY1,"2007/06/20 09:30:00",45.93,267.63,TRADE
SNOWY1,"2007/06/20 10:00:00",53.03,249.69,TRADE
SNOWY1,"2007/06/20 10:30:00",35.14,210.17,TRADE
SNOWY1,"2007/06/20 11:00:00",42.03,182.95,TRADE
SNOWY1,"2007/06/20 11:30:00",28.24,233.5,TRADE
SNOWY1,"2007/06/20 12:00:00",34.56,165.24,TRADE
SNOWY1,"2007/06/20 12:30:00",46.17,274.14,TRADE
SNOWY1,"2007/06/20 13:00:00",42.25,245.87,TRADE
SNOWY1,"2007/06/20 13:30:00",42.14,239.37,TRADE
SNOWY1,"2007/06/20 14:00:00",42.47,189.83,TRADE
SNOWY1,"2007/06/20 14:30:00",37.07,140.5,TRADE
SNOWY1,"2007/06/20 15:00:00",33.53,114.03,TRADE
SNOWY1,"2007/06/20 15:30:00",38.54,107.78,TRADE
SNOWY1,"2007/06/20 16:00:00",44.45,176.64,TRADE
SNOWY1,"2007/06/20 16:30:00",40.97,160.66,TRADE
SNOWY1,"2007/06/20 17:00:00",38.63,147.76,TRADE
SNOWY1,"2007/06/20 17:30:00",42.32,311.72,TRADE
SNOWY1,"2007/06/20 18:00:00",46.56,4454.13,TRADE
SNOWY1,"2007/06/20 18:30:00",40.9,2562.38,TRADE
SNOWY1,"2007/06/20 19:00:00",35.81,658.6,TRADE
SNOWY1,"2007/06/20 19:30:00",46.73,320.82,TRADE
SNOWY1,"2007/06/20 20:00:00",33.77,299.68,TRADE
SNOWY1,"2007/06/20 20:30:00",45.08,299.6,TRADE
SNOWY1,"2007/06/20 21:00:00",48.24,275.7,TRADE
SNOWY1,"2007/06/20 21:30:00",43.95,300.06,TRADE
SNOWY1,"2007/06/20 22:00:00",48.41,271.9,TRADE
SNOWY1,"2007/06/20 22:30:00",40.23,255.62,TRADE
SNOWY1,"2007/06/20 23:00:00",38.65,170.26,TRADE
SNOWY1,"2007/06/20 23:30:00",39.17,210.09,TRADE
SNOWY1,"2007/06/21 00:00:00",40.89,111.28,TRADE
SNOWY1,"2007/06/21 00:30:00",40.87,79.19,TRADE
SNOWY1,"2007/06/21 01:00:00",44.96,70.92,TRADE
SNOWY1,"2007/06/21 01:30:00",46.88,98.81,TRADE
SNOWY1,"2007/06/21 02:00:00",46.53,79.34,TRADE
SNOWY1,"2007/06/21 02:30:00",40.52,63.78,TRADE
SNOWY1,"2007/06/21 03:00:00",39.69,60.62,TRADE
SNOWY1,"2007/06/21 03:30:00",35.61,43.14,TRADE
SNOWY1,"2007/06/21 04:00:00",38.95,22.26,TRADE
SNOWY1,"2007/06/21 04:30:00",38.88,25.68,TRADE
SNOWY1,"2007/06/21 05:00:00",46.19,30.82,TRADE
SNOWY1,"2007/06/21 05:30:00",46.73,57.73,TRADE
SNOWY1,"2007/06/21 06:00:00",45.33,75.33,TRADE
SNOWY1,"2007/06/21 06:30:00",40.56,156.98,TRADE
SNOWY1,"2007/06/21 07:00:00",40.41,197.16,TRADE
SNOWY1,"2007/06/21 07:30:00",57.26,112.29,TRADE
SNOWY1,"2007/06/21 08:00:00",50.55,280.75,TRADE
SNOWY1,"2007/06/21 08:30:00",48.66,258.24,TRADE
SNOWY1,"2007/06/21 09:00:00",40.67,154.88,TRADE
SNOWY1,"2007/06/21 09:30:00",47.28,137.58,TRADE
SNOWY1,"2007/06/21 10:00:00",45.96,92.19,TRADE
SNOWY1,"2007/06/21 10:30:00",48.51,95.35,TRADE
SNOWY1,"2007/06/21 11:00:00",44.31,91.25,TRADE
SNOWY1,"2007/06/21 11:30:00",87.96,109.94,TRADE
SNOWY1,"2007/06/21 12:00:00",44.86,90.74,TRADE
SNOWY1,"2007/06/21 12:30:00",49.48,117.75,TRADE
SNOWY1,"2007/06/21 13:00:00",47.41,93.88,TRADE
SNOWY1,"2007/06/21 13:30:00",43.52,100.64,TRADE
SNOWY1,"2007/06/21 14:00:00",46.62,93.77,TRADE
SNOWY1,"2007/06/21 14:30:00",47.29,98.67,TRADE
SNOWY1,"2007/06/21 15:00:00",34.43,88.04,TRADE
SNOWY1,"2007/06/21 15:30:00",40.39,78.42,TRADE
SNOWY1,"2007/06/21 16:00:00",41.47,100.4,TRADE
SNOWY1,"2007/06/21 16:30:00",47.89,116.65,TRADE
SNOWY1,"2007/06/21 17:00:00",37.73,94.46,TRADE
SNOWY1,"2007/06/21 17:30:00",35.85,219.98,TRADE
SNOWY1,"2007/06/21 18:00:00",43.85,299.87,TRADE
SNOWY1,"2007/06/21 18:30:00",41.41,299.52,TRADE
SNOWY1,"2007/06/21 19:00:00",45.85,299.52,TRADE
SNOWY1,"2007/06/21 19:30:00",43.5,292.6,TRADE
SNOWY1,"2007/06/21 20:00:00",53.44,268.08,TRADE
SNOWY1,"2007/06/21 20:30:00",46,273.14,TRADE
SNOWY1,"2007/06/21 21:00:00",44.74,210.71,TRADE
SNOWY1,"2007/06/21 21:30:00",44.15,184.4,TRADE
SNOWY1,"2007/06/21 22:00:00",34.02,96.97,TRADE
SNOWY1,"2007/06/21 22:30:00",29.63,154.35,TRADE
SNOWY1,"2007/06/21 23:00:00",35.09,141.47,TRADE
SNOWY1,"2007/06/21 23:30:00",36.43,204.44,TRADE
SNOWY1,"2007/06/22 00:00:00",38.31,140.57,TRADE
SNOWY1,"2007/06/22 00:30:00",33.66,130.17,TRADE
SNOWY1,"2007/06/22 01:00:00",37.52,105.8,TRADE
SNOWY1,"2007/06/22 01:30:00",38.02,114.97,TRADE
SNOWY1,"2007/06/22 02:00:00",43.06,107.1,TRADE
SNOWY1,"2007/06/22 02:30:00",49.58,106.29,TRADE
SNOWY1,"2007/06/22 03:00:00",51.73,70.26,TRADE
SNOWY1,"2007/06/22 03:30:00",39.83,60.19,TRADE
SNOWY1,"2007/06/22 04:00:00",43.16,49.86,TRADE
SNOWY1,"2007/06/22 04:30:00",45.51,54.66,TRADE
SNOWY1,"2007/06/22 05:00:00",42.28,58.54,TRADE
SNOWY1,"2007/06/22 05:30:00",46.91,71.76,TRADE
SNOWY1,"2007/06/22 06:00:00",38.53,84.91,TRADE
SNOWY1,"2007/06/22 06:30:00",42.11,126.93,TRADE
SNOWY1,"2007/06/22 07:00:00",49.03,133.27,TRADE
SNOWY1,"2007/06/22 07:30:00",50.17,170.84,TRADE
SNOWY1,"2007/06/22 08:00:00",65.48,298.81,TRADE
SNOWY1,"2007/06/22 08:30:00",64.44,299.9,TRADE
SNOWY1,"2007/06/22 09:00:00",50.12,296.86,TRADE
SNOWY1,"2007/06/22 09:30:00",55.21,274.32,TRADE
SNOWY1,"2007/06/22 10:00:00",46.41,160.67,TRADE
SNOWY1,"2007/06/22 10:30:00",49.48,151.21,TRADE
SNOWY1,"2007/06/22 11:00:00",47.21,137.02,TRADE
SNOWY1,"2007/06/22 11:30:00",35.2,113.74,TRADE
SNOWY1,"2007/06/22 12:00:00",38.14,116.64,TRADE
SNOWY1,"2007/06/22 12:30:00",42.77,114.81,TRADE
SNOWY1,"2007/06/22 13:00:00",45.23,107.14,TRADE
SNOWY1,"2007/06/22 13:30:00",37.04,89.99,TRADE
SNOWY1,"2007/06/22 14:00:00",35.91,74.16,TRADE
SNOWY1,"2007/06/22 14:30:00",41.29,64.2,TRADE
SNOWY1,"2007/06/22 15:00:00",42.08,64.38,TRADE
SNOWY1,"2007/06/22 15:30:00",46.92,64.08,TRADE
SNOWY1,"2007/06/22 16:00:00",38.08,64.2,TRADE
SNOWY1,"2007/06/22 16:30:00",41.47,83.39,TRADE
SNOWY1,"2007/06/22 17:00:00",36.57,82.66,TRADE
SNOWY1,"2007/06/22 17:30:00",44.61,144.24,TRADE
SNOWY1,"2007/06/22 18:00:00",47.18,277.82,TRADE
SNOWY1,"2007/06/22 18:30:00",50.82,299.52,TRADE
SNOWY1,"2007/06/22 19:00:00",45.05,299.52,TRADE
SNOWY1,"2007/06/22 19:30:00",51.52,193.15,TRADE
SNOWY1,"2007/06/22 20:00:00",44.43,148.98,TRADE
SNOWY1,"2007/06/22 20:30:00",45.07,149.02,TRADE
SNOWY1,"2007/06/22 21:00:00",51.9,284.44,TRADE
SNOWY1,"2007/06/22 21:30:00",41.36,282.81,TRADE
SNOWY1,"2007/06/22 22:00:00",34.99,287.68,TRADE
SNOWY1,"2007/06/22 22:30:00",46.94,302.49,TRADE
SNOWY1,"2007/06/22 23:00:00",35.65,305.98,TRADE
SNOWY1,"2007/06/22 23:30:00",40.29,367.44,TRADE
SNOWY1,"2007/06/23 00:00:00",39.5,262.57,TRADE
SNOWY1,"2007/06/23 00:30:00",32.84,234.72,TRADE
SNOWY1,"2007/06/23 01:00:00",32.4,141.61,TRADE
SNOWY1,"2007/06/23 01:30:00",28.6,149.69,TRADE
SNOWY1,"2007/06/23 02:00:00",30.51,147.52,TRADE
SNOWY1,"2007/06/23 02:30:00",29.57,111.15,TRADE
SNOWY1,"2007/06/23 03:00:00",38.42,90.64,TRADE
SNOWY1,"2007/06/23 03:30:00",40.98,99.03,TRADE
SNOWY1,"2007/06/23 04:00:00",33.63,90.42,TRADE
SNOWY1,"2007/06/23 04:30:00",44.03,79.37,TRADE
SNOWY1,"2007/06/23 05:00:00",42.45,74.08,TRADE
SNOWY1,"2007/06/23 05:30:00",38.58,70.03,TRADE
SNOWY1,"2007/06/23 06:00:00",43.77,78.75,TRADE
SNOWY1,"2007/06/23 06:30:00",32.33,100.61,TRADE
SNOWY1,"2007/06/23 07:00:00",41.02,77.17,TRADE
SNOWY1,"2007/06/23 07:30:00",42.32,76.53,TRADE
SNOWY1,"2007/06/23 08:00:00",42.82,98.87,TRADE
SNOWY1,"2007/06/23 08:30:00",51.52,146.55,TRADE
SNOWY1,"2007/06/23 09:00:00",42.12,239.93,TRADE
SNOWY1,"2007/06/23 09:30:00",38.83,300,TRADE
SNOWY1,"2007/06/23 10:00:00",30.41,264.61,TRADE
SNOWY1,"2007/06/23 10:30:00",33.28,228.28,TRADE
SNOWY1,"2007/06/23 11:00:00",47.21,153.27,TRADE
SNOWY1,"2007/06/23 11:30:00",32.17,119.32,TRADE
SNOWY1,"2007/06/23 12:00:00",41.83,125.31,TRADE
SNOWY1,"2007/06/23 12:30:00",33.76,107.04,TRADE
SNOWY1,"2007/06/23 13:00:00",33.91,91.06,TRADE
SNOWY1,"2007/06/23 13:30:00",32.04,91.06,TRADE
SNOWY1,"2007/06/23 14:00:00",36.73,82.19,TRADE
SNOWY1,"2007/06/23 14:30:00",34.46,80.23,TRADE
SNOWY1,"2007/06/23 15:00:00",39.17,71.34,TRADE
SNOWY1,"2007/06/23 15:30:00",34.96,81.42,TRADE
SNOWY1,"2007/06/23 16:00:00",30.63,91.03,TRADE
SNOWY1,"2007/06/23 16:30:00",34.42,95.69,TRADE
SNOWY1,"2007/06/23 17:00:00",31.64,144.03,TRADE
SNOWY1,"2007/06/23 17:30:00",42.67,250.66,TRADE
SNOWY1,"2007/06/23 18:00:00",42.69,450,TRADE
SNOWY1,"2007/06/23 18:30:00",47.75,446.1,TRADE
SNOWY1,"2007/06/23 19:00:00",45.25,322.89,TRADE
SNOWY1,"2007/06/23 19:30:00",47.61,273.18,TRADE
SNOWY1,"2007/06/23 20:00:00",39.32,161.62,TRADE
SNOWY1,"2007/06/23 20:30:00",41.04,152.87,TRADE
SNOWY1,"2007/06/23 21:00:00",39.3,138.77,TRADE
SNOWY1,"2007/06/23 21:30:00",33.73,142.77,TRADE
SNOWY1,"2007/06/23 22:00:00",41.09,108.29,TRADE
SNOWY1,"2007/06/23 22:30:00",54.78,131.02,TRADE
SNOWY1,"2007/06/23 23:00:00",35.09,124.7,TRADE
SNOWY1,"2007/06/23 23:30:00",41.48,143.19,TRADE
SNOWY1,"2007/06/24 00:00:00",40.32,128.29,TRADE
SNOWY1,"2007/06/24 00:30:00",47.77,130.68,TRADE
SNOWY1,"2007/06/24 01:00:00",37.54,117.35,TRADE
SNOWY1,"2007/06/24 01:30:00",44.77,127.28,TRADE
SNOWY1,"2007/06/24 02:00:00",54.37,124.75,TRADE
SNOWY1,"2007/06/24 02:30:00",34.66,93.24,TRADE
SNOWY1,"2007/06/24 03:00:00",41.61,81.71,TRADE
SNOWY1,"2007/06/24 03:30:00",34.04,61.32,TRADE
SNOWY1,"2007/06/24 04:00:00",70.39,42.17,TRADE
SNOWY1,"2007/06/24 04:30:00",69.66,40.55,TRADE
SNOWY1,"2007/06/24 05:00:00",76.43,35.25,TRADE
SNOWY1,"2007/06/24 05:30:00",71.7,42.59,TRADE
SNOWY1,"2007/06/24 06:00:00",65.4,42.7,TRADE
SNOWY1,"2007/06/24 06:30:00",70.5,39.86,TRADE
SNOWY1,"2007/06/24 07:00:00",76.18,45.5,TRADE
SNOWY1,"2007/06/24 07:30:00",81.95,51.87,TRADE
SNOWY1,"2007/06/24 08:00:00",56.39,77.26,TRADE
SNOWY1,"2007/06/24 08:30:00",39.88,90.41,TRADE
SNOWY1,"2007/06/24 09:00:00",37.27,125.53,TRADE
SNOWY1,"2007/06/24 09:30:00",35.81,146.83,TRADE
SNOWY1,"2007/06/24 10:00:00",40.99,146.65,TRADE
SNOWY1,"2007/06/24 10:30:00",37.28,129.99,TRADE
SNOWY1,"2007/06/24 11:00:00",44.29,108.99,TRADE
SNOWY1,"2007/06/24 11:30:00",70.58,95.31,TRADE
SNOWY1,"2007/06/24 12:00:00",74.96,87.8,TRADE
SNOWY1,"2007/06/24 12:30:00",73.84,89.31,TRADE
SNOWY1,"2007/06/24 13:00:00",77.56,82.3,TRADE
SNOWY1,"2007/06/24 13:30:00",67.46,74.15,TRADE
SNOWY1,"2007/06/24 14:00:00",103.94,66.27,TRADE
SNOWY1,"2007/06/24 14:30:00",108.8,59.74,TRADE
SNOWY1,"2007/06/24 15:00:00",108.1,55,TRADE
SNOWY1,"2007/06/24 15:30:00",112.48,63.3,TRADE
SNOWY1,"2007/06/24 16:00:00",91.09,76.77,TRADE
SNOWY1,"2007/06/24 16:30:00",33.42,97.19,TRADE
SNOWY1,"2007/06/24 17:00:00",51.64,162.55,TRADE
SNOWY1,"2007/06/24 17:30:00",47.65,247.05,TRADE
SNOWY1,"2007/06/24 18:00:00",45.99,408.69,TRADE
SNOWY1,"2007/06/24 18:30:00",54.16,449.54,TRADE
SNOWY1,"2007/06/24 19:00:00",52.02,443.69,TRADE
SNOWY1,"2007/06/24 19:30:00",44.57,314.13,TRADE
SNOWY1,"2007/06/24 20:00:00",48.22,283.3,TRADE
SNOWY1,"2007/06/24 20:30:00",44.16,158.57,TRADE
SNOWY1,"2007/06/24 21:00:00",46,209.87,TRADE
SNOWY1,"2007/06/24 21:30:00",37.18,118.35,TRADE
SNOWY1,"2007/06/24 22:00:00",38.7,88.66,TRADE
SNOWY1,"2007/06/24 22:30:00",48.43,121.35,TRADE
SNOWY1,"2007/06/24 23:00:00",39.68,89.18,TRADE
SNOWY1,"2007/06/24 23:30:00",42.62,96.5,TRADE
SNOWY1,"2007/06/25 00:00:00",44.9,89.28,TRADE
SNOWY1,"2007/06/25 00:30:00",43.81,88.01,TRADE
SNOWY1,"2007/06/25 01:00:00",44.65,78.49,TRADE
SNOWY1,"2007/06/25 01:30:00",50.99,99.69,TRADE
SNOWY1,"2007/06/25 02:00:00",45.76,72.44,TRADE
SNOWY1,"2007/06/25 02:30:00",106.13,56.87,TRADE
SNOWY1,"2007/06/25 03:00:00",118.83,44.58,TRADE
SNOWY1,"2007/06/25 03:30:00",108.18,36.22,TRADE
SNOWY1,"2007/06/25 04:00:00",117.4,27.87,TRADE
SNOWY1,"2007/06/25 04:30:00",109.47,28.66,TRADE
SNOWY1,"2007/06/25 05:00:00",113.72,53.27,TRADE
SNOWY1,"2007/06/25 05:30:00",104.24,80.11,TRADE
SNOWY1,"2007/06/25 06:00:00",37.14,74.62,TRADE
SNOWY1,"2007/06/25 06:30:00",50.11,100.94,TRADE
SNOWY1,"2007/06/25 07:00:00",56.45,102.69,TRADE
SNOWY1,"2007/06/25 07:30:00",62.59,86.86,TRADE
SNOWY1,"2007/06/25 08:00:00",61.78,134.13,TRADE
SNOWY1,"2007/06/25 08:30:00",50.33,155.02,TRADE
SNOWY1,"2007/06/25 09:00:00",43.88,181.09,TRADE
SNOWY1,"2007/06/25 09:30:00",54.52,233.07,TRADE
SNOWY1,"2007/06/25 10:00:00",61.41,228.72,TRADE
SNOWY1,"2007/06/25 10:30:00",32.61,190.97,TRADE
SNOWY1,"2007/06/25 11:00:00",32.38,182.16,TRADE
SNOWY1,"2007/06/25 11:30:00",48,143.21,TRADE
SNOWY1,"2007/06/25 12:00:00",44.96,161.53,TRADE
SNOWY1,"2007/06/25 12:30:00",43.24,156.52,TRADE
SNOWY1,"2007/06/25 13:00:00",41.95,144.34,TRADE
SNOWY1,"2007/06/25 13:30:00",46.33,129.49,TRADE
SNOWY1,"2007/06/25 14:00:00",45.23,127.33,TRADE
SNOWY1,"2007/06/25 14:30:00",34.66,128.82,TRADE
SNOWY1,"2007/06/25 15:00:00",45.9,129.6,TRADE
SNOWY1,"2007/06/25 15:30:00",47.21,115.05,TRADE
SNOWY1,"2007/06/25 16:00:00",46.35,119.28,TRADE
SNOWY1,"2007/06/25 16:30:00",40.27,165.13,TRADE
SNOWY1,"2007/06/25 17:00:00",52.53,168.85,TRADE
SNOWY1,"2007/06/25 17:30:00",49.5,222.59,TRADE
SNOWY1,"2007/06/25 18:00:00",55.52,299.52,TRADE
SNOWY1,"2007/06/25 18:30:00",45.91,322.14,TRADE
SNOWY1,"2007/06/25 19:00:00",38.89,290.13,TRADE
SNOWY1,"2007/06/25 19:30:00",47.38,231.86,TRADE
SNOWY1,"2007/06/25 20:00:00",45.34,166.62,TRADE
SNOWY1,"2007/06/25 20:30:00",31.67,136.69,TRADE
SNOWY1,"2007/06/25 21:00:00",36.8,141.6,TRADE
SNOWY1,"2007/06/25 21:30:00",42.86,121.14,TRADE
SNOWY1,"2007/06/25 22:00:00",33.71,101.59,TRADE
SNOWY1,"2007/06/25 22:30:00",32.36,123.71,TRADE
SNOWY1,"2007/06/25 23:00:00",30.86,116.49,TRADE
SNOWY1,"2007/06/25 23:30:00",26.96,132.09,TRADE
SNOWY1,"2007/06/26 00:00:00",38.54,110.83,TRADE
SNOWY1,"2007/06/26 00:30:00",38.13,114.92,TRADE
SNOWY1,"2007/06/26 01:00:00",39.48,106.91,TRADE
SNOWY1,"2007/06/26 01:30:00",35.09,108.45,TRADE
SNOWY1,"2007/06/26 02:00:00",45.86,136.69,TRADE
SNOWY1,"2007/06/26 02:30:00",43.37,127.1,TRADE
SNOWY1,"2007/06/26 03:00:00",41.6,88.44,TRADE
SNOWY1,"2007/06/26 03:30:00",85.08,61.54,TRADE
SNOWY1,"2007/06/26 04:00:00",108.28,46.69,TRADE
SNOWY1,"2007/06/26 04:30:00",111.89,43.55,TRADE
SNOWY1,"2007/06/26 05:00:00",109.94,47.7,TRADE
SNOWY1,"2007/06/26 05:30:00",100,73.15,TRADE
SNOWY1,"2007/06/26 06:00:00",50.02,71.27,TRADE
SNOWY1,"2007/06/26 06:30:00",42.59,83.82,TRADE
SNOWY1,"2007/06/26 07:00:00",58.99,120.04,TRADE
SNOWY1,"2007/06/26 07:30:00",53.61,91.61,TRADE
SNOWY1,"2007/06/26 08:00:00",46.87,139.91,TRADE
SNOWY1,"2007/06/26 08:30:00",45.08,191.64,TRADE
SNOWY1,"2007/06/26 09:00:00",54.4,158.92,TRADE
SNOWY1,"2007/06/26 09:30:00",53.9,169.71,TRADE
SNOWY1,"2007/06/26 10:00:00",60.63,177.65,TRADE
SNOWY1,"2007/06/26 10:30:00",51.61,181.58,TRADE
SNOWY1,"2007/06/26 11:00:00",49.05,209.41,TRADE
SNOWY1,"2007/06/26 11:30:00",44.66,253.38,TRADE
SNOWY1,"2007/06/26 12:00:00",45.46,247.92,TRADE
SNOWY1,"2007/06/26 12:30:00",49.23,260.71,TRADE
SNOWY1,"2007/06/26 13:00:00",54.73,243.57,TRADE
SNOWY1,"2007/06/26 13:30:00",42.93,247.07,TRADE
SNOWY1,"2007/06/26 14:00:00",46.84,228.36,TRADE
SNOWY1,"2007/06/26 14:30:00",41.25,208.75,TRADE
SNOWY1,"2007/06/26 15:00:00",37.24,227.85,TRADE
SNOWY1,"2007/06/26 15:30:00",39.06,227.35,TRADE
SNOWY1,"2007/06/26 16:00:00",48.78,279.22,TRADE
SNOWY1,"2007/06/26 16:30:00",56.13,301.29,TRADE
SNOWY1,"2007/06/26 17:00:00",43.77,285.91,TRADE
SNOWY1,"2007/06/26 17:30:00",61.99,405.64,TRADE
SNOWY1,"2007/06/26 18:00:00",49.13,5748.13,TRADE
SNOWY1,"2007/06/26 18:30:00",52.95,452.77,TRADE
SNOWY1,"2007/06/26 19:00:00",53.91,443.69,TRADE
SNOWY1,"2007/06/26 19:30:00",37.55,306.3,TRADE
SNOWY1,"2007/06/26 20:00:00",29.1,301.08,TRADE
SNOWY1,"2007/06/26 20:30:00",40.45,290.99,TRADE
SNOWY1,"2007/06/26 21:00:00",49.13,241.59,TRADE
SNOWY1,"2007/06/26 21:30:00",48.22,237.62,TRADE
SNOWY1,"2007/06/26 22:00:00",38.74,168.93,TRADE
SNOWY1,"2007/06/26 22:30:00",41.84,261.36,TRADE
SNOWY1,"2007/06/26 23:00:00",38.49,185.02,TRADE
SNOWY1,"2007/06/26 23:30:00",43.86,154.18,TRADE
SNOWY1,"2007/06/27 00:00:00",35.52,122.07,TRADE
SNOWY1,"2007/06/27 00:30:00",43.4,130.44,TRADE
SNOWY1,"2007/06/27 01:00:00",43.84,96.91,TRADE
SNOWY1,"2007/06/27 01:30:00",53.22,129.96,TRADE
SNOWY1,"2007/06/27 02:00:00",54.06,108.24,TRADE
SNOWY1,"2007/06/27 02:30:00",42.34,92.12,TRADE
SNOWY1,"2007/06/27 03:00:00",101.04,64.54,TRADE
SNOWY1,"2007/06/27 03:30:00",110.3,59.24,TRADE
SNOWY1,"2007/06/27 04:00:00",112.36,46.46,TRADE
SNOWY1,"2007/06/27 04:30:00",110.53,42.68,TRADE
SNOWY1,"2007/06/27 05:00:00",99.68,49.62,TRADE
SNOWY1,"2007/06/27 05:30:00",98.39,69.1,TRADE
SNOWY1,"2007/06/27 06:00:00",38.16,93.09,TRADE
SNOWY1,"2007/06/27 06:30:00",41.48,99.75,TRADE
SNOWY1,"2007/06/27 07:00:00",48.96,174.47,TRADE
SNOWY1,"2007/06/27 07:30:00",60.45,124.94,TRADE
SNOWY1,"2007/06/27 08:00:00",42.32,270.12,TRADE
SNOWY1,"2007/06/27 08:30:00",77.1,317.93,TRADE
SNOWY1,"2007/06/27 09:00:00",66.63,235.92,TRADE
SNOWY1,"2007/06/27 09:30:00",41.65,245.15,TRADE
SNOWY1,"2007/06/27 10:00:00",49.68,263.5,TRADE
SNOWY1,"2007/06/27 10:30:00",45.14,245.6,TRADE
SNOWY1,"2007/06/27 11:00:00",54.12,242.22,TRADE
SNOWY1,"2007/06/27 11:30:00",75.6,178.43,TRADE
SNOWY1,"2007/06/27 12:00:00",45.23,152.04,TRADE
SNOWY1,"2007/06/27 12:30:00",40.75,158.72,TRADE
SNOWY1,"2007/06/27 13:00:00",42.3,182.8,TRADE
SNOWY1,"2007/06/27 13:30:00",48.05,214.97,TRADE
SNOWY1,"2007/06/27 14:00:00",41.47,190.56,TRADE
SNOWY1,"2007/06/27 14:30:00",46.34,191.54,TRADE
SNOWY1,"2007/06/27 15:00:00",41.31,171.3,TRADE
SNOWY1,"2007/06/27 15:30:00",45.05,210,TRADE
SNOWY1,"2007/06/27 16:00:00",49.72,277.64,TRADE
SNOWY1,"2007/06/27 16:30:00",51.07,292.97,TRADE
SNOWY1,"2007/06/27 17:00:00",72.91,301.78,TRADE
SNOWY1,"2007/06/27 17:30:00",55.31,1559.68,TRADE
SNOWY1,"2007/06/27 18:00:00",61.09,7490.56,TRADE
SNOWY1,"2007/06/27 18:30:00",85.11,7485.89,TRADE
SNOWY1,"2007/06/27 19:00:00",63.91,6012.04,TRADE
SNOWY1,"2007/06/27 19:30:00",47.29,655.06,TRADE
SNOWY1,"2007/06/27 20:00:00",37.63,371.16,TRADE
SNOWY1,"2007/06/27 20:30:00",47.17,324.41,TRADE
SNOWY1,"2007/06/27 21:00:00",50.24,319.83,TRADE
SNOWY1,"2007/06/27 21:30:00",34.26,322.77,TRADE
SNOWY1,"2007/06/27 22:00:00",46.25,307.63,TRADE
SNOWY1,"2007/06/27 22:30:00",42.76,400.03,TRADE
SNOWY1,"2007/06/27 23:00:00",41.92,265.13,TRADE
SNOWY1,"2007/06/27 23:30:00",37.61,312.96,TRADE
SNOWY1,"2007/06/28 00:00:00",43.52,235.86,TRADE
SNOWY1,"2007/06/28 00:30:00",37.04,182.92,TRADE
SNOWY1,"2007/06/28 01:00:00",48.24,159.96,TRADE
SNOWY1,"2007/06/28 01:30:00",53.67,247,TRADE
SNOWY1,"2007/06/28 02:00:00",51.27,189.5,TRADE
SNOWY1,"2007/06/28 02:30:00",50.17,140.54,TRADE
SNOWY1,"2007/06/28 03:00:00",57.83,121.03,TRADE
SNOWY1,"2007/06/28 03:30:00",50.9,121.68,TRADE
SNOWY1,"2007/06/28 04:00:00",42.53,94.08,TRADE
SNOWY1,"2007/06/28 04:30:00",41.04,90.39,TRADE
SNOWY1,"2007/06/28 05:00:00",35.54,89.22,TRADE
SNOWY1,"2007/06/28 05:30:00",34.33,133.65,TRADE
SNOWY1,"2007/06/28 06:00:00",36.06,124.88,TRADE
SNOWY1,"2007/06/28 06:30:00",50.96,154.58,TRADE
SNOWY1,"2007/06/28 07:00:00",35.96,169.39,TRADE
SNOWY1,"2007/06/28 07:30:00",46.1,128.29,TRADE
SNOWY1,"2007/06/28 08:00:00",51.4,319.83,TRADE
SNOWY1,"2007/06/28 08:30:00",58.61,309.9,TRADE
SNOWY1,"2007/06/28 09:00:00",57.95,276.12,TRADE
SNOWY1,"2007/06/28 09:30:00",54.27,248.27,TRADE
SNOWY1,"2007/06/28 10:00:00",51.92,218.3,TRADE
SNOWY1,"2007/06/28 10:30:00",47.79,203.75,TRADE
SNOWY1,"2007/06/28 11:00:00",45.36,172.14,TRADE
SNOWY1,"2007/06/28 11:30:00",42.94,160.2,TRADE
SNOWY1,"2007/06/28 12:00:00",45.4,148.44,TRADE
SNOWY1,"2007/06/28 12:30:00",42.38,161.35,TRADE
SNOWY1,"2007/06/28 13:00:00",41.97,167.17,TRADE
SNOWY1,"2007/06/28 13:30:00",47.75,167.41,TRADE
SNOWY1,"2007/06/28 14:00:00",43.89,156.23,TRADE
SNOWY1,"2007/06/28 14:30:00",45.03,193.48,TRADE
SNOWY1,"2007/06/28 15:00:00",47.15,225.35,TRADE
SNOWY1,"2007/06/28 15:30:00",43.5,203.26,TRADE
SNOWY1,"2007/06/28 16:00:00",42.02,239.48,TRADE
SNOWY1,"2007/06/28 16:30:00",43.21,250.08,TRADE
SNOWY1,"2007/06/28 17:00:00",58.8,214.42,TRADE
SNOWY1,"2007/06/28 17:30:00",67.34,1025.72,TRADE
SNOWY1,"2007/06/28 18:00:00",52.24,7051.62,TRADE
SNOWY1,"2007/06/28 18:30:00",46.84,6435.96,TRADE
SNOWY1,"2007/06/28 19:00:00",45.52,3826.72,TRADE
SNOWY1,"2007/06/28 19:30:00",50.14,564.11,TRADE
SNOWY1,"2007/06/28 20:00:00",44.5,319.49,TRADE
SNOWY1,"2007/06/28 20:30:00",47.67,318.32,TRADE
SNOWY1,"2007/06/28 21:00:00",49.23,319.92,TRADE
SNOWY1,"2007/06/28 21:30:00",45.6,319.83,TRADE
SNOWY1,"2007/06/28 22:00:00",50.36,320.18,TRADE
SNOWY1,"2007/06/28 22:30:00",50.06,368.96,TRADE
SNOWY1,"2007/06/28 23:00:00",37.61,293.59,TRADE
SNOWY1,"2007/06/28 23:30:00",37.73,314.81,TRADE
SNOWY1,"2007/06/29 00:00:00",47.91,231.63,TRADE
SNOWY1,"2007/06/29 00:30:00",37.67,154.46,TRADE
SNOWY1,"2007/06/29 01:00:00",43.23,150.27,TRADE
SNOWY1,"2007/06/29 01:30:00",41.16,172.54,TRADE
SNOWY1,"2007/06/29 02:00:00",42.58,90.64,TRADE
SNOWY1,"2007/06/29 02:30:00",57.56,106.73,TRADE
SNOWY1,"2007/06/29 03:00:00",51.99,70.97,TRADE
SNOWY1,"2007/06/29 03:30:00",85.01,58.39,TRADE
SNOWY1,"2007/06/29 04:00:00",114.01,52.87,TRADE
SNOWY1,"2007/06/29 04:30:00",107.76,51.79,TRADE
SNOWY1,"2007/06/29 05:00:00",114.22,54.22,TRADE
SNOWY1,"2007/06/29 05:30:00",102.76,88.82,TRADE
SNOWY1,"2007/06/29 06:00:00",42.67,104.78,TRADE
SNOWY1,"2007/06/29 06:30:00",42.9,163.94,TRADE
SNOWY1,"2007/06/29 07:00:00",52.09,184.47,TRADE
SNOWY1,"2007/06/29 07:30:00",68.95,142.86,TRADE
SNOWY1,"2007/06/29 08:00:00",63.37,252.12,TRADE
SNOWY1,"2007/06/29 08:30:00",66.36,266.63,TRADE
SNOWY1,"2007/06/29 09:00:00",51.3,195.52,TRADE
SNOWY1,"2007/06/29 09:30:00",53.4,173.65,TRADE
SNOWY1,"2007/06/29 10:00:00",52.87,150.65,TRADE
SNOWY1,"2007/06/29 10:30:00",46.73,157.49,TRADE
SNOWY1,"2007/06/29 11:00:00",37.23,152.65,TRADE
SNOWY1,"2007/06/29 11:30:00",43.9,149.56,TRADE
SNOWY1,"2007/06/29 12:00:00",50.88,121.89,TRADE
SNOWY1,"2007/06/29 12:30:00",49.4,118.71,TRADE
SNOWY1,"2007/06/29 13:00:00",54.08,93.44,TRADE
SNOWY1,"2007/06/29 13:30:00",45.29,92.95,TRADE
SNOWY1,"2007/06/29 14:00:00",44.17,76.29,TRADE
SNOWY1,"2007/06/29 14:30:00",43.43,70.08,TRADE
SNOWY1,"2007/06/29 15:00:00",35.04,66.02,TRADE
SNOWY1,"2007/06/29 15:30:00",43.51,96.27,TRADE
SNOWY1,"2007/06/29 16:00:00",37.81,121.46,TRADE
SNOWY1,"2007/06/29 16:30:00",38.3,85.05,TRADE
SNOWY1,"2007/06/29 17:00:00",49,79.93,TRADE
SNOWY1,"2007/06/29 17:30:00",58.31,117.24,TRADE
SNOWY1,"2007/06/29 18:00:00",55.38,244.05,TRADE
SNOWY1,"2007/06/29 18:30:00",42.79,278.12,TRADE
SNOWY1,"2007/06/29 19:00:00",46.3,254.23,TRADE
SNOWY1,"2007/06/29 19:30:00",50.05,182.52,TRADE
SNOWY1,"2007/06/29 20:00:00",56.63,144.48,TRADE
SNOWY1,"2007/06/29 20:30:00",39.4,162.7,TRADE
SNOWY1,"2007/06/29 21:00:00",52.15,146.44,TRADE
SNOWY1,"2007/06/29 21:30:00",39.05,157.66,TRADE
SNOWY1,"2007/06/29 22:00:00",28.09,177.92,TRADE
SNOWY1,"2007/06/29 22:30:00",30.27,172.17,TRADE
SNOWY1,"2007/06/29 23:00:00",30.71,139.78,TRADE
SNOWY1,"2007/06/29 23:30:00",39.18,212.83,TRADE
SNOWY1,"2007/06/30 00:00:00",39.31,166.3,TRADE
SNOWY1,"2007/06/30 00:30:00",36.01,103.74,TRADE
SNOWY1,"2007/06/30 01:00:00",42.13,72.18,TRADE
SNOWY1,"2007/06/30 01:30:00",40.41,61.16,TRADE
SNOWY1,"2007/06/30 02:00:00",42.13,66.66,TRADE
SNOWY1,"2007/06/30 02:30:00",90.13,62.94,TRADE
SNOWY1,"2007/06/30 03:00:00",105.56,46.66,TRADE
SNOWY1,"2007/06/30 03:30:00",104.41,25.88,TRADE
SNOWY1,"2007/06/30 04:00:00",108.53,25.18,TRADE
SNOWY1,"2007/06/30 04:30:00",104.17,20.65,TRADE
SNOWY1,"2007/06/30 05:00:00",107.2,20.8,TRADE
SNOWY1,"2007/06/30 05:30:00",102.75,22.81,TRADE
SNOWY1,"2007/06/30 06:00:00",106.46,35.75,TRADE
SNOWY1,"2007/06/30 06:30:00",104.58,39.41,TRADE
SNOWY1,"2007/06/30 07:00:00",107.13,38.07,TRADE
SNOWY1,"2007/06/30 07:30:00",103.99,41.11,TRADE
SNOWY1,"2007/06/30 08:00:00",105.85,54.18,TRADE
SNOWY1,"2007/06/30 08:30:00",105.56,83.62,TRADE
SNOWY1,"2007/06/30 09:00:00",102.91,70.4,TRADE
SNOWY1,"2007/06/30 09:30:00",58.94,85.52,TRADE
SNOWY1,"2007/06/30 10:00:00",29.72,69.29,TRADE
SNOWY1,"2007/06/30 10:30:00",58.35,70.14,TRADE
SNOWY1,"2007/06/30 11:00:00",66.16,63.87,TRADE
SNOWY1,"2007/06/30 11:30:00",70.32,57.14,TRADE
SNOWY1,"2007/06/30 12:00:00",78.58,54.54,TRADE
SNOWY1,"2007/06/30 12:30:00",98.07,54.51,TRADE
SNOWY1,"2007/06/30 13:00:00",104.61,51.18,TRADE
SNOWY1,"2007/06/30 13:30:00",102.17,45.43,TRADE
SNOWY1,"2007/06/30 14:00:00",107.4,43.02,TRADE
SNOWY1,"2007/06/30 14:30:00",104.91,42.62,TRADE
SNOWY1,"2007/06/30 15:00:00",105.15,41.24,TRADE
SNOWY1,"2007/06/30 15:30:00",105.07,43.05,TRADE
SNOWY1,"2007/06/30 16:00:00",109.43,44.73,TRADE
SNOWY1,"2007/06/30 16:30:00",104.45,50.13,TRADE
SNOWY1,"2007/06/30 17:00:00",104.73,72.55,TRADE
SNOWY1,"2007/06/30 17:30:00",52.09,146.56,TRADE
SNOWY1,"2007/06/30 18:00:00",43.67,217.3,TRADE
SNOWY1,"2007/06/30 18:30:00",41.59,252.25,TRADE
SNOWY1,"2007/06/30 19:00:00",37.15,193.58,TRADE
SNOWY1,"2007/06/30 19:30:00",28.71,109.31,TRADE
SNOWY1,"2007/06/30 20:00:00",28.29,125.27,TRADE
SNOWY1,"2007/06/30 20:30:00",36.61,77.95,TRADE
SNOWY1,"2007/06/30 21:00:00",31.08,78.4,TRADE
SNOWY1,"2007/06/30 21:30:00",44.64,74.41,TRADE
SNOWY1,"2007/06/30 22:00:00",41.78,61.28,TRADE
SNOWY1,"2007/06/30 22:30:00",30.36,60.69,TRADE
SNOWY1,"2007/06/30 23:00:00",93.19,53.65,TRADE
SNOWY1,"2007/06/30 23:30:00",108.73,63.58,TRADE
SNOWY1,"2007/07/01 00:00:00",91.11,71.9,TRADE
