REGION,SETTLEMENTDATE,TOTALDEMAND,RRP,PERIODTYPE
TAS1,"2007/06/01 00:30:00",1073.53,44.69,TRADE
TAS1,"2007/06/01 01:00:00",1069.88,36.5,TRADE
TAS1,"2007/06/01 01:30:00",1060.28,56.45,TRADE
TAS1,"2007/06/01 02:00:00",1067.37,64.86,TRADE
TAS1,"2007/06/01 02:30:00",1047.78,59.06,TRADE
TAS1,"2007/06/01 03:00:00",1044.18,49.96,TRADE
TAS1,"2007/06/01 03:30:00",1044.28,34.56,TRADE
TAS1,"2007/06/01 04:00:00",1043.06,32.28,TRADE
TAS1,"2007/06/01 04:30:00",1059.52,28.29,TRADE
TAS1,"2007/06/01 05:00:00",1078.96,29.29,TRADE
TAS1,"2007/06/01 05:30:00",1114.26,44.59,TRADE
TAS1,"2007/06/01 06:00:00",1145.57,39.52,TRADE
TAS1,"2007/06/01 06:30:00",1222.19,69.49,TRADE
TAS1,"2007/06/01 07:00:00",1312.63,73.03,TRADE
TAS1,"2007/06/01 07:30:00",1439.55,66,TRADE
TAS1,"2007/06/01 08:00:00",1537.41,69.67,TRADE
TAS1,"2007/06/01 08:30:00",1570.7,54.4,TRADE
TAS1,"2007/06/01 09:00:00",1545.53,54.4,TRADE
TAS1,"2007/06/01 09:30:00",1516.82,69.68,TRADE
TAS1,"2007/06/01 10:00:00",1473.98,54.4,TRADE
TAS1,"2007/06/01 10:30:00",1417.44,59.01,TRADE
TAS1,"2007/06/01 11:00:00",1392.71,61.26,TRADE
TAS1,"2007/06/01 11:30:00",1351.45,56,TRADE
TAS1,"2007/06/01 12:00:00",1334.62,50.93,TRADE
TAS1,"2007/06/01 12:30:00",1312.31,48.4,TRADE
TAS1,"2007/06/01 13:00:00",1305.19,48.69,TRADE
TAS1,"2007/06/01 13:30:00",1293.75,48.3,TRADE
TAS1,"2007/06/01 14:00:00",1284.19,48.3,TRADE
TAS1,"2007/06/01 14:30:00",1290.17,48.3,TRADE
TAS1,"2007/06/01 15:00:00",1281.23,48.23,TRADE
TAS1,"2007/06/01 15:30:00",1275.35,48.02,TRADE
TAS1,"2007/06/01 16:00:00",1285.18,47.12,TRADE
TAS1,"2007/06/01 16:30:00",1316.48,48.34,TRADE
TAS1,"2007/06/01 17:00:00",1389.09,53.5,TRADE
TAS1,"2007/06/01 17:30:00",1481.6,56.9,TRADE
TAS1,"2007/06/01 18:00:00",1523.31,54.4,TRADE
TAS1,"2007/06/01 18:30:00",1520.53,54.4,TRADE
TAS1,"2007/06/01 19:00:00",1511.59,54.4,TRADE
TAS1,"2007/06/01 19:30:00",1483.08,54.4,TRADE
TAS1,"2007/06/01 20:00:00",1462.23,57.66,TRADE
TAS1,"2007/06/01 20:30:00",1456.35,52.53,TRADE
TAS1,"2007/06/01 21:00:00",1426.79,53.58,TRADE
TAS1,"2007/06/01 21:30:00",1389.44,54.5,TRADE
TAS1,"2007/06/01 22:00:00",1349.65,49.72,TRADE
TAS1,"2007/06/01 22:30:00",1296.92,64.02,TRADE
TAS1,"2007/06/01 23:00:00",1229.41,55.89,TRADE
TAS1,"2007/06/01 23:30:00",1174.35,58.68,TRADE
TAS1,"2007/06/02 00:00:00",1128.33,49.77,TRADE
TAS1,"2007/06/02 00:30:00",1079.72,48.86,TRADE
TAS1,"2007/06/02 01:00:00",1053.14,37.43,TRADE
TAS1,"2007/06/02 01:30:00",1039.65,42.91,TRADE
TAS1,"2007/06/02 02:00:00",1029.86,42.44,TRADE
TAS1,"2007/06/02 02:30:00",1033.75,35.48,TRADE
TAS1,"2007/06/02 03:00:00",1018.6,37.66,TRADE
TAS1,"2007/06/02 03:30:00",1007.35,34.05,TRADE
TAS1,"2007/06/02 04:00:00",1011.46,28.81,TRADE
TAS1,"2007/06/02 04:30:00",1032.83,22.17,TRADE
TAS1,"2007/06/02 05:00:00",1021.63,22.03,TRADE
TAS1,"2007/06/02 05:30:00",1028.23,30.78,TRADE
TAS1,"2007/06/02 06:00:00",1057.62,29.4,TRADE
TAS1,"2007/06/02 06:30:00",1074.62,34.98,TRADE
TAS1,"2007/06/02 07:00:00",1101.04,35.83,TRADE
TAS1,"2007/06/02 07:30:00",1146.37,44.32,TRADE
TAS1,"2007/06/02 08:00:00",1210.45,48.55,TRADE
TAS1,"2007/06/02 08:30:00",1272.84,55.51,TRADE
TAS1,"2007/06/02 09:00:00",1322.58,59.9,TRADE
TAS1,"2007/06/02 09:30:00",1349.35,62.06,TRADE
TAS1,"2007/06/02 10:00:00",1347.02,60,TRADE
TAS1,"2007/06/02 10:30:00",1334.82,58.98,TRADE
TAS1,"2007/06/02 11:00:00",1302.65,58.51,TRADE
TAS1,"2007/06/02 11:30:00",1270.14,54.6,TRADE
TAS1,"2007/06/02 12:00:00",1241.08,51.11,TRADE
TAS1,"2007/06/02 12:30:00",1211.99,45.41,TRADE
TAS1,"2007/06/02 13:00:00",1180.17,37.56,TRADE
TAS1,"2007/06/02 13:30:00",1168.96,36.04,TRADE
TAS1,"2007/06/02 14:00:00",1166.46,34.63,TRADE
TAS1,"2007/06/02 14:30:00",1183.67,34.62,TRADE
TAS1,"2007/06/02 15:00:00",1192.35,35.35,TRADE
TAS1,"2007/06/02 15:30:00",1205.21,40,TRADE
TAS1,"2007/06/02 16:00:00",1217.91,40.23,TRADE
TAS1,"2007/06/02 16:30:00",1242.74,46.95,TRADE
TAS1,"2007/06/02 17:00:00",1288.89,60.31,TRADE
TAS1,"2007/06/02 17:30:00",1397.31,70.51,TRADE
TAS1,"2007/06/02 18:00:00",1418.71,24,TRADE
TAS1,"2007/06/02 18:30:00",1410.16,47,TRADE
TAS1,"2007/06/02 19:00:00",1391.84,72.24,TRADE
TAS1,"2007/06/02 19:30:00",1350.77,64.53,TRADE
TAS1,"2007/06/02 20:00:00",1316.97,58.19,TRADE
TAS1,"2007/06/02 20:30:00",1320.65,58.78,TRADE
TAS1,"2007/06/02 21:00:00",1294.79,56.66,TRADE
TAS1,"2007/06/02 21:30:00",1286.58,51.01,TRADE
TAS1,"2007/06/02 22:00:00",1254.51,48.29,TRADE
TAS1,"2007/06/02 22:30:00",1209.28,56.98,TRADE
TAS1,"2007/06/02 23:00:00",1161.38,58.26,TRADE
TAS1,"2007/06/02 23:30:00",1113.45,58.87,TRADE
TAS1,"2007/06/03 00:00:00",1085.71,53.92,TRADE
TAS1,"2007/06/03 00:30:00",1061.35,54.99,TRADE
TAS1,"2007/06/03 01:00:00",1037.58,42.31,TRADE
TAS1,"2007/06/03 01:30:00",1002.9,45.38,TRADE
TAS1,"2007/06/03 02:00:00",989.36,41.84,TRADE
TAS1,"2007/06/03 02:30:00",983.66,37.56,TRADE
TAS1,"2007/06/03 03:00:00",979.09,35.13,TRADE
TAS1,"2007/06/03 03:30:00",979.88,34.24,TRADE
TAS1,"2007/06/03 04:00:00",986.2,29.13,TRADE
TAS1,"2007/06/03 04:30:00",977.07,30.14,TRADE
TAS1,"2007/06/03 05:00:00",977.7,29.58,TRADE
TAS1,"2007/06/03 05:30:00",988.34,29.41,TRADE
TAS1,"2007/06/03 06:00:00",996.77,29.47,TRADE
TAS1,"2007/06/03 06:30:00",1014.44,33.11,TRADE
TAS1,"2007/06/03 07:00:00",1027.47,35.33,TRADE
TAS1,"2007/06/03 07:30:00",1061.49,31.53,TRADE
TAS1,"2007/06/03 08:00:00",1081.69,35.91,TRADE
TAS1,"2007/06/03 08:30:00",1134.04,39.74,TRADE
TAS1,"2007/06/03 09:00:00",1193.61,45.24,TRADE
TAS1,"2007/06/03 09:30:00",1240.85,51.9,TRADE
TAS1,"2007/06/03 10:00:00",1261.74,55.19,TRADE
TAS1,"2007/06/03 10:30:00",1273.51,50.31,TRADE
TAS1,"2007/06/03 11:00:00",1266.03,46.86,TRADE
TAS1,"2007/06/03 11:30:00",1237.63,38.06,TRADE
TAS1,"2007/06/03 12:00:00",1226.87,38.7,TRADE
TAS1,"2007/06/03 12:30:00",1203.63,35.66,TRADE
TAS1,"2007/06/03 13:00:00",1192.62,33.57,TRADE
TAS1,"2007/06/03 13:30:00",1184.41,35.39,TRADE
TAS1,"2007/06/03 14:00:00",1199.14,33.85,TRADE
TAS1,"2007/06/03 14:30:00",1218.58,35.07,TRADE
TAS1,"2007/06/03 15:00:00",1215.26,34.31,TRADE
TAS1,"2007/06/03 15:30:00",1221.68,32.79,TRADE
TAS1,"2007/06/03 16:00:00",1235.55,34.57,TRADE
TAS1,"2007/06/03 16:30:00",1326.03,45.63,TRADE
TAS1,"2007/06/03 17:00:00",1371.51,41.46,TRADE
TAS1,"2007/06/03 17:30:00",1447.31,56.92,TRADE
TAS1,"2007/06/03 18:00:00",1472.43,72.13,TRADE
TAS1,"2007/06/03 18:30:00",1456.21,55,TRADE
TAS1,"2007/06/03 19:00:00",1421.65,58.33,TRADE
TAS1,"2007/06/03 19:30:00",1382.2,73.93,TRADE
TAS1,"2007/06/03 20:00:00",1386.51,73.41,TRADE
TAS1,"2007/06/03 20:30:00",1384.46,65.9,TRADE
TAS1,"2007/06/03 21:00:00",1371.05,74.27,TRADE
TAS1,"2007/06/03 21:30:00",1347.16,73.6,TRADE
TAS1,"2007/06/03 22:00:00",1292,51.12,TRADE
TAS1,"2007/06/03 22:30:00",1243.05,67.4,TRADE
TAS1,"2007/06/03 23:00:00",1186.76,60.03,TRADE
TAS1,"2007/06/03 23:30:00",1121.06,54.52,TRADE
TAS1,"2007/06/04 00:00:00",1012.3,42.34,TRADE
TAS1,"2007/06/04 00:30:00",987.08,35.32,TRADE
TAS1,"2007/06/04 01:00:00",977.46,36.42,TRADE
TAS1,"2007/06/04 01:30:00",970.01,43.85,TRADE
TAS1,"2007/06/04 02:00:00",958.4,40.13,TRADE
TAS1,"2007/06/04 02:30:00",983.57,30.34,TRADE
TAS1,"2007/06/04 03:00:00",986.67,29.23,TRADE
TAS1,"2007/06/04 03:30:00",966.54,26.22,TRADE
TAS1,"2007/06/04 04:00:00",959.84,24.07,TRADE
TAS1,"2007/06/04 04:30:00",985.29,29.06,TRADE
TAS1,"2007/06/04 05:00:00",986.35,28.81,TRADE
TAS1,"2007/06/04 05:30:00",1008.92,23.72,TRADE
TAS1,"2007/06/04 06:00:00",1046.24,26.32,TRADE
TAS1,"2007/06/04 06:30:00",1102.49,49.94,TRADE
TAS1,"2007/06/04 07:00:00",1192.61,63.82,TRADE
TAS1,"2007/06/04 07:30:00",1281.16,52.61,TRADE
TAS1,"2007/06/04 08:00:00",1349.35,67.41,TRADE
TAS1,"2007/06/04 08:30:00",1372.08,68.03,TRADE
TAS1,"2007/06/04 09:00:00",1377.46,59.42,TRADE
TAS1,"2007/06/04 09:30:00",1372.62,62.09,TRADE
TAS1,"2007/06/04 10:00:00",1371.31,56.29,TRADE
TAS1,"2007/06/04 10:30:00",1315.07,53.45,TRADE
TAS1,"2007/06/04 11:00:00",1275.92,51.74,TRADE
TAS1,"2007/06/04 11:30:00",1246.81,53.35,TRADE
TAS1,"2007/06/04 12:00:00",1227.15,53,TRADE
TAS1,"2007/06/04 12:30:00",1208.79,52.73,TRADE
TAS1,"2007/06/04 13:00:00",1218.89,49.33,TRADE
TAS1,"2007/06/04 13:30:00",1245.23,53.25,TRADE
TAS1,"2007/06/04 14:00:00",1247.06,54.85,TRADE
TAS1,"2007/06/04 14:30:00",1259.34,53,TRADE
TAS1,"2007/06/04 15:00:00",1265.47,53.85,TRADE
TAS1,"2007/06/04 15:30:00",1284.09,50.22,TRADE
TAS1,"2007/06/04 16:00:00",1303.33,50,TRADE
TAS1,"2007/06/04 16:30:00",1331.14,52.2,TRADE
TAS1,"2007/06/04 17:00:00",1388.42,53.84,TRADE
TAS1,"2007/06/04 17:30:00",1510.66,71.25,TRADE
TAS1,"2007/06/04 18:00:00",1563.03,74.93,TRADE
TAS1,"2007/06/04 18:30:00",1550.54,50,TRADE
TAS1,"2007/06/04 19:00:00",1538.04,51.51,TRADE
TAS1,"2007/06/04 19:30:00",1500.38,65.8,TRADE
TAS1,"2007/06/04 20:00:00",1469.89,59.23,TRADE
TAS1,"2007/06/04 20:30:00",1480.73,63.26,TRADE
TAS1,"2007/06/04 21:00:00",1461.03,61.02,TRADE
TAS1,"2007/06/04 21:30:00",1423.12,63.94,TRADE
TAS1,"2007/06/04 22:00:00",1394.51,57.04,TRADE
TAS1,"2007/06/04 22:30:00",1323.56,59.04,TRADE
TAS1,"2007/06/04 23:00:00",1271.48,50.15,TRADE
TAS1,"2007/06/04 23:30:00",1215.92,55.36,TRADE
TAS1,"2007/06/05 00:00:00",1159.11,45.42,TRADE
TAS1,"2007/06/05 00:30:00",1135.4,44.75,TRADE
TAS1,"2007/06/05 01:00:00",1118.88,54.16,TRADE
TAS1,"2007/06/05 01:30:00",1099.26,58.1,TRADE
TAS1,"2007/06/05 02:00:00",1101.3,49.6,TRADE
TAS1,"2007/06/05 02:30:00",1104.7,45.39,TRADE
TAS1,"2007/06/05 03:00:00",1111.46,38.95,TRADE
TAS1,"2007/06/05 03:30:00",1103.43,27.93,TRADE
TAS1,"2007/06/05 04:00:00",1102.29,22,TRADE
TAS1,"2007/06/05 04:30:00",1102.43,29.93,TRADE
TAS1,"2007/06/05 05:00:00",1122.97,27.44,TRADE
TAS1,"2007/06/05 05:30:00",1145.19,32.5,TRADE
TAS1,"2007/06/05 06:00:00",1180.27,35.57,TRADE
TAS1,"2007/06/05 06:30:00",1239.37,49.92,TRADE
TAS1,"2007/06/05 07:00:00",1322.09,66.27,TRADE
TAS1,"2007/06/05 07:30:00",1434.48,54.51,TRADE
TAS1,"2007/06/05 08:00:00",1507.33,73.04,TRADE
TAS1,"2007/06/05 08:30:00",1520.64,65.75,TRADE
TAS1,"2007/06/05 09:00:00",1485.67,58.27,TRADE
TAS1,"2007/06/05 09:30:00",1480.85,60.69,TRADE
TAS1,"2007/06/05 10:00:00",1442.37,54.8,TRADE
TAS1,"2007/06/05 10:30:00",1392.47,52.95,TRADE
TAS1,"2007/06/05 11:00:00",1349.07,52.22,TRADE
TAS1,"2007/06/05 11:30:00",1343.94,56.24,TRADE
TAS1,"2007/06/05 12:00:00",1328.75,54.77,TRADE
TAS1,"2007/06/05 12:30:00",1296.99,50.72,TRADE
TAS1,"2007/06/05 13:00:00",1256.06,49.51,TRADE
TAS1,"2007/06/05 13:30:00",1220.65,50.29,TRADE
TAS1,"2007/06/05 14:00:00",1200.69,50.13,TRADE
TAS1,"2007/06/05 14:30:00",1212.65,49.67,TRADE
TAS1,"2007/06/05 15:00:00",1235.89,49.96,TRADE
TAS1,"2007/06/05 15:30:00",1248.2,50.74,TRADE
TAS1,"2007/06/05 16:00:00",1233.88,52.66,TRADE
TAS1,"2007/06/05 16:30:00",1275.34,57.05,TRADE
TAS1,"2007/06/05 17:00:00",1318.82,63.19,TRADE
TAS1,"2007/06/05 17:30:00",1423.26,52,TRADE
TAS1,"2007/06/05 18:00:00",1482.87,52.5,TRADE
TAS1,"2007/06/05 18:30:00",1472.06,53,TRADE
TAS1,"2007/06/05 19:00:00",1463.19,53,TRADE
TAS1,"2007/06/05 19:30:00",1430.43,52.5,TRADE
TAS1,"2007/06/05 20:00:00",1407.17,60.82,TRADE
TAS1,"2007/06/05 20:30:00",1402.51,64.32,TRADE
TAS1,"2007/06/05 21:00:00",1400.5,57.15,TRADE
TAS1,"2007/06/05 21:30:00",1354.81,52.77,TRADE
TAS1,"2007/06/05 22:00:00",1312.9,44.84,TRADE
TAS1,"2007/06/05 22:30:00",1261.27,54.13,TRADE
TAS1,"2007/06/05 23:00:00",1187.82,44.38,TRADE
TAS1,"2007/06/05 23:30:00",1143.16,52.37,TRADE
TAS1,"2007/06/06 00:00:00",1101.69,38.31,TRADE
TAS1,"2007/06/06 00:30:00",1081.13,44.1,TRADE
TAS1,"2007/06/06 01:00:00",1070.2,38.08,TRADE
TAS1,"2007/06/06 01:30:00",1067.01,42.53,TRADE
TAS1,"2007/06/06 02:00:00",1063.94,35.14,TRADE
TAS1,"2007/06/06 02:30:00",1062.87,35.69,TRADE
TAS1,"2007/06/06 03:00:00",1057.84,33.06,TRADE
TAS1,"2007/06/06 03:30:00",1066.68,35.05,TRADE
TAS1,"2007/06/06 04:00:00",1076.01,30.4,TRADE
TAS1,"2007/06/06 04:30:00",1082.44,25.11,TRADE
TAS1,"2007/06/06 05:00:00",1102.55,25.14,TRADE
TAS1,"2007/06/06 05:30:00",1122.93,18.5,TRADE
TAS1,"2007/06/06 06:00:00",1155.32,26.73,TRADE
TAS1,"2007/06/06 06:30:00",1221.96,41.39,TRADE
TAS1,"2007/06/06 07:00:00",1288.52,54.67,TRADE
TAS1,"2007/06/06 07:30:00",1399.03,51.6,TRADE
TAS1,"2007/06/06 08:00:00",1466.55,58.36,TRADE
TAS1,"2007/06/06 08:30:00",1510.86,57.49,TRADE
TAS1,"2007/06/06 09:00:00",1512,52.19,TRADE
TAS1,"2007/06/06 09:30:00",1491.88,55.96,TRADE
TAS1,"2007/06/06 10:00:00",1459.7,57.78,TRADE
TAS1,"2007/06/06 10:30:00",1406.21,53.15,TRADE
TAS1,"2007/06/06 11:00:00",1381.83,48.91,TRADE
TAS1,"2007/06/06 11:30:00",1340.2,51.34,TRADE
TAS1,"2007/06/06 12:00:00",1320.05,52.28,TRADE
TAS1,"2007/06/06 12:30:00",1293.97,51.85,TRADE
TAS1,"2007/06/06 13:00:00",1258.71,50.82,TRADE
TAS1,"2007/06/06 13:30:00",1238.92,48.98,TRADE
TAS1,"2007/06/06 14:00:00",1228.7,48.82,TRADE
TAS1,"2007/06/06 14:30:00",1236.69,48.88,TRADE
TAS1,"2007/06/06 15:00:00",1246.17,49.26,TRADE
TAS1,"2007/06/06 15:30:00",1255.17,49.54,TRADE
TAS1,"2007/06/06 16:00:00",1285.89,49.7,TRADE
TAS1,"2007/06/06 16:30:00",1331.44,51.87,TRADE
TAS1,"2007/06/06 17:00:00",1359.43,47.19,TRADE
TAS1,"2007/06/06 17:30:00",1461.71,45.04,TRADE
TAS1,"2007/06/06 18:00:00",1497.18,22.38,TRADE
TAS1,"2007/06/06 18:30:00",1499.52,22.61,TRADE
TAS1,"2007/06/06 19:00:00",1487.99,43.54,TRADE
TAS1,"2007/06/06 19:30:00",1461.97,44.5,TRADE
TAS1,"2007/06/06 20:00:00",1414.24,49.46,TRADE
TAS1,"2007/06/06 20:30:00",1402.55,51.61,TRADE
TAS1,"2007/06/06 21:00:00",1376.23,50.16,TRADE
TAS1,"2007/06/06 21:30:00",1350.34,52.25,TRADE
TAS1,"2007/06/06 22:00:00",1306.66,45.76,TRADE
TAS1,"2007/06/06 22:30:00",1266.04,54.12,TRADE
TAS1,"2007/06/06 23:00:00",1218.11,53.82,TRADE
TAS1,"2007/06/06 23:30:00",1177.81,62.14,TRADE
TAS1,"2007/06/07 00:00:00",1119.1,53.82,TRADE
TAS1,"2007/06/07 00:30:00",1089.24,49.63,TRADE
TAS1,"2007/06/07 01:00:00",1071.27,45.15,TRADE
TAS1,"2007/06/07 01:30:00",1067.74,53.65,TRADE
TAS1,"2007/06/07 02:00:00",1070,48.81,TRADE
TAS1,"2007/06/07 02:30:00",1068.76,41.65,TRADE
TAS1,"2007/06/07 03:00:00",1052.9,26.96,TRADE
TAS1,"2007/06/07 03:30:00",1062.04,14.79,TRADE
TAS1,"2007/06/07 04:00:00",1060.47,3.11,TRADE
TAS1,"2007/06/07 04:30:00",1072.99,2.03,TRADE
TAS1,"2007/06/07 05:00:00",1079.08,2.95,TRADE
TAS1,"2007/06/07 05:30:00",1100.03,9.56,TRADE
TAS1,"2007/06/07 06:00:00",1142.59,16.31,TRADE
TAS1,"2007/06/07 06:30:00",1208.09,45.42,TRADE
TAS1,"2007/06/07 07:00:00",1281.01,40.99,TRADE
TAS1,"2007/06/07 07:30:00",1400.83,48.19,TRADE
TAS1,"2007/06/07 08:00:00",1479.96,55.66,TRADE
TAS1,"2007/06/07 08:30:00",1514.12,47.27,TRADE
TAS1,"2007/06/07 09:00:00",1490.65,47.46,TRADE
TAS1,"2007/06/07 09:30:00",1487.06,47.66,TRADE
TAS1,"2007/06/07 10:00:00",1468.91,63.71,TRADE
TAS1,"2007/06/07 10:30:00",1422.23,55.32,TRADE
TAS1,"2007/06/07 11:00:00",1407.12,58.02,TRADE
TAS1,"2007/06/07 11:30:00",1358.29,52.67,TRADE
TAS1,"2007/06/07 12:00:00",1339.31,60.41,TRADE
TAS1,"2007/06/07 12:30:00",1328.87,53.24,TRADE
TAS1,"2007/06/07 13:00:00",1298.39,49.58,TRADE
TAS1,"2007/06/07 13:30:00",1290.66,53.45,TRADE
TAS1,"2007/06/07 14:00:00",1281.96,45.33,TRADE
TAS1,"2007/06/07 14:30:00",1295.92,51.24,TRADE
TAS1,"2007/06/07 15:00:00",1293.66,48.82,TRADE
TAS1,"2007/06/07 15:30:00",1286.34,45.81,TRADE
TAS1,"2007/06/07 16:00:00",1309.01,54.66,TRADE
TAS1,"2007/06/07 16:30:00",1347.72,50.99,TRADE
TAS1,"2007/06/07 17:00:00",1402.45,48.94,TRADE
TAS1,"2007/06/07 17:30:00",1504.83,39.75,TRADE
TAS1,"2007/06/07 18:00:00",1560.23,6.56,TRADE
TAS1,"2007/06/07 18:30:00",1563.15,1,TRADE
TAS1,"2007/06/07 19:00:00",1543.46,3.67,TRADE
TAS1,"2007/06/07 19:30:00",1514.16,2.39,TRADE
TAS1,"2007/06/07 20:00:00",1486.58,20.2,TRADE
TAS1,"2007/06/07 20:30:00",1490.1,48.3,TRADE
TAS1,"2007/06/07 21:00:00",1467.79,47.27,TRADE
TAS1,"2007/06/07 21:30:00",1444.61,53.76,TRADE
TAS1,"2007/06/07 22:00:00",1387.2,55.11,TRADE
TAS1,"2007/06/07 22:30:00",1322.96,81.03,TRADE
TAS1,"2007/06/07 23:00:00",1278.76,63.17,TRADE
TAS1,"2007/06/07 23:30:00",1201.34,66.94,TRADE
TAS1,"2007/06/08 00:00:00",1145.22,55.89,TRADE
TAS1,"2007/06/08 00:30:00",1132.03,51.67,TRADE
TAS1,"2007/06/08 01:00:00",1109.78,50.26,TRADE
TAS1,"2007/06/08 01:30:00",1103.33,54.15,TRADE
TAS1,"2007/06/08 02:00:00",1091.13,47.46,TRADE
TAS1,"2007/06/08 02:30:00",1093.26,56.04,TRADE
TAS1,"2007/06/08 03:00:00",1092.64,68.2,TRADE
TAS1,"2007/06/08 03:30:00",1065.13,36.48,TRADE
TAS1,"2007/06/08 04:00:00",1061.94,30.03,TRADE
TAS1,"2007/06/08 04:30:00",1080.36,35.82,TRADE
TAS1,"2007/06/08 05:00:00",1091.45,36.83,TRADE
TAS1,"2007/06/08 05:30:00",1114.1,45.52,TRADE
TAS1,"2007/06/08 06:00:00",1152.97,46,TRADE
TAS1,"2007/06/08 06:30:00",1219.56,50.42,TRADE
TAS1,"2007/06/08 07:00:00",1316.23,62.9,TRADE
TAS1,"2007/06/08 07:30:00",1403.53,55.75,TRADE
TAS1,"2007/06/08 08:00:00",1485.27,71.54,TRADE
TAS1,"2007/06/08 08:30:00",1536.63,77.59,TRADE
TAS1,"2007/06/08 09:00:00",1558.81,74.14,TRADE
TAS1,"2007/06/08 09:30:00",1533.11,78.43,TRADE
TAS1,"2007/06/08 10:00:00",1523.66,85.13,TRADE
TAS1,"2007/06/08 10:30:00",1484.39,77.34,TRADE
TAS1,"2007/06/08 11:00:00",1452.36,67.36,TRADE
TAS1,"2007/06/08 11:30:00",1399.18,68.93,TRADE
TAS1,"2007/06/08 12:00:00",1395.47,62.89,TRADE
TAS1,"2007/06/08 12:30:00",1368.64,49.42,TRADE
TAS1,"2007/06/08 13:00:00",1332.88,46.96,TRADE
TAS1,"2007/06/08 13:30:00",1333.53,73.15,TRADE
TAS1,"2007/06/08 14:00:00",1312.58,61.55,TRADE
TAS1,"2007/06/08 14:30:00",1328.35,51.13,TRADE
TAS1,"2007/06/08 15:00:00",1332.63,61.63,TRADE
TAS1,"2007/06/08 15:30:00",1338.08,63.92,TRADE
TAS1,"2007/06/08 16:00:00",1352.26,76.02,TRADE
TAS1,"2007/06/08 16:30:00",1383.47,84.67,TRADE
TAS1,"2007/06/08 17:00:00",1433.15,59.54,TRADE
TAS1,"2007/06/08 17:30:00",1493.38,49.03,TRADE
TAS1,"2007/06/08 18:00:00",1528.84,56.48,TRADE
TAS1,"2007/06/08 18:30:00",1516.6,53.95,TRADE
TAS1,"2007/06/08 19:00:00",1506.48,40.97,TRADE
TAS1,"2007/06/08 19:30:00",1482.69,22.94,TRADE
TAS1,"2007/06/08 20:00:00",1463.83,45.15,TRADE
TAS1,"2007/06/08 20:30:00",1451.52,50.83,TRADE
TAS1,"2007/06/08 21:00:00",1429.69,40.77,TRADE
TAS1,"2007/06/08 21:30:00",1442.2,32.01,TRADE
TAS1,"2007/06/08 22:00:00",1396.9,48.28,TRADE
TAS1,"2007/06/08 22:30:00",1343.29,109.55,TRADE
TAS1,"2007/06/08 23:00:00",1279.15,67.44,TRADE
TAS1,"2007/06/08 23:30:00",1231.7,69.05,TRADE
TAS1,"2007/06/09 00:00:00",1198.02,66.49,TRADE
TAS1,"2007/06/09 00:30:00",1149.51,66.73,TRADE
TAS1,"2007/06/09 01:00:00",1127.42,54.58,TRADE
TAS1,"2007/06/09 01:30:00",1121.83,56.19,TRADE
TAS1,"2007/06/09 02:00:00",1110.68,53.33,TRADE
TAS1,"2007/06/09 02:30:00",1098.01,57.13,TRADE
TAS1,"2007/06/09 03:00:00",1084.77,56.46,TRADE
TAS1,"2007/06/09 03:30:00",1076.79,53.57,TRADE
TAS1,"2007/06/09 04:00:00",1073.92,107.86,TRADE
TAS1,"2007/06/09 04:30:00",1046.51,51.17,TRADE
TAS1,"2007/06/09 05:00:00",1065.15,52.04,TRADE
TAS1,"2007/06/09 05:30:00",1094.38,52.23,TRADE
TAS1,"2007/06/09 06:00:00",1113.8,52.23,TRADE
TAS1,"2007/06/09 06:30:00",1139.38,45.64,TRADE
TAS1,"2007/06/09 07:00:00",1169.62,44.58,TRADE
TAS1,"2007/06/09 07:30:00",1204.93,52.52,TRADE
TAS1,"2007/06/09 08:00:00",1257.74,59.57,TRADE
TAS1,"2007/06/09 08:30:00",1312.57,78.09,TRADE
TAS1,"2007/06/09 09:00:00",1359.26,81.27,TRADE
TAS1,"2007/06/09 09:30:00",1384.19,66.97,TRADE
TAS1,"2007/06/09 10:00:00",1358.6,29.52,TRADE
TAS1,"2007/06/09 10:30:00",1349.43,32.47,TRADE
TAS1,"2007/06/09 11:00:00",1329.17,60.41,TRADE
TAS1,"2007/06/09 11:30:00",1300.26,56.7,TRADE
TAS1,"2007/06/09 12:00:00",1287.19,54.3,TRADE
TAS1,"2007/06/09 12:30:00",1262.56,43.6,TRADE
TAS1,"2007/06/09 13:00:00",1236.48,42.37,TRADE
TAS1,"2007/06/09 13:30:00",1213.65,44.97,TRADE
TAS1,"2007/06/09 14:00:00",1206.13,38.43,TRADE
TAS1,"2007/06/09 14:30:00",1216.99,42.11,TRADE
TAS1,"2007/06/09 15:00:00",1205.62,56.73,TRADE
TAS1,"2007/06/09 15:30:00",1216.3,43.28,TRADE
TAS1,"2007/06/09 16:00:00",1235.78,47.5,TRADE
TAS1,"2007/06/09 16:30:00",1295.21,32.51,TRADE
TAS1,"2007/06/09 17:00:00",1371.92,24.91,TRADE
TAS1,"2007/06/09 17:30:00",1460.31,14.66,TRADE
TAS1,"2007/06/09 18:00:00",1505.45,6.65,TRADE
TAS1,"2007/06/09 18:30:00",1491.59,1.26,TRADE
TAS1,"2007/06/09 19:00:00",1463.24,51.01,TRADE
TAS1,"2007/06/09 19:30:00",1450.05,47.81,TRADE
TAS1,"2007/06/09 20:00:00",1436.15,59.8,TRADE
TAS1,"2007/06/09 20:30:00",1440.41,61.09,TRADE
TAS1,"2007/06/09 21:00:00",1438.19,71.07,TRADE
TAS1,"2007/06/09 21:30:00",1428.51,62.66,TRADE
TAS1,"2007/06/09 22:00:00",1410.1,49.78,TRADE
TAS1,"2007/06/09 22:30:00",1365.83,65.23,TRADE
TAS1,"2007/06/09 23:00:00",1305.2,48.39,TRADE
TAS1,"2007/06/09 23:30:00",1262.39,58.73,TRADE
TAS1,"2007/06/10 00:00:00",1220.45,46.28,TRADE
TAS1,"2007/06/10 00:30:00",1176.43,55.35,TRADE
TAS1,"2007/06/10 01:00:00",1147.54,54.76,TRADE
TAS1,"2007/06/10 01:30:00",1150.65,57.49,TRADE
TAS1,"2007/06/10 02:00:00",1130.98,54.91,TRADE
TAS1,"2007/06/10 02:30:00",1091.1,52.01,TRADE
TAS1,"2007/06/10 03:00:00",1099.76,52.23,TRADE
TAS1,"2007/06/10 03:30:00",1116.57,52.24,TRADE
TAS1,"2007/06/10 04:00:00",1106.15,52.24,TRADE
TAS1,"2007/06/10 04:30:00",1110.14,56.04,TRADE
TAS1,"2007/06/10 05:00:00",1123.19,52.24,TRADE
TAS1,"2007/06/10 05:30:00",1130.87,52.24,TRADE
TAS1,"2007/06/10 06:00:00",1137.09,52.24,TRADE
TAS1,"2007/06/10 06:30:00",1144.9,52.24,TRADE
TAS1,"2007/06/10 07:00:00",1150.67,51.28,TRADE
TAS1,"2007/06/10 07:30:00",1173.36,51.85,TRADE
TAS1,"2007/06/10 08:00:00",1234.29,44.64,TRADE
TAS1,"2007/06/10 08:30:00",1307.26,52.12,TRADE
TAS1,"2007/06/10 09:00:00",1362.81,52.01,TRADE
TAS1,"2007/06/10 09:30:00",1408.81,52.26,TRADE
TAS1,"2007/06/10 10:00:00",1414.69,52.26,TRADE
TAS1,"2007/06/10 10:30:00",1405.39,52.26,TRADE
TAS1,"2007/06/10 11:00:00",1395.99,52.26,TRADE
TAS1,"2007/06/10 11:30:00",1389.38,52.26,TRADE
TAS1,"2007/06/10 12:00:00",1376.06,50.72,TRADE
TAS1,"2007/06/10 12:30:00",1345.59,49.23,TRADE
TAS1,"2007/06/10 13:00:00",1331.18,51.09,TRADE
TAS1,"2007/06/10 13:30:00",1324.34,50.97,TRADE
TAS1,"2007/06/10 14:00:00",1314.86,46.94,TRADE
TAS1,"2007/06/10 14:30:00",1323.69,50.83,TRADE
TAS1,"2007/06/10 15:00:00",1318.35,45.75,TRADE
TAS1,"2007/06/10 15:30:00",1317.41,48.99,TRADE
TAS1,"2007/06/10 16:00:00",1331.12,46.35,TRADE
TAS1,"2007/06/10 16:30:00",1369.24,50.63,TRADE
TAS1,"2007/06/10 17:00:00",1419.85,45.99,TRADE
TAS1,"2007/06/10 17:30:00",1460.98,54.04,TRADE
TAS1,"2007/06/10 18:00:00",1479.65,24.95,TRADE
TAS1,"2007/06/10 18:30:00",1471.01,29.16,TRADE
TAS1,"2007/06/10 19:00:00",1396.01,52.26,TRADE
TAS1,"2007/06/10 19:30:00",1388.35,52.25,TRADE
TAS1,"2007/06/10 20:00:00",1383.49,58.97,TRADE
TAS1,"2007/06/10 20:30:00",1355.55,58.99,TRADE
TAS1,"2007/06/10 21:00:00",1318.03,60.29,TRADE
TAS1,"2007/06/10 21:30:00",1302.39,58.26,TRADE
TAS1,"2007/06/10 22:00:00",1262.89,58.47,TRADE
TAS1,"2007/06/10 22:30:00",1217.89,58.96,TRADE
TAS1,"2007/06/10 23:00:00",1166.84,59.13,TRADE
TAS1,"2007/06/10 23:30:00",1138.17,61.29,TRADE
TAS1,"2007/06/11 00:00:00",1117.05,64.39,TRADE
TAS1,"2007/06/11 00:30:00",1080.9,54.93,TRADE
TAS1,"2007/06/11 01:00:00",1063.68,38.98,TRADE
TAS1,"2007/06/11 01:30:00",1052.12,47.53,TRADE
TAS1,"2007/06/11 02:00:00",1033.47,49.6,TRADE
TAS1,"2007/06/11 02:30:00",1028.2,49.16,TRADE
TAS1,"2007/06/11 03:00:00",1020.93,34.29,TRADE
TAS1,"2007/06/11 03:30:00",1026.95,33.18,TRADE
TAS1,"2007/06/11 04:00:00",1036.07,36.54,TRADE
TAS1,"2007/06/11 04:30:00",1049.75,50.74,TRADE
TAS1,"2007/06/11 05:00:00",1047.49,43.69,TRADE
TAS1,"2007/06/11 05:30:00",1075.76,52.24,TRADE
TAS1,"2007/06/11 06:00:00",1099.7,52.24,TRADE
TAS1,"2007/06/11 06:30:00",1128.07,52.24,TRADE
TAS1,"2007/06/11 07:00:00",1144.98,52.24,TRADE
TAS1,"2007/06/11 07:30:00",1182.35,52.24,TRADE
TAS1,"2007/06/11 08:00:00",1226.07,47.44,TRADE
TAS1,"2007/06/11 08:30:00",1308.05,52.26,TRADE
TAS1,"2007/06/11 09:00:00",1321.45,52.22,TRADE
TAS1,"2007/06/11 09:30:00",1332.79,52.26,TRADE
TAS1,"2007/06/11 10:00:00",1337.81,49.79,TRADE
TAS1,"2007/06/11 10:30:00",1345.71,58.08,TRADE
TAS1,"2007/06/11 11:00:00",1331.14,57.87,TRADE
TAS1,"2007/06/11 11:30:00",1291.9,56.33,TRADE
TAS1,"2007/06/11 12:00:00",1288.17,55.46,TRADE
TAS1,"2007/06/11 12:30:00",1265.45,53.16,TRADE
TAS1,"2007/06/11 13:00:00",1243.74,52.24,TRADE
TAS1,"2007/06/11 13:30:00",1224.8,51.91,TRADE
TAS1,"2007/06/11 14:00:00",1215.48,50.06,TRADE
TAS1,"2007/06/11 14:30:00",1212.4,51.91,TRADE
TAS1,"2007/06/11 15:00:00",1246.48,52.25,TRADE
TAS1,"2007/06/11 15:30:00",1241.78,52.24,TRADE
TAS1,"2007/06/11 16:00:00",1271.68,44.18,TRADE
TAS1,"2007/06/11 16:30:00",1330.24,57.3,TRADE
TAS1,"2007/06/11 17:00:00",1408.48,66.93,TRADE
TAS1,"2007/06/11 17:30:00",1509.16,55.08,TRADE
TAS1,"2007/06/11 18:00:00",1501.18,10.33,TRADE
TAS1,"2007/06/11 18:30:00",1491.14,1.3,TRADE
TAS1,"2007/06/11 19:00:00",1484.52,1.3,TRADE
TAS1,"2007/06/11 19:30:00",1465.69,1.3,TRADE
TAS1,"2007/06/11 20:00:00",1443.47,75.62,TRADE
TAS1,"2007/06/11 20:30:00",1459.36,75.6,TRADE
TAS1,"2007/06/11 21:00:00",1430.88,71.5,TRADE
TAS1,"2007/06/11 21:30:00",1380.44,69.65,TRADE
TAS1,"2007/06/11 22:00:00",1342.27,55.38,TRADE
TAS1,"2007/06/11 22:30:00",1300.68,59.13,TRADE
TAS1,"2007/06/11 23:00:00",1238.08,55.88,TRADE
TAS1,"2007/06/11 23:30:00",1182.93,72.58,TRADE
TAS1,"2007/06/12 00:00:00",1150.6,66.32,TRADE
TAS1,"2007/06/12 00:30:00",1109.21,54.82,TRADE
TAS1,"2007/06/12 01:00:00",1107.53,50.63,TRADE
TAS1,"2007/06/12 01:30:00",1106.85,72.59,TRADE
TAS1,"2007/06/12 02:00:00",1094.83,66.12,TRADE
TAS1,"2007/06/12 02:30:00",1101.93,58.02,TRADE
TAS1,"2007/06/12 03:00:00",1107.63,52.25,TRADE
TAS1,"2007/06/12 03:30:00",1116.78,52.24,TRADE
TAS1,"2007/06/12 04:00:00",1132.12,52.25,TRADE
TAS1,"2007/06/12 04:30:00",1131.95,52.44,TRADE
TAS1,"2007/06/12 05:00:00",1133.02,52.46,TRADE
TAS1,"2007/06/12 05:30:00",1151.4,52.45,TRADE
TAS1,"2007/06/12 06:00:00",1183.36,49.93,TRADE
TAS1,"2007/06/12 06:30:00",1250.47,64.19,TRADE
TAS1,"2007/06/12 07:00:00",1373.16,93.15,TRADE
TAS1,"2007/06/12 07:30:00",1474.52,82.22,TRADE
TAS1,"2007/06/12 08:00:00",1564.8,52.4,TRADE
TAS1,"2007/06/12 08:30:00",1612.83,52.21,TRADE
TAS1,"2007/06/12 09:00:00",1585.49,49.67,TRADE
TAS1,"2007/06/12 09:30:00",1559.05,48.4,TRADE
TAS1,"2007/06/12 10:00:00",1531.03,48.4,TRADE
TAS1,"2007/06/12 10:30:00",1467.55,64.12,TRADE
TAS1,"2007/06/12 11:00:00",1413.22,61.3,TRADE
TAS1,"2007/06/12 11:30:00",1384.25,60.37,TRADE
TAS1,"2007/06/12 12:00:00",1380.28,62.36,TRADE
TAS1,"2007/06/12 12:30:00",1371.45,70.01,TRADE
TAS1,"2007/06/12 13:00:00",1336.96,64.99,TRADE
TAS1,"2007/06/12 13:30:00",1285.14,61.46,TRADE
TAS1,"2007/06/12 14:00:00",1121.41,52.3,TRADE
TAS1,"2007/06/12 14:30:00",1337.98,63.14,TRADE
TAS1,"2007/06/12 15:00:00",1359.32,59.43,TRADE
TAS1,"2007/06/12 15:30:00",1373.93,60.01,TRADE
TAS1,"2007/06/12 16:00:00",1399.52,63.73,TRADE
TAS1,"2007/06/12 16:30:00",1450.1,72.42,TRADE
TAS1,"2007/06/12 17:00:00",1481.76,68.27,TRADE
TAS1,"2007/06/12 17:30:00",1537.66,50.71,TRADE
TAS1,"2007/06/12 18:00:00",1565.97,17.18,TRADE
TAS1,"2007/06/12 18:30:00",1548.05,54.82,TRADE
TAS1,"2007/06/12 19:00:00",1542.62,52.37,TRADE
TAS1,"2007/06/12 19:30:00",1512.28,52.35,TRADE
TAS1,"2007/06/12 20:00:00",1488.32,68.48,TRADE
TAS1,"2007/06/12 20:30:00",1476.9,68.41,TRADE
TAS1,"2007/06/12 21:00:00",1448.8,52.36,TRADE
TAS1,"2007/06/12 21:30:00",1428.87,52.42,TRADE
TAS1,"2007/06/12 22:00:00",1392.31,48.55,TRADE
TAS1,"2007/06/12 22:30:00",1316.98,43.41,TRADE
TAS1,"2007/06/12 23:00:00",1242.54,64.75,TRADE
TAS1,"2007/06/12 23:30:00",1186.5,62.61,TRADE
TAS1,"2007/06/13 00:00:00",1146.79,57.98,TRADE
TAS1,"2007/06/13 00:30:00",1138.82,42.19,TRADE
TAS1,"2007/06/13 01:00:00",1114.62,26.89,TRADE
TAS1,"2007/06/13 01:30:00",1108.85,32.91,TRADE
TAS1,"2007/06/13 02:00:00",1095.29,58.3,TRADE
TAS1,"2007/06/13 02:30:00",1085.66,52.46,TRADE
TAS1,"2007/06/13 03:00:00",1078.73,52.46,TRADE
TAS1,"2007/06/13 03:30:00",1087.76,52.45,TRADE
TAS1,"2007/06/13 04:00:00",1084.85,52.44,TRADE
TAS1,"2007/06/13 04:30:00",1099.8,52.44,TRADE
TAS1,"2007/06/13 05:00:00",1115.26,52.44,TRADE
TAS1,"2007/06/13 05:30:00",1130.63,52.46,TRADE
TAS1,"2007/06/13 06:00:00",1180.9,43.92,TRADE
TAS1,"2007/06/13 06:30:00",1232.1,5.34,TRADE
TAS1,"2007/06/13 07:00:00",1321.09,15.12,TRADE
TAS1,"2007/06/13 07:30:00",1442.58,1.32,TRADE
TAS1,"2007/06/13 08:00:00",1525.39,12,TRADE
TAS1,"2007/06/13 08:30:00",1566.66,1.32,TRADE
TAS1,"2007/06/13 09:00:00",1545.59,1.32,TRADE
TAS1,"2007/06/13 09:30:00",1531.55,1.32,TRADE
TAS1,"2007/06/13 10:00:00",1496.05,1.21,TRADE
TAS1,"2007/06/13 10:30:00",1424.17,1.3,TRADE
TAS1,"2007/06/13 11:00:00",1403.95,13.76,TRADE
TAS1,"2007/06/13 11:30:00",1385.08,1.17,TRADE
TAS1,"2007/06/13 12:00:00",1358.74,55.88,TRADE
TAS1,"2007/06/13 12:30:00",1338.93,56.93,TRADE
TAS1,"2007/06/13 13:00:00",1364.37,59.01,TRADE
TAS1,"2007/06/13 13:30:00",1353.06,61.08,TRADE
TAS1,"2007/06/13 14:00:00",1216.13,52.18,TRADE
TAS1,"2007/06/13 14:30:00",1268.86,49.8,TRADE
TAS1,"2007/06/13 15:00:00",1361.39,51.18,TRADE
TAS1,"2007/06/13 15:30:00",1307.46,29.83,TRADE
TAS1,"2007/06/13 16:00:00",1380.09,14.14,TRADE
TAS1,"2007/06/13 16:30:00",1428.08,43.38,TRADE
TAS1,"2007/06/13 17:00:00",1464.93,33.64,TRADE
TAS1,"2007/06/13 17:30:00",1553.95,32.89,TRADE
TAS1,"2007/06/13 18:00:00",1566.34,-345.57,TRADE
TAS1,"2007/06/13 18:30:00",1550.63,-999.73,TRADE
TAS1,"2007/06/13 19:00:00",1532.72,-999.75,TRADE
TAS1,"2007/06/13 19:30:00",1524.41,-999.76,TRADE
TAS1,"2007/06/13 20:00:00",1517.37,-499.21,TRADE
TAS1,"2007/06/13 20:30:00",1512.72,0.64,TRADE
TAS1,"2007/06/13 21:00:00",1486.91,2.28,TRADE
TAS1,"2007/06/13 21:30:00",1463.63,-0.98,TRADE
TAS1,"2007/06/13 22:00:00",1422.31,0.57,TRADE
TAS1,"2007/06/13 22:30:00",1374.5,3.54,TRADE
TAS1,"2007/06/13 23:00:00",1309.2,-19.24,TRADE
TAS1,"2007/06/13 23:30:00",1249.36,-2.67,TRADE
TAS1,"2007/06/14 00:00:00",1186.31,64.16,TRADE
TAS1,"2007/06/14 00:30:00",1146.88,58.59,TRADE
TAS1,"2007/06/14 01:00:00",1135.46,18.43,TRADE
TAS1,"2007/06/14 01:30:00",1147.49,45.52,TRADE
TAS1,"2007/06/14 02:00:00",1153.13,7,TRADE
TAS1,"2007/06/14 02:30:00",1145.05,56.47,TRADE
TAS1,"2007/06/14 03:00:00",1115.27,52.46,TRADE
TAS1,"2007/06/14 03:30:00",1125.52,52.46,TRADE
TAS1,"2007/06/14 04:00:00",1129.08,52.46,TRADE
TAS1,"2007/06/14 04:30:00",1141.25,52.44,TRADE
TAS1,"2007/06/14 05:00:00",1166.35,52.44,TRADE
TAS1,"2007/06/14 05:30:00",1198.09,52.44,TRADE
TAS1,"2007/06/14 06:00:00",1233.18,26.85,TRADE
TAS1,"2007/06/14 06:30:00",1298.26,11.82,TRADE
TAS1,"2007/06/14 07:00:00",1383.12,25.52,TRADE
TAS1,"2007/06/14 07:30:00",1502.9,28.89,TRADE
TAS1,"2007/06/14 08:00:00",1591.67,72.39,TRADE
TAS1,"2007/06/14 08:30:00",1641.52,116.82,TRADE
TAS1,"2007/06/14 09:00:00",1622.65,53.82,TRADE
TAS1,"2007/06/14 09:30:00",1586.99,51.43,TRADE
TAS1,"2007/06/14 10:00:00",1581.85,58.41,TRADE
TAS1,"2007/06/14 10:30:00",1545.71,46.33,TRADE
TAS1,"2007/06/14 11:00:00",1486.03,34.79,TRADE
TAS1,"2007/06/14 11:30:00",1462.46,31.46,TRADE
TAS1,"2007/06/14 12:00:00",1460.86,43.16,TRADE
TAS1,"2007/06/14 12:30:00",1433.77,41.9,TRADE
TAS1,"2007/06/14 13:00:00",1395.94,50.4,TRADE
TAS1,"2007/06/14 13:30:00",1360.19,31,TRADE
TAS1,"2007/06/14 14:00:00",1354.76,45.31,TRADE
TAS1,"2007/06/14 14:30:00",1384.19,45.1,TRADE
TAS1,"2007/06/14 15:00:00",1370.6,45.08,TRADE
TAS1,"2007/06/14 15:30:00",1379.27,45.16,TRADE
TAS1,"2007/06/14 16:00:00",1391.97,45.15,TRADE
TAS1,"2007/06/14 16:30:00",1434.24,45.89,TRADE
TAS1,"2007/06/14 17:00:00",1507.99,21.79,TRADE
TAS1,"2007/06/14 17:30:00",1595.21,-305.87,TRADE
TAS1,"2007/06/14 18:00:00",1628.36,-999.32,TRADE
TAS1,"2007/06/14 18:30:00",1608.66,-980.72,TRADE
TAS1,"2007/06/14 19:00:00",1615.81,-993.15,TRADE
TAS1,"2007/06/14 19:30:00",1580.94,-37.69,TRADE
TAS1,"2007/06/14 20:00:00",1575.96,215.6,TRADE
TAS1,"2007/06/14 20:30:00",1577.49,167.19,TRADE
TAS1,"2007/06/14 21:00:00",1529.29,67.48,TRADE
TAS1,"2007/06/14 21:30:00",1495.07,67.48,TRADE
TAS1,"2007/06/14 22:00:00",1441.48,67.48,TRADE
TAS1,"2007/06/14 22:30:00",1396.95,75.49,TRADE
TAS1,"2007/06/14 23:00:00",1360.37,67.45,TRADE
TAS1,"2007/06/14 23:30:00",1291.96,1.12,TRADE
TAS1,"2007/06/15 00:00:00",1234.3,1.12,TRADE
TAS1,"2007/06/15 00:30:00",1201.4,1.28,TRADE
TAS1,"2007/06/15 01:00:00",1171.52,41.88,TRADE
TAS1,"2007/06/15 01:30:00",1142.62,49.1,TRADE
TAS1,"2007/06/15 02:00:00",1140.34,1.28,TRADE
TAS1,"2007/06/15 02:30:00",1139.36,58.53,TRADE
TAS1,"2007/06/15 03:00:00",1130.62,52.68,TRADE
TAS1,"2007/06/15 03:30:00",1110.9,58.71,TRADE
TAS1,"2007/06/15 04:00:00",1098.29,52.36,TRADE
TAS1,"2007/06/15 04:30:00",1129.05,49.16,TRADE
TAS1,"2007/06/15 05:00:00",1140.91,50.98,TRADE
TAS1,"2007/06/15 05:30:00",1159.75,51.28,TRADE
TAS1,"2007/06/15 06:00:00",1206.88,51.84,TRADE
TAS1,"2007/06/15 06:30:00",1282.89,74.87,TRADE
TAS1,"2007/06/15 07:00:00",1356.62,90.9,TRADE
TAS1,"2007/06/15 07:30:00",1452.04,96.4,TRADE
TAS1,"2007/06/15 08:00:00",1539.46,85.12,TRADE
TAS1,"2007/06/15 08:30:00",1559.25,57.7,TRADE
TAS1,"2007/06/15 09:00:00",1580.04,68.2,TRADE
TAS1,"2007/06/15 09:30:00",1570.09,68.2,TRADE
TAS1,"2007/06/15 10:00:00",1544.4,59.37,TRADE
TAS1,"2007/06/15 10:30:00",1507.24,54.03,TRADE
TAS1,"2007/06/15 11:00:00",1484.17,70.33,TRADE
TAS1,"2007/06/15 11:30:00",1405.79,51.77,TRADE
TAS1,"2007/06/15 12:00:00",1437.62,111.15,TRADE
TAS1,"2007/06/15 12:30:00",1436.09,89.92,TRADE
TAS1,"2007/06/15 13:00:00",1417.45,73.89,TRADE
TAS1,"2007/06/15 13:30:00",1391.93,64.87,TRADE
TAS1,"2007/06/15 14:00:00",1364.31,47.27,TRADE
TAS1,"2007/06/15 14:30:00",1374.46,44.8,TRADE
TAS1,"2007/06/15 15:00:00",1397.03,47.65,TRADE
TAS1,"2007/06/15 15:30:00",1389.76,48.86,TRADE
TAS1,"2007/06/15 16:00:00",1396.15,50.49,TRADE
TAS1,"2007/06/15 16:30:00",1461.09,57.7,TRADE
TAS1,"2007/06/15 17:00:00",1498.76,91.18,TRADE
TAS1,"2007/06/15 17:30:00",1546.23,52.27,TRADE
TAS1,"2007/06/15 18:00:00",1533.01,-999.95,TRADE
TAS1,"2007/06/15 18:30:00",1535.02,-999.95,TRADE
TAS1,"2007/06/15 19:00:00",1511.88,-262.15,TRADE
TAS1,"2007/06/15 19:30:00",1496.64,-4.39,TRADE
TAS1,"2007/06/15 20:00:00",1467.89,32.67,TRADE
TAS1,"2007/06/15 20:30:00",1454.53,50.97,TRADE
TAS1,"2007/06/15 21:00:00",1428.26,68.2,TRADE
TAS1,"2007/06/15 21:30:00",1411.31,68.2,TRADE
TAS1,"2007/06/15 22:00:00",1373.97,68.2,TRADE
TAS1,"2007/06/15 22:30:00",1319.54,68.2,TRADE
TAS1,"2007/06/15 23:00:00",1258.65,68.2,TRADE
TAS1,"2007/06/15 23:30:00",1224.76,68.2,TRADE
TAS1,"2007/06/16 00:00:00",1200.49,68.2,TRADE
TAS1,"2007/06/16 00:30:00",1168.57,68.2,TRADE
TAS1,"2007/06/16 01:00:00",1137.59,68.2,TRADE
TAS1,"2007/06/16 01:30:00",1113.56,68.2,TRADE
TAS1,"2007/06/16 02:00:00",1100.25,62.29,TRADE
TAS1,"2007/06/16 02:30:00",1089.51,70.13,TRADE
TAS1,"2007/06/16 03:00:00",1091.56,67.37,TRADE
TAS1,"2007/06/16 03:30:00",1100.18,64.87,TRADE
TAS1,"2007/06/16 04:00:00",1099.66,64.9,TRADE
TAS1,"2007/06/16 04:30:00",1082.87,54.79,TRADE
TAS1,"2007/06/16 05:00:00",1072.62,52.48,TRADE
TAS1,"2007/06/16 05:30:00",1090.73,52.48,TRADE
TAS1,"2007/06/16 06:00:00",1109.77,52.48,TRADE
TAS1,"2007/06/16 06:30:00",1130.99,60.42,TRADE
TAS1,"2007/06/16 07:00:00",1154.98,59.59,TRADE
TAS1,"2007/06/16 07:30:00",1199.01,56.19,TRADE
TAS1,"2007/06/16 08:00:00",1257.16,70.38,TRADE
TAS1,"2007/06/16 08:30:00",1365.81,128.26,TRADE
TAS1,"2007/06/16 09:00:00",1448.78,115.16,TRADE
TAS1,"2007/06/16 09:30:00",1480.19,122.93,TRADE
TAS1,"2007/06/16 10:00:00",1456.12,79.13,TRADE
TAS1,"2007/06/16 10:30:00",1440.45,76.28,TRADE
TAS1,"2007/06/16 11:00:00",1407.78,13.65,TRADE
TAS1,"2007/06/16 11:30:00",1398.19,17.27,TRADE
TAS1,"2007/06/16 12:00:00",1360.93,37.5,TRADE
TAS1,"2007/06/16 12:30:00",1330.13,69.47,TRADE
TAS1,"2007/06/16 13:00:00",1306.33,67.92,TRADE
TAS1,"2007/06/16 13:30:00",1289.6,71.77,TRADE
TAS1,"2007/06/16 14:00:00",1287.1,79.16,TRADE
TAS1,"2007/06/16 14:30:00",1312.98,83.48,TRADE
TAS1,"2007/06/16 15:00:00",1319.08,80.57,TRADE
TAS1,"2007/06/16 15:30:00",1289.47,77.12,TRADE
TAS1,"2007/06/16 16:00:00",1322.85,79.22,TRADE
TAS1,"2007/06/16 16:30:00",1359.55,65.17,TRADE
TAS1,"2007/06/16 17:00:00",1414.81,12.35,TRADE
TAS1,"2007/06/16 17:30:00",1486.04,27.92,TRADE
TAS1,"2007/06/16 18:00:00",1510.2,-542.13,TRADE
TAS1,"2007/06/16 18:30:00",1485.77,-510.42,TRADE
TAS1,"2007/06/16 19:00:00",1471.02,-4.8,TRADE
TAS1,"2007/06/16 19:30:00",1428.24,-5,TRADE
TAS1,"2007/06/16 20:00:00",1395.08,17.84,TRADE
TAS1,"2007/06/16 20:30:00",1422.83,65.62,TRADE
TAS1,"2007/06/16 21:00:00",1423.31,97.72,TRADE
TAS1,"2007/06/16 21:30:00",1377.02,100.09,TRADE
TAS1,"2007/06/16 22:00:00",1343.34,92.24,TRADE
TAS1,"2007/06/16 22:30:00",1284.54,148.37,TRADE
TAS1,"2007/06/16 23:00:00",1231.32,126.08,TRADE
TAS1,"2007/06/16 23:30:00",1183.28,113.56,TRADE
TAS1,"2007/06/17 00:00:00",1144.6,95.59,TRADE
TAS1,"2007/06/17 00:30:00",1116.51,111.06,TRADE
TAS1,"2007/06/17 01:00:00",1074.09,77.06,TRADE
TAS1,"2007/06/17 01:30:00",1071.48,89.78,TRADE
TAS1,"2007/06/17 02:00:00",1053.2,73.7,TRADE
TAS1,"2007/06/17 02:30:00",1038.54,70.28,TRADE
TAS1,"2007/06/17 03:00:00",1027.7,73.83,TRADE
TAS1,"2007/06/17 03:30:00",1039.09,63.94,TRADE
TAS1,"2007/06/17 04:00:00",1023.29,59.95,TRADE
TAS1,"2007/06/17 04:30:00",1037.94,59.86,TRADE
TAS1,"2007/06/17 05:00:00",1055.94,61.66,TRADE
TAS1,"2007/06/17 05:30:00",1059.72,61.67,TRADE
TAS1,"2007/06/17 06:00:00",1075.37,61.68,TRADE
TAS1,"2007/06/17 06:30:00",1093.77,46.16,TRADE
TAS1,"2007/06/17 07:00:00",1112.36,58.29,TRADE
TAS1,"2007/06/17 07:30:00",1147.59,48.98,TRADE
TAS1,"2007/06/17 08:00:00",1172.74,57.74,TRADE
TAS1,"2007/06/17 08:30:00",1231.19,56.28,TRADE
TAS1,"2007/06/17 09:00:00",1299.79,61.59,TRADE
TAS1,"2007/06/17 09:30:00",1349.86,64.59,TRADE
TAS1,"2007/06/17 10:00:00",1364.17,61.71,TRADE
TAS1,"2007/06/17 10:30:00",1367.19,61.76,TRADE
TAS1,"2007/06/17 11:00:00",1341.96,64.61,TRADE
TAS1,"2007/06/17 11:30:00",1305.19,66.66,TRADE
TAS1,"2007/06/17 12:00:00",1265.17,65.2,TRADE
TAS1,"2007/06/17 12:30:00",1251.28,62.17,TRADE
TAS1,"2007/06/17 13:00:00",1234.33,60.25,TRADE
TAS1,"2007/06/17 13:30:00",1224.06,62.26,TRADE
TAS1,"2007/06/17 14:00:00",1247.16,52.54,TRADE
TAS1,"2007/06/17 14:30:00",1262.66,49.81,TRADE
TAS1,"2007/06/17 15:00:00",1261.42,42.86,TRADE
TAS1,"2007/06/17 15:30:00",1270.46,46.15,TRADE
TAS1,"2007/06/17 16:00:00",1275.55,52.58,TRADE
TAS1,"2007/06/17 16:30:00",1318.48,57.4,TRADE
TAS1,"2007/06/17 17:00:00",1417.51,73.15,TRADE
TAS1,"2007/06/17 17:30:00",1521.14,88.07,TRADE
TAS1,"2007/06/17 18:00:00",1578.69,120.39,TRADE
TAS1,"2007/06/17 18:30:00",1556.98,119.7,TRADE
TAS1,"2007/06/17 19:00:00",1539.23,106.82,TRADE
TAS1,"2007/06/17 19:30:00",1505.04,109.29,TRADE
TAS1,"2007/06/17 20:00:00",1506.75,128.61,TRADE
TAS1,"2007/06/17 20:30:00",1505.21,77.95,TRADE
TAS1,"2007/06/17 21:00:00",1468.75,71.77,TRADE
TAS1,"2007/06/17 21:30:00",1422.52,58.3,TRADE
TAS1,"2007/06/17 22:00:00",1364.82,56.59,TRADE
TAS1,"2007/06/17 22:30:00",1338.69,60.56,TRADE
TAS1,"2007/06/17 23:00:00",1279.32,56.99,TRADE
TAS1,"2007/06/17 23:30:00",1222.68,53.95,TRADE
TAS1,"2007/06/18 00:00:00",1191.03,52.79,TRADE
TAS1,"2007/06/18 00:30:00",1184.73,50.86,TRADE
TAS1,"2007/06/18 01:00:00",1173.7,54.06,TRADE
TAS1,"2007/06/18 01:30:00",1165.03,57.66,TRADE
TAS1,"2007/06/18 02:00:00",1142.43,56.13,TRADE
TAS1,"2007/06/18 02:30:00",1156.98,56.26,TRADE
TAS1,"2007/06/18 03:00:00",1150.39,56.28,TRADE
TAS1,"2007/06/18 03:30:00",1149.65,48.68,TRADE
TAS1,"2007/06/18 04:00:00",1158.49,48.68,TRADE
TAS1,"2007/06/18 04:30:00",1174.07,47.29,TRADE
TAS1,"2007/06/18 05:00:00",1191.95,47.29,TRADE
TAS1,"2007/06/18 05:30:00",1219.18,49.87,TRADE
TAS1,"2007/06/18 06:00:00",1268.49,58.5,TRADE
TAS1,"2007/06/18 06:30:00",1352.73,57.81,TRADE
TAS1,"2007/06/18 07:00:00",1431.39,67.57,TRADE
TAS1,"2007/06/18 07:30:00",1587.57,61.47,TRADE
TAS1,"2007/06/18 08:00:00",1677.21,87.35,TRADE
TAS1,"2007/06/18 08:30:00",1740.38,97.18,TRADE
TAS1,"2007/06/18 09:00:00",1735.95,76.93,TRADE
TAS1,"2007/06/18 09:30:00",1709.92,82.18,TRADE
TAS1,"2007/06/18 10:00:00",1684.97,81.29,TRADE
TAS1,"2007/06/18 10:30:00",1654.88,81.33,TRADE
TAS1,"2007/06/18 11:00:00",1627.37,108.92,TRADE
TAS1,"2007/06/18 11:30:00",1593.04,98.92,TRADE
TAS1,"2007/06/18 12:00:00",1542.88,151.33,TRADE
TAS1,"2007/06/18 12:30:00",1517.56,140.75,TRADE
TAS1,"2007/06/18 13:00:00",1516.36,129.25,TRADE
TAS1,"2007/06/18 13:30:00",1509.13,137.64,TRADE
TAS1,"2007/06/18 14:00:00",1505.71,141.39,TRADE
TAS1,"2007/06/18 14:30:00",1543.97,171.18,TRADE
TAS1,"2007/06/18 15:00:00",1564.25,167.1,TRADE
TAS1,"2007/06/18 15:30:00",1553,141.33,TRADE
TAS1,"2007/06/18 16:00:00",1575.82,181.62,TRADE
TAS1,"2007/06/18 16:30:00",1631.75,213.27,TRADE
TAS1,"2007/06/18 17:00:00",1689.52,210.24,TRADE
TAS1,"2007/06/18 17:30:00",1701.15,853.83,TRADE
TAS1,"2007/06/18 18:00:00",1732.39,1686.52,TRADE
TAS1,"2007/06/18 18:30:00",1723.77,524.89,TRADE
TAS1,"2007/06/18 19:00:00",1685.22,250.79,TRADE
TAS1,"2007/06/18 19:30:00",1661.64,50.36,TRADE
TAS1,"2007/06/18 20:00:00",1619.39,178.94,TRADE
TAS1,"2007/06/18 20:30:00",1644.74,242.46,TRADE
TAS1,"2007/06/18 21:00:00",1625.46,201.53,TRADE
TAS1,"2007/06/18 21:30:00",1581.97,1518.72,TRADE
TAS1,"2007/06/18 22:00:00",1519.57,153.08,TRADE
TAS1,"2007/06/18 22:30:00",1443.46,226.88,TRADE
TAS1,"2007/06/18 23:00:00",1369.35,175.35,TRADE
TAS1,"2007/06/18 23:30:00",1314.03,165.71,TRADE
TAS1,"2007/06/19 00:00:00",1264.89,115.21,TRADE
TAS1,"2007/06/19 00:30:00",1230.08,83.56,TRADE
TAS1,"2007/06/19 01:00:00",1200.88,93.85,TRADE
TAS1,"2007/06/19 01:30:00",1202.01,80.37,TRADE
TAS1,"2007/06/19 02:00:00",1188.24,76.27,TRADE
TAS1,"2007/06/19 02:30:00",1178.83,73.54,TRADE
TAS1,"2007/06/19 03:00:00",1156.26,55.87,TRADE
TAS1,"2007/06/19 03:30:00",1163.04,51.39,TRADE
TAS1,"2007/06/19 04:00:00",1171.84,50.3,TRADE
TAS1,"2007/06/19 04:30:00",1168.74,50.32,TRADE
TAS1,"2007/06/19 05:00:00",1190.07,50.32,TRADE
TAS1,"2007/06/19 05:30:00",1214.87,52.31,TRADE
TAS1,"2007/06/19 06:00:00",1258.18,51.84,TRADE
TAS1,"2007/06/19 06:30:00",1330.14,77.01,TRADE
TAS1,"2007/06/19 07:00:00",1475.73,77.6,TRADE
TAS1,"2007/06/19 07:30:00",1584.99,61.97,TRADE
TAS1,"2007/06/19 08:00:00",1669.15,137.85,TRADE
TAS1,"2007/06/19 08:30:00",1693.81,171.98,TRADE
TAS1,"2007/06/19 09:00:00",1664.23,120.41,TRADE
TAS1,"2007/06/19 09:30:00",1629.44,122.26,TRADE
TAS1,"2007/06/19 10:00:00",1609.55,125.23,TRADE
TAS1,"2007/06/19 10:30:00",1579.88,124,TRADE
TAS1,"2007/06/19 11:00:00",1548.59,147.24,TRADE
TAS1,"2007/06/19 11:30:00",1514.74,202.13,TRADE
TAS1,"2007/06/19 12:00:00",1494.42,193.07,TRADE
TAS1,"2007/06/19 12:30:00",1469.48,201.73,TRADE
TAS1,"2007/06/19 13:00:00",1445.79,173.25,TRADE
TAS1,"2007/06/19 13:30:00",1449.14,216.39,TRADE
TAS1,"2007/06/19 14:00:00",1448.6,184.63,TRADE
TAS1,"2007/06/19 14:30:00",1470.66,215.9,TRADE
TAS1,"2007/06/19 15:00:00",1467.14,193.32,TRADE
TAS1,"2007/06/19 15:30:00",1466.14,152.65,TRADE
TAS1,"2007/06/19 16:00:00",1481.82,178.44,TRADE
TAS1,"2007/06/19 16:30:00",1510.31,236.66,TRADE
TAS1,"2007/06/19 17:00:00",1533.86,106.17,TRADE
TAS1,"2007/06/19 17:30:00",1631.34,48.3,TRADE
TAS1,"2007/06/19 18:00:00",1687.79,821.27,TRADE
TAS1,"2007/06/19 18:30:00",1677.13,64.55,TRADE
TAS1,"2007/06/19 19:00:00",1670.26,59.19,TRADE
TAS1,"2007/06/19 19:30:00",1640.59,59.09,TRADE
TAS1,"2007/06/19 20:00:00",1598.39,184.83,TRADE
TAS1,"2007/06/19 20:30:00",1602.89,167.21,TRADE
TAS1,"2007/06/19 21:00:00",1612.2,169.72,TRADE
TAS1,"2007/06/19 21:30:00",1602.86,134.47,TRADE
TAS1,"2007/06/19 22:00:00",1555.09,118.2,TRADE
TAS1,"2007/06/19 22:30:00",1470.44,192.38,TRADE
TAS1,"2007/06/19 23:00:00",1389.06,168.3,TRADE
TAS1,"2007/06/19 23:30:00",1336.28,176.45,TRADE
TAS1,"2007/06/20 00:00:00",1288.84,126.36,TRADE
TAS1,"2007/06/20 00:30:00",1267.75,128.45,TRADE
TAS1,"2007/06/20 01:00:00",1243.58,82.92,TRADE
TAS1,"2007/06/20 01:30:00",1235.21,103.14,TRADE
TAS1,"2007/06/20 02:00:00",1230.3,93.51,TRADE
TAS1,"2007/06/20 02:30:00",1202.24,72.47,TRADE
TAS1,"2007/06/20 03:00:00",1178.74,63.02,TRADE
TAS1,"2007/06/20 03:30:00",1172.18,63.03,TRADE
TAS1,"2007/06/20 04:00:00",1182.5,59.32,TRADE
TAS1,"2007/06/20 04:30:00",1174.15,63.03,TRADE
TAS1,"2007/06/20 05:00:00",1188.49,63.03,TRADE
TAS1,"2007/06/20 05:30:00",1223.08,63.04,TRADE
TAS1,"2007/06/20 06:00:00",1259.27,63.04,TRADE
TAS1,"2007/06/20 06:30:00",1342.29,98.64,TRADE
TAS1,"2007/06/20 07:00:00",1480.5,161.3,TRADE
TAS1,"2007/06/20 07:30:00",1619.48,190.95,TRADE
TAS1,"2007/06/20 08:00:00",1730.72,258.67,TRADE
TAS1,"2007/06/20 08:30:00",1744.47,309.06,TRADE
TAS1,"2007/06/20 09:00:00",1690.79,211.79,TRADE
TAS1,"2007/06/20 09:30:00",1646.19,238.27,TRADE
TAS1,"2007/06/20 10:00:00",1603.23,221.6,TRADE
TAS1,"2007/06/20 10:30:00",1572.95,186.2,TRADE
TAS1,"2007/06/20 11:00:00",1548.25,161.82,TRADE
TAS1,"2007/06/20 11:30:00",1519.05,204.77,TRADE
TAS1,"2007/06/20 12:00:00",1488.79,149.48,TRADE
TAS1,"2007/06/20 12:30:00",1460.26,247.1,TRADE
TAS1,"2007/06/20 13:00:00",1447.16,216.22,TRADE
TAS1,"2007/06/20 13:30:00",1446.37,211.24,TRADE
TAS1,"2007/06/20 14:00:00",1439.39,170.91,TRADE
TAS1,"2007/06/20 14:30:00",1447.85,212.21,TRADE
TAS1,"2007/06/20 15:00:00",1453.79,107.89,TRADE
TAS1,"2007/06/20 15:30:00",1484.22,101.14,TRADE
TAS1,"2007/06/20 16:00:00",1509.91,165.5,TRADE
TAS1,"2007/06/20 16:30:00",1540.88,146.19,TRADE
TAS1,"2007/06/20 17:00:00",1585.91,124.3,TRADE
TAS1,"2007/06/20 17:30:00",1641.9,48.66,TRADE
TAS1,"2007/06/20 18:00:00",1637.73,-826.46,TRADE
TAS1,"2007/06/20 18:30:00",1615.55,-971.11,TRADE
TAS1,"2007/06/20 19:00:00",1626.4,-520.54,TRADE
TAS1,"2007/06/20 19:30:00",1613.11,19.75,TRADE
TAS1,"2007/06/20 20:00:00",1609.49,8.89,TRADE
TAS1,"2007/06/20 20:30:00",1593,114.4,TRADE
TAS1,"2007/06/20 21:00:00",1581.91,89.58,TRADE
TAS1,"2007/06/20 21:30:00",1563.95,42.32,TRADE
TAS1,"2007/06/20 22:00:00",1501.9,7.65,TRADE
TAS1,"2007/06/20 22:30:00",1438.86,112.33,TRADE
TAS1,"2007/06/20 23:00:00",1365.5,146.19,TRADE
TAS1,"2007/06/20 23:30:00",1289.7,183.81,TRADE
TAS1,"2007/06/21 00:00:00",1241.53,100.88,TRADE
TAS1,"2007/06/21 00:30:00",1195.81,76.74,TRADE
TAS1,"2007/06/21 01:00:00",1193.88,69.23,TRADE
TAS1,"2007/06/21 01:30:00",1186.5,93.03,TRADE
TAS1,"2007/06/21 02:00:00",1171.16,79.35,TRADE
TAS1,"2007/06/21 02:30:00",1141.99,77.94,TRADE
TAS1,"2007/06/21 03:00:00",1139.38,73.87,TRADE
TAS1,"2007/06/21 03:30:00",1149.89,52.1,TRADE
TAS1,"2007/06/21 04:00:00",1154.01,51.13,TRADE
TAS1,"2007/06/21 04:30:00",1104.56,58.5,TRADE
TAS1,"2007/06/21 05:00:00",1172.78,62.07,TRADE
TAS1,"2007/06/21 05:30:00",1195.04,63,TRADE
TAS1,"2007/06/21 06:00:00",1262.18,63.02,TRADE
TAS1,"2007/06/21 06:30:00",1343.7,37.73,TRADE
TAS1,"2007/06/21 07:00:00",1485.52,76.53,TRADE
TAS1,"2007/06/21 07:30:00",1632.12,91.62,TRADE
TAS1,"2007/06/21 08:00:00",1726.91,244.02,TRADE
TAS1,"2007/06/21 08:30:00",1718.7,197.41,TRADE
TAS1,"2007/06/21 09:00:00",1698.79,128.34,TRADE
TAS1,"2007/06/21 09:30:00",1656.96,120.41,TRADE
TAS1,"2007/06/21 10:00:00",1599.16,81.23,TRADE
TAS1,"2007/06/21 10:30:00",1546.87,84.44,TRADE
TAS1,"2007/06/21 11:00:00",1533.43,80.19,TRADE
TAS1,"2007/06/21 11:30:00",1519.5,112.01,TRADE
TAS1,"2007/06/21 12:00:00",1485.11,88.69,TRADE
TAS1,"2007/06/21 12:30:00",1476.96,113.07,TRADE
TAS1,"2007/06/21 13:00:00",1451.88,89.29,TRADE
TAS1,"2007/06/21 13:30:00",1457.31,95.8,TRADE
TAS1,"2007/06/21 14:00:00",1467.07,90.09,TRADE
TAS1,"2007/06/21 14:30:00",1467.35,94.8,TRADE
TAS1,"2007/06/21 15:00:00",1470.52,84.53,TRADE
TAS1,"2007/06/21 15:30:00",1479.5,75.97,TRADE
TAS1,"2007/06/21 16:00:00",1499.2,94.24,TRADE
TAS1,"2007/06/21 16:30:00",1538.65,106.38,TRADE
TAS1,"2007/06/21 17:00:00",1569.87,82.73,TRADE
TAS1,"2007/06/21 17:30:00",1667.71,110.26,TRADE
TAS1,"2007/06/21 18:00:00",1668.7,129.16,TRADE
TAS1,"2007/06/21 18:30:00",1718.98,253.44,TRADE
TAS1,"2007/06/21 19:00:00",1712.8,226.1,TRADE
TAS1,"2007/06/21 19:30:00",1694.74,150.79,TRADE
TAS1,"2007/06/21 20:00:00",1659.05,218.64,TRADE
TAS1,"2007/06/21 20:30:00",1628.78,258.98,TRADE
TAS1,"2007/06/21 21:00:00",1602.87,188.18,TRADE
TAS1,"2007/06/21 21:30:00",1566.75,166.66,TRADE
TAS1,"2007/06/21 22:00:00",1500.01,89.22,TRADE
TAS1,"2007/06/21 22:30:00",1421.93,135.74,TRADE
TAS1,"2007/06/21 23:00:00",1354.82,126.16,TRADE
TAS1,"2007/06/21 23:30:00",1293.81,182.81,TRADE
TAS1,"2007/06/22 00:00:00",1252.66,126.46,TRADE
TAS1,"2007/06/22 00:30:00",1219.87,117.31,TRADE
TAS1,"2007/06/22 01:00:00",1179.87,96.44,TRADE
TAS1,"2007/06/22 01:30:00",1178.02,105.81,TRADE
TAS1,"2007/06/22 02:00:00",1159.9,101.03,TRADE
TAS1,"2007/06/22 02:30:00",1146.69,100.25,TRADE
TAS1,"2007/06/22 03:00:00",1151.4,76.35,TRADE
TAS1,"2007/06/22 03:30:00",1152.45,79.29,TRADE
TAS1,"2007/06/22 04:00:00",1166.32,79.31,TRADE
TAS1,"2007/06/22 04:30:00",1171.61,67.81,TRADE
TAS1,"2007/06/22 05:00:00",1181.95,62.34,TRADE
TAS1,"2007/06/22 05:30:00",1206.75,71.51,TRADE
TAS1,"2007/06/22 06:00:00",1246.05,73.34,TRADE
TAS1,"2007/06/22 06:30:00",1327.87,88.65,TRADE
TAS1,"2007/06/22 07:00:00",1443.42,119.6,TRADE
TAS1,"2007/06/22 07:30:00",1598.49,152.15,TRADE
TAS1,"2007/06/22 08:00:00",1685.28,265.71,TRADE
TAS1,"2007/06/22 08:30:00",1708.24,236.95,TRADE
TAS1,"2007/06/22 09:00:00",1666.82,253.82,TRADE
TAS1,"2007/06/22 09:30:00",1620.57,176.02,TRADE
TAS1,"2007/06/22 10:00:00",1587.74,138.2,TRADE
TAS1,"2007/06/22 10:30:00",1515.36,136.46,TRADE
TAS1,"2007/06/22 11:00:00",1492.63,125.69,TRADE
TAS1,"2007/06/22 11:30:00",1463.27,104.76,TRADE
TAS1,"2007/06/22 12:00:00",1445.08,109.82,TRADE
TAS1,"2007/06/22 12:30:00",1407.79,108.88,TRADE
TAS1,"2007/06/22 13:00:00",1374.87,101.18,TRADE
TAS1,"2007/06/22 13:30:00",1355.61,87.26,TRADE
TAS1,"2007/06/22 14:00:00",1348.11,73.36,TRADE
TAS1,"2007/06/22 14:30:00",1339.35,63.99,TRADE
TAS1,"2007/06/22 15:00:00",1341.15,65.44,TRADE
TAS1,"2007/06/22 15:30:00",1348.86,66.01,TRADE
TAS1,"2007/06/22 16:00:00",1362.04,64.49,TRADE
TAS1,"2007/06/22 16:30:00",1396.82,80.9,TRADE
TAS1,"2007/06/22 17:00:00",1471.29,78.59,TRADE
TAS1,"2007/06/22 17:30:00",1566.64,126.07,TRADE
TAS1,"2007/06/22 18:00:00",1605.88,62.1,TRADE
TAS1,"2007/06/22 18:30:00",1597.91,62.09,TRADE
TAS1,"2007/06/22 19:00:00",1588.97,62.09,TRADE
TAS1,"2007/06/22 19:30:00",1574.51,74.87,TRADE
TAS1,"2007/06/22 20:00:00",1560.82,114.25,TRADE
TAS1,"2007/06/22 20:30:00",1520.84,212.18,TRADE
TAS1,"2007/06/22 21:00:00",1489.27,249.38,TRADE
TAS1,"2007/06/22 21:30:00",1462.95,242.97,TRADE
TAS1,"2007/06/22 22:00:00",1424.72,250.7,TRADE
TAS1,"2007/06/22 22:30:00",1376.79,264.24,TRADE
TAS1,"2007/06/22 23:00:00",1311.15,271.63,TRADE
TAS1,"2007/06/22 23:30:00",1260.72,322.72,TRADE
TAS1,"2007/06/23 00:00:00",1215.9,229.27,TRADE
TAS1,"2007/06/23 00:30:00",1205.1,203.25,TRADE
TAS1,"2007/06/23 01:00:00",1195.75,137.38,TRADE
TAS1,"2007/06/23 01:30:00",1183.86,138.34,TRADE
TAS1,"2007/06/23 02:00:00",1179.36,137.87,TRADE
TAS1,"2007/06/23 02:30:00",1165.28,118.13,TRADE
TAS1,"2007/06/23 03:00:00",1161.13,138.46,TRADE
TAS1,"2007/06/23 03:30:00",1150.96,91.95,TRADE
TAS1,"2007/06/23 04:00:00",1145.2,78.66,TRADE
TAS1,"2007/06/23 04:30:00",1153.96,76.3,TRADE
TAS1,"2007/06/23 05:00:00",1170.73,76.3,TRADE
TAS1,"2007/06/23 05:30:00",1184.92,76.3,TRADE
TAS1,"2007/06/23 06:00:00",1213.9,78.27,TRADE
TAS1,"2007/06/23 06:30:00",1243.99,90.99,TRADE
TAS1,"2007/06/23 07:00:00",1270.03,78.78,TRADE
TAS1,"2007/06/23 07:30:00",1326.26,80.05,TRADE
TAS1,"2007/06/23 08:00:00",1366.29,70.38,TRADE
TAS1,"2007/06/23 08:30:00",1451.22,136.82,TRADE
TAS1,"2007/06/23 09:00:00",1497.47,208.01,TRADE
TAS1,"2007/06/23 09:30:00",1542.07,251.81,TRADE
TAS1,"2007/06/23 10:00:00",1538.99,224.02,TRADE
TAS1,"2007/06/23 10:30:00",1493.87,198.67,TRADE
TAS1,"2007/06/23 11:00:00",1473.05,136.83,TRADE
TAS1,"2007/06/23 11:30:00",1447.33,121.27,TRADE
TAS1,"2007/06/23 12:00:00",1412.14,135.1,TRADE
TAS1,"2007/06/23 12:30:00",1363,116.81,TRADE
TAS1,"2007/06/23 13:00:00",1317.7,86.71,TRADE
TAS1,"2007/06/23 13:30:00",1283.15,83.24,TRADE
TAS1,"2007/06/23 14:00:00",1253.52,79.95,TRADE
TAS1,"2007/06/23 14:30:00",1264.93,84.08,TRADE
TAS1,"2007/06/23 15:00:00",1281.97,75.91,TRADE
TAS1,"2007/06/23 15:30:00",1295.41,79.46,TRADE
TAS1,"2007/06/23 16:00:00",1304.09,84.3,TRADE
TAS1,"2007/06/23 16:30:00",1360.42,76.01,TRADE
TAS1,"2007/06/23 17:00:00",1433.88,131.96,TRADE
TAS1,"2007/06/23 17:30:00",1531.23,219.05,TRADE
TAS1,"2007/06/23 18:00:00",1597.9,323.4,TRADE
TAS1,"2007/06/23 18:30:00",1586.53,375.11,TRADE
TAS1,"2007/06/23 19:00:00",1541.84,180.83,TRADE
TAS1,"2007/06/23 19:30:00",1516.85,276.68,TRADE
TAS1,"2007/06/23 20:00:00",1471.95,143.58,TRADE
TAS1,"2007/06/23 20:30:00",1487.87,137.88,TRADE
TAS1,"2007/06/23 21:00:00",1477.25,126.61,TRADE
TAS1,"2007/06/23 21:30:00",1462.17,130.72,TRADE
TAS1,"2007/06/23 22:00:00",1428.08,110.68,TRADE
TAS1,"2007/06/23 22:30:00",1378.73,127.51,TRADE
TAS1,"2007/06/23 23:00:00",1346.21,119.59,TRADE
TAS1,"2007/06/23 23:30:00",1304.19,137.41,TRADE
TAS1,"2007/06/24 00:00:00",1254.55,123.61,TRADE
TAS1,"2007/06/24 00:30:00",1225.24,120.9,TRADE
TAS1,"2007/06/24 01:00:00",1208.24,109.59,TRADE
TAS1,"2007/06/24 01:30:00",1198.55,112.07,TRADE
TAS1,"2007/06/24 02:00:00",1193.73,118.73,TRADE
TAS1,"2007/06/24 02:30:00",1185.81,89.65,TRADE
TAS1,"2007/06/24 03:00:00",1178.2,82.35,TRADE
TAS1,"2007/06/24 03:30:00",1178.77,69.63,TRADE
TAS1,"2007/06/24 04:00:00",1174.86,62.3,TRADE
TAS1,"2007/06/24 04:30:00",1179.88,55.3,TRADE
TAS1,"2007/06/24 05:00:00",1176.46,55.3,TRADE
TAS1,"2007/06/24 05:30:00",1190.21,55.3,TRADE
TAS1,"2007/06/24 06:00:00",1190.3,55.29,TRADE
TAS1,"2007/06/24 06:30:00",1221.61,55.28,TRADE
TAS1,"2007/06/24 07:00:00",1232.54,55.28,TRADE
TAS1,"2007/06/24 07:30:00",1263.42,57.81,TRADE
TAS1,"2007/06/24 08:00:00",1327.82,82.29,TRADE
TAS1,"2007/06/24 08:30:00",1374.72,88.89,TRADE
TAS1,"2007/06/24 09:00:00",1431.73,113.56,TRADE
TAS1,"2007/06/24 09:30:00",1478.73,128.16,TRADE
TAS1,"2007/06/24 10:00:00",1473.29,135.31,TRADE
TAS1,"2007/06/24 10:30:00",1468.63,116.06,TRADE
TAS1,"2007/06/24 11:00:00",1446.82,99.21,TRADE
TAS1,"2007/06/24 11:30:00",1429.2,91.51,TRADE
TAS1,"2007/06/24 12:00:00",1426.97,84.94,TRADE
TAS1,"2007/06/24 12:30:00",1413.25,86.51,TRADE
TAS1,"2007/06/24 13:00:00",1393.09,82.3,TRADE
TAS1,"2007/06/24 13:30:00",1385.93,82.29,TRADE
TAS1,"2007/06/24 14:00:00",1377.27,82.28,TRADE
TAS1,"2007/06/24 14:30:00",1372.95,82.28,TRADE
TAS1,"2007/06/24 15:00:00",1366.73,82.28,TRADE
TAS1,"2007/06/24 15:30:00",1377.6,82.28,TRADE
TAS1,"2007/06/24 16:00:00",1396.96,84.17,TRADE
TAS1,"2007/06/24 16:30:00",1439.99,95.16,TRADE
TAS1,"2007/06/24 17:00:00",1508.92,140.31,TRADE
TAS1,"2007/06/24 17:30:00",1595.18,218.88,TRADE
TAS1,"2007/06/24 18:00:00",1630.77,339.5,TRADE
TAS1,"2007/06/24 18:30:00",1639.21,371.35,TRADE
TAS1,"2007/06/24 19:00:00",1619.16,371.32,TRADE
TAS1,"2007/06/24 19:30:00",1571.25,323.88,TRADE
TAS1,"2007/06/24 20:00:00",1536.49,257.31,TRADE
TAS1,"2007/06/24 20:30:00",1541.2,143.32,TRADE
TAS1,"2007/06/24 21:00:00",1510.62,190.84,TRADE
TAS1,"2007/06/24 21:30:00",1477.66,198.03,TRADE
TAS1,"2007/06/24 22:00:00",1411.09,84.95,TRADE
TAS1,"2007/06/24 22:30:00",1345.68,85.57,TRADE
TAS1,"2007/06/24 23:00:00",1284.6,93.33,TRADE
TAS1,"2007/06/24 23:30:00",1220.32,85.88,TRADE
TAS1,"2007/06/25 00:00:00",1187.74,86.28,TRADE
TAS1,"2007/06/25 00:30:00",1175.25,92.28,TRADE
TAS1,"2007/06/25 01:00:00",1163.31,92.25,TRADE
TAS1,"2007/06/25 01:30:00",1141.63,99.45,TRADE
TAS1,"2007/06/25 02:00:00",1126.68,88.95,TRADE
TAS1,"2007/06/25 02:30:00",1132.23,82.28,TRADE
TAS1,"2007/06/25 03:00:00",1122.19,76.3,TRADE
TAS1,"2007/06/25 03:30:00",1133.01,55.3,TRADE
TAS1,"2007/06/25 04:00:00",1137.32,55.3,TRADE
TAS1,"2007/06/25 04:30:00",1143.91,109.33,TRADE
TAS1,"2007/06/25 05:00:00",1147.32,109.33,TRADE
TAS1,"2007/06/25 05:30:00",1176.66,109.33,TRADE
TAS1,"2007/06/25 06:00:00",1228.02,99.86,TRADE
TAS1,"2007/06/25 06:30:00",1310.16,109.53,TRADE
TAS1,"2007/06/25 07:00:00",1425.63,109.33,TRADE
TAS1,"2007/06/25 07:30:00",1555.82,89.76,TRADE
TAS1,"2007/06/25 08:00:00",1638.06,134.42,TRADE
TAS1,"2007/06/25 08:30:00",1651.89,152.91,TRADE
TAS1,"2007/06/25 09:00:00",1644.81,182.68,TRADE
TAS1,"2007/06/25 09:30:00",1639.77,233.11,TRADE
TAS1,"2007/06/25 10:00:00",1590.01,228.04,TRADE
TAS1,"2007/06/25 10:30:00",1559.71,190.93,TRADE
TAS1,"2007/06/25 11:00:00",1542.88,181.07,TRADE
TAS1,"2007/06/25 11:30:00",1508.88,144.99,TRADE
TAS1,"2007/06/25 12:00:00",1489.03,161.91,TRADE
TAS1,"2007/06/25 12:30:00",1479.38,157.44,TRADE
TAS1,"2007/06/25 13:00:00",1460.68,146.62,TRADE
TAS1,"2007/06/25 13:30:00",1397.13,133.2,TRADE
TAS1,"2007/06/25 14:00:00",1380.36,133.67,TRADE
TAS1,"2007/06/25 14:30:00",1463.78,136.33,TRADE
TAS1,"2007/06/25 15:00:00",1460.68,134.79,TRADE
TAS1,"2007/06/25 15:30:00",1481.76,121.71,TRADE
TAS1,"2007/06/25 16:00:00",1510.24,123.94,TRADE
TAS1,"2007/06/25 16:30:00",1551.06,164.62,TRADE
TAS1,"2007/06/25 17:00:00",1605.56,160.7,TRADE
TAS1,"2007/06/25 17:30:00",1685.58,197.78,TRADE
TAS1,"2007/06/25 18:00:00",1705.51,317.82,TRADE
TAS1,"2007/06/25 18:30:00",1684.57,294.82,TRADE
TAS1,"2007/06/25 19:00:00",1652.57,266.24,TRADE
TAS1,"2007/06/25 19:30:00",1635.34,213.77,TRADE
TAS1,"2007/06/25 20:00:00",1604.88,158.01,TRADE
TAS1,"2007/06/25 20:30:00",1620.95,133.88,TRADE
TAS1,"2007/06/25 21:00:00",1582.95,137.53,TRADE
TAS1,"2007/06/25 21:30:00",1535.7,118.77,TRADE
TAS1,"2007/06/25 22:00:00",1470.82,102.98,TRADE
TAS1,"2007/06/25 22:30:00",1380.43,126.02,TRADE
TAS1,"2007/06/25 23:00:00",1332.87,115.71,TRADE
TAS1,"2007/06/25 23:30:00",1278.52,97.58,TRADE
TAS1,"2007/06/26 00:00:00",1245.9,114.1,TRADE
TAS1,"2007/06/26 00:30:00",1185.32,110.85,TRADE
TAS1,"2007/06/26 01:00:00",1156.62,111.74,TRADE
TAS1,"2007/06/26 01:30:00",1126.7,120.83,TRADE
TAS1,"2007/06/26 02:00:00",1129.07,128.52,TRADE
TAS1,"2007/06/26 02:30:00",1140.36,124.21,TRADE
TAS1,"2007/06/26 03:00:00",1135.85,96.47,TRADE
TAS1,"2007/06/26 03:30:00",1156.89,85.34,TRADE
TAS1,"2007/06/26 04:00:00",1167.3,85.34,TRADE
TAS1,"2007/06/26 04:30:00",1175.61,88.6,TRADE
TAS1,"2007/06/26 05:00:00",1189.87,84.12,TRADE
TAS1,"2007/06/26 05:30:00",1222.72,93.54,TRADE
TAS1,"2007/06/26 06:00:00",1263.58,95.83,TRADE
TAS1,"2007/06/26 06:30:00",1352.67,98.52,TRADE
TAS1,"2007/06/26 07:00:00",1473.99,125.26,TRADE
TAS1,"2007/06/26 07:30:00",1618.52,91.49,TRADE
TAS1,"2007/06/26 08:00:00",1701.18,138.25,TRADE
TAS1,"2007/06/26 08:30:00",1691.94,187.23,TRADE
TAS1,"2007/06/26 09:00:00",1668.85,153.49,TRADE
TAS1,"2007/06/26 09:30:00",1647.1,162.38,TRADE
TAS1,"2007/06/26 10:00:00",1602.19,171.87,TRADE
TAS1,"2007/06/26 10:30:00",1584.44,175.72,TRADE
TAS1,"2007/06/26 11:00:00",1558.99,202.26,TRADE
TAS1,"2007/06/26 11:30:00",1537.89,236.32,TRADE
TAS1,"2007/06/26 12:00:00",1508.51,231.67,TRADE
TAS1,"2007/06/26 12:30:00",1482.46,241.1,TRADE
TAS1,"2007/06/26 13:00:00",1446.06,227.7,TRADE
TAS1,"2007/06/26 13:30:00",1426.69,228.5,TRADE
TAS1,"2007/06/26 14:00:00",1416.96,213,TRADE
TAS1,"2007/06/26 14:30:00",1442.53,192,TRADE
TAS1,"2007/06/26 15:00:00",1445.29,208.53,TRADE
TAS1,"2007/06/26 15:30:00",1444.87,208.9,TRADE
TAS1,"2007/06/26 16:00:00",1471.24,247.34,TRADE
TAS1,"2007/06/26 16:30:00",1520.56,271.15,TRADE
TAS1,"2007/06/26 17:00:00",1570.91,261.36,TRADE
TAS1,"2007/06/26 17:30:00",1629.08,247.51,TRADE
TAS1,"2007/06/26 18:00:00",1671.22,76.47,TRADE
TAS1,"2007/06/26 18:30:00",1673.57,160.17,TRADE
TAS1,"2007/06/26 19:00:00",1639.24,479.84,TRADE
TAS1,"2007/06/26 19:30:00",1613.94,268.6,TRADE
TAS1,"2007/06/26 20:00:00",1588.03,270.65,TRADE
TAS1,"2007/06/26 20:30:00",1576.4,263.46,TRADE
TAS1,"2007/06/26 21:00:00",1560.8,218.74,TRADE
TAS1,"2007/06/26 21:30:00",1542.56,215.56,TRADE
TAS1,"2007/06/26 22:00:00",1510.58,155.35,TRADE
TAS1,"2007/06/26 22:30:00",1421.26,252.52,TRADE
TAS1,"2007/06/26 23:00:00",1359.94,186.36,TRADE
TAS1,"2007/06/26 23:30:00",1276.32,142.44,TRADE
TAS1,"2007/06/27 00:00:00",1230.28,132.2,TRADE
TAS1,"2007/06/27 00:30:00",1191.99,123.37,TRADE
TAS1,"2007/06/27 01:00:00",1152.74,95.94,TRADE
TAS1,"2007/06/27 01:30:00",1133.65,123.86,TRADE
TAS1,"2007/06/27 02:00:00",1131.92,114.74,TRADE
TAS1,"2007/06/27 02:30:00",1129.82,112.28,TRADE
TAS1,"2007/06/27 03:00:00",1123.28,105.82,TRADE
TAS1,"2007/06/27 03:30:00",1120.2,88.6,TRADE
TAS1,"2007/06/27 04:00:00",1133.69,111.02,TRADE
TAS1,"2007/06/27 04:30:00",1143.23,106.35,TRADE
TAS1,"2007/06/27 05:00:00",1155.58,110.82,TRADE
TAS1,"2007/06/27 05:30:00",1182.25,97.42,TRADE
TAS1,"2007/06/27 06:00:00",1218.44,111.69,TRADE
TAS1,"2007/06/27 06:30:00",1270.86,106.31,TRADE
TAS1,"2007/06/27 07:00:00",1382.67,140.3,TRADE
TAS1,"2007/06/27 07:30:00",1535.01,119.58,TRADE
TAS1,"2007/06/27 08:00:00",1616.7,252.91,TRADE
TAS1,"2007/06/27 08:30:00",1608.25,287.88,TRADE
TAS1,"2007/06/27 09:00:00",1578.6,218.61,TRADE
TAS1,"2007/06/27 09:30:00",1552.61,230.14,TRADE
TAS1,"2007/06/27 10:00:00",1535.86,248.29,TRADE
TAS1,"2007/06/27 10:30:00",1533.16,229.94,TRADE
TAS1,"2007/06/27 11:00:00",1525.61,231.63,TRADE
TAS1,"2007/06/27 11:30:00",1489.97,1907.5,TRADE
TAS1,"2007/06/27 12:00:00",1486.14,146.15,TRADE
TAS1,"2007/06/27 12:30:00",1463.29,154.06,TRADE
TAS1,"2007/06/27 13:00:00",1428.55,178.3,TRADE
TAS1,"2007/06/27 13:30:00",1416.06,212.67,TRADE
TAS1,"2007/06/27 14:00:00",1397.44,186.64,TRADE
TAS1,"2007/06/27 14:30:00",1421.91,182.57,TRADE
TAS1,"2007/06/27 15:00:00",1432.31,164.04,TRADE
TAS1,"2007/06/27 15:30:00",1438.33,198.87,TRADE
TAS1,"2007/06/27 16:00:00",1466.12,258.87,TRADE
TAS1,"2007/06/27 16:30:00",1496.57,269.53,TRADE
TAS1,"2007/06/27 17:00:00",1535.59,279.36,TRADE
TAS1,"2007/06/27 17:30:00",1596.27,3.48,TRADE
TAS1,"2007/06/27 18:00:00",1593.24,-629.09,TRADE
TAS1,"2007/06/27 18:30:00",1605.9,-999.59,TRADE
TAS1,"2007/06/27 19:00:00",1563.94,-999.1,TRADE
TAS1,"2007/06/27 19:30:00",1551.66,-623.4,TRADE
TAS1,"2007/06/27 20:00:00",1504.72,2.98,TRADE
TAS1,"2007/06/27 20:30:00",1482.75,215.61,TRADE
TAS1,"2007/06/27 21:00:00",1451.23,189.38,TRADE
TAS1,"2007/06/27 21:30:00",1440.16,177.62,TRADE
TAS1,"2007/06/27 22:00:00",1399.61,96.61,TRADE
TAS1,"2007/06/27 22:30:00",1357.45,256.92,TRADE
TAS1,"2007/06/27 23:00:00",1284.06,205.45,TRADE
TAS1,"2007/06/27 23:30:00",1212.87,276.94,TRADE
TAS1,"2007/06/28 00:00:00",1182.72,268.51,TRADE
TAS1,"2007/06/28 00:30:00",1138.76,205.44,TRADE
TAS1,"2007/06/28 01:00:00",1119.82,156.82,TRADE
TAS1,"2007/06/28 01:30:00",1112.44,238.09,TRADE
TAS1,"2007/06/28 02:00:00",1100.5,209.98,TRADE
TAS1,"2007/06/28 02:30:00",1100.41,140.76,TRADE
TAS1,"2007/06/28 03:00:00",1093.25,124.61,TRADE
TAS1,"2007/06/28 03:30:00",1104.84,124.52,TRADE
TAS1,"2007/06/28 04:00:00",1087.08,96.61,TRADE
TAS1,"2007/06/28 04:30:00",1092.53,97.81,TRADE
TAS1,"2007/06/28 05:00:00",1109.3,97.64,TRADE
TAS1,"2007/06/28 05:30:00",1129.11,130.14,TRADE
TAS1,"2007/06/28 06:00:00",1181.68,124.5,TRADE
TAS1,"2007/06/28 06:30:00",1277.08,139.31,TRADE
TAS1,"2007/06/28 07:00:00",1380.29,164.51,TRADE
TAS1,"2007/06/28 07:30:00",1516.74,123.52,TRADE
TAS1,"2007/06/28 08:00:00",1596,296.92,TRADE
TAS1,"2007/06/28 08:30:00",1613.15,296.17,TRADE
TAS1,"2007/06/28 09:00:00",1576.28,263.46,TRADE
TAS1,"2007/06/28 09:30:00",1549.1,233.79,TRADE
TAS1,"2007/06/28 10:00:00",1497.85,200.03,TRADE
TAS1,"2007/06/28 10:30:00",1459.49,185.39,TRADE
TAS1,"2007/06/28 11:00:00",1430.96,159.54,TRADE
TAS1,"2007/06/28 11:30:00",1406.58,150.17,TRADE
TAS1,"2007/06/28 12:00:00",1387.28,142.85,TRADE
TAS1,"2007/06/28 12:30:00",1361.13,150.63,TRADE
TAS1,"2007/06/28 13:00:00",1341.99,155.02,TRADE
TAS1,"2007/06/28 13:30:00",1341.34,156.33,TRADE
TAS1,"2007/06/28 14:00:00",1327.23,228.6,TRADE
TAS1,"2007/06/28 14:30:00",1348.56,339.48,TRADE
TAS1,"2007/06/28 15:00:00",1308.03,215.41,TRADE
TAS1,"2007/06/28 15:30:00",1315.42,191.4,TRADE
TAS1,"2007/06/28 16:00:00",1351.77,194.31,TRADE
TAS1,"2007/06/28 16:30:00",1380.54,32.71,TRADE
TAS1,"2007/06/28 17:00:00",1471.9,-314.73,TRADE
TAS1,"2007/06/28 17:30:00",1563.74,-447.76,TRADE
TAS1,"2007/06/28 18:00:00",1580.2,-1000,TRADE
TAS1,"2007/06/28 18:30:00",1554.59,-1000,TRADE
TAS1,"2007/06/28 19:00:00",1544.88,-973.26,TRADE
TAS1,"2007/06/28 19:30:00",1545.42,-643.07,TRADE
TAS1,"2007/06/28 20:00:00",1504.18,274.1,TRADE
TAS1,"2007/06/28 20:30:00",1488.77,233.07,TRADE
TAS1,"2007/06/28 21:00:00",1492.87,241.23,TRADE
TAS1,"2007/06/28 21:30:00",1461.18,192.03,TRADE
TAS1,"2007/06/28 22:00:00",1415.67,131.94,TRADE
TAS1,"2007/06/28 22:30:00",1369.53,198.46,TRADE
TAS1,"2007/06/28 23:00:00",1295.13,244.53,TRADE
TAS1,"2007/06/28 23:30:00",1248.05,280.7,TRADE
TAS1,"2007/06/29 00:00:00",1207.77,218.35,TRADE
TAS1,"2007/06/29 00:30:00",1165.13,151.68,TRADE
TAS1,"2007/06/29 01:00:00",1130.11,149.36,TRADE
TAS1,"2007/06/29 01:30:00",1133.66,171.93,TRADE
TAS1,"2007/06/29 02:00:00",1127.18,139.78,TRADE
TAS1,"2007/06/29 02:30:00",1123.29,107.56,TRADE
TAS1,"2007/06/29 03:00:00",1127.15,94.82,TRADE
TAS1,"2007/06/29 03:30:00",1133.45,83.45,TRADE
TAS1,"2007/06/29 04:00:00",1133.93,94.82,TRADE
TAS1,"2007/06/29 04:30:00",1135.04,55.32,TRADE
TAS1,"2007/06/29 05:00:00",1150.49,55.94,TRADE
TAS1,"2007/06/29 05:30:00",1183.9,145,TRADE
TAS1,"2007/06/29 06:00:00",1225.47,148.43,TRADE
TAS1,"2007/06/29 06:30:00",1309.21,183.47,TRADE
TAS1,"2007/06/29 07:00:00",1408.93,182.98,TRADE
TAS1,"2007/06/29 07:30:00",1542.48,161.15,TRADE
TAS1,"2007/06/29 08:00:00",1610.43,221.09,TRADE
TAS1,"2007/06/29 08:30:00",1627.35,251.32,TRADE
TAS1,"2007/06/29 09:00:00",1603.34,197.98,TRADE
TAS1,"2007/06/29 09:30:00",1585.66,175.84,TRADE
TAS1,"2007/06/29 10:00:00",1538.21,144.62,TRADE
TAS1,"2007/06/29 10:30:00",1474.2,144.31,TRADE
TAS1,"2007/06/29 11:00:00",1430.37,144.31,TRADE
TAS1,"2007/06/29 11:30:00",1406.05,144.31,TRADE
TAS1,"2007/06/29 12:00:00",1354.48,144.32,TRADE
TAS1,"2007/06/29 12:30:00",1330.5,144.31,TRADE
TAS1,"2007/06/29 13:00:00",1321.59,144.3,TRADE
TAS1,"2007/06/29 13:30:00",1314.07,144.3,TRADE
TAS1,"2007/06/29 14:00:00",1304.61,144.3,TRADE
TAS1,"2007/06/29 14:30:00",1317.18,144.3,TRADE
TAS1,"2007/06/29 15:00:00",1314.19,144.31,TRADE
TAS1,"2007/06/29 15:30:00",1335.6,144.31,TRADE
TAS1,"2007/06/29 16:00:00",1359.2,150.03,TRADE
TAS1,"2007/06/29 16:30:00",1412.57,37.6,TRADE
TAS1,"2007/06/29 17:00:00",1477.98,13.68,TRADE
TAS1,"2007/06/29 17:30:00",1527.27,69.81,TRADE
TAS1,"2007/06/29 18:00:00",1559.41,224.54,TRADE
TAS1,"2007/06/29 18:30:00",1527.63,252.28,TRADE
TAS1,"2007/06/29 19:00:00",1529.78,249.04,TRADE
TAS1,"2007/06/29 19:30:00",1502.43,226.09,TRADE
TAS1,"2007/06/29 20:00:00",1472.46,255.6,TRADE
TAS1,"2007/06/29 20:30:00",1475.49,156.39,TRADE
TAS1,"2007/06/29 21:00:00",1450.7,145.17,TRADE
TAS1,"2007/06/29 21:30:00",1435.35,154.54,TRADE
TAS1,"2007/06/29 22:00:00",1394.8,177.08,TRADE
TAS1,"2007/06/29 22:30:00",1348.4,180.11,TRADE
TAS1,"2007/06/29 23:00:00",1285.2,172.15,TRADE
TAS1,"2007/06/29 23:30:00",1242.38,218.15,TRADE
TAS1,"2007/06/30 00:00:00",1196.53,187.98,TRADE
TAS1,"2007/06/30 00:30:00",1143.9,166.3,TRADE
TAS1,"2007/06/30 01:00:00",1116.05,144.3,TRADE
TAS1,"2007/06/30 01:30:00",1095.71,144.3,TRADE
TAS1,"2007/06/30 02:00:00",1077.43,144.3,TRADE
TAS1,"2007/06/30 02:30:00",1077.52,144.3,TRADE
TAS1,"2007/06/30 03:00:00",1081.83,55.3,TRADE
TAS1,"2007/06/30 03:30:00",1076.29,55.3,TRADE
TAS1,"2007/06/30 04:00:00",1076.03,55.3,TRADE
TAS1,"2007/06/30 04:30:00",1079.51,55.3,TRADE
TAS1,"2007/06/30 05:00:00",1088.57,55.3,TRADE
TAS1,"2007/06/30 05:30:00",1102.24,55.3,TRADE
TAS1,"2007/06/30 06:00:00",1123.48,55.49,TRADE
TAS1,"2007/06/30 06:30:00",1148.53,55.3,TRADE
TAS1,"2007/06/30 07:00:00",1173.01,55.3,TRADE
TAS1,"2007/06/30 07:30:00",1228.8,55.32,TRADE
TAS1,"2007/06/30 08:00:00",1274.35,101.32,TRADE
TAS1,"2007/06/30 08:30:00",1360.98,123.35,TRADE
TAS1,"2007/06/30 09:00:00",1396.66,166.94,TRADE
TAS1,"2007/06/30 09:30:00",1375.96,101.3,TRADE
TAS1,"2007/06/30 10:00:00",1378.78,101.31,TRADE
TAS1,"2007/06/30 10:30:00",1387.01,101.33,TRADE
TAS1,"2007/06/30 11:00:00",1353.37,101.3,TRADE
TAS1,"2007/06/30 11:30:00",1326.5,101.35,TRADE
TAS1,"2007/06/30 12:00:00",1307.6,101.36,TRADE
TAS1,"2007/06/30 12:30:00",1295.06,101.36,TRADE
TAS1,"2007/06/30 13:00:00",1278.04,101.36,TRADE
TAS1,"2007/06/30 13:30:00",1265.7,101.35,TRADE
TAS1,"2007/06/30 14:00:00",1273.61,101.36,TRADE
TAS1,"2007/06/30 14:30:00",1291.59,55.36,TRADE
TAS1,"2007/06/30 15:00:00",1286.88,55.36,TRADE
TAS1,"2007/06/30 15:30:00",1292.07,55.36,TRADE
TAS1,"2007/06/30 16:00:00",1311.93,55.36,TRADE
TAS1,"2007/06/30 16:30:00",1327.35,70.63,TRADE
TAS1,"2007/06/30 17:00:00",1396.92,75.66,TRADE
TAS1,"2007/06/30 17:30:00",1476.81,144.33,TRADE
TAS1,"2007/06/30 18:00:00",1488.75,210.61,TRADE
TAS1,"2007/06/30 18:30:00",1468.4,234.66,TRADE
TAS1,"2007/06/30 19:00:00",1442.44,183.07,TRADE
TAS1,"2007/06/30 19:30:00",1423.88,108.43,TRADE
TAS1,"2007/06/30 20:00:00",1423.6,158.08,TRADE
TAS1,"2007/06/30 20:30:00",1423.68,158.8,TRADE
TAS1,"2007/06/30 21:00:00",1406.52,120.47,TRADE
TAS1,"2007/06/30 21:30:00",1380.88,150.01,TRADE
TAS1,"2007/06/30 22:00:00",1359.72,122.21,TRADE
TAS1,"2007/06/30 22:30:00",1322.95,102.33,TRADE
TAS1,"2007/06/30 23:00:00",1272.05,101.36,TRADE
TAS1,"2007/06/30 23:30:00",1220.39,101.3,TRADE
TAS1,"2007/07/01 00:00:00",1186.71,130.05,TRADE
