REGION,SETTLEMENTDATE,TOTALDEMAND,RRP,PERIODTYPE
VIC1,"2003/08/01 00:30",5898.595,21.73,TRADE
VIC1,"2003/08/01 01:00",5813.39167,21.06,TRADE
VIC1,"2003/08/01 01:30",6151.48,22.49,TRADE
VIC1,"2003/08/01 02:00",6025.69833,21.89,TRADE
VIC1,"2003/08/01 02:30",5813.70667,20.08,TRADE
VIC1,"2003/08/01 03:00",5658.87167,18.33,TRADE
VIC1,"2003/08/01 03:30",5470.36,16.35,TRADE
VIC1,"2003/08/01 04:00",5347.595,15.01,TRADE
VIC1,"2003/08/01 04:30",5268.465,8.44,TRADE
VIC1,"2003/08/01 05:00",5229.10833,8.11,TRADE
VIC1,"2003/08/01 05:30",5249.06,10.26,TRADE
VIC1,"2003/08/01 06:00",5416.37,15.49,TRADE
VIC1,"2003/08/01 06:30",5825.96833,19.67,TRADE
VIC1,"2003/08/01 07:00",6260.37,22.96,TRADE
VIC1,"2003/08/01 07:30",6493.13333,36.75,TRADE
VIC1,"2003/08/01 08:00",6838.755,68.67,TRADE
VIC1,"2003/08/01 08:30",7039.74667,44.85,TRADE
VIC1,"2003/08/01 09:00",6971.56333,37.9,TRADE
VIC1,"2003/08/01 09:30",7009.46833,39.3,TRADE
VIC1,"2003/08/01 10:00",6938.92167,24.86,TRADE
VIC1,"2003/08/01 10:30",6822.70167,24.58,TRADE
VIC1,"2003/08/01 11:00",6719.19,24.33,TRADE
VIC1,"2003/08/01 11:30",6638.58,23.47,TRADE
VIC1,"2003/08/01 12:00",6588.01,23.37,TRADE
VIC1,"2003/08/01 12:30",6513.35667,22.26,TRADE
VIC1,"2003/08/01 13:00",6390.39667,20.52,TRADE
VIC1,"2003/08/01 13:30",6459.095,20.02,TRADE
VIC1,"2003/08/01 14:00",6400.26,19.68,TRADE
VIC1,"2003/08/01 14:30",6378.08667,18.38,TRADE
VIC1,"2003/08/01 15:00",6240.07,16.35,TRADE
VIC1,"2003/08/01 15:30",6165.105,14.45,TRADE
VIC1,"2003/08/01 16:00",6162.71667,14.46,TRADE
VIC1,"2003/08/01 16:30",6122.02167,16.48,TRADE
VIC1,"2003/08/01 17:00",6198.91167,17.65,TRADE
VIC1,"2003/08/01 17:30",6363.93667,21.86,TRADE
VIC1,"2003/08/01 18:00",6724.74833,38.04,TRADE
VIC1,"2003/08/01 18:30",6913.81333,41.59,TRADE
VIC1,"2003/08/01 19:00",6813.00167,49.86,TRADE
VIC1,"2003/08/01 19:30",6704.64167,37.1,TRADE
VIC1,"2003/08/01 20:00",6572.48167,29.02,TRADE
VIC1,"2003/08/01 20:30",6440.67667,38.64,TRADE
VIC1,"2003/08/01 21:00",6264.93167,26.9,TRADE
VIC1,"2003/08/01 21:30",6113.655,25.1,TRADE
VIC1,"2003/08/01 22:00",5909.3,23.89,TRADE
VIC1,"2003/08/01 22:30",5770.63333,24.42,TRADE
VIC1,"2003/08/01 23:00",5656.55,23.32,TRADE
VIC1,"2003/08/01 23:30",6059.66167,26.68,TRADE
VIC1,"2003/08/02 00:00",5863.98333,25.32,TRADE
VIC1,"2003/08/02 00:30",5730.97,23.47,TRADE
VIC1,"2003/08/02 01:00",5580.89,22.96,TRADE
VIC1,"2003/08/02 01:30",5911.23667,24.05,TRADE
VIC1,"2003/08/02 02:00",5760.4,23.06,TRADE
VIC1,"2003/08/02 02:30",5557.3,21.01,TRADE
VIC1,"2003/08/02 03:00",5377.53333,19.33,TRADE
VIC1,"2003/08/02 03:30",5227.19333,17.69,TRADE
VIC1,"2003/08/02 04:00",5055.16333,16.46,TRADE
VIC1,"2003/08/02 04:30",4963.17667,15.81,TRADE
VIC1,"2003/08/02 05:00",4899.225,15.64,TRADE
VIC1,"2003/08/02 05:30",4856.39333,15.53,TRADE
VIC1,"2003/08/02 06:00",4900.12667,15.71,TRADE
VIC1,"2003/08/02 06:30",4995.76,15.75,TRADE
VIC1,"2003/08/02 07:00",5103.16333,17.21,TRADE
VIC1,"2003/08/02 07:30",5087.00333,18.77,TRADE
VIC1,"2003/08/02 08:00",5250.11833,21.95,TRADE
VIC1,"2003/08/02 08:30",5446.96,22.44,TRADE
VIC1,"2003/08/02 09:00",5609.04,23.51,TRADE
VIC1,"2003/08/02 09:30",5734.86,24.92,TRADE
VIC1,"2003/08/02 10:00",5693.50167,23.39,TRADE
VIC1,"2003/08/02 10:30",5651.3,22.66,TRADE
VIC1,"2003/08/02 11:00",5517.21333,22.31,TRADE
VIC1,"2003/08/02 11:30",5454.42667,22.22,TRADE
VIC1,"2003/08/02 12:00",5405.06667,21.28,TRADE
VIC1,"2003/08/02 12:30",5300.775,17.93,TRADE
VIC1,"2003/08/02 13:00",5261.6,16.94,TRADE
VIC1,"2003/08/02 13:30",5314.03333,16.18,TRADE
VIC1,"2003/08/02 14:00",5258.655,14.99,TRADE
VIC1,"2003/08/02 14:30",5207.05667,14.5,TRADE
VIC1,"2003/08/02 15:00",5161.95333,14.14,TRADE
VIC1,"2003/08/02 15:30",5110.89167,12.52,TRADE
VIC1,"2003/08/02 16:00",5124.69667,13.23,TRADE
VIC1,"2003/08/02 16:30",5084.05667,14.88,TRADE
VIC1,"2003/08/02 17:00",5218.54833,18.16,TRADE
VIC1,"2003/08/02 17:30",5425.04333,20.33,TRADE
VIC1,"2003/08/02 18:00",5797.05833,33.24,TRADE
VIC1,"2003/08/02 18:30",6136.35,81.71,TRADE
VIC1,"2003/08/02 19:00",6079.35667,54.1,TRADE
VIC1,"2003/08/02 19:30",5977.80833,26.23,TRADE
VIC1,"2003/08/02 20:00",5814.74333,23.93,TRADE
VIC1,"2003/08/02 20:30",5716.71667,24.12,TRADE
VIC1,"2003/08/02 21:00",5578.88667,23.37,TRADE
VIC1,"2003/08/02 21:30",5545.36167,22.9,TRADE
VIC1,"2003/08/02 22:00",5392.17333,22.37,TRADE
VIC1,"2003/08/02 22:30",5310.26667,22.06,TRADE
VIC1,"2003/08/02 23:00",5268.84167,21.58,TRADE
VIC1,"2003/08/02 23:30",5556.29167,22.47,TRADE
VIC1,"2003/08/03 00:00",5511.15167,21.45,TRADE
VIC1,"2003/08/03 00:30",5469.065,17.94,TRADE
VIC1,"2003/08/03 01:00",5348.41667,17.33,TRADE
VIC1,"2003/08/03 01:30",5692.29833,18.36,TRADE
VIC1,"2003/08/03 02:00",5523.03167,16.31,TRADE
VIC1,"2003/08/03 02:30",5312.01833,14.39,TRADE
VIC1,"2003/08/03 03:00",5165.975,13.52,TRADE
VIC1,"2003/08/03 03:30",5015.155,12.09,TRADE
VIC1,"2003/08/03 04:00",4881.52667,10.78,TRADE
VIC1,"2003/08/03 04:30",4785.78833,7.69,TRADE
VIC1,"2003/08/03 05:00",4680.205,7.29,TRADE
VIC1,"2003/08/03 05:30",4642.69333,7.14,TRADE
VIC1,"2003/08/03 06:00",4633.43667,9.4,TRADE
VIC1,"2003/08/03 06:30",4700.22833,11.23,TRADE
VIC1,"2003/08/03 07:00",4711.20333,12.32,TRADE
VIC1,"2003/08/03 07:30",4619.44,12.55,TRADE
VIC1,"2003/08/03 08:00",4697.26,15.61,TRADE
VIC1,"2003/08/03 08:30",4872.69333,17.14,TRADE
VIC1,"2003/08/03 09:00",5021.065,18.14,TRADE
VIC1,"2003/08/03 09:30",5091.42667,19.05,TRADE
VIC1,"2003/08/03 10:00",5118.66333,18.78,TRADE
VIC1,"2003/08/03 10:30",5092.32,17.34,TRADE
VIC1,"2003/08/03 11:00",5091.92667,15.52,TRADE
VIC1,"2003/08/03 11:30",5057.37,14.6,TRADE
VIC1,"2003/08/03 12:00",5018.26333,13.51,TRADE
VIC1,"2003/08/03 12:30",5032.96167,13.12,TRADE
VIC1,"2003/08/03 13:00",5008.48667,12.42,TRADE
VIC1,"2003/08/03 13:30",5074.76333,11.95,TRADE
VIC1,"2003/08/03 14:00",4992.4,9.78,TRADE
VIC1,"2003/08/03 14:30",4953.98167,9.1,TRADE
VIC1,"2003/08/03 15:00",4801.47,6.93,TRADE
VIC1,"2003/08/03 15:30",4893.99167,8.38,TRADE
VIC1,"2003/08/03 16:00",4958.50167,9.15,TRADE
VIC1,"2003/08/03 16:30",5019.91333,10.37,TRADE
VIC1,"2003/08/03 17:00",5180.98833,13.6,TRADE
VIC1,"2003/08/03 17:30",5473.54667,17.69,TRADE
VIC1,"2003/08/03 18:00",5903.13333,30.47,TRADE
VIC1,"2003/08/03 18:30",6202.25833,40.3,TRADE
VIC1,"2003/08/03 19:00",6121.54,39.99,TRADE
VIC1,"2003/08/03 19:30",5986.60167,21.65,TRADE
VIC1,"2003/08/03 20:00",5934.85,22.22,TRADE
VIC1,"2003/08/03 20:30",5800.42167,21.39,TRADE
VIC1,"2003/08/03 21:00",5755.615,20.05,TRADE
VIC1,"2003/08/03 21:30",5584.93833,19.33,TRADE
VIC1,"2003/08/03 22:00",5461.87667,18.96,TRADE
VIC1,"2003/08/03 22:30",5342.48333,17.71,TRADE
VIC1,"2003/08/03 23:00",5199.88333,14.54,TRADE
VIC1,"2003/08/03 23:30",5484.98833,16.29,TRADE
VIC1,"2003/08/04 00:00",5358.21833,13.63,TRADE
VIC1,"2003/08/04 00:30",5311.91167,13.91,TRADE
VIC1,"2003/08/04 01:00",5200.91333,13.6,TRADE
VIC1,"2003/08/04 01:30",5593.27333,15.52,TRADE
VIC1,"2003/08/04 02:00",5451.88667,13.95,TRADE
VIC1,"2003/08/04 02:30",5330.305,13.21,TRADE
VIC1,"2003/08/04 03:00",5158.395,11.92,TRADE
VIC1,"2003/08/04 03:30",5007.885,7.61,TRADE
VIC1,"2003/08/04 04:00",4902.37667,7.53,TRADE
VIC1,"2003/08/04 04:30",4804.40833,7.53,TRADE
VIC1,"2003/08/04 05:00",4790.44333,7.54,TRADE
VIC1,"2003/08/04 05:30",4854.67333,7.55,TRADE
VIC1,"2003/08/04 06:00",5005.04333,9.47,TRADE
VIC1,"2003/08/04 06:30",5374.37333,14.2,TRADE
VIC1,"2003/08/04 07:00",5787.91,18.79,TRADE
VIC1,"2003/08/04 07:30",6099.42667,21.32,TRADE
VIC1,"2003/08/04 08:00",6341.70833,22.94,TRADE
VIC1,"2003/08/04 08:30",6472.41667,23.74,TRADE
VIC1,"2003/08/04 09:00",6469.65167,23.45,TRADE
VIC1,"2003/08/04 09:30",6534.47667,23.61,TRADE
VIC1,"2003/08/04 10:00",6539.41833,23.38,TRADE
VIC1,"2003/08/04 10:30",6541.235,23.04,TRADE
VIC1,"2003/08/04 11:00",6544.42667,21.75,TRADE
VIC1,"2003/08/04 11:30",6510.25667,19.26,TRADE
VIC1,"2003/08/04 12:00",6507.435,19.73,TRADE
VIC1,"2003/08/04 12:30",6441.02833,20.35,TRADE
VIC1,"2003/08/04 13:00",6429.35,19.62,TRADE
VIC1,"2003/08/04 13:30",6544.485,20.07,TRADE
VIC1,"2003/08/04 14:00",6447.78333,18.02,TRADE
VIC1,"2003/08/04 14:30",6450.84167,19.43,TRADE
VIC1,"2003/08/04 15:00",6385.47333,17.24,TRADE
VIC1,"2003/08/04 15:30",6292.59833,14.34,TRADE
VIC1,"2003/08/04 16:00",6228.775,14.65,TRADE
VIC1,"2003/08/04 16:30",6217.32,15.27,TRADE
VIC1,"2003/08/04 17:00",6322.34,17.43,TRADE
VIC1,"2003/08/04 17:30",6564.3,20.52,TRADE
VIC1,"2003/08/04 18:00",6934.275,34.91,TRADE
VIC1,"2003/08/04 18:30",6939.61667,27.39,TRADE
VIC1,"2003/08/04 19:00",6788.19833,24.26,TRADE
VIC1,"2003/08/04 19:30",6614.31167,23.63,TRADE
VIC1,"2003/08/04 20:00",6479.60667,23.26,TRADE
VIC1,"2003/08/04 20:30",6361.62667,23.25,TRADE
VIC1,"2003/08/04 21:00",6210.75333,22.53,TRADE
VIC1,"2003/08/04 21:30",6020.355,20.34,TRADE
VIC1,"2003/08/04 22:00",5840.30333,16.13,TRADE
VIC1,"2003/08/04 22:30",5613.93,16.61,TRADE
VIC1,"2003/08/04 23:00",5455.31167,13.8,TRADE
VIC1,"2003/08/04 23:30",5729.91167,16.57,TRADE
VIC1,"2003/08/05 00:00",5635.18167,14.84,TRADE
VIC1,"2003/08/05 00:30",5488.23333,14.88,TRADE
VIC1,"2003/08/05 01:00",5379.65833,14.96,TRADE
VIC1,"2003/08/05 01:30",5731.89833,16.06,TRADE
VIC1,"2003/08/05 02:00",5580.17,14.28,TRADE
VIC1,"2003/08/05 02:30",5431.76333,9.16,TRADE
VIC1,"2003/08/05 03:00",5237.88167,7.53,TRADE
VIC1,"2003/08/05 03:30",5042.96333,6.27,TRADE
VIC1,"2003/08/05 04:00",4890.02667,4.32,TRADE
VIC1,"2003/08/05 04:30",4812.94,4.3,TRADE
VIC1,"2003/08/05 05:00",4747.51333,4.29,TRADE
VIC1,"2003/08/05 05:30",4838.12167,4.32,TRADE
VIC1,"2003/08/05 06:00",4967.50667,4.78,TRADE
VIC1,"2003/08/05 06:30",5338.43667,8.03,TRADE
VIC1,"2003/08/05 07:00",5827.065,15.37,TRADE
VIC1,"2003/08/05 07:30",6092.43833,17.96,TRADE
VIC1,"2003/08/05 08:00",6331.84,20.03,TRADE
VIC1,"2003/08/05 08:30",6425.31333,20.36,TRADE
VIC1,"2003/08/05 09:00",6391.42833,20.34,TRADE
VIC1,"2003/08/05 09:30",6482.145,20.18,TRADE
VIC1,"2003/08/05 10:00",6435.66333,17.5,TRADE
VIC1,"2003/08/05 10:30",6408.36167,18.17,TRADE
VIC1,"2003/08/05 11:00",6346.94,16.27,TRADE
VIC1,"2003/08/05 11:30",6299.72167,14.64,TRADE
VIC1,"2003/08/05 12:00",6275.16,14.8,TRADE
VIC1,"2003/08/05 12:30",6265.22167,14.86,TRADE
VIC1,"2003/08/05 13:00",6270.415,14.71,TRADE
VIC1,"2003/08/05 13:30",6329.73833,16.07,TRADE
VIC1,"2003/08/05 14:00",6311.405,15.35,TRADE
VIC1,"2003/08/05 14:30",6191.495,14.74,TRADE
VIC1,"2003/08/05 15:00",6206.185,14.21,TRADE
VIC1,"2003/08/05 15:30",6119.595,13.27,TRADE
VIC1,"2003/08/05 16:00",6149.14167,14.01,TRADE
VIC1,"2003/08/05 16:30",6209.64333,14.17,TRADE
VIC1,"2003/08/05 17:00",6286.99167,15.75,TRADE
VIC1,"2003/08/05 17:30",6400.55667,18.07,TRADE
VIC1,"2003/08/05 18:00",6691.96,20.92,TRADE
VIC1,"2003/08/05 18:30",6826.14333,23.38,TRADE
VIC1,"2003/08/05 19:00",6697.72,23.08,TRADE
VIC1,"2003/08/05 19:30",6590.43333,20.72,TRADE
VIC1,"2003/08/05 20:00",6468.735,18.01,TRADE
VIC1,"2003/08/05 20:30",6344.44167,18.63,TRADE
VIC1,"2003/08/05 21:00",6223.285,17.7,TRADE
VIC1,"2003/08/05 21:30",6019.75167,17.23,TRADE
VIC1,"2003/08/05 22:00",5868.735,14.96,TRADE
VIC1,"2003/08/05 22:30",5647.49333,16.05,TRADE
VIC1,"2003/08/05 23:00",5464.37833,16.15,TRADE
VIC1,"2003/08/05 23:30",5720.83333,18.92,TRADE
VIC1,"2003/08/06 00:00",5646.735,17.06,TRADE
VIC1,"2003/08/06 00:30",5579.20333,17.55,TRADE
VIC1,"2003/08/06 01:00",5470.60667,17.4,TRADE
VIC1,"2003/08/06 01:30",5866.33833,19.3,TRADE
VIC1,"2003/08/06 02:00",5651.55333,17.75,TRADE
VIC1,"2003/08/06 02:30",5502.11667,16.29,TRADE
VIC1,"2003/08/06 03:00",5295.54833,15.38,TRADE
VIC1,"2003/08/06 03:30",5198.015,13,TRADE
VIC1,"2003/08/06 04:00",5039.40167,12.06,TRADE
VIC1,"2003/08/06 04:30",4969.895,11.71,TRADE
VIC1,"2003/08/06 05:00",4899.58667,11.87,TRADE
VIC1,"2003/08/06 05:30",4941.605,14.35,TRADE
VIC1,"2003/08/06 06:00",5106.47833,15.18,TRADE
VIC1,"2003/08/06 06:30",5494.09833,18.52,TRADE
VIC1,"2003/08/06 07:00",5873.11,20.94,TRADE
VIC1,"2003/08/06 07:30",6092.07333,22.55,TRADE
VIC1,"2003/08/06 08:00",6392.51333,24.58,TRADE
VIC1,"2003/08/06 08:30",6514.475,24.57,TRADE
VIC1,"2003/08/06 09:00",6531.06833,23.69,TRADE
VIC1,"2003/08/06 09:30",6605.85167,23.36,TRADE
VIC1,"2003/08/06 10:00",6531.77833,23.79,TRADE
VIC1,"2003/08/06 10:30",6226.825,22.72,TRADE
VIC1,"2003/08/06 11:00",6264.44833,22.71,TRADE
VIC1,"2003/08/06 11:30",6440.97167,22.31,TRADE
VIC1,"2003/08/06 12:00",6388.46333,22.02,TRADE
VIC1,"2003/08/06 12:30",6350.97833,21.22,TRADE
VIC1,"2003/08/06 13:00",6352.54,21.47,TRADE
VIC1,"2003/08/06 13:30",6485.06333,22.06,TRADE
VIC1,"2003/08/06 14:00",6460.495,22.16,TRADE
VIC1,"2003/08/06 14:30",6402.85167,22.29,TRADE
VIC1,"2003/08/06 15:00",6304.7,22.35,TRADE
VIC1,"2003/08/06 15:30",6186.01,19.77,TRADE
VIC1,"2003/08/06 16:00",6181.42833,19.96,TRADE
VIC1,"2003/08/06 16:30",6169.19667,19.2,TRADE
VIC1,"2003/08/06 17:00",6203.45167,20.24,TRADE
VIC1,"2003/08/06 17:30",6390.60167,21.17,TRADE
VIC1,"2003/08/06 18:00",6738.885,36.03,TRADE
VIC1,"2003/08/06 18:30",6920.78,40.86,TRADE
VIC1,"2003/08/06 19:00",6826.56333,38.64,TRADE
VIC1,"2003/08/06 19:30",6650.73167,22.29,TRADE
VIC1,"2003/08/06 20:00",6493.13167,23.29,TRADE
VIC1,"2003/08/06 20:30",6385.30167,26.54,TRADE
VIC1,"2003/08/06 21:00",6255.65833,25.22,TRADE
VIC1,"2003/08/06 21:30",6080.60667,23.19,TRADE
VIC1,"2003/08/06 22:00",5907.34667,21.75,TRADE
VIC1,"2003/08/06 22:30",5691.22833,21.27,TRADE
VIC1,"2003/08/06 23:00",5499.27167,19.4,TRADE
VIC1,"2003/08/06 23:30",5768.67667,21.04,TRADE
VIC1,"2003/08/07 00:00",5666.16167,19.91,TRADE
VIC1,"2003/08/07 00:30",5565.57833,18.59,TRADE
VIC1,"2003/08/07 01:00",5444.83333,18.14,TRADE
VIC1,"2003/08/07 01:30",5781.725,20.75,TRADE
VIC1,"2003/08/07 02:00",5681.57833,20.43,TRADE
VIC1,"2003/08/07 02:30",5473.15667,17.63,TRADE
VIC1,"2003/08/07 03:00",5298.175,16.88,TRADE
VIC1,"2003/08/07 03:30",5122.125,14.77,TRADE
VIC1,"2003/08/07 04:00",5023.83167,12.9,TRADE
VIC1,"2003/08/07 04:30",4965.05,12.52,TRADE
VIC1,"2003/08/07 05:00",4958.84333,13.03,TRADE
VIC1,"2003/08/07 05:30",5002.635,15.29,TRADE
VIC1,"2003/08/07 06:00",5103.99667,15.92,TRADE
VIC1,"2003/08/07 06:30",5517.92333,18.92,TRADE
VIC1,"2003/08/07 07:00",5900.74333,21.66,TRADE
VIC1,"2003/08/07 07:30",6250.03,22.2,TRADE
VIC1,"2003/08/07 08:00",6540.14833,23.17,TRADE
VIC1,"2003/08/07 08:30",6610.96833,23.29,TRADE
VIC1,"2003/08/07 09:00",6584.07833,22.25,TRADE
VIC1,"2003/08/07 09:30",6586.645,21.77,TRADE
VIC1,"2003/08/07 10:00",6512.3,18.12,TRADE
VIC1,"2003/08/07 10:30",6343.14833,15.38,TRADE
VIC1,"2003/08/07 11:00",6343.94833,16.13,TRADE
VIC1,"2003/08/07 11:30",6374.13,17.13,TRADE
VIC1,"2003/08/07 12:00",6317.355,15,TRADE
VIC1,"2003/08/07 12:30",6286.8,15.47,TRADE
VIC1,"2003/08/07 13:00",6274.305,15,TRADE
VIC1,"2003/08/07 13:30",6361.01,15.37,TRADE
VIC1,"2003/08/07 14:00",6353.93,15.02,TRADE
VIC1,"2003/08/07 14:30",6314.44167,14.86,TRADE
VIC1,"2003/08/07 15:00",6297.21167,15.5,TRADE
VIC1,"2003/08/07 15:30",6244.97667,15.62,TRADE
VIC1,"2003/08/07 16:00",6225.485,14.54,TRADE
VIC1,"2003/08/07 16:30",6288.14667,15.91,TRADE
VIC1,"2003/08/07 17:00",6366.96333,16.93,TRADE
VIC1,"2003/08/07 17:30",6580.97833,19.6,TRADE
VIC1,"2003/08/07 18:00",6803.39,29.3,TRADE
VIC1,"2003/08/07 18:30",6955.82833,37.37,TRADE
VIC1,"2003/08/07 19:00",6846.26667,34.17,TRADE
VIC1,"2003/08/07 19:30",6692.63667,22.84,TRADE
VIC1,"2003/08/07 20:00",6621.05333,23.2,TRADE
VIC1,"2003/08/07 20:30",6490.79167,22.86,TRADE
VIC1,"2003/08/07 21:00",6389.94167,22.73,TRADE
VIC1,"2003/08/07 21:30",6215.325,22.21,TRADE
VIC1,"2003/08/07 22:00",5936.73167,18.23,TRADE
VIC1,"2003/08/07 22:30",5724.89,18.96,TRADE
VIC1,"2003/08/07 23:00",5545.3,16.5,TRADE
VIC1,"2003/08/07 23:30",5862.93,18.87,TRADE
VIC1,"2003/08/08 00:00",5718.48667,16.92,TRADE
VIC1,"2003/08/08 00:30",5628.40833,16.63,TRADE
VIC1,"2003/08/08 01:00",5499.97,16.23,TRADE
VIC1,"2003/08/08 01:30",5862.75833,18.19,TRADE
VIC1,"2003/08/08 02:00",5733.67333,16.3,TRADE
VIC1,"2003/08/08 02:30",5545.67167,15.95,TRADE
VIC1,"2003/08/08 03:00",5372.84833,15.25,TRADE
VIC1,"2003/08/08 03:30",5192.24167,11.32,TRADE
VIC1,"2003/08/08 04:00",5073.10333,7.74,TRADE
VIC1,"2003/08/08 04:30",5007.66667,7.52,TRADE
VIC1,"2003/08/08 05:00",4971.50167,6.24,TRADE
VIC1,"2003/08/08 05:30",5051.96667,7.52,TRADE
VIC1,"2003/08/08 06:00",5217.31333,11.76,TRADE
VIC1,"2003/08/08 06:30",5591.215,16.06,TRADE
VIC1,"2003/08/08 07:00",6001.34833,17.84,TRADE
VIC1,"2003/08/08 07:30",6175.79833,20,TRADE
VIC1,"2003/08/08 08:00",6489.675,22.06,TRADE
VIC1,"2003/08/08 08:30",6521.86167,21.46,TRADE
VIC1,"2003/08/08 09:00",6528.42167,21.41,TRADE
VIC1,"2003/08/08 09:30",6538.01667,22.17,TRADE
VIC1,"2003/08/08 10:00",6451.23333,21.84,TRADE
VIC1,"2003/08/08 10:30",6378.53,21.55,TRADE
VIC1,"2003/08/08 11:00",6324.53167,21.41,TRADE
VIC1,"2003/08/08 11:30",6247.26667,21.05,TRADE
VIC1,"2003/08/08 12:00",6198.03333,18.8,TRADE
VIC1,"2003/08/08 12:30",6173.01833,18.6,TRADE
VIC1,"2003/08/08 13:00",6150.37333,18.76,TRADE
VIC1,"2003/08/08 13:30",6205.68,19.56,TRADE
VIC1,"2003/08/08 14:00",6183.015,18.58,TRADE
VIC1,"2003/08/08 14:30",6107.04,17.93,TRADE
VIC1,"2003/08/08 15:00",6080.3,13.45,TRADE
VIC1,"2003/08/08 15:30",6060.15167,13.39,TRADE
VIC1,"2003/08/08 16:00",6047.85,13.62,TRADE
VIC1,"2003/08/08 16:30",6089.505,14.64,TRADE
VIC1,"2003/08/08 17:00",6235.76667,16.43,TRADE
VIC1,"2003/08/08 17:30",6468.52167,18.83,TRADE
VIC1,"2003/08/08 18:00",6725.88833,21.49,TRADE
VIC1,"2003/08/08 18:30",6754.45167,30.4,TRADE
VIC1,"2003/08/08 19:00",6659.37667,24.79,TRADE
VIC1,"2003/08/08 19:30",6494.75833,20.73,TRADE
VIC1,"2003/08/08 20:00",6360.69167,20.37,TRADE
VIC1,"2003/08/08 20:30",6249.85167,20.48,TRADE
VIC1,"2003/08/08 21:00",6140.37167,20.28,TRADE
VIC1,"2003/08/08 21:30",5948.65,20.12,TRADE
VIC1,"2003/08/08 22:00",5804.21667,19.52,TRADE
VIC1,"2003/08/08 22:30",5665.49833,19.81,TRADE
VIC1,"2003/08/08 23:00",5577.85667,19.69,TRADE
VIC1,"2003/08/08 23:30",5932.39833,20.72,TRADE
VIC1,"2003/08/09 00:00",5785.605,20.3,TRADE
VIC1,"2003/08/09 00:30",5665.90833,20.52,TRADE
VIC1,"2003/08/09 01:00",5526.04167,19.27,TRADE
VIC1,"2003/08/09 01:30",5786.01167,19.29,TRADE
VIC1,"2003/08/09 02:00",5619.26333,17.41,TRADE
VIC1,"2003/08/09 02:30",5415.68833,16.75,TRADE
VIC1,"2003/08/09 03:00",5252.53333,16.38,TRADE
VIC1,"2003/08/09 03:30",5089.47833,15.66,TRADE
VIC1,"2003/08/09 04:00",4925.37167,13.05,TRADE
VIC1,"2003/08/09 04:30",4835.57167,12.54,TRADE
VIC1,"2003/08/09 05:00",4739.15833,11.9,TRADE
VIC1,"2003/08/09 05:30",4753.93167,12.09,TRADE
VIC1,"2003/08/09 06:00",4829.12833,13.04,TRADE
VIC1,"2003/08/09 06:30",4972.48,13.46,TRADE
VIC1,"2003/08/09 07:00",5102.75833,14.11,TRADE
VIC1,"2003/08/09 07:30",5060.28833,14.72,TRADE
VIC1,"2003/08/09 08:00",5231.63333,16.5,TRADE
VIC1,"2003/08/09 08:30",5462.515,17.97,TRADE
VIC1,"2003/08/09 09:00",5644.61333,19.96,TRADE
VIC1,"2003/08/09 09:30",5749.38833,20.36,TRADE
VIC1,"2003/08/09 10:00",5782.33167,20.32,TRADE
VIC1,"2003/08/09 10:30",5766.4,20.12,TRADE
VIC1,"2003/08/09 11:00",5737.715,19.72,TRADE
VIC1,"2003/08/09 11:30",5651.19,17.85,TRADE
VIC1,"2003/08/09 12:00",5616.18833,17.58,TRADE
VIC1,"2003/08/09 12:30",5548.84833,17.3,TRADE
VIC1,"2003/08/09 13:00",5518.875,17.2,TRADE
VIC1,"2003/08/09 13:30",5622.17167,17.46,TRADE
VIC1,"2003/08/09 14:00",5595.32,17.38,TRADE
VIC1,"2003/08/09 14:30",5528.36167,17.24,TRADE
VIC1,"2003/08/09 15:00",5495.155,17.22,TRADE
VIC1,"2003/08/09 15:30",5446.41333,16.65,TRADE
VIC1,"2003/08/09 16:00",5418.94,16.55,TRADE
VIC1,"2003/08/09 16:30",5400.05333,16.6,TRADE
VIC1,"2003/08/09 17:00",5483.28667,17.58,TRADE
VIC1,"2003/08/09 17:30",5654.89167,19.33,TRADE
VIC1,"2003/08/09 18:00",6026.75,50.16,TRADE
VIC1,"2003/08/09 18:30",6339.56,85.38,TRADE
VIC1,"2003/08/09 19:00",6310.51667,70.8,TRADE
VIC1,"2003/08/09 19:30",6139.09333,29.23,TRADE
VIC1,"2003/08/09 20:00",6007.48833,23.89,TRADE
VIC1,"2003/08/09 20:30",5924.16333,23.65,TRADE
VIC1,"2003/08/09 21:00",5820.66333,22.55,TRADE
VIC1,"2003/08/09 21:30",5723.10667,20.86,TRADE
VIC1,"2003/08/09 22:00",5631.30333,19.87,TRADE
VIC1,"2003/08/09 22:30",5523.58833,19.73,TRADE
VIC1,"2003/08/09 23:00",5475.89333,18.95,TRADE
VIC1,"2003/08/09 23:30",5714.705,19.67,TRADE
VIC1,"2003/08/10 00:00",5664.58833,18.6,TRADE
VIC1,"2003/08/10 00:30",5636.49,18.03,TRADE
VIC1,"2003/08/10 01:00",5526.485,17.89,TRADE
VIC1,"2003/08/10 01:30",5876.44167,18.4,TRADE
VIC1,"2003/08/10 02:00",5739.87333,17.14,TRADE
VIC1,"2003/08/10 02:30",5517.52167,15.5,TRADE
VIC1,"2003/08/10 03:00",5349.52167,14.44,TRADE
VIC1,"2003/08/10 03:30",5211.185,12.84,TRADE
VIC1,"2003/08/10 04:00",5029.25,11.67,TRADE
VIC1,"2003/08/10 04:30",4942.11333,11.16,TRADE
VIC1,"2003/08/10 05:00",4787.31,10.27,TRADE
VIC1,"2003/08/10 05:30",4807.13667,11.09,TRADE
VIC1,"2003/08/10 06:00",4783.175,11.58,TRADE
VIC1,"2003/08/10 06:30",4829.64833,11.49,TRADE
VIC1,"2003/08/10 07:00",4872.29333,11.91,TRADE
VIC1,"2003/08/10 07:30",4721.28333,12.15,TRADE
VIC1,"2003/08/10 08:00",4838.165,13.65,TRADE
VIC1,"2003/08/10 08:30",5080.26167,15.51,TRADE
VIC1,"2003/08/10 09:00",5226.27833,16.48,TRADE
VIC1,"2003/08/10 09:30",5357.00667,17.41,TRADE
VIC1,"2003/08/10 10:00",5361.57667,17.56,TRADE
VIC1,"2003/08/10 10:30",5385.37667,17.57,TRADE
VIC1,"2003/08/10 11:00",5324.97,17.43,TRADE
VIC1,"2003/08/10 11:30",5260.49167,17.25,TRADE
VIC1,"2003/08/10 12:00",5178.86833,16.97,TRADE
VIC1,"2003/08/10 12:30",5180.75667,16.8,TRADE
VIC1,"2003/08/10 13:00",5144.105,16.29,TRADE
VIC1,"2003/08/10 13:30",5203.77,15.44,TRADE
VIC1,"2003/08/10 14:00",5168.585,14.8,TRADE
VIC1,"2003/08/10 14:30",5100.695,14.14,TRADE
VIC1,"2003/08/10 15:00",5059.425,14.05,TRADE
VIC1,"2003/08/10 15:30",5161.66167,14.49,TRADE
VIC1,"2003/08/10 16:00",5143.68333,15.26,TRADE
VIC1,"2003/08/10 16:30",5170.09167,16.59,TRADE
VIC1,"2003/08/10 17:00",5353.68167,18.66,TRADE
VIC1,"2003/08/10 17:30",5620.35167,24.44,TRADE
VIC1,"2003/08/10 18:00",6113.60333,60.79,TRADE
VIC1,"2003/08/10 18:30",6352.89167,83.72,TRADE
VIC1,"2003/08/10 19:00",6274.63833,87.31,TRADE
VIC1,"2003/08/10 19:30",6127.03,41.09,TRADE
VIC1,"2003/08/10 20:00",6078.66,25.41,TRADE
VIC1,"2003/08/10 20:30",5980.845,26.16,TRADE
VIC1,"2003/08/10 21:00",5843.36833,24.35,TRADE
VIC1,"2003/08/10 21:30",5734.56333,23.43,TRADE
VIC1,"2003/08/10 22:00",5544.33833,20.19,TRADE
VIC1,"2003/08/10 22:30",5381.315,17.96,TRADE
VIC1,"2003/08/10 23:00",5237.79833,17.33,TRADE
VIC1,"2003/08/10 23:30",5512.01167,17.8,TRADE
VIC1,"2003/08/11 00:00",5381.18333,16.39,TRADE
VIC1,"2003/08/11 00:30",5368.99167,15.19,TRADE
VIC1,"2003/08/11 01:00",5305.28833,15,TRADE
VIC1,"2003/08/11 01:30",5647.885,16.75,TRADE
VIC1,"2003/08/11 02:00",5532.46333,15.04,TRADE
VIC1,"2003/08/11 02:30",5392.20167,14.62,TRADE
VIC1,"2003/08/11 03:00",5229.93333,12.4,TRADE
VIC1,"2003/08/11 03:30",5113.15333,12.02,TRADE
VIC1,"2003/08/11 04:00",4986.28833,10.83,TRADE
VIC1,"2003/08/11 04:30",4894.91667,10.37,TRADE
VIC1,"2003/08/11 05:00",4858.12,10.79,TRADE
VIC1,"2003/08/11 05:30",4923.635,11.7,TRADE
VIC1,"2003/08/11 06:00",5104.50167,13,TRADE
VIC1,"2003/08/11 06:30",5469.92667,16.16,TRADE
VIC1,"2003/08/11 07:00",5870.995,18.86,TRADE
VIC1,"2003/08/11 07:30",6151.46,20.62,TRADE
VIC1,"2003/08/11 08:00",6467.39,24.94,TRADE
VIC1,"2003/08/11 08:30",6683.47667,27.47,TRADE
VIC1,"2003/08/11 09:00",6757.93667,28.22,TRADE
VIC1,"2003/08/11 09:30",6844.785,28.91,TRADE
VIC1,"2003/08/11 10:00",6868.285,28.3,TRADE
VIC1,"2003/08/11 10:30",6813.28667,32.24,TRADE
VIC1,"2003/08/11 11:00",6812.38667,32.53,TRADE
VIC1,"2003/08/11 11:30",6812.89167,37.75,TRADE
VIC1,"2003/08/11 12:00",6835.18667,49.27,TRADE
VIC1,"2003/08/11 12:30",6774.67667,46.09,TRADE
VIC1,"2003/08/11 13:00",6794.33667,43.03,TRADE
VIC1,"2003/08/11 13:30",6879.00333,44.01,TRADE
VIC1,"2003/08/11 14:00",6920.565,40.84,TRADE
VIC1,"2003/08/11 14:30",6913.715,33.63,TRADE
VIC1,"2003/08/11 15:00",6874.36,27.06,TRADE
VIC1,"2003/08/11 15:30",6799.58,26.02,TRADE
VIC1,"2003/08/11 16:00",6797.49333,25.71,TRADE
VIC1,"2003/08/11 16:30",6783.93,25.87,TRADE
VIC1,"2003/08/11 17:00",6870.94,28.82,TRADE
VIC1,"2003/08/11 17:30",7081.65167,52.75,TRADE
VIC1,"2003/08/11 18:00",7273.015,157.94,TRADE
VIC1,"2003/08/11 18:30",7203.96833,142.81,TRADE
VIC1,"2003/08/11 19:00",7008.755,58.76,TRADE
VIC1,"2003/08/11 19:30",6831.69833,35.23,TRADE
VIC1,"2003/08/11 20:00",6668.08667,25.57,TRADE
VIC1,"2003/08/11 20:30",6479.43667,29.63,TRADE
VIC1,"2003/08/11 21:00",6334.34,29.03,TRADE
VIC1,"2003/08/11 21:30",6172.02667,24.66,TRADE
VIC1,"2003/08/11 22:00",5934.87667,21.86,TRADE
VIC1,"2003/08/11 22:30",5745.64,22.99,TRADE
VIC1,"2003/08/11 23:00",5595.02667,19.26,TRADE
VIC1,"2003/08/11 23:30",5857.48333,21,TRADE
VIC1,"2003/08/12 00:00",5716.47333,19.33,TRADE
VIC1,"2003/08/12 00:30",5596.46333,17.88,TRADE
VIC1,"2003/08/12 01:00",5510.67167,17.64,TRADE
VIC1,"2003/08/12 01:30",5856.51833,18.13,TRADE
VIC1,"2003/08/12 02:00",5710.46667,17.39,TRADE
VIC1,"2003/08/12 02:30",5518.62333,16.3,TRADE
VIC1,"2003/08/12 03:00",5319.635,15.72,TRADE
VIC1,"2003/08/12 03:30",5168.205,14.05,TRADE
VIC1,"2003/08/12 04:00",5037.30333,12.16,TRADE
VIC1,"2003/08/12 04:30",4959.81833,11.85,TRADE
VIC1,"2003/08/12 05:00",4887.8,11.79,TRADE
VIC1,"2003/08/12 05:30",4983.02667,12.73,TRADE
VIC1,"2003/08/12 06:00",5116.88,13.88,TRADE
VIC1,"2003/08/12 06:30",5514.46167,16.33,TRADE
VIC1,"2003/08/12 07:00",5889.73833,19.52,TRADE
VIC1,"2003/08/12 07:30",6178.38667,23.89,TRADE
VIC1,"2003/08/12 08:00",6429.85167,26.28,TRADE
VIC1,"2003/08/12 08:30",6580.30333,26.67,TRADE
VIC1,"2003/08/12 09:00",6607.12833,25.14,TRADE
VIC1,"2003/08/12 09:30",6624.775,24.58,TRADE
VIC1,"2003/08/12 10:00",6547.44667,22.49,TRADE
VIC1,"2003/08/12 10:30",6467.87,22.25,TRADE
VIC1,"2003/08/12 11:00",6428.04667,22.32,TRADE
VIC1,"2003/08/12 11:30",6340.16667,19.65,TRADE
VIC1,"2003/08/12 12:00",6315.75167,19.31,TRADE
VIC1,"2003/08/12 12:30",6263.41,19.24,TRADE
VIC1,"2003/08/12 13:00",6248.08333,20.22,TRADE
VIC1,"2003/08/12 13:30",6295.22,21.76,TRADE
VIC1,"2003/08/12 14:00",6201.93667,20.66,TRADE
VIC1,"2003/08/12 14:30",6153.17333,21.24,TRADE
VIC1,"2003/08/12 15:00",6118.235,19.06,TRADE
VIC1,"2003/08/12 15:30",6075.67833,20.84,TRADE
VIC1,"2003/08/12 16:00",6048.815,18.51,TRADE
VIC1,"2003/08/12 16:30",6067.92667,18.6,TRADE
VIC1,"2003/08/12 17:00",6199.80333,19.08,TRADE
VIC1,"2003/08/12 17:30",6413.71167,22.81,TRADE
VIC1,"2003/08/12 18:00",6692.44333,35.68,TRADE
VIC1,"2003/08/12 18:30",6766.96833,40.05,TRADE
VIC1,"2003/08/12 19:00",6644.35167,27.58,TRADE
VIC1,"2003/08/12 19:30",6481.50667,21.36,TRADE
VIC1,"2003/08/12 20:00",6382.12,21.79,TRADE
VIC1,"2003/08/12 20:30",6257.52,22.32,TRADE
VIC1,"2003/08/12 21:00",6088.015,21.47,TRADE
VIC1,"2003/08/12 21:30",5922.49667,20.94,TRADE
VIC1,"2003/08/12 22:00",5811.28833,19.16,TRADE
VIC1,"2003/08/12 22:30",5637.62,19.59,TRADE
VIC1,"2003/08/12 23:00",5409.89833,17.58,TRADE
VIC1,"2003/08/12 23:30",5700.76667,18.84,TRADE
VIC1,"2003/08/13 00:00",5634.72667,18.03,TRADE
VIC1,"2003/08/13 00:30",5528.59667,17.82,TRADE
VIC1,"2003/08/13 01:00",5365.13167,17.43,TRADE
VIC1,"2003/08/13 01:30",5734.17,17.96,TRADE
VIC1,"2003/08/13 02:00",5551.28167,16.56,TRADE
VIC1,"2003/08/13 02:30",5372.13833,15.07,TRADE
VIC1,"2003/08/13 03:00",5164.285,14.49,TRADE
VIC1,"2003/08/13 03:30",5002.87167,12.73,TRADE
VIC1,"2003/08/13 04:00",4869.26333,11.79,TRADE
VIC1,"2003/08/13 04:30",4791.75833,11.08,TRADE
VIC1,"2003/08/13 05:00",4752.16833,11.01,TRADE
VIC1,"2003/08/13 05:30",4817.37167,11.54,TRADE
VIC1,"2003/08/13 06:00",5012.99,11.94,TRADE
VIC1,"2003/08/13 06:30",5372.125,13.77,TRADE
VIC1,"2003/08/13 07:00",5802.71333,16.35,TRADE
VIC1,"2003/08/13 07:30",6061.84167,17.38,TRADE
VIC1,"2003/08/13 08:00",6411.14167,20.11,TRADE
VIC1,"2003/08/13 08:30",6503.64667,21.74,TRADE
VIC1,"2003/08/13 09:00",6481.49667,21.89,TRADE
VIC1,"2003/08/13 09:30",6511.48667,21.78,TRADE
VIC1,"2003/08/13 10:00",6476.95667,21.65,TRADE
VIC1,"2003/08/13 10:30",6415.09333,21.62,TRADE
VIC1,"2003/08/13 11:00",6442.09833,21.92,TRADE
VIC1,"2003/08/13 11:30",6386.89,21.82,TRADE
VIC1,"2003/08/13 12:00",6353.52833,21.66,TRADE
VIC1,"2003/08/13 12:30",6324.67667,21.52,TRADE
VIC1,"2003/08/13 13:00",6306.585,21.9,TRADE
VIC1,"2003/08/13 13:30",6351.955,24.46,TRADE
VIC1,"2003/08/13 14:00",6380.135,24.58,TRADE
VIC1,"2003/08/13 14:30",6410.455,24.63,TRADE
VIC1,"2003/08/13 15:00",6362.75,24.3,TRADE
VIC1,"2003/08/13 15:30",6294.43167,21.03,TRADE
VIC1,"2003/08/13 16:00",6310.77333,21,TRADE
VIC1,"2003/08/13 16:30",6420.32333,21.22,TRADE
VIC1,"2003/08/13 17:00",6527.50667,22.04,TRADE
VIC1,"2003/08/13 17:30",6717.87,24.23,TRADE
VIC1,"2003/08/13 18:00",6903.355,38.33,TRADE
VIC1,"2003/08/13 18:30",6913.28,40.37,TRADE
VIC1,"2003/08/13 19:00",6727.24167,25.54,TRADE
VIC1,"2003/08/13 19:30",6528.02667,20.48,TRADE
VIC1,"2003/08/13 20:00",6402.65,18.72,TRADE
VIC1,"2003/08/13 20:30",6293.31667,20.49,TRADE
VIC1,"2003/08/13 21:00",6125.31333,19.88,TRADE
VIC1,"2003/08/13 21:30",5978.68167,18.28,TRADE
VIC1,"2003/08/13 22:00",5826.75,16.36,TRADE
VIC1,"2003/08/13 22:30",5640.95,17.68,TRADE
VIC1,"2003/08/13 23:00",5484.98,15.67,TRADE
VIC1,"2003/08/13 23:30",5752.21333,17.45,TRADE
VIC1,"2003/08/14 00:00",5650.89833,16.57,TRADE
VIC1,"2003/08/14 00:30",5580.75667,14.86,TRADE
VIC1,"2003/08/14 01:00",5411.09,13.87,TRADE
VIC1,"2003/08/14 01:30",5788.715,15.58,TRADE
VIC1,"2003/08/14 02:00",5646.515,13.62,TRADE
VIC1,"2003/08/14 02:30",5496.96167,12.47,TRADE
VIC1,"2003/08/14 03:00",5281.19167,11.92,TRADE
VIC1,"2003/08/14 03:30",5131.72667,10.17,TRADE
VIC1,"2003/08/14 04:00",4993.13,8.7,TRADE
VIC1,"2003/08/14 04:30",4941.49667,8.48,TRADE
VIC1,"2003/08/14 05:00",4904.67333,8.54,TRADE
VIC1,"2003/08/14 05:30",4975.01167,10.25,TRADE
VIC1,"2003/08/14 06:00",5174.355,11.19,TRADE
VIC1,"2003/08/14 06:30",5556.90167,13.4,TRADE
VIC1,"2003/08/14 07:00",6007.11,16.47,TRADE
VIC1,"2003/08/14 07:30",6212.08,18.22,TRADE
VIC1,"2003/08/14 08:00",6492.35167,20.03,TRADE
VIC1,"2003/08/14 08:30",6611.20167,19.47,TRADE
VIC1,"2003/08/14 09:00",6642.62833,19.53,TRADE
VIC1,"2003/08/14 09:30",6658.61667,19.78,TRADE
VIC1,"2003/08/14 10:00",6630.35,19.57,TRADE
VIC1,"2003/08/14 10:30",6538.885,19.38,TRADE
VIC1,"2003/08/14 11:00",6529.92333,19.34,TRADE
VIC1,"2003/08/14 11:30",6509.14167,19.26,TRADE
VIC1,"2003/08/14 12:00",6460.16,19.15,TRADE
VIC1,"2003/08/14 12:30",6460.66333,19.12,TRADE
VIC1,"2003/08/14 13:00",6439.81833,19.08,TRADE
VIC1,"2003/08/14 13:30",6559.855,20.04,TRADE
VIC1,"2003/08/14 14:00",6535.83,19.78,TRADE
VIC1,"2003/08/14 14:30",6491.51667,19.21,TRADE
VIC1,"2003/08/14 15:00",6425.76833,19.06,TRADE
VIC1,"2003/08/14 15:30",6388.21333,18.8,TRADE
VIC1,"2003/08/14 16:00",6372.75667,18.71,TRADE
VIC1,"2003/08/14 16:30",6391.26667,18.78,TRADE
VIC1,"2003/08/14 17:00",6449.13667,18.59,TRADE
VIC1,"2003/08/14 17:30",6555.37333,19.86,TRADE
VIC1,"2003/08/14 18:00",6837.91,35.14,TRADE
VIC1,"2003/08/14 18:30",7058.10333,46.84,TRADE
VIC1,"2003/08/14 19:00",7002.24167,47.53,TRADE
VIC1,"2003/08/14 19:30",6852.485,25.74,TRADE
VIC1,"2003/08/14 20:00",6768.87833,22.79,TRADE
VIC1,"2003/08/14 20:30",6640.81833,24.95,TRADE
VIC1,"2003/08/14 21:00",6501.43,23.57,TRADE
VIC1,"2003/08/14 21:30",6280.86833,21.08,TRADE
VIC1,"2003/08/14 22:00",6109.99333,18.65,TRADE
VIC1,"2003/08/14 22:30",5879.285,19.52,TRADE
VIC1,"2003/08/14 23:00",5699.61333,17.94,TRADE
VIC1,"2003/08/14 23:30",6035.80333,19.95,TRADE
VIC1,"2003/08/15 00:00",5903.89333,18.41,TRADE
VIC1,"2003/08/15 00:30",5842.62333,18.27,TRADE
VIC1,"2003/08/15 01:00",5693.60833,17.93,TRADE
VIC1,"2003/08/15 01:30",6076.92167,18.51,TRADE
VIC1,"2003/08/15 02:00",5861.73667,17.39,TRADE
VIC1,"2003/08/15 02:30",5681.01833,16.12,TRADE
VIC1,"2003/08/15 03:00",5512.01667,16.11,TRADE
VIC1,"2003/08/15 03:30",5337.99,12.6,TRADE
VIC1,"2003/08/15 04:00",5221.69833,11.45,TRADE
VIC1,"2003/08/15 04:30",5199.735,10.22,TRADE
VIC1,"2003/08/15 05:00",5151.98167,7.66,TRADE
VIC1,"2003/08/15 05:30",5264.32,11.87,TRADE
VIC1,"2003/08/15 06:00",5381.61333,12.96,TRADE
VIC1,"2003/08/15 06:30",5785.84,15.82,TRADE
VIC1,"2003/08/15 07:00",6213.855,18.68,TRADE
VIC1,"2003/08/15 07:30",6416.38167,20.6,TRADE
VIC1,"2003/08/15 08:00",6722.09167,24.26,TRADE
VIC1,"2003/08/15 08:30",6862.22667,25.26,TRADE
VIC1,"2003/08/15 09:00",6887.945,23.41,TRADE
VIC1,"2003/08/15 09:30",6938.88167,23.28,TRADE
VIC1,"2003/08/15 10:00",6904.6,22.2,TRADE
VIC1,"2003/08/15 10:30",6807.44833,21.86,TRADE
VIC1,"2003/08/15 11:00",6705.88333,20.18,TRADE
VIC1,"2003/08/15 11:30",6661.08333,20.32,TRADE
VIC1,"2003/08/15 12:00",6592.40333,21.21,TRADE
VIC1,"2003/08/15 12:30",6544.97333,20.8,TRADE
VIC1,"2003/08/15 13:00",6467.77,18.48,TRADE
VIC1,"2003/08/15 13:30",6589.20667,18.67,TRADE
VIC1,"2003/08/15 14:00",6534.85167,18.48,TRADE
VIC1,"2003/08/15 14:30",6523.34,18.37,TRADE
VIC1,"2003/08/15 15:00",6448.66667,18.14,TRADE
VIC1,"2003/08/15 15:30",6369.78167,17.83,TRADE
VIC1,"2003/08/15 16:00",6292.81,17.57,TRADE
VIC1,"2003/08/15 16:30",6287.59333,17.64,TRADE
VIC1,"2003/08/15 17:00",6342.13,18.13,TRADE
VIC1,"2003/08/15 17:30",6486.18667,19.32,TRADE
VIC1,"2003/08/15 18:00",6719.275,27.27,TRADE
VIC1,"2003/08/15 18:30",6833.825,36.81,TRADE
VIC1,"2003/08/15 19:00",6815.825,39.74,TRADE
VIC1,"2003/08/15 19:30",6647.68,21.87,TRADE
VIC1,"2003/08/15 20:00",6527.42667,20.45,TRADE
VIC1,"2003/08/15 20:30",6389.13333,21.37,TRADE
VIC1,"2003/08/15 21:00",6294.80833,20.63,TRADE
VIC1,"2003/08/15 21:30",6103.10667,18.32,TRADE
VIC1,"2003/08/15 22:00",5991.00167,17.94,TRADE
VIC1,"2003/08/15 22:30",5839.53833,18.84,TRADE
VIC1,"2003/08/15 23:00",5755.545,17.52,TRADE
VIC1,"2003/08/15 23:30",6126.35833,21.25,TRADE
VIC1,"2003/08/16 00:00",5998.22167,19.11,TRADE
VIC1,"2003/08/16 00:30",5880.98167,17.65,TRADE
VIC1,"2003/08/16 01:00",5760.46,17.36,TRADE
VIC1,"2003/08/16 01:30",6049.45,17.8,TRADE
VIC1,"2003/08/16 02:00",5946.985,17.05,TRADE
VIC1,"2003/08/16 02:30",5734.87333,16.47,TRADE
VIC1,"2003/08/16 03:00",5557.80333,14.65,TRADE
VIC1,"2003/08/16 03:30",5384.20833,12.84,TRADE
VIC1,"2003/08/16 04:00",5207.19167,11.41,TRADE
VIC1,"2003/08/16 04:30",5103.15167,10.65,TRADE
VIC1,"2003/08/16 05:00",5025.72333,9.3,TRADE
VIC1,"2003/08/16 05:30",5013.025,10.22,TRADE
VIC1,"2003/08/16 06:00",5047.01667,10.94,TRADE
VIC1,"2003/08/16 06:30",5150.94,11.86,TRADE
VIC1,"2003/08/16 07:00",5287.11833,12.29,TRADE
VIC1,"2003/08/16 07:30",5177.89333,12.92,TRADE
VIC1,"2003/08/16 08:00",5431.045,15.59,TRADE
VIC1,"2003/08/16 08:30",5651.08667,16.95,TRADE
VIC1,"2003/08/16 09:00",5822.23167,19.27,TRADE
VIC1,"2003/08/16 09:30",5887.575,19.93,TRADE
VIC1,"2003/08/16 10:00",5865.98333,17.69,TRADE
VIC1,"2003/08/16 10:30",5782.61833,17.49,TRADE
VIC1,"2003/08/16 11:00",5675.52,16.93,TRADE
VIC1,"2003/08/16 11:30",5561.73833,16.59,TRADE
VIC1,"2003/08/16 12:00",5475.91167,16.3,TRADE
VIC1,"2003/08/16 12:30",5398.455,15.8,TRADE
VIC1,"2003/08/16 13:00",5340.98,15.34,TRADE
VIC1,"2003/08/16 13:30",5399.34833,15.2,TRADE
VIC1,"2003/08/16 14:00",5331.695,13.52,TRADE
VIC1,"2003/08/16 14:30",5267.92667,13.3,TRADE
VIC1,"2003/08/16 15:00",5195.91,13.8,TRADE
VIC1,"2003/08/16 15:30",5166.70333,13.28,TRADE
VIC1,"2003/08/16 16:00",5106.145,13.11,TRADE
VIC1,"2003/08/16 16:30",5137.25667,14.82,TRADE
VIC1,"2003/08/16 17:00",5297.32167,15.63,TRADE
VIC1,"2003/08/16 17:30",5465.67333,18.03,TRADE
VIC1,"2003/08/16 18:00",5894.285,35.43,TRADE
VIC1,"2003/08/16 18:30",6234.75333,68.61,TRADE
VIC1,"2003/08/16 19:00",6246.805,54.96,TRADE
VIC1,"2003/08/16 19:30",6087.78333,23.15,TRADE
VIC1,"2003/08/16 20:00",6009.21833,20.24,TRADE
VIC1,"2003/08/16 20:30",5888.65667,19.9,TRADE
VIC1,"2003/08/16 21:00",5768.74167,18.5,TRADE
VIC1,"2003/08/16 21:30",5706.35167,17.13,TRADE
VIC1,"2003/08/16 22:00",5592.56667,16.87,TRADE
VIC1,"2003/08/16 22:30",5506.07833,16.68,TRADE
VIC1,"2003/08/16 23:00",5457.19667,16.56,TRADE
VIC1,"2003/08/16 23:30",5757.495,17.22,TRADE
VIC1,"2003/08/17 00:00",5699.87667,17.12,TRADE
VIC1,"2003/08/17 00:30",5637.41833,17.05,TRADE
VIC1,"2003/08/17 01:00",5508.49167,15.41,TRADE
VIC1,"2003/08/17 01:30",5883.81667,16.43,TRADE
VIC1,"2003/08/17 02:00",5712.42,14,TRADE
VIC1,"2003/08/17 02:30",5505.35333,13.14,TRADE
VIC1,"2003/08/17 03:00",5336.93833,12.26,TRADE
VIC1,"2003/08/17 03:30",5173.795,11.5,TRADE
VIC1,"2003/08/17 04:00",5011.095,9.8,TRADE
VIC1,"2003/08/17 04:30",4889.27167,7.62,TRADE
VIC1,"2003/08/17 05:00",4807.33833,7.54,TRADE
VIC1,"2003/08/17 05:30",4742.15667,7.52,TRADE
VIC1,"2003/08/17 06:00",4743.875,7.52,TRADE
VIC1,"2003/08/17 06:30",4769.705,7.52,TRADE
VIC1,"2003/08/17 07:00",4832.67333,7.55,TRADE
VIC1,"2003/08/17 07:30",4657.20667,7.36,TRADE
VIC1,"2003/08/17 08:00",4780.74,7.52,TRADE
VIC1,"2003/08/17 08:30",4993.825,7.55,TRADE
VIC1,"2003/08/17 09:00",5159.53,9.45,TRADE
VIC1,"2003/08/17 09:30",5235.12333,12.48,TRADE
VIC1,"2003/08/17 10:00",5308.87667,15.36,TRADE
VIC1,"2003/08/17 10:30",5356.505,15.35,TRADE
VIC1,"2003/08/17 11:00",5357.835,13.9,TRADE
VIC1,"2003/08/17 11:30",5352.79833,13.87,TRADE
VIC1,"2003/08/17 12:00",5323.54667,13.9,TRADE
VIC1,"2003/08/17 12:30",5339.98167,14.45,TRADE
VIC1,"2003/08/17 13:00",5351.30167,13.59,TRADE
VIC1,"2003/08/17 13:30",5392.47,13.36,TRADE
VIC1,"2003/08/17 14:00",5393.39167,13.03,TRADE
VIC1,"2003/08/17 14:30",5304.975,12.19,TRADE
VIC1,"2003/08/17 15:00",5301.98667,12.23,TRADE
VIC1,"2003/08/17 15:30",5261.46833,12.22,TRADE
VIC1,"2003/08/17 16:00",5330.245,12.95,TRADE
VIC1,"2003/08/17 16:30",5349.31,14.16,TRADE
VIC1,"2003/08/17 17:00",5586.41333,16.69,TRADE
VIC1,"2003/08/17 17:30",5797.56,17.8,TRADE
VIC1,"2003/08/17 18:00",6157.40167,25.49,TRADE
VIC1,"2003/08/17 18:30",6339.73167,42.56,TRADE
VIC1,"2003/08/17 19:00",6277.82,35.13,TRADE
VIC1,"2003/08/17 19:30",6158.82667,21.45,TRADE
VIC1,"2003/08/17 20:00",6107.16833,20.6,TRADE
VIC1,"2003/08/17 20:30",5998.78667,20.07,TRADE
VIC1,"2003/08/17 21:00",5932.24333,19.57,TRADE
VIC1,"2003/08/17 21:30",5784.36167,17.51,TRADE
VIC1,"2003/08/17 22:00",5544.64167,16.55,TRADE
VIC1,"2003/08/17 22:30",5389.99333,15.49,TRADE
VIC1,"2003/08/17 23:00",5268.39167,13.04,TRADE
VIC1,"2003/08/17 23:30",5488.48167,15.08,TRADE
VIC1,"2003/08/18 00:00",5402.98333,13.59,TRADE
VIC1,"2003/08/18 00:30",5377.13167,13.09,TRADE
VIC1,"2003/08/18 01:00",5291.72333,12.63,TRADE
VIC1,"2003/08/18 01:30",5670.44167,13.52,TRADE
VIC1,"2003/08/18 02:00",5547.645,13.16,TRADE
VIC1,"2003/08/18 02:30",5406.61,12.54,TRADE
VIC1,"2003/08/18 03:00",5256.15333,11.43,TRADE
VIC1,"2003/08/18 03:30",5118.46833,9.59,TRADE
VIC1,"2003/08/18 04:00",4962.465,7.6,TRADE
VIC1,"2003/08/18 04:30",4921.25833,7.54,TRADE
VIC1,"2003/08/18 05:00",4864.95833,7.54,TRADE
VIC1,"2003/08/18 05:30",4997.44167,9.2,TRADE
VIC1,"2003/08/18 06:00",5154.115,11.57,TRADE
VIC1,"2003/08/18 06:30",5523.74833,14.84,TRADE
VIC1,"2003/08/18 07:00",5972.53833,16.81,TRADE
VIC1,"2003/08/18 07:30",6192.63167,16.83,TRADE
VIC1,"2003/08/18 08:00",6511.11333,19.73,TRADE
VIC1,"2003/08/18 08:30",6651.875,21.01,TRADE
VIC1,"2003/08/18 09:00",6698.64,19.74,TRADE
VIC1,"2003/08/18 09:30",6730.95833,19.24,TRADE
VIC1,"2003/08/18 10:00",6704.23833,19.15,TRADE
VIC1,"2003/08/18 10:30",6643.17167,18.92,TRADE
VIC1,"2003/08/18 11:00",6621.30667,18.7,TRADE
VIC1,"2003/08/18 11:30",6636.785,18.95,TRADE
VIC1,"2003/08/18 12:00",6653.63333,19.01,TRADE
VIC1,"2003/08/18 12:30",6546.90833,18.92,TRADE
VIC1,"2003/08/18 13:00",6541.22167,18.76,TRADE
VIC1,"2003/08/18 13:30",6615.77667,18.73,TRADE
VIC1,"2003/08/18 14:00",6589.57333,18.65,TRADE
VIC1,"2003/08/18 14:30",6558.06833,18.27,TRADE
VIC1,"2003/08/18 15:00",6483.53167,16.12,TRADE
VIC1,"2003/08/18 15:30",6404.88667,14.8,TRADE
VIC1,"2003/08/18 16:00",6355.08167,15.5,TRADE
VIC1,"2003/08/18 16:30",6331.75333,15.69,TRADE
VIC1,"2003/08/18 17:00",6455.80333,17.69,TRADE
VIC1,"2003/08/18 17:30",6653.27667,18.8,TRADE
VIC1,"2003/08/18 18:00",6835.65833,25,TRADE
VIC1,"2003/08/18 18:30",7068.88833,44.6,TRADE
VIC1,"2003/08/18 19:00",7010.17,40.05,TRADE
VIC1,"2003/08/18 19:30",6858.245,21.79,TRADE
VIC1,"2003/08/18 20:00",6744.24667,20.56,TRADE
VIC1,"2003/08/18 20:30",6650.095,21.12,TRADE
VIC1,"2003/08/18 21:00",6518.64167,20.77,TRADE
VIC1,"2003/08/18 21:30",6353.57667,19.52,TRADE
VIC1,"2003/08/18 22:00",6138.33667,17.95,TRADE
VIC1,"2003/08/18 22:30",5874.675,17.4,TRADE
VIC1,"2003/08/18 23:00",5727.28667,16.18,TRADE
VIC1,"2003/08/18 23:30",6002.77667,17.38,TRADE
VIC1,"2003/08/19 00:00",5910.38667,16.59,TRADE
VIC1,"2003/08/19 00:30",5877.47333,17.05,TRADE
VIC1,"2003/08/19 01:00",5762.88167,16.71,TRADE
VIC1,"2003/08/19 01:30",6113.80333,17.78,TRADE
VIC1,"2003/08/19 02:00",5972.185,17.11,TRADE
VIC1,"2003/08/19 02:30",5803.84667,15.52,TRADE
VIC1,"2003/08/19 03:00",5596.48167,14.36,TRADE
VIC1,"2003/08/19 03:30",5445.63667,13.23,TRADE
VIC1,"2003/08/19 04:00",5303.83167,12.08,TRADE
VIC1,"2003/08/19 04:30",5262.89167,11.7,TRADE
VIC1,"2003/08/19 05:00",5180.32667,11.17,TRADE
VIC1,"2003/08/19 05:30",5292.05167,11.76,TRADE
VIC1,"2003/08/19 06:00",5436.895,12.58,TRADE
VIC1,"2003/08/19 06:30",5837.88167,15.88,TRADE
VIC1,"2003/08/19 07:00",6263.54167,18.47,TRADE
VIC1,"2003/08/19 07:30",6494.83667,19.47,TRADE
VIC1,"2003/08/19 08:00",6737.285,22.67,TRADE
VIC1,"2003/08/19 08:30",6873.265,22.36,TRADE
VIC1,"2003/08/19 09:00",6871.03167,21.88,TRADE
VIC1,"2003/08/19 09:30",6906.37167,21.41,TRADE
VIC1,"2003/08/19 10:00",6758.66167,19.16,TRADE
VIC1,"2003/08/19 10:30",6704.61333,18.8,TRADE
VIC1,"2003/08/19 11:00",6670.87333,18.76,TRADE
VIC1,"2003/08/19 11:30",6604.82167,18.47,TRADE
VIC1,"2003/08/19 12:00",6589.97833,18.4,TRADE
VIC1,"2003/08/19 12:30",6525.24333,18.53,TRADE
VIC1,"2003/08/19 13:00",6513.60667,18.45,TRADE
VIC1,"2003/08/19 13:30",6586.225,18.65,TRADE
VIC1,"2003/08/19 14:00",6562.82,18.62,TRADE
VIC1,"2003/08/19 14:30",6514.24167,18.46,TRADE
VIC1,"2003/08/19 15:00",6464.54,18.12,TRADE
VIC1,"2003/08/19 15:30",6360.41167,17.2,TRADE
VIC1,"2003/08/19 16:00",6347.68333,16.89,TRADE
VIC1,"2003/08/19 16:30",6363.76,17.16,TRADE
VIC1,"2003/08/19 17:00",6434.63667,17.89,TRADE
VIC1,"2003/08/19 17:30",6565.77167,19.99,TRADE
VIC1,"2003/08/19 18:00",6813.24,36.1,TRADE
VIC1,"2003/08/19 18:30",7075.455,64.67,TRADE
VIC1,"2003/08/19 19:00",7078.24833,51.06,TRADE
VIC1,"2003/08/19 19:30",6920.29,25.67,TRADE
VIC1,"2003/08/19 20:00",6813.14833,24.89,TRADE
VIC1,"2003/08/19 20:30",6678.555,33.83,TRADE
VIC1,"2003/08/19 21:00",6550.36667,23.56,TRADE
VIC1,"2003/08/19 21:30",6348.38333,21.22,TRADE
VIC1,"2003/08/19 22:00",6214.24833,19.04,TRADE
VIC1,"2003/08/19 22:30",5931.35,19.22,TRADE
VIC1,"2003/08/19 23:00",5732.16,17.44,TRADE
VIC1,"2003/08/19 23:30",6061.76667,18.17,TRADE
VIC1,"2003/08/20 00:00",5938.81,17.97,TRADE
VIC1,"2003/08/20 00:30",5833.18833,17.8,TRADE
VIC1,"2003/08/20 01:00",5727.875,17.56,TRADE
VIC1,"2003/08/20 01:30",6122.54167,18.23,TRADE
VIC1,"2003/08/20 02:00",5967.39333,17.58,TRADE
VIC1,"2003/08/20 02:30",5819.70333,16.11,TRADE
VIC1,"2003/08/20 03:00",5633.4,15.12,TRADE
VIC1,"2003/08/20 03:30",5470.94167,12.97,TRADE
VIC1,"2003/08/20 04:00",5356.82333,12.08,TRADE
VIC1,"2003/08/20 04:30",5271.18167,11.86,TRADE
VIC1,"2003/08/20 05:00",5265.16,11.66,TRADE
VIC1,"2003/08/20 05:30",5326.07333,12.04,TRADE
VIC1,"2003/08/20 06:00",5497.075,13.98,TRADE
VIC1,"2003/08/20 06:30",5896.88833,16.86,TRADE
VIC1,"2003/08/20 07:00",6370.425,19.9,TRADE
VIC1,"2003/08/20 07:30",6527.96833,22.47,TRADE
VIC1,"2003/08/20 08:00",6862.55833,24.91,TRADE
VIC1,"2003/08/20 08:30",6924.62167,25.18,TRADE
VIC1,"2003/08/20 09:00",6981.11333,23.71,TRADE
VIC1,"2003/08/20 09:30",6961.58333,23.07,TRADE
VIC1,"2003/08/20 10:00",6872.85667,22.1,TRADE
VIC1,"2003/08/20 10:30",6828.63667,22.28,TRADE
VIC1,"2003/08/20 11:00",6762.74167,20.61,TRADE
VIC1,"2003/08/20 11:30",6661.92667,19.21,TRADE
VIC1,"2003/08/20 12:00",6574.705,19.02,TRADE
VIC1,"2003/08/20 12:30",6468.62833,18.76,TRADE
VIC1,"2003/08/20 13:00",6390.96167,18.38,TRADE
VIC1,"2003/08/20 13:30",6489.15,18.65,TRADE
VIC1,"2003/08/20 14:00",6455.08667,18.61,TRADE
VIC1,"2003/08/20 14:30",6420.735,18.56,TRADE
VIC1,"2003/08/20 15:00",6344.78833,18.32,TRADE
VIC1,"2003/08/20 15:30",6222.68167,17.68,TRADE
VIC1,"2003/08/20 16:00",6215.52333,17.6,TRADE
VIC1,"2003/08/20 16:30",6085.085,17.05,TRADE
VIC1,"2003/08/20 17:00",6129.365,17.52,TRADE
VIC1,"2003/08/20 17:30",6438.49667,20.59,TRADE
VIC1,"2003/08/20 18:00",6696.66833,36.66,TRADE
VIC1,"2003/08/20 18:30",6999.54,49.6,TRADE
VIC1,"2003/08/20 19:00",6973.40833,47.99,TRADE
VIC1,"2003/08/20 19:30",6846.20167,22.92,TRADE
VIC1,"2003/08/20 20:00",6676.55333,21.5,TRADE
VIC1,"2003/08/20 20:30",6592.14167,24.5,TRADE
VIC1,"2003/08/20 21:00",6431.595,23.29,TRADE
VIC1,"2003/08/20 21:30",6276.96833,20.86,TRADE
VIC1,"2003/08/20 22:00",6106.20667,18.96,TRADE
VIC1,"2003/08/20 22:30",5854.54667,18.83,TRADE
VIC1,"2003/08/20 23:00",5666.89,17.21,TRADE
VIC1,"2003/08/20 23:30",5963.33333,17.78,TRADE
VIC1,"2003/08/21 00:00",5835.65333,17.25,TRADE
VIC1,"2003/08/21 00:30",5734.07,17.52,TRADE
VIC1,"2003/08/21 01:00",5638.58333,17.24,TRADE
VIC1,"2003/08/21 01:30",5965.44667,17.89,TRADE
VIC1,"2003/08/21 02:00",5872.18833,17.42,TRADE
VIC1,"2003/08/21 02:30",5683.9,16.46,TRADE
VIC1,"2003/08/21 03:00",5509.375,15.24,TRADE
VIC1,"2003/08/21 03:30",5349.33667,13.24,TRADE
VIC1,"2003/08/21 04:00",5250.82,12.01,TRADE
VIC1,"2003/08/21 04:30",5184.35833,11.21,TRADE
VIC1,"2003/08/21 05:00",5114.61333,10.48,TRADE
VIC1,"2003/08/21 05:30",5197.045,11.74,TRADE
VIC1,"2003/08/21 06:00",5340.84667,13.59,TRADE
VIC1,"2003/08/21 06:30",5731.31833,16.41,TRADE
VIC1,"2003/08/21 07:00",6157.41667,19.24,TRADE
VIC1,"2003/08/21 07:30",6321.56167,20.82,TRADE
VIC1,"2003/08/21 08:00",6650.54833,23.32,TRADE
VIC1,"2003/08/21 08:30",6821.16,22.74,TRADE
VIC1,"2003/08/21 09:00",6805.135,21.81,TRADE
VIC1,"2003/08/21 09:30",6812.65167,21.95,TRADE
VIC1,"2003/08/21 10:00",6764.635,21.94,TRADE
VIC1,"2003/08/21 10:30",6708.17667,21.84,TRADE
VIC1,"2003/08/21 11:00",6651.01667,20.89,TRADE
VIC1,"2003/08/21 11:30",6656.575,22.56,TRADE
VIC1,"2003/08/21 12:00",6643.29667,23.66,TRADE
VIC1,"2003/08/21 12:30",6656.53833,25.16,TRADE
VIC1,"2003/08/21 13:00",6639.90167,22.43,TRADE
VIC1,"2003/08/21 13:30",6773.96167,26.87,TRADE
VIC1,"2003/08/21 14:00",6770.04333,24.7,TRADE
VIC1,"2003/08/21 14:30",6738.96667,21.44,TRADE
VIC1,"2003/08/21 15:00",6706.88833,21.01,TRADE
VIC1,"2003/08/21 15:30",6701.91,20.33,TRADE
VIC1,"2003/08/21 16:00",6718.29333,21.17,TRADE
VIC1,"2003/08/21 16:30",6700.255,19.86,TRADE
VIC1,"2003/08/21 17:00",6726.33333,21.5,TRADE
VIC1,"2003/08/21 17:30",6828.18,24.38,TRADE
VIC1,"2003/08/21 18:00",7026.345,42.34,TRADE
VIC1,"2003/08/21 18:30",7144.72667,54.66,TRADE
VIC1,"2003/08/21 19:00",7079.77833,59.03,TRADE
VIC1,"2003/08/21 19:30",6833.415,31.9,TRADE
VIC1,"2003/08/21 20:00",6697.85833,23.52,TRADE
VIC1,"2003/08/21 20:30",6565.30833,25.84,TRADE
VIC1,"2003/08/21 21:00",6428.385,24.74,TRADE
VIC1,"2003/08/21 21:30",6224.395,26.44,TRADE
VIC1,"2003/08/21 22:00",6042.67333,23.37,TRADE
VIC1,"2003/08/21 22:30",5812.285,23.06,TRADE
VIC1,"2003/08/21 23:00",5633.59167,19.42,TRADE
VIC1,"2003/08/21 23:30",5937.32333,20.96,TRADE
VIC1,"2003/08/22 00:00",5745.68833,19.17,TRADE
VIC1,"2003/08/22 00:30",5671.99,18.49,TRADE
VIC1,"2003/08/22 01:00",5529.245,18.07,TRADE
VIC1,"2003/08/22 01:30",5879.17333,19.01,TRADE
VIC1,"2003/08/22 02:00",5731.19,18.19,TRADE
VIC1,"2003/08/22 02:30",5592.38,17.45,TRADE
VIC1,"2003/08/22 03:00",5352.86167,16.88,TRADE
VIC1,"2003/08/22 03:30",5236.66,14.76,TRADE
VIC1,"2003/08/22 04:00",5098.17833,12.66,TRADE
VIC1,"2003/08/22 04:30",5029.785,12.17,TRADE
VIC1,"2003/08/22 05:00",4982.93167,12.06,TRADE
VIC1,"2003/08/22 05:30",5043.26167,12.57,TRADE
VIC1,"2003/08/22 06:00",5202.24167,13.89,TRADE
VIC1,"2003/08/22 06:30",5581.13,17.78,TRADE
VIC1,"2003/08/22 07:00",5985.65333,20.26,TRADE
VIC1,"2003/08/22 07:30",6155.43833,21.38,TRADE
VIC1,"2003/08/22 08:00",6472.54833,23.77,TRADE
VIC1,"2003/08/22 08:30",6578.64333,24.79,TRADE
VIC1,"2003/08/22 09:00",6568.40667,23.45,TRADE
VIC1,"2003/08/22 09:30",6568.98667,23.17,TRADE
VIC1,"2003/08/22 10:00",6436.01,22.49,TRADE
VIC1,"2003/08/22 10:30",6344.96333,22.1,TRADE
VIC1,"2003/08/22 11:00",6292.515,21.82,TRADE
VIC1,"2003/08/22 11:30",6243.26667,21.68,TRADE
VIC1,"2003/08/22 12:00",6218.89167,21.63,TRADE
VIC1,"2003/08/22 12:30",6145.01833,21.44,TRADE
VIC1,"2003/08/22 13:00",6091.39167,21.14,TRADE
VIC1,"2003/08/22 13:30",6154.29333,20.31,TRADE
VIC1,"2003/08/22 14:00",6111.21667,19.09,TRADE
VIC1,"2003/08/22 14:30",6029.67,18.4,TRADE
VIC1,"2003/08/22 15:00",5984.49333,18.23,TRADE
VIC1,"2003/08/22 15:30",5867.18167,17.36,TRADE
VIC1,"2003/08/22 16:00",5860.34,17.4,TRADE
VIC1,"2003/08/22 16:30",5852.69667,17.65,TRADE
VIC1,"2003/08/22 17:00",5926.85833,18.01,TRADE
VIC1,"2003/08/22 17:30",6007.40667,20.19,TRADE
VIC1,"2003/08/22 18:00",6164.98167,22.01,TRADE
VIC1,"2003/08/22 18:30",6400.60167,24.57,TRADE
VIC1,"2003/08/22 19:00",6508.575,25.29,TRADE
VIC1,"2003/08/22 19:30",6305.925,22.07,TRADE
VIC1,"2003/08/22 20:00",6230.155,22.24,TRADE
VIC1,"2003/08/22 20:30",6110.665,21.92,TRADE
VIC1,"2003/08/22 21:00",5990.22167,21.67,TRADE
VIC1,"2003/08/22 21:30",5871.37167,21.72,TRADE
VIC1,"2003/08/22 22:00",5756.66833,64.28,TRADE
VIC1,"2003/08/22 22:30",5677.13167,192.01,TRADE
VIC1,"2003/08/22 23:00",5525.15,21.06,TRADE
VIC1,"2003/08/22 23:30",5844.99833,22.12,TRADE
VIC1,"2003/08/23 00:00",5734.03333,21.68,TRADE
VIC1,"2003/08/23 00:30",5581.48167,21.8,TRADE
VIC1,"2003/08/23 01:00",5459.43333,20.85,TRADE
VIC1,"2003/08/23 01:30",5757.13167,21.81,TRADE
VIC1,"2003/08/23 02:00",5617.975,20.41,TRADE
VIC1,"2003/08/23 02:30",5411.80333,18.88,TRADE
VIC1,"2003/08/23 03:00",5236.44,17.54,TRADE
VIC1,"2003/08/23 03:30",5051.14833,15.62,TRADE
VIC1,"2003/08/23 04:00",4890.295,13.42,TRADE
VIC1,"2003/08/23 04:30",4811.11167,13.01,TRADE
VIC1,"2003/08/23 05:00",4727.66167,12.45,TRADE
VIC1,"2003/08/23 05:30",4721.71667,12.79,TRADE
VIC1,"2003/08/23 06:00",4769.10167,13.07,TRADE
VIC1,"2003/08/23 06:30",4883.51833,14.33,TRADE
VIC1,"2003/08/23 07:00",5016.40667,14.99,TRADE
VIC1,"2003/08/23 07:30",4973.03167,16.2,TRADE
VIC1,"2003/08/23 08:00",5162.53833,17.1,TRADE
VIC1,"2003/08/23 08:30",5373.255,19.32,TRADE
VIC1,"2003/08/23 09:00",5543.31167,21.12,TRADE
VIC1,"2003/08/23 09:30",5590.015,21.63,TRADE
VIC1,"2003/08/23 10:00",5595.54333,21.53,TRADE
VIC1,"2003/08/23 10:30",5565.44167,21.32,TRADE
VIC1,"2003/08/23 11:00",5469.55833,20.95,TRADE
VIC1,"2003/08/23 11:30",5436.605,20.83,TRADE
VIC1,"2003/08/23 12:00",5435.84,20.69,TRADE
VIC1,"2003/08/23 12:30",5383.21167,21.12,TRADE
VIC1,"2003/08/23 13:00",5321.31333,21.86,TRADE
VIC1,"2003/08/23 13:30",5382.66167,22.07,TRADE
VIC1,"2003/08/23 14:00",5407.94667,21.95,TRADE
VIC1,"2003/08/23 14:30",5383.24,21.76,TRADE
VIC1,"2003/08/23 15:00",5400.67833,21.55,TRADE
VIC1,"2003/08/23 15:30",5406.785,21.13,TRADE
VIC1,"2003/08/23 16:00",5254.41333,20.67,TRADE
VIC1,"2003/08/23 16:30",5374.07667,20.91,TRADE
VIC1,"2003/08/23 17:00",5621.54833,23.41,TRADE
VIC1,"2003/08/23 17:30",5790.01167,26.21,TRADE
VIC1,"2003/08/23 18:00",6056.275,39.87,TRADE
VIC1,"2003/08/23 18:30",6174.78167,45.38,TRADE
VIC1,"2003/08/23 19:00",6073.71333,38.36,TRADE
VIC1,"2003/08/23 19:30",5899.015,25.32,TRADE
VIC1,"2003/08/23 20:00",5772.905,23.42,TRADE
VIC1,"2003/08/23 20:30",5619.76333,21.65,TRADE
VIC1,"2003/08/23 21:00",5482.03167,21.11,TRADE
VIC1,"2003/08/23 21:30",5358.60833,21.28,TRADE
VIC1,"2003/08/23 22:00",5242.10167,20.09,TRADE
VIC1,"2003/08/23 22:30",5153.36167,19.29,TRADE
VIC1,"2003/08/23 23:00",5095.55667,19.15,TRADE
VIC1,"2003/08/23 23:30",5345.86,20.86,TRADE
VIC1,"2003/08/24 00:00",5268.13,19.77,TRADE
VIC1,"2003/08/24 00:30",5177.28167,19.22,TRADE
VIC1,"2003/08/24 01:00",5039.81333,18.59,TRADE
VIC1,"2003/08/24 01:30",5403.64333,20.1,TRADE
VIC1,"2003/08/24 02:00",5288.91833,18.73,TRADE
VIC1,"2003/08/24 02:30",5029.29667,17.25,TRADE
VIC1,"2003/08/24 03:00",4879.68667,14.26,TRADE
VIC1,"2003/08/24 03:30",4717.65667,12.55,TRADE
VIC1,"2003/08/24 04:00",4609.425,11.84,TRADE
VIC1,"2003/08/24 04:30",4482.45333,10.83,TRADE
VIC1,"2003/08/24 05:00",4411.84167,10.49,TRADE
VIC1,"2003/08/24 05:30",4384.51333,10.65,TRADE
VIC1,"2003/08/24 06:00",4350.44,10.98,TRADE
VIC1,"2003/08/24 06:30",4444.45833,11.89,TRADE
VIC1,"2003/08/24 07:00",4501.135,12.3,TRADE
VIC1,"2003/08/24 07:30",4394.52,11.55,TRADE
VIC1,"2003/08/24 08:00",4552.05167,13.35,TRADE
VIC1,"2003/08/24 08:30",4773.00833,14.45,TRADE
VIC1,"2003/08/24 09:00",4964.46167,16.72,TRADE
VIC1,"2003/08/24 09:30",5079.74333,17.81,TRADE
VIC1,"2003/08/24 10:00",5180.54167,18.22,TRADE
VIC1,"2003/08/24 10:30",5248.165,18.92,TRADE
VIC1,"2003/08/24 11:00",5285.88833,18.78,TRADE
VIC1,"2003/08/24 11:30",5320.35333,19.58,TRADE
VIC1,"2003/08/24 12:00",5406.46333,20.36,TRADE
VIC1,"2003/08/24 12:30",5464.82667,21.02,TRADE
VIC1,"2003/08/24 13:00",5485.555,21.1,TRADE
VIC1,"2003/08/24 13:30",5581.525,21.39,TRADE
VIC1,"2003/08/24 14:00",5635.81333,21.24,TRADE
VIC1,"2003/08/24 14:30",5574.83,19.7,TRADE
VIC1,"2003/08/24 15:00",5534.13667,19.4,TRADE
VIC1,"2003/08/24 15:30",5535.34,19.23,TRADE
VIC1,"2003/08/24 16:00",5508.05167,19.02,TRADE
VIC1,"2003/08/24 16:30",5445.47667,18.98,TRADE
VIC1,"2003/08/24 17:00",5457.60167,19.77,TRADE
VIC1,"2003/08/24 17:30",5590.34667,21.32,TRADE
VIC1,"2003/08/24 18:00",5803.245,27.39,TRADE
VIC1,"2003/08/24 18:30",6077.54,43.96,TRADE
VIC1,"2003/08/24 19:00",6109.79,44.49,TRADE
VIC1,"2003/08/24 19:30",6046.575,26.19,TRADE
VIC1,"2003/08/24 20:00",5968.43167,24.68,TRADE
VIC1,"2003/08/24 20:30",5838.50333,26.75,TRADE
VIC1,"2003/08/24 21:00",5761.50333,24.74,TRADE
VIC1,"2003/08/24 21:30",5570.365,21.92,TRADE
VIC1,"2003/08/24 22:00",5382.43833,21.17,TRADE
VIC1,"2003/08/24 22:30",5265.92333,19.47,TRADE
VIC1,"2003/08/24 23:00",5145.24167,18.86,TRADE
VIC1,"2003/08/24 23:30",5414.44167,20,TRADE
VIC1,"2003/08/25 00:00",5343.20667,19.57,TRADE
VIC1,"2003/08/25 00:30",5280.64833,19.27,TRADE
VIC1,"2003/08/25 01:00",5230.41167,19.07,TRADE
VIC1,"2003/08/25 01:30",5547.58333,20.36,TRADE
VIC1,"2003/08/25 02:00",5478.73833,19.13,TRADE
VIC1,"2003/08/25 02:30",5287.60167,16.98,TRADE
VIC1,"2003/08/25 03:00",5128.71,14.99,TRADE
VIC1,"2003/08/25 03:30",4960.14667,12.81,TRADE
VIC1,"2003/08/25 04:00",4872.465,12.57,TRADE
VIC1,"2003/08/25 04:30",4771.435,11.51,TRADE
VIC1,"2003/08/25 05:00",4728.91333,11.61,TRADE
VIC1,"2003/08/25 05:30",4788.375,12.34,TRADE
VIC1,"2003/08/25 06:00",4939.72,13.45,TRADE
VIC1,"2003/08/25 06:30",5346.99667,17.09,TRADE
VIC1,"2003/08/25 07:00",5730.95167,19.56,TRADE
VIC1,"2003/08/25 07:30",5995.125,20.9,TRADE
VIC1,"2003/08/25 08:00",6377.04167,23.57,TRADE
VIC1,"2003/08/25 08:30",6508.49833,23.37,TRADE
VIC1,"2003/08/25 09:00",6544.99167,23.36,TRADE
VIC1,"2003/08/25 09:30",6566.64333,23.33,TRADE
VIC1,"2003/08/25 10:00",6569.75,23.13,TRADE
VIC1,"2003/08/25 10:30",6497.46667,22.82,TRADE
VIC1,"2003/08/25 11:00",6522.49,22.92,TRADE
VIC1,"2003/08/25 11:30",6436.27833,22.6,TRADE
VIC1,"2003/08/25 12:00",6396.43333,22.43,TRADE
VIC1,"2003/08/25 12:30",6343.25667,21.35,TRADE
VIC1,"2003/08/25 13:00",6315.50333,20.36,TRADE
VIC1,"2003/08/25 13:30",6432.60667,21.79,TRADE
VIC1,"2003/08/25 14:00",6465.68167,21.87,TRADE
VIC1,"2003/08/25 14:30",6418.31,20.83,TRADE
VIC1,"2003/08/25 15:00",6394.60833,20,TRADE
VIC1,"2003/08/25 15:30",6387.04,19.47,TRADE
VIC1,"2003/08/25 16:00",6374.96167,19.45,TRADE
VIC1,"2003/08/25 16:30",6349.265,19.31,TRADE
VIC1,"2003/08/25 17:00",6420.70667,20.32,TRADE
VIC1,"2003/08/25 17:30",6583.075,21.87,TRADE
VIC1,"2003/08/25 18:00",6748.24333,23.26,TRADE
VIC1,"2003/08/25 18:30",6984.945,35,TRADE
VIC1,"2003/08/25 19:00",6944.65,37.34,TRADE
VIC1,"2003/08/25 19:30",6793.71333,22.86,TRADE
VIC1,"2003/08/25 20:00",6664.3,23.16,TRADE
VIC1,"2003/08/25 20:30",6544.64667,25.6,TRADE
VIC1,"2003/08/25 21:00",6362.50667,24.59,TRADE
VIC1,"2003/08/25 21:30",6227.825,23.04,TRADE
VIC1,"2003/08/25 22:00",5984.88333,22.04,TRADE
VIC1,"2003/08/25 22:30",5769.91833,21.39,TRADE
VIC1,"2003/08/25 23:00",5623.90833,20.1,TRADE
VIC1,"2003/08/25 23:30",5913.34833,21.24,TRADE
VIC1,"2003/08/26 00:00",5804.05833,19.96,TRADE
VIC1,"2003/08/26 00:30",5722.26167,18.69,TRADE
VIC1,"2003/08/26 01:00",5623.65167,18.35,TRADE
VIC1,"2003/08/26 01:30",6012.96,21.58,TRADE
VIC1,"2003/08/26 02:00",5842.12333,19.62,TRADE
VIC1,"2003/08/26 02:30",5664.46667,18.04,TRADE
VIC1,"2003/08/26 03:00",5485.33,16.97,TRADE
VIC1,"2003/08/26 03:30",5321.76333,14.99,TRADE
VIC1,"2003/08/26 04:00",5201.51333,12.53,TRADE
VIC1,"2003/08/26 04:30",5095.38167,12.13,TRADE
VIC1,"2003/08/26 05:00",5083.98167,12.12,TRADE
VIC1,"2003/08/26 05:30",5143.14833,12.92,TRADE
VIC1,"2003/08/26 06:00",5311.60167,15.02,TRADE
VIC1,"2003/08/26 06:30",5677.61833,18.12,TRADE
VIC1,"2003/08/26 07:00",6095.48333,20.77,TRADE
VIC1,"2003/08/26 07:30",6296.61833,21.66,TRADE
VIC1,"2003/08/26 08:00",6612.28333,23.76,TRADE
VIC1,"2003/08/26 08:30",6743.15333,23.84,TRADE
VIC1,"2003/08/26 09:00",6764.44167,23.36,TRADE
VIC1,"2003/08/26 09:30",6822.06167,25.06,TRADE
VIC1,"2003/08/26 10:00",6724.26833,23.49,TRADE
VIC1,"2003/08/26 10:30",6671.875,23.3,TRADE
VIC1,"2003/08/26 11:00",6663.91667,23.15,TRADE
VIC1,"2003/08/26 11:30",6624.50333,23.12,TRADE
VIC1,"2003/08/26 12:00",6589.99667,23.07,TRADE
VIC1,"2003/08/26 12:30",6534.79,23.02,TRADE
VIC1,"2003/08/26 13:00",6494.72667,22.87,TRADE
VIC1,"2003/08/26 13:30",6609.66333,23.16,TRADE
VIC1,"2003/08/26 14:00",6547.22167,22.99,TRADE
VIC1,"2003/08/26 14:30",6511.03333,22.83,TRADE
VIC1,"2003/08/26 15:00",6452.46167,21.58,TRADE
VIC1,"2003/08/26 15:30",6352.79,19.9,TRADE
VIC1,"2003/08/26 16:00",6313.71667,19.67,TRADE
VIC1,"2003/08/26 16:30",6317.39333,19.63,TRADE
VIC1,"2003/08/26 17:00",6392.585,20.83,TRADE
VIC1,"2003/08/26 17:30",6488.60333,21.74,TRADE
VIC1,"2003/08/26 18:00",6772.16667,25.11,TRADE
VIC1,"2003/08/26 18:30",6999.44167,41.66,TRADE
VIC1,"2003/08/26 19:00",7004.65333,38.72,TRADE
VIC1,"2003/08/26 19:30",6781.985,23.92,TRADE
VIC1,"2003/08/26 20:00",6715.85667,24.58,TRADE
VIC1,"2003/08/26 20:30",6578.11333,27.44,TRADE
VIC1,"2003/08/26 21:00",6462.65833,26.04,TRADE
VIC1,"2003/08/26 21:30",6238.81,23.46,TRADE
VIC1,"2003/08/26 22:00",6107.305,22.58,TRADE
VIC1,"2003/08/26 22:30",5838.57333,22.36,TRADE
VIC1,"2003/08/26 23:00",5643.65833,20.3,TRADE
VIC1,"2003/08/26 23:30",5934.00333,21.03,TRADE
VIC1,"2003/08/27 00:00",5795.44667,20.8,TRADE
VIC1,"2003/08/27 00:30",5731.59667,19.59,TRADE
VIC1,"2003/08/27 01:00",5616.90167,18.29,TRADE
VIC1,"2003/08/27 01:30",5966.33333,19.99,TRADE
VIC1,"2003/08/27 02:00",5845.39667,19.17,TRADE
VIC1,"2003/08/27 02:30",5643.24,17.74,TRADE
VIC1,"2003/08/27 03:00",5457.70667,16.81,TRADE
VIC1,"2003/08/27 03:30",5288.18167,14.5,TRADE
VIC1,"2003/08/27 04:00",5171.35333,12.74,TRADE
VIC1,"2003/08/27 04:30",5101.985,13.3,TRADE
VIC1,"2003/08/27 05:00",5062.695,13.05,TRADE
VIC1,"2003/08/27 05:30",5107.305,13.85,TRADE
VIC1,"2003/08/27 06:00",5276.775,15.01,TRADE
VIC1,"2003/08/27 06:30",5693.72667,19.04,TRADE
VIC1,"2003/08/27 07:00",6093.93667,21.55,TRADE
VIC1,"2003/08/27 07:30",6274.84333,24.67,TRADE
VIC1,"2003/08/27 08:00",6529.44833,27.41,TRADE
VIC1,"2003/08/27 08:30",6683.16333,27.34,TRADE
VIC1,"2003/08/27 09:00",6687.70167,26.18,TRADE
VIC1,"2003/08/27 09:30",6714.935,25.06,TRADE
VIC1,"2003/08/27 10:00",6622.45333,23.62,TRADE
VIC1,"2003/08/27 10:30",6525.04,23.28,TRADE
VIC1,"2003/08/27 11:00",6389.27167,22.97,TRADE
VIC1,"2003/08/27 11:30",6346.585,22.8,TRADE
VIC1,"2003/08/27 12:00",6364.91333,22.78,TRADE
VIC1,"2003/08/27 12:30",6281.97333,21.76,TRADE
VIC1,"2003/08/27 13:00",6266.7,20.72,TRADE
VIC1,"2003/08/27 13:30",6392.865,22.42,TRADE
VIC1,"2003/08/27 14:00",6339.895,22.24,TRADE
VIC1,"2003/08/27 14:30",6274.27667,22.44,TRADE
VIC1,"2003/08/27 15:00",6215.58833,22.01,TRADE
VIC1,"2003/08/27 15:30",6104.785,19.97,TRADE
VIC1,"2003/08/27 16:00",6127.32833,19.68,TRADE
VIC1,"2003/08/27 16:30",6128.16833,19.64,TRADE
VIC1,"2003/08/27 17:00",6239.63833,21.39,TRADE
VIC1,"2003/08/27 17:30",6344.845,21.98,TRADE
VIC1,"2003/08/27 18:00",6517.63333,25.58,TRADE
VIC1,"2003/08/27 18:30",6766.20333,41.29,TRADE
VIC1,"2003/08/27 19:00",6715.29667,47.1,TRADE
VIC1,"2003/08/27 19:30",6609.98333,27.09,TRADE
VIC1,"2003/08/27 20:00",6461.49167,24.84,TRADE
VIC1,"2003/08/27 20:30",6346.43333,28.23,TRADE
VIC1,"2003/08/27 21:00",6216.62333,26.17,TRADE
VIC1,"2003/08/27 21:30",6081.415,24.03,TRADE
VIC1,"2003/08/27 22:00",5906.65333,21.77,TRADE
VIC1,"2003/08/27 22:30",5683.83,21.47,TRADE
VIC1,"2003/08/27 23:00",5527.81833,19.67,TRADE
VIC1,"2003/08/27 23:30",5803.52667,21.01,TRADE
VIC1,"2003/08/28 00:00",5713.74667,20.26,TRADE
VIC1,"2003/08/28 00:30",5611.99333,19.95,TRADE
VIC1,"2003/08/28 01:00",5457.515,18.52,TRADE
VIC1,"2003/08/28 01:30",5843.37667,20.68,TRADE
VIC1,"2003/08/28 02:00",5715.81667,19.54,TRADE
VIC1,"2003/08/28 02:30",5529.05667,17.87,TRADE
VIC1,"2003/08/28 03:00",5320.10167,17.13,TRADE
VIC1,"2003/08/28 03:30",5117.91167,15.44,TRADE
VIC1,"2003/08/28 04:00",4988.64333,12.69,TRADE
VIC1,"2003/08/28 04:30",4907.90333,12.07,TRADE
VIC1,"2003/08/28 05:00",4912.04833,12.04,TRADE
VIC1,"2003/08/28 05:30",4947.10167,12.68,TRADE
VIC1,"2003/08/28 06:00",5112.275,15.16,TRADE
VIC1,"2003/08/28 06:30",5504.57833,18.05,TRADE
VIC1,"2003/08/28 07:00",5898.04667,20.46,TRADE
VIC1,"2003/08/28 07:30",6098.24,23.09,TRADE
VIC1,"2003/08/28 08:00",6410.49333,25.69,TRADE
VIC1,"2003/08/28 08:30",6532.305,26.26,TRADE
VIC1,"2003/08/28 09:00",6485.50333,24.12,TRADE
VIC1,"2003/08/28 09:30",6483.35333,23.29,TRADE
VIC1,"2003/08/28 10:00",6441.76333,22.95,TRADE
VIC1,"2003/08/28 10:30",6383.6,22.76,TRADE
VIC1,"2003/08/28 11:00",6364.25667,22.55,TRADE
VIC1,"2003/08/28 11:30",6299.44167,22.36,TRADE
VIC1,"2003/08/28 12:00",6289.34833,22.57,TRADE
VIC1,"2003/08/28 12:30",6270.97333,21.22,TRADE
VIC1,"2003/08/28 13:00",6238.575,20.41,TRADE
VIC1,"2003/08/28 13:30",6294.26167,20.35,TRADE
VIC1,"2003/08/28 14:00",6287.60833,19.82,TRADE
VIC1,"2003/08/28 14:30",6274.29333,18.84,TRADE
VIC1,"2003/08/28 15:00",6214.09833,17.67,TRADE
VIC1,"2003/08/28 15:30",6168.405,16.67,TRADE
VIC1,"2003/08/28 16:00",6109,16.44,TRADE
VIC1,"2003/08/28 16:30",6060.77667,14.71,TRADE
VIC1,"2003/08/28 17:00",6159.74667,17.95,TRADE
VIC1,"2003/08/28 17:30",6237.26167,17.92,TRADE
VIC1,"2003/08/28 18:00",6473.435,20.82,TRADE
VIC1,"2003/08/28 18:30",6684.06333,25.44,TRADE
VIC1,"2003/08/28 19:00",6722.66167,25.45,TRADE
VIC1,"2003/08/28 19:30",6536.02333,21.88,TRADE
VIC1,"2003/08/28 20:00",6465.47833,22.64,TRADE
VIC1,"2003/08/28 20:30",6299.665,24.68,TRADE
VIC1,"2003/08/28 21:00",6180.22167,23.72,TRADE
VIC1,"2003/08/28 21:30",6027.34833,22.17,TRADE
VIC1,"2003/08/28 22:00",5866.27,21.6,TRADE
VIC1,"2003/08/28 22:30",5628.795,21.39,TRADE
VIC1,"2003/08/28 23:00",5489.69833,20.52,TRADE
VIC1,"2003/08/28 23:30",5799.76,21.02,TRADE
VIC1,"2003/08/29 00:00",5646.6,21.04,TRADE
VIC1,"2003/08/29 00:30",5580.46167,20.56,TRADE
VIC1,"2003/08/29 01:00",5401.33667,20.47,TRADE
VIC1,"2003/08/29 01:30",5770.85,21.43,TRADE
VIC1,"2003/08/29 02:00",5608.19,20.11,TRADE
VIC1,"2003/08/29 02:30",5426.62333,17.54,TRADE
VIC1,"2003/08/29 03:00",5245.105,15.94,TRADE
VIC1,"2003/08/29 03:30",5093.45167,13.53,TRADE
VIC1,"2003/08/29 04:00",4974.70167,12.22,TRADE
VIC1,"2003/08/29 04:30",4909.69833,12.14,TRADE
VIC1,"2003/08/29 05:00",4878.01333,12.02,TRADE
VIC1,"2003/08/29 05:30",4915.72667,13.14,TRADE
VIC1,"2003/08/29 06:00",5082.565,14.39,TRADE
VIC1,"2003/08/29 06:30",5442.725,18.09,TRADE
VIC1,"2003/08/29 07:00",5851.18833,21.65,TRADE
VIC1,"2003/08/29 07:30",5998.77833,24,TRADE
VIC1,"2003/08/29 08:00",6292.1,26.16,TRADE
VIC1,"2003/08/29 08:30",6362.23167,26.51,TRADE
VIC1,"2003/08/29 09:00",6349.145,24.7,TRADE
VIC1,"2003/08/29 09:30",6350.67333,24.16,TRADE
VIC1,"2003/08/29 10:00",6278.10667,22.68,TRADE
VIC1,"2003/08/29 10:30",6215.31667,22.44,TRADE
VIC1,"2003/08/29 11:00",6192.29167,22.37,TRADE
VIC1,"2003/08/29 11:30",6148.17667,22.25,TRADE
VIC1,"2003/08/29 12:00",6158.27333,22.26,TRADE
VIC1,"2003/08/29 12:30",6122.86167,22.19,TRADE
VIC1,"2003/08/29 13:00",6120.03333,22.14,TRADE
VIC1,"2003/08/29 13:30",6128.45833,21.21,TRADE
VIC1,"2003/08/29 14:00",6081.285,21.8,TRADE
VIC1,"2003/08/29 14:30",6076.70167,21.89,TRADE
VIC1,"2003/08/29 15:00",6031.50833,22,TRADE
VIC1,"2003/08/29 15:30",5938.73833,19.96,TRADE
VIC1,"2003/08/29 16:00",5866.40333,19.59,TRADE
VIC1,"2003/08/29 16:30",5901.335,21.66,TRADE
VIC1,"2003/08/29 17:00",5984.37,21.84,TRADE
VIC1,"2003/08/29 17:30",6063.03833,21.86,TRADE
VIC1,"2003/08/29 18:00",6237.86833,24.6,TRADE
VIC1,"2003/08/29 18:30",6450.95333,33.9,TRADE
VIC1,"2003/08/29 19:00",6444.34167,37.81,TRADE
VIC1,"2003/08/29 19:30",6280.25333,23.21,TRADE
VIC1,"2003/08/29 20:00",6169.66833,22.44,TRADE
VIC1,"2003/08/29 20:30",6029.225,21.82,TRADE
VIC1,"2003/08/29 21:00",5893.40167,21.08,TRADE
VIC1,"2003/08/29 21:30",5735.115,20.85,TRADE
VIC1,"2003/08/29 22:00",5599.79,20.66,TRADE
VIC1,"2003/08/29 22:30",5469.41833,20.42,TRADE
VIC1,"2003/08/29 23:00",5407.73,20.22,TRADE
VIC1,"2003/08/29 23:30",5766.175,22.23,TRADE
VIC1,"2003/08/30 00:00",5615.96833,20.65,TRADE
VIC1,"2003/08/30 00:30",5473.085,19.97,TRADE
VIC1,"2003/08/30 01:00",5325.76667,17.59,TRADE
VIC1,"2003/08/30 01:30",5630.69833,19.43,TRADE
VIC1,"2003/08/30 02:00",5540.00667,17.7,TRADE
VIC1,"2003/08/30 02:30",5330.44167,16.99,TRADE
VIC1,"2003/08/30 03:00",5158.39667,15.46,TRADE
VIC1,"2003/08/30 03:30",4927.06667,13.85,TRADE
VIC1,"2003/08/30 04:00",4830.73833,13.07,TRADE
VIC1,"2003/08/30 04:30",4775.27167,12.09,TRADE
VIC1,"2003/08/30 05:00",4659.49333,11.62,TRADE
VIC1,"2003/08/30 05:30",4635.63167,11.76,TRADE
VIC1,"2003/08/30 06:00",4682.52167,11.84,TRADE
VIC1,"2003/08/30 06:30",4780.59,12.15,TRADE
VIC1,"2003/08/30 07:00",4897.37167,12.94,TRADE
VIC1,"2003/08/30 07:30",4929.26333,14.5,TRADE
VIC1,"2003/08/30 08:00",5082.18,18.01,TRADE
VIC1,"2003/08/30 08:30",5358.55,19.98,TRADE
VIC1,"2003/08/30 09:00",5562.77,20.58,TRADE
VIC1,"2003/08/30 09:30",5658.05,23.44,TRADE
VIC1,"2003/08/30 10:00",5667.53667,23.93,TRADE
VIC1,"2003/08/30 10:30",5665.32167,22.61,TRADE
VIC1,"2003/08/30 11:00",5651.805,21.16,TRADE
VIC1,"2003/08/30 11:30",5661.355,20.83,TRADE
VIC1,"2003/08/30 12:00",5629.32667,20.72,TRADE
VIC1,"2003/08/30 12:30",5523.21833,20.48,TRADE
VIC1,"2003/08/30 13:00",5484.34833,19.86,TRADE
VIC1,"2003/08/30 13:30",5599.395,18.82,TRADE
VIC1,"2003/08/30 14:00",5547.44,18.3,TRADE
VIC1,"2003/08/30 14:30",5546.95,18.24,TRADE
VIC1,"2003/08/30 15:00",5454.90833,17.7,TRADE
VIC1,"2003/08/30 15:30",5401.285,16.79,TRADE
VIC1,"2003/08/30 16:00",5391.535,17.01,TRADE
VIC1,"2003/08/30 16:30",5416.695,17.38,TRADE
VIC1,"2003/08/30 17:00",5467.205,17.91,TRADE
VIC1,"2003/08/30 17:30",5592.665,19.42,TRADE
VIC1,"2003/08/30 18:00",5805.20667,21.42,TRADE
VIC1,"2003/08/30 18:30",6050.48333,25.98,TRADE
VIC1,"2003/08/30 19:00",6115.98833,25.5,TRADE
VIC1,"2003/08/30 19:30",6019.495,21.49,TRADE
VIC1,"2003/08/30 20:00",5941.995,21.31,TRADE
VIC1,"2003/08/30 20:30",5798.25833,21.01,TRADE
VIC1,"2003/08/30 21:00",5702.305,20.4,TRADE
VIC1,"2003/08/30 21:30",5599.83167,18.24,TRADE
VIC1,"2003/08/30 22:00",5498.48833,17.78,TRADE
VIC1,"2003/08/30 22:30",5429.54167,17.59,TRADE
VIC1,"2003/08/30 23:00",5323.42333,17.32,TRADE
VIC1,"2003/08/30 23:30",5618.80333,19.11,TRADE
VIC1,"2003/08/31 00:00",5577.78,17.93,TRADE
VIC1,"2003/08/31 00:30",5491.18667,17.14,TRADE
VIC1,"2003/08/31 01:00",5436.86333,16.12,TRADE
VIC1,"2003/08/31 01:30",5752.74,17.7,TRADE
VIC1,"2003/08/31 02:00",5600.21833,16.78,TRADE
VIC1,"2003/08/31 02:30",5389.825,14.89,TRADE
VIC1,"2003/08/31 03:00",5203.90667,13.85,TRADE
VIC1,"2003/08/31 03:30",5031.91833,12.76,TRADE
VIC1,"2003/08/31 04:00",4846.85833,11.24,TRADE
VIC1,"2003/08/31 04:30",4756.91167,9.75,TRADE
VIC1,"2003/08/31 05:00",4663.375,9.75,TRADE
VIC1,"2003/08/31 05:30",4615.975,9.9,TRADE
VIC1,"2003/08/31 06:00",4630.16,10.47,TRADE
VIC1,"2003/08/31 06:30",4696.01667,10.92,TRADE
VIC1,"2003/08/31 07:00",4695.635,10.74,TRADE
VIC1,"2003/08/31 07:30",4575.86167,10.89,TRADE
VIC1,"2003/08/31 08:00",4749.57167,12.77,TRADE
VIC1,"2003/08/31 08:30",4916.955,13.52,TRADE
VIC1,"2003/08/31 09:00",5085.49,14.63,TRADE
VIC1,"2003/08/31 09:30",5220.90167,16.86,TRADE
VIC1,"2003/08/31 10:00",5327.67833,17.29,TRADE
VIC1,"2003/08/31 10:30",5407.68333,17.55,TRADE
VIC1,"2003/08/31 11:00",5460.69833,17.66,TRADE
VIC1,"2003/08/31 11:30",5475.185,17.72,TRADE
VIC1,"2003/08/31 12:00",5471.99333,17.68,TRADE
VIC1,"2003/08/31 12:30",5466.63333,16.97,TRADE
VIC1,"2003/08/31 13:00",5442.18167,15.5,TRADE
VIC1,"2003/08/31 13:30",5552.14,16.71,TRADE
VIC1,"2003/08/31 14:00",5541.42833,15.19,TRADE
VIC1,"2003/08/31 14:30",5469.855,14.49,TRADE
VIC1,"2003/08/31 15:00",5416.75333,14.29,TRADE
VIC1,"2003/08/31 15:30",5380.26833,12.71,TRADE
VIC1,"2003/08/31 16:00",5374.64833,13.44,TRADE
VIC1,"2003/08/31 16:30",5334.485,13.59,TRADE
VIC1,"2003/08/31 17:00",5441.85333,14.94,TRADE
VIC1,"2003/08/31 17:30",5577.38333,17.42,TRADE
VIC1,"2003/08/31 18:00",5816.31,20.75,TRADE
VIC1,"2003/08/31 18:30",6118.20667,28.15,TRADE
VIC1,"2003/08/31 19:00",6227.47167,35.9,TRADE
VIC1,"2003/08/31 19:30",6137.61833,26.6,TRADE
VIC1,"2003/08/31 20:00",6053.34667,25.08,TRADE
VIC1,"2003/08/31 20:30",5974.23,23.78,TRADE
VIC1,"2003/08/31 21:00",5885.48,23.42,TRADE
VIC1,"2003/08/31 21:30",5795.91,22.4,TRADE
VIC1,"2003/08/31 22:00",5611.45833,20.43,TRADE
VIC1,"2003/08/31 22:30",5417.26833,19.98,TRADE
VIC1,"2003/08/31 23:00",5341.765,17.95,TRADE
VIC1,"2003/08/31 23:30",5552.69167,18.93,TRADE
VIC1,"2003/09/01 00:00",5512.42167,17.73,TRADE
