REGION,SETTLEMENTDATE,TOTALDEMAND,RRP,PERIODTYPE
SNOWY1,"2006/10/01 00:30:00",130.14,19.84,TRADE
SNOWY1,"2006/10/01 01:00:00",128.64,17.34,TRADE
SNOWY1,"2006/10/01 01:30:00",134.25,19.01,TRADE
SNOWY1,"2006/10/01 02:00:00",131.16,17.69,TRADE
SNOWY1,"2006/10/01 02:30:00",131.26,16.78,TRADE
SNOWY1,"2006/10/01 03:00:00",135.08,16.14,TRADE
SNOWY1,"2006/10/01 03:30:00",133.38,15.62,TRADE
SNOWY1,"2006/10/01 04:00:00",127.56,14.95,TRADE
SNOWY1,"2006/10/01 04:30:00",132.26,14.62,TRADE
SNOWY1,"2006/10/01 05:00:00",125.78,14.64,TRADE
SNOWY1,"2006/10/01 05:30:00",129.6,14.61,TRADE
SNOWY1,"2006/10/01 06:00:00",125.44,14.64,TRADE
SNOWY1,"2006/10/01 06:30:00",127.81,14.94,TRADE
SNOWY1,"2006/10/01 07:00:00",130.28,15.19,TRADE
SNOWY1,"2006/10/01 07:30:00",128.73,14.45,TRADE
SNOWY1,"2006/10/01 08:00:00",131.55,15.73,TRADE
SNOWY1,"2006/10/01 08:30:00",130.02,16.74,TRADE
SNOWY1,"2006/10/01 09:00:00",131.33,17.12,TRADE
SNOWY1,"2006/10/01 09:30:00",131.39,19.76,TRADE
SNOWY1,"2006/10/01 10:00:00",132.87,20.01,TRADE
SNOWY1,"2006/10/01 10:30:00",131,20.29,TRADE
SNOWY1,"2006/10/01 11:00:00",131.5,19.59,TRADE
SNOWY1,"2006/10/01 11:30:00",134.08,19.27,TRADE
SNOWY1,"2006/10/01 12:00:00",129.38,17.64,TRADE
SNOWY1,"2006/10/01 12:30:00",133.06,18.04,TRADE
SNOWY1,"2006/10/01 13:00:00",131.8,17.31,TRADE
SNOWY1,"2006/10/01 13:30:00",133.33,17.14,TRADE
SNOWY1,"2006/10/01 14:00:00",131.71,17.42,TRADE
SNOWY1,"2006/10/01 14:30:00",137.82,16.72,TRADE
SNOWY1,"2006/10/01 15:00:00",132.27,16.62,TRADE
SNOWY1,"2006/10/01 15:30:00",132.74,16.61,TRADE
SNOWY1,"2006/10/01 16:00:00",137.73,17.21,TRADE
SNOWY1,"2006/10/01 16:30:00",130.2,17.45,TRADE
SNOWY1,"2006/10/01 17:00:00",132.17,17.33,TRADE
SNOWY1,"2006/10/01 17:30:00",131.84,17.67,TRADE
SNOWY1,"2006/10/01 18:00:00",96.01,19.61,TRADE
SNOWY1,"2006/10/01 18:30:00",63.04,21.52,TRADE
SNOWY1,"2006/10/01 19:00:00",71.05,23.14,TRADE
SNOWY1,"2006/10/01 19:30:00",71.19,21.55,TRADE
SNOWY1,"2006/10/01 20:00:00",56.12,21.44,TRADE
SNOWY1,"2006/10/01 20:30:00",68.56,20.76,TRADE
SNOWY1,"2006/10/01 21:00:00",74.03,18.31,TRADE
SNOWY1,"2006/10/01 21:30:00",115.78,17.42,TRADE
SNOWY1,"2006/10/01 22:00:00",140,16.9,TRADE
SNOWY1,"2006/10/01 22:30:00",130.91,17.6,TRADE
SNOWY1,"2006/10/01 23:00:00",134.57,16.99,TRADE
SNOWY1,"2006/10/01 23:30:00",131.8,19.93,TRADE
SNOWY1,"2006/10/02 00:00:00",133.05,19.48,TRADE
SNOWY1,"2006/10/02 00:30:00",126.5,18.95,TRADE
SNOWY1,"2006/10/02 01:00:00",131.82,17.07,TRADE
SNOWY1,"2006/10/02 01:30:00",132.68,20.19,TRADE
SNOWY1,"2006/10/02 02:00:00",129.32,18.83,TRADE
SNOWY1,"2006/10/02 02:30:00",129.97,16.63,TRADE
SNOWY1,"2006/10/02 03:00:00",131.91,16.15,TRADE
SNOWY1,"2006/10/02 03:30:00",130.81,14.81,TRADE
SNOWY1,"2006/10/02 04:00:00",131.21,14.46,TRADE
SNOWY1,"2006/10/02 04:30:00",126.19,14.62,TRADE
SNOWY1,"2006/10/02 05:00:00",128.39,15.15,TRADE
SNOWY1,"2006/10/02 05:30:00",132.16,15.89,TRADE
SNOWY1,"2006/10/02 06:00:00",129.8,15.94,TRADE
SNOWY1,"2006/10/02 06:30:00",132.26,18.09,TRADE
SNOWY1,"2006/10/02 07:00:00",139.15,19.06,TRADE
SNOWY1,"2006/10/02 07:30:00",133.52,17.46,TRADE
SNOWY1,"2006/10/02 08:00:00",109.77,20.44,TRADE
SNOWY1,"2006/10/02 08:30:00",61.01,21.87,TRADE
SNOWY1,"2006/10/02 09:00:00",98.15,21.75,TRADE
SNOWY1,"2006/10/02 09:30:00",92.58,21.53,TRADE
SNOWY1,"2006/10/02 10:00:00",91.4,21.54,TRADE
SNOWY1,"2006/10/02 10:30:00",101.11,21.59,TRADE
SNOWY1,"2006/10/02 11:00:00",97.38,21.68,TRADE
SNOWY1,"2006/10/02 11:30:00",99.7,21.77,TRADE
SNOWY1,"2006/10/02 12:00:00",101.9,22.41,TRADE
SNOWY1,"2006/10/02 12:30:00",83.13,23.03,TRADE
SNOWY1,"2006/10/02 13:00:00",64.03,22.05,TRADE
SNOWY1,"2006/10/02 13:30:00",62.71,21.79,TRADE
SNOWY1,"2006/10/02 14:00:00",70.51,21.64,TRADE
SNOWY1,"2006/10/02 14:30:00",59.15,21.58,TRADE
SNOWY1,"2006/10/02 15:00:00",68.84,21.55,TRADE
SNOWY1,"2006/10/02 15:30:00",61.35,21.5,TRADE
SNOWY1,"2006/10/02 16:00:00",63.83,21.52,TRADE
SNOWY1,"2006/10/02 16:30:00",62.7,21.6,TRADE
SNOWY1,"2006/10/02 17:00:00",62.54,21.5,TRADE
SNOWY1,"2006/10/02 17:30:00",62.62,21.64,TRADE
SNOWY1,"2006/10/02 18:00:00",63.82,21.79,TRADE
SNOWY1,"2006/10/02 18:30:00",63.3,25.6,TRADE
SNOWY1,"2006/10/02 19:00:00",71.54,31.78,TRADE
SNOWY1,"2006/10/02 19:30:00",68.47,25.39,TRADE
SNOWY1,"2006/10/02 20:00:00",53.22,22.57,TRADE
SNOWY1,"2006/10/02 20:30:00",63.5,22.03,TRADE
SNOWY1,"2006/10/02 21:00:00",61.34,21.76,TRADE
SNOWY1,"2006/10/02 21:30:00",66.33,20.28,TRADE
SNOWY1,"2006/10/02 22:00:00",64.6,17.14,TRADE
SNOWY1,"2006/10/02 22:30:00",119.86,18.11,TRADE
SNOWY1,"2006/10/02 23:00:00",133.98,17.03,TRADE
SNOWY1,"2006/10/02 23:30:00",136.52,22.05,TRADE
SNOWY1,"2006/10/03 00:00:00",135.27,19.98,TRADE
SNOWY1,"2006/10/03 00:30:00",129.01,17.12,TRADE
SNOWY1,"2006/10/03 01:00:00",132.33,16.67,TRADE
SNOWY1,"2006/10/03 01:30:00",126.39,19.6,TRADE
SNOWY1,"2006/10/03 02:00:00",133.82,17.53,TRADE
SNOWY1,"2006/10/03 02:30:00",130.86,16.15,TRADE
SNOWY1,"2006/10/03 03:00:00",127.63,15.04,TRADE
SNOWY1,"2006/10/03 03:30:00",129.51,14.62,TRADE
SNOWY1,"2006/10/03 04:00:00",125.75,13.56,TRADE
SNOWY1,"2006/10/03 04:30:00",125.17,13.63,TRADE
SNOWY1,"2006/10/03 05:00:00",129.84,14.77,TRADE
SNOWY1,"2006/10/03 05:30:00",131.79,15.78,TRADE
SNOWY1,"2006/10/03 06:00:00",132.34,15.95,TRADE
SNOWY1,"2006/10/03 06:30:00",94.54,19.62,TRADE
SNOWY1,"2006/10/03 07:00:00",61.8,20.97,TRADE
SNOWY1,"2006/10/03 07:30:00",60.05,21.36,TRADE
SNOWY1,"2006/10/03 08:00:00",61.6,23.13,TRADE
SNOWY1,"2006/10/03 08:30:00",70.12,24.31,TRADE
SNOWY1,"2006/10/03 09:00:00",61.21,30.38,TRADE
SNOWY1,"2006/10/03 09:30:00",69.62,32.15,TRADE
SNOWY1,"2006/10/03 10:00:00",67.86,31.99,TRADE
SNOWY1,"2006/10/03 10:30:00",73.78,32,TRADE
SNOWY1,"2006/10/03 11:00:00",63.6,32,TRADE
SNOWY1,"2006/10/03 11:30:00",83.15,30.6,TRADE
SNOWY1,"2006/10/03 12:00:00",61.79,29.49,TRADE
SNOWY1,"2006/10/03 12:30:00",62,31.89,TRADE
SNOWY1,"2006/10/03 13:00:00",59.98,27.63,TRADE
SNOWY1,"2006/10/03 13:30:00",67.72,26.54,TRADE
SNOWY1,"2006/10/03 14:00:00",67.57,27.29,TRADE
SNOWY1,"2006/10/03 14:30:00",58.21,27.61,TRADE
SNOWY1,"2006/10/03 15:00:00",54.77,27.05,TRADE
SNOWY1,"2006/10/03 15:30:00",55.13,25.06,TRADE
SNOWY1,"2006/10/03 16:00:00",53.61,25.78,TRADE
SNOWY1,"2006/10/03 16:30:00",55.33,26.02,TRADE
SNOWY1,"2006/10/03 17:00:00",61.09,27.58,TRADE
SNOWY1,"2006/10/03 17:30:00",69.1,28.37,TRADE
SNOWY1,"2006/10/03 18:00:00",50.84,31.13,TRADE
SNOWY1,"2006/10/03 18:30:00",66.55,32,TRADE
SNOWY1,"2006/10/03 19:00:00",73.49,34.6,TRADE
SNOWY1,"2006/10/03 19:30:00",67.27,31.69,TRADE
SNOWY1,"2006/10/03 20:00:00",51.41,28.88,TRADE
SNOWY1,"2006/10/03 20:30:00",58.26,26.6,TRADE
SNOWY1,"2006/10/03 21:00:00",61.12,25.65,TRADE
SNOWY1,"2006/10/03 21:30:00",53.48,23.12,TRADE
SNOWY1,"2006/10/03 22:00:00",68.46,21.22,TRADE
SNOWY1,"2006/10/03 22:30:00",59.11,22.87,TRADE
SNOWY1,"2006/10/03 23:00:00",62.01,20.94,TRADE
SNOWY1,"2006/10/03 23:30:00",66.6,22.58,TRADE
SNOWY1,"2006/10/04 00:00:00",65.22,21.59,TRADE
SNOWY1,"2006/10/04 00:30:00",68.18,19.01,TRADE
SNOWY1,"2006/10/04 01:00:00",59.6,16.99,TRADE
SNOWY1,"2006/10/04 01:30:00",93.02,19.27,TRADE
SNOWY1,"2006/10/04 02:00:00",129.46,17.51,TRADE
SNOWY1,"2006/10/04 02:30:00",129.58,16.11,TRADE
SNOWY1,"2006/10/04 03:00:00",132.04,15.11,TRADE
SNOWY1,"2006/10/04 03:30:00",129.78,14.45,TRADE
SNOWY1,"2006/10/04 04:00:00",130.67,12.5,TRADE
SNOWY1,"2006/10/04 04:30:00",124.18,11.23,TRADE
SNOWY1,"2006/10/04 05:00:00",126.19,13.47,TRADE
SNOWY1,"2006/10/04 05:30:00",126.03,15.1,TRADE
SNOWY1,"2006/10/04 06:00:00",131.87,15.85,TRADE
SNOWY1,"2006/10/04 06:30:00",113.11,19.23,TRADE
SNOWY1,"2006/10/04 07:00:00",58.89,21.06,TRADE
SNOWY1,"2006/10/04 07:30:00",60.69,20.99,TRADE
SNOWY1,"2006/10/04 08:00:00",58.53,21.83,TRADE
SNOWY1,"2006/10/04 08:30:00",60.41,22.97,TRADE
SNOWY1,"2006/10/04 09:00:00",67,24,TRADE
SNOWY1,"2006/10/04 09:30:00",56.85,24.18,TRADE
SNOWY1,"2006/10/04 10:00:00",60.43,24.37,TRADE
SNOWY1,"2006/10/04 10:30:00",52.64,26.27,TRADE
SNOWY1,"2006/10/04 11:00:00",58.07,30.02,TRADE
SNOWY1,"2006/10/04 11:30:00",63.04,30.14,TRADE
SNOWY1,"2006/10/04 12:00:00",50.77,29.62,TRADE
SNOWY1,"2006/10/04 12:30:00",61.58,28.92,TRADE
SNOWY1,"2006/10/04 13:00:00",59.86,31.36,TRADE
SNOWY1,"2006/10/04 13:30:00",75.28,30.94,TRADE
SNOWY1,"2006/10/04 14:00:00",64.6,27.61,TRADE
SNOWY1,"2006/10/04 14:30:00",56.77,31.06,TRADE
SNOWY1,"2006/10/04 15:00:00",67.98,26.36,TRADE
SNOWY1,"2006/10/04 15:30:00",64.65,25.14,TRADE
SNOWY1,"2006/10/04 16:00:00",61.36,24.12,TRADE
SNOWY1,"2006/10/04 16:30:00",59,26.11,TRADE
SNOWY1,"2006/10/04 17:00:00",63.13,27.45,TRADE
SNOWY1,"2006/10/04 17:30:00",57.86,26.84,TRADE
SNOWY1,"2006/10/04 18:00:00",62.64,28.34,TRADE
SNOWY1,"2006/10/04 18:30:00",64.9,30.12,TRADE
SNOWY1,"2006/10/04 19:00:00",72.03,32,TRADE
SNOWY1,"2006/10/04 19:30:00",67.36,27.82,TRADE
SNOWY1,"2006/10/04 20:00:00",69.19,25.31,TRADE
SNOWY1,"2006/10/04 20:30:00",60.65,24.08,TRADE
SNOWY1,"2006/10/04 21:00:00",58.65,24.14,TRADE
SNOWY1,"2006/10/04 21:30:00",55.45,23.34,TRADE
SNOWY1,"2006/10/04 22:00:00",44.89,22.2,TRADE
SNOWY1,"2006/10/04 22:30:00",58.73,22.32,TRADE
SNOWY1,"2006/10/04 23:00:00",58.62,21.61,TRADE
SNOWY1,"2006/10/04 23:30:00",56.08,24.75,TRADE
SNOWY1,"2006/10/05 00:00:00",62.62,24.62,TRADE
SNOWY1,"2006/10/05 00:30:00",62.7,22.07,TRADE
SNOWY1,"2006/10/05 01:00:00",48.95,19.7,TRADE
SNOWY1,"2006/10/05 01:30:00",52.86,21.16,TRADE
SNOWY1,"2006/10/05 02:00:00",82.6,17.87,TRADE
SNOWY1,"2006/10/05 02:30:00",133.36,18.04,TRADE
SNOWY1,"2006/10/05 03:00:00",130.07,16.45,TRADE
SNOWY1,"2006/10/05 03:30:00",128.77,15.66,TRADE
SNOWY1,"2006/10/05 04:00:00",130.4,15.1,TRADE
SNOWY1,"2006/10/05 04:30:00",129.37,15.06,TRADE
SNOWY1,"2006/10/05 05:00:00",130.37,15.6,TRADE
SNOWY1,"2006/10/05 05:30:00",129.29,16.51,TRADE
SNOWY1,"2006/10/05 06:00:00",124.31,17.75,TRADE
SNOWY1,"2006/10/05 06:30:00",62.04,19.63,TRADE
SNOWY1,"2006/10/05 07:00:00",62.57,22.44,TRADE
SNOWY1,"2006/10/05 07:30:00",74.15,21.36,TRADE
SNOWY1,"2006/10/05 08:00:00",56.72,23.92,TRADE
SNOWY1,"2006/10/05 08:30:00",60.53,27.55,TRADE
SNOWY1,"2006/10/05 09:00:00",60.4,28.74,TRADE
SNOWY1,"2006/10/05 09:30:00",60.15,28.77,TRADE
SNOWY1,"2006/10/05 10:00:00",57.67,30.87,TRADE
SNOWY1,"2006/10/05 10:30:00",64.04,29.17,TRADE
SNOWY1,"2006/10/05 11:00:00",60.19,29.23,TRADE
SNOWY1,"2006/10/05 11:30:00",69.92,29.9,TRADE
SNOWY1,"2006/10/05 12:00:00",63.6,29.09,TRADE
SNOWY1,"2006/10/05 12:30:00",52.6,27.9,TRADE
SNOWY1,"2006/10/05 13:00:00",62.12,25.93,TRADE
SNOWY1,"2006/10/05 13:30:00",51.92,25.38,TRADE
SNOWY1,"2006/10/05 14:00:00",63.63,26.1,TRADE
SNOWY1,"2006/10/05 14:30:00",63.34,27.13,TRADE
SNOWY1,"2006/10/05 15:00:00",58.01,26.12,TRADE
SNOWY1,"2006/10/05 15:30:00",60.29,24.12,TRADE
SNOWY1,"2006/10/05 16:00:00",69.09,24,TRADE
SNOWY1,"2006/10/05 16:30:00",54.22,24,TRADE
SNOWY1,"2006/10/05 17:00:00",51.73,24,TRADE
SNOWY1,"2006/10/05 17:30:00",58.45,27.51,TRADE
SNOWY1,"2006/10/05 18:00:00",57.29,29.43,TRADE
SNOWY1,"2006/10/05 18:30:00",53.94,31.42,TRADE
SNOWY1,"2006/10/05 19:00:00",58.97,34.44,TRADE
SNOWY1,"2006/10/05 19:30:00",62.22,32.3,TRADE
SNOWY1,"2006/10/05 20:00:00",48.4,31.03,TRADE
SNOWY1,"2006/10/05 20:30:00",54.22,28.66,TRADE
SNOWY1,"2006/10/05 21:00:00",62.15,26.3,TRADE
SNOWY1,"2006/10/05 21:30:00",66.87,22.21,TRADE
SNOWY1,"2006/10/05 22:00:00",58.84,20.83,TRADE
SNOWY1,"2006/10/05 22:30:00",60.08,22.92,TRADE
SNOWY1,"2006/10/05 23:00:00",60.75,22.04,TRADE
SNOWY1,"2006/10/05 23:30:00",64.11,23.37,TRADE
SNOWY1,"2006/10/06 00:00:00",67.82,22.57,TRADE
SNOWY1,"2006/10/06 00:30:00",64.08,21.68,TRADE
SNOWY1,"2006/10/06 01:00:00",68.08,21.19,TRADE
SNOWY1,"2006/10/06 01:30:00",65.35,22.51,TRADE
SNOWY1,"2006/10/06 02:00:00",98.8,21.24,TRADE
SNOWY1,"2006/10/06 02:30:00",130.82,18.96,TRADE
SNOWY1,"2006/10/06 03:00:00",134.06,16.77,TRADE
SNOWY1,"2006/10/06 03:30:00",133.66,16.28,TRADE
SNOWY1,"2006/10/06 04:00:00",133.7,15.72,TRADE
SNOWY1,"2006/10/06 04:30:00",135.26,15.77,TRADE
SNOWY1,"2006/10/06 05:00:00",135.89,16.3,TRADE
SNOWY1,"2006/10/06 05:30:00",138.79,17.75,TRADE
SNOWY1,"2006/10/06 06:00:00",127.36,18.82,TRADE
SNOWY1,"2006/10/06 06:30:00",77.24,22.56,TRADE
SNOWY1,"2006/10/06 07:00:00",55.02,23.55,TRADE
SNOWY1,"2006/10/06 07:30:00",55.62,22.25,TRADE
SNOWY1,"2006/10/06 08:00:00",54.45,23.22,TRADE
SNOWY1,"2006/10/06 08:30:00",49.36,30.56,TRADE
SNOWY1,"2006/10/06 09:00:00",60.18,31.87,TRADE
SNOWY1,"2006/10/06 09:30:00",62.52,32,TRADE
SNOWY1,"2006/10/06 10:00:00",64.51,32.15,TRADE
SNOWY1,"2006/10/06 10:30:00",47.6,32,TRADE
SNOWY1,"2006/10/06 11:00:00",56.16,32.12,TRADE
SNOWY1,"2006/10/06 11:30:00",67.79,32,TRADE
SNOWY1,"2006/10/06 12:00:00",62.76,32.12,TRADE
SNOWY1,"2006/10/06 12:30:00",62.18,30.3,TRADE
SNOWY1,"2006/10/06 13:00:00",57.01,29.75,TRADE
SNOWY1,"2006/10/06 13:30:00",59.1,29.92,TRADE
SNOWY1,"2006/10/06 14:00:00",56.71,28.22,TRADE
SNOWY1,"2006/10/06 14:30:00",64.86,28.77,TRADE
SNOWY1,"2006/10/06 15:00:00",59.64,27.6,TRADE
SNOWY1,"2006/10/06 15:30:00",56.12,27.55,TRADE
SNOWY1,"2006/10/06 16:00:00",57.29,27.17,TRADE
SNOWY1,"2006/10/06 16:30:00",56.49,27.86,TRADE
SNOWY1,"2006/10/06 17:00:00",63,27.73,TRADE
SNOWY1,"2006/10/06 17:30:00",57.26,25.05,TRADE
SNOWY1,"2006/10/06 18:00:00",52.78,26.01,TRADE
SNOWY1,"2006/10/06 18:30:00",73.17,27.71,TRADE
SNOWY1,"2006/10/06 19:00:00",65.03,30.16,TRADE
SNOWY1,"2006/10/06 19:30:00",61.52,27.47,TRADE
SNOWY1,"2006/10/06 20:00:00",58.81,24.18,TRADE
SNOWY1,"2006/10/06 20:30:00",63.67,24.53,TRADE
SNOWY1,"2006/10/06 21:00:00",50.95,23.05,TRADE
SNOWY1,"2006/10/06 21:30:00",57.28,22.23,TRADE
SNOWY1,"2006/10/06 22:00:00",54.44,20.35,TRADE
SNOWY1,"2006/10/06 22:30:00",62.69,21.94,TRADE
SNOWY1,"2006/10/06 23:00:00",58.11,22.27,TRADE
SNOWY1,"2006/10/06 23:30:00",61.38,25.72,TRADE
SNOWY1,"2006/10/07 00:00:00",55.24,24.65,TRADE
SNOWY1,"2006/10/07 00:30:00",52.95,22.78,TRADE
SNOWY1,"2006/10/07 01:00:00",58.81,20.82,TRADE
SNOWY1,"2006/10/07 01:30:00",53.88,22.79,TRADE
SNOWY1,"2006/10/07 02:00:00",76.31,20.18,TRADE
SNOWY1,"2006/10/07 02:30:00",126.81,19.53,TRADE
SNOWY1,"2006/10/07 03:00:00",135.38,17.67,TRADE
SNOWY1,"2006/10/07 03:30:00",128.41,15.86,TRADE
SNOWY1,"2006/10/07 04:00:00",129.32,15.86,TRADE
SNOWY1,"2006/10/07 04:30:00",131.36,15.77,TRADE
SNOWY1,"2006/10/07 05:00:00",132.01,15.78,TRADE
SNOWY1,"2006/10/07 05:30:00",132.57,15.54,TRADE
SNOWY1,"2006/10/07 06:00:00",135.43,15.34,TRADE
SNOWY1,"2006/10/07 06:30:00",129.62,15.64,TRADE
SNOWY1,"2006/10/07 07:00:00",134.66,15.9,TRADE
SNOWY1,"2006/10/07 07:30:00",128.9,15.96,TRADE
SNOWY1,"2006/10/07 08:00:00",124.29,19.06,TRADE
SNOWY1,"2006/10/07 08:30:00",72.8,21.26,TRADE
SNOWY1,"2006/10/07 09:00:00",57.76,21.61,TRADE
SNOWY1,"2006/10/07 09:30:00",53.87,22.54,TRADE
SNOWY1,"2006/10/07 10:00:00",53.57,21.52,TRADE
SNOWY1,"2006/10/07 10:30:00",48.68,21.55,TRADE
SNOWY1,"2006/10/07 11:00:00",55.29,21.53,TRADE
SNOWY1,"2006/10/07 11:30:00",53.91,21.56,TRADE
SNOWY1,"2006/10/07 12:00:00",58.04,21.58,TRADE
SNOWY1,"2006/10/07 12:30:00",55.61,21.66,TRADE
SNOWY1,"2006/10/07 13:00:00",52.96,21.59,TRADE
SNOWY1,"2006/10/07 13:30:00",56.5,21.56,TRADE
SNOWY1,"2006/10/07 14:00:00",56.11,21.25,TRADE
SNOWY1,"2006/10/07 14:30:00",50.75,20.68,TRADE
SNOWY1,"2006/10/07 15:00:00",48.63,20.47,TRADE
SNOWY1,"2006/10/07 15:30:00",52.43,19.92,TRADE
SNOWY1,"2006/10/07 16:00:00",54.64,20.09,TRADE
SNOWY1,"2006/10/07 16:30:00",50.67,20.13,TRADE
SNOWY1,"2006/10/07 17:00:00",61.04,21.51,TRADE
SNOWY1,"2006/10/07 17:30:00",58.75,20.95,TRADE
SNOWY1,"2006/10/07 18:00:00",56.33,21.41,TRADE
SNOWY1,"2006/10/07 18:30:00",57.77,23.75,TRADE
SNOWY1,"2006/10/07 19:00:00",57.21,25.93,TRADE
SNOWY1,"2006/10/07 19:30:00",58.52,25.02,TRADE
SNOWY1,"2006/10/07 20:00:00",46.57,22.7,TRADE
SNOWY1,"2006/10/07 20:30:00",55.48,21.77,TRADE
SNOWY1,"2006/10/07 21:00:00",51.88,21.21,TRADE
SNOWY1,"2006/10/07 21:30:00",48.21,19.21,TRADE
SNOWY1,"2006/10/07 22:00:00",51.04,17.65,TRADE
SNOWY1,"2006/10/07 22:30:00",57.27,18.43,TRADE
SNOWY1,"2006/10/07 23:00:00",124.92,18.65,TRADE
SNOWY1,"2006/10/07 23:30:00",129.28,21.32,TRADE
SNOWY1,"2006/10/08 00:00:00",124.77,20.16,TRADE
SNOWY1,"2006/10/08 00:30:00",123.62,18.24,TRADE
SNOWY1,"2006/10/08 01:00:00",123.28,17.15,TRADE
SNOWY1,"2006/10/08 01:30:00",124.45,19.06,TRADE
SNOWY1,"2006/10/08 02:00:00",122.62,16.94,TRADE
SNOWY1,"2006/10/08 02:30:00",125.72,15.71,TRADE
SNOWY1,"2006/10/08 03:00:00",127.67,14.98,TRADE
SNOWY1,"2006/10/08 03:30:00",127.29,14.04,TRADE
SNOWY1,"2006/10/08 04:00:00",129.07,11.88,TRADE
SNOWY1,"2006/10/08 04:30:00",124.98,11.64,TRADE
SNOWY1,"2006/10/08 05:00:00",119.84,11.55,TRADE
SNOWY1,"2006/10/08 05:30:00",125.18,11.55,TRADE
SNOWY1,"2006/10/08 06:00:00",119.79,11.55,TRADE
SNOWY1,"2006/10/08 06:30:00",122.18,13.41,TRADE
SNOWY1,"2006/10/08 07:00:00",123.51,14.32,TRADE
SNOWY1,"2006/10/08 07:30:00",124.5,14.4,TRADE
SNOWY1,"2006/10/08 08:00:00",120.6,15.3,TRADE
SNOWY1,"2006/10/08 08:30:00",81.56,15.82,TRADE
SNOWY1,"2006/10/08 09:00:00",76.43,16.45,TRADE
SNOWY1,"2006/10/08 09:30:00",75.31,17.46,TRADE
SNOWY1,"2006/10/08 10:00:00",78.46,17.66,TRADE
SNOWY1,"2006/10/08 10:30:00",73.1,18.14,TRADE
SNOWY1,"2006/10/08 11:00:00",82.7,18.36,TRADE
SNOWY1,"2006/10/08 11:30:00",119.87,18.25,TRADE
SNOWY1,"2006/10/08 12:00:00",118.78,18.9,TRADE
SNOWY1,"2006/10/08 12:30:00",119.8,19.48,TRADE
SNOWY1,"2006/10/08 13:00:00",121.74,18.19,TRADE
SNOWY1,"2006/10/08 13:30:00",120.22,17.55,TRADE
SNOWY1,"2006/10/08 14:00:00",118.4,17.35,TRADE
SNOWY1,"2006/10/08 14:30:00",115.7,17.14,TRADE
SNOWY1,"2006/10/08 15:00:00",113.93,16.62,TRADE
SNOWY1,"2006/10/08 15:30:00",111.77,16.5,TRADE
SNOWY1,"2006/10/08 16:00:00",118.33,16.96,TRADE
SNOWY1,"2006/10/08 16:30:00",118.16,16.85,TRADE
SNOWY1,"2006/10/08 17:00:00",118.47,17.42,TRADE
SNOWY1,"2006/10/08 17:30:00",120.14,17.94,TRADE
SNOWY1,"2006/10/08 18:00:00",66.95,20.74,TRADE
SNOWY1,"2006/10/08 18:30:00",48.74,22.51,TRADE
SNOWY1,"2006/10/08 19:00:00",66.84,26.17,TRADE
SNOWY1,"2006/10/08 19:30:00",49.58,25.76,TRADE
SNOWY1,"2006/10/08 20:00:00",55.12,23.23,TRADE
SNOWY1,"2006/10/08 20:30:00",42.98,22.53,TRADE
SNOWY1,"2006/10/08 21:00:00",52.17,21.91,TRADE
SNOWY1,"2006/10/08 21:30:00",54.98,21.23,TRADE
SNOWY1,"2006/10/08 22:00:00",52.96,18.14,TRADE
SNOWY1,"2006/10/08 22:30:00",51.16,19.23,TRADE
SNOWY1,"2006/10/08 23:00:00",76.94,17.81,TRADE
SNOWY1,"2006/10/08 23:30:00",85.35,20.24,TRADE
SNOWY1,"2006/10/09 00:00:00",90.37,19.15,TRADE
SNOWY1,"2006/10/09 00:30:00",123.47,19.06,TRADE
SNOWY1,"2006/10/09 01:00:00",120.57,18.56,TRADE
SNOWY1,"2006/10/09 01:30:00",124.72,21.49,TRADE
SNOWY1,"2006/10/09 02:00:00",119.76,20.4,TRADE
SNOWY1,"2006/10/09 02:30:00",119.15,16.48,TRADE
SNOWY1,"2006/10/09 03:00:00",115.95,16,TRADE
SNOWY1,"2006/10/09 03:30:00",122.88,15.7,TRADE
SNOWY1,"2006/10/09 04:00:00",118.43,15.46,TRADE
SNOWY1,"2006/10/09 04:30:00",124.93,15.15,TRADE
SNOWY1,"2006/10/09 05:00:00",125.47,16.08,TRADE
SNOWY1,"2006/10/09 05:30:00",130.68,16.55,TRADE
SNOWY1,"2006/10/09 06:00:00",104.64,18.6,TRADE
SNOWY1,"2006/10/09 06:30:00",61.52,20.23,TRADE
SNOWY1,"2006/10/09 07:00:00",57.31,22.65,TRADE
SNOWY1,"2006/10/09 07:30:00",66.83,21.8,TRADE
SNOWY1,"2006/10/09 08:00:00",53.24,23.43,TRADE
SNOWY1,"2006/10/09 08:30:00",58.25,24.96,TRADE
SNOWY1,"2006/10/09 09:00:00",58.48,24.67,TRADE
SNOWY1,"2006/10/09 09:30:00",50.42,26.27,TRADE
SNOWY1,"2006/10/09 10:00:00",52.47,25.33,TRADE
SNOWY1,"2006/10/09 10:30:00",57.26,24.41,TRADE
SNOWY1,"2006/10/09 11:00:00",55.31,24.57,TRADE
SNOWY1,"2006/10/09 11:30:00",56.54,23.56,TRADE
SNOWY1,"2006/10/09 12:00:00",45.16,23.3,TRADE
SNOWY1,"2006/10/09 12:30:00",52.66,22.94,TRADE
SNOWY1,"2006/10/09 13:00:00",68.41,23.98,TRADE
SNOWY1,"2006/10/09 13:30:00",65.98,24.02,TRADE
SNOWY1,"2006/10/09 14:00:00",52.33,25.94,TRADE
SNOWY1,"2006/10/09 14:30:00",57.55,24.69,TRADE
SNOWY1,"2006/10/09 15:00:00",52.64,24.63,TRADE
SNOWY1,"2006/10/09 15:30:00",65.84,23.42,TRADE
SNOWY1,"2006/10/09 16:00:00",54.37,23.95,TRADE
SNOWY1,"2006/10/09 16:30:00",63.14,24,TRADE
SNOWY1,"2006/10/09 17:00:00",58.74,26.94,TRADE
SNOWY1,"2006/10/09 17:30:00",52.63,28.98,TRADE
SNOWY1,"2006/10/09 18:00:00",51.78,29.78,TRADE
SNOWY1,"2006/10/09 18:30:00",55.42,31.18,TRADE
SNOWY1,"2006/10/09 19:00:00",65.72,40.44,TRADE
SNOWY1,"2006/10/09 19:30:00",62.07,34.04,TRADE
SNOWY1,"2006/10/09 20:00:00",57.16,32,TRADE
SNOWY1,"2006/10/09 20:30:00",59.64,32.92,TRADE
SNOWY1,"2006/10/09 21:00:00",50.23,31.2,TRADE
SNOWY1,"2006/10/09 21:30:00",55.77,27,TRADE
SNOWY1,"2006/10/09 22:00:00",46.43,23.1,TRADE
SNOWY1,"2006/10/09 22:30:00",45.28,25.27,TRADE
SNOWY1,"2006/10/09 23:00:00",57.74,24.41,TRADE
SNOWY1,"2006/10/09 23:30:00",57.76,27.35,TRADE
SNOWY1,"2006/10/10 00:00:00",59.73,24.69,TRADE
SNOWY1,"2006/10/10 00:30:00",57.59,22.68,TRADE
SNOWY1,"2006/10/10 01:00:00",55.28,20.91,TRADE
SNOWY1,"2006/10/10 01:30:00",56.55,23.8,TRADE
SNOWY1,"2006/10/10 02:00:00",59.57,20.98,TRADE
SNOWY1,"2006/10/10 02:30:00",52.04,19.46,TRADE
SNOWY1,"2006/10/10 03:00:00",74.65,19.13,TRADE
SNOWY1,"2006/10/10 03:30:00",116.32,17.16,TRADE
SNOWY1,"2006/10/10 04:00:00",122.44,17.25,TRADE
SNOWY1,"2006/10/10 04:30:00",126.17,16.71,TRADE
SNOWY1,"2006/10/10 05:00:00",123.81,17.21,TRADE
SNOWY1,"2006/10/10 05:30:00",125.49,17.79,TRADE
SNOWY1,"2006/10/10 06:00:00",112.26,18.86,TRADE
SNOWY1,"2006/10/10 06:30:00",77.44,24.23,TRADE
SNOWY1,"2006/10/10 07:00:00",71.58,27.58,TRADE
SNOWY1,"2006/10/10 07:30:00",57.77,28.65,TRADE
SNOWY1,"2006/10/10 08:00:00",60.97,32,TRADE
SNOWY1,"2006/10/10 08:30:00",55.15,32,TRADE
SNOWY1,"2006/10/10 09:00:00",52.49,32,TRADE
SNOWY1,"2006/10/10 09:30:00",53.14,32,TRADE
SNOWY1,"2006/10/10 10:00:00",45.99,32,TRADE
SNOWY1,"2006/10/10 10:30:00",50.71,32,TRADE
SNOWY1,"2006/10/10 11:00:00",59.88,32,TRADE
SNOWY1,"2006/10/10 11:30:00",53.24,32,TRADE
SNOWY1,"2006/10/10 12:00:00",48.69,32,TRADE
SNOWY1,"2006/10/10 12:30:00",48.46,32,TRADE
SNOWY1,"2006/10/10 13:00:00",48.36,32,TRADE
SNOWY1,"2006/10/10 13:30:00",53.13,31.92,TRADE
SNOWY1,"2006/10/10 14:00:00",49.63,31.17,TRADE
SNOWY1,"2006/10/10 14:30:00",51.52,32,TRADE
SNOWY1,"2006/10/10 15:00:00",48.74,31.95,TRADE
SNOWY1,"2006/10/10 15:30:00",46.81,31.5,TRADE
SNOWY1,"2006/10/10 16:00:00",51.78,31.45,TRADE
SNOWY1,"2006/10/10 16:30:00",49.47,31,TRADE
SNOWY1,"2006/10/10 17:00:00",49.88,31.12,TRADE
SNOWY1,"2006/10/10 17:30:00",55.63,31.98,TRADE
SNOWY1,"2006/10/10 18:00:00",48.98,32,TRADE
SNOWY1,"2006/10/10 18:30:00",48.62,34.41,TRADE
SNOWY1,"2006/10/10 19:00:00",56.23,42,TRADE
SNOWY1,"2006/10/10 19:30:00",59.24,37.55,TRADE
SNOWY1,"2006/10/10 20:00:00",52.97,32,TRADE
SNOWY1,"2006/10/10 20:30:00",52.96,32.88,TRADE
SNOWY1,"2006/10/10 21:00:00",55.2,31.51,TRADE
SNOWY1,"2006/10/10 21:30:00",54.12,28.56,TRADE
SNOWY1,"2006/10/10 22:00:00",55.67,21.91,TRADE
SNOWY1,"2006/10/10 22:30:00",55.09,23.92,TRADE
SNOWY1,"2006/10/10 23:00:00",56.45,23.44,TRADE
SNOWY1,"2006/10/10 23:30:00",46.4,25.82,TRADE
SNOWY1,"2006/10/11 00:00:00",50.97,23.38,TRADE
SNOWY1,"2006/10/11 00:30:00",58.74,22.49,TRADE
SNOWY1,"2006/10/11 01:00:00",60.59,20.58,TRADE
SNOWY1,"2006/10/11 01:30:00",49.08,22.57,TRADE
SNOWY1,"2006/10/11 02:00:00",48.98,20.2,TRADE
SNOWY1,"2006/10/11 02:30:00",48.84,19.04,TRADE
SNOWY1,"2006/10/11 03:00:00",80.48,17.55,TRADE
SNOWY1,"2006/10/11 03:30:00",117.83,17.16,TRADE
SNOWY1,"2006/10/11 04:00:00",118.75,16.06,TRADE
SNOWY1,"2006/10/11 04:30:00",111.46,16.36,TRADE
SNOWY1,"2006/10/11 05:00:00",116.65,16.96,TRADE
SNOWY1,"2006/10/11 05:30:00",115.95,17.05,TRADE
SNOWY1,"2006/10/11 06:00:00",119.83,16.98,TRADE
SNOWY1,"2006/10/11 06:30:00",111.4,18.95,TRADE
SNOWY1,"2006/10/11 07:00:00",56.03,22.28,TRADE
SNOWY1,"2006/10/11 07:30:00",57.79,22.16,TRADE
SNOWY1,"2006/10/11 08:00:00",56.02,28.43,TRADE
SNOWY1,"2006/10/11 08:30:00",57.59,32,TRADE
SNOWY1,"2006/10/11 09:00:00",55.31,31.89,TRADE
SNOWY1,"2006/10/11 09:30:00",51.14,31.59,TRADE
SNOWY1,"2006/10/11 10:00:00",52.21,31.87,TRADE
SNOWY1,"2006/10/11 10:30:00",59.78,31.87,TRADE
SNOWY1,"2006/10/11 11:00:00",66.33,32,TRADE
SNOWY1,"2006/10/11 11:30:00",62.93,32,TRADE
SNOWY1,"2006/10/11 12:00:00",60.22,32.59,TRADE
SNOWY1,"2006/10/11 12:30:00",54.75,33.26,TRADE
SNOWY1,"2006/10/11 13:00:00",58.05,32.62,TRADE
SNOWY1,"2006/10/11 13:30:00",57.62,32.51,TRADE
SNOWY1,"2006/10/11 14:00:00",58.74,35.03,TRADE
SNOWY1,"2006/10/11 14:30:00",64.52,39.29,TRADE
SNOWY1,"2006/10/11 15:00:00",66.96,37.14,TRADE
SNOWY1,"2006/10/11 15:30:00",61.36,37.69,TRADE
SNOWY1,"2006/10/11 16:00:00",59.05,32,TRADE
SNOWY1,"2006/10/11 16:30:00",57.87,32,TRADE
SNOWY1,"2006/10/11 17:00:00",49.83,32,TRADE
SNOWY1,"2006/10/11 17:30:00",51.83,32,TRADE
SNOWY1,"2006/10/11 18:00:00",53.88,32,TRADE
SNOWY1,"2006/10/11 18:30:00",59.56,33.11,TRADE
SNOWY1,"2006/10/11 19:00:00",54.17,36.23,TRADE
SNOWY1,"2006/10/11 19:30:00",53.8,32.03,TRADE
SNOWY1,"2006/10/11 20:00:00",57.7,31,TRADE
SNOWY1,"2006/10/11 20:30:00",55.04,30.44,TRADE
SNOWY1,"2006/10/11 21:00:00",53.57,26.09,TRADE
SNOWY1,"2006/10/11 21:30:00",52.49,23.32,TRADE
SNOWY1,"2006/10/11 22:00:00",47.73,21.27,TRADE
SNOWY1,"2006/10/11 22:30:00",53.68,21.65,TRADE
SNOWY1,"2006/10/11 23:00:00",50.61,21.15,TRADE
SNOWY1,"2006/10/11 23:30:00",68.32,23.98,TRADE
SNOWY1,"2006/10/12 00:00:00",61.26,22.45,TRADE
SNOWY1,"2006/10/12 00:30:00",58.69,22.32,TRADE
SNOWY1,"2006/10/12 01:00:00",49.34,20.43,TRADE
SNOWY1,"2006/10/12 01:30:00",48.98,21.4,TRADE
SNOWY1,"2006/10/12 02:00:00",47.74,19.72,TRADE
SNOWY1,"2006/10/12 02:30:00",65.45,17.86,TRADE
SNOWY1,"2006/10/12 03:00:00",77.91,16.68,TRADE
SNOWY1,"2006/10/12 03:30:00",80.66,15.9,TRADE
SNOWY1,"2006/10/12 04:00:00",81.82,15.05,TRADE
SNOWY1,"2006/10/12 04:30:00",82.47,15.42,TRADE
SNOWY1,"2006/10/12 05:00:00",84.74,15.89,TRADE
SNOWY1,"2006/10/12 05:30:00",76.46,16.4,TRADE
SNOWY1,"2006/10/12 06:00:00",80.82,16.47,TRADE
SNOWY1,"2006/10/12 06:30:00",67.53,19.12,TRADE
SNOWY1,"2006/10/12 07:00:00",48.13,20.93,TRADE
SNOWY1,"2006/10/12 07:30:00",48.19,21.12,TRADE
SNOWY1,"2006/10/12 08:00:00",51.96,24.27,TRADE
SNOWY1,"2006/10/12 08:30:00",57.86,29.76,TRADE
SNOWY1,"2006/10/12 09:00:00",52.01,31.66,TRADE
SNOWY1,"2006/10/12 09:30:00",64.38,32.65,TRADE
SNOWY1,"2006/10/12 10:00:00",78.12,35.27,TRADE
SNOWY1,"2006/10/12 10:30:00",55.66,36.23,TRADE
SNOWY1,"2006/10/12 11:00:00",56.14,37.1,TRADE
SNOWY1,"2006/10/12 11:30:00",58.36,40.96,TRADE
SNOWY1,"2006/10/12 12:00:00",67.34,42.91,TRADE
SNOWY1,"2006/10/12 12:30:00",66.61,47.57,TRADE
SNOWY1,"2006/10/12 13:00:00",62.26,61.98,TRADE
SNOWY1,"2006/10/12 13:30:00",61.03,85.3,TRADE
SNOWY1,"2006/10/12 14:00:00",69.79,84.35,TRADE
SNOWY1,"2006/10/12 14:30:00",60.47,84.18,TRADE
SNOWY1,"2006/10/12 15:00:00",59.76,90.72,TRADE
SNOWY1,"2006/10/12 15:30:00",62.61,88.91,TRADE
SNOWY1,"2006/10/12 16:00:00",59.6,89.36,TRADE
SNOWY1,"2006/10/12 16:30:00",63.27,88.85,TRADE
SNOWY1,"2006/10/12 17:00:00",58.28,65.68,TRADE
SNOWY1,"2006/10/12 17:30:00",59.74,58.32,TRADE
SNOWY1,"2006/10/12 18:00:00",59.35,54.7,TRADE
SNOWY1,"2006/10/12 18:30:00",57.87,48.86,TRADE
SNOWY1,"2006/10/12 19:00:00",56.12,60,TRADE
SNOWY1,"2006/10/12 19:30:00",57.03,58.47,TRADE
SNOWY1,"2006/10/12 20:00:00",49.51,52.06,TRADE
SNOWY1,"2006/10/12 20:30:00",49.85,39.79,TRADE
SNOWY1,"2006/10/12 21:00:00",52.9,34.99,TRADE
SNOWY1,"2006/10/12 21:30:00",50.28,32.68,TRADE
SNOWY1,"2006/10/12 22:00:00",59.54,27.8,TRADE
SNOWY1,"2006/10/12 22:30:00",51.8,30.16,TRADE
SNOWY1,"2006/10/12 23:00:00",62.63,27.62,TRADE
SNOWY1,"2006/10/12 23:30:00",50.69,30.82,TRADE
SNOWY1,"2006/10/13 00:00:00",51.77,27.18,TRADE
SNOWY1,"2006/10/13 00:30:00",53.42,23.69,TRADE
SNOWY1,"2006/10/13 01:00:00",58.33,21.51,TRADE
SNOWY1,"2006/10/13 01:30:00",50.71,23.11,TRADE
SNOWY1,"2006/10/13 02:00:00",50.46,20.99,TRADE
SNOWY1,"2006/10/13 02:30:00",54.35,20.68,TRADE
SNOWY1,"2006/10/13 03:00:00",72.14,17.87,TRADE
SNOWY1,"2006/10/13 03:30:00",109.49,15.33,TRADE
SNOWY1,"2006/10/13 04:00:00",119.56,15.25,TRADE
SNOWY1,"2006/10/13 04:30:00",120.51,16.33,TRADE
SNOWY1,"2006/10/13 05:00:00",122.51,17.05,TRADE
SNOWY1,"2006/10/13 05:30:00",120.29,16.9,TRADE
SNOWY1,"2006/10/13 06:00:00",109.07,18.76,TRADE
SNOWY1,"2006/10/13 06:30:00",68.75,23.3,TRADE
SNOWY1,"2006/10/13 07:00:00",63.29,25.69,TRADE
SNOWY1,"2006/10/13 07:30:00",64.41,27.02,TRADE
SNOWY1,"2006/10/13 08:00:00",65.64,34.86,TRADE
SNOWY1,"2006/10/13 08:30:00",54.54,40.33,TRADE
SNOWY1,"2006/10/13 09:00:00",66.81,41.96,TRADE
SNOWY1,"2006/10/13 09:30:00",64.37,58.09,TRADE
SNOWY1,"2006/10/13 10:00:00",69.3,57.74,TRADE
SNOWY1,"2006/10/13 10:30:00",81,70.3,TRADE
SNOWY1,"2006/10/13 11:00:00",73.69,73.98,TRADE
SNOWY1,"2006/10/13 11:30:00",75.85,87.57,TRADE
SNOWY1,"2006/10/13 12:00:00",65.27,75.94,TRADE
SNOWY1,"2006/10/13 12:30:00",71.81,61.53,TRADE
SNOWY1,"2006/10/13 13:00:00",63.41,60.16,TRADE
SNOWY1,"2006/10/13 13:30:00",70.43,57.67,TRADE
SNOWY1,"2006/10/13 14:00:00",67.26,58.62,TRADE
SNOWY1,"2006/10/13 14:30:00",74.55,53.89,TRADE
SNOWY1,"2006/10/13 15:00:00",61.75,82.47,TRADE
SNOWY1,"2006/10/13 15:30:00",74.56,88.14,TRADE
SNOWY1,"2006/10/13 16:00:00",63.06,81.52,TRADE
SNOWY1,"2006/10/13 16:30:00",74.38,58.58,TRADE
SNOWY1,"2006/10/13 17:00:00",84.2,56.76,TRADE
SNOWY1,"2006/10/13 17:30:00",73.71,41.27,TRADE
SNOWY1,"2006/10/13 18:00:00",67.45,35.8,TRADE
SNOWY1,"2006/10/13 18:30:00",73.9,36.71,TRADE
SNOWY1,"2006/10/13 19:00:00",62.45,40.03,TRADE
SNOWY1,"2006/10/13 19:30:00",73.84,37.04,TRADE
SNOWY1,"2006/10/13 20:00:00",67.39,35.74,TRADE
SNOWY1,"2006/10/13 20:30:00",66.1,35.92,TRADE
SNOWY1,"2006/10/13 21:00:00",55.66,34.55,TRADE
SNOWY1,"2006/10/13 21:30:00",51.96,32.22,TRADE
SNOWY1,"2006/10/13 22:00:00",50.77,29.23,TRADE
SNOWY1,"2006/10/13 22:30:00",57.39,33.57,TRADE
SNOWY1,"2006/10/13 23:00:00",53.58,30.67,TRADE
SNOWY1,"2006/10/13 23:30:00",53.25,31.42,TRADE
SNOWY1,"2006/10/14 00:00:00",53.53,29.07,TRADE
SNOWY1,"2006/10/14 00:30:00",59.62,28.16,TRADE
SNOWY1,"2006/10/14 01:00:00",54.81,24.53,TRADE
SNOWY1,"2006/10/14 01:30:00",54.71,24.83,TRADE
SNOWY1,"2006/10/14 02:00:00",64.04,24.05,TRADE
SNOWY1,"2006/10/14 02:30:00",52.77,26.14,TRADE
SNOWY1,"2006/10/14 03:00:00",56.91,22.09,TRADE
SNOWY1,"2006/10/14 03:30:00",58.19,21.8,TRADE
SNOWY1,"2006/10/14 04:00:00",54.17,21.56,TRADE
SNOWY1,"2006/10/14 04:30:00",66.33,20.65,TRADE
SNOWY1,"2006/10/14 05:00:00",90.12,19.66,TRADE
SNOWY1,"2006/10/14 05:30:00",94.28,18.1,TRADE
SNOWY1,"2006/10/14 06:00:00",95.48,18.22,TRADE
SNOWY1,"2006/10/14 06:30:00",91.22,19.97,TRADE
SNOWY1,"2006/10/14 07:00:00",65.95,21.39,TRADE
SNOWY1,"2006/10/14 07:30:00",55.1,21.64,TRADE
SNOWY1,"2006/10/14 08:00:00",58.79,23.73,TRADE
SNOWY1,"2006/10/14 08:30:00",68.96,27.56,TRADE
SNOWY1,"2006/10/14 09:00:00",55.26,34.62,TRADE
SNOWY1,"2006/10/14 09:30:00",54.16,41.83,TRADE
SNOWY1,"2006/10/14 10:00:00",62.59,41.1,TRADE
SNOWY1,"2006/10/14 10:30:00",59.21,43.74,TRADE
SNOWY1,"2006/10/14 11:00:00",70.68,59.63,TRADE
SNOWY1,"2006/10/14 11:30:00",47.88,54.8,TRADE
SNOWY1,"2006/10/14 12:00:00",55.48,42,TRADE
SNOWY1,"2006/10/14 12:30:00",60.54,44.95,TRADE
SNOWY1,"2006/10/14 13:00:00",59.62,51.71,TRADE
SNOWY1,"2006/10/14 13:30:00",59.64,48.46,TRADE
SNOWY1,"2006/10/14 14:00:00",64.74,42.06,TRADE
SNOWY1,"2006/10/14 14:30:00",57.2,42,TRADE
SNOWY1,"2006/10/14 15:00:00",55.24,42,TRADE
SNOWY1,"2006/10/14 15:30:00",64.88,40.72,TRADE
SNOWY1,"2006/10/14 16:00:00",63.74,42,TRADE
SNOWY1,"2006/10/14 16:30:00",56.75,42,TRADE
SNOWY1,"2006/10/14 17:00:00",70.25,40.76,TRADE
SNOWY1,"2006/10/14 17:30:00",65.76,37.72,TRADE
SNOWY1,"2006/10/14 18:00:00",64.79,36.66,TRADE
SNOWY1,"2006/10/14 18:30:00",66.22,51.16,TRADE
SNOWY1,"2006/10/14 19:00:00",70.27,74.5,TRADE
SNOWY1,"2006/10/14 19:30:00",74.15,59.52,TRADE
SNOWY1,"2006/10/14 20:00:00",63.84,44.26,TRADE
SNOWY1,"2006/10/14 20:30:00",69.07,38.35,TRADE
SNOWY1,"2006/10/14 21:00:00",66.49,31.09,TRADE
SNOWY1,"2006/10/14 21:30:00",58.37,26.15,TRADE
SNOWY1,"2006/10/14 22:00:00",60.23,25.15,TRADE
SNOWY1,"2006/10/14 22:30:00",62.56,28.89,TRADE
SNOWY1,"2006/10/14 23:00:00",50.72,30.38,TRADE
SNOWY1,"2006/10/14 23:30:00",44.77,28.75,TRADE
SNOWY1,"2006/10/15 00:00:00",45.13,25.95,TRADE
SNOWY1,"2006/10/15 00:30:00",52.66,25.94,TRADE
SNOWY1,"2006/10/15 01:00:00",53.15,23.22,TRADE
SNOWY1,"2006/10/15 01:30:00",54.23,23.68,TRADE
SNOWY1,"2006/10/15 02:00:00",55.73,23.5,TRADE
SNOWY1,"2006/10/15 02:30:00",51.01,22.24,TRADE
SNOWY1,"2006/10/15 03:00:00",54.45,21.69,TRADE
SNOWY1,"2006/10/15 03:30:00",58.57,21.06,TRADE
SNOWY1,"2006/10/15 04:00:00",95.82,19.61,TRADE
SNOWY1,"2006/10/15 04:30:00",109.18,18.31,TRADE
SNOWY1,"2006/10/15 05:00:00",131.89,17.72,TRADE
SNOWY1,"2006/10/15 05:30:00",127.11,16.68,TRADE
SNOWY1,"2006/10/15 06:00:00",130.71,16.5,TRADE
SNOWY1,"2006/10/15 06:30:00",116.02,16.83,TRADE
SNOWY1,"2006/10/15 07:00:00",119.64,17.39,TRADE
SNOWY1,"2006/10/15 07:30:00",132.45,16.84,TRADE
SNOWY1,"2006/10/15 08:00:00",118.74,19.21,TRADE
SNOWY1,"2006/10/15 08:30:00",70.11,20.05,TRADE
SNOWY1,"2006/10/15 09:00:00",61.63,21.08,TRADE
SNOWY1,"2006/10/15 09:30:00",55.68,21.05,TRADE
SNOWY1,"2006/10/15 10:00:00",62.76,22.16,TRADE
SNOWY1,"2006/10/15 10:30:00",62.06,23.64,TRADE
SNOWY1,"2006/10/15 11:00:00",52.01,23.79,TRADE
SNOWY1,"2006/10/15 11:30:00",60.11,23.98,TRADE
SNOWY1,"2006/10/15 12:00:00",48.53,23.93,TRADE
SNOWY1,"2006/10/15 12:30:00",53.89,24.34,TRADE
SNOWY1,"2006/10/15 13:00:00",42.41,23.82,TRADE
SNOWY1,"2006/10/15 13:30:00",40.69,23.33,TRADE
SNOWY1,"2006/10/15 14:00:00",36.76,23.43,TRADE
SNOWY1,"2006/10/15 14:30:00",55.76,23.29,TRADE
SNOWY1,"2006/10/15 15:00:00",46.39,22.81,TRADE
SNOWY1,"2006/10/15 15:30:00",38.73,22.45,TRADE
SNOWY1,"2006/10/15 16:00:00",50.67,23.25,TRADE
SNOWY1,"2006/10/15 16:30:00",61.84,23.94,TRADE
SNOWY1,"2006/10/15 17:00:00",57.94,24,TRADE
SNOWY1,"2006/10/15 17:30:00",47.16,25.4,TRADE
SNOWY1,"2006/10/15 18:00:00",49.78,29.73,TRADE
SNOWY1,"2006/10/15 18:30:00",49.23,39.29,TRADE
SNOWY1,"2006/10/15 19:00:00",52.68,58.38,TRADE
SNOWY1,"2006/10/15 19:30:00",53.32,48.43,TRADE
SNOWY1,"2006/10/15 20:00:00",50.35,41.69,TRADE
SNOWY1,"2006/10/15 20:30:00",60.21,38.01,TRADE
SNOWY1,"2006/10/15 21:00:00",49.79,36.34,TRADE
SNOWY1,"2006/10/15 21:30:00",47.14,31.6,TRADE
SNOWY1,"2006/10/15 22:00:00",56.45,25.6,TRADE
SNOWY1,"2006/10/15 22:30:00",43.24,25.49,TRADE
SNOWY1,"2006/10/15 23:00:00",52.56,25.34,TRADE
SNOWY1,"2006/10/15 23:30:00",49,28.02,TRADE
SNOWY1,"2006/10/16 00:00:00",45.59,25.75,TRADE
SNOWY1,"2006/10/16 00:30:00",55.57,23.37,TRADE
SNOWY1,"2006/10/16 01:00:00",52.27,21.71,TRADE
SNOWY1,"2006/10/16 01:30:00",51,26.74,TRADE
SNOWY1,"2006/10/16 02:00:00",52.38,24.7,TRADE
SNOWY1,"2006/10/16 02:30:00",53.13,21.71,TRADE
SNOWY1,"2006/10/16 03:00:00",55.81,20.72,TRADE
SNOWY1,"2006/10/16 03:30:00",52.07,18.16,TRADE
SNOWY1,"2006/10/16 04:00:00",57.43,17.32,TRADE
SNOWY1,"2006/10/16 04:30:00",55.15,16.97,TRADE
SNOWY1,"2006/10/16 05:00:00",53.25,17.6,TRADE
SNOWY1,"2006/10/16 05:30:00",57.08,19.9,TRADE
SNOWY1,"2006/10/16 06:00:00",50.54,21.21,TRADE
SNOWY1,"2006/10/16 06:30:00",53.03,26.47,TRADE
SNOWY1,"2006/10/16 07:00:00",69.99,30.71,TRADE
SNOWY1,"2006/10/16 07:30:00",54.74,32.5,TRADE
SNOWY1,"2006/10/16 08:00:00",65.74,40.31,TRADE
SNOWY1,"2006/10/16 08:30:00",60.52,41.11,TRADE
SNOWY1,"2006/10/16 09:00:00",48.64,40.12,TRADE
SNOWY1,"2006/10/16 09:30:00",51.98,41.87,TRADE
SNOWY1,"2006/10/16 10:00:00",61.24,39.1,TRADE
SNOWY1,"2006/10/16 10:30:00",59.46,42,TRADE
SNOWY1,"2006/10/16 11:00:00",62.34,41.42,TRADE
SNOWY1,"2006/10/16 11:30:00",51.35,40.76,TRADE
SNOWY1,"2006/10/16 12:00:00",51.86,40.82,TRADE
SNOWY1,"2006/10/16 12:30:00",50.1,40.39,TRADE
SNOWY1,"2006/10/16 13:00:00",56.34,41.37,TRADE
SNOWY1,"2006/10/16 13:30:00",58.09,37.72,TRADE
SNOWY1,"2006/10/16 14:00:00",51.87,40.02,TRADE
SNOWY1,"2006/10/16 14:30:00",56.61,37.2,TRADE
SNOWY1,"2006/10/16 15:00:00",55.81,37.24,TRADE
SNOWY1,"2006/10/16 15:30:00",55.5,37.02,TRADE
SNOWY1,"2006/10/16 16:00:00",51.43,40.61,TRADE
SNOWY1,"2006/10/16 16:30:00",50.7,41.45,TRADE
SNOWY1,"2006/10/16 17:00:00",62.56,42,TRADE
SNOWY1,"2006/10/16 17:30:00",62.29,44.1,TRADE
SNOWY1,"2006/10/16 18:00:00",62,50.61,TRADE
SNOWY1,"2006/10/16 18:30:00",51.57,53.98,TRADE
SNOWY1,"2006/10/16 19:00:00",53.39,53.22,TRADE
SNOWY1,"2006/10/16 19:30:00",50.17,41.27,TRADE
SNOWY1,"2006/10/16 20:00:00",50.98,39.2,TRADE
SNOWY1,"2006/10/16 20:30:00",53.18,35.14,TRADE
SNOWY1,"2006/10/16 21:00:00",51.23,32,TRADE
SNOWY1,"2006/10/16 21:30:00",58.13,30.81,TRADE
SNOWY1,"2006/10/16 22:00:00",55.65,26.43,TRADE
SNOWY1,"2006/10/16 22:30:00",55.77,31.45,TRADE
SNOWY1,"2006/10/16 23:00:00",53.03,28.45,TRADE
SNOWY1,"2006/10/16 23:30:00",56.9,33.9,TRADE
SNOWY1,"2006/10/17 00:00:00",54.54,30.78,TRADE
SNOWY1,"2006/10/17 00:30:00",63.76,29.75,TRADE
SNOWY1,"2006/10/17 01:00:00",59.22,27.88,TRADE
SNOWY1,"2006/10/17 01:30:00",49.59,30.78,TRADE
SNOWY1,"2006/10/17 02:00:00",47.66,28.4,TRADE
SNOWY1,"2006/10/17 02:30:00",53.39,24.92,TRADE
SNOWY1,"2006/10/17 03:00:00",51.82,21.66,TRADE
SNOWY1,"2006/10/17 03:30:00",51.38,19.09,TRADE
SNOWY1,"2006/10/17 04:00:00",51.73,17.56,TRADE
SNOWY1,"2006/10/17 04:30:00",49.62,17.48,TRADE
SNOWY1,"2006/10/17 05:00:00",54.99,17.28,TRADE
SNOWY1,"2006/10/17 05:30:00",52.72,19.82,TRADE
SNOWY1,"2006/10/17 06:00:00",51.07,19.86,TRADE
SNOWY1,"2006/10/17 06:30:00",53.28,28.19,TRADE
SNOWY1,"2006/10/17 07:00:00",58.31,35.41,TRADE
SNOWY1,"2006/10/17 07:30:00",50.5,34.17,TRADE
SNOWY1,"2006/10/17 08:00:00",51.42,40.35,TRADE
SNOWY1,"2006/10/17 08:30:00",49.16,42.29,TRADE
SNOWY1,"2006/10/17 09:00:00",51.29,42,TRADE
SNOWY1,"2006/10/17 09:30:00",44.48,42.67,TRADE
SNOWY1,"2006/10/17 10:00:00",55.93,40.27,TRADE
SNOWY1,"2006/10/17 10:30:00",54.87,40.87,TRADE
SNOWY1,"2006/10/17 11:00:00",62.37,41.59,TRADE
SNOWY1,"2006/10/17 11:30:00",59.12,43.72,TRADE
SNOWY1,"2006/10/17 12:00:00",57.41,42.06,TRADE
SNOWY1,"2006/10/17 12:30:00",51.16,41.47,TRADE
SNOWY1,"2006/10/17 13:00:00",47.4,38.33,TRADE
SNOWY1,"2006/10/17 13:30:00",56.63,37.16,TRADE
SNOWY1,"2006/10/17 14:00:00",47.22,37.29,TRADE
SNOWY1,"2006/10/17 14:30:00",50.52,36.86,TRADE
SNOWY1,"2006/10/17 15:00:00",49.22,37.18,TRADE
SNOWY1,"2006/10/17 15:30:00",51.46,38.6,TRADE
SNOWY1,"2006/10/17 16:00:00",51.4,38.35,TRADE
SNOWY1,"2006/10/17 16:30:00",54.47,36.08,TRADE
SNOWY1,"2006/10/17 17:00:00",55,37.75,TRADE
SNOWY1,"2006/10/17 17:30:00",56.09,36.68,TRADE
SNOWY1,"2006/10/17 18:00:00",57.8,36.29,TRADE
SNOWY1,"2006/10/17 18:30:00",53.09,37.44,TRADE
SNOWY1,"2006/10/17 19:00:00",56.37,40.86,TRADE
SNOWY1,"2006/10/17 19:30:00",54.89,35.91,TRADE
SNOWY1,"2006/10/17 20:00:00",42.27,32.28,TRADE
SNOWY1,"2006/10/17 20:30:00",44.88,31.2,TRADE
SNOWY1,"2006/10/17 21:00:00",45.82,28.41,TRADE
SNOWY1,"2006/10/17 21:30:00",47.17,29.33,TRADE
SNOWY1,"2006/10/17 22:00:00",51.9,24.79,TRADE
SNOWY1,"2006/10/17 22:30:00",55.96,27.12,TRADE
SNOWY1,"2006/10/17 23:00:00",52.94,25.86,TRADE
SNOWY1,"2006/10/17 23:30:00",46.54,28.1,TRADE
SNOWY1,"2006/10/18 00:00:00",51.7,25.89,TRADE
SNOWY1,"2006/10/18 00:30:00",48.2,22.87,TRADE
SNOWY1,"2006/10/18 01:00:00",48.08,23.11,TRADE
SNOWY1,"2006/10/18 01:30:00",49.02,25.9,TRADE
SNOWY1,"2006/10/18 02:00:00",53.72,21.94,TRADE
SNOWY1,"2006/10/18 02:30:00",50.34,20.81,TRADE
SNOWY1,"2006/10/18 03:00:00",45.82,18.83,TRADE
SNOWY1,"2006/10/18 03:30:00",46.61,17.11,TRADE
SNOWY1,"2006/10/18 04:00:00",64.43,16.41,TRADE
SNOWY1,"2006/10/18 04:30:00",116.22,15.77,TRADE
SNOWY1,"2006/10/18 05:00:00",112.14,15.79,TRADE
SNOWY1,"2006/10/18 05:30:00",120.05,16.21,TRADE
SNOWY1,"2006/10/18 06:00:00",110.34,17.84,TRADE
SNOWY1,"2006/10/18 06:30:00",49.84,21.23,TRADE
SNOWY1,"2006/10/18 07:00:00",46.27,22,TRADE
SNOWY1,"2006/10/18 07:30:00",47.74,21.74,TRADE
SNOWY1,"2006/10/18 08:00:00",54.87,24.49,TRADE
SNOWY1,"2006/10/18 08:30:00",50.05,29.85,TRADE
SNOWY1,"2006/10/18 09:00:00",50.9,29.59,TRADE
SNOWY1,"2006/10/18 09:30:00",56.08,30.71,TRADE
SNOWY1,"2006/10/18 10:00:00",56.37,32,TRADE
SNOWY1,"2006/10/18 10:30:00",46.06,30.95,TRADE
SNOWY1,"2006/10/18 11:00:00",56.32,34.61,TRADE
SNOWY1,"2006/10/18 11:30:00",60.44,31.5,TRADE
SNOWY1,"2006/10/18 12:00:00",59.7,34.49,TRADE
SNOWY1,"2006/10/18 12:30:00",65.14,39.92,TRADE
SNOWY1,"2006/10/18 13:00:00",57.01,35.45,TRADE
SNOWY1,"2006/10/18 13:30:00",59.05,38.11,TRADE
SNOWY1,"2006/10/18 14:00:00",58.57,41.85,TRADE
SNOWY1,"2006/10/18 14:30:00",66.42,36.2,TRADE
SNOWY1,"2006/10/18 15:00:00",60.22,36.25,TRADE
SNOWY1,"2006/10/18 15:30:00",57.57,34.25,TRADE
SNOWY1,"2006/10/18 16:00:00",60.52,33.21,TRADE
SNOWY1,"2006/10/18 16:30:00",59.27,37.79,TRADE
SNOWY1,"2006/10/18 17:00:00",53.42,39.38,TRADE
SNOWY1,"2006/10/18 17:30:00",64.29,42,TRADE
SNOWY1,"2006/10/18 18:00:00",56.13,42,TRADE
SNOWY1,"2006/10/18 18:30:00",45.1,38.97,TRADE
SNOWY1,"2006/10/18 19:00:00",56.19,42.05,TRADE
SNOWY1,"2006/10/18 19:30:00",56.05,42.06,TRADE
SNOWY1,"2006/10/18 20:00:00",39.3,37.6,TRADE
SNOWY1,"2006/10/18 20:30:00",46.72,33.83,TRADE
SNOWY1,"2006/10/18 21:00:00",55.11,30.86,TRADE
SNOWY1,"2006/10/18 21:30:00",53.59,30.05,TRADE
SNOWY1,"2006/10/18 22:00:00",38.15,23.25,TRADE
SNOWY1,"2006/10/18 22:30:00",43.26,25,TRADE
SNOWY1,"2006/10/18 23:00:00",49.51,23.72,TRADE
SNOWY1,"2006/10/18 23:30:00",49.17,28.77,TRADE
SNOWY1,"2006/10/19 00:00:00",52.36,26.7,TRADE
SNOWY1,"2006/10/19 00:30:00",55.48,23.19,TRADE
SNOWY1,"2006/10/19 01:00:00",50.52,21.28,TRADE
SNOWY1,"2006/10/19 01:30:00",50.85,23.75,TRADE
SNOWY1,"2006/10/19 02:00:00",58.95,21.29,TRADE
SNOWY1,"2006/10/19 02:30:00",123.34,19.55,TRADE
SNOWY1,"2006/10/19 03:00:00",125.83,18.84,TRADE
SNOWY1,"2006/10/19 03:30:00",120.15,16.99,TRADE
SNOWY1,"2006/10/19 04:00:00",111.63,16.92,TRADE
SNOWY1,"2006/10/19 04:30:00",122.81,15.6,TRADE
SNOWY1,"2006/10/19 05:00:00",120.25,15.61,TRADE
SNOWY1,"2006/10/19 05:30:00",112.21,15.59,TRADE
SNOWY1,"2006/10/19 06:00:00",119.85,16.9,TRADE
SNOWY1,"2006/10/19 06:30:00",117.53,21.45,TRADE
SNOWY1,"2006/10/19 07:00:00",62.37,24.64,TRADE
SNOWY1,"2006/10/19 07:30:00",58.68,23.76,TRADE
SNOWY1,"2006/10/19 08:00:00",56.3,31.4,TRADE
SNOWY1,"2006/10/19 08:30:00",52.69,34.85,TRADE
SNOWY1,"2006/10/19 09:00:00",60.48,34.82,TRADE
SNOWY1,"2006/10/19 09:30:00",57.18,37.29,TRADE
SNOWY1,"2006/10/19 10:00:00",48.33,38.37,TRADE
SNOWY1,"2006/10/19 10:30:00",56.24,41.16,TRADE
SNOWY1,"2006/10/19 11:00:00",60.81,42,TRADE
SNOWY1,"2006/10/19 11:30:00",61.11,39.62,TRADE
SNOWY1,"2006/10/19 12:00:00",57.23,37.07,TRADE
SNOWY1,"2006/10/19 12:30:00",61.24,36.19,TRADE
SNOWY1,"2006/10/19 13:00:00",55.43,33.7,TRADE
SNOWY1,"2006/10/19 13:30:00",55.37,35.22,TRADE
SNOWY1,"2006/10/19 14:00:00",53.89,35.84,TRADE
SNOWY1,"2006/10/19 14:30:00",46.09,33.44,TRADE
SNOWY1,"2006/10/19 15:00:00",61.46,32.41,TRADE
SNOWY1,"2006/10/19 15:30:00",54.94,32,TRADE
SNOWY1,"2006/10/19 16:00:00",56.61,31.17,TRADE
SNOWY1,"2006/10/19 16:30:00",54.61,30.66,TRADE
SNOWY1,"2006/10/19 17:00:00",48.27,28.64,TRADE
SNOWY1,"2006/10/19 17:30:00",47.97,27,TRADE
SNOWY1,"2006/10/19 18:00:00",52.41,27.23,TRADE
SNOWY1,"2006/10/19 18:30:00",50.25,28.12,TRADE
SNOWY1,"2006/10/19 19:00:00",48.57,31.24,TRADE
SNOWY1,"2006/10/19 19:30:00",53.57,30.17,TRADE
SNOWY1,"2006/10/19 20:00:00",44.72,29.15,TRADE
SNOWY1,"2006/10/19 20:30:00",54.88,27.92,TRADE
SNOWY1,"2006/10/19 21:00:00",48.67,24.83,TRADE
SNOWY1,"2006/10/19 21:30:00",45.33,24.38,TRADE
SNOWY1,"2006/10/19 22:00:00",53.1,22.41,TRADE
SNOWY1,"2006/10/19 22:30:00",54.4,23.91,TRADE
SNOWY1,"2006/10/19 23:00:00",54.54,21.64,TRADE
SNOWY1,"2006/10/19 23:30:00",48.88,24.16,TRADE
SNOWY1,"2006/10/20 00:00:00",57.66,22.2,TRADE
SNOWY1,"2006/10/20 00:30:00",56.53,21.37,TRADE
SNOWY1,"2006/10/20 01:00:00",49.33,21.31,TRADE
SNOWY1,"2006/10/20 01:30:00",52.38,22.76,TRADE
SNOWY1,"2006/10/20 02:00:00",46.93,20.29,TRADE
SNOWY1,"2006/10/20 02:30:00",57.39,18.17,TRADE
SNOWY1,"2006/10/20 03:00:00",114.9,17.51,TRADE
SNOWY1,"2006/10/20 03:30:00",116.25,16.6,TRADE
SNOWY1,"2006/10/20 04:00:00",118.08,16.15,TRADE
SNOWY1,"2006/10/20 04:30:00",121.15,15.9,TRADE
SNOWY1,"2006/10/20 05:00:00",126.23,15.57,TRADE
SNOWY1,"2006/10/20 05:30:00",122.98,15.69,TRADE
SNOWY1,"2006/10/20 06:00:00",125.96,16.14,TRADE
SNOWY1,"2006/10/20 06:30:00",109.07,20.79,TRADE
SNOWY1,"2006/10/20 07:00:00",60.04,21.61,TRADE
SNOWY1,"2006/10/20 07:30:00",57.84,21.7,TRADE
SNOWY1,"2006/10/20 08:00:00",43.81,24.86,TRADE
SNOWY1,"2006/10/20 08:30:00",53.28,32.3,TRADE
SNOWY1,"2006/10/20 09:00:00",58.26,32,TRADE
SNOWY1,"2006/10/20 09:30:00",58.73,37.51,TRADE
SNOWY1,"2006/10/20 10:00:00",60.73,42,TRADE
SNOWY1,"2006/10/20 10:30:00",58.91,42,TRADE
SNOWY1,"2006/10/20 11:00:00",52.59,42,TRADE
SNOWY1,"2006/10/20 11:30:00",51.82,42,TRADE
SNOWY1,"2006/10/20 12:00:00",59.15,42,TRADE
SNOWY1,"2006/10/20 12:30:00",51.51,42,TRADE
SNOWY1,"2006/10/20 13:00:00",60.98,40.98,TRADE
SNOWY1,"2006/10/20 13:30:00",56.22,33.35,TRADE
SNOWY1,"2006/10/20 14:00:00",54.93,32.62,TRADE
SNOWY1,"2006/10/20 14:30:00",55.89,32,TRADE
SNOWY1,"2006/10/20 15:00:00",56.56,32,TRADE
SNOWY1,"2006/10/20 15:30:00",55.21,30.37,TRADE
SNOWY1,"2006/10/20 16:00:00",52.85,31.22,TRADE
SNOWY1,"2006/10/20 16:30:00",53.35,32,TRADE
SNOWY1,"2006/10/20 17:00:00",41.85,30.54,TRADE
SNOWY1,"2006/10/20 17:30:00",45.66,29.04,TRADE
SNOWY1,"2006/10/20 18:00:00",57.48,31.05,TRADE
SNOWY1,"2006/10/20 18:30:00",52.82,29.19,TRADE
SNOWY1,"2006/10/20 19:00:00",52.47,31.9,TRADE
SNOWY1,"2006/10/20 19:30:00",57.93,32,TRADE
SNOWY1,"2006/10/20 20:00:00",52.91,31.6,TRADE
SNOWY1,"2006/10/20 20:30:00",57.72,28.87,TRADE
SNOWY1,"2006/10/20 21:00:00",49.81,22.48,TRADE
SNOWY1,"2006/10/20 21:30:00",52.81,23.97,TRADE
SNOWY1,"2006/10/20 22:00:00",40.98,22.48,TRADE
SNOWY1,"2006/10/20 22:30:00",35.51,24.02,TRADE
SNOWY1,"2006/10/20 23:00:00",54.24,22.73,TRADE
SNOWY1,"2006/10/20 23:30:00",48.52,28.1,TRADE
SNOWY1,"2006/10/21 00:00:00",63.01,25.67,TRADE
SNOWY1,"2006/10/21 00:30:00",38.33,22.76,TRADE
SNOWY1,"2006/10/21 01:00:00",58.04,21.38,TRADE
SNOWY1,"2006/10/21 01:30:00",56.1,23.95,TRADE
SNOWY1,"2006/10/21 02:00:00",57.34,21.41,TRADE
SNOWY1,"2006/10/21 02:30:00",59.36,20.78,TRADE
SNOWY1,"2006/10/21 03:00:00",113.34,19.3,TRADE
SNOWY1,"2006/10/21 03:30:00",128.43,19.21,TRADE
SNOWY1,"2006/10/21 04:00:00",129.42,18.8,TRADE
SNOWY1,"2006/10/21 04:30:00",118.41,17.89,TRADE
SNOWY1,"2006/10/21 05:00:00",114.55,17.94,TRADE
SNOWY1,"2006/10/21 05:30:00",123.32,17.25,TRADE
SNOWY1,"2006/10/21 06:00:00",124.37,16.99,TRADE
SNOWY1,"2006/10/21 06:30:00",118.94,16.91,TRADE
SNOWY1,"2006/10/21 07:00:00",125.5,18.8,TRADE
SNOWY1,"2006/10/21 07:30:00",111.75,19.43,TRADE
SNOWY1,"2006/10/21 08:00:00",91.92,20.55,TRADE
SNOWY1,"2006/10/21 08:30:00",95.12,22.23,TRADE
SNOWY1,"2006/10/21 09:00:00",81.75,22.39,TRADE
SNOWY1,"2006/10/21 09:30:00",93.13,23.62,TRADE
SNOWY1,"2006/10/21 10:00:00",97.71,23.78,TRADE
SNOWY1,"2006/10/21 10:30:00",60.51,28.25,TRADE
SNOWY1,"2006/10/21 11:00:00",162.83,29.81,TRADE
SNOWY1,"2006/10/21 11:30:00",40.57,22.42,TRADE
SNOWY1,"2006/10/21 12:00:00",42.56,22.33,TRADE
SNOWY1,"2006/10/21 12:30:00",51.34,22.38,TRADE
SNOWY1,"2006/10/21 13:00:00",51.51,21.45,TRADE
SNOWY1,"2006/10/21 13:30:00",71.95,21.89,TRADE
SNOWY1,"2006/10/21 14:00:00",90.51,21.38,TRADE
SNOWY1,"2006/10/21 14:30:00",89.27,21.21,TRADE
SNOWY1,"2006/10/21 15:00:00",91.75,20.86,TRADE
SNOWY1,"2006/10/21 15:30:00",89.88,20.65,TRADE
SNOWY1,"2006/10/21 16:00:00",96.59,20.74,TRADE
SNOWY1,"2006/10/21 16:30:00",98.37,21.86,TRADE
SNOWY1,"2006/10/21 17:00:00",62.98,22.1,TRADE
SNOWY1,"2006/10/21 17:30:00",65.01,22.1,TRADE
SNOWY1,"2006/10/21 18:00:00",58.59,23.47,TRADE
SNOWY1,"2006/10/21 18:30:00",54.11,24.55,TRADE
SNOWY1,"2006/10/21 19:00:00",54.18,31.37,TRADE
SNOWY1,"2006/10/21 19:30:00",54.35,36.31,TRADE
SNOWY1,"2006/10/21 20:00:00",50.49,24.44,TRADE
SNOWY1,"2006/10/21 20:30:00",54.9,23.68,TRADE
SNOWY1,"2006/10/21 21:00:00",45.43,22.41,TRADE
SNOWY1,"2006/10/21 21:30:00",44.73,22.02,TRADE
SNOWY1,"2006/10/21 22:00:00",53.24,21.15,TRADE
SNOWY1,"2006/10/21 22:30:00",54.03,21.31,TRADE
SNOWY1,"2006/10/21 23:00:00",50.7,21.41,TRADE
SNOWY1,"2006/10/21 23:30:00",55.63,23.93,TRADE
SNOWY1,"2006/10/22 00:00:00",55.87,21.81,TRADE
SNOWY1,"2006/10/22 00:30:00",56.58,21.18,TRADE
SNOWY1,"2006/10/22 01:00:00",60.36,20.84,TRADE
SNOWY1,"2006/10/22 01:30:00",59.02,23.07,TRADE
SNOWY1,"2006/10/22 02:00:00",65.61,20.31,TRADE
SNOWY1,"2006/10/22 02:30:00",117.53,18.37,TRADE
SNOWY1,"2006/10/22 03:00:00",132.2,17.25,TRADE
SNOWY1,"2006/10/22 03:30:00",127.62,17.07,TRADE
SNOWY1,"2006/10/22 04:00:00",132.9,17.33,TRADE
SNOWY1,"2006/10/22 04:30:00",128.69,16.84,TRADE
SNOWY1,"2006/10/22 05:00:00",132.63,16.74,TRADE
SNOWY1,"2006/10/22 05:30:00",134.09,16.04,TRADE
SNOWY1,"2006/10/22 06:00:00",129.31,15.51,TRADE
SNOWY1,"2006/10/22 06:30:00",113.49,15.72,TRADE
SNOWY1,"2006/10/22 07:00:00",58.2,15.64,TRADE
SNOWY1,"2006/10/22 07:30:00",62.94,18.35,TRADE
SNOWY1,"2006/10/22 08:00:00",63.75,19.87,TRADE
SNOWY1,"2006/10/22 08:30:00",64.68,20.85,TRADE
SNOWY1,"2006/10/22 09:00:00",71.72,21.25,TRADE
SNOWY1,"2006/10/22 09:30:00",71.92,22.41,TRADE
SNOWY1,"2006/10/22 10:00:00",70.52,21.82,TRADE
SNOWY1,"2006/10/22 10:30:00",74.47,23.03,TRADE
SNOWY1,"2006/10/22 11:00:00",69.11,21.74,TRADE
SNOWY1,"2006/10/22 11:30:00",70.74,21.73,TRADE
SNOWY1,"2006/10/22 12:00:00",78.49,21.73,TRADE
SNOWY1,"2006/10/22 12:30:00",107.87,21.59,TRADE
SNOWY1,"2006/10/22 13:00:00",129.55,20.89,TRADE
SNOWY1,"2006/10/22 13:30:00",131.62,20.44,TRADE
SNOWY1,"2006/10/22 14:00:00",133.15,20.39,TRADE
SNOWY1,"2006/10/22 14:30:00",132.42,19.89,TRADE
SNOWY1,"2006/10/22 15:00:00",136.74,20.12,TRADE
SNOWY1,"2006/10/22 15:30:00",131.04,20,TRADE
SNOWY1,"2006/10/22 16:00:00",128.15,20.07,TRADE
SNOWY1,"2006/10/22 16:30:00",127.86,19.88,TRADE
SNOWY1,"2006/10/22 17:00:00",137.91,20.39,TRADE
SNOWY1,"2006/10/22 17:30:00",129.73,20.51,TRADE
SNOWY1,"2006/10/22 18:00:00",126.94,21.36,TRADE
SNOWY1,"2006/10/22 18:30:00",130.41,22.19,TRADE
SNOWY1,"2006/10/22 19:00:00",118.54,28.69,TRADE
SNOWY1,"2006/10/22 19:30:00",72.61,35.39,TRADE
SNOWY1,"2006/10/22 20:00:00",74.18,28.25,TRADE
SNOWY1,"2006/10/22 20:30:00",59.22,25.04,TRADE
SNOWY1,"2006/10/22 21:00:00",61.76,23.18,TRADE
SNOWY1,"2006/10/22 21:30:00",66.92,21.09,TRADE
SNOWY1,"2006/10/22 22:00:00",61.78,19.96,TRADE
SNOWY1,"2006/10/22 22:30:00",85.56,21.02,TRADE
SNOWY1,"2006/10/22 23:00:00",91.46,21.13,TRADE
SNOWY1,"2006/10/22 23:30:00",92.81,22.31,TRADE
SNOWY1,"2006/10/23 00:00:00",97.33,21.39,TRADE
SNOWY1,"2006/10/23 00:30:00",99.15,20.96,TRADE
SNOWY1,"2006/10/23 01:00:00",94.51,20.83,TRADE
SNOWY1,"2006/10/23 01:30:00",101.32,24.72,TRADE
SNOWY1,"2006/10/23 02:00:00",101.22,22.34,TRADE
SNOWY1,"2006/10/23 02:30:00",96.3,20.68,TRADE
SNOWY1,"2006/10/23 03:00:00",77.15,20.8,TRADE
SNOWY1,"2006/10/23 03:30:00",84.47,18.11,TRADE
SNOWY1,"2006/10/23 04:00:00",128.06,16.88,TRADE
SNOWY1,"2006/10/23 04:30:00",126.35,17.26,TRADE
SNOWY1,"2006/10/23 05:00:00",131.39,17.57,TRADE
SNOWY1,"2006/10/23 05:30:00",133.19,19.1,TRADE
SNOWY1,"2006/10/23 06:00:00",107.34,20.98,TRADE
SNOWY1,"2006/10/23 06:30:00",70.13,25.9,TRADE
SNOWY1,"2006/10/23 07:00:00",69.21,35.92,TRADE
SNOWY1,"2006/10/23 07:30:00",70.39,28.67,TRADE
SNOWY1,"2006/10/23 08:00:00",71.01,39.32,TRADE
SNOWY1,"2006/10/23 08:30:00",69.03,38.31,TRADE
SNOWY1,"2006/10/23 09:00:00",57.18,32.65,TRADE
SNOWY1,"2006/10/23 09:30:00",55.69,33.31,TRADE
SNOWY1,"2006/10/23 10:00:00",73.86,33.49,TRADE
SNOWY1,"2006/10/23 10:30:00",67.84,35.56,TRADE
SNOWY1,"2006/10/23 11:00:00",67.43,31.53,TRADE
SNOWY1,"2006/10/23 11:30:00",51.72,29.82,TRADE
SNOWY1,"2006/10/23 12:00:00",55.28,31.47,TRADE
SNOWY1,"2006/10/23 12:30:00",60.63,31.31,TRADE
SNOWY1,"2006/10/23 13:00:00",70.34,31.57,TRADE
SNOWY1,"2006/10/23 13:30:00",48.91,30.82,TRADE
SNOWY1,"2006/10/23 14:00:00",45,29.84,TRADE
SNOWY1,"2006/10/23 14:30:00",49.21,31.53,TRADE
SNOWY1,"2006/10/23 15:00:00",55.08,30.48,TRADE
SNOWY1,"2006/10/23 15:30:00",50.26,28.94,TRADE
SNOWY1,"2006/10/23 16:00:00",48.14,28.09,TRADE
SNOWY1,"2006/10/23 16:30:00",46.74,28.28,TRADE
SNOWY1,"2006/10/23 17:00:00",53.28,29.09,TRADE
SNOWY1,"2006/10/23 17:30:00",44.41,26.36,TRADE
SNOWY1,"2006/10/23 18:00:00",44.96,27.65,TRADE
SNOWY1,"2006/10/23 18:30:00",54.82,27.57,TRADE
SNOWY1,"2006/10/23 19:00:00",51.39,32.93,TRADE
SNOWY1,"2006/10/23 19:30:00",54.84,32.89,TRADE
SNOWY1,"2006/10/23 20:00:00",45.48,32,TRADE
SNOWY1,"2006/10/23 20:30:00",53.27,27.61,TRADE
SNOWY1,"2006/10/23 21:00:00",59.36,25.06,TRADE
SNOWY1,"2006/10/23 21:30:00",57.71,23.34,TRADE
SNOWY1,"2006/10/23 22:00:00",57.98,21.99,TRADE
SNOWY1,"2006/10/23 22:30:00",54.89,22.16,TRADE
SNOWY1,"2006/10/23 23:00:00",54.3,21.47,TRADE
SNOWY1,"2006/10/23 23:30:00",59.22,23.88,TRADE
SNOWY1,"2006/10/24 00:00:00",54.58,21.53,TRADE
SNOWY1,"2006/10/24 00:30:00",55.14,20.16,TRADE
SNOWY1,"2006/10/24 01:00:00",100.85,17.55,TRADE
SNOWY1,"2006/10/24 01:30:00",116.52,20.17,TRADE
SNOWY1,"2006/10/24 02:00:00",132.82,18.18,TRADE
SNOWY1,"2006/10/24 02:30:00",126.44,17.17,TRADE
SNOWY1,"2006/10/24 03:00:00",87.62,17.31,TRADE
SNOWY1,"2006/10/24 03:30:00",130.57,16.72,TRADE
SNOWY1,"2006/10/24 04:00:00",116.59,16.42,TRADE
SNOWY1,"2006/10/24 04:30:00",120.47,15.81,TRADE
SNOWY1,"2006/10/24 05:00:00",119.3,16.21,TRADE
SNOWY1,"2006/10/24 05:30:00",120.83,15.9,TRADE
SNOWY1,"2006/10/24 06:00:00",123.98,18.1,TRADE
SNOWY1,"2006/10/24 06:30:00",89.9,23.01,TRADE
SNOWY1,"2006/10/24 07:00:00",53.56,23.74,TRADE
SNOWY1,"2006/10/24 07:30:00",71.42,22.61,TRADE
SNOWY1,"2006/10/24 08:00:00",60.21,25.73,TRADE
SNOWY1,"2006/10/24 08:30:00",60.24,29.13,TRADE
SNOWY1,"2006/10/24 09:00:00",64.99,28.03,TRADE
SNOWY1,"2006/10/24 09:30:00",55.64,31.36,TRADE
SNOWY1,"2006/10/24 10:00:00",60.8,32.61,TRADE
SNOWY1,"2006/10/24 10:30:00",52.66,33,TRADE
SNOWY1,"2006/10/24 11:00:00",61.18,35.47,TRADE
SNOWY1,"2006/10/24 11:30:00",73.98,39.91,TRADE
SNOWY1,"2006/10/24 12:00:00",65.29,41.42,TRADE
SNOWY1,"2006/10/24 12:30:00",57.67,40.65,TRADE
SNOWY1,"2006/10/24 13:00:00",56.23,38.67,TRADE
SNOWY1,"2006/10/24 13:30:00",57.71,41.55,TRADE
SNOWY1,"2006/10/24 14:00:00",56.95,40.51,TRADE
SNOWY1,"2006/10/24 14:30:00",60.23,41.9,TRADE
SNOWY1,"2006/10/24 15:00:00",60.65,41.18,TRADE
SNOWY1,"2006/10/24 15:30:00",55.85,40.15,TRADE
SNOWY1,"2006/10/24 16:00:00",52.3,39.63,TRADE
SNOWY1,"2006/10/24 16:30:00",52.74,42,TRADE
SNOWY1,"2006/10/24 17:00:00",57.01,39.05,TRADE
SNOWY1,"2006/10/24 17:30:00",61.26,36.71,TRADE
SNOWY1,"2006/10/24 18:00:00",58.64,35.58,TRADE
SNOWY1,"2006/10/24 18:30:00",62.22,35.52,TRADE
SNOWY1,"2006/10/24 19:00:00",55.13,39.23,TRADE
SNOWY1,"2006/10/24 19:30:00",58.67,37.43,TRADE
SNOWY1,"2006/10/24 20:00:00",55.6,34.02,TRADE
SNOWY1,"2006/10/24 20:30:00",53.55,29.87,TRADE
SNOWY1,"2006/10/24 21:00:00",54.55,26.25,TRADE
SNOWY1,"2006/10/24 21:30:00",59.91,25.15,TRADE
SNOWY1,"2006/10/24 22:00:00",62.18,22.41,TRADE
SNOWY1,"2006/10/24 22:30:00",57.58,21.86,TRADE
SNOWY1,"2006/10/24 23:00:00",57.59,22.23,TRADE
SNOWY1,"2006/10/24 23:30:00",72.15,24.03,TRADE
SNOWY1,"2006/10/25 00:00:00",63.82,23.43,TRADE
SNOWY1,"2006/10/25 00:30:00",56.97,21.42,TRADE
SNOWY1,"2006/10/25 01:00:00",49.53,17.96,TRADE
SNOWY1,"2006/10/25 01:30:00",55.94,20.38,TRADE
SNOWY1,"2006/10/25 02:00:00",87.37,18.85,TRADE
SNOWY1,"2006/10/25 02:30:00",95.35,17.16,TRADE
SNOWY1,"2006/10/25 03:00:00",102.03,16.4,TRADE
SNOWY1,"2006/10/25 03:30:00",122.68,15.51,TRADE
SNOWY1,"2006/10/25 04:00:00",125.84,15.11,TRADE
SNOWY1,"2006/10/25 04:30:00",118.18,14.31,TRADE
SNOWY1,"2006/10/25 05:00:00",116.77,13.77,TRADE
SNOWY1,"2006/10/25 05:30:00",120.36,14.79,TRADE
SNOWY1,"2006/10/25 06:00:00",123.77,15.76,TRADE
SNOWY1,"2006/10/25 06:30:00",116.58,20.9,TRADE
SNOWY1,"2006/10/25 07:00:00",56.48,21.31,TRADE
SNOWY1,"2006/10/25 07:30:00",53.94,21.73,TRADE
SNOWY1,"2006/10/25 08:00:00",50.32,23.41,TRADE
SNOWY1,"2006/10/25 08:30:00",50.62,25.04,TRADE
SNOWY1,"2006/10/25 09:00:00",57.39,24.97,TRADE
SNOWY1,"2006/10/25 09:30:00",54.52,29.48,TRADE
SNOWY1,"2006/10/25 10:00:00",49.64,29.04,TRADE
SNOWY1,"2006/10/25 10:30:00",47.81,32.33,TRADE
SNOWY1,"2006/10/25 11:00:00",46.98,32,TRADE
SNOWY1,"2006/10/25 11:30:00",53.73,32.65,TRADE
SNOWY1,"2006/10/25 12:00:00",53.1,32,TRADE
SNOWY1,"2006/10/25 12:30:00",52.94,32,TRADE
SNOWY1,"2006/10/25 13:00:00",54.12,30.93,TRADE
SNOWY1,"2006/10/25 13:30:00",59.86,31.72,TRADE
SNOWY1,"2006/10/25 14:00:00",54.5,32,TRADE
SNOWY1,"2006/10/25 14:30:00",54.69,32,TRADE
SNOWY1,"2006/10/25 15:00:00",52.37,30.1,TRADE
SNOWY1,"2006/10/25 15:30:00",60.24,29.49,TRADE
SNOWY1,"2006/10/25 16:00:00",56.29,29.22,TRADE
SNOWY1,"2006/10/25 16:30:00",51.18,29.05,TRADE
SNOWY1,"2006/10/25 17:00:00",51.82,29.11,TRADE
SNOWY1,"2006/10/25 17:30:00",50.22,29.27,TRADE
SNOWY1,"2006/10/25 18:00:00",57.16,28.9,TRADE
SNOWY1,"2006/10/25 18:30:00",44.38,26.27,TRADE
SNOWY1,"2006/10/25 19:00:00",50.21,30.45,TRADE
SNOWY1,"2006/10/25 19:30:00",66.6,34.95,TRADE
SNOWY1,"2006/10/25 20:00:00",66.89,34.76,TRADE
SNOWY1,"2006/10/25 20:30:00",61.47,32.41,TRADE
SNOWY1,"2006/10/25 21:00:00",54.19,31.79,TRADE
SNOWY1,"2006/10/25 21:30:00",51.44,32,TRADE
SNOWY1,"2006/10/25 22:00:00",47.28,22.8,TRADE
SNOWY1,"2006/10/25 22:30:00",51.39,25.06,TRADE
SNOWY1,"2006/10/25 23:00:00",51.15,22.8,TRADE
SNOWY1,"2006/10/25 23:30:00",60.97,22.98,TRADE
SNOWY1,"2006/10/26 00:00:00",50.23,22.42,TRADE
SNOWY1,"2006/10/26 00:30:00",59.7,21.93,TRADE
SNOWY1,"2006/10/26 01:00:00",60.17,21.7,TRADE
SNOWY1,"2006/10/26 01:30:00",57.57,25.32,TRADE
SNOWY1,"2006/10/26 02:00:00",57.67,21.66,TRADE
SNOWY1,"2006/10/26 02:30:00",69.41,18.92,TRADE
SNOWY1,"2006/10/26 03:00:00",134.1,18.03,TRADE
SNOWY1,"2006/10/26 03:30:00",137.04,18.38,TRADE
SNOWY1,"2006/10/26 04:00:00",113.77,16.67,TRADE
SNOWY1,"2006/10/26 04:30:00",112.2,16.7,TRADE
SNOWY1,"2006/10/26 05:00:00",116.01,18.45,TRADE
SNOWY1,"2006/10/26 05:30:00",120.39,18.67,TRADE
SNOWY1,"2006/10/26 06:00:00",103.27,20.31,TRADE
SNOWY1,"2006/10/26 06:30:00",56.07,24.48,TRADE
SNOWY1,"2006/10/26 07:00:00",66.26,25.18,TRADE
SNOWY1,"2006/10/26 07:30:00",60.72,23.99,TRADE
SNOWY1,"2006/10/26 08:00:00",77.07,26.51,TRADE
SNOWY1,"2006/10/26 08:30:00",63.36,28.02,TRADE
SNOWY1,"2006/10/26 09:00:00",65.34,32,TRADE
SNOWY1,"2006/10/26 09:30:00",66.94,32,TRADE
SNOWY1,"2006/10/26 10:00:00",71.65,32,TRADE
SNOWY1,"2006/10/26 10:30:00",62.78,32.25,TRADE
SNOWY1,"2006/10/26 11:00:00",66.55,32.7,TRADE
SNOWY1,"2006/10/26 11:30:00",49.98,31.22,TRADE
SNOWY1,"2006/10/26 12:00:00",67.79,32,TRADE
SNOWY1,"2006/10/26 12:30:00",59.36,32,TRADE
SNOWY1,"2006/10/26 13:00:00",48.87,32,TRADE
SNOWY1,"2006/10/26 13:30:00",49.27,32,TRADE
SNOWY1,"2006/10/26 14:00:00",53.02,32,TRADE
SNOWY1,"2006/10/26 14:30:00",54.9,32,TRADE
SNOWY1,"2006/10/26 15:00:00",49.15,34.53,TRADE
SNOWY1,"2006/10/26 15:30:00",53.78,31.09,TRADE
SNOWY1,"2006/10/26 16:00:00",61.61,29.37,TRADE
SNOWY1,"2006/10/26 16:30:00",66.88,29.29,TRADE
SNOWY1,"2006/10/26 17:00:00",50.28,32,TRADE
SNOWY1,"2006/10/26 17:30:00",58,33.14,TRADE
SNOWY1,"2006/10/26 18:00:00",67.68,35.66,TRADE
SNOWY1,"2006/10/26 18:30:00",53.31,33.83,TRADE
SNOWY1,"2006/10/26 19:00:00",53.36,38.71,TRADE
SNOWY1,"2006/10/26 19:30:00",56.11,41.61,TRADE
SNOWY1,"2006/10/26 20:00:00",59.45,37.68,TRADE
SNOWY1,"2006/10/26 20:30:00",66.97,36.06,TRADE
SNOWY1,"2006/10/26 21:00:00",63.21,32.61,TRADE
SNOWY1,"2006/10/26 21:30:00",55.54,29.45,TRADE
SNOWY1,"2006/10/26 22:00:00",55.94,23.38,TRADE
SNOWY1,"2006/10/26 22:30:00",54.76,26.24,TRADE
SNOWY1,"2006/10/26 23:00:00",56.76,23.04,TRADE
SNOWY1,"2006/10/26 23:30:00",56.05,27.61,TRADE
SNOWY1,"2006/10/27 00:00:00",58.76,25.2,TRADE
SNOWY1,"2006/10/27 00:30:00",59.7,22.01,TRADE
SNOWY1,"2006/10/27 01:00:00",56.73,21.07,TRADE
SNOWY1,"2006/10/27 01:30:00",56.18,22.34,TRADE
SNOWY1,"2006/10/27 02:00:00",56.94,21.55,TRADE
SNOWY1,"2006/10/27 02:30:00",47.16,20.45,TRADE
SNOWY1,"2006/10/27 03:00:00",96.86,19.05,TRADE
SNOWY1,"2006/10/27 03:30:00",119.63,16.99,TRADE
SNOWY1,"2006/10/27 04:00:00",118.62,16.67,TRADE
SNOWY1,"2006/10/27 04:30:00",119.5,16.82,TRADE
SNOWY1,"2006/10/27 05:00:00",125.7,17.85,TRADE
SNOWY1,"2006/10/27 05:30:00",123.93,18.09,TRADE
SNOWY1,"2006/10/27 06:00:00",129.6,18.36,TRADE
SNOWY1,"2006/10/27 06:30:00",62.69,23.31,TRADE
SNOWY1,"2006/10/27 07:00:00",58.7,25.51,TRADE
SNOWY1,"2006/10/27 07:30:00",49.02,25.69,TRADE
SNOWY1,"2006/10/27 08:00:00",48.73,35.92,TRADE
SNOWY1,"2006/10/27 08:30:00",61.64,40.92,TRADE
SNOWY1,"2006/10/27 09:00:00",60.6,43.18,TRADE
SNOWY1,"2006/10/27 09:30:00",66.26,45.74,TRADE
SNOWY1,"2006/10/27 10:00:00",66.98,43.03,TRADE
SNOWY1,"2006/10/27 10:30:00",58.89,40.35,TRADE
SNOWY1,"2006/10/27 11:00:00",66.8,41.07,TRADE
SNOWY1,"2006/10/27 11:30:00",61.09,41.47,TRADE
SNOWY1,"2006/10/27 12:00:00",58.14,40.7,TRADE
SNOWY1,"2006/10/27 12:30:00",58.32,41.01,TRADE
SNOWY1,"2006/10/27 13:00:00",55.53,41.53,TRADE
SNOWY1,"2006/10/27 13:30:00",59.65,41.79,TRADE
SNOWY1,"2006/10/27 14:00:00",58.97,41.66,TRADE
SNOWY1,"2006/10/27 14:30:00",55.12,41.75,TRADE
SNOWY1,"2006/10/27 15:00:00",68.28,37.78,TRADE
SNOWY1,"2006/10/27 15:30:00",64.09,30.51,TRADE
SNOWY1,"2006/10/27 16:00:00",58.82,31.24,TRADE
SNOWY1,"2006/10/27 16:30:00",51.2,30.19,TRADE
SNOWY1,"2006/10/27 17:00:00",62.47,30.9,TRADE
SNOWY1,"2006/10/27 17:30:00",56.45,28.16,TRADE
SNOWY1,"2006/10/27 18:00:00",53.11,30.1,TRADE
SNOWY1,"2006/10/27 18:30:00",58.06,29.16,TRADE
SNOWY1,"2006/10/27 19:00:00",58.67,36.36,TRADE
SNOWY1,"2006/10/27 19:30:00",67.66,40.91,TRADE
SNOWY1,"2006/10/27 20:00:00",59.62,38.87,TRADE
SNOWY1,"2006/10/27 20:30:00",55.13,40.38,TRADE
SNOWY1,"2006/10/27 21:00:00",58.37,32,TRADE
SNOWY1,"2006/10/27 21:30:00",59.8,29.85,TRADE
SNOWY1,"2006/10/27 22:00:00",55.22,22.15,TRADE
SNOWY1,"2006/10/27 22:30:00",59.72,34.32,TRADE
SNOWY1,"2006/10/27 23:00:00",73.77,28.65,TRADE
SNOWY1,"2006/10/27 23:30:00",80.16,43.1,TRADE
SNOWY1,"2006/10/28 00:00:00",58.37,33.68,TRADE
SNOWY1,"2006/10/28 00:30:00",53.1,25.78,TRADE
SNOWY1,"2006/10/28 01:00:00",52.67,22.27,TRADE
SNOWY1,"2006/10/28 01:30:00",57.02,23.64,TRADE
SNOWY1,"2006/10/28 02:00:00",54.47,20.78,TRADE
SNOWY1,"2006/10/28 02:30:00",54.87,19.62,TRADE
SNOWY1,"2006/10/28 03:00:00",91.69,20.54,TRADE
SNOWY1,"2006/10/28 03:30:00",139.07,19.86,TRADE
SNOWY1,"2006/10/28 04:00:00",136.16,17.31,TRADE
SNOWY1,"2006/10/28 04:30:00",123.82,16.9,TRADE
SNOWY1,"2006/10/28 05:00:00",123.21,16.31,TRADE
SNOWY1,"2006/10/28 05:30:00",129.74,16.24,TRADE
SNOWY1,"2006/10/28 06:00:00",124.07,16.21,TRADE
SNOWY1,"2006/10/28 06:30:00",125.69,17.19,TRADE
SNOWY1,"2006/10/28 07:00:00",130.53,19.52,TRADE
SNOWY1,"2006/10/28 07:30:00",113.09,19.74,TRADE
SNOWY1,"2006/10/28 08:00:00",59.44,21.7,TRADE
SNOWY1,"2006/10/28 08:30:00",59.65,23.58,TRADE
SNOWY1,"2006/10/28 09:00:00",66.9,27.38,TRADE
SNOWY1,"2006/10/28 09:30:00",69.96,39.14,TRADE
SNOWY1,"2006/10/28 10:00:00",59.51,42,TRADE
SNOWY1,"2006/10/28 10:30:00",58.14,42,TRADE
SNOWY1,"2006/10/28 11:00:00",61.92,40.05,TRADE
SNOWY1,"2006/10/28 11:30:00",49.92,41.41,TRADE
SNOWY1,"2006/10/28 12:00:00",53.19,38.58,TRADE
SNOWY1,"2006/10/28 12:30:00",55.04,36.41,TRADE
SNOWY1,"2006/10/28 13:00:00",59.22,33.09,TRADE
SNOWY1,"2006/10/28 13:30:00",53.08,30.73,TRADE
SNOWY1,"2006/10/28 14:00:00",53.4,24.5,TRADE
SNOWY1,"2006/10/28 14:30:00",49.09,23.42,TRADE
SNOWY1,"2006/10/28 15:00:00",58.72,22.89,TRADE
SNOWY1,"2006/10/28 15:30:00",57.5,23.83,TRADE
SNOWY1,"2006/10/28 16:00:00",37.89,22.65,TRADE
SNOWY1,"2006/10/28 16:30:00",52,23.55,TRADE
SNOWY1,"2006/10/28 17:00:00",60.1,24.16,TRADE
SNOWY1,"2006/10/28 17:30:00",48.57,24.09,TRADE
SNOWY1,"2006/10/28 18:00:00",49.54,27.2,TRADE
SNOWY1,"2006/10/28 18:30:00",53.66,34.97,TRADE
SNOWY1,"2006/10/28 19:00:00",62.85,52.9,TRADE
SNOWY1,"2006/10/28 19:30:00",65.16,54.19,TRADE
SNOWY1,"2006/10/28 20:00:00",58.33,40.33,TRADE
SNOWY1,"2006/10/28 20:30:00",76.89,49.15,TRADE
SNOWY1,"2006/10/28 21:00:00",63.28,45.13,TRADE
SNOWY1,"2006/10/28 21:30:00",51.01,45.18,TRADE
SNOWY1,"2006/10/28 22:00:00",49.69,38.74,TRADE
SNOWY1,"2006/10/28 22:30:00",54.75,32,TRADE
SNOWY1,"2006/10/28 23:00:00",45.78,29.84,TRADE
SNOWY1,"2006/10/28 23:30:00",52.17,42,TRADE
SNOWY1,"2006/10/29 00:00:00",61.68,40.71,TRADE
SNOWY1,"2006/10/29 00:30:00",53.51,28.13,TRADE
SNOWY1,"2006/10/29 01:00:00",52.52,21.75,TRADE
SNOWY1,"2006/10/29 01:30:00",44.62,25.48,TRADE
SNOWY1,"2006/10/29 02:00:00",57.51,22.18,TRADE
SNOWY1,"2006/10/29 02:30:00",62.37,20.54,TRADE
SNOWY1,"2006/10/29 03:00:00",90.68,19.63,TRADE
SNOWY1,"2006/10/29 03:30:00",130.69,19.72,TRADE
SNOWY1,"2006/10/29 04:00:00",122.25,20.61,TRADE
SNOWY1,"2006/10/29 04:30:00",123.1,20.96,TRADE
SNOWY1,"2006/10/29 05:00:00",123,19.58,TRADE
SNOWY1,"2006/10/29 05:30:00",121.76,17.52,TRADE
SNOWY1,"2006/10/29 06:00:00",124.35,17.26,TRADE
SNOWY1,"2006/10/29 06:30:00",123.27,17.35,TRADE
SNOWY1,"2006/10/29 07:00:00",123.8,19.04,TRADE
SNOWY1,"2006/10/29 07:30:00",166.98,20.31,TRADE
SNOWY1,"2006/10/29 08:00:00",111.21,20.61,TRADE
SNOWY1,"2006/10/29 08:30:00",62.02,21.13,TRADE
SNOWY1,"2006/10/29 09:00:00",59.52,21.82,TRADE
SNOWY1,"2006/10/29 09:30:00",59.66,23.16,TRADE
SNOWY1,"2006/10/29 10:00:00",52.38,24.56,TRADE
SNOWY1,"2006/10/29 10:30:00",57.41,24.15,TRADE
SNOWY1,"2006/10/29 11:00:00",59.25,23.85,TRADE
SNOWY1,"2006/10/29 11:30:00",78.22,23.45,TRADE
SNOWY1,"2006/10/29 12:00:00",61.58,23.47,TRADE
SNOWY1,"2006/10/29 12:30:00",62.67,22.81,TRADE
SNOWY1,"2006/10/29 13:00:00",62.96,21.59,TRADE
SNOWY1,"2006/10/29 13:30:00",58.34,21.14,TRADE
SNOWY1,"2006/10/29 14:00:00",54.84,21.07,TRADE
SNOWY1,"2006/10/29 14:30:00",57.38,20.93,TRADE
SNOWY1,"2006/10/29 15:00:00",58.51,20.96,TRADE
SNOWY1,"2006/10/29 15:30:00",54.38,20.96,TRADE
SNOWY1,"2006/10/29 16:00:00",50.93,21.07,TRADE
SNOWY1,"2006/10/29 16:30:00",58.01,21.03,TRADE
SNOWY1,"2006/10/29 17:00:00",62.41,21.47,TRADE
SNOWY1,"2006/10/29 17:30:00",57.83,22.86,TRADE
SNOWY1,"2006/10/29 18:00:00",48.73,23.74,TRADE
SNOWY1,"2006/10/29 18:30:00",69.99,27.48,TRADE
SNOWY1,"2006/10/29 19:00:00",65.17,39.15,TRADE
SNOWY1,"2006/10/29 19:30:00",67.8,41.83,TRADE
SNOWY1,"2006/10/29 20:00:00",63.89,40.77,TRADE
SNOWY1,"2006/10/29 20:30:00",64.05,31.04,TRADE
SNOWY1,"2006/10/29 21:00:00",54.08,24.21,TRADE
SNOWY1,"2006/10/29 21:30:00",67.98,22.23,TRADE
SNOWY1,"2006/10/29 22:00:00",53.08,20.12,TRADE
SNOWY1,"2006/10/29 22:30:00",61.65,19.34,TRADE
SNOWY1,"2006/10/29 23:00:00",115.84,17.71,TRADE
SNOWY1,"2006/10/29 23:30:00",126.11,18.81,TRADE
SNOWY1,"2006/10/30 00:00:00",129.66,21.28,TRADE
SNOWY1,"2006/10/30 00:30:00",129.86,19.16,TRADE
SNOWY1,"2006/10/30 01:00:00",121.13,18.48,TRADE
SNOWY1,"2006/10/30 01:30:00",125.65,22.01,TRADE
SNOWY1,"2006/10/30 02:00:00",133.22,20.3,TRADE
SNOWY1,"2006/10/30 02:30:00",122.02,18.34,TRADE
SNOWY1,"2006/10/30 03:00:00",123.12,16.79,TRADE
SNOWY1,"2006/10/30 03:30:00",109.55,16.75,TRADE
SNOWY1,"2006/10/30 04:00:00",122.55,17.11,TRADE
SNOWY1,"2006/10/30 04:30:00",113.2,18.39,TRADE
SNOWY1,"2006/10/30 05:00:00",110.47,19.75,TRADE
SNOWY1,"2006/10/30 05:30:00",97.81,22.17,TRADE
SNOWY1,"2006/10/30 06:00:00",48.41,23.92,TRADE
SNOWY1,"2006/10/30 06:30:00",58.89,31.03,TRADE
SNOWY1,"2006/10/30 07:00:00",61.94,37.8,TRADE
SNOWY1,"2006/10/30 07:30:00",53.12,32.31,TRADE
SNOWY1,"2006/10/30 08:00:00",52.27,28.4,TRADE
SNOWY1,"2006/10/30 08:30:00",55.66,27.71,TRADE
SNOWY1,"2006/10/30 09:00:00",57.32,30.48,TRADE
SNOWY1,"2006/10/30 09:30:00",57.09,31.59,TRADE
SNOWY1,"2006/10/30 10:00:00",51.11,32,TRADE
SNOWY1,"2006/10/30 10:30:00",53.24,32,TRADE
SNOWY1,"2006/10/30 11:00:00",50.86,31.53,TRADE
SNOWY1,"2006/10/30 11:30:00",57.54,31.56,TRADE
SNOWY1,"2006/10/30 12:00:00",47.37,29.46,TRADE
SNOWY1,"2006/10/30 12:30:00",48.93,28.06,TRADE
SNOWY1,"2006/10/30 13:00:00",54.12,25.8,TRADE
SNOWY1,"2006/10/30 13:30:00",48.29,24.73,TRADE
SNOWY1,"2006/10/30 14:00:00",50.72,24.34,TRADE
SNOWY1,"2006/10/30 14:30:00",72.99,23.93,TRADE
SNOWY1,"2006/10/30 15:00:00",48.41,23.77,TRADE
SNOWY1,"2006/10/30 15:30:00",66.82,23.94,TRADE
SNOWY1,"2006/10/30 16:00:00",65.71,23.94,TRADE
SNOWY1,"2006/10/30 16:30:00",60.55,22.87,TRADE
SNOWY1,"2006/10/30 17:00:00",53.26,22.53,TRADE
SNOWY1,"2006/10/30 17:30:00",54.14,21.89,TRADE
SNOWY1,"2006/10/30 18:00:00",53.67,22.4,TRADE
SNOWY1,"2006/10/30 18:30:00",53.15,22.02,TRADE
SNOWY1,"2006/10/30 19:00:00",51.28,23.71,TRADE
SNOWY1,"2006/10/30 19:30:00",54.11,24.64,TRADE
SNOWY1,"2006/10/30 20:00:00",52.29,23.94,TRADE
SNOWY1,"2006/10/30 20:30:00",54.22,23.15,TRADE
SNOWY1,"2006/10/30 21:00:00",51.87,21.81,TRADE
SNOWY1,"2006/10/30 21:30:00",72.42,19.99,TRADE
SNOWY1,"2006/10/30 22:00:00",127.37,17.9,TRADE
SNOWY1,"2006/10/30 22:30:00",122.41,18.55,TRADE
SNOWY1,"2006/10/30 23:00:00",122.79,17.52,TRADE
SNOWY1,"2006/10/30 23:30:00",124.04,20.47,TRADE
SNOWY1,"2006/10/31 00:00:00",107.95,21.74,TRADE
SNOWY1,"2006/10/31 00:30:00",101.9,20.04,TRADE
SNOWY1,"2006/10/31 01:00:00",124.27,19.17,TRADE
SNOWY1,"2006/10/31 01:30:00",118.52,19.35,TRADE
SNOWY1,"2006/10/31 02:00:00",122.48,17.49,TRADE
SNOWY1,"2006/10/31 02:30:00",127.69,17.21,TRADE
SNOWY1,"2006/10/31 03:00:00",127.42,16.9,TRADE
SNOWY1,"2006/10/31 03:30:00",119.6,17.22,TRADE
SNOWY1,"2006/10/31 04:00:00",127.6,16.55,TRADE
SNOWY1,"2006/10/31 04:30:00",128.98,18.34,TRADE
SNOWY1,"2006/10/31 05:00:00",121.15,20.55,TRADE
SNOWY1,"2006/10/31 05:30:00",123.3,22.87,TRADE
SNOWY1,"2006/10/31 06:00:00",98.1,26.87,TRADE
SNOWY1,"2006/10/31 06:30:00",69.3,38.41,TRADE
SNOWY1,"2006/10/31 07:00:00",65.1,42.75,TRADE
SNOWY1,"2006/10/31 07:30:00",59.93,32,TRADE
SNOWY1,"2006/10/31 08:00:00",60.32,28.96,TRADE
SNOWY1,"2006/10/31 08:30:00",66.05,29.49,TRADE
SNOWY1,"2006/10/31 09:00:00",55.57,29.97,TRADE
SNOWY1,"2006/10/31 09:30:00",55.57,32,TRADE
SNOWY1,"2006/10/31 10:00:00",66.91,32.92,TRADE
SNOWY1,"2006/10/31 10:30:00",62.7,32.86,TRADE
SNOWY1,"2006/10/31 11:00:00",65.82,34.14,TRADE
SNOWY1,"2006/10/31 11:30:00",59.03,32.88,TRADE
SNOWY1,"2006/10/31 12:00:00",65.06,34.63,TRADE
SNOWY1,"2006/10/31 12:30:00",61.17,39.74,TRADE
SNOWY1,"2006/10/31 13:00:00",64.59,33.49,TRADE
SNOWY1,"2006/10/31 13:30:00",51.26,36.69,TRADE
SNOWY1,"2006/10/31 14:00:00",49.06,32.56,TRADE
SNOWY1,"2006/10/31 14:30:00",60.92,33.74,TRADE
SNOWY1,"2006/10/31 15:00:00",56.32,32,TRADE
SNOWY1,"2006/10/31 15:30:00",56.32,32.64,TRADE
SNOWY1,"2006/10/31 16:00:00",52.85,32,TRADE
SNOWY1,"2006/10/31 16:30:00",50.34,31.04,TRADE
SNOWY1,"2006/10/31 17:00:00",49.56,27.43,TRADE
SNOWY1,"2006/10/31 17:30:00",52.11,24.31,TRADE
SNOWY1,"2006/10/31 18:00:00",52.21,23.39,TRADE
SNOWY1,"2006/10/31 18:30:00",59.83,22.08,TRADE
SNOWY1,"2006/10/31 19:00:00",54.31,23.42,TRADE
SNOWY1,"2006/10/31 19:30:00",66.51,24.07,TRADE
SNOWY1,"2006/10/31 20:00:00",57.68,23.68,TRADE
SNOWY1,"2006/10/31 20:30:00",62.37,22.6,TRADE
SNOWY1,"2006/10/31 21:00:00",78.2,21.6,TRADE
SNOWY1,"2006/10/31 21:30:00",121.55,20.9,TRADE
SNOWY1,"2006/10/31 22:00:00",126.54,17.28,TRADE
SNOWY1,"2006/10/31 22:30:00",131.03,18.13,TRADE
SNOWY1,"2006/10/31 23:00:00",125.67,17.41,TRADE
SNOWY1,"2006/10/31 23:30:00",124.69,21.07,TRADE
SNOWY1,"2006/11/01 00:00:00",126.06,20.04,TRADE
