REGION,SETTLEMENTDATE,TOTALDEMAND,RRP,PERIODTYPE
VIC1,"1999/05/01 00:30",5188.40667,31.55,TRADE
VIC1,"1999/05/01 01:00",5045.15667,32.9,TRADE
VIC1,"1999/05/01 01:30",5272.435,32.36,TRADE
VIC1,"1999/05/01 02:00",5108.395,27.61,TRADE
VIC1,"1999/05/01 02:30",4928.49833,22.8,TRADE
VIC1,"1999/05/01 03:00",4715.255,22.3,TRADE
VIC1,"1999/05/01 03:30",4557.85667,19.09,TRADE
VIC1,"1999/05/01 04:00",4371.42833,14.04,TRADE
VIC1,"1999/05/01 04:30",4270.845,12.51,TRADE
VIC1,"1999/05/01 05:00",4215.17,12.13,TRADE
VIC1,"1999/05/01 05:30",4209.955,13.71,TRADE
VIC1,"1999/05/01 06:00",4285.09333,15.36,TRADE
VIC1,"1999/05/01 06:30",4374.81833,16.97,TRADE
VIC1,"1999/05/01 07:00",4489.62333,20.69,TRADE
VIC1,"1999/05/01 07:30",4470.34667,18.77,TRADE
VIC1,"1999/05/01 08:00",4597.15667,22.79,TRADE
VIC1,"1999/05/01 08:30",4839.695,30,TRADE
VIC1,"1999/05/01 09:00",4907.63333,29.7,TRADE
VIC1,"1999/05/01 09:30",5015.21667,36.53,TRADE
VIC1,"1999/05/01 10:00",4988.67667,34.92,TRADE
VIC1,"1999/05/01 10:30",4938.08333,36.4,TRADE
VIC1,"1999/05/01 11:00",4908.1,34.65,TRADE
VIC1,"1999/05/01 11:30",4889.065,33.55,TRADE
VIC1,"1999/05/01 12:00",4862.915,32.91,TRADE
VIC1,"1999/05/01 12:30",4837.01167,33.16,TRADE
VIC1,"1999/05/01 13:00",4794.50167,32.4,TRADE
VIC1,"1999/05/01 13:30",4826.53667,29.28,TRADE
VIC1,"1999/05/01 14:00",4771.335,26.04,TRADE
VIC1,"1999/05/01 14:30",4704.72667,25.3,TRADE
VIC1,"1999/05/01 15:00",4611.02167,22.95,TRADE
VIC1,"1999/05/01 15:30",4592.83,22.37,TRADE
VIC1,"1999/05/01 16:00",4573.72167,21.05,TRADE
VIC1,"1999/05/01 16:30",4606.46667,27.2,TRADE
VIC1,"1999/05/01 17:00",4667.355,25.57,TRADE
VIC1,"1999/05/01 17:30",4884.335,30.39,TRADE
VIC1,"1999/05/01 18:00",5240.51833,43.24,TRADE
VIC1,"1999/05/01 18:30",5475.07333,48.72,TRADE
VIC1,"1999/05/01 19:00",5416.455,37.29,TRADE
VIC1,"1999/05/01 19:30",5208.34333,30.39,TRADE
VIC1,"1999/05/01 20:00",5159.23667,29.53,TRADE
VIC1,"1999/05/01 20:30",5065.48167,28.16,TRADE
VIC1,"1999/05/01 21:00",4989.16167,28.36,TRADE
VIC1,"1999/05/01 21:30",4925.98833,27.74,TRADE
VIC1,"1999/05/01 22:00",4826.21833,26.17,TRADE
VIC1,"1999/05/01 22:30",4819.93667,27.01,TRADE
VIC1,"1999/05/01 23:00",4753.35,26.57,TRADE
VIC1,"1999/05/01 23:30",5173.39167,29.22,TRADE
VIC1,"1999/05/02 00:00",5161.67167,28.5,TRADE
VIC1,"1999/05/02 00:30",5091.19333,27.74,TRADE
VIC1,"1999/05/02 01:00",4934.16833,17.81,TRADE
VIC1,"1999/05/02 01:30",5172.38333,23.74,TRADE
VIC1,"1999/05/02 02:00",5027.78167,19.68,TRADE
VIC1,"1999/05/02 02:30",4867.72833,16.15,TRADE
VIC1,"1999/05/02 03:00",4651.975,14.72,TRADE
VIC1,"1999/05/02 03:30",4521.12833,13.91,TRADE
VIC1,"1999/05/02 04:00",4374.77333,13.02,TRADE
VIC1,"1999/05/02 04:30",4259.24333,12.12,TRADE
VIC1,"1999/05/02 05:00",4126.345,12.12,TRADE
VIC1,"1999/05/02 05:30",4118.20167,12.12,TRADE
VIC1,"1999/05/02 06:00",4127.2,12.13,TRADE
VIC1,"1999/05/02 06:30",4194.72833,12.32,TRADE
VIC1,"1999/05/02 07:00",4215.125,12.14,TRADE
VIC1,"1999/05/02 07:30",4074.27,12.07,TRADE
VIC1,"1999/05/02 08:00",4176.805,12.44,TRADE
VIC1,"1999/05/02 08:30",4340.15833,13.83,TRADE
VIC1,"1999/05/02 09:00",4438.47833,14.24,TRADE
VIC1,"1999/05/02 09:30",4529.29,15.04,TRADE
VIC1,"1999/05/02 10:00",4547.48,15.58,TRADE
VIC1,"1999/05/02 10:30",4539.78167,14.82,TRADE
VIC1,"1999/05/02 11:00",4467.41667,13.98,TRADE
VIC1,"1999/05/02 11:30",4445.735,13.91,TRADE
VIC1,"1999/05/02 12:00",4470.315,14.21,TRADE
VIC1,"1999/05/02 12:30",4444.8,13.88,TRADE
VIC1,"1999/05/02 13:00",4397.275,12.99,TRADE
VIC1,"1999/05/02 13:30",4405.54667,12.91,TRADE
VIC1,"1999/05/02 14:00",4358.73333,12.71,TRADE
VIC1,"1999/05/02 14:30",4310.79333,12.33,TRADE
VIC1,"1999/05/02 15:00",4285.50167,12.13,TRADE
VIC1,"1999/05/02 15:30",4261.04667,12.12,TRADE
VIC1,"1999/05/02 16:00",4324.39333,12.12,TRADE
VIC1,"1999/05/02 16:30",4351.925,12.12,TRADE
VIC1,"1999/05/02 17:00",4464.53333,12.45,TRADE
VIC1,"1999/05/02 17:30",4684.05167,14.79,TRADE
VIC1,"1999/05/02 18:00",5166.85833,30.24,TRADE
VIC1,"1999/05/02 18:30",5387.18833,37.77,TRADE
VIC1,"1999/05/02 19:00",5323.89,35.48,TRADE
VIC1,"1999/05/02 19:30",5244.85,31.93,TRADE
VIC1,"1999/05/02 20:00",5180.87,30.9,TRADE
VIC1,"1999/05/02 20:30",5091.41,29.33,TRADE
VIC1,"1999/05/02 21:00",5024.17,27.86,TRADE
VIC1,"1999/05/02 21:30",4909.37167,24.19,TRADE
VIC1,"1999/05/02 22:00",4755.525,19.19,TRADE
VIC1,"1999/05/02 22:30",4747.76333,24.71,TRADE
VIC1,"1999/05/02 23:00",4693.49667,22.04,TRADE
VIC1,"1999/05/02 23:30",5081.04667,25.18,TRADE
VIC1,"1999/05/03 00:00",5032.375,21.5,TRADE
VIC1,"1999/05/03 00:30",4906.59167,23.1,TRADE
VIC1,"1999/05/03 01:00",4788.80333,16.81,TRADE
VIC1,"1999/05/03 01:30",5046.61,21.55,TRADE
VIC1,"1999/05/03 02:00",4933.21333,16.81,TRADE
VIC1,"1999/05/03 02:30",4769.43833,16.5,TRADE
VIC1,"1999/05/03 03:00",4587.65333,14.2,TRADE
VIC1,"1999/05/03 03:30",4422.26833,13.4,TRADE
VIC1,"1999/05/03 04:00",4356.28,12.31,TRADE
VIC1,"1999/05/03 04:30",4245.07333,13.04,TRADE
VIC1,"1999/05/03 05:00",4231.39333,13.71,TRADE
VIC1,"1999/05/03 05:30",4299.19167,14.07,TRADE
VIC1,"1999/05/03 06:00",4456.73833,15.32,TRADE
VIC1,"1999/05/03 06:30",4823.74,19.92,TRADE
VIC1,"1999/05/03 07:00",5238.04833,33.23,TRADE
VIC1,"1999/05/03 07:30",5365.395,32.93,TRADE
VIC1,"1999/05/03 08:00",5623.10833,46.45,TRADE
VIC1,"1999/05/03 08:30",5719.72,53.6,TRADE
VIC1,"1999/05/03 09:00",5721.62833,60.93,TRADE
VIC1,"1999/05/03 09:30",5723.50167,56.72,TRADE
VIC1,"1999/05/03 10:00",5672.87,53.58,TRADE
VIC1,"1999/05/03 10:30",5622.80667,33.49,TRADE
VIC1,"1999/05/03 11:00",5614.78667,30.32,TRADE
VIC1,"1999/05/03 11:30",5578.89167,30.33,TRADE
VIC1,"1999/05/03 12:00",5578.19167,30.15,TRADE
VIC1,"1999/05/03 12:30",5515.04667,29.8,TRADE
VIC1,"1999/05/03 13:00",5527.98333,22.3,TRADE
VIC1,"1999/05/03 13:30",5598.715,28.59,TRADE
VIC1,"1999/05/03 14:00",5571.34333,25.89,TRADE
VIC1,"1999/05/03 14:30",5550.21333,21.17,TRADE
VIC1,"1999/05/03 15:00",5463.225,18.04,TRADE
VIC1,"1999/05/03 15:30",5457.53,19.18,TRADE
VIC1,"1999/05/03 16:00",5433.72167,18.12,TRADE
VIC1,"1999/05/03 16:30",5436.35833,17.61,TRADE
VIC1,"1999/05/03 17:00",5483.69,20.12,TRADE
VIC1,"1999/05/03 17:30",5558.18333,24.29,TRADE
VIC1,"1999/05/03 18:00",5875.91167,48.41,TRADE
VIC1,"1999/05/03 18:30",5922.54,54.74,TRADE
VIC1,"1999/05/03 19:00",5791.21833,51.26,TRADE
VIC1,"1999/05/03 19:30",5635.88167,36.39,TRADE
VIC1,"1999/05/03 20:00",5539.595,30.08,TRADE
VIC1,"1999/05/03 20:30",5382.07167,23.82,TRADE
VIC1,"1999/05/03 21:00",5314.50167,25.74,TRADE
VIC1,"1999/05/03 21:30",5182.70833,23.42,TRADE
VIC1,"1999/05/03 22:00",5052.78,20.57,TRADE
VIC1,"1999/05/03 22:30",4941.32667,27.71,TRADE
VIC1,"1999/05/03 23:00",4877.68833,24.46,TRADE
VIC1,"1999/05/03 23:30",5312.13333,33.18,TRADE
VIC1,"1999/05/04 00:00",5261.74,44.28,TRADE
VIC1,"1999/05/04 00:30",5063.68833,36.39,TRADE
VIC1,"1999/05/04 01:00",4964.025,35.54,TRADE
VIC1,"1999/05/04 01:30",5211.065,40.97,TRADE
VIC1,"1999/05/04 02:00",5084.85333,35.71,TRADE
VIC1,"1999/05/04 02:30",4865.78,28.56,TRADE
VIC1,"1999/05/04 03:00",4698.86,27.6,TRADE
VIC1,"1999/05/04 03:30",4560.58,23.13,TRADE
VIC1,"1999/05/04 04:00",4429.275,19.06,TRADE
VIC1,"1999/05/04 04:30",4326.42333,14.76,TRADE
VIC1,"1999/05/04 05:00",4294.80167,14.29,TRADE
VIC1,"1999/05/04 05:30",4363.67833,17.66,TRADE
VIC1,"1999/05/04 06:00",4527.16167,21.32,TRADE
VIC1,"1999/05/04 06:30",4911.48333,26.51,TRADE
VIC1,"1999/05/04 07:00",5217.845,33.67,TRADE
VIC1,"1999/05/04 07:30",5339.99333,34.74,TRADE
VIC1,"1999/05/04 08:00",5644.22667,50.89,TRADE
VIC1,"1999/05/04 08:30",5705.78833,54.89,TRADE
VIC1,"1999/05/04 09:00",5694.59167,49.67,TRADE
VIC1,"1999/05/04 09:30",5675.29333,45.9,TRADE
VIC1,"1999/05/04 10:00",5602.49167,50.51,TRADE
VIC1,"1999/05/04 10:30",5524.73833,33.26,TRADE
VIC1,"1999/05/04 11:00",5518.065,29.6,TRADE
VIC1,"1999/05/04 11:30",5516.51833,24.86,TRADE
VIC1,"1999/05/04 12:00",5548.37667,30.61,TRADE
VIC1,"1999/05/04 12:30",5548.62833,36,TRADE
VIC1,"1999/05/04 13:00",5507.91833,33.74,TRADE
VIC1,"1999/05/04 13:30",5647.66667,42.59,TRADE
VIC1,"1999/05/04 14:00",5586.02,32.04,TRADE
VIC1,"1999/05/04 14:30",5555.37167,29.63,TRADE
VIC1,"1999/05/04 15:00",5524.50167,25.02,TRADE
VIC1,"1999/05/04 15:30",5470.705,24.03,TRADE
VIC1,"1999/05/04 16:00",5475.71167,22.61,TRADE
VIC1,"1999/05/04 16:30",5491.05333,21.19,TRADE
VIC1,"1999/05/04 17:00",5524.735,21.24,TRADE
VIC1,"1999/05/04 17:30",5621.50333,24.07,TRADE
VIC1,"1999/05/04 18:00",5939.03,48.72,TRADE
VIC1,"1999/05/04 18:30",6040.42,54.74,TRADE
VIC1,"1999/05/04 19:00",5878.29167,39.32,TRADE
VIC1,"1999/05/04 19:30",5685.79167,31.13,TRADE
VIC1,"1999/05/04 20:00",5569.95167,32.36,TRADE
VIC1,"1999/05/04 20:30",5462.795,31.31,TRADE
VIC1,"1999/05/04 21:00",5377.505,27.73,TRADE
VIC1,"1999/05/04 21:30",5254.84,27.12,TRADE
VIC1,"1999/05/04 22:00",5120.65667,24.32,TRADE
VIC1,"1999/05/04 22:30",5043.62,30.75,TRADE
VIC1,"1999/05/04 23:00",4928.17167,26.47,TRADE
VIC1,"1999/05/04 23:30",5352.82833,33.1,TRADE
VIC1,"1999/05/05 00:00",5306.39,31.78,TRADE
VIC1,"1999/05/05 00:30",5179.87833,29.6,TRADE
VIC1,"1999/05/05 01:00",5016.73333,26.36,TRADE
VIC1,"1999/05/05 01:30",5268.35333,30.13,TRADE
VIC1,"1999/05/05 02:00",5128.29,25.83,TRADE
VIC1,"1999/05/05 02:30",4927.68167,20.82,TRADE
VIC1,"1999/05/05 03:00",4728.21167,20.26,TRADE
VIC1,"1999/05/05 03:30",4569.26,19.17,TRADE
VIC1,"1999/05/05 04:00",4428.135,15.46,TRADE
VIC1,"1999/05/05 04:30",4331.905,14.03,TRADE
VIC1,"1999/05/05 05:00",4319.19167,14.04,TRADE
VIC1,"1999/05/05 05:30",4393.17833,16.23,TRADE
VIC1,"1999/05/05 06:00",4539.19,16.06,TRADE
VIC1,"1999/05/05 06:30",4857.33667,22.58,TRADE
VIC1,"1999/05/05 07:00",5218.20667,31.79,TRADE
VIC1,"1999/05/05 07:30",5355.31,34.27,TRADE
VIC1,"1999/05/05 08:00",5668.97833,49.64,TRADE
VIC1,"1999/05/05 08:30",5707.80333,45.37,TRADE
VIC1,"1999/05/05 09:00",5646.42667,30.37,TRADE
VIC1,"1999/05/05 09:30",5700.64333,39.76,TRADE
VIC1,"1999/05/05 10:00",5626.83333,34.1,TRADE
VIC1,"1999/05/05 10:30",5634.17833,29.91,TRADE
VIC1,"1999/05/05 11:00",5574.74,28.74,TRADE
VIC1,"1999/05/05 11:30",5576.46167,28.86,TRADE
VIC1,"1999/05/05 12:00",5575.87333,28.13,TRADE
VIC1,"1999/05/05 12:30",5502.31667,21.92,TRADE
VIC1,"1999/05/05 13:00",5479.10833,27.61,TRADE
VIC1,"1999/05/05 13:30",5564.99833,30.2,TRADE
VIC1,"1999/05/05 14:00",5560.86167,30.09,TRADE
VIC1,"1999/05/05 14:30",5540.36667,27.19,TRADE
VIC1,"1999/05/05 15:00",5516.93333,25.82,TRADE
VIC1,"1999/05/05 15:30",5466.22,20.39,TRADE
VIC1,"1999/05/05 16:00",5458.67333,25.01,TRADE
VIC1,"1999/05/05 16:30",5451.65167,20.97,TRADE
VIC1,"1999/05/05 17:00",5475.56167,21.95,TRADE
VIC1,"1999/05/05 17:30",5614.89333,31.42,TRADE
VIC1,"1999/05/05 18:00",5890.13333,48.41,TRADE
VIC1,"1999/05/05 18:30",5963.165,44.03,TRADE
VIC1,"1999/05/05 19:00",5759.25,32.31,TRADE
VIC1,"1999/05/05 19:30",5570.84,24.75,TRADE
VIC1,"1999/05/05 20:00",5481.19333,26.93,TRADE
VIC1,"1999/05/05 20:30",5389.485,28.45,TRADE
VIC1,"1999/05/05 21:00",5245.87,21.97,TRADE
VIC1,"1999/05/05 21:30",5137.83167,21.1,TRADE
VIC1,"1999/05/05 22:00",5061.325,22.28,TRADE
VIC1,"1999/05/05 22:30",4961.77167,26.82,TRADE
VIC1,"1999/05/05 23:00",4858.225,25.66,TRADE
VIC1,"1999/05/05 23:30",5291.475,29.18,TRADE
VIC1,"1999/05/06 00:00",5251.635,29.46,TRADE
VIC1,"1999/05/06 00:30",5179.84,29.71,TRADE
VIC1,"1999/05/06 01:00",4905.31,25.89,TRADE
VIC1,"1999/05/06 01:30",5219.10167,28.62,TRADE
VIC1,"1999/05/06 02:00",5089.215,25.26,TRADE
VIC1,"1999/05/06 02:30",4913.09333,21.64,TRADE
VIC1,"1999/05/06 03:00",4701.435,21.21,TRADE
VIC1,"1999/05/06 03:30",4524.24667,17.91,TRADE
VIC1,"1999/05/06 04:00",4415.09833,14.49,TRADE
VIC1,"1999/05/06 04:30",4331.22,13.92,TRADE
VIC1,"1999/05/06 05:00",4301.03667,13.85,TRADE
VIC1,"1999/05/06 05:30",4394.84333,15.16,TRADE
VIC1,"1999/05/06 06:00",4538.705,15.84,TRADE
VIC1,"1999/05/06 06:30",4909.635,20.09,TRADE
VIC1,"1999/05/06 07:00",5258.86833,28.11,TRADE
VIC1,"1999/05/06 07:30",5386.69167,25.23,TRADE
VIC1,"1999/05/06 08:00",5600.29667,32.81,TRADE
VIC1,"1999/05/06 08:30",5713.97,35.6,TRADE
VIC1,"1999/05/06 09:00",5634.71833,29.3,TRADE
VIC1,"1999/05/06 09:30",5663.54833,31.65,TRADE
VIC1,"1999/05/06 10:00",5610.765,30.96,TRADE
VIC1,"1999/05/06 10:30",5590.25,25.7,TRADE
VIC1,"1999/05/06 11:00",5601.18667,25.78,TRADE
VIC1,"1999/05/06 11:30",5573.36667,25.32,TRADE
VIC1,"1999/05/06 12:00",5614.32167,26.98,TRADE
VIC1,"1999/05/06 12:30",5564.95167,27.81,TRADE
VIC1,"1999/05/06 13:00",5563.36333,30.21,TRADE
VIC1,"1999/05/06 13:30",5660.29833,33.7,TRADE
VIC1,"1999/05/06 14:00",5650.00667,32.14,TRADE
VIC1,"1999/05/06 14:30",5637.53,31.1,TRADE
VIC1,"1999/05/06 15:00",5637.67,28.95,TRADE
VIC1,"1999/05/06 15:30",5518.385,15.8,TRADE
VIC1,"1999/05/06 16:00",5520.145,14.93,TRADE
VIC1,"1999/05/06 16:30",5538.60667,17.65,TRADE
VIC1,"1999/05/06 17:00",5528.81,16.97,TRADE
VIC1,"1999/05/06 17:30",5613.20333,24.68,TRADE
VIC1,"1999/05/06 18:00",5904.39667,39.74,TRADE
VIC1,"1999/05/06 18:30",6013.01667,42.83,TRADE
VIC1,"1999/05/06 19:00",5846.685,33.38,TRADE
VIC1,"1999/05/06 19:30",5659.69333,26.63,TRADE
VIC1,"1999/05/06 20:00",5553.37667,24.24,TRADE
VIC1,"1999/05/06 20:30",5441.20167,23.28,TRADE
VIC1,"1999/05/06 21:00",5331.73,21.16,TRADE
VIC1,"1999/05/06 21:30",5183.25667,16.56,TRADE
VIC1,"1999/05/06 22:00",5042.13833,16.17,TRADE
VIC1,"1999/05/06 22:30",5006.785,25.33,TRADE
VIC1,"1999/05/06 23:00",4903.30167,23.05,TRADE
VIC1,"1999/05/06 23:30",5386.365,28.78,TRADE
VIC1,"1999/05/07 00:00",5314.27833,27.47,TRADE
VIC1,"1999/05/07 00:30",5173.94333,25.72,TRADE
VIC1,"1999/05/07 01:00",4991.165,24.08,TRADE
VIC1,"1999/05/07 01:30",5213.605,28.32,TRADE
VIC1,"1999/05/07 02:00",5105.45167,24.01,TRADE
VIC1,"1999/05/07 02:30",4890.82,21.5,TRADE
VIC1,"1999/05/07 03:00",4680.495,17.45,TRADE
VIC1,"1999/05/07 03:30",4509.06833,14.17,TRADE
VIC1,"1999/05/07 04:00",4333.45333,13.97,TRADE
VIC1,"1999/05/07 04:30",4282.59833,14.03,TRADE
VIC1,"1999/05/07 05:00",4253.13833,15.75,TRADE
VIC1,"1999/05/07 05:30",4332.20333,20.96,TRADE
VIC1,"1999/05/07 06:00",4446.93333,19.92,TRADE
VIC1,"1999/05/07 06:30",4791.655,25.53,TRADE
VIC1,"1999/05/07 07:00",5095.76167,32.11,TRADE
VIC1,"1999/05/07 07:30",5238.475,33.51,TRADE
VIC1,"1999/05/07 08:00",5445.92,45.05,TRADE
VIC1,"1999/05/07 08:30",5537.26333,47.52,TRADE
VIC1,"1999/05/07 09:00",5493.765,33.58,TRADE
VIC1,"1999/05/07 09:30",5578.35,40.96,TRADE
VIC1,"1999/05/07 10:00",5518.93667,42.33,TRADE
VIC1,"1999/05/07 10:30",5524.47167,39.72,TRADE
VIC1,"1999/05/07 11:00",5528.37667,34.03,TRADE
VIC1,"1999/05/07 11:30",5562.41667,47.05,TRADE
VIC1,"1999/05/07 12:00",5565.37833,32.92,TRADE
VIC1,"1999/05/07 12:30",5509.80167,34.74,TRADE
VIC1,"1999/05/07 13:00",5501.11,35.84,TRADE
VIC1,"1999/05/07 13:30",5554.54833,37.75,TRADE
VIC1,"1999/05/07 14:00",5496.86833,33.48,TRADE
VIC1,"1999/05/07 14:30",5516.735,34.58,TRADE
VIC1,"1999/05/07 15:00",5450.85167,32.39,TRADE
VIC1,"1999/05/07 15:30",5416.52167,29.31,TRADE
VIC1,"1999/05/07 16:00",5325.48,27.98,TRADE
VIC1,"1999/05/07 16:30",5327.945,22.14,TRADE
VIC1,"1999/05/07 17:00",5401.99833,21.66,TRADE
VIC1,"1999/05/07 17:30",5507.26333,23.26,TRADE
VIC1,"1999/05/07 18:00",5785.16833,46.79,TRADE
VIC1,"1999/05/07 18:30",5695.11333,38.17,TRADE
VIC1,"1999/05/07 19:00",5566.77667,28.49,TRADE
VIC1,"1999/05/07 19:30",5426.91167,20.29,TRADE
VIC1,"1999/05/07 20:00",5293.46833,27.28,TRADE
VIC1,"1999/05/07 20:30",5248.61333,24.46,TRADE
VIC1,"1999/05/07 21:00",5147.23167,19.36,TRADE
VIC1,"1999/05/07 21:30",4998.46833,18.74,TRADE
VIC1,"1999/05/07 22:00",4854.58,18.38,TRADE
VIC1,"1999/05/07 22:30",4820.69167,21.76,TRADE
VIC1,"1999/05/07 23:00",4796.15333,18.73,TRADE
VIC1,"1999/05/07 23:30",5290.14333,34.4,TRADE
VIC1,"1999/05/08 00:00",5258.3,33.72,TRADE
VIC1,"1999/05/08 00:30",5073.915,29.28,TRADE
VIC1,"1999/05/08 01:00",4857.81833,27.37,TRADE
VIC1,"1999/05/08 01:30",5093.695,29.91,TRADE
VIC1,"1999/05/08 02:00",4923.57667,25.3,TRADE
VIC1,"1999/05/08 02:30",4736.04167,20.99,TRADE
VIC1,"1999/05/08 03:00",4491.91,16.05,TRADE
VIC1,"1999/05/08 03:30",4322.49167,13.38,TRADE
VIC1,"1999/05/08 04:00",4185.75,13.12,TRADE
VIC1,"1999/05/08 04:30",4083.97833,10.36,TRADE
VIC1,"1999/05/08 05:00",4017.04167,10.28,TRADE
VIC1,"1999/05/08 05:30",4018.37833,11,TRADE
VIC1,"1999/05/08 06:00",4056.9,11.61,TRADE
VIC1,"1999/05/08 06:30",4191.81667,14.51,TRADE
VIC1,"1999/05/08 07:00",4273.36667,14.84,TRADE
VIC1,"1999/05/08 07:30",4319.26667,16.53,TRADE
VIC1,"1999/05/08 08:00",4455.63833,20.46,TRADE
VIC1,"1999/05/08 08:30",4608.115,26.48,TRADE
VIC1,"1999/05/08 09:00",4705.03,26.95,TRADE
VIC1,"1999/05/08 09:30",4783.77167,30,TRADE
VIC1,"1999/05/08 10:00",4773.93833,31.13,TRADE
VIC1,"1999/05/08 10:30",4773.38167,28.23,TRADE
VIC1,"1999/05/08 11:00",4767.01833,27.17,TRADE
VIC1,"1999/05/08 11:30",4741.72333,26.98,TRADE
VIC1,"1999/05/08 12:00",4747.53,27.26,TRADE
VIC1,"1999/05/08 12:30",4712.215,27.73,TRADE
VIC1,"1999/05/08 13:00",4692.82,28.48,TRADE
VIC1,"1999/05/08 13:30",4699.57167,27.93,TRADE
VIC1,"1999/05/08 14:00",4608.8,25.85,TRADE
VIC1,"1999/05/08 14:30",4604.32,25.86,TRADE
VIC1,"1999/05/08 15:00",4553.73333,25.27,TRADE
VIC1,"1999/05/08 15:30",4514.06,21.02,TRADE
VIC1,"1999/05/08 16:00",4516.7,25.4,TRADE
VIC1,"1999/05/08 16:30",4530.59,24.39,TRADE
VIC1,"1999/05/08 17:00",4605.855,25.68,TRADE
VIC1,"1999/05/08 17:30",4823.92667,26.39,TRADE
VIC1,"1999/05/08 18:00",5186.755,39.4,TRADE
VIC1,"1999/05/08 18:30",5292.315,46.35,TRADE
VIC1,"1999/05/08 19:00",5219.735,39.81,TRADE
VIC1,"1999/05/08 19:30",5045.22667,32.31,TRADE
VIC1,"1999/05/08 20:00",5015.82333,32.75,TRADE
VIC1,"1999/05/08 20:30",4891.05333,29.76,TRADE
VIC1,"1999/05/08 21:00",4830.93167,29.46,TRADE
VIC1,"1999/05/08 21:30",4736.64833,26.97,TRADE
VIC1,"1999/05/08 22:00",4674.97167,25.88,TRADE
VIC1,"1999/05/08 22:30",4656.755,26.34,TRADE
VIC1,"1999/05/08 23:00",4650.23,26.86,TRADE
VIC1,"1999/05/08 23:30",4976.42333,28.33,TRADE
VIC1,"1999/05/09 00:00",5012.56167,29.54,TRADE
VIC1,"1999/05/09 00:30",4952.95,28.27,TRADE
VIC1,"1999/05/09 01:00",4853.51833,25.61,TRADE
VIC1,"1999/05/09 01:30",5066.545,27.89,TRADE
VIC1,"1999/05/09 02:00",4935.10667,23.21,TRADE
VIC1,"1999/05/09 02:30",4707.17667,17.53,TRADE
VIC1,"1999/05/09 03:00",4535.51667,15,TRADE
VIC1,"1999/05/09 03:30",4343.97,13.93,TRADE
VIC1,"1999/05/09 04:00",4209.75667,13.01,TRADE
VIC1,"1999/05/09 04:30",4059.59167,11.19,TRADE
VIC1,"1999/05/09 05:00",4007.90333,11.86,TRADE
VIC1,"1999/05/09 05:30",3967.26333,11.13,TRADE
VIC1,"1999/05/09 06:00",3952.78667,11.78,TRADE
VIC1,"1999/05/09 06:30",3965.00167,12.24,TRADE
VIC1,"1999/05/09 07:00",4005.07667,12.24,TRADE
VIC1,"1999/05/09 07:30",3921.16,11.87,TRADE
VIC1,"1999/05/09 08:00",4035.76167,15.68,TRADE
VIC1,"1999/05/09 08:30",4179.65167,22.46,TRADE
VIC1,"1999/05/09 09:00",4319.08833,25.09,TRADE
VIC1,"1999/05/09 09:30",4400.31333,26.57,TRADE
VIC1,"1999/05/09 10:00",4474.32167,28.21,TRADE
VIC1,"1999/05/09 10:30",4502.16167,26.74,TRADE
VIC1,"1999/05/09 11:00",4522.47667,25.85,TRADE
VIC1,"1999/05/09 11:30",4509.57833,24.31,TRADE
VIC1,"1999/05/09 12:00",4502.40667,22.83,TRADE
VIC1,"1999/05/09 12:30",4473.845,20.82,TRADE
VIC1,"1999/05/09 13:00",4431.125,15.97,TRADE
VIC1,"1999/05/09 13:30",4453.88167,15.9,TRADE
VIC1,"1999/05/09 14:00",4416.45167,15.08,TRADE
VIC1,"1999/05/09 14:30",4360.92333,15.14,TRADE
VIC1,"1999/05/09 15:00",4339.10167,14.77,TRADE
VIC1,"1999/05/09 15:30",4328.76333,14.8,TRADE
VIC1,"1999/05/09 16:00",4330.64333,15,TRADE
VIC1,"1999/05/09 16:30",4387.45667,15.42,TRADE
VIC1,"1999/05/09 17:00",4483.67667,16.5,TRADE
VIC1,"1999/05/09 17:30",4673.205,22.47,TRADE
VIC1,"1999/05/09 18:00",5011.97,33.36,TRADE
VIC1,"1999/05/09 18:30",5138.23667,38.26,TRADE
VIC1,"1999/05/09 19:00",5088.16333,37.5,TRADE
VIC1,"1999/05/09 19:30",5038.18,36.21,TRADE
VIC1,"1999/05/09 20:00",4978.73,35.58,TRADE
VIC1,"1999/05/09 20:30",4929.49,32.07,TRADE
VIC1,"1999/05/09 21:00",4872.27,30.48,TRADE
VIC1,"1999/05/09 21:30",4768.86833,28.6,TRADE
VIC1,"1999/05/09 22:00",4653.41833,24.74,TRADE
VIC1,"1999/05/09 22:30",4642.73833,26.04,TRADE
VIC1,"1999/05/09 23:00",4583.505,25,TRADE
VIC1,"1999/05/09 23:30",4963.25,30.22,TRADE
VIC1,"1999/05/10 00:00",4940.42667,25.58,TRADE
VIC1,"1999/05/10 00:30",4868.65,24.79,TRADE
VIC1,"1999/05/10 02:00",4857.034,22.09,TRADE
VIC1,"1999/05/10 02:30",4725.735,20.16,TRADE
VIC1,"1999/05/10 03:00",4535.605,14.97,TRADE
VIC1,"1999/05/10 03:30",4382.87833,15.08,TRADE
VIC1,"1999/05/10 04:00",4300.71167,14.12,TRADE
VIC1,"1999/05/10 04:30",4239.64167,15.45,TRADE
VIC1,"1999/05/10 05:00",4211.28667,15.74,TRADE
VIC1,"1999/05/10 05:30",4256.34167,16,TRADE
VIC1,"1999/05/10 06:00",4428.455,18.19,TRADE
VIC1,"1999/05/10 06:30",4722.03833,23.91,TRADE
VIC1,"1999/05/10 07:00",5099.24167,37.95,TRADE
VIC1,"1999/05/10 07:30",5290.4,39.18,TRADE
VIC1,"1999/05/10 08:00",5587.32333,59.63,TRADE
VIC1,"1999/05/10 08:30",5737.67667,63.25,TRADE
VIC1,"1999/05/10 09:00",5715.70333,61.52,TRADE
VIC1,"1999/05/10 09:30",5734.18167,61.65,TRADE
VIC1,"1999/05/10 10:00",5680.43667,61.49,TRADE
VIC1,"1999/05/10 10:30",5641.41,60.27,TRADE
VIC1,"1999/05/10 11:00",5586.57,57.22,TRADE
VIC1,"1999/05/10 11:30",5480.81333,43.41,TRADE
VIC1,"1999/05/10 12:00",5539.53333,51.58,TRADE
VIC1,"1999/05/10 12:30",5482.61667,39.29,TRADE
VIC1,"1999/05/10 13:00",5411.60333,35.9,TRADE
VIC1,"1999/05/10 13:30",5497.97667,39.6,TRADE
VIC1,"1999/05/10 14:00",5451.51167,36.64,TRADE
VIC1,"1999/05/10 14:30",5485.09667,36.81,TRADE
VIC1,"1999/05/10 15:00",5429.74667,31.05,TRADE
VIC1,"1999/05/10 15:30",5398.49167,28.85,TRADE
VIC1,"1999/05/10 16:00",5348.63667,29.77,TRADE
VIC1,"1999/05/10 16:30",5376.16333,30.26,TRADE
VIC1,"1999/05/10 17:00",5417.32833,30.15,TRADE
VIC1,"1999/05/10 17:30",5580.15333,40.89,TRADE
VIC1,"1999/05/10 18:00",5972.255,64.13,TRADE
VIC1,"1999/05/10 18:30",6025.44833,67.69,TRADE
VIC1,"1999/05/10 19:00",5881.94833,53.58,TRADE
VIC1,"1999/05/10 19:30",5684.485,48.12,TRADE
VIC1,"1999/05/10 20:00",5591.53167,43.23,TRADE
VIC1,"1999/05/10 20:30",5440.48333,46,TRADE
VIC1,"1999/05/10 21:00",5376.34333,43.68,TRADE
VIC1,"1999/05/10 21:30",5229.75167,35.47,TRADE
VIC1,"1999/05/10 22:00",5117.13667,30.64,TRADE
VIC1,"1999/05/10 22:30",4998.23833,35.02,TRADE
VIC1,"1999/05/10 23:00",4887.65,35.13,TRADE
VIC1,"1999/05/10 23:30",5290.49833,43.15,TRADE
VIC1,"1999/05/11 00:00",5249.16167,41.09,TRADE
VIC1,"1999/05/11 00:30",5119.95833,36.02,TRADE
VIC1,"1999/05/11 01:00",5019.81833,35.56,TRADE
VIC1,"1999/05/11 01:30",5254.19333,36.76,TRADE
VIC1,"1999/05/11 02:00",5187.66667,34.18,TRADE
VIC1,"1999/05/11 02:30",4995.74833,28.3,TRADE
VIC1,"1999/05/11 03:00",4825.105,25.92,TRADE
VIC1,"1999/05/11 03:30",4650.595,23.25,TRADE
VIC1,"1999/05/11 04:00",4543.18167,18.69,TRADE
VIC1,"1999/05/11 04:30",4426.755,16.1,TRADE
VIC1,"1999/05/11 05:00",4397.45333,16.14,TRADE
VIC1,"1999/05/11 05:30",4468.765,19.56,TRADE
VIC1,"1999/05/11 06:00",4597.99833,23.33,TRADE
VIC1,"1999/05/11 06:30",4908.44833,28.16,TRADE
VIC1,"1999/05/11 07:00",5303.93833,43.36,TRADE
VIC1,"1999/05/11 07:30",5439.62167,41.51,TRADE
VIC1,"1999/05/11 08:00",5722.31667,60.7,TRADE
VIC1,"1999/05/11 08:30",5815.46167,63.79,TRADE
VIC1,"1999/05/11 09:00",5782.65333,59.36,TRADE
VIC1,"1999/05/11 09:30",5762.81667,59.86,TRADE
VIC1,"1999/05/11 10:00",5726.88167,58.72,TRADE
VIC1,"1999/05/11 10:30",5678.97,51.27,TRADE
VIC1,"1999/05/11 11:00",5638.72167,43.79,TRADE
VIC1,"1999/05/11 11:30",5592.91833,37.49,TRADE
VIC1,"1999/05/11 12:00",5626.11833,51.23,TRADE
VIC1,"1999/05/11 12:30",5546.44,40.43,TRADE
VIC1,"1999/05/11 13:00",5521.25,37.44,TRADE
VIC1,"1999/05/11 13:30",5619.41833,49.48,TRADE
VIC1,"1999/05/11 14:00",5567.61333,46.57,TRADE
VIC1,"1999/05/11 14:30",5582.77833,47.58,TRADE
VIC1,"1999/05/11 15:00",5501.46167,42.36,TRADE
VIC1,"1999/05/11 15:30",5460.14667,34.88,TRADE
VIC1,"1999/05/11 16:00",5452.505,35.95,TRADE
VIC1,"1999/05/11 16:30",5465.12667,33.6,TRADE
VIC1,"1999/05/11 17:00",5562.855,38.43,TRADE
VIC1,"1999/05/11 17:30",5822.83667,54.5,TRADE
VIC1,"1999/05/11 18:00",6081.66333,73.85,TRADE
VIC1,"1999/05/11 18:30",6055.63333,69.66,TRADE
VIC1,"1999/05/11 19:00",5848.80667,58.1,TRADE
VIC1,"1999/05/11 19:30",5657.84,40.94,TRADE
VIC1,"1999/05/11 20:00",5545.69333,46.11,TRADE
VIC1,"1999/05/11 20:30",5466.395,44.24,TRADE
VIC1,"1999/05/11 21:00",5339.075,38.26,TRADE
VIC1,"1999/05/11 21:30",5210.63667,33.12,TRADE
VIC1,"1999/05/11 22:00",5094.09167,28.39,TRADE
VIC1,"1999/05/11 22:30",5015.00833,34.31,TRADE
VIC1,"1999/05/11 23:00",4949.70333,32.61,TRADE
VIC1,"1999/05/11 23:30",5305.65667,35.99,TRADE
VIC1,"1999/05/12 00:00",5244.25667,32.99,TRADE
VIC1,"1999/05/12 00:30",5129.955,29.92,TRADE
VIC1,"1999/05/12 01:00",4983.43167,26.37,TRADE
VIC1,"1999/05/12 01:30",5181.255,28.23,TRADE
VIC1,"1999/05/12 02:00",5073.90667,21.83,TRADE
VIC1,"1999/05/12 02:30",4911.35667,16.17,TRADE
VIC1,"1999/05/12 03:00",4734.525,16.05,TRADE
VIC1,"1999/05/12 03:30",4554.26333,14.86,TRADE
VIC1,"1999/05/12 04:00",4416.855,14.06,TRADE
VIC1,"1999/05/12 04:30",4305.98,13.44,TRADE
VIC1,"1999/05/12 05:00",4285.48667,13.7,TRADE
VIC1,"1999/05/12 05:30",4372.20333,14.37,TRADE
VIC1,"1999/05/12 06:00",4483.44333,14.88,TRADE
VIC1,"1999/05/12 06:30",4855.255,17.63,TRADE
VIC1,"1999/05/12 07:00",5199.94833,24.34,TRADE
VIC1,"1999/05/12 07:30",5380.22667,21.81,TRADE
VIC1,"1999/05/12 08:00",5699.04833,34.08,TRADE
VIC1,"1999/05/12 08:30",5788.57333,35.4,TRADE
VIC1,"1999/05/12 09:00",5779.02333,28.8,TRADE
VIC1,"1999/05/12 09:30",5770.275,31.32,TRADE
VIC1,"1999/05/12 10:00",5711.51667,30.29,TRADE
VIC1,"1999/05/12 10:30",5673.54833,28.37,TRADE
VIC1,"1999/05/12 11:00",5665.36833,28.43,TRADE
VIC1,"1999/05/12 11:30",5634.54167,25.91,TRADE
VIC1,"1999/05/12 12:00",5605.455,28.22,TRADE
VIC1,"1999/05/12 12:30",5607.46,26.32,TRADE
VIC1,"1999/05/12 13:00",5592.44833,23.13,TRADE
VIC1,"1999/05/12 13:30",5653.40333,27.78,TRADE
VIC1,"1999/05/12 14:00",5667.19667,27.26,TRADE
VIC1,"1999/05/12 14:30",5653.74667,25.44,TRADE
VIC1,"1999/05/12 15:00",5618.785,20.31,TRADE
VIC1,"1999/05/12 15:30",5590.45333,18.05,TRADE
VIC1,"1999/05/12 16:00",5574.425,23.68,TRADE
VIC1,"1999/05/12 16:30",5582.205,24.93,TRADE
VIC1,"1999/05/12 17:00",5614.67167,25.61,TRADE
VIC1,"1999/05/12 17:30",5764.89,33.74,TRADE
VIC1,"1999/05/12 18:00",6114.72,52.82,TRADE
VIC1,"1999/05/12 18:30",6067.71,48.8,TRADE
VIC1,"1999/05/12 19:00",5844.14333,32.83,TRADE
VIC1,"1999/05/12 19:30",5652.82,25.69,TRADE
VIC1,"1999/05/12 20:00",5539.60833,20.81,TRADE
VIC1,"1999/05/12 20:30",5441.45333,20.68,TRADE
VIC1,"1999/05/12 21:00",5363.02,16.84,TRADE
VIC1,"1999/05/12 21:30",5237.76333,16.16,TRADE
VIC1,"1999/05/12 22:00",5126.18167,17.72,TRADE
VIC1,"1999/05/12 22:30",5055.11333,27.83,TRADE
VIC1,"1999/05/12 23:00",4937.20833,20.72,TRADE
VIC1,"1999/05/12 23:30",5333.44167,26.68,TRADE
VIC1,"1999/05/13 00:00",5278.81833,23.41,TRADE
VIC1,"1999/05/13 00:30",5157.74333,25.35,TRADE
VIC1,"1999/05/13 01:00",4996.65667,18.2,TRADE
VIC1,"1999/05/13 01:30",5253.53,24.2,TRADE
VIC1,"1999/05/13 02:00",5097.56167,20.21,TRADE
VIC1,"1999/05/13 02:30",4907.31167,15.86,TRADE
VIC1,"1999/05/13 03:00",4690.52833,15.04,TRADE
VIC1,"1999/05/13 03:30",4528.675,14.66,TRADE
VIC1,"1999/05/13 04:00",4410.65833,14.09,TRADE
VIC1,"1999/05/13 04:30",4303.43667,13.73,TRADE
VIC1,"1999/05/13 05:00",4261.475,13.52,TRADE
VIC1,"1999/05/13 05:30",4340.89833,14.73,TRADE
VIC1,"1999/05/13 06:00",4474.98167,14.67,TRADE
VIC1,"1999/05/13 06:30",4815.305,16.2,TRADE
VIC1,"1999/05/13 07:00",5170.80833,22.35,TRADE
VIC1,"1999/05/13 07:30",5349.17167,21.45,TRADE
VIC1,"1999/05/13 08:00",5670.78333,31.86,TRADE
VIC1,"1999/05/13 08:30",5804.495,41.62,TRADE
VIC1,"1999/05/13 09:00",5789.43,31.35,TRADE
VIC1,"1999/05/13 09:30",5807.25167,39.64,TRADE
VIC1,"1999/05/13 10:00",5795.88,42.26,TRADE
VIC1,"1999/05/13 10:30",5796.89833,29.84,TRADE
VIC1,"1999/05/13 11:00",5813.47167,30.63,TRADE
VIC1,"1999/05/13 11:30",5818.20833,29.32,TRADE
VIC1,"1999/05/13 12:00",5773.00833,29.06,TRADE
VIC1,"1999/05/13 12:30",5731.85833,28.51,TRADE
VIC1,"1999/05/13 13:00",5774.73667,29.4,TRADE
VIC1,"1999/05/13 13:30",5810.93,30.73,TRADE
VIC1,"1999/05/13 15:30",5723.025,22.02,TRADE
VIC1,"1999/05/13 16:00",5643.89,27.81,TRADE
VIC1,"1999/05/13 16:30",5648.97667,22.15,TRADE
VIC1,"1999/05/13 17:00",5697.405,25.06,TRADE
VIC1,"1999/05/13 17:30",5921.67667,38.47,TRADE
VIC1,"1999/05/13 18:00",6303.61167,59.41,TRADE
VIC1,"1999/05/13 18:30",6265.96667,61.61,TRADE
VIC1,"1999/05/13 19:00",6112.52167,53.73,TRADE
VIC1,"1999/05/13 19:30",5931.12167,41.02,TRADE
VIC1,"1999/05/13 20:00",5811.19833,30.75,TRADE
VIC1,"1999/05/13 20:30",5683.22167,31.79,TRADE
VIC1,"1999/05/13 21:00",5576.81667,29.77,TRADE
VIC1,"1999/05/13 21:30",5426.05167,23.31,TRADE
VIC1,"1999/05/13 22:00",5289.55167,22.16,TRADE
VIC1,"1999/05/13 22:30",5228.94,29.63,TRADE
VIC1,"1999/05/13 23:00",5092.29833,27.25,TRADE
VIC1,"1999/05/13 23:30",5501.89,31.92,TRADE
VIC1,"1999/05/14 00:00",5443.91167,28.78,TRADE
VIC1,"1999/05/14 00:30",5336.67,28.4,TRADE
VIC1,"1999/05/14 01:00",5172.33833,26.63,TRADE
VIC1,"1999/05/14 01:30",5424.845,28.84,TRADE
VIC1,"1999/05/14 02:00",5286.02333,24.53,TRADE
VIC1,"1999/05/14 02:30",5102.44333,20.01,TRADE
VIC1,"1999/05/14 03:00",4853.17833,16.21,TRADE
VIC1,"1999/05/14 03:30",4687.05833,15.27,TRADE
VIC1,"1999/05/14 04:00",4538.23167,14.2,TRADE
VIC1,"1999/05/14 04:30",4411.755,12.96,TRADE
VIC1,"1999/05/14 05:00",4346.95667,12.96,TRADE
VIC1,"1999/05/14 05:30",4426.29833,14.89,TRADE
VIC1,"1999/05/14 06:00",4557.2,15.44,TRADE
VIC1,"1999/05/14 06:30",4944.46333,19.33,TRADE
VIC1,"1999/05/14 07:00",5332.505,27.37,TRADE
VIC1,"1999/05/14 07:30",5452.39,22.74,TRADE
VIC1,"1999/05/14 08:00",5731.46,40.16,TRADE
VIC1,"1999/05/14 08:30",5898.385,52.1,TRADE
VIC1,"1999/05/14 09:00",5793.72,39.16,TRADE
VIC1,"1999/05/14 09:30",5868.425,44.09,TRADE
VIC1,"1999/05/14 10:00",5806.065,44.58,TRADE
VIC1,"1999/05/14 10:30",5789.99667,34.27,TRADE
VIC1,"1999/05/14 11:00",5776.325,33.54,TRADE
VIC1,"1999/05/14 11:30",5741.14,29.38,TRADE
VIC1,"1999/05/14 12:00",5721.775,29.22,TRADE
VIC1,"1999/05/14 12:30",5666.08333,30.07,TRADE
VIC1,"1999/05/14 13:00",5611.62,28.98,TRADE
VIC1,"1999/05/14 13:30",5699.50667,32.97,TRADE
VIC1,"1999/05/14 14:00",5673.36333,29.85,TRADE
VIC1,"1999/05/14 14:30",5638.04667,28.56,TRADE
VIC1,"1999/05/14 15:00",5533.48833,25.86,TRADE
VIC1,"1999/05/14 15:30",5443.89333,16.41,TRADE
VIC1,"1999/05/14 16:00",5395.985,18.42,TRADE
VIC1,"1999/05/14 16:30",5427.76,16.82,TRADE
VIC1,"1999/05/14 17:00",5491.05833,17.96,TRADE
VIC1,"1999/05/14 17:30",5675.21167,28.42,TRADE
VIC1,"1999/05/14 18:00",6047.66167,50.8,TRADE
VIC1,"1999/05/14 18:30",6038.265,53.06,TRADE
VIC1,"1999/05/14 19:00",5884.34667,41.32,TRADE
VIC1,"1999/05/14 19:30",5698.39833,30.11,TRADE
VIC1,"1999/05/14 20:00",5569.86333,27.79,TRADE
VIC1,"1999/05/14 20:30",5442.435,25.42,TRADE
VIC1,"1999/05/14 21:00",5359.8,22.78,TRADE
VIC1,"1999/05/14 21:30",5172.02667,17.91,TRADE
VIC1,"1999/05/14 22:00",5069.88833,18,TRADE
VIC1,"1999/05/14 22:30",5024.12167,26.66,TRADE
VIC1,"1999/05/14 23:00",5004.19333,27.51,TRADE
VIC1,"1999/05/14 23:30",5457.88333,33.47,TRADE
VIC1,"1999/05/15 00:00",5398.30833,29.8,TRADE
VIC1,"1999/05/15 00:30",5205.3,26.62,TRADE
VIC1,"1999/05/15 01:00",5055.93167,26.04,TRADE
VIC1,"1999/05/15 01:30",5248.30667,27.77,TRADE
VIC1,"1999/05/15 02:00",5129.035,24.03,TRADE
VIC1,"1999/05/15 02:30",4906.79,20.07,TRADE
VIC1,"1999/05/15 03:00",4687.77833,16.57,TRADE
VIC1,"1999/05/15 03:30",4495.19,14.97,TRADE
VIC1,"1999/05/15 04:00",4390.68,14.03,TRADE
VIC1,"1999/05/15 04:30",4268.195,12.25,TRADE
VIC1,"1999/05/15 05:00",4221.38167,12.06,TRADE
VIC1,"1999/05/15 05:30",4185.395,11.99,TRADE
VIC1,"1999/05/15 06:00",4219.41833,12.12,TRADE
VIC1,"1999/05/15 06:30",4346.13333,13.18,TRADE
VIC1,"1999/05/15 07:00",4471.34667,14.2,TRADE
VIC1,"1999/05/15 07:30",4487.345,17.5,TRADE
VIC1,"1999/05/15 08:00",4645.19,20.58,TRADE
VIC1,"1999/05/15 08:30",4821.07,24.07,TRADE
VIC1,"1999/05/15 09:00",4987.19333,25.37,TRADE
VIC1,"1999/05/15 09:30",5156.18333,30.13,TRADE
VIC1,"1999/05/15 10:00",5269.28833,31.26,TRADE
VIC1,"1999/05/15 10:30",5257.9,32.69,TRADE
VIC1,"1999/05/15 11:00",5254.10833,27.03,TRADE
VIC1,"1999/05/15 11:30",5264.93833,27.25,TRADE
VIC1,"1999/05/15 12:00",5296.46,27.27,TRADE
VIC1,"1999/05/15 12:30",5312.75667,27.33,TRADE
VIC1,"1999/05/15 13:00",5286.01,27.35,TRADE
VIC1,"1999/05/15 13:30",5306.96167,27.39,TRADE
VIC1,"1999/05/15 14:00",5284.245,27.6,TRADE
VIC1,"1999/05/15 14:30",5274.69,27.79,TRADE
VIC1,"1999/05/15 15:00",5215.69167,27.07,TRADE
VIC1,"1999/05/15 15:30",5203.17,27,TRADE
VIC1,"1999/05/15 16:00",5188.30833,26.98,TRADE
VIC1,"1999/05/15 16:30",5190.68333,26.19,TRADE
VIC1,"1999/05/15 17:00",5213.39167,26.8,TRADE
VIC1,"1999/05/15 17:30",5429.54,29.94,TRADE
VIC1,"1999/05/15 18:00",5776.17667,38.99,TRADE
VIC1,"1999/05/15 18:30",5816.49333,41.91,TRADE
VIC1,"1999/05/15 19:00",5711.03667,40.34,TRADE
VIC1,"1999/05/15 19:30",5558.68667,36.16,TRADE
VIC1,"1999/05/15 20:00",5417.08333,29.46,TRADE
VIC1,"1999/05/15 20:30",5319.30167,28.76,TRADE
VIC1,"1999/05/15 21:00",5239.87,28.97,TRADE
VIC1,"1999/05/15 21:30",5158.3,27.12,TRADE
VIC1,"1999/05/15 22:00",5056.92333,26.5,TRADE
VIC1,"1999/05/15 22:30",4991.49667,25.71,TRADE
VIC1,"1999/05/15 23:00",4952.28167,24.54,TRADE
VIC1,"1999/05/15 23:30",5304.43167,26.47,TRADE
VIC1,"1999/05/16 00:00",5345.80333,26.79,TRADE
VIC1,"1999/05/16 00:30",5334.59833,27.21,TRADE
VIC1,"1999/05/16 01:00",5150.01333,25.22,TRADE
VIC1,"1999/05/16 01:30",5398.93667,27.59,TRADE
VIC1,"1999/05/16 02:00",5296.935,24.71,TRADE
VIC1,"1999/05/16 02:30",5063.10833,20.43,TRADE
VIC1,"1999/05/16 03:00",4851.87,18,TRADE
VIC1,"1999/05/16 03:30",4672.55167,14.66,TRADE
VIC1,"1999/05/16 04:00",4519.23,13.55,TRADE
VIC1,"1999/05/16 04:30",4388.80167,13.63,TRADE
VIC1,"1999/05/16 05:00",4316.88167,12.43,TRADE
VIC1,"1999/05/16 05:30",4276.25833,12.85,TRADE
VIC1,"1999/05/16 06:00",4264.92333,13.56,TRADE
VIC1,"1999/05/16 06:30",4252.12333,14.45,TRADE
VIC1,"1999/05/16 07:00",4351.15833,15.48,TRADE
VIC1,"1999/05/16 07:30",4200.72667,13.55,TRADE
VIC1,"1999/05/16 08:00",4325.06,14.59,TRADE
VIC1,"1999/05/16 08:30",4467.74667,16.68,TRADE
VIC1,"1999/05/16 09:00",4642.975,19.8,TRADE
VIC1,"1999/05/16 09:30",4729.26333,20.94,TRADE
VIC1,"1999/05/16 10:00",4816.63167,21.49,TRADE
VIC1,"1999/05/16 10:30",4840.195,18.66,TRADE
VIC1,"1999/05/16 11:00",4830.19,16.33,TRADE
VIC1,"1999/05/16 11:30",4765.05833,13.83,TRADE
VIC1,"1999/05/16 12:00",4756.00667,14.24,TRADE
VIC1,"1999/05/16 12:30",4731.06667,14.56,TRADE
VIC1,"1999/05/16 13:00",4656.30833,14.39,TRADE
VIC1,"1999/05/16 13:30",4754.925,14.84,TRADE
VIC1,"1999/05/16 14:00",4795.06833,15.05,TRADE
VIC1,"1999/05/16 14:30",4770.59,14.94,TRADE
VIC1,"1999/05/16 15:00",4723.8,14.78,TRADE
VIC1,"1999/05/16 15:30",4730.055,14.72,TRADE
VIC1,"1999/05/16 16:00",4710.45167,14.03,TRADE
VIC1,"1999/05/16 16:30",4746.05833,14.67,TRADE
VIC1,"1999/05/16 17:00",4872.63667,18.65,TRADE
VIC1,"1999/05/16 17:30",5163.59833,27.91,TRADE
VIC1,"1999/05/16 18:00",5527.30833,40.43,TRADE
VIC1,"1999/05/16 18:30",5671.60333,48.81,TRADE
VIC1,"1999/05/16 19:00",5588.845,42.27,TRADE
VIC1,"1999/05/16 19:30",5483.045,38.64,TRADE
VIC1,"1999/05/16 20:00",5355.81833,34.46,TRADE
VIC1,"1999/05/16 20:30",5289.85333,34.36,TRADE
VIC1,"1999/05/16 21:00",5193.30167,31.87,TRADE
VIC1,"1999/05/16 21:30",5103.12667,30.82,TRADE
VIC1,"1999/05/16 22:00",4950.36667,27.09,TRADE
VIC1,"1999/05/16 22:30",4900.065,26.52,TRADE
VIC1,"1999/05/16 23:00",4860.08833,26.22,TRADE
VIC1,"1999/05/16 23:30",5172.76,27.29,TRADE
VIC1,"1999/05/17 00:00",5152.68167,26.27,TRADE
VIC1,"1999/05/17 00:30",5098.95833,24.76,TRADE
VIC1,"1999/05/17 01:00",5017.8,22.85,TRADE
VIC1,"1999/05/17 01:30",5232.94,25.76,TRADE
VIC1,"1999/05/17 02:00",5210.76333,24.09,TRADE
VIC1,"1999/05/17 02:30",5058.75833,22.05,TRADE
VIC1,"1999/05/17 03:00",4901.17667,19.25,TRADE
VIC1,"1999/05/17 03:30",4713.33667,15.81,TRADE
VIC1,"1999/05/17 04:00",4598.72667,13.24,TRADE
VIC1,"1999/05/17 04:30",4493.97333,13.62,TRADE
VIC1,"1999/05/17 05:00",4459.65833,14.02,TRADE
VIC1,"1999/05/17 05:30",4546.75333,17.41,TRADE
VIC1,"1999/05/17 06:00",4683.41,19.5,TRADE
VIC1,"1999/05/17 06:30",5026.585,23.6,TRADE
VIC1,"1999/05/17 07:00",5437.975,31.17,TRADE
VIC1,"1999/05/17 07:30",5642.91667,29.55,TRADE
VIC1,"1999/05/17 08:00",5964.25167,43.5,TRADE
VIC1,"1999/05/17 08:30",6155.00167,51.8,TRADE
VIC1,"1999/05/17 09:00",6096.73167,48.06,TRADE
VIC1,"1999/05/17 09:30",6171.725,55.24,TRADE
VIC1,"1999/05/17 10:00",6116.48,53.28,TRADE
VIC1,"1999/05/17 10:30",6037.49,48.93,TRADE
VIC1,"1999/05/17 11:00",6015.27667,40.79,TRADE
VIC1,"1999/05/17 11:30",5919.94,33.27,TRADE
VIC1,"1999/05/17 12:00",5919.265,31.81,TRADE
VIC1,"1999/05/17 12:30",5836.42,29.58,TRADE
VIC1,"1999/05/17 13:00",5773.29833,28.17,TRADE
VIC1,"1999/05/17 13:30",5856.19333,25.39,TRADE
VIC1,"1999/05/17 14:00",5875.87833,24.73,TRADE
VIC1,"1999/05/17 14:30",5852.34,22.86,TRADE
VIC1,"1999/05/17 15:00",5816.45,25.25,TRADE
VIC1,"1999/05/17 15:30",5757.45667,24.76,TRADE
VIC1,"1999/05/17 16:00",5775.05667,24.94,TRADE
VIC1,"1999/05/17 16:30",5781.82833,23.96,TRADE
VIC1,"1999/05/17 17:00",5880.36333,24.61,TRADE
VIC1,"1999/05/17 17:30",6132.68167,44.3,TRADE
VIC1,"1999/05/17 18:00",6444.585,63.4,TRADE
VIC1,"1999/05/17 18:30",6481.54333,63.44,TRADE
VIC1,"1999/05/17 19:00",6299.05833,60.8,TRADE
VIC1,"1999/05/17 19:30",6166.89833,51.22,TRADE
VIC1,"1999/05/17 20:00",5965.52833,45.3,TRADE
VIC1,"1999/05/17 20:30",5844.13833,37.37,TRADE
VIC1,"1999/05/17 21:00",5774.205,43.83,TRADE
VIC1,"1999/05/17 21:30",5553.21667,32.64,TRADE
VIC1,"1999/05/17 22:00",5406.025,27.98,TRADE
VIC1,"1999/05/17 22:30",5291.55667,32.54,TRADE
VIC1,"1999/05/17 23:00",5159.395,28.74,TRADE
VIC1,"1999/05/17 23:30",5590.905,35.29,TRADE
VIC1,"1999/05/18 00:00",5545.73833,34.4,TRADE
VIC1,"1999/05/18 00:30",5407.75667,33.34,TRADE
VIC1,"1999/05/18 01:00",5292.71667,29,TRADE
VIC1,"1999/05/18 01:30",5553.93667,35.36,TRADE
VIC1,"1999/05/18 02:00",5474.135,34.95,TRADE
VIC1,"1999/05/18 02:30",5264.25,28.43,TRADE
VIC1,"1999/05/18 03:00",5046.35667,24.08,TRADE
VIC1,"1999/05/18 03:30",4876.37833,21.2,TRADE
VIC1,"1999/05/18 04:00",4737.015,17.04,TRADE
VIC1,"1999/05/18 04:30",4597.99,15.81,TRADE
VIC1,"1999/05/18 05:00",4574.45333,15.88,TRADE
VIC1,"1999/05/18 05:30",4621.04833,19.07,TRADE
VIC1,"1999/05/18 06:00",4748.51833,20.49,TRADE
VIC1,"1999/05/18 06:30",5103.03333,24.38,TRADE
VIC1,"1999/05/18 07:00",5485.30667,42.61,TRADE
VIC1,"1999/05/18 07:30",5644.25833,31.4,TRADE
VIC1,"1999/05/18 08:00",5949.86167,54.51,TRADE
VIC1,"1999/05/18 08:30",6089.60167,55.86,TRADE
VIC1,"1999/05/18 09:00",6103.41667,48.77,TRADE
VIC1,"1999/05/18 09:30",6186.43667,56.26,TRADE
VIC1,"1999/05/18 10:00",6134.30333,56.44,TRADE
VIC1,"1999/05/18 10:30",6047.445,44.31,TRADE
VIC1,"1999/05/18 11:00",5992.275,38.64,TRADE
VIC1,"1999/05/18 11:30",5899.66,36.68,TRADE
VIC1,"1999/05/18 12:00",5910.76333,44.98,TRADE
VIC1,"1999/05/18 12:30",5865.40167,41.43,TRADE
VIC1,"1999/05/18 13:00",5812.22833,35.72,TRADE
VIC1,"1999/05/18 13:30",5917.85667,38.39,TRADE
VIC1,"1999/05/18 14:00",5889.92,37.39,TRADE
VIC1,"1999/05/18 14:30",5841.125,36.41,TRADE
VIC1,"1999/05/18 15:00",5793.59,30.19,TRADE
VIC1,"1999/05/18 15:30",5764.73167,29.42,TRADE
VIC1,"1999/05/18 16:00",5753.44333,30.63,TRADE
VIC1,"1999/05/18 16:30",5731.945,30.25,TRADE
VIC1,"1999/05/18 17:00",5919.21167,40.36,TRADE
VIC1,"1999/05/18 17:30",6110.98,50.94,TRADE
VIC1,"1999/05/18 18:00",6389.35833,64.04,TRADE
VIC1,"1999/05/18 18:30",6296.86667,63.12,TRADE
VIC1,"1999/05/18 19:00",6131.73,59.28,TRADE
VIC1,"1999/05/18 19:30",5965.495,49.5,TRADE
VIC1,"1999/05/18 20:00",5798.13167,47.44,TRADE
VIC1,"1999/05/18 20:30",5703.60333,40.51,TRADE
VIC1,"1999/05/18 21:00",5652.53833,42.92,TRADE
VIC1,"1999/05/18 21:30",5453.80167,33.98,TRADE
VIC1,"1999/05/18 22:00",5302.535,32.51,TRADE
VIC1,"1999/05/18 22:30",5192.03167,39.3,TRADE
VIC1,"1999/05/18 23:00",5039.295,33.85,TRADE
VIC1,"1999/05/18 23:30",5434.4,41.44,TRADE
VIC1,"1999/05/19 00:00",5360.03667,36.99,TRADE
VIC1,"1999/05/19 00:30",5252.69667,35.35,TRADE
VIC1,"1999/05/19 01:00",5065.76667,33.37,TRADE
VIC1,"1999/05/19 01:30",5321.83167,36.81,TRADE
VIC1,"1999/05/19 02:00",5179.50667,32.96,TRADE
VIC1,"1999/05/19 02:30",4992.375,27.53,TRADE
VIC1,"1999/05/19 03:00",4823.88667,26.87,TRADE
VIC1,"1999/05/19 03:30",4651.91,24.28,TRADE
VIC1,"1999/05/19 04:00",4525.78333,21.97,TRADE
VIC1,"1999/05/19 04:30",4420.6,21.49,TRADE
VIC1,"1999/05/19 05:00",4351.09667,21.52,TRADE
VIC1,"1999/05/19 05:30",4428.09,23.74,TRADE
VIC1,"1999/05/19 06:00",4525.12167,24.34,TRADE
VIC1,"1999/05/19 06:30",4893.05833,43.54,TRADE
VIC1,"1999/05/19 07:00",5220.805,56.61,TRADE
VIC1,"1999/05/19 07:30",5392.535,48.74,TRADE
VIC1,"1999/05/19 08:00",5645.08833,61.8,TRADE
VIC1,"1999/05/19 08:30",5781.88667,63.47,TRADE
VIC1,"1999/05/19 09:00",5717.575,61.73,TRADE
VIC1,"1999/05/19 09:30",5762.98333,63.48,TRADE
VIC1,"1999/05/19 10:00",5724.05,62.71,TRADE
VIC1,"1999/05/19 10:30",5714.38667,61.45,TRADE
VIC1,"1999/05/19 11:00",5712.455,57.98,TRADE
VIC1,"1999/05/19 11:30",5684.13,53.18,TRADE
VIC1,"1999/05/19 12:00",5681.49667,44.33,TRADE
VIC1,"1999/05/19 12:30",5647.52833,40.89,TRADE
VIC1,"1999/05/19 13:00",5596.76667,32.99,TRADE
VIC1,"1999/05/19 13:30",5644.69,36.04,TRADE
VIC1,"1999/05/19 14:00",5673.43,41.91,TRADE
VIC1,"1999/05/19 14:30",5668.06833,41.29,TRADE
VIC1,"1999/05/19 15:00",5578.285,40.32,TRADE
VIC1,"1999/05/19 15:30",5546.49,33.96,TRADE
VIC1,"1999/05/19 16:00",5491.845,33.18,TRADE
VIC1,"1999/05/19 16:30",5491.05,31.27,TRADE
VIC1,"1999/05/19 17:00",5512.605,31.86,TRADE
VIC1,"1999/05/19 17:30",5698.31667,52.63,TRADE
VIC1,"1999/05/19 18:00",6038.78333,63.18,TRADE
VIC1,"1999/05/19 18:30",5984.16167,61.12,TRADE
VIC1,"1999/05/19 19:00",5805.29167,51.97,TRADE
VIC1,"1999/05/19 19:30",5582.73833,43.98,TRADE
VIC1,"1999/05/19 20:00",5495.025,37.42,TRADE
VIC1,"1999/05/19 20:30",5403.32167,52.24,TRADE
VIC1,"1999/05/19 21:00",5283.67333,49.03,TRADE
VIC1,"1999/05/19 21:30",5161.45833,44.28,TRADE
VIC1,"1999/05/19 22:00",5012.06333,30.49,TRADE
VIC1,"1999/05/19 22:30",4952.07167,39.85,TRADE
VIC1,"1999/05/19 23:00",4864.68167,35.97,TRADE
VIC1,"1999/05/19 23:30",5259.26,46.75,TRADE
VIC1,"1999/05/20 00:00",5225.48667,44.93,TRADE
VIC1,"1999/05/20 00:30",5097.47333,47.1,TRADE
VIC1,"1999/05/20 01:00",4915.94,35.33,TRADE
VIC1,"1999/05/20 01:30",5203.49333,42.7,TRADE
VIC1,"1999/05/20 02:00",5058.80167,36.32,TRADE
VIC1,"1999/05/20 02:30",4857.615,28.45,TRADE
VIC1,"1999/05/20 03:00",4669.71333,27.51,TRADE
VIC1,"1999/05/20 03:30",4524.72333,27.27,TRADE
VIC1,"1999/05/20 04:00",4411.435,24.36,TRADE
VIC1,"1999/05/20 04:30",4312.24,19.32,TRADE
VIC1,"1999/05/20 05:00",4290.91167,18.52,TRADE
VIC1,"1999/05/20 05:30",4351.075,21.07,TRADE
VIC1,"1999/05/20 06:00",4483.81333,22.86,TRADE
VIC1,"1999/05/20 06:30",4788.92,29.11,TRADE
VIC1,"1999/05/20 07:00",5163.035,45.19,TRADE
VIC1,"1999/05/20 07:30",5304.2,41.56,TRADE
VIC1,"1999/05/20 08:00",5528.27833,58.19,TRADE
VIC1,"1999/05/20 08:30",5619.29333,55.61,TRADE
VIC1,"1999/05/20 09:00",5578.44167,43.01,TRADE
VIC1,"1999/05/20 09:30",5601.05167,56.51,TRADE
VIC1,"1999/05/20 10:00",5551.20333,54.23,TRADE
VIC1,"1999/05/20 10:30",5540.93333,47.43,TRADE
VIC1,"1999/05/20 11:00",5541.44,40.22,TRADE
VIC1,"1999/05/20 11:30",5494.275,37.01,TRADE
VIC1,"1999/05/20 12:00",5518.73667,43.31,TRADE
VIC1,"1999/05/20 12:30",5490.365,44.67,TRADE
VIC1,"1999/05/20 13:00",5475.94667,43.04,TRADE
VIC1,"1999/05/20 13:30",5620.85833,48.47,TRADE
VIC1,"1999/05/20 14:00",5608.61833,46.83,TRADE
VIC1,"1999/05/20 14:30",5545.37667,40.68,TRADE
VIC1,"1999/05/20 15:00",5576.09333,41.1,TRADE
VIC1,"1999/05/20 15:30",5497.13167,29.89,TRADE
VIC1,"1999/05/20 16:00",5507.51,35.18,TRADE
VIC1,"1999/05/20 16:30",5456.53833,34.32,TRADE
VIC1,"1999/05/20 17:00",5542.80833,36.26,TRADE
VIC1,"1999/05/20 17:30",5736.995,47.14,TRADE
VIC1,"1999/05/20 18:00",6056.47167,69.61,TRADE
VIC1,"1999/05/20 18:30",5959.39167,56.39,TRADE
VIC1,"1999/05/20 19:00",5794.815,46.19,TRADE
VIC1,"1999/05/20 19:30",5677.545,54.5,TRADE
VIC1,"1999/05/20 20:00",5537.27667,52.34,TRADE
VIC1,"1999/05/20 20:30",5422.15,48.14,TRADE
VIC1,"1999/05/20 21:00",5271.56,41.29,TRADE
VIC1,"1999/05/20 21:30",5153.575,31.26,TRADE
VIC1,"1999/05/20 22:00",5004.57333,24.4,TRADE
VIC1,"1999/05/20 22:30",4924.795,33.34,TRADE
VIC1,"1999/05/20 23:00",4856.98833,29.92,TRADE
VIC1,"1999/05/20 23:30",5284.445,41.05,TRADE
VIC1,"1999/05/21 00:00",5235.32333,34.56,TRADE
VIC1,"1999/05/21 00:30",5089.27667,32.62,TRADE
VIC1,"1999/05/21 01:00",4934.58,27,TRADE
VIC1,"1999/05/21 01:30",5174.94833,31.14,TRADE
VIC1,"1999/05/21 02:00",5068.55333,26.97,TRADE
VIC1,"1999/05/21 02:30",4849.99167,21.18,TRADE
VIC1,"1999/05/21 03:00",4649.23167,18.61,TRADE
VIC1,"1999/05/21 03:30",4469.095,15.68,TRADE
VIC1,"1999/05/21 04:00",4325.37333,13.96,TRADE
VIC1,"1999/05/21 04:30",4212.10833,13.94,TRADE
VIC1,"1999/05/21 05:00",4177.05167,14.02,TRADE
VIC1,"1999/05/21 05:30",4274.42333,17.31,TRADE
VIC1,"1999/05/21 06:00",4368.17167,15.65,TRADE
VIC1,"1999/05/21 06:30",4710.18167,21.32,TRADE
VIC1,"1999/05/21 07:00",5043.295,29.16,TRADE
VIC1,"1999/05/21 07:30",5157.25667,28.91,TRADE
VIC1,"1999/05/21 08:00",5537.05,48.77,TRADE
VIC1,"1999/05/21 08:30",5682.57167,48.51,TRADE
VIC1,"1999/05/21 09:00",5719.80167,51.23,TRADE
VIC1,"1999/05/21 09:30",5752.36833,53.33,TRADE
VIC1,"1999/05/21 10:00",5733.89833,55.42,TRADE
VIC1,"1999/05/21 10:30",5722.76,50.97,TRADE
VIC1,"1999/05/21 11:00",5685.4,35.13,TRADE
VIC1,"1999/05/21 11:30",5718.38833,49.22,TRADE
VIC1,"1999/05/21 12:00",5701.00667,46.8,TRADE
VIC1,"1999/05/21 12:30",5658.11333,45.79,TRADE
VIC1,"1999/05/21 13:00",5602.09833,36.12,TRADE
VIC1,"1999/05/21 13:30",5677.38833,40.37,TRADE
VIC1,"1999/05/21 14:00",5625.13833,33.66,TRADE
VIC1,"1999/05/21 14:30",5622.14167,34.96,TRADE
VIC1,"1999/05/21 15:00",5546.66333,29.26,TRADE
VIC1,"1999/05/21 15:30",5499.43667,28.17,TRADE
VIC1,"1999/05/21 16:00",5466.33833,28.48,TRADE
VIC1,"1999/05/21 16:30",5452.005,27.36,TRADE
VIC1,"1999/05/21 17:00",5490.28167,32,TRADE
VIC1,"1999/05/21 17:30",5611.11167,38.99,TRADE
VIC1,"1999/05/21 18:00",5888.74,51.26,TRADE
VIC1,"1999/05/21 18:30",5843.03,44.58,TRADE
VIC1,"1999/05/21 19:00",5711.69833,38.63,TRADE
VIC1,"1999/05/21 19:30",5508.89333,26.76,TRADE
VIC1,"1999/05/21 20:00",5401.87333,24.85,TRADE
VIC1,"1999/05/21 20:30",5327.195,24.44,TRADE
VIC1,"1999/05/21 21:00",5266.06,30.04,TRADE
VIC1,"1999/05/21 21:30",5093.64,22.89,TRADE
VIC1,"1999/05/21 22:00",4960.45,18.77,TRADE
VIC1,"1999/05/21 22:30",4927.51,31.59,TRADE
VIC1,"1999/05/21 23:00",4887.415,29.6,TRADE
VIC1,"1999/05/21 23:30",5355.275,36.74,TRADE
VIC1,"1999/05/22 00:00",5284.53667,34.64,TRADE
VIC1,"1999/05/22 00:30",5159.175,29.51,TRADE
VIC1,"1999/05/22 01:00",4948.24833,27.22,TRADE
VIC1,"1999/05/22 01:30",5164.66667,29.74,TRADE
VIC1,"1999/05/22 02:00",5038.24667,27.97,TRADE
VIC1,"1999/05/22 02:30",4812.52167,23.7,TRADE
VIC1,"1999/05/22 03:00",4629.89833,21.27,TRADE
VIC1,"1999/05/22 03:30",4424.63833,15.93,TRADE
VIC1,"1999/05/22 04:00",4310.72667,14.32,TRADE
VIC1,"1999/05/22 04:30",4190.45,13.09,TRADE
VIC1,"1999/05/22 05:00",4135.52167,12.33,TRADE
VIC1,"1999/05/22 05:30",4126.86333,13.74,TRADE
VIC1,"1999/05/22 06:00",4130.82667,13.98,TRADE
VIC1,"1999/05/22 06:30",4257.35833,16.44,TRADE
VIC1,"1999/05/22 07:00",4372.38,17.62,TRADE
VIC1,"1999/05/22 07:30",4387.23667,20.9,TRADE
VIC1,"1999/05/22 08:00",4538.15833,25.01,TRADE
VIC1,"1999/05/22 08:30",4661.94,29.54,TRADE
VIC1,"1999/05/22 09:00",4793.54333,35.63,TRADE
VIC1,"1999/05/22 09:30",4875.67833,38.38,TRADE
VIC1,"1999/05/22 10:00",4900.405,35.85,TRADE
VIC1,"1999/05/22 10:30",4851.66667,35.95,TRADE
VIC1,"1999/05/22 11:00",4874.46,32.51,TRADE
VIC1,"1999/05/22 11:30",4877.36167,31.85,TRADE
VIC1,"1999/05/22 12:00",4844.57333,30.53,TRADE
VIC1,"1999/05/22 12:30",4769.25167,32.94,TRADE
VIC1,"1999/05/22 13:00",4768.57333,27.51,TRADE
VIC1,"1999/05/22 13:30",4801.70333,27.81,TRADE
VIC1,"1999/05/22 14:00",4770.375,28.09,TRADE
VIC1,"1999/05/22 14:30",4736.83167,28.04,TRADE
VIC1,"1999/05/22 15:00",4709.13333,26.76,TRADE
VIC1,"1999/05/22 15:30",4702.15833,26.29,TRADE
VIC1,"1999/05/22 16:00",4716.29667,27.03,TRADE
VIC1,"1999/05/22 16:30",4559.20167,23.42,TRADE
VIC1,"1999/05/22 17:00",4544.34667,24.47,TRADE
VIC1,"1999/05/22 17:30",4846.29833,30.93,TRADE
VIC1,"1999/05/22 18:00",5290.205,39.53,TRADE
VIC1,"1999/05/22 18:30",5269.145,35.42,TRADE
VIC1,"1999/05/22 19:00",5128.01667,28.38,TRADE
VIC1,"1999/05/22 19:30",5004.70333,26.95,TRADE
VIC1,"1999/05/22 20:00",4930.50667,25.81,TRADE
VIC1,"1999/05/22 20:30",4822.18833,25.24,TRADE
VIC1,"1999/05/22 21:00",4776.54667,26.15,TRADE
VIC1,"1999/05/22 21:30",4687.18833,26.58,TRADE
VIC1,"1999/05/22 22:00",4624.96667,23.41,TRADE
VIC1,"1999/05/22 22:30",4612.55833,25.48,TRADE
VIC1,"1999/05/22 23:00",4602.57333,17.44,TRADE
VIC1,"1999/05/22 23:30",5016.24,25.99,TRADE
VIC1,"1999/05/23 00:00",5038.93,25.24,TRADE
VIC1,"1999/05/23 00:30",4930.925,25.4,TRADE
VIC1,"1999/05/23 01:00",4735.77167,24.58,TRADE
VIC1,"1999/05/23 01:30",4997.07667,28.04,TRADE
VIC1,"1999/05/23 02:00",4849.27167,22.7,TRADE
VIC1,"1999/05/23 02:30",4628.70333,16.76,TRADE
VIC1,"1999/05/23 03:00",4423.81167,15.23,TRADE
VIC1,"1999/05/23 03:30",4262.77833,13.13,TRADE
VIC1,"1999/05/23 04:00",4098.23667,11.94,TRADE
VIC1,"1999/05/23 04:30",3945.17333,11.71,TRADE
VIC1,"1999/05/23 05:00",3870.965,11.39,TRADE
VIC1,"1999/05/23 05:30",3815.30833,11.56,TRADE
VIC1,"1999/05/23 06:00",3796.745,11.63,TRADE
VIC1,"1999/05/23 06:30",3854.375,12.21,TRADE
VIC1,"1999/05/23 07:00",3957.28,12.31,TRADE
VIC1,"1999/05/23 07:30",3870.75667,11.35,TRADE
VIC1,"1999/05/23 08:00",3959.36833,12.81,TRADE
VIC1,"1999/05/23 08:30",4065.23,13.64,TRADE
VIC1,"1999/05/23 09:00",4212.67833,17.06,TRADE
VIC1,"1999/05/23 09:30",4292.145,21.59,TRADE
VIC1,"1999/05/23 10:00",4384.27333,23.96,TRADE
VIC1,"1999/05/23 10:30",4436.11667,25.34,TRADE
VIC1,"1999/05/23 11:00",4438.34333,24.57,TRADE
VIC1,"1999/05/23 11:30",4450.83167,25,TRADE
VIC1,"1999/05/23 12:00",4479.185,25.26,TRADE
VIC1,"1999/05/23 12:30",4508.95333,25.65,TRADE
VIC1,"1999/05/23 13:00",4503.16833,25.68,TRADE
VIC1,"1999/05/23 13:30",4548.02333,26.35,TRADE
VIC1,"1999/05/23 14:00",4514.58167,24.54,TRADE
VIC1,"1999/05/23 14:30",4466.945,24.37,TRADE
VIC1,"1999/05/23 15:00",4456.39667,23.6,TRADE
VIC1,"1999/05/23 15:30",4471.085,19.82,TRADE
VIC1,"1999/05/23 16:00",4585.07,23.35,TRADE
VIC1,"1999/05/23 16:30",4621.455,21.21,TRADE
VIC1,"1999/05/23 17:00",4819.55167,23.89,TRADE
VIC1,"1999/05/23 17:30",5004.74333,27.76,TRADE
VIC1,"1999/05/23 18:00",5209.69167,34.83,TRADE
VIC1,"1999/05/23 18:30",5231.54167,33,TRADE
VIC1,"1999/05/23 19:00",5150.12,28.08,TRADE
VIC1,"1999/05/23 19:30",5039.3,26.91,TRADE
VIC1,"1999/05/23 20:00",4988.22167,28.25,TRADE
VIC1,"1999/05/23 20:30",4901.96667,26.87,TRADE
VIC1,"1999/05/23 21:00",4801.06,25.07,TRADE
VIC1,"1999/05/23 21:30",4672.28833,18.77,TRADE
VIC1,"1999/05/23 22:00",4577.675,16.79,TRADE
VIC1,"1999/05/23 22:30",4560.72167,21.22,TRADE
VIC1,"1999/05/23 23:00",4543.88667,18.03,TRADE
VIC1,"1999/05/23 23:30",4898.54667,26.09,TRADE
VIC1,"1999/05/24 00:00",4895.62833,25.84,TRADE
VIC1,"1999/05/24 00:30",4808.68667,23.9,TRADE
VIC1,"1999/05/24 01:00",4668.29833,16.04,TRADE
VIC1,"1999/05/24 01:30",4895.28667,23.62,TRADE
VIC1,"1999/05/24 02:00",4828.38,20.89,TRADE
VIC1,"1999/05/24 02:30",4644.135,16.19,TRADE
VIC1,"1999/05/24 03:00",4480.16667,15.13,TRADE
VIC1,"1999/05/24 03:30",4320.84167,13.71,TRADE
VIC1,"1999/05/24 04:00",4187.60167,12.3,TRADE
VIC1,"1999/05/24 04:30",4067.39167,12.21,TRADE
VIC1,"1999/05/24 05:00",3993.55167,11.89,TRADE
VIC1,"1999/05/24 05:30",4120.57167,14.06,TRADE
VIC1,"1999/05/24 06:00",4260.71167,15.49,TRADE
VIC1,"1999/05/24 06:30",4601.475,18.55,TRADE
VIC1,"1999/05/24 07:00",4954.76667,23.63,TRADE
VIC1,"1999/05/24 07:30",5137.51667,21.06,TRADE
VIC1,"1999/05/24 08:00",5465.95,30.94,TRADE
VIC1,"1999/05/24 08:30",5641.405,36.47,TRADE
VIC1,"1999/05/24 09:00",5647.17,31.48,TRADE
VIC1,"1999/05/24 09:30",5694.51,45.62,TRADE
VIC1,"1999/05/24 10:00",5660.52667,41.08,TRADE
VIC1,"1999/05/24 10:30",5677.84667,39,TRADE
VIC1,"1999/05/24 11:00",5680.95,48.54,TRADE
VIC1,"1999/05/24 11:30",5690.79833,43.97,TRADE
VIC1,"1999/05/24 12:00",5758.35167,51.43,TRADE
VIC1,"1999/05/24 12:30",5731.05167,44.21,TRADE
VIC1,"1999/05/24 13:00",5689.995,39.33,TRADE
VIC1,"1999/05/24 13:30",5789.835,44.45,TRADE
VIC1,"1999/05/24 14:00",5752.40333,35.77,TRADE
VIC1,"1999/05/24 14:30",5808.51667,39.72,TRADE
VIC1,"1999/05/24 15:00",5809.70333,36.55,TRADE
VIC1,"1999/05/24 15:30",5779.83833,42.98,TRADE
VIC1,"1999/05/24 16:00",5751.11333,52.94,TRADE
VIC1,"1999/05/24 16:30",5760.53,39.42,TRADE
VIC1,"1999/05/24 17:00",5829.59333,51.86,TRADE
VIC1,"1999/05/24 17:30",6010.88333,56.06,TRADE
VIC1,"1999/05/24 18:00",6268.39,78.68,TRADE
VIC1,"1999/05/24 18:30",6181.25333,52.66,TRADE
VIC1,"1999/05/24 19:00",5920.92333,34.61,TRADE
VIC1,"1999/05/24 19:30",5768.82,26.67,TRADE
VIC1,"1999/05/24 20:00",5605.825,24.89,TRADE
VIC1,"1999/05/24 20:30",5540.25,28.83,TRADE
VIC1,"1999/05/24 21:00",5371.76833,21.12,TRADE
VIC1,"1999/05/24 21:30",5222.30833,20.58,TRADE
VIC1,"1999/05/24 22:00",5112.10667,20.47,TRADE
VIC1,"1999/05/24 22:30",4983.22,27.69,TRADE
VIC1,"1999/05/24 23:00",4890.62,25.25,TRADE
VIC1,"1999/05/24 23:30",5274.52333,31.35,TRADE
VIC1,"1999/05/25 00:00",5238.81833,29.94,TRADE
VIC1,"1999/05/25 00:30",5142.35,29.19,TRADE
VIC1,"1999/05/25 01:00",5014.71833,27.01,TRADE
VIC1,"1999/05/25 01:30",5254.59667,29.98,TRADE
VIC1,"1999/05/25 02:00",5149.59833,28.3,TRADE
VIC1,"1999/05/25 02:30",4916.45833,23.31,TRADE
VIC1,"1999/05/25 03:00",4746.38833,20.52,TRADE
VIC1,"1999/05/25 03:30",4536.71167,15.69,TRADE
VIC1,"1999/05/25 04:00",4414.73,14.05,TRADE
VIC1,"1999/05/25 04:30",4266.92667,10.86,TRADE
VIC1,"1999/05/25 05:00",4259.16667,11.06,TRADE
VIC1,"1999/05/25 05:30",4288.13167,13.63,TRADE
VIC1,"1999/05/25 06:00",4475.76667,15.67,TRADE
VIC1,"1999/05/25 06:30",4825.145,20.6,TRADE
VIC1,"1999/05/25 07:00",5210.035,27.25,TRADE
VIC1,"1999/05/25 07:30",5340.8,22.58,TRADE
VIC1,"1999/05/25 08:00",5650.01833,34.89,TRADE
VIC1,"1999/05/25 08:30",5713.425,36.84,TRADE
VIC1,"1999/05/25 09:00",5712.995,31.3,TRADE
VIC1,"1999/05/25 09:30",5715.425,34.11,TRADE
VIC1,"1999/05/25 10:00",5690.81667,34.1,TRADE
VIC1,"1999/05/25 10:30",5680.275,29.92,TRADE
VIC1,"1999/05/25 11:00",5647.43167,29.55,TRADE
VIC1,"1999/05/25 11:30",5631.125,31.34,TRADE
VIC1,"1999/05/25 12:00",5658.93,31.93,TRADE
VIC1,"1999/05/25 12:30",5638.10667,31.98,TRADE
VIC1,"1999/05/25 13:00",5633.59667,32.6,TRADE
VIC1,"1999/05/25 13:30",5732.76167,35.44,TRADE
VIC1,"1999/05/25 14:00",5736.91833,35,TRADE
VIC1,"1999/05/25 14:30",5746.07,34.08,TRADE
VIC1,"1999/05/25 15:00",5712.87833,34.75,TRADE
VIC1,"1999/05/25 15:30",5733.565,32.02,TRADE
VIC1,"1999/05/25 16:00",5744.76167,33.99,TRADE
VIC1,"1999/05/25 16:30",5855.66833,32.73,TRADE
VIC1,"1999/05/25 17:00",5914.835,32.52,TRADE
VIC1,"1999/05/25 17:30",6122.44833,41.52,TRADE
VIC1,"1999/05/25 18:00",6366.36,59.86,TRADE
VIC1,"1999/05/25 18:30",6286.405,56.17,TRADE
VIC1,"1999/05/25 19:00",6062.80667,39.92,TRADE
VIC1,"1999/05/25 19:30",5897.27667,37.66,TRADE
VIC1,"1999/05/25 20:00",5762.23167,29.51,TRADE
VIC1,"1999/05/25 20:30",5650.52,29,TRADE
VIC1,"1999/05/25 21:00",5546.59167,27.57,TRADE
VIC1,"1999/05/25 21:30",5406.33333,24.73,TRADE
VIC1,"1999/05/25 22:00",5279.64,24.48,TRADE
VIC1,"1999/05/25 22:30",5128.22667,26.27,TRADE
VIC1,"1999/05/25 23:00",5008.24,25.49,TRADE
VIC1,"1999/05/25 23:30",5394.03333,34.34,TRADE
VIC1,"1999/05/26 00:00",5364.80167,33.91,TRADE
VIC1,"1999/05/26 00:30",5250.875,31.48,TRADE
VIC1,"1999/05/26 01:00",5087.13333,28.6,TRADE
VIC1,"1999/05/26 01:30",5344.07167,32.19,TRADE
VIC1,"1999/05/26 02:00",5220.68333,30.55,TRADE
VIC1,"1999/05/26 02:30",4995.09667,26.31,TRADE
VIC1,"1999/05/26 03:00",4799.90333,23.07,TRADE
VIC1,"1999/05/26 03:30",4612.245,18.35,TRADE
VIC1,"1999/05/26 04:00",4487.685,15.74,TRADE
VIC1,"1999/05/26 04:30",4399.9,12.63,TRADE
VIC1,"1999/05/26 05:00",4349.14333,13.85,TRADE
VIC1,"1999/05/26 05:30",4420.755,19.2,TRADE
VIC1,"1999/05/26 06:00",4518.66167,17.84,TRADE
VIC1,"1999/05/26 06:30",4888.795,23.66,TRADE
VIC1,"1999/05/26 07:00",5218.22167,30.64,TRADE
VIC1,"1999/05/26 07:30",5412.77167,27.93,TRADE
VIC1,"1999/05/26 08:00",5709.04833,35.6,TRADE
VIC1,"1999/05/26 08:30",5808.44833,37.19,TRADE
VIC1,"1999/05/26 09:00",5786.78,46.13,TRADE
VIC1,"1999/05/26 09:30",5807.28,48.38,TRADE
VIC1,"1999/05/26 10:00",5762.90667,45.88,TRADE
VIC1,"1999/05/26 10:30",5698.38667,34.47,TRADE
VIC1,"1999/05/26 11:00",5717.99833,45.29,TRADE
VIC1,"1999/05/26 11:30",5741.85167,35.33,TRADE
VIC1,"1999/05/26 12:00",5747.38667,34.97,TRADE
VIC1,"1999/05/26 12:30",5755.3,42.16,TRADE
VIC1,"1999/05/26 13:00",5784.45,46.95,TRADE
VIC1,"1999/05/26 13:30",5900.255,46.51,TRADE
VIC1,"1999/05/26 14:00",5925.90167,47.08,TRADE
VIC1,"1999/05/26 14:30",5914.98167,46.42,TRADE
VIC1,"1999/05/26 15:00",5867.445,40.9,TRADE
VIC1,"1999/05/26 15:30",5875.66833,39.66,TRADE
VIC1,"1999/05/26 16:00",5849.095,31.02,TRADE
VIC1,"1999/05/26 16:30",5920.585,35.64,TRADE
VIC1,"1999/05/26 17:00",6068.79,40.26,TRADE
VIC1,"1999/05/26 17:30",6333.12833,54.2,TRADE
VIC1,"1999/05/26 18:00",6508.15333,64.48,TRADE
VIC1,"1999/05/26 18:30",6322.405,51.56,TRADE
VIC1,"1999/05/26 19:00",6163.695,34.88,TRADE
VIC1,"1999/05/26 19:30",6017.45667,31.29,TRADE
VIC1,"1999/05/26 20:00",5843.07167,29.31,TRADE
VIC1,"1999/05/26 20:30",5723.255,27.07,TRADE
VIC1,"1999/05/26 21:00",5553.17667,20.41,TRADE
VIC1,"1999/05/26 21:30",5340.49333,19.96,TRADE
VIC1,"1999/05/26 22:00",5349.95333,23.34,TRADE
VIC1,"1999/05/26 22:30",5192.17167,30.29,TRADE
VIC1,"1999/05/26 23:00",5097.77833,29.47,TRADE
VIC1,"1999/05/26 23:30",5484.58333,36.19,TRADE
VIC1,"1999/05/27 00:00",5390.03333,36.26,TRADE
VIC1,"1999/05/27 00:30",5302.11333,35.33,TRADE
VIC1,"1999/05/27 01:00",5170.45333,32.82,TRADE
VIC1,"1999/05/27 01:30",5398.76167,35.77,TRADE
VIC1,"1999/05/27 02:00",5309.27167,33.39,TRADE
VIC1,"1999/05/27 02:30",5119.9,28.11,TRADE
VIC1,"1999/05/27 03:00",4930.97667,27.57,TRADE
VIC1,"1999/05/27 03:30",4751.94167,23.96,TRADE
VIC1,"1999/05/27 04:00",4609.78667,19.74,TRADE
VIC1,"1999/05/27 04:30",4522.84,13.84,TRADE
VIC1,"1999/05/27 05:00",4500.05167,16.68,TRADE
VIC1,"1999/05/27 05:30",4587.09833,22.3,TRADE
VIC1,"1999/05/27 06:00",4716.00667,23.19,TRADE
VIC1,"1999/05/27 06:30",5086.88167,27.69,TRADE
VIC1,"1999/05/27 07:00",5451.73,33.47,TRADE
VIC1,"1999/05/27 07:30",5628.95333,33.38,TRADE
VIC1,"1999/05/27 08:00",5925.66167,50.64,TRADE
VIC1,"1999/05/27 08:30",5984.33,52.28,TRADE
VIC1,"1999/05/27 09:00",5985.97833,46.24,TRADE
VIC1,"1999/05/27 09:30",6054.40333,55.51,TRADE
VIC1,"1999/05/27 10:00",5943.66333,47.44,TRADE
VIC1,"1999/05/27 10:30",5921.77167,42.02,TRADE
VIC1,"1999/05/27 11:00",5836.93333,34.7,TRADE
VIC1,"1999/05/27 11:30",5813.16333,46.79,TRADE
VIC1,"1999/05/27 12:00",5765.09333,43.17,TRADE
VIC1,"1999/05/27 12:30",5725.775,38.87,TRADE
VIC1,"1999/05/27 13:00",5716.34333,30.68,TRADE
VIC1,"1999/05/27 13:30",5815.695,34.44,TRADE
VIC1,"1999/05/27 14:00",5806.435,32.19,TRADE
VIC1,"1999/05/27 14:30",5806.69,32.49,TRADE
VIC1,"1999/05/27 15:00",5796.165,30.05,TRADE
VIC1,"1999/05/27 15:30",5733.975,28.97,TRADE
VIC1,"1999/05/27 16:00",5733.89167,32.74,TRADE
VIC1,"1999/05/27 16:30",5756.94667,32.89,TRADE
VIC1,"1999/05/27 17:00",5872.82167,22.93,TRADE
VIC1,"1999/05/27 17:30",6139.83833,41.88,TRADE
VIC1,"1999/05/27 18:00",6396.23,62.19,TRADE
VIC1,"1999/05/27 18:30",6296.90833,61.56,TRADE
VIC1,"1999/05/27 19:00",6140.945,54.87,TRADE
VIC1,"1999/05/27 19:30",5953.38,52.86,TRADE
VIC1,"1999/05/27 20:00",5821.85667,56.42,TRADE
VIC1,"1999/05/27 20:30",5709.28,59.45,TRADE
VIC1,"1999/05/27 21:00",5595.45,56.42,TRADE
VIC1,"1999/05/27 21:30",5418.965,41.39,TRADE
VIC1,"1999/05/27 22:00",5295.455,31.97,TRADE
VIC1,"1999/05/27 22:30",5174.54667,35.19,TRADE
VIC1,"1999/05/27 23:00",5098,34.99,TRADE
VIC1,"1999/05/27 23:30",5462.435,50.72,TRADE
VIC1,"1999/05/28 00:00",5403.47167,49.26,TRADE
VIC1,"1999/05/28 00:30",5230.01667,45.3,TRADE
VIC1,"1999/05/28 01:00",5158.21,38.18,TRADE
VIC1,"1999/05/28 01:30",5401.54,41.72,TRADE
VIC1,"1999/05/28 02:00",5283.59167,34.19,TRADE
VIC1,"1999/05/28 02:30",5065.01333,28.19,TRADE
VIC1,"1999/05/28 03:00",4858.49167,26.54,TRADE
VIC1,"1999/05/28 03:30",4678.925,19,TRADE
VIC1,"1999/05/28 04:00",4544.86,13.83,TRADE
VIC1,"1999/05/28 04:30",4460.40833,13.94,TRADE
VIC1,"1999/05/28 05:00",4448.065,14.07,TRADE
VIC1,"1999/05/28 05:30",4507.09167,20.09,TRADE
VIC1,"1999/05/28 06:00",4615.49333,21.98,TRADE
VIC1,"1999/05/28 06:30",4959.53,28,TRADE
VIC1,"1999/05/28 07:00",5261.79,33.17,TRADE
VIC1,"1999/05/28 07:30",5446.56333,38.84,TRADE
VIC1,"1999/05/28 08:00",5785.07333,55.33,TRADE
VIC1,"1999/05/28 08:30",5848.89667,54.35,TRADE
VIC1,"1999/05/28 09:00",5852.18833,57.06,TRADE
VIC1,"1999/05/28 09:30",5854.74833,52.23,TRADE
VIC1,"1999/05/28 10:00",5805.31167,49.77,TRADE
VIC1,"1999/05/28 10:30",5728.875,43.79,TRADE
VIC1,"1999/05/28 11:00",5668.85333,37.5,TRADE
VIC1,"1999/05/28 11:30",5611.09667,33.69,TRADE
VIC1,"1999/05/28 12:00",5640.93833,38.82,TRADE
VIC1,"1999/05/28 12:30",5586.04833,47.09,TRADE
VIC1,"1999/05/28 13:00",5549.83833,37.35,TRADE
VIC1,"1999/05/28 13:30",5616.69667,41.15,TRADE
VIC1,"1999/05/28 14:00",5587.49333,38.45,TRADE
VIC1,"1999/05/28 14:30",5518.08,33.89,TRADE
VIC1,"1999/05/28 15:00",5474.2,31.65,TRADE
VIC1,"1999/05/28 15:30",5366.59167,26.82,TRADE
VIC1,"1999/05/28 16:00",5350.69667,22.61,TRADE
VIC1,"1999/05/28 16:30",5359.325,23.28,TRADE
VIC1,"1999/05/28 17:00",5452.93167,24.14,TRADE
VIC1,"1999/05/28 17:30",5746.91,42.48,TRADE
VIC1,"1999/05/28 18:00",6108.40333,60.76,TRADE
VIC1,"1999/05/28 18:30",6019.005,59.56,TRADE
VIC1,"1999/05/28 19:00",5908.98833,51.74,TRADE
VIC1,"1999/05/28 19:30",5716.19667,43.72,TRADE
VIC1,"1999/05/28 20:00",5624.085,33.72,TRADE
VIC1,"1999/05/28 20:30",5539.60333,36.88,TRADE
VIC1,"1999/05/28 21:00",5446.28167,32.32,TRADE
VIC1,"1999/05/28 21:30",5249.41,30.38,TRADE
VIC1,"1999/05/28 22:00",5092.77333,25.82,TRADE
VIC1,"1999/05/28 22:30",5091.035,39.33,TRADE
VIC1,"1999/05/28 23:00",5024.585,38.77,TRADE
VIC1,"1999/05/28 23:30",5451.345,58.7,TRADE
VIC1,"1999/05/29 00:00",5382.35333,52.12,TRADE
VIC1,"1999/05/29 00:30",5261.70333,41.68,TRADE
VIC1,"1999/05/29 01:00",5115.03333,45.93,TRADE
VIC1,"1999/05/29 01:30",5347.75333,44.93,TRADE
VIC1,"1999/05/29 02:00",5154.995,34.93,TRADE
VIC1,"1999/05/29 02:30",4968.54333,27.53,TRADE
VIC1,"1999/05/29 03:00",4798.31,26.45,TRADE
VIC1,"1999/05/29 03:30",4610.01167,22.08,TRADE
VIC1,"1999/05/29 04:00",4404.80167,17.5,TRADE
VIC1,"1999/05/29 04:30",4290.17667,13.99,TRADE
VIC1,"1999/05/29 05:00",4242.41,14.2,TRADE
VIC1,"1999/05/29 05:30",4206.58667,14.54,TRADE
VIC1,"1999/05/29 06:00",4240.17333,15.02,TRADE
VIC1,"1999/05/29 06:30",4345.7,18.7,TRADE
VIC1,"1999/05/29 07:00",4437.255,20.67,TRADE
VIC1,"1999/05/29 07:30",4493.33833,23.61,TRADE
VIC1,"1999/05/29 08:00",4671.46667,29.23,TRADE
VIC1,"1999/05/29 08:30",4858.505,35.89,TRADE
VIC1,"1999/05/29 09:00",5018.465,40.2,TRADE
VIC1,"1999/05/29 09:30",5168.095,47.3,TRADE
VIC1,"1999/05/29 10:00",5231.28167,42.21,TRADE
VIC1,"1999/05/29 10:30",5239.07333,42.05,TRADE
VIC1,"1999/05/29 11:00",5229.46833,42.2,TRADE
VIC1,"1999/05/29 11:30",5228.15833,40.67,TRADE
VIC1,"1999/05/29 12:00",5228.055,38.78,TRADE
VIC1,"1999/05/29 12:30",5227.73167,40,TRADE
VIC1,"1999/05/29 13:00",5252.45333,40.61,TRADE
VIC1,"1999/05/29 13:30",5308.23167,40.76,TRADE
VIC1,"1999/05/29 14:00",5321.57667,41.08,TRADE
VIC1,"1999/05/29 14:30",5345.44,41.26,TRADE
VIC1,"1999/05/29 15:00",5317.68667,42.62,TRADE
VIC1,"1999/05/29 15:30",5312.635,42.32,TRADE
VIC1,"1999/05/29 16:00",5304.46833,42.87,TRADE
VIC1,"1999/05/29 16:30",5238.34333,41.61,TRADE
VIC1,"1999/05/29 17:00",5366.455,42.77,TRADE
VIC1,"1999/05/29 17:30",5643.51833,57.56,TRADE
VIC1,"1999/05/29 18:00",5768.99333,91.01,TRADE
VIC1,"1999/05/29 18:30",5642.19333,56.36,TRADE
VIC1,"1999/05/29 19:00",5570.16833,45.05,TRADE
VIC1,"1999/05/29 19:30",5409.26,41.32,TRADE
VIC1,"1999/05/29 20:00",5234.27333,36.36,TRADE
VIC1,"1999/05/29 20:30",5136.57333,34.25,TRADE
VIC1,"1999/05/29 21:00",5004.11833,32.92,TRADE
VIC1,"1999/05/29 21:30",4927.55333,28.82,TRADE
VIC1,"1999/05/29 22:00",4812.94333,26.47,TRADE
VIC1,"1999/05/29 22:30",4765.09833,27.13,TRADE
VIC1,"1999/05/29 23:00",4765.89833,26.43,TRADE
VIC1,"1999/05/29 23:30",5156.62333,30.08,TRADE
VIC1,"1999/05/30 00:00",5179.40167,29.58,TRADE
VIC1,"1999/05/30 00:30",5085.48,28.57,TRADE
VIC1,"1999/05/30 01:00",4978.50833,28.34,TRADE
VIC1,"1999/05/30 01:30",5180.13333,28.53,TRADE
VIC1,"1999/05/30 02:00",5044.42167,26.88,TRADE
VIC1,"1999/05/30 02:30",4828.01333,21.59,TRADE
VIC1,"1999/05/30 03:00",4622.09833,15.56,TRADE
VIC1,"1999/05/30 03:30",4459.88,14.97,TRADE
VIC1,"1999/05/30 04:00",4275.72167,13.41,TRADE
VIC1,"1999/05/30 04:30",4137.29,12.27,TRADE
VIC1,"1999/05/30 05:00",4036.03833,11.93,TRADE
VIC1,"1999/05/30 05:30",3981.79333,12.12,TRADE
VIC1,"1999/05/30 06:00",3959.83167,12.12,TRADE
VIC1,"1999/05/30 06:30",3955.09333,12.41,TRADE
VIC1,"1999/05/30 07:00",3999.98667,12.46,TRADE
VIC1,"1999/05/30 07:30",3940.19833,12.39,TRADE
VIC1,"1999/05/30 08:00",4068.89833,13.29,TRADE
VIC1,"1999/05/30 08:30",4224.95333,13.86,TRADE
VIC1,"1999/05/30 09:00",4363.63833,15.4,TRADE
VIC1,"1999/05/30 09:30",4469.22333,15.22,TRADE
VIC1,"1999/05/30 10:00",4588.16,17.76,TRADE
VIC1,"1999/05/30 10:30",4638.17333,25.14,TRADE
VIC1,"1999/05/30 11:00",4606.34667,24.8,TRADE
VIC1,"1999/05/30 11:30",4625.42,25.09,TRADE
VIC1,"1999/05/30 12:00",4639.99333,26.74,TRADE
VIC1,"1999/05/30 12:30",4637.43,27.01,TRADE
VIC1,"1999/05/30 13:00",4653.09333,25.94,TRADE
VIC1,"1999/05/30 13:30",4656.31167,26,TRADE
VIC1,"1999/05/30 14:00",4606.81333,25.1,TRADE
VIC1,"1999/05/30 14:30",4539.58,23.3,TRADE
VIC1,"1999/05/30 15:00",4531.73,21.99,TRADE
VIC1,"1999/05/30 15:30",4485.65333,21.14,TRADE
VIC1,"1999/05/30 16:00",4453.72333,16.4,TRADE
VIC1,"1999/05/30 16:30",4483.17667,18.93,TRADE
VIC1,"1999/05/30 17:00",4639.455,21.51,TRADE
VIC1,"1999/05/30 17:30",4947.86333,28.22,TRADE
VIC1,"1999/05/30 18:00",5236.27,32.24,TRADE
VIC1,"1999/05/30 18:30",5305.29,31.75,TRADE
VIC1,"1999/05/30 19:00",5193.265,29.43,TRADE
VIC1,"1999/05/30 19:30",5139.85167,28.39,TRADE
VIC1,"1999/05/30 20:00",5062.475,27.59,TRADE
VIC1,"1999/05/30 20:30",4972.415,23.98,TRADE
VIC1,"1999/05/30 21:00",4855.16667,16.16,TRADE
VIC1,"1999/05/30 21:30",4747.37,16.95,TRADE
VIC1,"1999/05/30 22:00",4672.21667,15.88,TRADE
VIC1,"1999/05/30 22:30",4611.505,16.11,TRADE
VIC1,"1999/05/30 23:00",4606.98667,15.17,TRADE
VIC1,"1999/05/30 23:30",4910.60833,18.14,TRADE
VIC1,"1999/05/31 00:00",4933.76333,15.95,TRADE
VIC1,"1999/05/31 00:30",4808.975,15.45,TRADE
VIC1,"1999/05/31 01:00",4690.38833,14.38,TRADE
VIC1,"1999/05/31 01:30",4955.80167,17.22,TRADE
VIC1,"1999/05/31 02:00",4862.755,14.84,TRADE
VIC1,"1999/05/31 02:30",4668.16167,12.82,TRADE
VIC1,"1999/05/31 03:00",4464.345,12.12,TRADE
VIC1,"1999/05/31 03:30",4344.21333,12.12,TRADE
VIC1,"1999/05/31 04:00",4217.40167,12.12,TRADE
VIC1,"1999/05/31 04:30",4108.28667,7.17,TRADE
VIC1,"1999/05/31 05:00",4098.07333,7.97,TRADE
VIC1,"1999/05/31 05:30",4156.18667,10.84,TRADE
VIC1,"1999/05/31 06:00",4295.70833,11.56,TRADE
VIC1,"1999/05/31 06:30",4663.915,18.55,TRADE
VIC1,"1999/05/31 07:00",5049.77167,26.56,TRADE
VIC1,"1999/05/31 07:30",5255.315,23.39,TRADE
VIC1,"1999/05/31 08:00",5604.22667,33.9,TRADE
VIC1,"1999/05/31 08:30",5759.18667,36.69,TRADE
VIC1,"1999/05/31 09:00",5753.49833,30.16,TRADE
VIC1,"1999/05/31 09:30",5851.19333,38.82,TRADE
VIC1,"1999/05/31 10:00",5840.17833,39.29,TRADE
VIC1,"1999/05/31 10:30",5861.15833,37.7,TRADE
VIC1,"1999/05/31 11:00",5881.225,36.59,TRADE
VIC1,"1999/05/31 11:30",5874.31667,31.74,TRADE
VIC1,"1999/05/31 12:00",5882.02333,31.12,TRADE
VIC1,"1999/05/31 12:30",5807.98,29.2,TRADE
VIC1,"1999/05/31 13:00",5750.89333,28.72,TRADE
VIC1,"1999/05/31 13:30",5827.84833,45.08,TRADE
VIC1,"1999/05/31 14:00",5810.52833,45.39,TRADE
VIC1,"1999/05/31 14:30",5814.965,41.7,TRADE
VIC1,"1999/05/31 15:00",5765.52167,35.17,TRADE
VIC1,"1999/05/31 15:30",5756.33833,30.22,TRADE
VIC1,"1999/05/31 16:00",5729.41667,30.9,TRADE
VIC1,"1999/05/31 16:30",5766.83667,32.59,TRADE
VIC1,"1999/05/31 17:00",5868.865,38.4,TRADE
VIC1,"1999/05/31 17:30",6147.13667,49.03,TRADE
VIC1,"1999/05/31 18:00",6398.12167,61.16,TRADE
VIC1,"1999/05/31 18:30",6294.75333,47.46,TRADE
VIC1,"1999/05/31 19:00",6099.07833,36.8,TRADE
VIC1,"1999/05/31 19:30",5848.07,36.94,TRADE
VIC1,"1999/05/31 20:00",5797.72,31.46,TRADE
VIC1,"1999/05/31 20:30",5655.65333,29.07,TRADE
VIC1,"1999/05/31 21:00",5550.98667,26.34,TRADE
VIC1,"1999/05/31 21:30",5411.64667,25.97,TRADE
VIC1,"1999/05/31 22:00",5266.93333,22.98,TRADE
VIC1,"1999/05/31 22:30",5148.95833,29.84,TRADE
VIC1,"1999/05/31 23:00",5017.02,26.53,TRADE
VIC1,"1999/05/31 23:30",5418.28333,35.82,TRADE
VIC1,"1999/06/01 00:00",5359.33333,33.89,TRADE
