REGION,SETTLEMENTDATE,TOTALDEMAND,RRP,PERIODTYPE
QLD1,"2004/06/01 00:30:00",4988.37167,41.15,TRADE
QLD1,"2004/06/01 01:00:00",4805.08833,39.61,TRADE
QLD1,"2004/06/01 01:30:00",4631.94833,36.06,TRADE
QLD1,"2004/06/01 02:00:00",4452.2,30.63,TRADE
QLD1,"2004/06/01 02:30:00",4345.91833,27.44,TRADE
QLD1,"2004/06/01 03:00:00",4257.575,25.99,TRADE
QLD1,"2004/06/01 03:30:00",4194.59667,24.35,TRADE
QLD1,"2004/06/01 04:00:00",4197.02833,24.94,TRADE
QLD1,"2004/06/01 04:30:00",4210.1,25,TRADE
QLD1,"2004/06/01 05:00:00",4247.645,25.54,TRADE
QLD1,"2004/06/01 05:30:00",4454.55167,28.5,TRADE
QLD1,"2004/06/01 06:00:00",4728.745,33.02,TRADE
QLD1,"2004/06/01 06:30:00",5197.54833,40.31,TRADE
QLD1,"2004/06/01 07:00:00",5592.55167,39.66,TRADE
QLD1,"2004/06/01 07:30:00",5981.075,37.25,TRADE
QLD1,"2004/06/01 08:00:00",6182.295,39.76,TRADE
QLD1,"2004/06/01 08:30:00",6131.05667,37.78,TRADE
QLD1,"2004/06/01 09:00:00",6054.93833,36.32,TRADE
QLD1,"2004/06/01 09:30:00",6051.11,34.92,TRADE
QLD1,"2004/06/01 10:00:00",5999.78333,30.82,TRADE
QLD1,"2004/06/01 10:30:00",5998.78833,29.23,TRADE
QLD1,"2004/06/01 11:00:00",5995.64167,28.77,TRADE
QLD1,"2004/06/01 11:30:00",5926.62,28.36,TRADE
QLD1,"2004/06/01 12:00:00",5866.79333,27.98,TRADE
QLD1,"2004/06/01 12:30:00",5814.32167,28.49,TRADE
QLD1,"2004/06/01 13:00:00",5791.95833,27.96,TRADE
QLD1,"2004/06/01 13:30:00",5725.335,28.86,TRADE
QLD1,"2004/06/01 14:00:00",5733.87667,28.86,TRADE
QLD1,"2004/06/01 14:30:00",5752.25667,28.43,TRADE
QLD1,"2004/06/01 15:00:00",5709.235,25.55,TRADE
QLD1,"2004/06/01 15:30:00",5671.51167,23.34,TRADE
QLD1,"2004/06/01 16:00:00",5713.55333,26.8,TRADE
QLD1,"2004/06/01 16:30:00",5824.08,27.95,TRADE
QLD1,"2004/06/01 17:00:00",5987.40333,30.84,TRADE
QLD1,"2004/06/01 17:30:00",6260.88833,47.15,TRADE
QLD1,"2004/06/01 18:00:00",6389.76,64.05,TRADE
QLD1,"2004/06/01 18:30:00",6328.26,60.33,TRADE
QLD1,"2004/06/01 19:00:00",6273.20333,54.1,TRADE
QLD1,"2004/06/01 19:30:00",6147.08833,44.36,TRADE
QLD1,"2004/06/01 20:00:00",6151.85333,41.38,TRADE
QLD1,"2004/06/01 20:30:00",6167.83333,41.73,TRADE
QLD1,"2004/06/01 21:00:00",6077.42,38.76,TRADE
QLD1,"2004/06/01 21:30:00",5938.20167,33,TRADE
QLD1,"2004/06/01 22:00:00",5766.99167,29.77,TRADE
QLD1,"2004/06/01 22:30:00",5639.51667,42.89,TRADE
QLD1,"2004/06/01 23:00:00",5431.43333,31.78,TRADE
QLD1,"2004/06/01 23:30:00",5338.43,35.08,TRADE
QLD1,"2004/06/02 00:00:00",5102.09,28.76,TRADE
QLD1,"2004/06/02 00:30:00",4955.70833,28.95,TRADE
QLD1,"2004/06/02 01:00:00",4768.46167,28.58,TRADE
QLD1,"2004/06/02 01:30:00",4617.60833,28.81,TRADE
QLD1,"2004/06/02 02:00:00",4485.09167,26.22,TRADE
QLD1,"2004/06/02 02:30:00",4335.91667,25.53,TRADE
QLD1,"2004/06/02 03:00:00",4252.505,22.15,TRADE
QLD1,"2004/06/02 03:30:00",4220.14167,20.99,TRADE
QLD1,"2004/06/02 04:00:00",4235.74833,18.94,TRADE
QLD1,"2004/06/02 04:30:00",4227.96167,22.14,TRADE
QLD1,"2004/06/02 05:00:00",4274.835,22.09,TRADE
QLD1,"2004/06/02 05:30:00",4443.19167,28.38,TRADE
QLD1,"2004/06/02 06:00:00",4732.18,28.79,TRADE
QLD1,"2004/06/02 06:30:00",5219.46833,39.63,TRADE
QLD1,"2004/06/02 07:00:00",5616.03667,43.15,TRADE
QLD1,"2004/06/02 07:30:00",5976.41667,35.96,TRADE
QLD1,"2004/06/02 08:00:00",6178.12833,41.2,TRADE
QLD1,"2004/06/02 08:30:00",6091.60667,38.4,TRADE
QLD1,"2004/06/02 09:00:00",6004.52667,37.51,TRADE
QLD1,"2004/06/02 09:30:00",6046.47167,37.62,TRADE
QLD1,"2004/06/02 10:00:00",6010.275,33.87,TRADE
QLD1,"2004/06/02 10:30:00",6012.56,28.84,TRADE
QLD1,"2004/06/02 11:00:00",5944.46333,27.36,TRADE
QLD1,"2004/06/02 11:30:00",5936.52,26.7,TRADE
QLD1,"2004/06/02 12:00:00",5886.605,26.79,TRADE
QLD1,"2004/06/02 12:30:00",5824.38,25.42,TRADE
QLD1,"2004/06/02 13:00:00",5762.64833,28.05,TRADE
QLD1,"2004/06/02 13:30:00",5725.355,28.13,TRADE
QLD1,"2004/06/02 14:00:00",5745.45833,28.65,TRADE
QLD1,"2004/06/02 14:30:00",5754.09667,29.15,TRADE
QLD1,"2004/06/02 15:00:00",5728,29.15,TRADE
QLD1,"2004/06/02 15:30:00",5722.82667,29.15,TRADE
QLD1,"2004/06/02 16:00:00",5783.71333,32.32,TRADE
QLD1,"2004/06/02 16:30:00",5862.86333,34.14,TRADE
QLD1,"2004/06/02 17:00:00",6047.49667,35.84,TRADE
QLD1,"2004/06/02 17:30:00",6285.03667,47.84,TRADE
QLD1,"2004/06/02 18:00:00",6413.29333,48.37,TRADE
QLD1,"2004/06/02 18:30:00",6306.765,39.56,TRADE
QLD1,"2004/06/02 19:00:00",6228.85,35.78,TRADE
QLD1,"2004/06/02 19:30:00",6121.94,35.09,TRADE
QLD1,"2004/06/02 20:00:00",6100.58833,35.16,TRADE
QLD1,"2004/06/02 20:30:00",6076.2,37.12,TRADE
QLD1,"2004/06/02 21:00:00",5983.01167,38.91,TRADE
QLD1,"2004/06/02 21:30:00",5823.65833,32.37,TRADE
QLD1,"2004/06/02 22:00:00",5638.57167,27.59,TRADE
QLD1,"2004/06/02 22:30:00",5546.67,30.7,TRADE
QLD1,"2004/06/02 23:00:00",5340.06,26.05,TRADE
QLD1,"2004/06/02 23:30:00",5254.785,28.33,TRADE
QLD1,"2004/06/03 00:00:00",5034.11333,22.68,TRADE
QLD1,"2004/06/03 00:30:00",4853.085,30.85,TRADE
QLD1,"2004/06/03 01:00:00",4731.58833,25.47,TRADE
QLD1,"2004/06/03 01:30:00",4564.865,29.68,TRADE
QLD1,"2004/06/03 02:00:00",4398.65,25.29,TRADE
QLD1,"2004/06/03 02:30:00",4293.66833,22.06,TRADE
QLD1,"2004/06/03 03:00:00",4247.96333,23.69,TRADE
QLD1,"2004/06/03 03:30:00",4178.045,18.97,TRADE
QLD1,"2004/06/03 04:00:00",4142.51,16.36,TRADE
QLD1,"2004/06/03 04:30:00",4196.62667,16.3,TRADE
QLD1,"2004/06/03 05:00:00",4207.63833,14.05,TRADE
QLD1,"2004/06/03 05:30:00",4427.22,17.3,TRADE
QLD1,"2004/06/03 06:00:00",4664.085,19.66,TRADE
QLD1,"2004/06/03 06:30:00",5126.16667,25.43,TRADE
QLD1,"2004/06/03 07:00:00",5478.71833,25.84,TRADE
QLD1,"2004/06/03 07:30:00",5839.12167,23.88,TRADE
QLD1,"2004/06/03 08:00:00",5973.225,29.09,TRADE
QLD1,"2004/06/03 08:30:00",5966.49667,29.15,TRADE
QLD1,"2004/06/03 09:00:00",5910.18667,28.41,TRADE
QLD1,"2004/06/03 09:30:00",5952.91833,28.43,TRADE
QLD1,"2004/06/03 10:00:00",5985.865,28.19,TRADE
QLD1,"2004/06/03 10:30:00",6006.28,27.18,TRADE
QLD1,"2004/06/03 11:00:00",6015.65,25.54,TRADE
QLD1,"2004/06/03 11:30:00",5979.88,24.12,TRADE
QLD1,"2004/06/03 12:00:00",5927.79667,24.67,TRADE
QLD1,"2004/06/03 12:30:00",5867.745,25,TRADE
QLD1,"2004/06/03 13:00:00",5836.25167,25.86,TRADE
QLD1,"2004/06/03 13:30:00",5816.63167,23.18,TRADE
QLD1,"2004/06/03 14:00:00",5773.12833,17.36,TRADE
QLD1,"2004/06/03 14:30:00",5754.49667,22.65,TRADE
QLD1,"2004/06/03 15:00:00",5744.96667,22.28,TRADE
QLD1,"2004/06/03 15:30:00",5720.45333,18.85,TRADE
QLD1,"2004/06/03 16:00:00",5766.45167,18.47,TRADE
QLD1,"2004/06/03 16:30:00",5875.22833,23.07,TRADE
QLD1,"2004/06/03 17:00:00",5967.91167,24.33,TRADE
QLD1,"2004/06/03 17:30:00",6229.16833,34.3,TRADE
QLD1,"2004/06/03 18:00:00",6404.55333,39.44,TRADE
QLD1,"2004/06/03 18:30:00",6292.28,36.56,TRADE
QLD1,"2004/06/03 19:00:00",6221.75167,33.64,TRADE
QLD1,"2004/06/03 19:30:00",6142.485,34.69,TRADE
QLD1,"2004/06/03 20:00:00",6125.72167,35,TRADE
QLD1,"2004/06/03 20:30:00",6115.40833,34.65,TRADE
QLD1,"2004/06/03 21:00:00",5939.875,33.88,TRADE
QLD1,"2004/06/03 21:30:00",5676.21167,29.57,TRADE
QLD1,"2004/06/03 22:00:00",5567.65167,26.41,TRADE
QLD1,"2004/06/03 22:30:00",5455.35167,31.44,TRADE
QLD1,"2004/06/03 23:00:00",5266.84667,28.43,TRADE
QLD1,"2004/06/03 23:30:00",5264.51667,33.88,TRADE
QLD1,"2004/06/04 00:00:00",5059.575,27.01,TRADE
QLD1,"2004/06/04 00:30:00",4842.54,28.75,TRADE
QLD1,"2004/06/04 01:00:00",4690.91833,26.65,TRADE
QLD1,"2004/06/04 01:30:00",4546.755,26.36,TRADE
QLD1,"2004/06/04 02:00:00",4357.65833,23.66,TRADE
QLD1,"2004/06/04 02:30:00",4213.84167,22.59,TRADE
QLD1,"2004/06/04 03:00:00",4163.88167,21.99,TRADE
QLD1,"2004/06/04 03:30:00",4101.395,20.77,TRADE
QLD1,"2004/06/04 04:00:00",4103.705,19.1,TRADE
QLD1,"2004/06/04 04:30:00",4131.39167,14.8,TRADE
QLD1,"2004/06/04 05:00:00",4230.46167,17.1,TRADE
QLD1,"2004/06/04 05:30:00",4382.22333,17.52,TRADE
QLD1,"2004/06/04 06:00:00",4624.78167,18.81,TRADE
QLD1,"2004/06/04 06:30:00",4995.16667,25.14,TRADE
QLD1,"2004/06/04 07:00:00",5396.71667,27.55,TRADE
QLD1,"2004/06/04 07:30:00",5733.165,27.75,TRADE
QLD1,"2004/06/04 08:00:00",5917.445,35.06,TRADE
QLD1,"2004/06/04 08:30:00",5909.44333,32.78,TRADE
QLD1,"2004/06/04 09:00:00",5868.26333,29.75,TRADE
QLD1,"2004/06/04 09:30:00",5980.49167,33.42,TRADE
QLD1,"2004/06/04 10:00:00",6008.345,31.3,TRADE
QLD1,"2004/06/04 10:30:00",6011.435,29.15,TRADE
QLD1,"2004/06/04 11:00:00",5984.375,28.97,TRADE
QLD1,"2004/06/04 11:30:00",5970.69667,28.87,TRADE
QLD1,"2004/06/04 12:00:00",5884.05833,27.89,TRADE
QLD1,"2004/06/04 12:30:00",5871.72167,28.37,TRADE
QLD1,"2004/06/04 13:00:00",5849.98333,28.99,TRADE
QLD1,"2004/06/04 13:30:00",5802.73833,29.1,TRADE
QLD1,"2004/06/04 14:00:00",5751.59,29.22,TRADE
QLD1,"2004/06/04 14:30:00",5755.44667,28.78,TRADE
QLD1,"2004/06/04 15:00:00",5695.89833,24.01,TRADE
QLD1,"2004/06/04 15:30:00",5719.11,23.87,TRADE
QLD1,"2004/06/04 16:00:00",5729.79,23.72,TRADE
QLD1,"2004/06/04 16:30:00",5751.945,23.76,TRADE
QLD1,"2004/06/04 17:00:00",5902.17167,29.15,TRADE
QLD1,"2004/06/04 17:30:00",6103.75167,36.47,TRADE
QLD1,"2004/06/04 18:00:00",6178.65667,44.28,TRADE
QLD1,"2004/06/04 18:30:00",6039.32833,37.4,TRADE
QLD1,"2004/06/04 19:00:00",6008.165,36.11,TRADE
QLD1,"2004/06/04 19:30:00",5917.19333,35.93,TRADE
QLD1,"2004/06/04 20:00:00",5874.20833,35.18,TRADE
QLD1,"2004/06/04 20:30:00",5874.68167,36.09,TRADE
QLD1,"2004/06/04 21:00:00",5764.95167,36.01,TRADE
QLD1,"2004/06/04 21:30:00",5613.13167,33.39,TRADE
QLD1,"2004/06/04 22:00:00",5473.60667,31.34,TRADE
QLD1,"2004/06/04 22:30:00",5455.32667,48.37,TRADE
QLD1,"2004/06/04 23:00:00",5292.36833,49.71,TRADE
QLD1,"2004/06/04 23:30:00",5263.16333,58.5,TRADE
QLD1,"2004/06/05 00:00:00",5087.11667,46.09,TRADE
QLD1,"2004/06/05 00:30:00",4880.59,36.98,TRADE
QLD1,"2004/06/05 01:00:00",4701.51833,31.98,TRADE
QLD1,"2004/06/05 01:30:00",4527.83,31.34,TRADE
QLD1,"2004/06/05 02:00:00",4363.57,28.05,TRADE
QLD1,"2004/06/05 02:30:00",4233.95333,20.75,TRADE
QLD1,"2004/06/05 03:00:00",4188.97333,20.57,TRADE
QLD1,"2004/06/05 03:30:00",4135.84167,18.45,TRADE
QLD1,"2004/06/05 04:00:00",4112.68667,18.26,TRADE
QLD1,"2004/06/05 04:30:00",4113.48667,21.56,TRADE
QLD1,"2004/06/05 05:00:00",4139.04667,22.67,TRADE
QLD1,"2004/06/05 05:30:00",4199.48667,25.48,TRADE
QLD1,"2004/06/05 06:00:00",4327.32833,19.92,TRADE
QLD1,"2004/06/05 06:30:00",4498.96333,21.18,TRADE
QLD1,"2004/06/05 07:00:00",4666.61,23.58,TRADE
QLD1,"2004/06/05 07:30:00",4912.50833,24.07,TRADE
QLD1,"2004/06/05 08:00:00",5197.255,29.26,TRADE
QLD1,"2004/06/05 08:30:00",5352.2,35.73,TRADE
QLD1,"2004/06/05 09:00:00",5472.64667,41.12,TRADE
QLD1,"2004/06/05 09:30:00",5521.135,58.07,TRADE
QLD1,"2004/06/05 10:00:00",5478.70167,55.33,TRADE
QLD1,"2004/06/05 10:30:00",5444.62,54.19,TRADE
QLD1,"2004/06/05 11:00:00",5400.81167,38.42,TRADE
QLD1,"2004/06/05 11:30:00",5381.70167,35.46,TRADE
QLD1,"2004/06/05 12:00:00",5404.26167,35.19,TRADE
QLD1,"2004/06/05 12:30:00",5384.49167,30.94,TRADE
QLD1,"2004/06/05 13:00:00",5235.02833,29.04,TRADE
QLD1,"2004/06/05 13:30:00",5153.8,29.19,TRADE
QLD1,"2004/06/05 14:00:00",5113.49333,28.88,TRADE
QLD1,"2004/06/05 14:30:00",5076.66833,25.66,TRADE
QLD1,"2004/06/05 15:00:00",5036.79167,24.97,TRADE
QLD1,"2004/06/05 15:30:00",5065.02167,24.75,TRADE
QLD1,"2004/06/05 16:00:00",5069.845,27.18,TRADE
QLD1,"2004/06/05 16:30:00",5175.64167,28.84,TRADE
QLD1,"2004/06/05 17:00:00",5423.85833,35.47,TRADE
QLD1,"2004/06/05 17:30:00",5817.39667,64.59,TRADE
QLD1,"2004/06/05 18:00:00",5983.24833,92.62,TRADE
QLD1,"2004/06/05 18:30:00",5944.33167,80.26,TRADE
QLD1,"2004/06/05 19:00:00",5827.3,59.4,TRADE
QLD1,"2004/06/05 19:30:00",5755.39,58.04,TRADE
QLD1,"2004/06/05 20:00:00",5704.33167,58.01,TRADE
QLD1,"2004/06/05 20:30:00",5666.08667,51.87,TRADE
QLD1,"2004/06/05 21:00:00",5540.08167,51.49,TRADE
QLD1,"2004/06/05 21:30:00",5420.62333,40.41,TRADE
QLD1,"2004/06/05 22:00:00",5192.19833,36.61,TRADE
QLD1,"2004/06/05 22:30:00",5179.86167,45.6,TRADE
QLD1,"2004/06/05 23:00:00",5113.58667,41.67,TRADE
QLD1,"2004/06/05 23:30:00",5158.79667,47.44,TRADE
QLD1,"2004/06/06 00:00:00",5019.41167,31.24,TRADE
QLD1,"2004/06/06 00:30:00",4811.22667,29.15,TRADE
QLD1,"2004/06/06 01:00:00",4697.26167,25.8,TRADE
QLD1,"2004/06/06 01:30:00",4505.42833,25.72,TRADE
QLD1,"2004/06/06 02:00:00",4382.36167,26.01,TRADE
QLD1,"2004/06/06 02:30:00",4249.505,23.74,TRADE
QLD1,"2004/06/06 03:00:00",4176.42333,22.16,TRADE
QLD1,"2004/06/06 03:30:00",4061.795,17.73,TRADE
QLD1,"2004/06/06 04:00:00",4030.595,17.17,TRADE
QLD1,"2004/06/06 04:30:00",4031.21833,16.83,TRADE
QLD1,"2004/06/06 05:00:00",4055.55,17.96,TRADE
QLD1,"2004/06/06 05:30:00",4092.04833,19.03,TRADE
QLD1,"2004/06/06 06:00:00",4158.13833,18.38,TRADE
QLD1,"2004/06/06 06:30:00",4264.59667,18.43,TRADE
QLD1,"2004/06/06 07:00:00",4386.73667,16.37,TRADE
QLD1,"2004/06/06 07:30:00",4552.46833,14.45,TRADE
QLD1,"2004/06/06 08:00:00",4787.85667,20.95,TRADE
QLD1,"2004/06/06 08:30:00",4953.21667,25.08,TRADE
QLD1,"2004/06/06 09:00:00",5085.445,26.36,TRADE
QLD1,"2004/06/06 09:30:00",5214.92,32.63,TRADE
QLD1,"2004/06/06 10:00:00",5271.93,34.09,TRADE
QLD1,"2004/06/06 10:30:00",5280.18333,31.3,TRADE
QLD1,"2004/06/06 11:00:00",5248.71,28.2,TRADE
QLD1,"2004/06/06 11:30:00",5205.36167,26.13,TRADE
QLD1,"2004/06/06 12:00:00",5238.325,25.68,TRADE
QLD1,"2004/06/06 12:30:00",5223.69,25.8,TRADE
QLD1,"2004/06/06 13:00:00",5206.465,25.02,TRADE
QLD1,"2004/06/06 13:30:00",5093.85,25.07,TRADE
QLD1,"2004/06/06 14:00:00",5042.10667,26,TRADE
QLD1,"2004/06/06 14:30:00",5010.18333,24.37,TRADE
QLD1,"2004/06/06 15:00:00",4950.615,22.71,TRADE
QLD1,"2004/06/06 15:30:00",5033.70833,22.43,TRADE
QLD1,"2004/06/06 16:00:00",5076.57333,21.87,TRADE
QLD1,"2004/06/06 16:30:00",5184.15167,24.95,TRADE
QLD1,"2004/06/06 17:00:00",5406.50333,30.76,TRADE
QLD1,"2004/06/06 17:30:00",5804.16667,44.41,TRADE
QLD1,"2004/06/06 18:00:00",6042.19167,79.19,TRADE
QLD1,"2004/06/06 18:30:00",6079.085,89.48,TRADE
QLD1,"2004/06/06 19:00:00",6011.09167,84.04,TRADE
QLD1,"2004/06/06 19:30:00",5942.09167,64.06,TRADE
QLD1,"2004/06/06 20:00:00",5858.045,42.92,TRADE
QLD1,"2004/06/06 20:30:00",5755.29,40.8,TRADE
QLD1,"2004/06/06 21:00:00",5709.73333,39.77,TRADE
QLD1,"2004/06/06 21:30:00",5487.33667,32.41,TRADE
QLD1,"2004/06/06 22:00:00",5239.87167,25.54,TRADE
QLD1,"2004/06/06 22:30:00",5181.76667,26.71,TRADE
QLD1,"2004/06/06 23:00:00",5115.81333,25.1,TRADE
QLD1,"2004/06/06 23:30:00",5049.835,25.57,TRADE
QLD1,"2004/06/07 00:00:00",4879.48,25.15,TRADE
QLD1,"2004/06/07 00:30:00",4718.445,23.61,TRADE
QLD1,"2004/06/07 01:00:00",4611.14833,22.53,TRADE
QLD1,"2004/06/07 01:30:00",4427.26333,20.38,TRADE
QLD1,"2004/06/07 02:00:00",4355.57167,22.4,TRADE
QLD1,"2004/06/07 02:30:00",4230.165,20.16,TRADE
QLD1,"2004/06/07 03:00:00",4147.88333,21.76,TRADE
QLD1,"2004/06/07 03:30:00",4127.62,18.76,TRADE
QLD1,"2004/06/07 04:00:00",4142.34833,18.1,TRADE
QLD1,"2004/06/07 04:30:00",4153.34833,17.25,TRADE
QLD1,"2004/06/07 05:00:00",4218.81,18.12,TRADE
QLD1,"2004/06/07 05:30:00",4415.35,17.74,TRADE
QLD1,"2004/06/07 06:00:00",4647.28333,17.68,TRADE
QLD1,"2004/06/07 06:30:00",5054.86,23.28,TRADE
QLD1,"2004/06/07 07:00:00",5494.19167,26.7,TRADE
QLD1,"2004/06/07 07:30:00",5915.69333,29.02,TRADE
QLD1,"2004/06/07 08:00:00",6154.85667,36.49,TRADE
QLD1,"2004/06/07 08:30:00",6069.80333,34.16,TRADE
QLD1,"2004/06/07 09:00:00",5977.08667,30.27,TRADE
QLD1,"2004/06/07 09:30:00",6015.05833,34.14,TRADE
QLD1,"2004/06/07 10:00:00",6030.23667,30.53,TRADE
QLD1,"2004/06/07 10:30:00",5991.15667,29.14,TRADE
QLD1,"2004/06/07 11:00:00",5987.33,26.9,TRADE
QLD1,"2004/06/07 11:30:00",5888.69,25.98,TRADE
QLD1,"2004/06/07 12:00:00",5851.25,25.17,TRADE
QLD1,"2004/06/07 12:30:00",5812.12667,25.92,TRADE
QLD1,"2004/06/07 13:00:00",5771.41667,24.68,TRADE
QLD1,"2004/06/07 13:30:00",5727.66,25.99,TRADE
QLD1,"2004/06/07 14:00:00",5703.94833,24.61,TRADE
QLD1,"2004/06/07 14:30:00",5697.45,22.97,TRADE
QLD1,"2004/06/07 15:00:00",5713.61833,21.59,TRADE
QLD1,"2004/06/07 15:30:00",5682.585,20.77,TRADE
QLD1,"2004/06/07 16:00:00",5775.955,22,TRADE
QLD1,"2004/06/07 16:30:00",5957.65833,24.48,TRADE
QLD1,"2004/06/07 17:00:00",6190.09667,29.14,TRADE
QLD1,"2004/06/07 17:30:00",6474.39167,51.79,TRADE
QLD1,"2004/06/07 18:00:00",6628.65167,65.38,TRADE
QLD1,"2004/06/07 18:30:00",6554.23667,63.2,TRADE
QLD1,"2004/06/07 19:00:00",6477.15833,53.78,TRADE
QLD1,"2004/06/07 19:30:00",6278.51333,36.89,TRADE
QLD1,"2004/06/07 20:00:00",6236.99333,34.4,TRADE
QLD1,"2004/06/07 20:30:00",6285.32167,36.12,TRADE
QLD1,"2004/06/07 21:00:00",6177.955,33.71,TRADE
QLD1,"2004/06/07 21:30:00",5963.545,31.83,TRADE
QLD1,"2004/06/07 22:00:00",5783.97333,28.76,TRADE
QLD1,"2004/06/07 22:30:00",5647.4,31.7,TRADE
QLD1,"2004/06/07 23:00:00",5400.22667,31.2,TRADE
QLD1,"2004/06/07 23:30:00",5380.9,35.34,TRADE
QLD1,"2004/06/08 00:00:00",5196.245,32.36,TRADE
QLD1,"2004/06/08 00:30:00",4964.25167,31.06,TRADE
QLD1,"2004/06/08 01:00:00",4850.66,32.42,TRADE
QLD1,"2004/06/08 01:30:00",4637.41,27.48,TRADE
QLD1,"2004/06/08 02:00:00",4441.63167,24.87,TRADE
QLD1,"2004/06/08 02:30:00",4334.14833,22.19,TRADE
QLD1,"2004/06/08 03:00:00",4291.34667,20.23,TRADE
QLD1,"2004/06/08 03:30:00",4252.77833,18.37,TRADE
QLD1,"2004/06/08 04:00:00",4199.45667,17.43,TRADE
QLD1,"2004/06/08 04:30:00",4224.41333,17.46,TRADE
QLD1,"2004/06/08 05:00:00",4264.57333,18.18,TRADE
QLD1,"2004/06/08 05:30:00",4448.94333,19.92,TRADE
QLD1,"2004/06/08 06:00:00",4704.40167,22.15,TRADE
QLD1,"2004/06/08 06:30:00",5110.28667,25.45,TRADE
QLD1,"2004/06/08 07:00:00",5568.155,34.58,TRADE
QLD1,"2004/06/08 07:30:00",5929.49333,32.3,TRADE
QLD1,"2004/06/08 08:00:00",6054.32833,37.55,TRADE
QLD1,"2004/06/08 08:30:00",6047.80667,34.59,TRADE
QLD1,"2004/06/08 09:00:00",5870.285,30.48,TRADE
QLD1,"2004/06/08 09:30:00",5887.685,31.28,TRADE
QLD1,"2004/06/08 10:00:00",5889.44667,29.21,TRADE
QLD1,"2004/06/08 10:30:00",5903.79,27.7,TRADE
QLD1,"2004/06/08 11:00:00",5892.11667,27.77,TRADE
QLD1,"2004/06/08 11:30:00",5859.175,27.23,TRADE
QLD1,"2004/06/08 12:00:00",5795.93667,26,TRADE
QLD1,"2004/06/08 12:30:00",5720.41333,25.64,TRADE
QLD1,"2004/06/08 13:00:00",5678.435,25.98,TRADE
QLD1,"2004/06/08 13:30:00",5677.28167,26,TRADE
QLD1,"2004/06/08 14:00:00",5683.14833,26,TRADE
QLD1,"2004/06/08 14:30:00",5701.03333,25.03,TRADE
QLD1,"2004/06/08 15:00:00",5638.03667,22.59,TRADE
QLD1,"2004/06/08 15:30:00",5625.35667,20.63,TRADE
QLD1,"2004/06/08 16:00:00",5707.82333,25.64,TRADE
QLD1,"2004/06/08 16:30:00",5815.95333,25.27,TRADE
QLD1,"2004/06/08 17:00:00",5961.30333,26.23,TRADE
QLD1,"2004/06/08 17:30:00",6271.265,38.91,TRADE
QLD1,"2004/06/08 18:00:00",6433.21333,54.58,TRADE
QLD1,"2004/06/08 18:30:00",6376.41167,50.88,TRADE
QLD1,"2004/06/08 19:00:00",6326.11167,41.34,TRADE
QLD1,"2004/06/08 19:30:00",6200.85833,33.42,TRADE
QLD1,"2004/06/08 20:00:00",6149.72167,31.24,TRADE
QLD1,"2004/06/08 20:30:00",6209.065,35.89,TRADE
QLD1,"2004/06/08 21:00:00",6039.525,28.59,TRADE
QLD1,"2004/06/08 21:30:00",5811.40833,26.49,TRADE
QLD1,"2004/06/08 22:00:00",5682.66833,25.72,TRADE
QLD1,"2004/06/08 22:30:00",5584.71167,31.91,TRADE
QLD1,"2004/06/08 23:00:00",5405.085,27.88,TRADE
QLD1,"2004/06/08 23:30:00",5285.71,31.73,TRADE
QLD1,"2004/06/09 00:00:00",5140.13667,27.89,TRADE
QLD1,"2004/06/09 00:30:00",4916.89333,25.43,TRADE
QLD1,"2004/06/09 01:00:00",4769.36333,24.02,TRADE
QLD1,"2004/06/09 01:30:00",4588.62667,22.87,TRADE
QLD1,"2004/06/09 02:00:00",4492.76167,20.32,TRADE
QLD1,"2004/06/09 02:30:00",4381.15667,17.61,TRADE
QLD1,"2004/06/09 03:00:00",4284.72833,17.35,TRADE
QLD1,"2004/06/09 03:30:00",4256.77,16.45,TRADE
QLD1,"2004/06/09 04:00:00",4250.31667,16.11,TRADE
QLD1,"2004/06/09 04:30:00",4247.22,16.1,TRADE
QLD1,"2004/06/09 05:00:00",4260.27667,16.75,TRADE
QLD1,"2004/06/09 05:30:00",4463.86833,19.15,TRADE
QLD1,"2004/06/09 06:00:00",4747.455,20.82,TRADE
QLD1,"2004/06/09 06:30:00",5178.87667,29.76,TRADE
QLD1,"2004/06/09 07:00:00",5573.12833,31.14,TRADE
QLD1,"2004/06/09 07:30:00",5989.54833,26.73,TRADE
QLD1,"2004/06/09 08:00:00",6162.92833,35.61,TRADE
QLD1,"2004/06/09 08:30:00",6038.99667,34.93,TRADE
QLD1,"2004/06/09 09:00:00",5858.06333,30.84,TRADE
QLD1,"2004/06/09 09:30:00",5928.965,32.17,TRADE
QLD1,"2004/06/09 10:00:00",5857.325,27.37,TRADE
QLD1,"2004/06/09 10:30:00",5859.335,27.01,TRADE
QLD1,"2004/06/09 11:00:00",5789.47,30.75,TRADE
QLD1,"2004/06/09 11:30:00",5508.305,25.99,TRADE
QLD1,"2004/06/09 12:00:00",5621.82,26.72,TRADE
QLD1,"2004/06/09 12:30:00",5579.82,25.32,TRADE
QLD1,"2004/06/09 13:00:00",5631.30667,25.42,TRADE
QLD1,"2004/06/09 13:30:00",5653.69,25.54,TRADE
QLD1,"2004/06/09 14:00:00",5649.495,25.3,TRADE
QLD1,"2004/06/09 14:30:00",5652.48,25.59,TRADE
QLD1,"2004/06/09 15:00:00",5627.44333,25.38,TRADE
QLD1,"2004/06/09 15:30:00",5625.28833,24.27,TRADE
QLD1,"2004/06/09 16:00:00",5672.30333,23.76,TRADE
QLD1,"2004/06/09 16:30:00",5764.84667,24.48,TRADE
QLD1,"2004/06/09 17:00:00",5942.665,26.22,TRADE
QLD1,"2004/06/09 17:30:00",6245.73167,41.68,TRADE
QLD1,"2004/06/09 18:00:00",6403.84167,56.73,TRADE
QLD1,"2004/06/09 18:30:00",6359.815,44.71,TRADE
QLD1,"2004/06/09 19:00:00",6297.715,36.79,TRADE
QLD1,"2004/06/09 19:30:00",6163.01333,34.98,TRADE
QLD1,"2004/06/09 20:00:00",6152.71833,32.67,TRADE
QLD1,"2004/06/09 20:30:00",6216.84333,35.14,TRADE
QLD1,"2004/06/09 21:00:00",6102.79667,34.36,TRADE
QLD1,"2004/06/09 21:30:00",5896.32667,28.26,TRADE
QLD1,"2004/06/09 22:00:00",5734.845,23.74,TRADE
QLD1,"2004/06/09 22:30:00",5593.61,29.81,TRADE
QLD1,"2004/06/09 23:00:00",5407.41,27.04,TRADE
QLD1,"2004/06/09 23:30:00",5369.955,34.12,TRADE
QLD1,"2004/06/10 00:00:00",5153.27833,30.47,TRADE
QLD1,"2004/06/10 00:30:00",4902.67,26.02,TRADE
QLD1,"2004/06/10 01:00:00",4740.045,22.62,TRADE
QLD1,"2004/06/10 01:30:00",4559.45833,24.86,TRADE
QLD1,"2004/06/10 02:00:00",4384.515,23.14,TRADE
QLD1,"2004/06/10 02:30:00",4305.90333,18.13,TRADE
QLD1,"2004/06/10 03:00:00",4248.68333,16.64,TRADE
QLD1,"2004/06/10 03:30:00",4214.385,16.4,TRADE
QLD1,"2004/06/10 04:00:00",4175.08333,16,TRADE
QLD1,"2004/06/10 04:30:00",4193.42,15.82,TRADE
QLD1,"2004/06/10 05:00:00",4250.03833,16.07,TRADE
QLD1,"2004/06/10 05:30:00",4454.04333,17.02,TRADE
QLD1,"2004/06/10 06:00:00",4729.44333,18.71,TRADE
QLD1,"2004/06/10 06:30:00",5158.19,24.29,TRADE
QLD1,"2004/06/10 07:00:00",5552.34833,24.86,TRADE
QLD1,"2004/06/10 07:30:00",5914.70333,28.94,TRADE
QLD1,"2004/06/10 08:00:00",6111.15833,36.78,TRADE
QLD1,"2004/06/10 08:30:00",6038.735,35.86,TRADE
QLD1,"2004/06/10 09:00:00",5867.29833,34.94,TRADE
QLD1,"2004/06/10 09:30:00",5886.84833,35.18,TRADE
QLD1,"2004/06/10 10:00:00",5891.06833,34.67,TRADE
QLD1,"2004/06/10 10:30:00",5876.96,27.74,TRADE
QLD1,"2004/06/10 11:00:00",5847.01167,26.97,TRADE
QLD1,"2004/06/10 11:30:00",5821.66167,26.91,TRADE
QLD1,"2004/06/10 12:00:00",5777.19,26.69,TRADE
QLD1,"2004/06/10 12:30:00",5705.385,26.51,TRADE
QLD1,"2004/06/10 13:00:00",5650.57,25.1,TRADE
QLD1,"2004/06/10 13:30:00",5622.77333,26.1,TRADE
QLD1,"2004/06/10 14:00:00",5582.38667,25.88,TRADE
QLD1,"2004/06/10 14:30:00",5633.22667,25.77,TRADE
QLD1,"2004/06/10 15:00:00",5586.05667,21.99,TRADE
QLD1,"2004/06/10 15:30:00",5574.04333,18.75,TRADE
QLD1,"2004/06/10 16:00:00",5666.525,22.89,TRADE
QLD1,"2004/06/10 16:30:00",5725.17833,22.65,TRADE
QLD1,"2004/06/10 17:00:00",5788.47167,25.45,TRADE
QLD1,"2004/06/10 17:30:00",6069.27833,32.41,TRADE
QLD1,"2004/06/10 18:00:00",6285.23167,37,TRADE
QLD1,"2004/06/10 18:30:00",6259.505,50.08,TRADE
QLD1,"2004/06/10 19:00:00",6297.03333,44.7,TRADE
QLD1,"2004/06/10 19:30:00",6231.48167,35.53,TRADE
QLD1,"2004/06/10 20:00:00",6216.05833,32.89,TRADE
QLD1,"2004/06/10 20:30:00",6158.645,29.38,TRADE
QLD1,"2004/06/10 21:00:00",6092.63833,28.94,TRADE
QLD1,"2004/06/10 21:30:00",5864.30667,26.53,TRADE
QLD1,"2004/06/10 22:00:00",5770.195,25.56,TRADE
QLD1,"2004/06/10 22:30:00",5707.51667,32.71,TRADE
QLD1,"2004/06/10 23:00:00",5491.04833,29.4,TRADE
QLD1,"2004/06/10 23:30:00",5456.605,35.02,TRADE
QLD1,"2004/06/11 00:00:00",5223.36667,28.02,TRADE
QLD1,"2004/06/11 00:30:00",4998.36167,24.08,TRADE
QLD1,"2004/06/11 01:00:00",4807.675,21.2,TRADE
QLD1,"2004/06/11 01:30:00",4650.09667,21.25,TRADE
QLD1,"2004/06/11 02:00:00",4487.36333,17.79,TRADE
QLD1,"2004/06/11 02:30:00",4323.90667,16.41,TRADE
QLD1,"2004/06/11 03:00:00",4268.815,16.32,TRADE
QLD1,"2004/06/11 03:30:00",4224.54167,16.8,TRADE
QLD1,"2004/06/11 04:00:00",4233.42,16.8,TRADE
QLD1,"2004/06/11 04:30:00",4297.30833,16.84,TRADE
QLD1,"2004/06/11 05:00:00",4320.22167,16.79,TRADE
QLD1,"2004/06/11 05:30:00",4521.28833,17.05,TRADE
QLD1,"2004/06/11 06:00:00",4734.51333,19.83,TRADE
QLD1,"2004/06/11 06:30:00",5204.16667,25.69,TRADE
QLD1,"2004/06/11 07:00:00",5588.67833,25.57,TRADE
QLD1,"2004/06/11 07:30:00",5984.55,28.67,TRADE
QLD1,"2004/06/11 08:00:00",6107.68333,34.34,TRADE
QLD1,"2004/06/11 08:30:00",6043.635,27.95,TRADE
QLD1,"2004/06/11 09:00:00",5860.40167,26.03,TRADE
QLD1,"2004/06/11 09:30:00",5940.79833,26.51,TRADE
QLD1,"2004/06/11 10:00:00",5902.64667,26,TRADE
QLD1,"2004/06/11 10:30:00",5877.05833,25.86,TRADE
QLD1,"2004/06/11 11:00:00",5873.89167,24.78,TRADE
QLD1,"2004/06/11 11:30:00",5808.685,25.13,TRADE
QLD1,"2004/06/11 12:00:00",5739.97667,23.21,TRADE
QLD1,"2004/06/11 12:30:00",5664.465,21.55,TRADE
QLD1,"2004/06/11 13:00:00",5637.88,20.44,TRADE
QLD1,"2004/06/11 13:30:00",5591.98833,20.76,TRADE
QLD1,"2004/06/11 14:00:00",5557.86333,22.56,TRADE
QLD1,"2004/06/11 14:30:00",5547.61667,19.05,TRADE
QLD1,"2004/06/11 15:00:00",5505.96667,18.73,TRADE
QLD1,"2004/06/11 15:30:00",5497.945,18.07,TRADE
QLD1,"2004/06/11 16:00:00",5568.10333,18.04,TRADE
QLD1,"2004/06/11 16:30:00",5647.87667,20.33,TRADE
QLD1,"2004/06/11 17:00:00",5822.54833,23.83,TRADE
QLD1,"2004/06/11 17:30:00",6008.77333,30.35,TRADE
QLD1,"2004/06/11 18:00:00",6150.94,35.22,TRADE
QLD1,"2004/06/11 18:30:00",6078.87833,35.05,TRADE
QLD1,"2004/06/11 19:00:00",6041.96167,33.9,TRADE
QLD1,"2004/06/11 19:30:00",5932.93667,33.43,TRADE
QLD1,"2004/06/11 20:00:00",5915.61833,27.43,TRADE
QLD1,"2004/06/11 20:30:00",5916.54,28.4,TRADE
QLD1,"2004/06/11 21:00:00",5847.94333,26.31,TRADE
QLD1,"2004/06/11 21:30:00",5684.54667,26,TRADE
QLD1,"2004/06/11 22:00:00",5599.89167,25.51,TRADE
QLD1,"2004/06/11 22:30:00",5560.96,31.96,TRADE
QLD1,"2004/06/11 23:00:00",5415.02167,28.65,TRADE
QLD1,"2004/06/11 23:30:00",5389.54,32.8,TRADE
QLD1,"2004/06/12 00:00:00",5174.205,27.66,TRADE
QLD1,"2004/06/12 00:30:00",4948.52167,25.87,TRADE
QLD1,"2004/06/12 01:00:00",4798.19833,23.97,TRADE
QLD1,"2004/06/12 01:30:00",4588.49667,23.64,TRADE
QLD1,"2004/06/12 02:00:00",4424.20333,21.73,TRADE
QLD1,"2004/06/12 02:30:00",4305.49,18.78,TRADE
QLD1,"2004/06/12 03:00:00",4226.98167,17.25,TRADE
QLD1,"2004/06/12 03:30:00",4175.39167,15.9,TRADE
QLD1,"2004/06/12 04:00:00",4132.73167,15.25,TRADE
QLD1,"2004/06/12 04:30:00",4152.28333,15.16,TRADE
QLD1,"2004/06/12 05:00:00",4179.42,14.61,TRADE
QLD1,"2004/06/12 05:30:00",4267.43833,18.87,TRADE
QLD1,"2004/06/12 06:00:00",4351.39167,17.84,TRADE
QLD1,"2004/06/12 06:30:00",4502.69833,17.17,TRADE
QLD1,"2004/06/12 07:00:00",4624.84167,18.33,TRADE
QLD1,"2004/06/12 07:30:00",4871.56667,16.22,TRADE
QLD1,"2004/06/12 08:00:00",5159.82167,23.08,TRADE
QLD1,"2004/06/12 08:30:00",5322.085,29.32,TRADE
QLD1,"2004/06/12 09:00:00",5364.515,29.99,TRADE
QLD1,"2004/06/12 09:30:00",5411.87833,33.55,TRADE
QLD1,"2004/06/12 10:00:00",5433.47333,33.47,TRADE
QLD1,"2004/06/12 10:30:00",5384.62333,33.34,TRADE
QLD1,"2004/06/12 11:00:00",5368.265,28.4,TRADE
QLD1,"2004/06/12 11:30:00",5308.31667,23.55,TRADE
QLD1,"2004/06/12 12:00:00",5297.23167,22.53,TRADE
QLD1,"2004/06/12 12:30:00",5251.86333,19.77,TRADE
QLD1,"2004/06/12 13:00:00",5190.06,19.21,TRADE
QLD1,"2004/06/12 13:30:00",5112.99333,18.79,TRADE
QLD1,"2004/06/12 14:00:00",5011.96833,18.5,TRADE
QLD1,"2004/06/12 14:30:00",4991.26833,17.6,TRADE
QLD1,"2004/06/12 15:00:00",5000.59667,16.65,TRADE
QLD1,"2004/06/12 15:30:00",5038.13333,16.88,TRADE
QLD1,"2004/06/12 16:00:00",5033.31,17.52,TRADE
QLD1,"2004/06/12 16:30:00",5084.86833,19,TRADE
QLD1,"2004/06/12 17:00:00",5340.41333,26.03,TRADE
QLD1,"2004/06/12 17:30:00",5661.69667,39.81,TRADE
QLD1,"2004/06/12 18:00:00",5911.62667,57.11,TRADE
QLD1,"2004/06/12 18:30:00",5873.03833,39.5,TRADE
QLD1,"2004/06/12 19:00:00",5852.755,51.42,TRADE
QLD1,"2004/06/12 19:30:00",5786.97167,40.15,TRADE
QLD1,"2004/06/12 20:00:00",5714.72333,34.11,TRADE
QLD1,"2004/06/12 20:30:00",5645.02667,29.61,TRADE
QLD1,"2004/06/12 21:00:00",5568.97667,25.05,TRADE
QLD1,"2004/06/12 21:30:00",5443.37,23.2,TRADE
QLD1,"2004/06/12 22:00:00",5291.09833,21.72,TRADE
QLD1,"2004/06/12 22:30:00",5211.98,26.34,TRADE
QLD1,"2004/06/12 23:00:00",5141.18,22.69,TRADE
QLD1,"2004/06/12 23:30:00",5130.41833,23.8,TRADE
QLD1,"2004/06/13 00:00:00",5005.23333,22.41,TRADE
QLD1,"2004/06/13 00:30:00",4765.83167,22.75,TRADE
QLD1,"2004/06/13 01:00:00",4656.81167,20.67,TRADE
QLD1,"2004/06/13 01:30:00",4510.335,18.56,TRADE
QLD1,"2004/06/13 02:00:00",4382.11833,15.98,TRADE
QLD1,"2004/06/13 02:30:00",4260.125,14.52,TRADE
QLD1,"2004/06/13 03:00:00",4199.51,16.18,TRADE
QLD1,"2004/06/13 03:30:00",4133.85833,15.85,TRADE
QLD1,"2004/06/13 04:00:00",4119.38833,15.43,TRADE
QLD1,"2004/06/13 04:30:00",4094.30667,15.7,TRADE
QLD1,"2004/06/13 05:00:00",4087.56333,15.19,TRADE
QLD1,"2004/06/13 05:30:00",4139.67333,14.52,TRADE
QLD1,"2004/06/13 06:00:00",4217.455,14.66,TRADE
QLD1,"2004/06/13 06:30:00",4298.30333,13.54,TRADE
QLD1,"2004/06/13 07:00:00",4387.12333,13.37,TRADE
QLD1,"2004/06/13 07:30:00",4599.885,11.6,TRADE
QLD1,"2004/06/13 08:00:00",4871.48833,17.52,TRADE
QLD1,"2004/06/13 08:30:00",4989.08167,19.87,TRADE
QLD1,"2004/06/13 09:00:00",5040.06333,22.7,TRADE
QLD1,"2004/06/13 09:30:00",5123.66833,22.7,TRADE
QLD1,"2004/06/13 10:00:00",5088.775,22.7,TRADE
QLD1,"2004/06/13 10:30:00",5071.13,22.67,TRADE
QLD1,"2004/06/13 11:00:00",5079.93667,22.46,TRADE
QLD1,"2004/06/13 11:30:00",5043.69,20.22,TRADE
QLD1,"2004/06/13 12:00:00",5041.03667,17.45,TRADE
QLD1,"2004/06/13 12:30:00",5065.755,17.78,TRADE
QLD1,"2004/06/13 13:00:00",4982.49833,16.57,TRADE
QLD1,"2004/06/13 13:30:00",4884.89,16.65,TRADE
QLD1,"2004/06/13 14:00:00",4826.16167,16.47,TRADE
QLD1,"2004/06/13 14:30:00",4781.20833,14.93,TRADE
QLD1,"2004/06/13 15:00:00",4762.27333,14.2,TRADE
QLD1,"2004/06/13 15:30:00",4861.28167,14.09,TRADE
QLD1,"2004/06/13 16:00:00",4894.22167,14.99,TRADE
QLD1,"2004/06/13 16:30:00",4967.49833,15.66,TRADE
QLD1,"2004/06/13 17:00:00",5156.54,20.74,TRADE
QLD1,"2004/06/13 17:30:00",5507.46833,26.92,TRADE
QLD1,"2004/06/13 18:00:00",5804.36833,37.05,TRADE
QLD1,"2004/06/13 18:30:00",5879.73,47.38,TRADE
QLD1,"2004/06/13 19:00:00",5762.245,35.14,TRADE
QLD1,"2004/06/13 19:30:00",5672.63833,34.68,TRADE
QLD1,"2004/06/13 20:00:00",5609.10333,28.49,TRADE
QLD1,"2004/06/13 20:30:00",5571.54333,26.94,TRADE
QLD1,"2004/06/13 21:00:00",5489.18333,24.92,TRADE
QLD1,"2004/06/13 21:30:00",5415.21833,22.79,TRADE
QLD1,"2004/06/13 22:00:00",5232.21,22.62,TRADE
QLD1,"2004/06/13 22:30:00",5197.805,26.94,TRADE
QLD1,"2004/06/13 23:00:00",5086.01167,22.91,TRADE
QLD1,"2004/06/13 23:30:00",5134.79,24.11,TRADE
QLD1,"2004/06/14 00:00:00",4931.95167,22.75,TRADE
QLD1,"2004/06/14 00:30:00",4727.07333,22.42,TRADE
QLD1,"2004/06/14 01:00:00",4575.29833,18.39,TRADE
QLD1,"2004/06/14 01:30:00",4434.67833,18.81,TRADE
QLD1,"2004/06/14 02:00:00",4328.87,16.35,TRADE
QLD1,"2004/06/14 02:30:00",4189.46667,14.78,TRADE
QLD1,"2004/06/14 03:00:00",4152.30167,13.85,TRADE
QLD1,"2004/06/14 03:30:00",4084.01167,10.44,TRADE
QLD1,"2004/06/14 04:00:00",4045.23667,11.88,TRADE
QLD1,"2004/06/14 04:30:00",4037.89667,10.66,TRADE
QLD1,"2004/06/14 05:00:00",4112.925,13.93,TRADE
QLD1,"2004/06/14 05:30:00",4178.31667,10.68,TRADE
QLD1,"2004/06/14 06:00:00",4250.19167,13.52,TRADE
QLD1,"2004/06/14 06:30:00",4386.365,14.66,TRADE
QLD1,"2004/06/14 07:00:00",4499.11667,10.91,TRADE
QLD1,"2004/06/14 07:30:00",4705.07,10.94,TRADE
QLD1,"2004/06/14 08:00:00",4950.09667,13.94,TRADE
QLD1,"2004/06/14 08:30:00",5094.795,16.97,TRADE
QLD1,"2004/06/14 09:00:00",5235.435,17.9,TRADE
QLD1,"2004/06/14 09:30:00",5269.41167,19.47,TRADE
QLD1,"2004/06/14 10:00:00",5278.76167,22.17,TRADE
QLD1,"2004/06/14 10:30:00",5303.01833,22.96,TRADE
QLD1,"2004/06/14 11:00:00",5329.67,22.65,TRADE
QLD1,"2004/06/14 11:30:00",5299.075,18.41,TRADE
QLD1,"2004/06/14 12:00:00",5208.89,17.11,TRADE
QLD1,"2004/06/14 12:30:00",5125.02333,16.79,TRADE
QLD1,"2004/06/14 13:00:00",5090.70333,16.66,TRADE
QLD1,"2004/06/14 13:30:00",4989.32167,16.66,TRADE
QLD1,"2004/06/14 14:00:00",4946.99,17.08,TRADE
QLD1,"2004/06/14 14:30:00",4920.30333,16.12,TRADE
QLD1,"2004/06/14 15:00:00",4878.64667,15.39,TRADE
QLD1,"2004/06/14 15:30:00",4907.23333,15.92,TRADE
QLD1,"2004/06/14 16:00:00",4957.39167,16.78,TRADE
QLD1,"2004/06/14 16:30:00",5154.18833,17.98,TRADE
QLD1,"2004/06/14 17:00:00",5359.74667,22.69,TRADE
QLD1,"2004/06/14 17:30:00",5758.06167,34.64,TRADE
QLD1,"2004/06/14 18:00:00",6034.82667,56.64,TRADE
QLD1,"2004/06/14 18:30:00",6011.99167,50.93,TRADE
QLD1,"2004/06/14 19:00:00",5945.15167,42.49,TRADE
QLD1,"2004/06/14 19:30:00",5850.855,37.22,TRADE
QLD1,"2004/06/14 20:00:00",5796.04333,31.07,TRADE
QLD1,"2004/06/14 20:30:00",5820.35,30.31,TRADE
QLD1,"2004/06/14 21:00:00",5734.4,25.26,TRADE
QLD1,"2004/06/14 21:30:00",5558.075,23.38,TRADE
QLD1,"2004/06/14 22:00:00",5432.89667,21.38,TRADE
QLD1,"2004/06/14 22:30:00",5301.215,23.99,TRADE
QLD1,"2004/06/14 23:00:00",5175.06,20.55,TRADE
QLD1,"2004/06/14 23:30:00",5160.27,23.22,TRADE
QLD1,"2004/06/15 00:00:00",5028.43167,23.18,TRADE
QLD1,"2004/06/15 00:30:00",4840.38,22.74,TRADE
QLD1,"2004/06/15 01:00:00",4705.545,22.67,TRADE
QLD1,"2004/06/15 01:30:00",4564.76667,21.79,TRADE
QLD1,"2004/06/15 02:00:00",4410.17,18.89,TRADE
QLD1,"2004/06/15 02:30:00",4272.63833,16.22,TRADE
QLD1,"2004/06/15 03:00:00",4262.02333,15.06,TRADE
QLD1,"2004/06/15 03:30:00",4204.34167,14.5,TRADE
QLD1,"2004/06/15 04:00:00",4159.3,11.96,TRADE
QLD1,"2004/06/15 04:30:00",4195.00167,11.69,TRADE
QLD1,"2004/06/15 05:00:00",4241.295,11.46,TRADE
QLD1,"2004/06/15 05:30:00",4484.21,15.71,TRADE
QLD1,"2004/06/15 06:00:00",4747.925,14.32,TRADE
QLD1,"2004/06/15 06:30:00",5203.325,19.74,TRADE
QLD1,"2004/06/15 07:00:00",5622.12667,20.62,TRADE
QLD1,"2004/06/15 07:30:00",6041.18833,21.85,TRADE
QLD1,"2004/06/15 08:00:00",6224.14333,24.99,TRADE
QLD1,"2004/06/15 08:30:00",6136.235,23.62,TRADE
QLD1,"2004/06/15 09:00:00",5901.39167,19.57,TRADE
QLD1,"2004/06/15 09:30:00",5948.55833,20.7,TRADE
QLD1,"2004/06/15 10:00:00",5880.755,20.72,TRADE
QLD1,"2004/06/15 10:30:00",5908.11667,18.58,TRADE
QLD1,"2004/06/15 11:00:00",5861.61,18.62,TRADE
QLD1,"2004/06/15 11:30:00",5828.60333,17.64,TRADE
QLD1,"2004/06/15 12:00:00",5759.565,16.97,TRADE
QLD1,"2004/06/15 12:30:00",5752.03667,16.72,TRADE
QLD1,"2004/06/15 13:00:00",5699.245,19.16,TRADE
QLD1,"2004/06/15 13:30:00",5677.05333,19.6,TRADE
QLD1,"2004/06/15 14:00:00",5682.24167,18.17,TRADE
QLD1,"2004/06/15 14:30:00",5701.29333,15.85,TRADE
QLD1,"2004/06/15 15:00:00",5642.22333,14.55,TRADE
QLD1,"2004/06/15 15:30:00",5681.52333,15.69,TRADE
QLD1,"2004/06/15 16:00:00",5689.815,15.98,TRADE
QLD1,"2004/06/15 16:30:00",5777.285,16.88,TRADE
QLD1,"2004/06/15 17:00:00",5968.07333,20.33,TRADE
QLD1,"2004/06/15 17:30:00",6277.6,24.38,TRADE
QLD1,"2004/06/15 18:00:00",6483.835,34.08,TRADE
QLD1,"2004/06/15 18:30:00",6412.505,26.14,TRADE
QLD1,"2004/06/15 19:00:00",6336.60833,26.25,TRADE
QLD1,"2004/06/15 19:30:00",6196.39333,26.09,TRADE
QLD1,"2004/06/15 20:00:00",6186.33667,23.53,TRADE
QLD1,"2004/06/15 20:30:00",6232.54667,31.8,TRADE
QLD1,"2004/06/15 21:00:00",6063.99833,26.19,TRADE
QLD1,"2004/06/15 21:30:00",5870.51167,22.69,TRADE
QLD1,"2004/06/15 22:00:00",5793.21167,21.4,TRADE
QLD1,"2004/06/15 22:30:00",5654.61833,22.67,TRADE
QLD1,"2004/06/15 23:00:00",5421.25,20.09,TRADE
QLD1,"2004/06/15 23:30:00",5371.06833,25.34,TRADE
QLD1,"2004/06/16 00:00:00",5206.53,26,TRADE
QLD1,"2004/06/16 00:30:00",4989.79833,22.89,TRADE
QLD1,"2004/06/16 01:00:00",4870.66667,18.4,TRADE
QLD1,"2004/06/16 01:30:00",4661.10333,19.95,TRADE
QLD1,"2004/06/16 02:00:00",4494.22333,16.41,TRADE
QLD1,"2004/06/16 02:30:00",4377.10167,15.2,TRADE
QLD1,"2004/06/16 03:00:00",4310.1,14.37,TRADE
QLD1,"2004/06/16 03:30:00",4239.26167,13.53,TRADE
QLD1,"2004/06/16 04:00:00",4231.21667,13.19,TRADE
QLD1,"2004/06/16 04:30:00",4270.79833,13.01,TRADE
QLD1,"2004/06/16 05:00:00",4348.43333,12.86,TRADE
QLD1,"2004/06/16 05:30:00",4491.76833,14.44,TRADE
QLD1,"2004/06/16 06:00:00",4712.64833,15.77,TRADE
QLD1,"2004/06/16 06:30:00",5225.34833,21.46,TRADE
QLD1,"2004/06/16 07:00:00",5648.38,23.97,TRADE
QLD1,"2004/06/16 07:30:00",6049.34167,24.23,TRADE
QLD1,"2004/06/16 08:00:00",6199.645,33.13,TRADE
QLD1,"2004/06/16 08:30:00",6072.37,28.74,TRADE
QLD1,"2004/06/16 09:00:00",5949.97333,23.15,TRADE
QLD1,"2004/06/16 09:30:00",5929.75333,22.04,TRADE
QLD1,"2004/06/16 10:00:00",5906.515,22.62,TRADE
QLD1,"2004/06/16 10:30:00",5877.42833,22.2,TRADE
QLD1,"2004/06/16 11:00:00",5849.02333,22.7,TRADE
QLD1,"2004/06/16 11:30:00",5743.63,16.23,TRADE
QLD1,"2004/06/16 12:00:00",5696.54333,18.63,TRADE
QLD1,"2004/06/16 12:30:00",5631.375,19.32,TRADE
QLD1,"2004/06/16 13:00:00",5559.045,18.41,TRADE
QLD1,"2004/06/16 13:30:00",5563.68,19.04,TRADE
QLD1,"2004/06/16 14:00:00",5543.87,18.84,TRADE
QLD1,"2004/06/16 14:30:00",5539.85667,19.01,TRADE
QLD1,"2004/06/16 15:00:00",5525.46667,17.25,TRADE
QLD1,"2004/06/16 15:30:00",5514.75167,16.37,TRADE
QLD1,"2004/06/16 16:00:00",5576.265,15.91,TRADE
QLD1,"2004/06/16 16:30:00",5639.6,20.13,TRADE
QLD1,"2004/06/16 17:00:00",5858.74333,24.1,TRADE
QLD1,"2004/06/16 17:30:00",6151.905,27.29,TRADE
QLD1,"2004/06/16 18:00:00",6405.93,32.54,TRADE
QLD1,"2004/06/16 18:30:00",6446.61667,33.33,TRADE
QLD1,"2004/06/16 19:00:00",6436.01167,31.46,TRADE
QLD1,"2004/06/16 19:30:00",6321.765,34.33,TRADE
QLD1,"2004/06/16 20:00:00",6310.46167,34.3,TRADE
QLD1,"2004/06/16 20:30:00",6326.46167,34.34,TRADE
QLD1,"2004/06/16 21:00:00",6133.125,33.11,TRADE
QLD1,"2004/06/16 21:30:00",6029.02,31.09,TRADE
QLD1,"2004/06/16 22:00:00",5963.4,29.25,TRADE
QLD1,"2004/06/16 22:30:00",5754.445,31.87,TRADE
QLD1,"2004/06/16 23:00:00",5545.845,24.86,TRADE
QLD1,"2004/06/16 23:30:00",5458.93,32.94,TRADE
QLD1,"2004/06/17 00:00:00",5276.11667,27.7,TRADE
QLD1,"2004/06/17 00:30:00",5032.04167,23.6,TRADE
QLD1,"2004/06/17 01:00:00",4875.64333,22.7,TRADE
QLD1,"2004/06/17 01:30:00",4660.12667,25.22,TRADE
QLD1,"2004/06/17 02:00:00",4574.69167,21.72,TRADE
QLD1,"2004/06/17 02:30:00",4396.47833,17.24,TRADE
QLD1,"2004/06/17 03:00:00",4336.02,16.06,TRADE
QLD1,"2004/06/17 03:30:00",4270.17167,16.2,TRADE
QLD1,"2004/06/17 04:00:00",4272.08167,16.43,TRADE
QLD1,"2004/06/17 04:30:00",4320.11,16.2,TRADE
QLD1,"2004/06/17 05:00:00",4384.79,16.48,TRADE
QLD1,"2004/06/17 05:30:00",4596.075,17.18,TRADE
QLD1,"2004/06/17 06:00:00",4922.66833,16.88,TRADE
QLD1,"2004/06/17 06:30:00",5367.19667,24.83,TRADE
QLD1,"2004/06/17 07:00:00",5815.30167,29.26,TRADE
QLD1,"2004/06/17 07:30:00",6205.51667,31.82,TRADE
QLD1,"2004/06/17 08:00:00",6388.835,35.56,TRADE
QLD1,"2004/06/17 08:30:00",6289.99667,33.02,TRADE
QLD1,"2004/06/17 09:00:00",6169.7,28.11,TRADE
QLD1,"2004/06/17 09:30:00",6180.47167,32.71,TRADE
QLD1,"2004/06/17 10:00:00",6079.29667,31.41,TRADE
QLD1,"2004/06/17 10:30:00",6053.41667,28.94,TRADE
QLD1,"2004/06/17 11:00:00",5973.35667,29.25,TRADE
QLD1,"2004/06/17 11:30:00",5918.25167,27.04,TRADE
QLD1,"2004/06/17 12:00:00",5801.685,24.03,TRADE
QLD1,"2004/06/17 12:30:00",5772.83833,22.97,TRADE
QLD1,"2004/06/17 13:00:00",5749.29833,22.84,TRADE
QLD1,"2004/06/17 13:30:00",5727.27,22.77,TRADE
QLD1,"2004/06/17 14:00:00",5656.99333,22.49,TRADE
QLD1,"2004/06/17 14:30:00",5662.17167,22.7,TRADE
QLD1,"2004/06/17 15:00:00",5607.86333,22.68,TRADE
QLD1,"2004/06/17 15:30:00",5617.97,22.59,TRADE
QLD1,"2004/06/17 16:00:00",5635.85667,22.7,TRADE
QLD1,"2004/06/17 16:30:00",5757.745,22.7,TRADE
QLD1,"2004/06/17 17:00:00",5958.03833,29.22,TRADE
QLD1,"2004/06/17 17:30:00",6357.75333,46.76,TRADE
QLD1,"2004/06/17 18:00:00",6627.08667,79.74,TRADE
QLD1,"2004/06/17 18:30:00",6703.23,85.2,TRADE
QLD1,"2004/06/17 19:00:00",6794.86167,82.8,TRADE
QLD1,"2004/06/17 19:30:00",6709.70667,63.65,TRADE
QLD1,"2004/06/17 20:00:00",6728.59,55.89,TRADE
QLD1,"2004/06/17 20:30:00",6787.555,59.82,TRADE
QLD1,"2004/06/17 21:00:00",6650.5,53.35,TRADE
QLD1,"2004/06/17 21:30:00",6382.42833,38.84,TRADE
QLD1,"2004/06/17 22:00:00",6252.32,33.4,TRADE
QLD1,"2004/06/17 22:30:00",6000.54167,39.64,TRADE
QLD1,"2004/06/17 23:00:00",5754.465,33.24,TRADE
QLD1,"2004/06/17 23:30:00",5626.21667,37.26,TRADE
QLD1,"2004/06/18 00:00:00",5399.96,32.9,TRADE
QLD1,"2004/06/18 00:30:00",5160.45167,25.08,TRADE
QLD1,"2004/06/18 01:00:00",5003.23667,22.84,TRADE
QLD1,"2004/06/18 01:30:00",4829.38667,24.94,TRADE
QLD1,"2004/06/18 02:00:00",4651.98,21.11,TRADE
QLD1,"2004/06/18 02:30:00",4459.085,15.76,TRADE
QLD1,"2004/06/18 03:00:00",4446.86833,15.54,TRADE
QLD1,"2004/06/18 03:30:00",4424.515,15.78,TRADE
QLD1,"2004/06/18 04:00:00",4418.46167,15.47,TRADE
QLD1,"2004/06/18 04:30:00",4448.44833,16.03,TRADE
QLD1,"2004/06/18 05:00:00",4515.38333,15.93,TRADE
QLD1,"2004/06/18 05:30:00",4737.77833,16.43,TRADE
QLD1,"2004/06/18 06:00:00",5026.76833,15.88,TRADE
QLD1,"2004/06/18 06:30:00",5505.83,23.48,TRADE
QLD1,"2004/06/18 07:00:00",5984.00833,27.09,TRADE
QLD1,"2004/06/18 07:30:00",6457.85333,31.93,TRADE
QLD1,"2004/06/18 08:00:00",6618.615,35.74,TRADE
QLD1,"2004/06/18 08:30:00",6472.11167,35.04,TRADE
QLD1,"2004/06/18 09:00:00",6362.59167,34.72,TRADE
QLD1,"2004/06/18 09:30:00",6324.53333,34.73,TRADE
QLD1,"2004/06/18 10:00:00",6237.22833,34.36,TRADE
QLD1,"2004/06/18 10:30:00",6126.23667,26.14,TRADE
QLD1,"2004/06/18 11:00:00",6089.815,25.13,TRADE
QLD1,"2004/06/18 11:30:00",6035.02,24.58,TRADE
QLD1,"2004/06/18 12:00:00",5903.78167,22.08,TRADE
QLD1,"2004/06/18 12:30:00",5812.59667,21.48,TRADE
QLD1,"2004/06/18 13:00:00",5734.40333,21.73,TRADE
QLD1,"2004/06/18 13:30:00",5677.39167,21,TRADE
QLD1,"2004/06/18 14:00:00",5635.945,20.46,TRADE
QLD1,"2004/06/18 14:30:00",5617.93167,19.96,TRADE
QLD1,"2004/06/18 15:00:00",5577.37167,19.51,TRADE
QLD1,"2004/06/18 15:30:00",5599.865,18.5,TRADE
QLD1,"2004/06/18 16:00:00",5635.54667,19.23,TRADE
QLD1,"2004/06/18 16:30:00",5732.12,20.79,TRADE
QLD1,"2004/06/18 17:00:00",5905.64,25.14,TRADE
QLD1,"2004/06/18 17:30:00",6224.54,41.02,TRADE
QLD1,"2004/06/18 18:00:00",6433.36167,32.68,TRADE
QLD1,"2004/06/18 18:30:00",6438.16167,34.18,TRADE
QLD1,"2004/06/18 19:00:00",6434.32833,34.86,TRADE
QLD1,"2004/06/18 19:30:00",6369.39333,36.54,TRADE
QLD1,"2004/06/18 20:00:00",6372.41833,34.17,TRADE
QLD1,"2004/06/18 20:30:00",6404.67,35.16,TRADE
QLD1,"2004/06/18 21:00:00",6283.45667,32.91,TRADE
QLD1,"2004/06/18 21:30:00",6116.61167,27.46,TRADE
QLD1,"2004/06/18 22:00:00",6030.47,25.41,TRADE
QLD1,"2004/06/18 22:30:00",5912.61167,36.78,TRADE
QLD1,"2004/06/18 23:00:00",5706.15167,31.26,TRADE
QLD1,"2004/06/18 23:30:00",5597.96,37.13,TRADE
QLD1,"2004/06/19 00:00:00",5405.77,29.62,TRADE
QLD1,"2004/06/19 00:30:00",5114.03333,26.49,TRADE
QLD1,"2004/06/19 01:00:00",4962.97,26.61,TRADE
QLD1,"2004/06/19 01:30:00",4733.82667,27.89,TRADE
QLD1,"2004/06/19 02:00:00",4635.555,20.64,TRADE
QLD1,"2004/06/19 02:30:00",4415.54667,16.28,TRADE
QLD1,"2004/06/19 03:00:00",4340.20333,16.44,TRADE
QLD1,"2004/06/19 03:30:00",4273.53167,16.25,TRADE
QLD1,"2004/06/19 04:00:00",4250.55333,15.75,TRADE
QLD1,"2004/06/19 04:30:00",4247.14333,16.15,TRADE
QLD1,"2004/06/19 05:00:00",4312.09333,16.55,TRADE
QLD1,"2004/06/19 05:30:00",4429.28167,16.1,TRADE
QLD1,"2004/06/19 06:00:00",4512.59,16.06,TRADE
QLD1,"2004/06/19 06:30:00",4680.99,16.72,TRADE
QLD1,"2004/06/19 07:00:00",4900.055,16.35,TRADE
QLD1,"2004/06/19 07:30:00",5231.455,17.91,TRADE
QLD1,"2004/06/19 08:00:00",5536.41,23.83,TRADE
QLD1,"2004/06/19 08:30:00",5633.67667,26.03,TRADE
QLD1,"2004/06/19 09:00:00",5713.50167,34.28,TRADE
QLD1,"2004/06/19 09:30:00",5715.485,35.7,TRADE
QLD1,"2004/06/19 10:00:00",5657.76167,35.31,TRADE
QLD1,"2004/06/19 10:30:00",5577.95333,35.73,TRADE
QLD1,"2004/06/19 11:00:00",5459.30333,35.07,TRADE
QLD1,"2004/06/19 11:30:00",5377.75,32.16,TRADE
QLD1,"2004/06/19 12:00:00",5349.47333,24.9,TRADE
QLD1,"2004/06/19 12:30:00",5354.57167,24.96,TRADE
QLD1,"2004/06/19 13:00:00",5258.675,21.5,TRADE
QLD1,"2004/06/19 13:30:00",5137.78167,22.34,TRADE
QLD1,"2004/06/19 14:00:00",5061.84833,21.96,TRADE
QLD1,"2004/06/19 14:30:00",5025.85667,20.84,TRADE
QLD1,"2004/06/19 15:00:00",4972.785,21.18,TRADE
QLD1,"2004/06/19 15:30:00",5000.85833,22.88,TRADE
QLD1,"2004/06/19 16:00:00",5025.05,23.61,TRADE
QLD1,"2004/06/19 16:30:00",5137.17667,26.13,TRADE
QLD1,"2004/06/19 17:00:00",5393.32667,31.3,TRADE
QLD1,"2004/06/19 17:30:00",5794.385,58.17,TRADE
QLD1,"2004/06/19 18:00:00",6069.82667,42.27,TRADE
QLD1,"2004/06/19 18:30:00",6091.37833,73.35,TRADE
QLD1,"2004/06/19 19:00:00",6076.55667,94.13,TRADE
QLD1,"2004/06/19 19:30:00",6014.72167,75.41,TRADE
QLD1,"2004/06/19 20:00:00",5923.47167,46.71,TRADE
QLD1,"2004/06/19 20:30:00",5886.04833,39.43,TRADE
QLD1,"2004/06/19 21:00:00",5812.75,42.54,TRADE
QLD1,"2004/06/19 21:30:00",5652.22833,37.25,TRADE
QLD1,"2004/06/19 22:00:00",5484.65333,32.97,TRADE
QLD1,"2004/06/19 22:30:00",5389.005,39.35,TRADE
QLD1,"2004/06/19 23:00:00",5263.05333,34.84,TRADE
QLD1,"2004/06/19 23:30:00",5337.01833,52.98,TRADE
QLD1,"2004/06/20 00:00:00",5121.99833,30.96,TRADE
QLD1,"2004/06/20 00:30:00",4885.235,22.98,TRADE
QLD1,"2004/06/20 01:00:00",4756.46833,22.44,TRADE
QLD1,"2004/06/20 01:30:00",4607.785,22.37,TRADE
QLD1,"2004/06/20 02:00:00",4453.27,19.11,TRADE
QLD1,"2004/06/20 02:30:00",4283.14,16.08,TRADE
QLD1,"2004/06/20 03:00:00",4211.785,15.68,TRADE
QLD1,"2004/06/20 03:30:00",4156.95,15.84,TRADE
QLD1,"2004/06/20 04:00:00",4099.00833,15.29,TRADE
QLD1,"2004/06/20 04:30:00",4109.635,15.27,TRADE
QLD1,"2004/06/20 05:00:00",4106.46,16.06,TRADE
QLD1,"2004/06/20 05:30:00",4184.14333,16.39,TRADE
QLD1,"2004/06/20 06:00:00",4198.915,13.9,TRADE
QLD1,"2004/06/20 06:30:00",4310.30833,15.94,TRADE
QLD1,"2004/06/20 07:00:00",4412.54667,14.44,TRADE
QLD1,"2004/06/20 07:30:00",4666.67167,15.6,TRADE
QLD1,"2004/06/20 08:00:00",4956.405,18.13,TRADE
QLD1,"2004/06/20 08:30:00",5109.00333,21.15,TRADE
QLD1,"2004/06/20 09:00:00",5229.93667,26.3,TRADE
QLD1,"2004/06/20 09:30:00",5292.5,28.33,TRADE
QLD1,"2004/06/20 10:00:00",5325.57833,29.23,TRADE
QLD1,"2004/06/20 10:30:00",5280.75,27.54,TRADE
QLD1,"2004/06/20 11:00:00",5280.66833,23.6,TRADE
QLD1,"2004/06/20 11:30:00",5247.00833,22.58,TRADE
QLD1,"2004/06/20 12:00:00",5242.16833,21.55,TRADE
QLD1,"2004/06/20 12:30:00",5279.28667,21.5,TRADE
QLD1,"2004/06/20 13:00:00",5231.88833,20.52,TRADE
QLD1,"2004/06/20 13:30:00",5144.88833,19.25,TRADE
QLD1,"2004/06/20 14:00:00",5039.57833,19.12,TRADE
QLD1,"2004/06/20 14:30:00",4986.21333,17.44,TRADE
QLD1,"2004/06/20 15:00:00",4963.48167,16,TRADE
QLD1,"2004/06/20 15:30:00",4997.95833,16.46,TRADE
QLD1,"2004/06/20 16:00:00",5096.14167,19.15,TRADE
QLD1,"2004/06/20 16:30:00",5232.80833,20.04,TRADE
QLD1,"2004/06/20 17:00:00",5573.925,28.3,TRADE
QLD1,"2004/06/20 17:30:00",6086.57,99.3,TRADE
QLD1,"2004/06/20 18:00:00",6483.085,261.28,TRADE
QLD1,"2004/06/20 18:30:00",6630.14,266.37,TRADE
QLD1,"2004/06/20 19:00:00",6574.84167,255.49,TRADE
QLD1,"2004/06/20 19:30:00",6510.68833,94.96,TRADE
QLD1,"2004/06/20 20:00:00",6471.22667,65.76,TRADE
QLD1,"2004/06/20 20:30:00",6460.455,61.85,TRADE
QLD1,"2004/06/20 21:00:00",6362.295,54.68,TRADE
QLD1,"2004/06/20 21:30:00",6103.81333,38.04,TRADE
QLD1,"2004/06/20 22:00:00",5800.42667,34.64,TRADE
QLD1,"2004/06/20 22:30:00",5640.155,35.25,TRADE
QLD1,"2004/06/20 23:00:00",5492.53833,27.54,TRADE
QLD1,"2004/06/20 23:30:00",5402.79333,32.13,TRADE
QLD1,"2004/06/21 00:00:00",5227.44,24.35,TRADE
QLD1,"2004/06/21 00:30:00",4963.91833,19.27,TRADE
QLD1,"2004/06/21 01:00:00",4889.38667,18.62,TRADE
QLD1,"2004/06/21 01:30:00",4704.59333,17.75,TRADE
QLD1,"2004/06/21 02:00:00",4587.98667,17.26,TRADE
QLD1,"2004/06/21 02:30:00",4473.42,15.99,TRADE
QLD1,"2004/06/21 03:00:00",4390.78833,16.14,TRADE
QLD1,"2004/06/21 03:30:00",4368.655,16.34,TRADE
QLD1,"2004/06/21 04:00:00",4313.495,15.21,TRADE
QLD1,"2004/06/21 04:30:00",4342.42667,15,TRADE
QLD1,"2004/06/21 05:00:00",4445.89667,15.58,TRADE
QLD1,"2004/06/21 05:30:00",4654.61667,16.63,TRADE
QLD1,"2004/06/21 06:00:00",4969.27,15.95,TRADE
QLD1,"2004/06/21 06:30:00",5544.09667,24.41,TRADE
QLD1,"2004/06/21 07:00:00",6016.68,26.76,TRADE
QLD1,"2004/06/21 07:30:00",6567.15167,31.34,TRADE
QLD1,"2004/06/21 08:00:00",6775.14167,37.24,TRADE
QLD1,"2004/06/21 08:30:00",6689.98167,35.48,TRADE
QLD1,"2004/06/21 09:00:00",6519.72,27.49,TRADE
QLD1,"2004/06/21 09:30:00",6475.60667,27.37,TRADE
QLD1,"2004/06/21 10:00:00",6356.29333,24.58,TRADE
QLD1,"2004/06/21 10:30:00",6296.98333,20.18,TRADE
QLD1,"2004/06/21 11:00:00",6227.335,21.58,TRADE
QLD1,"2004/06/21 11:30:00",6153.25667,22.41,TRADE
QLD1,"2004/06/21 12:00:00",6022.70667,21.51,TRADE
QLD1,"2004/06/21 12:30:00",5941.99167,20.48,TRADE
QLD1,"2004/06/21 13:00:00",5878.05,19.81,TRADE
QLD1,"2004/06/21 13:30:00",5832.735,19.7,TRADE
QLD1,"2004/06/21 14:00:00",5761.18833,19.7,TRADE
QLD1,"2004/06/21 14:30:00",5751.94167,18.71,TRADE
QLD1,"2004/06/21 15:00:00",5682.85833,17.72,TRADE
QLD1,"2004/06/21 15:30:00",5666.55333,17.29,TRADE
QLD1,"2004/06/21 16:00:00",5759.38333,18.58,TRADE
QLD1,"2004/06/21 16:30:00",5898.23,19.65,TRADE
QLD1,"2004/06/21 17:00:00",6189.12833,23.2,TRADE
QLD1,"2004/06/21 17:30:00",6647.855,44.21,TRADE
QLD1,"2004/06/21 18:00:00",7009.76,85.36,TRADE
QLD1,"2004/06/21 18:30:00",7088.59167,96.01,TRADE
QLD1,"2004/06/21 19:00:00",7075.35333,71.13,TRADE
QLD1,"2004/06/21 19:30:00",6991.02,58.28,TRADE
QLD1,"2004/06/21 20:00:00",6980.77667,39.17,TRADE
QLD1,"2004/06/21 20:30:00",7071.25167,42.04,TRADE
QLD1,"2004/06/21 21:00:00",6907.12833,39.85,TRADE
QLD1,"2004/06/21 21:30:00",6663.83167,34.71,TRADE
QLD1,"2004/06/21 22:00:00",6446.01,29.72,TRADE
QLD1,"2004/06/21 22:30:00",6267.72167,36.73,TRADE
QLD1,"2004/06/21 23:00:00",5915.69833,25.48,TRADE
QLD1,"2004/06/21 23:30:00",5756.53333,29,TRADE
QLD1,"2004/06/22 00:00:00",5535.465,25.56,TRADE
QLD1,"2004/06/22 00:30:00",5283.615,22.67,TRADE
QLD1,"2004/06/22 01:00:00",5105.93333,19.91,TRADE
QLD1,"2004/06/22 01:30:00",4922.93333,19.69,TRADE
QLD1,"2004/06/22 02:00:00",4761.89,16.89,TRADE
QLD1,"2004/06/22 02:30:00",4660.645,17.36,TRADE
QLD1,"2004/06/22 03:00:00",4554.41333,16.03,TRADE
QLD1,"2004/06/22 03:30:00",4460.53167,15.76,TRADE
QLD1,"2004/06/22 04:00:00",4428.05833,15.55,TRADE
QLD1,"2004/06/22 04:30:00",4465.93167,15.84,TRADE
QLD1,"2004/06/22 05:00:00",4579.4,16,TRADE
QLD1,"2004/06/22 05:30:00",4835.82333,17.65,TRADE
QLD1,"2004/06/22 06:00:00",5142.18833,17.88,TRADE
QLD1,"2004/06/22 06:30:00",5648.44833,24.93,TRADE
QLD1,"2004/06/22 07:00:00",6180.21667,26.14,TRADE
QLD1,"2004/06/22 07:30:00",6712.32833,30.87,TRADE
QLD1,"2004/06/22 08:00:00",6878.955,35.58,TRADE
QLD1,"2004/06/22 08:30:00",6686.675,25.85,TRADE
QLD1,"2004/06/22 09:00:00",6480.67,22.97,TRADE
QLD1,"2004/06/22 09:30:00",6408.60833,22.87,TRADE
QLD1,"2004/06/22 10:00:00",6293.26833,21.53,TRADE
QLD1,"2004/06/22 10:30:00",6185.11,19.94,TRADE
QLD1,"2004/06/22 11:00:00",6109.10167,19.97,TRADE
QLD1,"2004/06/22 11:30:00",6049.70667,19.7,TRADE
QLD1,"2004/06/22 12:00:00",5939.41833,19.33,TRADE
QLD1,"2004/06/22 12:30:00",5824.78667,20.23,TRADE
QLD1,"2004/06/22 13:00:00",5759.69833,19.7,TRADE
QLD1,"2004/06/22 13:30:00",5671.36,19.77,TRADE
QLD1,"2004/06/22 14:00:00",5677.90833,20.28,TRADE
QLD1,"2004/06/22 14:30:00",5646.21667,18.11,TRADE
QLD1,"2004/06/22 15:00:00",5600.01333,15.84,TRADE
QLD1,"2004/06/22 15:30:00",5636.91333,15.44,TRADE
QLD1,"2004/06/22 16:00:00",5711.21333,16.21,TRADE
QLD1,"2004/06/22 16:30:00",5818.79167,17.65,TRADE
QLD1,"2004/06/22 17:00:00",6031.52667,21.18,TRADE
QLD1,"2004/06/22 17:30:00",6480.15167,38.72,TRADE
QLD1,"2004/06/22 18:00:00",6763.17833,31.53,TRADE
QLD1,"2004/06/22 18:30:00",6807.37333,34.97,TRADE
QLD1,"2004/06/22 19:00:00",6787.73833,34.01,TRADE
QLD1,"2004/06/22 19:30:00",6694.67167,35.23,TRADE
QLD1,"2004/06/22 20:00:00",6662.44,32.35,TRADE
QLD1,"2004/06/22 20:30:00",6637.45667,31.21,TRADE
QLD1,"2004/06/22 21:00:00",6553.95,29.3,TRADE
QLD1,"2004/06/22 21:30:00",6343.425,27.28,TRADE
QLD1,"2004/06/22 22:00:00",6214.12833,26.41,TRADE
QLD1,"2004/06/22 22:30:00",5994.83167,33.88,TRADE
QLD1,"2004/06/22 23:00:00",5727.11167,24.83,TRADE
QLD1,"2004/06/22 23:30:00",5630.265,29.61,TRADE
QLD1,"2004/06/23 00:00:00",5378.14167,23.05,TRADE
QLD1,"2004/06/23 00:30:00",5139.915,22.02,TRADE
QLD1,"2004/06/23 01:00:00",4988.47167,20.72,TRADE
QLD1,"2004/06/23 01:30:00",4826.265,21.51,TRADE
QLD1,"2004/06/23 02:00:00",4659.665,17.86,TRADE
QLD1,"2004/06/23 02:30:00",4554.57,15.94,TRADE
QLD1,"2004/06/23 03:00:00",4457.49333,15.29,TRADE
QLD1,"2004/06/23 03:30:00",4391.34333,14.38,TRADE
QLD1,"2004/06/23 04:00:00",4372.41167,14.2,TRADE
QLD1,"2004/06/23 04:30:00",4366.705,13.62,TRADE
QLD1,"2004/06/23 05:00:00",4448.16167,13.73,TRADE
QLD1,"2004/06/23 05:30:00",4665.01,15.74,TRADE
QLD1,"2004/06/23 06:00:00",4985.63667,16.67,TRADE
QLD1,"2004/06/23 06:30:00",5504.26333,20.26,TRADE
QLD1,"2004/06/23 07:00:00",5944.47833,20.92,TRADE
QLD1,"2004/06/23 07:30:00",6388.83,22.13,TRADE
QLD1,"2004/06/23 08:00:00",6551.88833,26.82,TRADE
QLD1,"2004/06/23 08:30:00",6436.15667,22.52,TRADE
QLD1,"2004/06/23 09:00:00",6246.82,21.09,TRADE
QLD1,"2004/06/23 09:30:00",6183.60833,21.23,TRADE
QLD1,"2004/06/23 10:00:00",6111.67,20.47,TRADE
QLD1,"2004/06/23 10:30:00",6060.35667,18.92,TRADE
QLD1,"2004/06/23 11:00:00",6043.46833,18.57,TRADE
QLD1,"2004/06/23 11:30:00",5887.78833,16.59,TRADE
QLD1,"2004/06/23 12:00:00",5837.03833,16.01,TRADE
QLD1,"2004/06/23 12:30:00",5745.385,15.68,TRADE
QLD1,"2004/06/23 13:00:00",5673.1,14.76,TRADE
QLD1,"2004/06/23 13:30:00",5638.18667,15.39,TRADE
QLD1,"2004/06/23 14:00:00",5649.39833,18.96,TRADE
QLD1,"2004/06/23 14:30:00",5637.33333,18.75,TRADE
QLD1,"2004/06/23 15:00:00",5606.44,18.09,TRADE
QLD1,"2004/06/23 15:30:00",5606.09333,15.51,TRADE
QLD1,"2004/06/23 16:00:00",5621.34667,17.51,TRADE
QLD1,"2004/06/23 16:30:00",5741.50833,19.7,TRADE
QLD1,"2004/06/23 17:00:00",5967.12833,24.23,TRADE
QLD1,"2004/06/23 17:30:00",6300.82333,22.13,TRADE
QLD1,"2004/06/23 18:00:00",6479.74333,21.59,TRADE
QLD1,"2004/06/23 18:30:00",6444.4,20.35,TRADE
QLD1,"2004/06/23 19:00:00",6469.05,21.59,TRADE
QLD1,"2004/06/23 19:30:00",6345.805,22.64,TRADE
QLD1,"2004/06/23 20:00:00",6314.87333,22.06,TRADE
QLD1,"2004/06/23 20:30:00",6320.33667,22.4,TRADE
QLD1,"2004/06/23 21:00:00",6273.525,21.31,TRADE
QLD1,"2004/06/23 21:30:00",6083.43333,20.68,TRADE
QLD1,"2004/06/23 22:00:00",5925.53833,20.38,TRADE
QLD1,"2004/06/23 22:30:00",5791.105,22.63,TRADE
QLD1,"2004/06/23 23:00:00",5566.645,19.55,TRADE
QLD1,"2004/06/23 23:30:00",5472.61,22.47,TRADE
QLD1,"2004/06/24 00:00:00",5266.02333,22.77,TRADE
QLD1,"2004/06/24 00:30:00",5094.21667,20.91,TRADE
QLD1,"2004/06/24 01:00:00",4900.18333,17.43,TRADE
QLD1,"2004/06/24 01:30:00",4738.37,18.06,TRADE
QLD1,"2004/06/24 02:00:00",4554.54,15.77,TRADE
QLD1,"2004/06/24 02:30:00",4444.79333,14.89,TRADE
QLD1,"2004/06/24 03:00:00",4329.52833,14.38,TRADE
QLD1,"2004/06/24 03:30:00",4334.37333,13.87,TRADE
QLD1,"2004/06/24 04:00:00",4292.05,12.58,TRADE
QLD1,"2004/06/24 04:30:00",4282.69833,11.8,TRADE
QLD1,"2004/06/24 05:00:00",4389.52667,11.74,TRADE
QLD1,"2004/06/24 05:30:00",4641.09333,13.56,TRADE
QLD1,"2004/06/24 06:00:00",4919.91333,15.66,TRADE
QLD1,"2004/06/24 06:30:00",5374.235,20.01,TRADE
QLD1,"2004/06/24 07:00:00",5725.09167,19.88,TRADE
QLD1,"2004/06/24 07:30:00",6162.63667,21.54,TRADE
QLD1,"2004/06/24 08:00:00",6332.37333,24.75,TRADE
QLD1,"2004/06/24 08:30:00",6250.35833,21.37,TRADE
QLD1,"2004/06/24 09:00:00",6035.77833,19.7,TRADE
QLD1,"2004/06/24 09:30:00",6064.645,20.36,TRADE
QLD1,"2004/06/24 10:00:00",6005.51333,19.4,TRADE
QLD1,"2004/06/24 10:30:00",5985.85333,18.93,TRADE
QLD1,"2004/06/24 11:00:00",5937.78667,19.7,TRADE
QLD1,"2004/06/24 11:30:00",5952.14833,19.7,TRADE
QLD1,"2004/06/24 12:00:00",5825.67,19.7,TRADE
QLD1,"2004/06/24 12:30:00",5731.40833,19.7,TRADE
QLD1,"2004/06/24 13:00:00",5718.44167,-150.46,TRADE
QLD1,"2004/06/24 13:30:00",5726.35833,19.7,TRADE
QLD1,"2004/06/24 14:00:00",5637.59,19.2,TRADE
QLD1,"2004/06/24 14:30:00",5669.47833,18.95,TRADE
QLD1,"2004/06/24 15:00:00",5617.04667,15.18,TRADE
QLD1,"2004/06/24 15:30:00",5654.54333,14.82,TRADE
QLD1,"2004/06/24 16:00:00",5685.745,14.96,TRADE
QLD1,"2004/06/24 16:30:00",5752.43167,17.14,TRADE
QLD1,"2004/06/24 17:00:00",5899.70333,18,TRADE
QLD1,"2004/06/24 17:30:00",6146.46167,20.76,TRADE
QLD1,"2004/06/24 18:00:00",6377.315,20.79,TRADE
QLD1,"2004/06/24 18:30:00",6326.495,19.85,TRADE
QLD1,"2004/06/24 19:00:00",6402.70833,20.96,TRADE
QLD1,"2004/06/24 19:30:00",6340.85333,23.7,TRADE
QLD1,"2004/06/24 20:00:00",6329.865,21.89,TRADE
QLD1,"2004/06/24 20:30:00",6375.04333,24.42,TRADE
QLD1,"2004/06/24 21:00:00",6279.68833,21.51,TRADE
QLD1,"2004/06/24 21:30:00",6109.60167,21.78,TRADE
QLD1,"2004/06/24 22:00:00",5970.43667,20.65,TRADE
QLD1,"2004/06/24 22:30:00",5868.72833,30.01,TRADE
QLD1,"2004/06/24 23:00:00",5620.38333,21.18,TRADE
QLD1,"2004/06/24 23:30:00",5582.91,25.96,TRADE
QLD1,"2004/06/25 00:00:00",5365.36333,21.09,TRADE
QLD1,"2004/06/25 00:30:00",5129.60667,20.89,TRADE
QLD1,"2004/06/25 01:00:00",5022.64667,19.26,TRADE
QLD1,"2004/06/25 01:30:00",4810.83,18.18,TRADE
QLD1,"2004/06/25 02:00:00",4615.84333,16.02,TRADE
QLD1,"2004/06/25 02:30:00",4484.795,15.05,TRADE
QLD1,"2004/06/25 03:00:00",4414.27,15.22,TRADE
QLD1,"2004/06/25 03:30:00",4371.07667,13.99,TRADE
QLD1,"2004/06/25 04:00:00",4336.165,13.16,TRADE
QLD1,"2004/06/25 04:30:00",4391.01167,13.32,TRADE
QLD1,"2004/06/25 05:00:00",4456.38833,12.54,TRADE
QLD1,"2004/06/25 05:30:00",4686.84833,13.84,TRADE
QLD1,"2004/06/25 06:00:00",4966.18667,15.84,TRADE
QLD1,"2004/06/25 06:30:00",5438.02667,22.05,TRADE
QLD1,"2004/06/25 07:00:00",5875.87833,26.26,TRADE
QLD1,"2004/06/25 07:30:00",6296.64833,27.64,TRADE
QLD1,"2004/06/25 08:00:00",6441.09833,35.09,TRADE
QLD1,"2004/06/25 08:30:00",6388.685,33.33,TRADE
QLD1,"2004/06/25 09:00:00",6219.68667,27.72,TRADE
QLD1,"2004/06/25 09:30:00",6208.59333,27.86,TRADE
QLD1,"2004/06/25 10:00:00",6112.47333,22.67,TRADE
QLD1,"2004/06/25 10:30:00",6085.485,21.27,TRADE
QLD1,"2004/06/25 11:00:00",6028.96333,21.03,TRADE
QLD1,"2004/06/25 11:30:00",5954.50667,20.85,TRADE
QLD1,"2004/06/25 12:00:00",5848.96333,19.8,TRADE
QLD1,"2004/06/25 12:30:00",5782.37667,19.75,TRADE
QLD1,"2004/06/25 13:00:00",5693.13333,19.7,TRADE
QLD1,"2004/06/25 13:30:00",5653.39,19.61,TRADE
QLD1,"2004/06/25 14:00:00",5637.47,19.7,TRADE
QLD1,"2004/06/25 14:30:00",5576.6,19.7,TRADE
QLD1,"2004/06/25 15:00:00",5555.71667,19.56,TRADE
QLD1,"2004/06/25 15:30:00",5555.76833,18.97,TRADE
QLD1,"2004/06/25 16:00:00",5562.06667,18.02,TRADE
QLD1,"2004/06/25 16:30:00",5610.27,15,TRADE
QLD1,"2004/06/25 17:00:00",5768.945,19.7,TRADE
QLD1,"2004/06/25 17:30:00",6031.14833,21.29,TRADE
QLD1,"2004/06/25 18:00:00",6221.88333,20.47,TRADE
QLD1,"2004/06/25 18:30:00",6175.465,19.7,TRADE
QLD1,"2004/06/25 19:00:00",6197.17833,22.88,TRADE
QLD1,"2004/06/25 19:30:00",6130.43,25.77,TRADE
QLD1,"2004/06/25 20:00:00",6139.19,26.25,TRADE
QLD1,"2004/06/25 20:30:00",6239.06333,29.92,TRADE
QLD1,"2004/06/25 21:00:00",6125.82333,26.26,TRADE
QLD1,"2004/06/25 21:30:00",6048.56167,24.23,TRADE
QLD1,"2004/06/25 22:00:00",5924.86833,21.03,TRADE
QLD1,"2004/06/25 22:30:00",5830.56667,31.56,TRADE
QLD1,"2004/06/25 23:00:00",5605.41333,25.49,TRADE
QLD1,"2004/06/25 23:30:00",5571.97167,32.49,TRADE
QLD1,"2004/06/26 00:00:00",5312.12167,28.9,TRADE
QLD1,"2004/06/26 00:30:00",5128.8,22.23,TRADE
QLD1,"2004/06/26 01:00:00",4985.2,21.8,TRADE
QLD1,"2004/06/26 01:30:00",4780.44667,22.69,TRADE
QLD1,"2004/06/26 02:00:00",4569.46333,18.54,TRADE
QLD1,"2004/06/26 02:30:00",4409.28,17.52,TRADE
QLD1,"2004/06/26 03:00:00",4282.05167,15.14,TRADE
QLD1,"2004/06/26 03:30:00",4241.99333,14.75,TRADE
QLD1,"2004/06/26 04:00:00",4240.51,14.38,TRADE
QLD1,"2004/06/26 04:30:00",4231.8,12.67,TRADE
QLD1,"2004/06/26 05:00:00",4271.55167,11.89,TRADE
QLD1,"2004/06/26 05:30:00",4358.35667,13.63,TRADE
QLD1,"2004/06/26 06:00:00",4491.28833,13.61,TRADE
QLD1,"2004/06/26 06:30:00",4685.51333,15.66,TRADE
QLD1,"2004/06/26 07:00:00",4880.48,13.99,TRADE
QLD1,"2004/06/26 07:30:00",5248.27167,17.05,TRADE
QLD1,"2004/06/26 08:00:00",5537.775,19.28,TRADE
QLD1,"2004/06/26 08:30:00",5649.90333,22.95,TRADE
QLD1,"2004/06/26 09:00:00",5711.675,29.15,TRADE
QLD1,"2004/06/26 09:30:00",5749.84333,29.15,TRADE
QLD1,"2004/06/26 10:00:00",5631.15667,25.51,TRADE
QLD1,"2004/06/26 10:30:00",5547.44,23.7,TRADE
QLD1,"2004/06/26 11:00:00",5485.18667,20.89,TRADE
QLD1,"2004/06/26 11:30:00",5434.22833,20.39,TRADE
QLD1,"2004/06/26 12:00:00",5411.195,19.11,TRADE
QLD1,"2004/06/26 12:30:00",5378.53333,19.7,TRADE
QLD1,"2004/06/26 13:00:00",5252.91,18.35,TRADE
QLD1,"2004/06/26 13:30:00",5170.69833,18.4,TRADE
QLD1,"2004/06/26 14:00:00",5070.085,16.25,TRADE
QLD1,"2004/06/26 14:30:00",4990.9,16.13,TRADE
QLD1,"2004/06/26 15:00:00",5002.65333,16.21,TRADE
QLD1,"2004/06/26 15:30:00",5013.53167,16.14,TRADE
QLD1,"2004/06/26 16:00:00",5042.09167,16.99,TRADE
QLD1,"2004/06/26 16:30:00",5156.44833,17.11,TRADE
QLD1,"2004/06/26 17:00:00",5402.65667,21.29,TRADE
QLD1,"2004/06/26 17:30:00",5834.065,23.75,TRADE
QLD1,"2004/06/26 18:00:00",6120.035,28.7,TRADE
QLD1,"2004/06/26 18:30:00",6197.695,31.38,TRADE
QLD1,"2004/06/26 19:00:00",6123.40333,28.66,TRADE
QLD1,"2004/06/26 19:30:00",6044.78833,30.91,TRADE
QLD1,"2004/06/26 20:00:00",5995.8,27.98,TRADE
QLD1,"2004/06/26 20:30:00",5980.01167,27.85,TRADE
QLD1,"2004/06/26 21:00:00",5895.29,27.35,TRADE
QLD1,"2004/06/26 21:30:00",5759.67333,24.53,TRADE
QLD1,"2004/06/26 22:00:00",5590.17833,22.48,TRADE
QLD1,"2004/06/26 22:30:00",5464.67,26.5,TRADE
QLD1,"2004/06/26 23:00:00",5373.25333,24.12,TRADE
QLD1,"2004/06/26 23:30:00",5381.16667,31.85,TRADE
QLD1,"2004/06/27 00:00:00",5167.38,25.39,TRADE
QLD1,"2004/06/27 00:30:00",4968.01333,20.84,TRADE
QLD1,"2004/06/27 01:00:00",4812.03167,17.73,TRADE
QLD1,"2004/06/27 01:30:00",4678.64,17.84,TRADE
QLD1,"2004/06/27 02:00:00",4487.45167,15.65,TRADE
QLD1,"2004/06/27 02:30:00",4376.265,15.28,TRADE
QLD1,"2004/06/27 03:00:00",4268.77333,14.87,TRADE
QLD1,"2004/06/27 03:30:00",4214.95167,13.98,TRADE
QLD1,"2004/06/27 04:00:00",4141.26,14.07,TRADE
QLD1,"2004/06/27 04:30:00",4115.11833,12.78,TRADE
QLD1,"2004/06/27 05:00:00",4147.73167,11.94,TRADE
QLD1,"2004/06/27 05:30:00",4217.65667,12.45,TRADE
QLD1,"2004/06/27 06:00:00",4270.74333,12.06,TRADE
QLD1,"2004/06/27 06:30:00",4404.245,13.58,TRADE
QLD1,"2004/06/27 07:00:00",4560.4,11.7,TRADE
QLD1,"2004/06/27 07:30:00",4831.26167,12.74,TRADE
QLD1,"2004/06/27 08:00:00",5089.98333,16.67,TRADE
QLD1,"2004/06/27 08:30:00",5285.14,18.36,TRADE
QLD1,"2004/06/27 09:00:00",5373.65,19.7,TRADE
QLD1,"2004/06/27 09:30:00",5414.42667,19.7,TRADE
QLD1,"2004/06/27 10:00:00",5411.48667,19.7,TRADE
QLD1,"2004/06/27 10:30:00",5388.00667,19.7,TRADE
QLD1,"2004/06/27 11:00:00",5336.32167,19.7,TRADE
QLD1,"2004/06/27 11:30:00",5258.11,17.09,TRADE
QLD1,"2004/06/27 12:00:00",5241.95667,15.4,TRADE
QLD1,"2004/06/27 12:30:00",5245.35167,15.26,TRADE
QLD1,"2004/06/27 13:00:00",5168.18,14.6,TRADE
QLD1,"2004/06/27 13:30:00",5034.39167,13.96,TRADE
QLD1,"2004/06/27 14:00:00",4941.85333,13.11,TRADE
QLD1,"2004/06/27 14:30:00",4875.97333,13.11,TRADE
QLD1,"2004/06/27 15:00:00",4825.14333,12.11,TRADE
QLD1,"2004/06/27 15:30:00",4890.36667,12.4,TRADE
QLD1,"2004/06/27 16:00:00",4936.48333,14.01,TRADE
QLD1,"2004/06/27 16:30:00",5083.67667,14.99,TRADE
QLD1,"2004/06/27 17:00:00",5279.27833,18.65,TRADE
QLD1,"2004/06/27 17:30:00",5805.17167,28.28,TRADE
QLD1,"2004/06/27 18:00:00",6209.92333,31.25,TRADE
QLD1,"2004/06/27 18:30:00",6341.98,35.05,TRADE
QLD1,"2004/06/27 19:00:00",6288.96167,33.27,TRADE
QLD1,"2004/06/27 19:30:00",6233.775,34.69,TRADE
QLD1,"2004/06/27 20:00:00",6222.05,35.02,TRADE
QLD1,"2004/06/27 20:30:00",6235.665,36.99,TRADE
QLD1,"2004/06/27 21:00:00",6096.41167,33.49,TRADE
QLD1,"2004/06/27 21:30:00",5917.44333,32.91,TRADE
QLD1,"2004/06/27 22:00:00",5667.84833,26.2,TRADE
QLD1,"2004/06/27 22:30:00",5494.995,33.81,TRADE
QLD1,"2004/06/27 23:00:00",5315.22167,23.09,TRADE
QLD1,"2004/06/27 23:30:00",5276.93,28.01,TRADE
QLD1,"2004/06/28 00:00:00",5113.915,22.3,TRADE
QLD1,"2004/06/28 00:30:00",4923.18,20.73,TRADE
QLD1,"2004/06/28 01:00:00",4807.48167,19.7,TRADE
QLD1,"2004/06/28 01:30:00",4623.34333,19.48,TRADE
QLD1,"2004/06/28 02:00:00",4480.44167,16.89,TRADE
QLD1,"2004/06/28 02:30:00",4350.80333,15.41,TRADE
QLD1,"2004/06/28 03:00:00",4252.54167,14.07,TRADE
QLD1,"2004/06/28 03:30:00",4213.165,15.63,TRADE
QLD1,"2004/06/28 04:00:00",4210.99167,15.02,TRADE
QLD1,"2004/06/28 04:30:00",4232.56167,13.88,TRADE
QLD1,"2004/06/28 05:00:00",4320.18333,14.66,TRADE
QLD1,"2004/06/28 05:30:00",4542.395,16.05,TRADE
QLD1,"2004/06/28 06:00:00",4794.065,14.8,TRADE
QLD1,"2004/06/28 06:30:00",5250.15,20.74,TRADE
QLD1,"2004/06/28 07:00:00",5591.08,23.21,TRADE
QLD1,"2004/06/28 07:30:00",5994.64667,25.22,TRADE
QLD1,"2004/06/28 08:00:00",6181.18,33.21,TRADE
QLD1,"2004/06/28 08:30:00",6170.87833,34.02,TRADE
QLD1,"2004/06/28 09:00:00",6096.37833,26.72,TRADE
QLD1,"2004/06/28 09:30:00",6113.415,25.85,TRADE
QLD1,"2004/06/28 10:00:00",6059.71833,22.63,TRADE
QLD1,"2004/06/28 10:30:00",6120.825,22.66,TRADE
QLD1,"2004/06/28 11:00:00",6062.75667,22.42,TRADE
QLD1,"2004/06/28 11:30:00",6019.81833,22.38,TRADE
QLD1,"2004/06/28 12:00:00",5890.81333,21.26,TRADE
QLD1,"2004/06/28 12:30:00",5783.70167,20.13,TRADE
QLD1,"2004/06/28 13:00:00",5729.92,19.78,TRADE
QLD1,"2004/06/28 13:30:00",5667.15667,18.97,TRADE
QLD1,"2004/06/28 14:00:00",5626.895,19.73,TRADE
QLD1,"2004/06/28 14:30:00",5609.165,19.92,TRADE
QLD1,"2004/06/28 15:00:00",5604.37,19.94,TRADE
QLD1,"2004/06/28 15:30:00",5527.82333,17.94,TRADE
QLD1,"2004/06/28 16:00:00",5181.11667,15.7,TRADE
QLD1,"2004/06/28 16:30:00",5695.38,21.97,TRADE
QLD1,"2004/06/28 17:00:00",5914.405,21.78,TRADE
QLD1,"2004/06/28 17:30:00",6255.115,22.08,TRADE
QLD1,"2004/06/28 18:00:00",6490.69333,22.25,TRADE
QLD1,"2004/06/28 18:30:00",6486.345,22.54,TRADE
QLD1,"2004/06/28 19:00:00",6539.80167,22.59,TRADE
QLD1,"2004/06/28 19:30:00",6501.555,30.58,TRADE
QLD1,"2004/06/28 20:00:00",6500.42667,33.63,TRADE
QLD1,"2004/06/28 20:30:00",6528.3,33.32,TRADE
QLD1,"2004/06/28 21:00:00",6397.76,30.93,TRADE
QLD1,"2004/06/28 21:30:00",6202.58833,31.14,TRADE
QLD1,"2004/06/28 22:00:00",6097.25333,31.15,TRADE
QLD1,"2004/06/28 22:30:00",5949.39333,39.15,TRADE
QLD1,"2004/06/28 23:00:00",5631.10833,28.19,TRADE
QLD1,"2004/06/28 23:30:00",5599.47833,35.38,TRADE
QLD1,"2004/06/29 00:00:00",5344.68167,28.12,TRADE
QLD1,"2004/06/29 00:30:00",5128.01833,23.69,TRADE
QLD1,"2004/06/29 01:00:00",4979.09833,20.68,TRADE
QLD1,"2004/06/29 01:30:00",4796.57,23.78,TRADE
QLD1,"2004/06/29 02:00:00",4658.57667,18.18,TRADE
QLD1,"2004/06/29 02:30:00",4523.76833,15.44,TRADE
QLD1,"2004/06/29 03:00:00",4415.36833,14.18,TRADE
QLD1,"2004/06/29 03:30:00",4360.02833,13.92,TRADE
QLD1,"2004/06/29 04:00:00",4353.29833,13.62,TRADE
QLD1,"2004/06/29 04:30:00",4392.00667,13.23,TRADE
QLD1,"2004/06/29 05:00:00",4468.38667,13.16,TRADE
QLD1,"2004/06/29 05:30:00",4666.16667,14.47,TRADE
QLD1,"2004/06/29 06:00:00",4945.525,16.95,TRADE
QLD1,"2004/06/29 06:30:00",5421.945,23.06,TRADE
QLD1,"2004/06/29 07:00:00",5801.73333,30.05,TRADE
QLD1,"2004/06/29 07:30:00",6180.92167,32.24,TRADE
QLD1,"2004/06/29 08:00:00",6345.18333,35.13,TRADE
QLD1,"2004/06/29 08:30:00",6352.21167,34.56,TRADE
QLD1,"2004/06/29 09:00:00",6225.34,31.59,TRADE
QLD1,"2004/06/29 09:30:00",6192.075,32.41,TRADE
QLD1,"2004/06/29 10:00:00",6105.99167,26.99,TRADE
QLD1,"2004/06/29 10:30:00",6113.28667,24.34,TRADE
QLD1,"2004/06/29 11:00:00",6071.75833,24.76,TRADE
QLD1,"2004/06/29 11:30:00",5981.42167,22.75,TRADE
QLD1,"2004/06/29 12:00:00",5876.88667,23.42,TRADE
QLD1,"2004/06/29 12:30:00",5795.93833,21.91,TRADE
QLD1,"2004/06/29 13:00:00",5690.89667,21.22,TRADE
QLD1,"2004/06/29 13:30:00",5628.04167,23.1,TRADE
QLD1,"2004/06/29 14:00:00",5699.37167,20.87,TRADE
QLD1,"2004/06/29 14:30:00",5723.12167,21.77,TRADE
QLD1,"2004/06/29 15:00:00",5636.935,19.91,TRADE
QLD1,"2004/06/29 15:30:00",5709.46333,20.64,TRADE
QLD1,"2004/06/29 16:00:00",5653.965,19.28,TRADE
QLD1,"2004/06/29 16:30:00",5714.145,20.19,TRADE
QLD1,"2004/06/29 17:00:00",5970.40167,22.48,TRADE
QLD1,"2004/06/29 17:30:00",6248.66333,30.87,TRADE
QLD1,"2004/06/29 18:00:00",6501.06667,32.53,TRADE
QLD1,"2004/06/29 18:30:00",6538.07,35.02,TRADE
QLD1,"2004/06/29 19:00:00",6538.52167,33.69,TRADE
QLD1,"2004/06/29 19:30:00",6473.63167,35.09,TRADE
QLD1,"2004/06/29 20:00:00",6442.27667,34.84,TRADE
QLD1,"2004/06/29 20:30:00",6493.57667,34.95,TRADE
QLD1,"2004/06/29 21:00:00",6423.56167,34.91,TRADE
QLD1,"2004/06/29 21:30:00",6297.60167,36.55,TRADE
QLD1,"2004/06/29 22:00:00",6176.55667,36.75,TRADE
QLD1,"2004/06/29 22:30:00",5961.88333,43.38,TRADE
QLD1,"2004/06/29 23:00:00",5703.82,33.58,TRADE
QLD1,"2004/06/29 23:30:00",5633.39833,35.6,TRADE
QLD1,"2004/06/30 00:00:00",5407.61833,35.29,TRADE
QLD1,"2004/06/30 00:30:00",5219.84167,34.53,TRADE
QLD1,"2004/06/30 01:00:00",5049.83833,31.76,TRADE
QLD1,"2004/06/30 01:30:00",4856.68167,28.35,TRADE
QLD1,"2004/06/30 02:00:00",4710.20167,19.62,TRADE
QLD1,"2004/06/30 02:30:00",4557.095,18.15,TRADE
QLD1,"2004/06/30 03:00:00",4482.65167,19.21,TRADE
QLD1,"2004/06/30 03:30:00",4400.02,16.25,TRADE
QLD1,"2004/06/30 04:00:00",4370.56833,15.76,TRADE
QLD1,"2004/06/30 04:30:00",4370.38833,15.47,TRADE
QLD1,"2004/06/30 05:00:00",4486.56,15.47,TRADE
QLD1,"2004/06/30 05:30:00",4696.655,16.17,TRADE
QLD1,"2004/06/30 06:00:00",4992.445,17.52,TRADE
QLD1,"2004/06/30 06:30:00",5436.72333,29.42,TRADE
QLD1,"2004/06/30 07:00:00",5898.905,33.25,TRADE
QLD1,"2004/06/30 07:30:00",6286.05333,38.27,TRADE
QLD1,"2004/06/30 08:00:00",6461.04667,56.04,TRADE
QLD1,"2004/06/30 08:30:00",6530.66333,42.37,TRADE
QLD1,"2004/06/30 09:00:00",6420.415,35.2,TRADE
QLD1,"2004/06/30 09:30:00",6413.735,35.12,TRADE
QLD1,"2004/06/30 10:00:00",6277.94333,34.71,TRADE
QLD1,"2004/06/30 10:30:00",6165.46167,24.66,TRADE
QLD1,"2004/06/30 11:00:00",6106.47833,23.19,TRADE
QLD1,"2004/06/30 11:30:00",6021.56333,22.04,TRADE
QLD1,"2004/06/30 12:00:00",5948.75167,24.63,TRADE
QLD1,"2004/06/30 12:30:00",5821.46833,23.28,TRADE
QLD1,"2004/06/30 13:00:00",5732.20833,23.55,TRADE
QLD1,"2004/06/30 13:30:00",5649.23667,26.36,TRADE
QLD1,"2004/06/30 14:00:00",5659.59167,29.87,TRADE
QLD1,"2004/06/30 14:30:00",5617.59667,22.34,TRADE
QLD1,"2004/06/30 15:00:00",5622.60667,22.66,TRADE
QLD1,"2004/06/30 15:30:00",5661.78,22.97,TRADE
QLD1,"2004/06/30 16:00:00",5656.63833,24.66,TRADE
QLD1,"2004/06/30 16:30:00",5749.07,23.22,TRADE
QLD1,"2004/06/30 17:00:00",5989.13167,26.1,TRADE
QLD1,"2004/06/30 17:30:00",6298.32167,36.52,TRADE
QLD1,"2004/06/30 18:00:00",6552.045,34.59,TRADE
QLD1,"2004/06/30 18:30:00",6538.83667,34.47,TRADE
QLD1,"2004/06/30 19:00:00",6516.20833,37.76,TRADE
QLD1,"2004/06/30 19:30:00",6396.89667,36.68,TRADE
QLD1,"2004/06/30 20:00:00",6366.29333,34.92,TRADE
QLD1,"2004/06/30 20:30:00",6451.31833,35.06,TRADE
QLD1,"2004/06/30 21:00:00",6323.82,34.74,TRADE
QLD1,"2004/06/30 21:30:00",6151.62667,36.33,TRADE
QLD1,"2004/06/30 22:00:00",6081.17667,34.03,TRADE
QLD1,"2004/06/30 22:30:00",5907.835,39.58,TRADE
QLD1,"2004/06/30 23:00:00",5637.665,31.87,TRADE
QLD1,"2004/06/30 23:30:00",5559.01333,34.26,TRADE
QLD1,"2004/07/01 00:00:00",5348.685,31.43,TRADE
