REGION,SETTLEMENTDATE,TOTALDEMAND,RRP,PERIODTYPE
QLD1,"2000/11/01 00:30",4393.555,23.26,TRADE
QLD1,"2000/11/01 01:00",4210.33167,20.1,TRADE
QLD1,"2000/11/01 01:30",3990.03333,18.65,TRADE
QLD1,"2000/11/01 02:00",3883.985,17.92,TRADE
QLD1,"2000/11/01 02:30",3813.50833,16.05,TRADE
QLD1,"2000/11/01 03:00",3827.405,18,TRADE
QLD1,"2000/11/01 03:30",3772.44667,17.68,TRADE
QLD1,"2000/11/01 04:00",3769.14167,17.77,TRADE
QLD1,"2000/11/01 04:30",3811.02333,17.98,TRADE
QLD1,"2000/11/01 05:00",3851.06667,17.92,TRADE
QLD1,"2000/11/01 05:30",3969.08667,17.97,TRADE
QLD1,"2000/11/01 06:00",4166.25333,17.83,TRADE
QLD1,"2000/11/01 06:30",4567.30167,20.44,TRADE
QLD1,"2000/11/01 07:00",4988.78167,31.58,TRADE
QLD1,"2000/11/01 07:30",5299.92,53.66,TRADE
QLD1,"2000/11/01 08:00",5465.67167,47.9,TRADE
QLD1,"2000/11/01 08:30",5551.91167,49.5,TRADE
QLD1,"2000/11/01 09:00",5599.38833,60.59,TRADE
QLD1,"2000/11/01 09:30",5555.825,55.65,TRADE
QLD1,"2000/11/01 10:00",5519.35,44.67,TRADE
QLD1,"2000/11/01 10:30",5499.67167,52.56,TRADE
QLD1,"2000/11/01 11:00",5461.145,51.08,TRADE
QLD1,"2000/11/01 11:30",5485.32833,48.19,TRADE
QLD1,"2000/11/01 12:00",5515.97167,51.89,TRADE
QLD1,"2000/11/01 12:30",5471.135,44.2,TRADE
QLD1,"2000/11/01 13:00",5458.16833,44.45,TRADE
QLD1,"2000/11/01 13:30",5438.69167,48.52,TRADE
QLD1,"2000/11/01 14:00",5422.44167,62.66,TRADE
QLD1,"2000/11/01 14:30",5408.03833,39.02,TRADE
QLD1,"2000/11/01 15:00",5392.24167,33.84,TRADE
QLD1,"2000/11/01 15:30",5405.48,35.38,TRADE
QLD1,"2000/11/01 16:00",5348.09667,26.82,TRADE
QLD1,"2000/11/01 16:30",5382.73833,25.26,TRADE
QLD1,"2000/11/01 17:00",5411.19167,25.16,TRADE
QLD1,"2000/11/01 17:30",5430.81667,39.64,TRADE
QLD1,"2000/11/01 18:00",5458.36833,43.48,TRADE
QLD1,"2000/11/01 18:30",5510.10667,47.41,TRADE
QLD1,"2000/11/01 19:00",5625.775,58.83,TRADE
QLD1,"2000/11/01 19:30",5529.275,46.32,TRADE
QLD1,"2000/11/01 20:00",5443.185,52.05,TRADE
QLD1,"2000/11/01 20:30",5227.68833,27.61,TRADE
QLD1,"2000/11/01 21:00",5113.895,21.77,TRADE
QLD1,"2000/11/01 21:30",5068.42333,21.59,TRADE
QLD1,"2000/11/01 22:00",5103.925,39.48,TRADE
QLD1,"2000/11/01 22:30",5038.525,61.19,TRADE
QLD1,"2000/11/01 23:00",4856.65,35.94,TRADE
QLD1,"2000/11/01 23:30",4843.1,41.66,TRADE
QLD1,"2000/11/02 00:00",4615.24333,27.6,TRADE
QLD1,"2000/11/02 00:30",4357.23667,21.47,TRADE
QLD1,"2000/11/02 01:00",4158.83667,18.15,TRADE
QLD1,"2000/11/02 01:30",3944.34667,18,TRADE
QLD1,"2000/11/02 02:00",3899.795,18,TRADE
QLD1,"2000/11/02 02:30",3795.22667,17.81,TRADE
QLD1,"2000/11/02 03:00",3777.94667,18.02,TRADE
QLD1,"2000/11/02 03:30",3750.48,17.86,TRADE
QLD1,"2000/11/02 04:00",3787.735,17.75,TRADE
QLD1,"2000/11/02 04:30",3761.61667,18.23,TRADE
QLD1,"2000/11/02 05:00",3840.67167,17.97,TRADE
QLD1,"2000/11/02 05:30",3972.015,17.96,TRADE
QLD1,"2000/11/02 06:00",4146.13,18,TRADE
QLD1,"2000/11/02 06:30",4503.05667,23.49,TRADE
QLD1,"2000/11/02 07:00",4881.405,33.7,TRADE
QLD1,"2000/11/02 07:30",5244.175,45.18,TRADE
QLD1,"2000/11/02 08:00",5452.745,54.03,TRADE
QLD1,"2000/11/02 08:30",5602.65,81.81,TRADE
QLD1,"2000/11/02 09:00",5607.38167,61.78,TRADE
QLD1,"2000/11/02 09:30",5586.36833,54.34,TRADE
QLD1,"2000/11/02 10:00",5600.53,56.05,TRADE
QLD1,"2000/11/02 10:30",5563.02667,75.12,TRADE
QLD1,"2000/11/02 11:00",5539.09333,49.58,TRADE
QLD1,"2000/11/02 11:30",5521.985,44.66,TRADE
QLD1,"2000/11/02 12:00",5587.77833,45.14,TRADE
QLD1,"2000/11/02 12:30",5507.35833,44.22,TRADE
QLD1,"2000/11/02 13:00",5411.68167,42.86,TRADE
QLD1,"2000/11/02 13:30",5424.14833,43.68,TRADE
QLD1,"2000/11/02 14:00",5394.59667,42.16,TRADE
QLD1,"2000/11/02 14:30",5412.60333,44.35,TRADE
QLD1,"2000/11/02 15:00",5349.75667,42.26,TRADE
QLD1,"2000/11/02 15:30",5328.24333,41.82,TRADE
QLD1,"2000/11/02 16:00",5306.67333,40.5,TRADE
QLD1,"2000/11/02 16:30",5357.23167,42.5,TRADE
QLD1,"2000/11/02 17:00",5403.49167,44.98,TRADE
QLD1,"2000/11/02 17:30",5474.88667,50.79,TRADE
QLD1,"2000/11/02 18:00",5628.40167,69.39,TRADE
QLD1,"2000/11/02 18:30",5681.54333,76.66,TRADE
QLD1,"2000/11/02 19:00",5661.76167,68.04,TRADE
QLD1,"2000/11/02 19:30",5559.94167,55.33,TRADE
QLD1,"2000/11/02 20:00",5631.52667,877.85,TRADE
QLD1,"2000/11/02 20:30",5319.55333,29.99,TRADE
QLD1,"2000/11/02 21:00",5186.42167,34.89,TRADE
QLD1,"2000/11/02 21:30",5059.625,852.89,TRADE
QLD1,"2000/11/02 22:00",5041.45333,27.54,TRADE
QLD1,"2000/11/02 22:30",5085.395,391.29,TRADE
QLD1,"2000/11/02 23:00",4834.96,75.7,TRADE
QLD1,"2000/11/02 23:30",4875.58333,36.28,TRADE
QLD1,"2000/11/03 00:00",4683.1,29.63,TRADE
QLD1,"2000/11/03 00:30",4380.03833,18.9,TRADE
QLD1,"2000/11/03 01:00",4105.46667,17.92,TRADE
QLD1,"2000/11/03 01:30",3930.83333,17.89,TRADE
QLD1,"2000/11/03 02:00",3806.42667,17.81,TRADE
QLD1,"2000/11/03 02:30",3715.22667,18.14,TRADE
QLD1,"2000/11/03 03:00",3663.68333,17.56,TRADE
QLD1,"2000/11/03 03:30",3667.34333,17.64,TRADE
QLD1,"2000/11/03 04:00",3701.79833,18.13,TRADE
QLD1,"2000/11/03 04:30",3725.38833,18.91,TRADE
QLD1,"2000/11/03 05:00",3788.18333,19.29,TRADE
QLD1,"2000/11/03 05:30",3885.10333,18,TRADE
QLD1,"2000/11/03 06:00",4089.465,18,TRADE
QLD1,"2000/11/03 06:30",4489.21167,22.63,TRADE
QLD1,"2000/11/03 07:00",4855.49,31.68,TRADE
QLD1,"2000/11/03 07:30",5192.08667,38.52,TRADE
QLD1,"2000/11/03 08:00",5404.215,46.09,TRADE
QLD1,"2000/11/03 08:30",5555.54,69.53,TRADE
QLD1,"2000/11/03 09:00",5635.21167,74.67,TRADE
QLD1,"2000/11/03 09:30",5594.265,48.68,TRADE
QLD1,"2000/11/03 10:00",5526.94667,44.21,TRADE
QLD1,"2000/11/03 10:30",5486.335,40.58,TRADE
QLD1,"2000/11/03 11:00",5521.19833,44.28,TRADE
QLD1,"2000/11/03 11:30",5533.93333,46.98,TRADE
QLD1,"2000/11/03 12:00",5524.25167,48.6,TRADE
QLD1,"2000/11/03 12:30",5483.93667,41.99,TRADE
QLD1,"2000/11/03 13:00",5450.84833,38.9,TRADE
QLD1,"2000/11/03 13:30",5445.75833,41.35,TRADE
QLD1,"2000/11/03 14:00",5509.36167,84.56,TRADE
QLD1,"2000/11/03 14:30",5488.96667,71.18,TRADE
QLD1,"2000/11/03 15:00",5463.52833,87.19,TRADE
QLD1,"2000/11/03 15:30",5486.48667,96.33,TRADE
QLD1,"2000/11/03 16:00",5461.89333,48.08,TRADE
QLD1,"2000/11/03 16:30",5441.555,42.42,TRADE
QLD1,"2000/11/03 17:00",5438.92167,39.67,TRADE
QLD1,"2000/11/03 17:30",5468.52,40.61,TRADE
QLD1,"2000/11/03 18:00",5449.03,41.13,TRADE
QLD1,"2000/11/03 18:30",5486.18833,44.95,TRADE
QLD1,"2000/11/03 19:00",5464.52333,43.09,TRADE
QLD1,"2000/11/03 19:30",5341.53167,36.61,TRADE
QLD1,"2000/11/03 20:00",5200.32,27.12,TRADE
QLD1,"2000/11/03 20:30",5057.76333,19.69,TRADE
QLD1,"2000/11/03 21:00",4981.76167,18.15,TRADE
QLD1,"2000/11/03 21:30",4910.92667,20.85,TRADE
QLD1,"2000/11/03 22:00",4942.27833,24.39,TRADE
QLD1,"2000/11/03 22:30",4921.25333,29.18,TRADE
QLD1,"2000/11/03 23:00",4852.17833,25.82,TRADE
QLD1,"2000/11/03 23:30",4874.23167,33.45,TRADE
QLD1,"2000/11/04 00:00",4622.675,21.88,TRADE
QLD1,"2000/11/04 00:30",4388.03333,21.19,TRADE
QLD1,"2000/11/04 01:00",4070.20167,18,TRADE
QLD1,"2000/11/04 01:30",3887.76167,18,TRADE
QLD1,"2000/11/04 02:00",3739.14833,17.77,TRADE
QLD1,"2000/11/04 02:30",3685.97667,17.78,TRADE
QLD1,"2000/11/04 03:00",3662.23,17.93,TRADE
QLD1,"2000/11/04 03:30",3630.79167,16.96,TRADE
QLD1,"2000/11/04 04:00",3602.03167,16.69,TRADE
QLD1,"2000/11/04 04:30",3591.05167,16.63,TRADE
QLD1,"2000/11/04 05:00",3613.51167,16.75,TRADE
QLD1,"2000/11/04 05:30",3654.17833,20.33,TRADE
QLD1,"2000/11/04 06:00",3727.65,20.73,TRADE
QLD1,"2000/11/04 06:30",3902.55333,17.91,TRADE
QLD1,"2000/11/04 07:00",4110.67,17.93,TRADE
QLD1,"2000/11/04 07:30",4348.40833,18,TRADE
QLD1,"2000/11/04 08:00",4625.86833,22.5,TRADE
QLD1,"2000/11/04 08:30",4855.96,32.05,TRADE
QLD1,"2000/11/04 09:00",4949.21833,34.73,TRADE
QLD1,"2000/11/04 09:30",5039.92667,37.84,TRADE
QLD1,"2000/11/04 10:00",5064.51,37.64,TRADE
QLD1,"2000/11/04 10:30",5027.61833,36.24,TRADE
QLD1,"2000/11/04 11:00",5006.565,34.06,TRADE
QLD1,"2000/11/04 11:30",5011.315,34.04,TRADE
QLD1,"2000/11/04 12:00",4987.89333,33.12,TRADE
QLD1,"2000/11/04 12:30",4942.84167,31.27,TRADE
QLD1,"2000/11/04 13:00",4970.17667,28.42,TRADE
QLD1,"2000/11/04 13:30",4915.555,24.81,TRADE
QLD1,"2000/11/04 14:00",4829.285,21.54,TRADE
QLD1,"2000/11/04 14:30",4850.96667,22.99,TRADE
QLD1,"2000/11/04 15:00",4818.74167,26.85,TRADE
QLD1,"2000/11/04 15:30",4815.13333,23.38,TRADE
QLD1,"2000/11/04 16:00",4835.92333,30.27,TRADE
QLD1,"2000/11/04 16:30",4851.09167,29.6,TRADE
QLD1,"2000/11/04 17:00",4898.05333,31.58,TRADE
QLD1,"2000/11/04 17:30",5019.38167,38.23,TRADE
QLD1,"2000/11/04 18:00",5141.54333,43.39,TRADE
QLD1,"2000/11/04 18:30",5248.29833,46.7,TRADE
QLD1,"2000/11/04 19:00",5243.24167,45.63,TRADE
QLD1,"2000/11/04 19:30",5084.04833,37.19,TRADE
QLD1,"2000/11/04 20:00",4928.68667,28.81,TRADE
QLD1,"2000/11/04 20:30",4765.31,19.93,TRADE
QLD1,"2000/11/04 21:00",4657.59,18.17,TRADE
QLD1,"2000/11/04 21:30",4660.17,18.08,TRADE
QLD1,"2000/11/04 22:00",4635.12833,18.12,TRADE
QLD1,"2000/11/04 22:30",4677.65167,18.42,TRADE
QLD1,"2000/11/04 23:00",4641.535,18.87,TRADE
QLD1,"2000/11/04 23:30",4619.31833,24.51,TRADE
QLD1,"2000/11/05 00:00",4377.85667,18.64,TRADE
QLD1,"2000/11/05 00:30",4115.635,17.96,TRADE
QLD1,"2000/11/05 01:00",3887.97667,18,TRADE
QLD1,"2000/11/05 01:30",3763.93,17.97,TRADE
QLD1,"2000/11/05 02:00",3646.20333,19.56,TRADE
QLD1,"2000/11/05 02:30",3611.63667,18.59,TRADE
QLD1,"2000/11/05 03:00",3551.54833,17.71,TRADE
QLD1,"2000/11/05 03:30",3543.67333,17.75,TRADE
QLD1,"2000/11/05 04:00",3514.37333,17.66,TRADE
QLD1,"2000/11/05 04:30",3503.60333,17.29,TRADE
QLD1,"2000/11/05 05:00",3515.17667,17.72,TRADE
QLD1,"2000/11/05 05:30",3512.30667,17.63,TRADE
QLD1,"2000/11/05 06:00",3569.32667,18.24,TRADE
QLD1,"2000/11/05 06:30",3693.11,18.73,TRADE
QLD1,"2000/11/05 07:00",3850.88167,20.71,TRADE
QLD1,"2000/11/05 07:30",4041.85167,26.44,TRADE
QLD1,"2000/11/05 08:00",4258.00333,18.61,TRADE
QLD1,"2000/11/05 08:30",4464.57,18.17,TRADE
QLD1,"2000/11/05 09:00",4582.22667,18.76,TRADE
QLD1,"2000/11/05 09:30",4652.54,21.07,TRADE
QLD1,"2000/11/05 10:00",4684.50833,22.16,TRADE
QLD1,"2000/11/05 10:30",4670.63833,20.54,TRADE
QLD1,"2000/11/05 11:00",4688.15333,21.7,TRADE
QLD1,"2000/11/05 11:30",4690.39167,21.01,TRADE
QLD1,"2000/11/05 12:00",4706.73167,21,TRADE
QLD1,"2000/11/05 12:30",4702.47333,19.69,TRADE
QLD1,"2000/11/05 13:00",4641.99167,18,TRADE
QLD1,"2000/11/05 13:30",4625.14167,18,TRADE
QLD1,"2000/11/05 14:00",4592.435,18,TRADE
QLD1,"2000/11/05 14:30",4580.07333,18,TRADE
QLD1,"2000/11/05 15:00",4599.73833,18,TRADE
QLD1,"2000/11/05 15:30",4623.59167,18,TRADE
QLD1,"2000/11/05 16:00",4590.055,18,TRADE
QLD1,"2000/11/05 16:30",4614.21833,18,TRADE
QLD1,"2000/11/05 17:00",4728.44333,19.48,TRADE
QLD1,"2000/11/05 17:30",4878.33333,28.44,TRADE
QLD1,"2000/11/05 18:00",5063.65833,41.05,TRADE
QLD1,"2000/11/05 18:30",5201.94333,48.62,TRADE
QLD1,"2000/11/05 19:00",5181.51167,43.39,TRADE
QLD1,"2000/11/05 19:30",4990.60667,34.06,TRADE
QLD1,"2000/11/05 20:00",4886.75,24.86,TRADE
QLD1,"2000/11/05 20:30",4760.39,19.27,TRADE
QLD1,"2000/11/05 21:00",4747.125,18.61,TRADE
QLD1,"2000/11/05 21:30",4649.32833,18,TRADE
QLD1,"2000/11/05 22:00",4646.34167,18,TRADE
QLD1,"2000/11/05 22:30",4632.70833,18,TRADE
QLD1,"2000/11/05 23:00",4578.08667,17.96,TRADE
QLD1,"2000/11/05 23:30",4524.53667,18,TRADE
QLD1,"2000/11/06 00:00",4270.045,17.92,TRADE
QLD1,"2000/11/06 00:30",4048.045,17.96,TRADE
QLD1,"2000/11/06 01:00",3909.11667,17.92,TRADE
QLD1,"2000/11/06 01:30",3807.16833,18.25,TRADE
QLD1,"2000/11/06 02:00",3702.36333,17.74,TRADE
QLD1,"2000/11/06 02:30",3686.4,19.67,TRADE
QLD1,"2000/11/06 03:00",3663.65167,18.08,TRADE
QLD1,"2000/11/06 03:30",3629.12667,17.53,TRADE
QLD1,"2000/11/06 04:00",3595.63,15.99,TRADE
QLD1,"2000/11/06 04:30",3648.89667,16.54,TRADE
QLD1,"2000/11/06 05:00",3701.92667,17.42,TRADE
QLD1,"2000/11/06 05:30",3822.44667,18.73,TRADE
QLD1,"2000/11/06 06:00",4002.13833,20.46,TRADE
QLD1,"2000/11/06 06:30",4405.53833,19.31,TRADE
QLD1,"2000/11/06 07:00",4768.12833,19.35,TRADE
QLD1,"2000/11/06 07:30",5146.455,20.17,TRADE
QLD1,"2000/11/06 08:00",5375.40333,30.23,TRADE
QLD1,"2000/11/06 08:30",5547.57,39.33,TRADE
QLD1,"2000/11/06 09:00",5598.475,41.13,TRADE
QLD1,"2000/11/06 09:30",5576.43,37.57,TRADE
QLD1,"2000/11/06 10:00",5538.27167,36.41,TRADE
QLD1,"2000/11/06 10:30",5541.30333,37.58,TRADE
QLD1,"2000/11/06 11:00",5509.37333,46.92,TRADE
QLD1,"2000/11/06 11:30",5513.895,50.52,TRADE
QLD1,"2000/11/06 12:00",5621.67,163.19,TRADE
QLD1,"2000/11/06 12:30",5536.52667,40.48,TRADE
QLD1,"2000/11/06 13:00",5563.81667,48.15,TRADE
QLD1,"2000/11/06 13:30",5608.89,64.03,TRADE
QLD1,"2000/11/06 14:00",5650.295,192.55,TRADE
QLD1,"2000/11/06 14:30",5667.025,173.05,TRADE
QLD1,"2000/11/06 15:00",5593.33,36.86,TRADE
QLD1,"2000/11/06 15:30",5638.96833,45.88,TRADE
QLD1,"2000/11/06 16:00",5612.67167,55.2,TRADE
QLD1,"2000/11/06 16:30",5631.78667,63.54,TRADE
QLD1,"2000/11/06 17:00",5582.87,55.93,TRADE
QLD1,"2000/11/06 17:30",5575.49333,55.76,TRADE
QLD1,"2000/11/06 18:00",5609.11,75.18,TRADE
QLD1,"2000/11/06 18:30",5537.35333,52.93,TRADE
QLD1,"2000/11/06 19:00",5566.23333,48.62,TRADE
QLD1,"2000/11/06 19:30",5469.00667,46.72,TRADE
QLD1,"2000/11/06 20:00",5373.985,41.39,TRADE
QLD1,"2000/11/06 20:30",5207.285,31.58,TRADE
QLD1,"2000/11/06 21:00",5087.05,30.52,TRADE
QLD1,"2000/11/06 21:30",4996.065,26.16,TRADE
QLD1,"2000/11/06 22:00",4988.45667,37.52,TRADE
QLD1,"2000/11/06 22:30",4957.60833,75.97,TRADE
QLD1,"2000/11/06 23:00",4799.21833,34.81,TRADE
QLD1,"2000/11/06 23:30",4744.88667,34,TRADE
QLD1,"2000/11/07 00:00",4545.47833,31.51,TRADE
QLD1,"2000/11/07 00:30",4288.55167,19.53,TRADE
QLD1,"2000/11/07 01:00",4042.665,18.3,TRADE
QLD1,"2000/11/07 01:30",3894.71167,18,TRADE
QLD1,"2000/11/07 02:00",3778.07,17.68,TRADE
QLD1,"2000/11/07 02:30",3705.59833,19.07,TRADE
QLD1,"2000/11/07 03:00",3652.01333,17.63,TRADE
QLD1,"2000/11/07 03:30",3679.60833,17.77,TRADE
QLD1,"2000/11/07 04:00",3676.42667,17.74,TRADE
QLD1,"2000/11/07 04:30",3677.60167,18.07,TRADE
QLD1,"2000/11/07 05:00",3747.94,20.19,TRADE
QLD1,"2000/11/07 05:30",3831.175,21.13,TRADE
QLD1,"2000/11/07 06:00",4051.80167,22.52,TRADE
QLD1,"2000/11/07 06:30",4422.71667,24.56,TRADE
QLD1,"2000/11/07 07:00",4803.16833,33.48,TRADE
QLD1,"2000/11/07 07:30",5142.715,36.9,TRADE
QLD1,"2000/11/07 08:00",5358.005,89.19,TRADE
QLD1,"2000/11/07 08:30",5529.07,75.2,TRADE
QLD1,"2000/11/07 09:00",5532.92167,158.73,TRADE
QLD1,"2000/11/07 09:30",5598.39,196.33,TRADE
QLD1,"2000/11/07 10:00",5584.05333,51.37,TRADE
QLD1,"2000/11/07 10:30",5572.1,260.43,TRADE
QLD1,"2000/11/07 11:00",5450.86,168.93,TRADE
QLD1,"2000/11/07 11:30",5504.99167,203.45,TRADE
QLD1,"2000/11/07 12:00",5497.11667,144.1,TRADE
QLD1,"2000/11/07 12:30",5479.175,82.45,TRADE
QLD1,"2000/11/07 13:00",5511.22333,86.48,TRADE
QLD1,"2000/11/07 13:30",5468.905,98.48,TRADE
QLD1,"2000/11/07 14:00",5446.33167,110.63,TRADE
QLD1,"2000/11/07 14:30",5303.10333,44.34,TRADE
QLD1,"2000/11/07 15:00",5237.47333,35.2,TRADE
QLD1,"2000/11/07 15:30",5293.64667,41.96,TRADE
QLD1,"2000/11/07 16:00",5323.91333,48.23,TRADE
QLD1,"2000/11/07 16:30",5343.58667,40.05,TRADE
QLD1,"2000/11/07 17:00",5404.735,52.07,TRADE
QLD1,"2000/11/07 17:30",5444.10167,60.4,TRADE
QLD1,"2000/11/07 18:00",5474.92833,61.75,TRADE
QLD1,"2000/11/07 18:30",5563.625,79.89,TRADE
QLD1,"2000/11/07 19:00",5535.10667,56.4,TRADE
QLD1,"2000/11/07 19:30",5367.22,36.06,TRADE
QLD1,"2000/11/07 20:00",5313.90833,43.39,TRADE
QLD1,"2000/11/07 20:30",5199.31167,33.39,TRADE
QLD1,"2000/11/07 21:00",5094.83167,30.67,TRADE
QLD1,"2000/11/07 21:30",5005.82833,24.01,TRADE
QLD1,"2000/11/07 22:00",5010.93667,39.06,TRADE
QLD1,"2000/11/07 22:30",4965.91,58.97,TRADE
QLD1,"2000/11/07 23:00",4805.91667,37.8,TRADE
QLD1,"2000/11/07 23:30",4793.635,36.31,TRADE
QLD1,"2000/11/08 00:00",4567.33,21.65,TRADE
QLD1,"2000/11/08 00:30",4324.22167,19.97,TRADE
QLD1,"2000/11/08 01:00",4123.67667,18.89,TRADE
QLD1,"2000/11/08 01:30",3911.16833,16.94,TRADE
QLD1,"2000/11/08 02:00",3834.52167,18.04,TRADE
QLD1,"2000/11/08 02:30",3774.35667,18,TRADE
QLD1,"2000/11/08 03:00",3723.55833,18,TRADE
QLD1,"2000/11/08 03:30",3713.205,18,TRADE
QLD1,"2000/11/08 04:00",3726.52333,18,TRADE
QLD1,"2000/11/08 04:30",3740.42,18,TRADE
QLD1,"2000/11/08 05:00",3770.06,18,TRADE
QLD1,"2000/11/08 05:30",3897.47333,19.68,TRADE
QLD1,"2000/11/08 06:00",4085.93333,21.45,TRADE
QLD1,"2000/11/08 06:30",4469.03667,22.75,TRADE
QLD1,"2000/11/08 07:00",4765.35833,32.48,TRADE
QLD1,"2000/11/08 07:30",5130.89333,39.58,TRADE
QLD1,"2000/11/08 08:00",5306.33333,43.01,TRADE
QLD1,"2000/11/08 08:30",5452.00833,64.03,TRADE
QLD1,"2000/11/08 09:00",5463.31167,64.1,TRADE
QLD1,"2000/11/08 09:30",5455.71333,64.22,TRADE
QLD1,"2000/11/08 10:00",5424.495,59.71,TRADE
QLD1,"2000/11/08 10:30",5473.84,116.78,TRADE
QLD1,"2000/11/08 11:00",5452.965,102.52,TRADE
QLD1,"2000/11/08 11:30",5439.74167,64.82,TRADE
QLD1,"2000/11/08 12:00",5467.47,64.25,TRADE
QLD1,"2000/11/08 12:30",5435.08,67.62,TRADE
QLD1,"2000/11/08 13:00",5425.94333,114.16,TRADE
QLD1,"2000/11/08 13:30",5363.12,57.38,TRADE
QLD1,"2000/11/08 14:00",5380.24667,64.46,TRADE
QLD1,"2000/11/08 14:30",5410.63,59.48,TRADE
QLD1,"2000/11/08 15:00",5356.79,54.5,TRADE
QLD1,"2000/11/08 15:30",5327.19667,51.02,TRADE
QLD1,"2000/11/08 16:00",5348.15,50.51,TRADE
QLD1,"2000/11/08 16:30",5339.42667,51.45,TRADE
QLD1,"2000/11/08 17:00",5396.705,61.83,TRADE
QLD1,"2000/11/08 17:30",5419.725,69.98,TRADE
QLD1,"2000/11/08 18:00",5450.70833,66.95,TRADE
QLD1,"2000/11/08 18:30",5522.83333,124.71,TRADE
QLD1,"2000/11/08 19:00",5590.66833,130.65,TRADE
QLD1,"2000/11/08 19:30",5450.155,61.82,TRADE
QLD1,"2000/11/08 20:00",5418.18333,59.81,TRADE
QLD1,"2000/11/08 20:30",5197.26667,33.47,TRADE
QLD1,"2000/11/08 21:00",5151.76333,31.63,TRADE
QLD1,"2000/11/08 21:30",5053.67833,27.49,TRADE
QLD1,"2000/11/08 22:00",5107.59833,44.96,TRADE
QLD1,"2000/11/08 22:30",5070.71833,94.93,TRADE
QLD1,"2000/11/08 23:00",4898.075,36.96,TRADE
QLD1,"2000/11/08 23:30",4892.00333,39.76,TRADE
QLD1,"2000/11/09 00:00",4661.96167,35.1,TRADE
QLD1,"2000/11/09 00:30",4379.86667,26.56,TRADE
QLD1,"2000/11/09 01:00",4182.23,19.26,TRADE
QLD1,"2000/11/09 01:30",3936.29667,17.85,TRADE
QLD1,"2000/11/09 02:00",3905.455,17.96,TRADE
QLD1,"2000/11/09 02:30",3806.60833,18.88,TRADE
QLD1,"2000/11/09 03:00",3785.52167,20.98,TRADE
QLD1,"2000/11/09 03:30",3791.50833,20.5,TRADE
QLD1,"2000/11/09 04:00",3775.25,19.52,TRADE
QLD1,"2000/11/09 04:30",3793.245,19.55,TRADE
QLD1,"2000/11/09 05:00",3836.535,20.25,TRADE
QLD1,"2000/11/09 05:30",3916.06,21.44,TRADE
QLD1,"2000/11/09 06:00",4190.76667,21.77,TRADE
QLD1,"2000/11/09 06:30",4492.25833,23.46,TRADE
QLD1,"2000/11/09 07:00",4901.63167,32.24,TRADE
QLD1,"2000/11/09 07:30",5223.87333,40.51,TRADE
QLD1,"2000/11/09 08:00",5382.67167,47.61,TRADE
QLD1,"2000/11/09 08:30",5535.78167,72.01,TRADE
QLD1,"2000/11/09 09:00",5499.91167,60.04,TRADE
QLD1,"2000/11/09 09:30",5477.56833,44.47,TRADE
QLD1,"2000/11/09 10:00",5398.04833,42.8,TRADE
QLD1,"2000/11/09 10:30",5356.31833,43.42,TRADE
QLD1,"2000/11/09 11:00",5368.5,43.16,TRADE
QLD1,"2000/11/09 11:30",5375.615,43.37,TRADE
QLD1,"2000/11/09 12:00",5355.89667,43.85,TRADE
QLD1,"2000/11/09 12:30",5342.66,42.88,TRADE
QLD1,"2000/11/09 13:00",5297.84,41.57,TRADE
QLD1,"2000/11/09 13:30",5335.01667,43.92,TRADE
QLD1,"2000/11/09 14:00",5314.54,42.95,TRADE
QLD1,"2000/11/09 14:30",5342.09333,43.61,TRADE
QLD1,"2000/11/09 15:00",5253.82833,40.5,TRADE
QLD1,"2000/11/09 15:30",5273.31167,42.73,TRADE
QLD1,"2000/11/09 16:00",5247.52333,39.18,TRADE
QLD1,"2000/11/09 16:30",5275.28167,38.58,TRADE
QLD1,"2000/11/09 17:00",5322.38,42.13,TRADE
QLD1,"2000/11/09 17:30",5361.16833,40.67,TRADE
QLD1,"2000/11/09 18:00",5470.04667,55.47,TRADE
QLD1,"2000/11/09 18:30",5588.61667,95.53,TRADE
QLD1,"2000/11/09 19:00",5570.56167,49.14,TRADE
QLD1,"2000/11/09 19:30",5454.91167,43.86,TRADE
QLD1,"2000/11/09 20:00",5389.43333,37.95,TRADE
QLD1,"2000/11/09 20:30",5190.815,24.58,TRADE
QLD1,"2000/11/09 21:00",5111.11,20.5,TRADE
QLD1,"2000/11/09 21:30",4991.56333,18.79,TRADE
QLD1,"2000/11/09 22:00",4973.29333,20.79,TRADE
QLD1,"2000/11/09 22:30",4967.00167,34.36,TRADE
QLD1,"2000/11/09 23:00",4805.565,29.75,TRADE
QLD1,"2000/11/09 23:30",4835.42,35.68,TRADE
QLD1,"2000/11/10 00:00",4584.51333,30.07,TRADE
QLD1,"2000/11/10 00:30",4307.49833,21.06,TRADE
QLD1,"2000/11/10 01:00",4062.19333,17.87,TRADE
QLD1,"2000/11/10 01:30",3889.55667,17.84,TRADE
QLD1,"2000/11/10 02:00",3843.67167,17.82,TRADE
QLD1,"2000/11/10 02:30",3785.475,18.25,TRADE
QLD1,"2000/11/10 03:00",3730.50167,17.71,TRADE
QLD1,"2000/11/10 03:30",3721.55167,17.52,TRADE
QLD1,"2000/11/10 04:00",3745.96,17.63,TRADE
QLD1,"2000/11/10 04:30",3751.47667,17.94,TRADE
QLD1,"2000/11/10 05:00",3854.96667,19.79,TRADE
QLD1,"2000/11/10 05:30",3948.42,21.63,TRADE
QLD1,"2000/11/10 06:00",4149.37167,18.85,TRADE
QLD1,"2000/11/10 06:30",4479.66,21.13,TRADE
QLD1,"2000/11/10 07:00",4856.035,27.72,TRADE
QLD1,"2000/11/10 07:30",5233.89833,36.15,TRADE
QLD1,"2000/11/10 08:00",5411.425,43.64,TRADE
QLD1,"2000/11/10 08:30",5564.74667,54.86,TRADE
QLD1,"2000/11/10 09:00",5539.5,46.9,TRADE
QLD1,"2000/11/10 09:30",5525.315,47.47,TRADE
QLD1,"2000/11/10 10:00",5483.79333,49.67,TRADE
QLD1,"2000/11/10 10:30",5448.24833,44.18,TRADE
QLD1,"2000/11/10 11:00",5442.70833,44.18,TRADE
QLD1,"2000/11/10 11:30",5433.14,43.75,TRADE
QLD1,"2000/11/10 12:00",5433.715,43.99,TRADE
QLD1,"2000/11/10 12:30",5380.45833,42.48,TRADE
QLD1,"2000/11/10 13:00",5358.74833,43.46,TRADE
QLD1,"2000/11/10 13:30",5324.425,41.01,TRADE
QLD1,"2000/11/10 14:00",5314.415,42.76,TRADE
QLD1,"2000/11/10 14:30",5297.96333,42.56,TRADE
QLD1,"2000/11/10 15:00",5261.93167,35.99,TRADE
QLD1,"2000/11/10 15:30",5203.30833,28.93,TRADE
QLD1,"2000/11/10 16:00",5173.965,29.07,TRADE
QLD1,"2000/11/10 16:30",5174.13833,25.59,TRADE
QLD1,"2000/11/10 17:00",5204.83333,25.61,TRADE
QLD1,"2000/11/10 17:30",5199.28833,21.69,TRADE
QLD1,"2000/11/10 18:00",5173.55667,22.01,TRADE
QLD1,"2000/11/10 18:30",5184.855,23.74,TRADE
QLD1,"2000/11/10 19:00",5301.28667,32.56,TRADE
QLD1,"2000/11/10 19:30",5196.82833,22.75,TRADE
QLD1,"2000/11/10 20:00",5120.165,20.94,TRADE
QLD1,"2000/11/10 20:30",4968.91833,18.02,TRADE
QLD1,"2000/11/10 21:00",4866.60667,18,TRADE
QLD1,"2000/11/10 21:30",4875.85333,18,TRADE
QLD1,"2000/11/10 22:00",4888.88667,18.4,TRADE
QLD1,"2000/11/10 22:30",4909.67167,23.84,TRADE
QLD1,"2000/11/10 23:00",4809.46667,21.52,TRADE
QLD1,"2000/11/10 23:30",4849.37167,33.73,TRADE
QLD1,"2000/11/11 00:00",4592.91167,23.94,TRADE
QLD1,"2000/11/11 00:30",4315.88667,21.24,TRADE
QLD1,"2000/11/11 01:00",4037.17667,18.32,TRADE
QLD1,"2000/11/11 01:30",3868.13833,17.79,TRADE
QLD1,"2000/11/11 02:00",3770.02833,18.49,TRADE
QLD1,"2000/11/11 02:30",3727.09333,18.06,TRADE
QLD1,"2000/11/11 03:00",3664.42667,18.02,TRADE
QLD1,"2000/11/11 03:30",3640.42833,17.73,TRADE
QLD1,"2000/11/11 04:00",3635.255,17.55,TRADE
QLD1,"2000/11/11 04:30",3645.96,17.51,TRADE
QLD1,"2000/11/11 05:00",3646.735,17.55,TRADE
QLD1,"2000/11/11 05:30",3690.74333,18.04,TRADE
QLD1,"2000/11/11 06:00",3771.875,19.54,TRADE
QLD1,"2000/11/11 06:30",3944.16333,21.58,TRADE
QLD1,"2000/11/11 07:00",4123.91333,19.39,TRADE
QLD1,"2000/11/11 07:30",4350.20167,17.96,TRADE
QLD1,"2000/11/11 08:00",4615.31833,20.37,TRADE
QLD1,"2000/11/11 08:30",4823.14167,30.66,TRADE
QLD1,"2000/11/11 09:00",4919.84,34.9,TRADE
QLD1,"2000/11/11 09:30",4974.805,35.64,TRADE
QLD1,"2000/11/11 10:00",4971.28167,35.06,TRADE
QLD1,"2000/11/11 10:30",4915.02833,34.19,TRADE
QLD1,"2000/11/11 11:00",4867,33.62,TRADE
QLD1,"2000/11/11 11:30",4862.32667,29.15,TRADE
QLD1,"2000/11/11 12:00",4825.70833,24.75,TRADE
QLD1,"2000/11/11 12:30",4748.24,22.47,TRADE
QLD1,"2000/11/11 13:00",4668.47167,19.34,TRADE
QLD1,"2000/11/11 13:30",4638.15333,18.14,TRADE
QLD1,"2000/11/11 14:00",4577.625,18,TRADE
QLD1,"2000/11/11 14:30",4533.22,18,TRADE
QLD1,"2000/11/11 15:00",4533.67,18,TRADE
QLD1,"2000/11/11 15:30",4519.03167,18,TRADE
QLD1,"2000/11/11 16:00",4543.82833,18,TRADE
QLD1,"2000/11/11 16:30",4579.53833,18,TRADE
QLD1,"2000/11/11 17:00",4651.69167,18.23,TRADE
QLD1,"2000/11/11 17:30",4734.56833,21.52,TRADE
QLD1,"2000/11/11 18:00",4830.67833,23.25,TRADE
QLD1,"2000/11/11 18:30",4945.36167,30.24,TRADE
QLD1,"2000/11/11 19:00",5080.165,35.24,TRADE
QLD1,"2000/11/11 19:30",5008.11167,32.53,TRADE
QLD1,"2000/11/11 20:00",4886.74,24.47,TRADE
QLD1,"2000/11/11 20:30",4727.85167,19.56,TRADE
QLD1,"2000/11/11 21:00",4585.63667,17.95,TRADE
QLD1,"2000/11/11 21:30",4520.79,17.91,TRADE
QLD1,"2000/11/11 22:00",4601.74833,18.02,TRADE
QLD1,"2000/11/11 22:30",4611.44,19.39,TRADE
QLD1,"2000/11/11 23:00",4540.96833,18.55,TRADE
QLD1,"2000/11/11 23:30",4536.02833,31.89,TRADE
QLD1,"2000/11/12 00:00",4302.23,19.44,TRADE
QLD1,"2000/11/12 00:30",4104.80167,21.41,TRADE
QLD1,"2000/11/12 01:00",3888.97,18.23,TRADE
QLD1,"2000/11/12 01:30",3723.41333,18,TRADE
QLD1,"2000/11/12 02:00",3634.46667,17.96,TRADE
QLD1,"2000/11/12 02:30",3604.96667,17.87,TRADE
QLD1,"2000/11/12 03:00",3520.05167,17.91,TRADE
QLD1,"2000/11/12 03:30",3518.84667,18.87,TRADE
QLD1,"2000/11/12 04:00",3497.735,20.18,TRADE
QLD1,"2000/11/12 04:30",3506.185,20.52,TRADE
QLD1,"2000/11/12 05:00",3500.23,20.55,TRADE
QLD1,"2000/11/12 05:30",3478.07833,19.61,TRADE
QLD1,"2000/11/12 06:00",3553.76167,21,TRADE
QLD1,"2000/11/12 06:30",3649.31167,20.9,TRADE
QLD1,"2000/11/12 07:00",3779.24833,17.96,TRADE
QLD1,"2000/11/12 07:30",3974.16667,17.93,TRADE
QLD1,"2000/11/12 08:00",4101.86,17.91,TRADE
QLD1,"2000/11/12 08:30",4339.58833,18,TRADE
QLD1,"2000/11/12 09:00",4448.85833,19.43,TRADE
QLD1,"2000/11/12 09:30",4511.17333,20.61,TRADE
QLD1,"2000/11/12 10:00",4533.15167,20.58,TRADE
QLD1,"2000/11/12 10:30",4522.69167,20.18,TRADE
QLD1,"2000/11/12 11:00",4541.64333,20.32,TRADE
QLD1,"2000/11/12 11:30",4535.76167,20.38,TRADE
QLD1,"2000/11/12 12:00",4500.29667,20.19,TRADE
QLD1,"2000/11/12 12:30",4490.39667,20.03,TRADE
QLD1,"2000/11/12 13:00",4497.11333,20.08,TRADE
QLD1,"2000/11/12 13:30",4446.395,18.72,TRADE
QLD1,"2000/11/12 14:00",4418.235,18.08,TRADE
QLD1,"2000/11/12 14:30",4387.18667,18,TRADE
QLD1,"2000/11/12 15:00",4390.11833,18,TRADE
QLD1,"2000/11/12 15:30",4412.34333,18,TRADE
QLD1,"2000/11/12 16:00",4387.7,18,TRADE
QLD1,"2000/11/12 16:30",4421.11167,18.14,TRADE
QLD1,"2000/11/12 17:00",4501.185,19.52,TRADE
QLD1,"2000/11/12 17:30",4614.33667,24.11,TRADE
QLD1,"2000/11/12 18:00",4777.11833,35.36,TRADE
QLD1,"2000/11/12 18:30",4926.15,71.95,TRADE
QLD1,"2000/11/12 19:00",5095.39667,219.84,TRADE
QLD1,"2000/11/12 19:30",5038.20833,77.04,TRADE
QLD1,"2000/11/12 20:00",4913.70667,28.61,TRADE
QLD1,"2000/11/12 20:30",4836.78833,20.06,TRADE
QLD1,"2000/11/12 21:00",4739.92333,17.94,TRADE
QLD1,"2000/11/12 21:30",4681.485,17.87,TRADE
QLD1,"2000/11/12 22:00",4638.66833,17.85,TRADE
QLD1,"2000/11/12 22:30",4638.52833,17.89,TRADE
QLD1,"2000/11/12 23:00",4566.35167,17.95,TRADE
QLD1,"2000/11/12 23:30",4584.31167,18.85,TRADE
QLD1,"2000/11/13 00:00",4335.57667,17.93,TRADE
QLD1,"2000/11/13 00:30",4121.78,17.96,TRADE
QLD1,"2000/11/13 01:00",3901.68167,19.15,TRADE
QLD1,"2000/11/13 01:30",3797.32667,18.97,TRADE
QLD1,"2000/11/13 02:00",3737.17,18.03,TRADE
QLD1,"2000/11/13 02:30",3668.195,17.6,TRADE
QLD1,"2000/11/13 03:00",3647.425,17.56,TRADE
QLD1,"2000/11/13 03:30",3640.74333,16.63,TRADE
QLD1,"2000/11/13 04:00",3669.27667,18.75,TRADE
QLD1,"2000/11/13 04:30",3693.88833,19.06,TRADE
QLD1,"2000/11/13 05:00",3776.08333,20.65,TRADE
QLD1,"2000/11/13 05:30",3879.61833,22.73,TRADE
QLD1,"2000/11/13 06:00",4066.43833,23.47,TRADE
QLD1,"2000/11/13 06:30",4435.36167,24.54,TRADE
QLD1,"2000/11/13 07:00",4831.74167,30.31,TRADE
QLD1,"2000/11/13 07:30",5225.35833,45.84,TRADE
QLD1,"2000/11/13 08:00",5480.29833,66.49,TRADE
QLD1,"2000/11/13 08:30",5574.155,78.44,TRADE
QLD1,"2000/11/13 09:00",5565.06667,70.2,TRADE
QLD1,"2000/11/13 09:30",5562.06667,64.04,TRADE
QLD1,"2000/11/13 10:00",5546.39167,55.14,TRADE
QLD1,"2000/11/13 10:30",5524.70333,50.62,TRADE
QLD1,"2000/11/13 11:00",5524.735,47.26,TRADE
QLD1,"2000/11/13 11:30",5559.54333,77.75,TRADE
QLD1,"2000/11/13 12:00",5545.775,64.12,TRADE
QLD1,"2000/11/13 12:30",5512.22333,47.76,TRADE
QLD1,"2000/11/13 13:00",5471.83833,43.73,TRADE
QLD1,"2000/11/13 13:30",5396.91167,37.82,TRADE
QLD1,"2000/11/13 14:00",5395.38833,38.81,TRADE
QLD1,"2000/11/13 14:30",5475.73333,41.14,TRADE
QLD1,"2000/11/13 15:00",5450.95833,44.06,TRADE
QLD1,"2000/11/13 15:30",5422.5,43.94,TRADE
QLD1,"2000/11/13 16:00",5422.57667,43.64,TRADE
QLD1,"2000/11/13 16:30",5429.14,40.67,TRADE
QLD1,"2000/11/13 17:00",5488.04167,44.44,TRADE
QLD1,"2000/11/13 17:30",5527.34333,55.53,TRADE
QLD1,"2000/11/13 18:00",5630.97333,81.43,TRADE
QLD1,"2000/11/13 18:30",5636.79667,96.69,TRADE
QLD1,"2000/11/13 19:00",5667.61667,77,TRADE
QLD1,"2000/11/13 19:30",5467.09833,25.98,TRADE
QLD1,"2000/11/13 20:00",5414.27,40.37,TRADE
QLD1,"2000/11/13 20:30",5220.74333,25.36,TRADE
QLD1,"2000/11/13 21:00",5077.60167,20.15,TRADE
QLD1,"2000/11/13 21:30",4994.29833,19.87,TRADE
QLD1,"2000/11/13 22:00",5050.89333,28.74,TRADE
QLD1,"2000/11/13 22:30",4996.73833,47.83,TRADE
QLD1,"2000/11/13 23:00",4832.34833,24.87,TRADE
QLD1,"2000/11/13 23:30",4805.825,34.85,TRADE
QLD1,"2000/11/14 00:00",4597.00833,29.14,TRADE
QLD1,"2000/11/14 00:30",4309.12,19.53,TRADE
QLD1,"2000/11/14 01:00",4058.07,17.87,TRADE
QLD1,"2000/11/14 01:30",3940.79667,17.96,TRADE
QLD1,"2000/11/14 02:00",3825.62167,20.46,TRADE
QLD1,"2000/11/14 02:30",3806.45667,18.84,TRADE
QLD1,"2000/11/14 03:00",3762.11333,18.15,TRADE
QLD1,"2000/11/14 03:30",3722.365,17.57,TRADE
QLD1,"2000/11/14 04:00",3715.50667,17.6,TRADE
QLD1,"2000/11/14 04:30",3780.51167,19.14,TRADE
QLD1,"2000/11/14 05:00",3779.17333,18.83,TRADE
QLD1,"2000/11/14 05:30",3896.98,23.13,TRADE
QLD1,"2000/11/14 06:00",4155.51667,22.05,TRADE
QLD1,"2000/11/14 06:30",4527.825,24.25,TRADE
QLD1,"2000/11/14 07:00",4925.75333,33.61,TRADE
QLD1,"2000/11/14 07:30",5258.23,38.45,TRADE
QLD1,"2000/11/14 08:00",5494.98,56.49,TRADE
QLD1,"2000/11/14 08:30",5598.835,71.73,TRADE
QLD1,"2000/11/14 09:00",5593.36833,61.18,TRADE
QLD1,"2000/11/14 09:30",5564.54,53.33,TRADE
QLD1,"2000/11/14 10:00",5515.825,44.69,TRADE
QLD1,"2000/11/14 10:30",5491.55167,44.48,TRADE
QLD1,"2000/11/14 11:00",5473.09333,46.81,TRADE
QLD1,"2000/11/14 11:30",5512.65333,46.71,TRADE
QLD1,"2000/11/14 12:00",5506.00333,45.81,TRADE
QLD1,"2000/11/14 12:30",5455.65167,53.43,TRADE
QLD1,"2000/11/14 13:00",5454.42167,50.3,TRADE
QLD1,"2000/11/14 13:30",5432.19833,46.63,TRADE
QLD1,"2000/11/14 14:00",5429.435,51.1,TRADE
QLD1,"2000/11/14 14:30",5386.525,47.21,TRADE
QLD1,"2000/11/14 15:00",5353.88167,62.12,TRADE
QLD1,"2000/11/14 15:30",5381.50667,68.03,TRADE
QLD1,"2000/11/14 16:00",5410.09167,54.65,TRADE
QLD1,"2000/11/14 16:30",5404.70333,44.26,TRADE
QLD1,"2000/11/14 17:00",5411.405,43.88,TRADE
QLD1,"2000/11/14 17:30",5465.99,43.91,TRADE
QLD1,"2000/11/14 18:00",5563.22167,40.64,TRADE
QLD1,"2000/11/14 18:30",5585.94833,35.7,TRADE
QLD1,"2000/11/14 19:00",5603.18667,41.18,TRADE
QLD1,"2000/11/14 19:30",5512.81667,41.22,TRADE
QLD1,"2000/11/14 20:00",5399.975,37.79,TRADE
QLD1,"2000/11/14 20:30",5272.08667,24.96,TRADE
QLD1,"2000/11/14 21:00",5202.385,21.54,TRADE
QLD1,"2000/11/14 21:30",5071.34333,19.71,TRADE
QLD1,"2000/11/14 22:00",5106.91667,23.27,TRADE
QLD1,"2000/11/14 22:30",5033.80333,31.43,TRADE
QLD1,"2000/11/14 23:00",4878.27333,29.2,TRADE
QLD1,"2000/11/14 23:30",4867.59167,34.85,TRADE
QLD1,"2000/11/15 00:00",4649.065,28.25,TRADE
QLD1,"2000/11/15 00:30",4358.57667,19.2,TRADE
QLD1,"2000/11/15 01:00",4093.84833,17.81,TRADE
QLD1,"2000/11/15 01:30",3924.47,18.84,TRADE
QLD1,"2000/11/15 02:00",3861.47,20.14,TRADE
QLD1,"2000/11/15 02:30",3815.65667,18.73,TRADE
QLD1,"2000/11/15 03:00",3769.12167,18.13,TRADE
QLD1,"2000/11/15 03:30",3740.91833,17.51,TRADE
QLD1,"2000/11/15 04:00",3718.51833,17.51,TRADE
QLD1,"2000/11/15 04:30",3774.26667,17.86,TRADE
QLD1,"2000/11/15 05:00",3797.15333,18.14,TRADE
QLD1,"2000/11/15 05:30",3927.775,22.02,TRADE
QLD1,"2000/11/15 06:00",4173.15833,21.6,TRADE
QLD1,"2000/11/15 06:30",4555.60167,24.21,TRADE
QLD1,"2000/11/15 07:00",4995.25167,33.62,TRADE
QLD1,"2000/11/15 07:30",5329.35667,43.56,TRADE
QLD1,"2000/11/15 08:00",5495.93333,53.11,TRADE
QLD1,"2000/11/15 08:30",5625.37167,80.25,TRADE
QLD1,"2000/11/15 09:00",5583.75667,53.24,TRADE
QLD1,"2000/11/15 09:30",5604.055,52.66,TRADE
QLD1,"2000/11/15 10:00",5596.96167,65.71,TRADE
QLD1,"2000/11/15 10:30",5569.885,55.52,TRADE
QLD1,"2000/11/15 11:00",5528.76833,44.83,TRADE
QLD1,"2000/11/15 11:30",5550.75333,55.84,TRADE
QLD1,"2000/11/15 12:00",5602.09333,62.07,TRADE
QLD1,"2000/11/15 12:30",5571.84833,60.74,TRADE
QLD1,"2000/11/15 13:00",5491.31333,44.92,TRADE
QLD1,"2000/11/15 13:30",5462.52333,43.7,TRADE
QLD1,"2000/11/15 14:00",5454.79,45.88,TRADE
QLD1,"2000/11/15 14:30",5482.04667,49.22,TRADE
QLD1,"2000/11/15 15:00",5411.81,43.77,TRADE
QLD1,"2000/11/15 15:30",5389.09167,43.15,TRADE
QLD1,"2000/11/15 16:00",5446.70167,46.18,TRADE
QLD1,"2000/11/15 16:30",5454.765,44.27,TRADE
QLD1,"2000/11/15 17:00",5481.90167,44.18,TRADE
QLD1,"2000/11/15 17:30",5516.19833,46.01,TRADE
QLD1,"2000/11/15 18:00",5589.04167,58.46,TRADE
QLD1,"2000/11/15 18:30",5615.37,60.46,TRADE
QLD1,"2000/11/15 19:00",5632.59,63.26,TRADE
QLD1,"2000/11/15 19:30",5509.28667,42.81,TRADE
QLD1,"2000/11/15 20:00",5380.385,30.32,TRADE
QLD1,"2000/11/15 20:30",5247.62667,24.28,TRADE
QLD1,"2000/11/15 21:00",5152.05833,19.92,TRADE
QLD1,"2000/11/15 21:30",5078.08,19.53,TRADE
QLD1,"2000/11/15 22:00",5140.1,27.98,TRADE
QLD1,"2000/11/15 22:30",5078.735,34.16,TRADE
QLD1,"2000/11/15 23:00",4882.98833,22.3,TRADE
QLD1,"2000/11/15 23:30",4890.37,33.96,TRADE
QLD1,"2000/11/16 00:00",4655.445,27.33,TRADE
QLD1,"2000/11/16 00:30",4369.34833,19.03,TRADE
QLD1,"2000/11/16 01:00",4129.52,18,TRADE
QLD1,"2000/11/16 01:30",3951.04667,17.84,TRADE
QLD1,"2000/11/16 02:00",3868.87,18.7,TRADE
QLD1,"2000/11/16 02:30",3776.12,17.52,TRADE
QLD1,"2000/11/16 03:00",3736.36833,17.5,TRADE
QLD1,"2000/11/16 03:30",3745.33167,17.45,TRADE
QLD1,"2000/11/16 04:00",3693.41167,17.17,TRADE
QLD1,"2000/11/16 04:30",3734.26333,17.26,TRADE
QLD1,"2000/11/16 05:00",3814.46333,17.92,TRADE
QLD1,"2000/11/16 05:30",3926.145,20.39,TRADE
QLD1,"2000/11/16 06:00",4178.865,20.25,TRADE
QLD1,"2000/11/16 06:30",4547.06333,22.45,TRADE
QLD1,"2000/11/16 07:00",4954.89,31.61,TRADE
QLD1,"2000/11/16 07:30",5314.01333,31.24,TRADE
QLD1,"2000/11/16 08:00",5493.82,41.27,TRADE
QLD1,"2000/11/16 08:30",5584.83667,52.34,TRADE
QLD1,"2000/11/16 09:00",5597.275,54.4,TRADE
QLD1,"2000/11/16 09:30",5603.605,56.66,TRADE
QLD1,"2000/11/16 10:00",5570.56667,49.24,TRADE
QLD1,"2000/11/16 10:30",5548.59167,44.97,TRADE
QLD1,"2000/11/16 11:00",5560.49,53.46,TRADE
QLD1,"2000/11/16 11:30",5571.33167,58.34,TRADE
QLD1,"2000/11/16 12:00",5570.78,52.18,TRADE
QLD1,"2000/11/16 12:30",5539.095,47.6,TRADE
QLD1,"2000/11/16 13:00",5468.78,41.49,TRADE
QLD1,"2000/11/16 13:30",5456.87167,41.14,TRADE
QLD1,"2000/11/16 14:00",5448.77833,40.11,TRADE
QLD1,"2000/11/16 14:30",5494.81333,43.65,TRADE
QLD1,"2000/11/16 15:00",5468.035,42.27,TRADE
QLD1,"2000/11/16 15:30",5431.57833,40.55,TRADE
QLD1,"2000/11/16 16:00",5453.77667,41.83,TRADE
QLD1,"2000/11/16 16:30",5458.81333,42.66,TRADE
QLD1,"2000/11/16 17:00",5489.84833,43.27,TRADE
QLD1,"2000/11/16 17:30",5527.24333,44.46,TRADE
QLD1,"2000/11/16 18:00",5653.09333,59.43,TRADE
QLD1,"2000/11/16 18:30",5656.15833,60,TRADE
QLD1,"2000/11/16 19:00",5692.05833,58.13,TRADE
QLD1,"2000/11/16 19:30",5587.40667,49.73,TRADE
QLD1,"2000/11/16 20:00",5545.05,44.66,TRADE
QLD1,"2000/11/16 20:30",5366.93333,35.01,TRADE
QLD1,"2000/11/16 21:00",5254.80833,26.44,TRADE
QLD1,"2000/11/16 21:30",5165.99667,18.02,TRADE
QLD1,"2000/11/16 22:00",5159.53333,22.49,TRADE
QLD1,"2000/11/16 22:30",5135.97333,47.62,TRADE
QLD1,"2000/11/16 23:00",4989.11,26.5,TRADE
QLD1,"2000/11/16 23:30",4951.30333,33.76,TRADE
QLD1,"2000/11/17 00:00",4714.475,24.19,TRADE
QLD1,"2000/11/17 00:30",4430.16,17.97,TRADE
QLD1,"2000/11/17 01:00",4132.29,17.74,TRADE
QLD1,"2000/11/17 01:30",3993.29333,18.18,TRADE
QLD1,"2000/11/17 02:00",3913.11167,17.6,TRADE
QLD1,"2000/11/17 02:30",3859.68,17.5,TRADE
QLD1,"2000/11/17 03:00",3790.11167,16.97,TRADE
QLD1,"2000/11/17 03:30",3813.82833,17.07,TRADE
QLD1,"2000/11/17 04:00",3780.60167,17,TRADE
QLD1,"2000/11/17 04:30",3785.51333,17.35,TRADE
QLD1,"2000/11/17 05:00",3887.84167,17.59,TRADE
QLD1,"2000/11/17 05:30",3985.65667,22.38,TRADE
QLD1,"2000/11/17 06:00",4173.13167,19.91,TRADE
QLD1,"2000/11/17 06:30",4568.47,23.18,TRADE
QLD1,"2000/11/17 07:00",4943.44333,31.61,TRADE
QLD1,"2000/11/17 07:30",5292.56667,36.69,TRADE
QLD1,"2000/11/17 08:00",5524.525,44.79,TRADE
QLD1,"2000/11/17 08:30",5658.55833,52.05,TRADE
QLD1,"2000/11/17 09:00",5660.12333,50.65,TRADE
QLD1,"2000/11/17 09:30",5701.255,60.39,TRADE
QLD1,"2000/11/17 10:00",5647.48,50.92,TRADE
QLD1,"2000/11/17 10:30",5601.06167,45.71,TRADE
QLD1,"2000/11/17 11:00",5582.60333,44.73,TRADE
QLD1,"2000/11/17 11:30",5583.205,44.59,TRADE
QLD1,"2000/11/17 12:00",5590.35667,44.08,TRADE
QLD1,"2000/11/17 12:30",5485.105,41.11,TRADE
QLD1,"2000/11/17 13:00",5432.465,35.51,TRADE
QLD1,"2000/11/17 13:30",5430.14167,33.54,TRADE
QLD1,"2000/11/17 14:00",5427.205,33.22,TRADE
QLD1,"2000/11/17 14:30",5420.585,33.94,TRADE
QLD1,"2000/11/17 15:00",5350.22667,31.32,TRADE
QLD1,"2000/11/17 15:30",5325.45667,26.7,TRADE
QLD1,"2000/11/17 16:00",5355.40833,27.13,TRADE
QLD1,"2000/11/17 16:30",5414.13167,29.78,TRADE
QLD1,"2000/11/17 17:00",5427.345,30.14,TRADE
QLD1,"2000/11/17 17:30",5450.935,27.04,TRADE
QLD1,"2000/11/17 18:00",5462.21667,24.73,TRADE
QLD1,"2000/11/17 18:30",5425.395,21.76,TRADE
QLD1,"2000/11/17 19:00",5443.615,21.86,TRADE
QLD1,"2000/11/17 19:30",5321.66,19.32,TRADE
QLD1,"2000/11/17 20:00",5216.085,18,TRADE
QLD1,"2000/11/17 20:30",5020.29667,17.7,TRADE
QLD1,"2000/11/17 21:00",4920.21,17.65,TRADE
QLD1,"2000/11/17 21:30",4865.77667,17.68,TRADE
QLD1,"2000/11/17 22:00",4916.71167,17.96,TRADE
QLD1,"2000/11/17 22:30",4897.91667,18,TRADE
QLD1,"2000/11/17 23:00",4794.955,18,TRADE
QLD1,"2000/11/17 23:30",4864.07167,37.52,TRADE
QLD1,"2000/11/18 00:00",4568.82167,25.81,TRADE
QLD1,"2000/11/18 00:30",4278.33833,20.1,TRADE
QLD1,"2000/11/18 01:00",4031.34333,18,TRADE
QLD1,"2000/11/18 01:30",3826.5,17.69,TRADE
QLD1,"2000/11/18 02:00",3752.88333,19.7,TRADE
QLD1,"2000/11/18 02:30",3653.545,16.81,TRADE
QLD1,"2000/11/18 03:00",3629.08,17.32,TRADE
QLD1,"2000/11/18 03:30",3617.57,17.25,TRADE
QLD1,"2000/11/18 04:00",3605.60667,17.32,TRADE
QLD1,"2000/11/18 04:30",3610.30833,17.32,TRADE
QLD1,"2000/11/18 05:00",3596.36333,17.23,TRADE
QLD1,"2000/11/18 05:30",3662.95,17.45,TRADE
QLD1,"2000/11/18 06:00",3749.18333,17.57,TRADE
QLD1,"2000/11/18 06:30",3931.00667,19.89,TRADE
QLD1,"2000/11/18 07:00",4116.935,19.61,TRADE
QLD1,"2000/11/18 07:30",4375.59833,18,TRADE
QLD1,"2000/11/18 08:00",4625.895,18,TRADE
QLD1,"2000/11/18 08:30",4861.25167,22.35,TRADE
QLD1,"2000/11/18 09:00",5003.63167,28.02,TRADE
QLD1,"2000/11/18 09:30",5109.645,34.21,TRADE
QLD1,"2000/11/18 10:00",5110.96,34.46,TRADE
QLD1,"2000/11/18 10:30",5073.445,33.22,TRADE
QLD1,"2000/11/18 11:00",5035.68833,33.11,TRADE
QLD1,"2000/11/18 11:30",5004.72167,32.66,TRADE
QLD1,"2000/11/18 12:00",4997.035,29.6,TRADE
QLD1,"2000/11/18 12:30",4934.49667,24.8,TRADE
QLD1,"2000/11/18 13:00",4941.805,27.55,TRADE
QLD1,"2000/11/18 13:30",4887.62,22.93,TRADE
QLD1,"2000/11/18 14:00",4854.24,21.73,TRADE
QLD1,"2000/11/18 14:30",4800.31333,19.4,TRADE
QLD1,"2000/11/18 15:00",4794.31167,20.31,TRADE
QLD1,"2000/11/18 15:30",4789.50667,18,TRADE
QLD1,"2000/11/18 16:00",4787.87,18,TRADE
QLD1,"2000/11/18 16:30",4806.15,18.54,TRADE
QLD1,"2000/11/18 17:00",4862.32167,23.31,TRADE
QLD1,"2000/11/18 17:30",4971.63333,29.18,TRADE
QLD1,"2000/11/18 18:00",5075.28333,32.78,TRADE
QLD1,"2000/11/18 18:30",5154.04333,33.14,TRADE
QLD1,"2000/11/18 19:00",5260.77833,34.79,TRADE
QLD1,"2000/11/18 19:30",5145.82667,30.97,TRADE
QLD1,"2000/11/18 20:00",5044.79,28.7,TRADE
QLD1,"2000/11/18 20:30",4854.07833,20.7,TRADE
QLD1,"2000/11/18 21:00",4716.23667,18,TRADE
QLD1,"2000/11/18 21:30",4709.57,18,TRADE
QLD1,"2000/11/18 22:00",4758.96333,18.76,TRADE
QLD1,"2000/11/18 22:30",4791.65167,22.21,TRADE
QLD1,"2000/11/18 23:00",4688.81333,18,TRADE
QLD1,"2000/11/18 23:30",4710.59,26.05,TRADE
QLD1,"2000/11/19 00:00",4455.48,17.97,TRADE
QLD1,"2000/11/19 00:30",4223.38833,18,TRADE
QLD1,"2000/11/19 01:00",4008.465,17.91,TRADE
QLD1,"2000/11/19 01:30",3830.96833,20.42,TRADE
QLD1,"2000/11/19 02:00",3750.19833,17.5,TRADE
QLD1,"2000/11/19 02:30",3696.01667,17.8,TRADE
QLD1,"2000/11/19 03:00",3639.055,17.22,TRADE
QLD1,"2000/11/19 03:30",3599.795,17.12,TRADE
QLD1,"2000/11/19 04:00",3592.56333,17.22,TRADE
QLD1,"2000/11/19 04:30",3589.54167,17.05,TRADE
QLD1,"2000/11/19 05:00",3584.62833,17.22,TRADE
QLD1,"2000/11/19 05:30",3580.64,17.12,TRADE
QLD1,"2000/11/19 06:00",3635.28833,17.28,TRADE
QLD1,"2000/11/19 06:30",3714.45,17.49,TRADE
QLD1,"2000/11/19 07:00",3870.425,17.57,TRADE
QLD1,"2000/11/19 07:30",4063.94833,17.99,TRADE
QLD1,"2000/11/19 08:00",4214.49167,19.37,TRADE
QLD1,"2000/11/19 08:30",4406.48167,22.24,TRADE
QLD1,"2000/11/19 09:00",4624.96,18.63,TRADE
QLD1,"2000/11/19 09:30",4681.36833,18,TRADE
QLD1,"2000/11/19 10:00",4759.29333,18,TRADE
QLD1,"2000/11/19 10:30",4761.42667,18,TRADE
QLD1,"2000/11/19 11:00",4790.33833,19.33,TRADE
QLD1,"2000/11/19 11:30",4785.30167,19.57,TRADE
QLD1,"2000/11/19 12:00",4798.68667,20.93,TRADE
QLD1,"2000/11/19 12:30",4781.325,19.06,TRADE
QLD1,"2000/11/19 13:00",4705.86833,18,TRADE
QLD1,"2000/11/19 13:30",4679.04,18,TRADE
QLD1,"2000/11/19 14:00",4638.365,18,TRADE
QLD1,"2000/11/19 14:30",4627.52333,18,TRADE
QLD1,"2000/11/19 15:00",4595.39833,17.96,TRADE
QLD1,"2000/11/19 15:30",4577.05667,17.88,TRADE
QLD1,"2000/11/19 16:00",4615.61167,18,TRADE
QLD1,"2000/11/19 16:30",4654.83667,17.93,TRADE
QLD1,"2000/11/19 17:00",4704.77667,18,TRADE
QLD1,"2000/11/19 17:30",4846.065,18,TRADE
QLD1,"2000/11/19 18:00",5014.645,21.35,TRADE
QLD1,"2000/11/19 18:30",5141.86333,25.54,TRADE
QLD1,"2000/11/19 19:00",5283.09,31.96,TRADE
QLD1,"2000/11/19 19:30",5218.38,26.85,TRADE
QLD1,"2000/11/19 20:00",5104.48667,27.13,TRADE
QLD1,"2000/11/19 20:30",5003.74833,22.94,TRADE
QLD1,"2000/11/19 21:00",4950.39833,19.88,TRADE
QLD1,"2000/11/19 21:30",4824.99167,18,TRADE
QLD1,"2000/11/19 22:00",4816.35667,18,TRADE
QLD1,"2000/11/19 22:30",4814.505,19.45,TRADE
QLD1,"2000/11/19 23:00",4702.00333,18,TRADE
QLD1,"2000/11/19 23:30",4723.92667,19.6,TRADE
QLD1,"2000/11/20 00:00",4477.465,17.92,TRADE
QLD1,"2000/11/20 00:30",4208.62833,18,TRADE
QLD1,"2000/11/20 01:00",3992.675,17.69,TRADE
QLD1,"2000/11/20 01:30",3882.15667,19.23,TRADE
QLD1,"2000/11/20 02:00",3771.47833,16.83,TRADE
QLD1,"2000/11/20 02:30",3704.55167,17.21,TRADE
QLD1,"2000/11/20 03:00",3679.465,15.43,TRADE
QLD1,"2000/11/20 03:30",3701.50667,18.59,TRADE
QLD1,"2000/11/20 04:00",3680.885,17.25,TRADE
QLD1,"2000/11/20 04:30",3732.08833,17.61,TRADE
QLD1,"2000/11/20 05:00",3790.39667,17.98,TRADE
QLD1,"2000/11/20 05:30",3898.48833,20.12,TRADE
QLD1,"2000/11/20 06:00",4128.05167,18.56,TRADE
QLD1,"2000/11/20 06:30",4470.64667,19.19,TRADE
QLD1,"2000/11/20 07:00",4898.07667,20.77,TRADE
QLD1,"2000/11/20 07:30",5308.20667,28.68,TRADE
QLD1,"2000/11/20 08:00",5517.045,34.32,TRADE
QLD1,"2000/11/20 08:30",5656.43667,40.33,TRADE
QLD1,"2000/11/20 09:00",5743.44333,43.29,TRADE
QLD1,"2000/11/20 09:30",5764.34333,43.15,TRADE
QLD1,"2000/11/20 10:00",5775.03667,43.19,TRADE
QLD1,"2000/11/20 10:30",5806.97,43.63,TRADE
QLD1,"2000/11/20 11:00",5819.18833,43.81,TRADE
QLD1,"2000/11/20 11:30",5859.33833,44.59,TRADE
QLD1,"2000/11/20 12:00",5879.53667,44.84,TRADE
QLD1,"2000/11/20 12:30",5884.025,44.93,TRADE
QLD1,"2000/11/20 13:00",5869.26167,44.56,TRADE
QLD1,"2000/11/20 13:30",5887.23833,48.27,TRADE
QLD1,"2000/11/20 14:00",5933.29667,54.05,TRADE
QLD1,"2000/11/20 14:30",5913.69167,51.49,TRADE
QLD1,"2000/11/20 15:00",5912.70167,48.52,TRADE
QLD1,"2000/11/20 15:30",5881.65333,66.87,TRADE
QLD1,"2000/11/20 16:00",5889.14667,71.64,TRADE
QLD1,"2000/11/20 16:30",5905.23,66.6,TRADE
QLD1,"2000/11/20 17:00",5906.855,62.3,TRADE
QLD1,"2000/11/20 17:30",5900.665,63.71,TRADE
QLD1,"2000/11/20 18:00",5892.57833,56.99,TRADE
QLD1,"2000/11/20 18:30",5814.13167,51.78,TRADE
QLD1,"2000/11/20 19:00",5902.45667,65.41,TRADE
QLD1,"2000/11/20 19:30",5773.87833,50.24,TRADE
QLD1,"2000/11/20 20:00",5661.345,52.35,TRADE
QLD1,"2000/11/20 20:30",5437.31333,28.55,TRADE
QLD1,"2000/11/20 21:00",5324.415,22.98,TRADE
QLD1,"2000/11/20 21:30",5248.52833,24.33,TRADE
QLD1,"2000/11/20 22:00",5273.265,42.51,TRADE
QLD1,"2000/11/20 22:30",5210.645,123.1,TRADE
QLD1,"2000/11/20 23:00",5001.61,34.09,TRADE
QLD1,"2000/11/20 23:30",4950.50833,35.77,TRADE
QLD1,"2000/11/21 00:00",4748.89667,26.29,TRADE
QLD1,"2000/11/21 00:30",4427.59167,18.54,TRADE
QLD1,"2000/11/21 01:00",4195.59,18,TRADE
QLD1,"2000/11/21 01:30",4056.82833,18.42,TRADE
QLD1,"2000/11/21 02:00",3977.45,18.14,TRADE
QLD1,"2000/11/21 02:30",3916.18833,17.58,TRADE
QLD1,"2000/11/21 03:00",3881.75333,17.7,TRADE
QLD1,"2000/11/21 03:30",3887.05333,17.76,TRADE
QLD1,"2000/11/21 04:00",3827.62333,17.59,TRADE
QLD1,"2000/11/21 04:30",3877.12667,18.56,TRADE
QLD1,"2000/11/21 05:00",3902.26,18.87,TRADE
QLD1,"2000/11/21 05:30",4046.06167,20.61,TRADE
QLD1,"2000/11/21 06:00",4208.485,18,TRADE
QLD1,"2000/11/21 06:30",4607.54333,21.43,TRADE
QLD1,"2000/11/21 07:00",5047.03833,30.2,TRADE
QLD1,"2000/11/21 07:30",5425.99,34.41,TRADE
QLD1,"2000/11/21 08:00",5667.00833,41.55,TRADE
QLD1,"2000/11/21 08:30",5815.23,44.33,TRADE
QLD1,"2000/11/21 09:00",5867.54333,39.14,TRADE
QLD1,"2000/11/21 09:30",5876.96833,43.08,TRADE
QLD1,"2000/11/21 10:00",5875.47167,41,TRADE
QLD1,"2000/11/21 10:30",5836.87667,44.16,TRADE
QLD1,"2000/11/21 11:00",5843.345,45.91,TRADE
QLD1,"2000/11/21 11:30",5861.37667,48.56,TRADE
QLD1,"2000/11/21 12:00",5819.905,42.02,TRADE
QLD1,"2000/11/21 12:30",5851.335,53.11,TRADE
QLD1,"2000/11/21 13:00",5799.96333,42.25,TRADE
QLD1,"2000/11/21 13:30",5798.885,41.09,TRADE
QLD1,"2000/11/21 14:00",5765.55,39.3,TRADE
QLD1,"2000/11/21 14:30",5749.78667,40.2,TRADE
QLD1,"2000/11/21 15:00",5724.54333,38.95,TRADE
QLD1,"2000/11/21 15:30",5672.62167,38.44,TRADE
QLD1,"2000/11/21 16:00",5706.14667,38.91,TRADE
QLD1,"2000/11/21 16:30",5716.64667,37.69,TRADE
QLD1,"2000/11/21 17:00",5717.285,30.76,TRADE
QLD1,"2000/11/21 17:30",5755.76667,32.19,TRADE
QLD1,"2000/11/21 18:00",5773.015,32.63,TRADE
QLD1,"2000/11/21 18:30",5736.38833,31.25,TRADE
QLD1,"2000/11/21 19:00",5740.71333,31.65,TRADE
QLD1,"2000/11/21 19:30",5645.20167,24.5,TRADE
QLD1,"2000/11/21 20:00",5550.775,21.89,TRADE
QLD1,"2000/11/21 20:30",5408.865,20.44,TRADE
QLD1,"2000/11/21 21:00",5263.40833,18,TRADE
QLD1,"2000/11/21 21:30",5124.10833,18,TRADE
QLD1,"2000/11/21 22:00",5166.00667,18.38,TRADE
QLD1,"2000/11/21 22:30",5137.33833,23.32,TRADE
QLD1,"2000/11/21 23:00",4970.22833,18.91,TRADE
QLD1,"2000/11/21 23:30",4980.24333,30.02,TRADE
QLD1,"2000/11/22 00:00",4677.41667,19.39,TRADE
QLD1,"2000/11/22 00:30",4411.62167,18.82,TRADE
QLD1,"2000/11/22 01:00",4143.56667,18.11,TRADE
QLD1,"2000/11/22 01:30",4012.52333,21.01,TRADE
QLD1,"2000/11/22 02:00",3921.46833,19.61,TRADE
QLD1,"2000/11/22 02:30",3842.79333,17.54,TRADE
QLD1,"2000/11/22 03:00",3808.31833,17.38,TRADE
QLD1,"2000/11/22 03:30",3802.9,17.32,TRADE
QLD1,"2000/11/22 04:00",3804.255,17.32,TRADE
QLD1,"2000/11/22 04:30",3855.65667,17.48,TRADE
QLD1,"2000/11/22 05:00",3891.75,17.51,TRADE
QLD1,"2000/11/22 05:30",4022.83833,19.72,TRADE
QLD1,"2000/11/22 06:00",4214.11167,17.84,TRADE
QLD1,"2000/11/22 06:30",4596.41667,19.88,TRADE
QLD1,"2000/11/22 07:00",4968.86,23.6,TRADE
QLD1,"2000/11/22 07:30",5309.15667,20.56,TRADE
QLD1,"2000/11/22 08:00",5507.94667,24.19,TRADE
QLD1,"2000/11/22 08:30",5716.04667,27.17,TRADE
QLD1,"2000/11/22 09:00",5740.59333,29.96,TRADE
QLD1,"2000/11/22 09:30",5749.00333,30.05,TRADE
QLD1,"2000/11/22 10:00",5708.18333,24.98,TRADE
QLD1,"2000/11/22 10:30",5707.59333,24.31,TRADE
QLD1,"2000/11/22 11:00",5712.13333,28.97,TRADE
QLD1,"2000/11/22 11:30",5711.18167,29.76,TRADE
QLD1,"2000/11/22 12:00",5733.31833,27.11,TRADE
QLD1,"2000/11/22 12:30",5701.55333,23.6,TRADE
QLD1,"2000/11/22 13:00",5663.81333,22.78,TRADE
QLD1,"2000/11/22 13:30",5717.78333,26.99,TRADE
QLD1,"2000/11/22 14:00",5669.015,23.57,TRADE
QLD1,"2000/11/22 14:30",5579.18333,22.04,TRADE
QLD1,"2000/11/22 15:00",5541.51667,20.29,TRADE
QLD1,"2000/11/22 15:30",5482.74167,18.5,TRADE
QLD1,"2000/11/22 16:00",5480.77833,18.42,TRADE
QLD1,"2000/11/22 16:30",5489.405,18.56,TRADE
QLD1,"2000/11/22 17:00",5506.325,19.42,TRADE
QLD1,"2000/11/22 17:30",5509.76667,18.16,TRADE
QLD1,"2000/11/22 18:00",5538.92167,18.07,TRADE
QLD1,"2000/11/22 18:30",5494.94333,18,TRADE
QLD1,"2000/11/22 19:00",5551.595,18.31,TRADE
QLD1,"2000/11/22 19:30",5425.29,18,TRADE
QLD1,"2000/11/22 20:00",5398.18167,18,TRADE
QLD1,"2000/11/22 20:30",5211.89833,17.96,TRADE
QLD1,"2000/11/22 21:00",5144.95667,18,TRADE
QLD1,"2000/11/22 21:30",5046.045,18,TRADE
QLD1,"2000/11/22 22:00",5066.25667,18,TRADE
QLD1,"2000/11/22 22:30",5039.3,18,TRADE
QLD1,"2000/11/22 23:00",4866.18,18,TRADE
QLD1,"2000/11/22 23:30",4878.18167,24.49,TRADE
QLD1,"2000/11/23 00:00",4619.85667,19.08,TRADE
QLD1,"2000/11/23 00:30",4377.26,18.25,TRADE
QLD1,"2000/11/23 01:00",4136.57,17.91,TRADE
QLD1,"2000/11/23 01:30",3944.06333,17.71,TRADE
QLD1,"2000/11/23 02:00",3847.53667,17.54,TRADE
QLD1,"2000/11/23 02:30",3802.79333,17.27,TRADE
QLD1,"2000/11/23 03:00",3720.66167,16.58,TRADE
QLD1,"2000/11/23 03:30",3721.72333,17.32,TRADE
QLD1,"2000/11/23 04:00",3701.22333,16.64,TRADE
QLD1,"2000/11/23 04:30",3720.13667,17.32,TRADE
QLD1,"2000/11/23 05:00",3764.925,17.44,TRADE
QLD1,"2000/11/23 05:30",3900.965,19.07,TRADE
QLD1,"2000/11/23 06:00",4147.27,18.67,TRADE
QLD1,"2000/11/23 06:30",4492.975,19.97,TRADE
QLD1,"2000/11/23 07:00",4868.735,26.82,TRADE
QLD1,"2000/11/23 07:30",5223.33667,18.73,TRADE
QLD1,"2000/11/23 08:00",5434.73333,20.02,TRADE
QLD1,"2000/11/23 08:30",5609.465,33.97,TRADE
QLD1,"2000/11/23 09:00",5672.06833,36.22,TRADE
QLD1,"2000/11/23 09:30",5651.25833,35.92,TRADE
QLD1,"2000/11/23 10:00",5597.11,30.05,TRADE
QLD1,"2000/11/23 10:30",5570.51167,26.89,TRADE
QLD1,"2000/11/23 11:00",5596.75833,33.58,TRADE
QLD1,"2000/11/23 11:30",5600.43333,33.37,TRADE
QLD1,"2000/11/23 12:00",5580.91,32.67,TRADE
QLD1,"2000/11/23 12:30",5584.58667,33.25,TRADE
QLD1,"2000/11/23 13:00",5569.555,30.25,TRADE
QLD1,"2000/11/23 13:30",5595.035,32.17,TRADE
QLD1,"2000/11/23 14:00",5608.22833,33.98,TRADE
QLD1,"2000/11/23 14:30",5605.89167,30.53,TRADE
QLD1,"2000/11/23 15:00",5560.19333,23.5,TRADE
QLD1,"2000/11/23 15:30",5563.35667,28.69,TRADE
QLD1,"2000/11/23 16:00",5536.845,24.43,TRADE
QLD1,"2000/11/23 16:30",5464.48,18.87,TRADE
QLD1,"2000/11/23 17:00",5515.20667,19.16,TRADE
QLD1,"2000/11/23 17:30",5504.02167,18.51,TRADE
QLD1,"2000/11/23 18:00",5526.53333,21.4,TRADE
QLD1,"2000/11/23 18:30",5513.06833,21.21,TRADE
QLD1,"2000/11/23 19:00",5642.75167,33.77,TRADE
QLD1,"2000/11/23 19:30",5668.23167,33.73,TRADE
QLD1,"2000/11/23 20:00",5639.555,24.76,TRADE
QLD1,"2000/11/23 20:30",5436.30333,18.41,TRADE
QLD1,"2000/11/23 21:00",5306.75,17.96,TRADE
QLD1,"2000/11/23 21:30",5142.115,18,TRADE
QLD1,"2000/11/23 22:00",5175.55833,18,TRADE
QLD1,"2000/11/23 22:30",5152.89667,18.31,TRADE
QLD1,"2000/11/23 23:00",4960.84167,18,TRADE
QLD1,"2000/11/23 23:30",4911.04667,18.16,TRADE
QLD1,"2000/11/24 00:00",4688.9,17.97,TRADE
QLD1,"2000/11/24 00:30",4396.38167,18.63,TRADE
QLD1,"2000/11/24 01:00",4170.70833,19.62,TRADE
QLD1,"2000/11/24 01:30",3988.20667,22.39,TRADE
QLD1,"2000/11/24 02:00",3881.80667,17.72,TRADE
QLD1,"2000/11/24 02:30",3820.56167,17.38,TRADE
QLD1,"2000/11/24 03:00",3754.195,17.29,TRADE
QLD1,"2000/11/24 03:30",3770.33667,17.32,TRADE
QLD1,"2000/11/24 04:00",3747.40167,17.31,TRADE
QLD1,"2000/11/24 04:30",3782.48,17.48,TRADE
QLD1,"2000/11/24 05:00",3831.45333,17.63,TRADE
QLD1,"2000/11/24 05:30",3958.11667,18.19,TRADE
QLD1,"2000/11/24 06:00",4124.60833,17.85,TRADE
QLD1,"2000/11/24 06:30",4485.34833,18.28,TRADE
QLD1,"2000/11/24 07:00",4874.50833,18.89,TRADE
QLD1,"2000/11/24 07:30",5254.86167,18.09,TRADE
QLD1,"2000/11/24 08:00",5464.715,20.14,TRADE
QLD1,"2000/11/24 08:30",5617.2,28.55,TRADE
QLD1,"2000/11/24 09:00",5622.695,22.89,TRADE
QLD1,"2000/11/24 09:30",5643.55167,23.5,TRADE
QLD1,"2000/11/24 10:00",5619.45333,24.54,TRADE
QLD1,"2000/11/24 10:30",5573.205,20.81,TRADE
QLD1,"2000/11/24 11:00",5569.25,19.72,TRADE
QLD1,"2000/11/24 11:30",5543.31667,18.56,TRADE
QLD1,"2000/11/24 12:00",5525.97,18.53,TRADE
QLD1,"2000/11/24 12:30",5479.27333,18.33,TRADE
QLD1,"2000/11/24 13:00",5455.535,18.49,TRADE
QLD1,"2000/11/24 13:30",5471.57,19.66,TRADE
QLD1,"2000/11/24 14:00",5460.70333,20.24,TRADE
QLD1,"2000/11/24 14:30",5454.71,19.2,TRADE
QLD1,"2000/11/24 15:00",5411.65167,18.5,TRADE
QLD1,"2000/11/24 15:30",5360.73333,18.23,TRADE
QLD1,"2000/11/24 16:00",5294.97167,18,TRADE
QLD1,"2000/11/24 16:30",5297.84333,17.93,TRADE
QLD1,"2000/11/24 17:00",5317.14667,17.96,TRADE
QLD1,"2000/11/24 17:30",5275.84333,17.92,TRADE
QLD1,"2000/11/24 18:00",5187.40333,18,TRADE
QLD1,"2000/11/24 18:30",5148.56167,18,TRADE
QLD1,"2000/11/24 19:00",5267.53667,18,TRADE
QLD1,"2000/11/24 19:30",5230.24,18,TRADE
QLD1,"2000/11/24 20:00",5191.31667,18,TRADE
QLD1,"2000/11/24 20:30",5068.835,17.87,TRADE
QLD1,"2000/11/24 21:00",4933.18667,17.75,TRADE
QLD1,"2000/11/24 21:30",4932.37167,17.78,TRADE
QLD1,"2000/11/24 22:00",4951.73833,18,TRADE
QLD1,"2000/11/24 22:30",4954.02167,18.09,TRADE
QLD1,"2000/11/24 23:00",4821.49667,18,TRADE
QLD1,"2000/11/24 23:30",4813.31667,18.41,TRADE
QLD1,"2000/11/25 00:00",4580.14167,18,TRADE
QLD1,"2000/11/25 00:30",4271.85167,17.96,TRADE
QLD1,"2000/11/25 01:00",4023.20333,21.32,TRADE
QLD1,"2000/11/25 01:30",3821.59667,20.66,TRADE
QLD1,"2000/11/25 02:00",3766.10667,18.39,TRADE
QLD1,"2000/11/25 02:30",3699.38833,17.65,TRADE
QLD1,"2000/11/25 03:00",3659.06,17.45,TRADE
QLD1,"2000/11/25 03:30",3627.07333,17.32,TRADE
QLD1,"2000/11/25 04:00",3647.71,17.42,TRADE
QLD1,"2000/11/25 04:30",3671.675,17.16,TRADE
QLD1,"2000/11/25 05:00",3627.22667,17.27,TRADE
QLD1,"2000/11/25 05:30",3724.79167,17.62,TRADE
QLD1,"2000/11/25 06:00",3822.47333,19.59,TRADE
QLD1,"2000/11/25 06:30",3971.15667,21.39,TRADE
QLD1,"2000/11/25 07:00",4146.15833,22.84,TRADE
QLD1,"2000/11/25 07:30",4424.81333,18.09,TRADE
QLD1,"2000/11/25 08:00",4611.08167,17.97,TRADE
QLD1,"2000/11/25 08:30",4831.57833,18,TRADE
QLD1,"2000/11/25 09:00",4948.855,18,TRADE
QLD1,"2000/11/25 09:30",5003.70167,18,TRADE
QLD1,"2000/11/25 10:00",5011.505,18,TRADE
QLD1,"2000/11/25 10:30",4978.37833,18,TRADE
QLD1,"2000/11/25 11:00",4961.25333,18,TRADE
QLD1,"2000/11/25 11:30",4916.475,18,TRADE
QLD1,"2000/11/25 12:00",4908.91667,18,TRADE
QLD1,"2000/11/25 12:30",4847.13333,18,TRADE
QLD1,"2000/11/25 13:00",4795.56,18,TRADE
QLD1,"2000/11/25 13:30",4772.76333,18,TRADE
QLD1,"2000/11/25 14:00",4736.87,18,TRADE
QLD1,"2000/11/25 14:30",4695.23167,18,TRADE
QLD1,"2000/11/25 15:00",4672.095,18,TRADE
QLD1,"2000/11/25 15:30",4680.79,18,TRADE
QLD1,"2000/11/25 16:00",4677.13,18,TRADE
QLD1,"2000/11/25 16:30",4680.25333,18,TRADE
QLD1,"2000/11/25 17:00",4735.68167,18,TRADE
QLD1,"2000/11/25 17:30",4802.32,18,TRADE
QLD1,"2000/11/25 18:00",4872.695,18,TRADE
QLD1,"2000/11/25 18:30",4924.53667,18,TRADE
QLD1,"2000/11/25 19:00",5044.23167,18.58,TRADE
QLD1,"2000/11/25 19:30",5067.58833,21.26,TRADE
QLD1,"2000/11/25 20:00",4995.745,20.7,TRADE
QLD1,"2000/11/25 20:30",4774.33833,18,TRADE
QLD1,"2000/11/25 21:00",4685.575,18,TRADE
QLD1,"2000/11/25 21:30",4609.93667,18,TRADE
QLD1,"2000/11/25 22:00",4645.70333,18,TRADE
QLD1,"2000/11/25 22:30",4684.89833,18.08,TRADE
QLD1,"2000/11/25 23:00",4598.91,18,TRADE
QLD1,"2000/11/25 23:30",4596.645,18,TRADE
QLD1,"2000/11/26 00:00",4342.75,17.78,TRADE
QLD1,"2000/11/26 00:30",4099.98167,17.87,TRADE
QLD1,"2000/11/26 01:00",3871.38,17.72,TRADE
QLD1,"2000/11/26 01:30",3758.29,18.57,TRADE
QLD1,"2000/11/26 02:00",3662.02667,17.17,TRADE
QLD1,"2000/11/26 02:30",3603.57333,16.63,TRADE
QLD1,"2000/11/26 03:00",3549.58,16.2,TRADE
QLD1,"2000/11/26 03:30",3536.45667,15.7,TRADE
QLD1,"2000/11/26 04:00",3509.37333,15.19,TRADE
QLD1,"2000/11/26 04:30",3520.715,15.6,TRADE
QLD1,"2000/11/26 05:00",3510.40667,15.25,TRADE
QLD1,"2000/11/26 05:30",3507.56333,15.73,TRADE
QLD1,"2000/11/26 06:00",3565.01,17.55,TRADE
QLD1,"2000/11/26 06:30",3694.725,17.36,TRADE
QLD1,"2000/11/26 07:00",3818.055,17.55,TRADE
QLD1,"2000/11/26 07:30",4005.26333,17.6,TRADE
QLD1,"2000/11/26 08:00",4163.205,17.64,TRADE
QLD1,"2000/11/26 08:30",4381.23833,19.85,TRADE
QLD1,"2000/11/26 09:00",4522.42,22.95,TRADE
QLD1,"2000/11/26 09:30",4625.35167,18.65,TRADE
QLD1,"2000/11/26 10:00",4668.30833,18,TRADE
QLD1,"2000/11/26 10:30",4658.59333,18,TRADE
QLD1,"2000/11/26 11:00",4637.76333,18,TRADE
QLD1,"2000/11/26 11:30",4655.90167,18,TRADE
QLD1,"2000/11/26 12:00",4638.39333,18,TRADE
QLD1,"2000/11/26 12:30",4608.63833,18,TRADE
QLD1,"2000/11/26 13:00",4603.08167,18,TRADE
QLD1,"2000/11/26 13:30",4576.32833,18,TRADE
QLD1,"2000/11/26 14:00",4528.07333,17.92,TRADE
QLD1,"2000/11/26 14:30",4513.80167,17.86,TRADE
QLD1,"2000/11/26 15:00",4526.60833,18,TRADE
QLD1,"2000/11/26 15:30",4540.2,18,TRADE
QLD1,"2000/11/26 16:00",4536.395,18,TRADE
QLD1,"2000/11/26 16:30",4550.23167,18,TRADE
QLD1,"2000/11/26 17:00",4582.76667,18,TRADE
QLD1,"2000/11/26 17:30",4670.37667,18,TRADE
QLD1,"2000/11/26 18:00",4775.435,18,TRADE
QLD1,"2000/11/26 18:30",4867.85333,19.83,TRADE
QLD1,"2000/11/26 19:00",5080.04,37.58,TRADE
QLD1,"2000/11/26 19:30",5153.145,42.45,TRADE
QLD1,"2000/11/26 20:00",5110.92167,42.31,TRADE
QLD1,"2000/11/26 20:30",4932.28333,24.4,TRADE
QLD1,"2000/11/26 21:00",4820.03333,18,TRADE
QLD1,"2000/11/26 21:30",4772.30833,18,TRADE
QLD1,"2000/11/26 22:00",4701.335,18,TRADE
QLD1,"2000/11/26 22:30",4686.3,18,TRADE
QLD1,"2000/11/26 23:00",4567.22333,18,TRADE
QLD1,"2000/11/26 23:30",4585.58833,19.8,TRADE
QLD1,"2000/11/27 00:00",4312.73167,18,TRADE
QLD1,"2000/11/27 00:30",4106.64333,22.61,TRADE
QLD1,"2000/11/27 01:00",3926.43,22.01,TRADE
QLD1,"2000/11/27 01:30",3807.23833,22.85,TRADE
QLD1,"2000/11/27 02:00",3745.55167,18.72,TRADE
QLD1,"2000/11/27 02:30",3705.81167,17.79,TRADE
QLD1,"2000/11/27 03:00",3671.88167,17.67,TRADE
QLD1,"2000/11/27 03:30",3657.97667,17.59,TRADE
QLD1,"2000/11/27 04:00",3641.53333,17.48,TRADE
QLD1,"2000/11/27 04:30",3638.965,17.44,TRADE
QLD1,"2000/11/27 05:00",3741.50333,17.67,TRADE
QLD1,"2000/11/27 05:30",3854.475,18.9,TRADE
QLD1,"2000/11/27 06:00",4058.34667,17.78,TRADE
QLD1,"2000/11/27 06:30",4436.38333,18.28,TRADE
QLD1,"2000/11/27 07:00",4827.95333,18,TRADE
QLD1,"2000/11/27 07:30",5195.48167,18,TRADE
QLD1,"2000/11/27 08:00",5478.71333,21.26,TRADE
QLD1,"2000/11/27 08:30",5643.205,29.59,TRADE
QLD1,"2000/11/27 09:00",5683.78333,28.18,TRADE
QLD1,"2000/11/27 09:30",5699.73833,23.15,TRADE
QLD1,"2000/11/27 10:00",5663.82667,22.09,TRADE
QLD1,"2000/11/27 10:30",5681.56167,22.44,TRADE
QLD1,"2000/11/27 11:00",5692.44833,22.6,TRADE
QLD1,"2000/11/27 11:30",5714.27833,24.7,TRADE
QLD1,"2000/11/27 12:00",5724.42667,23.28,TRADE
QLD1,"2000/11/27 12:30",5681.59167,22.4,TRADE
QLD1,"2000/11/27 13:00",5680.87167,22.05,TRADE
QLD1,"2000/11/27 13:30",5711.215,34.54,TRADE
QLD1,"2000/11/27 14:00",5741.22167,36.16,TRADE
QLD1,"2000/11/27 14:30",5741.76,23.5,TRADE
QLD1,"2000/11/27 15:00",5712.95167,24.99,TRADE
QLD1,"2000/11/27 15:30",5705.32167,24.95,TRADE
QLD1,"2000/11/27 16:00",5686.40833,35.13,TRADE
QLD1,"2000/11/27 16:30",5665.07,34.7,TRADE
QLD1,"2000/11/27 17:00",5646.26,38.52,TRADE
QLD1,"2000/11/27 17:30",5591.43333,26.35,TRADE
QLD1,"2000/11/27 18:00",5530.42667,21.41,TRADE
QLD1,"2000/11/27 18:30",5479.55667,20.28,TRADE
QLD1,"2000/11/27 19:00",5610.985,26.28,TRADE
QLD1,"2000/11/27 19:30",5603.53833,25.94,TRADE
QLD1,"2000/11/27 20:00",5490.42833,29.25,TRADE
QLD1,"2000/11/27 20:30",5339.63167,21.53,TRADE
QLD1,"2000/11/27 21:00",5194.59333,18,TRADE
QLD1,"2000/11/27 21:30",5136.805,18,TRADE
QLD1,"2000/11/27 22:00",5118.55833,18,TRADE
QLD1,"2000/11/27 22:30",5049.275,25.26,TRADE
QLD1,"2000/11/27 23:00",4878.02333,18.5,TRADE
QLD1,"2000/11/27 23:30",4836.74167,27.27,TRADE
QLD1,"2000/11/28 00:00",4602.01667,20.48,TRADE
QLD1,"2000/11/28 00:30",4308.04167,17.96,TRADE
QLD1,"2000/11/28 01:00",4114.90167,18,TRADE
QLD1,"2000/11/28 01:30",3914.32667,17.75,TRADE
QLD1,"2000/11/28 02:00",3845.53667,20.02,TRADE
QLD1,"2000/11/28 02:30",3792.53,20.19,TRADE
QLD1,"2000/11/28 03:00",3758.82667,19.81,TRADE
QLD1,"2000/11/28 03:30",3754.93333,19.24,TRADE
QLD1,"2000/11/28 04:00",3752.97333,18.55,TRADE
QLD1,"2000/11/28 04:30",3770.42,18.09,TRADE
QLD1,"2000/11/28 05:00",3826.52667,20.78,TRADE
QLD1,"2000/11/28 05:30",3944.53167,18,TRADE
QLD1,"2000/11/28 06:00",4168.60667,18,TRADE
QLD1,"2000/11/28 06:30",4608.785,24.19,TRADE
QLD1,"2000/11/28 07:00",4969.96833,21.53,TRADE
QLD1,"2000/11/28 07:30",5333.27667,21.9,TRADE
QLD1,"2000/11/28 08:00",5552.20167,33.9,TRADE
QLD1,"2000/11/28 08:30",5709.34667,41.74,TRADE
QLD1,"2000/11/28 09:00",5801.08833,55.86,TRADE
QLD1,"2000/11/28 09:30",5759.63667,38.6,TRADE
QLD1,"2000/11/28 10:00",5807.22167,43.33,TRADE
QLD1,"2000/11/28 10:30",5810.59,46.25,TRADE
QLD1,"2000/11/28 11:00",5794.89167,36.1,TRADE
QLD1,"2000/11/28 11:30",5820.18833,43.91,TRADE
QLD1,"2000/11/28 12:00",5826.9,45.72,TRADE
QLD1,"2000/11/28 12:30",5864.77167,54.53,TRADE
QLD1,"2000/11/28 13:00",5844.96167,61.86,TRADE
QLD1,"2000/11/28 13:30",5879.39333,89.23,TRADE
QLD1,"2000/11/28 14:00",5884.605,98.83,TRADE
QLD1,"2000/11/28 14:30",5896.88167,99.27,TRADE
QLD1,"2000/11/28 15:00",5832.04333,97.19,TRADE
QLD1,"2000/11/28 15:30",5866.55,99.3,TRADE
QLD1,"2000/11/28 16:00",5792.85167,35.18,TRADE
QLD1,"2000/11/28 16:30",5856.53833,91.11,TRADE
QLD1,"2000/11/28 17:00",5821.03833,64.59,TRADE
QLD1,"2000/11/28 17:30",5782.72167,39.88,TRADE
QLD1,"2000/11/28 18:00",5684.32333,27.27,TRADE
QLD1,"2000/11/28 18:30",5567.68833,23.9,TRADE
QLD1,"2000/11/28 19:00",5669.235,32.73,TRADE
QLD1,"2000/11/28 19:30",5723.52667,35.58,TRADE
QLD1,"2000/11/28 20:00",5657.125,28.02,TRADE
QLD1,"2000/11/28 20:30",5498.675,20.5,TRADE
QLD1,"2000/11/28 21:00",5317.81667,18.08,TRADE
QLD1,"2000/11/28 21:30",5242.325,18,TRADE
QLD1,"2000/11/28 22:00",5243.94167,18,TRADE
QLD1,"2000/11/28 22:30",5163.19167,19.1,TRADE
QLD1,"2000/11/28 23:00",4988.33667,17.95,TRADE
QLD1,"2000/11/28 23:30",4926.28667,20.57,TRADE
QLD1,"2000/11/29 00:00",4654.62833,19.27,TRADE
QLD1,"2000/11/29 00:30",4378.51833,17.94,TRADE
QLD1,"2000/11/29 01:00",4124.87667,21.26,TRADE
QLD1,"2000/11/29 01:30",4010.655,23.5,TRADE
QLD1,"2000/11/29 02:00",3886.28,19.6,TRADE
QLD1,"2000/11/29 02:30",3864.58833,19.2,TRADE
QLD1,"2000/11/29 03:00",3833.47,18.16,TRADE
QLD1,"2000/11/29 03:30",3795.92333,17.6,TRADE
QLD1,"2000/11/29 04:00",3817.10333,17.57,TRADE
QLD1,"2000/11/29 04:30",3852.01333,18.61,TRADE
QLD1,"2000/11/29 05:00",3875.845,20.93,TRADE
QLD1,"2000/11/29 05:30",4004.14333,23.49,TRADE
QLD1,"2000/11/29 06:00",4186.205,18,TRADE
QLD1,"2000/11/29 06:30",4588.15167,19.33,TRADE
QLD1,"2000/11/29 07:00",4958.80667,18.76,TRADE
QLD1,"2000/11/29 07:30",5337.395,19.52,TRADE
QLD1,"2000/11/29 08:00",5555.81167,22.72,TRADE
QLD1,"2000/11/29 08:30",5779.56167,37.04,TRADE
QLD1,"2000/11/29 09:00",5799.185,37.72,TRADE
QLD1,"2000/11/29 09:30",5802.41167,43.14,TRADE
QLD1,"2000/11/29 10:00",5840.95833,44.25,TRADE
QLD1,"2000/11/29 10:30",5822.25833,42.04,TRADE
QLD1,"2000/11/29 11:00",5902.46,52.68,TRADE
QLD1,"2000/11/29 11:30",5885.905,44.31,TRADE
QLD1,"2000/11/29 12:00",5893.24,68.48,TRADE
QLD1,"2000/11/29 12:30",5923.01667,88.2,TRADE
QLD1,"2000/11/29 13:00",5956.16333,76.84,TRADE
QLD1,"2000/11/29 13:30",5987.31,82.51,TRADE
QLD1,"2000/11/29 14:00",6032.39667,168.64,TRADE
QLD1,"2000/11/29 14:30",6043.345,128.32,TRADE
QLD1,"2000/11/29 15:00",6058.74667,77.58,TRADE
QLD1,"2000/11/29 15:30",6053.13167,137.67,TRADE
QLD1,"2000/11/29 16:00",6031.97833,151.97,TRADE
QLD1,"2000/11/29 16:30",5991.36,1755.69,TRADE
QLD1,"2000/11/29 17:00",5854.35833,18.81,TRADE
QLD1,"2000/11/29 17:30",5924.465,38.47,TRADE
QLD1,"2000/11/29 18:00",5851.09167,29.93,TRADE
QLD1,"2000/11/29 18:30",5709.405,25.71,TRADE
QLD1,"2000/11/29 19:00",5822.57667,43.38,TRADE
QLD1,"2000/11/29 19:30",5853.09167,49.27,TRADE
QLD1,"2000/11/29 20:00",5773.81167,36.24,TRADE
QLD1,"2000/11/29 20:30",5599.50167,23,TRADE
QLD1,"2000/11/29 21:00",5459.44333,18.44,TRADE
QLD1,"2000/11/29 21:30",5362.31833,18,TRADE
QLD1,"2000/11/29 22:00",5344.465,18.08,TRADE
QLD1,"2000/11/29 22:30",5249.70667,22.22,TRADE
QLD1,"2000/11/29 23:00",5046.88,18,TRADE
QLD1,"2000/11/29 23:30",4994.255,22.18,TRADE
QLD1,"2000/11/30 00:00",4751.59667,19.62,TRADE
QLD1,"2000/11/30 00:30",4458.63667,18,TRADE
QLD1,"2000/11/30 01:00",4210.07167,17.96,TRADE
QLD1,"2000/11/30 01:30",4050.485,19.49,TRADE
QLD1,"2000/11/30 02:00",3996.76333,19.2,TRADE
QLD1,"2000/11/30 02:30",3925.98167,17.79,TRADE
QLD1,"2000/11/30 03:00",3888.74167,17.53,TRADE
QLD1,"2000/11/30 03:30",3873.09167,17.47,TRADE
QLD1,"2000/11/30 04:00",3883.35333,17.45,TRADE
QLD1,"2000/11/30 04:30",3914.12333,18.37,TRADE
QLD1,"2000/11/30 05:00",3932.27,17.77,TRADE
QLD1,"2000/11/30 05:30",4052.70667,20.13,TRADE
QLD1,"2000/11/30 06:00",4255.435,18,TRADE
QLD1,"2000/11/30 06:30",4655.57833,19.45,TRADE
QLD1,"2000/11/30 07:00",5046.99667,19.1,TRADE
QLD1,"2000/11/30 07:30",5415.75667,19.42,TRADE
QLD1,"2000/11/30 08:00",5656.75667,27.3,TRADE
QLD1,"2000/11/30 08:30",5854.49333,57.19,TRADE
QLD1,"2000/11/30 09:00",5880.54667,63.22,TRADE
QLD1,"2000/11/30 09:30",5919.95,79.09,TRADE
QLD1,"2000/11/30 10:00",5934.81,82.57,TRADE
QLD1,"2000/11/30 10:30",5957.31167,69.4,TRADE
QLD1,"2000/11/30 11:00",6024.83333,94.32,TRADE
QLD1,"2000/11/30 11:30",6021.175,77.96,TRADE
QLD1,"2000/11/30 12:00",6030.6,103.57,TRADE
QLD1,"2000/11/30 12:30",6010.74333,80.46,TRADE
QLD1,"2000/11/30 13:00",5962.29333,57.2,TRADE
QLD1,"2000/11/30 13:30",6015.18333,105.78,TRADE
QLD1,"2000/11/30 14:00",6016.68,121.34,TRADE
QLD1,"2000/11/30 14:30",6014.135,172.31,TRADE
QLD1,"2000/11/30 15:00",5974.45833,91.86,TRADE
QLD1,"2000/11/30 15:30",6013.85,121.6,TRADE
QLD1,"2000/11/30 16:00",5941.60833,65.55,TRADE
QLD1,"2000/11/30 16:30",5892.43833,39.64,TRADE
QLD1,"2000/11/30 17:00",5893.72333,37.38,TRADE
QLD1,"2000/11/30 17:30",5829.20667,34.5,TRADE
QLD1,"2000/11/30 18:00",5831.84,48.41,TRADE
QLD1,"2000/11/30 18:30",5705.99333,28.18,TRADE
QLD1,"2000/11/30 19:00",5818.20667,58.01,TRADE
QLD1,"2000/11/30 19:30",5830.47167,33.75,TRADE
QLD1,"2000/11/30 20:00",5748.62667,25.67,TRADE
QLD1,"2000/11/30 20:30",5609.32167,20.7,TRADE
QLD1,"2000/11/30 21:00",5440.49833,18.33,TRADE
QLD1,"2000/11/30 21:30",5345.96667,18.17,TRADE
QLD1,"2000/11/30 22:00",5308.87667,18.29,TRADE
QLD1,"2000/11/30 22:30",5173.74167,19.77,TRADE
QLD1,"2000/11/30 23:00",5031.635,18.6,TRADE
QLD1,"2000/11/30 23:30",4971.82,23.98,TRADE
QLD1,"2000/12/01 00:00",4724.68167,19.71,TRADE
