REGION,SETTLEMENTDATE,TOTALDEMAND,RRP,PERIODTYPE
VIC1,"2013/12/01 00:30:00",4846.65,44.57,TRADE
VIC1,"2013/12/01 01:00:00",4545.07,43.59,TRADE
VIC1,"2013/12/01 01:30:00",4333.89,39.05,TRADE
VIC1,"2013/12/01 02:00:00",4210.67,38.69,TRADE
VIC1,"2013/12/01 02:30:00",4059.32,37.74,TRADE
VIC1,"2013/12/01 03:00:00",3925.9,36.87,TRADE
VIC1,"2013/12/01 03:30:00",3919.58,38.36,TRADE
VIC1,"2013/12/01 04:00:00",3845.53,37.12,TRADE
VIC1,"2013/12/01 04:30:00",3877.37,38.09,TRADE
VIC1,"2013/12/01 05:00:00",3804,35.63,TRADE
VIC1,"2013/12/01 05:30:00",3813.43,37.61,TRADE
VIC1,"2013/12/01 06:00:00",3887.91,38.56,TRADE
VIC1,"2013/12/01 06:30:00",3981.05,39.36,TRADE
VIC1,"2013/12/01 07:00:00",4181.04,42.06,TRADE
VIC1,"2013/12/01 07:30:00",4162.72,42.78,TRADE
VIC1,"2013/12/01 08:00:00",4308.19,43.86,TRADE
VIC1,"2013/12/01 08:30:00",4409.66,44.71,TRADE
VIC1,"2013/12/01 09:00:00",4466.02,44.91,TRADE
VIC1,"2013/12/01 09:30:00",4601.23,44.98,TRADE
VIC1,"2013/12/01 10:00:00",4603.84,43.85,TRADE
VIC1,"2013/12/01 10:30:00",4652.96,43.84,TRADE
VIC1,"2013/12/01 11:00:00",4644.31,44.18,TRADE
VIC1,"2013/12/01 11:30:00",4653.71,44.27,TRADE
VIC1,"2013/12/01 12:00:00",4716.32,44.44,TRADE
VIC1,"2013/12/01 12:30:00",4707.32,44.3,TRADE
VIC1,"2013/12/01 13:00:00",4734.22,44.21,TRADE
VIC1,"2013/12/01 13:30:00",4816.86,44.23,TRADE
VIC1,"2013/12/01 14:00:00",4872.36,44.31,TRADE
VIC1,"2013/12/01 14:30:00",4931.59,44.3,TRADE
VIC1,"2013/12/01 15:00:00",5058.73,45.61,TRADE
VIC1,"2013/12/01 15:30:00",5204.14,46.73,TRADE
VIC1,"2013/12/01 16:00:00",5320.31,46.98,TRADE
VIC1,"2013/12/01 16:30:00",5468.86,46.84,TRADE
VIC1,"2013/12/01 17:00:00",5629.87,46.99,TRADE
VIC1,"2013/12/01 17:30:00",5617.66,46.81,TRADE
VIC1,"2013/12/01 18:00:00",5624.04,45.79,TRADE
VIC1,"2013/12/01 18:30:00",5501.97,45.84,TRADE
VIC1,"2013/12/01 19:00:00",5492.32,46.84,TRADE
VIC1,"2013/12/01 19:30:00",5442.23,46.95,TRADE
VIC1,"2013/12/01 20:00:00",5488.48,47.36,TRADE
VIC1,"2013/12/01 20:30:00",5492.26,46.99,TRADE
VIC1,"2013/12/01 21:00:00",5303,45.75,TRADE
VIC1,"2013/12/01 21:30:00",5116.78,44.86,TRADE
VIC1,"2013/12/01 22:00:00",4891.46,44.1,TRADE
VIC1,"2013/12/01 22:30:00",4764.71,43.73,TRADE
VIC1,"2013/12/01 23:00:00",4775.26,43.68,TRADE
VIC1,"2013/12/01 23:30:00",5109.95,44.64,TRADE
VIC1,"2013/12/02 00:00:00",5149.34,45.03,TRADE
VIC1,"2013/12/02 00:30:00",4911.55,43.86,TRADE
VIC1,"2013/12/02 01:00:00",4667.09,43.76,TRADE
VIC1,"2013/12/02 01:30:00",4550.82,40.27,TRADE
VIC1,"2013/12/02 02:00:00",4441.78,42.69,TRADE
VIC1,"2013/12/02 02:30:00",4354.14,38.67,TRADE
VIC1,"2013/12/02 03:00:00",4306.8,41.14,TRADE
VIC1,"2013/12/02 03:30:00",4310.05,40.92,TRADE
VIC1,"2013/12/02 04:00:00",4316.17,42.82,TRADE
VIC1,"2013/12/02 04:30:00",4460.17,44.15,TRADE
VIC1,"2013/12/02 05:00:00",4671.41,45.26,TRADE
VIC1,"2013/12/02 05:30:00",4993.45,47.78,TRADE
VIC1,"2013/12/02 06:00:00",5369.1,49.06,TRADE
VIC1,"2013/12/02 06:30:00",5867.26,50.88,TRADE
VIC1,"2013/12/02 07:00:00",6181.21,53.42,TRADE
VIC1,"2013/12/02 07:30:00",6199.05,47.66,TRADE
VIC1,"2013/12/02 08:00:00",6380.74,50.29,TRADE
VIC1,"2013/12/02 08:30:00",6533.27,52.1,TRADE
VIC1,"2013/12/02 09:00:00",6631.04,52.43,TRADE
VIC1,"2013/12/02 09:30:00",6681.69,52.42,TRADE
VIC1,"2013/12/02 10:00:00",6807.96,52.31,TRADE
VIC1,"2013/12/02 10:30:00",6882.4,52.41,TRADE
VIC1,"2013/12/02 11:00:00",6988.14,52.52,TRADE
VIC1,"2013/12/02 11:30:00",7088.12,52.9,TRADE
VIC1,"2013/12/02 12:00:00",7233.53,54.55,TRADE
VIC1,"2013/12/02 12:30:00",7383.82,55.93,TRADE
VIC1,"2013/12/02 13:00:00",7474.33,56.51,TRADE
VIC1,"2013/12/02 13:30:00",7533.75,57.54,TRADE
VIC1,"2013/12/02 14:00:00",7674.59,58.76,TRADE
VIC1,"2013/12/02 14:30:00",7753.87,59.42,TRADE
VIC1,"2013/12/02 15:00:00",7912.22,66.12,TRADE
VIC1,"2013/12/02 15:30:00",8117.75,224.38,TRADE
VIC1,"2013/12/02 16:00:00",8246.05,443.1,TRADE
VIC1,"2013/12/02 16:30:00",8203.95,62.76,TRADE
VIC1,"2013/12/02 17:00:00",8056.69,56.37,TRADE
VIC1,"2013/12/02 17:30:00",7719.55,54.07,TRADE
VIC1,"2013/12/02 18:00:00",7371.36,53.52,TRADE
VIC1,"2013/12/02 18:30:00",7055.7,52.57,TRADE
VIC1,"2013/12/02 19:00:00",6804.08,53.09,TRADE
VIC1,"2013/12/02 19:30:00",6619.66,53.15,TRADE
VIC1,"2013/12/02 20:00:00",6512.76,52.67,TRADE
VIC1,"2013/12/02 20:30:00",6391.1,52.58,TRADE
VIC1,"2013/12/02 21:00:00",6054.62,51,TRADE
VIC1,"2013/12/02 21:30:00",5762.87,49.62,TRADE
VIC1,"2013/12/02 22:00:00",5468.74,47,TRADE
VIC1,"2013/12/02 22:30:00",5349.16,49.86,TRADE
VIC1,"2013/12/02 23:00:00",5312.96,51.73,TRADE
VIC1,"2013/12/02 23:30:00",5623.67,53.13,TRADE
VIC1,"2013/12/03 00:00:00",5621.07,54.04,TRADE
VIC1,"2013/12/03 00:30:00",5242.46,51.96,TRADE
VIC1,"2013/12/03 01:00:00",5020.6,48.85,TRADE
VIC1,"2013/12/03 01:30:00",4906.07,48.9,TRADE
VIC1,"2013/12/03 02:00:00",4795.18,47.8,TRADE
VIC1,"2013/12/03 02:30:00",4657.6,45.2,TRADE
VIC1,"2013/12/03 03:00:00",4577.2,45.2,TRADE
VIC1,"2013/12/03 03:30:00",4555.85,44.11,TRADE
VIC1,"2013/12/03 04:00:00",4618.17,45.02,TRADE
VIC1,"2013/12/03 04:30:00",4731.73,47.39,TRADE
VIC1,"2013/12/03 05:00:00",4886.28,48.75,TRADE
VIC1,"2013/12/03 05:30:00",5219.63,52.44,TRADE
VIC1,"2013/12/03 06:00:00",5478.36,53.25,TRADE
VIC1,"2013/12/03 06:30:00",5877.35,55.14,TRADE
VIC1,"2013/12/03 07:00:00",6177.89,57.38,TRADE
VIC1,"2013/12/03 07:30:00",6198.02,50.2,TRADE
VIC1,"2013/12/03 08:00:00",6325.69,52.66,TRADE
VIC1,"2013/12/03 08:30:00",6525.14,53.65,TRADE
VIC1,"2013/12/03 09:00:00",6561.03,53.82,TRADE
VIC1,"2013/12/03 09:30:00",6616.96,55.77,TRADE
VIC1,"2013/12/03 10:00:00",6643.09,56.21,TRADE
VIC1,"2013/12/03 10:30:00",6632.08,55.6,TRADE
VIC1,"2013/12/03 11:00:00",6634.39,54.57,TRADE
VIC1,"2013/12/03 11:30:00",6702.69,52.84,TRADE
VIC1,"2013/12/03 12:00:00",6718.95,52.83,TRADE
VIC1,"2013/12/03 12:30:00",6738.13,53.44,TRADE
VIC1,"2013/12/03 13:00:00",6686.14,54.06,TRADE
VIC1,"2013/12/03 13:30:00",6690.38,54.25,TRADE
VIC1,"2013/12/03 14:00:00",6691.27,54.57,TRADE
VIC1,"2013/12/03 14:30:00",6688.02,53.03,TRADE
VIC1,"2013/12/03 15:00:00",6754.67,52.61,TRADE
VIC1,"2013/12/03 15:30:00",6789.22,53.21,TRADE
VIC1,"2013/12/03 16:00:00",6794.94,53.45,TRADE
VIC1,"2013/12/03 16:30:00",6793.28,53.89,TRADE
VIC1,"2013/12/03 17:00:00",6810.03,53.7,TRADE
VIC1,"2013/12/03 17:30:00",6635.3,50.65,TRADE
VIC1,"2013/12/03 18:00:00",6485.15,49.12,TRADE
VIC1,"2013/12/03 18:30:00",6304.1,47.31,TRADE
VIC1,"2013/12/03 19:00:00",6215.13,47.26,TRADE
VIC1,"2013/12/03 19:30:00",6137.38,48.07,TRADE
VIC1,"2013/12/03 20:00:00",6093.16,48.03,TRADE
VIC1,"2013/12/03 20:30:00",5991.12,47.48,TRADE
VIC1,"2013/12/03 21:00:00",5733.48,47,TRADE
VIC1,"2013/12/03 21:30:00",5454.03,47,TRADE
VIC1,"2013/12/03 22:00:00",5200.6,46.12,TRADE
VIC1,"2013/12/03 22:30:00",5055.54,46.32,TRADE
VIC1,"2013/12/03 23:00:00",5009.81,46.06,TRADE
VIC1,"2013/12/03 23:30:00",5288.07,46.31,TRADE
VIC1,"2013/12/04 00:00:00",5362.3,49.56,TRADE
VIC1,"2013/12/04 00:30:00",4963.98,46.17,TRADE
VIC1,"2013/12/04 01:00:00",4712.68,45.25,TRADE
VIC1,"2013/12/04 01:30:00",4621.58,44.62,TRADE
VIC1,"2013/12/04 02:00:00",4431.38,43.81,TRADE
VIC1,"2013/12/04 02:30:00",4258.78,42.4,TRADE
VIC1,"2013/12/04 03:00:00",4152.25,42.8,TRADE
VIC1,"2013/12/04 03:30:00",4135.76,42.75,TRADE
VIC1,"2013/12/04 04:00:00",4156.02,43.07,TRADE
VIC1,"2013/12/04 04:30:00",4327.78,44.81,TRADE
VIC1,"2013/12/04 05:00:00",4563.91,45.2,TRADE
VIC1,"2013/12/04 05:30:00",4901.28,46.59,TRADE
VIC1,"2013/12/04 06:00:00",5232.26,47.48,TRADE
VIC1,"2013/12/04 06:30:00",5805.43,49.5,TRADE
VIC1,"2013/12/04 07:00:00",6076.35,52.48,TRADE
VIC1,"2013/12/04 07:30:00",5995.78,48,TRADE
VIC1,"2013/12/04 08:00:00",6107.83,48.66,TRADE
VIC1,"2013/12/04 08:30:00",6265.87,52.07,TRADE
VIC1,"2013/12/04 09:00:00",6300.05,52.31,TRADE
VIC1,"2013/12/04 09:30:00",6267.91,50.62,TRADE
VIC1,"2013/12/04 10:00:00",6127.04,48.57,TRADE
VIC1,"2013/12/04 10:30:00",6089.24,49.48,TRADE
VIC1,"2013/12/04 11:00:00",6157.38,50.37,TRADE
VIC1,"2013/12/04 11:30:00",6121.29,50.09,TRADE
VIC1,"2013/12/04 12:00:00",6109.48,48.87,TRADE
VIC1,"2013/12/04 12:30:00",6076.8,49.99,TRADE
VIC1,"2013/12/04 13:00:00",6116.36,49.68,TRADE
VIC1,"2013/12/04 13:30:00",6094.76,49.62,TRADE
VIC1,"2013/12/04 14:00:00",6048.81,49.33,TRADE
VIC1,"2013/12/04 14:30:00",5998.95,47.91,TRADE
VIC1,"2013/12/04 15:00:00",6011.24,48.61,TRADE
VIC1,"2013/12/04 15:30:00",6025.5,48.51,TRADE
VIC1,"2013/12/04 16:00:00",5862.52,47.05,TRADE
VIC1,"2013/12/04 16:30:00",5803.89,47,TRADE
VIC1,"2013/12/04 17:00:00",5766.61,47,TRADE
VIC1,"2013/12/04 17:30:00",5641.51,47,TRADE
VIC1,"2013/12/04 18:00:00",5576.74,47,TRADE
VIC1,"2013/12/04 18:30:00",5516.09,46.16,TRADE
VIC1,"2013/12/04 19:00:00",5423.35,46.25,TRADE
VIC1,"2013/12/04 19:30:00",5382.13,45.89,TRADE
VIC1,"2013/12/04 20:00:00",5465.98,46.26,TRADE
VIC1,"2013/12/04 20:30:00",5432.38,46.58,TRADE
VIC1,"2013/12/04 21:00:00",5257.33,45.24,TRADE
VIC1,"2013/12/04 21:30:00",5010.01,45.57,TRADE
VIC1,"2013/12/04 22:00:00",4817.23,44.52,TRADE
VIC1,"2013/12/04 22:30:00",4745.36,45.48,TRADE
VIC1,"2013/12/04 23:00:00",4728.82,45.16,TRADE
VIC1,"2013/12/04 23:30:00",5064.16,46.77,TRADE
VIC1,"2013/12/05 00:00:00",5132.09,47.82,TRADE
VIC1,"2013/12/05 00:30:00",4805.57,44.42,TRADE
VIC1,"2013/12/05 01:00:00",4557.18,43.94,TRADE
VIC1,"2013/12/05 01:30:00",4389.04,45.02,TRADE
VIC1,"2013/12/05 02:00:00",4220.99,44.55,TRADE
VIC1,"2013/12/05 02:30:00",4072.26,43.76,TRADE
VIC1,"2013/12/05 03:00:00",3993.62,43.07,TRADE
VIC1,"2013/12/05 03:30:00",4026.83,42.35,TRADE
VIC1,"2013/12/05 04:00:00",4060.74,42.95,TRADE
VIC1,"2013/12/05 04:30:00",4230.63,43.48,TRADE
VIC1,"2013/12/05 05:00:00",4423.86,43.85,TRADE
VIC1,"2013/12/05 05:30:00",4759.55,46.5,TRADE
VIC1,"2013/12/05 06:00:00",5075.45,48.66,TRADE
VIC1,"2013/12/05 06:30:00",5534.81,50.98,TRADE
VIC1,"2013/12/05 07:00:00",5791.52,52.93,TRADE
VIC1,"2013/12/05 07:30:00",5633.35,49.26,TRADE
VIC1,"2013/12/05 08:00:00",5610.74,47.33,TRADE
VIC1,"2013/12/05 08:30:00",5663.31,47.07,TRADE
VIC1,"2013/12/05 09:00:00",5664.69,46.99,TRADE
VIC1,"2013/12/05 09:30:00",5701.38,47.06,TRADE
VIC1,"2013/12/05 10:00:00",5679.26,47.65,TRADE
VIC1,"2013/12/05 10:30:00",5653.32,48.5,TRADE
VIC1,"2013/12/05 11:00:00",5705,49.24,TRADE
VIC1,"2013/12/05 11:30:00",5747.26,48.42,TRADE
VIC1,"2013/12/05 12:00:00",5754.71,48.39,TRADE
VIC1,"2013/12/05 12:30:00",5793.53,48.23,TRADE
VIC1,"2013/12/05 13:00:00",5800.84,48.97,TRADE
VIC1,"2013/12/05 13:30:00",5836.02,47.77,TRADE
VIC1,"2013/12/05 14:00:00",5700.39,46.9,TRADE
VIC1,"2013/12/05 14:30:00",5763.97,48.28,TRADE
VIC1,"2013/12/05 15:00:00",5834.53,48.36,TRADE
VIC1,"2013/12/05 15:30:00",5902.24,50.25,TRADE
VIC1,"2013/12/05 16:00:00",5895.75,49.19,TRADE
VIC1,"2013/12/05 16:30:00",5907.14,47.15,TRADE
VIC1,"2013/12/05 17:00:00",5958.12,47.8,TRADE
VIC1,"2013/12/05 17:30:00",5909.05,47.17,TRADE
VIC1,"2013/12/05 18:00:00",5867.93,47.44,TRADE
VIC1,"2013/12/05 18:30:00",5792.47,46.99,TRADE
VIC1,"2013/12/05 19:00:00",5705.45,47.88,TRADE
VIC1,"2013/12/05 19:30:00",5711.11,49.24,TRADE
VIC1,"2013/12/05 20:00:00",5836.17,51.85,TRADE
VIC1,"2013/12/05 20:30:00",5809.91,51.69,TRADE
VIC1,"2013/12/05 21:00:00",5667.3,48.88,TRADE
VIC1,"2013/12/05 21:30:00",5409.97,46.86,TRADE
VIC1,"2013/12/05 22:00:00",5117.29,44.98,TRADE
VIC1,"2013/12/05 22:30:00",5027.14,49.87,TRADE
VIC1,"2013/12/05 23:00:00",5056.31,49.03,TRADE
VIC1,"2013/12/05 23:30:00",5378.51,50.57,TRADE
VIC1,"2013/12/06 00:00:00",5458.8,51.79,TRADE
VIC1,"2013/12/06 00:30:00",5126.76,50.79,TRADE
VIC1,"2013/12/06 01:00:00",4892.33,48.33,TRADE
VIC1,"2013/12/06 01:30:00",4740.5,47.15,TRADE
VIC1,"2013/12/06 02:00:00",4586.61,47.07,TRADE
VIC1,"2013/12/06 02:30:00",4450.95,45.24,TRADE
VIC1,"2013/12/06 03:00:00",4407.76,44.82,TRADE
VIC1,"2013/12/06 03:30:00",4427.93,45.14,TRADE
VIC1,"2013/12/06 04:00:00",4458.35,45.15,TRADE
VIC1,"2013/12/06 04:30:00",4584.15,48.95,TRADE
VIC1,"2013/12/06 05:00:00",4756.41,49.92,TRADE
VIC1,"2013/12/06 05:30:00",5142.06,52.31,TRADE
VIC1,"2013/12/06 06:00:00",5593.68,53.76,TRADE
VIC1,"2013/12/06 06:30:00",6002.04,56.14,TRADE
VIC1,"2013/12/06 07:00:00",6291.24,58.29,TRADE
VIC1,"2013/12/06 07:30:00",6160.59,52.48,TRADE
VIC1,"2013/12/06 08:00:00",6189.02,52.52,TRADE
VIC1,"2013/12/06 08:30:00",6105.56,52.28,TRADE
VIC1,"2013/12/06 09:00:00",6041.88,51.7,TRADE
VIC1,"2013/12/06 09:30:00",5968.9,49.74,TRADE
VIC1,"2013/12/06 10:00:00",5941.25,48.77,TRADE
VIC1,"2013/12/06 10:30:00",5934.85,48.79,TRADE
VIC1,"2013/12/06 11:00:00",5898.8,49.01,TRADE
VIC1,"2013/12/06 11:30:00",5860.53,50.08,TRADE
VIC1,"2013/12/06 12:00:00",5798.53,50.34,TRADE
VIC1,"2013/12/06 12:30:00",5729.13,50.47,TRADE
VIC1,"2013/12/06 13:00:00",5706.58,50.68,TRADE
VIC1,"2013/12/06 13:30:00",5681.6,50.51,TRADE
VIC1,"2013/12/06 14:00:00",5672.47,49.15,TRADE
VIC1,"2013/12/06 14:30:00",5633.7,49.68,TRADE
VIC1,"2013/12/06 15:00:00",5585.66,49.21,TRADE
VIC1,"2013/12/06 15:30:00",5610.72,49.66,TRADE
VIC1,"2013/12/06 16:00:00",5660.58,49.86,TRADE
VIC1,"2013/12/06 16:30:00",5664.47,49.4,TRADE
VIC1,"2013/12/06 17:00:00",5699.85,50.76,TRADE
VIC1,"2013/12/06 17:30:00",5568.01,49.73,TRADE
VIC1,"2013/12/06 18:00:00",5569.33,49.43,TRADE
VIC1,"2013/12/06 18:30:00",5491.9,47.4,TRADE
VIC1,"2013/12/06 19:00:00",5494.11,48,TRADE
VIC1,"2013/12/06 19:30:00",5475.32,48.71,TRADE
VIC1,"2013/12/06 20:00:00",5569.1,49.54,TRADE
VIC1,"2013/12/06 20:30:00",5533.63,48.58,TRADE
VIC1,"2013/12/06 21:00:00",5393.92,47,TRADE
VIC1,"2013/12/06 21:30:00",5249.26,48.63,TRADE
VIC1,"2013/12/06 22:00:00",5066.68,47.02,TRADE
VIC1,"2013/12/06 22:30:00",4947.83,50.36,TRADE
VIC1,"2013/12/06 23:00:00",4975.3,49.93,TRADE
VIC1,"2013/12/06 23:30:00",5308.44,51.74,TRADE
VIC1,"2013/12/07 00:00:00",5357.03,52.59,TRADE
VIC1,"2013/12/07 00:30:00",5002.78,49.59,TRADE
VIC1,"2013/12/07 01:00:00",4748.32,48.08,TRADE
VIC1,"2013/12/07 01:30:00",4631.59,47.5,TRADE
VIC1,"2013/12/07 02:00:00",4472.09,46.87,TRADE
VIC1,"2013/12/07 02:30:00",4347.5,45.46,TRADE
VIC1,"2013/12/07 03:00:00",4272.12,45.2,TRADE
VIC1,"2013/12/07 03:30:00",4255.7,45.2,TRADE
VIC1,"2013/12/07 04:00:00",4217.38,45.2,TRADE
VIC1,"2013/12/07 04:30:00",4282.98,44.22,TRADE
VIC1,"2013/12/07 05:00:00",4293.55,43.86,TRADE
VIC1,"2013/12/07 05:30:00",4444.45,45.64,TRADE
VIC1,"2013/12/07 06:00:00",4545.74,45.93,TRADE
VIC1,"2013/12/07 06:30:00",4753.09,47,TRADE
VIC1,"2013/12/07 07:00:00",4992.47,47.87,TRADE
VIC1,"2013/12/07 07:30:00",4944.77,48.4,TRADE
VIC1,"2013/12/07 08:00:00",5056.14,47.86,TRADE
VIC1,"2013/12/07 08:30:00",5065.03,50.58,TRADE
VIC1,"2013/12/07 09:00:00",5052.29,50.43,TRADE
VIC1,"2013/12/07 09:30:00",5055.78,52.74,TRADE
VIC1,"2013/12/07 10:00:00",4997.24,52.52,TRADE
VIC1,"2013/12/07 10:30:00",4940.22,51.22,TRADE
VIC1,"2013/12/07 11:00:00",4948.29,51.55,TRADE
VIC1,"2013/12/07 11:30:00",4906.69,50.92,TRADE
VIC1,"2013/12/07 12:00:00",4901.7,50.58,TRADE
VIC1,"2013/12/07 12:30:00",4869.89,51.52,TRADE
VIC1,"2013/12/07 13:00:00",4844.2,50.82,TRADE
VIC1,"2013/12/07 13:30:00",4882.33,51.66,TRADE
VIC1,"2013/12/07 14:00:00",4896.92,48.95,TRADE
VIC1,"2013/12/07 14:30:00",4931.28,50.79,TRADE
VIC1,"2013/12/07 15:00:00",5000.48,49.58,TRADE
VIC1,"2013/12/07 15:30:00",4990.83,51.2,TRADE
VIC1,"2013/12/07 16:00:00",5086.37,52.38,TRADE
VIC1,"2013/12/07 16:30:00",5109.32,52.19,TRADE
VIC1,"2013/12/07 17:00:00",5193.09,52.38,TRADE
VIC1,"2013/12/07 17:30:00",5196.33,52.03,TRADE
VIC1,"2013/12/07 18:00:00",5131.83,51.7,TRADE
VIC1,"2013/12/07 18:30:00",5093.54,52.11,TRADE
VIC1,"2013/12/07 19:00:00",5065.02,52.97,TRADE
VIC1,"2013/12/07 19:30:00",4946.08,52.23,TRADE
VIC1,"2013/12/07 20:00:00",5006.96,54.97,TRADE
VIC1,"2013/12/07 20:30:00",5031.06,54.45,TRADE
VIC1,"2013/12/07 21:00:00",5011.19,52.26,TRADE
VIC1,"2013/12/07 21:30:00",4889.6,53.71,TRADE
VIC1,"2013/12/07 22:00:00",4744.73,51.21,TRADE
VIC1,"2013/12/07 22:30:00",4688.46,50.45,TRADE
VIC1,"2013/12/07 23:00:00",4635.09,47.38,TRADE
VIC1,"2013/12/07 23:30:00",4917.32,50.49,TRADE
VIC1,"2013/12/08 00:00:00",4875.69,49.53,TRADE
VIC1,"2013/12/08 00:30:00",4565.35,46.17,TRADE
VIC1,"2013/12/08 01:00:00",4305.79,43.72,TRADE
VIC1,"2013/12/08 01:30:00",4087.39,40.18,TRADE
VIC1,"2013/12/08 02:00:00",4002.19,38.76,TRADE
VIC1,"2013/12/08 02:30:00",3865.57,37.53,TRADE
VIC1,"2013/12/08 03:00:00",3748.64,38.08,TRADE
VIC1,"2013/12/08 03:30:00",3641.5,37.86,TRADE
VIC1,"2013/12/08 04:00:00",3619.67,38.66,TRADE
VIC1,"2013/12/08 04:30:00",3616.03,38.15,TRADE
VIC1,"2013/12/08 05:00:00",3587.77,36.67,TRADE
VIC1,"2013/12/08 05:30:00",3603.27,38.05,TRADE
VIC1,"2013/12/08 06:00:00",3710.35,38.8,TRADE
VIC1,"2013/12/08 06:30:00",3796.52,39.28,TRADE
VIC1,"2013/12/08 07:00:00",3966.1,39.85,TRADE
VIC1,"2013/12/08 07:30:00",4038.2,41.55,TRADE
VIC1,"2013/12/08 08:00:00",4162.15,40.81,TRADE
VIC1,"2013/12/08 08:30:00",4314.99,43.48,TRADE
VIC1,"2013/12/08 09:00:00",4435.61,43.75,TRADE
VIC1,"2013/12/08 09:30:00",4565.31,44.25,TRADE
VIC1,"2013/12/08 10:00:00",4607.72,44.73,TRADE
VIC1,"2013/12/08 10:30:00",4643.87,44.65,TRADE
VIC1,"2013/12/08 11:00:00",4741.35,44.43,TRADE
VIC1,"2013/12/08 11:30:00",4743.33,45.05,TRADE
VIC1,"2013/12/08 12:00:00",4761.86,45.28,TRADE
VIC1,"2013/12/08 12:30:00",4785.12,45.23,TRADE
VIC1,"2013/12/08 13:00:00",4813.46,46.42,TRADE
VIC1,"2013/12/08 13:30:00",4843.78,46.44,TRADE
VIC1,"2013/12/08 14:00:00",4919.54,46.73,TRADE
VIC1,"2013/12/08 14:30:00",4999.46,46.88,TRADE
VIC1,"2013/12/08 15:00:00",5086.17,48.04,TRADE
VIC1,"2013/12/08 15:30:00",5095.45,49.54,TRADE
VIC1,"2013/12/08 16:00:00",5173.94,47.84,TRADE
VIC1,"2013/12/08 16:30:00",5208.45,47.43,TRADE
VIC1,"2013/12/08 17:00:00",5268.4,48.83,TRADE
VIC1,"2013/12/08 17:30:00",5227.05,48.8,TRADE
VIC1,"2013/12/08 18:00:00",5228.63,50.08,TRADE
VIC1,"2013/12/08 18:30:00",5236.6,50.64,TRADE
VIC1,"2013/12/08 19:00:00",5226.46,51.54,TRADE
VIC1,"2013/12/08 19:30:00",5240.19,52.26,TRADE
VIC1,"2013/12/08 20:00:00",5282.73,53.01,TRADE
VIC1,"2013/12/08 20:30:00",5270.56,52.76,TRADE
VIC1,"2013/12/08 21:00:00",5110.57,52.13,TRADE
VIC1,"2013/12/08 21:30:00",4962.92,52.09,TRADE
VIC1,"2013/12/08 22:00:00",4785.95,50.68,TRADE
VIC1,"2013/12/08 22:30:00",4702.12,50.63,TRADE
VIC1,"2013/12/08 23:00:00",4782.8,51.83,TRADE
VIC1,"2013/12/08 23:30:00",5147.23,52.58,TRADE
VIC1,"2013/12/09 00:00:00",5160.3,55.25,TRADE
VIC1,"2013/12/09 00:30:00",4879.6,50.81,TRADE
VIC1,"2013/12/09 01:00:00",4673.2,49.44,TRADE
VIC1,"2013/12/09 01:30:00",4525.46,46.12,TRADE
VIC1,"2013/12/09 02:00:00",4427.22,45.45,TRADE
VIC1,"2013/12/09 02:30:00",4316.17,44.13,TRADE
VIC1,"2013/12/09 03:00:00",4234.67,43.81,TRADE
VIC1,"2013/12/09 03:30:00",4275.92,44.34,TRADE
VIC1,"2013/12/09 04:00:00",4255.02,43.96,TRADE
VIC1,"2013/12/09 04:30:00",4407.39,46.83,TRADE
VIC1,"2013/12/09 05:00:00",4561.68,48.88,TRADE
VIC1,"2013/12/09 05:30:00",4914.9,52.05,TRADE
VIC1,"2013/12/09 06:00:00",5165.69,50.56,TRADE
VIC1,"2013/12/09 06:30:00",5677.97,52.85,TRADE
VIC1,"2013/12/09 07:00:00",6067.9,54.32,TRADE
VIC1,"2013/12/09 07:30:00",6051.9,50.79,TRADE
VIC1,"2013/12/09 08:00:00",6096.02,52.48,TRADE
VIC1,"2013/12/09 08:30:00",6131.72,52.65,TRADE
VIC1,"2013/12/09 09:00:00",6159.85,52.69,TRADE
VIC1,"2013/12/09 09:30:00",6133.53,52.06,TRADE
VIC1,"2013/12/09 10:00:00",6163.05,52.11,TRADE
VIC1,"2013/12/09 10:30:00",6205.77,52.04,TRADE
VIC1,"2013/12/09 11:00:00",6257.08,52.33,TRADE
VIC1,"2013/12/09 11:30:00",6231.56,52.46,TRADE
VIC1,"2013/12/09 12:00:00",6188.81,51.77,TRADE
VIC1,"2013/12/09 12:30:00",6253.39,52.31,TRADE
VIC1,"2013/12/09 13:00:00",6219.17,50.49,TRADE
VIC1,"2013/12/09 13:30:00",6158.36,52.21,TRADE
VIC1,"2013/12/09 14:00:00",6132.31,50.35,TRADE
VIC1,"2013/12/09 14:30:00",6077.62,49.02,TRADE
VIC1,"2013/12/09 15:00:00",6082.82,48.65,TRADE
VIC1,"2013/12/09 15:30:00",6054.07,49.09,TRADE
VIC1,"2013/12/09 16:00:00",6024.03,49.62,TRADE
VIC1,"2013/12/09 16:30:00",5979.01,49.9,TRADE
VIC1,"2013/12/09 17:00:00",5919.53,47.4,TRADE
VIC1,"2013/12/09 17:30:00",5793.91,47,TRADE
VIC1,"2013/12/09 18:00:00",5665.69,47,TRADE
VIC1,"2013/12/09 18:30:00",5491.97,46.99,TRADE
VIC1,"2013/12/09 19:00:00",5369.72,46.9,TRADE
VIC1,"2013/12/09 19:30:00",5346.13,46.7,TRADE
VIC1,"2013/12/09 20:00:00",5369.55,46.88,TRADE
VIC1,"2013/12/09 20:30:00",5420.24,47,TRADE
VIC1,"2013/12/09 21:00:00",5233.44,47,TRADE
VIC1,"2013/12/09 21:30:00",5049.67,46.99,TRADE
VIC1,"2013/12/09 22:00:00",4853.72,44.37,TRADE
VIC1,"2013/12/09 22:30:00",4792.31,45.34,TRADE
VIC1,"2013/12/09 23:00:00",4797.85,44.34,TRADE
VIC1,"2013/12/09 23:30:00",5066.87,45.09,TRADE
VIC1,"2013/12/10 00:00:00",5151.73,46.1,TRADE
VIC1,"2013/12/10 00:30:00",4782.05,43.36,TRADE
VIC1,"2013/12/10 01:00:00",4593.25,43.04,TRADE
VIC1,"2013/12/10 01:30:00",4371.55,42.68,TRADE
VIC1,"2013/12/10 02:00:00",4211.17,41.01,TRADE
VIC1,"2013/12/10 02:30:00",4085.48,39.21,TRADE
VIC1,"2013/12/10 03:00:00",4047,38.2,TRADE
VIC1,"2013/12/10 03:30:00",4028.49,39.45,TRADE
VIC1,"2013/12/10 04:00:00",4044.95,40.03,TRADE
VIC1,"2013/12/10 04:30:00",4123.92,40.9,TRADE
VIC1,"2013/12/10 05:00:00",4278.65,43.56,TRADE
VIC1,"2013/12/10 05:30:00",4684.41,44.68,TRADE
VIC1,"2013/12/10 06:00:00",5073.94,46.4,TRADE
VIC1,"2013/12/10 06:30:00",5583.44,49.42,TRADE
VIC1,"2013/12/10 07:00:00",5828.03,53.49,TRADE
VIC1,"2013/12/10 07:30:00",5650.79,46.39,TRADE
VIC1,"2013/12/10 08:00:00",5713.57,48.43,TRADE
VIC1,"2013/12/10 08:30:00",5711.48,48.23,TRADE
VIC1,"2013/12/10 09:00:00",5728.77,48.52,TRADE
VIC1,"2013/12/10 09:30:00",5758.21,49.22,TRADE
VIC1,"2013/12/10 10:00:00",5778.58,48.51,TRADE
VIC1,"2013/12/10 10:30:00",5761.53,48.58,TRADE
VIC1,"2013/12/10 11:00:00",5640.38,48.37,TRADE
VIC1,"2013/12/10 11:30:00",5650.44,48.09,TRADE
VIC1,"2013/12/10 12:00:00",5701.51,48.11,TRADE
VIC1,"2013/12/10 12:30:00",5633.69,47,TRADE
VIC1,"2013/12/10 13:00:00",5633.78,47,TRADE
VIC1,"2013/12/10 13:30:00",5608.41,47,TRADE
VIC1,"2013/12/10 14:00:00",5612.92,47,TRADE
VIC1,"2013/12/10 14:30:00",5627.37,47,TRADE
VIC1,"2013/12/10 15:00:00",5599.6,46.77,TRADE
VIC1,"2013/12/10 15:30:00",5614.58,46.72,TRADE
VIC1,"2013/12/10 16:00:00",5722.03,46.99,TRADE
VIC1,"2013/12/10 16:30:00",5700.85,46.99,TRADE
VIC1,"2013/12/10 17:00:00",5705.58,46.82,TRADE
VIC1,"2013/12/10 17:30:00",5538.46,46.57,TRADE
VIC1,"2013/12/10 18:00:00",5526.17,46.92,TRADE
VIC1,"2013/12/10 18:30:00",5419.39,46.93,TRADE
VIC1,"2013/12/10 19:00:00",5402.23,46.99,TRADE
VIC1,"2013/12/10 19:30:00",5337.22,47,TRADE
VIC1,"2013/12/10 20:00:00",5393.25,47,TRADE
VIC1,"2013/12/10 20:30:00",5406.2,47,TRADE
VIC1,"2013/12/10 21:00:00",5332.61,46.82,TRADE
VIC1,"2013/12/10 21:30:00",5067.88,46.24,TRADE
VIC1,"2013/12/10 22:00:00",4834.54,43.66,TRADE
VIC1,"2013/12/10 22:30:00",4708.77,47.21,TRADE
VIC1,"2013/12/10 23:00:00",4783.88,46.58,TRADE
VIC1,"2013/12/10 23:30:00",5126.58,49.84,TRADE
VIC1,"2013/12/11 00:00:00",5220.37,51.42,TRADE
VIC1,"2013/12/11 00:30:00",4864.35,48.24,TRADE
VIC1,"2013/12/11 01:00:00",4698.74,45.87,TRADE
VIC1,"2013/12/11 01:30:00",4478.27,44.22,TRADE
VIC1,"2013/12/11 02:00:00",4357.81,43.86,TRADE
VIC1,"2013/12/11 02:30:00",4225.53,43.34,TRADE
VIC1,"2013/12/11 03:00:00",4124.72,42.88,TRADE
VIC1,"2013/12/11 03:30:00",4096.4,43.11,TRADE
VIC1,"2013/12/11 04:00:00",4128.59,43.49,TRADE
VIC1,"2013/12/11 04:30:00",4261.59,43.4,TRADE
VIC1,"2013/12/11 05:00:00",4480.34,45.1,TRADE
VIC1,"2013/12/11 05:30:00",4784.76,48.11,TRADE
VIC1,"2013/12/11 06:00:00",5135.94,50.29,TRADE
VIC1,"2013/12/11 06:30:00",5573.55,52.01,TRADE
VIC1,"2013/12/11 07:00:00",5840.36,55.13,TRADE
VIC1,"2013/12/11 07:30:00",5702.12,47.21,TRADE
VIC1,"2013/12/11 08:00:00",5691.99,48.07,TRADE
VIC1,"2013/12/11 08:30:00",5717.5,47.44,TRADE
VIC1,"2013/12/11 09:00:00",5742.57,47.79,TRADE
VIC1,"2013/12/11 09:30:00",5801.72,47.69,TRADE
VIC1,"2013/12/11 10:00:00",5781.91,47.68,TRADE
VIC1,"2013/12/11 10:30:00",5776.33,47.59,TRADE
VIC1,"2013/12/11 11:00:00",5779.56,47.05,TRADE
VIC1,"2013/12/11 11:30:00",5749.96,47,TRADE
VIC1,"2013/12/11 12:00:00",5792.16,47.34,TRADE
VIC1,"2013/12/11 12:30:00",5660.38,47,TRADE
VIC1,"2013/12/11 13:00:00",5646.86,47,TRADE
VIC1,"2013/12/11 13:30:00",5648.35,47,TRADE
VIC1,"2013/12/11 14:00:00",5587.33,47,TRADE
VIC1,"2013/12/11 14:30:00",5658.68,48.7,TRADE
VIC1,"2013/12/11 15:00:00",5554.33,47.16,TRADE
VIC1,"2013/12/11 15:30:00",5625.04,47.45,TRADE
VIC1,"2013/12/11 16:00:00",5662.24,47.41,TRADE
VIC1,"2013/12/11 16:30:00",5700.37,52.03,TRADE
VIC1,"2013/12/11 17:00:00",5655.98,54.51,TRADE
VIC1,"2013/12/11 17:30:00",5592.55,48,TRADE
VIC1,"2013/12/11 18:00:00",5515.94,47.86,TRADE
VIC1,"2013/12/11 18:30:00",5436.76,47.74,TRADE
VIC1,"2013/12/11 19:00:00",5330.25,48.06,TRADE
VIC1,"2013/12/11 19:30:00",5341.85,48.42,TRADE
VIC1,"2013/12/11 20:00:00",5431.26,49.44,TRADE
VIC1,"2013/12/11 20:30:00",5477.72,49.45,TRADE
VIC1,"2013/12/11 21:00:00",5349.51,49.36,TRADE
VIC1,"2013/12/11 21:30:00",5137.15,47.61,TRADE
VIC1,"2013/12/11 22:00:00",4934.41,47.17,TRADE
VIC1,"2013/12/11 22:30:00",4884.26,49.52,TRADE
VIC1,"2013/12/11 23:00:00",4879.61,48.1,TRADE
VIC1,"2013/12/11 23:30:00",5252.82,50.48,TRADE
VIC1,"2013/12/12 00:00:00",5269.8,51.51,TRADE
VIC1,"2013/12/12 00:30:00",4949.9,48.61,TRADE
VIC1,"2013/12/12 01:00:00",4675.5,46.35,TRADE
VIC1,"2013/12/12 01:30:00",4519.15,45.53,TRADE
VIC1,"2013/12/12 02:00:00",4389.27,43.91,TRADE
VIC1,"2013/12/12 02:30:00",4270.38,43.61,TRADE
VIC1,"2013/12/12 03:00:00",4171.76,43.05,TRADE
VIC1,"2013/12/12 03:30:00",4134.93,43.4,TRADE
VIC1,"2013/12/12 04:00:00",4204.49,43.63,TRADE
VIC1,"2013/12/12 04:30:00",4378.9,44.82,TRADE
VIC1,"2013/12/12 05:00:00",4518.93,46.83,TRADE
VIC1,"2013/12/12 05:30:00",4810.28,48.94,TRADE
VIC1,"2013/12/12 06:00:00",5186.81,49.74,TRADE
VIC1,"2013/12/12 06:30:00",5641.09,54.68,TRADE
VIC1,"2013/12/12 07:00:00",5927,54.11,TRADE
VIC1,"2013/12/12 07:30:00",5791.29,47.91,TRADE
VIC1,"2013/12/12 08:00:00",5827.7,47.73,TRADE
VIC1,"2013/12/12 08:30:00",5800.01,48.79,TRADE
VIC1,"2013/12/12 09:00:00",5748.63,47.03,TRADE
VIC1,"2013/12/12 09:30:00",5732.57,47,TRADE
VIC1,"2013/12/12 10:00:00",5672.58,47,TRADE
VIC1,"2013/12/12 10:30:00",5668.87,46.99,TRADE
VIC1,"2013/12/12 11:00:00",5680.11,47,TRADE
VIC1,"2013/12/12 11:30:00",5640.85,47,TRADE
VIC1,"2013/12/12 12:00:00",5649.96,47.21,TRADE
VIC1,"2013/12/12 12:30:00",5644.65,47,TRADE
VIC1,"2013/12/12 13:00:00",5644.48,46.82,TRADE
VIC1,"2013/12/12 13:30:00",5564.53,46.3,TRADE
VIC1,"2013/12/12 14:00:00",5673.89,46.73,TRADE
VIC1,"2013/12/12 14:30:00",5698.87,46.99,TRADE
VIC1,"2013/12/12 15:00:00",5689.59,46.97,TRADE
VIC1,"2013/12/12 15:30:00",5735.48,47.03,TRADE
VIC1,"2013/12/12 16:00:00",5799.71,47.44,TRADE
VIC1,"2013/12/12 16:30:00",5817.73,47.71,TRADE
VIC1,"2013/12/12 17:00:00",5822.21,47.61,TRADE
VIC1,"2013/12/12 17:30:00",5698.37,47.03,TRADE
VIC1,"2013/12/12 18:00:00",5614.44,49.32,TRADE
VIC1,"2013/12/12 18:30:00",5445.41,47.01,TRADE
VIC1,"2013/12/12 19:00:00",5376.8,47,TRADE
VIC1,"2013/12/12 19:30:00",5353.34,47.09,TRADE
VIC1,"2013/12/12 20:00:00",5431.87,48.9,TRADE
VIC1,"2013/12/12 20:30:00",5444.94,49.64,TRADE
VIC1,"2013/12/12 21:00:00",5338.09,49.08,TRADE
VIC1,"2013/12/12 21:30:00",5126.98,47.83,TRADE
VIC1,"2013/12/12 22:00:00",4927.6,47,TRADE
VIC1,"2013/12/12 22:30:00",4861.5,48.87,TRADE
VIC1,"2013/12/12 23:00:00",4882.52,48.46,TRADE
VIC1,"2013/12/12 23:30:00",5224.95,50.25,TRADE
VIC1,"2013/12/13 00:00:00",5280.42,51.69,TRADE
VIC1,"2013/12/13 00:30:00",4935.01,49.41,TRADE
VIC1,"2013/12/13 01:00:00",4704.77,47.31,TRADE
VIC1,"2013/12/13 01:30:00",4570.84,47.03,TRADE
VIC1,"2013/12/13 02:00:00",4423.69,45.57,TRADE
VIC1,"2013/12/13 02:30:00",4321.13,44.17,TRADE
VIC1,"2013/12/13 03:00:00",4248.31,44.19,TRADE
VIC1,"2013/12/13 03:30:00",4236.89,44.16,TRADE
VIC1,"2013/12/13 04:00:00",4237.01,44.41,TRADE
VIC1,"2013/12/13 04:30:00",4356.76,46.93,TRADE
VIC1,"2013/12/13 05:00:00",4514.47,49.17,TRADE
VIC1,"2013/12/13 05:30:00",4863.29,51.13,TRADE
VIC1,"2013/12/13 06:00:00",5178.33,49.87,TRADE
VIC1,"2013/12/13 06:30:00",5523.16,52.45,TRADE
VIC1,"2013/12/13 07:00:00",5808.91,54.65,TRADE
VIC1,"2013/12/13 07:30:00",5694.14,49.23,TRADE
VIC1,"2013/12/13 08:00:00",5730.04,49.95,TRADE
VIC1,"2013/12/13 08:30:00",5813.99,50.4,TRADE
VIC1,"2013/12/13 09:00:00",5829.09,50.5,TRADE
VIC1,"2013/12/13 09:30:00",5852.43,51.36,TRADE
VIC1,"2013/12/13 10:00:00",5890.93,48.04,TRADE
VIC1,"2013/12/13 10:30:00",5950.95,47.05,TRADE
VIC1,"2013/12/13 11:00:00",5955.3,47,TRADE
VIC1,"2013/12/13 11:30:00",5938.98,47.13,TRADE
VIC1,"2013/12/13 12:00:00",5906.1,47.06,TRADE
VIC1,"2013/12/13 12:30:00",5915.62,48.31,TRADE
VIC1,"2013/12/13 13:00:00",5896.34,47,TRADE
VIC1,"2013/12/13 13:30:00",5859.78,47,TRADE
VIC1,"2013/12/13 14:00:00",5912.47,47.12,TRADE
VIC1,"2013/12/13 14:30:00",5874.7,48.42,TRADE
VIC1,"2013/12/13 15:00:00",5849.91,47.45,TRADE
VIC1,"2013/12/13 15:30:00",5891.02,47.06,TRADE
VIC1,"2013/12/13 16:00:00",5937.82,47,TRADE
VIC1,"2013/12/13 16:30:00",5861.35,46.82,TRADE
VIC1,"2013/12/13 17:00:00",5853.51,46.96,TRADE
VIC1,"2013/12/13 17:30:00",5772.16,46.51,TRADE
VIC1,"2013/12/13 18:00:00",5633.88,47.2,TRADE
VIC1,"2013/12/13 18:30:00",5522.47,47.82,TRADE
VIC1,"2013/12/13 19:00:00",5498.92,48.02,TRADE
VIC1,"2013/12/13 19:30:00",5432.03,47.97,TRADE
VIC1,"2013/12/13 20:00:00",5465.33,47.56,TRADE
VIC1,"2013/12/13 20:30:00",5403.83,48.49,TRADE
VIC1,"2013/12/13 21:00:00",5265.4,47.49,TRADE
VIC1,"2013/12/13 21:30:00",5033.41,47,TRADE
VIC1,"2013/12/13 22:00:00",4929.73,47,TRADE
VIC1,"2013/12/13 22:30:00",4875.3,49.05,TRADE
VIC1,"2013/12/13 23:00:00",4875.67,48.63,TRADE
VIC1,"2013/12/13 23:30:00",5212.01,50.67,TRADE
VIC1,"2013/12/14 00:00:00",5264.66,51.35,TRADE
VIC1,"2013/12/14 00:30:00",4908.6,47.74,TRADE
VIC1,"2013/12/14 01:00:00",4614.03,46.12,TRADE
VIC1,"2013/12/14 01:30:00",4451.64,44.96,TRADE
VIC1,"2013/12/14 02:00:00",4309.9,43.59,TRADE
VIC1,"2013/12/14 02:30:00",4213.8,43.45,TRADE
VIC1,"2013/12/14 03:00:00",4129.36,43.52,TRADE
VIC1,"2013/12/14 03:30:00",4119.17,43.55,TRADE
VIC1,"2013/12/14 04:00:00",4050.51,43.52,TRADE
VIC1,"2013/12/14 04:30:00",4206.54,43.7,TRADE
VIC1,"2013/12/14 05:00:00",4183.91,43.64,TRADE
VIC1,"2013/12/14 05:30:00",4260.59,43.74,TRADE
VIC1,"2013/12/14 06:00:00",4381.25,45.82,TRADE
VIC1,"2013/12/14 06:30:00",4585.35,46.6,TRADE
VIC1,"2013/12/14 07:00:00",4786.49,47.85,TRADE
VIC1,"2013/12/14 07:30:00",4791.01,48.09,TRADE
VIC1,"2013/12/14 08:00:00",4890.58,47.45,TRADE
VIC1,"2013/12/14 08:30:00",5049.73,48.62,TRADE
VIC1,"2013/12/14 09:00:00",5095.29,48.96,TRADE
VIC1,"2013/12/14 09:30:00",5095.92,48.81,TRADE
VIC1,"2013/12/14 10:00:00",5066.56,48.9,TRADE
VIC1,"2013/12/14 10:30:00",5003.15,47.19,TRADE
VIC1,"2013/12/14 11:00:00",4976.32,46.76,TRADE
VIC1,"2013/12/14 11:30:00",4924.7,46.15,TRADE
VIC1,"2013/12/14 12:00:00",4919,45.19,TRADE
VIC1,"2013/12/14 12:30:00",4872.58,45.98,TRADE
VIC1,"2013/12/14 13:00:00",4827.79,45,TRADE
VIC1,"2013/12/14 13:30:00",4801.24,44.9,TRADE
VIC1,"2013/12/14 14:00:00",4787.32,45.89,TRADE
VIC1,"2013/12/14 14:30:00",4835.86,46.13,TRADE
VIC1,"2013/12/14 15:00:00",4802.12,45.99,TRADE
VIC1,"2013/12/14 15:30:00",4853.93,46.75,TRADE
VIC1,"2013/12/14 16:00:00",4911.63,46.82,TRADE
VIC1,"2013/12/14 16:30:00",4959.39,46.48,TRADE
VIC1,"2013/12/14 17:00:00",5010.39,46.99,TRADE
VIC1,"2013/12/14 17:30:00",4984.27,45.99,TRADE
VIC1,"2013/12/14 18:00:00",4967.92,45.7,TRADE
VIC1,"2013/12/14 18:30:00",4931.13,44.06,TRADE
VIC1,"2013/12/14 19:00:00",4878.95,43.91,TRADE
VIC1,"2013/12/14 19:30:00",4834.44,43.89,TRADE
VIC1,"2013/12/14 20:00:00",4882.51,44.46,TRADE
VIC1,"2013/12/14 20:30:00",4970.3,45.98,TRADE
VIC1,"2013/12/14 21:00:00",4882.44,44.35,TRADE
VIC1,"2013/12/14 21:30:00",4755.04,43.8,TRADE
VIC1,"2013/12/14 22:00:00",4580.44,43.67,TRADE
VIC1,"2013/12/14 22:30:00",4607.59,45.96,TRADE
VIC1,"2013/12/14 23:00:00",4688.84,44.75,TRADE
VIC1,"2013/12/14 23:30:00",5036.52,46.81,TRADE
VIC1,"2013/12/15 00:00:00",5145.8,48.33,TRADE
VIC1,"2013/12/15 00:30:00",4807.66,46.54,TRADE
VIC1,"2013/12/15 01:00:00",4538.04,44.98,TRADE
VIC1,"2013/12/15 01:30:00",4373.74,43.63,TRADE
VIC1,"2013/12/15 02:00:00",4222.11,41.62,TRADE
VIC1,"2013/12/15 02:30:00",4055.11,39.74,TRADE
VIC1,"2013/12/15 03:00:00",3978.38,40.14,TRADE
VIC1,"2013/12/15 03:30:00",3944.4,39.79,TRADE
VIC1,"2013/12/15 04:00:00",3918.8,40.07,TRADE
VIC1,"2013/12/15 04:30:00",3879.34,40.27,TRADE
VIC1,"2013/12/15 05:00:00",3886.86,40.53,TRADE
VIC1,"2013/12/15 05:30:00",3901.79,41.75,TRADE
VIC1,"2013/12/15 06:00:00",3984.69,42.64,TRADE
VIC1,"2013/12/15 06:30:00",4123.85,43.32,TRADE
VIC1,"2013/12/15 07:00:00",4341.97,44.28,TRADE
VIC1,"2013/12/15 07:30:00",4380.43,43.97,TRADE
VIC1,"2013/12/15 08:00:00",4339.99,43.79,TRADE
VIC1,"2013/12/15 08:30:00",4514.52,46.32,TRADE
VIC1,"2013/12/15 09:00:00",4661.78,47.81,TRADE
VIC1,"2013/12/15 09:30:00",4659.62,47.47,TRADE
VIC1,"2013/12/15 10:00:00",4760.53,46.88,TRADE
VIC1,"2013/12/15 10:30:00",4746.44,46.67,TRADE
VIC1,"2013/12/15 11:00:00",4759.6,46.7,TRADE
VIC1,"2013/12/15 11:30:00",4730.46,46.56,TRADE
VIC1,"2013/12/15 12:00:00",4725.06,46.4,TRADE
VIC1,"2013/12/15 12:30:00",4693.88,46.15,TRADE
VIC1,"2013/12/15 13:00:00",4690.05,46.53,TRADE
VIC1,"2013/12/15 13:30:00",4685.96,46.58,TRADE
VIC1,"2013/12/15 14:00:00",4733.46,46.56,TRADE
VIC1,"2013/12/15 14:30:00",4782.01,46.52,TRADE
VIC1,"2013/12/15 15:00:00",4817.5,46.56,TRADE
VIC1,"2013/12/15 15:30:00",4876.08,46.8,TRADE
VIC1,"2013/12/15 16:00:00",5028.95,48.48,TRADE
VIC1,"2013/12/15 16:30:00",5106.05,47.32,TRADE
VIC1,"2013/12/15 17:00:00",5160.82,47.36,TRADE
VIC1,"2013/12/15 17:30:00",5163.2,47.11,TRADE
VIC1,"2013/12/15 18:00:00",5139.93,48.33,TRADE
VIC1,"2013/12/15 18:30:00",5051.02,46.62,TRADE
VIC1,"2013/12/15 19:00:00",5023.78,46.53,TRADE
VIC1,"2013/12/15 19:30:00",5001.49,46.98,TRADE
VIC1,"2013/12/15 20:00:00",5134.75,47.07,TRADE
VIC1,"2013/12/15 20:30:00",5168.69,47.03,TRADE
VIC1,"2013/12/15 21:00:00",5081.86,47.23,TRADE
VIC1,"2013/12/15 21:30:00",4923.44,47.11,TRADE
VIC1,"2013/12/15 22:00:00",4689.57,46.05,TRADE
VIC1,"2013/12/15 22:30:00",4624.56,46.56,TRADE
VIC1,"2013/12/15 23:00:00",4672.57,45.9,TRADE
VIC1,"2013/12/15 23:30:00",5045.05,46.78,TRADE
VIC1,"2013/12/16 00:00:00",5163.57,48.05,TRADE
VIC1,"2013/12/16 00:30:00",4848.44,46.3,TRADE
VIC1,"2013/12/16 01:00:00",4614.4,44.74,TRADE
VIC1,"2013/12/16 01:30:00",4454.31,43.48,TRADE
VIC1,"2013/12/16 02:00:00",4325.24,43.42,TRADE
VIC1,"2013/12/16 02:30:00",4243.56,43.44,TRADE
VIC1,"2013/12/16 03:00:00",4187.94,43.27,TRADE
VIC1,"2013/12/16 03:30:00",4227.71,43.27,TRADE
VIC1,"2013/12/16 04:00:00",4269.35,43.58,TRADE
VIC1,"2013/12/16 04:30:00",4400.71,43.57,TRADE
VIC1,"2013/12/16 05:00:00",4625.81,44.67,TRADE
VIC1,"2013/12/16 05:30:00",4944.12,47.98,TRADE
VIC1,"2013/12/16 06:00:00",5179.48,50.07,TRADE
VIC1,"2013/12/16 06:30:00",5637.77,52.49,TRADE
VIC1,"2013/12/16 07:00:00",5943.77,53.19,TRADE
VIC1,"2013/12/16 07:30:00",5844.35,47.38,TRADE
VIC1,"2013/12/16 08:00:00",5969.27,48.82,TRADE
VIC1,"2013/12/16 08:30:00",5971,49.36,TRADE
VIC1,"2013/12/16 09:00:00",5983.68,50.03,TRADE
VIC1,"2013/12/16 09:30:00",5981.52,52.79,TRADE
VIC1,"2013/12/16 10:00:00",5959.39,57.52,TRADE
VIC1,"2013/12/16 10:30:00",5922.27,53.24,TRADE
VIC1,"2013/12/16 11:00:00",5922.99,52.45,TRADE
VIC1,"2013/12/16 11:30:00",5886.08,52.13,TRADE
VIC1,"2013/12/16 12:00:00",5922.83,52.22,TRADE
VIC1,"2013/12/16 12:30:00",5983.99,52.5,TRADE
VIC1,"2013/12/16 13:00:00",6041.19,52.49,TRADE
VIC1,"2013/12/16 13:30:00",6019.54,51.88,TRADE
VIC1,"2013/12/16 14:00:00",6045.86,53.83,TRADE
VIC1,"2013/12/16 14:30:00",6062.06,58,TRADE
VIC1,"2013/12/16 15:00:00",6072.54,55.62,TRADE
VIC1,"2013/12/16 15:30:00",6127.42,59.8,TRADE
VIC1,"2013/12/16 16:00:00",6142.05,54.98,TRADE
VIC1,"2013/12/16 16:30:00",6183.77,53.36,TRADE
VIC1,"2013/12/16 17:00:00",6128.13,52.85,TRADE
VIC1,"2013/12/16 17:30:00",6061.45,53.51,TRADE
VIC1,"2013/12/16 18:00:00",5970.76,53.52,TRADE
VIC1,"2013/12/16 18:30:00",5755.18,52.64,TRADE
VIC1,"2013/12/16 19:00:00",5707.55,52.58,TRADE
VIC1,"2013/12/16 19:30:00",5614.46,51.92,TRADE
VIC1,"2013/12/16 20:00:00",5616.62,52.5,TRADE
VIC1,"2013/12/16 20:30:00",5622.77,52.65,TRADE
VIC1,"2013/12/16 21:00:00",5443.93,50.52,TRADE
VIC1,"2013/12/16 21:30:00",5225.41,47.53,TRADE
VIC1,"2013/12/16 22:00:00",5055.65,47,TRADE
VIC1,"2013/12/16 22:30:00",4962.79,47.01,TRADE
VIC1,"2013/12/16 23:00:00",4964.04,46.96,TRADE
VIC1,"2013/12/16 23:30:00",5284.52,48.12,TRADE
VIC1,"2013/12/17 00:00:00",5392.44,49.3,TRADE
VIC1,"2013/12/17 00:30:00",5038.26,46.67,TRADE
VIC1,"2013/12/17 01:00:00",4794.76,45.73,TRADE
VIC1,"2013/12/17 01:30:00",4638.64,44.78,TRADE
VIC1,"2013/12/17 02:00:00",4510.13,44.09,TRADE
VIC1,"2013/12/17 02:30:00",4461.93,43.78,TRADE
VIC1,"2013/12/17 03:00:00",4358.29,43.67,TRADE
VIC1,"2013/12/17 03:30:00",4399.54,43.68,TRADE
VIC1,"2013/12/17 04:00:00",4429.61,43.77,TRADE
VIC1,"2013/12/17 04:30:00",4584.08,45.04,TRADE
VIC1,"2013/12/17 05:00:00",4741.77,45.93,TRADE
VIC1,"2013/12/17 05:30:00",5056.91,47.9,TRADE
VIC1,"2013/12/17 06:00:00",5347.37,48.36,TRADE
VIC1,"2013/12/17 06:30:00",5775.17,49.52,TRADE
VIC1,"2013/12/17 07:00:00",6082.87,52.64,TRADE
VIC1,"2013/12/17 07:30:00",6002.63,49.84,TRADE
VIC1,"2013/12/17 08:00:00",6079.83,50,TRADE
VIC1,"2013/12/17 08:30:00",6085.34,49.98,TRADE
VIC1,"2013/12/17 09:00:00",6093.64,50.88,TRADE
VIC1,"2013/12/17 09:30:00",6074.82,49.51,TRADE
VIC1,"2013/12/17 10:00:00",6080.15,49.44,TRADE
VIC1,"2013/12/17 10:30:00",6089.12,47.59,TRADE
VIC1,"2013/12/17 11:00:00",6059.9,50.79,TRADE
VIC1,"2013/12/17 11:30:00",6030.18,49.18,TRADE
VIC1,"2013/12/17 12:00:00",6078.65,49.58,TRADE
VIC1,"2013/12/17 12:30:00",6053.75,47.25,TRADE
VIC1,"2013/12/17 13:00:00",6193.66,48.04,TRADE
VIC1,"2013/12/17 13:30:00",6213.07,47.36,TRADE
VIC1,"2013/12/17 14:00:00",6238.75,47.97,TRADE
VIC1,"2013/12/17 14:30:00",6253.28,47.8,TRADE
VIC1,"2013/12/17 15:00:00",6236.69,47.69,TRADE
VIC1,"2013/12/17 15:30:00",6310.83,50.12,TRADE
VIC1,"2013/12/17 16:00:00",6353.48,47.29,TRADE
VIC1,"2013/12/17 16:30:00",6316.09,47.27,TRADE
VIC1,"2013/12/17 17:00:00",6293.81,47.91,TRADE
VIC1,"2013/12/17 17:30:00",6155.54,46.95,TRADE
VIC1,"2013/12/17 18:00:00",6053.7,46.78,TRADE
VIC1,"2013/12/17 18:30:00",5929.36,46.64,TRADE
VIC1,"2013/12/17 19:00:00",5849.85,46.94,TRADE
VIC1,"2013/12/17 19:30:00",5735.43,47,TRADE
VIC1,"2013/12/17 20:00:00",5718.92,47,TRADE
VIC1,"2013/12/17 20:30:00",5745.43,47.68,TRADE
VIC1,"2013/12/17 21:00:00",5580.38,47,TRADE
VIC1,"2013/12/17 21:30:00",5356.6,47,TRADE
VIC1,"2013/12/17 22:00:00",5115.36,45.21,TRADE
VIC1,"2013/12/17 22:30:00",5040.17,44.96,TRADE
VIC1,"2013/12/17 23:00:00",5029.06,45.05,TRADE
VIC1,"2013/12/17 23:30:00",5358.88,46.34,TRADE
VIC1,"2013/12/18 00:00:00",5379.27,47.02,TRADE
VIC1,"2013/12/18 00:30:00",5000.43,44.33,TRADE
VIC1,"2013/12/18 01:00:00",4752.11,43.85,TRADE
VIC1,"2013/12/18 01:30:00",4612.29,43.47,TRADE
VIC1,"2013/12/18 02:00:00",4448.54,42.56,TRADE
VIC1,"2013/12/18 02:30:00",4350.51,39.02,TRADE
VIC1,"2013/12/18 03:00:00",4239.54,39.18,TRADE
VIC1,"2013/12/18 03:30:00",4245.97,38.74,TRADE
VIC1,"2013/12/18 04:00:00",4279.53,40.41,TRADE
VIC1,"2013/12/18 04:30:00",4437.41,43.27,TRADE
VIC1,"2013/12/18 05:00:00",4643.92,43.61,TRADE
VIC1,"2013/12/18 05:30:00",4991.36,44.72,TRADE
VIC1,"2013/12/18 06:00:00",5299.32,44.2,TRADE
VIC1,"2013/12/18 06:30:00",5693.82,48.17,TRADE
VIC1,"2013/12/18 07:00:00",6029.41,50.97,TRADE
VIC1,"2013/12/18 07:30:00",5972.67,47.82,TRADE
VIC1,"2013/12/18 08:00:00",6043.18,49.19,TRADE
VIC1,"2013/12/18 08:30:00",6112.55,50.08,TRADE
VIC1,"2013/12/18 09:00:00",6153.97,49.96,TRADE
VIC1,"2013/12/18 09:30:00",6117.44,49.61,TRADE
VIC1,"2013/12/18 10:00:00",6105.46,49.89,TRADE
VIC1,"2013/12/18 10:30:00",6100.94,49.75,TRADE
VIC1,"2013/12/18 11:00:00",6141.63,49.59,TRADE
VIC1,"2013/12/18 11:30:00",6264.58,48.71,TRADE
VIC1,"2013/12/18 12:00:00",6311.5,47.52,TRADE
VIC1,"2013/12/18 12:30:00",6363.84,48.67,TRADE
VIC1,"2013/12/18 13:00:00",6516.17,49.03,TRADE
VIC1,"2013/12/18 13:30:00",6569.66,41.95,TRADE
VIC1,"2013/12/18 14:00:00",6614.09,44.9,TRADE
VIC1,"2013/12/18 14:30:00",6710.77,45.95,TRADE
VIC1,"2013/12/18 15:00:00",6819.07,46.52,TRADE
VIC1,"2013/12/18 15:30:00",6901.02,45.04,TRADE
VIC1,"2013/12/18 16:00:00",6994.38,48.95,TRADE
VIC1,"2013/12/18 16:30:00",7004.94,42.78,TRADE
VIC1,"2013/12/18 17:00:00",7007.82,44.22,TRADE
VIC1,"2013/12/18 17:30:00",6915,47.49,TRADE
VIC1,"2013/12/18 18:00:00",6842.74,52.68,TRADE
VIC1,"2013/12/18 18:30:00",6691.8,51.31,TRADE
VIC1,"2013/12/18 19:00:00",6503.56,44.86,TRADE
VIC1,"2013/12/18 19:30:00",6334.22,44.8,TRADE
VIC1,"2013/12/18 20:00:00",6326.89,48.76,TRADE
VIC1,"2013/12/18 20:30:00",6255.09,49.53,TRADE
VIC1,"2013/12/18 21:00:00",6064.93,46.55,TRADE
VIC1,"2013/12/18 21:30:00",5795.78,49.06,TRADE
VIC1,"2013/12/18 22:00:00",5496.66,45.91,TRADE
VIC1,"2013/12/18 22:30:00",5355.03,46.82,TRADE
VIC1,"2013/12/18 23:00:00",5284.48,45.56,TRADE
VIC1,"2013/12/18 23:30:00",5547.3,48.21,TRADE
VIC1,"2013/12/19 00:00:00",5502.36,44.91,TRADE
VIC1,"2013/12/19 00:30:00",5118.29,44.6,TRADE
VIC1,"2013/12/19 01:00:00",4853.68,43.81,TRADE
VIC1,"2013/12/19 01:30:00",4691.71,43.72,TRADE
VIC1,"2013/12/19 02:00:00",4543.26,43.52,TRADE
VIC1,"2013/12/19 02:30:00",4425.56,42.23,TRADE
VIC1,"2013/12/19 03:00:00",4384.45,40.82,TRADE
VIC1,"2013/12/19 03:30:00",4423.38,41.71,TRADE
VIC1,"2013/12/19 04:00:00",4483.43,42.02,TRADE
VIC1,"2013/12/19 04:30:00",4585.86,43.86,TRADE
VIC1,"2013/12/19 05:00:00",4724.55,45.01,TRADE
VIC1,"2013/12/19 05:30:00",4995.03,45.74,TRADE
VIC1,"2013/12/19 06:00:00",5301.12,45.37,TRADE
VIC1,"2013/12/19 06:30:00",5679.99,48.89,TRADE
VIC1,"2013/12/19 07:00:00",6083.91,50.56,TRADE
VIC1,"2013/12/19 07:30:00",6140.44,46.36,TRADE
VIC1,"2013/12/19 08:00:00",6421.45,48.88,TRADE
VIC1,"2013/12/19 08:30:00",6696.96,51.5,TRADE
VIC1,"2013/12/19 09:00:00",6942.85,51.11,TRADE
VIC1,"2013/12/19 09:30:00",7088,51.48,TRADE
VIC1,"2013/12/19 10:00:00",7295.29,52.82,TRADE
VIC1,"2013/12/19 10:30:00",7493.33,54.02,TRADE
VIC1,"2013/12/19 11:00:00",7708.65,56.99,TRADE
VIC1,"2013/12/19 11:30:00",7851,53.14,TRADE
VIC1,"2013/12/19 12:00:00",8007.94,50.09,TRADE
VIC1,"2013/12/19 12:30:00",8208.88,48.29,TRADE
VIC1,"2013/12/19 13:00:00",8355.36,43.7,TRADE
VIC1,"2013/12/19 13:30:00",8525.39,46.22,TRADE
VIC1,"2013/12/19 14:00:00",8611.5,44.17,TRADE
VIC1,"2013/12/19 14:30:00",8728.4,59.01,TRADE
VIC1,"2013/12/19 15:00:00",8781.86,51.96,TRADE
VIC1,"2013/12/19 15:30:00",8916.21,42.98,TRADE
VIC1,"2013/12/19 16:00:00",9007.52,789.86,TRADE
VIC1,"2013/12/19 16:30:00",8978.03,1474.83,TRADE
VIC1,"2013/12/19 17:00:00",8871.56,79.19,TRADE
VIC1,"2013/12/19 17:30:00",8764.73,3667.01,TRADE
VIC1,"2013/12/19 18:00:00",8566.14,467.74,TRADE
VIC1,"2013/12/19 18:30:00",8341.86,46.86,TRADE
VIC1,"2013/12/19 19:00:00",8077.5,52.62,TRADE
VIC1,"2013/12/19 19:30:00",7730.04,52.89,TRADE
VIC1,"2013/12/19 20:00:00",7483.78,51.66,TRADE
VIC1,"2013/12/19 20:30:00",7311.89,49.61,TRADE
VIC1,"2013/12/19 21:00:00",7020.57,48.25,TRADE
VIC1,"2013/12/19 21:30:00",6615.46,48.44,TRADE
VIC1,"2013/12/19 22:00:00",6197.37,47,TRADE
VIC1,"2013/12/19 22:30:00",5986.09,52,TRADE
VIC1,"2013/12/19 23:00:00",5799.07,48.42,TRADE
VIC1,"2013/12/19 23:30:00",5977.45,48.49,TRADE
VIC1,"2013/12/20 00:00:00",5853.04,48.5,TRADE
VIC1,"2013/12/20 00:30:00",5392.42,44.89,TRADE
VIC1,"2013/12/20 01:00:00",5119.93,43.94,TRADE
VIC1,"2013/12/20 01:30:00",4954.57,42.99,TRADE
VIC1,"2013/12/20 02:00:00",4800.41,41.73,TRADE
VIC1,"2013/12/20 02:30:00",4695.59,38.73,TRADE
VIC1,"2013/12/20 03:00:00",4624.85,38.57,TRADE
VIC1,"2013/12/20 03:30:00",4598.31,38.25,TRADE
VIC1,"2013/12/20 04:00:00",4657.69,39.37,TRADE
VIC1,"2013/12/20 04:30:00",4773,42.52,TRADE
VIC1,"2013/12/20 05:00:00",4903.28,43.7,TRADE
VIC1,"2013/12/20 05:30:00",5189.22,43.95,TRADE
VIC1,"2013/12/20 06:00:00",5476.09,44.29,TRADE
VIC1,"2013/12/20 06:30:00",5939.85,45.96,TRADE
VIC1,"2013/12/20 07:00:00",6336.75,47.32,TRADE
VIC1,"2013/12/20 07:30:00",6434.32,47.01,TRADE
VIC1,"2013/12/20 08:00:00",6685.85,50.74,TRADE
VIC1,"2013/12/20 08:30:00",6853.52,51.91,TRADE
VIC1,"2013/12/20 09:00:00",6954.57,52.8,TRADE
VIC1,"2013/12/20 09:30:00",7005.31,53.76,TRADE
VIC1,"2013/12/20 10:00:00",7021.48,58.3,TRADE
VIC1,"2013/12/20 10:30:00",7076.72,52.8,TRADE
VIC1,"2013/12/20 11:00:00",7081.71,48.32,TRADE
VIC1,"2013/12/20 11:30:00",6993.75,36.78,TRADE
VIC1,"2013/12/20 12:00:00",6868.8,34.25,TRADE
VIC1,"2013/12/20 12:30:00",6816.11,7.67,TRADE
VIC1,"2013/12/20 13:00:00",6788.45,19.82,TRADE
VIC1,"2013/12/20 13:30:00",6693.71,-127.83,TRADE
VIC1,"2013/12/20 14:00:00",6646.19,41.29,TRADE
VIC1,"2013/12/20 14:30:00",6562.21,38.12,TRADE
VIC1,"2013/12/20 15:00:00",6511.92,46.18,TRADE
VIC1,"2013/12/20 15:30:00",6432.71,47.85,TRADE
VIC1,"2013/12/20 16:00:00",6333.2,50.71,TRADE
VIC1,"2013/12/20 16:30:00",6209.87,53.47,TRADE
VIC1,"2013/12/20 17:00:00",6112.85,50.35,TRADE
VIC1,"2013/12/20 17:30:00",5878.61,42.89,TRADE
VIC1,"2013/12/20 18:00:00",5698.45,43.82,TRADE
VIC1,"2013/12/20 18:30:00",5474.7,43.19,TRADE
VIC1,"2013/12/20 19:00:00",5414.21,45.44,TRADE
VIC1,"2013/12/20 19:30:00",5326.32,46,TRADE
VIC1,"2013/12/20 20:00:00",5264.75,45.25,TRADE
VIC1,"2013/12/20 20:30:00",5252.81,44.59,TRADE
VIC1,"2013/12/20 21:00:00",5124.27,42.32,TRADE
VIC1,"2013/12/20 21:30:00",4954.18,44.61,TRADE
VIC1,"2013/12/20 22:00:00",4785.91,42.41,TRADE
VIC1,"2013/12/20 22:30:00",4739.94,44.14,TRADE
VIC1,"2013/12/20 23:00:00",4752.24,44.64,TRADE
VIC1,"2013/12/20 23:30:00",5040.9,44.53,TRADE
VIC1,"2013/12/21 00:00:00",5040.85,43.77,TRADE
VIC1,"2013/12/21 00:30:00",4650.76,43.57,TRADE
VIC1,"2013/12/21 01:00:00",4382.19,42.51,TRADE
VIC1,"2013/12/21 01:30:00",4282.14,40.84,TRADE
VIC1,"2013/12/21 02:00:00",4168,39.3,TRADE
VIC1,"2013/12/21 02:30:00",4012.81,38.78,TRADE
VIC1,"2013/12/21 03:00:00",3953.85,38.97,TRADE
VIC1,"2013/12/21 03:30:00",3958.05,38.8,TRADE
VIC1,"2013/12/21 04:00:00",3977.2,38.11,TRADE
VIC1,"2013/12/21 04:30:00",4038.76,38.58,TRADE
VIC1,"2013/12/21 05:00:00",4090.9,38.62,TRADE
VIC1,"2013/12/21 05:30:00",4196.38,38.81,TRADE
VIC1,"2013/12/21 06:00:00",4269.35,38.99,TRADE
VIC1,"2013/12/21 06:30:00",4464.1,39.96,TRADE
VIC1,"2013/12/21 07:00:00",4630.98,40.76,TRADE
VIC1,"2013/12/21 07:30:00",4648.3,42.06,TRADE
VIC1,"2013/12/21 08:00:00",4819.03,43.96,TRADE
VIC1,"2013/12/21 08:30:00",4961.06,47.08,TRADE
VIC1,"2013/12/21 09:00:00",5017.8,48.42,TRADE
VIC1,"2013/12/21 09:30:00",5035.45,49.08,TRADE
VIC1,"2013/12/21 10:00:00",5080.16,49.44,TRADE
VIC1,"2013/12/21 10:30:00",5067.9,49.07,TRADE
VIC1,"2013/12/21 11:00:00",5104.58,49.54,TRADE
VIC1,"2013/12/21 11:30:00",5241.02,49.97,TRADE
VIC1,"2013/12/21 12:00:00",5310.34,50.49,TRADE
VIC1,"2013/12/21 12:30:00",5301.42,50.27,TRADE
VIC1,"2013/12/21 13:00:00",5255.39,49.17,TRADE
VIC1,"2013/12/21 13:30:00",5296.87,46.43,TRADE
VIC1,"2013/12/21 14:00:00",5307.64,46.9,TRADE
VIC1,"2013/12/21 14:30:00",5326.46,49.4,TRADE
VIC1,"2013/12/21 15:00:00",5349.35,49.97,TRADE
VIC1,"2013/12/21 15:30:00",5384.06,49.69,TRADE
VIC1,"2013/12/21 16:00:00",5492.95,49.99,TRADE
VIC1,"2013/12/21 16:30:00",5461.4,49.85,TRADE
VIC1,"2013/12/21 17:00:00",5523.63,49.94,TRADE
VIC1,"2013/12/21 17:30:00",5483.79,47.58,TRADE
VIC1,"2013/12/21 18:00:00",5439.38,47.59,TRADE
VIC1,"2013/12/21 18:30:00",5347.33,48.07,TRADE
VIC1,"2013/12/21 19:00:00",5205.89,46.48,TRADE
VIC1,"2013/12/21 19:30:00",5064.48,45.24,TRADE
VIC1,"2013/12/21 20:00:00",5144.96,45.72,TRADE
VIC1,"2013/12/21 20:30:00",5174.81,47.23,TRADE
VIC1,"2013/12/21 21:00:00",5051.22,45.94,TRADE
VIC1,"2013/12/21 21:30:00",4928.26,47.72,TRADE
VIC1,"2013/12/21 22:00:00",4795.85,45.23,TRADE
VIC1,"2013/12/21 22:30:00",4796.87,46.81,TRADE
VIC1,"2013/12/21 23:00:00",4827.33,45.82,TRADE
VIC1,"2013/12/21 23:30:00",5139.73,46.53,TRADE
VIC1,"2013/12/22 00:00:00",5163.62,48.51,TRADE
VIC1,"2013/12/22 00:30:00",4854.63,45.22,TRADE
VIC1,"2013/12/22 01:00:00",4649.22,42.77,TRADE
VIC1,"2013/12/22 01:30:00",4496.58,41.27,TRADE
VIC1,"2013/12/22 02:00:00",4368.57,39.1,TRADE
VIC1,"2013/12/22 02:30:00",4254.45,38.15,TRADE
VIC1,"2013/12/22 03:00:00",4185.72,38.23,TRADE
VIC1,"2013/12/22 03:30:00",4130.58,38.19,TRADE
VIC1,"2013/12/22 04:00:00",4113.41,38.25,TRADE
VIC1,"2013/12/22 04:30:00",4127.8,38.04,TRADE
VIC1,"2013/12/22 05:00:00",4181.24,38.2,TRADE
VIC1,"2013/12/22 05:30:00",4200.94,38.23,TRADE
VIC1,"2013/12/22 06:00:00",4269.2,38.86,TRADE
VIC1,"2013/12/22 06:30:00",4400.57,39.52,TRADE
VIC1,"2013/12/22 07:00:00",4605.08,43.25,TRADE
VIC1,"2013/12/22 07:30:00",4606.76,42.75,TRADE
VIC1,"2013/12/22 08:00:00",4706.11,43.69,TRADE
VIC1,"2013/12/22 08:30:00",4916.27,44.92,TRADE
VIC1,"2013/12/22 09:00:00",4956.08,45.83,TRADE
VIC1,"2013/12/22 09:30:00",5016.66,45.68,TRADE
VIC1,"2013/12/22 10:00:00",5009.31,43.87,TRADE
VIC1,"2013/12/22 10:30:00",5089.22,45.79,TRADE
VIC1,"2013/12/22 11:00:00",5064.92,44.51,TRADE
VIC1,"2013/12/22 11:30:00",5111.03,44.16,TRADE
VIC1,"2013/12/22 12:00:00",5125.12,44.31,TRADE
VIC1,"2013/12/22 12:30:00",5113.91,46.41,TRADE
VIC1,"2013/12/22 13:00:00",5072.78,45.56,TRADE
VIC1,"2013/12/22 13:30:00",5036.24,43.92,TRADE
VIC1,"2013/12/22 14:00:00",5059.06,43.45,TRADE
VIC1,"2013/12/22 14:30:00",5083.05,44.29,TRADE
VIC1,"2013/12/22 15:00:00",5059.3,41.69,TRADE
VIC1,"2013/12/22 15:30:00",5142.54,44.87,TRADE
VIC1,"2013/12/22 16:00:00",5221.87,44.51,TRADE
VIC1,"2013/12/22 16:30:00",5278.75,47.59,TRADE
VIC1,"2013/12/22 17:00:00",5354.02,47.5,TRADE
VIC1,"2013/12/22 17:30:00",5344.59,47.53,TRADE
VIC1,"2013/12/22 18:00:00",5298.2,48.9,TRADE
VIC1,"2013/12/22 18:30:00",5250.01,52.56,TRADE
VIC1,"2013/12/22 19:00:00",5196.1,60.87,TRADE
VIC1,"2013/12/22 19:30:00",5163.76,71.52,TRADE
VIC1,"2013/12/22 20:00:00",5152.24,75.77,TRADE
VIC1,"2013/12/22 20:30:00",5235.47,53.74,TRADE
VIC1,"2013/12/22 21:00:00",5140.53,54.14,TRADE
VIC1,"2013/12/22 21:30:00",4986.03,46.84,TRADE
VIC1,"2013/12/22 22:00:00",4851.1,43.82,TRADE
VIC1,"2013/12/22 22:30:00",4755.87,43.78,TRADE
VIC1,"2013/12/22 23:00:00",4730.69,43.6,TRADE
VIC1,"2013/12/22 23:30:00",5035.18,43.88,TRADE
VIC1,"2013/12/23 00:00:00",5086.19,44.78,TRADE
VIC1,"2013/12/23 00:30:00",4709.08,43.77,TRADE
VIC1,"2013/12/23 01:00:00",4471.37,43.03,TRADE
VIC1,"2013/12/23 01:30:00",4347.39,41.41,TRADE
VIC1,"2013/12/23 02:00:00",4249.06,41.25,TRADE
VIC1,"2013/12/23 02:30:00",4147.26,39.47,TRADE
VIC1,"2013/12/23 03:00:00",4069.2,38.93,TRADE
VIC1,"2013/12/23 03:30:00",4050.39,39.49,TRADE
VIC1,"2013/12/23 04:00:00",4058.38,39.15,TRADE
VIC1,"2013/12/23 04:30:00",4123.17,40,TRADE
VIC1,"2013/12/23 05:00:00",4249.44,42.19,TRADE
VIC1,"2013/12/23 05:30:00",4489.79,43.63,TRADE
VIC1,"2013/12/23 06:00:00",4644.13,43.82,TRADE
VIC1,"2013/12/23 06:30:00",4925.37,46.21,TRADE
VIC1,"2013/12/23 07:00:00",5151.14,48.83,TRADE
VIC1,"2013/12/23 07:30:00",5164.25,45.59,TRADE
VIC1,"2013/12/23 08:00:00",5237.17,46.28,TRADE
VIC1,"2013/12/23 08:30:00",5307.53,46.28,TRADE
VIC1,"2013/12/23 09:00:00",5304.14,45.76,TRADE
VIC1,"2013/12/23 09:30:00",5336.28,47.88,TRADE
VIC1,"2013/12/23 10:00:00",5318.84,47.57,TRADE
VIC1,"2013/12/23 10:30:00",5328.57,44.8,TRADE
VIC1,"2013/12/23 11:00:00",5296.64,53.65,TRADE
VIC1,"2013/12/23 11:30:00",5241.8,49.32,TRADE
VIC1,"2013/12/23 12:00:00",5204.03,53.78,TRADE
VIC1,"2013/12/23 12:30:00",5133.76,55.35,TRADE
VIC1,"2013/12/23 13:00:00",5095.28,48.09,TRADE
VIC1,"2013/12/23 13:30:00",5072.47,42.65,TRADE
VIC1,"2013/12/23 14:00:00",5118.05,43.31,TRADE
VIC1,"2013/12/23 14:30:00",5140.09,41.74,TRADE
VIC1,"2013/12/23 15:00:00",5039.66,41.19,TRADE
VIC1,"2013/12/23 15:30:00",5063.12,41.27,TRADE
VIC1,"2013/12/23 16:00:00",5120.88,41.37,TRADE
VIC1,"2013/12/23 16:30:00",5133.41,41.39,TRADE
VIC1,"2013/12/23 17:00:00",5202.63,42.08,TRADE
VIC1,"2013/12/23 17:30:00",5129.39,43.45,TRADE
VIC1,"2013/12/23 18:00:00",5097.21,44.03,TRADE
VIC1,"2013/12/23 18:30:00",5042.04,43.89,TRADE
VIC1,"2013/12/23 19:00:00",4977.04,43.54,TRADE
VIC1,"2013/12/23 19:30:00",5000.76,43.79,TRADE
VIC1,"2013/12/23 20:00:00",5122.86,44.31,TRADE
VIC1,"2013/12/23 20:30:00",5197.83,45.26,TRADE
VIC1,"2013/12/23 21:00:00",5137.63,46.41,TRADE
VIC1,"2013/12/23 21:30:00",4932.99,46.09,TRADE
VIC1,"2013/12/23 22:00:00",4809.82,44.01,TRADE
VIC1,"2013/12/23 22:30:00",4681.15,46.68,TRADE
VIC1,"2013/12/23 23:00:00",4730.72,43.83,TRADE
VIC1,"2013/12/23 23:30:00",5097.29,45.12,TRADE
VIC1,"2013/12/24 00:00:00",5157.18,45.71,TRADE
VIC1,"2013/12/24 00:30:00",4791.81,44.15,TRADE
VIC1,"2013/12/24 01:00:00",4558.65,43.5,TRADE
VIC1,"2013/12/24 01:30:00",4334.57,42.66,TRADE
VIC1,"2013/12/24 02:00:00",4170.43,42.32,TRADE
VIC1,"2013/12/24 02:30:00",4106.74,40.74,TRADE
VIC1,"2013/12/24 03:00:00",4043.51,40.73,TRADE
VIC1,"2013/12/24 03:30:00",4074.98,40.84,TRADE
VIC1,"2013/12/24 04:00:00",4085.79,40.89,TRADE
VIC1,"2013/12/24 04:30:00",4126.4,41.1,TRADE
VIC1,"2013/12/24 05:00:00",4196.4,42.44,TRADE
VIC1,"2013/12/24 05:30:00",4400.38,43.95,TRADE
VIC1,"2013/12/24 06:00:00",4560.1,43.97,TRADE
VIC1,"2013/12/24 06:30:00",4824.05,43.72,TRADE
VIC1,"2013/12/24 07:00:00",5069.74,46.62,TRADE
VIC1,"2013/12/24 07:30:00",4984.03,43.92,TRADE
VIC1,"2013/12/24 08:00:00",5082.33,43.76,TRADE
VIC1,"2013/12/24 08:30:00",5166.5,43.95,TRADE
VIC1,"2013/12/24 09:00:00",5173.74,43.7,TRADE
VIC1,"2013/12/24 09:30:00",5201.48,44.42,TRADE
VIC1,"2013/12/24 10:00:00",5231.33,45.12,TRADE
VIC1,"2013/12/24 10:30:00",5202.39,45.12,TRADE
VIC1,"2013/12/24 11:00:00",5178.7,44.25,TRADE
VIC1,"2013/12/24 11:30:00",5140.77,44.02,TRADE
VIC1,"2013/12/24 12:00:00",5115.08,43.9,TRADE
VIC1,"2013/12/24 12:30:00",5053.11,43.69,TRADE
VIC1,"2013/12/24 13:00:00",5062.87,43.68,TRADE
VIC1,"2013/12/24 13:30:00",5044.59,43.7,TRADE
VIC1,"2013/12/24 14:00:00",5072.87,43.7,TRADE
VIC1,"2013/12/24 14:30:00",5085.42,43.72,TRADE
VIC1,"2013/12/24 15:00:00",5120.39,43.98,TRADE
VIC1,"2013/12/24 15:30:00",5152.28,43.93,TRADE
VIC1,"2013/12/24 16:00:00",5231.34,44.36,TRADE
VIC1,"2013/12/24 16:30:00",5286.88,44.22,TRADE
VIC1,"2013/12/24 17:00:00",5309.04,44.06,TRADE
VIC1,"2013/12/24 17:30:00",5220,43.75,TRADE
VIC1,"2013/12/24 18:00:00",5113.43,43.7,TRADE
VIC1,"2013/12/24 18:30:00",5008.41,43.85,TRADE
VIC1,"2013/12/24 19:00:00",4928.3,43.7,TRADE
VIC1,"2013/12/24 19:30:00",4871.53,43.7,TRADE
VIC1,"2013/12/24 20:00:00",4867.83,43.7,TRADE
VIC1,"2013/12/24 20:30:00",4966.53,43.92,TRADE
VIC1,"2013/12/24 21:00:00",4911.36,43.77,TRADE
VIC1,"2013/12/24 21:30:00",4783.7,43.84,TRADE
VIC1,"2013/12/24 22:00:00",4636.83,42.96,TRADE
VIC1,"2013/12/24 22:30:00",4651.18,45.44,TRADE
VIC1,"2013/12/24 23:00:00",4638.17,43.79,TRADE
VIC1,"2013/12/24 23:30:00",4967.8,44.49,TRADE
VIC1,"2013/12/25 00:00:00",5021.56,45.12,TRADE
VIC1,"2013/12/25 00:30:00",4674.61,43.53,TRADE
VIC1,"2013/12/25 01:00:00",4395.12,40.76,TRADE
VIC1,"2013/12/25 01:30:00",4245.35,38.35,TRADE
VIC1,"2013/12/25 02:00:00",4068.73,38.19,TRADE
VIC1,"2013/12/25 02:30:00",3913.74,38.2,TRADE
VIC1,"2013/12/25 03:00:00",3806.86,37.55,TRADE
VIC1,"2013/12/25 03:30:00",3768.62,37.01,TRADE
VIC1,"2013/12/25 04:00:00",3748.16,36.59,TRADE
VIC1,"2013/12/25 04:30:00",3770.3,37.69,TRADE
VIC1,"2013/12/25 05:00:00",3760.36,37.27,TRADE
VIC1,"2013/12/25 05:30:00",3797.59,37.54,TRADE
VIC1,"2013/12/25 06:00:00",3906.16,38.34,TRADE
VIC1,"2013/12/25 06:30:00",4047.95,40.11,TRADE
VIC1,"2013/12/25 07:00:00",4210.44,43.29,TRADE
VIC1,"2013/12/25 07:30:00",4194.74,41.39,TRADE
VIC1,"2013/12/25 08:00:00",4267.51,42.57,TRADE
VIC1,"2013/12/25 08:30:00",4348.84,42.98,TRADE
VIC1,"2013/12/25 09:00:00",4411.22,43.48,TRADE
VIC1,"2013/12/25 09:30:00",4497.11,43.68,TRADE
VIC1,"2013/12/25 10:00:00",4539.2,43.59,TRADE
VIC1,"2013/12/25 10:30:00",4580.38,43.57,TRADE
VIC1,"2013/12/25 11:00:00",4631.94,43.68,TRADE
VIC1,"2013/12/25 11:30:00",4625.35,43.65,TRADE
VIC1,"2013/12/25 12:00:00",4584.69,43.42,TRADE
VIC1,"2013/12/25 12:30:00",4498.59,40.99,TRADE
VIC1,"2013/12/25 13:00:00",4435.69,40.01,TRADE
VIC1,"2013/12/25 13:30:00",4434.98,40.04,TRADE
VIC1,"2013/12/25 14:00:00",4439.39,40.9,TRADE
VIC1,"2013/12/25 14:30:00",4488.67,41.14,TRADE
VIC1,"2013/12/25 15:00:00",4557.81,42.33,TRADE
VIC1,"2013/12/25 15:30:00",4685.95,42.33,TRADE
VIC1,"2013/12/25 16:00:00",4779.46,43.29,TRADE
VIC1,"2013/12/25 16:30:00",4927.04,43.51,TRADE
VIC1,"2013/12/25 17:00:00",5060.42,43.7,TRADE
VIC1,"2013/12/25 17:30:00",5080.63,45,TRADE
VIC1,"2013/12/25 18:00:00",5089.52,43.9,TRADE
VIC1,"2013/12/25 18:30:00",5092.1,44.51,TRADE
VIC1,"2013/12/25 19:00:00",5041.86,45,TRADE
VIC1,"2013/12/25 19:30:00",4987.2,45.2,TRADE
VIC1,"2013/12/25 20:00:00",4961.87,45.2,TRADE
VIC1,"2013/12/25 20:30:00",5043.43,45.2,TRADE
VIC1,"2013/12/25 21:00:00",5001.1,45.02,TRADE
VIC1,"2013/12/25 21:30:00",4827.44,44.7,TRADE
VIC1,"2013/12/25 22:00:00",4660.77,43.92,TRADE
VIC1,"2013/12/25 22:30:00",4586.52,44.24,TRADE
VIC1,"2013/12/25 23:00:00",4615.63,44.37,TRADE
VIC1,"2013/12/25 23:30:00",4939.55,45.23,TRADE
VIC1,"2013/12/26 00:00:00",4955.05,44.59,TRADE
VIC1,"2013/12/26 00:30:00",4544.9,43.09,TRADE
VIC1,"2013/12/26 01:00:00",4319.91,42.77,TRADE
VIC1,"2013/12/26 01:30:00",4190.9,39.12,TRADE
VIC1,"2013/12/26 02:00:00",4083.71,36.99,TRADE
VIC1,"2013/12/26 02:30:00",3969.11,36.83,TRADE
VIC1,"2013/12/26 03:00:00",3871.28,36.17,TRADE
VIC1,"2013/12/26 03:30:00",3815.9,34.78,TRADE
VIC1,"2013/12/26 04:00:00",3819.27,36.38,TRADE
VIC1,"2013/12/26 04:30:00",3825.45,32.88,TRADE
VIC1,"2013/12/26 05:00:00",3818.85,36.18,TRADE
VIC1,"2013/12/26 05:30:00",3830.17,36.19,TRADE
VIC1,"2013/12/26 06:00:00",3879.97,38.07,TRADE
VIC1,"2013/12/26 06:30:00",4018.36,38.73,TRADE
VIC1,"2013/12/26 07:00:00",4180.64,41.32,TRADE
VIC1,"2013/12/26 07:30:00",4187.85,40,TRADE
VIC1,"2013/12/26 08:00:00",4373.62,41.77,TRADE
VIC1,"2013/12/26 08:30:00",4509.61,41.46,TRADE
VIC1,"2013/12/26 09:00:00",4599.98,41.21,TRADE
VIC1,"2013/12/26 09:30:00",4674.06,43.43,TRADE
VIC1,"2013/12/26 10:00:00",4702.03,43.35,TRADE
VIC1,"2013/12/26 10:30:00",4723.72,43.14,TRADE
VIC1,"2013/12/26 11:00:00",4720.17,43.02,TRADE
VIC1,"2013/12/26 11:30:00",4736.17,41.69,TRADE
VIC1,"2013/12/26 12:00:00",4713.42,39.87,TRADE
VIC1,"2013/12/26 12:30:00",4641.63,39.61,TRADE
VIC1,"2013/12/26 13:00:00",4596.33,40.21,TRADE
VIC1,"2013/12/26 13:30:00",4655.71,42.21,TRADE
VIC1,"2013/12/26 14:00:00",4747.83,43.84,TRADE
VIC1,"2013/12/26 14:30:00",4786.66,42.94,TRADE
VIC1,"2013/12/26 15:00:00",4864.04,43.68,TRADE
VIC1,"2013/12/26 15:30:00",4952.86,43.68,TRADE
VIC1,"2013/12/26 16:00:00",5048.53,44.41,TRADE
VIC1,"2013/12/26 16:30:00",5078.2,44.75,TRADE
VIC1,"2013/12/26 17:00:00",5131.2,45.04,TRADE
VIC1,"2013/12/26 17:30:00",5088.48,45.46,TRADE
VIC1,"2013/12/26 18:00:00",5022.15,45.2,TRADE
VIC1,"2013/12/26 18:30:00",4940.89,43.35,TRADE
VIC1,"2013/12/26 19:00:00",4794.06,46.83,TRADE
VIC1,"2013/12/26 19:30:00",4693.52,49.03,TRADE
VIC1,"2013/12/26 20:00:00",4742.57,47.44,TRADE
VIC1,"2013/12/26 20:30:00",4807.39,45.58,TRADE
VIC1,"2013/12/26 21:00:00",4762.64,44.66,TRADE
VIC1,"2013/12/26 21:30:00",4581.5,43.64,TRADE
VIC1,"2013/12/26 22:00:00",4436.6,43.05,TRADE
VIC1,"2013/12/26 22:30:00",4345.06,43.31,TRADE
VIC1,"2013/12/26 23:00:00",4356.93,43.14,TRADE
VIC1,"2013/12/26 23:30:00",4756.1,43.71,TRADE
VIC1,"2013/12/27 00:00:00",4863.38,45,TRADE
VIC1,"2013/12/27 00:30:00",4494.08,44.24,TRADE
VIC1,"2013/12/27 01:00:00",4244.32,43.21,TRADE
VIC1,"2013/12/27 01:30:00",4122.03,40.57,TRADE
VIC1,"2013/12/27 02:00:00",4001.96,38.46,TRADE
VIC1,"2013/12/27 02:30:00",3919.97,37.99,TRADE
VIC1,"2013/12/27 03:00:00",3837.73,38.03,TRADE
VIC1,"2013/12/27 03:30:00",3846.55,38.2,TRADE
VIC1,"2013/12/27 04:00:00",3881.09,38.2,TRADE
VIC1,"2013/12/27 04:30:00",3956.49,39.46,TRADE
VIC1,"2013/12/27 05:00:00",4040.84,39.5,TRADE
VIC1,"2013/12/27 05:30:00",4158.49,40.7,TRADE
VIC1,"2013/12/27 06:00:00",4280.76,41.74,TRADE
VIC1,"2013/12/27 06:30:00",4480.8,42.2,TRADE
VIC1,"2013/12/27 07:00:00",4684.84,42.2,TRADE
VIC1,"2013/12/27 07:30:00",4627.24,41.14,TRADE
VIC1,"2013/12/27 08:00:00",4728.57,42.22,TRADE
VIC1,"2013/12/27 08:30:00",4848.61,42.24,TRADE
VIC1,"2013/12/27 09:00:00",4894,42.3,TRADE
VIC1,"2013/12/27 09:30:00",4930.95,42.96,TRADE
VIC1,"2013/12/27 10:00:00",4985.72,42.49,TRADE
VIC1,"2013/12/27 10:30:00",4998.87,42.79,TRADE
VIC1,"2013/12/27 11:00:00",5019.61,42.85,TRADE
VIC1,"2013/12/27 11:30:00",5015.96,42.93,TRADE
VIC1,"2013/12/27 12:00:00",5020.01,42.73,TRADE
VIC1,"2013/12/27 12:30:00",5004.64,42.33,TRADE
VIC1,"2013/12/27 13:00:00",4983.51,42.29,TRADE
VIC1,"2013/12/27 13:30:00",4969.79,42.87,TRADE
VIC1,"2013/12/27 14:00:00",5011.54,42.74,TRADE
VIC1,"2013/12/27 14:30:00",5032.36,43.57,TRADE
VIC1,"2013/12/27 15:00:00",5119.46,43.58,TRADE
VIC1,"2013/12/27 15:30:00",5173.14,43.5,TRADE
VIC1,"2013/12/27 16:00:00",5274.98,43.52,TRADE
VIC1,"2013/12/27 16:30:00",5328.33,43.28,TRADE
VIC1,"2013/12/27 17:00:00",5387.4,43.1,TRADE
VIC1,"2013/12/27 17:30:00",5354.43,42.3,TRADE
VIC1,"2013/12/27 18:00:00",5295.75,40.4,TRADE
VIC1,"2013/12/27 18:30:00",5140.54,28.33,TRADE
VIC1,"2013/12/27 19:00:00",5098.44,32.28,TRADE
VIC1,"2013/12/27 19:30:00",5013.75,43.73,TRADE
VIC1,"2013/12/27 20:00:00",5049.4,42.52,TRADE
VIC1,"2013/12/27 20:30:00",5093.36,42.53,TRADE
VIC1,"2013/12/27 21:00:00",5001.23,42.08,TRADE
VIC1,"2013/12/27 21:30:00",4846.16,43.26,TRADE
VIC1,"2013/12/27 22:00:00",4704.88,42.54,TRADE
VIC1,"2013/12/27 22:30:00",4662.25,43.41,TRADE
VIC1,"2013/12/27 23:00:00",4636.01,43.19,TRADE
VIC1,"2013/12/27 23:30:00",5011.98,43.8,TRADE
VIC1,"2013/12/28 00:00:00",5065.94,44.63,TRADE
VIC1,"2013/12/28 00:30:00",4694.4,42.73,TRADE
VIC1,"2013/12/28 01:00:00",4466.67,42.2,TRADE
VIC1,"2013/12/28 01:30:00",4313.88,41.73,TRADE
VIC1,"2013/12/28 02:00:00",4165.96,40.44,TRADE
VIC1,"2013/12/28 02:30:00",4039.86,38.38,TRADE
VIC1,"2013/12/28 03:00:00",3928.78,37.74,TRADE
VIC1,"2013/12/28 03:30:00",3910.11,37.84,TRADE
VIC1,"2013/12/28 04:00:00",3877.69,37.14,TRADE
VIC1,"2013/12/28 04:30:00",3877.81,37.94,TRADE
VIC1,"2013/12/28 05:00:00",3879.04,38.2,TRADE
VIC1,"2013/12/28 05:30:00",3892.92,37.94,TRADE
VIC1,"2013/12/28 06:00:00",3895.17,37,TRADE
VIC1,"2013/12/28 06:30:00",4045.22,38.2,TRADE
VIC1,"2013/12/28 07:00:00",4173.95,39.8,TRADE
VIC1,"2013/12/28 07:30:00",4182.19,39.34,TRADE
VIC1,"2013/12/28 08:00:00",4334.91,42.07,TRADE
VIC1,"2013/12/28 08:30:00",4466.22,42.21,TRADE
VIC1,"2013/12/28 09:00:00",4631.13,42.2,TRADE
VIC1,"2013/12/28 09:30:00",4707.34,42.2,TRADE
VIC1,"2013/12/28 10:00:00",4768.99,42.2,TRADE
VIC1,"2013/12/28 10:30:00",4831.36,42.2,TRADE
VIC1,"2013/12/28 11:00:00",4964.79,42.2,TRADE
VIC1,"2013/12/28 11:30:00",5077.06,42.23,TRADE
VIC1,"2013/12/28 12:00:00",5203.01,42.9,TRADE
VIC1,"2013/12/28 12:30:00",5248.33,39.02,TRADE
VIC1,"2013/12/28 13:00:00",5430.7,42.61,TRADE
VIC1,"2013/12/28 13:30:00",5551.71,43.1,TRADE
VIC1,"2013/12/28 14:00:00",5724.09,43.57,TRADE
VIC1,"2013/12/28 14:30:00",5784.3,43.6,TRADE
VIC1,"2013/12/28 15:00:00",5926.84,43.68,TRADE
VIC1,"2013/12/28 15:30:00",5923.36,43.66,TRADE
VIC1,"2013/12/28 16:00:00",5624.85,35.19,TRADE
VIC1,"2013/12/28 16:30:00",5402.93,39.25,TRADE
VIC1,"2013/12/28 17:00:00",5343.11,42.2,TRADE
VIC1,"2013/12/28 17:30:00",5228.96,42.12,TRADE
VIC1,"2013/12/28 18:00:00",5100.54,38.2,TRADE
VIC1,"2013/12/28 18:30:00",4928.29,38.2,TRADE
VIC1,"2013/12/28 19:00:00",4755.36,40.32,TRADE
VIC1,"2013/12/28 19:30:00",4624.49,40.76,TRADE
VIC1,"2013/12/28 20:00:00",4652.78,42.22,TRADE
VIC1,"2013/12/28 20:30:00",4623.28,42.2,TRADE
VIC1,"2013/12/28 21:00:00",4603.89,42.91,TRADE
VIC1,"2013/12/28 21:30:00",4451.12,42.34,TRADE
VIC1,"2013/12/28 22:00:00",4275.56,42.15,TRADE
VIC1,"2013/12/28 22:30:00",4235.15,42.32,TRADE
VIC1,"2013/12/28 23:00:00",4251.66,42.79,TRADE
VIC1,"2013/12/28 23:30:00",4583.2,42.86,TRADE
VIC1,"2013/12/29 00:00:00",4659.84,43.47,TRADE
VIC1,"2013/12/29 00:30:00",4343.99,41.74,TRADE
VIC1,"2013/12/29 01:00:00",4046.38,40.19,TRADE
VIC1,"2013/12/29 01:30:00",3921.58,37.96,TRADE
VIC1,"2013/12/29 02:00:00",3797.19,34.19,TRADE
VIC1,"2013/12/29 02:30:00",3710.18,33.81,TRADE
VIC1,"2013/12/29 03:00:00",3633.11,35.2,TRADE
VIC1,"2013/12/29 03:30:00",3587.13,33.62,TRADE
VIC1,"2013/12/29 04:00:00",3551.6,26.98,TRADE
VIC1,"2013/12/29 04:30:00",3582.32,26.79,TRADE
VIC1,"2013/12/29 05:00:00",3577.4,28.29,TRADE
VIC1,"2013/12/29 05:30:00",3616.21,33.46,TRADE
VIC1,"2013/12/29 06:00:00",3671.95,35.77,TRADE
VIC1,"2013/12/29 06:30:00",3804.54,38.25,TRADE
VIC1,"2013/12/29 07:00:00",3951.64,38.3,TRADE
VIC1,"2013/12/29 07:30:00",3928.18,38.2,TRADE
VIC1,"2013/12/29 08:00:00",3980.39,38.2,TRADE
VIC1,"2013/12/29 08:30:00",4094.95,38.2,TRADE
VIC1,"2013/12/29 09:00:00",4189.05,38.3,TRADE
VIC1,"2013/12/29 09:30:00",4261.61,39.02,TRADE
VIC1,"2013/12/29 10:00:00",4267.22,39.01,TRADE
VIC1,"2013/12/29 10:30:00",4298.13,38.98,TRADE
VIC1,"2013/12/29 11:00:00",4254.17,38.2,TRADE
VIC1,"2013/12/29 11:30:00",4281.57,38.2,TRADE
VIC1,"2013/12/29 12:00:00",4248.33,39.5,TRADE
VIC1,"2013/12/29 12:30:00",4224.14,40.51,TRADE
VIC1,"2013/12/29 13:00:00",4186.59,38.83,TRADE
VIC1,"2013/12/29 13:30:00",4198.86,38.42,TRADE
VIC1,"2013/12/29 14:00:00",4231.02,40.15,TRADE
VIC1,"2013/12/29 14:30:00",4266.46,40.67,TRADE
VIC1,"2013/12/29 15:00:00",4302,41.8,TRADE
VIC1,"2013/12/29 15:30:00",4395.83,42.13,TRADE
VIC1,"2013/12/29 16:00:00",4475.24,41.59,TRADE
VIC1,"2013/12/29 16:30:00",4565.17,43.79,TRADE
VIC1,"2013/12/29 17:00:00",4671.04,43.63,TRADE
VIC1,"2013/12/29 17:30:00",4726.48,43.68,TRADE
VIC1,"2013/12/29 18:00:00",4737.35,43.67,TRADE
VIC1,"2013/12/29 18:30:00",4690.95,43.69,TRADE
VIC1,"2013/12/29 19:00:00",4645.57,43.7,TRADE
VIC1,"2013/12/29 19:30:00",4590.71,43.68,TRADE
VIC1,"2013/12/29 20:00:00",4625.11,43.81,TRADE
VIC1,"2013/12/29 20:30:00",4778.04,44.06,TRADE
VIC1,"2013/12/29 21:00:00",4745.7,44.04,TRADE
VIC1,"2013/12/29 21:30:00",4599.17,43.78,TRADE
VIC1,"2013/12/29 22:00:00",4465.81,43.69,TRADE
VIC1,"2013/12/29 22:30:00",4428.87,43.65,TRADE
VIC1,"2013/12/29 23:00:00",4455.9,43.66,TRADE
VIC1,"2013/12/29 23:30:00",4837.95,44.28,TRADE
VIC1,"2013/12/30 00:00:00",4953.27,45.16,TRADE
VIC1,"2013/12/30 00:30:00",4562.56,43.08,TRADE
VIC1,"2013/12/30 01:00:00",4292.31,42.37,TRADE
VIC1,"2013/12/30 01:30:00",4178.45,40.07,TRADE
VIC1,"2013/12/30 02:00:00",4083.45,38.26,TRADE
VIC1,"2013/12/30 02:30:00",3975.56,38.27,TRADE
VIC1,"2013/12/30 03:00:00",3898.82,38.71,TRADE
VIC1,"2013/12/30 03:30:00",3875.35,38.2,TRADE
VIC1,"2013/12/30 04:00:00",3891.26,38.41,TRADE
VIC1,"2013/12/30 04:30:00",3971.94,40.77,TRADE
VIC1,"2013/12/30 05:00:00",4067.62,42.91,TRADE
VIC1,"2013/12/30 05:30:00",4226.91,43.85,TRADE
VIC1,"2013/12/30 06:00:00",4361.56,44.03,TRADE
VIC1,"2013/12/30 06:30:00",4535.57,44.72,TRADE
VIC1,"2013/12/30 07:00:00",4750.71,45.2,TRADE
VIC1,"2013/12/30 07:30:00",4748.31,44.92,TRADE
VIC1,"2013/12/30 08:00:00",4830.38,45.03,TRADE
VIC1,"2013/12/30 08:30:00",4868.04,44.83,TRADE
VIC1,"2013/12/30 09:00:00",4912.82,44.37,TRADE
VIC1,"2013/12/30 09:30:00",4912.25,43.92,TRADE
VIC1,"2013/12/30 10:00:00",4906.39,43.7,TRADE
VIC1,"2013/12/30 10:30:00",4887.04,43.7,TRADE
VIC1,"2013/12/30 11:00:00",4845.6,43.76,TRADE
VIC1,"2013/12/30 11:30:00",4796.79,43.67,TRADE
VIC1,"2013/12/30 12:00:00",4820.6,43.83,TRADE
VIC1,"2013/12/30 12:30:00",4803.44,43.75,TRADE
VIC1,"2013/12/30 13:00:00",4756.38,43.7,TRADE
VIC1,"2013/12/30 13:30:00",4773.8,43.7,TRADE
VIC1,"2013/12/30 14:00:00",4836.26,43.7,TRADE
VIC1,"2013/12/30 14:30:00",4831.48,43.7,TRADE
VIC1,"2013/12/30 15:00:00",4848.66,43.7,TRADE
VIC1,"2013/12/30 15:30:00",4927.59,44.03,TRADE
VIC1,"2013/12/30 16:00:00",5021.59,43.7,TRADE
VIC1,"2013/12/30 16:30:00",5120.17,43.73,TRADE
VIC1,"2013/12/30 17:00:00",5175.59,43.73,TRADE
VIC1,"2013/12/30 17:30:00",5089.72,43.68,TRADE
VIC1,"2013/12/30 18:00:00",5007.6,43.69,TRADE
VIC1,"2013/12/30 18:30:00",4888.29,43.52,TRADE
VIC1,"2013/12/30 19:00:00",4794.64,43.46,TRADE
VIC1,"2013/12/30 19:30:00",4771.67,43.52,TRADE
VIC1,"2013/12/30 20:00:00",4804.19,43.52,TRADE
VIC1,"2013/12/30 20:30:00",4910.83,44.07,TRADE
VIC1,"2013/12/30 21:00:00",4847.57,44.22,TRADE
VIC1,"2013/12/30 21:30:00",4693.02,43.7,TRADE
VIC1,"2013/12/30 22:00:00",4503.89,43.61,TRADE
VIC1,"2013/12/30 22:30:00",4509.13,44.9,TRADE
VIC1,"2013/12/30 23:00:00",4556.72,44.38,TRADE
VIC1,"2013/12/30 23:30:00",4933.56,45.19,TRADE
VIC1,"2013/12/31 00:00:00",5003.68,45.7,TRADE
VIC1,"2013/12/31 00:30:00",4670.24,45.14,TRADE
VIC1,"2013/12/31 01:00:00",4395.14,43.75,TRADE
VIC1,"2013/12/31 01:30:00",4219.33,42.34,TRADE
VIC1,"2013/12/31 02:00:00",4080.06,41.25,TRADE
VIC1,"2013/12/31 02:30:00",4019.98,40.15,TRADE
VIC1,"2013/12/31 03:00:00",3960.7,39.49,TRADE
VIC1,"2013/12/31 03:30:00",3956.79,38.2,TRADE
VIC1,"2013/12/31 04:00:00",3960.12,38.2,TRADE
VIC1,"2013/12/31 04:30:00",4010.99,40.51,TRADE
VIC1,"2013/12/31 05:00:00",4085.39,41.26,TRADE
VIC1,"2013/12/31 05:30:00",4223.9,43.23,TRADE
VIC1,"2013/12/31 06:00:00",4357.69,43.63,TRADE
VIC1,"2013/12/31 06:30:00",4561.49,43.77,TRADE
VIC1,"2013/12/31 07:00:00",4743.6,44.2,TRADE
VIC1,"2013/12/31 07:30:00",4711.56,43.26,TRADE
VIC1,"2013/12/31 08:00:00",4818.68,43.7,TRADE
VIC1,"2013/12/31 08:30:00",4902.2,44.38,TRADE
VIC1,"2013/12/31 09:00:00",4974.31,44.45,TRADE
VIC1,"2013/12/31 09:30:00",5025.75,44.17,TRADE
VIC1,"2013/12/31 10:00:00",4990.11,44.28,TRADE
VIC1,"2013/12/31 10:30:00",5003.42,43.91,TRADE
VIC1,"2013/12/31 11:00:00",4983.97,44.02,TRADE
VIC1,"2013/12/31 11:30:00",5026.95,44.1,TRADE
VIC1,"2013/12/31 12:00:00",5016.38,44.33,TRADE
VIC1,"2013/12/31 12:30:00",5014.43,44.6,TRADE
VIC1,"2013/12/31 13:00:00",5001.82,44.64,TRADE
VIC1,"2013/12/31 13:30:00",5000.27,45.12,TRADE
VIC1,"2013/12/31 14:00:00",5041.07,45.2,TRADE
VIC1,"2013/12/31 14:30:00",5112.53,45.2,TRADE
VIC1,"2013/12/31 15:00:00",5136.34,45.2,TRADE
VIC1,"2013/12/31 15:30:00",5149.46,45.09,TRADE
VIC1,"2013/12/31 16:00:00",5248.14,45.2,TRADE
VIC1,"2013/12/31 16:30:00",5325.4,45.2,TRADE
VIC1,"2013/12/31 17:00:00",5335.82,45.2,TRADE
VIC1,"2013/12/31 17:30:00",5198.39,44.13,TRADE
VIC1,"2013/12/31 18:00:00",5099.08,44.01,TRADE
VIC1,"2013/12/31 18:30:00",4950.74,43.7,TRADE
VIC1,"2013/12/31 19:00:00",4868.23,43.68,TRADE
VIC1,"2013/12/31 19:30:00",4757.2,43.63,TRADE
VIC1,"2013/12/31 20:00:00",4691.87,43.66,TRADE
VIC1,"2013/12/31 20:30:00",4750.09,43.69,TRADE
VIC1,"2013/12/31 21:00:00",4694.21,43.7,TRADE
VIC1,"2013/12/31 21:30:00",4580.56,43.65,TRADE
VIC1,"2013/12/31 22:00:00",4429.5,42.98,TRADE
VIC1,"2013/12/31 22:30:00",4482.53,43.74,TRADE
VIC1,"2013/12/31 23:00:00",4515.98,43.34,TRADE
VIC1,"2013/12/31 23:30:00",4890.53,44.33,TRADE
VIC1,"2014/01/01 00:00:00",4993.52,45.1,TRADE
