REGION,SETTLEMENTDATE,TOTALDEMAND,RRP,PERIODTYPE
QLD1,"2009/04/01 00:30:00",5311.23,20.19,TRADE
QLD1,"2009/04/01 01:00:00",5097.23,18.51,TRADE
QLD1,"2009/04/01 01:30:00",4942.12,19.82,TRADE
QLD1,"2009/04/01 02:00:00",4865.13,17.87,TRADE
QLD1,"2009/04/01 02:30:00",4780.46,15.64,TRADE
QLD1,"2009/04/01 03:00:00",4753.22,14.97,TRADE
QLD1,"2009/04/01 03:30:00",4771.01,14.8,TRADE
QLD1,"2009/04/01 04:00:00",4705.83,14.15,TRADE
QLD1,"2009/04/01 04:30:00",4772.69,17.58,TRADE
QLD1,"2009/04/01 05:00:00",4847.17,18.36,TRADE
QLD1,"2009/04/01 05:30:00",5061.52,20.32,TRADE
QLD1,"2009/04/01 06:00:00",5272.79,22.6,TRADE
QLD1,"2009/04/01 06:30:00",5645.68,22.18,TRADE
QLD1,"2009/04/01 07:00:00",6088.5,23.05,TRADE
QLD1,"2009/04/01 07:30:00",6493.45,24.93,TRADE
QLD1,"2009/04/01 08:00:00",6684.61,31.73,TRADE
QLD1,"2009/04/01 08:30:00",6864.61,34.57,TRADE
QLD1,"2009/04/01 09:00:00",6953.12,42.4,TRADE
QLD1,"2009/04/01 09:30:00",7088.58,51.99,TRADE
QLD1,"2009/04/01 10:00:00",7112.6,46.56,TRADE
QLD1,"2009/04/01 10:30:00",7217.06,42.7,TRADE
QLD1,"2009/04/01 11:00:00",7300.99,41.99,TRADE
QLD1,"2009/04/01 11:30:00",7328.79,40.04,TRADE
QLD1,"2009/04/01 12:00:00",7375.71,51.93,TRADE
QLD1,"2009/04/01 12:30:00",7406.91,53.18,TRADE
QLD1,"2009/04/01 13:00:00",7491.47,66.15,TRADE
QLD1,"2009/04/01 13:30:00",7540.02,74.68,TRADE
QLD1,"2009/04/01 14:00:00",7572.84,84.83,TRADE
QLD1,"2009/04/01 14:30:00",7552.01,101.08,TRADE
QLD1,"2009/04/01 15:00:00",7519.19,86.75,TRADE
QLD1,"2009/04/01 15:30:00",7496.74,77.67,TRADE
QLD1,"2009/04/01 16:00:00",7504.78,79.83,TRADE
QLD1,"2009/04/01 16:30:00",7480.67,57.5,TRADE
QLD1,"2009/04/01 17:00:00",7379.94,54.31,TRADE
QLD1,"2009/04/01 17:30:00",7313.31,47.11,TRADE
QLD1,"2009/04/01 18:00:00",7300.1,62.24,TRADE
QLD1,"2009/04/01 18:30:00",7373.18,81.68,TRADE
QLD1,"2009/04/01 19:00:00",7374.09,79,TRADE
QLD1,"2009/04/01 19:30:00",7175.72,45.19,TRADE
QLD1,"2009/04/01 20:00:00",6970.48,29.88,TRADE
QLD1,"2009/04/01 20:30:00",6828.94,23.7,TRADE
QLD1,"2009/04/01 21:00:00",6739.41,24,TRADE
QLD1,"2009/04/01 21:30:00",6700.19,23.46,TRADE
QLD1,"2009/04/01 22:00:00",6442.61,21.44,TRADE
QLD1,"2009/04/01 22:30:00",6180.98,23.69,TRADE
QLD1,"2009/04/01 23:00:00",5981.9,22.78,TRADE
QLD1,"2009/04/01 23:30:00",5875.11,22.33,TRADE
QLD1,"2009/04/02 00:00:00",5652.61,21.51,TRADE
QLD1,"2009/04/02 00:30:00",5416.23,19.71,TRADE
QLD1,"2009/04/02 01:00:00",5274.27,17.6,TRADE
QLD1,"2009/04/02 01:30:00",5113.77,20.12,TRADE
QLD1,"2009/04/02 02:00:00",5005.48,17.18,TRADE
QLD1,"2009/04/02 02:30:00",4918.17,14.85,TRADE
QLD1,"2009/04/02 03:00:00",4889.01,14.32,TRADE
QLD1,"2009/04/02 03:30:00",4873.23,14.99,TRADE
QLD1,"2009/04/02 04:00:00",4914.41,15.6,TRADE
QLD1,"2009/04/02 04:30:00",4969.54,15.69,TRADE
QLD1,"2009/04/02 05:00:00",5025.98,18.8,TRADE
QLD1,"2009/04/02 05:30:00",5213.85,20.47,TRADE
QLD1,"2009/04/02 06:00:00",5421.05,23.06,TRADE
QLD1,"2009/04/02 06:30:00",5860.7,30.03,TRADE
QLD1,"2009/04/02 07:00:00",6265.15,26.71,TRADE
QLD1,"2009/04/02 07:30:00",6698.66,37.99,TRADE
QLD1,"2009/04/02 08:00:00",6902.96,38.81,TRADE
QLD1,"2009/04/02 08:30:00",6998.22,29.04,TRADE
QLD1,"2009/04/02 09:00:00",7030.57,40.49,TRADE
QLD1,"2009/04/02 09:30:00",7091.3,48.89,TRADE
QLD1,"2009/04/02 10:00:00",7128.69,50.72,TRADE
QLD1,"2009/04/02 10:30:00",7187.94,58.07,TRADE
QLD1,"2009/04/02 11:00:00",7211.22,58.97,TRADE
QLD1,"2009/04/02 11:30:00",7229.55,50.66,TRADE
QLD1,"2009/04/02 12:00:00",7220.74,52.36,TRADE
QLD1,"2009/04/02 12:30:00",7193.99,61.5,TRADE
QLD1,"2009/04/02 13:00:00",7222,59.49,TRADE
QLD1,"2009/04/02 13:30:00",7176.2,55.6,TRADE
QLD1,"2009/04/02 14:00:00",7178.06,60.78,TRADE
QLD1,"2009/04/02 14:30:00",7174.84,53.13,TRADE
QLD1,"2009/04/02 15:00:00",7149.88,43.3,TRADE
QLD1,"2009/04/02 15:30:00",7146.7,53.76,TRADE
QLD1,"2009/04/02 16:00:00",7200.45,63.56,TRADE
QLD1,"2009/04/02 16:30:00",7178.93,48.56,TRADE
QLD1,"2009/04/02 17:00:00",7223.49,80.17,TRADE
QLD1,"2009/04/02 17:30:00",7218.8,61.08,TRADE
QLD1,"2009/04/02 18:00:00",7266.29,67.61,TRADE
QLD1,"2009/04/02 18:30:00",7320.79,60.57,TRADE
QLD1,"2009/04/02 19:00:00",7224.57,53.21,TRADE
QLD1,"2009/04/02 19:30:00",7034.95,41.16,TRADE
QLD1,"2009/04/02 20:00:00",6908.24,37.28,TRADE
QLD1,"2009/04/02 20:30:00",6749.21,31.16,TRADE
QLD1,"2009/04/02 21:00:00",6630.76,27.36,TRADE
QLD1,"2009/04/02 21:30:00",6583,28.22,TRADE
QLD1,"2009/04/02 22:00:00",6338.04,22.58,TRADE
QLD1,"2009/04/02 22:30:00",6138.01,27.06,TRADE
QLD1,"2009/04/02 23:00:00",5963.93,27.47,TRADE
QLD1,"2009/04/02 23:30:00",5813.31,29.34,TRADE
QLD1,"2009/04/03 00:00:00",5579.8,24.86,TRADE
QLD1,"2009/04/03 00:30:00",5386.77,19.89,TRADE
QLD1,"2009/04/03 01:00:00",5144.29,18.26,TRADE
QLD1,"2009/04/03 01:30:00",5002.41,20.05,TRADE
QLD1,"2009/04/03 02:00:00",4907.89,16.55,TRADE
QLD1,"2009/04/03 02:30:00",4854.66,15.75,TRADE
QLD1,"2009/04/03 03:00:00",4824.47,15.14,TRADE
QLD1,"2009/04/03 03:30:00",4779.73,14.72,TRADE
QLD1,"2009/04/03 04:00:00",4765.24,15.15,TRADE
QLD1,"2009/04/03 04:30:00",4811.79,16.48,TRADE
QLD1,"2009/04/03 05:00:00",4886.73,17.24,TRADE
QLD1,"2009/04/03 05:30:00",5061.15,21.93,TRADE
QLD1,"2009/04/03 06:00:00",5351.76,20.61,TRADE
QLD1,"2009/04/03 06:30:00",5725.66,25.09,TRADE
QLD1,"2009/04/03 07:00:00",6177.99,30.26,TRADE
QLD1,"2009/04/03 07:30:00",6612.45,28.02,TRADE
QLD1,"2009/04/03 08:00:00",6832.6,30.45,TRADE
QLD1,"2009/04/03 08:30:00",6964.67,30.13,TRADE
QLD1,"2009/04/03 09:00:00",7029.61,33.5,TRADE
QLD1,"2009/04/03 09:30:00",7103.63,48.09,TRADE
QLD1,"2009/04/03 10:00:00",7159.23,53.71,TRADE
QLD1,"2009/04/03 10:30:00",7204.31,51.79,TRADE
QLD1,"2009/04/03 11:00:00",7233.28,56.19,TRADE
QLD1,"2009/04/03 11:30:00",7296.75,57,TRADE
QLD1,"2009/04/03 12:00:00",7310.95,60.18,TRADE
QLD1,"2009/04/03 12:30:00",7331.17,58.77,TRADE
QLD1,"2009/04/03 13:00:00",7341,63.94,TRADE
QLD1,"2009/04/03 13:30:00",7353.07,60.56,TRADE
QLD1,"2009/04/03 14:00:00",7337.59,59.15,TRADE
QLD1,"2009/04/03 14:30:00",7318.57,66.65,TRADE
QLD1,"2009/04/03 15:00:00",7261.37,44.31,TRADE
QLD1,"2009/04/03 15:30:00",7260.04,45.58,TRADE
QLD1,"2009/04/03 16:00:00",7250.81,48.65,TRADE
QLD1,"2009/04/03 16:30:00",7234.09,38.27,TRADE
QLD1,"2009/04/03 17:00:00",7163.93,39.84,TRADE
QLD1,"2009/04/03 17:30:00",7089.45,34.97,TRADE
QLD1,"2009/04/03 18:00:00",7071.79,36.36,TRADE
QLD1,"2009/04/03 18:30:00",7111.14,38.5,TRADE
QLD1,"2009/04/03 19:00:00",7038.69,37.69,TRADE
QLD1,"2009/04/03 19:30:00",6844.16,34.45,TRADE
QLD1,"2009/04/03 20:00:00",6687.67,32.33,TRADE
QLD1,"2009/04/03 20:30:00",6555.05,32.82,TRADE
QLD1,"2009/04/03 21:00:00",6381.08,30.08,TRADE
QLD1,"2009/04/03 21:30:00",6428.36,31.79,TRADE
QLD1,"2009/04/03 22:00:00",6259.45,24.73,TRADE
QLD1,"2009/04/03 22:30:00",6033.2,31.36,TRADE
QLD1,"2009/04/03 23:00:00",5920.99,32,TRADE
QLD1,"2009/04/03 23:30:00",5809.62,32.99,TRADE
QLD1,"2009/04/04 00:00:00",5588.66,27.86,TRADE
QLD1,"2009/04/04 00:30:00",5351.72,22.35,TRADE
QLD1,"2009/04/04 01:00:00",5167.08,22.26,TRADE
QLD1,"2009/04/04 01:30:00",5038.21,25.13,TRADE
QLD1,"2009/04/04 02:00:00",4906.04,21.23,TRADE
QLD1,"2009/04/04 02:30:00",4808.54,20.36,TRADE
QLD1,"2009/04/04 03:00:00",4770.56,18.45,TRADE
QLD1,"2009/04/04 03:30:00",4741.78,20.11,TRADE
QLD1,"2009/04/04 04:00:00",4713.41,19.82,TRADE
QLD1,"2009/04/04 04:30:00",4736,20.07,TRADE
QLD1,"2009/04/04 05:00:00",4741.94,20.44,TRADE
QLD1,"2009/04/04 05:30:00",4814.39,21.39,TRADE
QLD1,"2009/04/04 06:00:00",4885.62,21.65,TRADE
QLD1,"2009/04/04 06:30:00",5021.43,21.77,TRADE
QLD1,"2009/04/04 07:00:00",5201.67,21.62,TRADE
QLD1,"2009/04/04 07:30:00",5495.84,22.48,TRADE
QLD1,"2009/04/04 08:00:00",5750.92,27.13,TRADE
QLD1,"2009/04/04 08:30:00",6055.85,34.68,TRADE
QLD1,"2009/04/04 09:00:00",6236.3,36.15,TRADE
QLD1,"2009/04/04 09:30:00",6393.45,38.39,TRADE
QLD1,"2009/04/04 10:00:00",6474.71,42.16,TRADE
QLD1,"2009/04/04 10:30:00",6449.68,40.34,TRADE
QLD1,"2009/04/04 11:00:00",6451.71,52.92,TRADE
QLD1,"2009/04/04 11:30:00",6445.17,52.05,TRADE
QLD1,"2009/04/04 12:00:00",6458.12,46.01,TRADE
QLD1,"2009/04/04 12:30:00",6451.93,43.91,TRADE
QLD1,"2009/04/04 13:00:00",6489.05,42.78,TRADE
QLD1,"2009/04/04 13:30:00",6495.59,37.35,TRADE
QLD1,"2009/04/04 14:00:00",6467.45,35.12,TRADE
QLD1,"2009/04/04 14:30:00",6464.41,35.15,TRADE
QLD1,"2009/04/04 15:00:00",6440.51,35.8,TRADE
QLD1,"2009/04/04 15:30:00",6435.91,32.47,TRADE
QLD1,"2009/04/04 16:00:00",6431.7,33.08,TRADE
QLD1,"2009/04/04 16:30:00",6442.29,32.54,TRADE
QLD1,"2009/04/04 17:00:00",6494.89,33.15,TRADE
QLD1,"2009/04/04 17:30:00",6550.02,33.87,TRADE
QLD1,"2009/04/04 18:00:00",6643.67,37.18,TRADE
QLD1,"2009/04/04 18:30:00",6713.1,37.32,TRADE
QLD1,"2009/04/04 19:00:00",6667.66,38.2,TRADE
QLD1,"2009/04/04 19:30:00",6484.58,33.46,TRADE
QLD1,"2009/04/04 20:00:00",6408.89,33.25,TRADE
QLD1,"2009/04/04 20:30:00",6273.62,30.96,TRADE
QLD1,"2009/04/04 21:00:00",6167.69,24.51,TRADE
QLD1,"2009/04/04 21:30:00",6196.69,27.3,TRADE
QLD1,"2009/04/04 22:00:00",5934.27,22.81,TRADE
QLD1,"2009/04/04 22:30:00",5799.37,25.47,TRADE
QLD1,"2009/04/04 23:00:00",5778.97,28.61,TRADE
QLD1,"2009/04/04 23:30:00",5695.22,25.69,TRADE
QLD1,"2009/04/05 00:00:00",5488.4,25.03,TRADE
QLD1,"2009/04/05 00:30:00",5274.11,22.95,TRADE
QLD1,"2009/04/05 01:00:00",5088.44,22.15,TRADE
QLD1,"2009/04/05 01:30:00",4922.83,22.27,TRADE
QLD1,"2009/04/05 02:00:00",4765.82,21.5,TRADE
QLD1,"2009/04/05 02:30:00",4726.74,19.8,TRADE
QLD1,"2009/04/05 03:00:00",4696.64,20.12,TRADE
QLD1,"2009/04/05 03:30:00",4641.09,18.11,TRADE
QLD1,"2009/04/05 04:00:00",4636.74,16.76,TRADE
QLD1,"2009/04/05 04:30:00",4643.75,17.6,TRADE
QLD1,"2009/04/05 05:00:00",4642.62,17.52,TRADE
QLD1,"2009/04/05 05:30:00",4681.43,18.59,TRADE
QLD1,"2009/04/05 06:00:00",4681.77,17.23,TRADE
QLD1,"2009/04/05 06:30:00",4735.98,18.47,TRADE
QLD1,"2009/04/05 07:00:00",4879.57,17.41,TRADE
QLD1,"2009/04/05 07:30:00",5091.18,20.22,TRADE
QLD1,"2009/04/05 08:00:00",5293.28,21.93,TRADE
QLD1,"2009/04/05 08:30:00",5508.06,22.85,TRADE
QLD1,"2009/04/05 09:00:00",5762.26,27.98,TRADE
QLD1,"2009/04/05 09:30:00",5878.07,31.29,TRADE
QLD1,"2009/04/05 10:00:00",5974.24,33.44,TRADE
QLD1,"2009/04/05 10:30:00",6055.58,36.13,TRADE
QLD1,"2009/04/05 11:00:00",6087.37,34.78,TRADE
QLD1,"2009/04/05 11:30:00",6087.09,33.92,TRADE
QLD1,"2009/04/05 12:00:00",6154.83,34.65,TRADE
QLD1,"2009/04/05 12:30:00",6149.29,35.15,TRADE
QLD1,"2009/04/05 13:00:00",6222.37,35.93,TRADE
QLD1,"2009/04/05 13:30:00",6237.65,34.42,TRADE
QLD1,"2009/04/05 14:00:00",6225.77,34.57,TRADE
QLD1,"2009/04/05 14:30:00",6229.67,34.02,TRADE
QLD1,"2009/04/05 15:00:00",6235.91,34.15,TRADE
QLD1,"2009/04/05 15:30:00",6253.68,34.58,TRADE
QLD1,"2009/04/05 16:00:00",6263.66,34.67,TRADE
QLD1,"2009/04/05 16:30:00",6273.06,35.26,TRADE
QLD1,"2009/04/05 17:00:00",6301.65,38.56,TRADE
QLD1,"2009/04/05 17:30:00",6438.86,44.87,TRADE
QLD1,"2009/04/05 18:00:00",6596.32,59.2,TRADE
QLD1,"2009/04/05 18:30:00",6678.13,62.17,TRADE
QLD1,"2009/04/05 19:00:00",6594.88,59.95,TRADE
QLD1,"2009/04/05 19:30:00",6377.24,41.6,TRADE
QLD1,"2009/04/05 20:00:00",6286.89,37.08,TRADE
QLD1,"2009/04/05 20:30:00",6202.69,30.95,TRADE
QLD1,"2009/04/05 21:00:00",6121.67,25.18,TRADE
QLD1,"2009/04/05 21:30:00",6119.74,22.66,TRADE
QLD1,"2009/04/05 22:00:00",5844.93,21.4,TRADE
QLD1,"2009/04/05 22:30:00",5616.55,22.05,TRADE
QLD1,"2009/04/05 23:00:00",5532.71,22.29,TRADE
QLD1,"2009/04/05 23:30:00",5423.4,22.92,TRADE
QLD1,"2009/04/06 00:00:00",5264.07,22,TRADE
QLD1,"2009/04/06 00:30:00",5084.4,20.74,TRADE
QLD1,"2009/04/06 01:00:00",5029.7,20.18,TRADE
QLD1,"2009/04/06 01:30:00",4850.7,19.51,TRADE
QLD1,"2009/04/06 02:00:00",4818.73,16.66,TRADE
QLD1,"2009/04/06 02:30:00",4747.52,16.09,TRADE
QLD1,"2009/04/06 03:00:00",4718.92,14.98,TRADE
QLD1,"2009/04/06 03:30:00",4689.64,14.65,TRADE
QLD1,"2009/04/06 04:00:00",4649.67,14.55,TRADE
QLD1,"2009/04/06 04:30:00",4723.65,15.27,TRADE
QLD1,"2009/04/06 05:00:00",4783.67,18.07,TRADE
QLD1,"2009/04/06 05:30:00",4977.66,21.09,TRADE
QLD1,"2009/04/06 06:00:00",5208.77,20.39,TRADE
QLD1,"2009/04/06 06:30:00",5598.32,22.07,TRADE
QLD1,"2009/04/06 07:00:00",5964.2,23.96,TRADE
QLD1,"2009/04/06 07:30:00",6422.35,26.42,TRADE
QLD1,"2009/04/06 08:00:00",6627.66,30.7,TRADE
QLD1,"2009/04/06 08:30:00",6831.26,33.56,TRADE
QLD1,"2009/04/06 09:00:00",6951.98,40.73,TRADE
QLD1,"2009/04/06 09:30:00",7056.33,42.31,TRADE
QLD1,"2009/04/06 10:00:00",7085.22,47.46,TRADE
QLD1,"2009/04/06 10:30:00",7153.63,53.5,TRADE
QLD1,"2009/04/06 11:00:00",7246.87,54.99,TRADE
QLD1,"2009/04/06 11:30:00",7299.65,50.12,TRADE
QLD1,"2009/04/06 12:00:00",7349.8,41.07,TRADE
QLD1,"2009/04/06 12:30:00",7379.69,41.19,TRADE
QLD1,"2009/04/06 13:00:00",7385.93,41.4,TRADE
QLD1,"2009/04/06 13:30:00",7406.95,35.43,TRADE
QLD1,"2009/04/06 14:00:00",7437.63,35.16,TRADE
QLD1,"2009/04/06 14:30:00",7420.92,36.37,TRADE
QLD1,"2009/04/06 15:00:00",7312.27,32.21,TRADE
QLD1,"2009/04/06 15:30:00",7267.5,32.11,TRADE
QLD1,"2009/04/06 16:00:00",7279.46,32.04,TRADE
QLD1,"2009/04/06 16:30:00",7205.28,29.17,TRADE
QLD1,"2009/04/06 17:00:00",7189.32,31.96,TRADE
QLD1,"2009/04/06 17:30:00",7156.87,33.41,TRADE
QLD1,"2009/04/06 18:00:00",7198.15,38.47,TRADE
QLD1,"2009/04/06 18:30:00",7269.25,43.24,TRADE
QLD1,"2009/04/06 19:00:00",7144.2,41.63,TRADE
QLD1,"2009/04/06 19:30:00",6940.34,35.64,TRADE
QLD1,"2009/04/06 20:00:00",6769.1,28.92,TRADE
QLD1,"2009/04/06 20:30:00",6656.09,27.86,TRADE
QLD1,"2009/04/06 21:00:00",6542.28,27.59,TRADE
QLD1,"2009/04/06 21:30:00",6518.22,25.96,TRADE
QLD1,"2009/04/06 22:00:00",6242.75,22.25,TRADE
QLD1,"2009/04/06 22:30:00",5981.07,24.3,TRADE
QLD1,"2009/04/06 23:00:00",5837.36,23.92,TRADE
QLD1,"2009/04/06 23:30:00",5728.64,27.55,TRADE
QLD1,"2009/04/07 00:00:00",5541.03,23.42,TRADE
QLD1,"2009/04/07 00:30:00",5277.34,20.9,TRADE
QLD1,"2009/04/07 01:00:00",5145.54,20.28,TRADE
QLD1,"2009/04/07 01:30:00",4989.62,20.35,TRADE
QLD1,"2009/04/07 02:00:00",4825.51,18.69,TRADE
QLD1,"2009/04/07 02:30:00",4746.48,17.77,TRADE
QLD1,"2009/04/07 03:00:00",4720.93,16.72,TRADE
QLD1,"2009/04/07 03:30:00",4713.13,15.61,TRADE
QLD1,"2009/04/07 04:00:00",4711.59,15.64,TRADE
QLD1,"2009/04/07 04:30:00",4736.72,15.78,TRADE
QLD1,"2009/04/07 05:00:00",4821.06,17.5,TRADE
QLD1,"2009/04/07 05:30:00",5007.25,19.69,TRADE
QLD1,"2009/04/07 06:00:00",5225.47,20.93,TRADE
QLD1,"2009/04/07 06:30:00",5612.78,23.24,TRADE
QLD1,"2009/04/07 07:00:00",6008.39,26.85,TRADE
QLD1,"2009/04/07 07:30:00",6401.84,29.1,TRADE
QLD1,"2009/04/07 08:00:00",6658.46,33.07,TRADE
QLD1,"2009/04/07 08:30:00",6752.58,35.08,TRADE
QLD1,"2009/04/07 09:00:00",6864.46,33.25,TRADE
QLD1,"2009/04/07 09:30:00",6961.16,37.64,TRADE
QLD1,"2009/04/07 10:00:00",6949.56,40.68,TRADE
QLD1,"2009/04/07 10:30:00",6977.58,40.24,TRADE
QLD1,"2009/04/07 11:00:00",6970.37,38.14,TRADE
QLD1,"2009/04/07 11:30:00",7010.95,35.56,TRADE
QLD1,"2009/04/07 12:00:00",7025.39,38.33,TRADE
QLD1,"2009/04/07 12:30:00",7021.05,36.94,TRADE
QLD1,"2009/04/07 13:00:00",6996.37,36.35,TRADE
QLD1,"2009/04/07 13:30:00",7051.79,35.3,TRADE
QLD1,"2009/04/07 14:00:00",6990.16,32.07,TRADE
QLD1,"2009/04/07 14:30:00",6937.2,30.7,TRADE
QLD1,"2009/04/07 15:00:00",6891.17,27.46,TRADE
QLD1,"2009/04/07 15:30:00",6869.5,26.2,TRADE
QLD1,"2009/04/07 16:00:00",6893.15,26.42,TRADE
QLD1,"2009/04/07 16:30:00",6897.88,12.5,TRADE
QLD1,"2009/04/07 17:00:00",6945.93,21.63,TRADE
QLD1,"2009/04/07 17:30:00",6950.7,28.41,TRADE
QLD1,"2009/04/07 18:00:00",7070,41.97,TRADE
QLD1,"2009/04/07 18:30:00",7100.18,46.55,TRADE
QLD1,"2009/04/07 19:00:00",6983.97,37,TRADE
QLD1,"2009/04/07 19:30:00",6744.92,29.83,TRADE
QLD1,"2009/04/07 20:00:00",6587.68,29.16,TRADE
QLD1,"2009/04/07 20:30:00",6486.36,28.77,TRADE
QLD1,"2009/04/07 21:00:00",6326.01,23.4,TRADE
QLD1,"2009/04/07 21:30:00",6295.87,21.87,TRADE
QLD1,"2009/04/07 22:00:00",6029.02,20.59,TRADE
QLD1,"2009/04/07 22:30:00",5848.67,25.12,TRADE
QLD1,"2009/04/07 23:00:00",5648.02,22.74,TRADE
QLD1,"2009/04/07 23:30:00",5561.37,27.36,TRADE
QLD1,"2009/04/08 00:00:00",5370.94,22.03,TRADE
QLD1,"2009/04/08 00:30:00",5174.37,19.48,TRADE
QLD1,"2009/04/08 01:00:00",4996.31,19.79,TRADE
QLD1,"2009/04/08 01:30:00",4855.86,19.73,TRADE
QLD1,"2009/04/08 02:00:00",4711.01,17.06,TRADE
QLD1,"2009/04/08 02:30:00",4610.33,16.75,TRADE
QLD1,"2009/04/08 03:00:00",4587.59,16.27,TRADE
QLD1,"2009/04/08 03:30:00",4590.75,14.89,TRADE
QLD1,"2009/04/08 04:00:00",4609.55,15.37,TRADE
QLD1,"2009/04/08 04:30:00",4673.81,15.54,TRADE
QLD1,"2009/04/08 05:00:00",4723.47,16.49,TRADE
QLD1,"2009/04/08 05:30:00",4949.94,19.83,TRADE
QLD1,"2009/04/08 06:00:00",5139.03,19.85,TRADE
QLD1,"2009/04/08 06:30:00",5497.42,23.93,TRADE
QLD1,"2009/04/08 07:00:00",5896.68,31.25,TRADE
QLD1,"2009/04/08 07:30:00",6234.77,31.62,TRADE
QLD1,"2009/04/08 08:00:00",6472.41,34.71,TRADE
QLD1,"2009/04/08 08:30:00",6575.08,45.6,TRADE
QLD1,"2009/04/08 09:00:00",6636.85,35.22,TRADE
QLD1,"2009/04/08 09:30:00",6675.46,33.78,TRADE
QLD1,"2009/04/08 10:00:00",6695.5,32.95,TRADE
QLD1,"2009/04/08 10:30:00",6669.01,33.52,TRADE
QLD1,"2009/04/08 11:00:00",6701.69,32.14,TRADE
QLD1,"2009/04/08 11:30:00",6723.58,32.23,TRADE
QLD1,"2009/04/08 12:00:00",6741.55,32.94,TRADE
QLD1,"2009/04/08 12:30:00",6716.43,32.6,TRADE
QLD1,"2009/04/08 13:00:00",6712.98,32.6,TRADE
QLD1,"2009/04/08 13:30:00",6729.76,34.03,TRADE
QLD1,"2009/04/08 14:00:00",6737.45,33.54,TRADE
QLD1,"2009/04/08 14:30:00",6757.33,35.28,TRADE
QLD1,"2009/04/08 15:00:00",6747.32,31.27,TRADE
QLD1,"2009/04/08 15:30:00",6735.83,31.19,TRADE
QLD1,"2009/04/08 16:00:00",6691.89,30.28,TRADE
QLD1,"2009/04/08 16:30:00",6660.83,26.94,TRADE
QLD1,"2009/04/08 17:00:00",6694.88,26.35,TRADE
QLD1,"2009/04/08 17:30:00",6681.09,27.2,TRADE
QLD1,"2009/04/08 18:00:00",6770.49,29.61,TRADE
QLD1,"2009/04/08 18:30:00",6860.6,32.25,TRADE
QLD1,"2009/04/08 19:00:00",6827.05,31.05,TRADE
QLD1,"2009/04/08 19:30:00",6618.68,26.77,TRADE
QLD1,"2009/04/08 20:00:00",6474.37,25.96,TRADE
QLD1,"2009/04/08 20:30:00",6388.29,24.54,TRADE
QLD1,"2009/04/08 21:00:00",6235.63,23.98,TRADE
QLD1,"2009/04/08 21:30:00",6293.68,24.33,TRADE
QLD1,"2009/04/08 22:00:00",6045.16,21.4,TRADE
QLD1,"2009/04/08 22:30:00",5846.72,24.79,TRADE
QLD1,"2009/04/08 23:00:00",5637.34,22.55,TRADE
QLD1,"2009/04/08 23:30:00",5530.59,25.58,TRADE
QLD1,"2009/04/09 00:00:00",5349.15,22.82,TRADE
QLD1,"2009/04/09 00:30:00",5077.96,19.76,TRADE
QLD1,"2009/04/09 01:00:00",4927.18,19.64,TRADE
QLD1,"2009/04/09 01:30:00",4754.46,19.64,TRADE
QLD1,"2009/04/09 02:00:00",4654.08,16.52,TRADE
QLD1,"2009/04/09 02:30:00",4592.24,15.58,TRADE
QLD1,"2009/04/09 03:00:00",4551.35,15.88,TRADE
QLD1,"2009/04/09 03:30:00",4540.11,14.45,TRADE
QLD1,"2009/04/09 04:00:00",4546.16,14.4,TRADE
QLD1,"2009/04/09 04:30:00",4617.91,14.91,TRADE
QLD1,"2009/04/09 05:00:00",4748.5,16.82,TRADE
QLD1,"2009/04/09 05:30:00",4917.61,19.66,TRADE
QLD1,"2009/04/09 06:00:00",5150.46,20.06,TRADE
QLD1,"2009/04/09 06:30:00",5500.44,21.61,TRADE
QLD1,"2009/04/09 07:00:00",5887.48,22.73,TRADE
QLD1,"2009/04/09 07:30:00",6266.3,25.58,TRADE
QLD1,"2009/04/09 08:00:00",6495.41,29.65,TRADE
QLD1,"2009/04/09 08:30:00",6616.21,29.65,TRADE
QLD1,"2009/04/09 09:00:00",6674.09,30.34,TRADE
QLD1,"2009/04/09 09:30:00",6705.81,32.51,TRADE
QLD1,"2009/04/09 10:00:00",6720.23,30.75,TRADE
QLD1,"2009/04/09 10:30:00",6739.9,30.44,TRADE
QLD1,"2009/04/09 11:00:00",6756.6,29.83,TRADE
QLD1,"2009/04/09 11:30:00",6756.32,30.49,TRADE
QLD1,"2009/04/09 12:00:00",6784.68,32.23,TRADE
QLD1,"2009/04/09 12:30:00",6822.26,31.27,TRADE
QLD1,"2009/04/09 13:00:00",6759.87,30.01,TRADE
QLD1,"2009/04/09 13:30:00",6767.71,31.42,TRADE
QLD1,"2009/04/09 14:00:00",6755.73,28.69,TRADE
QLD1,"2009/04/09 14:30:00",6716.58,30.42,TRADE
QLD1,"2009/04/09 15:00:00",6678.85,29.79,TRADE
QLD1,"2009/04/09 15:30:00",6650.56,29.4,TRADE
QLD1,"2009/04/09 16:00:00",6597.37,29.55,TRADE
QLD1,"2009/04/09 16:30:00",6623.64,28.55,TRADE
QLD1,"2009/04/09 17:00:00",6640.91,25.47,TRADE
QLD1,"2009/04/09 17:30:00",6595.17,28.39,TRADE
QLD1,"2009/04/09 18:00:00",6767.53,30.5,TRADE
QLD1,"2009/04/09 18:30:00",6765.82,32.63,TRADE
QLD1,"2009/04/09 19:00:00",6723.83,30.82,TRADE
QLD1,"2009/04/09 19:30:00",6532.82,28.62,TRADE
QLD1,"2009/04/09 20:00:00",6390.31,25.67,TRADE
QLD1,"2009/04/09 20:30:00",6286.09,24.73,TRADE
QLD1,"2009/04/09 21:00:00",6170.09,22.93,TRADE
QLD1,"2009/04/09 21:30:00",6167.27,22.56,TRADE
QLD1,"2009/04/09 22:00:00",5934.19,19.64,TRADE
QLD1,"2009/04/09 22:30:00",5794.71,22.71,TRADE
QLD1,"2009/04/09 23:00:00",5664.89,21.71,TRADE
QLD1,"2009/04/09 23:30:00",5559.1,29.54,TRADE
QLD1,"2009/04/10 00:00:00",5377.54,24.51,TRADE
QLD1,"2009/04/10 00:30:00",5139.24,19.17,TRADE
QLD1,"2009/04/10 01:00:00",4939.07,19.44,TRADE
QLD1,"2009/04/10 01:30:00",4786.68,19.78,TRADE
QLD1,"2009/04/10 02:00:00",4635.05,17.28,TRADE
QLD1,"2009/04/10 02:30:00",4573.17,16.75,TRADE
QLD1,"2009/04/10 03:00:00",4488.76,15.51,TRADE
QLD1,"2009/04/10 03:30:00",4484.4,14.51,TRADE
QLD1,"2009/04/10 04:00:00",4452.94,12.99,TRADE
QLD1,"2009/04/10 04:30:00",4476.34,12.73,TRADE
QLD1,"2009/04/10 05:00:00",4503.69,17.58,TRADE
QLD1,"2009/04/10 05:30:00",4525.7,17.67,TRADE
QLD1,"2009/04/10 06:00:00",4619.63,18.08,TRADE
QLD1,"2009/04/10 06:30:00",4680.37,17.17,TRADE
QLD1,"2009/04/10 07:00:00",4805.11,17.28,TRADE
QLD1,"2009/04/10 07:30:00",5056.24,18.83,TRADE
QLD1,"2009/04/10 08:00:00",5224.15,20.12,TRADE
QLD1,"2009/04/10 08:30:00",5392.63,20.17,TRADE
QLD1,"2009/04/10 09:00:00",5534.73,20.51,TRADE
QLD1,"2009/04/10 09:30:00",5653.8,21.11,TRADE
QLD1,"2009/04/10 10:00:00",5706.61,22.54,TRADE
QLD1,"2009/04/10 10:30:00",5687.75,22.96,TRADE
QLD1,"2009/04/10 11:00:00",5647.3,22.37,TRADE
QLD1,"2009/04/10 11:30:00",5633.46,21.46,TRADE
QLD1,"2009/04/10 12:00:00",5665.69,22.57,TRADE
QLD1,"2009/04/10 12:30:00",5656.48,22.22,TRADE
QLD1,"2009/04/10 13:00:00",5627.33,21.51,TRADE
QLD1,"2009/04/10 13:30:00",5528.38,20.97,TRADE
QLD1,"2009/04/10 14:00:00",5515.26,20.4,TRADE
QLD1,"2009/04/10 14:30:00",5494.22,20.08,TRADE
QLD1,"2009/04/10 15:00:00",5437.14,19.42,TRADE
QLD1,"2009/04/10 15:30:00",5482.75,20.32,TRADE
QLD1,"2009/04/10 16:00:00",5459.47,20.24,TRADE
QLD1,"2009/04/10 16:30:00",5511.5,20.79,TRADE
QLD1,"2009/04/10 17:00:00",5615.68,20.73,TRADE
QLD1,"2009/04/10 17:30:00",5800.21,24.1,TRADE
QLD1,"2009/04/10 18:00:00",6022.92,30.46,TRADE
QLD1,"2009/04/10 18:30:00",6066.37,33.1,TRADE
QLD1,"2009/04/10 19:00:00",5990.47,31.82,TRADE
QLD1,"2009/04/10 19:30:00",5811.26,27.66,TRADE
QLD1,"2009/04/10 20:00:00",5694.2,24.15,TRADE
QLD1,"2009/04/10 20:30:00",5637.68,23.23,TRADE
QLD1,"2009/04/10 21:00:00",5598.75,22.92,TRADE
QLD1,"2009/04/10 21:30:00",5644.05,22.01,TRADE
QLD1,"2009/04/10 22:00:00",5527.32,20.47,TRADE
QLD1,"2009/04/10 22:30:00",5407.48,23.13,TRADE
QLD1,"2009/04/10 23:00:00",5340.77,23.01,TRADE
QLD1,"2009/04/10 23:30:00",5289.95,27.61,TRADE
QLD1,"2009/04/11 00:00:00",5152.51,23.83,TRADE
QLD1,"2009/04/11 00:30:00",4950.37,20.69,TRADE
QLD1,"2009/04/11 01:00:00",4792.37,19.99,TRADE
QLD1,"2009/04/11 01:30:00",4679.94,20.39,TRADE
QLD1,"2009/04/11 02:00:00",4578.89,18.32,TRADE
QLD1,"2009/04/11 02:30:00",4518.24,17.46,TRADE
QLD1,"2009/04/11 03:00:00",4425.97,15.29,TRADE
QLD1,"2009/04/11 03:30:00",4415.36,14.9,TRADE
QLD1,"2009/04/11 04:00:00",4423.36,14.92,TRADE
QLD1,"2009/04/11 04:30:00",4413.9,14.95,TRADE
QLD1,"2009/04/11 05:00:00",4415.74,14.88,TRADE
QLD1,"2009/04/11 05:30:00",4504.1,15.19,TRADE
QLD1,"2009/04/11 06:00:00",4565.26,15.7,TRADE
QLD1,"2009/04/11 06:30:00",4629.05,16.69,TRADE
QLD1,"2009/04/11 07:00:00",4772.98,15.91,TRADE
QLD1,"2009/04/11 07:30:00",5033.23,17.34,TRADE
QLD1,"2009/04/11 08:00:00",5294.24,18.59,TRADE
QLD1,"2009/04/11 08:30:00",5528.15,22.11,TRADE
QLD1,"2009/04/11 09:00:00",5685.19,24.14,TRADE
QLD1,"2009/04/11 09:30:00",5791.67,25.87,TRADE
QLD1,"2009/04/11 10:00:00",5835.68,26.95,TRADE
QLD1,"2009/04/11 10:30:00",5840.75,26.19,TRADE
QLD1,"2009/04/11 11:00:00",5826.96,24.8,TRADE
QLD1,"2009/04/11 11:30:00",5793.61,23.3,TRADE
QLD1,"2009/04/11 12:00:00",5761.99,27.37,TRADE
QLD1,"2009/04/11 12:30:00",5745.58,26.37,TRADE
QLD1,"2009/04/11 13:00:00",5685.29,23.82,TRADE
QLD1,"2009/04/11 13:30:00",5643.08,23.53,TRADE
QLD1,"2009/04/11 14:00:00",5645.8,21.82,TRADE
QLD1,"2009/04/11 14:30:00",5612.68,23.29,TRADE
QLD1,"2009/04/11 15:00:00",5648.21,21.79,TRADE
QLD1,"2009/04/11 15:30:00",5616.3,21.9,TRADE
QLD1,"2009/04/11 16:00:00",5687.06,22.79,TRADE
QLD1,"2009/04/11 16:30:00",5771.31,23.63,TRADE
QLD1,"2009/04/11 17:00:00",5831.77,27.65,TRADE
QLD1,"2009/04/11 17:30:00",6008.36,29.22,TRADE
QLD1,"2009/04/11 18:00:00",6150.63,32.27,TRADE
QLD1,"2009/04/11 18:30:00",6144.39,36.18,TRADE
QLD1,"2009/04/11 19:00:00",6029.15,34.32,TRADE
QLD1,"2009/04/11 19:30:00",5841.62,27.49,TRADE
QLD1,"2009/04/11 20:00:00",5752.32,25.33,TRADE
QLD1,"2009/04/11 20:30:00",5627.08,21.75,TRADE
QLD1,"2009/04/11 21:00:00",5567.25,21.46,TRADE
QLD1,"2009/04/11 21:30:00",5662.97,21.99,TRADE
QLD1,"2009/04/11 22:00:00",5476.99,21.44,TRADE
QLD1,"2009/04/11 22:30:00",5411.87,21.53,TRADE
QLD1,"2009/04/11 23:00:00",5351.73,22.53,TRADE
QLD1,"2009/04/11 23:30:00",5304.35,25.66,TRADE
QLD1,"2009/04/12 00:00:00",5161.86,22.53,TRADE
QLD1,"2009/04/12 00:30:00",4968.24,20.62,TRADE
QLD1,"2009/04/12 01:00:00",4827.23,20.33,TRADE
QLD1,"2009/04/12 01:30:00",4647.83,20.7,TRADE
QLD1,"2009/04/12 02:00:00",4538.29,17.19,TRADE
QLD1,"2009/04/12 02:30:00",4465.44,15.36,TRADE
QLD1,"2009/04/12 03:00:00",4409.57,15.23,TRADE
QLD1,"2009/04/12 03:30:00",4393.04,14.97,TRADE
QLD1,"2009/04/12 04:00:00",4400.29,14.95,TRADE
QLD1,"2009/04/12 04:30:00",4406.35,14.88,TRADE
QLD1,"2009/04/12 05:00:00",4463.78,15.19,TRADE
QLD1,"2009/04/12 05:30:00",4453.25,15.12,TRADE
QLD1,"2009/04/12 06:00:00",4507.39,15.53,TRADE
QLD1,"2009/04/12 06:30:00",4562.38,15.66,TRADE
QLD1,"2009/04/12 07:00:00",4686.5,16.06,TRADE
QLD1,"2009/04/12 07:30:00",4930.54,18.36,TRADE
QLD1,"2009/04/12 08:00:00",5123.42,19.23,TRADE
QLD1,"2009/04/12 08:30:00",5346.26,21.07,TRADE
QLD1,"2009/04/12 09:00:00",5530.64,21.93,TRADE
QLD1,"2009/04/12 09:30:00",5600.81,21.93,TRADE
QLD1,"2009/04/12 10:00:00",5650.57,21.96,TRADE
QLD1,"2009/04/12 10:30:00",5675.57,21.93,TRADE
QLD1,"2009/04/12 11:00:00",5636.55,21.85,TRADE
QLD1,"2009/04/12 11:30:00",5633.06,21.9,TRADE
QLD1,"2009/04/12 12:00:00",5620.55,21.87,TRADE
QLD1,"2009/04/12 12:30:00",5581.11,21.74,TRADE
QLD1,"2009/04/12 13:00:00",5575.88,21.87,TRADE
QLD1,"2009/04/12 13:30:00",5505.7,21.72,TRADE
QLD1,"2009/04/12 14:00:00",5443.71,21.52,TRADE
QLD1,"2009/04/12 14:30:00",5412.28,21.26,TRADE
QLD1,"2009/04/12 15:00:00",5388.56,21.29,TRADE
QLD1,"2009/04/12 15:30:00",5416.72,21.31,TRADE
QLD1,"2009/04/12 16:00:00",5485.54,21.97,TRADE
QLD1,"2009/04/12 16:30:00",5531.43,21.83,TRADE
QLD1,"2009/04/12 17:00:00",5609.24,21.89,TRADE
QLD1,"2009/04/12 17:30:00",5756.99,22.48,TRADE
QLD1,"2009/04/12 18:00:00",5970.04,28.4,TRADE
QLD1,"2009/04/12 18:30:00",6097.3,31.27,TRADE
QLD1,"2009/04/12 19:00:00",6041.26,30.35,TRADE
QLD1,"2009/04/12 19:30:00",5898.82,25.64,TRADE
QLD1,"2009/04/12 20:00:00",5773.61,22.98,TRADE
QLD1,"2009/04/12 20:30:00",5734.36,21.73,TRADE
QLD1,"2009/04/12 21:00:00",5666.39,21.22,TRADE
QLD1,"2009/04/12 21:30:00",5726.78,21.74,TRADE
QLD1,"2009/04/12 22:00:00",5527.53,20.53,TRADE
QLD1,"2009/04/12 22:30:00",5419.7,21.51,TRADE
QLD1,"2009/04/12 23:00:00",5408.06,21.63,TRADE
QLD1,"2009/04/12 23:30:00",5375.83,23.36,TRADE
QLD1,"2009/04/13 00:00:00",5211.96,21.31,TRADE
QLD1,"2009/04/13 00:30:00",5012.05,20.07,TRADE
QLD1,"2009/04/13 01:00:00",4847.11,18.12,TRADE
QLD1,"2009/04/13 01:30:00",4664.43,17.52,TRADE
QLD1,"2009/04/13 02:00:00",4571.56,15.34,TRADE
QLD1,"2009/04/13 02:30:00",4493.02,15.55,TRADE
QLD1,"2009/04/13 03:00:00",4495.56,15.53,TRADE
QLD1,"2009/04/13 03:30:00",4471.58,15,TRADE
QLD1,"2009/04/13 04:00:00",4447.57,14.99,TRADE
QLD1,"2009/04/13 04:30:00",4467.76,15.43,TRADE
QLD1,"2009/04/13 05:00:00",4493.26,14.44,TRADE
QLD1,"2009/04/13 05:30:00",4565.02,15.77,TRADE
QLD1,"2009/04/13 06:00:00",4580.57,14.72,TRADE
QLD1,"2009/04/13 06:30:00",4659.65,15.54,TRADE
QLD1,"2009/04/13 07:00:00",4825.53,16.24,TRADE
QLD1,"2009/04/13 07:30:00",5038.31,16.69,TRADE
QLD1,"2009/04/13 08:00:00",5285.16,17.82,TRADE
QLD1,"2009/04/13 08:30:00",5474.57,20.46,TRADE
QLD1,"2009/04/13 09:00:00",5649.36,21.31,TRADE
QLD1,"2009/04/13 09:30:00",5829.55,21.75,TRADE
QLD1,"2009/04/13 10:00:00",5898.83,21.9,TRADE
QLD1,"2009/04/13 10:30:00",5969.48,22.4,TRADE
QLD1,"2009/04/13 11:00:00",5985.55,22.16,TRADE
QLD1,"2009/04/13 11:30:00",5943.81,21.8,TRADE
QLD1,"2009/04/13 12:00:00",5964.78,22.11,TRADE
QLD1,"2009/04/13 12:30:00",5972.05,23.19,TRADE
QLD1,"2009/04/13 13:00:00",5971.87,23.19,TRADE
QLD1,"2009/04/13 13:30:00",5965.03,22.12,TRADE
QLD1,"2009/04/13 14:00:00",5935.66,21.64,TRADE
QLD1,"2009/04/13 14:30:00",5966.82,21.86,TRADE
QLD1,"2009/04/13 15:00:00",5949.92,21.86,TRADE
QLD1,"2009/04/13 15:30:00",5965.91,22.14,TRADE
QLD1,"2009/04/13 16:00:00",6015.05,22.53,TRADE
QLD1,"2009/04/13 16:30:00",6121.94,24.39,TRADE
QLD1,"2009/04/13 17:00:00",6267.35,27.67,TRADE
QLD1,"2009/04/13 17:30:00",6433.97,31.31,TRADE
QLD1,"2009/04/13 18:00:00",6609.15,37.14,TRADE
QLD1,"2009/04/13 18:30:00",6491.68,39.42,TRADE
QLD1,"2009/04/13 19:00:00",6326.7,33.72,TRADE
QLD1,"2009/04/13 19:30:00",6165.82,28.32,TRADE
QLD1,"2009/04/13 20:00:00",5988.63,20.78,TRADE
QLD1,"2009/04/13 20:30:00",5914.24,21.12,TRADE
QLD1,"2009/04/13 21:00:00",5827.08,21.53,TRADE
QLD1,"2009/04/13 21:30:00",5882.48,21.7,TRADE
QLD1,"2009/04/13 22:00:00",5671.61,20.88,TRADE
QLD1,"2009/04/13 22:30:00",5525.63,22.4,TRADE
QLD1,"2009/04/13 23:00:00",5421.14,21.86,TRADE
QLD1,"2009/04/13 23:30:00",5386.61,24.86,TRADE
QLD1,"2009/04/14 00:00:00",5241.95,21.46,TRADE
QLD1,"2009/04/14 00:30:00",5042.92,19.34,TRADE
QLD1,"2009/04/14 01:00:00",4908.29,18.44,TRADE
QLD1,"2009/04/14 01:30:00",4743.16,17.36,TRADE
QLD1,"2009/04/14 02:00:00",4605.63,15.07,TRADE
QLD1,"2009/04/14 02:30:00",4537.9,14.9,TRADE
QLD1,"2009/04/14 03:00:00",4528.77,13.6,TRADE
QLD1,"2009/04/14 03:30:00",4504.21,10.92,TRADE
QLD1,"2009/04/14 04:00:00",4505.77,9.84,TRADE
QLD1,"2009/04/14 04:30:00",4541.15,9.49,TRADE
QLD1,"2009/04/14 05:00:00",4625.24,13.86,TRADE
QLD1,"2009/04/14 05:30:00",4764.68,16.89,TRADE
QLD1,"2009/04/14 06:00:00",4997.29,18.92,TRADE
QLD1,"2009/04/14 06:30:00",5339.91,21.25,TRADE
QLD1,"2009/04/14 07:00:00",5700.44,21.77,TRADE
QLD1,"2009/04/14 07:30:00",6110.87,22.29,TRADE
QLD1,"2009/04/14 08:00:00",6369.32,23.39,TRADE
QLD1,"2009/04/14 08:30:00",6611.49,24.87,TRADE
QLD1,"2009/04/14 09:00:00",6778.45,28.87,TRADE
QLD1,"2009/04/14 09:30:00",6895,30.53,TRADE
QLD1,"2009/04/14 10:00:00",6863.42,32.13,TRADE
QLD1,"2009/04/14 10:30:00",6842.95,32.63,TRADE
QLD1,"2009/04/14 11:00:00",6870.82,37.88,TRADE
QLD1,"2009/04/14 11:30:00",6908.86,40.53,TRADE
QLD1,"2009/04/14 12:00:00",6914.63,43.51,TRADE
QLD1,"2009/04/14 12:30:00",6910.49,45.3,TRADE
QLD1,"2009/04/14 13:00:00",6887.51,40.86,TRADE
QLD1,"2009/04/14 13:30:00",6878.56,41.42,TRADE
QLD1,"2009/04/14 14:00:00",6866.62,41.9,TRADE
QLD1,"2009/04/14 14:30:00",6857.94,41.31,TRADE
QLD1,"2009/04/14 15:00:00",6860.75,41.02,TRADE
QLD1,"2009/04/14 15:30:00",6874.12,42.39,TRADE
QLD1,"2009/04/14 16:00:00",6879.9,38.61,TRADE
QLD1,"2009/04/14 16:30:00",6872.25,38.24,TRADE
QLD1,"2009/04/14 17:00:00",6899.48,35.37,TRADE
QLD1,"2009/04/14 17:30:00",6859.78,38.33,TRADE
QLD1,"2009/04/14 18:00:00",7033.98,43.73,TRADE
QLD1,"2009/04/14 18:30:00",7042.68,56.07,TRADE
QLD1,"2009/04/14 19:00:00",6895,43.54,TRADE
QLD1,"2009/04/14 19:30:00",6674.01,32.33,TRADE
QLD1,"2009/04/14 20:00:00",6479.29,29.36,TRADE
QLD1,"2009/04/14 20:30:00",6378.85,26.28,TRADE
QLD1,"2009/04/14 21:00:00",6243.17,24.39,TRADE
QLD1,"2009/04/14 21:30:00",6274.53,24.81,TRADE
QLD1,"2009/04/14 22:00:00",6032.63,21.72,TRADE
QLD1,"2009/04/14 22:30:00",5827.9,24.78,TRADE
QLD1,"2009/04/14 23:00:00",5706.43,25.51,TRADE
QLD1,"2009/04/14 23:30:00",5572.86,28.25,TRADE
QLD1,"2009/04/15 00:00:00",5381.17,24.04,TRADE
QLD1,"2009/04/15 00:30:00",5142.28,20.69,TRADE
QLD1,"2009/04/15 01:00:00",5002.45,20.77,TRADE
QLD1,"2009/04/15 01:30:00",4833.11,20.13,TRADE
QLD1,"2009/04/15 02:00:00",4697.97,18.3,TRADE
QLD1,"2009/04/15 02:30:00",4636.28,16.97,TRADE
QLD1,"2009/04/15 03:00:00",4588.47,16.88,TRADE
QLD1,"2009/04/15 03:30:00",4573.59,11.17,TRADE
QLD1,"2009/04/15 04:00:00",4573.58,11.41,TRADE
QLD1,"2009/04/15 04:30:00",4596.71,11.66,TRADE
QLD1,"2009/04/15 05:00:00",4644.26,14.15,TRADE
QLD1,"2009/04/15 05:30:00",4822.57,20.07,TRADE
QLD1,"2009/04/15 06:00:00",5025.18,21.53,TRADE
QLD1,"2009/04/15 06:30:00",5347.15,21.92,TRADE
QLD1,"2009/04/15 07:00:00",5709.35,22.06,TRADE
QLD1,"2009/04/15 07:30:00",6050.28,23.74,TRADE
QLD1,"2009/04/15 08:00:00",6337.9,27.08,TRADE
QLD1,"2009/04/15 08:30:00",6572.3,29.16,TRADE
QLD1,"2009/04/15 09:00:00",6746.02,34.99,TRADE
QLD1,"2009/04/15 09:30:00",6848.57,38.67,TRADE
QLD1,"2009/04/15 10:00:00",6894.98,43.37,TRADE
QLD1,"2009/04/15 10:30:00",6954.78,47.27,TRADE
QLD1,"2009/04/15 11:00:00",6964.49,47.37,TRADE
QLD1,"2009/04/15 11:30:00",6970.76,50.41,TRADE
QLD1,"2009/04/15 12:00:00",6981.37,47.18,TRADE
QLD1,"2009/04/15 12:30:00",6978.44,49.8,TRADE
QLD1,"2009/04/15 13:00:00",7013.33,45.86,TRADE
QLD1,"2009/04/15 13:30:00",7058.96,45.94,TRADE
QLD1,"2009/04/15 14:00:00",7063.6,46.22,TRADE
QLD1,"2009/04/15 14:30:00",7099.27,56.42,TRADE
QLD1,"2009/04/15 15:00:00",7095.6,51.99,TRADE
QLD1,"2009/04/15 15:30:00",7073.48,47.79,TRADE
QLD1,"2009/04/15 16:00:00",7066.05,44.03,TRADE
QLD1,"2009/04/15 16:30:00",7020.93,34.1,TRADE
QLD1,"2009/04/15 17:00:00",7004.51,39.07,TRADE
QLD1,"2009/04/15 17:30:00",6909.32,34.12,TRADE
QLD1,"2009/04/15 18:00:00",7016.72,45.14,TRADE
QLD1,"2009/04/15 18:30:00",7098.71,59.5,TRADE
QLD1,"2009/04/15 19:00:00",6961.66,53.23,TRADE
QLD1,"2009/04/15 19:30:00",6752.23,37.39,TRADE
QLD1,"2009/04/15 20:00:00",6545.26,32.96,TRADE
QLD1,"2009/04/15 20:30:00",6422.68,30.46,TRADE
QLD1,"2009/04/15 21:00:00",6309.22,28.81,TRADE
QLD1,"2009/04/15 21:30:00",6321.6,27.43,TRADE
QLD1,"2009/04/15 22:00:00",6105.57,22.38,TRADE
QLD1,"2009/04/15 22:30:00",5879.36,31.97,TRADE
QLD1,"2009/04/15 23:00:00",5732.18,29.98,TRADE
QLD1,"2009/04/15 23:30:00",5579.67,32.97,TRADE
QLD1,"2009/04/16 00:00:00",5392.05,30.28,TRADE
QLD1,"2009/04/16 00:30:00",5191.95,22.24,TRADE
QLD1,"2009/04/16 01:00:00",5000.14,20.64,TRADE
QLD1,"2009/04/16 01:30:00",4837.78,20.88,TRADE
QLD1,"2009/04/16 02:00:00",4720.56,19.06,TRADE
QLD1,"2009/04/16 02:30:00",4656.53,19.46,TRADE
QLD1,"2009/04/16 03:00:00",4580.12,17.26,TRADE
QLD1,"2009/04/16 03:30:00",4561.29,15.8,TRADE
QLD1,"2009/04/16 04:00:00",4571.09,16.13,TRADE
QLD1,"2009/04/16 04:30:00",4622.89,16.29,TRADE
QLD1,"2009/04/16 05:00:00",4695.72,17.49,TRADE
QLD1,"2009/04/16 05:30:00",4832.92,20.76,TRADE
QLD1,"2009/04/16 06:00:00",5079.23,20.92,TRADE
QLD1,"2009/04/16 06:30:00",5367.24,22.93,TRADE
QLD1,"2009/04/16 07:00:00",5685.93,23.26,TRADE
QLD1,"2009/04/16 07:30:00",6088.21,24.94,TRADE
QLD1,"2009/04/16 08:00:00",6372.6,27.88,TRADE
QLD1,"2009/04/16 08:30:00",6570.47,31.5,TRADE
QLD1,"2009/04/16 09:00:00",6734.65,33.34,TRADE
QLD1,"2009/04/16 09:30:00",6826.59,39.34,TRADE
QLD1,"2009/04/16 10:00:00",6867.82,49.73,TRADE
QLD1,"2009/04/16 10:30:00",6870.58,45.72,TRADE
QLD1,"2009/04/16 11:00:00",6939.81,40.96,TRADE
QLD1,"2009/04/16 11:30:00",6924.39,40.61,TRADE
QLD1,"2009/04/16 12:00:00",6948.02,42.12,TRADE
QLD1,"2009/04/16 12:30:00",6924.09,41.37,TRADE
QLD1,"2009/04/16 13:00:00",6900.56,39.56,TRADE
QLD1,"2009/04/16 13:30:00",6911.08,37.44,TRADE
QLD1,"2009/04/16 14:00:00",6884.78,36.64,TRADE
QLD1,"2009/04/16 14:30:00",6937.36,37.86,TRADE
QLD1,"2009/04/16 15:00:00",6930.89,33.61,TRADE
QLD1,"2009/04/16 15:30:00",6945.61,35.64,TRADE
QLD1,"2009/04/16 16:00:00",6866.91,34.19,TRADE
QLD1,"2009/04/16 16:30:00",6855.62,31.29,TRADE
QLD1,"2009/04/16 17:00:00",6795.53,32.34,TRADE
QLD1,"2009/04/16 17:30:00",6752.57,35.83,TRADE
QLD1,"2009/04/16 18:00:00",6956.31,55.19,TRADE
QLD1,"2009/04/16 18:30:00",6975.37,67.56,TRADE
QLD1,"2009/04/16 19:00:00",6873.12,55.05,TRADE
QLD1,"2009/04/16 19:30:00",6653.25,40.38,TRADE
QLD1,"2009/04/16 20:00:00",6490.21,35.36,TRADE
QLD1,"2009/04/16 20:30:00",6337.36,32.12,TRADE
QLD1,"2009/04/16 21:00:00",6238.54,28.51,TRADE
QLD1,"2009/04/16 21:30:00",6176.76,23.46,TRADE
QLD1,"2009/04/16 22:00:00",5951.4,22.59,TRADE
QLD1,"2009/04/16 22:30:00",5744.57,27.64,TRADE
QLD1,"2009/04/16 23:00:00",5609.23,24.72,TRADE
QLD1,"2009/04/16 23:30:00",5492.21,28.26,TRADE
QLD1,"2009/04/17 00:00:00",5291.24,24.68,TRADE
QLD1,"2009/04/17 00:30:00",5058.79,20.83,TRADE
QLD1,"2009/04/17 01:00:00",4891.18,20.77,TRADE
QLD1,"2009/04/17 01:30:00",4713.91,19.5,TRADE
QLD1,"2009/04/17 02:00:00",4591.9,18.15,TRADE
QLD1,"2009/04/17 02:30:00",4566.3,17.88,TRADE
QLD1,"2009/04/17 03:00:00",4530.95,17.58,TRADE
QLD1,"2009/04/17 03:30:00",4498.23,15.43,TRADE
QLD1,"2009/04/17 04:00:00",4487.79,15.72,TRADE
QLD1,"2009/04/17 04:30:00",4549.06,15.92,TRADE
QLD1,"2009/04/17 05:00:00",4636.23,18.57,TRADE
QLD1,"2009/04/17 05:30:00",4793.94,20.35,TRADE
QLD1,"2009/04/17 06:00:00",4996.29,21.04,TRADE
QLD1,"2009/04/17 06:30:00",5274.14,22.04,TRADE
QLD1,"2009/04/17 07:00:00",5608.83,22.95,TRADE
QLD1,"2009/04/17 07:30:00",5942.28,24.49,TRADE
QLD1,"2009/04/17 08:00:00",6248.32,31.47,TRADE
QLD1,"2009/04/17 08:30:00",6407.74,34.64,TRADE
QLD1,"2009/04/17 09:00:00",6538.68,35.95,TRADE
QLD1,"2009/04/17 09:30:00",6587.7,42.61,TRADE
QLD1,"2009/04/17 10:00:00",6636.81,46.19,TRADE
QLD1,"2009/04/17 10:30:00",6669.15,45.24,TRADE
QLD1,"2009/04/17 11:00:00",6695.09,43.57,TRADE
QLD1,"2009/04/17 11:30:00",6716.79,45.06,TRADE
QLD1,"2009/04/17 12:00:00",6746.13,45.25,TRADE
QLD1,"2009/04/17 12:30:00",6762.26,44.96,TRADE
QLD1,"2009/04/17 13:00:00",6795.44,43.33,TRADE
QLD1,"2009/04/17 13:30:00",6791.5,41.27,TRADE
QLD1,"2009/04/17 14:00:00",6815.87,42.84,TRADE
QLD1,"2009/04/17 14:30:00",6833.24,42.72,TRADE
QLD1,"2009/04/17 15:00:00",6774.79,38.19,TRADE
QLD1,"2009/04/17 15:30:00",6788.03,38.5,TRADE
QLD1,"2009/04/17 16:00:00",6765.99,34.62,TRADE
QLD1,"2009/04/17 16:30:00",6757.92,33.85,TRADE
QLD1,"2009/04/17 17:00:00",6677.88,32.69,TRADE
QLD1,"2009/04/17 17:30:00",6632.07,33.59,TRADE
QLD1,"2009/04/17 18:00:00",6735.06,41.44,TRADE
QLD1,"2009/04/17 18:30:00",6705.38,41.63,TRADE
QLD1,"2009/04/17 19:00:00",6534.82,35.73,TRADE
QLD1,"2009/04/17 19:30:00",6309.88,30.97,TRADE
QLD1,"2009/04/17 20:00:00",6157.32,30.15,TRADE
QLD1,"2009/04/17 20:30:00",6048.69,29.43,TRADE
QLD1,"2009/04/17 21:00:00",5976.87,28.05,TRADE
QLD1,"2009/04/17 21:30:00",6011.12,26.91,TRADE
QLD1,"2009/04/17 22:00:00",5855.61,23.8,TRADE
QLD1,"2009/04/17 22:30:00",5676.07,32.98,TRADE
QLD1,"2009/04/17 23:00:00",5584.6,32.75,TRADE
QLD1,"2009/04/17 23:30:00",5480.43,46.89,TRADE
QLD1,"2009/04/18 00:00:00",5315.38,42.51,TRADE
QLD1,"2009/04/18 00:30:00",5083.62,26.94,TRADE
QLD1,"2009/04/18 01:00:00",4954.31,24.98,TRADE
QLD1,"2009/04/18 01:30:00",4754.52,24.64,TRADE
QLD1,"2009/04/18 02:00:00",4584.88,19.51,TRADE
QLD1,"2009/04/18 02:30:00",4532.05,20.41,TRADE
QLD1,"2009/04/18 03:00:00",4466.76,20.25,TRADE
QLD1,"2009/04/18 03:30:00",4450.24,18.81,TRADE
QLD1,"2009/04/18 04:00:00",4431.92,18.52,TRADE
QLD1,"2009/04/18 04:30:00",4460.54,16.39,TRADE
QLD1,"2009/04/18 05:00:00",4478.57,17.24,TRADE
QLD1,"2009/04/18 05:30:00",4543.7,19.33,TRADE
QLD1,"2009/04/18 06:00:00",4630.72,18.92,TRADE
QLD1,"2009/04/18 06:30:00",4726.22,20.64,TRADE
QLD1,"2009/04/18 07:00:00",4937.66,21.52,TRADE
QLD1,"2009/04/18 07:30:00",5222.43,23.25,TRADE
QLD1,"2009/04/18 08:00:00",5422.85,23.35,TRADE
QLD1,"2009/04/18 08:30:00",5673.91,28.69,TRADE
QLD1,"2009/04/18 09:00:00",5874.34,32.31,TRADE
QLD1,"2009/04/18 09:30:00",5962.2,36.52,TRADE
QLD1,"2009/04/18 10:00:00",6005.56,36.32,TRADE
QLD1,"2009/04/18 10:30:00",6017.04,36.59,TRADE
QLD1,"2009/04/18 11:00:00",5998.19,36.31,TRADE
QLD1,"2009/04/18 11:30:00",5958.45,34.21,TRADE
QLD1,"2009/04/18 12:00:00",5976.04,32.97,TRADE
QLD1,"2009/04/18 12:30:00",5919.44,32.62,TRADE
QLD1,"2009/04/18 13:00:00",5933.64,32.57,TRADE
QLD1,"2009/04/18 13:30:00",5930.73,32.09,TRADE
QLD1,"2009/04/18 14:00:00",5934.72,29.61,TRADE
QLD1,"2009/04/18 14:30:00",5959.26,29.71,TRADE
QLD1,"2009/04/18 15:00:00",5921.15,27.55,TRADE
QLD1,"2009/04/18 15:30:00",5925.58,28.02,TRADE
QLD1,"2009/04/18 16:00:00",5967.74,26.24,TRADE
QLD1,"2009/04/18 16:30:00",5967.5,26.23,TRADE
QLD1,"2009/04/18 17:00:00",5985.38,30.47,TRADE
QLD1,"2009/04/18 17:30:00",6057.61,30.55,TRADE
QLD1,"2009/04/18 18:00:00",6223.12,42.23,TRADE
QLD1,"2009/04/18 18:30:00",6283.44,60.01,TRADE
QLD1,"2009/04/18 19:00:00",6180.9,48.23,TRADE
QLD1,"2009/04/18 19:30:00",6005.58,33.61,TRADE
QLD1,"2009/04/18 20:00:00",5864.96,32.12,TRADE
QLD1,"2009/04/18 20:30:00",5796.01,33.29,TRADE
QLD1,"2009/04/18 21:00:00",5742.4,34.59,TRADE
QLD1,"2009/04/18 21:30:00",5757.62,32.39,TRADE
QLD1,"2009/04/18 22:00:00",5553.94,27.26,TRADE
QLD1,"2009/04/18 22:30:00",5470.38,31.67,TRADE
QLD1,"2009/04/18 23:00:00",5414.17,32.89,TRADE
QLD1,"2009/04/18 23:30:00",5370.37,33.66,TRADE
QLD1,"2009/04/19 00:00:00",5230.43,32.76,TRADE
QLD1,"2009/04/19 00:30:00",5004.62,23.04,TRADE
QLD1,"2009/04/19 01:00:00",4860.28,22.05,TRADE
QLD1,"2009/04/19 01:30:00",4698.66,22.94,TRADE
QLD1,"2009/04/19 02:00:00",4558.64,21.36,TRADE
QLD1,"2009/04/19 02:30:00",4455.2,20.91,TRADE
QLD1,"2009/04/19 03:00:00",4402.6,21.08,TRADE
QLD1,"2009/04/19 03:30:00",4375.08,20.07,TRADE
QLD1,"2009/04/19 04:00:00",4337.15,19.13,TRADE
QLD1,"2009/04/19 04:30:00",4354.49,18.13,TRADE
QLD1,"2009/04/19 05:00:00",4379.22,19.01,TRADE
QLD1,"2009/04/19 05:30:00",4439.3,19.66,TRADE
QLD1,"2009/04/19 06:00:00",4479.85,19.46,TRADE
QLD1,"2009/04/19 06:30:00",4500.84,17.08,TRADE
QLD1,"2009/04/19 07:00:00",4657.22,19.34,TRADE
QLD1,"2009/04/19 07:30:00",4873.56,21.72,TRADE
QLD1,"2009/04/19 08:00:00",5116.58,22.47,TRADE
QLD1,"2009/04/19 08:30:00",5383.26,24.18,TRADE
QLD1,"2009/04/19 09:00:00",5554.18,24.18,TRADE
QLD1,"2009/04/19 09:30:00",5638.58,30.23,TRADE
QLD1,"2009/04/19 10:00:00",5734.55,32.72,TRADE
QLD1,"2009/04/19 10:30:00",5793.76,32.9,TRADE
QLD1,"2009/04/19 11:00:00",5740.86,32.42,TRADE
QLD1,"2009/04/19 11:30:00",5782.72,32.5,TRADE
QLD1,"2009/04/19 12:00:00",5770.05,32.16,TRADE
QLD1,"2009/04/19 12:30:00",5790.11,32.47,TRADE
QLD1,"2009/04/19 13:00:00",5768.79,31.83,TRADE
QLD1,"2009/04/19 13:30:00",5779.72,31.1,TRADE
QLD1,"2009/04/19 14:00:00",5743.6,29.71,TRADE
QLD1,"2009/04/19 14:30:00",5770.46,25,TRADE
QLD1,"2009/04/19 15:00:00",5737.41,23.64,TRADE
QLD1,"2009/04/19 15:30:00",5751.2,24.02,TRADE
QLD1,"2009/04/19 16:00:00",5764.12,25.8,TRADE
QLD1,"2009/04/19 16:30:00",5804.62,28.48,TRADE
QLD1,"2009/04/19 17:00:00",5858.63,30.17,TRADE
QLD1,"2009/04/19 17:30:00",5961.51,32.61,TRADE
QLD1,"2009/04/19 18:00:00",6294.91,54.12,TRADE
QLD1,"2009/04/19 18:30:00",6405.67,76.74,TRADE
QLD1,"2009/04/19 19:00:00",6292.52,65.26,TRADE
QLD1,"2009/04/19 19:30:00",6089.97,51.71,TRADE
QLD1,"2009/04/19 20:00:00",5958.47,35.8,TRADE
QLD1,"2009/04/19 20:30:00",5844.54,33.78,TRADE
QLD1,"2009/04/19 21:00:00",5753.25,30.39,TRADE
QLD1,"2009/04/19 21:30:00",5786.02,29.96,TRADE
QLD1,"2009/04/19 22:00:00",5622.1,24.76,TRADE
QLD1,"2009/04/19 22:30:00",5427.21,29.07,TRADE
QLD1,"2009/04/19 23:00:00",5356.94,23.65,TRADE
QLD1,"2009/04/19 23:30:00",5301.21,26.84,TRADE
QLD1,"2009/04/20 00:00:00",5119.19,23.88,TRADE
QLD1,"2009/04/20 00:30:00",4919.24,21.72,TRADE
QLD1,"2009/04/20 01:00:00",4736.56,21.45,TRADE
QLD1,"2009/04/20 01:30:00",4637.73,21.43,TRADE
QLD1,"2009/04/20 02:00:00",4518.61,20.19,TRADE
QLD1,"2009/04/20 02:30:00",4441.28,20.33,TRADE
QLD1,"2009/04/20 03:00:00",4437.48,19.08,TRADE
QLD1,"2009/04/20 03:30:00",4462.37,17.52,TRADE
QLD1,"2009/04/20 04:00:00",4423.44,16.52,TRADE
QLD1,"2009/04/20 04:30:00",4460.49,17.22,TRADE
QLD1,"2009/04/20 05:00:00",4547.77,20,TRADE
QLD1,"2009/04/20 05:30:00",4754.59,21.57,TRADE
QLD1,"2009/04/20 06:00:00",4970.99,21.8,TRADE
QLD1,"2009/04/20 06:30:00",5308.16,24.39,TRADE
QLD1,"2009/04/20 07:00:00",5664.72,28,TRADE
QLD1,"2009/04/20 07:30:00",6050.83,29.59,TRADE
QLD1,"2009/04/20 08:00:00",6302.49,46.16,TRADE
QLD1,"2009/04/20 08:30:00",6475.82,61.35,TRADE
QLD1,"2009/04/20 09:00:00",6591.66,61.5,TRADE
QLD1,"2009/04/20 09:30:00",6647.82,66.28,TRADE
QLD1,"2009/04/20 10:00:00",6564.08,65.02,TRADE
QLD1,"2009/04/20 10:30:00",6651.83,65.26,TRADE
QLD1,"2009/04/20 11:00:00",6700.52,64.26,TRADE
QLD1,"2009/04/20 11:30:00",6683.96,53.92,TRADE
QLD1,"2009/04/20 12:00:00",6711.54,57.11,TRADE
QLD1,"2009/04/20 12:30:00",6745.35,58.06,TRADE
QLD1,"2009/04/20 13:00:00",6786.53,57.2,TRADE
QLD1,"2009/04/20 13:30:00",6811.51,59.9,TRADE
QLD1,"2009/04/20 14:00:00",6826.89,55.43,TRADE
QLD1,"2009/04/20 14:30:00",6861.61,51.98,TRADE
QLD1,"2009/04/20 15:00:00",6784.89,43.36,TRADE
QLD1,"2009/04/20 15:30:00",6806.66,43.78,TRADE
QLD1,"2009/04/20 16:00:00",6785.93,41.18,TRADE
QLD1,"2009/04/20 16:30:00",6799.5,39.54,TRADE
QLD1,"2009/04/20 17:00:00",6762.14,41.74,TRADE
QLD1,"2009/04/20 17:30:00",6769.48,44.15,TRADE
QLD1,"2009/04/20 18:00:00",6950.36,70.07,TRADE
QLD1,"2009/04/20 18:30:00",6907.37,80.49,TRADE
QLD1,"2009/04/20 19:00:00",6761.9,60.79,TRADE
QLD1,"2009/04/20 19:30:00",6528.25,38.61,TRADE
QLD1,"2009/04/20 20:00:00",6396.46,37.65,TRADE
QLD1,"2009/04/20 20:30:00",6267.55,40.81,TRADE
QLD1,"2009/04/20 21:00:00",6158.62,35.56,TRADE
QLD1,"2009/04/20 21:30:00",6133.4,32.41,TRADE
QLD1,"2009/04/20 22:00:00",5948.49,28.59,TRADE
QLD1,"2009/04/20 22:30:00",5710.63,33.21,TRADE
QLD1,"2009/04/20 23:00:00",5601.38,32.77,TRADE
QLD1,"2009/04/20 23:30:00",5506.4,36.87,TRADE
QLD1,"2009/04/21 00:00:00",5284.43,30.62,TRADE
QLD1,"2009/04/21 00:30:00",5036.95,25.17,TRADE
QLD1,"2009/04/21 01:00:00",4856.91,21.26,TRADE
QLD1,"2009/04/21 01:30:00",4716.43,21.51,TRADE
QLD1,"2009/04/21 02:00:00",4598.34,19.96,TRADE
QLD1,"2009/04/21 02:30:00",4516.88,19.7,TRADE
QLD1,"2009/04/21 03:00:00",4500.91,17.1,TRADE
QLD1,"2009/04/21 03:30:00",4474.77,13.99,TRADE
QLD1,"2009/04/21 04:00:00",4477.41,12.08,TRADE
QLD1,"2009/04/21 04:30:00",4558.58,19.65,TRADE
QLD1,"2009/04/21 05:00:00",4617.51,17.56,TRADE
QLD1,"2009/04/21 05:30:00",4813.89,20.71,TRADE
QLD1,"2009/04/21 06:00:00",4999.32,21.9,TRADE
QLD1,"2009/04/21 06:30:00",5356.36,28.22,TRADE
QLD1,"2009/04/21 07:00:00",5754.04,39.66,TRADE
QLD1,"2009/04/21 07:30:00",6185.31,35.54,TRADE
QLD1,"2009/04/21 08:00:00",6393.4,51.71,TRADE
QLD1,"2009/04/21 08:30:00",6423.33,50.1,TRADE
QLD1,"2009/04/21 09:00:00",6477.69,42.18,TRADE
QLD1,"2009/04/21 09:30:00",6515.73,42.29,TRADE
QLD1,"2009/04/21 10:00:00",6492.62,46.57,TRADE
QLD1,"2009/04/21 10:30:00",6544.43,44.65,TRADE
QLD1,"2009/04/21 11:00:00",6635.7,49.76,TRADE
QLD1,"2009/04/21 11:30:00",6674.04,50.15,TRADE
QLD1,"2009/04/21 12:00:00",6651.81,52.22,TRADE
QLD1,"2009/04/21 12:30:00",6660.25,65.17,TRADE
QLD1,"2009/04/21 13:00:00",6676.36,56.71,TRADE
QLD1,"2009/04/21 13:30:00",6673.45,47.8,TRADE
QLD1,"2009/04/21 14:00:00",6664.64,46.57,TRADE
QLD1,"2009/04/21 14:30:00",6649.46,48.92,TRADE
QLD1,"2009/04/21 15:00:00",6596.24,43.56,TRADE
QLD1,"2009/04/21 15:30:00",6536.28,43.16,TRADE
QLD1,"2009/04/21 16:00:00",6528.67,40.86,TRADE
QLD1,"2009/04/21 16:30:00",6559.21,40.53,TRADE
QLD1,"2009/04/21 17:00:00",6576.14,44.26,TRADE
QLD1,"2009/04/21 17:30:00",6605.3,62.42,TRADE
QLD1,"2009/04/21 18:00:00",6766.53,131.01,TRADE
QLD1,"2009/04/21 18:30:00",6772.15,109.33,TRADE
QLD1,"2009/04/21 19:00:00",6644.14,69.76,TRADE
QLD1,"2009/04/21 19:30:00",6505.74,65.98,TRADE
QLD1,"2009/04/21 20:00:00",6363.71,59.18,TRADE
QLD1,"2009/04/21 20:30:00",6259,59.45,TRADE
QLD1,"2009/04/21 21:00:00",6153.85,52.04,TRADE
QLD1,"2009/04/21 21:30:00",6129.57,45.7,TRADE
QLD1,"2009/04/21 22:00:00",5926.54,33.02,TRADE
QLD1,"2009/04/21 22:30:00",5768.1,45.7,TRADE
QLD1,"2009/04/21 23:00:00",5609.01,39.1,TRADE
QLD1,"2009/04/21 23:30:00",5462.23,44.72,TRADE
QLD1,"2009/04/22 00:00:00",5234.56,34.28,TRADE
QLD1,"2009/04/22 00:30:00",5008.37,24.61,TRADE
QLD1,"2009/04/22 01:00:00",4818.67,21.2,TRADE
QLD1,"2009/04/22 01:30:00",4674.03,21.53,TRADE
QLD1,"2009/04/22 02:00:00",4577.63,20.41,TRADE
QLD1,"2009/04/22 02:30:00",4522.89,20.6,TRADE
QLD1,"2009/04/22 03:00:00",4506.65,19.39,TRADE
QLD1,"2009/04/22 03:30:00",4465.55,17.57,TRADE
QLD1,"2009/04/22 04:00:00",4440.8,15.69,TRADE
QLD1,"2009/04/22 04:30:00",4468.8,14.24,TRADE
QLD1,"2009/04/22 05:00:00",4549.48,19.37,TRADE
QLD1,"2009/04/22 05:30:00",4708.15,20.75,TRADE
QLD1,"2009/04/22 06:00:00",4949.25,21.67,TRADE
QLD1,"2009/04/22 06:30:00",5304.21,28.01,TRADE
QLD1,"2009/04/22 07:00:00",5718.32,36.3,TRADE
QLD1,"2009/04/22 07:30:00",6132.87,36.86,TRADE
QLD1,"2009/04/22 08:00:00",6317.7,46.55,TRADE
QLD1,"2009/04/22 08:30:00",6367.26,43.84,TRADE
QLD1,"2009/04/22 09:00:00",6398.59,42.62,TRADE
QLD1,"2009/04/22 09:30:00",6424.93,45.48,TRADE
QLD1,"2009/04/22 10:00:00",6447.82,46.55,TRADE
QLD1,"2009/04/22 10:30:00",6448.71,47.91,TRADE
QLD1,"2009/04/22 11:00:00",6465.24,45.86,TRADE
QLD1,"2009/04/22 11:30:00",6486.69,46.13,TRADE
QLD1,"2009/04/22 12:00:00",6494.05,47.16,TRADE
QLD1,"2009/04/22 12:30:00",6470.17,47,TRADE
QLD1,"2009/04/22 13:00:00",6478.42,45.09,TRADE
QLD1,"2009/04/22 13:30:00",6475.77,46.94,TRADE
QLD1,"2009/04/22 14:00:00",6486.53,43.78,TRADE
QLD1,"2009/04/22 14:30:00",6562.49,58.9,TRADE
QLD1,"2009/04/22 15:00:00",6542.82,48.93,TRADE
QLD1,"2009/04/22 15:30:00",6524.31,41.38,TRADE
QLD1,"2009/04/22 16:00:00",6507.39,41.07,TRADE
QLD1,"2009/04/22 16:30:00",6528.05,39.08,TRADE
QLD1,"2009/04/22 17:00:00",6576.76,39.13,TRADE
QLD1,"2009/04/22 17:30:00",6598.1,42.81,TRADE
QLD1,"2009/04/22 18:00:00",6829.52,55.89,TRADE
QLD1,"2009/04/22 18:30:00",6831.76,69.73,TRADE
QLD1,"2009/04/22 19:00:00",6676.51,47.14,TRADE
QLD1,"2009/04/22 19:30:00",6473.73,35.57,TRADE
QLD1,"2009/04/22 20:00:00",6277.33,34.77,TRADE
QLD1,"2009/04/22 20:30:00",6172.96,36.49,TRADE
QLD1,"2009/04/22 21:00:00",6061.02,32.1,TRADE
QLD1,"2009/04/22 21:30:00",6087.46,32.76,TRADE
QLD1,"2009/04/22 22:00:00",5900.4,26.18,TRADE
QLD1,"2009/04/22 22:30:00",5667.83,29.1,TRADE
QLD1,"2009/04/22 23:00:00",5554.69,28.82,TRADE
QLD1,"2009/04/22 23:30:00",5405.04,28.79,TRADE
QLD1,"2009/04/23 00:00:00",5214.41,26.68,TRADE
QLD1,"2009/04/23 00:30:00",5040.57,21.51,TRADE
QLD1,"2009/04/23 01:00:00",4844.01,21.11,TRADE
QLD1,"2009/04/23 01:30:00",4694.52,21.07,TRADE
QLD1,"2009/04/23 02:00:00",4607.84,18.71,TRADE
QLD1,"2009/04/23 02:30:00",4482.07,17.53,TRADE
QLD1,"2009/04/23 03:00:00",4439.24,16.28,TRADE
QLD1,"2009/04/23 03:30:00",4425.58,14.65,TRADE
QLD1,"2009/04/23 04:00:00",4450.3,14.54,TRADE
QLD1,"2009/04/23 04:30:00",4471.91,12.69,TRADE
QLD1,"2009/04/23 05:00:00",4552.55,13.53,TRADE
QLD1,"2009/04/23 05:30:00",4778.95,16.05,TRADE
QLD1,"2009/04/23 06:00:00",5042.54,18.18,TRADE
QLD1,"2009/04/23 06:30:00",5388.23,22.51,TRADE
QLD1,"2009/04/23 07:00:00",5785.52,25.78,TRADE
QLD1,"2009/04/23 07:30:00",6173.83,29.39,TRADE
QLD1,"2009/04/23 08:00:00",6381.96,36.46,TRADE
QLD1,"2009/04/23 08:30:00",6442.91,39.48,TRADE
QLD1,"2009/04/23 09:00:00",6430.99,39.21,TRADE
QLD1,"2009/04/23 09:30:00",6458.37,42.09,TRADE
QLD1,"2009/04/23 10:00:00",6458.04,41.66,TRADE
QLD1,"2009/04/23 10:30:00",6474.74,40.77,TRADE
QLD1,"2009/04/23 11:00:00",6504.75,36.3,TRADE
QLD1,"2009/04/23 11:30:00",6510.92,32.06,TRADE
QLD1,"2009/04/23 12:00:00",6533.1,32.65,TRADE
QLD1,"2009/04/23 12:30:00",6554.81,31.64,TRADE
QLD1,"2009/04/23 13:00:00",6540.99,30.15,TRADE
QLD1,"2009/04/23 13:30:00",6551.65,29.99,TRADE
QLD1,"2009/04/23 14:00:00",6572.25,30.19,TRADE
QLD1,"2009/04/23 14:30:00",6603.67,30.25,TRADE
QLD1,"2009/04/23 15:00:00",6555.19,32.25,TRADE
QLD1,"2009/04/23 15:30:00",6557.67,32.74,TRADE
QLD1,"2009/04/23 16:00:00",6552.62,29.71,TRADE
QLD1,"2009/04/23 16:30:00",6570.18,31.29,TRADE
QLD1,"2009/04/23 17:00:00",6566.35,29.65,TRADE
QLD1,"2009/04/23 17:30:00",6559.42,29.35,TRADE
QLD1,"2009/04/23 18:00:00",6824.74,40.8,TRADE
QLD1,"2009/04/23 18:30:00",6868.03,40.51,TRADE
QLD1,"2009/04/23 19:00:00",6753.59,34.02,TRADE
QLD1,"2009/04/23 19:30:00",6540.52,33.26,TRADE
QLD1,"2009/04/23 20:00:00",6394.61,29.92,TRADE
QLD1,"2009/04/23 20:30:00",6309.62,30.14,TRADE
QLD1,"2009/04/23 21:00:00",6232.95,28.87,TRADE
QLD1,"2009/04/23 21:30:00",6151.2,24.71,TRADE
QLD1,"2009/04/23 22:00:00",5895.91,21.26,TRADE
QLD1,"2009/04/23 22:30:00",5703.01,22.95,TRADE
QLD1,"2009/04/23 23:00:00",5581.52,21.58,TRADE
QLD1,"2009/04/23 23:30:00",5470.21,25.48,TRADE
QLD1,"2009/04/24 00:00:00",5253.19,21.16,TRADE
QLD1,"2009/04/24 00:30:00",5081.07,20.64,TRADE
QLD1,"2009/04/24 01:00:00",4894.79,19.88,TRADE
QLD1,"2009/04/24 01:30:00",4726.23,19,TRADE
QLD1,"2009/04/24 02:00:00",4612.81,16.1,TRADE
QLD1,"2009/04/24 02:30:00",4530.7,14.42,TRADE
QLD1,"2009/04/24 03:00:00",4520.24,15.32,TRADE
QLD1,"2009/04/24 03:30:00",4479.48,14.17,TRADE
QLD1,"2009/04/24 04:00:00",4485.37,13.21,TRADE
QLD1,"2009/04/24 04:30:00",4544.75,14,TRADE
QLD1,"2009/04/24 05:00:00",4629.64,14.13,TRADE
QLD1,"2009/04/24 05:30:00",4798.95,18.18,TRADE
QLD1,"2009/04/24 06:00:00",5048.79,19.27,TRADE
QLD1,"2009/04/24 06:30:00",5409.64,21.92,TRADE
QLD1,"2009/04/24 07:00:00",5831.89,27.08,TRADE
QLD1,"2009/04/24 07:30:00",6201.12,25.53,TRADE
QLD1,"2009/04/24 08:00:00",6379.58,36.08,TRADE
QLD1,"2009/04/24 08:30:00",6459.05,41.42,TRADE
QLD1,"2009/04/24 09:00:00",6447.14,41.74,TRADE
QLD1,"2009/04/24 09:30:00",6489.75,42.18,TRADE
QLD1,"2009/04/24 10:00:00",6490.28,39.46,TRADE
QLD1,"2009/04/24 10:30:00",6545.27,41.03,TRADE
QLD1,"2009/04/24 11:00:00",6564.81,35.16,TRADE
QLD1,"2009/04/24 11:30:00",6564.65,34.62,TRADE
QLD1,"2009/04/24 12:00:00",6573.63,36.24,TRADE
QLD1,"2009/04/24 12:30:00",6601.79,37.98,TRADE
QLD1,"2009/04/24 13:00:00",6628.36,37.18,TRADE
QLD1,"2009/04/24 13:30:00",6613.02,36.71,TRADE
QLD1,"2009/04/24 14:00:00",6607.29,36.15,TRADE
QLD1,"2009/04/24 14:30:00",6624.59,35.68,TRADE
QLD1,"2009/04/24 15:00:00",6579.72,34.33,TRADE
QLD1,"2009/04/24 15:30:00",6555.24,32.56,TRADE
QLD1,"2009/04/24 16:00:00",6510.63,32.16,TRADE
QLD1,"2009/04/24 16:30:00",6483.03,32.33,TRADE
QLD1,"2009/04/24 17:00:00",6474.31,34.47,TRADE
QLD1,"2009/04/24 17:30:00",6456.03,34.91,TRADE
QLD1,"2009/04/24 18:00:00",6607.55,41.5,TRADE
QLD1,"2009/04/24 18:30:00",6557.05,39.79,TRADE
QLD1,"2009/04/24 19:00:00",6437.85,34.09,TRADE
QLD1,"2009/04/24 19:30:00",6255.56,25.8,TRADE
QLD1,"2009/04/24 20:00:00",6132.35,24.71,TRADE
QLD1,"2009/04/24 20:30:00",6022.58,27.49,TRADE
QLD1,"2009/04/24 21:00:00",5936.99,23.66,TRADE
QLD1,"2009/04/24 21:30:00",5963.41,24.67,TRADE
QLD1,"2009/04/24 22:00:00",5790.62,21.61,TRADE
QLD1,"2009/04/24 22:30:00",5646.19,28.58,TRADE
QLD1,"2009/04/24 23:00:00",5564.55,25.8,TRADE
QLD1,"2009/04/24 23:30:00",5470.77,27.13,TRADE
QLD1,"2009/04/25 00:00:00",5251.98,23.4,TRADE
QLD1,"2009/04/25 00:30:00",5023.55,20.55,TRADE
QLD1,"2009/04/25 01:00:00",4854.31,20.59,TRADE
QLD1,"2009/04/25 01:30:00",4681.03,20.47,TRADE
QLD1,"2009/04/25 02:00:00",4557.02,18.79,TRADE
QLD1,"2009/04/25 02:30:00",4476.06,18.08,TRADE
QLD1,"2009/04/25 03:00:00",4425.91,17.19,TRADE
QLD1,"2009/04/25 03:30:00",4392.78,15.1,TRADE
QLD1,"2009/04/25 04:00:00",4368.6,14.98,TRADE
QLD1,"2009/04/25 04:30:00",4398.23,17.19,TRADE
QLD1,"2009/04/25 05:00:00",4452.35,19.87,TRADE
QLD1,"2009/04/25 05:30:00",4493.93,17.35,TRADE
QLD1,"2009/04/25 06:00:00",4525.97,15.47,TRADE
QLD1,"2009/04/25 06:30:00",4546.13,15.64,TRADE
QLD1,"2009/04/25 07:00:00",4687.06,15.74,TRADE
QLD1,"2009/04/25 07:30:00",4910.39,16.63,TRADE
QLD1,"2009/04/25 08:00:00",5067.72,19.86,TRADE
QLD1,"2009/04/25 08:30:00",5298.57,21.65,TRADE
QLD1,"2009/04/25 09:00:00",5431.55,21.86,TRADE
QLD1,"2009/04/25 09:30:00",5492.13,22.32,TRADE
QLD1,"2009/04/25 10:00:00",5546.14,21.54,TRADE
QLD1,"2009/04/25 10:30:00",5575.05,21.45,TRADE
QLD1,"2009/04/25 11:00:00",5537.12,21.5,TRADE
QLD1,"2009/04/25 11:30:00",5526.6,21.86,TRADE
QLD1,"2009/04/25 12:00:00",5571.83,22.23,TRADE
QLD1,"2009/04/25 12:30:00",5542.1,22.18,TRADE
QLD1,"2009/04/25 13:00:00",5580.77,21.91,TRADE
QLD1,"2009/04/25 13:30:00",5592.5,22.04,TRADE
QLD1,"2009/04/25 14:00:00",5577.55,21.32,TRADE
QLD1,"2009/04/25 14:30:00",5611.18,21.58,TRADE
QLD1,"2009/04/25 15:00:00",5633.97,21.39,TRADE
QLD1,"2009/04/25 15:30:00",5692.5,21.98,TRADE
QLD1,"2009/04/25 16:00:00",5730.24,21.96,TRADE
QLD1,"2009/04/25 16:30:00",5749.19,22.06,TRADE
QLD1,"2009/04/25 17:00:00",5832.02,25.67,TRADE
QLD1,"2009/04/25 17:30:00",5949.3,33.26,TRADE
QLD1,"2009/04/25 18:00:00",6238.42,48.58,TRADE
QLD1,"2009/04/25 18:30:00",6251.94,46.13,TRADE
QLD1,"2009/04/25 19:00:00",6148.8,39.16,TRADE
QLD1,"2009/04/25 19:30:00",5989.03,32.02,TRADE
QLD1,"2009/04/25 20:00:00",5867.95,32.19,TRADE
QLD1,"2009/04/25 20:30:00",5765.54,33.11,TRADE
QLD1,"2009/04/25 21:00:00",5691.6,31.33,TRADE
QLD1,"2009/04/25 21:30:00",5769.82,28.27,TRADE
QLD1,"2009/04/25 22:00:00",5563.18,21.84,TRADE
QLD1,"2009/04/25 22:30:00",5417.58,22.93,TRADE
QLD1,"2009/04/25 23:00:00",5364.44,22.06,TRADE
QLD1,"2009/04/25 23:30:00",5315.89,29.72,TRADE
QLD1,"2009/04/26 00:00:00",5198.14,23.62,TRADE
QLD1,"2009/04/26 00:30:00",5009.23,21.19,TRADE
QLD1,"2009/04/26 01:00:00",4858.27,21.53,TRADE
QLD1,"2009/04/26 01:30:00",4712.81,20.92,TRADE
QLD1,"2009/04/26 02:00:00",4594.46,19.75,TRADE
QLD1,"2009/04/26 02:30:00",4515.27,18.88,TRADE
QLD1,"2009/04/26 03:00:00",4456.68,18.56,TRADE
QLD1,"2009/04/26 03:30:00",4400.39,15.39,TRADE
QLD1,"2009/04/26 04:00:00",4395.41,14.87,TRADE
QLD1,"2009/04/26 04:30:00",4391.49,14.39,TRADE
QLD1,"2009/04/26 05:00:00",4450.49,13.51,TRADE
QLD1,"2009/04/26 05:30:00",4484.93,13.85,TRADE
QLD1,"2009/04/26 06:00:00",4504.9,15.1,TRADE
QLD1,"2009/04/26 06:30:00",4562.4,15.14,TRADE
QLD1,"2009/04/26 07:00:00",4688.39,15.99,TRADE
QLD1,"2009/04/26 07:30:00",4913.87,18.7,TRADE
QLD1,"2009/04/26 08:00:00",5159.89,22,TRADE
QLD1,"2009/04/26 08:30:00",5413.98,24.4,TRADE
QLD1,"2009/04/26 09:00:00",5549.88,29.23,TRADE
QLD1,"2009/04/26 09:30:00",5671.75,30.96,TRADE
QLD1,"2009/04/26 10:00:00",5735.17,31.18,TRADE
QLD1,"2009/04/26 10:30:00",5776.01,30.82,TRADE
QLD1,"2009/04/26 11:00:00",5770.77,31.39,TRADE
QLD1,"2009/04/26 11:30:00",5787.45,34.61,TRADE
QLD1,"2009/04/26 12:00:00",5789.7,33.36,TRADE
QLD1,"2009/04/26 12:30:00",5768.61,33.53,TRADE
QLD1,"2009/04/26 13:00:00",5751.59,32.92,TRADE
QLD1,"2009/04/26 13:30:00",5796.93,32.68,TRADE
QLD1,"2009/04/26 14:00:00",5782.55,32.71,TRADE
QLD1,"2009/04/26 14:30:00",5846.59,32.53,TRADE
QLD1,"2009/04/26 15:00:00",5848.11,32.14,TRADE
QLD1,"2009/04/26 15:30:00",5876.59,32.33,TRADE
QLD1,"2009/04/26 16:00:00",5916.13,32.88,TRADE
QLD1,"2009/04/26 16:30:00",5933.02,34.51,TRADE
QLD1,"2009/04/26 17:00:00",5992.11,41.65,TRADE
QLD1,"2009/04/26 17:30:00",6131.52,50.26,TRADE
QLD1,"2009/04/26 18:00:00",6488.45,90.12,TRADE
QLD1,"2009/04/26 18:30:00",6539.64,113.77,TRADE
QLD1,"2009/04/26 19:00:00",6341.05,80.62,TRADE
QLD1,"2009/04/26 19:30:00",6207.52,75.35,TRADE
QLD1,"2009/04/26 20:00:00",6101.88,65.38,TRADE
QLD1,"2009/04/26 20:30:00",5962.82,72.15,TRADE
QLD1,"2009/04/26 21:00:00",5872.12,61.86,TRADE
QLD1,"2009/04/26 21:30:00",5899.8,44.72,TRADE
QLD1,"2009/04/26 22:00:00",5584.54,32.83,TRADE
QLD1,"2009/04/26 22:30:00",5394.94,35.02,TRADE
QLD1,"2009/04/26 23:00:00",5348.27,33.08,TRADE
QLD1,"2009/04/26 23:30:00",5238.23,34.51,TRADE
QLD1,"2009/04/27 00:00:00",5064.65,28.36,TRADE
QLD1,"2009/04/27 00:30:00",4901.02,23.63,TRADE
QLD1,"2009/04/27 01:00:00",4723.33,21.07,TRADE
QLD1,"2009/04/27 01:30:00",4625.35,22.12,TRADE
QLD1,"2009/04/27 02:00:00",4483.25,20.08,TRADE
QLD1,"2009/04/27 02:30:00",4450.52,20.22,TRADE
QLD1,"2009/04/27 03:00:00",4447.89,20.35,TRADE
QLD1,"2009/04/27 03:30:00",4418.4,20.08,TRADE
QLD1,"2009/04/27 04:00:00",4420.63,18.4,TRADE
QLD1,"2009/04/27 04:30:00",4469.87,19.56,TRADE
QLD1,"2009/04/27 05:00:00",4558.61,20.77,TRADE
QLD1,"2009/04/27 05:30:00",4734.16,21.76,TRADE
QLD1,"2009/04/27 06:00:00",4964.23,21.75,TRADE
QLD1,"2009/04/27 06:30:00",5326.35,28.62,TRADE
QLD1,"2009/04/27 07:00:00",5764.15,33.89,TRADE
QLD1,"2009/04/27 07:30:00",6188.45,44.48,TRADE
QLD1,"2009/04/27 08:00:00",6407.09,74.64,TRADE
QLD1,"2009/04/27 08:30:00",6452.13,67.68,TRADE
QLD1,"2009/04/27 09:00:00",6499.74,72.48,TRADE
QLD1,"2009/04/27 09:30:00",6553.82,81.1,TRADE
QLD1,"2009/04/27 10:00:00",6536.98,66.81,TRADE
QLD1,"2009/04/27 10:30:00",6459.77,61.53,TRADE
QLD1,"2009/04/27 11:00:00",6592.5,72.78,TRADE
QLD1,"2009/04/27 11:30:00",6587.93,74.09,TRADE
QLD1,"2009/04/27 12:00:00",6678.87,73.02,TRADE
QLD1,"2009/04/27 12:30:00",6680.45,75.75,TRADE
QLD1,"2009/04/27 13:00:00",6677.24,71.2,TRADE
QLD1,"2009/04/27 13:30:00",6684.11,65.78,TRADE
QLD1,"2009/04/27 14:00:00",6701.5,75.34,TRADE
QLD1,"2009/04/27 14:30:00",6707.65,71.17,TRADE
QLD1,"2009/04/27 15:00:00",6650.87,57.42,TRADE
QLD1,"2009/04/27 15:30:00",6649.16,48.03,TRADE
QLD1,"2009/04/27 16:00:00",6674.7,56.71,TRADE
QLD1,"2009/04/27 16:30:00",6646.07,58.67,TRADE
QLD1,"2009/04/27 17:00:00",6656.81,71.46,TRADE
QLD1,"2009/04/27 17:30:00",6735.46,50.24,TRADE
QLD1,"2009/04/27 18:00:00",6912.4,173.12,TRADE
QLD1,"2009/04/27 18:30:00",6841.23,116.99,TRADE
QLD1,"2009/04/27 19:00:00",6652.75,91.09,TRADE
QLD1,"2009/04/27 19:30:00",6458.12,69.89,TRADE
QLD1,"2009/04/27 20:00:00",6292.48,71.95,TRADE
QLD1,"2009/04/27 20:30:00",6196.18,70.13,TRADE
QLD1,"2009/04/27 21:00:00",6094.3,65.8,TRADE
QLD1,"2009/04/27 21:30:00",6114.98,67.82,TRADE
QLD1,"2009/04/27 22:00:00",5914.04,44.58,TRADE
QLD1,"2009/04/27 22:30:00",5677.06,61.24,TRADE
QLD1,"2009/04/27 23:00:00",5575.97,42.32,TRADE
QLD1,"2009/04/27 23:30:00",5520.27,47.88,TRADE
QLD1,"2009/04/28 00:00:00",5297.94,41.59,TRADE
QLD1,"2009/04/28 00:30:00",5049.03,35.21,TRADE
QLD1,"2009/04/28 01:00:00",4876.19,34.39,TRADE
QLD1,"2009/04/28 01:30:00",4694.93,30.9,TRADE
QLD1,"2009/04/28 02:00:00",4578.12,27.05,TRADE
QLD1,"2009/04/28 02:30:00",4521.59,21.52,TRADE
QLD1,"2009/04/28 03:00:00",4478.11,18.76,TRADE
QLD1,"2009/04/28 03:30:00",4451.2,18.91,TRADE
QLD1,"2009/04/28 04:00:00",4450.1,19.38,TRADE
QLD1,"2009/04/28 04:30:00",4482.4,19.48,TRADE
QLD1,"2009/04/28 05:00:00",4549.37,20.95,TRADE
QLD1,"2009/04/28 05:30:00",4739.97,22.73,TRADE
QLD1,"2009/04/28 06:00:00",5018.31,27.3,TRADE
QLD1,"2009/04/28 06:30:00",5411.13,46.87,TRADE
QLD1,"2009/04/28 07:00:00",5849.94,60.15,TRADE
QLD1,"2009/04/28 07:30:00",6203.76,50.88,TRADE
QLD1,"2009/04/28 08:00:00",6372.74,66.4,TRADE
QLD1,"2009/04/28 08:30:00",6393.13,59.61,TRADE
QLD1,"2009/04/28 09:00:00",6373.82,55.28,TRADE
QLD1,"2009/04/28 09:30:00",6394.81,64.88,TRADE
QLD1,"2009/04/28 10:00:00",6360.43,66.13,TRADE
QLD1,"2009/04/28 10:30:00",6426.02,71.54,TRADE
QLD1,"2009/04/28 11:00:00",6455.97,63.29,TRADE
QLD1,"2009/04/28 11:30:00",6460.13,68.56,TRADE
QLD1,"2009/04/28 12:00:00",6439.6,69.35,TRADE
QLD1,"2009/04/28 12:30:00",6471.78,70.85,TRADE
QLD1,"2009/04/28 13:00:00",6452.66,65.08,TRADE
QLD1,"2009/04/28 13:30:00",6464.26,67.18,TRADE
QLD1,"2009/04/28 14:00:00",6524.71,64.6,TRADE
QLD1,"2009/04/28 14:30:00",6519.84,64.58,TRADE
QLD1,"2009/04/28 15:00:00",6512.84,51.65,TRADE
QLD1,"2009/04/28 15:30:00",6459.2,40.94,TRADE
QLD1,"2009/04/28 16:00:00",6484.96,40.66,TRADE
QLD1,"2009/04/28 16:30:00",6490.87,39.49,TRADE
QLD1,"2009/04/28 17:00:00",6514.65,38.71,TRADE
QLD1,"2009/04/28 17:30:00",6573.47,31.02,TRADE
QLD1,"2009/04/28 18:00:00",6804.93,59.54,TRADE
QLD1,"2009/04/28 18:30:00",6765.42,61.33,TRADE
QLD1,"2009/04/28 19:00:00",6658.59,63.25,TRADE
QLD1,"2009/04/28 19:30:00",6434.9,50.04,TRADE
QLD1,"2009/04/28 20:00:00",6299.9,39.85,TRADE
QLD1,"2009/04/28 20:30:00",6168.34,50.75,TRADE
QLD1,"2009/04/28 21:00:00",6041.3,47.61,TRADE
QLD1,"2009/04/28 21:30:00",6073.91,46.73,TRADE
QLD1,"2009/04/28 22:00:00",5894.17,37.6,TRADE
QLD1,"2009/04/28 22:30:00",5660.95,54.12,TRADE
QLD1,"2009/04/28 23:00:00",5543.22,38.37,TRADE
QLD1,"2009/04/28 23:30:00",5448.14,41.42,TRADE
QLD1,"2009/04/29 00:00:00",5249.31,32.67,TRADE
QLD1,"2009/04/29 00:30:00",5026.24,29.83,TRADE
QLD1,"2009/04/29 01:00:00",4885.01,29.99,TRADE
QLD1,"2009/04/29 01:30:00",4717.28,25.29,TRADE
QLD1,"2009/04/29 02:00:00",4589.05,23.63,TRADE
QLD1,"2009/04/29 02:30:00",4518.89,22.69,TRADE
QLD1,"2009/04/29 03:00:00",4490.21,19.07,TRADE
QLD1,"2009/04/29 03:30:00",4488.71,19.33,TRADE
QLD1,"2009/04/29 04:00:00",4487.66,19.81,TRADE
QLD1,"2009/04/29 04:30:00",4556.4,20.11,TRADE
QLD1,"2009/04/29 05:00:00",4612.25,20.44,TRADE
QLD1,"2009/04/29 05:30:00",4802.82,24.01,TRADE
QLD1,"2009/04/29 06:00:00",5066.09,32.7,TRADE
QLD1,"2009/04/29 06:30:00",5469.97,47.34,TRADE
QLD1,"2009/04/29 07:00:00",5875.59,56.91,TRADE
QLD1,"2009/04/29 07:30:00",6278.16,28.29,TRADE
QLD1,"2009/04/29 08:00:00",6427.45,35.96,TRADE
QLD1,"2009/04/29 08:30:00",6392.61,35.47,TRADE
QLD1,"2009/04/29 09:00:00",6402.27,41.34,TRADE
QLD1,"2009/04/29 09:30:00",6367.79,37.18,TRADE
QLD1,"2009/04/29 10:00:00",6361.45,40.17,TRADE
QLD1,"2009/04/29 10:30:00",6436.24,56.15,TRADE
QLD1,"2009/04/29 11:00:00",6467.28,62.79,TRADE
QLD1,"2009/04/29 11:30:00",6451.21,56.95,TRADE
QLD1,"2009/04/29 12:00:00",6446.13,53.78,TRADE
QLD1,"2009/04/29 12:30:00",6439.57,47.64,TRADE
QLD1,"2009/04/29 13:00:00",6509.27,39.99,TRADE
QLD1,"2009/04/29 13:30:00",6509.02,37.13,TRADE
QLD1,"2009/04/29 14:00:00",6536.89,38.06,TRADE
QLD1,"2009/04/29 14:30:00",6541.58,40.03,TRADE
QLD1,"2009/04/29 15:00:00",6535,39.21,TRADE
QLD1,"2009/04/29 15:30:00",6504.66,40.07,TRADE
QLD1,"2009/04/29 16:00:00",6483.69,39.77,TRADE
QLD1,"2009/04/29 16:30:00",6470.55,37.15,TRADE
QLD1,"2009/04/29 17:00:00",6483.47,31.65,TRADE
QLD1,"2009/04/29 17:30:00",6552.38,34.86,TRADE
QLD1,"2009/04/29 18:00:00",6829.25,69.28,TRADE
QLD1,"2009/04/29 18:30:00",6802.08,77.42,TRADE
QLD1,"2009/04/29 19:00:00",6661.01,68.64,TRADE
QLD1,"2009/04/29 19:30:00",6445.11,49.46,TRADE
QLD1,"2009/04/29 20:00:00",6289.09,39.63,TRADE
QLD1,"2009/04/29 20:30:00",6185.06,42.58,TRADE
QLD1,"2009/04/29 21:00:00",6108.93,41.7,TRADE
QLD1,"2009/04/29 21:30:00",6123.34,44.85,TRADE
QLD1,"2009/04/29 22:00:00",5919.45,31.77,TRADE
QLD1,"2009/04/29 22:30:00",5710.35,38.55,TRADE
QLD1,"2009/04/29 23:00:00",5578.49,34.77,TRADE
QLD1,"2009/04/29 23:30:00",5436.32,40.9,TRADE
QLD1,"2009/04/30 00:00:00",5287.89,37.2,TRADE
QLD1,"2009/04/30 00:30:00",5098.83,31.93,TRADE
QLD1,"2009/04/30 01:00:00",4924.91,29.43,TRADE
QLD1,"2009/04/30 01:30:00",4778.82,26.32,TRADE
QLD1,"2009/04/30 02:00:00",4626.88,23.31,TRADE
QLD1,"2009/04/30 02:30:00",4555.17,20.43,TRADE
QLD1,"2009/04/30 03:00:00",4507.63,18.62,TRADE
QLD1,"2009/04/30 03:30:00",4477.51,18.48,TRADE
QLD1,"2009/04/30 04:00:00",4503.68,19.62,TRADE
QLD1,"2009/04/30 04:30:00",4532.34,19.69,TRADE
QLD1,"2009/04/30 05:00:00",4655.22,21.81,TRADE
QLD1,"2009/04/30 05:30:00",4862.02,25.86,TRADE
QLD1,"2009/04/30 06:00:00",5086.11,32.94,TRADE
QLD1,"2009/04/30 06:30:00",5448.17,42.61,TRADE
QLD1,"2009/04/30 07:00:00",5890.94,45.15,TRADE
QLD1,"2009/04/30 07:30:00",6204.43,28.15,TRADE
QLD1,"2009/04/30 08:00:00",6303.45,31.14,TRADE
QLD1,"2009/04/30 08:30:00",6328.77,29.65,TRADE
QLD1,"2009/04/30 09:00:00",6304.7,31.58,TRADE
QLD1,"2009/04/30 09:30:00",6300.88,31.3,TRADE
QLD1,"2009/04/30 10:00:00",6325.49,30.63,TRADE
QLD1,"2009/04/30 10:30:00",6361,32.6,TRADE
QLD1,"2009/04/30 11:00:00",6365.73,32.11,TRADE
QLD1,"2009/04/30 11:30:00",6384.95,31.58,TRADE
QLD1,"2009/04/30 12:00:00",6395.45,32.6,TRADE
QLD1,"2009/04/30 12:30:00",6401.16,32.61,TRADE
QLD1,"2009/04/30 13:00:00",6433.06,32.82,TRADE
QLD1,"2009/04/30 13:30:00",6466.98,32.76,TRADE
QLD1,"2009/04/30 14:00:00",6515.02,35.32,TRADE
QLD1,"2009/04/30 14:30:00",6479.56,35.1,TRADE
QLD1,"2009/04/30 15:00:00",6475.82,37.13,TRADE
QLD1,"2009/04/30 15:30:00",6460.77,33.48,TRADE
QLD1,"2009/04/30 16:00:00",6445.47,32.64,TRADE
QLD1,"2009/04/30 16:30:00",6461.96,33.34,TRADE
QLD1,"2009/04/30 17:00:00",6483.91,33.6,TRADE
QLD1,"2009/04/30 17:30:00",6572.19,34.29,TRADE
QLD1,"2009/04/30 18:00:00",6904.25,60.66,TRADE
QLD1,"2009/04/30 18:30:00",6853.79,50.48,TRADE
QLD1,"2009/04/30 19:00:00",6694.75,38.32,TRADE
QLD1,"2009/04/30 19:30:00",6538.92,35.49,TRADE
QLD1,"2009/04/30 20:00:00",6438.65,34.19,TRADE
QLD1,"2009/04/30 20:30:00",6329.11,33.35,TRADE
QLD1,"2009/04/30 21:00:00",6240.95,31.98,TRADE
QLD1,"2009/04/30 21:30:00",6214.69,35.76,TRADE
QLD1,"2009/04/30 22:00:00",5959.11,32.85,TRADE
QLD1,"2009/04/30 22:30:00",5779.4,46.42,TRADE
QLD1,"2009/04/30 23:00:00",5657.36,41.32,TRADE
QLD1,"2009/04/30 23:30:00",5539.24,44.13,TRADE
QLD1,"2009/05/01 00:00:00",5318.73,32.12,TRADE
