REGION,SETTLEMENTDATE,TOTALDEMAND,RRP,PERIODTYPE
VIC1,"2006/09/01 00:30:00",5391.55,29.75,TRADE
VIC1,"2006/09/01 01:00:00",5229.07,25.55,TRADE
VIC1,"2006/09/01 01:30:00",5568.54,29.14,TRADE
VIC1,"2006/09/01 02:00:00",5384.17,25.92,TRADE
VIC1,"2006/09/01 02:30:00",5213.25,22.95,TRADE
VIC1,"2006/09/01 03:00:00",5005.35,19.77,TRADE
VIC1,"2006/09/01 03:30:00",4850.13,19.29,TRADE
VIC1,"2006/09/01 04:00:00",4766.95,19.04,TRADE
VIC1,"2006/09/01 04:30:00",4672.05,15.9,TRADE
VIC1,"2006/09/01 05:00:00",4653.94,15.79,TRADE
VIC1,"2006/09/01 05:30:00",4710.16,17.57,TRADE
VIC1,"2006/09/01 06:00:00",4909.34,18.67,TRADE
VIC1,"2006/09/01 06:30:00",5327.58,23.93,TRADE
VIC1,"2006/09/01 07:00:00",5686.22,30.17,TRADE
VIC1,"2006/09/01 07:30:00",5921.95,28.16,TRADE
VIC1,"2006/09/01 08:00:00",6133,33.02,TRADE
VIC1,"2006/09/01 08:30:00",6169.86,33.38,TRADE
VIC1,"2006/09/01 09:00:00",6178.68,33.29,TRADE
VIC1,"2006/09/01 09:30:00",6247.91,33.6,TRADE
VIC1,"2006/09/01 10:00:00",6241.84,33.59,TRADE
VIC1,"2006/09/01 10:30:00",6265.45,33.71,TRADE
VIC1,"2006/09/01 11:00:00",6278.27,33.72,TRADE
VIC1,"2006/09/01 11:30:00",6154.33,33.58,TRADE
VIC1,"2006/09/01 12:00:00",6262.94,33.79,TRADE
VIC1,"2006/09/01 12:30:00",6250.19,33.51,TRADE
VIC1,"2006/09/01 13:00:00",6263.05,33.4,TRADE
VIC1,"2006/09/01 13:30:00",6276.58,32.82,TRADE
VIC1,"2006/09/01 14:00:00",6223.33,32.33,TRADE
VIC1,"2006/09/01 14:30:00",6179.85,30.49,TRADE
VIC1,"2006/09/01 15:00:00",6166.14,29.18,TRADE
VIC1,"2006/09/01 15:30:00",6124.69,28.59,TRADE
VIC1,"2006/09/01 16:00:00",6101.62,27.25,TRADE
VIC1,"2006/09/01 16:30:00",6131.22,28.77,TRADE
VIC1,"2006/09/01 17:00:00",6131.73,26.31,TRADE
VIC1,"2006/09/01 17:30:00",6192.34,26.22,TRADE
VIC1,"2006/09/01 18:00:00",6269.56,32.02,TRADE
VIC1,"2006/09/01 18:30:00",6384.38,33.16,TRADE
VIC1,"2006/09/01 19:00:00",6406.66,32.96,TRADE
VIC1,"2006/09/01 19:30:00",6230.44,28.65,TRADE
VIC1,"2006/09/01 20:00:00",6093.8,25.12,TRADE
VIC1,"2006/09/01 20:30:00",6039.55,25.16,TRADE
VIC1,"2006/09/01 21:00:00",5947.46,24.61,TRADE
VIC1,"2006/09/01 21:30:00",5770.67,22.39,TRADE
VIC1,"2006/09/01 22:00:00",5618.31,20.31,TRADE
VIC1,"2006/09/01 22:30:00",5476.84,20.78,TRADE
VIC1,"2006/09/01 23:00:00",5431.86,20.12,TRADE
VIC1,"2006/09/01 23:30:00",5752.88,24.78,TRADE
VIC1,"2006/09/02 00:00:00",5636.99,25,TRADE
VIC1,"2006/09/02 00:30:00",5438.96,23.48,TRADE
VIC1,"2006/09/02 01:00:00",5224.2,19.56,TRADE
VIC1,"2006/09/02 01:30:00",5562.7,21.99,TRADE
VIC1,"2006/09/02 02:00:00",5401.7,19.82,TRADE
VIC1,"2006/09/02 02:30:00",5182.43,18.07,TRADE
VIC1,"2006/09/02 03:00:00",4953.59,16.4,TRADE
VIC1,"2006/09/02 03:30:00",4807.14,16.14,TRADE
VIC1,"2006/09/02 04:00:00",4673.81,15.25,TRADE
VIC1,"2006/09/02 04:30:00",4582.47,15.17,TRADE
VIC1,"2006/09/02 05:00:00",4546.58,15.21,TRADE
VIC1,"2006/09/02 05:30:00",4569.68,15.51,TRADE
VIC1,"2006/09/02 06:00:00",4646.56,15.62,TRADE
VIC1,"2006/09/02 06:30:00",4787.15,15.82,TRADE
VIC1,"2006/09/02 07:00:00",4879.46,15.55,TRADE
VIC1,"2006/09/02 07:30:00",4908.77,16.02,TRADE
VIC1,"2006/09/02 08:00:00",5100.67,17.82,TRADE
VIC1,"2006/09/02 08:30:00",5285.94,19.99,TRADE
VIC1,"2006/09/02 09:00:00",5493.42,22.68,TRADE
VIC1,"2006/09/02 09:30:00",5562.56,26.82,TRADE
VIC1,"2006/09/02 10:00:00",5526.96,23.55,TRADE
VIC1,"2006/09/02 10:30:00",5528,24.54,TRADE
VIC1,"2006/09/02 11:00:00",5517.03,23.48,TRADE
VIC1,"2006/09/02 11:30:00",5445.76,21.84,TRADE
VIC1,"2006/09/02 12:00:00",5437.77,20.43,TRADE
VIC1,"2006/09/02 12:30:00",5412.3,20.59,TRADE
VIC1,"2006/09/02 13:00:00",5397.31,20.56,TRADE
VIC1,"2006/09/02 13:30:00",5380.45,20.27,TRADE
VIC1,"2006/09/02 14:00:00",5330.5,20.15,TRADE
VIC1,"2006/09/02 14:30:00",5298.33,19.67,TRADE
VIC1,"2006/09/02 15:00:00",5252.36,17.53,TRADE
VIC1,"2006/09/02 15:30:00",5240.12,19,TRADE
VIC1,"2006/09/02 16:00:00",5258.92,17.63,TRADE
VIC1,"2006/09/02 16:30:00",5319.07,19.52,TRADE
VIC1,"2006/09/02 17:00:00",5369.93,19.83,TRADE
VIC1,"2006/09/02 17:30:00",5478.05,18.53,TRADE
VIC1,"2006/09/02 18:00:00",5652.48,20.45,TRADE
VIC1,"2006/09/02 18:30:00",5906.19,23.98,TRADE
VIC1,"2006/09/02 19:00:00",5963.44,23.43,TRADE
VIC1,"2006/09/02 19:30:00",5854.9,22.47,TRADE
VIC1,"2006/09/02 20:00:00",5721.29,21.25,TRADE
VIC1,"2006/09/02 20:30:00",5594.67,20.97,TRADE
VIC1,"2006/09/02 21:00:00",5520.95,20.43,TRADE
VIC1,"2006/09/02 21:30:00",5409.87,17.57,TRADE
VIC1,"2006/09/02 22:00:00",5302.95,16.53,TRADE
VIC1,"2006/09/02 22:30:00",5157.11,16.67,TRADE
VIC1,"2006/09/02 23:00:00",5063.29,16.23,TRADE
VIC1,"2006/09/02 23:30:00",5361.01,20.11,TRADE
VIC1,"2006/09/03 00:00:00",5277.21,18.98,TRADE
VIC1,"2006/09/03 00:30:00",5120.19,17.13,TRADE
VIC1,"2006/09/03 01:00:00",4935.96,15.75,TRADE
VIC1,"2006/09/03 01:30:00",5301.36,17.98,TRADE
VIC1,"2006/09/03 02:00:00",5136,15.89,TRADE
VIC1,"2006/09/03 02:30:00",4924.27,16.02,TRADE
VIC1,"2006/09/03 03:00:00",4700.54,14.24,TRADE
VIC1,"2006/09/03 03:30:00",4512.46,14.53,TRADE
VIC1,"2006/09/03 04:00:00",4417.4,12.49,TRADE
VIC1,"2006/09/03 04:30:00",4315.25,11.44,TRADE
VIC1,"2006/09/03 05:00:00",4271.86,11.9,TRADE
VIC1,"2006/09/03 05:30:00",4262.92,12.68,TRADE
VIC1,"2006/09/03 06:00:00",4287.94,13.32,TRADE
VIC1,"2006/09/03 06:30:00",4361.12,13.56,TRADE
VIC1,"2006/09/03 07:00:00",4386.78,13.34,TRADE
VIC1,"2006/09/03 07:30:00",4400.33,13.71,TRADE
VIC1,"2006/09/03 08:00:00",4594.35,15.09,TRADE
VIC1,"2006/09/03 08:30:00",4814.11,17.32,TRADE
VIC1,"2006/09/03 09:00:00",5001.16,18.66,TRADE
VIC1,"2006/09/03 09:30:00",5123.24,19.6,TRADE
VIC1,"2006/09/03 10:00:00",5213.62,19.47,TRADE
VIC1,"2006/09/03 10:30:00",5306.68,17.59,TRADE
VIC1,"2006/09/03 11:00:00",5334.5,18.52,TRADE
VIC1,"2006/09/03 11:30:00",5297.41,18.28,TRADE
VIC1,"2006/09/03 12:00:00",5255.99,17.46,TRADE
VIC1,"2006/09/03 12:30:00",5238.49,20.52,TRADE
VIC1,"2006/09/03 13:00:00",5168.23,19.26,TRADE
VIC1,"2006/09/03 13:30:00",5201.32,18.54,TRADE
VIC1,"2006/09/03 14:00:00",5164.93,18.21,TRADE
VIC1,"2006/09/03 14:30:00",5132.63,17.73,TRADE
VIC1,"2006/09/03 15:00:00",5107.84,16.48,TRADE
VIC1,"2006/09/03 15:30:00",5106.26,15.94,TRADE
VIC1,"2006/09/03 16:00:00",5101.24,15.7,TRADE
VIC1,"2006/09/03 16:30:00",5164.99,16.8,TRADE
VIC1,"2006/09/03 17:00:00",5283.96,18.49,TRADE
VIC1,"2006/09/03 17:30:00",5470.16,19.31,TRADE
VIC1,"2006/09/03 18:00:00",5731.55,22.15,TRADE
VIC1,"2006/09/03 18:30:00",6022.68,24.3,TRADE
VIC1,"2006/09/03 19:00:00",6145,24.74,TRADE
VIC1,"2006/09/03 19:30:00",6031.42,23.28,TRADE
VIC1,"2006/09/03 20:00:00",5958.4,20.82,TRADE
VIC1,"2006/09/03 20:30:00",5930.21,21.04,TRADE
VIC1,"2006/09/03 21:00:00",5848.86,22.18,TRADE
VIC1,"2006/09/03 21:30:00",5722.06,21.94,TRADE
VIC1,"2006/09/03 22:00:00",5600.95,21.36,TRADE
VIC1,"2006/09/03 22:30:00",5413.44,20.61,TRADE
VIC1,"2006/09/03 23:00:00",5282.72,19.89,TRADE
VIC1,"2006/09/03 23:30:00",5489.68,21.56,TRADE
VIC1,"2006/09/04 00:00:00",5357.55,20.67,TRADE
VIC1,"2006/09/04 00:30:00",5276.49,20.42,TRADE
VIC1,"2006/09/04 01:00:00",5153.75,19.77,TRADE
VIC1,"2006/09/04 01:30:00",5545.08,22.05,TRADE
VIC1,"2006/09/04 02:00:00",5439.88,21.08,TRADE
VIC1,"2006/09/04 02:30:00",5271.93,17.62,TRADE
VIC1,"2006/09/04 03:00:00",5123.11,16.44,TRADE
VIC1,"2006/09/04 03:30:00",5000.09,15.95,TRADE
VIC1,"2006/09/04 04:00:00",4936.27,15.6,TRADE
VIC1,"2006/09/04 04:30:00",4877.63,15.14,TRADE
VIC1,"2006/09/04 05:00:00",4851.49,15.22,TRADE
VIC1,"2006/09/04 05:30:00",5003.97,16.01,TRADE
VIC1,"2006/09/04 06:00:00",5182.32,17.28,TRADE
VIC1,"2006/09/04 06:30:00",5676.09,21.17,TRADE
VIC1,"2006/09/04 07:00:00",6106.5,29.97,TRADE
VIC1,"2006/09/04 07:30:00",6406.65,29.06,TRADE
VIC1,"2006/09/04 08:00:00",6731.46,33.07,TRADE
VIC1,"2006/09/04 08:30:00",6859.8,33.43,TRADE
VIC1,"2006/09/04 09:00:00",6858.75,33.4,TRADE
VIC1,"2006/09/04 09:30:00",6876.13,33.29,TRADE
VIC1,"2006/09/04 10:00:00",6837.14,33.41,TRADE
VIC1,"2006/09/04 10:30:00",6780.95,32.7,TRADE
VIC1,"2006/09/04 11:00:00",6767.45,32.44,TRADE
VIC1,"2006/09/04 11:30:00",6693.49,31.74,TRADE
VIC1,"2006/09/04 12:00:00",6669.45,31.31,TRADE
VIC1,"2006/09/04 12:30:00",6632.29,31.77,TRADE
VIC1,"2006/09/04 13:00:00",6581.18,29.69,TRADE
VIC1,"2006/09/04 13:30:00",6604.66,30.61,TRADE
VIC1,"2006/09/04 14:00:00",6588.65,30.69,TRADE
VIC1,"2006/09/04 14:30:00",6553.95,29.55,TRADE
VIC1,"2006/09/04 15:00:00",6487.03,26.08,TRADE
VIC1,"2006/09/04 15:30:00",6465.83,26.18,TRADE
VIC1,"2006/09/04 16:00:00",6420.99,26.07,TRADE
VIC1,"2006/09/04 16:30:00",6408.12,25.98,TRADE
VIC1,"2006/09/04 17:00:00",6481.37,25.97,TRADE
VIC1,"2006/09/04 17:30:00",6643.29,25.26,TRADE
VIC1,"2006/09/04 18:00:00",6853.63,31.03,TRADE
VIC1,"2006/09/04 18:30:00",7123.41,33.5,TRADE
VIC1,"2006/09/04 19:00:00",7121.45,33.84,TRADE
VIC1,"2006/09/04 19:30:00",7020.23,31.34,TRADE
VIC1,"2006/09/04 20:00:00",6884.83,29.55,TRADE
VIC1,"2006/09/04 20:30:00",6748.33,29.09,TRADE
VIC1,"2006/09/04 21:00:00",6651.1,29.56,TRADE
VIC1,"2006/09/04 21:30:00",6447.54,30.15,TRADE
VIC1,"2006/09/04 22:00:00",6197.16,28.07,TRADE
VIC1,"2006/09/04 22:30:00",5953.73,28.37,TRADE
VIC1,"2006/09/04 23:00:00",5765.55,24.36,TRADE
VIC1,"2006/09/04 23:30:00",6040.03,28.6,TRADE
VIC1,"2006/09/05 00:00:00",5877.37,26.84,TRADE
VIC1,"2006/09/05 00:30:00",5749.03,26.53,TRADE
VIC1,"2006/09/05 01:00:00",5593.45,22.2,TRADE
VIC1,"2006/09/05 01:30:00",5940.37,27.53,TRADE
VIC1,"2006/09/05 02:00:00",5812.67,22.27,TRADE
VIC1,"2006/09/05 02:30:00",5634.42,19.02,TRADE
VIC1,"2006/09/05 03:00:00",5436.72,17.07,TRADE
VIC1,"2006/09/05 03:30:00",5282.64,16.75,TRADE
VIC1,"2006/09/05 04:00:00",5162.04,15.62,TRADE
VIC1,"2006/09/05 04:30:00",5136.17,16.33,TRADE
VIC1,"2006/09/05 05:00:00",5105.43,16.11,TRADE
VIC1,"2006/09/05 05:30:00",5196.07,17.11,TRADE
VIC1,"2006/09/05 06:00:00",5415.46,19.92,TRADE
VIC1,"2006/09/05 06:30:00",5831.87,28.1,TRADE
VIC1,"2006/09/05 07:00:00",6290.14,30.9,TRADE
VIC1,"2006/09/05 07:30:00",6543.21,30.82,TRADE
VIC1,"2006/09/05 08:00:00",6861.64,34.22,TRADE
VIC1,"2006/09/05 08:30:00",6981.98,34.51,TRADE
VIC1,"2006/09/05 09:00:00",6893.88,34.02,TRADE
VIC1,"2006/09/05 09:30:00",6931.82,34.03,TRADE
VIC1,"2006/09/05 10:00:00",6821.68,33.44,TRADE
VIC1,"2006/09/05 10:30:00",6801.77,33.69,TRADE
VIC1,"2006/09/05 11:00:00",6724.98,33.34,TRADE
VIC1,"2006/09/05 11:30:00",6651.26,31.85,TRADE
VIC1,"2006/09/05 12:00:00",6575.55,30.69,TRADE
VIC1,"2006/09/05 12:30:00",6546.38,29.17,TRADE
VIC1,"2006/09/05 13:00:00",6483.85,28.41,TRADE
VIC1,"2006/09/05 13:30:00",6526.34,28.03,TRADE
VIC1,"2006/09/05 14:00:00",6488.49,30.5,TRADE
VIC1,"2006/09/05 14:30:00",6471.71,30.8,TRADE
VIC1,"2006/09/05 15:00:00",6388.63,29.09,TRADE
VIC1,"2006/09/05 15:30:00",6331.8,27.81,TRADE
VIC1,"2006/09/05 16:00:00",6354.21,27.29,TRADE
VIC1,"2006/09/05 16:30:00",6364.29,28.65,TRADE
VIC1,"2006/09/05 17:00:00",6426.62,28.96,TRADE
VIC1,"2006/09/05 17:30:00",6500.4,27.13,TRADE
VIC1,"2006/09/05 18:00:00",6669.96,32.3,TRADE
VIC1,"2006/09/05 18:30:00",6947.5,35.44,TRADE
VIC1,"2006/09/05 19:00:00",7028.18,36.22,TRADE
VIC1,"2006/09/05 19:30:00",6889.84,34,TRADE
VIC1,"2006/09/05 20:00:00",6759.87,33.36,TRADE
VIC1,"2006/09/05 20:30:00",6611.76,31.49,TRADE
VIC1,"2006/09/05 21:00:00",6514.91,31.47,TRADE
VIC1,"2006/09/05 21:30:00",6334.51,27.2,TRADE
VIC1,"2006/09/05 22:00:00",6116.45,24.76,TRADE
VIC1,"2006/09/05 22:30:00",5841.87,24.37,TRADE
VIC1,"2006/09/05 23:00:00",5681.84,23.46,TRADE
VIC1,"2006/09/05 23:30:00",5950.79,28.78,TRADE
VIC1,"2006/09/06 00:00:00",5778.11,27.84,TRADE
VIC1,"2006/09/06 00:30:00",5611.96,26.56,TRADE
VIC1,"2006/09/06 01:00:00",5497.63,22.18,TRADE
VIC1,"2006/09/06 01:30:00",5821.98,27.37,TRADE
VIC1,"2006/09/06 02:00:00",5668.17,22.33,TRADE
VIC1,"2006/09/06 02:30:00",5459.1,19,TRADE
VIC1,"2006/09/06 03:00:00",5272.53,17.28,TRADE
VIC1,"2006/09/06 03:30:00",5145.13,16.08,TRADE
VIC1,"2006/09/06 04:00:00",4996.27,15.56,TRADE
VIC1,"2006/09/06 04:30:00",4905.14,15.56,TRADE
VIC1,"2006/09/06 05:00:00",4908.11,15.8,TRADE
VIC1,"2006/09/06 05:30:00",5030.05,16.82,TRADE
VIC1,"2006/09/06 06:00:00",5225.98,18.18,TRADE
VIC1,"2006/09/06 06:30:00",5697.17,29.24,TRADE
VIC1,"2006/09/06 07:00:00",6139.66,32.92,TRADE
VIC1,"2006/09/06 07:30:00",6436.65,32.26,TRADE
VIC1,"2006/09/06 08:00:00",6790.42,34.06,TRADE
VIC1,"2006/09/06 08:30:00",6983.98,34.73,TRADE
VIC1,"2006/09/06 09:00:00",7043.17,34.8,TRADE
VIC1,"2006/09/06 09:30:00",7096.3,35.05,TRADE
VIC1,"2006/09/06 10:00:00",7093.55,35,TRADE
VIC1,"2006/09/06 10:30:00",7092.19,41.97,TRADE
VIC1,"2006/09/06 11:00:00",7075.06,43.33,TRADE
VIC1,"2006/09/06 11:30:00",7042.99,34.92,TRADE
VIC1,"2006/09/06 12:00:00",7016.44,36.97,TRADE
VIC1,"2006/09/06 12:30:00",6964.26,39.74,TRADE
VIC1,"2006/09/06 13:00:00",6983.02,43.8,TRADE
VIC1,"2006/09/06 13:30:00",7088.52,48.81,TRADE
VIC1,"2006/09/06 14:00:00",7085.59,44.19,TRADE
VIC1,"2006/09/06 14:30:00",7086.63,44.9,TRADE
VIC1,"2006/09/06 15:00:00",7033.38,40.46,TRADE
VIC1,"2006/09/06 15:30:00",7016.86,38.66,TRADE
VIC1,"2006/09/06 16:00:00",7016.91,41.39,TRADE
VIC1,"2006/09/06 16:30:00",7059.81,39.01,TRADE
VIC1,"2006/09/06 17:00:00",7172.78,36.4,TRADE
VIC1,"2006/09/06 17:30:00",7258.14,34.19,TRADE
VIC1,"2006/09/06 18:00:00",7337.72,40.97,TRADE
VIC1,"2006/09/06 18:30:00",7444.61,82.62,TRADE
VIC1,"2006/09/06 19:00:00",7407.67,62.05,TRADE
VIC1,"2006/09/06 19:30:00",7227.46,43.38,TRADE
VIC1,"2006/09/06 20:00:00",7042.89,34.48,TRADE
VIC1,"2006/09/06 20:30:00",6876.02,34.55,TRADE
VIC1,"2006/09/06 21:00:00",6766.51,41.22,TRADE
VIC1,"2006/09/06 21:30:00",6512.28,43.7,TRADE
VIC1,"2006/09/06 22:00:00",6289.53,35.99,TRADE
VIC1,"2006/09/06 22:30:00",6079.4,29.53,TRADE
VIC1,"2006/09/06 23:00:00",5904.82,25.26,TRADE
VIC1,"2006/09/06 23:30:00",6156.86,30.05,TRADE
VIC1,"2006/09/07 00:00:00",6001.44,31,TRADE
VIC1,"2006/09/07 00:30:00",5855.29,32.33,TRADE
VIC1,"2006/09/07 01:00:00",5681.5,26.62,TRADE
VIC1,"2006/09/07 01:30:00",6032.51,32.44,TRADE
VIC1,"2006/09/07 02:00:00",5865.58,25.15,TRADE
VIC1,"2006/09/07 02:30:00",5667.23,22.34,TRADE
VIC1,"2006/09/07 03:00:00",5509.55,20.67,TRADE
VIC1,"2006/09/07 03:30:00",5321.45,19.06,TRADE
VIC1,"2006/09/07 04:00:00",5219.3,16.45,TRADE
VIC1,"2006/09/07 04:30:00",5185.15,16.92,TRADE
VIC1,"2006/09/07 05:00:00",5132.74,17.63,TRADE
VIC1,"2006/09/07 05:30:00",5233.35,18.93,TRADE
VIC1,"2006/09/07 06:00:00",5436.19,23.55,TRADE
VIC1,"2006/09/07 06:30:00",5878.96,30.87,TRADE
VIC1,"2006/09/07 07:00:00",6315.72,33.89,TRADE
VIC1,"2006/09/07 07:30:00",6547.15,33.76,TRADE
VIC1,"2006/09/07 08:00:00",6822.47,42.17,TRADE
VIC1,"2006/09/07 08:30:00",6956.34,52.93,TRADE
VIC1,"2006/09/07 09:00:00",6975.91,46.42,TRADE
VIC1,"2006/09/07 09:30:00",7021.97,44.3,TRADE
VIC1,"2006/09/07 10:00:00",6946.77,39.52,TRADE
VIC1,"2006/09/07 10:30:00",6891.75,53.27,TRADE
VIC1,"2006/09/07 11:00:00",6840.66,37.07,TRADE
VIC1,"2006/09/07 11:30:00",6790.78,51.25,TRADE
VIC1,"2006/09/07 12:00:00",6698.68,51.45,TRADE
VIC1,"2006/09/07 12:30:00",6658.88,34.39,TRADE
VIC1,"2006/09/07 13:00:00",6642.34,48.55,TRADE
VIC1,"2006/09/07 13:30:00",6652.41,46.78,TRADE
VIC1,"2006/09/07 14:00:00",6649.17,51.51,TRADE
VIC1,"2006/09/07 14:30:00",6630.78,43.03,TRADE
VIC1,"2006/09/07 15:00:00",6571.01,38.72,TRADE
VIC1,"2006/09/07 15:30:00",6512.61,37,TRADE
VIC1,"2006/09/07 16:00:00",6514.84,36.72,TRADE
VIC1,"2006/09/07 16:30:00",6576.38,36.89,TRADE
VIC1,"2006/09/07 17:00:00",6598.83,37.68,TRADE
VIC1,"2006/09/07 17:30:00",6685.62,32.77,TRADE
VIC1,"2006/09/07 18:00:00",6914.7,47.34,TRADE
VIC1,"2006/09/07 18:30:00",7158.29,57.44,TRADE
VIC1,"2006/09/07 19:00:00",7235.15,60.34,TRADE
VIC1,"2006/09/07 19:30:00",7103.11,61.61,TRADE
VIC1,"2006/09/07 20:00:00",6973.04,51.5,TRADE
VIC1,"2006/09/07 20:30:00",6864.44,43.1,TRADE
VIC1,"2006/09/07 21:00:00",6694.72,41.02,TRADE
VIC1,"2006/09/07 21:30:00",6473.52,34.24,TRADE
VIC1,"2006/09/07 22:00:00",6267.43,32.39,TRADE
VIC1,"2006/09/07 22:30:00",6040.44,45.36,TRADE
VIC1,"2006/09/07 23:00:00",5801.77,36.26,TRADE
VIC1,"2006/09/07 23:30:00",6045.77,38.28,TRADE
VIC1,"2006/09/08 00:00:00",5885.57,34.83,TRADE
VIC1,"2006/09/08 00:30:00",5762.47,33.24,TRADE
VIC1,"2006/09/08 01:00:00",5610.55,29.41,TRADE
VIC1,"2006/09/08 01:30:00",5959.52,34.98,TRADE
VIC1,"2006/09/08 02:00:00",5789.81,27.54,TRADE
VIC1,"2006/09/08 02:30:00",5604.62,22.13,TRADE
VIC1,"2006/09/08 03:00:00",5428.67,20.1,TRADE
VIC1,"2006/09/08 03:30:00",5280.27,19.21,TRADE
VIC1,"2006/09/08 04:00:00",5141.98,17.04,TRADE
VIC1,"2006/09/08 04:30:00",5085.24,16.46,TRADE
VIC1,"2006/09/08 05:00:00",5109.77,17.26,TRADE
VIC1,"2006/09/08 05:30:00",5188.63,18.37,TRADE
VIC1,"2006/09/08 06:00:00",5387.92,21.61,TRADE
VIC1,"2006/09/08 06:30:00",5824.14,29.64,TRADE
VIC1,"2006/09/08 07:00:00",6215.96,33.27,TRADE
VIC1,"2006/09/08 07:30:00",6479.42,33.24,TRADE
VIC1,"2006/09/08 08:00:00",6747.08,36.96,TRADE
VIC1,"2006/09/08 08:30:00",6875.92,40.18,TRADE
VIC1,"2006/09/08 09:00:00",6874.23,34.58,TRADE
VIC1,"2006/09/08 09:30:00",6932.66,34.75,TRADE
VIC1,"2006/09/08 10:00:00",6860.6,34.56,TRADE
VIC1,"2006/09/08 10:30:00",6803.3,34.39,TRADE
VIC1,"2006/09/08 11:00:00",6792.37,34.78,TRADE
VIC1,"2006/09/08 11:30:00",6718.27,34.51,TRADE
VIC1,"2006/09/08 12:00:00",6711.29,34.81,TRADE
VIC1,"2006/09/08 12:30:00",6620.04,35.05,TRADE
VIC1,"2006/09/08 13:00:00",6570.03,35,TRADE
VIC1,"2006/09/08 13:30:00",6568.27,34.79,TRADE
VIC1,"2006/09/08 14:00:00",6545.58,34.7,TRADE
VIC1,"2006/09/08 14:30:00",6518.2,34.45,TRADE
VIC1,"2006/09/08 15:00:00",6440.62,32.5,TRADE
VIC1,"2006/09/08 15:30:00",6377.77,29.19,TRADE
VIC1,"2006/09/08 16:00:00",6386.92,28.35,TRADE
VIC1,"2006/09/08 16:30:00",6414.14,30.39,TRADE
VIC1,"2006/09/08 17:00:00",6483.9,31.37,TRADE
VIC1,"2006/09/08 17:30:00",6599.17,27.73,TRADE
VIC1,"2006/09/08 18:00:00",6787.18,31.85,TRADE
VIC1,"2006/09/08 18:30:00",6926.7,34.92,TRADE
VIC1,"2006/09/08 19:00:00",6993.93,35.06,TRADE
VIC1,"2006/09/08 19:30:00",6900.34,34.46,TRADE
VIC1,"2006/09/08 20:00:00",6789.51,34.65,TRADE
VIC1,"2006/09/08 20:30:00",6671.75,34.91,TRADE
VIC1,"2006/09/08 21:00:00",6560.62,34.52,TRADE
VIC1,"2006/09/08 21:30:00",6341.9,35.97,TRADE
VIC1,"2006/09/08 22:00:00",6193.17,34.72,TRADE
VIC1,"2006/09/08 22:30:00",6003.68,46.46,TRADE
VIC1,"2006/09/08 23:00:00",5867.65,35.52,TRADE
VIC1,"2006/09/08 23:30:00",6116.62,36.33,TRADE
VIC1,"2006/09/09 00:00:00",5968.75,33.47,TRADE
VIC1,"2006/09/09 00:30:00",5775.49,29.39,TRADE
VIC1,"2006/09/09 01:00:00",5583.91,24.34,TRADE
VIC1,"2006/09/09 01:30:00",5937.42,28.54,TRADE
VIC1,"2006/09/09 02:00:00",5747.54,23.73,TRADE
VIC1,"2006/09/09 02:30:00",5506.2,22.67,TRADE
VIC1,"2006/09/09 03:00:00",5286.92,20.69,TRADE
VIC1,"2006/09/09 03:30:00",5124.89,19.75,TRADE
VIC1,"2006/09/09 04:00:00",4999.49,16.83,TRADE
VIC1,"2006/09/09 04:30:00",4881.09,17.54,TRADE
VIC1,"2006/09/09 05:00:00",4841.15,18.49,TRADE
VIC1,"2006/09/09 05:30:00",4829.83,18.91,TRADE
VIC1,"2006/09/09 06:00:00",4921.39,18.99,TRADE
VIC1,"2006/09/09 06:30:00",5091.97,19.63,TRADE
VIC1,"2006/09/09 07:00:00",5153.74,20.01,TRADE
VIC1,"2006/09/09 07:30:00",5224.48,21.44,TRADE
VIC1,"2006/09/09 08:00:00",5416.86,22.74,TRADE
VIC1,"2006/09/09 08:30:00",5640.61,28.6,TRADE
VIC1,"2006/09/09 09:00:00",5761.85,40.04,TRADE
VIC1,"2006/09/09 09:30:00",5838.45,53.14,TRADE
VIC1,"2006/09/09 10:00:00",5909.5,47.06,TRADE
VIC1,"2006/09/09 10:30:00",5901.99,52.55,TRADE
VIC1,"2006/09/09 11:00:00",5828.74,41.85,TRADE
VIC1,"2006/09/09 11:30:00",5802.68,41.44,TRADE
VIC1,"2006/09/09 12:00:00",5763.99,42.76,TRADE
VIC1,"2006/09/09 12:30:00",5695.02,42.35,TRADE
VIC1,"2006/09/09 13:00:00",5615.06,39.02,TRADE
VIC1,"2006/09/09 13:30:00",5625.54,36.37,TRADE
VIC1,"2006/09/09 14:00:00",5559.86,32.54,TRADE
VIC1,"2006/09/09 14:30:00",5473.13,30.6,TRADE
VIC1,"2006/09/09 15:00:00",5436.53,28.03,TRADE
VIC1,"2006/09/09 15:30:00",5440.39,28.71,TRADE
VIC1,"2006/09/09 16:00:00",5424.27,29.09,TRADE
VIC1,"2006/09/09 16:30:00",5471.26,31.71,TRADE
VIC1,"2006/09/09 17:00:00",5574.16,33.37,TRADE
VIC1,"2006/09/09 17:30:00",5726.18,32.29,TRADE
VIC1,"2006/09/09 18:00:00",5939.37,46.41,TRADE
VIC1,"2006/09/09 18:30:00",6261.15,91.43,TRADE
VIC1,"2006/09/09 19:00:00",6384.93,146.37,TRADE
VIC1,"2006/09/09 19:30:00",6266.66,89.16,TRADE
VIC1,"2006/09/09 20:00:00",6137.19,76.83,TRADE
VIC1,"2006/09/09 20:30:00",6060.83,66.55,TRADE
VIC1,"2006/09/09 21:00:00",6007.87,63.47,TRADE
VIC1,"2006/09/09 21:30:00",5874.19,43.08,TRADE
VIC1,"2006/09/09 22:00:00",5770.6,36.99,TRADE
VIC1,"2006/09/09 22:30:00",5698.96,42.7,TRADE
VIC1,"2006/09/09 23:00:00",5565.94,42.54,TRADE
VIC1,"2006/09/09 23:30:00",5828.02,48.76,TRADE
VIC1,"2006/09/10 00:00:00",5695.86,42.9,TRADE
VIC1,"2006/09/10 00:30:00",5578.7,40.88,TRADE
VIC1,"2006/09/10 01:00:00",5451.08,32.02,TRADE
VIC1,"2006/09/10 01:30:00",5748.3,34.59,TRADE
VIC1,"2006/09/10 02:00:00",5611.86,31.59,TRADE
VIC1,"2006/09/10 02:30:00",5413.99,23.94,TRADE
VIC1,"2006/09/10 03:00:00",5227.16,20.75,TRADE
VIC1,"2006/09/10 03:30:00",5044.34,20.06,TRADE
VIC1,"2006/09/10 04:00:00",4937.43,19.13,TRADE
VIC1,"2006/09/10 04:30:00",4858.9,17.54,TRADE
VIC1,"2006/09/10 05:00:00",4804.89,17.18,TRADE
VIC1,"2006/09/10 05:30:00",4761.75,16.45,TRADE
VIC1,"2006/09/10 06:00:00",4785.57,16.96,TRADE
VIC1,"2006/09/10 06:30:00",4875.31,16.53,TRADE
VIC1,"2006/09/10 07:00:00",4842.22,17.39,TRADE
VIC1,"2006/09/10 07:30:00",4828.54,18.52,TRADE
VIC1,"2006/09/10 08:00:00",4954.22,20.93,TRADE
VIC1,"2006/09/10 08:30:00",5142.65,22.75,TRADE
VIC1,"2006/09/10 09:00:00",5308.49,34.45,TRADE
VIC1,"2006/09/10 09:30:00",5383,42.51,TRADE
VIC1,"2006/09/10 10:00:00",5468.85,55.29,TRADE
VIC1,"2006/09/10 10:30:00",5481.98,42.5,TRADE
VIC1,"2006/09/10 11:00:00",5482,38.68,TRADE
VIC1,"2006/09/10 11:30:00",5476.95,35.34,TRADE
VIC1,"2006/09/10 12:00:00",5454.79,35.54,TRADE
VIC1,"2006/09/10 12:30:00",5426.3,34.9,TRADE
VIC1,"2006/09/10 13:00:00",5392.4,27.39,TRADE
VIC1,"2006/09/10 13:30:00",5429.14,31.18,TRADE
VIC1,"2006/09/10 14:00:00",5392.23,29.03,TRADE
VIC1,"2006/09/10 14:30:00",5292.09,24.89,TRADE
VIC1,"2006/09/10 15:00:00",5261.92,24.71,TRADE
VIC1,"2006/09/10 15:30:00",5271.73,25.98,TRADE
VIC1,"2006/09/10 16:00:00",5291.24,26.44,TRADE
VIC1,"2006/09/10 16:30:00",5331.76,29.5,TRADE
VIC1,"2006/09/10 17:00:00",5403.52,32.38,TRADE
VIC1,"2006/09/10 17:30:00",5546.08,32.14,TRADE
VIC1,"2006/09/10 18:00:00",5763.56,36.51,TRADE
VIC1,"2006/09/10 18:30:00",6102.05,55.12,TRADE
VIC1,"2006/09/10 19:00:00",6359.72,62.11,TRADE
VIC1,"2006/09/10 19:30:00",6316.04,49.13,TRADE
VIC1,"2006/09/10 20:00:00",6292.99,45.31,TRADE
VIC1,"2006/09/10 20:30:00",6202.14,47.37,TRADE
VIC1,"2006/09/10 21:00:00",6128.56,44.05,TRADE
VIC1,"2006/09/10 21:30:00",6031.97,42.28,TRADE
VIC1,"2006/09/10 22:00:00",5822.32,36.37,TRADE
VIC1,"2006/09/10 22:30:00",5668.37,40.22,TRADE
VIC1,"2006/09/10 23:00:00",5507.03,30.61,TRADE
VIC1,"2006/09/10 23:30:00",5703.99,33.42,TRADE
VIC1,"2006/09/11 00:00:00",5562.18,29.58,TRADE
VIC1,"2006/09/11 00:30:00",5422.05,28.92,TRADE
VIC1,"2006/09/11 01:00:00",5347.78,24.32,TRADE
VIC1,"2006/09/11 01:30:00",5704.47,31.93,TRADE
VIC1,"2006/09/11 02:00:00",5620.6,29.51,TRADE
VIC1,"2006/09/11 02:30:00",5432.27,21.69,TRADE
VIC1,"2006/09/11 03:00:00",5275.43,19.67,TRADE
VIC1,"2006/09/11 03:30:00",5184.15,20.28,TRADE
VIC1,"2006/09/11 04:00:00",5049.02,20.1,TRADE
VIC1,"2006/09/11 04:30:00",5014.4,18.9,TRADE
VIC1,"2006/09/11 05:00:00",4992.48,18.17,TRADE
VIC1,"2006/09/11 05:30:00",5126.97,20.94,TRADE
VIC1,"2006/09/11 06:00:00",5362.23,26.41,TRADE
VIC1,"2006/09/11 06:30:00",5787.9,36.18,TRADE
VIC1,"2006/09/11 07:00:00",6209.91,53.91,TRADE
VIC1,"2006/09/11 07:30:00",6437.57,49.28,TRADE
VIC1,"2006/09/11 08:00:00",6744.94,94.87,TRADE
VIC1,"2006/09/11 08:30:00",6870.74,99.85,TRADE
VIC1,"2006/09/11 09:00:00",6884.88,95.79,TRADE
VIC1,"2006/09/11 09:30:00",6851.32,93.77,TRADE
VIC1,"2006/09/11 10:00:00",6768.67,94.45,TRADE
VIC1,"2006/09/11 10:30:00",6673.87,92.67,TRADE
VIC1,"2006/09/11 11:00:00",6588.32,92.5,TRADE
VIC1,"2006/09/11 11:30:00",6525.37,78.89,TRADE
VIC1,"2006/09/11 12:00:00",6477.06,73.13,TRADE
VIC1,"2006/09/11 12:30:00",6447.83,67.62,TRADE
VIC1,"2006/09/11 13:00:00",6420.76,63.05,TRADE
VIC1,"2006/09/11 13:30:00",6392.79,62.4,TRADE
VIC1,"2006/09/11 14:00:00",6202.45,49.69,TRADE
VIC1,"2006/09/11 14:30:00",6314.52,52.72,TRADE
VIC1,"2006/09/11 15:00:00",6300.78,54.72,TRADE
VIC1,"2006/09/11 15:30:00",6190.47,42.66,TRADE
VIC1,"2006/09/11 16:00:00",6178.25,46.81,TRADE
VIC1,"2006/09/11 16:30:00",6190.26,53.69,TRADE
VIC1,"2006/09/11 17:00:00",6214.56,55.96,TRADE
VIC1,"2006/09/11 17:30:00",6314.31,51.16,TRADE
VIC1,"2006/09/11 18:00:00",6379.84,90.64,TRADE
VIC1,"2006/09/11 18:30:00",6560.78,176.58,TRADE
VIC1,"2006/09/11 19:00:00",6801.88,227.68,TRADE
VIC1,"2006/09/11 19:30:00",6759.33,102.05,TRADE
VIC1,"2006/09/11 20:00:00",6693.02,89.18,TRADE
VIC1,"2006/09/11 20:30:00",6589.45,88.18,TRADE
VIC1,"2006/09/11 21:00:00",6491.83,79.65,TRADE
VIC1,"2006/09/11 21:30:00",6334.19,56.38,TRADE
VIC1,"2006/09/11 22:00:00",6066.04,42.66,TRADE
VIC1,"2006/09/11 22:30:00",5860.42,53.82,TRADE
VIC1,"2006/09/11 23:00:00",5672.98,44.08,TRADE
VIC1,"2006/09/11 23:30:00",5953.27,59.94,TRADE
VIC1,"2006/09/12 00:00:00",5804.34,53.02,TRADE
VIC1,"2006/09/12 00:30:00",5604.56,42.39,TRADE
VIC1,"2006/09/12 01:00:00",5442.45,38.92,TRADE
VIC1,"2006/09/12 01:30:00",5804.6,46.75,TRADE
VIC1,"2006/09/12 02:00:00",5688.65,38.15,TRADE
VIC1,"2006/09/12 02:30:00",5489.14,30.82,TRADE
VIC1,"2006/09/12 03:00:00",5299.34,27.76,TRADE
VIC1,"2006/09/12 03:30:00",5193.72,24.27,TRADE
VIC1,"2006/09/12 04:00:00",5087.31,21.46,TRADE
VIC1,"2006/09/12 04:30:00",5042.65,20.51,TRADE
VIC1,"2006/09/12 05:00:00",5038.22,20.19,TRADE
VIC1,"2006/09/12 05:30:00",5144.05,20.7,TRADE
VIC1,"2006/09/12 06:00:00",5369.03,29.74,TRADE
VIC1,"2006/09/12 06:30:00",5785.02,38.48,TRADE
VIC1,"2006/09/12 07:00:00",6208.89,69.05,TRADE
VIC1,"2006/09/12 07:30:00",6464.69,42.65,TRADE
VIC1,"2006/09/12 08:00:00",6678.99,67.38,TRADE
VIC1,"2006/09/12 08:30:00",6771.03,67.44,TRADE
VIC1,"2006/09/12 09:00:00",6664.47,42.66,TRADE
VIC1,"2006/09/12 09:30:00",6666.72,46.69,TRADE
VIC1,"2006/09/12 10:00:00",6562.17,44.29,TRADE
VIC1,"2006/09/12 10:30:00",6468.75,52.63,TRADE
VIC1,"2006/09/12 11:00:00",6429.97,42.68,TRADE
VIC1,"2006/09/12 11:30:00",6396.5,43.76,TRADE
VIC1,"2006/09/12 12:00:00",6416.96,52.44,TRADE
VIC1,"2006/09/12 12:30:00",6355.99,49.9,TRADE
VIC1,"2006/09/12 13:00:00",6335.78,47.01,TRADE
VIC1,"2006/09/12 13:30:00",6338.51,45.23,TRADE
VIC1,"2006/09/12 14:00:00",6335.57,51.13,TRADE
VIC1,"2006/09/12 14:30:00",6339.66,37.72,TRADE
VIC1,"2006/09/12 15:00:00",6310.92,45.78,TRADE
VIC1,"2006/09/12 15:30:00",6244.88,42.71,TRADE
VIC1,"2006/09/12 16:00:00",6225.22,39.9,TRADE
VIC1,"2006/09/12 16:30:00",6188.99,38.42,TRADE
VIC1,"2006/09/12 17:00:00",6200.4,37.84,TRADE
VIC1,"2006/09/12 17:30:00",6235.02,35.47,TRADE
VIC1,"2006/09/12 18:00:00",6347.61,36.42,TRADE
VIC1,"2006/09/12 18:30:00",6531.23,51.93,TRADE
VIC1,"2006/09/12 19:00:00",6734.42,59.04,TRADE
VIC1,"2006/09/12 19:30:00",6634.74,53.29,TRADE
VIC1,"2006/09/12 20:00:00",6539.11,42.02,TRADE
VIC1,"2006/09/12 20:30:00",6433.6,63.79,TRADE
VIC1,"2006/09/12 21:00:00",6305.63,51.83,TRADE
VIC1,"2006/09/12 21:30:00",6144.27,41.8,TRADE
VIC1,"2006/09/12 22:00:00",5920.06,37.18,TRADE
VIC1,"2006/09/12 22:30:00",5686.92,42.66,TRADE
VIC1,"2006/09/12 23:00:00",5535.04,39.45,TRADE
VIC1,"2006/09/12 23:30:00",5792.51,41.63,TRADE
VIC1,"2006/09/13 00:00:00",5647.47,41.35,TRADE
VIC1,"2006/09/13 00:30:00",5493.21,38.95,TRADE
VIC1,"2006/09/13 01:00:00",5348.19,31.34,TRADE
VIC1,"2006/09/13 01:30:00",5672.49,36.94,TRADE
VIC1,"2006/09/13 02:00:00",5533.17,31.77,TRADE
VIC1,"2006/09/13 02:30:00",5314.1,24.5,TRADE
VIC1,"2006/09/13 03:00:00",5150.67,20.54,TRADE
VIC1,"2006/09/13 03:30:00",5015.51,16.9,TRADE
VIC1,"2006/09/13 04:00:00",4937.06,15.76,TRADE
VIC1,"2006/09/13 04:30:00",4884.6,16.26,TRADE
VIC1,"2006/09/13 05:00:00",4879.62,16.81,TRADE
VIC1,"2006/09/13 05:30:00",4972.7,18.64,TRADE
VIC1,"2006/09/13 06:00:00",5214.54,21.28,TRADE
VIC1,"2006/09/13 06:30:00",5652.28,29.6,TRADE
VIC1,"2006/09/13 07:00:00",6053.24,37.33,TRADE
VIC1,"2006/09/13 07:30:00",6309.14,50.99,TRADE
VIC1,"2006/09/13 08:00:00",6522.51,89.31,TRADE
VIC1,"2006/09/13 08:30:00",6553.97,77.01,TRADE
VIC1,"2006/09/13 09:00:00",6499.94,53.24,TRADE
VIC1,"2006/09/13 09:30:00",6496.44,50.64,TRADE
VIC1,"2006/09/13 10:00:00",6466.36,46.28,TRADE
VIC1,"2006/09/13 10:30:00",6424.28,50.39,TRADE
VIC1,"2006/09/13 11:00:00",6386.1,44.96,TRADE
VIC1,"2006/09/13 11:30:00",6383.63,49.6,TRADE
VIC1,"2006/09/13 12:00:00",6336.24,50.75,TRADE
VIC1,"2006/09/13 12:30:00",6310.32,50.31,TRADE
VIC1,"2006/09/13 13:00:00",6260.1,49.77,TRADE
VIC1,"2006/09/13 13:30:00",6299.67,50.31,TRADE
VIC1,"2006/09/13 14:00:00",6285.81,51.46,TRADE
VIC1,"2006/09/13 14:30:00",6288.13,46.86,TRADE
VIC1,"2006/09/13 15:00:00",6228.14,43.56,TRADE
VIC1,"2006/09/13 15:30:00",6202.91,43,TRADE
VIC1,"2006/09/13 16:00:00",6181.44,39.87,TRADE
VIC1,"2006/09/13 16:30:00",6155.35,35.43,TRADE
VIC1,"2006/09/13 17:00:00",6136.35,27.53,TRADE
VIC1,"2006/09/13 17:30:00",6271.82,29.57,TRADE
VIC1,"2006/09/13 18:00:00",6377.69,33.34,TRADE
VIC1,"2006/09/13 18:30:00",6547.65,39.78,TRADE
VIC1,"2006/09/13 19:00:00",6667.09,42.81,TRADE
VIC1,"2006/09/13 19:30:00",6567.71,39.08,TRADE
VIC1,"2006/09/13 20:00:00",6451.27,35,TRADE
VIC1,"2006/09/13 20:30:00",6308.54,34.74,TRADE
VIC1,"2006/09/13 21:00:00",6221.8,35.64,TRADE
VIC1,"2006/09/13 21:30:00",6044.18,33.12,TRADE
VIC1,"2006/09/13 22:00:00",5876.59,27.09,TRADE
VIC1,"2006/09/13 22:30:00",5693.98,28.74,TRADE
VIC1,"2006/09/13 23:00:00",5542.75,25.53,TRADE
VIC1,"2006/09/13 23:30:00",5807,29.49,TRADE
VIC1,"2006/09/14 00:00:00",5629.94,26.74,TRADE
VIC1,"2006/09/14 00:30:00",5477.67,25.25,TRADE
VIC1,"2006/09/14 01:00:00",5327.93,21.94,TRADE
VIC1,"2006/09/14 01:30:00",5670.4,27.47,TRADE
VIC1,"2006/09/14 02:00:00",5529.32,22.16,TRADE
VIC1,"2006/09/14 02:30:00",5309.79,21.27,TRADE
VIC1,"2006/09/14 03:00:00",5145.97,19.65,TRADE
VIC1,"2006/09/14 03:30:00",4982.39,18.08,TRADE
VIC1,"2006/09/14 04:00:00",4866.68,16.93,TRADE
VIC1,"2006/09/14 04:30:00",4820.75,17,TRADE
VIC1,"2006/09/14 05:00:00",4792.11,16.9,TRADE
VIC1,"2006/09/14 05:30:00",4920.6,18.97,TRADE
VIC1,"2006/09/14 06:00:00",5116.27,19.87,TRADE
VIC1,"2006/09/14 06:30:00",5528.49,28.69,TRADE
VIC1,"2006/09/14 07:00:00",5914.27,38.32,TRADE
VIC1,"2006/09/14 07:30:00",6126.1,35.56,TRADE
VIC1,"2006/09/14 08:00:00",6357.96,39.72,TRADE
VIC1,"2006/09/14 08:30:00",6484.12,44.19,TRADE
VIC1,"2006/09/14 09:00:00",6448.89,42.28,TRADE
VIC1,"2006/09/14 09:30:00",6530.16,43.09,TRADE
VIC1,"2006/09/14 10:00:00",6481.9,35.68,TRADE
VIC1,"2006/09/14 10:30:00",6473.35,38.64,TRADE
VIC1,"2006/09/14 11:00:00",6447.08,33.73,TRADE
VIC1,"2006/09/14 11:30:00",6427.81,31.28,TRADE
VIC1,"2006/09/14 12:00:00",6414.75,31.63,TRADE
VIC1,"2006/09/14 12:30:00",6407.47,32.15,TRADE
VIC1,"2006/09/14 13:00:00",6396.83,30.89,TRADE
VIC1,"2006/09/14 13:30:00",6407.92,32.95,TRADE
VIC1,"2006/09/14 14:00:00",6368.24,33.87,TRADE
VIC1,"2006/09/14 14:30:00",6365.9,33.95,TRADE
VIC1,"2006/09/14 15:00:00",6327.61,33.98,TRADE
VIC1,"2006/09/14 15:30:00",6276.86,32.87,TRADE
VIC1,"2006/09/14 16:00:00",6229.34,33.57,TRADE
VIC1,"2006/09/14 16:30:00",6253.66,34.37,TRADE
VIC1,"2006/09/14 17:00:00",6274.6,33.86,TRADE
VIC1,"2006/09/14 17:30:00",6288.65,27.67,TRADE
VIC1,"2006/09/14 18:00:00",6379.06,33.1,TRADE
VIC1,"2006/09/14 18:30:00",6488.69,38.52,TRADE
VIC1,"2006/09/14 19:00:00",6719.21,46.24,TRADE
VIC1,"2006/09/14 19:30:00",6664.56,44.58,TRADE
VIC1,"2006/09/14 20:00:00",6539.76,44.26,TRADE
VIC1,"2006/09/14 20:30:00",6452.04,49.87,TRADE
VIC1,"2006/09/14 21:00:00",6335.63,50.09,TRADE
VIC1,"2006/09/14 21:30:00",6163.14,38.9,TRADE
VIC1,"2006/09/14 22:00:00",5985.32,31.55,TRADE
VIC1,"2006/09/14 22:30:00",5772.37,38.75,TRADE
VIC1,"2006/09/14 23:00:00",5674.83,31.99,TRADE
VIC1,"2006/09/14 23:30:00",5935.58,37.06,TRADE
VIC1,"2006/09/15 00:00:00",5793.52,37.71,TRADE
VIC1,"2006/09/15 00:30:00",5583.35,31.93,TRADE
VIC1,"2006/09/15 01:00:00",5413.49,26.3,TRADE
VIC1,"2006/09/15 01:30:00",5778.56,32.46,TRADE
VIC1,"2006/09/15 02:00:00",5623.65,25.02,TRADE
VIC1,"2006/09/15 02:30:00",5409.51,21.04,TRADE
VIC1,"2006/09/15 03:00:00",5234.92,19.07,TRADE
VIC1,"2006/09/15 03:30:00",5064.57,17.84,TRADE
VIC1,"2006/09/15 04:00:00",4950.09,16.12,TRADE
VIC1,"2006/09/15 04:30:00",4877.26,15.44,TRADE
VIC1,"2006/09/15 05:00:00",4895.28,15.76,TRADE
VIC1,"2006/09/15 05:30:00",5014.89,18.2,TRADE
VIC1,"2006/09/15 06:00:00",5206.48,19.74,TRADE
VIC1,"2006/09/15 06:30:00",5643.01,27.6,TRADE
VIC1,"2006/09/15 07:00:00",5963.65,37.07,TRADE
VIC1,"2006/09/15 07:30:00",6208.73,35.18,TRADE
VIC1,"2006/09/15 08:00:00",6440.37,50.36,TRADE
VIC1,"2006/09/15 08:30:00",6582.99,60.44,TRADE
VIC1,"2006/09/15 09:00:00",6529.1,52.29,TRADE
VIC1,"2006/09/15 09:30:00",6528.56,49,TRADE
VIC1,"2006/09/15 10:00:00",6514.2,46.34,TRADE
VIC1,"2006/09/15 10:30:00",6438.38,52.42,TRADE
VIC1,"2006/09/15 11:00:00",6421.26,50.28,TRADE
VIC1,"2006/09/15 11:30:00",6078.28,41.94,TRADE
VIC1,"2006/09/15 12:00:00",6298.12,48.8,TRADE
VIC1,"2006/09/15 12:30:00",6303.39,44.32,TRADE
VIC1,"2006/09/15 13:00:00",6273.13,40.37,TRADE
VIC1,"2006/09/15 13:30:00",6293.74,36.17,TRADE
VIC1,"2006/09/15 14:00:00",6247.44,42.87,TRADE
VIC1,"2006/09/15 14:30:00",6239.24,44.59,TRADE
VIC1,"2006/09/15 15:00:00",6135.22,43.58,TRADE
VIC1,"2006/09/15 15:30:00",6083.41,40.02,TRADE
VIC1,"2006/09/15 16:00:00",6072.39,39.73,TRADE
VIC1,"2006/09/15 16:30:00",6060.83,34.87,TRADE
VIC1,"2006/09/15 17:00:00",6075.45,33.58,TRADE
VIC1,"2006/09/15 17:30:00",6095.64,32.74,TRADE
VIC1,"2006/09/15 18:00:00",6166.84,33.43,TRADE
VIC1,"2006/09/15 18:30:00",6301.51,38.86,TRADE
VIC1,"2006/09/15 19:00:00",6495.93,45.44,TRADE
VIC1,"2006/09/15 19:30:00",6444.81,43.15,TRADE
VIC1,"2006/09/15 20:00:00",6350.38,35.43,TRADE
VIC1,"2006/09/15 20:30:00",6292.42,38.49,TRADE
VIC1,"2006/09/15 21:00:00",6171.17,35.19,TRADE
VIC1,"2006/09/15 21:30:00",6010.61,32.68,TRADE
VIC1,"2006/09/15 22:00:00",5840.38,28.07,TRADE
VIC1,"2006/09/15 22:30:00",5741.28,33.35,TRADE
VIC1,"2006/09/15 23:00:00",5645.31,31.54,TRADE
VIC1,"2006/09/15 23:30:00",5898.98,40.74,TRADE
VIC1,"2006/09/16 00:00:00",5759.62,35.98,TRADE
VIC1,"2006/09/16 00:30:00",5535.38,33.99,TRADE
VIC1,"2006/09/16 01:00:00",5366.39,29.02,TRADE
VIC1,"2006/09/16 01:30:00",5687.05,32.13,TRADE
VIC1,"2006/09/16 02:00:00",5488.45,23.87,TRADE
VIC1,"2006/09/16 02:30:00",5264.58,20.75,TRADE
VIC1,"2006/09/16 03:00:00",5055.2,19.38,TRADE
VIC1,"2006/09/16 03:30:00",4890.23,17.76,TRADE
VIC1,"2006/09/16 04:00:00",4776.57,16.11,TRADE
VIC1,"2006/09/16 04:30:00",4677.35,15.27,TRADE
VIC1,"2006/09/16 05:00:00",4656.84,15.21,TRADE
VIC1,"2006/09/16 05:30:00",4696.91,15.62,TRADE
VIC1,"2006/09/16 06:00:00",4743.63,15.76,TRADE
VIC1,"2006/09/16 06:30:00",4904.84,17.09,TRADE
VIC1,"2006/09/16 07:00:00",4989.63,17.49,TRADE
VIC1,"2006/09/16 07:30:00",5055.54,19,TRADE
VIC1,"2006/09/16 08:00:00",5238.91,22.13,TRADE
VIC1,"2006/09/16 08:30:00",5455.05,25.87,TRADE
VIC1,"2006/09/16 09:00:00",5595.62,32.58,TRADE
VIC1,"2006/09/16 09:30:00",5659.9,50,TRADE
VIC1,"2006/09/16 10:00:00",5688.25,59.4,TRADE
VIC1,"2006/09/16 10:30:00",5628.88,47.27,TRADE
VIC1,"2006/09/16 11:00:00",5590.43,43.19,TRADE
VIC1,"2006/09/16 11:30:00",5518.82,38.24,TRADE
VIC1,"2006/09/16 12:00:00",5471.75,33.88,TRADE
VIC1,"2006/09/16 12:30:00",5435.55,32.69,TRADE
VIC1,"2006/09/16 13:00:00",5378.03,32.46,TRADE
VIC1,"2006/09/16 13:30:00",5349.73,30.15,TRADE
VIC1,"2006/09/16 14:00:00",5311.75,27.99,TRADE
VIC1,"2006/09/16 14:30:00",5231.69,23.72,TRADE
VIC1,"2006/09/16 15:00:00",5179.5,23.04,TRADE
VIC1,"2006/09/16 15:30:00",5140.25,22.22,TRADE
VIC1,"2006/09/16 16:00:00",5144.61,21.95,TRADE
VIC1,"2006/09/16 16:30:00",5182.89,22.88,TRADE
VIC1,"2006/09/16 17:00:00",5213.83,22.83,TRADE
VIC1,"2006/09/16 17:30:00",5302.13,24.07,TRADE
VIC1,"2006/09/16 18:00:00",5490.66,32.77,TRADE
VIC1,"2006/09/16 18:30:00",5713.57,45.31,TRADE
VIC1,"2006/09/16 19:00:00",5955.73,47.17,TRADE
VIC1,"2006/09/16 19:30:00",5904.32,44.01,TRADE
VIC1,"2006/09/16 20:00:00",5820.16,39.98,TRADE
VIC1,"2006/09/16 20:30:00",5752.38,36.08,TRADE
VIC1,"2006/09/16 21:00:00",5689.2,33.1,TRADE
VIC1,"2006/09/16 21:30:00",5578.14,30.78,TRADE
VIC1,"2006/09/16 22:00:00",5453.21,25.63,TRADE
VIC1,"2006/09/16 22:30:00",5351.94,26.38,TRADE
VIC1,"2006/09/16 23:00:00",5299.08,24.47,TRADE
VIC1,"2006/09/16 23:30:00",5521.62,29.69,TRADE
VIC1,"2006/09/17 00:00:00",5443.94,28.52,TRADE
VIC1,"2006/09/17 00:30:00",5314.34,23.32,TRADE
VIC1,"2006/09/17 01:00:00",5150.83,20.54,TRADE
VIC1,"2006/09/17 01:30:00",5516.88,23.65,TRADE
VIC1,"2006/09/17 02:00:00",5332.5,19.67,TRADE
VIC1,"2006/09/17 02:30:00",5134.84,17.54,TRADE
VIC1,"2006/09/17 03:00:00",4920.66,15.42,TRADE
VIC1,"2006/09/17 03:30:00",4750.7,15.17,TRADE
VIC1,"2006/09/17 04:00:00",4644.5,14.86,TRADE
VIC1,"2006/09/17 04:30:00",4555.82,14.02,TRADE
VIC1,"2006/09/17 05:00:00",4476.95,13.63,TRADE
VIC1,"2006/09/17 05:30:00",4475.26,13.83,TRADE
VIC1,"2006/09/17 06:00:00",4490.87,14.29,TRADE
VIC1,"2006/09/17 06:30:00",4547.42,14.17,TRADE
VIC1,"2006/09/17 07:00:00",4540.56,13.86,TRADE
VIC1,"2006/09/17 07:30:00",4528.16,14.08,TRADE
VIC1,"2006/09/17 08:00:00",4711.58,15.9,TRADE
VIC1,"2006/09/17 08:30:00",4887.43,18.08,TRADE
VIC1,"2006/09/17 09:00:00",4974.92,19.66,TRADE
VIC1,"2006/09/17 09:30:00",5025.29,20.12,TRADE
VIC1,"2006/09/17 10:00:00",5065.71,21.71,TRADE
VIC1,"2006/09/17 10:30:00",5102.56,21.2,TRADE
VIC1,"2006/09/17 11:00:00",5058.23,20.02,TRADE
VIC1,"2006/09/17 11:30:00",5073.03,20.29,TRADE
VIC1,"2006/09/17 12:00:00",5061.27,20.28,TRADE
VIC1,"2006/09/17 12:30:00",5084.14,20.42,TRADE
VIC1,"2006/09/17 13:00:00",5076.71,20.29,TRADE
VIC1,"2006/09/17 13:30:00",5059.69,19.27,TRADE
VIC1,"2006/09/17 14:00:00",5037.54,18.47,TRADE
VIC1,"2006/09/17 14:30:00",5019.63,18.02,TRADE
VIC1,"2006/09/17 15:00:00",5059.45,17.95,TRADE
VIC1,"2006/09/17 15:30:00",5056.28,18.73,TRADE
VIC1,"2006/09/17 16:00:00",5092.81,19.22,TRADE
VIC1,"2006/09/17 16:30:00",5092.86,20.44,TRADE
VIC1,"2006/09/17 17:00:00",5155.02,21.1,TRADE
VIC1,"2006/09/17 17:30:00",5223.42,22.03,TRADE
VIC1,"2006/09/17 18:00:00",5405.82,26.54,TRADE
VIC1,"2006/09/17 18:30:00",5689.68,38.59,TRADE
VIC1,"2006/09/17 19:00:00",5804.83,43.84,TRADE
VIC1,"2006/09/17 19:30:00",5735.33,41.74,TRADE
VIC1,"2006/09/17 20:00:00",5661.45,34.13,TRADE
VIC1,"2006/09/17 20:30:00",5528.41,32.29,TRADE
VIC1,"2006/09/17 21:00:00",5491.29,29.42,TRADE
VIC1,"2006/09/17 21:30:00",5362.82,25.14,TRADE
VIC1,"2006/09/17 22:00:00",5193.74,22.74,TRADE
VIC1,"2006/09/17 22:30:00",5098.9,23.76,TRADE
VIC1,"2006/09/17 23:00:00",4946.46,22.8,TRADE
VIC1,"2006/09/17 23:30:00",5231.71,28.21,TRADE
VIC1,"2006/09/18 00:00:00",5136.47,24.85,TRADE
VIC1,"2006/09/18 00:30:00",4988.31,24.77,TRADE
VIC1,"2006/09/18 01:00:00",4848.74,21.25,TRADE
VIC1,"2006/09/18 01:30:00",5206.5,28.87,TRADE
VIC1,"2006/09/18 02:00:00",5079.41,25.09,TRADE
VIC1,"2006/09/18 02:30:00",4867.57,17.63,TRADE
VIC1,"2006/09/18 03:00:00",4723.08,15.95,TRADE
VIC1,"2006/09/18 03:30:00",4604.74,15.83,TRADE
VIC1,"2006/09/18 04:00:00",4503.77,14.83,TRADE
VIC1,"2006/09/18 04:30:00",4465.38,14.9,TRADE
VIC1,"2006/09/18 05:00:00",4417.23,14.88,TRADE
VIC1,"2006/09/18 05:30:00",4497.51,16.86,TRADE
VIC1,"2006/09/18 06:00:00",4694.78,17.64,TRADE
VIC1,"2006/09/18 06:30:00",5051.87,21.43,TRADE
VIC1,"2006/09/18 07:00:00",5344.82,25.32,TRADE
VIC1,"2006/09/18 07:30:00",5508.15,25.12,TRADE
VIC1,"2006/09/18 08:00:00",5811.62,31.29,TRADE
VIC1,"2006/09/18 08:30:00",5999.06,33.45,TRADE
VIC1,"2006/09/18 09:00:00",6110.78,34.65,TRADE
VIC1,"2006/09/18 09:30:00",6223.99,35.25,TRADE
VIC1,"2006/09/18 10:00:00",6233.79,36.73,TRADE
VIC1,"2006/09/18 10:30:00",6246.18,42.33,TRADE
VIC1,"2006/09/18 11:00:00",6238.23,41.4,TRADE
VIC1,"2006/09/18 11:30:00",6237.41,42.31,TRADE
VIC1,"2006/09/18 12:00:00",6236.4,41.82,TRADE
VIC1,"2006/09/18 12:30:00",6264.9,37.81,TRADE
VIC1,"2006/09/18 13:00:00",6245.28,35.87,TRADE
VIC1,"2006/09/18 13:30:00",6273.47,42.46,TRADE
VIC1,"2006/09/18 14:00:00",6226.06,36.43,TRADE
VIC1,"2006/09/18 14:30:00",6229,37.24,TRADE
VIC1,"2006/09/18 15:00:00",6169.35,35.34,TRADE
VIC1,"2006/09/18 15:30:00",6129.98,35.06,TRADE
VIC1,"2006/09/18 16:00:00",6143.51,35.06,TRADE
VIC1,"2006/09/18 16:30:00",6129.17,36.01,TRADE
VIC1,"2006/09/18 17:00:00",6194.19,34.42,TRADE
VIC1,"2006/09/18 17:30:00",6283.7,34,TRADE
VIC1,"2006/09/18 18:00:00",6373.9,34.02,TRADE
VIC1,"2006/09/18 18:30:00",6485.05,37.18,TRADE
VIC1,"2006/09/18 19:00:00",6503.38,37.05,TRADE
VIC1,"2006/09/18 19:30:00",6362.28,34.52,TRADE
VIC1,"2006/09/18 20:00:00",6232.09,29.73,TRADE
VIC1,"2006/09/18 20:30:00",6119.33,28.72,TRADE
VIC1,"2006/09/18 21:00:00",6011.43,26.14,TRADE
VIC1,"2006/09/18 21:30:00",5830.57,24.16,TRADE
VIC1,"2006/09/18 22:00:00",5660.12,21.5,TRADE
VIC1,"2006/09/18 22:30:00",5486.44,22.23,TRADE
VIC1,"2006/09/18 23:00:00",5363.57,20.79,TRADE
VIC1,"2006/09/18 23:30:00",5648.69,22.94,TRADE
VIC1,"2006/09/19 00:00:00",5508.09,23.02,TRADE
VIC1,"2006/09/19 00:30:00",5329.57,21.36,TRADE
VIC1,"2006/09/19 01:00:00",5125.37,17.89,TRADE
VIC1,"2006/09/19 01:30:00",5464.57,21.28,TRADE
VIC1,"2006/09/19 02:00:00",5286.6,18.12,TRADE
VIC1,"2006/09/19 02:30:00",5101.29,16.98,TRADE
VIC1,"2006/09/19 03:00:00",4898.51,15.72,TRADE
VIC1,"2006/09/19 03:30:00",4778.06,15.15,TRADE
VIC1,"2006/09/19 04:00:00",4661.77,13.71,TRADE
VIC1,"2006/09/19 04:30:00",4594.88,13.59,TRADE
VIC1,"2006/09/19 05:00:00",4617.75,14.23,TRADE
VIC1,"2006/09/19 05:30:00",4665.81,16.23,TRADE
VIC1,"2006/09/19 06:00:00",4836.6,15.94,TRADE
VIC1,"2006/09/19 06:30:00",5175.47,19.21,TRADE
VIC1,"2006/09/19 07:00:00",5450.65,22.61,TRADE
VIC1,"2006/09/19 07:30:00",5685.86,24.31,TRADE
VIC1,"2006/09/19 08:00:00",5917.2,26.57,TRADE
VIC1,"2006/09/19 08:30:00",6088.95,31.02,TRADE
VIC1,"2006/09/19 09:00:00",6165.23,31.52,TRADE
VIC1,"2006/09/19 09:30:00",6272.7,34.15,TRADE
VIC1,"2006/09/19 10:00:00",6289.25,36.63,TRADE
VIC1,"2006/09/19 10:30:00",6301.3,47.19,TRADE
VIC1,"2006/09/19 11:00:00",6351.55,42.13,TRADE
VIC1,"2006/09/19 11:30:00",6374.16,41.45,TRADE
VIC1,"2006/09/19 12:00:00",6350.63,43.41,TRADE
VIC1,"2006/09/19 12:30:00",6383.35,43.68,TRADE
VIC1,"2006/09/19 13:00:00",6395.52,40.15,TRADE
VIC1,"2006/09/19 13:30:00",6486.69,45.08,TRADE
VIC1,"2006/09/19 14:00:00",6541.37,48.49,TRADE
VIC1,"2006/09/19 14:30:00",6541.09,48.42,TRADE
VIC1,"2006/09/19 15:00:00",6482.87,45.42,TRADE
VIC1,"2006/09/19 15:30:00",6463.31,43.81,TRADE
VIC1,"2006/09/19 16:00:00",6407.55,41.79,TRADE
VIC1,"2006/09/19 16:30:00",6420.51,40.57,TRADE
VIC1,"2006/09/19 17:00:00",6416.27,41.81,TRADE
VIC1,"2006/09/19 17:30:00",6403.78,37.55,TRADE
VIC1,"2006/09/19 18:00:00",6416.68,35.15,TRADE
VIC1,"2006/09/19 18:30:00",6453.1,35.65,TRADE
VIC1,"2006/09/19 19:00:00",6449.35,35.22,TRADE
VIC1,"2006/09/19 19:30:00",6247.09,31.16,TRADE
VIC1,"2006/09/19 20:00:00",6098.34,26.02,TRADE
VIC1,"2006/09/19 20:30:00",5965.18,26.16,TRADE
VIC1,"2006/09/19 21:00:00",5833.38,24.9,TRADE
VIC1,"2006/09/19 21:30:00",5638.9,23.65,TRADE
VIC1,"2006/09/19 22:00:00",5519.73,21.53,TRADE
VIC1,"2006/09/19 22:30:00",5326.01,21.55,TRADE
VIC1,"2006/09/19 23:00:00",5197.24,20.9,TRADE
VIC1,"2006/09/19 23:30:00",5539.22,22.88,TRADE
VIC1,"2006/09/20 00:00:00",5415.8,22.61,TRADE
VIC1,"2006/09/20 00:30:00",5232.89,21.32,TRADE
VIC1,"2006/09/20 01:00:00",5042.91,19.52,TRADE
VIC1,"2006/09/20 01:30:00",5406.66,22.25,TRADE
VIC1,"2006/09/20 02:00:00",5245.86,20.47,TRADE
VIC1,"2006/09/20 02:30:00",5012.89,17.75,TRADE
VIC1,"2006/09/20 03:00:00",4879.34,15.84,TRADE
VIC1,"2006/09/20 03:30:00",4733.07,15.59,TRADE
VIC1,"2006/09/20 04:00:00",4655.31,14.91,TRADE
VIC1,"2006/09/20 04:30:00",4608.5,15.19,TRADE
VIC1,"2006/09/20 05:00:00",4638.84,15.54,TRADE
VIC1,"2006/09/20 05:30:00",4723.39,16.34,TRADE
VIC1,"2006/09/20 06:00:00",4911.72,18.02,TRADE
VIC1,"2006/09/20 06:30:00",5244.12,21.68,TRADE
VIC1,"2006/09/20 07:00:00",5527.89,28.36,TRADE
VIC1,"2006/09/20 07:30:00",5674.33,26.89,TRADE
VIC1,"2006/09/20 08:00:00",5967.54,32.64,TRADE
VIC1,"2006/09/20 08:30:00",6144.43,34.52,TRADE
VIC1,"2006/09/20 09:00:00",6239.74,34.3,TRADE
VIC1,"2006/09/20 09:30:00",6298.14,38.54,TRADE
VIC1,"2006/09/20 10:00:00",6260.84,38.53,TRADE
VIC1,"2006/09/20 10:30:00",6232.48,43.53,TRADE
VIC1,"2006/09/20 11:00:00",6280.67,47.94,TRADE
VIC1,"2006/09/20 11:30:00",6243.15,50.84,TRADE
VIC1,"2006/09/20 12:00:00",6263.8,47.27,TRADE
VIC1,"2006/09/20 12:30:00",6218.19,52.8,TRADE
VIC1,"2006/09/20 13:00:00",6187.23,51.81,TRADE
VIC1,"2006/09/20 13:30:00",6213.35,56.99,TRADE
VIC1,"2006/09/20 14:00:00",6174.89,52.21,TRADE
VIC1,"2006/09/20 14:30:00",6154.54,52.33,TRADE
VIC1,"2006/09/20 15:00:00",6121.07,51.49,TRADE
VIC1,"2006/09/20 15:30:00",6068.71,43.45,TRADE
VIC1,"2006/09/20 16:00:00",6043.86,34.31,TRADE
VIC1,"2006/09/20 16:30:00",6032.54,33.82,TRADE
VIC1,"2006/09/20 17:00:00",6096.57,34.11,TRADE
VIC1,"2006/09/20 17:30:00",6102.51,33.39,TRADE
VIC1,"2006/09/20 18:00:00",6197.61,34.42,TRADE
VIC1,"2006/09/20 18:30:00",6337.1,38.86,TRADE
VIC1,"2006/09/20 19:00:00",6478.87,45.51,TRADE
VIC1,"2006/09/20 19:30:00",6373.67,35.46,TRADE
VIC1,"2006/09/20 20:00:00",6240.3,34.41,TRADE
VIC1,"2006/09/20 20:30:00",6163.75,33.02,TRADE
VIC1,"2006/09/20 21:00:00",6033.68,29.98,TRADE
VIC1,"2006/09/20 21:30:00",5902.88,26.17,TRADE
VIC1,"2006/09/20 22:00:00",5722.9,24.62,TRADE
VIC1,"2006/09/20 22:30:00",5504.3,24.9,TRADE
VIC1,"2006/09/20 23:00:00",5365.47,24.24,TRADE
VIC1,"2006/09/20 23:30:00",5651.76,27.59,TRADE
VIC1,"2006/09/21 00:00:00",5545.4,25.94,TRADE
VIC1,"2006/09/21 00:30:00",5344.51,24.48,TRADE
VIC1,"2006/09/21 01:00:00",5165.96,23.85,TRADE
VIC1,"2006/09/21 01:30:00",5505.36,26.63,TRADE
VIC1,"2006/09/21 02:00:00",5413.45,23.05,TRADE
VIC1,"2006/09/21 02:30:00",5193.55,21.17,TRADE
VIC1,"2006/09/21 03:00:00",5007.25,18.88,TRADE
VIC1,"2006/09/21 03:30:00",4859.83,17.51,TRADE
VIC1,"2006/09/21 04:00:00",4747.86,16.61,TRADE
VIC1,"2006/09/21 04:30:00",4686.61,15.89,TRADE
VIC1,"2006/09/21 05:00:00",4686.11,16.42,TRADE
VIC1,"2006/09/21 05:30:00",4750.05,17.74,TRADE
VIC1,"2006/09/21 06:00:00",4927.22,20.18,TRADE
VIC1,"2006/09/21 06:30:00",5270.08,27.73,TRADE
VIC1,"2006/09/21 07:00:00",5581.67,32.07,TRADE
VIC1,"2006/09/21 07:30:00",5777.14,31.4,TRADE
VIC1,"2006/09/21 08:00:00",6026.48,34.01,TRADE
VIC1,"2006/09/21 08:30:00",6195.55,34.64,TRADE
VIC1,"2006/09/21 09:00:00",6283.92,35,TRADE
VIC1,"2006/09/21 09:30:00",6328.18,36.43,TRADE
VIC1,"2006/09/21 10:00:00",6261.31,34.96,TRADE
VIC1,"2006/09/21 10:30:00",6236.66,35.45,TRADE
VIC1,"2006/09/21 11:00:00",6210.97,34.42,TRADE
VIC1,"2006/09/21 11:30:00",6195.19,34.45,TRADE
VIC1,"2006/09/21 12:00:00",6181.8,34.77,TRADE
VIC1,"2006/09/21 12:30:00",6156.08,34.58,TRADE
VIC1,"2006/09/21 13:00:00",6145.51,34.44,TRADE
VIC1,"2006/09/21 13:30:00",6145.27,34.73,TRADE
VIC1,"2006/09/21 14:00:00",6119.82,34.6,TRADE
VIC1,"2006/09/21 14:30:00",6103.68,34.66,TRADE
VIC1,"2006/09/21 15:00:00",6090.42,34.37,TRADE
VIC1,"2006/09/21 15:30:00",6029.09,34.38,TRADE
VIC1,"2006/09/21 16:00:00",6005.43,34.46,TRADE
VIC1,"2006/09/21 16:30:00",6001.93,34.25,TRADE
VIC1,"2006/09/21 17:00:00",6023.82,33.23,TRADE
VIC1,"2006/09/21 17:30:00",6038.1,28.19,TRADE
VIC1,"2006/09/21 18:00:00",6082.91,33.56,TRADE
VIC1,"2006/09/21 18:30:00",6184.97,35.3,TRADE
VIC1,"2006/09/21 19:00:00",6373.3,35.71,TRADE
VIC1,"2006/09/21 19:30:00",6336.68,35.69,TRADE
VIC1,"2006/09/21 20:00:00",6274.38,36.21,TRADE
VIC1,"2006/09/21 20:30:00",6137.97,28.66,TRADE
VIC1,"2006/09/21 21:00:00",6025.48,25.73,TRADE
VIC1,"2006/09/21 21:30:00",5898.75,24.89,TRADE
VIC1,"2006/09/21 22:00:00",5701.46,21.38,TRADE
VIC1,"2006/09/21 22:30:00",5530.95,22.01,TRADE
VIC1,"2006/09/21 23:00:00",5415.17,20.72,TRADE
VIC1,"2006/09/21 23:30:00",5687.38,23.21,TRADE
VIC1,"2006/09/22 00:00:00",5548.51,21.62,TRADE
VIC1,"2006/09/22 00:30:00",5321.27,18.92,TRADE
VIC1,"2006/09/22 01:00:00",5162.41,17.39,TRADE
VIC1,"2006/09/22 01:30:00",5509.45,20.2,TRADE
VIC1,"2006/09/22 02:00:00",5336.1,17.51,TRADE
VIC1,"2006/09/22 02:30:00",5149.38,16.78,TRADE
VIC1,"2006/09/22 03:00:00",4927.73,15.18,TRADE
VIC1,"2006/09/22 03:30:00",4809.48,13.28,TRADE
VIC1,"2006/09/22 04:00:00",4704.68,11.81,TRADE
VIC1,"2006/09/22 04:30:00",4652.97,11.49,TRADE
VIC1,"2006/09/22 05:00:00",4656.9,12.43,TRADE
VIC1,"2006/09/22 05:30:00",4687.91,14.59,TRADE
VIC1,"2006/09/22 06:00:00",4906.32,15.92,TRADE
VIC1,"2006/09/22 06:30:00",5218.44,18.88,TRADE
VIC1,"2006/09/22 07:00:00",5489.67,20.51,TRADE
VIC1,"2006/09/22 07:30:00",5640.45,22.22,TRADE
VIC1,"2006/09/22 08:00:00",5893.65,25.06,TRADE
VIC1,"2006/09/22 08:30:00",6058.09,25.63,TRADE
VIC1,"2006/09/22 09:00:00",6133.72,28.02,TRADE
VIC1,"2006/09/22 09:30:00",6191.38,30.88,TRADE
VIC1,"2006/09/22 10:00:00",6193.05,31,TRADE
VIC1,"2006/09/22 10:30:00",6194.46,31.1,TRADE
VIC1,"2006/09/22 11:00:00",6179.53,33.08,TRADE
VIC1,"2006/09/22 11:30:00",6214.59,32.67,TRADE
VIC1,"2006/09/22 12:00:00",6226.31,33.56,TRADE
VIC1,"2006/09/22 12:30:00",6220.04,32.74,TRADE
VIC1,"2006/09/22 13:00:00",6199.25,32.2,TRADE
VIC1,"2006/09/22 13:30:00",6218.24,33.86,TRADE
VIC1,"2006/09/22 14:00:00",6021.45,32.61,TRADE
VIC1,"2006/09/22 14:30:00",6149.19,34.2,TRADE
VIC1,"2006/09/22 15:00:00",6145.83,33.96,TRADE
VIC1,"2006/09/22 15:30:00",6114.77,32.87,TRADE
VIC1,"2006/09/22 16:00:00",6080.93,32.74,TRADE
VIC1,"2006/09/22 16:30:00",6056.24,33.39,TRADE
VIC1,"2006/09/22 17:00:00",6058.83,31.98,TRADE
VIC1,"2006/09/22 17:30:00",6135.19,30.67,TRADE
VIC1,"2006/09/22 18:00:00",6208.51,31.08,TRADE
VIC1,"2006/09/22 18:30:00",6249.12,31.63,TRADE
VIC1,"2006/09/22 19:00:00",6318.06,32.78,TRADE
VIC1,"2006/09/22 19:30:00",6238.39,30.79,TRADE
VIC1,"2006/09/22 20:00:00",6103.18,30.69,TRADE
VIC1,"2006/09/22 20:30:00",6003.61,29.9,TRADE
VIC1,"2006/09/22 21:00:00",5887.81,29.91,TRADE
VIC1,"2006/09/22 21:30:00",5742.02,25.34,TRADE
VIC1,"2006/09/22 22:00:00",5612.49,25.58,TRADE
VIC1,"2006/09/22 22:30:00",5494.13,25.7,TRADE
VIC1,"2006/09/22 23:00:00",5400.28,24.28,TRADE
VIC1,"2006/09/22 23:30:00",5666.21,30.01,TRADE
VIC1,"2006/09/23 00:00:00",5528.36,28.94,TRADE
VIC1,"2006/09/23 00:30:00",5308.05,25.2,TRADE
VIC1,"2006/09/23 01:00:00",5171.2,22.34,TRADE
VIC1,"2006/09/23 01:30:00",5442.23,27.31,TRADE
VIC1,"2006/09/23 02:00:00",5291.13,23.13,TRADE
VIC1,"2006/09/23 02:30:00",5088.38,20.55,TRADE
VIC1,"2006/09/23 03:00:00",4907.45,17.57,TRADE
VIC1,"2006/09/23 03:30:00",4773.76,16.39,TRADE
VIC1,"2006/09/23 04:00:00",4655.06,15.25,TRADE
VIC1,"2006/09/23 04:30:00",4565.35,14.51,TRADE
VIC1,"2006/09/23 05:00:00",4544.7,13.52,TRADE
VIC1,"2006/09/23 05:30:00",4590.27,14.65,TRADE
VIC1,"2006/09/23 06:00:00",4619.14,15.02,TRADE
VIC1,"2006/09/23 06:30:00",4762.02,16.02,TRADE
VIC1,"2006/09/23 07:00:00",4836.36,17.18,TRADE
VIC1,"2006/09/23 07:30:00",4919.42,16.9,TRADE
VIC1,"2006/09/23 08:00:00",5087.32,19.79,TRADE
VIC1,"2006/09/23 08:30:00",5269.29,22.35,TRADE
VIC1,"2006/09/23 09:00:00",5406.21,25.01,TRADE
VIC1,"2006/09/23 09:30:00",5460.58,29.52,TRADE
VIC1,"2006/09/23 10:00:00",5495.49,30.76,TRADE
VIC1,"2006/09/23 10:30:00",5466.62,30.18,TRADE
VIC1,"2006/09/23 11:00:00",5461.39,27.92,TRADE
VIC1,"2006/09/23 11:30:00",5423.63,26.31,TRADE
VIC1,"2006/09/23 12:00:00",5393.81,25.58,TRADE
VIC1,"2006/09/23 12:30:00",5378.4,24.02,TRADE
VIC1,"2006/09/23 13:00:00",5306.93,22.2,TRADE
VIC1,"2006/09/23 13:30:00",5277.36,21.86,TRADE
VIC1,"2006/09/23 14:00:00",5215.86,21.89,TRADE
VIC1,"2006/09/23 14:30:00",5172.07,21.31,TRADE
VIC1,"2006/09/23 15:00:00",5134.97,20.9,TRADE
VIC1,"2006/09/23 15:30:00",5095.78,20.05,TRADE
VIC1,"2006/09/23 16:00:00",5122.59,20.79,TRADE
VIC1,"2006/09/23 16:30:00",5145.17,20.8,TRADE
VIC1,"2006/09/23 17:00:00",5212.3,21.75,TRADE
VIC1,"2006/09/23 17:30:00",5268.09,21.55,TRADE
VIC1,"2006/09/23 18:00:00",5394.67,23.44,TRADE
VIC1,"2006/09/23 18:30:00",5595.29,28.23,TRADE
VIC1,"2006/09/23 19:00:00",5825.06,33.02,TRADE
VIC1,"2006/09/23 19:30:00",5787.66,30.35,TRADE
VIC1,"2006/09/23 20:00:00",5690.58,26.13,TRADE
VIC1,"2006/09/23 20:30:00",5592.67,24.8,TRADE
VIC1,"2006/09/23 21:00:00",5490.97,22.57,TRADE
VIC1,"2006/09/23 21:30:00",5378.51,20.06,TRADE
VIC1,"2006/09/23 22:00:00",5288.83,18.24,TRADE
VIC1,"2006/09/23 22:30:00",5196.4,19.22,TRADE
VIC1,"2006/09/23 23:00:00",5129.2,18.83,TRADE
VIC1,"2006/09/23 23:30:00",5371.48,21.11,TRADE
VIC1,"2006/09/24 00:00:00",5278.16,20.36,TRADE
VIC1,"2006/09/24 00:30:00",5121.01,20.55,TRADE
VIC1,"2006/09/24 01:00:00",4973.72,17.62,TRADE
VIC1,"2006/09/24 01:30:00",5269.92,23.04,TRADE
VIC1,"2006/09/24 02:00:00",5071.4,21.19,TRADE
VIC1,"2006/09/24 02:30:00",4874,18.39,TRADE
VIC1,"2006/09/24 03:00:00",4698.55,15.4,TRADE
VIC1,"2006/09/24 03:30:00",4537.98,15.54,TRADE
VIC1,"2006/09/24 04:00:00",4423.25,14.28,TRADE
VIC1,"2006/09/24 04:30:00",4377.47,13.84,TRADE
VIC1,"2006/09/24 05:00:00",4306.56,12.22,TRADE
VIC1,"2006/09/24 05:30:00",4301.6,11.93,TRADE
VIC1,"2006/09/24 06:00:00",4301.55,11.47,TRADE
VIC1,"2006/09/24 06:30:00",4367.7,10.45,TRADE
VIC1,"2006/09/24 07:00:00",4410.88,12.89,TRADE
VIC1,"2006/09/24 07:30:00",4408.41,13,TRADE
VIC1,"2006/09/24 08:00:00",4543.2,13.94,TRADE
VIC1,"2006/09/24 08:30:00",4671.55,15.23,TRADE
VIC1,"2006/09/24 09:00:00",4818.56,17.03,TRADE
VIC1,"2006/09/24 09:30:00",4954.43,19.44,TRADE
VIC1,"2006/09/24 10:00:00",5027.44,20.09,TRADE
VIC1,"2006/09/24 10:30:00",5070.56,20.13,TRADE
VIC1,"2006/09/24 11:00:00",5075.75,20.25,TRADE
VIC1,"2006/09/24 11:30:00",5136.26,20.44,TRADE
VIC1,"2006/09/24 12:00:00",5175.1,20.34,TRADE
VIC1,"2006/09/24 12:30:00",5291.33,20.7,TRADE
VIC1,"2006/09/24 13:00:00",5322.68,20.65,TRADE
VIC1,"2006/09/24 13:30:00",5304.83,20.47,TRADE
VIC1,"2006/09/24 14:00:00",5255.47,20.42,TRADE
VIC1,"2006/09/24 14:30:00",5273.78,20.76,TRADE
VIC1,"2006/09/24 15:00:00",5234.8,21.04,TRADE
VIC1,"2006/09/24 15:30:00",5218.43,20.85,TRADE
VIC1,"2006/09/24 16:00:00",5204.71,21.9,TRADE
VIC1,"2006/09/24 16:30:00",5243.99,23.96,TRADE
VIC1,"2006/09/24 17:00:00",5320.92,26.49,TRADE
VIC1,"2006/09/24 17:30:00",5475.6,37.84,TRADE
VIC1,"2006/09/24 18:00:00",5638.75,48.5,TRADE
VIC1,"2006/09/24 18:30:00",5850.32,62.81,TRADE
VIC1,"2006/09/24 19:00:00",6040.52,61.03,TRADE
VIC1,"2006/09/24 19:30:00",6040.96,53.15,TRADE
VIC1,"2006/09/24 20:00:00",5990.92,44.64,TRADE
VIC1,"2006/09/24 20:30:00",5914.37,43.32,TRADE
VIC1,"2006/09/24 21:00:00",5828.51,40.28,TRADE
VIC1,"2006/09/24 21:30:00",5715.16,34.99,TRADE
VIC1,"2006/09/24 22:00:00",5565.66,32.14,TRADE
VIC1,"2006/09/24 22:30:00",5432.22,35.36,TRADE
VIC1,"2006/09/24 23:00:00",5295.76,35.91,TRADE
VIC1,"2006/09/24 23:30:00",5543.36,34.15,TRADE
VIC1,"2006/09/25 00:00:00",5391.32,29.74,TRADE
VIC1,"2006/09/25 00:30:00",5253.61,30.84,TRADE
VIC1,"2006/09/25 01:00:00",5160.95,28.51,TRADE
VIC1,"2006/09/25 01:30:00",5527.73,36.39,TRADE
VIC1,"2006/09/25 02:00:00",5390.77,31.94,TRADE
VIC1,"2006/09/25 02:30:00",5202.67,24.67,TRADE
VIC1,"2006/09/25 03:00:00",5053.96,21.82,TRADE
VIC1,"2006/09/25 03:30:00",4888.37,17.76,TRADE
VIC1,"2006/09/25 04:00:00",4835.11,18.2,TRADE
VIC1,"2006/09/25 04:30:00",4781.51,18,TRADE
VIC1,"2006/09/25 05:00:00",4803.34,18.61,TRADE
VIC1,"2006/09/25 05:30:00",4888.69,20.93,TRADE
VIC1,"2006/09/25 06:00:00",5110.68,21.84,TRADE
VIC1,"2006/09/25 06:30:00",5439.48,30.64,TRADE
VIC1,"2006/09/25 07:00:00",5804.85,33.25,TRADE
VIC1,"2006/09/25 07:30:00",5962.94,27.87,TRADE
VIC1,"2006/09/25 08:00:00",6274.1,34.2,TRADE
VIC1,"2006/09/25 08:30:00",6412.86,40.31,TRADE
VIC1,"2006/09/25 09:00:00",6531.29,45.51,TRADE
VIC1,"2006/09/25 09:30:00",6608.8,46.4,TRADE
VIC1,"2006/09/25 10:00:00",6520.26,46.33,TRADE
VIC1,"2006/09/25 10:30:00",6466.51,47.07,TRADE
VIC1,"2006/09/25 11:00:00",6436.53,54.65,TRADE
VIC1,"2006/09/25 11:30:00",6405.35,46.8,TRADE
VIC1,"2006/09/25 12:00:00",6372.3,46.67,TRADE
VIC1,"2006/09/25 12:30:00",6337.6,46.42,TRADE
VIC1,"2006/09/25 13:00:00",6271.09,45.14,TRADE
VIC1,"2006/09/25 13:30:00",6318.89,46.75,TRADE
VIC1,"2006/09/25 14:00:00",6318.13,46.82,TRADE
VIC1,"2006/09/25 14:30:00",6286.6,46.87,TRADE
VIC1,"2006/09/25 15:00:00",6264.43,43.98,TRADE
VIC1,"2006/09/25 15:30:00",6240.13,41.05,TRADE
VIC1,"2006/09/25 16:00:00",6199.15,36.4,TRADE
VIC1,"2006/09/25 16:30:00",6215.58,37.21,TRADE
VIC1,"2006/09/25 17:00:00",6284.46,38.53,TRADE
VIC1,"2006/09/25 17:30:00",6377.78,41.15,TRADE
VIC1,"2006/09/25 18:00:00",6449.86,40.41,TRADE
VIC1,"2006/09/25 18:30:00",6535.32,47.19,TRADE
VIC1,"2006/09/25 19:00:00",6741.01,55.32,TRADE
VIC1,"2006/09/25 19:30:00",6722.14,48.58,TRADE
VIC1,"2006/09/25 20:00:00",6643.58,45.14,TRADE
VIC1,"2006/09/25 20:30:00",6541.56,46.85,TRADE
VIC1,"2006/09/25 21:00:00",6436.91,43.67,TRADE
VIC1,"2006/09/25 21:30:00",6286.64,38.27,TRADE
VIC1,"2006/09/25 22:00:00",6109.36,37.23,TRADE
VIC1,"2006/09/25 22:30:00",5855.27,41.05,TRADE
VIC1,"2006/09/25 23:00:00",5709.67,36.84,TRADE
VIC1,"2006/09/25 23:30:00",6035.46,45.43,TRADE
VIC1,"2006/09/26 00:00:00",5818.16,40.8,TRADE
VIC1,"2006/09/26 00:30:00",5625.21,37.49,TRADE
VIC1,"2006/09/26 01:00:00",5466,34.14,TRADE
VIC1,"2006/09/26 01:30:00",5821.91,35.47,TRADE
VIC1,"2006/09/26 02:00:00",5691.68,32.17,TRADE
VIC1,"2006/09/26 02:30:00",5526.02,23.44,TRADE
VIC1,"2006/09/26 03:00:00",5309.18,20.71,TRADE
VIC1,"2006/09/26 03:30:00",5181.86,18.66,TRADE
VIC1,"2006/09/26 04:00:00",5099.27,15.99,TRADE
VIC1,"2006/09/26 04:30:00",5046.25,15.02,TRADE
VIC1,"2006/09/26 05:00:00",5031.28,14.98,TRADE
VIC1,"2006/09/26 05:30:00",5103.22,16.75,TRADE
VIC1,"2006/09/26 06:00:00",5266.27,17.59,TRADE
VIC1,"2006/09/26 06:30:00",5651.97,20.97,TRADE
VIC1,"2006/09/26 07:00:00",5945.69,25.9,TRADE
VIC1,"2006/09/26 07:30:00",6141.29,30.06,TRADE
VIC1,"2006/09/26 08:00:00",6348.67,38.11,TRADE
VIC1,"2006/09/26 08:30:00",6509.18,39.45,TRADE
VIC1,"2006/09/26 09:00:00",6512.76,34.94,TRADE
VIC1,"2006/09/26 09:30:00",6515.4,36.48,TRADE
VIC1,"2006/09/26 10:00:00",6447.13,35.05,TRADE
VIC1,"2006/09/26 10:30:00",6357.72,34.78,TRADE
VIC1,"2006/09/26 11:00:00",6304.04,35.13,TRADE
VIC1,"2006/09/26 11:30:00",6269.32,34.61,TRADE
VIC1,"2006/09/26 12:00:00",6211.6,70.55,TRADE
VIC1,"2006/09/26 12:30:00",6199.45,24.63,TRADE
VIC1,"2006/09/26 13:00:00",6177.98,24.74,TRADE
VIC1,"2006/09/26 13:30:00",6242.82,25.1,TRADE
VIC1,"2006/09/26 14:00:00",6222.64,25.05,TRADE
VIC1,"2006/09/26 14:30:00",6199.03,25.07,TRADE
VIC1,"2006/09/26 15:00:00",6130.98,24.97,TRADE
VIC1,"2006/09/26 15:30:00",6145.18,26.35,TRADE
VIC1,"2006/09/26 16:00:00",6038.17,24.65,TRADE
VIC1,"2006/09/26 16:30:00",5933.15,25.73,TRADE
VIC1,"2006/09/26 17:00:00",6046.02,29.48,TRADE
VIC1,"2006/09/26 17:30:00",6104.9,31.42,TRADE
VIC1,"2006/09/26 18:00:00",6122.68,33.97,TRADE
VIC1,"2006/09/26 18:30:00",6245.18,37.92,TRADE
VIC1,"2006/09/26 19:00:00",6440.03,44.78,TRADE
VIC1,"2006/09/26 19:30:00",6437.47,39.56,TRADE
VIC1,"2006/09/26 20:00:00",6344.79,35.8,TRADE
VIC1,"2006/09/26 20:30:00",6223.83,35.27,TRADE
VIC1,"2006/09/26 21:00:00",6130.53,34.85,TRADE
VIC1,"2006/09/26 21:30:00",5981.25,31.59,TRADE
VIC1,"2006/09/26 22:00:00",5855.64,25.3,TRADE
VIC1,"2006/09/26 22:30:00",5639.46,25.54,TRADE
VIC1,"2006/09/26 23:00:00",5500.01,24.82,TRADE
VIC1,"2006/09/26 23:30:00",5758.68,27.39,TRADE
VIC1,"2006/09/27 00:00:00",5604.1,26.59,TRADE
VIC1,"2006/09/27 00:30:00",5403.98,25.63,TRADE
VIC1,"2006/09/27 01:00:00",5248.43,25.08,TRADE
VIC1,"2006/09/27 01:30:00",5584.69,28.29,TRADE
VIC1,"2006/09/27 02:00:00",5393.62,23.61,TRADE
VIC1,"2006/09/27 02:30:00",5222.43,21.49,TRADE
VIC1,"2006/09/27 03:00:00",5029.41,20.64,TRADE
VIC1,"2006/09/27 03:30:00",4874.43,18.1,TRADE
VIC1,"2006/09/27 04:00:00",4793.77,17.52,TRADE
VIC1,"2006/09/27 04:30:00",4762.59,16.27,TRADE
VIC1,"2006/09/27 05:00:00",4729.52,16.58,TRADE
VIC1,"2006/09/27 05:30:00",4795.02,17.23,TRADE
VIC1,"2006/09/27 06:00:00",5027.05,19.92,TRADE
VIC1,"2006/09/27 06:30:00",5334.9,22.49,TRADE
VIC1,"2006/09/27 07:00:00",5646.88,30.48,TRADE
VIC1,"2006/09/27 07:30:00",5828.4,29.61,TRADE
VIC1,"2006/09/27 08:00:00",6017.95,36.9,TRADE
VIC1,"2006/09/27 08:30:00",6162.38,39.71,TRADE
VIC1,"2006/09/27 09:00:00",6211.87,37.6,TRADE
VIC1,"2006/09/27 09:30:00",6222.94,36.97,TRADE
VIC1,"2006/09/27 10:00:00",6224.49,35.02,TRADE
VIC1,"2006/09/27 10:30:00",6212.13,35.77,TRADE
VIC1,"2006/09/27 11:00:00",6221.49,38.15,TRADE
VIC1,"2006/09/27 11:30:00",6212.91,35.35,TRADE
VIC1,"2006/09/27 12:00:00",6252.43,35.74,TRADE
VIC1,"2006/09/27 12:30:00",6218.47,35.42,TRADE
VIC1,"2006/09/27 13:00:00",6190.62,37.15,TRADE
VIC1,"2006/09/27 13:30:00",6232.57,39.77,TRADE
VIC1,"2006/09/27 14:00:00",6213.21,39.09,TRADE
VIC1,"2006/09/27 14:30:00",6190.82,37.05,TRADE
VIC1,"2006/09/27 15:00:00",6110.46,35.24,TRADE
VIC1,"2006/09/27 15:30:00",6037.57,47.32,TRADE
VIC1,"2006/09/27 16:00:00",6011.93,43.22,TRADE
VIC1,"2006/09/27 16:30:00",5995.16,40.54,TRADE
VIC1,"2006/09/27 17:00:00",6028.79,34.47,TRADE
VIC1,"2006/09/27 17:30:00",6010.34,33.22,TRADE
VIC1,"2006/09/27 18:00:00",6090.62,34.57,TRADE
VIC1,"2006/09/27 18:30:00",6149.08,34.95,TRADE
VIC1,"2006/09/27 19:00:00",6327.87,35.27,TRADE
VIC1,"2006/09/27 19:30:00",6370.89,36.04,TRADE
VIC1,"2006/09/27 20:00:00",6258.4,34.21,TRADE
VIC1,"2006/09/27 20:30:00",6157.6,34.18,TRADE
VIC1,"2006/09/27 21:00:00",6073.8,34.36,TRADE
VIC1,"2006/09/27 21:30:00",5963.61,31.83,TRADE
VIC1,"2006/09/27 22:00:00",5808.21,26.53,TRADE
VIC1,"2006/09/27 22:30:00",5679.91,30.26,TRADE
VIC1,"2006/09/27 23:00:00",5518.94,27.2,TRADE
VIC1,"2006/09/27 23:30:00",5842.44,32.73,TRADE
VIC1,"2006/09/28 00:00:00",5705.11,31.42,TRADE
VIC1,"2006/09/28 00:30:00",5505.79,28.7,TRADE
VIC1,"2006/09/28 01:00:00",5345.79,26.43,TRADE
VIC1,"2006/09/28 01:30:00",5699.05,30.8,TRADE
VIC1,"2006/09/28 02:00:00",5563.31,25.15,TRADE
VIC1,"2006/09/28 02:30:00",5343.64,21.02,TRADE
VIC1,"2006/09/28 03:00:00",5171.84,18.33,TRADE
VIC1,"2006/09/28 03:30:00",5038.09,18.06,TRADE
VIC1,"2006/09/28 04:00:00",4935.58,16.45,TRADE
VIC1,"2006/09/28 04:30:00",4930.32,16.53,TRADE
VIC1,"2006/09/28 05:00:00",4922.99,16.7,TRADE
VIC1,"2006/09/28 05:30:00",5023.62,17.22,TRADE
VIC1,"2006/09/28 06:00:00",5214.46,19,TRADE
VIC1,"2006/09/28 06:30:00",5531.9,23.83,TRADE
VIC1,"2006/09/28 07:00:00",5863.53,31.86,TRADE
VIC1,"2006/09/28 07:30:00",6007.19,33.53,TRADE
VIC1,"2006/09/28 08:00:00",6265.66,43.09,TRADE
VIC1,"2006/09/28 08:30:00",6417.97,45.31,TRADE
VIC1,"2006/09/28 09:00:00",6463.87,45.51,TRADE
VIC1,"2006/09/28 09:30:00",6444.71,50.31,TRADE
VIC1,"2006/09/28 10:00:00",6379.7,44.79,TRADE
VIC1,"2006/09/28 10:30:00",6320.88,44.2,TRADE
VIC1,"2006/09/28 11:00:00",6301.97,44.06,TRADE
VIC1,"2006/09/28 11:30:00",6218.71,40.86,TRADE
VIC1,"2006/09/28 12:00:00",6283.54,38.18,TRADE
VIC1,"2006/09/28 12:30:00",6235.39,34.33,TRADE
VIC1,"2006/09/28 13:00:00",6232.19,33.81,TRADE
VIC1,"2006/09/28 13:30:00",6235.98,42.88,TRADE
VIC1,"2006/09/28 14:00:00",6219.46,42.39,TRADE
VIC1,"2006/09/28 14:30:00",6243.81,41.44,TRADE
VIC1,"2006/09/28 15:00:00",6211.34,39.84,TRADE
VIC1,"2006/09/28 15:30:00",6146.77,33.14,TRADE
VIC1,"2006/09/28 16:00:00",6095.92,31.1,TRADE
VIC1,"2006/09/28 16:30:00",6091.91,27.04,TRADE
VIC1,"2006/09/28 17:00:00",6093.36,24.36,TRADE
VIC1,"2006/09/28 17:30:00",6120.59,24.1,TRADE
VIC1,"2006/09/28 18:00:00",6181.53,27.24,TRADE
VIC1,"2006/09/28 18:30:00",6284.4,31.89,TRADE
VIC1,"2006/09/28 19:00:00",6480.14,33.28,TRADE
VIC1,"2006/09/28 19:30:00",6489.39,32.81,TRADE
VIC1,"2006/09/28 20:00:00",6419.94,29.48,TRADE
VIC1,"2006/09/28 20:30:00",6335.5,31.61,TRADE
VIC1,"2006/09/28 21:00:00",6233.7,29.45,TRADE
VIC1,"2006/09/28 21:30:00",6079.66,23.43,TRADE
VIC1,"2006/09/28 22:00:00",5904.03,21.18,TRADE
VIC1,"2006/09/28 22:30:00",5766.33,21.23,TRADE
VIC1,"2006/09/28 23:00:00",5663.42,20.9,TRADE
VIC1,"2006/09/28 23:30:00",5981.41,22.62,TRADE
VIC1,"2006/09/29 00:00:00",5813.91,22.16,TRADE
VIC1,"2006/09/29 00:30:00",5563.38,20.35,TRADE
VIC1,"2006/09/29 01:00:00",5385.93,18.49,TRADE
VIC1,"2006/09/29 01:30:00",5759.41,22.16,TRADE
VIC1,"2006/09/29 02:00:00",5575.9,18.79,TRADE
VIC1,"2006/09/29 02:30:00",5334.23,16.33,TRADE
VIC1,"2006/09/29 03:00:00",5123.95,15.48,TRADE
VIC1,"2006/09/29 03:30:00",5003.3,15.14,TRADE
VIC1,"2006/09/29 04:00:00",4922.37,14.66,TRADE
VIC1,"2006/09/29 04:30:00",4898.64,14.11,TRADE
VIC1,"2006/09/29 05:00:00",4827.02,14.25,TRADE
VIC1,"2006/09/29 05:30:00",4977.07,15.36,TRADE
VIC1,"2006/09/29 06:00:00",5135.04,16.53,TRADE
VIC1,"2006/09/29 06:30:00",5466.37,19.81,TRADE
VIC1,"2006/09/29 07:00:00",5719.23,22.76,TRADE
VIC1,"2006/09/29 07:30:00",5960.31,23.79,TRADE
VIC1,"2006/09/29 08:00:00",6167.72,26.88,TRADE
VIC1,"2006/09/29 08:30:00",6351.82,30.53,TRADE
VIC1,"2006/09/29 09:00:00",6412.09,31.04,TRADE
VIC1,"2006/09/29 09:30:00",6465.57,32.41,TRADE
VIC1,"2006/09/29 10:00:00",6397.03,32.34,TRADE
VIC1,"2006/09/29 10:30:00",6397.01,33.05,TRADE
VIC1,"2006/09/29 11:00:00",6356.68,32.3,TRADE
VIC1,"2006/09/29 11:30:00",6346.4,31.69,TRADE
VIC1,"2006/09/29 12:00:00",6288.83,31.32,TRADE
VIC1,"2006/09/29 12:30:00",6269.8,31.78,TRADE
VIC1,"2006/09/29 13:00:00",6275.67,29.83,TRADE
VIC1,"2006/09/29 13:30:00",6243.76,29.22,TRADE
VIC1,"2006/09/29 14:00:00",6205.65,26.24,TRADE
VIC1,"2006/09/29 14:30:00",6209.57,26.62,TRADE
VIC1,"2006/09/29 15:00:00",6125.71,24.51,TRADE
VIC1,"2006/09/29 15:30:00",6072.25,24.11,TRADE
VIC1,"2006/09/29 16:00:00",6015.72,23.64,TRADE
VIC1,"2006/09/29 16:30:00",5951.82,23.41,TRADE
VIC1,"2006/09/29 17:00:00",6054.09,23.56,TRADE
VIC1,"2006/09/29 17:30:00",6130.32,23.31,TRADE
VIC1,"2006/09/29 18:00:00",6201.87,25.23,TRADE
VIC1,"2006/09/29 18:30:00",6268.05,28.31,TRADE
VIC1,"2006/09/29 19:00:00",6433.34,31.76,TRADE
VIC1,"2006/09/29 19:30:00",6414.78,31.3,TRADE
VIC1,"2006/09/29 20:00:00",6307.48,29.81,TRADE
VIC1,"2006/09/29 20:30:00",6214.58,28.94,TRADE
VIC1,"2006/09/29 21:00:00",6125.24,27.53,TRADE
VIC1,"2006/09/29 21:30:00",5964.26,24.49,TRADE
VIC1,"2006/09/29 22:00:00",5819.12,23.21,TRADE
VIC1,"2006/09/29 22:30:00",5694.35,23.89,TRADE
VIC1,"2006/09/29 23:00:00",5512.52,21.92,TRADE
VIC1,"2006/09/29 23:30:00",5828.16,26.97,TRADE
VIC1,"2006/09/30 00:00:00",5678.28,28.75,TRADE
VIC1,"2006/09/30 00:30:00",5468.99,26.46,TRADE
VIC1,"2006/09/30 01:00:00",5297.75,22.33,TRADE
VIC1,"2006/09/30 01:30:00",5676.58,26.04,TRADE
VIC1,"2006/09/30 02:00:00",5468.69,22.62,TRADE
VIC1,"2006/09/30 02:30:00",5220.98,21.02,TRADE
VIC1,"2006/09/30 03:00:00",5069.08,19.54,TRADE
VIC1,"2006/09/30 03:30:00",4899.01,16.64,TRADE
VIC1,"2006/09/30 04:00:00",4766.79,15.55,TRADE
VIC1,"2006/09/30 04:30:00",4682.9,15.91,TRADE
VIC1,"2006/09/30 05:00:00",4635.36,15.68,TRADE
VIC1,"2006/09/30 05:30:00",4678.79,16.08,TRADE
VIC1,"2006/09/30 06:00:00",4716.86,16.1,TRADE
VIC1,"2006/09/30 06:30:00",4832.68,16.73,TRADE
VIC1,"2006/09/30 07:00:00",4936.9,17.05,TRADE
VIC1,"2006/09/30 07:30:00",4986.32,17.12,TRADE
VIC1,"2006/09/30 08:00:00",5172.48,18.85,TRADE
VIC1,"2006/09/30 08:30:00",5373.64,21.91,TRADE
VIC1,"2006/09/30 09:00:00",5501.17,23.92,TRADE
VIC1,"2006/09/30 09:30:00",5583.88,25.5,TRADE
VIC1,"2006/09/30 10:00:00",5585.55,24.05,TRADE
VIC1,"2006/09/30 10:30:00",5560.42,23.39,TRADE
VIC1,"2006/09/30 11:00:00",5546.42,21.36,TRADE
VIC1,"2006/09/30 11:30:00",5525.07,20.58,TRADE
VIC1,"2006/09/30 12:00:00",5463.76,20.56,TRADE
VIC1,"2006/09/30 12:30:00",5390.29,20.33,TRADE
VIC1,"2006/09/30 13:00:00",5350.02,20.36,TRADE
VIC1,"2006/09/30 13:30:00",5314.36,19.15,TRADE
VIC1,"2006/09/30 14:00:00",5217.66,17.18,TRADE
VIC1,"2006/09/30 14:30:00",5186.71,16.95,TRADE
VIC1,"2006/09/30 15:00:00",5136.94,16.62,TRADE
VIC1,"2006/09/30 15:30:00",5097.8,16.27,TRADE
VIC1,"2006/09/30 16:00:00",5139.1,16.51,TRADE
VIC1,"2006/09/30 16:30:00",5110.22,16.35,TRADE
VIC1,"2006/09/30 17:00:00",5187.98,16.95,TRADE
VIC1,"2006/09/30 17:30:00",5192.05,16.58,TRADE
VIC1,"2006/09/30 18:00:00",5319.71,20.13,TRADE
VIC1,"2006/09/30 18:30:00",5464.67,21.54,TRADE
VIC1,"2006/09/30 19:00:00",5762.87,26.24,TRADE
VIC1,"2006/09/30 19:30:00",5842.01,24.54,TRADE
VIC1,"2006/09/30 20:00:00",5811.54,23.3,TRADE
VIC1,"2006/09/30 20:30:00",5752.26,22.03,TRADE
VIC1,"2006/09/30 21:00:00",5689.51,22.3,TRADE
VIC1,"2006/09/30 21:30:00",5587.9,21.16,TRADE
VIC1,"2006/09/30 22:00:00",5466.5,18.12,TRADE
VIC1,"2006/09/30 22:30:00",5366.21,17.71,TRADE
VIC1,"2006/09/30 23:00:00",5336.73,18.59,TRADE
VIC1,"2006/09/30 23:30:00",5565.91,20.46,TRADE
VIC1,"2006/10/01 00:00:00",5475.61,20.9,TRADE
