REGION,SETTLEMENTDATE,TOTALDEMAND,RRP,PERIODTYPE
QLD1,"2009/05/01 00:30:00",5112.69,30.03,TRADE
QLD1,"2009/05/01 01:00:00",4989.83,26.16,TRADE
QLD1,"2009/05/01 01:30:00",4775.93,22.81,TRADE
QLD1,"2009/05/01 02:00:00",4640.17,19.44,TRADE
QLD1,"2009/05/01 02:30:00",4565.72,19.8,TRADE
QLD1,"2009/05/01 03:00:00",4506.19,19.08,TRADE
QLD1,"2009/05/01 03:30:00",4535.95,18.01,TRADE
QLD1,"2009/05/01 04:00:00",4515.51,18.32,TRADE
QLD1,"2009/05/01 04:30:00",4532.35,19.07,TRADE
QLD1,"2009/05/01 05:00:00",4628.49,20.51,TRADE
QLD1,"2009/05/01 05:30:00",4803.46,21.52,TRADE
QLD1,"2009/05/01 06:00:00",5064.38,23.42,TRADE
QLD1,"2009/05/01 06:30:00",5429.27,31.56,TRADE
QLD1,"2009/05/01 07:00:00",5869.63,39.02,TRADE
QLD1,"2009/05/01 07:30:00",6271.83,39.64,TRADE
QLD1,"2009/05/01 08:00:00",6466.76,54.95,TRADE
QLD1,"2009/05/01 08:30:00",6481.88,54.2,TRADE
QLD1,"2009/05/01 09:00:00",6444.57,41.8,TRADE
QLD1,"2009/05/01 09:30:00",6387.23,39.07,TRADE
QLD1,"2009/05/01 10:00:00",6372.92,37.62,TRADE
QLD1,"2009/05/01 10:30:00",6357.5,36.01,TRADE
QLD1,"2009/05/01 11:00:00",6401.12,33.65,TRADE
QLD1,"2009/05/01 11:30:00",6425.48,31.98,TRADE
QLD1,"2009/05/01 12:00:00",6420.13,29.78,TRADE
QLD1,"2009/05/01 12:30:00",6429.86,30.93,TRADE
QLD1,"2009/05/01 13:00:00",6400.7,31.18,TRADE
QLD1,"2009/05/01 13:30:00",6363.46,28.24,TRADE
QLD1,"2009/05/01 14:00:00",6374.75,25.67,TRADE
QLD1,"2009/05/01 14:30:00",6320.88,25.29,TRADE
QLD1,"2009/05/01 15:00:00",6300.93,27.54,TRADE
QLD1,"2009/05/01 15:30:00",6291.06,26.97,TRADE
QLD1,"2009/05/01 16:00:00",6313.92,30.71,TRADE
QLD1,"2009/05/01 16:30:00",6315.63,31.41,TRADE
QLD1,"2009/05/01 17:00:00",6336.43,34.99,TRADE
QLD1,"2009/05/01 17:30:00",6460.89,36.35,TRADE
QLD1,"2009/05/01 18:00:00",6619.43,53.84,TRADE
QLD1,"2009/05/01 18:30:00",6525.88,52.38,TRADE
QLD1,"2009/05/01 19:00:00",6366.71,41.61,TRADE
QLD1,"2009/05/01 19:30:00",6204.96,40.31,TRADE
QLD1,"2009/05/01 20:00:00",6102.96,37.29,TRADE
QLD1,"2009/05/01 20:30:00",5997.35,30.33,TRADE
QLD1,"2009/05/01 21:00:00",5911.85,28.45,TRADE
QLD1,"2009/05/01 21:30:00",5958.58,28.55,TRADE
QLD1,"2009/05/01 22:00:00",5813.04,23.74,TRADE
QLD1,"2009/05/01 22:30:00",5671.37,32.57,TRADE
QLD1,"2009/05/01 23:00:00",5572.11,30.74,TRADE
QLD1,"2009/05/01 23:30:00",5466.93,31.22,TRADE
QLD1,"2009/05/02 00:00:00",5267.31,29.62,TRADE
QLD1,"2009/05/02 00:30:00",5074.75,28.27,TRADE
QLD1,"2009/05/02 01:00:00",4921.95,23.17,TRADE
QLD1,"2009/05/02 01:30:00",4721.01,24.79,TRADE
QLD1,"2009/05/02 02:00:00",4603.4,20.47,TRADE
QLD1,"2009/05/02 02:30:00",4495.19,19.98,TRADE
QLD1,"2009/05/02 03:00:00",4470.76,19.11,TRADE
QLD1,"2009/05/02 03:30:00",4430.88,18.93,TRADE
QLD1,"2009/05/02 04:00:00",4454.56,18.87,TRADE
QLD1,"2009/05/02 04:30:00",4477.95,18.94,TRADE
QLD1,"2009/05/02 05:00:00",4472.71,18.98,TRADE
QLD1,"2009/05/02 05:30:00",4519.5,19.21,TRADE
QLD1,"2009/05/02 06:00:00",4628.91,19.33,TRADE
QLD1,"2009/05/02 06:30:00",4749.48,20.67,TRADE
QLD1,"2009/05/02 07:00:00",4963.71,21.11,TRADE
QLD1,"2009/05/02 07:30:00",5230.31,22.59,TRADE
QLD1,"2009/05/02 08:00:00",5466.86,25.86,TRADE
QLD1,"2009/05/02 08:30:00",5692.97,29.3,TRADE
QLD1,"2009/05/02 09:00:00",5839.63,31.14,TRADE
QLD1,"2009/05/02 09:30:00",5908.07,30.76,TRADE
QLD1,"2009/05/02 10:00:00",5910.66,28.85,TRADE
QLD1,"2009/05/02 10:30:00",5845.23,28.77,TRADE
QLD1,"2009/05/02 11:00:00",5861.09,25.32,TRADE
QLD1,"2009/05/02 11:30:00",5794.71,24.09,TRADE
QLD1,"2009/05/02 12:00:00",5811.69,24.37,TRADE
QLD1,"2009/05/02 12:30:00",5755.07,24.1,TRADE
QLD1,"2009/05/02 13:00:00",5691.88,22.98,TRADE
QLD1,"2009/05/02 13:30:00",5659.7,23.19,TRADE
QLD1,"2009/05/02 14:00:00",5629.43,22.83,TRADE
QLD1,"2009/05/02 14:30:00",5589.48,21.44,TRADE
QLD1,"2009/05/02 15:00:00",5567.76,21.18,TRADE
QLD1,"2009/05/02 15:30:00",5572.35,21.25,TRADE
QLD1,"2009/05/02 16:00:00",5627.11,21.63,TRADE
QLD1,"2009/05/02 16:30:00",5666.22,22.31,TRADE
QLD1,"2009/05/02 17:00:00",5788.11,24.82,TRADE
QLD1,"2009/05/02 17:30:00",6001.69,31.01,TRADE
QLD1,"2009/05/02 18:00:00",6262.18,46.81,TRADE
QLD1,"2009/05/02 18:30:00",6196.57,50.73,TRADE
QLD1,"2009/05/02 19:00:00",6036.2,40.98,TRADE
QLD1,"2009/05/02 19:30:00",5846.18,33.61,TRADE
QLD1,"2009/05/02 20:00:00",5769.07,31.65,TRADE
QLD1,"2009/05/02 20:30:00",5631.17,29.23,TRADE
QLD1,"2009/05/02 21:00:00",5586.31,26.69,TRADE
QLD1,"2009/05/02 21:30:00",5619.61,28.04,TRADE
QLD1,"2009/05/02 22:00:00",5481.72,25.62,TRADE
QLD1,"2009/05/02 22:30:00",5395.25,31.99,TRADE
QLD1,"2009/05/02 23:00:00",5360.74,32.23,TRADE
QLD1,"2009/05/02 23:30:00",5302.82,34.6,TRADE
QLD1,"2009/05/03 00:00:00",5146.22,29.9,TRADE
QLD1,"2009/05/03 00:30:00",4994.62,24.97,TRADE
QLD1,"2009/05/03 01:00:00",4848.36,21.69,TRADE
QLD1,"2009/05/03 01:30:00",4667.05,22.86,TRADE
QLD1,"2009/05/03 02:00:00",4535.55,19.18,TRADE
QLD1,"2009/05/03 02:30:00",4423.43,18.42,TRADE
QLD1,"2009/05/03 03:00:00",4399.88,18.89,TRADE
QLD1,"2009/05/03 03:30:00",4387.06,18.44,TRADE
QLD1,"2009/05/03 04:00:00",4378.5,16.81,TRADE
QLD1,"2009/05/03 04:30:00",4366.51,18.59,TRADE
QLD1,"2009/05/03 05:00:00",4359.54,17.01,TRADE
QLD1,"2009/05/03 05:30:00",4378.17,18.35,TRADE
QLD1,"2009/05/03 06:00:00",4434.16,17.16,TRADE
QLD1,"2009/05/03 06:30:00",4528.53,18.56,TRADE
QLD1,"2009/05/03 07:00:00",4659.88,18.69,TRADE
QLD1,"2009/05/03 07:30:00",4899.33,20.09,TRADE
QLD1,"2009/05/03 08:00:00",5092.48,22.4,TRADE
QLD1,"2009/05/03 08:30:00",5315.33,26.47,TRADE
QLD1,"2009/05/03 09:00:00",5451.53,29.94,TRADE
QLD1,"2009/05/03 09:30:00",5574.8,31.02,TRADE
QLD1,"2009/05/03 10:00:00",5599.5,30.83,TRADE
QLD1,"2009/05/03 10:30:00",5637.65,30.79,TRADE
QLD1,"2009/05/03 11:00:00",5599.96,30.14,TRADE
QLD1,"2009/05/03 11:30:00",5600.91,29.65,TRADE
QLD1,"2009/05/03 12:00:00",5558.8,29.61,TRADE
QLD1,"2009/05/03 12:30:00",5532.6,27.92,TRADE
QLD1,"2009/05/03 13:00:00",5498.59,24.61,TRADE
QLD1,"2009/05/03 13:30:00",5491.84,24.43,TRADE
QLD1,"2009/05/03 14:00:00",5434.23,23.41,TRADE
QLD1,"2009/05/03 14:30:00",5416.21,23.33,TRADE
QLD1,"2009/05/03 15:00:00",5444.46,23.05,TRADE
QLD1,"2009/05/03 15:30:00",5499.7,23.8,TRADE
QLD1,"2009/05/03 16:00:00",5543.4,24.65,TRADE
QLD1,"2009/05/03 16:30:00",5536.72,23.88,TRADE
QLD1,"2009/05/03 17:00:00",5648.9,28.65,TRADE
QLD1,"2009/05/03 17:30:00",5864.12,31.16,TRADE
QLD1,"2009/05/03 18:00:00",6185.7,60.89,TRADE
QLD1,"2009/05/03 18:30:00",6090.87,57.08,TRADE
QLD1,"2009/05/03 19:00:00",5932.26,36.48,TRADE
QLD1,"2009/05/03 19:30:00",5812.64,31.27,TRADE
QLD1,"2009/05/03 20:00:00",5704.21,29.1,TRADE
QLD1,"2009/05/03 20:30:00",5565.04,28.37,TRADE
QLD1,"2009/05/03 21:00:00",5540.44,27.22,TRADE
QLD1,"2009/05/03 21:30:00",5579.57,27.54,TRADE
QLD1,"2009/05/03 22:00:00",5417.66,22.62,TRADE
QLD1,"2009/05/03 22:30:00",5319.57,23.68,TRADE
QLD1,"2009/05/03 23:00:00",5259.15,21.85,TRADE
QLD1,"2009/05/03 23:30:00",5240.05,23.45,TRADE
QLD1,"2009/05/04 00:00:00",5105.61,21.77,TRADE
QLD1,"2009/05/04 00:30:00",4873.88,20.59,TRADE
QLD1,"2009/05/04 01:00:00",4723.57,19.5,TRADE
QLD1,"2009/05/04 01:30:00",4579.21,20.68,TRADE
QLD1,"2009/05/04 02:00:00",4461.15,18.66,TRADE
QLD1,"2009/05/04 02:30:00",4396.86,17.78,TRADE
QLD1,"2009/05/04 03:00:00",4333,16.37,TRADE
QLD1,"2009/05/04 03:30:00",4287.4,15.01,TRADE
QLD1,"2009/05/04 04:00:00",4280.28,14.12,TRADE
QLD1,"2009/05/04 04:30:00",4284.79,14.66,TRADE
QLD1,"2009/05/04 05:00:00",4320.72,15.75,TRADE
QLD1,"2009/05/04 05:30:00",4389.02,17.92,TRADE
QLD1,"2009/05/04 06:00:00",4460.7,17.92,TRADE
QLD1,"2009/05/04 06:30:00",4512.75,21.49,TRADE
QLD1,"2009/05/04 07:00:00",4656.18,23.47,TRADE
QLD1,"2009/05/04 07:30:00",4913.06,22.79,TRADE
QLD1,"2009/05/04 08:00:00",5105.42,26.99,TRADE
QLD1,"2009/05/04 08:30:00",5331.19,30.88,TRADE
QLD1,"2009/05/04 09:00:00",5481.89,30.93,TRADE
QLD1,"2009/05/04 09:30:00",5556.97,31.98,TRADE
QLD1,"2009/05/04 10:00:00",5592.24,31.75,TRADE
QLD1,"2009/05/04 10:30:00",5562.5,33.18,TRADE
QLD1,"2009/05/04 11:00:00",5575.97,33.15,TRADE
QLD1,"2009/05/04 11:30:00",5581.31,31.58,TRADE
QLD1,"2009/05/04 12:00:00",5534.66,29.65,TRADE
QLD1,"2009/05/04 12:30:00",5504.29,28.68,TRADE
QLD1,"2009/05/04 13:00:00",5469.37,24.52,TRADE
QLD1,"2009/05/04 13:30:00",5484.31,24.89,TRADE
QLD1,"2009/05/04 14:00:00",5464.23,25.15,TRADE
QLD1,"2009/05/04 14:30:00",5428.4,22.29,TRADE
QLD1,"2009/05/04 15:00:00",5427.76,21.62,TRADE
QLD1,"2009/05/04 15:30:00",5458.69,22.12,TRADE
QLD1,"2009/05/04 16:00:00",5496.74,22.83,TRADE
QLD1,"2009/05/04 16:30:00",5565.66,23.14,TRADE
QLD1,"2009/05/04 17:00:00",5753.72,26.29,TRADE
QLD1,"2009/05/04 17:30:00",6074.1,32.09,TRADE
QLD1,"2009/05/04 18:00:00",6443.87,47.39,TRADE
QLD1,"2009/05/04 18:30:00",6347.52,47.98,TRADE
QLD1,"2009/05/04 19:00:00",6186.9,38.7,TRADE
QLD1,"2009/05/04 19:30:00",5959.22,34.87,TRADE
QLD1,"2009/05/04 20:00:00",5815.83,30.94,TRADE
QLD1,"2009/05/04 20:30:00",5712.18,28.43,TRADE
QLD1,"2009/05/04 21:00:00",5653.44,27.14,TRADE
QLD1,"2009/05/04 21:30:00",5669.07,25.75,TRADE
QLD1,"2009/05/04 22:00:00",5483.85,23.18,TRADE
QLD1,"2009/05/04 22:30:00",5361.22,26.78,TRADE
QLD1,"2009/05/04 23:00:00",5255.2,28.41,TRADE
QLD1,"2009/05/04 23:30:00",5226.84,29.64,TRADE
QLD1,"2009/05/05 00:00:00",5054.56,29.06,TRADE
QLD1,"2009/05/05 00:30:00",4890.94,23.19,TRADE
QLD1,"2009/05/05 01:00:00",4759.16,22.36,TRADE
QLD1,"2009/05/05 01:30:00",4596.76,22.04,TRADE
QLD1,"2009/05/05 02:00:00",4477.03,20.7,TRADE
QLD1,"2009/05/05 02:30:00",4409.03,19.31,TRADE
QLD1,"2009/05/05 03:00:00",4387.99,18.44,TRADE
QLD1,"2009/05/05 03:30:00",4348.58,18.22,TRADE
QLD1,"2009/05/05 04:00:00",4335.92,17.6,TRADE
QLD1,"2009/05/05 04:30:00",4382.86,18.38,TRADE
QLD1,"2009/05/05 05:00:00",4458.41,19.58,TRADE
QLD1,"2009/05/05 05:30:00",4690.89,21.99,TRADE
QLD1,"2009/05/05 06:00:00",4913.43,21.02,TRADE
QLD1,"2009/05/05 06:30:00",5309.88,27.04,TRADE
QLD1,"2009/05/05 07:00:00",5792.97,37.17,TRADE
QLD1,"2009/05/05 07:30:00",6173.18,40.44,TRADE
QLD1,"2009/05/05 08:00:00",6374.83,51.87,TRADE
QLD1,"2009/05/05 08:30:00",6385.9,49.23,TRADE
QLD1,"2009/05/05 09:00:00",6340.85,45.64,TRADE
QLD1,"2009/05/05 09:30:00",6341.99,47.52,TRADE
QLD1,"2009/05/05 10:00:00",6323.22,41.13,TRADE
QLD1,"2009/05/05 10:30:00",6334.35,38.89,TRADE
QLD1,"2009/05/05 11:00:00",6359.48,38.36,TRADE
QLD1,"2009/05/05 11:30:00",6350.35,37.7,TRADE
QLD1,"2009/05/05 12:00:00",6336.03,37.17,TRADE
QLD1,"2009/05/05 12:30:00",6367.2,34.19,TRADE
QLD1,"2009/05/05 13:00:00",6342.21,35.05,TRADE
QLD1,"2009/05/05 13:30:00",6337.86,33.08,TRADE
QLD1,"2009/05/05 14:00:00",6372.31,33.05,TRADE
QLD1,"2009/05/05 14:30:00",6372.12,32.54,TRADE
QLD1,"2009/05/05 15:00:00",6318.89,31.13,TRADE
QLD1,"2009/05/05 15:30:00",6308.73,30.75,TRADE
QLD1,"2009/05/05 16:00:00",6307.2,30.91,TRADE
QLD1,"2009/05/05 16:30:00",6346.47,32.64,TRADE
QLD1,"2009/05/05 17:00:00",6418.78,35.31,TRADE
QLD1,"2009/05/05 17:30:00",6571.38,43.74,TRADE
QLD1,"2009/05/05 18:00:00",6890.64,54.43,TRADE
QLD1,"2009/05/05 18:30:00",6795.22,55.16,TRADE
QLD1,"2009/05/05 19:00:00",6619.85,47.59,TRADE
QLD1,"2009/05/05 19:30:00",6426.75,41.2,TRADE
QLD1,"2009/05/05 20:00:00",6295.03,37.08,TRADE
QLD1,"2009/05/05 20:30:00",6165.53,34.36,TRADE
QLD1,"2009/05/05 21:00:00",6048.92,32.62,TRADE
QLD1,"2009/05/05 21:30:00",6136.81,30.65,TRADE
QLD1,"2009/05/05 22:00:00",5928.26,25.6,TRADE
QLD1,"2009/05/05 22:30:00",5681.72,29.93,TRADE
QLD1,"2009/05/05 23:00:00",5541.21,31.56,TRADE
QLD1,"2009/05/05 23:30:00",5467.41,29.39,TRADE
QLD1,"2009/05/06 00:00:00",5256.12,25.87,TRADE
QLD1,"2009/05/06 00:30:00",5084.73,23.55,TRADE
QLD1,"2009/05/06 01:00:00",4886.73,22.7,TRADE
QLD1,"2009/05/06 01:30:00",4739.84,22.86,TRADE
QLD1,"2009/05/06 02:00:00",4567.32,22.84,TRADE
QLD1,"2009/05/06 02:30:00",4513.38,22.98,TRADE
QLD1,"2009/05/06 03:00:00",4501.02,21.66,TRADE
QLD1,"2009/05/06 03:30:00",4475.73,20.19,TRADE
QLD1,"2009/05/06 04:00:00",4467.9,20.29,TRADE
QLD1,"2009/05/06 04:30:00",4524.53,20.83,TRADE
QLD1,"2009/05/06 05:00:00",4609.18,21.2,TRADE
QLD1,"2009/05/06 05:30:00",4798.91,21.35,TRADE
QLD1,"2009/05/06 06:00:00",5054.68,22.91,TRADE
QLD1,"2009/05/06 06:30:00",5451.59,29.79,TRADE
QLD1,"2009/05/06 07:00:00",5870.66,34.43,TRADE
QLD1,"2009/05/06 07:30:00",6254.21,38.92,TRADE
QLD1,"2009/05/06 08:00:00",6419.65,48.59,TRADE
QLD1,"2009/05/06 08:30:00",6431.41,44.73,TRADE
QLD1,"2009/05/06 09:00:00",6399.27,42.39,TRADE
QLD1,"2009/05/06 09:30:00",6397.3,42.7,TRADE
QLD1,"2009/05/06 10:00:00",6396.05,41.84,TRADE
QLD1,"2009/05/06 10:30:00",6402.28,42.57,TRADE
QLD1,"2009/05/06 11:00:00",6253.6,36.88,TRADE
QLD1,"2009/05/06 11:30:00",6367.84,39.03,TRADE
QLD1,"2009/05/06 12:00:00",6352.91,38.54,TRADE
QLD1,"2009/05/06 12:30:00",6365.37,34.69,TRADE
QLD1,"2009/05/06 13:00:00",6345.38,32.62,TRADE
QLD1,"2009/05/06 13:30:00",6328.82,32.19,TRADE
QLD1,"2009/05/06 14:00:00",6313.31,32.66,TRADE
QLD1,"2009/05/06 14:30:00",6282.99,31.92,TRADE
QLD1,"2009/05/06 15:00:00",6243.55,29.82,TRADE
QLD1,"2009/05/06 15:30:00",6234.81,29.61,TRADE
QLD1,"2009/05/06 16:00:00",6057.51,25.29,TRADE
QLD1,"2009/05/06 16:30:00",6287.03,31.53,TRADE
QLD1,"2009/05/06 17:00:00",6448.76,31.79,TRADE
QLD1,"2009/05/06 17:30:00",6594.26,36.3,TRADE
QLD1,"2009/05/06 18:00:00",6911.4,53.37,TRADE
QLD1,"2009/05/06 18:30:00",6808.91,52.73,TRADE
QLD1,"2009/05/06 19:00:00",6605.38,43.8,TRADE
QLD1,"2009/05/06 19:30:00",6429.28,38.53,TRADE
QLD1,"2009/05/06 20:00:00",6328.39,37.27,TRADE
QLD1,"2009/05/06 20:30:00",6215.67,33.35,TRADE
QLD1,"2009/05/06 21:00:00",6105.74,29.93,TRADE
QLD1,"2009/05/06 21:30:00",6125.71,30.18,TRADE
QLD1,"2009/05/06 22:00:00",5907.58,23.03,TRADE
QLD1,"2009/05/06 22:30:00",5739.93,29.77,TRADE
QLD1,"2009/05/06 23:00:00",5573.61,28.24,TRADE
QLD1,"2009/05/06 23:30:00",5476.86,29.48,TRADE
QLD1,"2009/05/07 00:00:00",5267.3,24.22,TRADE
QLD1,"2009/05/07 00:30:00",5070.12,23.16,TRADE
QLD1,"2009/05/07 01:00:00",4927.75,22.53,TRADE
QLD1,"2009/05/07 01:30:00",4699.59,23.88,TRADE
QLD1,"2009/05/07 02:00:00",4562.28,21.56,TRADE
QLD1,"2009/05/07 02:30:00",4461.46,21.38,TRADE
QLD1,"2009/05/07 03:00:00",4434.33,20.73,TRADE
QLD1,"2009/05/07 03:30:00",4421.72,20.79,TRADE
QLD1,"2009/05/07 04:00:00",4430.12,19.87,TRADE
QLD1,"2009/05/07 04:30:00",4457.22,19.19,TRADE
QLD1,"2009/05/07 05:00:00",4526.29,20.77,TRADE
QLD1,"2009/05/07 05:30:00",4726.31,22.21,TRADE
QLD1,"2009/05/07 06:00:00",5004.14,22.74,TRADE
QLD1,"2009/05/07 06:30:00",5399.5,25.05,TRADE
QLD1,"2009/05/07 07:00:00",5860.77,28.09,TRADE
QLD1,"2009/05/07 07:30:00",6274.75,27.59,TRADE
QLD1,"2009/05/07 08:00:00",6464.15,32.47,TRADE
QLD1,"2009/05/07 08:30:00",6496.99,31.08,TRADE
QLD1,"2009/05/07 09:00:00",6461.59,29.99,TRADE
QLD1,"2009/05/07 09:30:00",6470.67,30.14,TRADE
QLD1,"2009/05/07 10:00:00",6455.61,32.6,TRADE
QLD1,"2009/05/07 10:30:00",6436.24,32.33,TRADE
QLD1,"2009/05/07 11:00:00",6450.78,32.63,TRADE
QLD1,"2009/05/07 11:30:00",6455.03,32.52,TRADE
QLD1,"2009/05/07 12:00:00",6458.09,31.31,TRADE
QLD1,"2009/05/07 12:30:00",6416.9,30.61,TRADE
QLD1,"2009/05/07 13:00:00",6423.15,29.83,TRADE
QLD1,"2009/05/07 13:30:00",6406.06,29.9,TRADE
QLD1,"2009/05/07 14:00:00",6405.61,31.06,TRADE
QLD1,"2009/05/07 14:30:00",6436.64,32.42,TRADE
QLD1,"2009/05/07 15:00:00",6383.47,31.89,TRADE
QLD1,"2009/05/07 15:30:00",6312.12,28.87,TRADE
QLD1,"2009/05/07 16:00:00",6345.52,25.82,TRADE
QLD1,"2009/05/07 16:30:00",6382.71,27.31,TRADE
QLD1,"2009/05/07 17:00:00",6465.09,28.44,TRADE
QLD1,"2009/05/07 17:30:00",6616.35,34.46,TRADE
QLD1,"2009/05/07 18:00:00",6924.92,67.94,TRADE
QLD1,"2009/05/07 18:30:00",6846.36,51.24,TRADE
QLD1,"2009/05/07 19:00:00",6705.82,48.14,TRADE
QLD1,"2009/05/07 19:30:00",6529.69,40.95,TRADE
QLD1,"2009/05/07 20:00:00",6390.7,38.12,TRADE
QLD1,"2009/05/07 20:30:00",6297.32,36.09,TRADE
QLD1,"2009/05/07 21:00:00",6183.42,33.13,TRADE
QLD1,"2009/05/07 21:30:00",6132.69,29.87,TRADE
QLD1,"2009/05/07 22:00:00",5867.78,23.49,TRADE
QLD1,"2009/05/07 22:30:00",5697.49,29.86,TRADE
QLD1,"2009/05/07 23:00:00",5550.35,26.78,TRADE
QLD1,"2009/05/07 23:30:00",5434.83,29.66,TRADE
QLD1,"2009/05/08 00:00:00",5283.99,28.04,TRADE
QLD1,"2009/05/08 00:30:00",5081.24,23.61,TRADE
QLD1,"2009/05/08 01:00:00",4944.85,21.28,TRADE
QLD1,"2009/05/08 01:30:00",4771.65,21.54,TRADE
QLD1,"2009/05/08 02:00:00",4597.98,20.36,TRADE
QLD1,"2009/05/08 02:30:00",4539.61,20.93,TRADE
QLD1,"2009/05/08 03:00:00",4487.43,20.8,TRADE
QLD1,"2009/05/08 03:30:00",4488.67,21.17,TRADE
QLD1,"2009/05/08 04:00:00",4443.94,20.13,TRADE
QLD1,"2009/05/08 04:30:00",4486,20.09,TRADE
QLD1,"2009/05/08 05:00:00",4618.13,21.6,TRADE
QLD1,"2009/05/08 05:30:00",4779.54,21.95,TRADE
QLD1,"2009/05/08 06:00:00",5015.11,23.6,TRADE
QLD1,"2009/05/08 06:30:00",5424.09,30.95,TRADE
QLD1,"2009/05/08 07:00:00",5835.16,36.74,TRADE
QLD1,"2009/05/08 07:30:00",6263.33,40.31,TRADE
QLD1,"2009/05/08 08:00:00",6423.64,50.49,TRADE
QLD1,"2009/05/08 08:30:00",6443.92,42.32,TRADE
QLD1,"2009/05/08 09:00:00",6433.86,40.41,TRADE
QLD1,"2009/05/08 09:30:00",6406.72,38.91,TRADE
QLD1,"2009/05/08 10:00:00",6380.87,39.06,TRADE
QLD1,"2009/05/08 10:30:00",6401.44,39.47,TRADE
QLD1,"2009/05/08 11:00:00",6408.73,39.2,TRADE
QLD1,"2009/05/08 11:30:00",6372.42,39.79,TRADE
QLD1,"2009/05/08 12:00:00",6397.44,39.15,TRADE
QLD1,"2009/05/08 12:30:00",6405.66,39.54,TRADE
QLD1,"2009/05/08 13:00:00",6420.51,40.59,TRADE
QLD1,"2009/05/08 13:30:00",6384.6,39.39,TRADE
QLD1,"2009/05/08 14:00:00",6381.99,37.63,TRADE
QLD1,"2009/05/08 14:30:00",6348.46,38.33,TRADE
QLD1,"2009/05/08 15:00:00",6276.61,36.31,TRADE
QLD1,"2009/05/08 15:30:00",6264.11,36.23,TRADE
QLD1,"2009/05/08 16:00:00",6303.02,38.68,TRADE
QLD1,"2009/05/08 16:30:00",6297.87,35.29,TRADE
QLD1,"2009/05/08 17:00:00",6347.37,36.34,TRADE
QLD1,"2009/05/08 17:30:00",6476.63,40.53,TRADE
QLD1,"2009/05/08 18:00:00",6711.96,45.69,TRADE
QLD1,"2009/05/08 18:30:00",6575.29,41.26,TRADE
QLD1,"2009/05/08 19:00:00",6416.82,38.01,TRADE
QLD1,"2009/05/08 19:30:00",6240.26,36.84,TRADE
QLD1,"2009/05/08 20:00:00",6129.91,34.83,TRADE
QLD1,"2009/05/08 20:30:00",6012.11,32.66,TRADE
QLD1,"2009/05/08 21:00:00",5922.65,32.03,TRADE
QLD1,"2009/05/08 21:30:00",5958.11,30.64,TRADE
QLD1,"2009/05/08 22:00:00",5800.41,27.2,TRADE
QLD1,"2009/05/08 22:30:00",5594.7,33.6,TRADE
QLD1,"2009/05/08 23:00:00",5541.83,33.41,TRADE
QLD1,"2009/05/08 23:30:00",5505.3,40.04,TRADE
QLD1,"2009/05/09 00:00:00",5341.1,33.18,TRADE
QLD1,"2009/05/09 00:30:00",5131.83,28.34,TRADE
QLD1,"2009/05/09 01:00:00",4981.29,24.45,TRADE
QLD1,"2009/05/09 01:30:00",4799.73,24.45,TRADE
QLD1,"2009/05/09 02:00:00",4642.04,20.82,TRADE
QLD1,"2009/05/09 02:30:00",4574.73,20.93,TRADE
QLD1,"2009/05/09 03:00:00",4529.42,20.29,TRADE
QLD1,"2009/05/09 03:30:00",4472.78,19.88,TRADE
QLD1,"2009/05/09 04:00:00",4488.43,20.36,TRADE
QLD1,"2009/05/09 04:30:00",4516.79,20.63,TRADE
QLD1,"2009/05/09 05:00:00",4525.84,20.97,TRADE
QLD1,"2009/05/09 05:30:00",4600.29,21.28,TRADE
QLD1,"2009/05/09 06:00:00",4677.88,21.27,TRADE
QLD1,"2009/05/09 06:30:00",4808.16,21.71,TRADE
QLD1,"2009/05/09 07:00:00",4982.83,21.89,TRADE
QLD1,"2009/05/09 07:30:00",5235.52,22.51,TRADE
QLD1,"2009/05/09 08:00:00",5458.59,29.49,TRADE
QLD1,"2009/05/09 08:30:00",5701.84,33.07,TRADE
QLD1,"2009/05/09 09:00:00",5810.07,38.91,TRADE
QLD1,"2009/05/09 09:30:00",5890.4,39.47,TRADE
QLD1,"2009/05/09 10:00:00",5857.58,37.58,TRADE
QLD1,"2009/05/09 10:30:00",5869.82,39.74,TRADE
QLD1,"2009/05/09 11:00:00",5811.87,38.92,TRADE
QLD1,"2009/05/09 11:30:00",5773.15,34.54,TRADE
QLD1,"2009/05/09 12:00:00",5756.2,32.6,TRADE
QLD1,"2009/05/09 12:30:00",5728.17,31.81,TRADE
QLD1,"2009/05/09 13:00:00",5695.43,31.52,TRADE
QLD1,"2009/05/09 13:30:00",5669.39,29.57,TRADE
QLD1,"2009/05/09 14:00:00",5640.63,24.12,TRADE
QLD1,"2009/05/09 14:30:00",5582.02,23.23,TRADE
QLD1,"2009/05/09 15:00:00",5551.4,22.49,TRADE
QLD1,"2009/05/09 15:30:00",5597.69,23.29,TRADE
QLD1,"2009/05/09 16:00:00",5576.36,22.44,TRADE
QLD1,"2009/05/09 16:30:00",5602.87,24.29,TRADE
QLD1,"2009/05/09 17:00:00",5730.09,28.1,TRADE
QLD1,"2009/05/09 17:30:00",6014.26,37.66,TRADE
QLD1,"2009/05/09 18:00:00",6336.69,61.39,TRADE
QLD1,"2009/05/09 18:30:00",6221.4,51.02,TRADE
QLD1,"2009/05/09 19:00:00",6075.95,40.39,TRADE
QLD1,"2009/05/09 19:30:00",5858.91,32.61,TRADE
QLD1,"2009/05/09 20:00:00",5762.53,32.33,TRADE
QLD1,"2009/05/09 20:30:00",5737.31,29.95,TRADE
QLD1,"2009/05/09 21:00:00",5675.82,28.1,TRADE
QLD1,"2009/05/09 21:30:00",5701.81,28.19,TRADE
QLD1,"2009/05/09 22:00:00",5534.09,22.66,TRADE
QLD1,"2009/05/09 22:30:00",5413.43,27.82,TRADE
QLD1,"2009/05/09 23:00:00",5378.56,27.87,TRADE
QLD1,"2009/05/09 23:30:00",5344.96,30.37,TRADE
QLD1,"2009/05/10 00:00:00",5221.15,25.56,TRADE
QLD1,"2009/05/10 00:30:00",5041.7,24.1,TRADE
QLD1,"2009/05/10 01:00:00",4878.3,21.89,TRADE
QLD1,"2009/05/10 01:30:00",4697.14,21.85,TRADE
QLD1,"2009/05/10 02:00:00",4573.87,21.56,TRADE
QLD1,"2009/05/10 02:30:00",4460.81,20.78,TRADE
QLD1,"2009/05/10 03:00:00",4402.51,19.79,TRADE
QLD1,"2009/05/10 03:30:00",4389.07,20.39,TRADE
QLD1,"2009/05/10 04:00:00",4375.49,20.34,TRADE
QLD1,"2009/05/10 04:30:00",4375.25,21.27,TRADE
QLD1,"2009/05/10 05:00:00",4407.07,21.85,TRADE
QLD1,"2009/05/10 05:30:00",4419.1,22.26,TRADE
QLD1,"2009/05/10 06:00:00",4493.14,21.81,TRADE
QLD1,"2009/05/10 06:30:00",4601.64,22.06,TRADE
QLD1,"2009/05/10 07:00:00",4725.01,20.53,TRADE
QLD1,"2009/05/10 07:30:00",4978.52,20.71,TRADE
QLD1,"2009/05/10 08:00:00",5178.89,22.64,TRADE
QLD1,"2009/05/10 08:30:00",5377.83,26.89,TRADE
QLD1,"2009/05/10 09:00:00",5494.1,26.01,TRADE
QLD1,"2009/05/10 09:30:00",5592.33,29.42,TRADE
QLD1,"2009/05/10 10:00:00",5645.05,30.58,TRADE
QLD1,"2009/05/10 10:30:00",5649.35,29.82,TRADE
QLD1,"2009/05/10 11:00:00",5609.13,23.43,TRADE
QLD1,"2009/05/10 11:30:00",5579.69,23.46,TRADE
QLD1,"2009/05/10 12:00:00",5550.12,22.47,TRADE
QLD1,"2009/05/10 12:30:00",5524.11,22.08,TRADE
QLD1,"2009/05/10 13:00:00",5470.76,21.97,TRADE
QLD1,"2009/05/10 13:30:00",5448.23,21.94,TRADE
QLD1,"2009/05/10 14:00:00",5377.18,21.92,TRADE
QLD1,"2009/05/10 14:30:00",5386.1,21.97,TRADE
QLD1,"2009/05/10 15:00:00",5339.44,21.97,TRADE
QLD1,"2009/05/10 15:30:00",5390.1,22.3,TRADE
QLD1,"2009/05/10 16:00:00",5430.32,22.27,TRADE
QLD1,"2009/05/10 16:30:00",5503.83,22.29,TRADE
QLD1,"2009/05/10 17:00:00",5621.43,23.4,TRADE
QLD1,"2009/05/10 17:30:00",5903.53,30.32,TRADE
QLD1,"2009/05/10 18:00:00",6237.09,50.04,TRADE
QLD1,"2009/05/10 18:30:00",6183.43,46.15,TRADE
QLD1,"2009/05/10 19:00:00",6082.85,42.03,TRADE
QLD1,"2009/05/10 19:30:00",5966.67,37.69,TRADE
QLD1,"2009/05/10 20:00:00",5832.66,35.38,TRADE
QLD1,"2009/05/10 20:30:00",5793.56,34.52,TRADE
QLD1,"2009/05/10 21:00:00",5733.45,32.6,TRADE
QLD1,"2009/05/10 21:30:00",5723.46,30.77,TRADE
QLD1,"2009/05/10 22:00:00",5502.64,25.5,TRADE
QLD1,"2009/05/10 22:30:00",5353.75,25.07,TRADE
QLD1,"2009/05/10 23:00:00",5302.48,22.58,TRADE
QLD1,"2009/05/10 23:30:00",5209.55,24.78,TRADE
QLD1,"2009/05/11 00:00:00",5081.02,22.43,TRADE
QLD1,"2009/05/11 00:30:00",4868.53,21.6,TRADE
QLD1,"2009/05/11 01:00:00",4807.46,21.88,TRADE
QLD1,"2009/05/11 01:30:00",4682.42,22.21,TRADE
QLD1,"2009/05/11 02:00:00",4566.56,21.83,TRADE
QLD1,"2009/05/11 02:30:00",4456.68,21.77,TRADE
QLD1,"2009/05/11 03:00:00",4450.4,21.98,TRADE
QLD1,"2009/05/11 03:30:00",4428.98,21.45,TRADE
QLD1,"2009/05/11 04:00:00",4377.05,21.17,TRADE
QLD1,"2009/05/11 04:30:00",4398.2,21.77,TRADE
QLD1,"2009/05/11 05:00:00",4511.19,22.3,TRADE
QLD1,"2009/05/11 05:30:00",4706.73,23.14,TRADE
QLD1,"2009/05/11 06:00:00",4983.52,21.93,TRADE
QLD1,"2009/05/11 06:30:00",5345.99,23.66,TRADE
QLD1,"2009/05/11 07:00:00",5738.89,33.25,TRADE
QLD1,"2009/05/11 07:30:00",6213,32.79,TRADE
QLD1,"2009/05/11 08:00:00",6412.02,46.38,TRADE
QLD1,"2009/05/11 08:30:00",6460.34,50.43,TRADE
QLD1,"2009/05/11 09:00:00",6459.91,42.58,TRADE
QLD1,"2009/05/11 09:30:00",6435.48,43.44,TRADE
QLD1,"2009/05/11 10:00:00",6414.1,39.6,TRADE
QLD1,"2009/05/11 10:30:00",6398.77,42.96,TRADE
QLD1,"2009/05/11 11:00:00",6431.16,48.52,TRADE
QLD1,"2009/05/11 11:30:00",6406.95,41.76,TRADE
QLD1,"2009/05/11 12:00:00",6379.62,37.59,TRADE
QLD1,"2009/05/11 12:30:00",6378.21,37.17,TRADE
QLD1,"2009/05/11 13:00:00",6357.88,33.96,TRADE
QLD1,"2009/05/11 13:30:00",6348.74,34.36,TRADE
QLD1,"2009/05/11 14:00:00",6382.24,34.39,TRADE
QLD1,"2009/05/11 14:30:00",6366.3,33.38,TRADE
QLD1,"2009/05/11 15:00:00",6298.92,31.27,TRADE
QLD1,"2009/05/11 15:30:00",6289.52,31.58,TRADE
QLD1,"2009/05/11 16:00:00",6334.11,32.2,TRADE
QLD1,"2009/05/11 16:30:00",6370.25,32.32,TRADE
QLD1,"2009/05/11 17:00:00",6475.21,33.5,TRADE
QLD1,"2009/05/11 17:30:00",6686.95,47.14,TRADE
QLD1,"2009/05/11 18:00:00",7043.3,66.44,TRADE
QLD1,"2009/05/11 18:30:00",6906.17,58.9,TRADE
QLD1,"2009/05/11 19:00:00",6665.23,41.82,TRADE
QLD1,"2009/05/11 19:30:00",6454.91,38.64,TRADE
QLD1,"2009/05/11 20:00:00",6313.36,35.1,TRADE
QLD1,"2009/05/11 20:30:00",6197.9,38.45,TRADE
QLD1,"2009/05/11 21:00:00",6093.17,35.99,TRADE
QLD1,"2009/05/11 21:30:00",6080.62,32.44,TRADE
QLD1,"2009/05/11 22:00:00",5872.4,27.46,TRADE
QLD1,"2009/05/11 22:30:00",5680.2,32.78,TRADE
QLD1,"2009/05/11 23:00:00",5512.16,30.11,TRADE
QLD1,"2009/05/11 23:30:00",5440.81,32.08,TRADE
QLD1,"2009/05/12 00:00:00",5254.63,29.02,TRADE
QLD1,"2009/05/12 00:30:00",5085.55,23.36,TRADE
QLD1,"2009/05/12 01:00:00",4913.01,21.43,TRADE
QLD1,"2009/05/12 01:30:00",4744.87,21.56,TRADE
QLD1,"2009/05/12 02:00:00",4629.67,20.1,TRADE
QLD1,"2009/05/12 02:30:00",4565.01,20.41,TRADE
QLD1,"2009/05/12 03:00:00",4472.21,19.98,TRADE
QLD1,"2009/05/12 03:30:00",4461.46,19.24,TRADE
QLD1,"2009/05/12 04:00:00",4478.37,18.87,TRADE
QLD1,"2009/05/12 04:30:00",4494.85,18.92,TRADE
QLD1,"2009/05/12 05:00:00",4600.88,20.08,TRADE
QLD1,"2009/05/12 05:30:00",4804.17,21.65,TRADE
QLD1,"2009/05/12 06:00:00",5033.14,21.64,TRADE
QLD1,"2009/05/12 06:30:00",5464.97,28.39,TRADE
QLD1,"2009/05/12 07:00:00",5887.65,34.79,TRADE
QLD1,"2009/05/12 07:30:00",6303.72,30.63,TRADE
QLD1,"2009/05/12 08:00:00",6435.14,34.01,TRADE
QLD1,"2009/05/12 08:30:00",6481.7,38.34,TRADE
QLD1,"2009/05/12 09:00:00",6414.8,33.81,TRADE
QLD1,"2009/05/12 09:30:00",6369.79,32.72,TRADE
QLD1,"2009/05/12 10:00:00",6359.04,31.98,TRADE
QLD1,"2009/05/12 10:30:00",6321.16,32.03,TRADE
QLD1,"2009/05/12 11:00:00",6309.88,31.33,TRADE
QLD1,"2009/05/12 11:30:00",6347.92,30.05,TRADE
QLD1,"2009/05/12 12:00:00",6366.65,31.02,TRADE
QLD1,"2009/05/12 12:30:00",6328.43,29.71,TRADE
QLD1,"2009/05/12 13:00:00",6316.96,29.73,TRADE
QLD1,"2009/05/12 13:30:00",6321.96,30.2,TRADE
QLD1,"2009/05/12 14:00:00",6317.19,29.38,TRADE
QLD1,"2009/05/12 14:30:00",6291.73,28.34,TRADE
QLD1,"2009/05/12 15:00:00",6237.98,29.45,TRADE
QLD1,"2009/05/12 15:30:00",6265.94,29.64,TRADE
QLD1,"2009/05/12 16:00:00",6284.07,29.66,TRADE
QLD1,"2009/05/12 16:30:00",6320.47,29.65,TRADE
QLD1,"2009/05/12 17:00:00",6428.4,32.22,TRADE
QLD1,"2009/05/12 17:30:00",6654.89,36.69,TRADE
QLD1,"2009/05/12 18:00:00",6968.27,53.48,TRADE
QLD1,"2009/05/12 18:30:00",6857.59,42.87,TRADE
QLD1,"2009/05/12 19:00:00",6689.77,40.73,TRADE
QLD1,"2009/05/12 19:30:00",6527.22,37.42,TRADE
QLD1,"2009/05/12 20:00:00",6364.37,34.31,TRADE
QLD1,"2009/05/12 20:30:00",6248.28,37.37,TRADE
QLD1,"2009/05/12 21:00:00",6155.93,36.01,TRADE
QLD1,"2009/05/12 21:30:00",6167.52,34.01,TRADE
QLD1,"2009/05/12 22:00:00",5925.88,29.96,TRADE
QLD1,"2009/05/12 22:30:00",5733.68,32.01,TRADE
QLD1,"2009/05/12 23:00:00",5586.05,29.63,TRADE
QLD1,"2009/05/12 23:30:00",5506.51,30.58,TRADE
QLD1,"2009/05/13 00:00:00",5289.18,27.87,TRADE
QLD1,"2009/05/13 00:30:00",5112.02,22.66,TRADE
QLD1,"2009/05/13 01:00:00",4946.04,21.59,TRADE
QLD1,"2009/05/13 01:30:00",4778.17,22.33,TRADE
QLD1,"2009/05/13 02:00:00",4634.15,20.38,TRADE
QLD1,"2009/05/13 02:30:00",4580.1,20.61,TRADE
QLD1,"2009/05/13 03:00:00",4470.63,19.33,TRADE
QLD1,"2009/05/13 03:30:00",4469.08,18.4,TRADE
QLD1,"2009/05/13 04:00:00",4433.97,13.23,TRADE
QLD1,"2009/05/13 04:30:00",4512.22,15.21,TRADE
QLD1,"2009/05/13 05:00:00",4589.07,18.02,TRADE
QLD1,"2009/05/13 05:30:00",4735.46,21.06,TRADE
QLD1,"2009/05/13 06:00:00",5033.25,21.81,TRADE
QLD1,"2009/05/13 06:30:00",5456.56,26.04,TRADE
QLD1,"2009/05/13 07:00:00",5829.89,32.12,TRADE
QLD1,"2009/05/13 07:30:00",6253.72,30.26,TRADE
QLD1,"2009/05/13 08:00:00",6367.7,35.86,TRADE
QLD1,"2009/05/13 08:30:00",6378.43,35.6,TRADE
QLD1,"2009/05/13 09:00:00",6326.14,33.95,TRADE
QLD1,"2009/05/13 09:30:00",6289.49,32.89,TRADE
QLD1,"2009/05/13 10:00:00",6269.45,30.81,TRADE
QLD1,"2009/05/13 10:30:00",6216.86,29.81,TRADE
QLD1,"2009/05/13 11:00:00",6221.76,29.73,TRADE
QLD1,"2009/05/13 11:30:00",6229.6,29.68,TRADE
QLD1,"2009/05/13 12:00:00",6213.01,29.7,TRADE
QLD1,"2009/05/13 12:30:00",6214.41,29.91,TRADE
QLD1,"2009/05/13 13:00:00",6268.19,28.68,TRADE
QLD1,"2009/05/13 13:30:00",6240.47,25.78,TRADE
QLD1,"2009/05/13 14:00:00",6207.12,23.39,TRADE
QLD1,"2009/05/13 14:30:00",6301.27,23.81,TRADE
QLD1,"2009/05/13 15:00:00",6327.45,24.03,TRADE
QLD1,"2009/05/13 15:30:00",6309.24,24.51,TRADE
QLD1,"2009/05/13 16:00:00",6356.03,28.44,TRADE
QLD1,"2009/05/13 16:30:00",6388.03,27.6,TRADE
QLD1,"2009/05/13 17:00:00",6448.9,31,TRADE
QLD1,"2009/05/13 17:30:00",6662.91,39.67,TRADE
QLD1,"2009/05/13 18:00:00",6983.59,48.52,TRADE
QLD1,"2009/05/13 18:30:00",6848.48,42.54,TRADE
QLD1,"2009/05/13 19:00:00",6666.64,40.43,TRADE
QLD1,"2009/05/13 19:30:00",6501.69,34.42,TRADE
QLD1,"2009/05/13 20:00:00",6355.78,31.72,TRADE
QLD1,"2009/05/13 20:30:00",6258.17,33.66,TRADE
QLD1,"2009/05/13 21:00:00",6144.69,29.9,TRADE
QLD1,"2009/05/13 21:30:00",6103.31,27.27,TRADE
QLD1,"2009/05/13 22:00:00",5896.05,22.75,TRADE
QLD1,"2009/05/13 22:30:00",5695.29,25.36,TRADE
QLD1,"2009/05/13 23:00:00",5581.96,22.44,TRADE
QLD1,"2009/05/13 23:30:00",5497.97,24.67,TRADE
QLD1,"2009/05/14 00:00:00",5278.98,21.87,TRADE
QLD1,"2009/05/14 00:30:00",5126.61,21.59,TRADE
QLD1,"2009/05/14 01:00:00",4971.14,21.53,TRADE
QLD1,"2009/05/14 01:30:00",4761.83,20.14,TRADE
QLD1,"2009/05/14 02:00:00",4603.55,18.4,TRADE
QLD1,"2009/05/14 02:30:00",4534.77,19.22,TRADE
QLD1,"2009/05/14 03:00:00",4433.11,16.91,TRADE
QLD1,"2009/05/14 03:30:00",4437.88,12.66,TRADE
QLD1,"2009/05/14 04:00:00",4463.71,11.81,TRADE
QLD1,"2009/05/14 04:30:00",4523.52,12.35,TRADE
QLD1,"2009/05/14 05:00:00",4612.96,17.33,TRADE
QLD1,"2009/05/14 05:30:00",4797.29,19.98,TRADE
QLD1,"2009/05/14 06:00:00",5063.08,21.27,TRADE
QLD1,"2009/05/14 06:30:00",5476.93,23.27,TRADE
QLD1,"2009/05/14 07:00:00",5907.26,32.67,TRADE
QLD1,"2009/05/14 07:30:00",6343.53,28.3,TRADE
QLD1,"2009/05/14 08:00:00",6465.28,34.42,TRADE
QLD1,"2009/05/14 08:30:00",6467.31,33.06,TRADE
QLD1,"2009/05/14 09:00:00",6413.23,32.2,TRADE
QLD1,"2009/05/14 09:30:00",6372.37,31.49,TRADE
QLD1,"2009/05/14 10:00:00",6339.88,29.67,TRADE
QLD1,"2009/05/14 10:30:00",6345.5,28.91,TRADE
QLD1,"2009/05/14 11:00:00",6290.84,22.81,TRADE
QLD1,"2009/05/14 11:30:00",6310.7,22.79,TRADE
QLD1,"2009/05/14 12:00:00",6334.24,22.94,TRADE
QLD1,"2009/05/14 12:30:00",6343.98,23.49,TRADE
QLD1,"2009/05/14 13:00:00",6328.59,22.92,TRADE
QLD1,"2009/05/14 13:30:00",6353.55,22.81,TRADE
QLD1,"2009/05/14 14:00:00",6354.66,22.8,TRADE
QLD1,"2009/05/14 14:30:00",6369.35,23.16,TRADE
QLD1,"2009/05/14 15:00:00",6305.01,22.47,TRADE
QLD1,"2009/05/14 15:30:00",6299.1,22.2,TRADE
QLD1,"2009/05/14 16:00:00",6328.86,22.35,TRADE
QLD1,"2009/05/14 16:30:00",6373.33,23.56,TRADE
QLD1,"2009/05/14 17:00:00",6411.16,26.25,TRADE
QLD1,"2009/05/14 17:30:00",6615,32.08,TRADE
QLD1,"2009/05/14 18:00:00",6934.38,41.76,TRADE
QLD1,"2009/05/14 18:30:00",6850.96,40.94,TRADE
QLD1,"2009/05/14 19:00:00",6710.01,37.09,TRADE
QLD1,"2009/05/14 19:30:00",6531.29,35.91,TRADE
QLD1,"2009/05/14 20:00:00",6408.23,36.32,TRADE
QLD1,"2009/05/14 20:30:00",6319.53,36.75,TRADE
QLD1,"2009/05/14 21:00:00",6203.39,31.14,TRADE
QLD1,"2009/05/14 21:30:00",6188.23,25.88,TRADE
QLD1,"2009/05/14 22:00:00",5950.99,22.23,TRADE
QLD1,"2009/05/14 22:30:00",5808.18,25,TRADE
QLD1,"2009/05/14 23:00:00",5689.98,23.12,TRADE
QLD1,"2009/05/14 23:30:00",5581.44,24.13,TRADE
QLD1,"2009/05/15 00:00:00",5378.63,21.51,TRADE
QLD1,"2009/05/15 00:30:00",5162.78,20.93,TRADE
QLD1,"2009/05/15 01:00:00",5030.44,21.28,TRADE
QLD1,"2009/05/15 01:30:00",4808.95,19.21,TRADE
QLD1,"2009/05/15 02:00:00",4644.06,16.94,TRADE
QLD1,"2009/05/15 02:30:00",4583.64,18.76,TRADE
QLD1,"2009/05/15 03:00:00",4526.11,16.47,TRADE
QLD1,"2009/05/15 03:30:00",4493.92,14.27,TRADE
QLD1,"2009/05/15 04:00:00",4487.44,11.29,TRADE
QLD1,"2009/05/15 04:30:00",4564.87,14.11,TRADE
QLD1,"2009/05/15 05:00:00",4701.04,16.06,TRADE
QLD1,"2009/05/15 05:30:00",4888.29,19.89,TRADE
QLD1,"2009/05/15 06:00:00",5148.15,20.94,TRADE
QLD1,"2009/05/15 06:30:00",5589.49,25.57,TRADE
QLD1,"2009/05/15 07:00:00",5955.75,29.37,TRADE
QLD1,"2009/05/15 07:30:00",6388.21,25.74,TRADE
QLD1,"2009/05/15 08:00:00",6528.79,28.7,TRADE
QLD1,"2009/05/15 08:30:00",6498.29,28.16,TRADE
QLD1,"2009/05/15 09:00:00",6435.45,24.59,TRADE
QLD1,"2009/05/15 09:30:00",6408.84,23.82,TRADE
QLD1,"2009/05/15 10:00:00",6325.53,23.57,TRADE
QLD1,"2009/05/15 10:30:00",6331.03,23.65,TRADE
QLD1,"2009/05/15 11:00:00",6299.86,23.83,TRADE
QLD1,"2009/05/15 11:30:00",6263.49,24.45,TRADE
QLD1,"2009/05/15 12:00:00",6289.51,24.75,TRADE
QLD1,"2009/05/15 12:30:00",6320.24,23.43,TRADE
QLD1,"2009/05/15 13:00:00",6329.35,24.44,TRADE
QLD1,"2009/05/15 13:30:00",6345.24,24.72,TRADE
QLD1,"2009/05/15 14:00:00",6327.95,24.6,TRADE
QLD1,"2009/05/15 14:30:00",6291.65,23.84,TRADE
QLD1,"2009/05/15 15:00:00",6260.6,23.87,TRADE
QLD1,"2009/05/15 15:30:00",6240.21,24.18,TRADE
QLD1,"2009/05/15 16:00:00",6249.59,28.55,TRADE
QLD1,"2009/05/15 16:30:00",6290.48,30.57,TRADE
QLD1,"2009/05/15 17:00:00",6357.05,31.91,TRADE
QLD1,"2009/05/15 17:30:00",6494.1,41.83,TRADE
QLD1,"2009/05/15 18:00:00",6743.12,46.18,TRADE
QLD1,"2009/05/15 18:30:00",6624.2,41.98,TRADE
QLD1,"2009/05/15 19:00:00",6456.7,39.18,TRADE
QLD1,"2009/05/15 19:30:00",6312.62,37.11,TRADE
QLD1,"2009/05/15 20:00:00",6216.55,37.09,TRADE
QLD1,"2009/05/15 20:30:00",6116.68,37.93,TRADE
QLD1,"2009/05/15 21:00:00",6086.86,36.26,TRADE
QLD1,"2009/05/15 21:30:00",6120.12,33.41,TRADE
QLD1,"2009/05/15 22:00:00",5900.8,23.07,TRADE
QLD1,"2009/05/15 22:30:00",5775.49,35.39,TRADE
QLD1,"2009/05/15 23:00:00",5698.8,35.07,TRADE
QLD1,"2009/05/15 23:30:00",5586.33,41.07,TRADE
QLD1,"2009/05/16 00:00:00",5397.68,30.55,TRADE
QLD1,"2009/05/16 00:30:00",5211.04,25.76,TRADE
QLD1,"2009/05/16 01:00:00",5062.67,21.92,TRADE
QLD1,"2009/05/16 01:30:00",4859.6,21.3,TRADE
QLD1,"2009/05/16 02:00:00",4684.57,20.58,TRADE
QLD1,"2009/05/16 02:30:00",4582.6,20.54,TRADE
QLD1,"2009/05/16 03:00:00",4511.83,19.08,TRADE
QLD1,"2009/05/16 03:30:00",4496,17.11,TRADE
QLD1,"2009/05/16 04:00:00",4473.82,14.52,TRADE
QLD1,"2009/05/16 04:30:00",4490.44,15.35,TRADE
QLD1,"2009/05/16 05:00:00",4518.6,15.4,TRADE
QLD1,"2009/05/16 05:30:00",4614.48,16.65,TRADE
QLD1,"2009/05/16 06:00:00",4742.96,18.51,TRADE
QLD1,"2009/05/16 06:30:00",4923.48,20.06,TRADE
QLD1,"2009/05/16 07:00:00",5063.95,19.81,TRADE
QLD1,"2009/05/16 07:30:00",5380.26,21.67,TRADE
QLD1,"2009/05/16 08:00:00",5630.84,23.08,TRADE
QLD1,"2009/05/16 08:30:00",5816.2,28.59,TRADE
QLD1,"2009/05/16 09:00:00",5902.82,32.46,TRADE
QLD1,"2009/05/16 09:30:00",5927.22,34.99,TRADE
QLD1,"2009/05/16 10:00:00",5921.23,33.85,TRADE
QLD1,"2009/05/16 10:30:00",5909.97,32.82,TRADE
QLD1,"2009/05/16 11:00:00",5859.46,32.53,TRADE
QLD1,"2009/05/16 11:30:00",5829.16,30.98,TRADE
QLD1,"2009/05/16 12:00:00",5753.87,29.3,TRADE
QLD1,"2009/05/16 12:30:00",5693.95,28.81,TRADE
QLD1,"2009/05/16 13:00:00",5669.33,25.46,TRADE
QLD1,"2009/05/16 13:30:00",5619.87,24.03,TRADE
QLD1,"2009/05/16 14:00:00",5603.11,23.06,TRADE
QLD1,"2009/05/16 14:30:00",5563.78,20.59,TRADE
QLD1,"2009/05/16 15:00:00",5549.34,20.88,TRADE
QLD1,"2009/05/16 15:30:00",5542.49,20.82,TRADE
QLD1,"2009/05/16 16:00:00",5551.47,21.26,TRADE
QLD1,"2009/05/16 16:30:00",5614.93,23.93,TRADE
QLD1,"2009/05/16 17:00:00",5721.31,24.19,TRADE
QLD1,"2009/05/16 17:30:00",5962.51,34.79,TRADE
QLD1,"2009/05/16 18:00:00",6338.77,56.25,TRADE
QLD1,"2009/05/16 18:30:00",6214.16,48.08,TRADE
QLD1,"2009/05/16 19:00:00",6046.98,34.91,TRADE
QLD1,"2009/05/16 19:30:00",5908.91,43.9,TRADE
QLD1,"2009/05/16 20:00:00",5814.09,36.99,TRADE
QLD1,"2009/05/16 20:30:00",5725.42,32.85,TRADE
QLD1,"2009/05/16 21:00:00",5657.32,30.79,TRADE
QLD1,"2009/05/16 21:30:00",5745.92,29.5,TRADE
QLD1,"2009/05/16 22:00:00",5548.14,23.99,TRADE
QLD1,"2009/05/16 22:30:00",5427.18,27.41,TRADE
QLD1,"2009/05/16 23:00:00",5381.42,25,TRADE
QLD1,"2009/05/16 23:30:00",5335.07,27.3,TRADE
QLD1,"2009/05/17 00:00:00",5228.7,24.71,TRADE
QLD1,"2009/05/17 00:30:00",5054.69,23.18,TRADE
QLD1,"2009/05/17 01:00:00",4945.08,21.23,TRADE
QLD1,"2009/05/17 01:30:00",4762.41,21.21,TRADE
QLD1,"2009/05/17 02:00:00",4613.68,20.09,TRADE
QLD1,"2009/05/17 02:30:00",4509.44,20.47,TRADE
QLD1,"2009/05/17 03:00:00",4428.17,19.44,TRADE
QLD1,"2009/05/17 03:30:00",4390.93,18.32,TRADE
QLD1,"2009/05/17 04:00:00",4382.45,18.06,TRADE
QLD1,"2009/05/17 04:30:00",4398.22,18.14,TRADE
QLD1,"2009/05/17 05:00:00",4415.15,18.32,TRADE
QLD1,"2009/05/17 05:30:00",4462.6,18.53,TRADE
QLD1,"2009/05/17 06:00:00",4537.08,18.42,TRADE
QLD1,"2009/05/17 06:30:00",4603.97,18.94,TRADE
QLD1,"2009/05/17 07:00:00",4711.97,18.49,TRADE
QLD1,"2009/05/17 07:30:00",4984.35,20.29,TRADE
QLD1,"2009/05/17 08:00:00",5196.02,21.73,TRADE
QLD1,"2009/05/17 08:30:00",5418.8,23.67,TRADE
QLD1,"2009/05/17 09:00:00",5537.36,27.54,TRADE
QLD1,"2009/05/17 09:30:00",5609.36,29.37,TRADE
QLD1,"2009/05/17 10:00:00",5615.11,29.32,TRADE
QLD1,"2009/05/17 10:30:00",5641.82,28.88,TRADE
QLD1,"2009/05/17 11:00:00",5668.72,27.36,TRADE
QLD1,"2009/05/17 11:30:00",5614.67,27.42,TRADE
QLD1,"2009/05/17 12:00:00",5576.99,25.57,TRADE
QLD1,"2009/05/17 12:30:00",5537.63,26.77,TRADE
QLD1,"2009/05/17 13:00:00",5571.42,23.77,TRADE
QLD1,"2009/05/17 13:30:00",5525.57,22.06,TRADE
QLD1,"2009/05/17 14:00:00",5519.48,21.79,TRADE
QLD1,"2009/05/17 14:30:00",5504.4,21.41,TRADE
QLD1,"2009/05/17 15:00:00",5472.37,21.66,TRADE
QLD1,"2009/05/17 15:30:00",5518.04,21.88,TRADE
QLD1,"2009/05/17 16:00:00",5536.55,21.92,TRADE
QLD1,"2009/05/17 16:30:00",5629.36,22.25,TRADE
QLD1,"2009/05/17 17:00:00",5825.87,25.45,TRADE
QLD1,"2009/05/17 17:30:00",6127.67,44.25,TRADE
QLD1,"2009/05/17 18:00:00",6441.67,58.11,TRADE
QLD1,"2009/05/17 18:30:00",6380.07,56.19,TRADE
QLD1,"2009/05/17 19:00:00",6213.59,50.9,TRADE
QLD1,"2009/05/17 19:30:00",6000.98,47.37,TRADE
QLD1,"2009/05/17 20:00:00",5908.33,49.37,TRADE
QLD1,"2009/05/17 20:30:00",5803.23,36.59,TRADE
QLD1,"2009/05/17 21:00:00",5738.23,34.01,TRADE
QLD1,"2009/05/17 21:30:00",5731.37,29.63,TRADE
QLD1,"2009/05/17 22:00:00",5498.75,24.83,TRADE
QLD1,"2009/05/17 22:30:00",5360.91,26.28,TRADE
QLD1,"2009/05/17 23:00:00",5280.68,22.67,TRADE
QLD1,"2009/05/17 23:30:00",5216.36,24.91,TRADE
QLD1,"2009/05/18 00:00:00",5088.99,21.68,TRADE
QLD1,"2009/05/18 00:30:00",4971.06,20.89,TRADE
QLD1,"2009/05/18 01:00:00",4849.01,20.77,TRADE
QLD1,"2009/05/18 01:30:00",4711.05,20.13,TRADE
QLD1,"2009/05/18 02:00:00",4603.22,18.42,TRADE
QLD1,"2009/05/18 02:30:00",4503.04,19.11,TRADE
QLD1,"2009/05/18 03:00:00",4437.84,18.65,TRADE
QLD1,"2009/05/18 03:30:00",4422.35,15.62,TRADE
QLD1,"2009/05/18 04:00:00",4445.35,16.4,TRADE
QLD1,"2009/05/18 04:30:00",4505.84,18.73,TRADE
QLD1,"2009/05/18 05:00:00",4599.93,20.01,TRADE
QLD1,"2009/05/18 05:30:00",4745.11,21.88,TRADE
QLD1,"2009/05/18 06:00:00",4991.63,20.67,TRADE
QLD1,"2009/05/18 06:30:00",5388.69,30.77,TRADE
QLD1,"2009/05/18 07:00:00",5808.61,42.27,TRADE
QLD1,"2009/05/18 07:30:00",6250.93,35.37,TRADE
QLD1,"2009/05/18 08:00:00",6401.86,48.12,TRADE
QLD1,"2009/05/18 08:30:00",6457.86,57.43,TRADE
QLD1,"2009/05/18 09:00:00",6406.68,38.63,TRADE
QLD1,"2009/05/18 09:30:00",6446.69,40.21,TRADE
QLD1,"2009/05/18 10:00:00",6398.34,38.56,TRADE
QLD1,"2009/05/18 10:30:00",6440.79,35.46,TRADE
QLD1,"2009/05/18 11:00:00",6472.99,32.2,TRADE
QLD1,"2009/05/18 11:30:00",6481.2,32.68,TRADE
QLD1,"2009/05/18 12:00:00",6470.72,32.63,TRADE
QLD1,"2009/05/18 12:30:00",6475.54,31.97,TRADE
QLD1,"2009/05/18 13:00:00",6423.33,29.97,TRADE
QLD1,"2009/05/18 13:30:00",6435.59,30.72,TRADE
QLD1,"2009/05/18 14:00:00",6436.74,31.2,TRADE
QLD1,"2009/05/18 14:30:00",6427.42,30.5,TRADE
QLD1,"2009/05/18 15:00:00",6347.25,29.66,TRADE
QLD1,"2009/05/18 15:30:00",6375.57,32.52,TRADE
QLD1,"2009/05/18 16:00:00",6434.14,31.96,TRADE
QLD1,"2009/05/18 16:30:00",6536.88,33.66,TRADE
QLD1,"2009/05/18 17:00:00",6706.94,38.06,TRADE
QLD1,"2009/05/18 17:30:00",7004.96,44.51,TRADE
QLD1,"2009/05/18 18:00:00",7236.46,70.3,TRADE
QLD1,"2009/05/18 18:30:00",7006.87,43.46,TRADE
QLD1,"2009/05/18 19:00:00",6761.04,33.5,TRADE
QLD1,"2009/05/18 19:30:00",6574.29,31.42,TRADE
QLD1,"2009/05/18 20:00:00",6398.28,29.41,TRADE
QLD1,"2009/05/18 20:30:00",6295.83,28.87,TRADE
QLD1,"2009/05/18 21:00:00",6202.92,26.13,TRADE
QLD1,"2009/05/18 21:30:00",6148.69,29.44,TRADE
QLD1,"2009/05/18 22:00:00",5970.33,24.47,TRADE
QLD1,"2009/05/18 22:30:00",5732.28,29.87,TRADE
QLD1,"2009/05/18 23:00:00",5643.7,30.3,TRADE
QLD1,"2009/05/18 23:30:00",5493.6,30.21,TRADE
QLD1,"2009/05/19 00:00:00",5334.85,27.88,TRADE
QLD1,"2009/05/19 00:30:00",5195.39,22.85,TRADE
QLD1,"2009/05/19 01:00:00",4999.57,21.77,TRADE
QLD1,"2009/05/19 01:30:00",4811.31,20.99,TRADE
QLD1,"2009/05/19 02:00:00",4717.74,20.3,TRADE
QLD1,"2009/05/19 02:30:00",4593.24,20.1,TRADE
QLD1,"2009/05/19 03:00:00",4556.63,19.29,TRADE
QLD1,"2009/05/19 03:30:00",4542.98,18.82,TRADE
QLD1,"2009/05/19 04:00:00",4513.92,19.59,TRADE
QLD1,"2009/05/19 04:30:00",4566.9,20.34,TRADE
QLD1,"2009/05/19 05:00:00",4663.84,20.01,TRADE
QLD1,"2009/05/19 05:30:00",4874,21.36,TRADE
QLD1,"2009/05/19 06:00:00",5123.84,21.77,TRADE
QLD1,"2009/05/19 06:30:00",5471.54,25.18,TRADE
QLD1,"2009/05/19 07:00:00",5914.42,32.08,TRADE
QLD1,"2009/05/19 07:30:00",6297.43,31.25,TRADE
QLD1,"2009/05/19 08:00:00",6457.8,37.29,TRADE
QLD1,"2009/05/19 08:30:00",6552.59,35.07,TRADE
QLD1,"2009/05/19 09:00:00",6586.98,33.34,TRADE
QLD1,"2009/05/19 09:30:00",6612.24,34.11,TRADE
QLD1,"2009/05/19 10:00:00",6585.9,34.23,TRADE
QLD1,"2009/05/19 10:30:00",6557.11,32.74,TRADE
QLD1,"2009/05/19 11:00:00",6582.39,32.86,TRADE
QLD1,"2009/05/19 11:30:00",6566.53,32.88,TRADE
QLD1,"2009/05/19 12:00:00",6581.23,35.03,TRADE
QLD1,"2009/05/19 12:30:00",6562.33,32.87,TRADE
QLD1,"2009/05/19 13:00:00",6530.48,32.64,TRADE
QLD1,"2009/05/19 13:30:00",6514.63,30.74,TRADE
QLD1,"2009/05/19 14:00:00",6500.53,29.6,TRADE
QLD1,"2009/05/19 14:30:00",6501,29.16,TRADE
QLD1,"2009/05/19 15:00:00",6496.59,28.2,TRADE
QLD1,"2009/05/19 15:30:00",6485.16,24.36,TRADE
QLD1,"2009/05/19 16:00:00",6558.77,27.04,TRADE
QLD1,"2009/05/19 16:30:00",6634.09,29.65,TRADE
QLD1,"2009/05/19 17:00:00",6733.51,29.32,TRADE
QLD1,"2009/05/19 17:30:00",7025.21,46.22,TRADE
QLD1,"2009/05/19 18:00:00",7235.02,71.95,TRADE
QLD1,"2009/05/19 18:30:00",7029.93,40.57,TRADE
QLD1,"2009/05/19 19:00:00",6833.31,32.38,TRADE
QLD1,"2009/05/19 19:30:00",6631,30.1,TRADE
QLD1,"2009/05/19 20:00:00",6484.96,30.79,TRADE
QLD1,"2009/05/19 20:30:00",6407.1,36.41,TRADE
QLD1,"2009/05/19 21:00:00",6289.34,31.83,TRADE
QLD1,"2009/05/19 21:30:00",6268.42,30.2,TRADE
QLD1,"2009/05/19 22:00:00",6028.71,25.94,TRADE
QLD1,"2009/05/19 22:30:00",5839.9,29.85,TRADE
QLD1,"2009/05/19 23:00:00",5700.21,28.04,TRADE
QLD1,"2009/05/19 23:30:00",5644.86,29.73,TRADE
QLD1,"2009/05/20 00:00:00",5424.93,25.82,TRADE
QLD1,"2009/05/20 00:30:00",5213.52,21.66,TRADE
QLD1,"2009/05/20 01:00:00",5107.02,21.66,TRADE
QLD1,"2009/05/20 01:30:00",4939.65,21.21,TRADE
QLD1,"2009/05/20 02:00:00",4801.96,20.17,TRADE
QLD1,"2009/05/20 02:30:00",4695.32,19.24,TRADE
QLD1,"2009/05/20 03:00:00",4675.14,18.99,TRADE
QLD1,"2009/05/20 03:30:00",4630.13,17.42,TRADE
QLD1,"2009/05/20 04:00:00",4605.66,18.83,TRADE
QLD1,"2009/05/20 04:30:00",4638.22,19.2,TRADE
QLD1,"2009/05/20 05:00:00",4717.86,18.09,TRADE
QLD1,"2009/05/20 05:30:00",4901.41,20.16,TRADE
QLD1,"2009/05/20 06:00:00",5152.51,21.33,TRADE
QLD1,"2009/05/20 06:30:00",5576.95,22.36,TRADE
QLD1,"2009/05/20 07:00:00",6025.33,30.63,TRADE
QLD1,"2009/05/20 07:30:00",6434,29.55,TRADE
QLD1,"2009/05/20 08:00:00",6648.53,36.3,TRADE
QLD1,"2009/05/20 08:30:00",6698.02,36.52,TRADE
QLD1,"2009/05/20 09:00:00",6700.39,34.19,TRADE
QLD1,"2009/05/20 09:30:00",6712.23,33.34,TRADE
QLD1,"2009/05/20 10:00:00",6665.94,32.67,TRADE
QLD1,"2009/05/20 10:30:00",6730.87,33.02,TRADE
QLD1,"2009/05/20 11:00:00",6692.22,32.67,TRADE
QLD1,"2009/05/20 11:30:00",6694.08,32.2,TRADE
QLD1,"2009/05/20 12:00:00",6670.29,31.43,TRADE
QLD1,"2009/05/20 12:30:00",6643.31,31.65,TRADE
QLD1,"2009/05/20 13:00:00",6617.51,30.69,TRADE
QLD1,"2009/05/20 13:30:00",6583.31,29.9,TRADE
QLD1,"2009/05/20 14:00:00",6532.75,29.4,TRADE
QLD1,"2009/05/20 14:30:00",6519.64,26.32,TRADE
QLD1,"2009/05/20 15:00:00",6473.38,23.05,TRADE
QLD1,"2009/05/20 15:30:00",6447.94,23.3,TRADE
QLD1,"2009/05/20 16:00:00",6500.85,24.2,TRADE
QLD1,"2009/05/20 16:30:00",6600.13,29.33,TRADE
QLD1,"2009/05/20 17:00:00",6705.15,31.25,TRADE
QLD1,"2009/05/20 17:30:00",6949.06,45.92,TRADE
QLD1,"2009/05/20 18:00:00",7207.61,83.11,TRADE
QLD1,"2009/05/20 18:30:00",7037.35,52.63,TRADE
QLD1,"2009/05/20 19:00:00",6888.05,38.85,TRADE
QLD1,"2009/05/20 19:30:00",6725.37,32.69,TRADE
QLD1,"2009/05/20 20:00:00",6571.73,29.6,TRADE
QLD1,"2009/05/20 20:30:00",6473.73,31.81,TRADE
QLD1,"2009/05/20 21:00:00",6317.06,27.58,TRADE
QLD1,"2009/05/20 21:30:00",6312.4,22.93,TRADE
QLD1,"2009/05/20 22:00:00",6023.22,20.55,TRADE
QLD1,"2009/05/20 22:30:00",5790.45,24.04,TRADE
QLD1,"2009/05/20 23:00:00",5660.93,21.28,TRADE
QLD1,"2009/05/20 23:30:00",5552.63,23.05,TRADE
QLD1,"2009/05/21 00:00:00",5361.2,21.4,TRADE
QLD1,"2009/05/21 00:30:00",5218.18,20.59,TRADE
QLD1,"2009/05/21 01:00:00",5024.23,20.23,TRADE
QLD1,"2009/05/21 01:30:00",4848.92,20.65,TRADE
QLD1,"2009/05/21 02:00:00",4730.38,18.73,TRADE
QLD1,"2009/05/21 02:30:00",4610.18,18.11,TRADE
QLD1,"2009/05/21 03:00:00",4580.05,17.2,TRADE
QLD1,"2009/05/21 03:30:00",4505.23,14.85,TRADE
QLD1,"2009/05/21 04:00:00",4495.39,16.68,TRADE
QLD1,"2009/05/21 04:30:00",4546.71,16.39,TRADE
QLD1,"2009/05/21 05:00:00",4642.08,14.89,TRADE
QLD1,"2009/05/21 05:30:00",4830.05,17.79,TRADE
QLD1,"2009/05/21 06:00:00",5006.47,18.47,TRADE
QLD1,"2009/05/21 06:30:00",5421.03,21.8,TRADE
QLD1,"2009/05/21 07:00:00",5797.95,24.25,TRADE
QLD1,"2009/05/21 07:30:00",6275.48,25.94,TRADE
QLD1,"2009/05/21 08:00:00",6451.17,31.09,TRADE
QLD1,"2009/05/21 08:30:00",6488.14,31.12,TRADE
QLD1,"2009/05/21 09:00:00",6418.18,28.77,TRADE
QLD1,"2009/05/21 09:30:00",6381.4,28.09,TRADE
QLD1,"2009/05/21 10:00:00",6396.34,27.5,TRADE
QLD1,"2009/05/21 10:30:00",6355.43,27.22,TRADE
QLD1,"2009/05/21 11:00:00",6361.05,27.53,TRADE
QLD1,"2009/05/21 11:30:00",6313.28,25.76,TRADE
QLD1,"2009/05/21 12:00:00",6289.09,24.01,TRADE
QLD1,"2009/05/21 12:30:00",6277.29,23.74,TRADE
QLD1,"2009/05/21 13:00:00",6243.33,24.4,TRADE
QLD1,"2009/05/21 13:30:00",6253.58,22.98,TRADE
QLD1,"2009/05/21 14:00:00",6259.04,24.06,TRADE
QLD1,"2009/05/21 14:30:00",6241.15,22.16,TRADE
QLD1,"2009/05/21 15:00:00",6266.84,21.86,TRADE
QLD1,"2009/05/21 15:30:00",6273.97,20.67,TRADE
QLD1,"2009/05/21 16:00:00",6276.99,21.32,TRADE
QLD1,"2009/05/21 16:30:00",6352.69,22.46,TRADE
QLD1,"2009/05/21 17:00:00",6479.59,24.83,TRADE
QLD1,"2009/05/21 17:30:00",6760.81,33.59,TRADE
QLD1,"2009/05/21 18:00:00",7097.32,44.14,TRADE
QLD1,"2009/05/21 18:30:00",6987.13,36.66,TRADE
QLD1,"2009/05/21 19:00:00",6879.91,32.89,TRADE
QLD1,"2009/05/21 19:30:00",6735.69,29.24,TRADE
QLD1,"2009/05/21 20:00:00",6604.25,27.55,TRADE
QLD1,"2009/05/21 20:30:00",6478.34,28.61,TRADE
QLD1,"2009/05/21 21:00:00",6376.16,25.85,TRADE
QLD1,"2009/05/21 21:30:00",6340.45,23.49,TRADE
QLD1,"2009/05/21 22:00:00",6057.85,20.19,TRADE
QLD1,"2009/05/21 22:30:00",5854.8,25,TRADE
QLD1,"2009/05/21 23:00:00",5754.65,22.9,TRADE
QLD1,"2009/05/21 23:30:00",5589.65,24.34,TRADE
QLD1,"2009/05/22 00:00:00",5408.25,21.77,TRADE
QLD1,"2009/05/22 00:30:00",5221.3,20.6,TRADE
QLD1,"2009/05/22 01:00:00",5025.26,19.83,TRADE
QLD1,"2009/05/22 01:30:00",4841.27,18.67,TRADE
QLD1,"2009/05/22 02:00:00",4729.07,17.28,TRADE
QLD1,"2009/05/22 02:30:00",4619.99,16.57,TRADE
QLD1,"2009/05/22 03:00:00",4495.57,15.66,TRADE
QLD1,"2009/05/22 03:30:00",4498.29,14.73,TRADE
QLD1,"2009/05/22 04:00:00",4506.37,16.31,TRADE
QLD1,"2009/05/22 04:30:00",4563.26,16.74,TRADE
QLD1,"2009/05/22 05:00:00",4653.96,14.88,TRADE
QLD1,"2009/05/22 05:30:00",4871.87,17.8,TRADE
QLD1,"2009/05/22 06:00:00",5133.2,19.16,TRADE
QLD1,"2009/05/22 06:30:00",5561.74,21.63,TRADE
QLD1,"2009/05/22 07:00:00",5955.04,23.74,TRADE
QLD1,"2009/05/22 07:30:00",6367.19,25.16,TRADE
QLD1,"2009/05/22 08:00:00",6553.15,29.56,TRADE
QLD1,"2009/05/22 08:30:00",6528.04,29.85,TRADE
QLD1,"2009/05/22 09:00:00",6461.63,28.61,TRADE
QLD1,"2009/05/22 09:30:00",6425.33,30.07,TRADE
QLD1,"2009/05/22 10:00:00",6390.92,29.11,TRADE
QLD1,"2009/05/22 10:30:00",6402.44,28.36,TRADE
QLD1,"2009/05/22 11:00:00",6414.77,26.45,TRADE
QLD1,"2009/05/22 11:30:00",6434.22,25.57,TRADE
QLD1,"2009/05/22 12:00:00",6358.99,24.11,TRADE
QLD1,"2009/05/22 12:30:00",6310.73,24.89,TRADE
QLD1,"2009/05/22 13:00:00",6310.29,24.43,TRADE
QLD1,"2009/05/22 13:30:00",6251.24,24.32,TRADE
QLD1,"2009/05/22 14:00:00",6249.57,23.84,TRADE
QLD1,"2009/05/22 14:30:00",6228.02,25.26,TRADE
QLD1,"2009/05/22 15:00:00",6176.84,24,TRADE
QLD1,"2009/05/22 15:30:00",6125.85,22.57,TRADE
QLD1,"2009/05/22 16:00:00",6176.09,23.4,TRADE
QLD1,"2009/05/22 16:30:00",6265.92,24.84,TRADE
QLD1,"2009/05/22 17:00:00",6353.86,29.01,TRADE
QLD1,"2009/05/22 17:30:00",6597.23,55.43,TRADE
QLD1,"2009/05/22 18:00:00",6863.63,63.86,TRADE
QLD1,"2009/05/22 18:30:00",6701.89,40.28,TRADE
QLD1,"2009/05/22 19:00:00",6526.36,33.96,TRADE
QLD1,"2009/05/22 19:30:00",6375.8,28.76,TRADE
QLD1,"2009/05/22 20:00:00",6262.26,28.28,TRADE
QLD1,"2009/05/22 20:30:00",6169.24,24.75,TRADE
QLD1,"2009/05/22 21:00:00",6131.66,24.41,TRADE
QLD1,"2009/05/22 21:30:00",6092.01,22.57,TRADE
QLD1,"2009/05/22 22:00:00",5876.11,20.75,TRADE
QLD1,"2009/05/22 22:30:00",5766.83,26.9,TRADE
QLD1,"2009/05/22 23:00:00",5698.62,24.44,TRADE
QLD1,"2009/05/22 23:30:00",5605.42,29.3,TRADE
QLD1,"2009/05/23 00:00:00",5414.83,24.19,TRADE
QLD1,"2009/05/23 00:30:00",5214.14,20.56,TRADE
QLD1,"2009/05/23 01:00:00",5012.05,19.84,TRADE
QLD1,"2009/05/23 01:30:00",4829.3,19.77,TRADE
QLD1,"2009/05/23 02:00:00",4662.98,18.88,TRADE
QLD1,"2009/05/23 02:30:00",4553.8,18.4,TRADE
QLD1,"2009/05/23 03:00:00",4465.36,17.09,TRADE
QLD1,"2009/05/23 03:30:00",4436.18,16.06,TRADE
QLD1,"2009/05/23 04:00:00",4447.63,17.97,TRADE
QLD1,"2009/05/23 04:30:00",4442.73,14.76,TRADE
QLD1,"2009/05/23 05:00:00",4478.3,13.46,TRADE
QLD1,"2009/05/23 05:30:00",4562.4,15.09,TRADE
QLD1,"2009/05/23 06:00:00",4638.54,15.29,TRADE
QLD1,"2009/05/23 06:30:00",4827.86,17.93,TRADE
QLD1,"2009/05/23 07:00:00",4954.08,19.67,TRADE
QLD1,"2009/05/23 07:30:00",5282.87,18.01,TRADE
QLD1,"2009/05/23 08:00:00",5514.09,20.23,TRADE
QLD1,"2009/05/23 08:30:00",5757.45,21.8,TRADE
QLD1,"2009/05/23 09:00:00",5876.41,23.21,TRADE
QLD1,"2009/05/23 09:30:00",6008.66,23.92,TRADE
QLD1,"2009/05/23 10:00:00",6026.77,22.88,TRADE
QLD1,"2009/05/23 10:30:00",6018.54,23.35,TRADE
QLD1,"2009/05/23 11:00:00",5991.6,22.04,TRADE
QLD1,"2009/05/23 11:30:00",5952.35,21.93,TRADE
QLD1,"2009/05/23 12:00:00",5929.86,21.21,TRADE
QLD1,"2009/05/23 12:30:00",5850.1,21.66,TRADE
QLD1,"2009/05/23 13:00:00",5813.88,21.18,TRADE
QLD1,"2009/05/23 13:30:00",5820.67,21.27,TRADE
QLD1,"2009/05/23 14:00:00",5767.66,20.72,TRADE
QLD1,"2009/05/23 14:30:00",5710.51,20.67,TRADE
QLD1,"2009/05/23 15:00:00",5678.89,20.77,TRADE
QLD1,"2009/05/23 15:30:00",5691.51,21.35,TRADE
QLD1,"2009/05/23 16:00:00",5731.28,21.83,TRADE
QLD1,"2009/05/23 16:30:00",5798.6,22.47,TRADE
QLD1,"2009/05/23 17:00:00",5969.46,25.66,TRADE
QLD1,"2009/05/23 17:30:00",6275.93,32.77,TRADE
QLD1,"2009/05/23 18:00:00",6553.12,45.46,TRADE
QLD1,"2009/05/23 18:30:00",6424.28,33.34,TRADE
QLD1,"2009/05/23 19:00:00",6238.47,29.43,TRADE
QLD1,"2009/05/23 19:30:00",6050.29,25.93,TRADE
QLD1,"2009/05/23 20:00:00",5908.06,24.06,TRADE
QLD1,"2009/05/23 20:30:00",5822.23,23.57,TRADE
QLD1,"2009/05/23 21:00:00",5737.79,22.53,TRADE
QLD1,"2009/05/23 21:30:00",5766.48,20.97,TRADE
QLD1,"2009/05/23 22:00:00",5613.86,20.19,TRADE
QLD1,"2009/05/23 22:30:00",5499.63,22.19,TRADE
QLD1,"2009/05/23 23:00:00",5429.75,21.66,TRADE
QLD1,"2009/05/23 23:30:00",5435.36,22.45,TRADE
QLD1,"2009/05/24 00:00:00",5328.36,21.84,TRADE
QLD1,"2009/05/24 00:30:00",5151.23,20.47,TRADE
QLD1,"2009/05/24 01:00:00",4998.23,20.57,TRADE
QLD1,"2009/05/24 01:30:00",4826.65,20.37,TRADE
QLD1,"2009/05/24 02:00:00",4663.4,19.21,TRADE
QLD1,"2009/05/24 02:30:00",4514.71,16.04,TRADE
QLD1,"2009/05/24 03:00:00",4444.04,15.5,TRADE
QLD1,"2009/05/24 03:30:00",4422.88,15.86,TRADE
QLD1,"2009/05/24 04:00:00",4368.51,15.91,TRADE
QLD1,"2009/05/24 04:30:00",4406.84,18.92,TRADE
QLD1,"2009/05/24 05:00:00",4434.5,13.56,TRADE
QLD1,"2009/05/24 05:30:00",4457.8,15.89,TRADE
QLD1,"2009/05/24 06:00:00",4484.28,15.26,TRADE
QLD1,"2009/05/24 06:30:00",4598.09,15.54,TRADE
QLD1,"2009/05/24 07:00:00",4672.09,13.73,TRADE
QLD1,"2009/05/24 07:30:00",4898.68,17.06,TRADE
QLD1,"2009/05/24 08:00:00",5130.55,20.33,TRADE
QLD1,"2009/05/24 08:30:00",5298.95,21.5,TRADE
QLD1,"2009/05/24 09:00:00",5495.73,22.14,TRADE
QLD1,"2009/05/24 09:30:00",5651.5,23.09,TRADE
QLD1,"2009/05/24 10:00:00",5731.29,23.81,TRADE
QLD1,"2009/05/24 10:30:00",5802.31,24.22,TRADE
QLD1,"2009/05/24 11:00:00",5818.07,23,TRADE
QLD1,"2009/05/24 11:30:00",5772.02,22.32,TRADE
QLD1,"2009/05/24 12:00:00",5738.74,22.08,TRADE
QLD1,"2009/05/24 12:30:00",5698.51,21.98,TRADE
QLD1,"2009/05/24 13:00:00",5679.44,21.42,TRADE
QLD1,"2009/05/24 13:30:00",5593.41,20.6,TRADE
QLD1,"2009/05/24 14:00:00",5567.36,20.88,TRADE
QLD1,"2009/05/24 14:30:00",5510.22,19.69,TRADE
QLD1,"2009/05/24 15:00:00",5550.04,20.36,TRADE
QLD1,"2009/05/24 15:30:00",5544.1,18.9,TRADE
QLD1,"2009/05/24 16:00:00",5620.96,19.15,TRADE
QLD1,"2009/05/24 16:30:00",5756.65,19.57,TRADE
QLD1,"2009/05/24 17:00:00",5919.05,23.49,TRADE
QLD1,"2009/05/24 17:30:00",6233.79,35.04,TRADE
QLD1,"2009/05/24 18:00:00",6590.15,75.07,TRADE
QLD1,"2009/05/24 18:30:00",6534.4,51.67,TRADE
QLD1,"2009/05/24 19:00:00",6367.63,36.37,TRADE
QLD1,"2009/05/24 19:30:00",6151.66,29.3,TRADE
QLD1,"2009/05/24 20:00:00",6015.01,25.45,TRADE
QLD1,"2009/05/24 20:30:00",5927.75,25.43,TRADE
QLD1,"2009/05/24 21:00:00",5855.91,23.4,TRADE
QLD1,"2009/05/24 21:30:00",5869.45,22.1,TRADE
QLD1,"2009/05/24 22:00:00",5635.85,19.66,TRADE
QLD1,"2009/05/24 22:30:00",5442.92,20.67,TRADE
QLD1,"2009/05/24 23:00:00",5350.43,21.22,TRADE
QLD1,"2009/05/24 23:30:00",5298.63,21.48,TRADE
QLD1,"2009/05/25 00:00:00",5159.11,20.64,TRADE
QLD1,"2009/05/25 00:30:00",5026.94,20.27,TRADE
QLD1,"2009/05/25 01:00:00",4890.47,17.46,TRADE
QLD1,"2009/05/25 01:30:00",4705.77,16.61,TRADE
QLD1,"2009/05/25 02:00:00",4586.92,14.56,TRADE
QLD1,"2009/05/25 02:30:00",4513.67,13.5,TRADE
QLD1,"2009/05/25 03:00:00",4450.49,13.45,TRADE
QLD1,"2009/05/25 03:30:00",4439.07,12.76,TRADE
QLD1,"2009/05/25 04:00:00",4410.19,12.93,TRADE
QLD1,"2009/05/25 04:30:00",4440.88,12.75,TRADE
QLD1,"2009/05/25 05:00:00",4548.94,14.13,TRADE
QLD1,"2009/05/25 05:30:00",4787.16,16.57,TRADE
QLD1,"2009/05/25 06:00:00",5066.39,19.77,TRADE
QLD1,"2009/05/25 06:30:00",5425.06,21.83,TRADE
QLD1,"2009/05/25 07:00:00",5850.5,24.55,TRADE
QLD1,"2009/05/25 07:30:00",6298.59,25.21,TRADE
QLD1,"2009/05/25 08:00:00",6491.78,27.04,TRADE
QLD1,"2009/05/25 08:30:00",6538.09,30.07,TRADE
QLD1,"2009/05/25 09:00:00",6485.27,26.08,TRADE
QLD1,"2009/05/25 09:30:00",6469.32,27.59,TRADE
QLD1,"2009/05/25 10:00:00",6454.28,28.39,TRADE
QLD1,"2009/05/25 10:30:00",6446.42,28.4,TRADE
QLD1,"2009/05/25 11:00:00",6429.55,26.86,TRADE
QLD1,"2009/05/25 11:30:00",6381.02,25.92,TRADE
QLD1,"2009/05/25 12:00:00",6400.76,26.22,TRADE
QLD1,"2009/05/25 12:30:00",6369.9,26.63,TRADE
QLD1,"2009/05/25 13:00:00",6356.34,25.51,TRADE
QLD1,"2009/05/25 13:30:00",6332.44,25.5,TRADE
QLD1,"2009/05/25 14:00:00",6308.93,26.84,TRADE
QLD1,"2009/05/25 14:30:00",6319.65,25.12,TRADE
QLD1,"2009/05/25 15:00:00",6278.71,24.29,TRADE
QLD1,"2009/05/25 15:30:00",6258.13,24.1,TRADE
QLD1,"2009/05/25 16:00:00",6277.76,25.48,TRADE
QLD1,"2009/05/25 16:30:00",6338.54,25.5,TRADE
QLD1,"2009/05/25 17:00:00",6481.17,26.64,TRADE
QLD1,"2009/05/25 17:30:00",6819.94,32.45,TRADE
QLD1,"2009/05/25 18:00:00",7140.32,46.35,TRADE
QLD1,"2009/05/25 18:30:00",6995.5,37.1,TRADE
QLD1,"2009/05/25 19:00:00",6731.53,29.67,TRADE
QLD1,"2009/05/25 19:30:00",6520.14,25.33,TRADE
QLD1,"2009/05/25 20:00:00",6367.52,24.14,TRADE
QLD1,"2009/05/25 20:30:00",6245.06,22.25,TRADE
QLD1,"2009/05/25 21:00:00",6150.79,23.52,TRADE
QLD1,"2009/05/25 21:30:00",6147.03,23.45,TRADE
QLD1,"2009/05/25 22:00:00",5931.95,22.16,TRADE
QLD1,"2009/05/25 22:30:00",5725.58,23.87,TRADE
QLD1,"2009/05/25 23:00:00",5570.2,22.49,TRADE
QLD1,"2009/05/25 23:30:00",5501.58,23.74,TRADE
QLD1,"2009/05/26 00:00:00",5329.92,20.82,TRADE
QLD1,"2009/05/26 00:30:00",5113.51,18.68,TRADE
QLD1,"2009/05/26 01:00:00",4965.18,17.74,TRADE
QLD1,"2009/05/26 01:30:00",4807.84,18.69,TRADE
QLD1,"2009/05/26 02:00:00",4660.75,17.94,TRADE
QLD1,"2009/05/26 02:30:00",4552.98,15.45,TRADE
QLD1,"2009/05/26 03:00:00",4498.9,14.91,TRADE
QLD1,"2009/05/26 03:30:00",4474.24,13.81,TRADE
QLD1,"2009/05/26 04:00:00",4504.91,15.91,TRADE
QLD1,"2009/05/26 04:30:00",4507.56,15.24,TRADE
QLD1,"2009/05/26 05:00:00",4611.1,13.93,TRADE
QLD1,"2009/05/26 05:30:00",4800.61,17.78,TRADE
QLD1,"2009/05/26 06:00:00",5046.4,18.69,TRADE
QLD1,"2009/05/26 06:30:00",5510.35,21.55,TRADE
QLD1,"2009/05/26 07:00:00",5979.64,23.39,TRADE
QLD1,"2009/05/26 07:30:00",6400.12,24.32,TRADE
QLD1,"2009/05/26 08:00:00",6563.86,27.55,TRADE
QLD1,"2009/05/26 08:30:00",6658.68,26.57,TRADE
QLD1,"2009/05/26 09:00:00",6585.93,25.21,TRADE
QLD1,"2009/05/26 09:30:00",6495.32,25.53,TRADE
QLD1,"2009/05/26 10:00:00",6474.74,25.41,TRADE
QLD1,"2009/05/26 10:30:00",6449.68,25.51,TRADE
QLD1,"2009/05/26 11:00:00",6428.42,24.94,TRADE
QLD1,"2009/05/26 11:30:00",6437.83,24.53,TRADE
QLD1,"2009/05/26 12:00:00",6401.18,25.5,TRADE
QLD1,"2009/05/26 12:30:00",6383.7,24.81,TRADE
QLD1,"2009/05/26 13:00:00",6362.99,24.67,TRADE
QLD1,"2009/05/26 13:30:00",6363.04,25.22,TRADE
QLD1,"2009/05/26 14:00:00",6320.16,23.61,TRADE
QLD1,"2009/05/26 14:30:00",6321.55,23.43,TRADE
QLD1,"2009/05/26 15:00:00",6261.03,23.05,TRADE
QLD1,"2009/05/26 15:30:00",6257.39,23.19,TRADE
QLD1,"2009/05/26 16:00:00",6328.9,24.34,TRADE
QLD1,"2009/05/26 16:30:00",6390,25.36,TRADE
QLD1,"2009/05/26 17:00:00",6543.22,27.22,TRADE
QLD1,"2009/05/26 17:30:00",6811.58,31.57,TRADE
QLD1,"2009/05/26 18:00:00",7095.63,45.34,TRADE
QLD1,"2009/05/26 18:30:00",6934.76,41.6,TRADE
QLD1,"2009/05/26 19:00:00",6736.96,32.63,TRADE
QLD1,"2009/05/26 19:30:00",6534.29,27.97,TRADE
QLD1,"2009/05/26 20:00:00",6406.98,26.04,TRADE
QLD1,"2009/05/26 20:30:00",6287.97,26.83,TRADE
QLD1,"2009/05/26 21:00:00",6135.91,26.01,TRADE
QLD1,"2009/05/26 21:30:00",6170.28,25.55,TRADE
QLD1,"2009/05/26 22:00:00",5961.38,24.02,TRADE
QLD1,"2009/05/26 22:30:00",5741.75,26.62,TRADE
QLD1,"2009/05/26 23:00:00",5597.1,24.72,TRADE
QLD1,"2009/05/26 23:30:00",5505.94,25.39,TRADE
QLD1,"2009/05/27 00:00:00",5320.13,22.94,TRADE
QLD1,"2009/05/27 00:30:00",5108.18,21.59,TRADE
QLD1,"2009/05/27 01:00:00",4921.22,21.2,TRADE
QLD1,"2009/05/27 01:30:00",4743.68,21.04,TRADE
QLD1,"2009/05/27 02:00:00",4590.74,19.01,TRADE
QLD1,"2009/05/27 02:30:00",4482.06,18.68,TRADE
QLD1,"2009/05/27 03:00:00",4438.41,18.6,TRADE
QLD1,"2009/05/27 03:30:00",4419.05,17.98,TRADE
QLD1,"2009/05/27 04:00:00",4437.2,18.67,TRADE
QLD1,"2009/05/27 04:30:00",4491.48,18.46,TRADE
QLD1,"2009/05/27 05:00:00",4549.21,19.19,TRADE
QLD1,"2009/05/27 05:30:00",4748.65,20.6,TRADE
QLD1,"2009/05/27 06:00:00",5056.57,21.62,TRADE
QLD1,"2009/05/27 06:30:00",5440.56,25.67,TRADE
QLD1,"2009/05/27 07:00:00",5846.89,28.37,TRADE
QLD1,"2009/05/27 07:30:00",6295.73,26.21,TRADE
QLD1,"2009/05/27 08:00:00",6460.51,32.39,TRADE
QLD1,"2009/05/27 08:30:00",6450.96,34.41,TRADE
QLD1,"2009/05/27 09:00:00",6393.38,28.65,TRADE
QLD1,"2009/05/27 09:30:00",6302.07,28.53,TRADE
QLD1,"2009/05/27 10:00:00",6257.92,30.7,TRADE
QLD1,"2009/05/27 10:30:00",6270.84,30.44,TRADE
QLD1,"2009/05/27 11:00:00",6264.61,27.66,TRADE
QLD1,"2009/05/27 11:30:00",6268.49,30.43,TRADE
QLD1,"2009/05/27 12:00:00",6298.87,30.74,TRADE
QLD1,"2009/05/27 12:30:00",6367.65,32.07,TRADE
QLD1,"2009/05/27 13:00:00",6329.05,25.5,TRADE
QLD1,"2009/05/27 13:30:00",6335.46,24.44,TRADE
QLD1,"2009/05/27 14:00:00",6313.85,25.12,TRADE
QLD1,"2009/05/27 14:30:00",6319.66,24.83,TRADE
QLD1,"2009/05/27 15:00:00",6316.92,24.63,TRADE
QLD1,"2009/05/27 15:30:00",6296.2,23.26,TRADE
QLD1,"2009/05/27 16:00:00",6310.17,24.42,TRADE
QLD1,"2009/05/27 16:30:00",6344.21,25.1,TRADE
QLD1,"2009/05/27 17:00:00",6519.34,27.17,TRADE
QLD1,"2009/05/27 17:30:00",6774.58,34.23,TRADE
QLD1,"2009/05/27 18:00:00",7063,63.02,TRADE
QLD1,"2009/05/27 18:30:00",6945.8,51.08,TRADE
QLD1,"2009/05/27 19:00:00",6752.54,34.82,TRADE
QLD1,"2009/05/27 19:30:00",6529.58,27.09,TRADE
QLD1,"2009/05/27 20:00:00",6384.22,24.85,TRADE
QLD1,"2009/05/27 20:30:00",6245.79,25.63,TRADE
QLD1,"2009/05/27 21:00:00",6163.37,25.79,TRADE
QLD1,"2009/05/27 21:30:00",6183.77,24.89,TRADE
QLD1,"2009/05/27 22:00:00",5925.4,22.77,TRADE
QLD1,"2009/05/27 22:30:00",5770.56,25.08,TRADE
QLD1,"2009/05/27 23:00:00",5622.65,22.74,TRADE
QLD1,"2009/05/27 23:30:00",5524.21,23.46,TRADE
QLD1,"2009/05/28 00:00:00",5291.08,22.07,TRADE
QLD1,"2009/05/28 00:30:00",5143.54,21.15,TRADE
QLD1,"2009/05/28 01:00:00",4990.11,20.96,TRADE
QLD1,"2009/05/28 01:30:00",4817.99,20.58,TRADE
QLD1,"2009/05/28 02:00:00",4654.92,18.84,TRADE
QLD1,"2009/05/28 02:30:00",4558.93,16.84,TRADE
QLD1,"2009/05/28 03:00:00",4479.5,16.91,TRADE
QLD1,"2009/05/28 03:30:00",4480.85,15.46,TRADE
QLD1,"2009/05/28 04:00:00",4474.43,18.48,TRADE
QLD1,"2009/05/28 04:30:00",4517.42,17.77,TRADE
QLD1,"2009/05/28 05:00:00",4580.59,16.86,TRADE
QLD1,"2009/05/28 05:30:00",4821.28,20.18,TRADE
QLD1,"2009/05/28 06:00:00",5085.69,21.31,TRADE
QLD1,"2009/05/28 06:30:00",5553.13,22.78,TRADE
QLD1,"2009/05/28 07:00:00",5989.19,25.45,TRADE
QLD1,"2009/05/28 07:30:00",6425.95,25.52,TRADE
QLD1,"2009/05/28 08:00:00",6552.33,27.22,TRADE
QLD1,"2009/05/28 08:30:00",6529.12,25.76,TRADE
QLD1,"2009/05/28 09:00:00",6502.54,26.17,TRADE
QLD1,"2009/05/28 09:30:00",6452.79,25.5,TRADE
QLD1,"2009/05/28 10:00:00",6409.25,25.38,TRADE
QLD1,"2009/05/28 10:30:00",6406.33,24.05,TRADE
QLD1,"2009/05/28 11:00:00",6421.28,24.74,TRADE
QLD1,"2009/05/28 11:30:00",6403.49,24.65,TRADE
QLD1,"2009/05/28 12:00:00",6398.21,24.8,TRADE
QLD1,"2009/05/28 12:30:00",6394.26,25.33,TRADE
QLD1,"2009/05/28 13:00:00",6436.06,23.3,TRADE
QLD1,"2009/05/28 13:30:00",6425.75,20.84,TRADE
QLD1,"2009/05/28 14:00:00",6452.55,23.35,TRADE
QLD1,"2009/05/28 14:30:00",6405.5,22.63,TRADE
QLD1,"2009/05/28 15:00:00",6402.63,23.28,TRADE
QLD1,"2009/05/28 15:30:00",6339.6,23.02,TRADE
QLD1,"2009/05/28 16:00:00",6334.89,22.8,TRADE
QLD1,"2009/05/28 16:30:00",6382.21,23.44,TRADE
QLD1,"2009/05/28 17:00:00",6485.62,25.4,TRADE
QLD1,"2009/05/28 17:30:00",6774.14,35.55,TRADE
QLD1,"2009/05/28 18:00:00",7081.39,67.47,TRADE
QLD1,"2009/05/28 18:30:00",6943.67,50.76,TRADE
QLD1,"2009/05/28 19:00:00",6800.91,35.72,TRADE
QLD1,"2009/05/28 19:30:00",6607.59,29.98,TRADE
QLD1,"2009/05/28 20:00:00",6506.65,26.54,TRADE
QLD1,"2009/05/28 20:30:00",6429.22,27.17,TRADE
QLD1,"2009/05/28 21:00:00",6317.89,26.29,TRADE
QLD1,"2009/05/28 21:30:00",6251.48,24.16,TRADE
QLD1,"2009/05/28 22:00:00",5972.4,19.83,TRADE
QLD1,"2009/05/28 22:30:00",5775.57,23.23,TRADE
QLD1,"2009/05/28 23:00:00",5656.77,23.03,TRADE
QLD1,"2009/05/28 23:30:00",5561.96,23.32,TRADE
QLD1,"2009/05/29 00:00:00",5371.65,21.16,TRADE
QLD1,"2009/05/29 00:30:00",5184.17,19.55,TRADE
QLD1,"2009/05/29 01:00:00",5002.83,18.07,TRADE
QLD1,"2009/05/29 01:30:00",4784.41,17.31,TRADE
QLD1,"2009/05/29 02:00:00",4671.2,17.74,TRADE
QLD1,"2009/05/29 02:30:00",4588.28,17.07,TRADE
QLD1,"2009/05/29 03:00:00",4536.2,16.85,TRADE
QLD1,"2009/05/29 03:30:00",4512.49,16.01,TRADE
QLD1,"2009/05/29 04:00:00",4548.22,16.64,TRADE
QLD1,"2009/05/29 04:30:00",4594.46,15.82,TRADE
QLD1,"2009/05/29 05:00:00",4659.86,15.32,TRADE
QLD1,"2009/05/29 05:30:00",4850.04,16.6,TRADE
QLD1,"2009/05/29 06:00:00",5131.05,20.55,TRADE
QLD1,"2009/05/29 06:30:00",5550.12,21.87,TRADE
QLD1,"2009/05/29 07:00:00",6014.49,24.69,TRADE
QLD1,"2009/05/29 07:30:00",6394.41,27.02,TRADE
QLD1,"2009/05/29 08:00:00",6562.53,26.9,TRADE
QLD1,"2009/05/29 08:30:00",6532.99,24.53,TRADE
QLD1,"2009/05/29 09:00:00",6499.49,20.38,TRADE
QLD1,"2009/05/29 09:30:00",6493.04,27.36,TRADE
QLD1,"2009/05/29 10:00:00",6464.03,25.08,TRADE
QLD1,"2009/05/29 10:30:00",6507.19,24.99,TRADE
QLD1,"2009/05/29 11:00:00",6529.93,24.86,TRADE
QLD1,"2009/05/29 11:30:00",6507.54,24.46,TRADE
QLD1,"2009/05/29 12:00:00",6463.22,23.89,TRADE
QLD1,"2009/05/29 12:30:00",6488.06,23.18,TRADE
QLD1,"2009/05/29 13:00:00",6446.73,20.04,TRADE
QLD1,"2009/05/29 13:30:00",6423.22,21.55,TRADE
QLD1,"2009/05/29 14:00:00",6413.97,20.73,TRADE
QLD1,"2009/05/29 14:30:00",6414.55,18.12,TRADE
QLD1,"2009/05/29 15:00:00",6381.08,18.64,TRADE
QLD1,"2009/05/29 15:30:00",6336.74,17.87,TRADE
QLD1,"2009/05/29 16:00:00",6369.58,11.57,TRADE
QLD1,"2009/05/29 16:30:00",6397.68,24.7,TRADE
QLD1,"2009/05/29 17:00:00",6509.14,28.51,TRADE
QLD1,"2009/05/29 17:30:00",6752.2,39.26,TRADE
QLD1,"2009/05/29 18:00:00",6916.5,75.6,TRADE
QLD1,"2009/05/29 18:30:00",6730.92,45.1,TRADE
QLD1,"2009/05/29 19:00:00",6462.99,26.93,TRADE
QLD1,"2009/05/29 19:30:00",6308.91,25.61,TRADE
QLD1,"2009/05/29 20:00:00",6183.19,25.23,TRADE
QLD1,"2009/05/29 20:30:00",6098.53,25.6,TRADE
QLD1,"2009/05/29 21:00:00",5994.31,24.4,TRADE
QLD1,"2009/05/29 21:30:00",6028.83,23.7,TRADE
QLD1,"2009/05/29 22:00:00",5838.63,21.74,TRADE
QLD1,"2009/05/29 22:30:00",5663.51,27.1,TRADE
QLD1,"2009/05/29 23:00:00",5590.42,23.28,TRADE
QLD1,"2009/05/29 23:30:00",5540.53,22.47,TRADE
QLD1,"2009/05/30 00:00:00",5357.48,21.06,TRADE
QLD1,"2009/05/30 00:30:00",5152.4,19.97,TRADE
QLD1,"2009/05/30 01:00:00",5000.99,19.78,TRADE
QLD1,"2009/05/30 01:30:00",4807.23,19.57,TRADE
QLD1,"2009/05/30 02:00:00",4685.63,17.84,TRADE
QLD1,"2009/05/30 02:30:00",4533.15,14.73,TRADE
QLD1,"2009/05/30 03:00:00",4483.13,17.87,TRADE
QLD1,"2009/05/30 03:30:00",4476.23,16.19,TRADE
QLD1,"2009/05/30 04:00:00",4473.61,16.25,TRADE
QLD1,"2009/05/30 04:30:00",4460.33,15.72,TRADE
QLD1,"2009/05/30 05:00:00",4493.46,14.9,TRADE
QLD1,"2009/05/30 05:30:00",4592.49,16.67,TRADE
QLD1,"2009/05/30 06:00:00",4688.44,17.65,TRADE
QLD1,"2009/05/30 06:30:00",4829,18.83,TRADE
QLD1,"2009/05/30 07:00:00",5003.1,18.9,TRADE
QLD1,"2009/05/30 07:30:00",5316.39,21.49,TRADE
QLD1,"2009/05/30 08:00:00",5543.8,22.44,TRADE
QLD1,"2009/05/30 08:30:00",5813.74,24.1,TRADE
QLD1,"2009/05/30 09:00:00",5927.13,24.91,TRADE
QLD1,"2009/05/30 09:30:00",5992.43,24.93,TRADE
QLD1,"2009/05/30 10:00:00",6021.11,25.1,TRADE
QLD1,"2009/05/30 10:30:00",5971.02,24.63,TRADE
QLD1,"2009/05/30 11:00:00",6001.85,24.37,TRADE
QLD1,"2009/05/30 11:30:00",5926.09,24.41,TRADE
QLD1,"2009/05/30 12:00:00",5833.52,23.56,TRADE
QLD1,"2009/05/30 12:30:00",5754.98,20.46,TRADE
QLD1,"2009/05/30 13:00:00",5707.14,19.75,TRADE
QLD1,"2009/05/30 13:30:00",5704.41,21.58,TRADE
QLD1,"2009/05/30 14:00:00",5697.2,21.96,TRADE
QLD1,"2009/05/30 14:30:00",5632.5,21.49,TRADE
QLD1,"2009/05/30 15:00:00",5612.74,22.12,TRADE
QLD1,"2009/05/30 15:30:00",5611.75,20.64,TRADE
QLD1,"2009/05/30 16:00:00",5672.66,21.81,TRADE
QLD1,"2009/05/30 16:30:00",5743.64,23.25,TRADE
QLD1,"2009/05/30 17:00:00",5912.8,24.23,TRADE
QLD1,"2009/05/30 17:30:00",6221.45,25.75,TRADE
QLD1,"2009/05/30 18:00:00",6492.23,38.68,TRADE
QLD1,"2009/05/30 18:30:00",6364.81,31.96,TRADE
QLD1,"2009/05/30 19:00:00",6193,26.68,TRADE
QLD1,"2009/05/30 19:30:00",5974.4,26.16,TRADE
QLD1,"2009/05/30 20:00:00",5883.03,25.77,TRADE
QLD1,"2009/05/30 20:30:00",5804.52,25.83,TRADE
QLD1,"2009/05/30 21:00:00",5739.61,25.38,TRADE
QLD1,"2009/05/30 21:30:00",5822.36,25.66,TRADE
QLD1,"2009/05/30 22:00:00",5631.46,24.31,TRADE
QLD1,"2009/05/30 22:30:00",5531,25.5,TRADE
QLD1,"2009/05/30 23:00:00",5496.28,25.31,TRADE
QLD1,"2009/05/30 23:30:00",5481.81,25.83,TRADE
QLD1,"2009/05/31 00:00:00",5291.53,23.78,TRADE
QLD1,"2009/05/31 00:30:00",5150.34,21.56,TRADE
QLD1,"2009/05/31 01:00:00",4979.74,20.46,TRADE
QLD1,"2009/05/31 01:30:00",4828.99,19.54,TRADE
QLD1,"2009/05/31 02:00:00",4645.37,18.34,TRADE
QLD1,"2009/05/31 02:30:00",4563.69,19.63,TRADE
QLD1,"2009/05/31 03:00:00",4436.88,17.24,TRADE
QLD1,"2009/05/31 03:30:00",4425.72,16.22,TRADE
QLD1,"2009/05/31 04:00:00",4409.8,16.49,TRADE
QLD1,"2009/05/31 04:30:00",4439.9,18.65,TRADE
QLD1,"2009/05/31 05:00:00",4447.45,15.17,TRADE
QLD1,"2009/05/31 05:30:00",4468.43,16.43,TRADE
QLD1,"2009/05/31 06:00:00",4538.97,17.98,TRADE
QLD1,"2009/05/31 06:30:00",4627.81,18,TRADE
QLD1,"2009/05/31 07:00:00",4740.13,18.38,TRADE
QLD1,"2009/05/31 07:30:00",4973.1,19.33,TRADE
QLD1,"2009/05/31 08:00:00",5215.96,21.98,TRADE
QLD1,"2009/05/31 08:30:00",5459.47,24.39,TRADE
QLD1,"2009/05/31 09:00:00",5606.06,25.55,TRADE
QLD1,"2009/05/31 09:30:00",5702.97,26.17,TRADE
QLD1,"2009/05/31 10:00:00",5748.08,27.5,TRADE
QLD1,"2009/05/31 10:30:00",5788.84,27.73,TRADE
QLD1,"2009/05/31 11:00:00",5781.53,27.07,TRADE
QLD1,"2009/05/31 11:30:00",5765.98,27.17,TRADE
QLD1,"2009/05/31 12:00:00",5784.75,27.5,TRADE
QLD1,"2009/05/31 12:30:00",5712.56,26.4,TRADE
QLD1,"2009/05/31 13:00:00",5716.6,26,TRADE
QLD1,"2009/05/31 13:30:00",5662.08,25.92,TRADE
QLD1,"2009/05/31 14:00:00",5660.48,25.25,TRADE
QLD1,"2009/05/31 14:30:00",5632.94,24.72,TRADE
QLD1,"2009/05/31 15:00:00",5631.63,24.65,TRADE
QLD1,"2009/05/31 15:30:00",5664.24,20.89,TRADE
QLD1,"2009/05/31 16:00:00",5711.9,21.9,TRADE
QLD1,"2009/05/31 16:30:00",5813.55,22.95,TRADE
QLD1,"2009/05/31 17:00:00",6066.64,25.16,TRADE
QLD1,"2009/05/31 17:30:00",6468.8,41.07,TRADE
QLD1,"2009/05/31 18:00:00",6767.57,60.29,TRADE
QLD1,"2009/05/31 18:30:00",6635.15,43.2,TRADE
QLD1,"2009/05/31 19:00:00",6408.41,31.67,TRADE
QLD1,"2009/05/31 19:30:00",6189.91,32.24,TRADE
QLD1,"2009/05/31 20:00:00",6089.43,29.94,TRADE
QLD1,"2009/05/31 20:30:00",5983.25,27.81,TRADE
QLD1,"2009/05/31 21:00:00",5881.49,26.08,TRADE
QLD1,"2009/05/31 21:30:00",5882.94,26.11,TRADE
QLD1,"2009/05/31 22:00:00",5643.46,22.19,TRADE
QLD1,"2009/05/31 22:30:00",5506.84,24.2,TRADE
QLD1,"2009/05/31 23:00:00",5401.46,22.46,TRADE
QLD1,"2009/05/31 23:30:00",5323.99,23.63,TRADE
QLD1,"2009/06/01 00:00:00",5171.08,20.16,TRADE
