REGION,SETTLEMENTDATE,TOTALDEMAND,RRP,PERIODTYPE
NSW1,"2002/01/01 00:30",7219.115,20.91,TRADE
NSW1,"2002/01/01 01:00",6876.59667,19.28,TRADE
NSW1,"2002/01/01 01:30",6487.07667,18.52,TRADE
NSW1,"2002/01/01 02:00",6108.34667,16,TRADE
NSW1,"2002/01/01 02:30",5797.17667,14.77,TRADE
NSW1,"2002/01/01 03:00",5576.78667,14.23,TRADE
NSW1,"2002/01/01 03:30",5437.26667,13.98,TRADE
NSW1,"2002/01/01 04:00",5378.63167,13.29,TRADE
NSW1,"2002/01/01 04:30",5382.175,13.07,TRADE
NSW1,"2002/01/01 05:00",5322.12167,11.19,TRADE
NSW1,"2002/01/01 05:30",5347.31833,12.12,TRADE
NSW1,"2002/01/01 06:00",5424.75,9.55,TRADE
NSW1,"2002/01/01 06:30",5568.06833,9.47,TRADE
NSW1,"2002/01/01 07:00",5768.14167,13.06,TRADE
NSW1,"2002/01/01 07:30",6000.96667,14.41,TRADE
NSW1,"2002/01/01 08:00",6279.39667,15,TRADE
NSW1,"2002/01/01 08:30",6633.71833,15.83,TRADE
NSW1,"2002/01/01 09:00",6908.58833,16.12,TRADE
NSW1,"2002/01/01 09:30",7100.83333,16.42,TRADE
NSW1,"2002/01/01 10:00",7291.70333,17.34,TRADE
NSW1,"2002/01/01 10:30",7444.92833,18.4,TRADE
NSW1,"2002/01/01 11:00",7574.57833,19.53,TRADE
NSW1,"2002/01/01 11:30",7686.80833,20.85,TRADE
NSW1,"2002/01/01 12:00",7785.77667,22.75,TRADE
NSW1,"2002/01/01 12:30",7840.47167,22.9,TRADE
NSW1,"2002/01/01 13:00",7862.91167,21.99,TRADE
NSW1,"2002/01/01 13:30",7889.80833,22.29,TRADE
NSW1,"2002/01/01 14:00",7919.30667,23.95,TRADE
NSW1,"2002/01/01 14:30",7989.08667,25,TRADE
NSW1,"2002/01/01 15:00",8047.28333,25.05,TRADE
NSW1,"2002/01/01 15:30",8152.58833,26.91,TRADE
NSW1,"2002/01/01 16:00",8230.49167,28.81,TRADE
NSW1,"2002/01/01 16:30",8259.46,30.93,TRADE
NSW1,"2002/01/01 17:00",8370.74833,31.21,TRADE
NSW1,"2002/01/01 17:30",8342.015,30.58,TRADE
NSW1,"2002/01/01 18:00",8314.01167,30.77,TRADE
NSW1,"2002/01/01 18:30",8177.25667,25.69,TRADE
NSW1,"2002/01/01 19:00",8083.70333,25.13,TRADE
NSW1,"2002/01/01 19:30",8112.11167,26.86,TRADE
NSW1,"2002/01/01 20:00",8231.29667,29.05,TRADE
NSW1,"2002/01/01 20:30",8143.52333,26.15,TRADE
NSW1,"2002/01/01 21:00",7857.21,23.28,TRADE
NSW1,"2002/01/01 21:30",7901.83833,24.5,TRADE
NSW1,"2002/01/01 22:00",7672.87167,19.75,TRADE
NSW1,"2002/01/01 22:30",7549.155,19.82,TRADE
NSW1,"2002/01/01 23:00",7279.93833,18.41,TRADE
NSW1,"2002/01/01 23:30",7085.25,20.88,TRADE
NSW1,"2002/01/02 00:00",6878.15667,20,TRADE
NSW1,"2002/01/02 00:30",6650.75833,18.29,TRADE
NSW1,"2002/01/02 01:00",6392.00667,16,TRADE
NSW1,"2002/01/02 01:30",6113.96333,16.62,TRADE
NSW1,"2002/01/02 02:00",5823.295,15.49,TRADE
NSW1,"2002/01/02 02:30",5626.02833,14.3,TRADE
NSW1,"2002/01/02 03:00",5570.86,13.4,TRADE
NSW1,"2002/01/02 03:30",5523.01833,13.09,TRADE
NSW1,"2002/01/02 04:00",5549.005,13.21,TRADE
NSW1,"2002/01/02 04:30",5690.64333,13.97,TRADE
NSW1,"2002/01/02 05:00",5797.545,13.82,TRADE
NSW1,"2002/01/02 05:30",6102.88333,15.29,TRADE
NSW1,"2002/01/02 06:00",6435.92667,15.92,TRADE
NSW1,"2002/01/02 06:30",6737.78167,17.04,TRADE
NSW1,"2002/01/02 07:00",7136.20333,17.54,TRADE
NSW1,"2002/01/02 07:30",7611.12833,17.58,TRADE
NSW1,"2002/01/02 08:00",7962.13667,18.74,TRADE
NSW1,"2002/01/02 08:30",8352.64167,23.39,TRADE
NSW1,"2002/01/02 09:00",8515.87667,23.29,TRADE
NSW1,"2002/01/02 09:30",8703.15167,23.8,TRADE
NSW1,"2002/01/02 10:00",8805.485,25,TRADE
NSW1,"2002/01/02 10:30",8865.46833,24.86,TRADE
NSW1,"2002/01/02 11:00",9007.715,24.42,TRADE
NSW1,"2002/01/02 11:30",9054.625,24.98,TRADE
NSW1,"2002/01/02 12:00",9112.02667,25.26,TRADE
NSW1,"2002/01/02 12:30",9199.03667,26.02,TRADE
NSW1,"2002/01/02 13:00",9276.72667,27.44,TRADE
NSW1,"2002/01/02 13:30",9334.33333,27.92,TRADE
NSW1,"2002/01/02 14:00",9358.37167,27.13,TRADE
NSW1,"2002/01/02 14:30",9433.955,26.44,TRADE
NSW1,"2002/01/02 15:00",9466.11833,31.56,TRADE
NSW1,"2002/01/02 15:30",9424.285,41.75,TRADE
NSW1,"2002/01/02 16:00",9496.73,39.25,TRADE
NSW1,"2002/01/02 16:30",9420.925,41.12,TRADE
NSW1,"2002/01/02 17:00",9336.37333,35.76,TRADE
NSW1,"2002/01/02 17:30",9038.37333,26.3,TRADE
NSW1,"2002/01/02 18:00",8917.99333,24.53,TRADE
NSW1,"2002/01/02 18:30",8619.43667,23.18,TRADE
NSW1,"2002/01/02 19:00",8416.22167,22.9,TRADE
NSW1,"2002/01/02 19:30",8356.85333,23.79,TRADE
NSW1,"2002/01/02 20:00",8400.13833,23.8,TRADE
NSW1,"2002/01/02 20:30",8160.41667,21.17,TRADE
NSW1,"2002/01/02 21:00",7903.59333,17.43,TRADE
NSW1,"2002/01/02 21:30",8022.55333,19.41,TRADE
NSW1,"2002/01/02 22:00",7805.265,17.16,TRADE
NSW1,"2002/01/02 22:30",7815.24167,24.11,TRADE
NSW1,"2002/01/02 23:00",7611.45,20.21,TRADE
NSW1,"2002/01/02 23:30",7431.00167,23.98,TRADE
NSW1,"2002/01/03 00:00",7231.65167,22.9,TRADE
NSW1,"2002/01/03 00:30",7030.29333,22.33,TRADE
NSW1,"2002/01/03 01:00",6729.24167,20.02,TRADE
NSW1,"2002/01/03 01:30",6325.03167,18.74,TRADE
NSW1,"2002/01/03 02:00",6012.03667,16.53,TRADE
NSW1,"2002/01/03 02:30",5749.69167,15.67,TRADE
NSW1,"2002/01/03 03:00",5611.375,14.66,TRADE
NSW1,"2002/01/03 03:30",5567.93167,15.17,TRADE
NSW1,"2002/01/03 04:00",5607.045,15.23,TRADE
NSW1,"2002/01/03 04:30",5735.205,15.88,TRADE
NSW1,"2002/01/03 05:00",5836.7,14.95,TRADE
NSW1,"2002/01/03 05:30",6126.72667,15.52,TRADE
NSW1,"2002/01/03 06:00",6478.31333,16.34,TRADE
NSW1,"2002/01/03 06:30",6741.88667,17.83,TRADE
NSW1,"2002/01/03 07:00",7137.02833,17.93,TRADE
NSW1,"2002/01/03 07:30",7406.52333,17.1,TRADE
NSW1,"2002/01/03 08:00",7633.88667,17.74,TRADE
NSW1,"2002/01/03 08:30",7953.48333,22.46,TRADE
NSW1,"2002/01/03 09:00",8095.14,22.18,TRADE
NSW1,"2002/01/03 09:30",8140.195,21.97,TRADE
NSW1,"2002/01/03 10:00",8127.71833,22.43,TRADE
NSW1,"2002/01/03 10:30",8274.65167,22.9,TRADE
NSW1,"2002/01/03 11:00",8285.32333,22.9,TRADE
NSW1,"2002/01/03 11:30",8314.115,22.9,TRADE
NSW1,"2002/01/03 12:00",8335.49833,22.9,TRADE
NSW1,"2002/01/03 12:30",8383.09667,22.9,TRADE
NSW1,"2002/01/03 13:00",8351.75333,22.9,TRADE
NSW1,"2002/01/03 13:30",8375.9,22.9,TRADE
NSW1,"2002/01/03 14:00",8372.585,22.9,TRADE
NSW1,"2002/01/03 14:30",8394.47833,22.9,TRADE
NSW1,"2002/01/03 15:00",8434.42667,22.9,TRADE
NSW1,"2002/01/03 15:30",8422.015,22.74,TRADE
NSW1,"2002/01/03 16:00",8500.62667,22.9,TRADE
NSW1,"2002/01/03 16:30",8446.325,22.87,TRADE
NSW1,"2002/01/03 17:00",8408.72667,22.9,TRADE
NSW1,"2002/01/03 17:30",8201.01333,21.09,TRADE
NSW1,"2002/01/03 18:00",8104.67833,19.74,TRADE
NSW1,"2002/01/03 18:30",7849.32667,16.56,TRADE
NSW1,"2002/01/03 19:00",7710.87167,17.08,TRADE
NSW1,"2002/01/03 19:30",7711.13,17.76,TRADE
NSW1,"2002/01/03 20:00",7842.76833,18.26,TRADE
NSW1,"2002/01/03 20:30",7667.40667,17.64,TRADE
NSW1,"2002/01/03 21:00",7427.30833,16.9,TRADE
NSW1,"2002/01/03 21:30",7581.60167,16.99,TRADE
NSW1,"2002/01/03 22:00",7476.48667,16.97,TRADE
NSW1,"2002/01/03 22:30",7582.38833,21.53,TRADE
NSW1,"2002/01/03 23:00",7432.94667,18.16,TRADE
NSW1,"2002/01/03 23:30",7302.61333,22.66,TRADE
NSW1,"2002/01/04 00:00",7123.37167,21.35,TRADE
NSW1,"2002/01/04 00:30",6950.115,20.37,TRADE
NSW1,"2002/01/04 01:00",6691.21,18.08,TRADE
NSW1,"2002/01/04 01:30",6355.87667,24.17,TRADE
NSW1,"2002/01/04 02:00",6043.63667,18.41,TRADE
NSW1,"2002/01/04 02:30",5777.18333,15.44,TRADE
NSW1,"2002/01/04 03:00",5667.75,14.55,TRADE
NSW1,"2002/01/04 03:30",5589.65,13.85,TRADE
NSW1,"2002/01/04 04:00",5632.555,13.79,TRADE
NSW1,"2002/01/04 04:30",5735.30333,14.45,TRADE
NSW1,"2002/01/04 05:00",5869.02167,15.07,TRADE
NSW1,"2002/01/04 05:30",6221.31,16,TRADE
NSW1,"2002/01/04 06:00",6585.15,16,TRADE
NSW1,"2002/01/04 06:30",6859.65667,17.67,TRADE
NSW1,"2002/01/04 07:00",7263.97333,18.35,TRADE
NSW1,"2002/01/04 07:30",7589.015,17.5,TRADE
NSW1,"2002/01/04 08:00",7887.855,18.26,TRADE
NSW1,"2002/01/04 08:30",8222.56667,20.52,TRADE
NSW1,"2002/01/04 09:00",8355.44833,19.79,TRADE
NSW1,"2002/01/04 09:30",8471.90667,20.15,TRADE
NSW1,"2002/01/04 10:00",8493.04167,19.6,TRADE
NSW1,"2002/01/04 10:30",8520.34833,20.75,TRADE
NSW1,"2002/01/04 11:00",8586.65,22.14,TRADE
NSW1,"2002/01/04 11:30",8587.425,21.28,TRADE
NSW1,"2002/01/04 12:00",8619.47833,22.03,TRADE
NSW1,"2002/01/04 12:30",8664.40167,22.84,TRADE
NSW1,"2002/01/04 13:00",8663.80667,22.93,TRADE
NSW1,"2002/01/04 13:30",8684.20833,23.75,TRADE
NSW1,"2002/01/04 14:00",8710.95167,24.44,TRADE
NSW1,"2002/01/04 14:30",8716.43,23.48,TRADE
NSW1,"2002/01/04 15:00",8718.88833,24.88,TRADE
NSW1,"2002/01/04 15:30",8736.80833,24.99,TRADE
NSW1,"2002/01/04 16:00",8725.00333,24.97,TRADE
NSW1,"2002/01/04 16:30",8645.84167,24.9,TRADE
NSW1,"2002/01/04 17:00",8538.74333,25.13,TRADE
NSW1,"2002/01/04 17:30",8247.30833,20.65,TRADE
NSW1,"2002/01/04 18:00",8070.90833,18.29,TRADE
NSW1,"2002/01/04 18:30",7886.425,17.65,TRADE
NSW1,"2002/01/04 19:00",7763.685,18,TRADE
NSW1,"2002/01/04 19:30",7818.56667,18.97,TRADE
NSW1,"2002/01/04 20:00",7895.28333,20.54,TRADE
NSW1,"2002/01/04 20:30",7772.67,19.45,TRADE
NSW1,"2002/01/04 21:00",7549.105,17.93,TRADE
NSW1,"2002/01/04 21:30",7746.245,19.87,TRADE
NSW1,"2002/01/04 22:00",7701.085,18.23,TRADE
NSW1,"2002/01/04 22:30",7854.71333,26.74,TRADE
NSW1,"2002/01/04 23:00",7673.165,25.82,TRADE
NSW1,"2002/01/04 23:30",7488.09667,31.39,TRADE
NSW1,"2002/01/05 00:00",7286.26667,26.57,TRADE
NSW1,"2002/01/05 00:30",7053.06,23.59,TRADE
NSW1,"2002/01/05 01:00",6752.05167,22.89,TRADE
NSW1,"2002/01/05 01:30",6408.63667,22.12,TRADE
NSW1,"2002/01/05 02:00",6114.29167,17.74,TRADE
NSW1,"2002/01/05 02:30",5839.56833,16,TRADE
NSW1,"2002/01/05 03:00",5673.68833,16,TRADE
NSW1,"2002/01/05 03:30",5587.23833,16,TRADE
NSW1,"2002/01/05 04:00",5580.22333,15.91,TRADE
NSW1,"2002/01/05 04:30",5639.07333,14.98,TRADE
NSW1,"2002/01/05 05:00",5648.69333,14.05,TRADE
NSW1,"2002/01/05 05:30",5791.41667,15.79,TRADE
NSW1,"2002/01/05 06:00",5958.64167,16.44,TRADE
NSW1,"2002/01/05 06:30",6199.88,17.19,TRADE
NSW1,"2002/01/05 07:00",6574.125,18.39,TRADE
NSW1,"2002/01/05 07:30",6953.44333,19.17,TRADE
NSW1,"2002/01/05 08:00",7333.00667,22.44,TRADE
NSW1,"2002/01/05 08:30",7701.37667,28,TRADE
NSW1,"2002/01/05 09:00",7826.765,28.74,TRADE
NSW1,"2002/01/05 09:30",7982.16167,31.69,TRADE
NSW1,"2002/01/05 10:00",7987.64,30.21,TRADE
NSW1,"2002/01/05 10:30",8064.35667,30.82,TRADE
NSW1,"2002/01/05 11:00",8065.58667,29.89,TRADE
NSW1,"2002/01/05 11:30",8067.59667,27.41,TRADE
NSW1,"2002/01/05 12:00",8103.19333,28.25,TRADE
NSW1,"2002/01/05 12:30",8122.54667,28.06,TRADE
NSW1,"2002/01/05 13:00",8128.755,29.13,TRADE
NSW1,"2002/01/05 13:30",8126.16167,29.24,TRADE
NSW1,"2002/01/05 14:00",8085.00667,28.51,TRADE
NSW1,"2002/01/05 14:30",8102.84167,28.64,TRADE
NSW1,"2002/01/05 15:00",8117.66333,28.78,TRADE
NSW1,"2002/01/05 15:30",8119.30833,28.54,TRADE
NSW1,"2002/01/05 16:00",8087.98167,31.79,TRADE
NSW1,"2002/01/05 16:30",7975.525,28.88,TRADE
NSW1,"2002/01/05 17:00",7930.86167,28.29,TRADE
NSW1,"2002/01/05 17:30",7895.58167,28.25,TRADE
NSW1,"2002/01/05 18:00",7826.645,26.19,TRADE
NSW1,"2002/01/05 18:30",7693.05,27.03,TRADE
NSW1,"2002/01/05 19:00",7585.795,24.79,TRADE
NSW1,"2002/01/05 19:30",7620.45,25.72,TRADE
NSW1,"2002/01/05 20:00",7760.90167,28.91,TRADE
NSW1,"2002/01/05 20:30",7597.035,25,TRADE
NSW1,"2002/01/05 21:00",7451.975,25.27,TRADE
NSW1,"2002/01/05 21:30",7495.30833,24.98,TRADE
NSW1,"2002/01/05 22:00",7367.63833,21.61,TRADE
NSW1,"2002/01/05 22:30",7407.505,23.99,TRADE
NSW1,"2002/01/05 23:00",7172.83667,22.28,TRADE
NSW1,"2002/01/05 23:30",6956.26167,24.12,TRADE
NSW1,"2002/01/06 00:00",6734.76167,23.07,TRADE
NSW1,"2002/01/06 00:30",6546.66667,21.5,TRADE
NSW1,"2002/01/06 01:00",6292.55667,20.1,TRADE
NSW1,"2002/01/06 01:30",5995.26667,21.33,TRADE
NSW1,"2002/01/06 02:00",5766.55833,17.92,TRADE
NSW1,"2002/01/06 02:30",5591.47,17.16,TRADE
NSW1,"2002/01/06 03:00",5531.32833,16.54,TRADE
NSW1,"2002/01/06 03:30",5490.90667,16.09,TRADE
NSW1,"2002/01/06 04:00",5475.425,16,TRADE
NSW1,"2002/01/06 04:30",5507.96333,16,TRADE
NSW1,"2002/01/06 05:00",5521.08667,16,TRADE
NSW1,"2002/01/06 05:30",5568.97167,16,TRADE
NSW1,"2002/01/06 06:00",5711.67,16,TRADE
NSW1,"2002/01/06 06:30",5885.02833,16.08,TRADE
NSW1,"2002/01/06 07:00",6203.85167,17.47,TRADE
NSW1,"2002/01/06 07:30",6546.86833,17.64,TRADE
NSW1,"2002/01/06 08:00",6911.465,19.2,TRADE
NSW1,"2002/01/06 08:30",7236.47833,24.67,TRADE
NSW1,"2002/01/06 09:00",7449.50833,25.79,TRADE
NSW1,"2002/01/06 09:30",7629.46,25.95,TRADE
NSW1,"2002/01/06 10:00",7618.15333,24.89,TRADE
NSW1,"2002/01/06 10:30",7683.88833,25.16,TRADE
NSW1,"2002/01/06 11:00",7738.43333,28.02,TRADE
NSW1,"2002/01/06 11:30",7787.29333,29.38,TRADE
NSW1,"2002/01/06 12:00",7833.93333,29.36,TRADE
NSW1,"2002/01/06 12:30",7835.565,30.61,TRADE
NSW1,"2002/01/06 13:00",7867.18167,28.14,TRADE
NSW1,"2002/01/06 13:30",7887.42,28.49,TRADE
NSW1,"2002/01/06 14:00",7907.07333,32.58,TRADE
NSW1,"2002/01/06 14:30",7979.73,33.14,TRADE
NSW1,"2002/01/06 15:00",8027.33667,33.25,TRADE
NSW1,"2002/01/06 15:30",8032.58667,33.14,TRADE
NSW1,"2002/01/06 16:00",8047.91333,33.25,TRADE
NSW1,"2002/01/06 16:30",7935.57333,31.82,TRADE
NSW1,"2002/01/06 17:00",7999.94667,33.13,TRADE
NSW1,"2002/01/06 17:30",8011.27,33.25,TRADE
NSW1,"2002/01/06 18:00",7962.03167,33.14,TRADE
NSW1,"2002/01/06 18:30",7926.68,30.5,TRADE
NSW1,"2002/01/06 19:00",7912.985,30.75,TRADE
NSW1,"2002/01/06 19:30",7966.045,32.77,TRADE
NSW1,"2002/01/06 20:00",8047.135,33.25,TRADE
NSW1,"2002/01/06 20:30",7947.575,30.75,TRADE
NSW1,"2002/01/06 21:00",7743.39167,28.58,TRADE
NSW1,"2002/01/06 21:30",7748.68167,27.74,TRADE
NSW1,"2002/01/06 22:00",7583.065,24.51,TRADE
NSW1,"2002/01/06 22:30",7490.6,26.3,TRADE
NSW1,"2002/01/06 23:00",7226.96,24.17,TRADE
NSW1,"2002/01/06 23:30",6955.66,24.74,TRADE
NSW1,"2002/01/07 00:00",6773.32167,24.13,TRADE
NSW1,"2002/01/07 00:30",6574.09167,22.03,TRADE
NSW1,"2002/01/07 01:00",6390.37667,20.43,TRADE
NSW1,"2002/01/07 01:30",6087.21167,22.06,TRADE
NSW1,"2002/01/07 02:00",5899.37333,19.08,TRADE
NSW1,"2002/01/07 02:30",5750.445,17.65,TRADE
NSW1,"2002/01/07 03:00",5704.39667,16.75,TRADE
NSW1,"2002/01/07 03:30",5697.33167,16.09,TRADE
NSW1,"2002/01/07 04:00",5733.88333,16.03,TRADE
NSW1,"2002/01/07 04:30",5928.05,17.06,TRADE
NSW1,"2002/01/07 05:00",6139.91667,18.06,TRADE
NSW1,"2002/01/07 05:30",6606.335,23.95,TRADE
NSW1,"2002/01/07 06:00",7036.70833,25.88,TRADE
NSW1,"2002/01/07 06:30",7412.46167,23.35,TRADE
NSW1,"2002/01/07 07:00",7934.38333,27.59,TRADE
NSW1,"2002/01/07 07:30",8264.41667,20.93,TRADE
NSW1,"2002/01/07 08:00",8589.37,24.56,TRADE
NSW1,"2002/01/07 08:30",8902.61167,30.03,TRADE
NSW1,"2002/01/07 09:00",9051.53167,29.7,TRADE
NSW1,"2002/01/07 09:30",9167.84333,29.73,TRADE
NSW1,"2002/01/07 10:00",9194.985,30.06,TRADE
NSW1,"2002/01/07 10:30",9222.33667,31.15,TRADE
NSW1,"2002/01/07 11:00",9256.72333,32.75,TRADE
NSW1,"2002/01/07 11:30",9258.94833,29.08,TRADE
NSW1,"2002/01/07 12:00",9360.70667,29.62,TRADE
NSW1,"2002/01/07 12:30",9458.08833,38.91,TRADE
NSW1,"2002/01/07 13:00",9491.32833,41.44,TRADE
NSW1,"2002/01/07 13:30",9584.16667,42.55,TRADE
NSW1,"2002/01/07 14:00",9663.98,63,TRADE
NSW1,"2002/01/07 14:30",9765.27667,71.26,TRADE
NSW1,"2002/01/07 15:00",9918.78,91.76,TRADE
NSW1,"2002/01/07 15:30",10055.30333,101.97,TRADE
NSW1,"2002/01/07 16:00",10159.94667,99.09,TRADE
NSW1,"2002/01/07 16:30",10049.81833,68.69,TRADE
NSW1,"2002/01/07 17:00",9957.45,47.67,TRADE
NSW1,"2002/01/07 17:30",9659.86333,39.45,TRADE
NSW1,"2002/01/07 18:00",9485.50833,31.77,TRADE
NSW1,"2002/01/07 18:30",9196.33167,27.63,TRADE
NSW1,"2002/01/07 19:00",8942.485,24.29,TRADE
NSW1,"2002/01/07 19:30",8791.865,22.9,TRADE
NSW1,"2002/01/07 20:00",8858.22833,22.87,TRADE
NSW1,"2002/01/07 20:30",8610.66333,22.46,TRADE
NSW1,"2002/01/07 21:00",8292.61833,19.86,TRADE
NSW1,"2002/01/07 21:30",8325.565,18.32,TRADE
NSW1,"2002/01/07 22:00",8109.22333,17.03,TRADE
NSW1,"2002/01/07 22:30",8100.005,32.75,TRADE
NSW1,"2002/01/07 23:00",7838.93667,29.15,TRADE
NSW1,"2002/01/07 23:30",7585.56833,28.93,TRADE
NSW1,"2002/01/08 00:00",7362.81833,28.35,TRADE
NSW1,"2002/01/08 00:30",7110.145,26.39,TRADE
NSW1,"2002/01/08 01:00",6830.65833,23.28,TRADE
NSW1,"2002/01/08 01:30",6499.47667,24.65,TRADE
NSW1,"2002/01/08 02:00",6162.7,21.06,TRADE
NSW1,"2002/01/08 02:30",5944.24,16.69,TRADE
NSW1,"2002/01/08 03:00",5831.09833,16,TRADE
NSW1,"2002/01/08 03:30",5784.19,15.99,TRADE
NSW1,"2002/01/08 04:00",5811.48,15.83,TRADE
NSW1,"2002/01/08 04:30",5964.40667,15.96,TRADE
NSW1,"2002/01/08 05:00",6144.52,16,TRADE
NSW1,"2002/01/08 05:30",6521.23833,18.25,TRADE
NSW1,"2002/01/08 06:00",7002.325,21.42,TRADE
NSW1,"2002/01/08 06:30",7317.17167,21.11,TRADE
NSW1,"2002/01/08 07:00",7793.47167,24.08,TRADE
NSW1,"2002/01/08 07:30",8175.00667,18.34,TRADE
NSW1,"2002/01/08 08:00",8414.38667,21.59,TRADE
NSW1,"2002/01/08 08:30",8694.08333,27.05,TRADE
NSW1,"2002/01/08 09:00",8824.18667,30.11,TRADE
NSW1,"2002/01/08 09:30",8932.79167,30.5,TRADE
NSW1,"2002/01/08 10:00",9023.03333,30.07,TRADE
NSW1,"2002/01/08 10:30",9097.695,28.37,TRADE
NSW1,"2002/01/08 11:00",9215.42833,31,TRADE
NSW1,"2002/01/08 11:30",9239.06667,30.42,TRADE
NSW1,"2002/01/08 12:00",9337.185,32.82,TRADE
NSW1,"2002/01/08 12:30",9401.33333,30.72,TRADE
NSW1,"2002/01/08 13:00",9457.74,36.01,TRADE
NSW1,"2002/01/08 13:30",9525.94333,41.31,TRADE
NSW1,"2002/01/08 14:00",9579.79667,41.78,TRADE
NSW1,"2002/01/08 14:30",9657.73167,42.11,TRADE
NSW1,"2002/01/08 15:00",9712.45167,43.9,TRADE
NSW1,"2002/01/08 15:30",9775.22167,42.08,TRADE
NSW1,"2002/01/08 16:00",9768.24333,44.05,TRADE
NSW1,"2002/01/08 16:30",9790.00167,44.36,TRADE
NSW1,"2002/01/08 17:00",9679.19833,41.92,TRADE
NSW1,"2002/01/08 17:30",9446.36333,34.3,TRADE
NSW1,"2002/01/08 18:00",9272.325,29.07,TRADE
NSW1,"2002/01/08 18:30",8960.03333,26.4,TRADE
NSW1,"2002/01/08 19:00",8687.19,27.89,TRADE
NSW1,"2002/01/08 19:30",8597.15167,27.79,TRADE
NSW1,"2002/01/08 20:00",8687.25333,28.17,TRADE
NSW1,"2002/01/08 20:30",8459.26,27.48,TRADE
NSW1,"2002/01/08 21:00",8160.49,24.1,TRADE
NSW1,"2002/01/08 21:30",8240.15,23.02,TRADE
NSW1,"2002/01/08 22:00",8087.44833,23.3,TRADE
NSW1,"2002/01/08 22:30",8056.4,36.58,TRADE
NSW1,"2002/01/08 23:00",7808.555,34.54,TRADE
NSW1,"2002/01/08 23:30",7599.59167,39.98,TRADE
NSW1,"2002/01/09 00:00",7386.85667,31.08,TRADE
NSW1,"2002/01/09 00:30",7178.11333,26.97,TRADE
NSW1,"2002/01/09 01:00",6896.32167,26.66,TRADE
NSW1,"2002/01/09 01:30",6537.80333,27.4,TRADE
NSW1,"2002/01/09 02:00",6233.685,27.23,TRADE
NSW1,"2002/01/09 02:30",6011.64833,23.73,TRADE
NSW1,"2002/01/09 03:00",5919.85,22.9,TRADE
NSW1,"2002/01/09 03:30",5823.02,18.03,TRADE
NSW1,"2002/01/09 04:00",5852.32167,17.07,TRADE
NSW1,"2002/01/09 04:30",6029.045,18.36,TRADE
NSW1,"2002/01/09 05:00",6229.365,22.38,TRADE
NSW1,"2002/01/09 05:30",6608.58,25.48,TRADE
NSW1,"2002/01/09 06:00",7067.96333,27.92,TRADE
NSW1,"2002/01/09 06:30",7357.90833,27.21,TRADE
NSW1,"2002/01/09 07:00",7809.495,34.24,TRADE
NSW1,"2002/01/09 07:30",8209.47833,22.6,TRADE
NSW1,"2002/01/09 08:00",8517.03667,27.58,TRADE
NSW1,"2002/01/09 08:30",8815.93167,28.78,TRADE
NSW1,"2002/01/09 09:00",8909.05333,27.35,TRADE
NSW1,"2002/01/09 09:30",9007.59833,27.44,TRADE
NSW1,"2002/01/09 10:00",9062.655,28.79,TRADE
NSW1,"2002/01/09 10:30",9088.875,28.96,TRADE
NSW1,"2002/01/09 11:00",9147.36333,30.94,TRADE
NSW1,"2002/01/09 11:30",9139.95,29.65,TRADE
NSW1,"2002/01/09 12:00",9163.48,30.25,TRADE
NSW1,"2002/01/09 12:30",9181.79,32.58,TRADE
NSW1,"2002/01/09 13:00",9183.21167,33.66,TRADE
NSW1,"2002/01/09 13:30",9185.28667,34.75,TRADE
NSW1,"2002/01/09 14:00",9174.98333,32.17,TRADE
NSW1,"2002/01/09 14:30",9164.75667,29.18,TRADE
NSW1,"2002/01/09 15:00",9148.97833,33.24,TRADE
NSW1,"2002/01/09 15:30",9143.41167,36.88,TRADE
NSW1,"2002/01/09 16:00",9104.69833,30.25,TRADE
NSW1,"2002/01/09 16:30",8927.985,26.06,TRADE
NSW1,"2002/01/09 17:00",8813.85833,26.55,TRADE
NSW1,"2002/01/09 17:30",8497.42667,23.16,TRADE
NSW1,"2002/01/09 18:00",8321.94167,22.85,TRADE
NSW1,"2002/01/09 18:30",8076.81833,18.65,TRADE
NSW1,"2002/01/09 19:00",7905.15167,17.54,TRADE
NSW1,"2002/01/09 19:30",7961.74833,17.83,TRADE
NSW1,"2002/01/09 20:00",8000.77833,20.31,TRADE
NSW1,"2002/01/09 20:30",7825.38,21.68,TRADE
NSW1,"2002/01/09 21:00",7653.10667,22.84,TRADE
NSW1,"2002/01/09 21:30",7802.49167,22.9,TRADE
NSW1,"2002/01/09 22:00",7715.49,19.55,TRADE
NSW1,"2002/01/09 22:30",7798.87667,29.06,TRADE
NSW1,"2002/01/09 23:00",7618.37167,23.4,TRADE
NSW1,"2002/01/09 23:30",7494.34833,26.96,TRADE
NSW1,"2002/01/10 00:00",7291.24833,26.36,TRADE
NSW1,"2002/01/10 00:30",7020.43667,23.32,TRADE
NSW1,"2002/01/10 01:00",6793.21833,22.89,TRADE
NSW1,"2002/01/10 01:30",6442.82667,21.57,TRADE
NSW1,"2002/01/10 02:00",6110.53333,17.19,TRADE
NSW1,"2002/01/10 02:30",5910.59,16.55,TRADE
NSW1,"2002/01/10 03:00",5786.54833,15.62,TRADE
NSW1,"2002/01/10 03:30",5691.99333,14.14,TRADE
NSW1,"2002/01/10 04:00",5758.86,14.35,TRADE
NSW1,"2002/01/10 04:30",5941.225,15.52,TRADE
NSW1,"2002/01/10 05:00",6155.775,16.09,TRADE
NSW1,"2002/01/10 05:30",6545.785,17.31,TRADE
NSW1,"2002/01/10 06:00",6963.04833,19.37,TRADE
NSW1,"2002/01/10 06:30",7286.02,22.37,TRADE
NSW1,"2002/01/10 07:00",7705.68833,23.71,TRADE
NSW1,"2002/01/10 07:30",8058.87,18.33,TRADE
NSW1,"2002/01/10 08:00",8310.17833,20.78,TRADE
NSW1,"2002/01/10 08:30",8541.52,25.08,TRADE
NSW1,"2002/01/10 09:00",8663.825,25.11,TRADE
NSW1,"2002/01/10 09:30",8763.99667,25.53,TRADE
NSW1,"2002/01/10 10:00",8837.68167,26.49,TRADE
NSW1,"2002/01/10 10:30",8876.455,27.83,TRADE
NSW1,"2002/01/10 11:00",8932.36667,32.29,TRADE
NSW1,"2002/01/10 11:30",8922.56667,26.04,TRADE
NSW1,"2002/01/10 12:00",8955.83667,30.72,TRADE
NSW1,"2002/01/10 12:30",9012.5,38.2,TRADE
NSW1,"2002/01/10 13:00",9058.81833,38.08,TRADE
NSW1,"2002/01/10 13:30",9105.685,37.63,TRADE
NSW1,"2002/01/10 14:00",9072.78167,37.88,TRADE
NSW1,"2002/01/10 14:30",9075.23,38.4,TRADE
NSW1,"2002/01/10 15:00",9114.91,38.02,TRADE
NSW1,"2002/01/10 15:30",9124.24667,38.09,TRADE
NSW1,"2002/01/10 16:00",9113.76833,38.25,TRADE
NSW1,"2002/01/10 16:30",8991.27,37.61,TRADE
NSW1,"2002/01/10 17:00",8923.96833,37.13,TRADE
NSW1,"2002/01/10 17:30",8778.78833,28.35,TRADE
NSW1,"2002/01/10 18:00",8613.74833,26.5,TRADE
NSW1,"2002/01/10 18:30",8316.93167,22.92,TRADE
NSW1,"2002/01/10 19:00",8125.37167,22.9,TRADE
NSW1,"2002/01/10 19:30",8108.00333,22.9,TRADE
NSW1,"2002/01/10 20:00",8241.31333,27.2,TRADE
NSW1,"2002/01/10 20:30",7990.40167,23,TRADE
NSW1,"2002/01/10 21:00",7756.31667,24.52,TRADE
NSW1,"2002/01/10 21:30",7913.21667,28.37,TRADE
NSW1,"2002/01/10 22:00",7831.53167,26.34,TRADE
NSW1,"2002/01/10 22:30",7876.97667,36.16,TRADE
NSW1,"2002/01/10 23:00",7690.31833,33.55,TRADE
NSW1,"2002/01/10 23:30",7549.39167,37.07,TRADE
NSW1,"2002/01/11 00:00",7383.19,30.45,TRADE
NSW1,"2002/01/11 00:30",7154.21,25.2,TRADE
NSW1,"2002/01/11 01:00",6846.32167,23.35,TRADE
NSW1,"2002/01/11 01:30",6538.68,24.51,TRADE
NSW1,"2002/01/11 02:00",6214.44167,24.42,TRADE
NSW1,"2002/01/11 02:30",5990.57167,23.87,TRADE
NSW1,"2002/01/11 03:00",5848.75667,19.78,TRADE
NSW1,"2002/01/11 03:30",5811.07333,17.74,TRADE
NSW1,"2002/01/11 04:00",5879.32333,17.75,TRADE
NSW1,"2002/01/11 04:30",6032.70167,18.16,TRADE
NSW1,"2002/01/11 05:00",6250.39667,20.68,TRADE
NSW1,"2002/01/11 05:30",6680.49667,25.71,TRADE
NSW1,"2002/01/11 06:00",7099.59833,25.54,TRADE
NSW1,"2002/01/11 06:30",7386.155,28.77,TRADE
NSW1,"2002/01/11 07:00",7773.42333,31.16,TRADE
NSW1,"2002/01/11 07:30",8156.22833,22.41,TRADE
NSW1,"2002/01/11 08:00",8418.675,25.44,TRADE
NSW1,"2002/01/11 08:30",8708.29,32.29,TRADE
NSW1,"2002/01/11 09:00",8850.11667,34.94,TRADE
NSW1,"2002/01/11 09:30",8960.53667,37.74,TRADE
NSW1,"2002/01/11 10:00",8996.84667,37.84,TRADE
NSW1,"2002/01/11 10:30",9041.315,38.01,TRADE
NSW1,"2002/01/11 11:00",9095.39667,41.06,TRADE
NSW1,"2002/01/11 11:30",9189.13333,46.12,TRADE
NSW1,"2002/01/11 12:00",9222.96167,47.51,TRADE
NSW1,"2002/01/11 12:30",9258.98,50.76,TRADE
NSW1,"2002/01/11 13:00",9253.80167,52.79,TRADE
NSW1,"2002/01/11 13:30",9284.88833,52.7,TRADE
NSW1,"2002/01/11 14:00",9292.30833,47.89,TRADE
NSW1,"2002/01/11 14:30",9312.06333,45.86,TRADE
NSW1,"2002/01/11 15:00",9321.95667,42.36,TRADE
NSW1,"2002/01/11 15:30",9368.64833,41.24,TRADE
NSW1,"2002/01/11 16:00",9313.395,38.85,TRADE
NSW1,"2002/01/11 16:30",9209.03,33.48,TRADE
NSW1,"2002/01/11 17:00",8985.89833,30.33,TRADE
NSW1,"2002/01/11 17:30",8701.93333,23.65,TRADE
NSW1,"2002/01/11 18:00",8543.47833,22.72,TRADE
NSW1,"2002/01/11 18:30",8282.14833,22.39,TRADE
NSW1,"2002/01/11 19:00",8084.35333,22.99,TRADE
NSW1,"2002/01/11 19:30",8036.64333,22.9,TRADE
NSW1,"2002/01/11 20:00",8153.32167,22.9,TRADE
NSW1,"2002/01/11 20:30",7989.37333,21.93,TRADE
NSW1,"2002/01/11 21:00",7767.95,20.96,TRADE
NSW1,"2002/01/11 21:30",7974.445,22.9,TRADE
NSW1,"2002/01/11 22:00",7866.88167,21.14,TRADE
NSW1,"2002/01/11 22:30",7952.29833,40.87,TRADE
NSW1,"2002/01/11 23:00",7745.115,36.25,TRADE
NSW1,"2002/01/11 23:30",7568.755,40.73,TRADE
NSW1,"2002/01/12 00:00",7385.87,36.87,TRADE
NSW1,"2002/01/12 00:30",7126.64167,32.69,TRADE
NSW1,"2002/01/12 01:00",6805.85,25.42,TRADE
NSW1,"2002/01/12 01:30",6527.65333,24.36,TRADE
NSW1,"2002/01/12 02:00",6199.75167,21.18,TRADE
NSW1,"2002/01/12 02:30",5927.59667,17.44,TRADE
NSW1,"2002/01/12 03:00",5806.97,16.4,TRADE
NSW1,"2002/01/12 03:30",5688.10667,16,TRADE
NSW1,"2002/01/12 04:00",5658.42833,16,TRADE
NSW1,"2002/01/12 04:30",5755.36,16.54,TRADE
NSW1,"2002/01/12 05:00",5821.31667,16.68,TRADE
NSW1,"2002/01/12 05:30",5964.26,16.55,TRADE
NSW1,"2002/01/12 06:00",6107.22167,17.85,TRADE
NSW1,"2002/01/12 06:30",6364.485,18.64,TRADE
NSW1,"2002/01/12 07:00",6769.965,19.49,TRADE
NSW1,"2002/01/12 07:30",7195.97667,21.07,TRADE
NSW1,"2002/01/12 08:00",7518.39833,24.57,TRADE
NSW1,"2002/01/12 08:30",7886.285,30.86,TRADE
NSW1,"2002/01/12 09:00",7993.34333,34.92,TRADE
NSW1,"2002/01/12 09:30",8179.62167,37.55,TRADE
NSW1,"2002/01/12 10:00",8156.71,35.72,TRADE
NSW1,"2002/01/12 10:30",8078.22,31.75,TRADE
NSW1,"2002/01/12 11:00",8023.265,28.38,TRADE
NSW1,"2002/01/12 11:30",7945.08167,27.46,TRADE
NSW1,"2002/01/12 12:00",7867.56167,26.94,TRADE
NSW1,"2002/01/12 12:30",7818.21,25.49,TRADE
NSW1,"2002/01/12 13:00",7695.60167,23.94,TRADE
NSW1,"2002/01/12 13:30",7685.5,24.35,TRADE
NSW1,"2002/01/12 14:00",7608.02333,21.52,TRADE
NSW1,"2002/01/12 14:30",7576.8,21.22,TRADE
NSW1,"2002/01/12 15:00",7556.725,21.13,TRADE
NSW1,"2002/01/12 15:30",7478.85667,21.01,TRADE
NSW1,"2002/01/12 16:00",7440.77167,21.98,TRADE
NSW1,"2002/01/12 16:30",7325.09,21.02,TRADE
NSW1,"2002/01/12 17:00",7339.565,21.79,TRADE
NSW1,"2002/01/12 17:30",7304.14167,23.75,TRADE
NSW1,"2002/01/12 18:00",7324.61833,21.2,TRADE
NSW1,"2002/01/12 18:30",7231.51667,20.54,TRADE
NSW1,"2002/01/12 19:00",7203.83,20.58,TRADE
NSW1,"2002/01/12 19:30",7222.025,20.1,TRADE
NSW1,"2002/01/12 20:00",7346.93167,23.1,TRADE
NSW1,"2002/01/12 20:30",7207.195,22.55,TRADE
NSW1,"2002/01/12 21:00",7144.91833,21.79,TRADE
NSW1,"2002/01/12 21:30",7206.425,22.3,TRADE
NSW1,"2002/01/12 22:00",7133.84667,20.85,TRADE
NSW1,"2002/01/12 22:30",7216.30667,22.61,TRADE
NSW1,"2002/01/12 23:00",7018.06667,21.39,TRADE
NSW1,"2002/01/12 23:30",6835.86667,22.9,TRADE
NSW1,"2002/01/13 00:00",6650.295,20.73,TRADE
NSW1,"2002/01/13 00:30",6449.755,18.97,TRADE
NSW1,"2002/01/13 01:00",6224.105,18.02,TRADE
NSW1,"2002/01/13 01:30",5933.62667,19.65,TRADE
NSW1,"2002/01/13 02:00",5704.80167,19.29,TRADE
NSW1,"2002/01/13 02:30",5553.66333,18.08,TRADE
NSW1,"2002/01/13 03:00",5489.04,17.01,TRADE
NSW1,"2002/01/13 03:30",5388.07333,16,TRADE
NSW1,"2002/01/13 04:00",5409.78833,16,TRADE
NSW1,"2002/01/13 04:30",5448.71667,15.97,TRADE
NSW1,"2002/01/13 05:00",5487.98333,15.83,TRADE
NSW1,"2002/01/13 05:30",5541.62167,15.97,TRADE
NSW1,"2002/01/13 06:00",5606.67833,16,TRADE
NSW1,"2002/01/13 06:30",5756.22333,15.36,TRADE
NSW1,"2002/01/13 07:00",6059.22833,16.87,TRADE
NSW1,"2002/01/13 07:30",6475.09667,16.42,TRADE
NSW1,"2002/01/13 08:00",6774.99167,16.83,TRADE
NSW1,"2002/01/13 08:30",7084.73667,19.36,TRADE
NSW1,"2002/01/13 09:00",7266.61667,20.44,TRADE
NSW1,"2002/01/13 09:30",7328.47333,21.22,TRADE
NSW1,"2002/01/13 10:00",7352.33167,22.13,TRADE
NSW1,"2002/01/13 10:30",7439.895,22.76,TRADE
NSW1,"2002/01/13 11:00",7402.25333,21.05,TRADE
NSW1,"2002/01/13 11:30",7455.12333,21.34,TRADE
NSW1,"2002/01/13 12:00",7364.59167,21.18,TRADE
NSW1,"2002/01/13 12:30",7371.475,21.19,TRADE
NSW1,"2002/01/13 13:00",7284.72833,20.64,TRADE
NSW1,"2002/01/13 13:30",7277.49833,20.94,TRADE
NSW1,"2002/01/13 14:00",7212.47167,20.82,TRADE
NSW1,"2002/01/13 14:30",7184.46,20.87,TRADE
NSW1,"2002/01/13 15:00",7216.35667,20.96,TRADE
NSW1,"2002/01/13 15:30",7193.25333,20.75,TRADE
NSW1,"2002/01/13 16:00",7217.39833,19.48,TRADE
NSW1,"2002/01/13 16:30",7096.67667,17.15,TRADE
NSW1,"2002/01/13 17:00",7148.03167,18.02,TRADE
NSW1,"2002/01/13 17:30",7150.69667,18.38,TRADE
NSW1,"2002/01/13 18:00",7157.00833,19.51,TRADE
NSW1,"2002/01/13 18:30",7073.58,18.92,TRADE
NSW1,"2002/01/13 19:00",7039.76667,19.06,TRADE
NSW1,"2002/01/13 19:30",7175.38667,21.09,TRADE
NSW1,"2002/01/13 20:00",7401.2,23.18,TRADE
NSW1,"2002/01/13 20:30",7301.93833,23.91,TRADE
NSW1,"2002/01/13 21:00",7178.61333,22.77,TRADE
NSW1,"2002/01/13 21:30",7234.13333,23.74,TRADE
NSW1,"2002/01/13 22:00",7149.635,21.73,TRADE
NSW1,"2002/01/13 22:30",7120.31167,21.56,TRADE
NSW1,"2002/01/13 23:00",6861.82333,20.38,TRADE
NSW1,"2002/01/13 23:30",6771.465,21.81,TRADE
NSW1,"2002/01/14 00:00",6606.83,20.69,TRADE
NSW1,"2002/01/14 00:30",6430.775,20.38,TRADE
NSW1,"2002/01/14 01:00",6243.46667,19.65,TRADE
NSW1,"2002/01/14 01:30",6017.57667,19.77,TRADE
NSW1,"2002/01/14 02:00",5815.65167,18.54,TRADE
NSW1,"2002/01/14 02:30",5660.69333,17.63,TRADE
NSW1,"2002/01/14 03:00",5668.94167,16,TRADE
NSW1,"2002/01/14 03:30",5648.17,15.97,TRADE
NSW1,"2002/01/14 04:00",5758.16667,16,TRADE
NSW1,"2002/01/14 04:30",5961.58833,16,TRADE
NSW1,"2002/01/14 05:00",6248.48333,16.9,TRADE
NSW1,"2002/01/14 05:30",6660.83,19.09,TRADE
NSW1,"2002/01/14 06:00",7105.125,21.88,TRADE
NSW1,"2002/01/14 06:30",7426.55,25.28,TRADE
NSW1,"2002/01/14 07:00",7819.53667,25,TRADE
NSW1,"2002/01/14 07:30",8176.30833,20.21,TRADE
NSW1,"2002/01/14 08:00",8457.26333,22.91,TRADE
NSW1,"2002/01/14 08:30",8714.96667,26.48,TRADE
NSW1,"2002/01/14 09:00",8844.87667,25.64,TRADE
NSW1,"2002/01/14 09:30",8977.51,25.75,TRADE
NSW1,"2002/01/14 10:00",8986.11,23.89,TRADE
NSW1,"2002/01/14 10:30",9031.40667,24.33,TRADE
NSW1,"2002/01/14 11:00",8997.11167,24.25,TRADE
NSW1,"2002/01/14 11:30",9012.23667,24.3,TRADE
NSW1,"2002/01/14 12:00",9002.395,30.54,TRADE
NSW1,"2002/01/14 12:30",9006.945,30.26,TRADE
NSW1,"2002/01/14 13:00",8998.08833,33.56,TRADE
NSW1,"2002/01/14 13:30",9020.42833,31.95,TRADE
NSW1,"2002/01/14 14:00",8973.11667,29.33,TRADE
NSW1,"2002/01/14 14:30",8991.93833,30.31,TRADE
NSW1,"2002/01/14 15:00",8978.18167,31.12,TRADE
NSW1,"2002/01/14 15:30",8990.79833,32.42,TRADE
NSW1,"2002/01/14 16:00",9007.85333,33.8,TRADE
NSW1,"2002/01/14 16:30",8889.62,23.87,TRADE
NSW1,"2002/01/14 17:00",8848.41,23.22,TRADE
NSW1,"2002/01/14 17:30",8561.08333,21.3,TRADE
NSW1,"2002/01/14 18:00",8392.905,19.01,TRADE
NSW1,"2002/01/14 18:30",8124.87667,16.72,TRADE
NSW1,"2002/01/14 19:00",7950.32667,17.53,TRADE
NSW1,"2002/01/14 19:30",7791.94667,16.5,TRADE
NSW1,"2002/01/14 20:00",7999.76,20.2,TRADE
NSW1,"2002/01/14 20:30",8022.14333,21.38,TRADE
NSW1,"2002/01/14 21:00",7756.285,19.5,TRADE
NSW1,"2002/01/14 21:30",7964.82667,20.94,TRADE
NSW1,"2002/01/14 22:00",7857.6,18.81,TRADE
NSW1,"2002/01/14 22:30",7900.03833,31.95,TRADE
NSW1,"2002/01/14 23:00",7747.99833,33.79,TRADE
NSW1,"2002/01/14 23:30",7621.42167,37.44,TRADE
NSW1,"2002/01/15 00:00",7440.305,33.07,TRADE
NSW1,"2002/01/15 00:30",7225.155,24.55,TRADE
NSW1,"2002/01/15 01:00",6998.2,22.71,TRADE
NSW1,"2002/01/15 01:30",6619.86333,21.35,TRADE
NSW1,"2002/01/15 02:00",6307.87333,21.21,TRADE
NSW1,"2002/01/15 02:30",6091.54167,17.86,TRADE
NSW1,"2002/01/15 03:00",5980.08167,17.04,TRADE
NSW1,"2002/01/15 03:30",5942.84333,16.35,TRADE
NSW1,"2002/01/15 04:00",5967.36,16.5,TRADE
NSW1,"2002/01/15 04:30",6164.64167,16.94,TRADE
NSW1,"2002/01/15 05:00",6390.21833,18.93,TRADE
NSW1,"2002/01/15 05:30",6868.785,25.17,TRADE
NSW1,"2002/01/15 06:00",7275.01667,26.03,TRADE
NSW1,"2002/01/15 06:30",7587.72167,29.44,TRADE
NSW1,"2002/01/15 07:00",7942.46333,30.36,TRADE
NSW1,"2002/01/15 07:30",8282.55833,20.56,TRADE
NSW1,"2002/01/15 08:00",8537.41667,22.15,TRADE
NSW1,"2002/01/15 08:30",8867.42833,24.08,TRADE
NSW1,"2002/01/15 09:00",8993.57167,23.65,TRADE
NSW1,"2002/01/15 09:30",9055.29833,24.16,TRADE
NSW1,"2002/01/15 10:00",9046.27167,24.14,TRADE
NSW1,"2002/01/15 10:30",9081.88,24.58,TRADE
NSW1,"2002/01/15 11:00",9096.11667,24.57,TRADE
NSW1,"2002/01/15 11:30",9033.68167,27.13,TRADE
NSW1,"2002/01/15 12:00",8960.07333,35.28,TRADE
NSW1,"2002/01/15 12:30",8970.525,37,TRADE
NSW1,"2002/01/15 13:00",9003.26167,35.46,TRADE
NSW1,"2002/01/15 13:30",8981.27833,36.65,TRADE
NSW1,"2002/01/15 14:00",8905.15,31.64,TRADE
NSW1,"2002/01/15 14:30",8950.86833,32.39,TRADE
NSW1,"2002/01/15 15:00",8954.49333,31.1,TRADE
NSW1,"2002/01/15 15:30",8929.625,28.75,TRADE
NSW1,"2002/01/15 16:00",8965.00667,32.17,TRADE
NSW1,"2002/01/15 16:30",8847.075,27.52,TRADE
NSW1,"2002/01/15 17:00",8744.87,22.19,TRADE
NSW1,"2002/01/15 17:30",8582.76167,21.24,TRADE
NSW1,"2002/01/15 18:00",8463.60333,22.1,TRADE
NSW1,"2002/01/15 18:30",8225.93333,19.67,TRADE
NSW1,"2002/01/15 19:00",8133.02,22.07,TRADE
NSW1,"2002/01/15 19:30",8205.73833,22.06,TRADE
NSW1,"2002/01/15 20:00",8166.73833,21.35,TRADE
NSW1,"2002/01/15 20:30",7984.34667,19.61,TRADE
NSW1,"2002/01/15 21:00",7734.55667,20.81,TRADE
NSW1,"2002/01/15 21:30",7839.845,21.49,TRADE
NSW1,"2002/01/15 22:00",7728.05667,20.53,TRADE
NSW1,"2002/01/15 22:30",7780.53167,30.2,TRADE
NSW1,"2002/01/15 23:00",7632.82667,30.64,TRADE
NSW1,"2002/01/15 23:30",7519.36833,36.66,TRADE
NSW1,"2002/01/16 00:00",7316.22333,34.54,TRADE
NSW1,"2002/01/16 00:30",7122.79667,24.94,TRADE
NSW1,"2002/01/16 01:00",6899.76,22.9,TRADE
NSW1,"2002/01/16 01:30",6532.04167,24.92,TRADE
NSW1,"2002/01/16 02:00",6218.64833,22.37,TRADE
NSW1,"2002/01/16 02:30",5994.10667,20.25,TRADE
NSW1,"2002/01/16 03:00",5904.17,18.49,TRADE
NSW1,"2002/01/16 03:30",5833.54333,17.35,TRADE
NSW1,"2002/01/16 04:00",5938.59667,17.59,TRADE
NSW1,"2002/01/16 04:30",6062.45667,17.61,TRADE
NSW1,"2002/01/16 05:00",6321.71833,18.77,TRADE
NSW1,"2002/01/16 05:30",6774.69,25.49,TRADE
NSW1,"2002/01/16 06:00",7212.72833,26.91,TRADE
NSW1,"2002/01/16 06:30",7469.81167,30.87,TRADE
NSW1,"2002/01/16 07:00",7818.17,33.68,TRADE
NSW1,"2002/01/16 07:30",8201.36333,20.28,TRADE
NSW1,"2002/01/16 08:00",8367.04833,22.53,TRADE
NSW1,"2002/01/16 08:30",8622.405,26.49,TRADE
NSW1,"2002/01/16 09:00",8734.51,26.75,TRADE
NSW1,"2002/01/16 09:30",8822.775,30.72,TRADE
NSW1,"2002/01/16 10:00",8890.05,28.35,TRADE
NSW1,"2002/01/16 10:30",8831.11,26.9,TRADE
NSW1,"2002/01/16 11:00",8841.02167,23.84,TRADE
NSW1,"2002/01/16 11:30",8801.52333,20.07,TRADE
NSW1,"2002/01/16 12:00",8733.155,30.61,TRADE
NSW1,"2002/01/16 12:30",8700.71667,31.96,TRADE
NSW1,"2002/01/16 13:00",8720.135,33.11,TRADE
NSW1,"2002/01/16 13:30",8686.215,33.01,TRADE
NSW1,"2002/01/16 14:00",8618.09833,28.13,TRADE
NSW1,"2002/01/16 14:30",8585.59667,27.84,TRADE
NSW1,"2002/01/16 15:00",8530.77,27.6,TRADE
NSW1,"2002/01/16 15:30",8547.50833,25.85,TRADE
NSW1,"2002/01/16 16:00",8543.57333,27.98,TRADE
NSW1,"2002/01/16 16:30",8490.24333,19.67,TRADE
NSW1,"2002/01/16 17:00",8402.505,20.09,TRADE
NSW1,"2002/01/16 17:30",8232.425,19.71,TRADE
NSW1,"2002/01/16 18:00",8128.11167,20.27,TRADE
NSW1,"2002/01/16 18:30",7906.30833,17.66,TRADE
NSW1,"2002/01/16 19:00",7731.6,18.91,TRADE
NSW1,"2002/01/16 19:30",7780.02833,17.71,TRADE
NSW1,"2002/01/16 20:00",7894.74667,18.8,TRADE
NSW1,"2002/01/16 20:30",7726.67333,18.25,TRADE
NSW1,"2002/01/16 21:00",7539.94833,19.57,TRADE
NSW1,"2002/01/16 21:30",7708.19833,20.12,TRADE
NSW1,"2002/01/16 22:00",7681.695,18.68,TRADE
NSW1,"2002/01/16 22:30",7709.75167,29.97,TRADE
NSW1,"2002/01/16 23:00",7579.15167,25.46,TRADE
NSW1,"2002/01/16 23:30",7447.69833,32.82,TRADE
NSW1,"2002/01/17 00:00",7312.36333,25.64,TRADE
NSW1,"2002/01/17 00:30",7171.91833,23.09,TRADE
NSW1,"2002/01/17 01:00",6897.525,20.35,TRADE
NSW1,"2002/01/17 01:30",6567.06,20.04,TRADE
NSW1,"2002/01/17 02:00",6256.67833,19.57,TRADE
NSW1,"2002/01/17 02:30",5987.38167,17.83,TRADE
NSW1,"2002/01/17 03:00",5873.27833,16.88,TRADE
NSW1,"2002/01/17 03:30",5819.95833,16.42,TRADE
NSW1,"2002/01/17 04:00",5865.355,16.42,TRADE
NSW1,"2002/01/17 04:30",6055.51167,16.79,TRADE
NSW1,"2002/01/17 05:00",6250.15667,17.31,TRADE
NSW1,"2002/01/17 05:30",6737.85333,22.19,TRADE
NSW1,"2002/01/17 06:00",7155.79,24.62,TRADE
NSW1,"2002/01/17 06:30",7401.04167,26.47,TRADE
NSW1,"2002/01/17 07:00",7883.79333,29.46,TRADE
NSW1,"2002/01/17 07:30",8133.81833,19.47,TRADE
NSW1,"2002/01/17 08:00",8390.33,22.13,TRADE
NSW1,"2002/01/17 08:30",8645.27,22.7,TRADE
NSW1,"2002/01/17 09:00",8792.18667,22.64,TRADE
NSW1,"2002/01/17 09:30",8780.84,22.24,TRADE
NSW1,"2002/01/17 10:00",8885.82,22.61,TRADE
NSW1,"2002/01/17 10:30",8838.15667,21.78,TRADE
NSW1,"2002/01/17 11:00",8906.34,22.84,TRADE
NSW1,"2002/01/17 11:30",8867.185,21.62,TRADE
NSW1,"2002/01/17 12:00",8884.17,25.64,TRADE
NSW1,"2002/01/17 12:30",8894.03333,25.27,TRADE
NSW1,"2002/01/17 13:00",8879.575,26.49,TRADE
NSW1,"2002/01/17 13:30",8880.54,24.39,TRADE
NSW1,"2002/01/17 14:00",8871.88333,24.53,TRADE
NSW1,"2002/01/17 14:30",8863.33,23.88,TRADE
NSW1,"2002/01/17 15:00",8858.37167,23.64,TRADE
NSW1,"2002/01/17 15:30",8871.74333,23.42,TRADE
NSW1,"2002/01/17 16:00",8857.66833,22.61,TRADE
NSW1,"2002/01/17 16:30",8721.29167,19.68,TRADE
NSW1,"2002/01/17 17:00",8714.10167,19.93,TRADE
NSW1,"2002/01/17 17:30",8492.98167,18.48,TRADE
NSW1,"2002/01/17 18:00",8379.48667,18.33,TRADE
NSW1,"2002/01/17 18:30",8139.84333,17.32,TRADE
NSW1,"2002/01/17 19:00",7977.73,18.6,TRADE
NSW1,"2002/01/17 19:30",8044.31,18,TRADE
NSW1,"2002/01/17 20:00",8215.665,18.88,TRADE
NSW1,"2002/01/17 20:30",8033.04833,17.83,TRADE
NSW1,"2002/01/17 21:00",7783.47167,18.38,TRADE
NSW1,"2002/01/17 21:30",7919.17333,18.5,TRADE
NSW1,"2002/01/17 22:00",7817.32667,17.35,TRADE
NSW1,"2002/01/17 22:30",7871.215,27.56,TRADE
NSW1,"2002/01/17 23:00",7686.38833,24.08,TRADE
NSW1,"2002/01/17 23:30",7596.64333,26.81,TRADE
NSW1,"2002/01/18 00:00",7425.40167,24.85,TRADE
NSW1,"2002/01/18 00:30",7203.09167,21.27,TRADE
NSW1,"2002/01/18 01:00",6953.36667,20.12,TRADE
NSW1,"2002/01/18 01:30",6600.78167,20.36,TRADE
NSW1,"2002/01/18 02:00",6280.60833,18.29,TRADE
NSW1,"2002/01/18 02:30",6052.46,16.25,TRADE
NSW1,"2002/01/18 03:00",5919.93833,14.75,TRADE
NSW1,"2002/01/18 03:30",5854.045,14.16,TRADE
NSW1,"2002/01/18 04:00",5903.145,13.93,TRADE
NSW1,"2002/01/18 04:30",6142.56667,15.23,TRADE
NSW1,"2002/01/18 05:00",6388.91167,15.95,TRADE
NSW1,"2002/01/18 05:30",6788.62333,18.86,TRADE
NSW1,"2002/01/18 06:00",7198.41167,19.1,TRADE
NSW1,"2002/01/18 06:30",7512.59333,22.67,TRADE
NSW1,"2002/01/18 07:00",7937.76333,21.41,TRADE
NSW1,"2002/01/18 07:30",8335.25833,19.49,TRADE
NSW1,"2002/01/18 08:00",8570.06333,20.5,TRADE
NSW1,"2002/01/18 08:30",8813.46,22.66,TRADE
NSW1,"2002/01/18 09:00",8940.70333,22.82,TRADE
NSW1,"2002/01/18 09:30",9005.31333,23.19,TRADE
NSW1,"2002/01/18 10:00",9035.14167,23.36,TRADE
NSW1,"2002/01/18 10:30",9030.35167,23.25,TRADE
NSW1,"2002/01/18 11:00",9119.16833,23.66,TRADE
NSW1,"2002/01/18 11:30",9090.66,23.46,TRADE
NSW1,"2002/01/18 12:00",9045.35833,30.77,TRADE
NSW1,"2002/01/18 12:30",9001.69167,27.12,TRADE
NSW1,"2002/01/18 13:00",8993.9,28.52,TRADE
NSW1,"2002/01/18 13:30",8997.71667,29.11,TRADE
NSW1,"2002/01/18 14:00",8959.69167,29.65,TRADE
NSW1,"2002/01/18 14:30",8966.72833,26.88,TRADE
NSW1,"2002/01/18 15:00",8983.70667,26.35,TRADE
NSW1,"2002/01/18 15:30",8901.845,25.1,TRADE
NSW1,"2002/01/18 16:00",8955.06833,31.13,TRADE
NSW1,"2002/01/18 16:30",8850.02167,22.72,TRADE
NSW1,"2002/01/18 17:00",8692.96833,21.93,TRADE
NSW1,"2002/01/18 17:30",8372.52667,19.21,TRADE
NSW1,"2002/01/18 18:00",8227.455,18.78,TRADE
NSW1,"2002/01/18 18:30",7998.07833,17.75,TRADE
NSW1,"2002/01/18 19:00",7850.53167,17.48,TRADE
NSW1,"2002/01/18 19:30",7884.23333,17.31,TRADE
NSW1,"2002/01/18 20:00",8028.87833,18.72,TRADE
NSW1,"2002/01/18 20:30",7873.93667,18.36,TRADE
NSW1,"2002/01/18 21:00",7667.65333,17.63,TRADE
NSW1,"2002/01/18 21:30",7898.59833,17.97,TRADE
NSW1,"2002/01/18 22:00",7826.32,17.3,TRADE
NSW1,"2002/01/18 22:30",7974.59167,27.58,TRADE
NSW1,"2002/01/18 23:00",7781.23,25.59,TRADE
NSW1,"2002/01/18 23:30",7562.93167,28.52,TRADE
NSW1,"2002/01/19 00:00",7387.88167,25.22,TRADE
NSW1,"2002/01/19 00:30",7207.16,21.88,TRADE
NSW1,"2002/01/19 01:00",6873.04667,18.84,TRADE
NSW1,"2002/01/19 01:30",6567.65833,18.67,TRADE
NSW1,"2002/01/19 02:00",6245.43833,17.59,TRADE
NSW1,"2002/01/19 02:30",5963.36167,15.77,TRADE
NSW1,"2002/01/19 03:00",5832.29,15.34,TRADE
NSW1,"2002/01/19 03:30",5746.17333,15.17,TRADE
NSW1,"2002/01/19 04:00",5774.46333,14.95,TRADE
NSW1,"2002/01/19 04:30",5833.46167,14.71,TRADE
NSW1,"2002/01/19 05:00",5885.30833,14.38,TRADE
NSW1,"2002/01/19 05:30",6002.39667,17.18,TRADE
NSW1,"2002/01/19 06:00",6191.655,18.32,TRADE
NSW1,"2002/01/19 06:30",6416.305,18.36,TRADE
NSW1,"2002/01/19 07:00",6830.125,22.37,TRADE
NSW1,"2002/01/19 07:30",7226.76833,26.41,TRADE
NSW1,"2002/01/19 08:00",7557.11,32.54,TRADE
NSW1,"2002/01/19 08:30",7928.24,49.86,TRADE
NSW1,"2002/01/19 09:00",8023.30833,63.01,TRADE
NSW1,"2002/01/19 09:30",8127.435,76.12,TRADE
NSW1,"2002/01/19 10:00",8081.27833,61.38,TRADE
NSW1,"2002/01/19 10:30",8078.62833,58.96,TRADE
NSW1,"2002/01/19 11:00",8091.14833,68.76,TRADE
NSW1,"2002/01/19 11:30",8112.85,71.08,TRADE
NSW1,"2002/01/19 12:00",8099.66,69.37,TRADE
NSW1,"2002/01/19 12:30",8068.41333,67.41,TRADE
NSW1,"2002/01/19 13:00",8066.29833,69.6,TRADE
NSW1,"2002/01/19 13:30",8047.68333,60.51,TRADE
NSW1,"2002/01/19 14:00",8055.88333,52.62,TRADE
NSW1,"2002/01/19 14:30",8078.46667,51.14,TRADE
NSW1,"2002/01/19 15:00",8128.975,49.71,TRADE
NSW1,"2002/01/19 15:30",8092.17333,50.89,TRADE
NSW1,"2002/01/19 16:00",8093.725,51.52,TRADE
NSW1,"2002/01/19 16:30",7868.42167,45.82,TRADE
NSW1,"2002/01/19 17:00",7830.295,43.68,TRADE
NSW1,"2002/01/19 17:30",7768.05,42.97,TRADE
NSW1,"2002/01/19 18:00",7689.63167,34.12,TRADE
NSW1,"2002/01/19 18:30",7596.66333,28.22,TRADE
NSW1,"2002/01/19 19:00",7495.83833,26.13,TRADE
NSW1,"2002/01/19 19:30",7565.08167,29.2,TRADE
NSW1,"2002/01/19 20:00",7682.53833,33.17,TRADE
NSW1,"2002/01/19 20:30",7608.425,46.29,TRADE
NSW1,"2002/01/19 21:00",7456.595,37.24,TRADE
NSW1,"2002/01/19 21:30",7488.475,34.66,TRADE
NSW1,"2002/01/19 22:00",7484.24667,25.01,TRADE
NSW1,"2002/01/19 22:30",7471.79333,26.53,TRADE
NSW1,"2002/01/19 23:00",7212.90167,25.1,TRADE
NSW1,"2002/01/19 23:30",6993.95333,28.83,TRADE
NSW1,"2002/01/20 00:00",6785.94333,23.63,TRADE
NSW1,"2002/01/20 00:30",6559.98333,22.03,TRADE
NSW1,"2002/01/20 01:00",6303.84667,19.6,TRADE
NSW1,"2002/01/20 01:30",6040.11333,20.29,TRADE
NSW1,"2002/01/20 02:00",5767.69167,16.71,TRADE
NSW1,"2002/01/20 02:30",5618.25,15.18,TRADE
NSW1,"2002/01/20 03:00",5518.00333,14.53,TRADE
NSW1,"2002/01/20 03:30",5476.815,14.16,TRADE
NSW1,"2002/01/20 04:00",5531.66667,13.85,TRADE
NSW1,"2002/01/20 04:30",5562.67833,13.87,TRADE
NSW1,"2002/01/20 05:00",5619.215,14.19,TRADE
NSW1,"2002/01/20 05:30",5649.36,14.28,TRADE
NSW1,"2002/01/20 06:00",5746.72333,14.18,TRADE
NSW1,"2002/01/20 06:30",5937.95667,15.5,TRADE
NSW1,"2002/01/20 07:00",6259.58667,15.71,TRADE
NSW1,"2002/01/20 07:30",6639.84833,16.72,TRADE
NSW1,"2002/01/20 08:00",7017.50667,19.74,TRADE
NSW1,"2002/01/20 08:30",7347.61167,20.87,TRADE
NSW1,"2002/01/20 09:00",7515.74667,23.13,TRADE
NSW1,"2002/01/20 09:30",7700.095,30.45,TRADE
NSW1,"2002/01/20 10:00",7762.895,39.57,TRADE
NSW1,"2002/01/20 10:30",7837.75333,38,TRADE
NSW1,"2002/01/20 11:00",7867.805,37.92,TRADE
NSW1,"2002/01/20 11:30",7987.74667,47.76,TRADE
NSW1,"2002/01/20 12:00",8012.28667,46.48,TRADE
NSW1,"2002/01/20 12:30",8068.94833,52.45,TRADE
NSW1,"2002/01/20 13:00",8075.20167,52.65,TRADE
NSW1,"2002/01/20 13:30",8104.64,52.71,TRADE
NSW1,"2002/01/20 14:00",8180.52667,49.71,TRADE
NSW1,"2002/01/20 14:30",8263.73833,45.55,TRADE
NSW1,"2002/01/20 15:00",8304.20167,45.23,TRADE
NSW1,"2002/01/20 15:30",8382.235,41.22,TRADE
NSW1,"2002/01/20 16:00",8418.73167,38.95,TRADE
NSW1,"2002/01/20 16:30",8363.10167,37.73,TRADE
NSW1,"2002/01/20 17:00",8383.58167,37.5,TRADE
NSW1,"2002/01/20 17:30",8394.58167,35.43,TRADE
NSW1,"2002/01/20 18:00",8304.87,30.9,TRADE
NSW1,"2002/01/20 18:30",8213.32167,29.52,TRADE
NSW1,"2002/01/20 19:00",8072.84833,26.45,TRADE
NSW1,"2002/01/20 19:30",8151.685,33.24,TRADE
NSW1,"2002/01/20 20:00",8361.915,37.15,TRADE
NSW1,"2002/01/20 20:30",8181.52333,34,TRADE
NSW1,"2002/01/20 21:00",7983.87833,30.32,TRADE
NSW1,"2002/01/20 21:30",7940.98333,30.2,TRADE
NSW1,"2002/01/20 22:00",7815.41667,24.48,TRADE
NSW1,"2002/01/20 22:30",7722.99667,23.22,TRADE
NSW1,"2002/01/20 23:00",7382.68167,21.91,TRADE
NSW1,"2002/01/20 23:30",7115.47667,23.13,TRADE
NSW1,"2002/01/21 00:00",6984.74333,21.62,TRADE
NSW1,"2002/01/21 00:30",6739.92333,18.96,TRADE
NSW1,"2002/01/21 01:00",6563.31,17.9,TRADE
NSW1,"2002/01/21 01:30",6409.35667,18.38,TRADE
NSW1,"2002/01/21 02:00",6123.02833,16,TRADE
NSW1,"2002/01/21 02:30",5938.93,13.96,TRADE
NSW1,"2002/01/21 03:00",5914.595,14.18,TRADE
NSW1,"2002/01/21 03:30",5882.37667,13.34,TRADE
NSW1,"2002/01/21 04:00",5940.77833,13.71,TRADE
NSW1,"2002/01/21 04:30",6199.07167,15.67,TRADE
NSW1,"2002/01/21 05:00",6516.90167,16.99,TRADE
NSW1,"2002/01/21 05:30",6951.54,20.82,TRADE
NSW1,"2002/01/21 06:00",7434.91333,21.54,TRADE
NSW1,"2002/01/21 06:30",7790.49833,21.44,TRADE
NSW1,"2002/01/21 07:00",8329.55333,22.7,TRADE
NSW1,"2002/01/21 07:30",8766.595,19.98,TRADE
NSW1,"2002/01/21 08:00",9091.45,27.09,TRADE
NSW1,"2002/01/21 08:30",9537.735,38.02,TRADE
NSW1,"2002/01/21 09:00",9714.97667,38.88,TRADE
NSW1,"2002/01/21 09:30",9987.11667,39,TRADE
NSW1,"2002/01/21 10:00",10120.97333,39.32,TRADE
NSW1,"2002/01/21 10:30",10283.42,39.38,TRADE
NSW1,"2002/01/21 11:00",10409.645,39.65,TRADE
NSW1,"2002/01/21 11:30",10560.6,39.97,TRADE
NSW1,"2002/01/21 12:00",10620.19833,40.49,TRADE
NSW1,"2002/01/21 12:30",10774.66667,42.94,TRADE
NSW1,"2002/01/21 13:00",10822.75333,41.15,TRADE
NSW1,"2002/01/21 13:30",10916.345,47.89,TRADE
NSW1,"2002/01/21 14:00",10917.60667,44.43,TRADE
NSW1,"2002/01/21 14:30",10969.07667,48.36,TRADE
NSW1,"2002/01/21 15:00",10981.605,44.34,TRADE
NSW1,"2002/01/21 15:30",10930.585,41.42,TRADE
NSW1,"2002/01/21 16:00",10881.00667,41.22,TRADE
NSW1,"2002/01/21 16:30",10723.39167,40.63,TRADE
NSW1,"2002/01/21 17:00",10598.38,40.17,TRADE
NSW1,"2002/01/21 17:30",10191.465,31.07,TRADE
NSW1,"2002/01/21 18:00",9896.77333,30.21,TRADE
NSW1,"2002/01/21 18:30",9643.23667,24.56,TRADE
NSW1,"2002/01/21 19:00",9239.64167,22.9,TRADE
NSW1,"2002/01/21 19:30",9345.77833,27.65,TRADE
NSW1,"2002/01/21 20:00",9397.10833,25.61,TRADE
NSW1,"2002/01/21 20:30",9103.995,21.86,TRADE
NSW1,"2002/01/21 21:00",8772.71667,18.6,TRADE
NSW1,"2002/01/21 21:30",8756.88333,19.03,TRADE
NSW1,"2002/01/21 22:00",8590.93167,17.48,TRADE
NSW1,"2002/01/21 22:30",8560.24667,22.46,TRADE
NSW1,"2002/01/21 23:00",8301.47,23.56,TRADE
NSW1,"2002/01/21 23:30",8077.175,22.84,TRADE
NSW1,"2002/01/22 00:00",7822.14667,19.55,TRADE
NSW1,"2002/01/22 00:30",7561.44667,20.48,TRADE
NSW1,"2002/01/22 01:00",7252.58167,19.08,TRADE
NSW1,"2002/01/22 01:30",6885.14,19.36,TRADE
NSW1,"2002/01/22 02:00",6549.14333,18.47,TRADE
NSW1,"2002/01/22 02:30",6352.195,16.65,TRADE
NSW1,"2002/01/22 03:00",6228.26,15.38,TRADE
NSW1,"2002/01/22 03:30",6215.21333,14.08,TRADE
NSW1,"2002/01/22 04:00",6273.29,15.22,TRADE
NSW1,"2002/01/22 04:30",6447.30667,16.01,TRADE
NSW1,"2002/01/22 05:00",6754.64333,17.22,TRADE
NSW1,"2002/01/22 05:30",7293.40167,19.71,TRADE
NSW1,"2002/01/22 06:00",7727.14,22.94,TRADE
NSW1,"2002/01/22 06:30",8139.28833,22.07,TRADE
NSW1,"2002/01/22 07:00",8656.46167,22.97,TRADE
NSW1,"2002/01/22 07:30",9012.52333,20.28,TRADE
NSW1,"2002/01/22 08:00",9282.865,24.69,TRADE
NSW1,"2002/01/22 08:30",9650.90167,27.94,TRADE
NSW1,"2002/01/22 09:00",9849.84667,28.7,TRADE
NSW1,"2002/01/22 09:30",10072.72333,27.52,TRADE
NSW1,"2002/01/22 10:00",10166.20833,28.35,TRADE
NSW1,"2002/01/22 10:30",10305.43167,28.84,TRADE
NSW1,"2002/01/22 11:00",10465.815,34.07,TRADE
NSW1,"2002/01/22 11:30",10522.67,36.96,TRADE
NSW1,"2002/01/22 12:00",10581.995,39.22,TRADE
NSW1,"2002/01/22 12:30",10669.44333,40.85,TRADE
NSW1,"2002/01/22 13:00",10726.95667,41.04,TRADE
NSW1,"2002/01/22 13:30",10682.89167,41.06,TRADE
NSW1,"2002/01/22 14:00",10656.27833,40.89,TRADE
NSW1,"2002/01/22 14:30",10678.845,41.13,TRADE
NSW1,"2002/01/22 15:00",10659.94,46.44,TRADE
NSW1,"2002/01/22 15:30",10578.96667,44.63,TRADE
NSW1,"2002/01/22 16:00",10540.655,46.18,TRADE
NSW1,"2002/01/22 16:30",10423.53,41.64,TRADE
NSW1,"2002/01/22 17:00",10292.735,32.87,TRADE
NSW1,"2002/01/22 17:30",10026.51167,30.21,TRADE
NSW1,"2002/01/22 18:00",9821.88833,30.37,TRADE
NSW1,"2002/01/22 18:30",9519.41333,27.1,TRADE
NSW1,"2002/01/22 19:00",9360.13333,27.96,TRADE
NSW1,"2002/01/22 19:30",9337.74333,29.43,TRADE
NSW1,"2002/01/22 20:00",9308.10667,30.22,TRADE
NSW1,"2002/01/22 20:30",9153.74667,25.54,TRADE
NSW1,"2002/01/22 21:00",8835.7,22.64,TRADE
NSW1,"2002/01/22 21:30",8821.03667,23.84,TRADE
NSW1,"2002/01/22 22:00",8618.56333,20.05,TRADE
NSW1,"2002/01/22 22:30",8532.20833,29.11,TRADE
NSW1,"2002/01/22 23:00",8276.36833,29.58,TRADE
NSW1,"2002/01/22 23:30",8006.535,34.94,TRADE
NSW1,"2002/01/23 00:00",7775.38833,28.73,TRADE
NSW1,"2002/01/23 00:30",7529.54833,24.92,TRADE
NSW1,"2002/01/23 01:00",7233.29,23.35,TRADE
NSW1,"2002/01/23 01:30",6932.1,24.79,TRADE
NSW1,"2002/01/23 02:00",6603.93667,23.19,TRADE
NSW1,"2002/01/23 02:30",6378.22833,21.88,TRADE
NSW1,"2002/01/23 03:00",6277.69167,17.7,TRADE
NSW1,"2002/01/23 03:30",6244.41167,16.52,TRADE
NSW1,"2002/01/23 04:00",6258.19333,16,TRADE
NSW1,"2002/01/23 04:30",6427.125,17.98,TRADE
NSW1,"2002/01/23 05:00",6648.31333,20.6,TRADE
NSW1,"2002/01/23 05:30",7119.75333,23.5,TRADE
NSW1,"2002/01/23 06:00",7586.64333,25.36,TRADE
NSW1,"2002/01/23 06:30",7929.58167,24.18,TRADE
NSW1,"2002/01/23 07:00",8395.77167,28.93,TRADE
NSW1,"2002/01/23 07:30",8750.42667,24.68,TRADE
NSW1,"2002/01/23 08:00",8972.935,24.96,TRADE
NSW1,"2002/01/23 08:30",9350.95167,25.06,TRADE
NSW1,"2002/01/23 09:00",9491.65167,24.95,TRADE
NSW1,"2002/01/23 09:30",9602.71667,25.34,TRADE
NSW1,"2002/01/23 10:00",9642.66833,25.52,TRADE
NSW1,"2002/01/23 10:30",9623.80833,25.3,TRADE
NSW1,"2002/01/23 11:00",9512.06667,24.8,TRADE
NSW1,"2002/01/23 11:30",9531.95167,24.95,TRADE
NSW1,"2002/01/23 12:00",9565.06667,31.49,TRADE
NSW1,"2002/01/23 12:30",9622.96667,37.23,TRADE
NSW1,"2002/01/23 13:00",9864.68,45.32,TRADE
NSW1,"2002/01/23 13:30",9872.8,45.34,TRADE
NSW1,"2002/01/23 14:00",9924.44833,45.38,TRADE
NSW1,"2002/01/23 14:30",9857.48,30.35,TRADE
NSW1,"2002/01/23 15:00",9788.65,27.11,TRADE
NSW1,"2002/01/23 15:30",9704.92667,27.1,TRADE
NSW1,"2002/01/23 16:00",9692.26667,26.31,TRADE
NSW1,"2002/01/23 16:30",9523.36833,25.18,TRADE
NSW1,"2002/01/23 17:00",9404.06167,24.14,TRADE
NSW1,"2002/01/23 17:30",9103.3,21.9,TRADE
NSW1,"2002/01/23 18:00",8925.02833,20.48,TRADE
NSW1,"2002/01/23 18:30",8640.5,18.53,TRADE
NSW1,"2002/01/23 19:00",8497.675,18.09,TRADE
NSW1,"2002/01/23 19:30",8497.41333,19.19,TRADE
NSW1,"2002/01/23 20:00",8444.23333,21.7,TRADE
NSW1,"2002/01/23 20:30",8279.35,19.93,TRADE
NSW1,"2002/01/23 21:00",8076.61,19.55,TRADE
NSW1,"2002/01/23 21:30",8233.85333,21.31,TRADE
NSW1,"2002/01/23 22:00",8171.15167,19.92,TRADE
NSW1,"2002/01/23 22:30",8161.80667,27.95,TRADE
NSW1,"2002/01/23 23:00",7995.415,25.84,TRADE
NSW1,"2002/01/23 23:30",7794.87667,27.32,TRADE
NSW1,"2002/01/24 00:00",7611.34,25.19,TRADE
NSW1,"2002/01/24 00:30",7401.18667,25.72,TRADE
NSW1,"2002/01/24 01:00",7096.39167,22.95,TRADE
NSW1,"2002/01/24 01:30",6781.275,23.02,TRADE
NSW1,"2002/01/24 02:00",6441.325,22.3,TRADE
NSW1,"2002/01/24 02:30",6248.05833,17.64,TRADE
NSW1,"2002/01/24 03:00",6086.48333,16,TRADE
NSW1,"2002/01/24 03:30",6097.18333,16,TRADE
NSW1,"2002/01/24 04:00",6111.99333,16,TRADE
NSW1,"2002/01/24 04:30",6315.54833,16.7,TRADE
NSW1,"2002/01/24 05:00",6561.435,19.41,TRADE
NSW1,"2002/01/24 05:30",7093.48333,26.26,TRADE
NSW1,"2002/01/24 06:00",7532.75167,26.78,TRADE
NSW1,"2002/01/24 06:30",7906.24167,28.28,TRADE
NSW1,"2002/01/24 07:00",8363.81333,28.24,TRADE
NSW1,"2002/01/24 07:30",8713.78333,21.82,TRADE
NSW1,"2002/01/24 08:00",8925.25667,25.13,TRADE
NSW1,"2002/01/24 08:30",9223.8,25.41,TRADE
NSW1,"2002/01/24 09:00",9340.11667,25.16,TRADE
NSW1,"2002/01/24 09:30",9410.14167,23.95,TRADE
NSW1,"2002/01/24 10:00",9381.73667,23.04,TRADE
NSW1,"2002/01/24 10:30",9359.69833,22.39,TRADE
NSW1,"2002/01/24 11:00",9432.775,23.81,TRADE
NSW1,"2002/01/24 11:30",9415.62333,24.62,TRADE
NSW1,"2002/01/24 12:00",9387.17167,25.11,TRADE
NSW1,"2002/01/24 12:30",9335.15333,24.84,TRADE
NSW1,"2002/01/24 13:00",9287.91,24.74,TRADE
NSW1,"2002/01/24 13:30",9241.61,23.75,TRADE
NSW1,"2002/01/24 14:00",9236.81,23.16,TRADE
NSW1,"2002/01/24 14:30",9231.26333,23.83,TRADE
NSW1,"2002/01/24 15:00",9208.20167,23.36,TRADE
NSW1,"2002/01/24 15:30",9161.22833,22.81,TRADE
NSW1,"2002/01/24 16:00",9162.90333,23.08,TRADE
NSW1,"2002/01/24 16:30",9079.255,22.28,TRADE
NSW1,"2002/01/24 17:00",9011.12333,21.23,TRADE
NSW1,"2002/01/24 17:30",8802.38167,20.01,TRADE
NSW1,"2002/01/24 18:00",8700.62167,20.92,TRADE
NSW1,"2002/01/24 18:30",8512.425,22.15,TRADE
NSW1,"2002/01/24 19:00",8418.08,22.91,TRADE
NSW1,"2002/01/24 19:30",8468.20333,23.28,TRADE
NSW1,"2002/01/24 20:00",8486.51833,23.86,TRADE
NSW1,"2002/01/24 20:30",8250.725,20.33,TRADE
NSW1,"2002/01/24 21:00",7971.20667,19.56,TRADE
NSW1,"2002/01/24 21:30",8126.96833,20.17,TRADE
NSW1,"2002/01/24 22:00",8025.29833,18.32,TRADE
NSW1,"2002/01/24 22:30",8025.62167,23.39,TRADE
NSW1,"2002/01/24 23:00",7845.20333,23.27,TRADE
NSW1,"2002/01/24 23:30",7661.61167,24.78,TRADE
NSW1,"2002/01/25 00:00",7480.94,23.55,TRADE
NSW1,"2002/01/25 00:30",7274.96667,20.97,TRADE
NSW1,"2002/01/25 01:00",7035.80333,17.91,TRADE
NSW1,"2002/01/25 01:30",6663.52667,21.58,TRADE
NSW1,"2002/01/25 02:00",6359.97,19.26,TRADE
NSW1,"2002/01/25 02:30",6090.235,16.66,TRADE
NSW1,"2002/01/25 03:00",5991.28667,16,TRADE
NSW1,"2002/01/25 03:30",5947.82,13.89,TRADE
NSW1,"2002/01/25 04:00",6054.705,15.39,TRADE
NSW1,"2002/01/25 04:30",6236.36833,16.32,TRADE
NSW1,"2002/01/25 05:00",6462.18667,17.15,TRADE
NSW1,"2002/01/25 05:30",6991.875,20.32,TRADE
NSW1,"2002/01/25 06:00",7431.62667,23.13,TRADE
NSW1,"2002/01/25 06:30",7777.26667,23.05,TRADE
NSW1,"2002/01/25 07:00",8174.44167,22.47,TRADE
NSW1,"2002/01/25 07:30",8586.62667,19.43,TRADE
NSW1,"2002/01/25 08:00",8832.62167,20.68,TRADE
NSW1,"2002/01/25 08:30",9070.09,23.16,TRADE
NSW1,"2002/01/25 09:00",9157.085,22.28,TRADE
NSW1,"2002/01/25 09:30",9289.40167,22.36,TRADE
NSW1,"2002/01/25 10:00",9337.38333,22.71,TRADE
NSW1,"2002/01/25 10:30",9396.09,23.5,TRADE
NSW1,"2002/01/25 11:00",9470.25333,25,TRADE
NSW1,"2002/01/25 11:30",9419.09,28.66,TRADE
NSW1,"2002/01/25 12:00",9380.47,29.28,TRADE
NSW1,"2002/01/25 12:30",9406.45667,37.33,TRADE
NSW1,"2002/01/25 13:00",9344.255,28.91,TRADE
NSW1,"2002/01/25 13:30",9355.18833,37.33,TRADE
NSW1,"2002/01/25 14:00",9326.925,36.43,TRADE
NSW1,"2002/01/25 14:30",9301.61167,35.77,TRADE
NSW1,"2002/01/25 15:00",9280.56833,35.81,TRADE
NSW1,"2002/01/25 15:30",9218.10167,30.09,TRADE
NSW1,"2002/01/25 16:00",9233.05833,30.72,TRADE
NSW1,"2002/01/25 16:30",9121.66,29.34,TRADE
NSW1,"2002/01/25 17:00",8912.98833,25.56,TRADE
NSW1,"2002/01/25 17:30",8598.17333,22.43,TRADE
NSW1,"2002/01/25 18:00",8404.865,21.58,TRADE
NSW1,"2002/01/25 18:30",8148.72167,18.96,TRADE
NSW1,"2002/01/25 19:00",7989.105,18,TRADE
NSW1,"2002/01/25 19:30",8023.57833,18.52,TRADE
NSW1,"2002/01/25 20:00",8167.88667,21.21,TRADE
NSW1,"2002/01/25 20:30",8016.61167,18.08,TRADE
NSW1,"2002/01/25 21:00",7809.215,17.92,TRADE
NSW1,"2002/01/25 21:30",7966.54833,18.98,TRADE
NSW1,"2002/01/25 22:00",7933.875,18,TRADE
NSW1,"2002/01/25 22:30",8019.48167,24.17,TRADE
NSW1,"2002/01/25 23:00",7872.49167,23.29,TRADE
NSW1,"2002/01/25 23:30",7711.31167,25.18,TRADE
NSW1,"2002/01/26 00:00",7446.11667,22.71,TRADE
NSW1,"2002/01/26 00:30",7242.915,20.19,TRADE
NSW1,"2002/01/26 01:00",6932.61,17.9,TRADE
NSW1,"2002/01/26 01:30",6612.44333,19.17,TRADE
NSW1,"2002/01/26 02:00",6268.325,17.51,TRADE
NSW1,"2002/01/26 02:30",6040.93167,16.61,TRADE
NSW1,"2002/01/26 03:00",5879.72333,15.56,TRADE
NSW1,"2002/01/26 03:30",5797.20167,14.22,TRADE
NSW1,"2002/01/26 04:00",5803.165,13.87,TRADE
NSW1,"2002/01/26 04:30",5880.05,15.14,TRADE
NSW1,"2002/01/26 05:00",5977.44667,15.83,TRADE
NSW1,"2002/01/26 05:30",6096.46167,16.33,TRADE
NSW1,"2002/01/26 06:00",6258.57333,17.15,TRADE
NSW1,"2002/01/26 06:30",6472.66,18.2,TRADE
NSW1,"2002/01/26 07:00",6894.15667,22.91,TRADE
NSW1,"2002/01/26 07:30",7286.44333,22.99,TRADE
NSW1,"2002/01/26 08:00",7572.91833,27.66,TRADE
NSW1,"2002/01/26 08:30",7943.34333,42.25,TRADE
NSW1,"2002/01/26 09:00",8002.62667,43.53,TRADE
NSW1,"2002/01/26 09:30",8123.00667,43.79,TRADE
NSW1,"2002/01/26 10:00",8094.635,42.97,TRADE
NSW1,"2002/01/26 10:30",8073.5,42.76,TRADE
NSW1,"2002/01/26 11:00",8073.53167,42.42,TRADE
NSW1,"2002/01/26 11:30",8043.045,42.29,TRADE
NSW1,"2002/01/26 12:00",7986.95,44.17,TRADE
NSW1,"2002/01/26 12:30",7947.36667,42.28,TRADE
NSW1,"2002/01/26 13:00",7963.64833,46.24,TRADE
NSW1,"2002/01/26 13:30",7900.96,41.85,TRADE
NSW1,"2002/01/26 14:00",7919.10333,40.35,TRADE
NSW1,"2002/01/26 14:30",7872.79,38.83,TRADE
NSW1,"2002/01/26 15:00",7943.82667,41.55,TRADE
NSW1,"2002/01/26 15:30",7977,41.42,TRADE
NSW1,"2002/01/26 16:00",8062.93333,43.11,TRADE
NSW1,"2002/01/26 16:30",7842.945,32.22,TRADE
NSW1,"2002/01/26 17:00",7931.46,30.02,TRADE
NSW1,"2002/01/26 17:30",7886.47,28.46,TRADE
NSW1,"2002/01/26 18:00",7842.565,27.83,TRADE
NSW1,"2002/01/26 18:30",7726.65333,23.82,TRADE
NSW1,"2002/01/26 19:00",7642.66,23.01,TRADE
NSW1,"2002/01/26 19:30",7686.10833,24.2,TRADE
NSW1,"2002/01/26 20:00",7766.80333,26.12,TRADE
NSW1,"2002/01/26 20:30",7666.35667,24.88,TRADE
NSW1,"2002/01/26 21:00",7525.80333,22.66,TRADE
NSW1,"2002/01/26 21:30",7614.775,22.95,TRADE
NSW1,"2002/01/26 22:00",7499.855,22.4,TRADE
NSW1,"2002/01/26 22:30",7514.36667,23.45,TRADE
NSW1,"2002/01/26 23:00",7282.08,21.58,TRADE
NSW1,"2002/01/26 23:30",7042.35667,21.36,TRADE
NSW1,"2002/01/27 00:00",6843.98167,19.74,TRADE
NSW1,"2002/01/27 00:30",6627.68333,18.86,TRADE
NSW1,"2002/01/27 01:00",6367.075,17.14,TRADE
NSW1,"2002/01/27 01:30",6099.87333,17.84,TRADE
NSW1,"2002/01/27 02:00",5833.17833,15.58,TRADE
NSW1,"2002/01/27 02:30",5696.89667,13.48,TRADE
NSW1,"2002/01/27 03:00",5609.59667,12.98,TRADE
NSW1,"2002/01/27 03:30",5555.89,12.16,TRADE
NSW1,"2002/01/27 04:00",5553.905,11.51,TRADE
NSW1,"2002/01/27 04:30",5584.36833,12.83,TRADE
NSW1,"2002/01/27 05:00",5653.49,12.85,TRADE
NSW1,"2002/01/27 05:30",5689.22167,13.29,TRADE
NSW1,"2002/01/27 06:00",5757.82667,11.96,TRADE
NSW1,"2002/01/27 06:30",5953.57167,14.26,TRADE
NSW1,"2002/01/27 07:00",6267.61833,15.61,TRADE
NSW1,"2002/01/27 07:30",6641.31833,15.95,TRADE
NSW1,"2002/01/27 08:00",6970.275,17.7,TRADE
NSW1,"2002/01/27 08:30",7229.39167,19.19,TRADE
NSW1,"2002/01/27 09:00",7430.69833,20.24,TRADE
NSW1,"2002/01/27 09:30",7586.11167,21.82,TRADE
NSW1,"2002/01/27 10:00",7599.33167,20.73,TRADE
NSW1,"2002/01/27 10:30",7724.02167,22.24,TRADE
NSW1,"2002/01/27 11:00",7731.32667,21.69,TRADE
NSW1,"2002/01/27 11:30",7755.15,22.81,TRADE
NSW1,"2002/01/27 12:00",7740.70167,22.9,TRADE
NSW1,"2002/01/27 12:30",7722.335,21.96,TRADE
NSW1,"2002/01/27 13:00",7740.68667,21.06,TRADE
NSW1,"2002/01/27 13:30",7735.825,21.41,TRADE
NSW1,"2002/01/27 14:00",7731.14833,21.18,TRADE
NSW1,"2002/01/27 14:30",7784.605,21.26,TRADE
NSW1,"2002/01/27 15:00",7826.05167,21.36,TRADE
NSW1,"2002/01/27 15:30",7829.81,22.9,TRADE
NSW1,"2002/01/27 16:00",7861.22,22.86,TRADE
NSW1,"2002/01/27 16:30",7724.47667,21.4,TRADE
NSW1,"2002/01/27 17:00",7803.65333,22.93,TRADE
NSW1,"2002/01/27 17:30",7794.41,22.9,TRADE
NSW1,"2002/01/27 18:00",7706.35667,23.06,TRADE
NSW1,"2002/01/27 18:30",7644.23667,22.9,TRADE
NSW1,"2002/01/27 19:00",7562.60333,22.92,TRADE
NSW1,"2002/01/27 19:30",7696.185,24.44,TRADE
NSW1,"2002/01/27 20:00",7846.45,26.26,TRADE
NSW1,"2002/01/27 20:30",7659.24,25.12,TRADE
NSW1,"2002/01/27 21:00",7507.79833,22.79,TRADE
NSW1,"2002/01/27 21:30",7544.15167,22.94,TRADE
NSW1,"2002/01/27 22:00",7438.14167,21.56,TRADE
NSW1,"2002/01/27 22:30",7430.37167,20.94,TRADE
NSW1,"2002/01/27 23:00",7164.10167,20.07,TRADE
NSW1,"2002/01/27 23:30",6927.20167,20.24,TRADE
NSW1,"2002/01/28 00:00",6735.30333,19.88,TRADE
NSW1,"2002/01/28 00:30",6511.24167,18.34,TRADE
NSW1,"2002/01/28 01:00",6343.68,18.01,TRADE
NSW1,"2002/01/28 01:30",6039.55667,18.31,TRADE
NSW1,"2002/01/28 02:00",5855.80833,16.02,TRADE
NSW1,"2002/01/28 02:30",5673.975,13.1,TRADE
NSW1,"2002/01/28 03:00",5668.51333,13.69,TRADE
NSW1,"2002/01/28 03:30",5586.41667,9.28,TRADE
NSW1,"2002/01/28 04:00",5604.81,12.47,TRADE
NSW1,"2002/01/28 04:30",5699.53167,11.63,TRADE
NSW1,"2002/01/28 05:00",5797.68833,13,TRADE
NSW1,"2002/01/28 05:30",5937.55,14.69,TRADE
NSW1,"2002/01/28 06:00",6044.37833,14.71,TRADE
NSW1,"2002/01/28 06:30",6157.995,15.67,TRADE
NSW1,"2002/01/28 07:00",6447.99,16.75,TRADE
NSW1,"2002/01/28 07:30",6806.59167,17.32,TRADE
NSW1,"2002/01/28 08:00",7070.96,19.14,TRADE
NSW1,"2002/01/28 08:30",7483.85333,20.31,TRADE
NSW1,"2002/01/28 09:00",7661.69833,21.69,TRADE
NSW1,"2002/01/28 09:30",7838.74,21.74,TRADE
NSW1,"2002/01/28 10:00",7907.62333,22.8,TRADE
NSW1,"2002/01/28 10:30",7951.62667,22.64,TRADE
NSW1,"2002/01/28 11:00",8004.58167,23.3,TRADE
NSW1,"2002/01/28 11:30",8014.21667,23.4,TRADE
NSW1,"2002/01/28 12:00",8056.93833,23.8,TRADE
NSW1,"2002/01/28 12:30",8071.27833,23.58,TRADE
NSW1,"2002/01/28 13:00",8086.12667,23.9,TRADE
NSW1,"2002/01/28 13:30",8140.85167,24.05,TRADE
NSW1,"2002/01/28 14:00",8211.945,24.31,TRADE
NSW1,"2002/01/28 14:30",8288.265,24.84,TRADE
NSW1,"2002/01/28 15:00",8380.25167,24.96,TRADE
NSW1,"2002/01/28 15:30",8413.435,26.57,TRADE
NSW1,"2002/01/28 16:00",8505.86833,28.1,TRADE
NSW1,"2002/01/28 16:30",8514.84833,27.36,TRADE
NSW1,"2002/01/28 17:00",8542.575,28.87,TRADE
NSW1,"2002/01/28 17:30",8437.53167,27.72,TRADE
NSW1,"2002/01/28 18:00",8294.83667,26.3,TRADE
NSW1,"2002/01/28 18:30",8116.74333,23.9,TRADE
NSW1,"2002/01/28 19:00",7988.955,24.43,TRADE
NSW1,"2002/01/28 19:30",8120.79333,26.4,TRADE
NSW1,"2002/01/28 20:00",8214.19833,27.77,TRADE
NSW1,"2002/01/28 20:30",8031.77,26.57,TRADE
NSW1,"2002/01/28 21:00",7796.635,22.41,TRADE
NSW1,"2002/01/28 21:30",7834.54,22.62,TRADE
NSW1,"2002/01/28 22:00",7669.90833,19.75,TRADE
NSW1,"2002/01/28 22:30",7680.72167,21.95,TRADE
NSW1,"2002/01/28 23:00",7566.23,20.07,TRADE
NSW1,"2002/01/28 23:30",7366.94167,21.63,TRADE
NSW1,"2002/01/29 00:00",7180.415,20.52,TRADE
NSW1,"2002/01/29 00:30",7011.94167,19.82,TRADE
NSW1,"2002/01/29 01:00",6748.08,18.15,TRADE
NSW1,"2002/01/29 01:30",6454.23833,17.77,TRADE
NSW1,"2002/01/29 02:00",6148.61333,14.43,TRADE
NSW1,"2002/01/29 02:30",5960.20667,14.19,TRADE
NSW1,"2002/01/29 03:00",5873.72333,13.48,TRADE
NSW1,"2002/01/29 03:30",5839.24,12.98,TRADE
NSW1,"2002/01/29 04:00",5940.82833,13.56,TRADE
NSW1,"2002/01/29 04:30",6142.86833,13.71,TRADE
NSW1,"2002/01/29 05:00",6407.75167,15.16,TRADE
NSW1,"2002/01/29 05:30",6961.42833,17.76,TRADE
NSW1,"2002/01/29 06:00",7456.09,20.24,TRADE
NSW1,"2002/01/29 06:30",7861.19333,23.56,TRADE
NSW1,"2002/01/29 07:00",8368.14,26.52,TRADE
NSW1,"2002/01/29 07:30",8776.30333,21.01,TRADE
NSW1,"2002/01/29 08:00",9014.89333,23.39,TRADE
NSW1,"2002/01/29 08:30",9340.915,24.44,TRADE
NSW1,"2002/01/29 09:00",9525.85,24.22,TRADE
NSW1,"2002/01/29 09:30",9657.145,25.33,TRADE
NSW1,"2002/01/29 10:00",9689.90333,26.35,TRADE
NSW1,"2002/01/29 10:30",9770.33833,25.94,TRADE
NSW1,"2002/01/29 11:00",9826.19167,27.85,TRADE
NSW1,"2002/01/29 11:30",9829.60333,31.02,TRADE
NSW1,"2002/01/29 12:00",9854.45,34.5,TRADE
NSW1,"2002/01/29 12:30",9759.88833,35.91,TRADE
NSW1,"2002/01/29 13:00",9316.34,26.8,TRADE
NSW1,"2002/01/29 13:30",9961.05,46.65,TRADE
NSW1,"2002/01/29 14:00",10053.03333,51.67,TRADE
NSW1,"2002/01/29 14:30",10088.75167,48.14,TRADE
NSW1,"2002/01/29 15:00",10060.96,43.57,TRADE
NSW1,"2002/01/29 15:30",10071.455,42.27,TRADE
NSW1,"2002/01/29 16:00",9952.75833,39.68,TRADE
NSW1,"2002/01/29 16:30",9888.61833,30.85,TRADE
NSW1,"2002/01/29 17:00",9689.185,34.48,TRADE
NSW1,"2002/01/29 17:30",9435.295,36.75,TRADE
NSW1,"2002/01/29 18:00",9169.15333,30.3,TRADE
NSW1,"2002/01/29 18:30",8929.77333,25.97,TRADE
NSW1,"2002/01/29 19:00",8766.17667,26.02,TRADE
NSW1,"2002/01/29 19:30",8766.80333,26.34,TRADE
NSW1,"2002/01/29 20:00",8794.06667,26.99,TRADE
NSW1,"2002/01/29 20:30",8567.96,24.75,TRADE
NSW1,"2002/01/29 21:00",8327.29667,22.46,TRADE
NSW1,"2002/01/29 21:30",8417.51167,22.51,TRADE
NSW1,"2002/01/29 22:00",8294.06833,19.1,TRADE
NSW1,"2002/01/29 22:30",8388.2,35.95,TRADE
NSW1,"2002/01/29 23:00",8052.10167,30.2,TRADE
NSW1,"2002/01/29 23:30",7874.36667,36.9,TRADE
NSW1,"2002/01/30 00:00",7631.33667,35.18,TRADE
NSW1,"2002/01/30 00:30",7426.655,28.58,TRADE
NSW1,"2002/01/30 01:00",7171.01167,24.52,TRADE
NSW1,"2002/01/30 01:30",6873.77167,25.69,TRADE
NSW1,"2002/01/30 02:00",6540.77333,23.76,TRADE
NSW1,"2002/01/30 02:30",6320.19667,20.71,TRADE
NSW1,"2002/01/30 03:00",6186.79,17.27,TRADE
NSW1,"2002/01/30 03:30",6141.08667,16.44,TRADE
NSW1,"2002/01/30 04:00",6215.17667,16.25,TRADE
NSW1,"2002/01/30 04:30",6353.29333,17.17,TRADE
NSW1,"2002/01/30 05:00",6678.31833,19.33,TRADE
NSW1,"2002/01/30 05:30",7221.30667,22.02,TRADE
NSW1,"2002/01/30 06:00",7781.62667,23.76,TRADE
NSW1,"2002/01/30 06:30",8178.97667,29.18,TRADE
NSW1,"2002/01/30 07:00",8595.26833,32.86,TRADE
NSW1,"2002/01/30 07:30",8837.53167,20.81,TRADE
NSW1,"2002/01/30 08:00",9064.34167,23.06,TRADE
NSW1,"2002/01/30 08:30",9327.205,23.31,TRADE
NSW1,"2002/01/30 09:00",9481.98833,23.46,TRADE
NSW1,"2002/01/30 09:30",9577.80833,23.38,TRADE
NSW1,"2002/01/30 10:00",9678.56833,25.72,TRADE
NSW1,"2002/01/30 10:30",9714.45333,27.14,TRADE
NSW1,"2002/01/30 11:00",9838.97333,31.7,TRADE
NSW1,"2002/01/30 11:30",9838.85333,39.54,TRADE
NSW1,"2002/01/30 12:00",9865.69333,42.27,TRADE
NSW1,"2002/01/30 12:30",9942.81833,40.07,TRADE
NSW1,"2002/01/30 13:00",10008.57333,50.38,TRADE
NSW1,"2002/01/30 13:30",10072.97167,55.06,TRADE
NSW1,"2002/01/30 14:00",10062.09833,52.78,TRADE
NSW1,"2002/01/30 14:30",10079.30667,53.03,TRADE
NSW1,"2002/01/30 15:00",10186.96833,47.57,TRADE
NSW1,"2002/01/30 15:30",10218.54,49.38,TRADE
NSW1,"2002/01/30 16:00",10226.84667,52.87,TRADE
NSW1,"2002/01/30 16:30",10209.055,47.02,TRADE
NSW1,"2002/01/30 17:00",10086.42667,39.59,TRADE
NSW1,"2002/01/30 17:30",9765.53667,33.39,TRADE
NSW1,"2002/01/30 18:00",9532.02167,37.73,TRADE
NSW1,"2002/01/30 18:30",9205.67667,30.85,TRADE
NSW1,"2002/01/30 19:00",9022.90167,29.75,TRADE
NSW1,"2002/01/30 19:30",9007.30333,27.32,TRADE
NSW1,"2002/01/30 20:00",9092.42,31.79,TRADE
NSW1,"2002/01/30 20:30",8889.98167,25.88,TRADE
NSW1,"2002/01/30 21:00",8556.985,22.6,TRADE
NSW1,"2002/01/30 21:30",8643.63167,22.57,TRADE
NSW1,"2002/01/30 22:00",8455.105,19.13,TRADE
NSW1,"2002/01/30 22:30",8409.02667,32.54,TRADE
NSW1,"2002/01/30 23:00",8178.32667,27.62,TRADE
NSW1,"2002/01/30 23:30",7897.29667,28.5,TRADE
NSW1,"2002/01/31 00:00",7731.61333,24.28,TRADE
NSW1,"2002/01/31 00:30",7485.85667,22.56,TRADE
NSW1,"2002/01/31 01:00",7215.14167,20.67,TRADE
NSW1,"2002/01/31 01:30",6851,21.37,TRADE
NSW1,"2002/01/31 02:00",6566.04,19.99,TRADE
NSW1,"2002/01/31 02:30",6325.52333,17.07,TRADE
NSW1,"2002/01/31 03:00",6240.565,16.12,TRADE
NSW1,"2002/01/31 03:30",6210.39333,16,TRADE
NSW1,"2002/01/31 04:00",6252.87833,16,TRADE
NSW1,"2002/01/31 04:30",6496.60333,17.72,TRADE
NSW1,"2002/01/31 05:00",6724.635,18.16,TRADE
NSW1,"2002/01/31 05:30",7339.075,21.8,TRADE
NSW1,"2002/01/31 06:00",7869.16167,25.68,TRADE
NSW1,"2002/01/31 06:30",8377.62833,38.23,TRADE
NSW1,"2002/01/31 07:00",8834.88333,43.1,TRADE
NSW1,"2002/01/31 07:30",9091,25.14,TRADE
NSW1,"2002/01/31 08:00",9209.51833,29.1,TRADE
NSW1,"2002/01/31 08:30",9481.49667,30.53,TRADE
NSW1,"2002/01/31 09:00",9665.33167,29.67,TRADE
NSW1,"2002/01/31 09:30",9769.35,32.18,TRADE
NSW1,"2002/01/31 10:00",9810.49167,30.54,TRADE
NSW1,"2002/01/31 10:30",9800.14167,32.79,TRADE
NSW1,"2002/01/31 11:00",9899.35167,31.2,TRADE
NSW1,"2002/01/31 11:30",9734.285,27.7,TRADE
NSW1,"2002/01/31 12:00",9655.65667,26.68,TRADE
NSW1,"2002/01/31 12:30",9669.25667,30.47,TRADE
NSW1,"2002/01/31 13:00",9894.2,41.21,TRADE
NSW1,"2002/01/31 13:30",9957.31833,43.75,TRADE
NSW1,"2002/01/31 14:00",9870.145,43.84,TRADE
NSW1,"2002/01/31 14:30",9880.93833,52.01,TRADE
NSW1,"2002/01/31 15:00",9846.745,56.5,TRADE
NSW1,"2002/01/31 15:30",9831.86833,59.44,TRADE
NSW1,"2002/01/31 16:00",9812.80833,72.56,TRADE
NSW1,"2002/01/31 16:30",9621.815,65.95,TRADE
NSW1,"2002/01/31 17:00",9613.63333,53.64,TRADE
NSW1,"2002/01/31 17:30",9371.395,27.83,TRADE
NSW1,"2002/01/31 18:00",9186.24833,27.47,TRADE
NSW1,"2002/01/31 18:30",8956.96167,25.35,TRADE
NSW1,"2002/01/31 19:00",8829.34167,25.66,TRADE
NSW1,"2002/01/31 19:30",8857.93,25.47,TRADE
NSW1,"2002/01/31 20:00",8864.55167,25.84,TRADE
NSW1,"2002/01/31 20:30",8538.4,23.68,TRADE
NSW1,"2002/01/31 21:00",8281.68833,22.11,TRADE
NSW1,"2002/01/31 21:30",8349.61167,22.31,TRADE
NSW1,"2002/01/31 22:00",8255.54167,18.38,TRADE
NSW1,"2002/01/31 22:30",8195.635,29,TRADE
NSW1,"2002/01/31 23:00",8019.24333,24.54,TRADE
NSW1,"2002/01/31 23:30",7810.89667,25.69,TRADE
NSW1,"2002/02/01 00:00",7599.25667,23.54,TRADE
