REGION,SETTLEMENTDATE,TOTALDEMAND,RRP,PERIODTYPE
VIC1,"2007/06/01 00:30:00",5691.74,50.53,TRADE
VIC1,"2007/06/01 01:00:00",5524.6,43.57,TRADE
VIC1,"2007/06/01 01:30:00",5845.84,72.93,TRADE
VIC1,"2007/06/01 02:00:00",5682.81,74.73,TRADE
VIC1,"2007/06/01 02:30:00",5471.45,64.82,TRADE
VIC1,"2007/06/01 03:00:00",5292.69,54.23,TRADE
VIC1,"2007/06/01 03:30:00",5135.63,37.44,TRADE
VIC1,"2007/06/01 04:00:00",5022.1,35,TRADE
VIC1,"2007/06/01 04:30:00",4971.85,30.7,TRADE
VIC1,"2007/06/01 05:00:00",4961.61,31.63,TRADE
VIC1,"2007/06/01 05:30:00",5052.25,47.51,TRADE
VIC1,"2007/06/01 06:00:00",5216.99,42.42,TRADE
VIC1,"2007/06/01 06:30:00",5674.94,75.71,TRADE
VIC1,"2007/06/01 07:00:00",6104.36,84.13,TRADE
VIC1,"2007/06/01 07:30:00",6471.01,75.43,TRADE
VIC1,"2007/06/01 08:00:00",6748.17,80.63,TRADE
VIC1,"2007/06/01 08:30:00",6878.92,92.83,TRADE
VIC1,"2007/06/01 09:00:00",6877.96,74.17,TRADE
VIC1,"2007/06/01 09:30:00",6901.65,82.22,TRADE
VIC1,"2007/06/01 10:00:00",6828.31,70.77,TRADE
VIC1,"2007/06/01 10:30:00",6774.17,67.15,TRADE
VIC1,"2007/06/01 11:00:00",6690.76,69.84,TRADE
VIC1,"2007/06/01 11:30:00",6645.82,65.01,TRADE
VIC1,"2007/06/01 12:00:00",6595.23,60.16,TRADE
VIC1,"2007/06/01 12:30:00",6529.24,57.78,TRADE
VIC1,"2007/06/01 13:00:00",6543.41,59.71,TRADE
VIC1,"2007/06/01 13:30:00",6569.35,56.98,TRADE
VIC1,"2007/06/01 14:00:00",6537.25,57.97,TRADE
VIC1,"2007/06/01 14:30:00",6478.47,56.63,TRADE
VIC1,"2007/06/01 15:00:00",6444.16,54.98,TRADE
VIC1,"2007/06/01 15:30:00",6386.3,54.69,TRADE
VIC1,"2007/06/01 16:00:00",6343.36,54.45,TRADE
VIC1,"2007/06/01 16:30:00",6402.49,58.98,TRADE
VIC1,"2007/06/01 17:00:00",6511.03,60.66,TRADE
VIC1,"2007/06/01 17:30:00",6812.91,99.77,TRADE
VIC1,"2007/06/01 18:00:00",7190.97,303.54,TRADE
VIC1,"2007/06/01 18:30:00",7144.64,112.04,TRADE
VIC1,"2007/06/01 19:00:00",6979.09,77.14,TRADE
VIC1,"2007/06/01 19:30:00",6793.42,63.39,TRADE
VIC1,"2007/06/01 20:00:00",6713.8,64.81,TRADE
VIC1,"2007/06/01 20:30:00",6617.01,59.05,TRADE
VIC1,"2007/06/01 21:00:00",6485.45,58.69,TRADE
VIC1,"2007/06/01 21:30:00",6270.09,61.99,TRADE
VIC1,"2007/06/01 22:00:00",6083.6,58.38,TRADE
VIC1,"2007/06/01 22:30:00",5898.57,77.92,TRADE
VIC1,"2007/06/01 23:00:00",5754.88,67.35,TRADE
VIC1,"2007/06/01 23:30:00",6020.65,79.12,TRADE
VIC1,"2007/06/02 00:00:00",5858.71,60.21,TRADE
VIC1,"2007/06/02 00:30:00",5682.5,55.21,TRADE
VIC1,"2007/06/02 01:00:00",5505.45,42.2,TRADE
VIC1,"2007/06/02 01:30:00",5792.41,48.05,TRADE
VIC1,"2007/06/02 02:00:00",5590.06,47.18,TRADE
VIC1,"2007/06/02 02:30:00",5354.55,38.78,TRADE
VIC1,"2007/06/02 03:00:00",5109.89,41.12,TRADE
VIC1,"2007/06/02 03:30:00",4957.3,37.25,TRADE
VIC1,"2007/06/02 04:00:00",4821,31.49,TRADE
VIC1,"2007/06/02 04:30:00",4739.51,24.06,TRADE
VIC1,"2007/06/02 05:00:00",4697.99,23.97,TRADE
VIC1,"2007/06/02 05:30:00",4720.1,33.43,TRADE
VIC1,"2007/06/02 06:00:00",4784.21,31.75,TRADE
VIC1,"2007/06/02 06:30:00",4915.12,37.69,TRADE
VIC1,"2007/06/02 07:00:00",5085.5,38.43,TRADE
VIC1,"2007/06/02 07:30:00",5131.74,46.41,TRADE
VIC1,"2007/06/02 08:00:00",5330.25,50.45,TRADE
VIC1,"2007/06/02 08:30:00",5580.59,58.66,TRADE
VIC1,"2007/06/02 09:00:00",5772.34,63.37,TRADE
VIC1,"2007/06/02 09:30:00",5932.41,67.41,TRADE
VIC1,"2007/06/02 10:00:00",5963.32,65.22,TRADE
VIC1,"2007/06/02 10:30:00",5932,63.03,TRADE
VIC1,"2007/06/02 11:00:00",5885.9,62.63,TRADE
VIC1,"2007/06/02 11:30:00",5843.61,58.41,TRADE
VIC1,"2007/06/02 12:00:00",5777.03,54.78,TRADE
VIC1,"2007/06/02 12:30:00",5705.25,48.87,TRADE
VIC1,"2007/06/02 13:00:00",5626.96,40.65,TRADE
VIC1,"2007/06/02 13:30:00",5672.15,39.13,TRADE
VIC1,"2007/06/02 14:00:00",5646.42,37.59,TRADE
VIC1,"2007/06/02 14:30:00",5578.81,37.46,TRADE
VIC1,"2007/06/02 15:00:00",5532.49,38.19,TRADE
VIC1,"2007/06/02 15:30:00",5480.14,43.11,TRADE
VIC1,"2007/06/02 16:00:00",5484.29,43.26,TRADE
VIC1,"2007/06/02 16:30:00",5549.37,50.27,TRADE
VIC1,"2007/06/02 17:00:00",5694.96,65.06,TRADE
VIC1,"2007/06/02 17:30:00",6069.89,83.26,TRADE
VIC1,"2007/06/02 18:00:00",6483.97,153.95,TRADE
VIC1,"2007/06/02 18:30:00",6570.81,126.03,TRADE
VIC1,"2007/06/02 19:00:00",6461.36,89.55,TRADE
VIC1,"2007/06/02 19:30:00",6267.31,74.24,TRADE
VIC1,"2007/06/02 20:00:00",6138.34,65.35,TRADE
VIC1,"2007/06/02 20:30:00",5975.68,66.37,TRADE
VIC1,"2007/06/02 21:00:00",5939.74,63.84,TRADE
VIC1,"2007/06/02 21:30:00",5846.93,57.08,TRADE
VIC1,"2007/06/02 22:00:00",5714.82,54.14,TRADE
VIC1,"2007/06/02 22:30:00",5618.95,64.35,TRADE
VIC1,"2007/06/02 23:00:00",5443.28,62.35,TRADE
VIC1,"2007/06/02 23:30:00",5683.99,64.93,TRADE
VIC1,"2007/06/03 00:00:00",5558.52,58.3,TRADE
VIC1,"2007/06/03 00:30:00",5439.71,59.21,TRADE
VIC1,"2007/06/03 01:00:00",5269.19,45.74,TRADE
VIC1,"2007/06/03 01:30:00",5627.03,49.37,TRADE
VIC1,"2007/06/03 02:00:00",5460.4,45.61,TRADE
VIC1,"2007/06/03 02:30:00",5249.56,41,TRADE
VIC1,"2007/06/03 03:00:00",5070.47,38.44,TRADE
VIC1,"2007/06/03 03:30:00",4911.81,37.52,TRADE
VIC1,"2007/06/03 04:00:00",4776.23,31.86,TRADE
VIC1,"2007/06/03 04:30:00",4702.24,32.82,TRADE
VIC1,"2007/06/03 05:00:00",4626.1,32.2,TRADE
VIC1,"2007/06/03 05:30:00",4597.56,31.98,TRADE
VIC1,"2007/06/03 06:00:00",4628.42,31.97,TRADE
VIC1,"2007/06/03 06:30:00",4727.85,35.84,TRADE
VIC1,"2007/06/03 07:00:00",4790.16,38.1,TRADE
VIC1,"2007/06/03 07:30:00",4714.3,33.77,TRADE
VIC1,"2007/06/03 08:00:00",4859.42,38.77,TRADE
VIC1,"2007/06/03 08:30:00",5085.59,43.04,TRADE
VIC1,"2007/06/03 09:00:00",5263.73,48.48,TRADE
VIC1,"2007/06/03 09:30:00",5391.26,54.77,TRADE
VIC1,"2007/06/03 10:00:00",5455.48,57.39,TRADE
VIC1,"2007/06/03 10:30:00",5511.25,50.61,TRADE
VIC1,"2007/06/03 11:00:00",5461.43,47.6,TRADE
VIC1,"2007/06/03 11:30:00",5409.17,40.21,TRADE
VIC1,"2007/06/03 12:00:00",5420.69,41.19,TRADE
VIC1,"2007/06/03 12:30:00",5360.31,38.16,TRADE
VIC1,"2007/06/03 13:00:00",5380.81,35.99,TRADE
VIC1,"2007/06/03 13:30:00",5399.14,37.98,TRADE
VIC1,"2007/06/03 14:00:00",5366.19,36.19,TRADE
VIC1,"2007/06/03 14:30:00",5358.15,37.34,TRADE
VIC1,"2007/06/03 15:00:00",5321.96,36.57,TRADE
VIC1,"2007/06/03 15:30:00",5315.29,34.93,TRADE
VIC1,"2007/06/03 16:00:00",5425.47,36.53,TRADE
VIC1,"2007/06/03 16:30:00",5495.6,38.65,TRADE
VIC1,"2007/06/03 17:00:00",5741.9,48.9,TRADE
VIC1,"2007/06/03 17:30:00",6176.34,76.31,TRADE
VIC1,"2007/06/03 18:00:00",6561.85,118.41,TRADE
VIC1,"2007/06/03 18:30:00",6617.91,108.48,TRADE
VIC1,"2007/06/03 19:00:00",6498.94,84.43,TRADE
VIC1,"2007/06/03 19:30:00",6339.82,82.77,TRADE
VIC1,"2007/06/03 20:00:00",6234.84,81.97,TRADE
VIC1,"2007/06/03 20:30:00",6147.03,73.4,TRADE
VIC1,"2007/06/03 21:00:00",6046.83,82.85,TRADE
VIC1,"2007/06/03 21:30:00",5890.33,82.1,TRADE
VIC1,"2007/06/03 22:00:00",5727.15,56.23,TRADE
VIC1,"2007/06/03 22:30:00",5579.55,75.84,TRADE
VIC1,"2007/06/03 23:00:00",5367.83,66.35,TRADE
VIC1,"2007/06/03 23:30:00",5547.17,63.47,TRADE
VIC1,"2007/06/04 00:00:00",5391.91,46.8,TRADE
VIC1,"2007/06/04 00:30:00",5329.95,39.23,TRADE
VIC1,"2007/06/04 01:00:00",5211.92,40.38,TRADE
VIC1,"2007/06/04 01:30:00",5576.32,48.68,TRADE
VIC1,"2007/06/04 02:00:00",5456.93,44.29,TRADE
VIC1,"2007/06/04 02:30:00",5277.23,32.98,TRADE
VIC1,"2007/06/04 03:00:00",5146.47,31.77,TRADE
VIC1,"2007/06/04 03:30:00",4985.98,28.6,TRADE
VIC1,"2007/06/04 04:00:00",4905.14,26.26,TRADE
VIC1,"2007/06/04 04:30:00",4796.46,31.52,TRADE
VIC1,"2007/06/04 05:00:00",4861.39,31.32,TRADE
VIC1,"2007/06/04 05:30:00",5001.48,32.06,TRADE
VIC1,"2007/06/04 06:00:00",5204.54,36.26,TRADE
VIC1,"2007/06/04 06:30:00",5651.52,59.77,TRADE
VIC1,"2007/06/04 07:00:00",6111.34,72.03,TRADE
VIC1,"2007/06/04 07:30:00",6449.12,58.67,TRADE
VIC1,"2007/06/04 08:00:00",6809.76,78.53,TRADE
VIC1,"2007/06/04 08:30:00",6956.07,78.28,TRADE
VIC1,"2007/06/04 09:00:00",6995.71,67.32,TRADE
VIC1,"2007/06/04 09:30:00",7005.44,70.93,TRADE
VIC1,"2007/06/04 10:00:00",7013.66,63.53,TRADE
VIC1,"2007/06/04 10:30:00",6976.61,59.96,TRADE
VIC1,"2007/06/04 11:00:00",6920.32,57.72,TRADE
VIC1,"2007/06/04 11:30:00",6886.68,60.38,TRADE
VIC1,"2007/06/04 12:00:00",6811.8,59.97,TRADE
VIC1,"2007/06/04 12:30:00",6794.38,59.17,TRADE
VIC1,"2007/06/04 13:00:00",6781.01,54.56,TRADE
VIC1,"2007/06/04 13:30:00",6827.23,59.73,TRADE
VIC1,"2007/06/04 14:00:00",6824.83,61.09,TRADE
VIC1,"2007/06/04 14:30:00",6768.78,58.98,TRADE
VIC1,"2007/06/04 15:00:00",6724.8,59.66,TRADE
VIC1,"2007/06/04 15:30:00",6668.74,54.4,TRADE
VIC1,"2007/06/04 16:00:00",6656.9,54.2,TRADE
VIC1,"2007/06/04 16:30:00",6720.63,57.46,TRADE
VIC1,"2007/06/04 17:00:00",6836.14,59.1,TRADE
VIC1,"2007/06/04 17:30:00",7185.11,91.07,TRADE
VIC1,"2007/06/04 18:00:00",7532.12,208.86,TRADE
VIC1,"2007/06/04 18:30:00",7470.2,127.93,TRADE
VIC1,"2007/06/04 19:00:00",7323.73,97.78,TRADE
VIC1,"2007/06/04 19:30:00",7142.18,75.17,TRADE
VIC1,"2007/06/04 20:00:00",7034.01,65.94,TRADE
VIC1,"2007/06/04 20:30:00",6887.96,70.19,TRADE
VIC1,"2007/06/04 21:00:00",6792.22,68.04,TRADE
VIC1,"2007/06/04 21:30:00",6577.19,71.48,TRADE
VIC1,"2007/06/04 22:00:00",6319.23,63.15,TRADE
VIC1,"2007/06/04 22:30:00",6091.87,65.22,TRADE
VIC1,"2007/06/04 23:00:00",5848.48,54.72,TRADE
VIC1,"2007/06/04 23:30:00",6053.14,60.94,TRADE
VIC1,"2007/06/05 00:00:00",5911.14,49.52,TRADE
VIC1,"2007/06/05 00:30:00",5751.2,49.11,TRADE
VIC1,"2007/06/05 01:00:00",5599.51,49.48,TRADE
VIC1,"2007/06/05 01:30:00",5964.88,58.32,TRADE
VIC1,"2007/06/05 02:00:00",5790.13,52.33,TRADE
VIC1,"2007/06/05 02:30:00",5574.58,45.76,TRADE
VIC1,"2007/06/05 03:00:00",5416.87,38.14,TRADE
VIC1,"2007/06/05 03:30:00",5242.26,30.21,TRADE
VIC1,"2007/06/05 04:00:00",5144.96,24.19,TRADE
VIC1,"2007/06/05 04:30:00",5094.15,22.23,TRADE
VIC1,"2007/06/05 05:00:00",5100.02,24.7,TRADE
VIC1,"2007/06/05 05:30:00",5216.76,34.43,TRADE
VIC1,"2007/06/05 06:00:00",5437.65,36.87,TRADE
VIC1,"2007/06/05 06:30:00",5853.92,50.82,TRADE
VIC1,"2007/06/05 07:00:00",6325.41,72.04,TRADE
VIC1,"2007/06/05 07:30:00",6662.03,59.46,TRADE
VIC1,"2007/06/05 08:00:00",7000.93,81.53,TRADE
VIC1,"2007/06/05 08:30:00",7105.83,74.66,TRADE
VIC1,"2007/06/05 09:00:00",7094.9,65.35,TRADE
VIC1,"2007/06/05 09:30:00",7148.52,67.81,TRADE
VIC1,"2007/06/05 10:00:00",7096.76,61.46,TRADE
VIC1,"2007/06/05 10:30:00",7024.86,59.2,TRADE
VIC1,"2007/06/05 11:00:00",6800.5,59.19,TRADE
VIC1,"2007/06/05 11:30:00",6918.38,63.42,TRADE
VIC1,"2007/06/05 12:00:00",6883.65,61.88,TRADE
VIC1,"2007/06/05 12:30:00",6808.94,57.05,TRADE
VIC1,"2007/06/05 13:00:00",6780.11,54.83,TRADE
VIC1,"2007/06/05 13:30:00",6809.18,55.79,TRADE
VIC1,"2007/06/05 14:00:00",6797.79,54.98,TRADE
VIC1,"2007/06/05 14:30:00",6780.53,53.63,TRADE
VIC1,"2007/06/05 15:00:00",6741.57,54.56,TRADE
VIC1,"2007/06/05 15:30:00",6742.43,55.99,TRADE
VIC1,"2007/06/05 16:00:00",6713.32,58.79,TRADE
VIC1,"2007/06/05 16:30:00",6812.56,67.13,TRADE
VIC1,"2007/06/05 17:00:00",6947.86,75.3,TRADE
VIC1,"2007/06/05 17:30:00",7180.16,105.06,TRADE
VIC1,"2007/06/05 18:00:00",7510.75,203.08,TRADE
VIC1,"2007/06/05 18:30:00",7552.61,136.53,TRADE
VIC1,"2007/06/05 19:00:00",7376.68,95.6,TRADE
VIC1,"2007/06/05 19:30:00",7193.88,75.11,TRADE
VIC1,"2007/06/05 20:00:00",7083.89,68.3,TRADE
VIC1,"2007/06/05 20:30:00",6916.61,73.69,TRADE
VIC1,"2007/06/05 21:00:00",6767.89,63.92,TRADE
VIC1,"2007/06/05 21:30:00",6568.15,58.6,TRADE
VIC1,"2007/06/05 22:00:00",6329.36,49.05,TRADE
VIC1,"2007/06/05 22:30:00",6108.72,59.8,TRADE
VIC1,"2007/06/05 23:00:00",5864.16,48.78,TRADE
VIC1,"2007/06/05 23:30:00",6095.97,58.07,TRADE
VIC1,"2007/06/06 00:00:00",5942.78,42.56,TRADE
VIC1,"2007/06/06 00:30:00",5745.22,42.89,TRADE
VIC1,"2007/06/06 01:00:00",5598.44,40.96,TRADE
VIC1,"2007/06/06 01:30:00",5924.96,44.99,TRADE
VIC1,"2007/06/06 02:00:00",5776.16,37.16,TRADE
VIC1,"2007/06/06 02:30:00",5596.73,37.59,TRADE
VIC1,"2007/06/06 03:00:00",5363.69,32.45,TRADE
VIC1,"2007/06/06 03:30:00",5248.35,26.22,TRADE
VIC1,"2007/06/06 04:00:00",5108.93,20.82,TRADE
VIC1,"2007/06/06 04:30:00",5082.32,20.87,TRADE
VIC1,"2007/06/06 05:00:00",5131.01,25.88,TRADE
VIC1,"2007/06/06 05:30:00",5209.02,29.8,TRADE
VIC1,"2007/06/06 06:00:00",5416.19,36.46,TRADE
VIC1,"2007/06/06 06:30:00",5816.28,49.85,TRADE
VIC1,"2007/06/06 07:00:00",6278.71,58.96,TRADE
VIC1,"2007/06/06 07:30:00",6579.3,55.5,TRADE
VIC1,"2007/06/06 08:00:00",6904.21,63.37,TRADE
VIC1,"2007/06/06 08:30:00",7011.41,63.63,TRADE
VIC1,"2007/06/06 09:00:00",6996.42,58.37,TRADE
VIC1,"2007/06/06 09:30:00",7084.73,63.71,TRADE
VIC1,"2007/06/06 10:00:00",7002.47,65.22,TRADE
VIC1,"2007/06/06 10:30:00",6929.53,59.95,TRADE
VIC1,"2007/06/06 11:00:00",6889.52,55.16,TRADE
VIC1,"2007/06/06 11:30:00",6847.43,57.76,TRADE
VIC1,"2007/06/06 12:00:00",6836.37,59.06,TRADE
VIC1,"2007/06/06 12:30:00",6767.93,58.13,TRADE
VIC1,"2007/06/06 13:00:00",6748.54,57.18,TRADE
VIC1,"2007/06/06 13:30:00",6755.21,54.99,TRADE
VIC1,"2007/06/06 14:00:00",6771.92,54.47,TRADE
VIC1,"2007/06/06 14:30:00",6709.09,54.28,TRADE
VIC1,"2007/06/06 15:00:00",6684.15,54.41,TRADE
VIC1,"2007/06/06 15:30:00",6616.71,54.09,TRADE
VIC1,"2007/06/06 16:00:00",6618.1,54.39,TRADE
VIC1,"2007/06/06 16:30:00",6686.22,56.98,TRADE
VIC1,"2007/06/06 17:00:00",6804.6,63.63,TRADE
VIC1,"2007/06/06 17:30:00",7124.64,109.13,TRADE
VIC1,"2007/06/06 18:00:00",7489.85,146.94,TRADE
VIC1,"2007/06/06 18:30:00",7450.35,129.35,TRADE
VIC1,"2007/06/06 19:00:00",7315.99,114.35,TRADE
VIC1,"2007/06/06 19:30:00",7108.87,73.82,TRADE
VIC1,"2007/06/06 20:00:00",6987.87,60.85,TRADE
VIC1,"2007/06/06 20:30:00",6851,57.1,TRADE
VIC1,"2007/06/06 21:00:00",6721.2,54.96,TRADE
VIC1,"2007/06/06 21:30:00",6520.9,57.28,TRADE
VIC1,"2007/06/06 22:00:00",6277.74,49.73,TRADE
VIC1,"2007/06/06 22:30:00",6001.33,59.24,TRADE
VIC1,"2007/06/06 23:00:00",5837.95,57.52,TRADE
VIC1,"2007/06/06 23:30:00",6033.07,66.93,TRADE
VIC1,"2007/06/07 00:00:00",5912.12,56.02,TRADE
VIC1,"2007/06/07 00:30:00",5723.76,49.85,TRADE
VIC1,"2007/06/07 01:00:00",5574.14,46.02,TRADE
VIC1,"2007/06/07 01:30:00",5952.03,55.24,TRADE
VIC1,"2007/06/07 02:00:00",5789.17,44.16,TRADE
VIC1,"2007/06/07 02:30:00",5582.06,44.46,TRADE
VIC1,"2007/06/07 03:00:00",5439.63,35.61,TRADE
VIC1,"2007/06/07 03:30:00",5252.35,25.69,TRADE
VIC1,"2007/06/07 04:00:00",5131.34,17.95,TRADE
VIC1,"2007/06/07 04:30:00",5010.89,16.14,TRADE
VIC1,"2007/06/07 05:00:00",5084.55,16.06,TRADE
VIC1,"2007/06/07 05:30:00",5230.37,20.75,TRADE
VIC1,"2007/06/07 06:00:00",5453.16,25.86,TRADE
VIC1,"2007/06/07 06:30:00",5911.76,48.83,TRADE
VIC1,"2007/06/07 07:00:00",6294.41,51.57,TRADE
VIC1,"2007/06/07 07:30:00",6667.04,51.73,TRADE
VIC1,"2007/06/07 08:00:00",6936.51,60.68,TRADE
VIC1,"2007/06/07 08:30:00",7066.77,82.95,TRADE
VIC1,"2007/06/07 09:00:00",7022.01,68.46,TRADE
VIC1,"2007/06/07 09:30:00",7041.28,68.42,TRADE
VIC1,"2007/06/07 10:00:00",6999.59,76.41,TRADE
VIC1,"2007/06/07 10:30:00",6970.14,68.23,TRADE
VIC1,"2007/06/07 11:00:00",6922.6,78.21,TRADE
VIC1,"2007/06/07 11:30:00",6647.39,54.55,TRADE
VIC1,"2007/06/07 12:00:00",6896.86,67.62,TRADE
VIC1,"2007/06/07 12:30:00",6871.71,80.71,TRADE
VIC1,"2007/06/07 13:00:00",6789.03,58.81,TRADE
VIC1,"2007/06/07 13:30:00",6876,64.38,TRADE
VIC1,"2007/06/07 14:00:00",6858.45,64.61,TRADE
VIC1,"2007/06/07 14:30:00",6848.38,67.98,TRADE
VIC1,"2007/06/07 15:00:00",6751.76,54.79,TRADE
VIC1,"2007/06/07 15:30:00",6733.01,52.88,TRADE
VIC1,"2007/06/07 16:00:00",6727.36,61.21,TRADE
VIC1,"2007/06/07 16:30:00",6768.08,69.39,TRADE
VIC1,"2007/06/07 17:00:00",6858.66,66.94,TRADE
VIC1,"2007/06/07 17:30:00",7148.7,106.97,TRADE
VIC1,"2007/06/07 18:00:00",7457.03,144.43,TRADE
VIC1,"2007/06/07 18:30:00",7481.66,83.53,TRADE
VIC1,"2007/06/07 19:00:00",7304.33,67.12,TRADE
VIC1,"2007/06/07 19:30:00",7162.39,58.56,TRADE
VIC1,"2007/06/07 20:00:00",7017.54,48.03,TRADE
VIC1,"2007/06/07 20:30:00",6888.21,61.3,TRADE
VIC1,"2007/06/07 21:00:00",6765.34,55.26,TRADE
VIC1,"2007/06/07 21:30:00",6519.32,60.96,TRADE
VIC1,"2007/06/07 22:00:00",6281.44,60.96,TRADE
VIC1,"2007/06/07 22:30:00",6033.79,93.17,TRADE
VIC1,"2007/06/07 23:00:00",5821.2,70.27,TRADE
VIC1,"2007/06/07 23:30:00",6063.09,75.86,TRADE
VIC1,"2007/06/08 00:00:00",5849.8,62.97,TRADE
VIC1,"2007/06/08 00:30:00",5662.55,56.57,TRADE
VIC1,"2007/06/08 01:00:00",5493.05,53.77,TRADE
VIC1,"2007/06/08 01:30:00",5827.49,57.7,TRADE
VIC1,"2007/06/08 02:00:00",5654.24,50.35,TRADE
VIC1,"2007/06/08 02:30:00",5450.55,51.75,TRADE
VIC1,"2007/06/08 03:00:00",5309.65,41.51,TRADE
VIC1,"2007/06/08 03:30:00",5120.73,38.75,TRADE
VIC1,"2007/06/08 04:00:00",5024.29,33.98,TRADE
VIC1,"2007/06/08 04:30:00",4974.75,35.39,TRADE
VIC1,"2007/06/08 05:00:00",5000.01,36.23,TRADE
VIC1,"2007/06/08 05:30:00",5079.1,44.86,TRADE
VIC1,"2007/06/08 06:00:00",5337.73,46.22,TRADE
VIC1,"2007/06/08 06:30:00",5734.75,56.7,TRADE
VIC1,"2007/06/08 07:00:00",6173.97,67,TRADE
VIC1,"2007/06/08 07:30:00",6484.28,60.96,TRADE
VIC1,"2007/06/08 08:00:00",6772.61,79.78,TRADE
VIC1,"2007/06/08 08:30:00",6882.94,86.84,TRADE
VIC1,"2007/06/08 09:00:00",6855.58,82.92,TRADE
VIC1,"2007/06/08 09:30:00",6901.01,89.03,TRADE
VIC1,"2007/06/08 10:00:00",6806.15,97.7,TRADE
VIC1,"2007/06/08 10:30:00",6736.89,90.64,TRADE
VIC1,"2007/06/08 11:00:00",6615.74,76.35,TRADE
VIC1,"2007/06/08 11:30:00",6609.11,76.75,TRADE
VIC1,"2007/06/08 12:00:00",6564.91,69.77,TRADE
VIC1,"2007/06/08 12:30:00",6508.91,54.65,TRADE
VIC1,"2007/06/08 13:00:00",6471.56,52.18,TRADE
VIC1,"2007/06/08 13:30:00",6556.57,81.97,TRADE
VIC1,"2007/06/08 14:00:00",6533.54,68.78,TRADE
VIC1,"2007/06/08 14:30:00",6421.2,55.49,TRADE
VIC1,"2007/06/08 15:00:00",6428.49,68.61,TRADE
VIC1,"2007/06/08 15:30:00",6369.68,71.41,TRADE
VIC1,"2007/06/08 16:00:00",6355.54,84.7,TRADE
VIC1,"2007/06/08 16:30:00",6429.29,102.28,TRADE
VIC1,"2007/06/08 17:00:00",6518.34,82.25,TRADE
VIC1,"2007/06/08 17:30:00",6814.84,164.69,TRADE
VIC1,"2007/06/08 18:00:00",7141.8,204.94,TRADE
VIC1,"2007/06/08 18:30:00",7113.18,130.73,TRADE
VIC1,"2007/06/08 19:00:00",6977.02,99.32,TRADE
VIC1,"2007/06/08 19:30:00",6785.86,73.21,TRADE
VIC1,"2007/06/08 20:00:00",6726.95,74.28,TRADE
VIC1,"2007/06/08 20:30:00",6583.61,78.5,TRADE
VIC1,"2007/06/08 21:00:00",6464.25,76.39,TRADE
VIC1,"2007/06/08 21:30:00",6305.49,70.85,TRADE
VIC1,"2007/06/08 22:00:00",6106.45,69.5,TRADE
VIC1,"2007/06/08 22:30:00",5959.96,96.86,TRADE
VIC1,"2007/06/08 23:00:00",5828.22,72.76,TRADE
VIC1,"2007/06/08 23:30:00",6111.96,82.09,TRADE
VIC1,"2007/06/09 00:00:00",5920.4,74.21,TRADE
VIC1,"2007/06/09 00:30:00",5694.71,73.12,TRADE
VIC1,"2007/06/09 01:00:00",5515.45,56.22,TRADE
VIC1,"2007/06/09 01:30:00",5851.99,60.48,TRADE
VIC1,"2007/06/09 02:00:00",5641.32,53.91,TRADE
VIC1,"2007/06/09 02:30:00",5406.26,39.83,TRADE
VIC1,"2007/06/09 03:00:00",5193.72,37.68,TRADE
VIC1,"2007/06/09 03:30:00",5144.92,43.46,TRADE
VIC1,"2007/06/09 04:00:00",4912.25,53.62,TRADE
VIC1,"2007/06/09 04:30:00",4810.37,49.13,TRADE
VIC1,"2007/06/09 05:00:00",4778.68,49.29,TRADE
VIC1,"2007/06/09 05:30:00",4802.36,51.51,TRADE
VIC1,"2007/06/09 06:00:00",4855.4,51.09,TRADE
VIC1,"2007/06/09 06:30:00",4977.46,66.85,TRADE
VIC1,"2007/06/09 07:00:00",5071.45,55.26,TRADE
VIC1,"2007/06/09 07:30:00",5116.7,50.03,TRADE
VIC1,"2007/06/09 08:00:00",5280.47,63.26,TRADE
VIC1,"2007/06/09 08:30:00",5509.15,85.06,TRADE
VIC1,"2007/06/09 09:00:00",5661.25,92.24,TRADE
VIC1,"2007/06/09 09:30:00",5769.63,106.55,TRADE
VIC1,"2007/06/09 10:00:00",5764.94,75.75,TRADE
VIC1,"2007/06/09 10:30:00",5724,74.64,TRADE
VIC1,"2007/06/09 11:00:00",5693.26,68.61,TRADE
VIC1,"2007/06/09 11:30:00",5570.65,60.54,TRADE
VIC1,"2007/06/09 12:00:00",5556.32,60.56,TRADE
VIC1,"2007/06/09 12:30:00",5450.25,58.9,TRADE
VIC1,"2007/06/09 13:00:00",5424.05,60.73,TRADE
VIC1,"2007/06/09 13:30:00",5456.59,64.95,TRADE
VIC1,"2007/06/09 14:00:00",5401.48,56.92,TRADE
VIC1,"2007/06/09 14:30:00",5367.15,54.17,TRADE
VIC1,"2007/06/09 15:00:00",5286.68,49.97,TRADE
VIC1,"2007/06/09 15:30:00",5292.64,50.78,TRADE
VIC1,"2007/06/09 16:00:00",5312.77,58.11,TRADE
VIC1,"2007/06/09 16:30:00",5356.72,57.29,TRADE
VIC1,"2007/06/09 17:00:00",5571.7,60.63,TRADE
VIC1,"2007/06/09 17:30:00",5965.95,73.29,TRADE
VIC1,"2007/06/09 18:00:00",6419.45,139.88,TRADE
VIC1,"2007/06/09 18:30:00",6443.41,85.8,TRADE
VIC1,"2007/06/09 19:00:00",6314.37,93.5,TRADE
VIC1,"2007/06/09 19:30:00",6154.71,76.75,TRADE
VIC1,"2007/06/09 20:00:00",6073.66,75.44,TRADE
VIC1,"2007/06/09 20:30:00",5970.36,67.9,TRADE
VIC1,"2007/06/09 21:00:00",5944.21,78.84,TRADE
VIC1,"2007/06/09 21:30:00",5839.86,69.79,TRADE
VIC1,"2007/06/09 22:00:00",5708.79,54.8,TRADE
VIC1,"2007/06/09 22:30:00",5639.84,72.14,TRADE
VIC1,"2007/06/09 23:00:00",5501.95,52.95,TRADE
VIC1,"2007/06/09 23:30:00",5740.52,64.51,TRADE
VIC1,"2007/06/10 00:00:00",5635.56,50.68,TRADE
VIC1,"2007/06/10 00:30:00",5499.51,58.4,TRADE
VIC1,"2007/06/10 01:00:00",5370,55.79,TRADE
VIC1,"2007/06/10 01:30:00",5676.53,59.44,TRADE
VIC1,"2007/06/10 02:00:00",5507.14,53.91,TRADE
VIC1,"2007/06/10 02:30:00",5300.22,48.16,TRADE
VIC1,"2007/06/10 03:00:00",5098.95,48.32,TRADE
VIC1,"2007/06/10 03:30:00",4964.33,44.72,TRADE
VIC1,"2007/06/10 04:00:00",4878.85,37.72,TRADE
VIC1,"2007/06/10 04:30:00",4793.17,36.98,TRADE
VIC1,"2007/06/10 05:00:00",4751.05,37.66,TRADE
VIC1,"2007/06/10 05:30:00",4739.34,35.57,TRADE
VIC1,"2007/06/10 06:00:00",4740.95,38.96,TRADE
VIC1,"2007/06/10 06:30:00",4776.47,40.1,TRADE
VIC1,"2007/06/10 07:00:00",4847.45,42.23,TRADE
VIC1,"2007/06/10 07:30:00",4818.43,36.75,TRADE
VIC1,"2007/06/10 08:00:00",4965.05,43.43,TRADE
VIC1,"2007/06/10 08:30:00",5206.8,51.15,TRADE
VIC1,"2007/06/10 09:00:00",5385.05,51.78,TRADE
VIC1,"2007/06/10 09:30:00",5474.46,55.47,TRADE
VIC1,"2007/06/10 10:00:00",5536.68,56.7,TRADE
VIC1,"2007/06/10 10:30:00",5567.88,56.59,TRADE
VIC1,"2007/06/10 11:00:00",5509.06,55.76,TRADE
VIC1,"2007/06/10 11:30:00",5431.98,52.6,TRADE
VIC1,"2007/06/10 12:00:00",5419.17,49.22,TRADE
VIC1,"2007/06/10 12:30:00",5359.59,47.22,TRADE
VIC1,"2007/06/10 13:00:00",5318.86,45.39,TRADE
VIC1,"2007/06/10 13:30:00",5395.77,49.29,TRADE
VIC1,"2007/06/10 14:00:00",5294.87,43.85,TRADE
VIC1,"2007/06/10 14:30:00",5276.83,43.62,TRADE
VIC1,"2007/06/10 15:00:00",5245.61,42.58,TRADE
VIC1,"2007/06/10 15:30:00",5304.26,47.2,TRADE
VIC1,"2007/06/10 16:00:00",5339.31,44.32,TRADE
VIC1,"2007/06/10 16:30:00",5443.28,49.22,TRADE
VIC1,"2007/06/10 17:00:00",5688.1,63.69,TRADE
VIC1,"2007/06/10 17:30:00",6048.52,68.17,TRADE
VIC1,"2007/06/10 18:00:00",6358.67,78.64,TRADE
VIC1,"2007/06/10 18:30:00",6410.59,74.19,TRADE
VIC1,"2007/06/10 19:00:00",6320.19,75.05,TRADE
VIC1,"2007/06/10 19:30:00",6151.85,68.28,TRADE
VIC1,"2007/06/10 20:00:00",6072.12,67.91,TRADE
VIC1,"2007/06/10 20:30:00",6015.3,72.61,TRADE
VIC1,"2007/06/10 21:00:00",5958,71.9,TRADE
VIC1,"2007/06/10 21:30:00",5849.87,64.12,TRADE
VIC1,"2007/06/10 22:00:00",5668.8,63.81,TRADE
VIC1,"2007/06/10 22:30:00",5537.32,75.59,TRADE
VIC1,"2007/06/10 23:00:00",5367.88,70.31,TRADE
VIC1,"2007/06/10 23:30:00",5586.11,71.02,TRADE
VIC1,"2007/06/11 00:00:00",5467.19,69.21,TRADE
VIC1,"2007/06/11 00:30:00",5292.77,57.97,TRADE
VIC1,"2007/06/11 01:00:00",5142.91,37.27,TRADE
VIC1,"2007/06/11 01:30:00",5472.75,47.09,TRADE
VIC1,"2007/06/11 02:00:00",5317.18,43.4,TRADE
VIC1,"2007/06/11 02:30:00",5150.87,47.11,TRADE
VIC1,"2007/06/11 03:00:00",4994.36,33.25,TRADE
VIC1,"2007/06/11 03:30:00",4860.06,32.15,TRADE
VIC1,"2007/06/11 04:00:00",4698.39,29.42,TRADE
VIC1,"2007/06/11 04:30:00",4674.74,30.52,TRADE
VIC1,"2007/06/11 05:00:00",4593.42,27.58,TRADE
VIC1,"2007/06/11 05:30:00",4615.7,27.94,TRADE
VIC1,"2007/06/11 06:00:00",4682.13,26.62,TRADE
VIC1,"2007/06/11 06:30:00",4787.99,36.25,TRADE
VIC1,"2007/06/11 07:00:00",4902.3,38.57,TRADE
VIC1,"2007/06/11 07:30:00",4908.28,33.74,TRADE
VIC1,"2007/06/11 08:00:00",5012.02,43.03,TRADE
VIC1,"2007/06/11 08:30:00",5211.01,51.15,TRADE
VIC1,"2007/06/11 09:00:00",5388.02,53.16,TRADE
VIC1,"2007/06/11 09:30:00",5510.38,60.38,TRADE
VIC1,"2007/06/11 10:00:00",5577.66,61.37,TRADE
VIC1,"2007/06/11 10:30:00",5471.54,60.1,TRADE
VIC1,"2007/06/11 11:00:00",5656.66,60.69,TRADE
VIC1,"2007/06/11 11:30:00",5603.26,57.3,TRADE
VIC1,"2007/06/11 12:00:00",5597.26,50.29,TRADE
VIC1,"2007/06/11 12:30:00",5576.68,54.71,TRADE
VIC1,"2007/06/11 13:00:00",5608.52,52.92,TRADE
VIC1,"2007/06/11 13:30:00",5650.49,50.97,TRADE
VIC1,"2007/06/11 14:00:00",5649.5,48.65,TRADE
VIC1,"2007/06/11 14:30:00",5643.99,50.63,TRADE
VIC1,"2007/06/11 15:00:00",5655.23,52.13,TRADE
VIC1,"2007/06/11 15:30:00",5703.46,55.39,TRADE
VIC1,"2007/06/11 16:00:00",5765.27,60.42,TRADE
VIC1,"2007/06/11 16:30:00",5802.58,60.06,TRADE
VIC1,"2007/06/11 17:00:00",6019.17,73.1,TRADE
VIC1,"2007/06/11 17:30:00",6350.97,123.12,TRADE
VIC1,"2007/06/11 18:00:00",6696.27,213.43,TRADE
VIC1,"2007/06/11 18:30:00",6724.79,182.69,TRADE
VIC1,"2007/06/11 19:00:00",6619.3,136.51,TRADE
VIC1,"2007/06/11 19:30:00",6456.73,81.98,TRADE
VIC1,"2007/06/11 20:00:00",6377.73,99.6,TRADE
VIC1,"2007/06/11 20:30:00",6290.6,93.54,TRADE
VIC1,"2007/06/11 21:00:00",6209.02,84.92,TRADE
VIC1,"2007/06/11 21:30:00",6016.58,77.82,TRADE
VIC1,"2007/06/11 22:00:00",5804.55,61.12,TRADE
VIC1,"2007/06/11 22:30:00",5540.41,74.57,TRADE
VIC1,"2007/06/11 23:00:00",5366.56,68.1,TRADE
VIC1,"2007/06/11 23:30:00",5620.76,80.77,TRADE
VIC1,"2007/06/12 00:00:00",5539,71.06,TRADE
VIC1,"2007/06/12 00:30:00",5415.02,57.84,TRADE
VIC1,"2007/06/12 01:00:00",5295.98,48.26,TRADE
VIC1,"2007/06/12 01:30:00",5649.24,74.26,TRADE
VIC1,"2007/06/12 02:00:00",5580.41,68.28,TRADE
VIC1,"2007/06/12 02:30:00",5357.77,58.49,TRADE
VIC1,"2007/06/12 03:00:00",5218.94,50.56,TRADE
VIC1,"2007/06/12 03:30:00",5073.35,47.29,TRADE
VIC1,"2007/06/12 04:00:00",4958.83,38.53,TRADE
VIC1,"2007/06/12 04:30:00",4915.75,42.03,TRADE
VIC1,"2007/06/12 05:00:00",4903.95,41.1,TRADE
VIC1,"2007/06/12 05:30:00",4997.83,48.87,TRADE
VIC1,"2007/06/12 06:00:00",5223.63,67.47,TRADE
VIC1,"2007/06/12 06:30:00",5672.42,84.8,TRADE
VIC1,"2007/06/12 07:00:00",6153.15,106.09,TRADE
VIC1,"2007/06/12 07:30:00",6478.28,107.66,TRADE
VIC1,"2007/06/12 08:00:00",6837.65,127.8,TRADE
VIC1,"2007/06/12 08:30:00",6982.3,128.25,TRADE
VIC1,"2007/06/12 09:00:00",6984.31,103.05,TRADE
VIC1,"2007/06/12 09:30:00",7079.19,90.28,TRADE
VIC1,"2007/06/12 10:00:00",7054.16,80.1,TRADE
VIC1,"2007/06/12 10:30:00",7000.55,78.26,TRADE
VIC1,"2007/06/12 11:00:00",6978.86,76.44,TRADE
VIC1,"2007/06/12 11:30:00",6922.19,73.93,TRADE
VIC1,"2007/06/12 12:00:00",6910.78,74.81,TRADE
VIC1,"2007/06/12 12:30:00",6899.62,82.58,TRADE
VIC1,"2007/06/12 13:00:00",6884.04,73.44,TRADE
VIC1,"2007/06/12 13:30:00",7031.91,69.53,TRADE
VIC1,"2007/06/12 14:00:00",7044.65,68.22,TRADE
VIC1,"2007/06/12 14:30:00",7013.77,70.53,TRADE
VIC1,"2007/06/12 15:00:00",6970.73,66.25,TRADE
VIC1,"2007/06/12 15:30:00",6950.22,67.01,TRADE
VIC1,"2007/06/12 16:00:00",6971.84,72.53,TRADE
VIC1,"2007/06/12 16:30:00",7024.2,84.27,TRADE
VIC1,"2007/06/12 17:00:00",7198.78,81.5,TRADE
VIC1,"2007/06/12 17:30:00",7425.48,171.86,TRADE
VIC1,"2007/06/12 18:00:00",7638.17,2761.49,TRADE
VIC1,"2007/06/12 18:30:00",7448.21,347.83,TRADE
VIC1,"2007/06/12 19:00:00",7266.53,335.88,TRADE
VIC1,"2007/06/12 19:30:00",7170.82,223.5,TRADE
VIC1,"2007/06/12 20:00:00",7087.97,164.26,TRADE
VIC1,"2007/06/12 20:30:00",6986.34,126.42,TRADE
VIC1,"2007/06/12 21:00:00",6844.82,123.33,TRADE
VIC1,"2007/06/12 21:30:00",6638.73,109,TRADE
VIC1,"2007/06/12 22:00:00",6387.5,85.7,TRADE
VIC1,"2007/06/12 22:30:00",6086.07,89.94,TRADE
VIC1,"2007/06/12 23:00:00",5851.36,70.05,TRADE
VIC1,"2007/06/12 23:30:00",6133.4,79.68,TRADE
VIC1,"2007/06/13 00:00:00",5951.08,85.63,TRADE
VIC1,"2007/06/13 00:30:00",5805.83,69.13,TRADE
VIC1,"2007/06/13 01:00:00",5646.68,53.77,TRADE
VIC1,"2007/06/13 01:30:00",6021.9,56.76,TRADE
VIC1,"2007/06/13 02:00:00",5852.5,47.31,TRADE
VIC1,"2007/06/13 02:30:00",5675.75,57.74,TRADE
VIC1,"2007/06/13 03:00:00",5495.48,57.44,TRADE
VIC1,"2007/06/13 03:30:00",5365.53,50.15,TRADE
VIC1,"2007/06/13 04:00:00",5219.4,40.1,TRADE
VIC1,"2007/06/13 04:30:00",5149.02,36.87,TRADE
VIC1,"2007/06/13 05:00:00",5177.16,38.61,TRADE
VIC1,"2007/06/13 05:30:00",5257.55,46.29,TRADE
VIC1,"2007/06/13 06:00:00",5433.21,41.77,TRADE
VIC1,"2007/06/13 06:30:00",5868.08,73.92,TRADE
VIC1,"2007/06/13 07:00:00",6316.5,120.21,TRADE
VIC1,"2007/06/13 07:30:00",6677,78.07,TRADE
VIC1,"2007/06/13 08:00:00",6991.07,115.86,TRADE
VIC1,"2007/06/13 08:30:00",7120.93,142.95,TRADE
VIC1,"2007/06/13 09:00:00",7117.31,95.93,TRADE
VIC1,"2007/06/13 09:30:00",7147.15,80,TRADE
VIC1,"2007/06/13 10:00:00",7111.72,88.58,TRADE
VIC1,"2007/06/13 10:30:00",7037.13,88.92,TRADE
VIC1,"2007/06/13 11:00:00",7016.22,76.62,TRADE
VIC1,"2007/06/13 11:30:00",7006.01,72.94,TRADE
VIC1,"2007/06/13 12:00:00",6984.81,77.15,TRADE
VIC1,"2007/06/13 12:30:00",6942.98,77.83,TRADE
VIC1,"2007/06/13 13:00:00",6912.9,78.57,TRADE
VIC1,"2007/06/13 13:30:00",7017.87,79.78,TRADE
VIC1,"2007/06/13 14:00:00",6999.64,74.79,TRADE
VIC1,"2007/06/13 14:30:00",6997.94,73.96,TRADE
VIC1,"2007/06/13 15:00:00",6990.19,74.26,TRADE
VIC1,"2007/06/13 15:30:00",6719.49,66.39,TRADE
VIC1,"2007/06/13 16:00:00",6928.46,71.84,TRADE
VIC1,"2007/06/13 16:30:00",7000.55,89.67,TRADE
VIC1,"2007/06/13 17:00:00",7119.52,97.39,TRADE
VIC1,"2007/06/13 17:30:00",7465.73,187.12,TRADE
VIC1,"2007/06/13 18:00:00",7763.16,3928.81,TRADE
VIC1,"2007/06/13 18:30:00",7741.94,3456.49,TRADE
VIC1,"2007/06/13 19:00:00",7584.04,3296.95,TRADE
VIC1,"2007/06/13 19:30:00",7390.31,1998.99,TRADE
VIC1,"2007/06/13 20:00:00",7250.5,73.37,TRADE
VIC1,"2007/06/13 20:30:00",7132.33,108.71,TRADE
VIC1,"2007/06/13 21:00:00",7003.07,85.14,TRADE
VIC1,"2007/06/13 21:30:00",6785.09,90.45,TRADE
VIC1,"2007/06/13 22:00:00",6589.53,68.46,TRADE
VIC1,"2007/06/13 22:30:00",6279.62,102.09,TRADE
VIC1,"2007/06/13 23:00:00",6052.66,70.46,TRADE
VIC1,"2007/06/13 23:30:00",6271.12,74.26,TRADE
VIC1,"2007/06/14 00:00:00",6143.4,76.75,TRADE
VIC1,"2007/06/14 00:30:00",6018.91,74.17,TRADE
VIC1,"2007/06/14 01:00:00",5876.41,62.74,TRADE
VIC1,"2007/06/14 01:30:00",6179.31,73.79,TRADE
VIC1,"2007/06/14 02:00:00",6032.99,47.19,TRADE
VIC1,"2007/06/14 02:30:00",5831.6,43.56,TRADE
VIC1,"2007/06/14 03:00:00",5694.04,59.52,TRADE
VIC1,"2007/06/14 03:30:00",5562.94,50.66,TRADE
VIC1,"2007/06/14 04:00:00",5397.33,32.8,TRADE
VIC1,"2007/06/14 04:30:00",5290.88,31.36,TRADE
VIC1,"2007/06/14 05:00:00",5378.73,38.03,TRADE
VIC1,"2007/06/14 05:30:00",5493.3,45.62,TRADE
VIC1,"2007/06/14 06:00:00",5729.05,45.77,TRADE
VIC1,"2007/06/14 06:30:00",6183.46,80.04,TRADE
VIC1,"2007/06/14 07:00:00",6686.48,131.4,TRADE
VIC1,"2007/06/14 07:30:00",7018.6,142.18,TRADE
VIC1,"2007/06/14 08:00:00",7302.82,199.26,TRADE
VIC1,"2007/06/14 08:30:00",7493.76,228.38,TRADE
VIC1,"2007/06/14 09:00:00",7506.77,195.48,TRADE
VIC1,"2007/06/14 09:30:00",7519.52,164.77,TRADE
VIC1,"2007/06/14 10:00:00",7483.23,117.47,TRADE
VIC1,"2007/06/14 10:30:00",7368.74,129.98,TRADE
VIC1,"2007/06/14 11:00:00",7281.37,117.35,TRADE
VIC1,"2007/06/14 11:30:00",7186.65,104.69,TRADE
VIC1,"2007/06/14 12:00:00",7112.29,103.03,TRADE
VIC1,"2007/06/14 12:30:00",7063.25,108.34,TRADE
VIC1,"2007/06/14 13:00:00",7017.73,106.86,TRADE
VIC1,"2007/06/14 13:30:00",7109.31,98.64,TRADE
VIC1,"2007/06/14 14:00:00",7044.4,112.1,TRADE
VIC1,"2007/06/14 14:30:00",7044.63,115.52,TRADE
VIC1,"2007/06/14 15:00:00",6996.6,101.77,TRADE
VIC1,"2007/06/14 15:30:00",6941.34,101.22,TRADE
VIC1,"2007/06/14 16:00:00",6911.21,140.25,TRADE
VIC1,"2007/06/14 16:30:00",6908.37,154.73,TRADE
VIC1,"2007/06/14 17:00:00",7007.02,72.64,TRADE
VIC1,"2007/06/14 17:30:00",7374.97,84.75,TRADE
VIC1,"2007/06/14 18:00:00",7725.51,3145.27,TRADE
VIC1,"2007/06/14 18:30:00",7694.48,1077.74,TRADE
VIC1,"2007/06/14 19:00:00",7508.12,830.05,TRADE
VIC1,"2007/06/14 19:30:00",7413.99,188.47,TRADE
VIC1,"2007/06/14 20:00:00",7357.78,272.8,TRADE
VIC1,"2007/06/14 20:30:00",7230.89,209.02,TRADE
VIC1,"2007/06/14 21:00:00",7133.76,169.14,TRADE
VIC1,"2007/06/14 21:30:00",6901.68,143.05,TRADE
VIC1,"2007/06/14 22:00:00",6650.04,151.66,TRADE
VIC1,"2007/06/14 22:30:00",6370.85,139.57,TRADE
VIC1,"2007/06/14 23:00:00",6142.07,112.54,TRADE
VIC1,"2007/06/14 23:30:00",6375.8,120.41,TRADE
VIC1,"2007/06/15 00:00:00",6175.31,93.39,TRADE
VIC1,"2007/06/15 00:30:00",6011.54,63.84,TRADE
VIC1,"2007/06/15 01:00:00",5825.64,55.75,TRADE
VIC1,"2007/06/15 01:30:00",6204.01,83.9,TRADE
VIC1,"2007/06/15 02:00:00",6005.93,58.59,TRADE
VIC1,"2007/06/15 02:30:00",5806.49,70.66,TRADE
VIC1,"2007/06/15 03:00:00",5667.81,58.48,TRADE
VIC1,"2007/06/15 03:30:00",5535.09,54.66,TRADE
VIC1,"2007/06/15 04:00:00",5421.61,56.02,TRADE
VIC1,"2007/06/15 04:30:00",5376.71,48.93,TRADE
VIC1,"2007/06/15 05:00:00",5395.75,50.14,TRADE
VIC1,"2007/06/15 05:30:00",5493.6,53.86,TRADE
VIC1,"2007/06/15 06:00:00",5699.42,59.8,TRADE
VIC1,"2007/06/15 06:30:00",6147.32,88.85,TRADE
VIC1,"2007/06/15 07:00:00",6624.37,112.98,TRADE
VIC1,"2007/06/15 07:30:00",6928.52,120.78,TRADE
VIC1,"2007/06/15 08:00:00",7312.69,220.51,TRADE
VIC1,"2007/06/15 08:30:00",7461.79,217.29,TRADE
VIC1,"2007/06/15 09:00:00",7474.73,191.64,TRADE
VIC1,"2007/06/15 09:30:00",7581.21,238.34,TRADE
VIC1,"2007/06/15 10:00:00",7531.39,152.69,TRADE
VIC1,"2007/06/15 10:30:00",7445.58,154.01,TRADE
VIC1,"2007/06/15 11:00:00",7387.21,154.87,TRADE
VIC1,"2007/06/15 11:30:00",7248.26,120.06,TRADE
VIC1,"2007/06/15 12:00:00",7279.54,137.27,TRADE
VIC1,"2007/06/15 12:30:00",7173.32,113.08,TRADE
VIC1,"2007/06/15 13:00:00",7094.46,99.2,TRADE
VIC1,"2007/06/15 13:30:00",7126.41,134.37,TRADE
VIC1,"2007/06/15 14:00:00",7019.44,93.68,TRADE
VIC1,"2007/06/15 14:30:00",6901.52,85.06,TRADE
VIC1,"2007/06/15 15:00:00",6786.36,90.52,TRADE
VIC1,"2007/06/15 15:30:00",6705.64,88.52,TRADE
VIC1,"2007/06/15 16:00:00",6681.82,99.82,TRADE
VIC1,"2007/06/15 16:30:00",6696.12,126.93,TRADE
VIC1,"2007/06/15 17:00:00",6877.44,110.14,TRADE
VIC1,"2007/06/15 17:30:00",7193.1,506.61,TRADE
VIC1,"2007/06/15 18:00:00",7588.21,696.86,TRADE
VIC1,"2007/06/15 18:30:00",7570.84,108.16,TRADE
VIC1,"2007/06/15 19:00:00",7444.45,68.1,TRADE
VIC1,"2007/06/15 19:30:00",7211.21,154.68,TRADE
VIC1,"2007/06/15 20:00:00",7158.3,123.95,TRADE
VIC1,"2007/06/15 20:30:00",7009.93,162.62,TRADE
VIC1,"2007/06/15 21:00:00",6899.84,172.77,TRADE
VIC1,"2007/06/15 21:30:00",6692.81,149.92,TRADE
VIC1,"2007/06/15 22:00:00",6521.21,120.2,TRADE
VIC1,"2007/06/15 22:30:00",6384.41,144.5,TRADE
VIC1,"2007/06/15 23:00:00",6199.88,175.09,TRADE
VIC1,"2007/06/15 23:30:00",6503.49,201.36,TRADE
VIC1,"2007/06/16 00:00:00",6286.53,147,TRADE
VIC1,"2007/06/16 00:30:00",6078.86,111.76,TRADE
VIC1,"2007/06/16 01:00:00",5904.82,100.87,TRADE
VIC1,"2007/06/16 01:30:00",6187.81,93.62,TRADE
VIC1,"2007/06/16 02:00:00",5991.73,63.63,TRADE
VIC1,"2007/06/16 02:30:00",5736.22,73.48,TRADE
VIC1,"2007/06/16 03:00:00",5544.06,77.41,TRADE
VIC1,"2007/06/16 03:30:00",5414.95,69.69,TRADE
VIC1,"2007/06/16 04:00:00",5258.02,63.28,TRADE
VIC1,"2007/06/16 04:30:00",5194.05,58.63,TRADE
VIC1,"2007/06/16 05:00:00",5154.66,60.07,TRADE
VIC1,"2007/06/16 05:30:00",5149.8,58.22,TRADE
VIC1,"2007/06/16 06:00:00",5217.76,66.41,TRADE
VIC1,"2007/06/16 06:30:00",5355.08,64.65,TRADE
VIC1,"2007/06/16 07:00:00",5483.55,62.71,TRADE
VIC1,"2007/06/16 07:30:00",5572.43,47.45,TRADE
VIC1,"2007/06/16 08:00:00",5821.38,78.61,TRADE
VIC1,"2007/06/16 08:30:00",6097.46,145.14,TRADE
VIC1,"2007/06/16 09:00:00",6278.11,140.19,TRADE
VIC1,"2007/06/16 09:30:00",6436.23,211.34,TRADE
VIC1,"2007/06/16 10:00:00",6436.9,119.94,TRADE
VIC1,"2007/06/16 10:30:00",6437.15,156.66,TRADE
VIC1,"2007/06/16 11:00:00",6391.45,111.41,TRADE
VIC1,"2007/06/16 11:30:00",6345.03,90.81,TRADE
VIC1,"2007/06/16 12:00:00",6329.3,134.56,TRADE
VIC1,"2007/06/16 12:30:00",6218.85,112.12,TRADE
VIC1,"2007/06/16 13:00:00",6119.04,98.6,TRADE
VIC1,"2007/06/16 13:30:00",6113.42,93.27,TRADE
VIC1,"2007/06/16 14:00:00",6092.6,93.78,TRADE
VIC1,"2007/06/16 14:30:00",6046.79,95.28,TRADE
VIC1,"2007/06/16 15:00:00",5966.45,90.8,TRADE
VIC1,"2007/06/16 15:30:00",5942.71,87.84,TRADE
VIC1,"2007/06/16 16:00:00",5983.82,94.81,TRADE
VIC1,"2007/06/16 16:30:00",6008.91,101.06,TRADE
VIC1,"2007/06/16 17:00:00",6175.59,120.25,TRADE
VIC1,"2007/06/16 17:30:00",6528.05,215.8,TRADE
VIC1,"2007/06/16 18:00:00",6704.44,2882.13,TRADE
VIC1,"2007/06/16 18:30:00",6644.62,139.42,TRADE
VIC1,"2007/06/16 19:00:00",6656.4,166.91,TRADE
VIC1,"2007/06/16 19:30:00",6550.98,143.84,TRADE
VIC1,"2007/06/16 20:00:00",6428.49,134.97,TRADE
VIC1,"2007/06/16 20:30:00",6323.79,117.49,TRADE
VIC1,"2007/06/16 21:00:00",6250.13,116.73,TRADE
VIC1,"2007/06/16 21:30:00",6135.79,112.16,TRADE
VIC1,"2007/06/16 22:00:00",5961.56,103.1,TRADE
VIC1,"2007/06/16 22:30:00",5847.21,172.12,TRADE
VIC1,"2007/06/16 23:00:00",5748.49,119.7,TRADE
VIC1,"2007/06/16 23:30:00",5943.82,125.97,TRADE
VIC1,"2007/06/17 00:00:00",5837.27,104.91,TRADE
VIC1,"2007/06/17 00:30:00",5673.43,99.11,TRADE
VIC1,"2007/06/17 01:00:00",5530.84,86.38,TRADE
VIC1,"2007/06/17 01:30:00",5899.67,99.52,TRADE
VIC1,"2007/06/17 02:00:00",5694.38,74.94,TRADE
VIC1,"2007/06/17 02:30:00",5454.86,74.09,TRADE
VIC1,"2007/06/17 03:00:00",5259.43,84.35,TRADE
VIC1,"2007/06/17 03:30:00",5155.61,61.01,TRADE
VIC1,"2007/06/17 04:00:00",5030.94,58.87,TRADE
VIC1,"2007/06/17 04:30:00",4911.97,53.81,TRADE
VIC1,"2007/06/17 05:00:00",4846.21,46.11,TRADE
VIC1,"2007/06/17 05:30:00",4817.17,52.89,TRADE
VIC1,"2007/06/17 06:00:00",4832.32,60.19,TRADE
VIC1,"2007/06/17 06:30:00",4874.45,44.7,TRADE
VIC1,"2007/06/17 07:00:00",4952.83,55.33,TRADE
VIC1,"2007/06/17 07:30:00",4933.86,47.24,TRADE
VIC1,"2007/06/17 08:00:00",5075.37,56.76,TRADE
VIC1,"2007/06/17 08:30:00",5308.75,63.19,TRADE
VIC1,"2007/06/17 09:00:00",5492.15,72.78,TRADE
VIC1,"2007/06/17 09:30:00",5624.76,74.01,TRADE
VIC1,"2007/06/17 10:00:00",5706.59,71.57,TRADE
VIC1,"2007/06/17 10:30:00",5740.83,73.44,TRADE
VIC1,"2007/06/17 11:00:00",5760.49,76.71,TRADE
VIC1,"2007/06/17 11:30:00",5713.33,77.07,TRADE
VIC1,"2007/06/17 12:00:00",5678.72,70.7,TRADE
VIC1,"2007/06/17 12:30:00",5665.27,68.45,TRADE
VIC1,"2007/06/17 13:00:00",5659.91,64.33,TRADE
VIC1,"2007/06/17 13:30:00",5760.08,66.01,TRADE
VIC1,"2007/06/17 14:00:00",5743.38,55.32,TRADE
VIC1,"2007/06/17 14:30:00",5791.98,47.63,TRADE
VIC1,"2007/06/17 15:00:00",5808.1,40.98,TRADE
VIC1,"2007/06/17 15:30:00",5873.75,47.87,TRADE
VIC1,"2007/06/17 16:00:00",5962.9,48.55,TRADE
VIC1,"2007/06/17 16:30:00",6044.14,60.42,TRADE
VIC1,"2007/06/17 17:00:00",6276.54,80.29,TRADE
VIC1,"2007/06/17 17:30:00",6652.38,100.98,TRADE
VIC1,"2007/06/17 18:00:00",6916.68,138.74,TRADE
VIC1,"2007/06/17 18:30:00",6926.62,137.9,TRADE
VIC1,"2007/06/17 19:00:00",6812.04,121.82,TRADE
VIC1,"2007/06/17 19:30:00",6685.37,124.76,TRADE
VIC1,"2007/06/17 20:00:00",6567.8,100.79,TRADE
VIC1,"2007/06/17 20:30:00",6480.92,86.24,TRADE
VIC1,"2007/06/17 21:00:00",6387.98,77.38,TRADE
VIC1,"2007/06/17 21:30:00",6194.9,57.49,TRADE
VIC1,"2007/06/17 22:00:00",6017.01,57.04,TRADE
VIC1,"2007/06/17 22:30:00",5798.63,72.18,TRADE
VIC1,"2007/06/17 23:00:00",5570.49,55.09,TRADE
VIC1,"2007/06/17 23:30:00",5730.72,54.15,TRADE
VIC1,"2007/06/18 00:00:00",5625.79,49.06,TRADE
VIC1,"2007/06/18 00:30:00",5539.6,50.98,TRADE
VIC1,"2007/06/18 01:00:00",5431.64,49.17,TRADE
VIC1,"2007/06/18 01:30:00",5820.2,58.8,TRADE
VIC1,"2007/06/18 02:00:00",5693.42,52.58,TRADE
VIC1,"2007/06/18 02:30:00",5485.46,40.4,TRADE
VIC1,"2007/06/18 03:00:00",5378.56,37.87,TRADE
VIC1,"2007/06/18 03:30:00",5248.39,32.41,TRADE
VIC1,"2007/06/18 04:00:00",5149.7,23.2,TRADE
VIC1,"2007/06/18 04:30:00",5139.2,32.38,TRADE
VIC1,"2007/06/18 05:00:00",5134.27,33.98,TRADE
VIC1,"2007/06/18 05:30:00",5308.61,44.24,TRADE
VIC1,"2007/06/18 06:00:00",5515.53,50.46,TRADE
VIC1,"2007/06/18 06:30:00",5953.68,67.61,TRADE
VIC1,"2007/06/18 07:00:00",6453.65,82.3,TRADE
VIC1,"2007/06/18 07:30:00",6808,66.9,TRADE
VIC1,"2007/06/18 08:00:00",7214.85,98.13,TRADE
VIC1,"2007/06/18 08:30:00",7343.31,109.49,TRADE
VIC1,"2007/06/18 09:00:00",7405.67,86.3,TRADE
VIC1,"2007/06/18 09:30:00",7488.48,92.79,TRADE
VIC1,"2007/06/18 10:00:00",7481.4,91.49,TRADE
VIC1,"2007/06/18 10:30:00",7401.7,91.83,TRADE
VIC1,"2007/06/18 11:00:00",7333.35,123.17,TRADE
VIC1,"2007/06/18 11:30:00",7263.24,112.17,TRADE
VIC1,"2007/06/18 12:00:00",7193.28,148.95,TRADE
VIC1,"2007/06/18 12:30:00",7116.89,164.77,TRADE
VIC1,"2007/06/18 13:00:00",7131.66,149.96,TRADE
VIC1,"2007/06/18 13:30:00",7176.31,158.43,TRADE
VIC1,"2007/06/18 14:00:00",7114.99,162.39,TRADE
VIC1,"2007/06/18 14:30:00",6961.05,194.61,TRADE
VIC1,"2007/06/18 15:00:00",6983.35,188.12,TRADE
VIC1,"2007/06/18 15:30:00",7004.54,157.12,TRADE
VIC1,"2007/06/18 16:00:00",7005.06,198.1,TRADE
VIC1,"2007/06/18 16:30:00",7087.95,249.25,TRADE
VIC1,"2007/06/18 17:00:00",7253.22,240.93,TRADE
VIC1,"2007/06/18 17:30:00",7646.27,978.27,TRADE
VIC1,"2007/06/18 18:00:00",7980.86,1928.61,TRADE
VIC1,"2007/06/18 18:30:00",7898.03,602.64,TRADE
VIC1,"2007/06/18 19:00:00",7748.22,332.33,TRADE
VIC1,"2007/06/18 19:30:00",7563.64,267.38,TRADE
VIC1,"2007/06/18 20:00:00",7495.53,214.5,TRADE
VIC1,"2007/06/18 20:30:00",7353.24,277.45,TRADE
VIC1,"2007/06/18 21:00:00",7139.15,224.5,TRADE
VIC1,"2007/06/18 21:30:00",6896.12,242.07,TRADE
VIC1,"2007/06/18 22:00:00",6660.11,165.69,TRADE
VIC1,"2007/06/18 22:30:00",6352.69,242.36,TRADE
VIC1,"2007/06/18 23:00:00",6074.64,190.55,TRADE
VIC1,"2007/06/18 23:30:00",6301.09,181.82,TRADE
VIC1,"2007/06/19 00:00:00",6126.43,126.57,TRADE
VIC1,"2007/06/19 00:30:00",5956.96,90.01,TRADE
VIC1,"2007/06/19 01:00:00",5889.41,100.26,TRADE
VIC1,"2007/06/19 01:30:00",6226.5,84.73,TRADE
VIC1,"2007/06/19 02:00:00",6082.91,78.24,TRADE
VIC1,"2007/06/19 02:30:00",5869.8,58.53,TRADE
VIC1,"2007/06/19 03:00:00",5707.73,58.33,TRADE
VIC1,"2007/06/19 03:30:00",5551.68,50.85,TRADE
VIC1,"2007/06/19 04:00:00",5401.25,48.77,TRADE
VIC1,"2007/06/19 04:30:00",5376.37,47.77,TRADE
VIC1,"2007/06/19 05:00:00",5320.81,46.59,TRADE
VIC1,"2007/06/19 05:30:00",5491.16,51.54,TRADE
VIC1,"2007/06/19 06:00:00",5668.17,55.23,TRADE
VIC1,"2007/06/19 06:30:00",6110.45,104.29,TRADE
VIC1,"2007/06/19 07:00:00",6607.57,83.85,TRADE
VIC1,"2007/06/19 07:30:00",6997.34,68.08,TRADE
VIC1,"2007/06/19 08:00:00",7328.98,152.7,TRADE
VIC1,"2007/06/19 08:30:00",7473.79,190.17,TRADE
VIC1,"2007/06/19 09:00:00",7421.18,133.38,TRADE
VIC1,"2007/06/19 09:30:00",7471.36,136.27,TRADE
VIC1,"2007/06/19 10:00:00",7476.52,139.52,TRADE
VIC1,"2007/06/19 10:30:00",7416.74,138.38,TRADE
VIC1,"2007/06/19 11:00:00",7384.36,162.43,TRADE
VIC1,"2007/06/19 11:30:00",7380.99,221.86,TRADE
VIC1,"2007/06/19 12:00:00",7387.36,210.67,TRADE
VIC1,"2007/06/19 12:30:00",7359.85,221.48,TRADE
VIC1,"2007/06/19 13:00:00",7325.61,190.15,TRADE
VIC1,"2007/06/19 13:30:00",7457.26,239.51,TRADE
VIC1,"2007/06/19 14:00:00",7409.16,203.63,TRADE
VIC1,"2007/06/19 14:30:00",7420.85,239.18,TRADE
VIC1,"2007/06/19 15:00:00",7350.66,213.82,TRADE
VIC1,"2007/06/19 15:30:00",7334.74,167.8,TRADE
VIC1,"2007/06/19 16:00:00",7313.23,198.59,TRADE
VIC1,"2007/06/19 16:30:00",7357.15,274.71,TRADE
VIC1,"2007/06/19 17:00:00",7541.72,266.43,TRADE
VIC1,"2007/06/19 17:30:00",7828.83,1528.29,TRADE
VIC1,"2007/06/19 18:00:00",8017.82,3875.54,TRADE
VIC1,"2007/06/19 18:30:00",7929.17,648.46,TRADE
VIC1,"2007/06/19 19:00:00",7771.26,206.54,TRADE
VIC1,"2007/06/19 19:30:00",7611.12,180.94,TRADE
VIC1,"2007/06/19 20:00:00",7452.33,194.81,TRADE
VIC1,"2007/06/19 20:30:00",7270.71,185.1,TRADE
VIC1,"2007/06/19 21:00:00",7086.91,187.78,TRADE
VIC1,"2007/06/19 21:30:00",6870.25,147.49,TRADE
VIC1,"2007/06/19 22:00:00",6617.88,128.72,TRADE
VIC1,"2007/06/19 22:30:00",6366.53,206.86,TRADE
VIC1,"2007/06/19 23:00:00",6052.26,179.93,TRADE
VIC1,"2007/06/19 23:30:00",6257.91,188.98,TRADE
VIC1,"2007/06/20 00:00:00",6043.04,136.58,TRADE
VIC1,"2007/06/20 00:30:00",5992.44,138.75,TRADE
VIC1,"2007/06/20 01:00:00",5819.81,87.36,TRADE
VIC1,"2007/06/20 01:30:00",6203.51,110.31,TRADE
VIC1,"2007/06/20 02:00:00",6053.32,98.72,TRADE
VIC1,"2007/06/20 02:30:00",5858.4,60.31,TRADE
VIC1,"2007/06/20 03:00:00",5634.95,55.59,TRADE
VIC1,"2007/06/20 03:30:00",5489.4,41.53,TRADE
VIC1,"2007/06/20 04:00:00",5331.98,27.53,TRADE
VIC1,"2007/06/20 04:30:00",5281.14,31.59,TRADE
VIC1,"2007/06/20 05:00:00",5306.39,35.22,TRADE
VIC1,"2007/06/20 05:30:00",5425.49,44.78,TRADE
VIC1,"2007/06/20 06:00:00",5625.23,68.15,TRADE
VIC1,"2007/06/20 06:30:00",6121.05,131.47,TRADE
VIC1,"2007/06/20 07:00:00",6611.67,173.54,TRADE
VIC1,"2007/06/20 07:30:00",6933.32,210.37,TRADE
VIC1,"2007/06/20 08:00:00",7289.06,290.17,TRADE
VIC1,"2007/06/20 08:30:00",7453.52,346.62,TRADE
VIC1,"2007/06/20 09:00:00",7484.42,240.68,TRADE
VIC1,"2007/06/20 09:30:00",7581.88,263.26,TRADE
VIC1,"2007/06/20 10:00:00",7575.51,246.45,TRADE
VIC1,"2007/06/20 10:30:00",7517.62,207.48,TRADE
VIC1,"2007/06/20 11:00:00",7462.27,180.84,TRADE
VIC1,"2007/06/20 11:30:00",7408.73,229.07,TRADE
VIC1,"2007/06/20 12:00:00",7349.63,165.37,TRADE
VIC1,"2007/06/20 12:30:00",7284.61,273.79,TRADE
VIC1,"2007/06/20 13:00:00",7267.94,243.1,TRADE
VIC1,"2007/06/20 13:30:00",7359.71,237.86,TRADE
VIC1,"2007/06/20 14:00:00",7391.06,190.71,TRADE
VIC1,"2007/06/20 14:30:00",7309.78,141.69,TRADE
VIC1,"2007/06/20 15:00:00",7298.69,115.35,TRADE
VIC1,"2007/06/20 15:30:00",7279.59,108.67,TRADE
VIC1,"2007/06/20 16:00:00",7282.56,176.88,TRADE
VIC1,"2007/06/20 16:30:00",7242.26,158.72,TRADE
VIC1,"2007/06/20 17:00:00",7378.68,144.39,TRADE
VIC1,"2007/06/20 17:30:00",7676.91,204.89,TRADE
VIC1,"2007/06/20 18:00:00",7774.69,1979.06,TRADE
VIC1,"2007/06/20 18:30:00",7583.48,900.56,TRADE
VIC1,"2007/06/20 19:00:00",7670.19,92.64,TRADE
VIC1,"2007/06/20 19:30:00",7630.59,186.16,TRADE
VIC1,"2007/06/20 20:00:00",7478.64,164.14,TRADE
VIC1,"2007/06/20 20:30:00",7328.86,197.34,TRADE
VIC1,"2007/06/20 21:00:00",7188.24,188.87,TRADE
VIC1,"2007/06/20 21:30:00",6958.73,178.25,TRADE
VIC1,"2007/06/20 22:00:00",6700.49,146.53,TRADE
VIC1,"2007/06/20 22:30:00",6411.71,186.94,TRADE
VIC1,"2007/06/20 23:00:00",6156.69,157.31,TRADE
VIC1,"2007/06/20 23:30:00",6399.19,198.33,TRADE
VIC1,"2007/06/21 00:00:00",6220.51,105.61,TRADE
VIC1,"2007/06/21 00:30:00",6041.15,75.35,TRADE
VIC1,"2007/06/21 01:00:00",5882.2,67.25,TRADE
VIC1,"2007/06/21 01:30:00",6223.89,95.22,TRADE
VIC1,"2007/06/21 02:00:00",6004.73,74.97,TRADE
VIC1,"2007/06/21 02:30:00",5828.94,60.2,TRADE
VIC1,"2007/06/21 03:00:00",5666.12,56.86,TRADE
VIC1,"2007/06/21 03:30:00",5473.17,40.04,TRADE
VIC1,"2007/06/21 04:00:00",5344.45,19.22,TRADE
VIC1,"2007/06/21 04:30:00",5250.86,20.5,TRADE
VIC1,"2007/06/21 05:00:00",5238,23.85,TRADE
VIC1,"2007/06/21 05:30:00",5316.72,40.36,TRADE
VIC1,"2007/06/21 06:00:00",5525.63,50.24,TRADE
VIC1,"2007/06/21 06:30:00",6006.89,89.27,TRADE
VIC1,"2007/06/21 07:00:00",6485.33,135.71,TRADE
VIC1,"2007/06/21 07:30:00",6855.09,104.59,TRADE
VIC1,"2007/06/21 08:00:00",7198.83,270.54,TRADE
VIC1,"2007/06/21 08:30:00",7329.38,235.21,TRADE
VIC1,"2007/06/21 09:00:00",7281.33,146.17,TRADE
VIC1,"2007/06/21 09:30:00",7331.75,134.02,TRADE
VIC1,"2007/06/21 10:00:00",7290.33,90.28,TRADE
VIC1,"2007/06/21 10:30:00",7195,94.92,TRADE
VIC1,"2007/06/21 11:00:00",7128.03,90.76,TRADE
VIC1,"2007/06/21 11:30:00",7083.37,113.07,TRADE
VIC1,"2007/06/21 12:00:00",7062.85,94.24,TRADE
VIC1,"2007/06/21 12:30:00",7024.43,121.12,TRADE
VIC1,"2007/06/21 13:00:00",7057.9,95.59,TRADE
VIC1,"2007/06/21 13:30:00",7177.49,102.4,TRADE
VIC1,"2007/06/21 14:00:00",7187.04,96.14,TRADE
VIC1,"2007/06/21 14:30:00",7157.07,101.18,TRADE
VIC1,"2007/06/21 15:00:00",7105.77,89.91,TRADE
VIC1,"2007/06/21 15:30:00",7044.9,79.34,TRADE
VIC1,"2007/06/21 16:00:00",7041.14,101.01,TRADE
VIC1,"2007/06/21 16:30:00",7096.51,115.55,TRADE
VIC1,"2007/06/21 17:00:00",7301.05,93.22,TRADE
VIC1,"2007/06/21 17:30:00",7641.05,183.98,TRADE
VIC1,"2007/06/21 18:00:00",7954.31,269.27,TRADE
VIC1,"2007/06/21 18:30:00",7957.23,290.28,TRADE
VIC1,"2007/06/21 19:00:00",7791.48,275.28,TRADE
VIC1,"2007/06/21 19:30:00",7614.69,232.5,TRADE
VIC1,"2007/06/21 20:00:00",7500.39,237.63,TRADE
VIC1,"2007/06/21 20:30:00",7341.58,263.5,TRADE
VIC1,"2007/06/21 21:00:00",7260.5,205.81,TRADE
VIC1,"2007/06/21 21:30:00",7009.75,180.59,TRADE
VIC1,"2007/06/21 22:00:00",6775.49,95.22,TRADE
VIC1,"2007/06/21 22:30:00",6472.03,147.3,TRADE
VIC1,"2007/06/21 23:00:00",6284.69,135.33,TRADE
VIC1,"2007/06/21 23:30:00",6480.52,197.79,TRADE
VIC1,"2007/06/22 00:00:00",6317.07,137.46,TRADE
VIC1,"2007/06/22 00:30:00",6105.09,128.47,TRADE
VIC1,"2007/06/22 01:00:00",5946.24,104.29,TRADE
VIC1,"2007/06/22 01:30:00",6280.73,115.19,TRADE
VIC1,"2007/06/22 02:00:00",6110.61,105.83,TRADE
VIC1,"2007/06/22 02:30:00",5879.95,103.34,TRADE
VIC1,"2007/06/22 03:00:00",5714.51,67.96,TRADE
VIC1,"2007/06/22 03:30:00",5510.24,57.76,TRADE
VIC1,"2007/06/22 04:00:00",5429.19,47.52,TRADE
VIC1,"2007/06/22 04:30:00",5348.28,52.25,TRADE
VIC1,"2007/06/22 05:00:00",5387.87,55.92,TRADE
VIC1,"2007/06/22 05:30:00",5507.53,67.71,TRADE
VIC1,"2007/06/22 06:00:00",5729.56,80.49,TRADE
VIC1,"2007/06/22 06:30:00",6182.64,98.82,TRADE
VIC1,"2007/06/22 07:00:00",6639.82,125.42,TRADE
VIC1,"2007/06/22 07:30:00",6941.59,165.21,TRADE
VIC1,"2007/06/22 08:00:00",7330.6,293.54,TRADE
VIC1,"2007/06/22 08:30:00",7506.4,294.94,TRADE
VIC1,"2007/06/22 09:00:00",7499,292.41,TRADE
VIC1,"2007/06/22 09:30:00",7562.63,273.39,TRADE
VIC1,"2007/06/22 10:00:00",7539.11,163.82,TRADE
VIC1,"2007/06/22 10:30:00",7496.49,153.96,TRADE
VIC1,"2007/06/22 11:00:00",7454.95,140.42,TRADE
VIC1,"2007/06/22 11:30:00",7413.65,117.2,TRADE
VIC1,"2007/06/22 12:00:00",7368.07,122.01,TRADE
VIC1,"2007/06/22 12:30:00",7279.09,121.06,TRADE
VIC1,"2007/06/22 13:00:00",7224.59,112.58,TRADE
VIC1,"2007/06/22 13:30:00",7313.06,96.1,TRADE
VIC1,"2007/06/22 14:00:00",7318.26,79.34,TRADE
VIC1,"2007/06/22 14:30:00",7276.36,68.41,TRADE
VIC1,"2007/06/22 15:00:00",7214.06,68.64,TRADE
VIC1,"2007/06/22 15:30:00",7130.46,67.66,TRADE
VIC1,"2007/06/22 16:00:00",6973.08,65.92,TRADE
VIC1,"2007/06/22 16:30:00",7127.88,85.48,TRADE
VIC1,"2007/06/22 17:00:00",7256.31,85.64,TRADE
VIC1,"2007/06/22 17:30:00",7559.37,144.61,TRADE
VIC1,"2007/06/22 18:00:00",7736.27,276.53,TRADE
VIC1,"2007/06/22 18:30:00",7658.86,298.23,TRADE
VIC1,"2007/06/22 19:00:00",7526.01,296.49,TRADE
VIC1,"2007/06/22 19:30:00",7285.27,188.94,TRADE
VIC1,"2007/06/22 20:00:00",7168.05,145.05,TRADE
VIC1,"2007/06/22 20:30:00",7026.56,147.96,TRADE
VIC1,"2007/06/22 21:00:00",6866.14,283.02,TRADE
VIC1,"2007/06/22 21:30:00",6691.98,276.17,TRADE
VIC1,"2007/06/22 22:00:00",6478.72,281.12,TRADE
VIC1,"2007/06/22 22:30:00",6325.25,290.33,TRADE
VIC1,"2007/06/22 23:00:00",6121.87,293.11,TRADE
VIC1,"2007/06/22 23:30:00",6422.43,354.98,TRADE
VIC1,"2007/06/23 00:00:00",6215.72,253.08,TRADE
VIC1,"2007/06/23 00:30:00",5990.71,225.03,TRADE
VIC1,"2007/06/23 01:00:00",5832.66,139.23,TRADE
VIC1,"2007/06/23 01:30:00",6113.47,148.57,TRADE
VIC1,"2007/06/23 02:00:00",5974.54,146.02,TRADE
VIC1,"2007/06/23 02:30:00",5679.85,109.39,TRADE
VIC1,"2007/06/23 03:00:00",5533.34,88.87,TRADE
VIC1,"2007/06/23 03:30:00",5349.74,96.19,TRADE
VIC1,"2007/06/23 04:00:00",5207.97,87.95,TRADE
VIC1,"2007/06/23 04:30:00",5127.46,76.88,TRADE
VIC1,"2007/06/23 05:00:00",5058.62,71.67,TRADE
VIC1,"2007/06/23 05:30:00",5090.01,67.99,TRADE
VIC1,"2007/06/23 06:00:00",5116.44,76.24,TRADE
VIC1,"2007/06/23 06:30:00",5299.48,96.72,TRADE
VIC1,"2007/06/23 07:00:00",5423.68,75.5,TRADE
VIC1,"2007/06/23 07:30:00",5475.16,75.22,TRADE
VIC1,"2007/06/23 08:00:00",5713.3,98,TRADE
VIC1,"2007/06/23 08:30:00",5950.14,142.75,TRADE
VIC1,"2007/06/23 09:00:00",6146.89,225.28,TRADE
VIC1,"2007/06/23 09:30:00",6348.39,278.55,TRADE
VIC1,"2007/06/23 10:00:00",6358.33,246.34,TRADE
VIC1,"2007/06/23 10:30:00",6400.22,214.81,TRADE
VIC1,"2007/06/23 11:00:00",6351.11,145.94,TRADE
VIC1,"2007/06/23 11:30:00",6314.73,117.83,TRADE
VIC1,"2007/06/23 12:00:00",6278.55,126.46,TRADE
VIC1,"2007/06/23 12:30:00",6207.34,107.49,TRADE
VIC1,"2007/06/23 13:00:00",6149.5,90.65,TRADE
VIC1,"2007/06/23 13:30:00",6229.87,91.2,TRADE
VIC1,"2007/06/23 14:00:00",6184.66,82.71,TRADE
VIC1,"2007/06/23 14:30:00",6164.31,81.43,TRADE
VIC1,"2007/06/23 15:00:00",6119.23,72.28,TRADE
VIC1,"2007/06/23 15:30:00",6109.84,80.95,TRADE
VIC1,"2007/06/23 16:00:00",6170.19,90.42,TRADE
VIC1,"2007/06/23 16:30:00",6190.37,94.54,TRADE
VIC1,"2007/06/23 17:00:00",6348.06,139,TRADE
VIC1,"2007/06/23 17:30:00",6715.04,235.41,TRADE
VIC1,"2007/06/23 18:00:00",6963.5,389.88,TRADE
VIC1,"2007/06/23 18:30:00",7034.15,415.08,TRADE
VIC1,"2007/06/23 19:00:00",6853.56,256.43,TRADE
VIC1,"2007/06/23 19:30:00",6680.98,254.94,TRADE
VIC1,"2007/06/23 20:00:00",6542.64,152.8,TRADE
VIC1,"2007/06/23 20:30:00",6403.35,145.49,TRADE
VIC1,"2007/06/23 21:00:00",6303.87,133.49,TRADE
VIC1,"2007/06/23 21:30:00",6222.36,138.35,TRADE
VIC1,"2007/06/23 22:00:00",6058.39,107.56,TRADE
VIC1,"2007/06/23 22:30:00",5959.51,130.67,TRADE
VIC1,"2007/06/23 23:00:00",5867.83,122.36,TRADE
VIC1,"2007/06/23 23:30:00",6078.71,142.16,TRADE
VIC1,"2007/06/24 00:00:00",5993.58,128.52,TRADE
VIC1,"2007/06/24 00:30:00",5845.9,129.49,TRADE
VIC1,"2007/06/24 01:00:00",5769.33,115.3,TRADE
VIC1,"2007/06/24 01:30:00",6066.02,125.54,TRADE
VIC1,"2007/06/24 02:00:00",5892.99,121.27,TRADE
VIC1,"2007/06/24 02:30:00",5653.24,90.31,TRADE
VIC1,"2007/06/24 03:00:00",5494.33,79.57,TRADE
VIC1,"2007/06/24 03:30:00",5349.3,59.51,TRADE
VIC1,"2007/06/24 04:00:00",5183,40.48,TRADE
VIC1,"2007/06/24 04:30:00",5105.56,38.86,TRADE
VIC1,"2007/06/24 05:00:00",5040.87,33.58,TRADE
VIC1,"2007/06/24 05:30:00",5023.64,40.45,TRADE
VIC1,"2007/06/24 06:00:00",5080.68,40.7,TRADE
VIC1,"2007/06/24 06:30:00",5125.73,38.08,TRADE
VIC1,"2007/06/24 07:00:00",5165.17,43.57,TRADE
VIC1,"2007/06/24 07:30:00",5106.59,49.56,TRADE
VIC1,"2007/06/24 08:00:00",5259.68,74.52,TRADE
VIC1,"2007/06/24 08:30:00",5549.32,88.12,TRADE
VIC1,"2007/06/24 09:00:00",5714.37,121.14,TRADE
VIC1,"2007/06/24 09:30:00",5882.93,140.39,TRADE
VIC1,"2007/06/24 10:00:00",5940.44,138.49,TRADE
VIC1,"2007/06/24 10:30:00",5981.53,121,TRADE
VIC1,"2007/06/24 11:00:00",5930.04,95.74,TRADE
VIC1,"2007/06/24 11:30:00",5886.59,91.41,TRADE
VIC1,"2007/06/24 12:00:00",5811.94,84.12,TRADE
VIC1,"2007/06/24 12:30:00",5818.51,86.21,TRADE
VIC1,"2007/06/24 13:00:00",5743.83,79.86,TRADE
VIC1,"2007/06/24 13:30:00",5808.9,73.14,TRADE
VIC1,"2007/06/24 14:00:00",5759,65.3,TRADE
VIC1,"2007/06/24 14:30:00",5691.89,58.45,TRADE
VIC1,"2007/06/24 15:00:00",5638.06,53.66,TRADE
VIC1,"2007/06/24 15:30:00",5654.58,62.07,TRADE
VIC1,"2007/06/24 16:00:00",5722.18,75.46,TRADE
VIC1,"2007/06/24 16:30:00",5803.8,95.38,TRADE
VIC1,"2007/06/24 17:00:00",6046.64,155.39,TRADE
VIC1,"2007/06/24 17:30:00",6510.23,232.38,TRADE
VIC1,"2007/06/24 18:00:00",6935.94,381.88,TRADE
VIC1,"2007/06/24 18:30:00",6989.55,421.05,TRADE
VIC1,"2007/06/24 19:00:00",6929.04,415.06,TRADE
VIC1,"2007/06/24 19:30:00",6797.96,297.17,TRADE
VIC1,"2007/06/24 20:00:00",6733.69,269.77,TRADE
VIC1,"2007/06/24 20:30:00",6615.26,151.88,TRADE
VIC1,"2007/06/24 21:00:00",6593.49,198.93,TRADE
VIC1,"2007/06/24 21:30:00",6429.83,112.32,TRADE
VIC1,"2007/06/24 22:00:00",6257.67,85.22,TRADE
VIC1,"2007/06/24 22:30:00",5999.42,118.71,TRADE
VIC1,"2007/06/24 23:00:00",5747.57,86.7,TRADE
VIC1,"2007/06/24 23:30:00",5904.34,93.8,TRADE
VIC1,"2007/06/25 00:00:00",5772.42,86.72,TRADE
VIC1,"2007/06/25 00:30:00",5682.2,86,TRADE
VIC1,"2007/06/25 01:00:00",5583.08,77.48,TRADE
VIC1,"2007/06/25 01:30:00",5929.9,99.76,TRADE
VIC1,"2007/06/25 02:00:00",5838.54,72.5,TRADE
VIC1,"2007/06/25 02:30:00",5618.28,56.25,TRADE
VIC1,"2007/06/25 03:00:00",5468.64,43.66,TRADE
VIC1,"2007/06/25 03:30:00",5336.31,34.88,TRADE
VIC1,"2007/06/25 04:00:00",5251.96,26.57,TRADE
VIC1,"2007/06/25 04:30:00",5207.25,27.2,TRADE
VIC1,"2007/06/25 05:00:00",5334.26,51.72,TRADE
VIC1,"2007/06/25 05:30:00",5321.44,78.72,TRADE
VIC1,"2007/06/25 06:00:00",5531.74,74.53,TRADE
VIC1,"2007/06/25 06:30:00",5987.91,102.7,TRADE
VIC1,"2007/06/25 07:00:00",6480.37,106.09,TRADE
VIC1,"2007/06/25 07:30:00",6840.09,93.24,TRADE
VIC1,"2007/06/25 08:00:00",7202.9,142.92,TRADE
VIC1,"2007/06/25 08:30:00",7405.11,165.74,TRADE
VIC1,"2007/06/25 09:00:00",7464.82,195.96,TRADE
VIC1,"2007/06/25 09:30:00",7554.61,251.95,TRADE
VIC1,"2007/06/25 10:00:00",7533.86,247.91,TRADE
VIC1,"2007/06/25 10:30:00",7510.07,206.94,TRADE
VIC1,"2007/06/25 11:00:00",7472.64,195.48,TRADE
VIC1,"2007/06/25 11:30:00",7334.73,155.01,TRADE
VIC1,"2007/06/25 12:00:00",7262.82,173.16,TRADE
VIC1,"2007/06/25 12:30:00",7216.57,167.79,TRADE
VIC1,"2007/06/25 13:00:00",7167.16,155.63,TRADE
VIC1,"2007/06/25 13:30:00",7198.93,140.78,TRADE
VIC1,"2007/06/25 14:00:00",7165.63,139.04,TRADE
VIC1,"2007/06/25 14:30:00",7121.21,141.42,TRADE
VIC1,"2007/06/25 15:00:00",7015.12,140.27,TRADE
VIC1,"2007/06/25 15:30:00",6936.59,123.91,TRADE
VIC1,"2007/06/25 16:00:00",6926.78,127.44,TRADE
VIC1,"2007/06/25 16:30:00",7013.8,173.85,TRADE
VIC1,"2007/06/25 17:00:00",7124.53,174.87,TRADE
VIC1,"2007/06/25 17:30:00",7462.34,223.08,TRADE
VIC1,"2007/06/25 18:00:00",7807.64,304.31,TRADE
VIC1,"2007/06/25 18:30:00",7690.63,324.05,TRADE
VIC1,"2007/06/25 19:00:00",7676.67,293.1,TRADE
VIC1,"2007/06/25 19:30:00",7490.28,234.1,TRADE
VIC1,"2007/06/25 20:00:00",7377.61,171.49,TRADE
VIC1,"2007/06/25 20:30:00",7223.7,144.11,TRADE
VIC1,"2007/06/25 21:00:00",7118.88,148.77,TRADE
VIC1,"2007/06/25 21:30:00",6896.93,126.45,TRADE
VIC1,"2007/06/25 22:00:00",6671.13,104.94,TRADE
VIC1,"2007/06/25 22:30:00",6346.37,124.52,TRADE
VIC1,"2007/06/25 23:00:00",6104.15,117.29,TRADE
VIC1,"2007/06/25 23:30:00",6298.48,134.9,TRADE
VIC1,"2007/06/26 00:00:00",6132.1,116.12,TRADE
VIC1,"2007/06/26 00:30:00",5951.06,116.03,TRADE
VIC1,"2007/06/26 01:00:00",5815.57,109.07,TRADE
VIC1,"2007/06/26 01:30:00",6140.24,121.27,TRADE
VIC1,"2007/06/26 02:00:00",5982.09,139.1,TRADE
VIC1,"2007/06/26 02:30:00",5801.36,127.29,TRADE
VIC1,"2007/06/26 03:00:00",5629.09,88.69,TRADE
VIC1,"2007/06/26 03:30:00",5503.59,61.37,TRADE
VIC1,"2007/06/26 04:00:00",5384.22,45.76,TRADE
VIC1,"2007/06/26 04:30:00",5355.28,42.25,TRADE
VIC1,"2007/06/26 05:00:00",5335.24,45.66,TRADE
VIC1,"2007/06/26 05:30:00",5464.01,70.73,TRADE
VIC1,"2007/06/26 06:00:00",5675.15,69.46,TRADE
VIC1,"2007/06/26 06:30:00",6116.93,82.52,TRADE
VIC1,"2007/06/26 07:00:00",6628.46,122.15,TRADE
VIC1,"2007/06/26 07:30:00",6944.73,96.29,TRADE
VIC1,"2007/06/26 08:00:00",7298.45,147.37,TRADE
VIC1,"2007/06/26 08:30:00",7426.8,199.91,TRADE
VIC1,"2007/06/26 09:00:00",7429.76,165.05,TRADE
VIC1,"2007/06/26 09:30:00",7439.85,173.65,TRADE
VIC1,"2007/06/26 10:00:00",7376.3,181.71,TRADE
VIC1,"2007/06/26 10:30:00",7325.99,184.04,TRADE
VIC1,"2007/06/26 11:00:00",7332.05,210.76,TRADE
VIC1,"2007/06/26 11:30:00",7284.6,253.49,TRADE
VIC1,"2007/06/26 12:00:00",7245.85,247.95,TRADE
VIC1,"2007/06/26 12:30:00",7112.57,256.87,TRADE
VIC1,"2007/06/26 13:00:00",7105.29,241.11,TRADE
VIC1,"2007/06/26 13:30:00",7192.08,245.94,TRADE
VIC1,"2007/06/26 14:00:00",7155.96,227.78,TRADE
VIC1,"2007/06/26 14:30:00",7113.93,205.05,TRADE
VIC1,"2007/06/26 15:00:00",7112.92,222.03,TRADE
VIC1,"2007/06/26 15:30:00",7112.17,222.32,TRADE
VIC1,"2007/06/26 16:00:00",7160.89,269.41,TRADE
VIC1,"2007/06/26 16:30:00",7201.75,293.51,TRADE
VIC1,"2007/06/26 17:00:00",7365.37,282.45,TRADE
VIC1,"2007/06/26 17:30:00",7559.63,338.88,TRADE
VIC1,"2007/06/26 18:00:00",7829.39,3133.15,TRADE
VIC1,"2007/06/26 18:30:00",7745.4,367.9,TRADE
VIC1,"2007/06/26 19:00:00",7629.65,432.17,TRADE
VIC1,"2007/06/26 19:30:00",7479.86,295.22,TRADE
VIC1,"2007/06/26 20:00:00",7301.96,294.36,TRADE
VIC1,"2007/06/26 20:30:00",7165.59,285.55,TRADE
VIC1,"2007/06/26 21:00:00",7045.69,234.8,TRADE
VIC1,"2007/06/26 21:30:00",6839.58,229.26,TRADE
VIC1,"2007/06/26 22:00:00",6580.4,162.21,TRADE
VIC1,"2007/06/26 22:30:00",6311.29,247.15,TRADE
VIC1,"2007/06/26 23:00:00",6024.93,175.96,TRADE
VIC1,"2007/06/26 23:30:00",6269.13,148.34,TRADE
VIC1,"2007/06/27 00:00:00",6082.31,117.74,TRADE
VIC1,"2007/06/27 00:30:00",5946.23,127.04,TRADE
VIC1,"2007/06/27 01:00:00",5766.47,94.02,TRADE
VIC1,"2007/06/27 01:30:00",6063.59,126.53,TRADE
VIC1,"2007/06/27 02:00:00",5952.23,105.7,TRADE
VIC1,"2007/06/27 02:30:00",5751.78,89.01,TRADE
VIC1,"2007/06/27 03:00:00",5526.92,61.7,TRADE
VIC1,"2007/06/27 03:30:00",5384.74,56.6,TRADE
VIC1,"2007/06/27 04:00:00",5291.03,44.24,TRADE
VIC1,"2007/06/27 04:30:00",5231.33,40.45,TRADE
VIC1,"2007/06/27 05:00:00",5224.55,46.86,TRADE
VIC1,"2007/06/27 05:30:00",5312.07,64.84,TRADE
VIC1,"2007/06/27 06:00:00",5574.57,87.95,TRADE
VIC1,"2007/06/27 06:30:00",6003.7,95.79,TRADE
VIC1,"2007/06/27 07:00:00",6501.45,168.11,TRADE
VIC1,"2007/06/27 07:30:00",6852,124.25,TRADE
VIC1,"2007/06/27 08:00:00",7242.24,267.44,TRADE
VIC1,"2007/06/27 08:30:00",7417.93,314.3,TRADE
VIC1,"2007/06/27 09:00:00",7425.38,235.35,TRADE
VIC1,"2007/06/27 09:30:00",7563.97,249.99,TRADE
VIC1,"2007/06/27 10:00:00",7532.95,267.95,TRADE
VIC1,"2007/06/27 10:30:00",7544.84,247.85,TRADE
VIC1,"2007/06/27 11:00:00",7529.15,244.97,TRADE
VIC1,"2007/06/27 11:30:00",7260.17,176.3,TRADE
VIC1,"2007/06/27 12:00:00",7487.26,153.67,TRADE
VIC1,"2007/06/27 12:30:00",7477.62,160.38,TRADE
VIC1,"2007/06/27 13:00:00",7477.85,187.18,TRADE
VIC1,"2007/06/27 13:30:00",7581.91,223.66,TRADE
VIC1,"2007/06/27 14:00:00",7551.93,198.3,TRADE
VIC1,"2007/06/27 14:30:00",7317.26,193.2,TRADE
VIC1,"2007/06/27 15:00:00",7485,173.06,TRADE
VIC1,"2007/06/27 15:30:00",7416.73,209.83,TRADE
VIC1,"2007/06/27 16:00:00",7469.02,275.12,TRADE
VIC1,"2007/06/27 16:30:00",7481.83,287.33,TRADE
VIC1,"2007/06/27 17:00:00",7614.51,300.74,TRADE
VIC1,"2007/06/27 17:30:00",7766.44,871.15,TRADE
VIC1,"2007/06/27 18:00:00",7829.33,3745.38,TRADE
VIC1,"2007/06/27 18:30:00",7780.88,3524.54,TRADE
VIC1,"2007/06/27 19:00:00",7655.26,2750.24,TRADE
VIC1,"2007/06/27 19:30:00",7357.2,45.06,TRADE
VIC1,"2007/06/27 20:00:00",7257.18,200.7,TRADE
VIC1,"2007/06/27 20:30:00",7126.52,276.35,TRADE
VIC1,"2007/06/27 21:00:00",6999.42,259.69,TRADE
VIC1,"2007/06/27 21:30:00",6686.11,254.08,TRADE
VIC1,"2007/06/27 22:00:00",6414.67,205.84,TRADE
VIC1,"2007/06/27 22:30:00",6175.89,327.44,TRADE
VIC1,"2007/06/27 23:00:00",5967.54,232.78,TRADE
VIC1,"2007/06/27 23:30:00",6201.04,295.63,TRADE
VIC1,"2007/06/28 00:00:00",5980.87,227.21,TRADE
VIC1,"2007/06/28 00:30:00",5832.39,178.78,TRADE
VIC1,"2007/06/28 01:00:00",5634.98,155.96,TRADE
VIC1,"2007/06/28 01:30:00",5971.94,245.2,TRADE
VIC1,"2007/06/28 02:00:00",5805.91,192.5,TRADE
VIC1,"2007/06/28 02:30:00",5572.25,143.17,TRADE
VIC1,"2007/06/28 03:00:00",5407.9,122.08,TRADE
VIC1,"2007/06/28 03:30:00",5252.18,120.94,TRADE
VIC1,"2007/06/28 04:00:00",5139.6,92.56,TRADE
VIC1,"2007/06/28 04:30:00",5088.51,87.69,TRADE
VIC1,"2007/06/28 05:00:00",5125.33,85.28,TRADE
VIC1,"2007/06/28 05:30:00",5231.54,126.26,TRADE
VIC1,"2007/06/28 06:00:00",5453.78,119.46,TRADE
VIC1,"2007/06/28 06:30:00",5910.67,137.72,TRADE
VIC1,"2007/06/28 07:00:00",6383.53,161.25,TRADE
VIC1,"2007/06/28 07:30:00",6738.32,125.07,TRADE
VIC1,"2007/06/28 08:00:00",7091.07,308.15,TRADE
VIC1,"2007/06/28 08:30:00",7190.09,302.3,TRADE
VIC1,"2007/06/28 09:00:00",7161.94,270.34,TRADE
VIC1,"2007/06/28 09:30:00",7220.07,245.73,TRADE
VIC1,"2007/06/28 10:00:00",7180.21,214.38,TRADE
VIC1,"2007/06/28 10:30:00",7133.16,198.4,TRADE
VIC1,"2007/06/28 11:00:00",7093.71,168.06,TRADE
VIC1,"2007/06/28 11:30:00",7052.83,157.11,TRADE
VIC1,"2007/06/28 12:00:00",7025.74,145.49,TRADE
VIC1,"2007/06/28 12:30:00",7029.72,158.4,TRADE
VIC1,"2007/06/28 13:00:00",6994.38,163.04,TRADE
VIC1,"2007/06/28 13:30:00",7050.31,164.32,TRADE
VIC1,"2007/06/28 14:00:00",6983.15,151.98,TRADE
VIC1,"2007/06/28 14:30:00",6972.97,190.17,TRADE
VIC1,"2007/06/28 15:00:00",6925.09,222.17,TRADE
VIC1,"2007/06/28 15:30:00",6835.72,198.85,TRADE
VIC1,"2007/06/28 16:00:00",6817.48,232.56,TRADE
VIC1,"2007/06/28 16:30:00",6827.28,174.24,TRADE
VIC1,"2007/06/28 17:00:00",6978.6,-36.26,TRADE
VIC1,"2007/06/28 17:30:00",7243.13,324.7,TRADE
VIC1,"2007/06/28 18:00:00",7528.33,3278.26,TRADE
VIC1,"2007/06/28 18:30:00",7525.83,2936.5,TRADE
VIC1,"2007/06/28 19:00:00",7397.54,1561.13,TRADE
VIC1,"2007/06/28 19:30:00",7358.46,-12.75,TRADE
VIC1,"2007/06/28 20:00:00",7251.53,263.88,TRADE
VIC1,"2007/06/28 20:30:00",7104.01,277.37,TRADE
VIC1,"2007/06/28 21:00:00",6972.25,281.6,TRADE
VIC1,"2007/06/28 21:30:00",6754.28,256.61,TRADE
VIC1,"2007/06/28 22:00:00",6502.9,225.53,TRADE
VIC1,"2007/06/28 22:30:00",6283.89,278.91,TRADE
VIC1,"2007/06/28 23:00:00",6148.56,269.32,TRADE
VIC1,"2007/06/28 23:30:00",6347.27,296.32,TRADE
VIC1,"2007/06/29 00:00:00",6151.84,219.71,TRADE
VIC1,"2007/06/29 00:30:00",5951.57,145.91,TRADE
VIC1,"2007/06/29 01:00:00",5853.63,142.64,TRADE
VIC1,"2007/06/29 01:30:00",6163.27,166.88,TRADE
VIC1,"2007/06/29 02:00:00",5993.8,87.08,TRADE
VIC1,"2007/06/29 02:30:00",5803.33,101.18,TRADE
VIC1,"2007/06/29 03:00:00",5584.82,66.55,TRADE
VIC1,"2007/06/29 03:30:00",5458.88,54.11,TRADE
VIC1,"2007/06/29 04:00:00",5308,48.79,TRADE
VIC1,"2007/06/29 04:30:00",5279.6,47.41,TRADE
VIC1,"2007/06/29 05:00:00",5289.06,49.64,TRADE
VIC1,"2007/06/29 05:30:00",5397.98,81.84,TRADE
VIC1,"2007/06/29 06:00:00",5599.51,98.02,TRADE
VIC1,"2007/06/29 06:30:00",6022.67,155.61,TRADE
VIC1,"2007/06/29 07:00:00",6429.81,178.18,TRADE
VIC1,"2007/06/29 07:30:00",6740.85,142.51,TRADE
VIC1,"2007/06/29 08:00:00",7069.7,245.52,TRADE
VIC1,"2007/06/29 08:30:00",7250.64,259.05,TRADE
VIC1,"2007/06/29 09:00:00",7213.15,189.89,TRADE
VIC1,"2007/06/29 09:30:00",7267.03,170.59,TRADE
VIC1,"2007/06/29 10:00:00",7171.87,148.6,TRADE
VIC1,"2007/06/29 10:30:00",7106.03,154.54,TRADE
VIC1,"2007/06/29 11:00:00",7132.28,149.72,TRADE
VIC1,"2007/06/29 11:30:00",7079.36,146.51,TRADE
VIC1,"2007/06/29 12:00:00",7013.38,121.03,TRADE
VIC1,"2007/06/29 12:30:00",6988.33,119.54,TRADE
VIC1,"2007/06/29 13:00:00",6948.8,94.23,TRADE
VIC1,"2007/06/29 13:30:00",7048.16,94.42,TRADE
VIC1,"2007/06/29 14:00:00",6988.08,77.22,TRADE
VIC1,"2007/06/29 14:30:00",6971.55,71.04,TRADE
VIC1,"2007/06/29 15:00:00",6954.22,66.86,TRADE
VIC1,"2007/06/29 15:30:00",6972.34,97.15,TRADE
VIC1,"2007/06/29 16:00:00",6967.87,125.17,TRADE
VIC1,"2007/06/29 16:30:00",7019.12,86.19,TRADE
VIC1,"2007/06/29 17:00:00",7119.7,78.94,TRADE
VIC1,"2007/06/29 17:30:00",7335.11,111.67,TRADE
VIC1,"2007/06/29 18:00:00",7525,225.71,TRADE
VIC1,"2007/06/29 18:30:00",7462.24,274.85,TRADE
VIC1,"2007/06/29 19:00:00",7287.95,251.42,TRADE
VIC1,"2007/06/29 19:30:00",7142.38,180.37,TRADE
VIC1,"2007/06/29 20:00:00",6988.53,143.08,TRADE
VIC1,"2007/06/29 20:30:00",6890.92,161.13,TRADE
VIC1,"2007/06/29 21:00:00",6720.52,144.29,TRADE
VIC1,"2007/06/29 21:30:00",6557.21,155.89,TRADE
VIC1,"2007/06/29 22:00:00",6323.27,172.58,TRADE
VIC1,"2007/06/29 22:30:00",6174.56,165.83,TRADE
VIC1,"2007/06/29 23:00:00",6042.75,135.65,TRADE
VIC1,"2007/06/29 23:30:00",6382.34,208.83,TRADE
VIC1,"2007/06/30 00:00:00",6190.46,166.75,TRADE
VIC1,"2007/06/30 00:30:00",5978.44,102.54,TRADE
VIC1,"2007/06/30 01:00:00",5789.32,70.36,TRADE
VIC1,"2007/06/30 01:30:00",6075.91,60.88,TRADE
VIC1,"2007/06/30 02:00:00",5872.36,65.05,TRADE
VIC1,"2007/06/30 02:30:00",5644.57,60.29,TRADE
VIC1,"2007/06/30 03:00:00",5469.44,44.6,TRADE
VIC1,"2007/06/30 03:30:00",5283.89,24.52,TRADE
VIC1,"2007/06/30 04:00:00",5162.62,23.79,TRADE
VIC1,"2007/06/30 04:30:00",5075.06,19.45,TRADE
VIC1,"2007/06/30 05:00:00",5030.46,19.62,TRADE
VIC1,"2007/06/30 05:30:00",5062.42,21.56,TRADE
VIC1,"2007/06/30 06:00:00",5097.04,33.73,TRADE
VIC1,"2007/06/30 06:30:00",5227.6,37.37,TRADE
VIC1,"2007/06/30 07:00:00",5354.44,36.53,TRADE
VIC1,"2007/06/30 07:30:00",5415.56,39.18,TRADE
VIC1,"2007/06/30 08:00:00",5628.78,52.08,TRADE
VIC1,"2007/06/30 08:30:00",5871.1,79.85,TRADE
VIC1,"2007/06/30 09:00:00",6076.58,67.48,TRADE
VIC1,"2007/06/30 09:30:00",6236,82.29,TRADE
VIC1,"2007/06/30 10:00:00",6233.48,66.54,TRADE
VIC1,"2007/06/30 10:30:00",6237.84,67.28,TRADE
VIC1,"2007/06/30 11:00:00",6187.5,61.05,TRADE
VIC1,"2007/06/30 11:30:00",6102.56,54.55,TRADE
VIC1,"2007/06/30 12:00:00",6023,52.16,TRADE
VIC1,"2007/06/30 12:30:00",5945.94,52.24,TRADE
VIC1,"2007/06/30 13:00:00",5880.17,49.2,TRADE
VIC1,"2007/06/30 13:30:00",5912.24,43.93,TRADE
VIC1,"2007/06/30 14:00:00",5884.27,41.91,TRADE
VIC1,"2007/06/30 14:30:00",5857.75,41.74,TRADE
VIC1,"2007/06/30 15:00:00",5822.24,40.23,TRADE
VIC1,"2007/06/30 15:30:00",5864.97,42.36,TRADE
VIC1,"2007/06/30 16:00:00",5880.18,44.15,TRADE
VIC1,"2007/06/30 16:30:00",5939.56,49.15,TRADE
VIC1,"2007/06/30 17:00:00",6124.09,70.64,TRADE
VIC1,"2007/06/30 17:30:00",6465.79,140.36,TRADE
VIC1,"2007/06/30 18:00:00",6807.19,209.01,TRADE
VIC1,"2007/06/30 18:30:00",6881.15,242.16,TRADE
VIC1,"2007/06/30 19:00:00",6772.95,186.7,TRADE
VIC1,"2007/06/30 19:30:00",6591.65,105.78,TRADE
VIC1,"2007/06/30 20:00:00",6488.8,121.24,TRADE
VIC1,"2007/06/30 20:30:00",6394.81,76.23,TRADE
VIC1,"2007/06/30 21:00:00",6267.98,77.92,TRADE
VIC1,"2007/06/30 21:30:00",6155.28,74.45,TRADE
VIC1,"2007/06/30 22:00:00",5969.25,60.45,TRADE
VIC1,"2007/06/30 22:30:00",5894.88,59.62,TRADE
VIC1,"2007/06/30 23:00:00",5794.29,52.53,TRADE
VIC1,"2007/06/30 23:30:00",5995.91,63.6,TRADE
VIC1,"2007/07/01 00:00:00",5876.98,72.3,TRADE
