REGION,SETTLEMENTDATE,TOTALDEMAND,RRP,PERIODTYPE
VIC1,"1999/06/01 00:30",5301.44833,31.5,TRADE
VIC1,"1999/06/01 01:00",5150.21667,26.99,TRADE
VIC1,"1999/06/01 01:30",5409.095,29.16,TRADE
VIC1,"1999/06/01 02:00",5275.31167,22.45,TRADE
VIC1,"1999/06/01 02:30",5068.89667,17.97,TRADE
VIC1,"1999/06/01 03:00",4858.68333,17.09,TRADE
VIC1,"1999/06/01 03:30",4695.14667,14.86,TRADE
VIC1,"1999/06/01 04:00",4509.645,11.38,TRADE
VIC1,"1999/06/01 04:30",4430.06167,10.75,TRADE
VIC1,"1999/06/01 05:00",4436.25167,13.63,TRADE
VIC1,"1999/06/01 05:30",4509.61167,14.37,TRADE
VIC1,"1999/06/01 06:00",4623.42667,17.15,TRADE
VIC1,"1999/06/01 06:30",4976.71,20.5,TRADE
VIC1,"1999/06/01 07:00",5283.145,21.69,TRADE
VIC1,"1999/06/01 07:30",5441.555,22.91,TRADE
VIC1,"1999/06/01 08:00",5738.21,31.53,TRADE
VIC1,"1999/06/01 08:30",5848.44333,31.8,TRADE
VIC1,"1999/06/01 09:00",5823.17,26.99,TRADE
VIC1,"1999/06/01 09:30",5866.625,41.99,TRADE
VIC1,"1999/06/01 10:00",5851.775,43.87,TRADE
VIC1,"1999/06/01 10:30",5812.93833,34.12,TRADE
VIC1,"1999/06/01 11:00",5911.225,38.72,TRADE
VIC1,"1999/06/01 11:30",5978.72833,38.07,TRADE
VIC1,"1999/06/01 12:00",5810.205,33.13,TRADE
VIC1,"1999/06/01 12:30",5751.94833,31.23,TRADE
VIC1,"1999/06/01 13:00",5738.54167,27.52,TRADE
VIC1,"1999/06/01 13:30",5845.26,32.35,TRADE
VIC1,"1999/06/01 14:00",5834.26333,34.43,TRADE
VIC1,"1999/06/01 14:30",5802.845,35.82,TRADE
VIC1,"1999/06/01 15:00",5748.59167,31.27,TRADE
VIC1,"1999/06/01 15:30",5732.85,28.53,TRADE
VIC1,"1999/06/01 16:00",5690.13,23.29,TRADE
VIC1,"1999/06/01 16:30",5727.31333,20.18,TRADE
VIC1,"1999/06/01 17:00",5810.62833,28.28,TRADE
VIC1,"1999/06/01 17:30",6121.715,41.31,TRADE
VIC1,"1999/06/01 18:00",6326.14833,46.33,TRADE
VIC1,"1999/06/01 18:30",6270.20833,47.93,TRADE
VIC1,"1999/06/01 19:00",6051.17167,41.91,TRADE
VIC1,"1999/06/01 19:30",5887.77,35.06,TRADE
VIC1,"1999/06/01 20:00",5742.8,33.5,TRADE
VIC1,"1999/06/01 20:30",5627.35333,33.25,TRADE
VIC1,"1999/06/01 21:00",5495.80667,35.01,TRADE
VIC1,"1999/06/01 21:30",5398.4,29.75,TRADE
VIC1,"1999/06/01 22:00",5256.105,28.6,TRADE
VIC1,"1999/06/01 22:30",5131.16833,23.93,TRADE
VIC1,"1999/06/01 23:00",4992.01833,17.71,TRADE
VIC1,"1999/06/01 23:30",5412.52,29.69,TRADE
VIC1,"1999/06/02 00:00",5342.085,26.72,TRADE
VIC1,"1999/06/02 00:30",5244.87,26.91,TRADE
VIC1,"1999/06/02 01:00",5050.44333,26.82,TRADE
VIC1,"1999/06/02 01:30",5342.58,30.16,TRADE
VIC1,"1999/06/02 02:00",5211.515,26.55,TRADE
VIC1,"1999/06/02 02:30",5034.345,24.34,TRADE
VIC1,"1999/06/02 03:00",4798.19833,17.57,TRADE
VIC1,"1999/06/02 03:30",4618.22667,14.17,TRADE
VIC1,"1999/06/02 04:00",4476.8,11.03,TRADE
VIC1,"1999/06/02 04:30",4419.54167,12.03,TRADE
VIC1,"1999/06/02 05:00",4381.46833,13.92,TRADE
VIC1,"1999/06/02 05:30",4482.95833,18.07,TRADE
VIC1,"1999/06/02 06:00",4590.49,17.78,TRADE
VIC1,"1999/06/02 06:30",4965.02,25.87,TRADE
VIC1,"1999/06/02 07:00",5250.465,31.41,TRADE
VIC1,"1999/06/02 07:30",5437.30833,32.75,TRADE
VIC1,"1999/06/02 08:00",5756.03333,47.43,TRADE
VIC1,"1999/06/02 08:30",5901.80333,49.82,TRADE
VIC1,"1999/06/02 09:00",5853.875,49.4,TRADE
VIC1,"1999/06/02 09:30",5869.94667,49.5,TRADE
VIC1,"1999/06/02 10:00",5867.81167,49.42,TRADE
VIC1,"1999/06/02 10:30",5828.305,42.4,TRADE
VIC1,"1999/06/02 11:00",5824.41667,35.03,TRADE
VIC1,"1999/06/02 11:30",5821.56833,40.98,TRADE
VIC1,"1999/06/02 12:00",5790.84,36.86,TRADE
VIC1,"1999/06/02 12:30",5764.14833,34.87,TRADE
VIC1,"1999/06/02 13:00",5732.62833,35.32,TRADE
VIC1,"1999/06/02 13:30",5881.79167,49.39,TRADE
VIC1,"1999/06/02 14:00",5857.54833,47.65,TRADE
VIC1,"1999/06/02 14:30",5791.17167,42.73,TRADE
VIC1,"1999/06/02 15:00",5772.78833,36.53,TRADE
VIC1,"1999/06/02 15:30",5720.695,39.46,TRADE
VIC1,"1999/06/02 16:00",5652.115,31.86,TRADE
VIC1,"1999/06/02 16:30",5654.16167,32.86,TRADE
VIC1,"1999/06/02 17:00",5728.96833,34.64,TRADE
VIC1,"1999/06/02 17:30",6003.97333,40.12,TRADE
VIC1,"1999/06/02 18:00",6303.64167,48.86,TRADE
VIC1,"1999/06/02 18:30",6242.16833,57.81,TRADE
VIC1,"1999/06/02 19:00",6092.97833,48.6,TRADE
VIC1,"1999/06/02 19:30",5873.18,38.56,TRADE
VIC1,"1999/06/02 20:00",5742.11667,43.18,TRADE
VIC1,"1999/06/02 20:30",5620.82833,36.47,TRADE
VIC1,"1999/06/02 21:00",5490.135,32.72,TRADE
VIC1,"1999/06/02 21:30",5435.55,33.44,TRADE
VIC1,"1999/06/02 22:00",5267.07167,30.29,TRADE
VIC1,"1999/06/02 22:30",5126.22167,25.1,TRADE
VIC1,"1999/06/02 23:00",5028.07167,22.19,TRADE
VIC1,"1999/06/02 23:30",5363.525,32.05,TRADE
VIC1,"1999/06/03 00:00",5369.85,32.68,TRADE
VIC1,"1999/06/03 00:30",5284.45833,32.3,TRADE
VIC1,"1999/06/03 01:00",5164.57,30.84,TRADE
VIC1,"1999/06/03 01:30",5444.95333,34.8,TRADE
VIC1,"1999/06/03 02:00",5338.04333,31.52,TRADE
VIC1,"1999/06/03 02:30",5151.16167,26.87,TRADE
VIC1,"1999/06/03 03:00",4947.67667,24.2,TRADE
VIC1,"1999/06/03 03:30",4787.67667,18.77,TRADE
VIC1,"1999/06/03 04:00",4639.92333,14.6,TRADE
VIC1,"1999/06/03 04:30",4568.15,17.02,TRADE
VIC1,"1999/06/03 05:00",4519.00833,14.09,TRADE
VIC1,"1999/06/03 05:30",4351.10667,11.63,TRADE
VIC1,"1999/06/03 06:00",4693.08667,17.52,TRADE
VIC1,"1999/06/03 06:30",5091.88333,25.32,TRADE
VIC1,"1999/06/03 07:00",5400.56333,29.66,TRADE
VIC1,"1999/06/03 07:30",5607.74833,33.82,TRADE
VIC1,"1999/06/03 08:00",5896.40667,50.27,TRADE
VIC1,"1999/06/03 08:30",5996.99167,62.34,TRADE
VIC1,"1999/06/03 09:00",5966.41167,65.36,TRADE
VIC1,"1999/06/03 09:30",5946.12667,63.71,TRADE
VIC1,"1999/06/03 10:00",5850.13667,42.27,TRADE
VIC1,"1999/06/03 10:30",5787.39,39.54,TRADE
VIC1,"1999/06/03 11:00",5775.13167,45.34,TRADE
VIC1,"1999/06/03 11:30",5718.42833,44.54,TRADE
VIC1,"1999/06/03 12:00",5721.13,50.24,TRADE
VIC1,"1999/06/03 12:30",5693.43333,49.09,TRADE
VIC1,"1999/06/03 13:00",5589.97667,44.04,TRADE
VIC1,"1999/06/03 13:30",5700.64667,44,TRADE
VIC1,"1999/06/03 14:00",5716.62833,42.81,TRADE
VIC1,"1999/06/03 14:30",5664.39833,42.72,TRADE
VIC1,"1999/06/03 15:00",5601.66,38.3,TRADE
VIC1,"1999/06/03 15:30",5582.715,36.48,TRADE
VIC1,"1999/06/03 16:00",5568.97667,37.35,TRADE
VIC1,"1999/06/03 16:30",5540.82667,34.58,TRADE
VIC1,"1999/06/03 17:00",5716.01333,41.63,TRADE
VIC1,"1999/06/03 17:30",5948.36,48.64,TRADE
VIC1,"1999/06/03 18:00",6340.59333,105.84,TRADE
VIC1,"1999/06/03 18:30",6318.445,54.39,TRADE
VIC1,"1999/06/03 19:00",6197.72,55.06,TRADE
VIC1,"1999/06/03 19:30",6020.87,39.35,TRADE
VIC1,"1999/06/03 20:00",5950.19667,35.42,TRADE
VIC1,"1999/06/03 20:30",5831.08667,33.95,TRADE
VIC1,"1999/06/03 21:00",5707.02667,43.2,TRADE
VIC1,"1999/06/03 21:30",5530.06,35.43,TRADE
VIC1,"1999/06/03 22:00",5441.46167,33.68,TRADE
VIC1,"1999/06/03 22:30",5299.26833,27.21,TRADE
VIC1,"1999/06/03 23:00",5196.50667,26.42,TRADE
VIC1,"1999/06/03 23:30",5559.03167,34.29,TRADE
VIC1,"1999/06/04 00:00",5474.855,33.36,TRADE
VIC1,"1999/06/04 00:30",5387.28667,32.08,TRADE
VIC1,"1999/06/04 01:00",5237.965,29.97,TRADE
VIC1,"1999/06/04 01:30",5542.45333,34.34,TRADE
VIC1,"1999/06/04 02:00",5417.05167,31.14,TRADE
VIC1,"1999/06/04 02:30",5207.59167,25.44,TRADE
VIC1,"1999/06/04 03:00",4967.87667,20.77,TRADE
VIC1,"1999/06/04 03:30",4815.13333,17.27,TRADE
VIC1,"1999/06/04 04:00",4653.78,13.73,TRADE
VIC1,"1999/06/04 04:30",4596.735,14.57,TRADE
VIC1,"1999/06/04 05:00",4564.115,14.07,TRADE
VIC1,"1999/06/04 05:30",4615.835,17.62,TRADE
VIC1,"1999/06/04 06:00",4765.54333,19.14,TRADE
VIC1,"1999/06/04 06:30",5099.145,26.24,TRADE
VIC1,"1999/06/04 07:00",5369.535,28.74,TRADE
VIC1,"1999/06/04 07:30",5591.9,32.35,TRADE
VIC1,"1999/06/04 08:00",5867.38333,40.96,TRADE
VIC1,"1999/06/04 08:30",5960.03667,41.99,TRADE
VIC1,"1999/06/04 09:00",5967.895,44,TRADE
VIC1,"1999/06/04 09:30",5917.93667,47.26,TRADE
VIC1,"1999/06/04 10:00",5872.95333,48.54,TRADE
VIC1,"1999/06/04 10:30",5805.855,42.06,TRADE
VIC1,"1999/06/04 11:00",5719.79333,38.37,TRADE
VIC1,"1999/06/04 11:30",5683.97167,40.05,TRADE
VIC1,"1999/06/04 12:00",5658.86833,40.15,TRADE
VIC1,"1999/06/04 12:30",5632.115,39.91,TRADE
VIC1,"1999/06/04 13:00",5592.13167,36.08,TRADE
VIC1,"1999/06/04 13:30",5643.56667,36.58,TRADE
VIC1,"1999/06/04 14:00",5607.09333,35.87,TRADE
VIC1,"1999/06/04 14:30",5552.63833,33.65,TRADE
VIC1,"1999/06/04 15:00",5489.55167,32.34,TRADE
VIC1,"1999/06/04 15:30",5444.36333,32.06,TRADE
VIC1,"1999/06/04 16:00",5411.81667,26.98,TRADE
VIC1,"1999/06/04 16:30",5410.87,27.96,TRADE
VIC1,"1999/06/04 17:00",5493.88833,31.91,TRADE
VIC1,"1999/06/04 17:30",5771.73833,36.91,TRADE
VIC1,"1999/06/04 18:00",6034.92833,41.64,TRADE
VIC1,"1999/06/04 18:30",5981.36833,32.82,TRADE
VIC1,"1999/06/04 19:00",5869.04,27.3,TRADE
VIC1,"1999/06/04 19:30",5702.87333,19.59,TRADE
VIC1,"1999/06/04 20:00",5611.355,20.29,TRADE
VIC1,"1999/06/04 20:30",5490.04833,20.73,TRADE
VIC1,"1999/06/04 21:00",5378.77333,18.07,TRADE
VIC1,"1999/06/04 21:30",5256.195,19.39,TRADE
VIC1,"1999/06/04 22:00",5151.69833,21.71,TRADE
VIC1,"1999/06/04 22:30",5078.915,22.01,TRADE
VIC1,"1999/06/04 23:00",5027.54,20.93,TRADE
VIC1,"1999/06/04 23:30",5495.13833,33.29,TRADE
VIC1,"1999/06/05 00:00",5453.03667,31.56,TRADE
VIC1,"1999/06/05 00:30",5310.88833,27.65,TRADE
VIC1,"1999/06/05 01:00",5100.08667,26.22,TRADE
VIC1,"1999/06/05 01:30",5303.33833,28.41,TRADE
VIC1,"1999/06/05 02:00",5153.04,22.95,TRADE
VIC1,"1999/06/05 02:30",4972.30833,22.19,TRADE
VIC1,"1999/06/05 03:00",4748.66333,22.07,TRADE
VIC1,"1999/06/05 03:30",4605.98,20.65,TRADE
VIC1,"1999/06/05 04:00",4419.68167,14.82,TRADE
VIC1,"1999/06/05 04:30",4335.925,13.59,TRADE
VIC1,"1999/06/05 05:00",4243.18833,13.23,TRADE
VIC1,"1999/06/05 05:30",4230.875,13.31,TRADE
VIC1,"1999/06/05 06:00",4257.87167,12.87,TRADE
VIC1,"1999/06/05 06:30",4350.57333,14.08,TRADE
VIC1,"1999/06/05 07:00",4444.13833,14.12,TRADE
VIC1,"1999/06/05 07:30",4457.76667,17.52,TRADE
VIC1,"1999/06/05 08:00",4594.37667,22.01,TRADE
VIC1,"1999/06/05 08:30",4769.85333,23.94,TRADE
VIC1,"1999/06/05 09:00",4871.25167,27.61,TRADE
VIC1,"1999/06/05 09:30",4975.41833,27.81,TRADE
VIC1,"1999/06/05 10:00",4981.30333,28.01,TRADE
VIC1,"1999/06/05 10:30",4934.48667,27.96,TRADE
VIC1,"1999/06/05 11:00",4942.27833,28.04,TRADE
VIC1,"1999/06/05 11:30",4897.425,29.96,TRADE
VIC1,"1999/06/05 12:00",4874.12,28.11,TRADE
VIC1,"1999/06/05 12:30",4852.855,27.7,TRADE
VIC1,"1999/06/05 13:00",4847.77167,23.43,TRADE
VIC1,"1999/06/05 13:30",4891.11167,24.33,TRADE
VIC1,"1999/06/05 14:00",4833.89,19.67,TRADE
VIC1,"1999/06/05 14:30",4806.15333,18.05,TRADE
VIC1,"1999/06/05 15:00",4768.05,16.84,TRADE
VIC1,"1999/06/05 15:30",4760.40167,15.45,TRADE
VIC1,"1999/06/05 16:00",4757.115,17.28,TRADE
VIC1,"1999/06/05 16:30",4807.11333,17.99,TRADE
VIC1,"1999/06/05 17:00",4953.58,24.07,TRADE
VIC1,"1999/06/05 17:30",5218.425,29.31,TRADE
VIC1,"1999/06/05 18:00",5459.26333,33.56,TRADE
VIC1,"1999/06/05 18:30",5459.10833,31.77,TRADE
VIC1,"1999/06/05 19:00",5315.94167,29.16,TRADE
VIC1,"1999/06/05 19:30",5156.53333,27.86,TRADE
VIC1,"1999/06/05 20:00",5062.345,27.56,TRADE
VIC1,"1999/06/05 20:30",4906.62667,26.11,TRADE
VIC1,"1999/06/05 21:00",4839.21333,23.79,TRADE
VIC1,"1999/06/05 21:30",4739.00833,22.14,TRADE
VIC1,"1999/06/05 22:00",4657.93667,21.78,TRADE
VIC1,"1999/06/05 22:30",4653.72667,22.93,TRADE
VIC1,"1999/06/05 23:00",4637.385,22.33,TRADE
VIC1,"1999/06/05 23:30",5052.13,28.11,TRADE
VIC1,"1999/06/06 00:00",5041.63,26.89,TRADE
VIC1,"1999/06/06 00:30",4962.16833,25,TRADE
VIC1,"1999/06/06 01:00",4798.62667,17.49,TRADE
VIC1,"1999/06/06 01:30",4999.58333,26.53,TRADE
VIC1,"1999/06/06 02:00",4916.645,22.18,TRADE
VIC1,"1999/06/06 02:30",4702.38667,18.99,TRADE
VIC1,"1999/06/06 03:00",4525.98,16.58,TRADE
VIC1,"1999/06/06 03:30",4345.23333,14.57,TRADE
VIC1,"1999/06/06 04:00",4242.13333,13.37,TRADE
VIC1,"1999/06/06 04:30",4069.34667,10.23,TRADE
VIC1,"1999/06/06 05:00",3935.60167,8.06,TRADE
VIC1,"1999/06/06 05:30",3903.19,8.5,TRADE
VIC1,"1999/06/06 06:00",3942.73167,12.08,TRADE
VIC1,"1999/06/06 06:30",4010.34667,12.51,TRADE
VIC1,"1999/06/06 07:00",4006.14333,12.59,TRADE
VIC1,"1999/06/06 07:30",3950.19833,12.5,TRADE
VIC1,"1999/06/06 08:00",4047.00333,14.09,TRADE
VIC1,"1999/06/06 08:30",4192.76333,17.31,TRADE
VIC1,"1999/06/06 09:00",4289.17167,19.38,TRADE
VIC1,"1999/06/06 09:30",4366.78833,20.21,TRADE
VIC1,"1999/06/06 10:00",4401.595,21,TRADE
VIC1,"1999/06/06 10:30",4430.38,19.99,TRADE
VIC1,"1999/06/06 11:00",4429.99833,20.4,TRADE
VIC1,"1999/06/06 11:30",4442.63667,20.06,TRADE
VIC1,"1999/06/06 12:00",4460.92167,20.82,TRADE
VIC1,"1999/06/06 12:30",4443.08833,26.24,TRADE
VIC1,"1999/06/06 13:00",4391.405,24.04,TRADE
VIC1,"1999/06/06 13:30",4437.29,22.77,TRADE
VIC1,"1999/06/06 14:00",4376.06667,22.6,TRADE
VIC1,"1999/06/06 14:30",4353.29,23.06,TRADE
VIC1,"1999/06/06 15:00",4316.95333,21.67,TRADE
VIC1,"1999/06/06 15:30",4308.83333,19.49,TRADE
VIC1,"1999/06/06 16:00",4356.945,22.26,TRADE
VIC1,"1999/06/06 16:30",4444.97,21.99,TRADE
VIC1,"1999/06/06 17:00",4636.845,23.34,TRADE
VIC1,"1999/06/06 17:30",4959.17667,30.43,TRADE
VIC1,"1999/06/06 18:00",5197.98667,36.49,TRADE
VIC1,"1999/06/06 18:30",5252.93333,37.29,TRADE
VIC1,"1999/06/06 19:00",5135.98167,34.05,TRADE
VIC1,"1999/06/06 19:30",5039.26167,28.3,TRADE
VIC1,"1999/06/06 20:00",5005.66833,31.08,TRADE
VIC1,"1999/06/06 20:30",4933.54167,27.79,TRADE
VIC1,"1999/06/06 21:00",4822.09667,27.6,TRADE
VIC1,"1999/06/06 21:30",4723.48333,27.38,TRADE
VIC1,"1999/06/06 22:00",4618.42,26.03,TRADE
VIC1,"1999/06/06 22:30",4583.22167,26.29,TRADE
VIC1,"1999/06/06 23:00",4577.905,26.27,TRADE
VIC1,"1999/06/06 23:30",4877.98667,29.67,TRADE
VIC1,"1999/06/07 00:00",4902.91,27.84,TRADE
VIC1,"1999/06/07 00:30",4830.29,26.56,TRADE
VIC1,"1999/06/07 01:00",4740.14167,20.96,TRADE
VIC1,"1999/06/07 01:30",4992.46833,28.12,TRADE
VIC1,"1999/06/07 02:00",4919.16333,26.71,TRADE
VIC1,"1999/06/07 02:30",4767.71,19.96,TRADE
VIC1,"1999/06/07 03:00",4646.28833,19.18,TRADE
VIC1,"1999/06/07 03:30",4469.94833,17.03,TRADE
VIC1,"1999/06/07 04:00",4327.54667,14.81,TRADE
VIC1,"1999/06/07 04:30",4301.29,14.23,TRADE
VIC1,"1999/06/07 05:00",4268.655,14.93,TRADE
VIC1,"1999/06/07 05:30",4351.60833,19.96,TRADE
VIC1,"1999/06/07 06:00",4451.43833,15.56,TRADE
VIC1,"1999/06/07 06:30",4810.29333,22.05,TRADE
VIC1,"1999/06/07 07:00",5165.23167,31.49,TRADE
VIC1,"1999/06/07 07:30",5340.94333,31.69,TRADE
VIC1,"1999/06/07 08:00",5637.89667,51.32,TRADE
VIC1,"1999/06/07 08:30",5741.76,51.96,TRADE
VIC1,"1999/06/07 09:00",5744.01667,55.49,TRADE
VIC1,"1999/06/07 09:30",5762.52667,64.46,TRADE
VIC1,"1999/06/07 10:00",5763.54667,65.68,TRADE
VIC1,"1999/06/07 10:30",5724.98667,53.62,TRADE
VIC1,"1999/06/07 11:00",5703.56167,46.09,TRADE
VIC1,"1999/06/07 11:30",5689.49667,47.26,TRADE
VIC1,"1999/06/07 12:00",5676.39,49.61,TRADE
VIC1,"1999/06/07 12:30",5608.30333,50.98,TRADE
VIC1,"1999/06/07 13:00",5595.075,49.87,TRADE
VIC1,"1999/06/07 13:30",5731.89333,55.61,TRADE
VIC1,"1999/06/07 14:00",5701.395,52.5,TRADE
VIC1,"1999/06/07 14:30",5689.15833,57.26,TRADE
VIC1,"1999/06/07 15:00",5626.11333,49.44,TRADE
VIC1,"1999/06/07 15:30",5606.62,46.25,TRADE
VIC1,"1999/06/07 16:00",5544.24833,48.19,TRADE
VIC1,"1999/06/07 16:30",5583.01333,46.77,TRADE
VIC1,"1999/06/07 17:00",5643.12667,44.18,TRADE
VIC1,"1999/06/07 17:30",5922.08167,56.55,TRADE
VIC1,"1999/06/07 18:00",6234.5,71.05,TRADE
VIC1,"1999/06/07 18:30",6194.96,72.66,TRADE
VIC1,"1999/06/07 19:00",6019.26,68.01,TRADE
VIC1,"1999/06/07 19:30",5838.14167,52.5,TRADE
VIC1,"1999/06/07 20:00",5717.47833,47.33,TRADE
VIC1,"1999/06/07 20:30",5561.04833,36.21,TRADE
VIC1,"1999/06/07 21:00",5489.22333,35.56,TRADE
VIC1,"1999/06/07 21:30",5341.79667,31.12,TRADE
VIC1,"1999/06/07 22:00",5223.07333,29.66,TRADE
VIC1,"1999/06/07 22:30",5089.815,25.08,TRADE
VIC1,"1999/06/07 23:00",5024.24833,25.08,TRADE
VIC1,"1999/06/07 23:30",5420.47333,33.58,TRADE
VIC1,"1999/06/08 00:00",5359.91,33.6,TRADE
VIC1,"1999/06/08 00:30",5258.99,32.11,TRADE
VIC1,"1999/06/08 01:00",5112.61,29.29,TRADE
VIC1,"1999/06/08 01:30",5360.27,31.93,TRADE
VIC1,"1999/06/08 02:00",5268.19667,25.84,TRADE
VIC1,"1999/06/08 02:30",5091.63833,24.72,TRADE
VIC1,"1999/06/08 03:00",4915.36833,21.75,TRADE
VIC1,"1999/06/08 03:30",4760.92167,21.16,TRADE
VIC1,"1999/06/08 04:00",4576.16833,15.77,TRADE
VIC1,"1999/06/08 04:30",4482.67667,13.76,TRADE
VIC1,"1999/06/08 05:00",4435.72333,12.27,TRADE
VIC1,"1999/06/08 05:30",4531.86,20.73,TRADE
VIC1,"1999/06/08 06:00",4667.17,17.93,TRADE
VIC1,"1999/06/08 06:30",4982.92667,23.34,TRADE
VIC1,"1999/06/08 07:00",5329.095,27.85,TRADE
VIC1,"1999/06/08 07:30",5522.66333,30.29,TRADE
VIC1,"1999/06/08 08:00",5795.61167,46.31,TRADE
VIC1,"1999/06/08 08:30",5872.515,50.92,TRADE
VIC1,"1999/06/08 09:00",5855.705,47.49,TRADE
VIC1,"1999/06/08 09:30",5846.09667,51.41,TRADE
VIC1,"1999/06/08 10:00",5780.36667,56.14,TRADE
VIC1,"1999/06/08 10:30",5729.91333,40.38,TRADE
VIC1,"1999/06/08 11:00",5682.70833,37.35,TRADE
VIC1,"1999/06/08 11:30",5630.12333,37.8,TRADE
VIC1,"1999/06/08 12:00",5624.10833,41.17,TRADE
VIC1,"1999/06/08 12:30",5617.475,42.04,TRADE
VIC1,"1999/06/08 13:00",5618.36667,43.43,TRADE
VIC1,"1999/06/08 13:30",5667.74167,45.04,TRADE
VIC1,"1999/06/08 14:00",5662.05,41.62,TRADE
VIC1,"1999/06/08 14:30",5632.835,40.38,TRADE
VIC1,"1999/06/08 15:00",5616.99333,38.31,TRADE
VIC1,"1999/06/08 15:30",5542.995,35.34,TRADE
VIC1,"1999/06/08 16:00",5503.19833,34.41,TRADE
VIC1,"1999/06/08 16:30",5565.54833,34.32,TRADE
VIC1,"1999/06/08 17:00",5649.76,35.51,TRADE
VIC1,"1999/06/08 17:30",5971.435,53.2,TRADE
VIC1,"1999/06/08 18:00",6297.47833,68.27,TRADE
VIC1,"1999/06/08 18:30",6259.08833,74.19,TRADE
VIC1,"1999/06/08 19:00",6107.27833,64.77,TRADE
VIC1,"1999/06/08 19:30",5911.39833,49.42,TRADE
VIC1,"1999/06/08 20:00",5761.585,42.4,TRADE
VIC1,"1999/06/08 20:30",5665.02167,39.6,TRADE
VIC1,"1999/06/08 21:00",5584.83167,39.7,TRADE
VIC1,"1999/06/08 21:30",5425.695,34.2,TRADE
VIC1,"1999/06/08 22:00",5315.64833,34.28,TRADE
VIC1,"1999/06/08 22:30",5175.20333,27.74,TRADE
VIC1,"1999/06/08 23:00",5068.02,25.91,TRADE
VIC1,"1999/06/08 23:30",5430.93,40.66,TRADE
VIC1,"1999/06/09 00:00",5406.04667,36.32,TRADE
VIC1,"1999/06/09 00:30",5325.08167,35.18,TRADE
VIC1,"1999/06/09 01:00",5202.115,32.33,TRADE
VIC1,"1999/06/09 01:30",5448.09167,35.81,TRADE
VIC1,"1999/06/09 02:00",5348.37167,33.79,TRADE
VIC1,"1999/06/09 02:30",5147.02167,27.94,TRADE
VIC1,"1999/06/09 03:00",4985.02167,24.65,TRADE
VIC1,"1999/06/09 03:30",4817.96833,19.83,TRADE
VIC1,"1999/06/09 04:00",4679.43,19.28,TRADE
VIC1,"1999/06/09 04:30",4620.765,13.84,TRADE
VIC1,"1999/06/09 05:00",4560.14833,13.34,TRADE
VIC1,"1999/06/09 05:30",4636.02333,17.6,TRADE
VIC1,"1999/06/09 06:00",4781.86167,17.99,TRADE
VIC1,"1999/06/09 06:30",5122.2,23.95,TRADE
VIC1,"1999/06/09 07:00",5436.33333,26.92,TRADE
VIC1,"1999/06/09 07:30",5618.95833,30.03,TRADE
VIC1,"1999/06/09 08:00",5980.705,46.91,TRADE
VIC1,"1999/06/09 08:30",6115.11667,49.09,TRADE
VIC1,"1999/06/09 09:00",6119.35333,50.67,TRADE
VIC1,"1999/06/09 09:30",6135.245,60.84,TRADE
VIC1,"1999/06/09 10:00",6034.485,56.92,TRADE
VIC1,"1999/06/09 10:30",5972.62,47.86,TRADE
VIC1,"1999/06/09 11:00",5884.87167,47.66,TRADE
VIC1,"1999/06/09 11:30",5875.91833,47.39,TRADE
VIC1,"1999/06/09 12:00",5767.335,46,TRADE
VIC1,"1999/06/09 12:30",5716.99833,47.34,TRADE
VIC1,"1999/06/09 13:00",5674.14833,47.26,TRADE
VIC1,"1999/06/09 13:30",5785.11167,47.18,TRADE
VIC1,"1999/06/09 14:00",5754.835,45.13,TRADE
VIC1,"1999/06/09 14:30",5748.1,52.34,TRADE
VIC1,"1999/06/09 15:00",5702.68,56.11,TRADE
VIC1,"1999/06/09 15:30",5620.60833,50.63,TRADE
VIC1,"1999/06/09 16:00",5615.02667,44.86,TRADE
VIC1,"1999/06/09 16:30",5642.58667,42.36,TRADE
VIC1,"1999/06/09 17:00",5753.20333,40.94,TRADE
VIC1,"1999/06/09 17:30",6023.10333,50.65,TRADE
VIC1,"1999/06/09 18:00",6312.86167,82.16,TRADE
VIC1,"1999/06/09 18:30",6286.84333,83.06,TRADE
VIC1,"1999/06/09 19:00",6102.26333,52.55,TRADE
VIC1,"1999/06/09 19:30",5904.85333,44.46,TRADE
VIC1,"1999/06/09 20:00",5796.14,39.25,TRADE
VIC1,"1999/06/09 20:30",5674.92167,32.38,TRADE
VIC1,"1999/06/09 21:00",5583.85,32.72,TRADE
VIC1,"1999/06/09 21:30",5472.595,36.82,TRADE
VIC1,"1999/06/09 22:00",5313.87833,30.65,TRADE
VIC1,"1999/06/09 22:30",5238.10167,28.89,TRADE
VIC1,"1999/06/09 23:00",5117.55833,26.23,TRADE
VIC1,"1999/06/09 23:30",5475.40333,32.73,TRADE
VIC1,"1999/06/10 00:00",5438.62833,29.93,TRADE
VIC1,"1999/06/10 00:30",5341.22333,29.33,TRADE
VIC1,"1999/06/10 01:00",5173.38833,26.3,TRADE
VIC1,"1999/06/10 01:30",5444.95,28.73,TRADE
VIC1,"1999/06/10 02:00",5311.83,22.94,TRADE
VIC1,"1999/06/10 02:30",5099.00167,22.38,TRADE
VIC1,"1999/06/10 03:00",4926.34,18.23,TRADE
VIC1,"1999/06/10 03:30",4700.43333,14.75,TRADE
VIC1,"1999/06/10 04:00",4504.24833,13.84,TRADE
VIC1,"1999/06/10 04:30",4405.615,7.48,TRADE
VIC1,"1999/06/10 05:00",4376.52,7.96,TRADE
VIC1,"1999/06/10 05:30",4455.43333,9.89,TRADE
VIC1,"1999/06/10 06:00",4667.905,13.83,TRADE
VIC1,"1999/06/10 06:30",4995.225,18.08,TRADE
VIC1,"1999/06/10 07:00",5341.67,19.6,TRADE
VIC1,"1999/06/10 07:30",5541.39167,20.41,TRADE
VIC1,"1999/06/10 08:00",5832.82333,26.11,TRADE
VIC1,"1999/06/10 08:30",5960.85667,26.74,TRADE
VIC1,"1999/06/10 09:00",5921.855,27.67,TRADE
VIC1,"1999/06/10 09:30",5998.47667,46.31,TRADE
VIC1,"1999/06/10 10:00",5904.08333,32.61,TRADE
VIC1,"1999/06/10 10:30",5939.61833,23.53,TRADE
VIC1,"1999/06/10 11:00",5993.91333,18.97,TRADE
VIC1,"1999/06/10 11:30",5972.4,18.15,TRADE
VIC1,"1999/06/10 12:00",5948.81667,19.95,TRADE
VIC1,"1999/06/10 12:30",5886.87833,17.99,TRADE
VIC1,"1999/06/10 13:00",5909.36,18.46,TRADE
VIC1,"1999/06/10 13:30",6076.905,28.18,TRADE
VIC1,"1999/06/10 14:00",6055.75667,21.68,TRADE
VIC1,"1999/06/10 14:30",6053.55,20.72,TRADE
VIC1,"1999/06/10 15:00",6054.245,19.32,TRADE
VIC1,"1999/06/10 15:30",6050.58833,20.41,TRADE
VIC1,"1999/06/10 16:00",6079.11667,25.24,TRADE
VIC1,"1999/06/10 16:30",6144.01333,29.61,TRADE
VIC1,"1999/06/10 17:00",6294.335,24.27,TRADE
VIC1,"1999/06/10 17:30",6520.96333,36.85,TRADE
VIC1,"1999/06/10 18:00",6708.44833,46.59,TRADE
VIC1,"1999/06/10 18:30",6549.705,44.42,TRADE
VIC1,"1999/06/10 19:00",6363.77,36.01,TRADE
VIC1,"1999/06/10 19:30",6189.19167,34.26,TRADE
VIC1,"1999/06/10 20:00",6065.135,31.74,TRADE
VIC1,"1999/06/10 20:30",5964.17333,31.27,TRADE
VIC1,"1999/06/10 21:00",5842.015,26.07,TRADE
VIC1,"1999/06/10 21:30",5673.14333,21.92,TRADE
VIC1,"1999/06/10 22:00",5504.33167,24.18,TRADE
VIC1,"1999/06/10 22:30",5389.62667,23.87,TRADE
VIC1,"1999/06/10 23:00",5261.28667,18.68,TRADE
VIC1,"1999/06/10 23:30",5663.21333,31.08,TRADE
VIC1,"1999/06/11 00:00",5597.25667,28.09,TRADE
VIC1,"1999/06/11 00:30",5512.80333,26.34,TRADE
VIC1,"1999/06/11 01:00",5399.61167,24.71,TRADE
VIC1,"1999/06/11 01:30",5612.78667,26.86,TRADE
VIC1,"1999/06/11 02:00",5483.555,22.91,TRADE
VIC1,"1999/06/11 02:30",5281.585,21.85,TRADE
VIC1,"1999/06/11 03:00",5113.11833,16.9,TRADE
VIC1,"1999/06/11 03:30",4870.265,15.53,TRADE
VIC1,"1999/06/11 04:00",4719.77,13,TRADE
VIC1,"1999/06/11 04:30",4589.835,11.09,TRADE
VIC1,"1999/06/11 05:00",4595.985,13.03,TRADE
VIC1,"1999/06/11 05:30",4642.66833,14.3,TRADE
VIC1,"1999/06/11 06:00",4753.24,16.23,TRADE
VIC1,"1999/06/11 06:30",5062.1,20.21,TRADE
VIC1,"1999/06/11 07:00",5421.47167,23.58,TRADE
VIC1,"1999/06/11 07:30",5563.845,25.47,TRADE
VIC1,"1999/06/11 08:00",5923.48,36.17,TRADE
VIC1,"1999/06/11 08:30",6072.15,37.5,TRADE
VIC1,"1999/06/11 09:00",6048.11,34.05,TRADE
VIC1,"1999/06/11 09:30",6120.885,44.67,TRADE
VIC1,"1999/06/11 10:00",6130.56333,45.16,TRADE
VIC1,"1999/06/11 10:30",6056.61833,35.24,TRADE
VIC1,"1999/06/11 11:00",6032.075,32.19,TRADE
VIC1,"1999/06/11 11:30",6006.51,30.1,TRADE
VIC1,"1999/06/11 12:00",5999.06667,30.67,TRADE
VIC1,"1999/06/11 12:30",5930.21167,31.12,TRADE
VIC1,"1999/06/11 13:00",5882.335,31.16,TRADE
VIC1,"1999/06/11 13:30",5946.755,36.07,TRADE
VIC1,"1999/06/11 14:00",5994.55167,36,TRADE
VIC1,"1999/06/11 14:30",5946.78,35.42,TRADE
VIC1,"1999/06/11 15:00",6021.38667,31.55,TRADE
VIC1,"1999/06/11 15:30",5885.67,26.17,TRADE
VIC1,"1999/06/11 16:00",5797.66667,24.59,TRADE
VIC1,"1999/06/11 16:30",5788.26333,27.94,TRADE
VIC1,"1999/06/11 17:00",5836.56833,18.99,TRADE
VIC1,"1999/06/11 17:30",6157.34833,38.3,TRADE
VIC1,"1999/06/11 18:00",6285.405,44.67,TRADE
VIC1,"1999/06/11 18:30",6223.65833,45.16,TRADE
VIC1,"1999/06/11 19:00",6060.40333,35.98,TRADE
VIC1,"1999/06/11 19:30",5934.13667,38.35,TRADE
VIC1,"1999/06/11 20:00",5788.59,31.81,TRADE
VIC1,"1999/06/11 20:30",5684.81,30.32,TRADE
VIC1,"1999/06/11 21:00",5567.545,26.41,TRADE
VIC1,"1999/06/11 21:30",5466.45,30.49,TRADE
VIC1,"1999/06/11 22:00",5314.845,27.26,TRADE
VIC1,"1999/06/11 22:30",5240.00667,24.6,TRADE
VIC1,"1999/06/11 23:00",5191.96333,24.2,TRADE
VIC1,"1999/06/11 23:30",5654.46,34.31,TRADE
VIC1,"1999/06/12 00:00",5579.60167,31.55,TRADE
VIC1,"1999/06/12 00:30",5478.93167,29.53,TRADE
VIC1,"1999/06/12 01:00",5328.57333,25.07,TRADE
VIC1,"1999/06/12 01:30",5564.92833,29.27,TRADE
VIC1,"1999/06/12 02:00",5442.415,28.53,TRADE
VIC1,"1999/06/12 02:30",5292.29,25.3,TRADE
VIC1,"1999/06/12 03:00",5054.62167,21.3,TRADE
VIC1,"1999/06/12 03:30",4791.27333,19.49,TRADE
VIC1,"1999/06/12 04:00",4659.68667,15.27,TRADE
VIC1,"1999/06/12 04:30",4588.24333,13.69,TRADE
VIC1,"1999/06/12 05:00",4537.79667,13.52,TRADE
VIC1,"1999/06/12 05:30",4497.72167,13.42,TRADE
VIC1,"1999/06/12 06:00",4516.83333,13.84,TRADE
VIC1,"1999/06/12 06:30",4592.34167,15.22,TRADE
VIC1,"1999/06/12 07:00",4661.40333,15.79,TRADE
VIC1,"1999/06/12 07:30",4629.28167,16.6,TRADE
VIC1,"1999/06/12 08:00",4781.71167,22.75,TRADE
VIC1,"1999/06/12 08:30",5002.3,27.84,TRADE
VIC1,"1999/06/12 09:00",5178.14333,33.36,TRADE
VIC1,"1999/06/12 09:30",5307.77833,38.03,TRADE
VIC1,"1999/06/12 10:00",5288.89833,37.73,TRADE
VIC1,"1999/06/12 10:30",5260.39167,34.69,TRADE
VIC1,"1999/06/12 11:00",5209.915,30.03,TRADE
VIC1,"1999/06/12 11:30",5158.705,28.18,TRADE
VIC1,"1999/06/12 12:00",5448.96667,54.71,TRADE
VIC1,"1999/06/12 12:30",5225.82333,32.87,TRADE
VIC1,"1999/06/12 13:00",5013.00833,25.12,TRADE
VIC1,"1999/06/12 13:30",5060.97,25.57,TRADE
VIC1,"1999/06/12 14:00",5028.14,25.37,TRADE
VIC1,"1999/06/12 14:30",5033.70833,25.37,TRADE
VIC1,"1999/06/12 15:00",5007.89667,24.21,TRADE
VIC1,"1999/06/12 15:30",5012.70667,24.77,TRADE
VIC1,"1999/06/12 16:00",5012.83333,24.36,TRADE
VIC1,"1999/06/12 16:30",5025.47167,26.73,TRADE
VIC1,"1999/06/12 17:00",5175.61333,33.29,TRADE
VIC1,"1999/06/12 17:30",5558.505,43.73,TRADE
VIC1,"1999/06/12 18:00",5863.38,47.24,TRADE
VIC1,"1999/06/12 18:30",5842.35667,50.4,TRADE
VIC1,"1999/06/12 19:00",5719.275,44.82,TRADE
VIC1,"1999/06/12 19:30",5552.78833,41.16,TRADE
VIC1,"1999/06/12 20:00",5441.955,38.01,TRADE
VIC1,"1999/06/12 20:30",5332.04,31.43,TRADE
VIC1,"1999/06/12 21:00",5293.19333,34.38,TRADE
VIC1,"1999/06/12 21:30",5195.15333,33.81,TRADE
VIC1,"1999/06/12 22:00",5086.205,28.99,TRADE
VIC1,"1999/06/12 22:30",5038.295,28.15,TRADE
VIC1,"1999/06/12 23:00",5019.10333,25.86,TRADE
VIC1,"1999/06/12 23:30",5396.15667,34.26,TRADE
VIC1,"1999/06/13 00:00",5374.43667,29.31,TRADE
VIC1,"1999/06/13 00:30",5318.10167,33.45,TRADE
VIC1,"1999/06/13 01:00",5216.05,27.06,TRADE
VIC1,"1999/06/13 01:30",5457.245,30.97,TRADE
VIC1,"1999/06/13 02:00",5338.05333,25.94,TRADE
VIC1,"1999/06/13 02:30",5119.67,19.83,TRADE
VIC1,"1999/06/13 03:00",4923.07333,17.78,TRADE
VIC1,"1999/06/13 03:30",4744.78833,14.45,TRADE
VIC1,"1999/06/13 04:00",4590.65333,13.53,TRADE
VIC1,"1999/06/13 04:30",4456.59167,12.13,TRADE
VIC1,"1999/06/13 05:00",4323.69333,12.12,TRADE
VIC1,"1999/06/13 05:30",4266.065,12.12,TRADE
VIC1,"1999/06/13 06:00",4227.15667,12.12,TRADE
VIC1,"1999/06/13 06:30",4251.94167,12.23,TRADE
VIC1,"1999/06/13 07:00",4248.42667,12.4,TRADE
VIC1,"1999/06/13 07:30",4138.26,11.98,TRADE
VIC1,"1999/06/13 08:00",4230.57167,13.4,TRADE
VIC1,"1999/06/13 08:30",4422.57,16.1,TRADE
VIC1,"1999/06/13 09:00",4593.20167,22.57,TRADE
VIC1,"1999/06/13 09:30",4770.4,27.7,TRADE
VIC1,"1999/06/13 10:00",4911.405,30.82,TRADE
VIC1,"1999/06/13 10:30",4967.37167,31.06,TRADE
VIC1,"1999/06/13 11:00",4963.20833,31.36,TRADE
VIC1,"1999/06/13 11:30",5022.465,31.71,TRADE
VIC1,"1999/06/13 12:00",5065.545,32.34,TRADE
VIC1,"1999/06/13 12:30",5034.33167,35.16,TRADE
VIC1,"1999/06/13 13:00",5082.68333,35.59,TRADE
VIC1,"1999/06/13 13:30",5174.18333,36.81,TRADE
VIC1,"1999/06/13 14:00",5174.67833,32.94,TRADE
VIC1,"1999/06/13 14:30",5126.38167,32.46,TRADE
VIC1,"1999/06/13 15:00",5094.68833,31.85,TRADE
VIC1,"1999/06/13 15:30",5046.995,31.15,TRADE
VIC1,"1999/06/13 16:00",5091,26.84,TRADE
VIC1,"1999/06/13 16:30",5076.21,27.63,TRADE
VIC1,"1999/06/13 17:00",5202.52167,29.64,TRADE
VIC1,"1999/06/13 17:30",5467.83667,38.08,TRADE
VIC1,"1999/06/13 18:00",5633.56333,44.29,TRADE
VIC1,"1999/06/13 18:30",5644.14833,44.5,TRADE
VIC1,"1999/06/13 19:00",5504.82667,41.67,TRADE
VIC1,"1999/06/13 19:30",5405.17167,30.27,TRADE
VIC1,"1999/06/13 20:00",5301.49,32.89,TRADE
VIC1,"1999/06/13 20:30",5257.96,28.79,TRADE
VIC1,"1999/06/13 21:00",5199.25,28.25,TRADE
VIC1,"1999/06/13 21:30",5094.84167,27.41,TRADE
VIC1,"1999/06/13 22:00",5007.37,25.19,TRADE
VIC1,"1999/06/13 22:30",4979.345,25.85,TRADE
VIC1,"1999/06/13 23:00",4943.33833,24.44,TRADE
VIC1,"1999/06/13 23:30",5310.19833,31.89,TRADE
VIC1,"1999/06/14 00:00",5244.82167,26.52,TRADE
VIC1,"1999/06/14 00:30",5227.58333,25.05,TRADE
VIC1,"1999/06/14 01:00",5092.12333,20.8,TRADE
VIC1,"1999/06/14 01:30",5352.69667,26.81,TRADE
VIC1,"1999/06/14 02:00",5222.12,23.4,TRADE
VIC1,"1999/06/14 02:30",5008.84,16.87,TRADE
VIC1,"1999/06/14 03:00",4855.17333,14.14,TRADE
VIC1,"1999/06/14 03:30",4666.10167,12.92,TRADE
VIC1,"1999/06/14 04:00",4509.80667,12.13,TRADE
VIC1,"1999/06/14 04:30",4391.40333,11.39,TRADE
VIC1,"1999/06/14 05:00",4320.415,8.98,TRADE
VIC1,"1999/06/14 05:30",4282.55667,10.41,TRADE
VIC1,"1999/06/14 06:00",4306.90833,11.28,TRADE
VIC1,"1999/06/14 06:30",4402.87333,12.66,TRADE
VIC1,"1999/06/14 07:00",4442.745,13.31,TRADE
VIC1,"1999/06/14 07:30",4240.57,11.9,TRADE
VIC1,"1999/06/14 08:00",4350.20667,12.34,TRADE
VIC1,"1999/06/14 08:30",4513.12167,14.53,TRADE
VIC1,"1999/06/14 09:00",4691.33833,19.17,TRADE
VIC1,"1999/06/14 09:30",4922.02167,26.79,TRADE
VIC1,"1999/06/14 10:00",5035.60833,30.01,TRADE
VIC1,"1999/06/14 10:30",5112.95,30.18,TRADE
VIC1,"1999/06/14 11:00",5119.25167,29.44,TRADE
VIC1,"1999/06/14 11:30",5108.53833,29.65,TRADE
VIC1,"1999/06/14 12:00",5100.27,28.53,TRADE
VIC1,"1999/06/14 12:30",5090.415,28.91,TRADE
VIC1,"1999/06/14 13:00",5069.60667,28.64,TRADE
VIC1,"1999/06/14 13:30",5151.405,29.12,TRADE
VIC1,"1999/06/14 14:00",5144.03,28.9,TRADE
VIC1,"1999/06/14 14:30",5110.67833,29.42,TRADE
VIC1,"1999/06/14 15:00",5062.67167,28.91,TRADE
VIC1,"1999/06/14 15:30",5086.155,27.34,TRADE
VIC1,"1999/06/14 16:00",5089.65833,23.69,TRADE
VIC1,"1999/06/14 16:30",5085.715,29.24,TRADE
VIC1,"1999/06/14 17:00",5158.27667,30.81,TRADE
VIC1,"1999/06/14 17:30",5524.25167,54.65,TRADE
VIC1,"1999/06/14 18:00",5879.19667,68.74,TRADE
VIC1,"1999/06/14 18:30",5844.88,71.47,TRADE
VIC1,"1999/06/14 19:00",5720.37167,58.22,TRADE
VIC1,"1999/06/14 19:30",5570.78833,54.27,TRADE
VIC1,"1999/06/14 20:00",5450.06333,43.54,TRADE
VIC1,"1999/06/14 20:30",5413.165,36.41,TRADE
VIC1,"1999/06/14 21:00",5307.80833,33.37,TRADE
VIC1,"1999/06/14 21:30",5191.20833,33.01,TRADE
VIC1,"1999/06/14 22:00",5058.84,27.21,TRADE
VIC1,"1999/06/14 22:30",4940.58,25.62,TRADE
VIC1,"1999/06/14 23:00",4858.61333,21.08,TRADE
VIC1,"1999/06/14 23:30",5256.39167,28.31,TRADE
VIC1,"1999/06/15 00:00",5220.72667,25.88,TRADE
VIC1,"1999/06/15 00:30",5175.04,19.67,TRADE
VIC1,"1999/06/15 01:00",5115.39167,18.37,TRADE
VIC1,"1999/06/15 01:30",5391.40667,27.83,TRADE
VIC1,"1999/06/15 02:00",5298.98333,24.26,TRADE
VIC1,"1999/06/15 02:30",5148.78,21.49,TRADE
VIC1,"1999/06/15 03:00",4983.74833,18.15,TRADE
VIC1,"1999/06/15 03:30",4827.21,14.84,TRADE
VIC1,"1999/06/15 04:00",4709.69167,13.69,TRADE
VIC1,"1999/06/15 04:30",4556.89167,10.53,TRADE
VIC1,"1999/06/15 05:00",4495.42833,10.23,TRADE
VIC1,"1999/06/15 05:30",4563.51833,15.47,TRADE
VIC1,"1999/06/15 06:00",4663.525,17.76,TRADE
VIC1,"1999/06/15 06:30",5008.39,26.68,TRADE
VIC1,"1999/06/15 07:00",5314.64,30.54,TRADE
VIC1,"1999/06/15 07:30",5549.645,36.24,TRADE
VIC1,"1999/06/15 08:00",5980.06667,56.23,TRADE
VIC1,"1999/06/15 08:30",6188.68,62.82,TRADE
VIC1,"1999/06/15 09:00",6232.88167,63.37,TRADE
VIC1,"1999/06/15 09:30",6305.16667,64.08,TRADE
VIC1,"1999/06/15 10:00",6307.515,63.72,TRADE
VIC1,"1999/06/15 10:30",6290.97833,61.75,TRADE
VIC1,"1999/06/15 11:00",6220.84333,52.98,TRADE
VIC1,"1999/06/15 11:30",6179.82833,48.52,TRADE
VIC1,"1999/06/15 12:00",6134.845,57.02,TRADE
VIC1,"1999/06/15 12:30",6115.885,57.32,TRADE
VIC1,"1999/06/15 13:00",6079.04833,58.89,TRADE
VIC1,"1999/06/15 13:30",6152.28667,60.27,TRADE
VIC1,"1999/06/15 14:00",6142.975,51.5,TRADE
VIC1,"1999/06/15 14:30",6113.09167,50.15,TRADE
VIC1,"1999/06/15 15:00",6118.78333,48.06,TRADE
VIC1,"1999/06/15 15:30",6105.36167,47.97,TRADE
VIC1,"1999/06/15 16:00",6123.73,47.92,TRADE
VIC1,"1999/06/15 16:30",6144.015,62.85,TRADE
VIC1,"1999/06/15 17:00",6223.44667,62.89,TRADE
VIC1,"1999/06/15 17:30",6458.50167,78.84,TRADE
VIC1,"1999/06/15 18:00",6745.22167,335.54,TRADE
VIC1,"1999/06/15 18:30",6627.41,190.64,TRADE
VIC1,"1999/06/15 19:00",6403.74667,79.89,TRADE
VIC1,"1999/06/15 19:30",6224.77833,61.95,TRADE
VIC1,"1999/06/15 20:00",6072.43,56.28,TRADE
VIC1,"1999/06/15 20:30",5967.56,55.66,TRADE
VIC1,"1999/06/15 21:00",5847.39833,52.33,TRADE
VIC1,"1999/06/15 21:30",5714.00833,46.5,TRADE
VIC1,"1999/06/15 22:00",5549.37333,38.59,TRADE
VIC1,"1999/06/15 22:30",5355.71667,33.23,TRADE
VIC1,"1999/06/15 23:00",5223.68167,27.89,TRADE
VIC1,"1999/06/15 23:30",5540.39833,34.06,TRADE
VIC1,"1999/06/16 00:00",5522.51833,33.92,TRADE
VIC1,"1999/06/16 00:30",5416.225,34.27,TRADE
VIC1,"1999/06/16 01:00",5315.69167,32.24,TRADE
VIC1,"1999/06/16 01:30",5584.04,35.82,TRADE
VIC1,"1999/06/16 02:00",5484.48167,32.81,TRADE
VIC1,"1999/06/16 02:30",5311.20333,27.26,TRADE
VIC1,"1999/06/16 03:00",5135.43833,24.23,TRADE
VIC1,"1999/06/16 03:30",4932.71833,23.27,TRADE
VIC1,"1999/06/16 04:00",4788.14833,19.03,TRADE
VIC1,"1999/06/16 04:30",4691.57333,14,TRADE
VIC1,"1999/06/16 05:00",4608.48833,14.03,TRADE
VIC1,"1999/06/16 05:30",4694.56,20.25,TRADE
VIC1,"1999/06/16 06:00",4787.48833,20.73,TRADE
VIC1,"1999/06/16 06:30",5172.975,25.94,TRADE
VIC1,"1999/06/16 07:00",5476.53667,32.16,TRADE
VIC1,"1999/06/16 07:30",5696.55333,39.55,TRADE
VIC1,"1999/06/16 08:00",6090.64333,59.4,TRADE
VIC1,"1999/06/16 08:30",6146.26,62.05,TRADE
VIC1,"1999/06/16 09:00",6230.58833,63.27,TRADE
VIC1,"1999/06/16 09:30",6279.42833,63.82,TRADE
VIC1,"1999/06/16 10:00",6239.06167,64.45,TRADE
VIC1,"1999/06/16 10:30",6159.67833,58.04,TRADE
VIC1,"1999/06/16 11:00",6075.125,48.91,TRADE
VIC1,"1999/06/16 11:30",6006.18,46.32,TRADE
VIC1,"1999/06/16 12:00",5969.705,46.77,TRADE
VIC1,"1999/06/16 12:30",5973.92333,46.7,TRADE
VIC1,"1999/06/16 13:00",5917.56167,47.19,TRADE
VIC1,"1999/06/16 13:30",5992.60333,47.54,TRADE
VIC1,"1999/06/16 14:00",5991.96,46.87,TRADE
VIC1,"1999/06/16 14:30",5999.01333,46.52,TRADE
VIC1,"1999/06/16 15:00",5932.565,41,TRADE
VIC1,"1999/06/16 15:30",5910.475,39.03,TRADE
VIC1,"1999/06/16 16:00",5871.43667,38.09,TRADE
VIC1,"1999/06/16 16:30",5947.26167,45.5,TRADE
VIC1,"1999/06/16 17:00",6057.66,49.8,TRADE
VIC1,"1999/06/16 17:30",6341.555,56.81,TRADE
VIC1,"1999/06/16 18:00",6606.58167,62.66,TRADE
VIC1,"1999/06/16 18:30",6563.51333,63.32,TRADE
VIC1,"1999/06/16 19:00",6389.13333,61.75,TRADE
VIC1,"1999/06/16 19:30",6210.42833,52.03,TRADE
VIC1,"1999/06/16 20:00",6086.06667,54.17,TRADE
VIC1,"1999/06/16 20:30",5955.98167,54.04,TRADE
VIC1,"1999/06/16 21:00",5835.43833,55.97,TRADE
VIC1,"1999/06/16 21:30",5675.41833,48.74,TRADE
VIC1,"1999/06/16 22:00",5545.68833,39.23,TRADE
VIC1,"1999/06/16 22:30",5438.85167,34.39,TRADE
VIC1,"1999/06/16 23:00",5284.88667,30.85,TRADE
VIC1,"1999/06/16 23:30",5673.98667,37.55,TRADE
VIC1,"1999/06/17 00:00",5591.59667,35.43,TRADE
VIC1,"1999/06/17 00:30",5513.71667,41.24,TRADE
VIC1,"1999/06/17 01:00",5346.35,34.65,TRADE
VIC1,"1999/06/17 01:30",5625.565,39.47,TRADE
VIC1,"1999/06/17 02:00",5478.535,34.35,TRADE
VIC1,"1999/06/17 02:30",5316.76167,28.33,TRADE
VIC1,"1999/06/17 03:00",5119.36,26.09,TRADE
VIC1,"1999/06/17 03:30",4897.81,24.62,TRADE
VIC1,"1999/06/17 04:00",4744.245,21.9,TRADE
VIC1,"1999/06/17 04:30",4641.69833,20.76,TRADE
VIC1,"1999/06/17 05:00",4614.11167,19.23,TRADE
VIC1,"1999/06/17 05:30",4675.915,22.29,TRADE
VIC1,"1999/06/17 06:00",4776.18833,23.64,TRADE
VIC1,"1999/06/17 06:30",5177.425,29.99,TRADE
VIC1,"1999/06/17 07:00",5462.75,33.76,TRADE
VIC1,"1999/06/17 07:30",5722.23667,44.88,TRADE
VIC1,"1999/06/17 08:00",6035.62667,59.6,TRADE
VIC1,"1999/06/17 08:30",6178.86833,63.41,TRADE
VIC1,"1999/06/17 09:00",6149.915,63.42,TRADE
VIC1,"1999/06/17 09:30",6166.22167,66.89,TRADE
VIC1,"1999/06/17 10:00",6125.58833,63.2,TRADE
VIC1,"1999/06/17 10:30",6051.77,60.14,TRADE
VIC1,"1999/06/17 11:00",6007.435,52.33,TRADE
VIC1,"1999/06/17 11:30",5967.60333,52.76,TRADE
VIC1,"1999/06/17 12:00",5950.48167,54.41,TRADE
VIC1,"1999/06/17 12:30",5899.00333,48.25,TRADE
VIC1,"1999/06/17 13:00",5858.07,48.08,TRADE
VIC1,"1999/06/17 13:30",5934.8825,48.29,TRADE
VIC1,"1999/06/17 14:30",5926.10667,47.52,TRADE
VIC1,"1999/06/17 15:00",5879.245,44.66,TRADE
VIC1,"1999/06/17 15:30",5863.385,39.96,TRADE
VIC1,"1999/06/17 16:00",5878.34167,39.77,TRADE
VIC1,"1999/06/17 16:30",5953.56333,44.55,TRADE
VIC1,"1999/06/17 17:00",6062.685,50.05,TRADE
VIC1,"1999/06/17 17:30",6374.84833,63.24,TRADE
VIC1,"1999/06/17 18:00",6569.90333,194.57,TRADE
VIC1,"1999/06/17 18:30",6486.99833,103.21,TRADE
VIC1,"1999/06/17 19:00",6295.395,54.77,TRADE
VIC1,"1999/06/17 19:30",6131.25,50.62,TRADE
VIC1,"1999/06/17 20:00",6007.10667,50.08,TRADE
VIC1,"1999/06/17 20:30",5924.35333,53.15,TRADE
VIC1,"1999/06/17 21:00",5771.64,48.03,TRADE
VIC1,"1999/06/17 21:30",5621.57,46.11,TRADE
VIC1,"1999/06/17 22:00",5440.48167,33.5,TRADE
VIC1,"1999/06/17 22:30",5330.70333,31.38,TRADE
VIC1,"1999/06/17 23:00",5214.74833,28.81,TRADE
VIC1,"1999/06/17 23:30",5599.81833,36.64,TRADE
VIC1,"1999/06/18 00:00",5549.41833,34.47,TRADE
VIC1,"1999/06/18 00:30",5442.935,34.27,TRADE
VIC1,"1999/06/18 01:00",5275.45667,30.46,TRADE
VIC1,"1999/06/18 01:30",5502.725,35.08,TRADE
VIC1,"1999/06/18 02:00",5406.24167,31.48,TRADE
VIC1,"1999/06/18 02:30",5234.62833,25.78,TRADE
VIC1,"1999/06/18 03:00",5036.93833,21.17,TRADE
VIC1,"1999/06/18 03:30",4820.85667,20.45,TRADE
VIC1,"1999/06/18 04:00",4667.815,15.18,TRADE
VIC1,"1999/06/18 04:30",4555.42667,14.09,TRADE
VIC1,"1999/06/18 05:00",4485.53167,13.71,TRADE
VIC1,"1999/06/18 05:30",4526.29333,14.52,TRADE
VIC1,"1999/06/18 06:00",4634.06667,16.07,TRADE
VIC1,"1999/06/18 06:30",5017.07333,20.57,TRADE
VIC1,"1999/06/18 07:00",5340.60167,30.04,TRADE
VIC1,"1999/06/18 07:30",5466.30833,30.32,TRADE
VIC1,"1999/06/18 08:00",5598.13,34.82,TRADE
VIC1,"1999/06/18 08:30",5508.01333,25.59,TRADE
VIC1,"1999/06/18 09:00",5559.175,46.24,TRADE
VIC1,"1999/06/18 09:30",5555.63167,39.48,TRADE
VIC1,"1999/06/18 10:00",5615.395,55.48,TRADE
VIC1,"1999/06/18 10:30",5729.81,41.44,TRADE
VIC1,"1999/06/18 11:00",5912.80167,32.77,TRADE
VIC1,"1999/06/18 11:30",5858.13667,26.84,TRADE
VIC1,"1999/06/18 12:00",5865.11167,25.52,TRADE
VIC1,"1999/06/18 12:30",5836.53167,39.58,TRADE
VIC1,"1999/06/18 13:00",5785.71167,43.38,TRADE
VIC1,"1999/06/18 13:30",5845.72667,41.94,TRADE
VIC1,"1999/06/18 14:00",5843.35333,32.12,TRADE
VIC1,"1999/06/18 14:30",5777.735,31.23,TRADE
VIC1,"1999/06/18 15:00",5733.70833,28.93,TRADE
VIC1,"1999/06/18 15:30",5630.91333,23.6,TRADE
VIC1,"1999/06/18 16:00",5675.08667,24.8,TRADE
VIC1,"1999/06/18 16:30",5688.63167,29.93,TRADE
VIC1,"1999/06/18 17:00",5803.67333,34.44,TRADE
VIC1,"1999/06/18 17:30",6046.10667,39.61,TRADE
VIC1,"1999/06/18 18:00",6207.28167,48.59,TRADE
VIC1,"1999/06/18 18:30",6191.87333,51.06,TRADE
VIC1,"1999/06/18 19:00",6033.50833,47.3,TRADE
VIC1,"1999/06/18 19:30",5897.74667,47.6,TRADE
VIC1,"1999/06/18 20:00",5764.93333,36.53,TRADE
VIC1,"1999/06/18 20:30",5631.625,35.12,TRADE
VIC1,"1999/06/18 21:00",5539.92,27.06,TRADE
VIC1,"1999/06/18 21:30",5383.09667,25.19,TRADE
VIC1,"1999/06/18 22:00",5237.81333,21.86,TRADE
VIC1,"1999/06/18 22:30",5179.81333,26.06,TRADE
VIC1,"1999/06/18 23:00",5152.995,24.22,TRADE
VIC1,"1999/06/18 23:30",5609.58167,31.47,TRADE
VIC1,"1999/06/19 00:00",5540.105,30.63,TRADE
VIC1,"1999/06/19 00:30",5375.7,30.99,TRADE
VIC1,"1999/06/19 01:00",5225.425,29.68,TRADE
VIC1,"1999/06/19 01:30",5436.12,34.89,TRADE
VIC1,"1999/06/19 02:00",5297.89833,29.41,TRADE
VIC1,"1999/06/19 02:30",5079.60333,20.33,TRADE
VIC1,"1999/06/19 03:00",4877.87333,17.57,TRADE
VIC1,"1999/06/19 03:30",4665.85,16.48,TRADE
VIC1,"1999/06/19 04:00",4513.13833,14.18,TRADE
VIC1,"1999/06/19 04:30",4432.34167,12.77,TRADE
VIC1,"1999/06/19 05:00",4371.44333,13.65,TRADE
VIC1,"1999/06/19 05:30",4313.66167,12.94,TRADE
VIC1,"1999/06/19 06:00",4343.68167,14.89,TRADE
VIC1,"1999/06/19 06:30",4484.06,20.19,TRADE
VIC1,"1999/06/19 07:00",4569.01333,20.58,TRADE
VIC1,"1999/06/19 07:30",4594.46667,20.39,TRADE
VIC1,"1999/06/19 08:00",4688.46167,24.68,TRADE
VIC1,"1999/06/19 08:30",4885.15167,29.04,TRADE
VIC1,"1999/06/19 09:00",5045.345,33.46,TRADE
VIC1,"1999/06/19 09:30",5141.09667,34.85,TRADE
VIC1,"1999/06/19 10:00",5157.44833,34.57,TRADE
VIC1,"1999/06/19 10:30",5144.975,31.6,TRADE
VIC1,"1999/06/19 11:00",5127.32167,30.62,TRADE
VIC1,"1999/06/19 11:30",5118.79833,30.62,TRADE
VIC1,"1999/06/19 12:00",5097.48833,28.8,TRADE
VIC1,"1999/06/19 12:30",5020.21667,28.33,TRADE
VIC1,"1999/06/19 13:00",4976.23333,23.92,TRADE
VIC1,"1999/06/19 13:30",5031.665,22.85,TRADE
VIC1,"1999/06/19 14:00",4985.43833,21.43,TRADE
VIC1,"1999/06/19 14:30",4933.50167,22.94,TRADE
VIC1,"1999/06/19 15:00",4912.87833,19.87,TRADE
VIC1,"1999/06/19 15:30",4811.44167,16.04,TRADE
VIC1,"1999/06/19 16:00",4789.98667,14.43,TRADE
VIC1,"1999/06/19 16:30",4812.91,15.96,TRADE
VIC1,"1999/06/19 17:00",4955.04333,16.33,TRADE
VIC1,"1999/06/19 17:30",5325.79667,32.41,TRADE
VIC1,"1999/06/19 18:00",5599.79,43.79,TRADE
VIC1,"1999/06/19 18:30",5629.35833,44.46,TRADE
VIC1,"1999/06/19 19:00",5524.49167,42.48,TRADE
VIC1,"1999/06/19 19:30",5364.56667,37.47,TRADE
VIC1,"1999/06/19 20:00",5255.33167,34.77,TRADE
VIC1,"1999/06/19 20:30",5157.145,30.99,TRADE
VIC1,"1999/06/19 21:00",5080.9,30.5,TRADE
VIC1,"1999/06/19 21:30",5001.58167,31.77,TRADE
VIC1,"1999/06/19 22:00",4906.63667,29.02,TRADE
VIC1,"1999/06/19 22:30",4867.845,27.45,TRADE
VIC1,"1999/06/19 23:00",4888.00833,26.51,TRADE
VIC1,"1999/06/19 23:30",5309.78333,33.1,TRADE
VIC1,"1999/06/20 00:00",5274.05667,30.95,TRADE
VIC1,"1999/06/20 00:30",5234.73333,29.03,TRADE
VIC1,"1999/06/20 01:00",5101.46,26.16,TRADE
VIC1,"1999/06/20 01:30",5372.165,28.82,TRADE
VIC1,"1999/06/20 02:00",5240.54333,26.39,TRADE
VIC1,"1999/06/20 02:30",5069.43333,21.68,TRADE
VIC1,"1999/06/20 03:00",4866.855,21.91,TRADE
VIC1,"1999/06/20 03:30",4684.56167,17.87,TRADE
VIC1,"1999/06/20 04:00",4459.5,13.13,TRADE
VIC1,"1999/06/20 04:30",4353.62333,12.16,TRADE
VIC1,"1999/06/20 05:00",4186.28,11.43,TRADE
VIC1,"1999/06/20 05:30",4124.785,11.44,TRADE
VIC1,"1999/06/20 06:00",4134.83,12.12,TRADE
VIC1,"1999/06/20 06:30",4175.81167,12.72,TRADE
VIC1,"1999/06/20 07:00",4131.43833,12.41,TRADE
VIC1,"1999/06/20 07:30",4075.76667,12.41,TRADE
VIC1,"1999/06/20 08:00",4168.39333,12.39,TRADE
VIC1,"1999/06/20 08:30",4344.66667,15.07,TRADE
VIC1,"1999/06/20 09:00",4509.07667,19.07,TRADE
VIC1,"1999/06/20 09:30",4597.98833,19.34,TRADE
VIC1,"1999/06/20 10:00",4650.825,21.85,TRADE
VIC1,"1999/06/20 10:30",4660.13,20.07,TRADE
VIC1,"1999/06/20 11:00",4654.13,18.67,TRADE
VIC1,"1999/06/20 11:30",4629.89167,17.99,TRADE
VIC1,"1999/06/20 12:00",4637.34,14.73,TRADE
VIC1,"1999/06/20 12:30",4642.145,14.85,TRADE
VIC1,"1999/06/20 13:00",4646.13333,16,TRADE
VIC1,"1999/06/20 13:30",4686.78333,17.6,TRADE
VIC1,"1999/06/20 14:00",4629.48667,14.17,TRADE
VIC1,"1999/06/20 14:30",4565.12167,13.63,TRADE
VIC1,"1999/06/20 15:00",4521.27667,13.47,TRADE
VIC1,"1999/06/20 15:30",4519.39333,13.88,TRADE
VIC1,"1999/06/20 16:00",4523.01333,13.76,TRADE
VIC1,"1999/06/20 16:30",4545.92333,13.92,TRADE
VIC1,"1999/06/20 17:00",4665.65,16.46,TRADE
VIC1,"1999/06/20 17:30",5056.36,27.15,TRADE
VIC1,"1999/06/20 18:00",5396.23667,41.79,TRADE
VIC1,"1999/06/20 18:30",5534.70833,44.58,TRADE
VIC1,"1999/06/20 19:00",5431.82667,43.44,TRADE
VIC1,"1999/06/20 19:30",5319.09333,35.87,TRADE
VIC1,"1999/06/20 20:00",5265.98167,34.85,TRADE
VIC1,"1999/06/20 20:30",5233.075,31.91,TRADE
VIC1,"1999/06/20 21:00",5152.03333,31.71,TRADE
VIC1,"1999/06/20 21:30",5012.72833,32.46,TRADE
VIC1,"1999/06/20 22:00",4902.65,30.32,TRADE
VIC1,"1999/06/20 22:30",4885.73667,26.69,TRADE
VIC1,"1999/06/20 23:00",4829.51,25.38,TRADE
VIC1,"1999/06/20 23:30",5239.48833,34.73,TRADE
VIC1,"1999/06/21 00:00",5182.485,30.15,TRADE
VIC1,"1999/06/21 00:30",5145.875,28.7,TRADE
VIC1,"1999/06/21 01:00",5004.41667,26.61,TRADE
VIC1,"1999/06/21 01:30",5277.07167,30.26,TRADE
VIC1,"1999/06/21 02:00",5165.11167,28.13,TRADE
VIC1,"1999/06/21 02:30",4971.64,23.51,TRADE
VIC1,"1999/06/21 03:00",4789.88833,18.92,TRADE
VIC1,"1999/06/21 03:30",4599.66,14.3,TRADE
VIC1,"1999/06/21 04:00",4481.67,13.17,TRADE
VIC1,"1999/06/21 04:30",4323.24333,10.99,TRADE
VIC1,"1999/06/21 05:00",4326.74,13.22,TRADE
VIC1,"1999/06/21 05:30",4400.455,15.97,TRADE
VIC1,"1999/06/21 06:00",4497.785,16.13,TRADE
VIC1,"1999/06/21 06:30",4853.50167,19.8,TRADE
VIC1,"1999/06/21 07:00",5205.585,23.85,TRADE
VIC1,"1999/06/21 07:30",5447.23333,30.96,TRADE
VIC1,"1999/06/21 08:00",5824.385,54.59,TRADE
VIC1,"1999/06/21 08:30",5999.27167,57.28,TRADE
VIC1,"1999/06/21 09:00",6021.15167,42.37,TRADE
VIC1,"1999/06/21 09:30",6016.79167,58.53,TRADE
VIC1,"1999/06/21 10:00",6005.745,55.46,TRADE
VIC1,"1999/06/21 10:30",5973.93,43.31,TRADE
VIC1,"1999/06/21 11:00",5916.34167,35.44,TRADE
VIC1,"1999/06/21 11:30",5952.41667,39.75,TRADE
VIC1,"1999/06/21 12:00",5918.22833,42.83,TRADE
VIC1,"1999/06/21 12:30",5931.67333,43,TRADE
VIC1,"1999/06/21 13:00",5903.55833,33.62,TRADE
VIC1,"1999/06/21 13:30",6001.87,38.62,TRADE
VIC1,"1999/06/21 14:00",6000.71833,36.55,TRADE
VIC1,"1999/06/21 14:30",5910.77667,30.69,TRADE
VIC1,"1999/06/21 15:00",5929.49833,30.61,TRADE
VIC1,"1999/06/21 15:30",5871.95333,20.56,TRADE
VIC1,"1999/06/21 16:00",5862.87167,19.3,TRADE
VIC1,"1999/06/21 16:30",5922.6,29.3,TRADE
VIC1,"1999/06/21 17:00",6064.32833,34.56,TRADE
VIC1,"1999/06/21 17:30",6346.215,49.79,TRADE
VIC1,"1999/06/21 18:00",6569.06833,50.83,TRADE
VIC1,"1999/06/21 18:30",6445.27,51.94,TRADE
VIC1,"1999/06/21 19:00",6251.72333,40.63,TRADE
VIC1,"1999/06/21 19:30",6093.33167,45.26,TRADE
VIC1,"1999/06/21 20:00",5938.565,43.86,TRADE
VIC1,"1999/06/21 20:30",5846.07667,43.56,TRADE
VIC1,"1999/06/21 21:00",5692.85667,41.11,TRADE
VIC1,"1999/06/21 21:30",5531.335,34.15,TRADE
VIC1,"1999/06/21 22:00",5364.45833,27.8,TRADE
VIC1,"1999/06/21 22:30",5238.45,20.34,TRADE
VIC1,"1999/06/21 23:00",5134.94167,19.65,TRADE
VIC1,"1999/06/21 23:30",5522.86333,30.51,TRADE
VIC1,"1999/06/22 00:00",5443.09167,27.06,TRADE
VIC1,"1999/06/22 00:30",5378.6,26.52,TRADE
VIC1,"1999/06/22 01:00",5209.77667,26.43,TRADE
VIC1,"1999/06/22 01:30",5457.45833,31.65,TRADE
VIC1,"1999/06/22 02:00",5343.51167,26.47,TRADE
VIC1,"1999/06/22 02:30",5194.71667,25.77,TRADE
VIC1,"1999/06/22 03:00",5006.21167,22.63,TRADE
VIC1,"1999/06/22 03:30",4803.41167,21.3,TRADE
VIC1,"1999/06/22 04:00",4652.63167,18.12,TRADE
VIC1,"1999/06/22 04:30",4551.05167,16.11,TRADE
VIC1,"1999/06/22 05:00",4485.40667,15.23,TRADE
VIC1,"1999/06/22 05:30",4563.875,20.95,TRADE
VIC1,"1999/06/22 06:00",4661.07333,20.44,TRADE
VIC1,"1999/06/22 06:30",5053.24333,24.29,TRADE
VIC1,"1999/06/22 07:00",5380.79167,26.02,TRADE
VIC1,"1999/06/22 07:30",5637.66167,33.41,TRADE
VIC1,"1999/06/22 08:00",5970.745,51.4,TRADE
VIC1,"1999/06/22 08:30",6113.67,53.02,TRADE
VIC1,"1999/06/22 09:00",6138.22167,53.09,TRADE
VIC1,"1999/06/22 09:30",6101.07,48.05,TRADE
VIC1,"1999/06/22 10:00",6048.865,43.63,TRADE
VIC1,"1999/06/22 10:30",6017.645,35.8,TRADE
VIC1,"1999/06/22 11:00",6004.795,34.27,TRADE
VIC1,"1999/06/22 11:30",5965.37667,46.59,TRADE
VIC1,"1999/06/22 12:00",5936.69833,48.62,TRADE
VIC1,"1999/06/22 12:30",5867.54,33.55,TRADE
VIC1,"1999/06/22 13:00",5846.55167,46.96,TRADE
VIC1,"1999/06/22 13:30",5916.43,46.92,TRADE
VIC1,"1999/06/22 14:00",5970.95,46.88,TRADE
VIC1,"1999/06/22 14:30",5963.43667,47,TRADE
VIC1,"1999/06/22 15:00",5924.59167,46.94,TRADE
VIC1,"1999/06/22 15:30",5867.03,41.19,TRADE
VIC1,"1999/06/22 16:00",5863.78167,36.83,TRADE
VIC1,"1999/06/22 16:30",5908.61833,47.14,TRADE
VIC1,"1999/06/22 17:00",6013.045,49.86,TRADE
VIC1,"1999/06/22 17:30",6244.95667,58.04,TRADE
VIC1,"1999/06/22 18:00",6513.285,62.43,TRADE
VIC1,"1999/06/22 18:30",6415.68,63.58,TRADE
VIC1,"1999/06/22 19:00",6223.21167,48.39,TRADE
VIC1,"1999/06/22 19:30",6057.43833,48.24,TRADE
VIC1,"1999/06/22 20:00",5957.20333,47.76,TRADE
VIC1,"1999/06/22 20:30",5815.65167,46.89,TRADE
VIC1,"1999/06/22 21:00",5719.14333,43.24,TRADE
VIC1,"1999/06/22 21:30",5597.245,37.67,TRADE
VIC1,"1999/06/22 22:00",5437.575,29.79,TRADE
VIC1,"1999/06/22 22:30",5312.30333,24.39,TRADE
VIC1,"1999/06/22 23:00",5229.77833,21.08,TRADE
VIC1,"1999/06/22 23:30",5568.66,30.33,TRADE
VIC1,"1999/06/23 00:00",5521.205,28.87,TRADE
VIC1,"1999/06/23 00:30",5454.11667,28.58,TRADE
VIC1,"1999/06/23 01:00",5341.36833,27.25,TRADE
VIC1,"1999/06/23 01:30",5581.02333,29.49,TRADE
VIC1,"1999/06/23 02:00",5464.985,24.78,TRADE
VIC1,"1999/06/23 02:30",5244.18667,22.51,TRADE
VIC1,"1999/06/23 03:00",5053.82167,17.97,TRADE
VIC1,"1999/06/23 03:30",4842.71667,5.28,TRADE
VIC1,"1999/06/23 04:00",4677.18333,4.35,TRADE
VIC1,"1999/06/23 04:30",4584.18333,7.87,TRADE
VIC1,"1999/06/23 05:00",4570.09667,5.72,TRADE
VIC1,"1999/06/23 05:30",4601.22,7.3,TRADE
VIC1,"1999/06/23 06:00",4758.275,12.98,TRADE
VIC1,"1999/06/23 06:30",5195.87,21.35,TRADE
VIC1,"1999/06/23 07:00",5583.095,23.87,TRADE
VIC1,"1999/06/23 07:30",5769.795,27.52,TRADE
VIC1,"1999/06/23 08:00",6121.80667,43,TRADE
VIC1,"1999/06/23 08:30",6194.64167,39.5,TRADE
VIC1,"1999/06/23 09:00",6252.155,38.11,TRADE
VIC1,"1999/06/23 09:30",6259.88667,40.14,TRADE
VIC1,"1999/06/23 10:00",6189.73833,44.16,TRADE
VIC1,"1999/06/23 10:30",6091.66667,33.17,TRADE
VIC1,"1999/06/23 11:00",6049.93833,36.5,TRADE
VIC1,"1999/06/23 11:30",6016.62,32.78,TRADE
VIC1,"1999/06/23 12:00",5988.17167,33.8,TRADE
VIC1,"1999/06/23 12:30",5957.00667,36.22,TRADE
VIC1,"1999/06/23 13:00",5873.20833,33.03,TRADE
VIC1,"1999/06/23 13:30",5955.17667,37.54,TRADE
VIC1,"1999/06/23 14:00",5936.87667,35,TRADE
VIC1,"1999/06/23 14:30",5879.52167,30.66,TRADE
VIC1,"1999/06/23 15:00",5799.17833,27.45,TRADE
VIC1,"1999/06/23 15:30",5768.365,24.96,TRADE
VIC1,"1999/06/23 16:00",5762.91,23.25,TRADE
VIC1,"1999/06/23 16:30",5775.105,30.59,TRADE
VIC1,"1999/06/23 17:00",5904.505,41,TRADE
VIC1,"1999/06/23 17:30",6161.50333,50.17,TRADE
VIC1,"1999/06/23 18:00",6527.585,57.98,TRADE
VIC1,"1999/06/23 18:30",6497.1,62.86,TRADE
VIC1,"1999/06/23 19:00",6308.01,51.35,TRADE
VIC1,"1999/06/23 19:30",6109.72333,50.88,TRADE
VIC1,"1999/06/23 20:00",6031.00333,50.77,TRADE
VIC1,"1999/06/23 20:30",5901.41667,44.41,TRADE
VIC1,"1999/06/23 21:00",5788.47,38.13,TRADE
VIC1,"1999/06/23 21:30",5684.915,36.66,TRADE
VIC1,"1999/06/23 22:00",5530.17333,31.85,TRADE
VIC1,"1999/06/23 22:30",5420.12833,28.03,TRADE
VIC1,"1999/06/23 23:00",5285.51833,25.4,TRADE
VIC1,"1999/06/23 23:30",5659.71,31.63,TRADE
VIC1,"1999/06/24 00:00",5559.74,30.22,TRADE
VIC1,"1999/06/24 00:30",5509.83833,29.74,TRADE
VIC1,"1999/06/24 01:00",5369.89667,28.43,TRADE
VIC1,"1999/06/24 01:30",5611.07167,31.41,TRADE
VIC1,"1999/06/24 02:00",5528.65667,27.26,TRADE
VIC1,"1999/06/24 02:30",5372.81833,21.92,TRADE
VIC1,"1999/06/24 03:00",5170.565,20.47,TRADE
VIC1,"1999/06/24 03:30",4957.61833,17.98,TRADE
VIC1,"1999/06/24 04:00",4799.65,13.88,TRADE
VIC1,"1999/06/24 04:30",4760.465,18.61,TRADE
VIC1,"1999/06/24 05:00",4695.725,15.96,TRADE
VIC1,"1999/06/24 05:30",4758.33,20.1,TRADE
VIC1,"1999/06/24 06:00",4900.35667,19.04,TRADE
VIC1,"1999/06/24 06:30",5240.08167,22.46,TRADE
VIC1,"1999/06/24 07:00",5641.78833,29.64,TRADE
VIC1,"1999/06/24 07:30",5841.34667,30.68,TRADE
VIC1,"1999/06/24 08:00",6191.51167,44.26,TRADE
VIC1,"1999/06/24 08:30",6347.10667,48.76,TRADE
VIC1,"1999/06/24 09:00",6350.40833,49.27,TRADE
VIC1,"1999/06/24 09:30",6398.09833,56.12,TRADE
VIC1,"1999/06/24 10:00",6336.57667,56.07,TRADE
VIC1,"1999/06/24 10:30",6195.94333,42.53,TRADE
VIC1,"1999/06/24 11:00",6178.615,43.15,TRADE
VIC1,"1999/06/24 11:30",6050.48333,34.24,TRADE
VIC1,"1999/06/24 12:00",6018.94333,32.6,TRADE
VIC1,"1999/06/24 12:30",5938.04,30.52,TRADE
VIC1,"1999/06/24 13:00",5868.75,28.59,TRADE
VIC1,"1999/06/24 13:30",5994.175,30.81,TRADE
VIC1,"1999/06/24 14:00",5952.46833,28.26,TRADE
VIC1,"1999/06/24 14:30",5862.48667,22.58,TRADE
VIC1,"1999/06/24 15:00",5777.11333,17.83,TRADE
VIC1,"1999/06/24 15:30",5727.51,16.08,TRADE
VIC1,"1999/06/24 16:00",5742.32833,17.61,TRADE
VIC1,"1999/06/24 16:30",5796.42,23.62,TRADE
VIC1,"1999/06/24 17:00",5927.36,32.48,TRADE
VIC1,"1999/06/24 17:30",6166.84333,35.79,TRADE
VIC1,"1999/06/24 18:00",6559.375,46,TRADE
VIC1,"1999/06/24 18:30",6502.86833,49.6,TRADE
VIC1,"1999/06/24 19:00",6348.825,44.07,TRADE
VIC1,"1999/06/24 19:30",6115.43167,37.08,TRADE
VIC1,"1999/06/24 20:00",6020.26833,30.44,TRADE
VIC1,"1999/06/24 20:30",5915.06167,32.56,TRADE
VIC1,"1999/06/24 21:00",5848.175,33.04,TRADE
VIC1,"1999/06/24 21:30",5687.78833,29.6,TRADE
VIC1,"1999/06/24 22:00",5539.49833,22.73,TRADE
VIC1,"1999/06/24 22:30",5470.37167,26.23,TRADE
VIC1,"1999/06/24 23:00",5363.16,25.64,TRADE
VIC1,"1999/06/24 23:30",5725.975,31.97,TRADE
VIC1,"1999/06/25 00:00",5653.30167,30.55,TRADE
VIC1,"1999/06/25 00:30",5547.29333,29.18,TRADE
VIC1,"1999/06/25 01:00",5384.20167,28.15,TRADE
VIC1,"1999/06/25 01:30",5673.93,31.26,TRADE
VIC1,"1999/06/25 02:00",5542.345,27.82,TRADE
VIC1,"1999/06/25 02:30",5336.52833,22.44,TRADE
VIC1,"1999/06/25 03:00",5153.855,20.74,TRADE
VIC1,"1999/06/25 03:30",4964.00167,19.07,TRADE
VIC1,"1999/06/25 04:00",4825.67,15.2,TRADE
VIC1,"1999/06/25 04:30",4725.02,13.86,TRADE
VIC1,"1999/06/25 05:00",4677.94167,13.98,TRADE
VIC1,"1999/06/25 05:30",4727.35167,17.23,TRADE
VIC1,"1999/06/25 06:00",4878.53333,18.94,TRADE
VIC1,"1999/06/25 06:30",5215.77667,23.04,TRADE
VIC1,"1999/06/25 07:00",5559.55,27.12,TRADE
VIC1,"1999/06/25 07:30",5726.67,29.05,TRADE
VIC1,"1999/06/25 08:00",6050.95667,45.73,TRADE
VIC1,"1999/06/25 08:30",6181.01833,52.2,TRADE
VIC1,"1999/06/25 09:00",6327.94667,54.04,TRADE
VIC1,"1999/06/25 09:30",6329.39167,53,TRADE
VIC1,"1999/06/25 10:00",6238.67833,43.23,TRADE
VIC1,"1999/06/25 10:30",6190.80833,32.42,TRADE
VIC1,"1999/06/25 11:00",6162.27333,32.05,TRADE
VIC1,"1999/06/25 11:30",6076.81167,21.51,TRADE
VIC1,"1999/06/25 12:00",5998.11333,20.49,TRADE
VIC1,"1999/06/25 12:30",5937.055,17.37,TRADE
VIC1,"1999/06/25 13:00",5932.47667,30.22,TRADE
VIC1,"1999/06/25 13:30",6048.875,32.21,TRADE
VIC1,"1999/06/25 14:00",6060.43167,31.05,TRADE
VIC1,"1999/06/25 14:30",5990.07,30.29,TRADE
VIC1,"1999/06/25 15:00",5885.33167,26.38,TRADE
VIC1,"1999/06/25 15:30",5791.63333,17.52,TRADE
VIC1,"1999/06/25 16:00",5755.37,20.54,TRADE
VIC1,"1999/06/25 16:30",5766.36167,26.68,TRADE
VIC1,"1999/06/25 17:00",5859.28667,28.07,TRADE
VIC1,"1999/06/25 17:30",6109.42833,45.97,TRADE
VIC1,"1999/06/25 18:00",6340.65333,61.35,TRADE
VIC1,"1999/06/25 18:30",6280.70833,31.49,TRADE
VIC1,"1999/06/25 19:00",6102.055,25.72,TRADE
VIC1,"1999/06/25 19:30",5939.58,17.58,TRADE
VIC1,"1999/06/25 20:00",5782.64,18.72,TRADE
VIC1,"1999/06/25 20:30",5710.12667,18.49,TRADE
VIC1,"1999/06/25 21:00",5638.72667,31.63,TRADE
VIC1,"1999/06/25 21:30",5461.48167,27.96,TRADE
VIC1,"1999/06/25 22:00",5294.63333,25.73,TRADE
VIC1,"1999/06/25 22:30",5218.50333,26.4,TRADE
VIC1,"1999/06/25 23:00",5231.99,28.53,TRADE
VIC1,"1999/06/25 23:30",5636.95167,41.42,TRADE
VIC1,"1999/06/26 00:00",5600.84667,41.37,TRADE
VIC1,"1999/06/26 00:30",5447.34333,39.56,TRADE
VIC1,"1999/06/26 01:00",5322.46667,36.66,TRADE
VIC1,"1999/06/26 01:30",5554.695,30.64,TRADE
VIC1,"1999/06/26 02:00",5442.225,26.02,TRADE
VIC1,"1999/06/26 02:30",5243.00667,28.65,TRADE
VIC1,"1999/06/26 03:00",5009.24,24.38,TRADE
VIC1,"1999/06/26 03:30",4789.74833,16.99,TRADE
VIC1,"1999/06/26 04:00",4684.42167,14.2,TRADE
VIC1,"1999/06/26 04:30",4638.16833,17.28,TRADE
VIC1,"1999/06/26 05:00",4522.83833,14.16,TRADE
VIC1,"1999/06/26 05:30",4501.81167,14.98,TRADE
VIC1,"1999/06/26 06:00",4527.255,17.2,TRADE
VIC1,"1999/06/26 06:30",4621.335,18.93,TRADE
VIC1,"1999/06/26 07:00",4721.22833,21.63,TRADE
VIC1,"1999/06/26 07:30",4666.385,23.16,TRADE
VIC1,"1999/06/26 08:00",4825.30833,33.37,TRADE
VIC1,"1999/06/26 08:30",5011.555,37,TRADE
VIC1,"1999/06/26 09:00",5214.03,41.01,TRADE
VIC1,"1999/06/26 09:30",5327.98,42.1,TRADE
VIC1,"1999/06/26 10:00",5326.82,51.54,TRADE
VIC1,"1999/06/26 10:30",5276.315,44.33,TRADE
VIC1,"1999/06/26 11:00",5187.775,40.86,TRADE
VIC1,"1999/06/26 11:30",5093.235,38.87,TRADE
VIC1,"1999/06/26 12:00",5038.49167,35.98,TRADE
VIC1,"1999/06/26 12:30",5000.28833,37.39,TRADE
VIC1,"1999/06/26 13:00",4938.26833,40.72,TRADE
VIC1,"1999/06/26 13:30",4931.21167,35.99,TRADE
VIC1,"1999/06/26 14:00",4875.51167,34.74,TRADE
VIC1,"1999/06/26 14:30",4828.04667,33.47,TRADE
VIC1,"1999/06/26 15:00",4782.66833,32.11,TRADE
VIC1,"1999/06/26 15:30",4738.06333,29.69,TRADE
VIC1,"1999/06/26 16:00",4738.32,24.85,TRADE
VIC1,"1999/06/26 16:30",4777.705,23.95,TRADE
VIC1,"1999/06/26 17:00",4917.42667,25.35,TRADE
VIC1,"1999/06/26 17:30",5282.94,33.05,TRADE
VIC1,"1999/06/26 18:00",5633.59,43.65,TRADE
VIC1,"1999/06/26 18:30",5746.84333,44.67,TRADE
VIC1,"1999/06/26 19:00",5606.8,40.8,TRADE
VIC1,"1999/06/26 19:30",5490.65833,42.94,TRADE
VIC1,"1999/06/26 20:00",5403.59833,38.01,TRADE
VIC1,"1999/06/26 20:30",5288.49333,28.13,TRADE
VIC1,"1999/06/26 21:00",5217.79333,30,TRADE
VIC1,"1999/06/26 21:30",5106.84833,32.04,TRADE
VIC1,"1999/06/26 22:00",5039.86333,29.98,TRADE
VIC1,"1999/06/26 22:30",5008.52167,26.93,TRADE
VIC1,"1999/06/26 23:00",5004.95,26.68,TRADE
VIC1,"1999/06/26 23:30",5386.11333,31.74,TRADE
VIC1,"1999/06/27 00:00",5368.72333,28.52,TRADE
VIC1,"1999/06/27 00:30",5324.565,27.72,TRADE
VIC1,"1999/06/27 01:00",5194.85833,25.88,TRADE
VIC1,"1999/06/27 01:30",5451.58,29.82,TRADE
VIC1,"1999/06/27 02:00",5359.62833,26.77,TRADE
VIC1,"1999/06/27 02:30",5151.04,22.7,TRADE
VIC1,"1999/06/27 03:00",4926.9,16.91,TRADE
VIC1,"1999/06/27 03:30",4759.81333,13.99,TRADE
VIC1,"1999/06/27 04:00",4599.71667,13.55,TRADE
VIC1,"1999/06/27 04:30",4517.73,14.14,TRADE
VIC1,"1999/06/27 05:00",4369.33167,13.01,TRADE
VIC1,"1999/06/27 05:30",4333.175,13.06,TRADE
VIC1,"1999/06/27 06:00",4312.52333,12.13,TRADE
VIC1,"1999/06/27 06:30",4295.43,11.12,TRADE
VIC1,"1999/06/27 07:00",4315.32,12.12,TRADE
VIC1,"1999/06/27 07:30",4171.16333,12.12,TRADE
VIC1,"1999/06/27 08:00",4304.34167,12.24,TRADE
VIC1,"1999/06/27 08:30",4472.01167,15.39,TRADE
VIC1,"1999/06/27 09:00",4596.20167,16.69,TRADE
VIC1,"1999/06/27 09:30",4727.67333,19.41,TRADE
VIC1,"1999/06/27 10:00",4790.03833,22.21,TRADE
VIC1,"1999/06/27 10:30",4764.165,20.57,TRADE
VIC1,"1999/06/27 11:00",4772.02,21.58,TRADE
VIC1,"1999/06/27 11:30",4746.74333,19.08,TRADE
VIC1,"1999/06/27 12:00",4725.54333,18.67,TRADE
VIC1,"1999/06/27 12:30",4409.065,13.58,TRADE
VIC1,"1999/06/27 13:00",4367.33333,12.81,TRADE
VIC1,"1999/06/27 13:30",4658.845,18.46,TRADE
VIC1,"1999/06/27 14:00",4570.21333,14.98,TRADE
VIC1,"1999/06/27 14:30",4506.06667,14.12,TRADE
VIC1,"1999/06/27 15:00",4452.34833,14.02,TRADE
VIC1,"1999/06/27 15:30",4461.31167,14.11,TRADE
VIC1,"1999/06/27 16:00",4496.20167,14.13,TRADE
VIC1,"1999/06/27 16:30",4550.52167,15.14,TRADE
VIC1,"1999/06/27 17:00",4724.73,22.14,TRADE
VIC1,"1999/06/27 17:30",5096.88833,36.86,TRADE
VIC1,"1999/06/27 18:00",5473.45333,44.79,TRADE
VIC1,"1999/06/27 18:30",5549.65333,45.14,TRADE
VIC1,"1999/06/27 19:00",5477.28667,43.67,TRADE
VIC1,"1999/06/27 19:30",5413.88,43.41,TRADE
VIC1,"1999/06/27 20:00",5349.56333,38.01,TRADE
VIC1,"1999/06/27 20:30",5284.08,32.07,TRADE
VIC1,"1999/06/27 21:00",5225.74,31.3,TRADE
VIC1,"1999/06/27 21:30",5112.49,28.88,TRADE
VIC1,"1999/06/27 22:00",4997.26167,23.48,TRADE
VIC1,"1999/06/27 22:30",4935.55333,24.82,TRADE
VIC1,"1999/06/27 23:00",4902.815,21.8,TRADE
VIC1,"1999/06/27 23:30",5200.07333,28.95,TRADE
VIC1,"1999/06/28 00:00",5195.065,25.22,TRADE
VIC1,"1999/06/28 00:30",5158.09,27.16,TRADE
VIC1,"1999/06/28 01:00",5070.785,24.82,TRADE
VIC1,"1999/06/28 01:30",5316.62,28.04,TRADE
VIC1,"1999/06/28 02:00",5219.67,25.69,TRADE
VIC1,"1999/06/28 02:30",5088.81667,22.98,TRADE
VIC1,"1999/06/28 03:00",4930.71,21.71,TRADE
VIC1,"1999/06/28 03:30",4793.90833,18.41,TRADE
VIC1,"1999/06/28 04:00",4639.83667,14.66,TRADE
VIC1,"1999/06/28 04:30",4523.66667,13.77,TRADE
VIC1,"1999/06/28 05:00",4509.19833,14.02,TRADE
VIC1,"1999/06/28 05:30",4594.79667,14.22,TRADE
VIC1,"1999/06/28 06:00",4758.52333,16.71,TRADE
VIC1,"1999/06/28 06:30",5099.285,21.64,TRADE
VIC1,"1999/06/28 07:00",5446.49333,27.83,TRADE
VIC1,"1999/06/28 07:30",5524.27167,33.08,TRADE
VIC1,"1999/06/28 08:00",5841.98167,47.68,TRADE
VIC1,"1999/06/28 08:30",6059.32,51.22,TRADE
VIC1,"1999/06/28 09:00",6253.81167,61.28,TRADE
VIC1,"1999/06/28 09:30",6330.16,59.58,TRADE
VIC1,"1999/06/28 10:00",6295.37167,55.54,TRADE
VIC1,"1999/06/28 10:30",6156.58833,47.83,TRADE
VIC1,"1999/06/28 11:00",6131.09833,47.6,TRADE
VIC1,"1999/06/28 11:30",6082.65167,47.15,TRADE
VIC1,"1999/06/28 12:00",5981.58833,46.73,TRADE
VIC1,"1999/06/28 12:30",5924.59167,46.64,TRADE
VIC1,"1999/06/28 13:00",5854.37833,34.64,TRADE
VIC1,"1999/06/28 13:30",5917.20667,39.12,TRADE
VIC1,"1999/06/28 14:00",5870.775,33.65,TRADE
VIC1,"1999/06/28 14:30",5845.52167,36.92,TRADE
VIC1,"1999/06/28 15:00",5800.07167,34.19,TRADE
VIC1,"1999/06/28 15:30",5730.11167,30.14,TRADE
VIC1,"1999/06/28 16:00",5732.30833,32.41,TRADE
VIC1,"1999/06/28 16:30",5761.19833,30.7,TRADE
VIC1,"1999/06/28 17:00",5842.16,37.21,TRADE
VIC1,"1999/06/28 17:30",6141.37667,51.49,TRADE
VIC1,"1999/06/28 18:00",6508.93167,59.96,TRADE
VIC1,"1999/06/28 18:30",6450.34333,63.1,TRADE
VIC1,"1999/06/28 19:00",6284.65833,60.54,TRADE
VIC1,"1999/06/28 19:30",6098.07333,57.33,TRADE
VIC1,"1999/06/28 20:00",5986.765,54.37,TRADE
VIC1,"1999/06/28 20:30",5798.525,46.97,TRADE
VIC1,"1999/06/28 21:00",5699.86167,44.05,TRADE
VIC1,"1999/06/28 21:30",5570.86833,36.39,TRADE
VIC1,"1999/06/28 22:00",5508.84167,33.64,TRADE
VIC1,"1999/06/28 22:30",5336.66833,26.98,TRADE
VIC1,"1999/06/28 23:00",5235.695,26.51,TRADE
VIC1,"1999/06/28 23:30",5598.495,33.49,TRADE
VIC1,"1999/06/29 00:00",5549.96833,32.97,TRADE
VIC1,"1999/06/29 00:30",5439.94167,33.34,TRADE
VIC1,"1999/06/29 01:00",5318.80667,29.08,TRADE
VIC1,"1999/06/29 01:30",5629.91167,34.25,TRADE
VIC1,"1999/06/29 02:00",5484.02667,29.74,TRADE
VIC1,"1999/06/29 02:30",5315.62667,23.83,TRADE
VIC1,"1999/06/29 03:00",5114.40333,20.39,TRADE
VIC1,"1999/06/29 03:30",4899.08167,18.79,TRADE
VIC1,"1999/06/29 04:00",4744.09833,15.8,TRADE
VIC1,"1999/06/29 04:30",4665.055,14.48,TRADE
VIC1,"1999/06/29 05:00",4598.62667,14.42,TRADE
VIC1,"1999/06/29 05:30",4690.19,17.76,TRADE
VIC1,"1999/06/29 06:00",4800.56833,20.6,TRADE
VIC1,"1999/06/29 06:30",5168.41333,25.18,TRADE
VIC1,"1999/06/29 07:00",5450.715,30.05,TRADE
VIC1,"1999/06/29 07:30",5615.60833,35.62,TRADE
VIC1,"1999/06/29 08:00",5900.49333,47.84,TRADE
VIC1,"1999/06/29 08:30",6087.56833,57.2,TRADE
VIC1,"1999/06/29 09:00",6157.77,59.91,TRADE
VIC1,"1999/06/29 09:30",6207.915,58.54,TRADE
VIC1,"1999/06/29 10:00",6175.44167,49.94,TRADE
VIC1,"1999/06/29 10:30",6133.78833,48.28,TRADE
VIC1,"1999/06/29 11:00",6098.20667,46.49,TRADE
VIC1,"1999/06/29 11:30",6028.38,42.17,TRADE
VIC1,"1999/06/29 12:00",6042.40333,41.07,TRADE
VIC1,"1999/06/29 12:30",6001.50333,35.56,TRADE
VIC1,"1999/06/29 13:00",5965.01333,31.78,TRADE
VIC1,"1999/06/29 13:30",6098.46667,37.75,TRADE
VIC1,"1999/06/29 14:00",6088.25333,33.76,TRADE
VIC1,"1999/06/29 14:30",6044.92667,56.53,TRADE
VIC1,"1999/06/29 15:00",5996.015,48.97,TRADE
VIC1,"1999/06/29 15:30",5942.165,40.76,TRADE
VIC1,"1999/06/29 16:00",5988.57667,30.03,TRADE
VIC1,"1999/06/29 16:30",5881.79833,30.65,TRADE
VIC1,"1999/06/29 17:00",6032.31333,39.81,TRADE
VIC1,"1999/06/29 17:30",6298.41833,50.47,TRADE
VIC1,"1999/06/29 18:00",6530.17833,63.12,TRADE
VIC1,"1999/06/29 18:30",6404.7,64.31,TRADE
VIC1,"1999/06/29 19:00",6209.025,59.64,TRADE
VIC1,"1999/06/29 19:30",6030.02833,52.23,TRADE
VIC1,"1999/06/29 20:00",5912.64333,48.22,TRADE
VIC1,"1999/06/29 20:30",5792.31167,43.97,TRADE
VIC1,"1999/06/29 21:00",5680.545,37.5,TRADE
VIC1,"1999/06/29 21:30",5533.18833,31.81,TRADE
VIC1,"1999/06/29 22:00",5454.255,30.46,TRADE
VIC1,"1999/06/29 22:30",5319.52,25.69,TRADE
VIC1,"1999/06/29 23:00",5237.51333,26.06,TRADE
VIC1,"1999/06/29 23:30",5586.74167,32.75,TRADE
VIC1,"1999/06/30 00:00",5547.20667,31.92,TRADE
VIC1,"1999/06/30 00:30",5430.68,32.05,TRADE
VIC1,"1999/06/30 01:00",5235.11333,27.45,TRADE
VIC1,"1999/06/30 01:30",5510.74167,31.78,TRADE
VIC1,"1999/06/30 02:00",5349.74167,25.64,TRADE
VIC1,"1999/06/30 02:30",5160.66833,23.43,TRADE
VIC1,"1999/06/30 03:00",5001.54333,20.49,TRADE
VIC1,"1999/06/30 03:30",4760.57833,16.37,TRADE
VIC1,"1999/06/30 04:00",4610.87167,14.28,TRADE
VIC1,"1999/06/30 04:30",4470.21833,12.11,TRADE
VIC1,"1999/06/30 05:00",4455.21167,14.28,TRADE
VIC1,"1999/06/30 05:30",4507.50167,15.78,TRADE
VIC1,"1999/06/30 06:00",4599.30167,17.8,TRADE
VIC1,"1999/06/30 06:30",4924.925,20.77,TRADE
VIC1,"1999/06/30 07:00",5231.81667,26.7,TRADE
VIC1,"1999/06/30 07:30",5388.11833,29.03,TRADE
VIC1,"1999/06/30 08:00",5686.19,45.18,TRADE
VIC1,"1999/06/30 08:30",5896.96333,52.58,TRADE
VIC1,"1999/06/30 09:00",5994.23167,48.81,TRADE
VIC1,"1999/06/30 09:30",6074.70333,56.48,TRADE
VIC1,"1999/06/30 10:00",6095.215,58.49,TRADE
VIC1,"1999/06/30 10:30",5988.11833,48.6,TRADE
VIC1,"1999/06/30 11:00",6034.95333,50.16,TRADE
VIC1,"1999/06/30 11:30",6035.09333,41.95,TRADE
VIC1,"1999/06/30 12:00",6022.36,43.48,TRADE
VIC1,"1999/06/30 12:30",5966.955,41.08,TRADE
VIC1,"1999/06/30 13:00",5946.055,35.12,TRADE
VIC1,"1999/06/30 13:30",6020.83,40.06,TRADE
VIC1,"1999/06/30 14:00",6029.52,39.73,TRADE
VIC1,"1999/06/30 14:30",5955.46833,38.1,TRADE
VIC1,"1999/06/30 15:00",5945.54667,36.57,TRADE
VIC1,"1999/06/30 15:30",5961.20833,28.58,TRADE
VIC1,"1999/06/30 16:00",6009.18,32.52,TRADE
VIC1,"1999/06/30 16:30",6029.805,39.33,TRADE
VIC1,"1999/06/30 17:00",6164.94833,41.96,TRADE
VIC1,"1999/06/30 17:30",6355.59333,49.58,TRADE
VIC1,"1999/06/30 18:00",6524.02167,52.28,TRADE
VIC1,"1999/06/30 18:30",6371.745,62.8,TRADE
VIC1,"1999/06/30 19:00",6177.63,51.81,TRADE
VIC1,"1999/06/30 19:30",5996.91667,48.46,TRADE
VIC1,"1999/06/30 20:00",5863.495,47.95,TRADE
VIC1,"1999/06/30 20:30",5756.04,45.72,TRADE
VIC1,"1999/06/30 21:00",5642.86,39.25,TRADE
VIC1,"1999/06/30 21:30",5504.12333,41.62,TRADE
VIC1,"1999/06/30 22:00",5376.98667,30.8,TRADE
VIC1,"1999/06/30 22:30",5278.83333,25.65,TRADE
VIC1,"1999/06/30 23:00",5211.14,25.82,TRADE
VIC1,"1999/06/30 23:30",5606.925,32.84,TRADE
VIC1,"1999/07/01 00:00",5557.57333,31.08,TRADE
