REGION,SETTLEMENTDATE,TOTALDEMAND,RRP,PERIODTYPE
VIC1,"2004/11/01 00:30:00",4830.11333,18.69,TRADE
VIC1,"2004/11/01 01:00:00",4711.36,17.5,TRADE
VIC1,"2004/11/01 01:30:00",5125.65167,22.36,TRADE
VIC1,"2004/11/01 02:00:00",4930.26833,17.27,TRADE
VIC1,"2004/11/01 02:30:00",4726.535,16.95,TRADE
VIC1,"2004/11/01 03:00:00",4545.24167,16.62,TRADE
VIC1,"2004/11/01 03:30:00",4421.24,15.93,TRADE
VIC1,"2004/11/01 04:00:00",4360.16,15.67,TRADE
VIC1,"2004/11/01 04:30:00",4358.145,16.2,TRADE
VIC1,"2004/11/01 05:00:00",4445.45333,17.31,TRADE
VIC1,"2004/11/01 05:30:00",4640.975,18.54,TRADE
VIC1,"2004/11/01 06:00:00",4847.57667,20.47,TRADE
VIC1,"2004/11/01 06:30:00",5189.21667,26.18,TRADE
VIC1,"2004/11/01 07:00:00",5464.64333,27.12,TRADE
VIC1,"2004/11/01 07:30:00",5474.25,22.9,TRADE
VIC1,"2004/11/01 08:00:00",5559.44333,24.49,TRADE
VIC1,"2004/11/01 08:30:00",5678.18333,26.5,TRADE
VIC1,"2004/11/01 09:00:00",5715.64,27.77,TRADE
VIC1,"2004/11/01 09:30:00",5754.62333,27.71,TRADE
VIC1,"2004/11/01 10:00:00",5759.13,27.64,TRADE
VIC1,"2004/11/01 10:30:00",5735,27.7,TRADE
VIC1,"2004/11/01 11:00:00",5782.03333,27.79,TRADE
VIC1,"2004/11/01 11:30:00",5782.755,27.7,TRADE
VIC1,"2004/11/01 12:00:00",5781.52,27.73,TRADE
VIC1,"2004/11/01 12:30:00",5761.175,27.69,TRADE
VIC1,"2004/11/01 13:00:00",5734.32667,27.68,TRADE
VIC1,"2004/11/01 13:30:00",5701.87833,27.67,TRADE
VIC1,"2004/11/01 14:00:00",5727.85167,27.83,TRADE
VIC1,"2004/11/01 14:30:00",5719.18833,27.68,TRADE
VIC1,"2004/11/01 15:00:00",5726.30333,27.69,TRADE
VIC1,"2004/11/01 15:30:00",5746.39333,27.72,TRADE
VIC1,"2004/11/01 16:00:00",5792.36833,27.78,TRADE
VIC1,"2004/11/01 16:30:00",5821.96333,27.83,TRADE
VIC1,"2004/11/01 17:00:00",5764.22167,27.68,TRADE
VIC1,"2004/11/01 17:30:00",5633.45,27.21,TRADE
VIC1,"2004/11/01 18:00:00",5463.05667,24.8,TRADE
VIC1,"2004/11/01 18:30:00",5324.64667,23.62,TRADE
VIC1,"2004/11/01 19:00:00",5285.30333,23.77,TRADE
VIC1,"2004/11/01 19:30:00",5395.20833,24.34,TRADE
VIC1,"2004/11/01 20:00:00",5404.68167,24.03,TRADE
VIC1,"2004/11/01 20:30:00",5307.79833,23.94,TRADE
VIC1,"2004/11/01 21:00:00",5168.05333,19.85,TRADE
VIC1,"2004/11/01 21:30:00",5035.72667,22.12,TRADE
VIC1,"2004/11/01 22:00:00",4926.38333,19.98,TRADE
VIC1,"2004/11/01 22:30:00",4786.47667,22.04,TRADE
VIC1,"2004/11/01 23:00:00",4741.51333,18.69,TRADE
VIC1,"2004/11/01 23:30:00",5096.87667,23.3,TRADE
VIC1,"2004/11/02 00:00:00",5063.36,21.94,TRADE
VIC1,"2004/11/02 00:30:00",4884.33,21.3,TRADE
VIC1,"2004/11/02 01:00:00",4772.945,17.82,TRADE
VIC1,"2004/11/02 01:30:00",5157.61333,22.33,TRADE
VIC1,"2004/11/02 02:00:00",5011.16333,18.41,TRADE
VIC1,"2004/11/02 02:30:00",4794.45167,16.9,TRADE
VIC1,"2004/11/02 03:00:00",4569.545,16.67,TRADE
VIC1,"2004/11/02 03:30:00",4451.495,16.09,TRADE
VIC1,"2004/11/02 04:00:00",4386.00167,15.99,TRADE
VIC1,"2004/11/02 04:30:00",4348.69833,15.59,TRADE
VIC1,"2004/11/02 05:00:00",4383.22833,17.41,TRADE
VIC1,"2004/11/02 05:30:00",4433.275,17.31,TRADE
VIC1,"2004/11/02 06:00:00",4557.16333,18.81,TRADE
VIC1,"2004/11/02 06:30:00",4705.44667,18.75,TRADE
VIC1,"2004/11/02 07:00:00",4876.84,20.98,TRADE
VIC1,"2004/11/02 07:30:00",4782.40833,18.76,TRADE
VIC1,"2004/11/02 08:00:00",4867.87333,20.23,TRADE
VIC1,"2004/11/02 08:30:00",4952.345,22.58,TRADE
VIC1,"2004/11/02 09:00:00",4993.16,25.34,TRADE
VIC1,"2004/11/02 09:30:00",5063.795,26.09,TRADE
VIC1,"2004/11/02 10:00:00",5101.965,27.48,TRADE
VIC1,"2004/11/02 10:30:00",5125.87833,26.7,TRADE
VIC1,"2004/11/02 11:00:00",5153.71333,27.32,TRADE
VIC1,"2004/11/02 11:30:00",5152.64667,26.17,TRADE
VIC1,"2004/11/02 12:00:00",5131.1,26.16,TRADE
VIC1,"2004/11/02 12:30:00",5121.62,29.91,TRADE
VIC1,"2004/11/02 13:00:00",5125.57333,28,TRADE
VIC1,"2004/11/02 13:30:00",5134.05167,29.24,TRADE
VIC1,"2004/11/02 14:00:00",5203.015,34.37,TRADE
VIC1,"2004/11/02 14:30:00",5146.90833,27.64,TRADE
VIC1,"2004/11/02 15:00:00",5210.865,29.25,TRADE
VIC1,"2004/11/02 15:30:00",5286.49167,27.54,TRADE
VIC1,"2004/11/02 16:00:00",5352.10833,27.71,TRADE
VIC1,"2004/11/02 16:30:00",5395.995,29.46,TRADE
VIC1,"2004/11/02 17:00:00",5440.77167,28.63,TRADE
VIC1,"2004/11/02 17:30:00",5473.34,27.69,TRADE
VIC1,"2004/11/02 18:00:00",5493.04333,25.08,TRADE
VIC1,"2004/11/02 18:30:00",5449.39,24.88,TRADE
VIC1,"2004/11/02 19:00:00",5532.71,27.81,TRADE
VIC1,"2004/11/02 19:30:00",5620.51667,28.19,TRADE
VIC1,"2004/11/02 20:00:00",5616.40333,26.91,TRADE
VIC1,"2004/11/02 20:30:00",5481.09667,25.15,TRADE
VIC1,"2004/11/02 21:00:00",5348.57667,21.05,TRADE
VIC1,"2004/11/02 21:30:00",5126.115,23.41,TRADE
VIC1,"2004/11/02 22:00:00",4901.83333,18.29,TRADE
VIC1,"2004/11/02 22:30:00",4715.995,19.34,TRADE
VIC1,"2004/11/02 23:00:00",4715.01667,18.92,TRADE
VIC1,"2004/11/02 23:30:00",5091.67333,23.88,TRADE
VIC1,"2004/11/03 00:00:00",5100.975,23.15,TRADE
VIC1,"2004/11/03 00:30:00",4977.925,22.12,TRADE
VIC1,"2004/11/03 01:00:00",4908.09167,18.16,TRADE
VIC1,"2004/11/03 01:30:00",5311.98,23.51,TRADE
VIC1,"2004/11/03 02:00:00",5213.97333,21.26,TRADE
VIC1,"2004/11/03 02:30:00",5039.54833,19.08,TRADE
VIC1,"2004/11/03 03:00:00",4815.64667,17.59,TRADE
VIC1,"2004/11/03 03:30:00",4698.31833,17.08,TRADE
VIC1,"2004/11/03 04:00:00",4632.84167,16.82,TRADE
VIC1,"2004/11/03 04:30:00",4709.79,19.86,TRADE
VIC1,"2004/11/03 05:00:00",4847.56167,20.17,TRADE
VIC1,"2004/11/03 05:30:00",5152.82,26.18,TRADE
VIC1,"2004/11/03 06:00:00",5537.59833,26.45,TRADE
VIC1,"2004/11/03 06:30:00",6092.70833,39.05,TRADE
VIC1,"2004/11/03 07:00:00",6506.67167,58.37,TRADE
VIC1,"2004/11/03 07:30:00",6397.365,39.64,TRADE
VIC1,"2004/11/03 08:00:00",6349.845,33.68,TRADE
VIC1,"2004/11/03 08:30:00",6351.65333,40.3,TRADE
VIC1,"2004/11/03 09:00:00",6331.09333,40.81,TRADE
VIC1,"2004/11/03 09:30:00",6272.77667,38.92,TRADE
VIC1,"2004/11/03 10:00:00",6246.64833,37.26,TRADE
VIC1,"2004/11/03 10:30:00",6224.92,35.28,TRADE
VIC1,"2004/11/03 11:00:00",6243.01667,40.38,TRADE
VIC1,"2004/11/03 11:30:00",6196.93167,40.86,TRADE
VIC1,"2004/11/03 12:00:00",6165.745,40.02,TRADE
VIC1,"2004/11/03 12:30:00",6128.845,41.91,TRADE
VIC1,"2004/11/03 13:00:00",6111.26,41.91,TRADE
VIC1,"2004/11/03 13:30:00",6098.455,42.09,TRADE
VIC1,"2004/11/03 14:00:00",6092.675,42.96,TRADE
VIC1,"2004/11/03 14:30:00",6044.375,41.87,TRADE
VIC1,"2004/11/03 15:00:00",6004.10333,36.19,TRADE
VIC1,"2004/11/03 15:30:00",6086.17667,37.47,TRADE
VIC1,"2004/11/03 16:00:00",6121.78833,40.49,TRADE
VIC1,"2004/11/03 16:30:00",6093.67833,39.34,TRADE
VIC1,"2004/11/03 17:00:00",6008.075,36.51,TRADE
VIC1,"2004/11/03 17:30:00",5949.55,32.95,TRADE
VIC1,"2004/11/03 18:00:00",5855.08833,29.33,TRADE
VIC1,"2004/11/03 18:30:00",5795.74167,29.49,TRADE
VIC1,"2004/11/03 19:00:00",5776.615,29.34,TRADE
VIC1,"2004/11/03 19:30:00",5957.21333,31.93,TRADE
VIC1,"2004/11/03 20:00:00",6036.90833,31.31,TRADE
VIC1,"2004/11/03 20:30:00",5938.165,29.04,TRADE
VIC1,"2004/11/03 21:00:00",5791.11333,26.53,TRADE
VIC1,"2004/11/03 21:30:00",5545.33667,26.63,TRADE
VIC1,"2004/11/03 22:00:00",5329.72,24.77,TRADE
VIC1,"2004/11/03 22:30:00",5111.815,23.86,TRADE
VIC1,"2004/11/03 23:00:00",4985.30333,20.61,TRADE
VIC1,"2004/11/03 23:30:00",5357.39333,27.46,TRADE
VIC1,"2004/11/04 00:00:00",5321.18333,24.16,TRADE
VIC1,"2004/11/04 00:30:00",5238.78,25.29,TRADE
VIC1,"2004/11/04 01:00:00",5127.195,22.21,TRADE
VIC1,"2004/11/04 01:30:00",5522.11333,27.07,TRADE
VIC1,"2004/11/04 02:00:00",5380.06667,24.59,TRADE
VIC1,"2004/11/04 02:30:00",5175.71833,20.87,TRADE
VIC1,"2004/11/04 03:00:00",4936.45,17.56,TRADE
VIC1,"2004/11/04 03:30:00",4874.51,18.71,TRADE
VIC1,"2004/11/04 04:00:00",4783.76667,18.55,TRADE
VIC1,"2004/11/04 04:30:00",4885.85333,22.14,TRADE
VIC1,"2004/11/04 05:00:00",4970.81333,25.46,TRADE
VIC1,"2004/11/04 05:30:00",5264.56833,31.88,TRADE
VIC1,"2004/11/04 06:00:00",5639.89667,42.25,TRADE
VIC1,"2004/11/04 06:30:00",6211.16667,59.13,TRADE
VIC1,"2004/11/04 07:00:00",6639.85667,73.14,TRADE
VIC1,"2004/11/04 07:30:00",6427.52,42.59,TRADE
VIC1,"2004/11/04 08:00:00",6379.435,36.75,TRADE
VIC1,"2004/11/04 08:30:00",6336.83833,41.53,TRADE
VIC1,"2004/11/04 09:00:00",6292.39667,41.48,TRADE
VIC1,"2004/11/04 09:30:00",6257.975,41.33,TRADE
VIC1,"2004/11/04 10:00:00",6246.82333,41.4,TRADE
VIC1,"2004/11/04 10:30:00",6236.67,41.49,TRADE
VIC1,"2004/11/04 11:00:00",6219.315,41.65,TRADE
VIC1,"2004/11/04 11:30:00",6191.54333,41.41,TRADE
VIC1,"2004/11/04 12:00:00",6193.24167,41.4,TRADE
VIC1,"2004/11/04 12:30:00",6199.39167,43.95,TRADE
VIC1,"2004/11/04 13:00:00",6194.03167,47.08,TRADE
VIC1,"2004/11/04 13:30:00",6195.72167,42.55,TRADE
VIC1,"2004/11/04 14:00:00",6208.625,43.62,TRADE
VIC1,"2004/11/04 14:30:00",6155.47667,40.87,TRADE
VIC1,"2004/11/04 15:00:00",6186.03167,40.91,TRADE
VIC1,"2004/11/04 15:30:00",6228.12667,41.13,TRADE
VIC1,"2004/11/04 16:00:00",6221.76667,41.36,TRADE
VIC1,"2004/11/04 16:30:00",6244.38,41.59,TRADE
VIC1,"2004/11/04 17:00:00",6343.17667,45.73,TRADE
VIC1,"2004/11/04 17:30:00",6364.45333,42.31,TRADE
VIC1,"2004/11/04 18:00:00",6298.545,40.8,TRADE
VIC1,"2004/11/04 18:30:00",6164.08167,36.31,TRADE
VIC1,"2004/11/04 19:00:00",6213.695,42.16,TRADE
VIC1,"2004/11/04 19:30:00",6256.31333,42.45,TRADE
VIC1,"2004/11/04 20:00:00",6202.33333,38.44,TRADE
VIC1,"2004/11/04 20:30:00",6006.69833,32.26,TRADE
VIC1,"2004/11/04 21:00:00",5845.68667,28.13,TRADE
VIC1,"2004/11/04 21:30:00",5558.455,29.74,TRADE
VIC1,"2004/11/04 22:00:00",5294.21833,26.37,TRADE
VIC1,"2004/11/04 22:30:00",5086.79333,25.68,TRADE
VIC1,"2004/11/04 23:00:00",5023.24,25.03,TRADE
VIC1,"2004/11/04 23:30:00",5387.40167,28.47,TRADE
VIC1,"2004/11/05 00:00:00",5332.905,25.77,TRADE
VIC1,"2004/11/05 00:30:00",5251.34167,24.44,TRADE
VIC1,"2004/11/05 01:00:00",5115.04,23.17,TRADE
VIC1,"2004/11/05 01:30:00",5533.94333,26.67,TRADE
VIC1,"2004/11/05 02:00:00",5378.49667,24.44,TRADE
VIC1,"2004/11/05 02:30:00",5172.91833,20.88,TRADE
VIC1,"2004/11/05 03:00:00",4957.12833,20.65,TRADE
VIC1,"2004/11/05 03:30:00",4859.765,19.23,TRADE
VIC1,"2004/11/05 04:00:00",4770.10667,18.69,TRADE
VIC1,"2004/11/05 04:30:00",4881.13833,21.64,TRADE
VIC1,"2004/11/05 05:00:00",4951.87333,22.74,TRADE
VIC1,"2004/11/05 05:30:00",5280.43,27.46,TRADE
VIC1,"2004/11/05 06:00:00",5695.77333,33.2,TRADE
VIC1,"2004/11/05 06:30:00",6231.99167,42.48,TRADE
VIC1,"2004/11/05 07:00:00",6598.215,62.76,TRADE
VIC1,"2004/11/05 07:30:00",6570.78333,51.51,TRADE
VIC1,"2004/11/05 08:00:00",6491.01167,42.61,TRADE
VIC1,"2004/11/05 08:30:00",6591.49167,52.63,TRADE
VIC1,"2004/11/05 09:00:00",6575.385,42.91,TRADE
VIC1,"2004/11/05 09:30:00",6491.78,41.58,TRADE
VIC1,"2004/11/05 10:00:00",6525.52167,41.57,TRADE
VIC1,"2004/11/05 10:30:00",6571.34,41.93,TRADE
VIC1,"2004/11/05 11:00:00",6567.455,70.89,TRADE
VIC1,"2004/11/05 11:30:00",6455.89167,57.63,TRADE
VIC1,"2004/11/05 12:00:00",6392.02167,43.3,TRADE
VIC1,"2004/11/05 12:30:00",6362.17667,50.33,TRADE
VIC1,"2004/11/05 13:00:00",6311.10667,49.2,TRADE
VIC1,"2004/11/05 13:30:00",6290.255,42.86,TRADE
VIC1,"2004/11/05 14:00:00",6237.48667,41.94,TRADE
VIC1,"2004/11/05 14:30:00",6154.3,42.1,TRADE
VIC1,"2004/11/05 15:00:00",6079.12167,40.29,TRADE
VIC1,"2004/11/05 15:30:00",6087.49167,42.54,TRADE
VIC1,"2004/11/05 16:00:00",6104.49167,41.69,TRADE
VIC1,"2004/11/05 16:30:00",6111.39333,41.66,TRADE
VIC1,"2004/11/05 17:00:00",6114.11,42.61,TRADE
VIC1,"2004/11/05 17:30:00",6033.505,35.76,TRADE
VIC1,"2004/11/05 18:00:00",5990.87667,34.45,TRADE
VIC1,"2004/11/05 18:30:00",5902.19333,32.04,TRADE
VIC1,"2004/11/05 19:00:00",5919.21167,33.92,TRADE
VIC1,"2004/11/05 19:30:00",5938.505,35.79,TRADE
VIC1,"2004/11/05 20:00:00",5898.325,34.49,TRADE
VIC1,"2004/11/05 20:30:00",5727.48833,29.92,TRADE
VIC1,"2004/11/05 21:00:00",5568.66667,27.56,TRADE
VIC1,"2004/11/05 21:30:00",5433.19333,31.32,TRADE
VIC1,"2004/11/05 22:00:00",5245.06833,26.49,TRADE
VIC1,"2004/11/05 22:30:00",5111.20167,27.77,TRADE
VIC1,"2004/11/05 23:00:00",5009.64167,26.72,TRADE
VIC1,"2004/11/05 23:30:00",5382.91167,30.05,TRADE
VIC1,"2004/11/06 00:00:00",5266.585,28.85,TRADE
VIC1,"2004/11/06 00:30:00",5106.25167,29.5,TRADE
VIC1,"2004/11/06 01:00:00",4939.31,24.33,TRADE
VIC1,"2004/11/06 01:30:00",5295.10833,24.48,TRADE
VIC1,"2004/11/06 02:00:00",5184.96333,20.48,TRADE
VIC1,"2004/11/06 02:30:00",4994.07,21.73,TRADE
VIC1,"2004/11/06 03:00:00",4790.21167,18.59,TRADE
VIC1,"2004/11/06 03:30:00",4641.83,17.23,TRADE
VIC1,"2004/11/06 04:00:00",4551.69,17.23,TRADE
VIC1,"2004/11/06 04:30:00",4546.74667,17.62,TRADE
VIC1,"2004/11/06 05:00:00",4559.095,17.75,TRADE
VIC1,"2004/11/06 05:30:00",4672.255,18.03,TRADE
VIC1,"2004/11/06 06:00:00",4784.50333,19.33,TRADE
VIC1,"2004/11/06 06:30:00",4973.24,21.91,TRADE
VIC1,"2004/11/06 07:00:00",5237.095,26.34,TRADE
VIC1,"2004/11/06 07:30:00",5291.35833,24.85,TRADE
VIC1,"2004/11/06 08:00:00",5431.85667,23.56,TRADE
VIC1,"2004/11/06 08:30:00",5499.47167,25.72,TRADE
VIC1,"2004/11/06 09:00:00",5593.42167,29.49,TRADE
VIC1,"2004/11/06 09:30:00",5619.26333,29.97,TRADE
VIC1,"2004/11/06 10:00:00",5596.11667,29.74,TRADE
VIC1,"2004/11/06 10:30:00",5593.48167,29.22,TRADE
VIC1,"2004/11/06 11:00:00",5575.565,27.78,TRADE
VIC1,"2004/11/06 11:30:00",5552.96167,26.08,TRADE
VIC1,"2004/11/06 12:00:00",5471.94167,25.08,TRADE
VIC1,"2004/11/06 12:30:00",5407.38,24.82,TRADE
VIC1,"2004/11/06 13:00:00",5372.24833,23.56,TRADE
VIC1,"2004/11/06 13:30:00",5353.34,23.16,TRADE
VIC1,"2004/11/06 14:00:00",5313.12833,22.94,TRADE
VIC1,"2004/11/06 14:30:00",5304.18667,22.65,TRADE
VIC1,"2004/11/06 15:00:00",5292.7,22.13,TRADE
VIC1,"2004/11/06 15:30:00",5328.72167,22.24,TRADE
VIC1,"2004/11/06 16:00:00",5373.21833,22.72,TRADE
VIC1,"2004/11/06 16:30:00",5408.935,22.56,TRADE
VIC1,"2004/11/06 17:00:00",5448.16833,23.34,TRADE
VIC1,"2004/11/06 17:30:00",5447.09,24.51,TRADE
VIC1,"2004/11/06 18:00:00",5423.245,24.51,TRADE
VIC1,"2004/11/06 18:30:00",5354.07167,24.45,TRADE
VIC1,"2004/11/06 19:00:00",5339.04333,24.82,TRADE
VIC1,"2004/11/06 19:30:00",5458.01,25.21,TRADE
VIC1,"2004/11/06 20:00:00",5495.805,25.27,TRADE
VIC1,"2004/11/06 20:30:00",5434.01833,24.41,TRADE
VIC1,"2004/11/06 21:00:00",5318.15167,23.74,TRADE
VIC1,"2004/11/06 21:30:00",5220.29333,24.16,TRADE
VIC1,"2004/11/06 22:00:00",5066.055,23.07,TRADE
VIC1,"2004/11/06 22:30:00",4952.04,22.74,TRADE
VIC1,"2004/11/06 23:00:00",4885.27167,23.23,TRADE
VIC1,"2004/11/06 23:30:00",5180.92833,24.52,TRADE
VIC1,"2004/11/07 00:00:00",5093.425,23.74,TRADE
VIC1,"2004/11/07 00:30:00",4944.42667,21.91,TRADE
VIC1,"2004/11/07 01:00:00",4859.895,19.34,TRADE
VIC1,"2004/11/07 01:30:00",5251.09667,22.62,TRADE
VIC1,"2004/11/07 02:00:00",5102.97333,21.07,TRADE
VIC1,"2004/11/07 02:30:00",4939.97333,19.23,TRADE
VIC1,"2004/11/07 03:00:00",4756.37,17.47,TRADE
VIC1,"2004/11/07 03:30:00",4630.155,17.45,TRADE
VIC1,"2004/11/07 04:00:00",4489.02,16.17,TRADE
VIC1,"2004/11/07 04:30:00",4424.62833,15.67,TRADE
VIC1,"2004/11/07 05:00:00",4362.38333,14.95,TRADE
VIC1,"2004/11/07 05:30:00",4399.36333,15.63,TRADE
VIC1,"2004/11/07 06:00:00",4392.46,16.34,TRADE
VIC1,"2004/11/07 06:30:00",4535.96,18.36,TRADE
VIC1,"2004/11/07 07:00:00",4749.48833,20.85,TRADE
VIC1,"2004/11/07 07:30:00",4736.65,21.16,TRADE
VIC1,"2004/11/07 08:00:00",4847.45167,23.87,TRADE
VIC1,"2004/11/07 08:30:00",4993.75,26.23,TRADE
VIC1,"2004/11/07 09:00:00",5059.61167,29.91,TRADE
VIC1,"2004/11/07 09:30:00",5146.60667,29.28,TRADE
VIC1,"2004/11/07 10:00:00",5159.20667,28.63,TRADE
VIC1,"2004/11/07 10:30:00",5190.19667,28.63,TRADE
VIC1,"2004/11/07 11:00:00",5220.80667,28.95,TRADE
VIC1,"2004/11/07 11:30:00",5204.97333,29.17,TRADE
VIC1,"2004/11/07 12:00:00",5200.22333,30.31,TRADE
VIC1,"2004/11/07 12:30:00",5155.30833,30.33,TRADE
VIC1,"2004/11/07 13:00:00",5148.855,28.52,TRADE
VIC1,"2004/11/07 13:30:00",5144.59667,28.43,TRADE
VIC1,"2004/11/07 14:00:00",5128.21167,28.5,TRADE
VIC1,"2004/11/07 14:30:00",5141.35167,28.27,TRADE
VIC1,"2004/11/07 15:00:00",5170.855,28.63,TRADE
VIC1,"2004/11/07 15:30:00",5223.92167,28.58,TRADE
VIC1,"2004/11/07 16:00:00",5314.65833,27.67,TRADE
VIC1,"2004/11/07 16:30:00",5391.25667,30.31,TRADE
VIC1,"2004/11/07 17:00:00",5520.84167,34.85,TRADE
VIC1,"2004/11/07 17:30:00",5540.08,35.81,TRADE
VIC1,"2004/11/07 18:00:00",5613.18,33.33,TRADE
VIC1,"2004/11/07 18:30:00",5623.74833,32.42,TRADE
VIC1,"2004/11/07 19:00:00",5664.34,37.83,TRADE
VIC1,"2004/11/07 19:30:00",5733.71,39.25,TRADE
VIC1,"2004/11/07 20:00:00",5721.52333,39.87,TRADE
VIC1,"2004/11/07 20:30:00",5575.63,37.21,TRADE
VIC1,"2004/11/07 21:00:00",5427.25333,34.66,TRADE
VIC1,"2004/11/07 21:30:00",5254.69667,31.74,TRADE
VIC1,"2004/11/07 22:00:00",5094.86,27.75,TRADE
VIC1,"2004/11/07 22:30:00",4896.24167,27.77,TRADE
VIC1,"2004/11/07 23:00:00",4812.63667,25.16,TRADE
VIC1,"2004/11/07 23:30:00",5107.98,30.3,TRADE
VIC1,"2004/11/08 00:00:00",5112.62167,26.62,TRADE
VIC1,"2004/11/08 00:30:00",5007.02333,26.11,TRADE
VIC1,"2004/11/08 01:00:00",4934.495,26.05,TRADE
VIC1,"2004/11/08 01:30:00",5323.10333,27.89,TRADE
VIC1,"2004/11/08 02:00:00",5202.86333,26.64,TRADE
VIC1,"2004/11/08 02:30:00",5055.825,25.34,TRADE
VIC1,"2004/11/08 03:00:00",4890.48667,22.6,TRADE
VIC1,"2004/11/08 03:30:00",4831.02333,20.88,TRADE
VIC1,"2004/11/08 04:00:00",4705.84167,20.47,TRADE
VIC1,"2004/11/08 04:30:00",4753.26667,22.51,TRADE
VIC1,"2004/11/08 05:00:00",4835.975,22.91,TRADE
VIC1,"2004/11/08 05:30:00",5159.41167,29.22,TRADE
VIC1,"2004/11/08 06:00:00",5555.535,35.13,TRADE
VIC1,"2004/11/08 06:30:00",6129.65833,35.36,TRADE
VIC1,"2004/11/08 07:00:00",6613.06833,44.1,TRADE
VIC1,"2004/11/08 07:30:00",6454.30667,39.69,TRADE
VIC1,"2004/11/08 08:00:00",6431.23167,35.55,TRADE
VIC1,"2004/11/08 08:30:00",6482.70167,41.27,TRADE
VIC1,"2004/11/08 09:00:00",6494.46,42.27,TRADE
VIC1,"2004/11/08 09:30:00",6481.64333,41.9,TRADE
VIC1,"2004/11/08 10:00:00",6452.43667,40.78,TRADE
VIC1,"2004/11/08 10:30:00",6426.27333,36.43,TRADE
VIC1,"2004/11/08 11:00:00",6417.65667,36.01,TRADE
VIC1,"2004/11/08 11:30:00",6316.03667,29.37,TRADE
VIC1,"2004/11/08 12:00:00",6373.73,27.57,TRADE
VIC1,"2004/11/08 12:30:00",6357.70833,27.88,TRADE
VIC1,"2004/11/08 13:00:00",6346.905,27.87,TRADE
VIC1,"2004/11/08 13:30:00",6360.82,27.95,TRADE
VIC1,"2004/11/08 14:00:00",6318.13833,27.61,TRADE
VIC1,"2004/11/08 14:30:00",6268.655,27.46,TRADE
VIC1,"2004/11/08 15:00:00",6231.50167,27.7,TRADE
VIC1,"2004/11/08 15:30:00",6226.905,27.59,TRADE
VIC1,"2004/11/08 16:00:00",6240.46833,27.73,TRADE
VIC1,"2004/11/08 16:30:00",6248.84833,27.73,TRADE
VIC1,"2004/11/08 17:00:00",6258.26833,27.7,TRADE
VIC1,"2004/11/08 17:30:00",6183.23167,27.3,TRADE
VIC1,"2004/11/08 18:00:00",6123.25667,26.37,TRADE
VIC1,"2004/11/08 18:30:00",6077.93333,25.02,TRADE
VIC1,"2004/11/08 19:00:00",6086.31,27.25,TRADE
VIC1,"2004/11/08 19:30:00",6114.83167,26.55,TRADE
VIC1,"2004/11/08 20:00:00",6126.92167,25.85,TRADE
VIC1,"2004/11/08 20:30:00",6027.895,26.16,TRADE
VIC1,"2004/11/08 21:00:00",5867.86667,24.8,TRADE
VIC1,"2004/11/08 21:30:00",5626.72833,24.39,TRADE
VIC1,"2004/11/08 22:00:00",5401.48833,18.96,TRADE
VIC1,"2004/11/08 22:30:00",5186.3,16.92,TRADE
VIC1,"2004/11/08 23:00:00",5083.88333,17.93,TRADE
VIC1,"2004/11/08 23:30:00",5486.26833,24.5,TRADE
VIC1,"2004/11/09 00:00:00",5418.35167,17.37,TRADE
VIC1,"2004/11/09 00:30:00",5289.4,17.1,TRADE
VIC1,"2004/11/09 01:00:00",5126.85,16.35,TRADE
VIC1,"2004/11/09 01:30:00",5586.96833,22.44,TRADE
VIC1,"2004/11/09 02:00:00",5377.67833,16.4,TRADE
VIC1,"2004/11/09 02:30:00",5184.885,15.24,TRADE
VIC1,"2004/11/09 03:00:00",4963.035,15.08,TRADE
VIC1,"2004/11/09 03:30:00",4864.555,14.74,TRADE
VIC1,"2004/11/09 04:00:00",4768.325,14.4,TRADE
VIC1,"2004/11/09 04:30:00",4844.67167,14.29,TRADE
VIC1,"2004/11/09 05:00:00",5002.85833,18.36,TRADE
VIC1,"2004/11/09 05:30:00",5352.43667,23.39,TRADE
VIC1,"2004/11/09 06:00:00",5716.64333,24.05,TRADE
VIC1,"2004/11/09 06:30:00",6290.825,30.95,TRADE
VIC1,"2004/11/09 07:00:00",6638.255,35.8,TRADE
VIC1,"2004/11/09 07:30:00",6408.86,27.18,TRADE
VIC1,"2004/11/09 08:00:00",6354.17833,27.24,TRADE
VIC1,"2004/11/09 08:30:00",6389.01667,28.47,TRADE
VIC1,"2004/11/09 09:00:00",6344.38333,28.39,TRADE
VIC1,"2004/11/09 09:30:00",6335.575,31.78,TRADE
VIC1,"2004/11/09 10:00:00",6343.23,34.23,TRADE
VIC1,"2004/11/09 10:30:00",6298.54,32.28,TRADE
VIC1,"2004/11/09 11:00:00",6298.60333,31.73,TRADE
VIC1,"2004/11/09 11:30:00",6245.315,35.26,TRADE
VIC1,"2004/11/09 12:00:00",6229.13833,33.35,TRADE
VIC1,"2004/11/09 12:30:00",6219.905,37.2,TRADE
VIC1,"2004/11/09 13:00:00",6222.71667,37.45,TRADE
VIC1,"2004/11/09 13:30:00",6214.945,34.56,TRADE
VIC1,"2004/11/09 14:00:00",6212.91833,28.5,TRADE
VIC1,"2004/11/09 14:30:00",6149.86167,27.69,TRADE
VIC1,"2004/11/09 15:00:00",6185.55833,29,TRADE
VIC1,"2004/11/09 15:30:00",6172.08,27.82,TRADE
VIC1,"2004/11/09 16:00:00",6168.70333,27.95,TRADE
VIC1,"2004/11/09 16:30:00",6133.475,28.07,TRADE
VIC1,"2004/11/09 17:00:00",6079.70333,28.58,TRADE
VIC1,"2004/11/09 17:30:00",5970.52667,27.89,TRADE
VIC1,"2004/11/09 18:00:00",5767.34,25.25,TRADE
VIC1,"2004/11/09 18:30:00",5632.19167,24.24,TRADE
VIC1,"2004/11/09 19:00:00",5636.08167,24.62,TRADE
VIC1,"2004/11/09 19:30:00",5744.44667,25.54,TRADE
VIC1,"2004/11/09 20:00:00",5820.01167,24.39,TRADE
VIC1,"2004/11/09 20:30:00",5753.115,24.55,TRADE
VIC1,"2004/11/09 21:00:00",5662.69,23.77,TRADE
VIC1,"2004/11/09 21:30:00",5472.915,24.05,TRADE
VIC1,"2004/11/09 22:00:00",5246.24167,21.15,TRADE
VIC1,"2004/11/09 22:30:00",5057.80833,22.03,TRADE
VIC1,"2004/11/09 23:00:00",5032.43333,22.27,TRADE
VIC1,"2004/11/09 23:30:00",5398.465,25.21,TRADE
VIC1,"2004/11/10 00:00:00",5319.55833,24.51,TRADE
VIC1,"2004/11/10 00:30:00",5181.28833,23.83,TRADE
VIC1,"2004/11/10 01:00:00",5054.67,22.1,TRADE
VIC1,"2004/11/10 01:30:00",5431.45833,23.26,TRADE
VIC1,"2004/11/10 02:00:00",5257.02167,19.6,TRADE
VIC1,"2004/11/10 02:30:00",5034.82167,17.98,TRADE
VIC1,"2004/11/10 03:00:00",4861.95667,16.96,TRADE
VIC1,"2004/11/10 03:30:00",4744.95833,18.36,TRADE
VIC1,"2004/11/10 04:00:00",4680.36333,17.65,TRADE
VIC1,"2004/11/10 04:30:00",4750.30167,17.43,TRADE
VIC1,"2004/11/10 05:00:00",4898.81667,19.4,TRADE
VIC1,"2004/11/10 05:30:00",5175.80167,24.19,TRADE
VIC1,"2004/11/10 06:00:00",5544.885,26.93,TRADE
VIC1,"2004/11/10 06:30:00",6080.09,32.27,TRADE
VIC1,"2004/11/10 07:00:00",6378.55167,37.09,TRADE
VIC1,"2004/11/10 07:30:00",6159.58167,27.28,TRADE
VIC1,"2004/11/10 08:00:00",6155.55667,26.44,TRADE
VIC1,"2004/11/10 08:30:00",6199.95667,27.07,TRADE
VIC1,"2004/11/10 09:00:00",6196.505,27.93,TRADE
VIC1,"2004/11/10 09:30:00",6171.175,28.61,TRADE
VIC1,"2004/11/10 10:00:00",6230.38333,28.95,TRADE
VIC1,"2004/11/10 10:30:00",6251.31,29.11,TRADE
VIC1,"2004/11/10 11:00:00",6278.535,29.37,TRADE
VIC1,"2004/11/10 11:30:00",6279.21,29.86,TRADE
VIC1,"2004/11/10 12:00:00",6290.80167,29.41,TRADE
VIC1,"2004/11/10 12:30:00",6313.44333,33.93,TRADE
VIC1,"2004/11/10 13:00:00",6360.74833,34.88,TRADE
VIC1,"2004/11/10 13:30:00",6396.22833,34.88,TRADE
VIC1,"2004/11/10 14:00:00",6392.72167,34.07,TRADE
VIC1,"2004/11/10 14:30:00",6370.64667,32.51,TRADE
VIC1,"2004/11/10 15:00:00",6377.70167,31.99,TRADE
VIC1,"2004/11/10 15:30:00",6405.38333,28.83,TRADE
VIC1,"2004/11/10 16:00:00",6368.66167,28.43,TRADE
VIC1,"2004/11/10 16:30:00",6339.63667,27.87,TRADE
VIC1,"2004/11/10 17:00:00",6230.665,28.42,TRADE
VIC1,"2004/11/10 17:30:00",6072.54,26.56,TRADE
VIC1,"2004/11/10 18:00:00",5944.145,24.96,TRADE
VIC1,"2004/11/10 18:30:00",5785.01833,24.63,TRADE
VIC1,"2004/11/10 19:00:00",5727.55667,26.59,TRADE
VIC1,"2004/11/10 19:30:00",5743.435,28.75,TRADE
VIC1,"2004/11/10 20:00:00",5788.22333,28.94,TRADE
VIC1,"2004/11/10 20:30:00",5673.37833,26.59,TRADE
VIC1,"2004/11/10 21:00:00",5545.405,27.26,TRADE
VIC1,"2004/11/10 21:30:00",5325.42,27.73,TRADE
VIC1,"2004/11/10 22:00:00",5179.985,24.97,TRADE
VIC1,"2004/11/10 22:30:00",5010.8,24.49,TRADE
VIC1,"2004/11/10 23:00:00",4930.13,23,TRADE
VIC1,"2004/11/10 23:30:00",5303.21167,26.94,TRADE
VIC1,"2004/11/11 00:00:00",5239.12,25.2,TRADE
VIC1,"2004/11/11 00:30:00",5092.42333,24.24,TRADE
VIC1,"2004/11/11 01:00:00",4931.07333,22.25,TRADE
VIC1,"2004/11/11 01:30:00",5297.08167,24.01,TRADE
VIC1,"2004/11/11 02:00:00",5126.63167,20.15,TRADE
VIC1,"2004/11/11 02:30:00",4915.26167,17.71,TRADE
VIC1,"2004/11/11 03:00:00",4691.77333,17.12,TRADE
VIC1,"2004/11/11 03:30:00",4630.37667,17.81,TRADE
VIC1,"2004/11/11 04:00:00",4586.40167,17.43,TRADE
VIC1,"2004/11/11 04:30:00",4636.68,18.43,TRADE
VIC1,"2004/11/11 05:00:00",4761.12,19.42,TRADE
VIC1,"2004/11/11 05:30:00",5049.455,25.48,TRADE
VIC1,"2004/11/11 06:00:00",5388.03833,29.4,TRADE
VIC1,"2004/11/11 06:30:00",5859.855,35.63,TRADE
VIC1,"2004/11/11 07:00:00",6245.92,41.22,TRADE
VIC1,"2004/11/11 07:30:00",6110.94667,29.15,TRADE
VIC1,"2004/11/11 08:00:00",6101.06,29.47,TRADE
VIC1,"2004/11/11 08:30:00",6116.175,29.71,TRADE
VIC1,"2004/11/11 09:00:00",6145.28167,31.58,TRADE
VIC1,"2004/11/11 09:30:00",6156.81333,30.3,TRADE
VIC1,"2004/11/11 10:00:00",6198.89667,35.25,TRADE
VIC1,"2004/11/11 10:30:00",6207.65667,33.32,TRADE
VIC1,"2004/11/11 11:00:00",6259.86333,35.77,TRADE
VIC1,"2004/11/11 11:30:00",6238.95667,35.66,TRADE
VIC1,"2004/11/11 12:00:00",6256.235,30.97,TRADE
VIC1,"2004/11/11 12:30:00",6252.11,35.3,TRADE
VIC1,"2004/11/11 13:00:00",6259.12833,35.3,TRADE
VIC1,"2004/11/11 13:30:00",6289.86333,36.2,TRADE
VIC1,"2004/11/11 14:00:00",6223.80667,35.09,TRADE
VIC1,"2004/11/11 14:30:00",6185.07167,32,TRADE
VIC1,"2004/11/11 15:00:00",6226.42,33.21,TRADE
VIC1,"2004/11/11 15:30:00",6279.605,34.2,TRADE
VIC1,"2004/11/11 16:00:00",6264.585,34.49,TRADE
VIC1,"2004/11/11 16:30:00",6281.00167,35.77,TRADE
VIC1,"2004/11/11 17:00:00",6323.05833,37.65,TRADE
VIC1,"2004/11/11 17:30:00",6203.28667,34.9,TRADE
VIC1,"2004/11/11 18:00:00",6098.24667,31.87,TRADE
VIC1,"2004/11/11 18:30:00",5923.77333,30.63,TRADE
VIC1,"2004/11/11 19:00:00",5882.51667,32.91,TRADE
VIC1,"2004/11/11 19:30:00",5853.98167,32.72,TRADE
VIC1,"2004/11/11 20:00:00",5936.83333,31.09,TRADE
VIC1,"2004/11/11 20:30:00",5773.96667,30.9,TRADE
VIC1,"2004/11/11 21:00:00",5648.92,28.18,TRADE
VIC1,"2004/11/11 21:30:00",5382.43167,29.12,TRADE
VIC1,"2004/11/11 22:00:00",5166.875,26.52,TRADE
VIC1,"2004/11/11 22:30:00",5028.58167,27.68,TRADE
VIC1,"2004/11/11 23:00:00",4924.05333,26.52,TRADE
VIC1,"2004/11/11 23:30:00",5286.145,30.84,TRADE
VIC1,"2004/11/12 00:00:00",5245.13167,29.75,TRADE
VIC1,"2004/11/12 00:30:00",5073.87167,27.71,TRADE
VIC1,"2004/11/12 01:00:00",4965.89333,27.88,TRADE
VIC1,"2004/11/12 01:30:00",5326.88,29.26,TRADE
VIC1,"2004/11/12 02:00:00",5209.13167,28.2,TRADE
VIC1,"2004/11/12 02:30:00",4994.31,27.24,TRADE
VIC1,"2004/11/12 03:00:00",4782.855,26.13,TRADE
VIC1,"2004/11/12 03:30:00",4671.175,24.84,TRADE
VIC1,"2004/11/12 04:00:00",4564.92,23.67,TRADE
VIC1,"2004/11/12 04:30:00",4617.29167,23.98,TRADE
VIC1,"2004/11/12 05:00:00",4771.90833,24.44,TRADE
VIC1,"2004/11/12 05:30:00",5038.065,29.25,TRADE
VIC1,"2004/11/12 06:00:00",5362.57667,35.42,TRADE
VIC1,"2004/11/12 06:30:00",5903.99,41.09,TRADE
VIC1,"2004/11/12 07:00:00",6253.98833,43.07,TRADE
VIC1,"2004/11/12 07:30:00",6053.32833,35.09,TRADE
VIC1,"2004/11/12 08:00:00",6000.77167,33.76,TRADE
VIC1,"2004/11/12 08:30:00",5800.145,33.04,TRADE
VIC1,"2004/11/12 09:00:00",6007.915,36.64,TRADE
VIC1,"2004/11/12 09:30:00",6051.085,44.18,TRADE
VIC1,"2004/11/12 10:00:00",6088.74,39.04,TRADE
VIC1,"2004/11/12 10:30:00",6064.21333,37.95,TRADE
VIC1,"2004/11/12 11:00:00",6058.72833,48.27,TRADE
VIC1,"2004/11/12 11:30:00",6028.45333,44.64,TRADE
VIC1,"2004/11/12 12:00:00",6041.295,46.76,TRADE
VIC1,"2004/11/12 12:30:00",6042.205,55.43,TRADE
VIC1,"2004/11/12 13:00:00",6030.81,58.01,TRADE
VIC1,"2004/11/12 13:30:00",6040.705,63.39,TRADE
VIC1,"2004/11/12 14:00:00",6067.235,66.34,TRADE
VIC1,"2004/11/12 14:30:00",6037.19,54.22,TRADE
VIC1,"2004/11/12 15:00:00",6009.845,47.23,TRADE
VIC1,"2004/11/12 15:30:00",6005.815,38.49,TRADE
VIC1,"2004/11/12 16:00:00",6016.39167,41.04,TRADE
VIC1,"2004/11/12 16:30:00",5967.46333,36.45,TRADE
VIC1,"2004/11/12 17:00:00",5904.99833,35.33,TRADE
VIC1,"2004/11/12 17:30:00",5727.43833,33.42,TRADE
VIC1,"2004/11/12 18:00:00",5606.94833,31.4,TRADE
VIC1,"2004/11/12 18:30:00",5271.60333,26.36,TRADE
VIC1,"2004/11/12 19:00:00",5322.70667,29.18,TRADE
VIC1,"2004/11/12 19:30:00",5579.43667,35.06,TRADE
VIC1,"2004/11/12 20:00:00",5676.44667,32.22,TRADE
VIC1,"2004/11/12 20:30:00",5478.71667,27.81,TRADE
VIC1,"2004/11/12 21:00:00",5381.195,26.99,TRADE
VIC1,"2004/11/12 21:30:00",5253.31833,29.88,TRADE
VIC1,"2004/11/12 22:00:00",5125.855,27.58,TRADE
VIC1,"2004/11/12 22:30:00",4963.235,27.86,TRADE
VIC1,"2004/11/12 23:00:00",4917.285,26.63,TRADE
VIC1,"2004/11/12 23:30:00",5250.39833,30.59,TRADE
VIC1,"2004/11/13 00:00:00",5157.93333,29.18,TRADE
VIC1,"2004/11/13 00:30:00",4988.68667,25.93,TRADE
VIC1,"2004/11/13 01:00:00",4869.47,24.35,TRADE
VIC1,"2004/11/13 01:30:00",5211.57333,26.53,TRADE
VIC1,"2004/11/13 02:00:00",5039.44167,23.71,TRADE
VIC1,"2004/11/13 02:30:00",4814.76167,21.1,TRADE
VIC1,"2004/11/13 03:00:00",4640.305,20.01,TRADE
VIC1,"2004/11/13 03:30:00",4478.38833,17.13,TRADE
VIC1,"2004/11/13 04:00:00",4417.55667,18,TRADE
VIC1,"2004/11/13 04:30:00",4392.11667,19.19,TRADE
VIC1,"2004/11/13 05:00:00",4439.70333,17.88,TRADE
VIC1,"2004/11/13 05:30:00",4502.83667,17.49,TRADE
VIC1,"2004/11/13 06:00:00",4627.84667,20.28,TRADE
VIC1,"2004/11/13 06:30:00",4823.77333,24.36,TRADE
VIC1,"2004/11/13 07:00:00",5080.035,28.17,TRADE
VIC1,"2004/11/13 07:30:00",5054.42667,26.7,TRADE
VIC1,"2004/11/13 08:00:00",5192.08667,28.81,TRADE
VIC1,"2004/11/13 08:30:00",5325.61833,29.18,TRADE
VIC1,"2004/11/13 09:00:00",5346.79333,29.26,TRADE
VIC1,"2004/11/13 09:30:00",5367.10167,33.2,TRADE
VIC1,"2004/11/13 10:00:00",5343.80667,33.92,TRADE
VIC1,"2004/11/13 10:30:00",5340.905,33.91,TRADE
VIC1,"2004/11/13 11:00:00",5376.47167,32.46,TRADE
VIC1,"2004/11/13 11:30:00",5328.39667,32.5,TRADE
VIC1,"2004/11/13 12:00:00",5263.14667,31.25,TRADE
VIC1,"2004/11/13 12:30:00",5221.28667,28.63,TRADE
VIC1,"2004/11/13 13:00:00",5231.455,29.71,TRADE
VIC1,"2004/11/13 13:30:00",5190.815,29.82,TRADE
VIC1,"2004/11/13 14:00:00",5160.09833,32.73,TRADE
VIC1,"2004/11/13 14:30:00",5115.015,30.46,TRADE
VIC1,"2004/11/13 15:00:00",5116.63167,32.41,TRADE
VIC1,"2004/11/13 15:30:00",5141.74833,29.7,TRADE
VIC1,"2004/11/13 16:00:00",5211.44,33.37,TRADE
VIC1,"2004/11/13 16:30:00",5231.485,30.69,TRADE
VIC1,"2004/11/13 17:00:00",5245.91667,33.04,TRADE
VIC1,"2004/11/13 17:30:00",5231.50333,29.81,TRADE
VIC1,"2004/11/13 18:00:00",5181.83167,27.45,TRADE
VIC1,"2004/11/13 18:30:00",5152.47167,25.96,TRADE
VIC1,"2004/11/13 19:00:00",5151.46,30.2,TRADE
VIC1,"2004/11/13 19:30:00",5282.185,33.15,TRADE
VIC1,"2004/11/13 20:00:00",5376.87,31.99,TRADE
VIC1,"2004/11/13 20:30:00",5248.78,31.63,TRADE
VIC1,"2004/11/13 21:00:00",5213.40667,28.37,TRADE
VIC1,"2004/11/13 21:30:00",5099.225,27.3,TRADE
VIC1,"2004/11/13 22:00:00",4904.04833,25.82,TRADE
VIC1,"2004/11/13 22:30:00",4829.335,26.36,TRADE
VIC1,"2004/11/13 23:00:00",4743.59167,25.02,TRADE
VIC1,"2004/11/13 23:30:00",5068.48667,28.07,TRADE
VIC1,"2004/11/14 00:00:00",5024.78167,26.89,TRADE
VIC1,"2004/11/14 00:30:00",4911.205,26.18,TRADE
VIC1,"2004/11/14 01:00:00",4815.78,25.41,TRADE
VIC1,"2004/11/14 01:30:00",5171.17667,26.79,TRADE
VIC1,"2004/11/14 02:00:00",5001.075,23.33,TRADE
VIC1,"2004/11/14 02:30:00",4783.36,20.65,TRADE
VIC1,"2004/11/14 03:00:00",4603.90167,17.96,TRADE
VIC1,"2004/11/14 03:30:00",4454.12667,17.25,TRADE
VIC1,"2004/11/14 04:00:00",4334.75333,18.17,TRADE
VIC1,"2004/11/14 04:30:00",4283.48833,18.29,TRADE
VIC1,"2004/11/14 05:00:00",4270.935,18,TRADE
VIC1,"2004/11/14 05:30:00",4254.865,16.51,TRADE
VIC1,"2004/11/14 06:00:00",4324.37,17.33,TRADE
VIC1,"2004/11/14 06:30:00",4490.73667,18.6,TRADE
VIC1,"2004/11/14 07:00:00",4566.035,19.12,TRADE
VIC1,"2004/11/14 07:30:00",4612.85667,22.71,TRADE
VIC1,"2004/11/14 08:00:00",4693.94,24.5,TRADE
VIC1,"2004/11/14 08:30:00",4841.285,25.11,TRADE
VIC1,"2004/11/14 09:00:00",4830.615,25.89,TRADE
VIC1,"2004/11/14 09:30:00",4956.02,26.62,TRADE
VIC1,"2004/11/14 10:00:00",4982.13,27.24,TRADE
VIC1,"2004/11/14 10:30:00",4999.76667,27.68,TRADE
VIC1,"2004/11/14 11:00:00",4989.68667,27.62,TRADE
VIC1,"2004/11/14 11:30:00",4981.59,27.4,TRADE
VIC1,"2004/11/14 12:00:00",4948.15167,27.41,TRADE
VIC1,"2004/11/14 12:30:00",4890.585,26.84,TRADE
VIC1,"2004/11/14 13:00:00",4863.85833,25.18,TRADE
VIC1,"2004/11/14 13:30:00",4881.74833,25.15,TRADE
VIC1,"2004/11/14 14:00:00",4850.85,24.78,TRADE
VIC1,"2004/11/14 14:30:00",4828.48167,24.65,TRADE
VIC1,"2004/11/14 15:00:00",4811.48333,25.14,TRADE
VIC1,"2004/11/14 15:30:00",4852.87,26.25,TRADE
VIC1,"2004/11/14 16:00:00",4924.08,26.56,TRADE
VIC1,"2004/11/14 16:30:00",4933.55167,25.25,TRADE
VIC1,"2004/11/14 17:00:00",4953.46167,26.18,TRADE
VIC1,"2004/11/14 17:30:00",4978.53333,26.24,TRADE
VIC1,"2004/11/14 18:00:00",4979.395,26.07,TRADE
VIC1,"2004/11/14 18:30:00",4894.00833,25.7,TRADE
VIC1,"2004/11/14 19:00:00",4929.155,28,TRADE
VIC1,"2004/11/14 19:30:00",4985.04833,28.61,TRADE
VIC1,"2004/11/14 20:00:00",5188.78167,29.62,TRADE
VIC1,"2004/11/14 20:30:00",5130.47833,28.57,TRADE
VIC1,"2004/11/14 21:00:00",5026.81,27.08,TRADE
VIC1,"2004/11/14 21:30:00",4885.90167,26.99,TRADE
VIC1,"2004/11/14 22:00:00",4753.71,24.99,TRADE
VIC1,"2004/11/14 22:30:00",4579.555,23.61,TRADE
VIC1,"2004/11/14 23:00:00",4539.39,23.46,TRADE
VIC1,"2004/11/14 23:30:00",4888.61667,25.34,TRADE
VIC1,"2004/11/15 00:00:00",4853.95333,25.87,TRADE
VIC1,"2004/11/15 00:30:00",4767.015,24.02,TRADE
VIC1,"2004/11/15 01:00:00",4677.93,23.81,TRADE
VIC1,"2004/11/15 01:30:00",5111.18667,25.12,TRADE
VIC1,"2004/11/15 02:00:00",4949.515,20.89,TRADE
VIC1,"2004/11/15 02:30:00",4801.67333,18.79,TRADE
VIC1,"2004/11/15 03:00:00",4649.755,17.01,TRADE
VIC1,"2004/11/15 03:30:00",4522.445,17.74,TRADE
VIC1,"2004/11/15 04:00:00",4427.81167,17.53,TRADE
VIC1,"2004/11/15 04:30:00",4521.89833,18.16,TRADE
VIC1,"2004/11/15 05:00:00",4642.55333,19.9,TRADE
VIC1,"2004/11/15 05:30:00",4957.34333,24.25,TRADE
VIC1,"2004/11/15 06:00:00",5339.53667,32.01,TRADE
VIC1,"2004/11/15 06:30:00",5907.17,36.99,TRADE
VIC1,"2004/11/15 07:00:00",6261.68667,40.87,TRADE
VIC1,"2004/11/15 07:30:00",6087.11667,32.75,TRADE
VIC1,"2004/11/15 08:00:00",6052.85,35.97,TRADE
VIC1,"2004/11/15 08:30:00",6132.165,41.12,TRADE
VIC1,"2004/11/15 09:00:00",6135.22333,42.27,TRADE
VIC1,"2004/11/15 09:30:00",6106.60333,55.26,TRADE
VIC1,"2004/11/15 10:00:00",6133.98667,48.84,TRADE
VIC1,"2004/11/15 10:30:00",6131.75833,42.08,TRADE
VIC1,"2004/11/15 11:00:00",6151.13667,45.47,TRADE
VIC1,"2004/11/15 11:30:00",6117.595,44.21,TRADE
VIC1,"2004/11/15 12:00:00",6095.08833,50.77,TRADE
VIC1,"2004/11/15 12:30:00",6131.88833,52.38,TRADE
VIC1,"2004/11/15 13:00:00",6135.775,57.47,TRADE
VIC1,"2004/11/15 13:30:00",6135.70167,58.43,TRADE
VIC1,"2004/11/15 14:00:00",6073.81167,46.49,TRADE
VIC1,"2004/11/15 14:30:00",6017.52667,48.36,TRADE
VIC1,"2004/11/15 15:00:00",6012.46,41.35,TRADE
VIC1,"2004/11/15 15:30:00",6011.03667,42.39,TRADE
VIC1,"2004/11/15 16:00:00",6065.17833,48.66,TRADE
VIC1,"2004/11/15 16:30:00",6010.145,38.74,TRADE
VIC1,"2004/11/15 17:00:00",5994.67667,39.91,TRADE
VIC1,"2004/11/15 17:30:00",5818.97333,38.97,TRADE
VIC1,"2004/11/15 18:00:00",5696.80167,34.92,TRADE
VIC1,"2004/11/15 18:30:00",5606.36833,34.21,TRADE
VIC1,"2004/11/15 19:00:00",5599.675,34.19,TRADE
VIC1,"2004/11/15 19:30:00",5656.46,38.6,TRADE
VIC1,"2004/11/15 20:00:00",5773.96,38.69,TRADE
VIC1,"2004/11/15 20:30:00",5644.76667,33.15,TRADE
VIC1,"2004/11/15 21:00:00",5512.15,28.9,TRADE
VIC1,"2004/11/15 21:30:00",5323.32,28.04,TRADE
VIC1,"2004/11/15 22:00:00",5099.66,25.97,TRADE
VIC1,"2004/11/15 22:30:00",4929.13667,26.59,TRADE
VIC1,"2004/11/15 23:00:00",4849.915,25.5,TRADE
VIC1,"2004/11/15 23:30:00",5213.49167,33.81,TRADE
VIC1,"2004/11/16 00:00:00",5180.33667,30.81,TRADE
VIC1,"2004/11/16 00:30:00",5037.14833,29.87,TRADE
VIC1,"2004/11/16 01:00:00",4943.015,31.35,TRADE
VIC1,"2004/11/16 01:30:00",5344.59333,34.09,TRADE
VIC1,"2004/11/16 02:00:00",5186.36833,27.47,TRADE
VIC1,"2004/11/16 02:30:00",4994.67833,24.19,TRADE
VIC1,"2004/11/16 03:00:00",4823.85667,23.25,TRADE
VIC1,"2004/11/16 03:30:00",4703.60667,19.93,TRADE
VIC1,"2004/11/16 04:00:00",4660.53667,22.01,TRADE
VIC1,"2004/11/16 04:30:00",4720.52167,23.16,TRADE
VIC1,"2004/11/16 05:00:00",4834.83,26.04,TRADE
VIC1,"2004/11/16 05:30:00",5143.61833,30.93,TRADE
VIC1,"2004/11/16 06:00:00",5526.14,38.12,TRADE
VIC1,"2004/11/16 06:30:00",6071.44667,41.01,TRADE
VIC1,"2004/11/16 07:00:00",6423.02,56.6,TRADE
VIC1,"2004/11/16 07:30:00",6194.4,39.64,TRADE
VIC1,"2004/11/16 08:00:00",6104.835,41.22,TRADE
VIC1,"2004/11/16 08:30:00",6184.72667,59.8,TRADE
VIC1,"2004/11/16 09:00:00",6124.87,46.69,TRADE
VIC1,"2004/11/16 09:30:00",6144.98833,47.2,TRADE
VIC1,"2004/11/16 10:00:00",6167.95833,63.91,TRADE
VIC1,"2004/11/16 10:30:00",6105.16,51.12,TRADE
VIC1,"2004/11/16 11:00:00",6153.73333,58.44,TRADE
VIC1,"2004/11/16 11:30:00",6087.66167,49.52,TRADE
VIC1,"2004/11/16 12:00:00",6119.41833,42.89,TRADE
VIC1,"2004/11/16 12:30:00",6118.45833,44.54,TRADE
VIC1,"2004/11/16 13:00:00",6145.73667,40.58,TRADE
VIC1,"2004/11/16 13:30:00",6160.46833,41.59,TRADE
VIC1,"2004/11/16 14:00:00",6174.47167,48.36,TRADE
VIC1,"2004/11/16 14:30:00",6154.15667,47.39,TRADE
VIC1,"2004/11/16 15:00:00",6154.94,42.82,TRADE
VIC1,"2004/11/16 15:30:00",6222.90333,43.31,TRADE
VIC1,"2004/11/16 16:00:00",6182.755,41.12,TRADE
VIC1,"2004/11/16 16:30:00",6173.11667,39.78,TRADE
VIC1,"2004/11/16 17:00:00",6093.815,34.45,TRADE
VIC1,"2004/11/16 17:30:00",5962.75167,27.53,TRADE
VIC1,"2004/11/16 18:00:00",5795.25333,24.81,TRADE
VIC1,"2004/11/16 18:30:00",5627.97333,24.48,TRADE
VIC1,"2004/11/16 19:00:00",5585.89333,24.42,TRADE
VIC1,"2004/11/16 19:30:00",5595.715,24.48,TRADE
VIC1,"2004/11/16 20:00:00",5768.12833,26.21,TRADE
VIC1,"2004/11/16 20:30:00",5713.66667,25.69,TRADE
VIC1,"2004/11/16 21:00:00",5609.735,24.55,TRADE
VIC1,"2004/11/16 21:30:00",5400.37167,24.29,TRADE
VIC1,"2004/11/16 22:00:00",5191.95167,23.04,TRADE
VIC1,"2004/11/16 22:30:00",5056.49,22.8,TRADE
VIC1,"2004/11/16 23:00:00",4958.57333,21.96,TRADE
VIC1,"2004/11/16 23:30:00",5336.905,27.56,TRADE
VIC1,"2004/11/17 00:00:00",5267.545,24.79,TRADE
VIC1,"2004/11/17 00:30:00",5134.89833,23.78,TRADE
VIC1,"2004/11/17 01:00:00",5030.56667,22.61,TRADE
VIC1,"2004/11/17 01:30:00",5390.495,22.59,TRADE
VIC1,"2004/11/17 02:00:00",5206.30167,19.99,TRADE
VIC1,"2004/11/17 02:30:00",5023.83,18.05,TRADE
VIC1,"2004/11/17 03:00:00",4876.42667,17.9,TRADE
VIC1,"2004/11/17 03:30:00",4761.05167,17.32,TRADE
VIC1,"2004/11/17 04:00:00",4697.88667,17.42,TRADE
VIC1,"2004/11/17 04:30:00",4756.385,17.36,TRADE
VIC1,"2004/11/17 05:00:00",4882.81833,18.99,TRADE
VIC1,"2004/11/17 05:30:00",5098,20.81,TRADE
VIC1,"2004/11/17 06:00:00",5493.51833,25.73,TRADE
VIC1,"2004/11/17 06:30:00",5945.85167,31.47,TRADE
VIC1,"2004/11/17 07:00:00",6305.13667,33.76,TRADE
VIC1,"2004/11/17 07:30:00",6107.93833,28.63,TRADE
VIC1,"2004/11/17 08:00:00",6090.14333,28.98,TRADE
VIC1,"2004/11/17 08:30:00",6182.48667,31.26,TRADE
VIC1,"2004/11/17 09:00:00",6226.95833,34.67,TRADE
VIC1,"2004/11/17 09:30:00",6265.59667,39.68,TRADE
VIC1,"2004/11/17 10:00:00",6307.275,40.11,TRADE
VIC1,"2004/11/17 10:30:00",6389.74833,39.96,TRADE
VIC1,"2004/11/17 11:00:00",6393.12667,41.91,TRADE
VIC1,"2004/11/17 11:30:00",6426.425,47.8,TRADE
VIC1,"2004/11/17 12:00:00",6425.305,46.5,TRADE
VIC1,"2004/11/17 12:30:00",6471.72167,56.83,TRADE
VIC1,"2004/11/17 13:00:00",6578.15667,60.54,TRADE
VIC1,"2004/11/17 13:30:00",6572.31,55.42,TRADE
VIC1,"2004/11/17 14:00:00",6582.95167,52.64,TRADE
VIC1,"2004/11/17 14:30:00",6569.09333,58.26,TRADE
VIC1,"2004/11/17 15:00:00",6623.08167,57.9,TRADE
VIC1,"2004/11/17 15:30:00",6639.31667,57.48,TRADE
VIC1,"2004/11/17 16:00:00",6653.85667,61.94,TRADE
VIC1,"2004/11/17 16:30:00",6571.87333,59.44,TRADE
VIC1,"2004/11/17 17:00:00",6486.83667,53.14,TRADE
VIC1,"2004/11/17 17:30:00",6315.37667,38.16,TRADE
VIC1,"2004/11/17 18:00:00",6129.00667,34.81,TRADE
VIC1,"2004/11/17 18:30:00",5951.07833,30.9,TRADE
VIC1,"2004/11/17 19:00:00",5772.10333,28.53,TRADE
VIC1,"2004/11/17 19:30:00",5750.015,32.87,TRADE
VIC1,"2004/11/17 20:00:00",5885.14833,31.08,TRADE
VIC1,"2004/11/17 20:30:00",5775.92667,27.74,TRADE
VIC1,"2004/11/17 21:00:00",5638.49333,26.95,TRADE
VIC1,"2004/11/17 21:30:00",5455.48333,27.47,TRADE
VIC1,"2004/11/17 22:00:00",5238.79833,25.24,TRADE
VIC1,"2004/11/17 22:30:00",5066.78833,23.46,TRADE
VIC1,"2004/11/17 23:00:00",5010.47333,23.16,TRADE
VIC1,"2004/11/17 23:30:00",5356.625,24.53,TRADE
VIC1,"2004/11/18 00:00:00",5272.95833,24.96,TRADE
VIC1,"2004/11/18 00:30:00",5043.89333,23.33,TRADE
VIC1,"2004/11/18 01:00:00",4906.725,21.96,TRADE
VIC1,"2004/11/18 01:30:00",5323.935,23.53,TRADE
VIC1,"2004/11/18 02:00:00",5154.97,22,TRADE
VIC1,"2004/11/18 02:30:00",4916.805,18.11,TRADE
VIC1,"2004/11/18 03:00:00",4783.3,17.63,TRADE
VIC1,"2004/11/18 03:30:00",4647.06167,17.42,TRADE
VIC1,"2004/11/18 04:00:00",4623.37667,17.63,TRADE
VIC1,"2004/11/18 04:30:00",4655.03167,18.17,TRADE
VIC1,"2004/11/18 05:00:00",4816.32167,20.48,TRADE
VIC1,"2004/11/18 05:30:00",5078.27333,24.26,TRADE
VIC1,"2004/11/18 06:00:00",5408.43167,25.95,TRADE
VIC1,"2004/11/18 06:30:00",5941.94667,34.37,TRADE
VIC1,"2004/11/18 07:00:00",6290.15167,38.89,TRADE
VIC1,"2004/11/18 07:30:00",6218.66833,32.16,TRADE
VIC1,"2004/11/18 08:00:00",6206.51,42.05,TRADE
VIC1,"2004/11/18 08:30:00",6280.055,50.02,TRADE
VIC1,"2004/11/18 09:00:00",6353.52833,52.23,TRADE
VIC1,"2004/11/18 09:30:00",6392.315,60.96,TRADE
VIC1,"2004/11/18 10:00:00",6442.84667,73.61,TRADE
VIC1,"2004/11/18 10:30:00",6491.91667,77,TRADE
VIC1,"2004/11/18 11:00:00",6484.145,77.22,TRADE
VIC1,"2004/11/18 11:30:00",6492.34,92.07,TRADE
VIC1,"2004/11/18 12:00:00",6503.3,42.34,TRADE
VIC1,"2004/11/18 12:30:00",6537.895,49.32,TRADE
VIC1,"2004/11/18 13:00:00",6514.785,45.77,TRADE
VIC1,"2004/11/18 13:30:00",6472.30167,44.7,TRADE
VIC1,"2004/11/18 14:00:00",6450.24167,65.65,TRADE
VIC1,"2004/11/18 14:30:00",6442.4,83.5,TRADE
VIC1,"2004/11/18 15:00:00",6369.89833,47.15,TRADE
VIC1,"2004/11/18 15:30:00",6370.53333,41.21,TRADE
VIC1,"2004/11/18 16:00:00",6343.26833,35.75,TRADE
VIC1,"2004/11/18 16:30:00",6304.99667,28.38,TRADE
VIC1,"2004/11/18 17:00:00",6269.13167,31.17,TRADE
VIC1,"2004/11/18 17:30:00",6129.95,82.24,TRADE
VIC1,"2004/11/18 18:00:00",5984.06667,68.43,TRADE
VIC1,"2004/11/18 18:30:00",5838.86167,56.82,TRADE
VIC1,"2004/11/18 19:00:00",5835.23833,53.1,TRADE
VIC1,"2004/11/18 19:30:00",5840.38833,73.33,TRADE
VIC1,"2004/11/18 20:00:00",5870.83,77.77,TRADE
VIC1,"2004/11/18 20:30:00",5688.49,51.21,TRADE
VIC1,"2004/11/18 21:00:00",5544.41833,41.19,TRADE
VIC1,"2004/11/18 21:30:00",5361.965,42.36,TRADE
VIC1,"2004/11/18 22:00:00",5141.76167,32.38,TRADE
VIC1,"2004/11/18 22:30:00",4995.66167,32.7,TRADE
VIC1,"2004/11/18 23:00:00",4931.785,30.17,TRADE
VIC1,"2004/11/18 23:30:00",5328.885,38.39,TRADE
VIC1,"2004/11/19 00:00:00",5256.645,34.69,TRADE
VIC1,"2004/11/19 00:30:00",5076.92333,30.95,TRADE
VIC1,"2004/11/19 01:00:00",4961.68167,26.5,TRADE
VIC1,"2004/11/19 01:30:00",5404.79667,29.39,TRADE
VIC1,"2004/11/19 02:00:00",5207.81833,25.23,TRADE
VIC1,"2004/11/19 02:30:00",4992.215,25.92,TRADE
VIC1,"2004/11/19 03:00:00",4813.55167,25.2,TRADE
VIC1,"2004/11/19 03:30:00",4703.34167,22.6,TRADE
VIC1,"2004/11/19 04:00:00",4629.025,22.29,TRADE
VIC1,"2004/11/19 04:30:00",4709.1,25.87,TRADE
VIC1,"2004/11/19 05:00:00",4790.835,27.35,TRADE
VIC1,"2004/11/19 05:30:00",5022.595,30.13,TRADE
VIC1,"2004/11/19 06:00:00",5417.41167,35.65,TRADE
VIC1,"2004/11/19 06:30:00",5935.74167,47.03,TRADE
VIC1,"2004/11/19 07:00:00",6291.415,60.15,TRADE
VIC1,"2004/11/19 07:30:00",6114.21667,43.98,TRADE
VIC1,"2004/11/19 08:00:00",6080.49833,46.03,TRADE
VIC1,"2004/11/19 08:30:00",6075.115,60.92,TRADE
VIC1,"2004/11/19 09:00:00",6102.39167,67.21,TRADE
VIC1,"2004/11/19 09:30:00",6076.47167,66.25,TRADE
VIC1,"2004/11/19 10:00:00",6100.51,71.54,TRADE
VIC1,"2004/11/19 10:30:00",6116.38333,68.85,TRADE
VIC1,"2004/11/19 11:00:00",6149.91333,66.79,TRADE
VIC1,"2004/11/19 11:30:00",6111.75333,54.54,TRADE
VIC1,"2004/11/19 12:00:00",6088.9,45.95,TRADE
VIC1,"2004/11/19 12:30:00",6041.80667,44.74,TRADE
VIC1,"2004/11/19 13:00:00",6041.97167,43.98,TRADE
VIC1,"2004/11/19 13:30:00",6045.45667,42.84,TRADE
VIC1,"2004/11/19 14:00:00",6019.31333,45.05,TRADE
VIC1,"2004/11/19 14:30:00",5917.38167,38.36,TRADE
VIC1,"2004/11/19 15:00:00",5935.445,36.9,TRADE
VIC1,"2004/11/19 15:30:00",5912.05833,39.21,TRADE
VIC1,"2004/11/19 16:00:00",5899.91167,39.82,TRADE
VIC1,"2004/11/19 16:30:00",5890.93667,37.81,TRADE
VIC1,"2004/11/19 17:00:00",5859.19167,38.41,TRADE
VIC1,"2004/11/19 17:30:00",5712.33167,36.5,TRADE
VIC1,"2004/11/19 18:00:00",5585.75333,31.22,TRADE
VIC1,"2004/11/19 18:30:00",5464.26,27.29,TRADE
VIC1,"2004/11/19 19:00:00",5402.43,29.04,TRADE
VIC1,"2004/11/19 19:30:00",5442.74167,31.31,TRADE
VIC1,"2004/11/19 20:00:00",5568.41,28.79,TRADE
VIC1,"2004/11/19 20:30:00",5502.04167,28.03,TRADE
VIC1,"2004/11/19 21:00:00",5394.18333,27.54,TRADE
VIC1,"2004/11/19 21:30:00",5270.65833,28.27,TRADE
VIC1,"2004/11/19 22:00:00",5147.43333,25.77,TRADE
VIC1,"2004/11/19 22:30:00",5022.24167,27.66,TRADE
VIC1,"2004/11/19 23:00:00",4963.23667,27.26,TRADE
VIC1,"2004/11/19 23:30:00",5315.64333,33.82,TRADE
VIC1,"2004/11/20 00:00:00",5269.04167,28,TRADE
VIC1,"2004/11/20 00:30:00",5133.40333,27.15,TRADE
VIC1,"2004/11/20 01:00:00",4950.705,26.47,TRADE
VIC1,"2004/11/20 01:30:00",5335.60333,30.48,TRADE
VIC1,"2004/11/20 02:00:00",5144.69167,27.75,TRADE
VIC1,"2004/11/20 02:30:00",4949.395,25.54,TRADE
VIC1,"2004/11/20 03:00:00",4765.16833,22.79,TRADE
VIC1,"2004/11/20 03:30:00",4643.825,21.6,TRADE
VIC1,"2004/11/20 04:00:00",4545.89333,18.53,TRADE
VIC1,"2004/11/20 04:30:00",4571.33333,18.21,TRADE
VIC1,"2004/11/20 05:00:00",4574.2,19.83,TRADE
VIC1,"2004/11/20 05:30:00",4635.42333,21.24,TRADE
VIC1,"2004/11/20 06:00:00",4797.16667,23.97,TRADE
VIC1,"2004/11/20 06:30:00",5031.23667,27.81,TRADE
VIC1,"2004/11/20 07:00:00",5241.695,26.43,TRADE
VIC1,"2004/11/20 07:30:00",5242.09,26.96,TRADE
VIC1,"2004/11/20 08:00:00",5347.235,30.36,TRADE
VIC1,"2004/11/20 08:30:00",5465.32167,33.03,TRADE
VIC1,"2004/11/20 09:00:00",5414.075,34.01,TRADE
VIC1,"2004/11/20 09:30:00",5432.13,34.18,TRADE
VIC1,"2004/11/20 10:00:00",5432.875,34.02,TRADE
VIC1,"2004/11/20 10:30:00",5443.86833,32.3,TRADE
VIC1,"2004/11/20 11:00:00",5396.44,29.53,TRADE
VIC1,"2004/11/20 11:30:00",5303.125,27.78,TRADE
VIC1,"2004/11/20 12:00:00",5259.12667,27.77,TRADE
VIC1,"2004/11/20 12:30:00",5237.96667,28.17,TRADE
VIC1,"2004/11/20 13:00:00",5176.79333,27.69,TRADE
VIC1,"2004/11/20 13:30:00",5137.99167,27.59,TRADE
VIC1,"2004/11/20 14:00:00",5096.05833,27.52,TRADE
VIC1,"2004/11/20 14:30:00",5021.30333,26.77,TRADE
VIC1,"2004/11/20 15:00:00",5031.54333,26.3,TRADE
VIC1,"2004/11/20 15:30:00",5055.99333,26.26,TRADE
VIC1,"2004/11/20 16:00:00",5113.63833,27.03,TRADE
VIC1,"2004/11/20 16:30:00",5057.675,25.68,TRADE
VIC1,"2004/11/20 17:00:00",5121.56833,26.73,TRADE
VIC1,"2004/11/20 17:30:00",5093.385,25.49,TRADE
VIC1,"2004/11/20 18:00:00",5053.05,25.05,TRADE
VIC1,"2004/11/20 18:30:00",4988.59833,23.76,TRADE
VIC1,"2004/11/20 19:00:00",4954.13167,26.36,TRADE
VIC1,"2004/11/20 19:30:00",5057.60667,26.85,TRADE
VIC1,"2004/11/20 20:00:00",5215.56833,27.38,TRADE
VIC1,"2004/11/20 20:30:00",5192.235,25.97,TRADE
VIC1,"2004/11/20 21:00:00",5163.9,24.86,TRADE
VIC1,"2004/11/20 21:30:00",5061.07,25.59,TRADE
VIC1,"2004/11/20 22:00:00",4956.24833,23.87,TRADE
VIC1,"2004/11/20 22:30:00",4862.32167,25.23,TRADE
VIC1,"2004/11/20 23:00:00",4810.44667,24.81,TRADE
VIC1,"2004/11/20 23:30:00",5122.34667,28.76,TRADE
VIC1,"2004/11/21 00:00:00",5051.33667,26.95,TRADE
VIC1,"2004/11/21 00:30:00",4916.065,24.56,TRADE
VIC1,"2004/11/21 01:00:00",4809.645,23.45,TRADE
VIC1,"2004/11/21 01:30:00",5186.8,25.43,TRADE
VIC1,"2004/11/21 02:00:00",5018.20667,22.79,TRADE
VIC1,"2004/11/21 02:30:00",4826.78333,21.1,TRADE
VIC1,"2004/11/21 03:00:00",4645.81,20.6,TRADE
VIC1,"2004/11/21 03:30:00",4525.74667,17.62,TRADE
VIC1,"2004/11/21 04:00:00",4421.58333,17.08,TRADE
VIC1,"2004/11/21 04:30:00",4388.18333,17.29,TRADE
VIC1,"2004/11/21 05:00:00",4300.165,17.04,TRADE
VIC1,"2004/11/21 05:30:00",4309.15,17.82,TRADE
VIC1,"2004/11/21 06:00:00",4385.85833,18.41,TRADE
VIC1,"2004/11/21 06:30:00",4510.66333,17.49,TRADE
VIC1,"2004/11/21 07:00:00",4639.71667,17.96,TRADE
VIC1,"2004/11/21 07:30:00",4629.8,20.89,TRADE
VIC1,"2004/11/21 08:00:00",4756.265,23.84,TRADE
VIC1,"2004/11/21 08:30:00",4847.22833,25.99,TRADE
VIC1,"2004/11/21 09:00:00",4898.83833,28.26,TRADE
VIC1,"2004/11/21 09:30:00",4942.58,29.33,TRADE
VIC1,"2004/11/21 10:00:00",4960.70667,28.46,TRADE
VIC1,"2004/11/21 10:30:00",4938.81667,28.27,TRADE
VIC1,"2004/11/21 11:00:00",4950.455,28.42,TRADE
VIC1,"2004/11/21 11:30:00",4936.61833,27.77,TRADE
VIC1,"2004/11/21 12:00:00",4923.82,27.85,TRADE
VIC1,"2004/11/21 12:30:00",4861.1,27.86,TRADE
VIC1,"2004/11/21 13:00:00",4872.14167,26.85,TRADE
VIC1,"2004/11/21 13:30:00",4847.81667,26.16,TRADE
VIC1,"2004/11/21 14:00:00",4822.20667,26.04,TRADE
VIC1,"2004/11/21 14:30:00",4814.69667,25.13,TRADE
VIC1,"2004/11/21 15:00:00",4800.45,24.76,TRADE
VIC1,"2004/11/21 15:30:00",4872.87,26.52,TRADE
VIC1,"2004/11/21 16:00:00",4948.13833,25.58,TRADE
VIC1,"2004/11/21 16:30:00",4974.54833,25.25,TRADE
VIC1,"2004/11/21 17:00:00",5032.355,28.04,TRADE
VIC1,"2004/11/21 17:30:00",5082.44333,28.04,TRADE
VIC1,"2004/11/21 18:00:00",5089.32333,28.01,TRADE
VIC1,"2004/11/21 18:30:00",5122.42833,29.06,TRADE
VIC1,"2004/11/21 19:00:00",5124.27667,36.24,TRADE
VIC1,"2004/11/21 19:30:00",5241.04667,37.44,TRADE
VIC1,"2004/11/21 20:00:00",5310.62,36.24,TRADE
VIC1,"2004/11/21 20:30:00",5205.24167,28.59,TRADE
VIC1,"2004/11/21 21:00:00",5192.31167,28.1,TRADE
VIC1,"2004/11/21 21:30:00",5046.42333,29.3,TRADE
VIC1,"2004/11/21 22:00:00",4874.65833,28.94,TRADE
VIC1,"2004/11/21 22:30:00",4736.395,29.5,TRADE
VIC1,"2004/11/21 23:00:00",4670.29667,27.76,TRADE
VIC1,"2004/11/21 23:30:00",4982.15333,32.45,TRADE
VIC1,"2004/11/22 00:00:00",4931.91667,29.15,TRADE
VIC1,"2004/11/22 00:30:00",4837.315,26.78,TRADE
VIC1,"2004/11/22 01:00:00",4764.68833,25.74,TRADE
VIC1,"2004/11/22 01:30:00",5148.66333,29.69,TRADE
VIC1,"2004/11/22 02:00:00",4979.38333,24.87,TRADE
VIC1,"2004/11/22 02:30:00",4867.85167,25.32,TRADE
VIC1,"2004/11/22 03:00:00",4692.39667,21.02,TRADE
VIC1,"2004/11/22 03:30:00",4613.27,24.9,TRADE
VIC1,"2004/11/22 04:00:00",4550.03,24.4,TRADE
VIC1,"2004/11/22 04:30:00",4639.89333,26.4,TRADE
VIC1,"2004/11/22 05:00:00",4720.49833,25.41,TRADE
VIC1,"2004/11/22 05:30:00",5015.05333,34.59,TRADE
VIC1,"2004/11/22 06:00:00",5418.765,34.34,TRADE
VIC1,"2004/11/22 06:30:00",5943.34667,39.85,TRADE
VIC1,"2004/11/22 07:00:00",6276.81667,42.09,TRADE
VIC1,"2004/11/22 07:30:00",6104.695,35.35,TRADE
VIC1,"2004/11/22 08:00:00",6091.185,34.45,TRADE
VIC1,"2004/11/22 08:30:00",6152.305,34.88,TRADE
VIC1,"2004/11/22 09:00:00",6161.36,34.9,TRADE
VIC1,"2004/11/22 09:30:00",6138.12,35.54,TRADE
VIC1,"2004/11/22 10:00:00",6137.43,35.43,TRADE
VIC1,"2004/11/22 10:30:00",6134.28833,34.43,TRADE
VIC1,"2004/11/22 11:00:00",6195.12833,35.54,TRADE
VIC1,"2004/11/22 11:30:00",6186.39,36.47,TRADE
VIC1,"2004/11/22 12:00:00",6106.13,35.29,TRADE
VIC1,"2004/11/22 12:30:00",6134.26667,40.63,TRADE
VIC1,"2004/11/22 13:00:00",6140.485,38.31,TRADE
VIC1,"2004/11/22 13:30:00",6142.13667,37.68,TRADE
VIC1,"2004/11/22 14:00:00",6105.19833,35.41,TRADE
VIC1,"2004/11/22 14:30:00",6047.69,35.15,TRADE
VIC1,"2004/11/22 15:00:00",6053.29167,35.13,TRADE
VIC1,"2004/11/22 15:30:00",6016.36333,34.7,TRADE
VIC1,"2004/11/22 16:00:00",6038.76333,34.07,TRADE
VIC1,"2004/11/22 16:30:00",6009.88167,34.02,TRADE
VIC1,"2004/11/22 17:00:00",5993.82667,33.62,TRADE
VIC1,"2004/11/22 17:30:00",5879.93667,29.08,TRADE
VIC1,"2004/11/22 18:00:00",5761.61667,28.72,TRADE
VIC1,"2004/11/22 18:30:00",5633.97833,27.12,TRADE
VIC1,"2004/11/22 19:00:00",5640.40833,27.76,TRADE
VIC1,"2004/11/22 19:30:00",5665.985,28.14,TRADE
VIC1,"2004/11/22 20:00:00",5764.81667,26.95,TRADE
VIC1,"2004/11/22 20:30:00",5724.26667,27.36,TRADE
VIC1,"2004/11/22 21:00:00",5620.40667,26.48,TRADE
VIC1,"2004/11/22 21:30:00",5418.12667,28.18,TRADE
VIC1,"2004/11/22 22:00:00",5213.26833,26.01,TRADE
VIC1,"2004/11/22 22:30:00",5064.735,25.31,TRADE
VIC1,"2004/11/22 23:00:00",4962.70167,25.25,TRADE
VIC1,"2004/11/22 23:30:00",5345.23333,30.31,TRADE
VIC1,"2004/11/23 00:00:00",5281.68833,28,TRADE
VIC1,"2004/11/23 00:30:00",5134.05667,31.25,TRADE
VIC1,"2004/11/23 01:00:00",5023.40667,30.42,TRADE
VIC1,"2004/11/23 01:30:00",5394.075,30.72,TRADE
VIC1,"2004/11/23 02:00:00",5231.44833,25.84,TRADE
VIC1,"2004/11/23 02:30:00",4994.025,23.37,TRADE
VIC1,"2004/11/23 03:00:00",4844.37333,21.71,TRADE
VIC1,"2004/11/23 03:30:00",4683.66,19.81,TRADE
VIC1,"2004/11/23 04:00:00",4666.05167,22.35,TRADE
VIC1,"2004/11/23 04:30:00",4692.73,23.15,TRADE
VIC1,"2004/11/23 05:00:00",4837.445,23.9,TRADE
VIC1,"2004/11/23 05:30:00",5129.29333,27.33,TRADE
VIC1,"2004/11/23 06:00:00",5482.7,31.91,TRADE
VIC1,"2004/11/23 06:30:00",6046.90333,33.76,TRADE
VIC1,"2004/11/23 07:00:00",6340.22333,36.17,TRADE
VIC1,"2004/11/23 07:30:00",6152.81333,34.04,TRADE
VIC1,"2004/11/23 08:00:00",6104.92833,31.08,TRADE
VIC1,"2004/11/23 08:30:00",6155.26333,32.69,TRADE
VIC1,"2004/11/23 09:00:00",6199.18,34.68,TRADE
VIC1,"2004/11/23 09:30:00",6172.235,34.75,TRADE
VIC1,"2004/11/23 10:00:00",6202.16,34.44,TRADE
VIC1,"2004/11/23 10:30:00",6203.53167,34.18,TRADE
VIC1,"2004/11/23 11:00:00",6192.775,34.71,TRADE
VIC1,"2004/11/23 11:30:00",6177.33,34.16,TRADE
VIC1,"2004/11/23 12:00:00",6183.115,33.14,TRADE
VIC1,"2004/11/23 12:30:00",6193.32833,34.52,TRADE
VIC1,"2004/11/23 13:00:00",6204.80833,34.61,TRADE
VIC1,"2004/11/23 13:30:00",6238.35333,35.18,TRADE
VIC1,"2004/11/23 14:00:00",6207.99167,35.2,TRADE
VIC1,"2004/11/23 14:30:00",6133.32667,33.81,TRADE
VIC1,"2004/11/23 15:00:00",6136.09667,33.68,TRADE
VIC1,"2004/11/23 15:30:00",6163.87667,33.66,TRADE
VIC1,"2004/11/23 16:00:00",6226.525,33.81,TRADE
VIC1,"2004/11/23 16:30:00",6183.42,33.58,TRADE
VIC1,"2004/11/23 17:00:00",6125.97667,33.5,TRADE
VIC1,"2004/11/23 17:30:00",5948.55167,26.67,TRADE
VIC1,"2004/11/23 18:00:00",5775.20667,25.89,TRADE
VIC1,"2004/11/23 18:30:00",5592.84833,25.56,TRADE
VIC1,"2004/11/23 19:00:00",5487.88667,25.28,TRADE
VIC1,"2004/11/23 19:30:00",5503.20167,26.91,TRADE
VIC1,"2004/11/23 20:00:00",5697.51,27,TRADE
VIC1,"2004/11/23 20:30:00",5649.31833,27.33,TRADE
VIC1,"2004/11/23 21:00:00",5559.035,26.01,TRADE
VIC1,"2004/11/23 21:30:00",5359.14167,28.96,TRADE
VIC1,"2004/11/23 22:00:00",5190.705,26.82,TRADE
VIC1,"2004/11/23 22:30:00",5034.55833,27.05,TRADE
VIC1,"2004/11/23 23:00:00",4987.18333,27.36,TRADE
VIC1,"2004/11/23 23:30:00",5366.52167,32.3,TRADE
VIC1,"2004/11/24 00:00:00",5324.96833,30.78,TRADE
VIC1,"2004/11/24 00:30:00",5161.51333,29.3,TRADE
VIC1,"2004/11/24 01:00:00",5021.47667,26.48,TRADE
VIC1,"2004/11/24 01:30:00",5377.57167,29.08,TRADE
VIC1,"2004/11/24 02:00:00",5244.39667,23.67,TRADE
VIC1,"2004/11/24 02:30:00",5032.19167,19.88,TRADE
VIC1,"2004/11/24 03:00:00",4803.49667,18.35,TRADE
VIC1,"2004/11/24 03:30:00",4725.15833,18.02,TRADE
VIC1,"2004/11/24 04:00:00",4646.87667,18.09,TRADE
VIC1,"2004/11/24 04:30:00",4708.61833,18.43,TRADE
VIC1,"2004/11/24 05:00:00",4854.81667,20.29,TRADE
VIC1,"2004/11/24 05:30:00",5115.955,26.5,TRADE
VIC1,"2004/11/24 06:00:00",5497.21667,30.03,TRADE
VIC1,"2004/11/24 06:30:00",6032.50667,32.69,TRADE
VIC1,"2004/11/24 07:00:00",6343.39167,35.53,TRADE
VIC1,"2004/11/24 07:30:00",6142.685,30.15,TRADE
VIC1,"2004/11/24 08:00:00",6145.115,31.32,TRADE
VIC1,"2004/11/24 08:30:00",6155.38,32.84,TRADE
VIC1,"2004/11/24 09:00:00",6152.32,32.74,TRADE
VIC1,"2004/11/24 09:30:00",6169.49833,34.6,TRADE
VIC1,"2004/11/24 10:00:00",6153.98167,33.45,TRADE
VIC1,"2004/11/24 10:30:00",6174.21833,33.15,TRADE
VIC1,"2004/11/24 11:00:00",6256.06,33.4,TRADE
VIC1,"2004/11/24 11:30:00",6245.91833,32.98,TRADE
VIC1,"2004/11/24 12:00:00",6241.29333,33.7,TRADE
VIC1,"2004/11/24 12:30:00",6248.84333,35.58,TRADE
VIC1,"2004/11/24 13:00:00",6303.24167,35.57,TRADE
VIC1,"2004/11/24 13:30:00",6311.19,35.57,TRADE
VIC1,"2004/11/24 14:00:00",6353.49167,35.23,TRADE
VIC1,"2004/11/24 14:30:00",6312.62167,35.07,TRADE
VIC1,"2004/11/24 15:00:00",6325.3,35.69,TRADE
VIC1,"2004/11/24 15:30:00",6332.945,35.22,TRADE
VIC1,"2004/11/24 16:00:00",6321.995,35.49,TRADE
VIC1,"2004/11/24 16:30:00",6297.25167,35.43,TRADE
VIC1,"2004/11/24 17:00:00",6225.17833,32.96,TRADE
VIC1,"2004/11/24 17:30:00",6033.91833,30.03,TRADE
VIC1,"2004/11/24 18:00:00",5865.31667,28.96,TRADE
VIC1,"2004/11/24 18:30:00",5712.15167,27.19,TRADE
VIC1,"2004/11/24 19:00:00",5613.215,26.61,TRADE
VIC1,"2004/11/24 19:30:00",5612.47167,27.94,TRADE
VIC1,"2004/11/24 20:00:00",5764.25833,28.08,TRADE
VIC1,"2004/11/24 20:30:00",5691.08,29.5,TRADE
VIC1,"2004/11/24 21:00:00",5612.39833,27.71,TRADE
VIC1,"2004/11/24 21:30:00",5395.885,30.12,TRADE
VIC1,"2004/11/24 22:00:00",5215.58833,27.52,TRADE
VIC1,"2004/11/24 22:30:00",5069.03,27.39,TRADE
VIC1,"2004/11/24 23:00:00",4989.82333,27.59,TRADE
VIC1,"2004/11/24 23:30:00",5353.76333,31.79,TRADE
VIC1,"2004/11/25 00:00:00",5304.64167,30.47,TRADE
VIC1,"2004/11/25 00:30:00",5133.14167,28.77,TRADE
VIC1,"2004/11/25 01:00:00",4974.67,26.62,TRADE
VIC1,"2004/11/25 01:30:00",5349.39333,28.45,TRADE
VIC1,"2004/11/25 02:00:00",5236.00167,23.21,TRADE
VIC1,"2004/11/25 02:30:00",4967.195,23.47,TRADE
VIC1,"2004/11/25 03:00:00",4819.80167,22.04,TRADE
VIC1,"2004/11/25 03:30:00",4703.595,19.04,TRADE
VIC1,"2004/11/25 04:00:00",4626.35833,18.82,TRADE
VIC1,"2004/11/25 04:30:00",4692.49833,20.72,TRADE
VIC1,"2004/11/25 05:00:00",4830.59333,23.23,TRADE
VIC1,"2004/11/25 05:30:00",5086.21667,29.85,TRADE
VIC1,"2004/11/25 06:00:00",5464.02333,33.07,TRADE
VIC1,"2004/11/25 06:30:00",5962.30667,35.94,TRADE
VIC1,"2004/11/25 07:00:00",6293.51833,34.08,TRADE
VIC1,"2004/11/25 07:30:00",6118.21667,31.2,TRADE
VIC1,"2004/11/25 08:00:00",6099.03,31.59,TRADE
VIC1,"2004/11/25 08:30:00",6157.48833,32.7,TRADE
VIC1,"2004/11/25 09:00:00",6208.59833,32.73,TRADE
VIC1,"2004/11/25 09:30:00",6239.75833,32.98,TRADE
VIC1,"2004/11/25 10:00:00",6331.02333,34.73,TRADE
VIC1,"2004/11/25 10:30:00",6398.64667,35.23,TRADE
VIC1,"2004/11/25 11:00:00",6445.51333,36.39,TRADE
VIC1,"2004/11/25 11:30:00",6493.47,36.94,TRADE
VIC1,"2004/11/25 12:00:00",6499.80833,37.04,TRADE
VIC1,"2004/11/25 12:30:00",6552.58167,40.05,TRADE
VIC1,"2004/11/25 13:00:00",6605.465,40.8,TRADE
VIC1,"2004/11/25 13:30:00",6654.66,40.79,TRADE
VIC1,"2004/11/25 14:00:00",6707.22667,41.04,TRADE
VIC1,"2004/11/25 14:30:00",6697.09333,41.43,TRADE
VIC1,"2004/11/25 15:00:00",6680.95333,44.29,TRADE
VIC1,"2004/11/25 15:30:00",6730.28833,45.17,TRADE
VIC1,"2004/11/25 16:00:00",6656.32667,44.04,TRADE
VIC1,"2004/11/25 16:30:00",6664.06667,43.14,TRADE
VIC1,"2004/11/25 17:00:00",6672.42667,44.17,TRADE
VIC1,"2004/11/25 17:30:00",6474.52833,37.51,TRADE
VIC1,"2004/11/25 18:00:00",6332.94667,37.03,TRADE
VIC1,"2004/11/25 18:30:00",6153.185,34.23,TRADE
VIC1,"2004/11/25 19:00:00",6025.92333,33.86,TRADE
VIC1,"2004/11/25 19:30:00",5983.80333,33.99,TRADE
VIC1,"2004/11/25 20:00:00",6010.47167,35.9,TRADE
VIC1,"2004/11/25 20:30:00",5938.56833,35.63,TRADE
VIC1,"2004/11/25 21:00:00",5815.92,32.44,TRADE
VIC1,"2004/11/25 21:30:00",5594.20167,35.07,TRADE
VIC1,"2004/11/25 22:00:00",5381.36667,30.65,TRADE
VIC1,"2004/11/25 22:30:00",5235.10833,30.2,TRADE
VIC1,"2004/11/25 23:00:00",5132.40333,28.88,TRADE
VIC1,"2004/11/25 23:30:00",5504.65167,33.41,TRADE
VIC1,"2004/11/26 00:00:00",5434.95167,32.24,TRADE
VIC1,"2004/11/26 00:30:00",5161.17667,31.6,TRADE
VIC1,"2004/11/26 01:00:00",5058.51833,27.75,TRADE
VIC1,"2004/11/26 01:30:00",5435.39667,29.3,TRADE
VIC1,"2004/11/26 02:00:00",5252.14333,24.9,TRADE
VIC1,"2004/11/26 02:30:00",5016.22833,23.8,TRADE
VIC1,"2004/11/26 03:00:00",4849.26833,19.35,TRADE
VIC1,"2004/11/26 03:30:00",4719.65667,18.36,TRADE
VIC1,"2004/11/26 04:00:00",4730.25833,18.58,TRADE
VIC1,"2004/11/26 04:30:00",4788.5,18.9,TRADE
VIC1,"2004/11/26 05:00:00",4899.545,20.25,TRADE
VIC1,"2004/11/26 05:30:00",5129.02,30.41,TRADE
VIC1,"2004/11/26 06:00:00",5481.94833,30.53,TRADE
VIC1,"2004/11/26 06:30:00",6001.235,34.18,TRADE
VIC1,"2004/11/26 07:00:00",6289.955,37.22,TRADE
VIC1,"2004/11/26 07:30:00",6249.25333,38.8,TRADE
VIC1,"2004/11/26 08:00:00",6319.81167,38.4,TRADE
VIC1,"2004/11/26 08:30:00",6513.02,44.01,TRADE
VIC1,"2004/11/26 09:00:00",6595.52,44.4,TRADE
VIC1,"2004/11/26 09:30:00",6719.135,54.05,TRADE
VIC1,"2004/11/26 10:00:00",6814.26667,51.84,TRADE
VIC1,"2004/11/26 10:30:00",6949.92333,60.67,TRADE
VIC1,"2004/11/26 11:00:00",7064.21,71.99,TRADE
VIC1,"2004/11/26 11:30:00",7082.95833,74.7,TRADE
VIC1,"2004/11/26 12:00:00",7215.305,74.56,TRADE
VIC1,"2004/11/26 12:30:00",7289.54,83.66,TRADE
VIC1,"2004/11/26 13:00:00",7346.995,93.84,TRADE
VIC1,"2004/11/26 13:30:00",7389.315,79.73,TRADE
VIC1,"2004/11/26 14:00:00",7489.73667,76.36,TRADE
VIC1,"2004/11/26 14:30:00",7510.085,85.78,TRADE
VIC1,"2004/11/26 15:00:00",7530.75667,76.99,TRADE
VIC1,"2004/11/26 15:30:00",7605.67,101.59,TRADE
VIC1,"2004/11/26 16:00:00",7741.34167,107.76,TRADE
VIC1,"2004/11/26 16:30:00",7685.48667,107.03,TRADE
VIC1,"2004/11/26 17:00:00",7591.14,90.64,TRADE
VIC1,"2004/11/26 17:30:00",7388.26167,74.53,TRADE
VIC1,"2004/11/26 18:00:00",7210.62,64.04,TRADE
VIC1,"2004/11/26 18:30:00",6980.04667,48.1,TRADE
VIC1,"2004/11/26 19:00:00",6838.13667,45.1,TRADE
VIC1,"2004/11/26 19:30:00",6705.98167,44.77,TRADE
VIC1,"2004/11/26 20:00:00",6686.83667,44.4,TRADE
VIC1,"2004/11/26 20:30:00",6592.28333,44.49,TRADE
VIC1,"2004/11/26 21:00:00",6368.51,37.07,TRADE
VIC1,"2004/11/26 21:30:00",6107.275,40.73,TRADE
VIC1,"2004/11/26 22:00:00",5829.6,36.01,TRADE
VIC1,"2004/11/26 22:30:00",5660.03,37.83,TRADE
VIC1,"2004/11/26 23:00:00",5485.16833,34.4,TRADE
VIC1,"2004/11/26 23:30:00",5838.74833,50.45,TRADE
VIC1,"2004/11/27 00:00:00",5643.69667,43.55,TRADE
VIC1,"2004/11/27 00:30:00",5372.06667,35.84,TRADE
VIC1,"2004/11/27 01:00:00",5175.18,32.22,TRADE
VIC1,"2004/11/27 01:30:00",5530.08333,36.77,TRADE
VIC1,"2004/11/27 02:00:00",5344.38667,28.13,TRADE
VIC1,"2004/11/27 02:30:00",5085.01833,23.08,TRADE
VIC1,"2004/11/27 03:00:00",4890.68,23.97,TRADE
VIC1,"2004/11/27 03:30:00",4791,23.69,TRADE
VIC1,"2004/11/27 04:00:00",4704.38333,21.85,TRADE
VIC1,"2004/11/27 04:30:00",4706.505,22.36,TRADE
VIC1,"2004/11/27 05:00:00",4689.59333,21.77,TRADE
VIC1,"2004/11/27 05:30:00",4771.49333,24.26,TRADE
VIC1,"2004/11/27 06:00:00",4921.44667,28.37,TRADE
VIC1,"2004/11/27 06:30:00",5180.68167,29.8,TRADE
VIC1,"2004/11/27 07:00:00",5397.11,28.73,TRADE
VIC1,"2004/11/27 07:30:00",5508.235,35.21,TRADE
VIC1,"2004/11/27 08:00:00",5661.53,36.28,TRADE
VIC1,"2004/11/27 08:30:00",5857.8,62.26,TRADE
VIC1,"2004/11/27 09:00:00",5942.42333,59.23,TRADE
VIC1,"2004/11/27 09:30:00",6013.465,67.45,TRADE
VIC1,"2004/11/27 10:00:00",6073.1,92.17,TRADE
VIC1,"2004/11/27 10:30:00",6111.55167,88.04,TRADE
VIC1,"2004/11/27 11:00:00",6218.29333,76.04,TRADE
VIC1,"2004/11/27 11:30:00",6188.35667,81.2,TRADE
VIC1,"2004/11/27 12:00:00",6185.66167,56.13,TRADE
VIC1,"2004/11/27 12:30:00",6082.12,39.14,TRADE
VIC1,"2004/11/27 13:00:00",6150.35167,54.77,TRADE
VIC1,"2004/11/27 13:30:00",6107.07167,50.13,TRADE
VIC1,"2004/11/27 14:00:00",6126.1,58.84,TRADE
VIC1,"2004/11/27 14:30:00",6169.04,71.01,TRADE
VIC1,"2004/11/27 15:00:00",6196.59167,75.79,TRADE
VIC1,"2004/11/27 15:30:00",6252.94167,71.68,TRADE
VIC1,"2004/11/27 16:00:00",6320.05833,87.04,TRADE
VIC1,"2004/11/27 16:30:00",6314.55,72.91,TRADE
VIC1,"2004/11/27 17:00:00",6350.47833,71.25,TRADE
VIC1,"2004/11/27 17:30:00",6227.89333,59.91,TRADE
VIC1,"2004/11/27 18:00:00",6194.46167,70.22,TRADE
VIC1,"2004/11/27 18:30:00",6027.64833,64.21,TRADE
VIC1,"2004/11/27 19:00:00",5962.23333,58.7,TRADE
VIC1,"2004/11/27 19:30:00",5872.71333,68.9,TRADE
VIC1,"2004/11/27 20:00:00",5947.25167,69.54,TRADE
VIC1,"2004/11/27 20:30:00",5856.18333,63.45,TRADE
VIC1,"2004/11/27 21:00:00",5776.395,50.22,TRADE
VIC1,"2004/11/27 21:30:00",5605.08667,44.53,TRADE
VIC1,"2004/11/27 22:00:00",5429.04833,33.17,TRADE
VIC1,"2004/11/27 22:30:00",5253.56167,30.22,TRADE
VIC1,"2004/11/27 23:00:00",5173.595,30.08,TRADE
VIC1,"2004/11/27 23:30:00",5394.62167,32.5,TRADE
VIC1,"2004/11/28 00:00:00",5281.99833,27.61,TRADE
VIC1,"2004/11/28 00:30:00",5067.38167,24.76,TRADE
VIC1,"2004/11/28 01:00:00",4916.58,21.81,TRADE
VIC1,"2004/11/28 01:30:00",5300.31,25.49,TRADE
VIC1,"2004/11/28 02:00:00",5121.83667,23.77,TRADE
VIC1,"2004/11/28 02:30:00",4871.66667,19.89,TRADE
VIC1,"2004/11/28 03:00:00",4678.52167,21.84,TRADE
VIC1,"2004/11/28 03:30:00",4562.33833,23.86,TRADE
VIC1,"2004/11/28 04:00:00",4485.17,22.33,TRADE
VIC1,"2004/11/28 04:30:00",4427.25,21.53,TRADE
VIC1,"2004/11/28 05:00:00",4417.82167,18.88,TRADE
VIC1,"2004/11/28 05:30:00",4329.7,17.63,TRADE
VIC1,"2004/11/28 06:00:00",4385.395,18.74,TRADE
VIC1,"2004/11/28 06:30:00",4569.38,22.34,TRADE
VIC1,"2004/11/28 07:00:00",4673.43,23.98,TRADE
VIC1,"2004/11/28 07:30:00",4736.54333,26.01,TRADE
VIC1,"2004/11/28 08:00:00",4821.75833,31.57,TRADE
VIC1,"2004/11/28 08:30:00",4945.66,36.49,TRADE
VIC1,"2004/11/28 09:00:00",5064.97833,45.27,TRADE
VIC1,"2004/11/28 09:30:00",5190.43833,64.13,TRADE
VIC1,"2004/11/28 10:00:00",5241.18667,67.67,TRADE
VIC1,"2004/11/28 10:30:00",5304.29167,67.79,TRADE
VIC1,"2004/11/28 11:00:00",5338.65833,67.76,TRADE
VIC1,"2004/11/28 11:30:00",5425.94667,83.39,TRADE
VIC1,"2004/11/28 12:00:00",5480.47167,51.92,TRADE
VIC1,"2004/11/28 12:30:00",5438.96833,71.31,TRADE
VIC1,"2004/11/28 13:00:00",5503.56833,68.15,TRADE
VIC1,"2004/11/28 13:30:00",5449.02333,58.47,TRADE
VIC1,"2004/11/28 14:00:00",5434.375,49.01,TRADE
VIC1,"2004/11/28 14:30:00",5451.80167,45.93,TRADE
VIC1,"2004/11/28 15:00:00",5541.785,63.23,TRADE
VIC1,"2004/11/28 15:30:00",5594.1,65.46,TRADE
VIC1,"2004/11/28 16:00:00",5611.29667,60.13,TRADE
VIC1,"2004/11/28 16:30:00",5644.73333,68.47,TRADE
VIC1,"2004/11/28 17:00:00",5679.15667,60.23,TRADE
VIC1,"2004/11/28 17:30:00",5654.36167,79.5,TRADE
VIC1,"2004/11/28 18:00:00",5554.81667,50.65,TRADE
VIC1,"2004/11/28 18:30:00",5447.51667,90.91,TRADE
VIC1,"2004/11/28 19:00:00",5389.71667,66.33,TRADE
VIC1,"2004/11/28 19:30:00",5347.885,77.32,TRADE
VIC1,"2004/11/28 20:00:00",5410.18833,66.06,TRADE
VIC1,"2004/11/28 20:30:00",5436.68667,51.98,TRADE
VIC1,"2004/11/28 21:00:00",5259.64333,35.26,TRADE
VIC1,"2004/11/28 21:30:00",5111.585,27.73,TRADE
VIC1,"2004/11/28 22:00:00",4950.83333,26.87,TRADE
VIC1,"2004/11/28 22:30:00",4830.625,27.53,TRADE
VIC1,"2004/11/28 23:00:00",4778.34,26.67,TRADE
VIC1,"2004/11/28 23:30:00",5056.065,31.8,TRADE
VIC1,"2004/11/29 00:00:00",4985.88833,27.72,TRADE
VIC1,"2004/11/29 00:30:00",4885.68167,26.8,TRADE
VIC1,"2004/11/29 01:00:00",4797.23667,26.16,TRADE
VIC1,"2004/11/29 01:30:00",5144.46333,28.62,TRADE
VIC1,"2004/11/29 02:00:00",5004.17,26.25,TRADE
VIC1,"2004/11/29 02:30:00",4791.305,24.74,TRADE
VIC1,"2004/11/29 03:00:00",4635.46833,23.49,TRADE
VIC1,"2004/11/29 03:30:00",4563.07333,23.26,TRADE
VIC1,"2004/11/29 04:00:00",4511.055,22.93,TRADE
VIC1,"2004/11/29 04:30:00",4598.93333,27.75,TRADE
VIC1,"2004/11/29 05:00:00",4704.69333,28.46,TRADE
VIC1,"2004/11/29 05:30:00",4960.95833,32.86,TRADE
VIC1,"2004/11/29 06:00:00",5368.1,34.03,TRADE
VIC1,"2004/11/29 06:30:00",5791.55667,37.46,TRADE
VIC1,"2004/11/29 07:00:00",6146.96333,46.96,TRADE
VIC1,"2004/11/29 07:30:00",6005.9,36.51,TRADE
VIC1,"2004/11/29 08:00:00",6149.94,43.31,TRADE
VIC1,"2004/11/29 08:30:00",6292.61333,61.67,TRADE
VIC1,"2004/11/29 09:00:00",6383.18333,69.17,TRADE
VIC1,"2004/11/29 09:30:00",6395.22833,69.72,TRADE
VIC1,"2004/11/29 10:00:00",6507.13833,71.08,TRADE
VIC1,"2004/11/29 10:30:00",6584.51333,70.38,TRADE
VIC1,"2004/11/29 11:00:00",6620.52833,71.06,TRADE
VIC1,"2004/11/29 11:30:00",6640.86167,88.99,TRADE
VIC1,"2004/11/29 12:00:00",6686.94,71.33,TRADE
VIC1,"2004/11/29 12:30:00",6746.97833,77.32,TRADE
VIC1,"2004/11/29 13:00:00",6827.75,98.82,TRADE
VIC1,"2004/11/29 13:30:00",6877.73833,104.91,TRADE
VIC1,"2004/11/29 14:00:00",6861.90333,101.08,TRADE
VIC1,"2004/11/29 14:30:00",6892.655,91.68,TRADE
VIC1,"2004/11/29 15:00:00",6947.41167,114.5,TRADE
VIC1,"2004/11/29 15:30:00",6988.19,141.95,TRADE
VIC1,"2004/11/29 16:00:00",7116.99667,116.29,TRADE
VIC1,"2004/11/29 16:30:00",7076.51333,74.26,TRADE
VIC1,"2004/11/29 17:00:00",6924.04333,69.31,TRADE
VIC1,"2004/11/29 17:30:00",6662.89833,46.99,TRADE
VIC1,"2004/11/29 18:00:00",6323.20333,32.84,TRADE
VIC1,"2004/11/29 18:30:00",6287.41667,38.77,TRADE
VIC1,"2004/11/29 19:00:00",6246.915,37.73,TRADE
VIC1,"2004/11/29 19:30:00",6185.12667,40.58,TRADE
VIC1,"2004/11/29 20:00:00",6228.70667,41.01,TRADE
VIC1,"2004/11/29 20:30:00",6104.68333,38.45,TRADE
VIC1,"2004/11/29 21:00:00",5923.74833,30.62,TRADE
VIC1,"2004/11/29 21:30:00",5642.38167,30.12,TRADE
VIC1,"2004/11/29 22:00:00",5444.955,25.95,TRADE
VIC1,"2004/11/29 22:30:00",5259.185,30.06,TRADE
VIC1,"2004/11/29 23:00:00",5170.33833,27.09,TRADE
VIC1,"2004/11/29 23:30:00",5557.785,33.63,TRADE
VIC1,"2004/11/30 00:00:00",5476.27333,29.07,TRADE
VIC1,"2004/11/30 00:30:00",5238.605,26.72,TRADE
VIC1,"2004/11/30 01:00:00",5114.46167,27.26,TRADE
VIC1,"2004/11/30 01:30:00",5502.05,29.2,TRADE
VIC1,"2004/11/30 02:00:00",5273.33833,25.22,TRADE
VIC1,"2004/11/30 02:30:00",5028.155,23.76,TRADE
VIC1,"2004/11/30 03:00:00",4915.395,21.54,TRADE
VIC1,"2004/11/30 03:30:00",4784.07333,19.32,TRADE
VIC1,"2004/11/30 04:00:00",4767.42833,18.88,TRADE
VIC1,"2004/11/30 04:30:00",4838.815,21.56,TRADE
VIC1,"2004/11/30 05:00:00",4999.305,23.18,TRADE
VIC1,"2004/11/30 05:30:00",5229.43,32.22,TRADE
VIC1,"2004/11/30 06:00:00",5605.28667,34.9,TRADE
VIC1,"2004/11/30 06:30:00",6152.55833,42.28,TRADE
VIC1,"2004/11/30 07:00:00",6471.15333,48.97,TRADE
VIC1,"2004/11/30 07:30:00",6438.165,39.54,TRADE
VIC1,"2004/11/30 08:00:00",6494.7,42.86,TRADE
VIC1,"2004/11/30 08:30:00",6663.42667,56.66,TRADE
VIC1,"2004/11/30 09:00:00",6720.15,71.23,TRADE
VIC1,"2004/11/30 09:30:00",6807.49667,90.21,TRADE
VIC1,"2004/11/30 10:00:00",6827.02,93.69,TRADE
VIC1,"2004/11/30 10:30:00",6898.435,94.73,TRADE
VIC1,"2004/11/30 11:00:00",6891.605,215.81,TRADE
VIC1,"2004/11/30 11:30:00",6895.53,244.29,TRADE
VIC1,"2004/11/30 12:00:00",6890.92833,212.29,TRADE
VIC1,"2004/11/30 12:30:00",6863.02333,208.87,TRADE
VIC1,"2004/11/30 13:00:00",6875.92833,776.27,TRADE
VIC1,"2004/11/30 13:30:00",6801.385,310.57,TRADE
VIC1,"2004/11/30 14:00:00",6727.195,906.51,TRADE
VIC1,"2004/11/30 14:30:00",6638.54833,257.68,TRADE
VIC1,"2004/11/30 15:00:00",6678.82667,182.02,TRADE
VIC1,"2004/11/30 15:30:00",6721.50833,98.56,TRADE
VIC1,"2004/11/30 16:00:00",6748.345,82.59,TRADE
VIC1,"2004/11/30 16:30:00",6729.49833,48.6,TRADE
VIC1,"2004/11/30 17:00:00",6653.15333,40.68,TRADE
VIC1,"2004/11/30 17:30:00",6455.25,37.09,TRADE
VIC1,"2004/11/30 18:00:00",6234.275,32.92,TRADE
VIC1,"2004/11/30 18:30:00",5936.88833,22.31,TRADE
VIC1,"2004/11/30 19:00:00",5964.35333,66.73,TRADE
VIC1,"2004/11/30 19:30:00",5939.63667,69.51,TRADE
VIC1,"2004/11/30 20:00:00",6007.42,75.09,TRADE
VIC1,"2004/11/30 20:30:00",5945.13,61.14,TRADE
VIC1,"2004/11/30 21:00:00",5793.29,39.38,TRADE
VIC1,"2004/11/30 21:30:00",5570.955,41.36,TRADE
VIC1,"2004/11/30 22:00:00",5355.97333,36.21,TRADE
VIC1,"2004/11/30 22:30:00",5207.92333,37.58,TRADE
VIC1,"2004/11/30 23:00:00",5134.02333,31.79,TRADE
VIC1,"2004/11/30 23:30:00",5535.25833,38.61,TRADE
VIC1,"2004/12/01 00:00:00",5450.89,34.39,TRADE
