REGION,SETTLEMENTDATE,TOTALDEMAND,RRP,PERIODTYPE
VIC1,"2014/01/01 00:30:00",4656.03,44.04,TRADE
VIC1,"2014/01/01 01:00:00",4373.04,41.44,TRADE
VIC1,"2014/01/01 01:30:00",4175.32,37.1,TRADE
VIC1,"2014/01/01 02:00:00",4003.35,33.79,TRADE
VIC1,"2014/01/01 02:30:00",3841.74,20.41,TRADE
VIC1,"2014/01/01 03:00:00",3711.1,29.57,TRADE
VIC1,"2014/01/01 03:30:00",3639.31,21.82,TRADE
VIC1,"2014/01/01 04:00:00",3576.27,-2.67,TRADE
VIC1,"2014/01/01 04:30:00",3591.05,0.19,TRADE
VIC1,"2014/01/01 05:00:00",3606.73,9.84,TRADE
VIC1,"2014/01/01 05:30:00",3616.21,11.37,TRADE
VIC1,"2014/01/01 06:00:00",3641.2,27.41,TRADE
VIC1,"2014/01/01 06:30:00",3759.78,35.24,TRADE
VIC1,"2014/01/01 07:00:00",3850.59,33.64,TRADE
VIC1,"2014/01/01 07:30:00",3883.11,35.29,TRADE
VIC1,"2014/01/01 08:00:00",4037.1,37.07,TRADE
VIC1,"2014/01/01 08:30:00",4075.31,39.26,TRADE
VIC1,"2014/01/01 09:00:00",4163.49,42.22,TRADE
VIC1,"2014/01/01 09:30:00",4222.86,43.57,TRADE
VIC1,"2014/01/01 10:00:00",4299.33,43.7,TRADE
VIC1,"2014/01/01 10:30:00",4335.77,39.15,TRADE
VIC1,"2014/01/01 11:00:00",4394.16,38.92,TRADE
VIC1,"2014/01/01 11:30:00",4495.13,39.51,TRADE
VIC1,"2014/01/01 12:00:00",4497.75,41.19,TRADE
VIC1,"2014/01/01 12:30:00",4420.02,40.65,TRADE
VIC1,"2014/01/01 13:00:00",4404.83,40.49,TRADE
VIC1,"2014/01/01 13:30:00",4417.65,40.4,TRADE
VIC1,"2014/01/01 14:00:00",4439.53,39.98,TRADE
VIC1,"2014/01/01 14:30:00",4474.24,41.41,TRADE
VIC1,"2014/01/01 15:00:00",4461.05,41.6,TRADE
VIC1,"2014/01/01 15:30:00",4478.89,42.43,TRADE
VIC1,"2014/01/01 16:00:00",4574.86,43.44,TRADE
VIC1,"2014/01/01 16:30:00",4643.53,42.23,TRADE
VIC1,"2014/01/01 17:00:00",4791.69,43.14,TRADE
VIC1,"2014/01/01 17:30:00",4821.54,43.1,TRADE
VIC1,"2014/01/01 18:00:00",4769.88,43.26,TRADE
VIC1,"2014/01/01 18:30:00",4658.25,42.36,TRADE
VIC1,"2014/01/01 19:00:00",4633.15,43.49,TRADE
VIC1,"2014/01/01 19:30:00",4610.65,43.59,TRADE
VIC1,"2014/01/01 20:00:00",4731.78,43.75,TRADE
VIC1,"2014/01/01 20:30:00",4744.62,43.84,TRADE
VIC1,"2014/01/01 21:00:00",4678.67,44.42,TRADE
VIC1,"2014/01/01 21:30:00",4518.4,44.08,TRADE
VIC1,"2014/01/01 22:00:00",4322.05,43.86,TRADE
VIC1,"2014/01/01 22:30:00",4275.68,43.73,TRADE
VIC1,"2014/01/01 23:00:00",4366.34,44.29,TRADE
VIC1,"2014/01/01 23:30:00",4782.16,45.54,TRADE
VIC1,"2014/01/02 00:00:00",4888.32,45.6,TRADE
VIC1,"2014/01/02 00:30:00",4597.07,44.2,TRADE
VIC1,"2014/01/02 01:00:00",4320.07,40.94,TRADE
VIC1,"2014/01/02 01:30:00",4140.04,38.23,TRADE
VIC1,"2014/01/02 02:00:00",4032.88,38.09,TRADE
VIC1,"2014/01/02 02:30:00",3957.86,38.12,TRADE
VIC1,"2014/01/02 03:00:00",3869.57,37.63,TRADE
VIC1,"2014/01/02 03:30:00",3854.26,37.5,TRADE
VIC1,"2014/01/02 04:00:00",3844.01,36.58,TRADE
VIC1,"2014/01/02 04:30:00",3910.72,36.98,TRADE
VIC1,"2014/01/02 05:00:00",3957.56,37.87,TRADE
VIC1,"2014/01/02 05:30:00",4093.86,42.64,TRADE
VIC1,"2014/01/02 06:00:00",4290.13,43.99,TRADE
VIC1,"2014/01/02 06:30:00",4488.52,44.08,TRADE
VIC1,"2014/01/02 07:00:00",4695.52,44.02,TRADE
VIC1,"2014/01/02 07:30:00",4635.02,43.81,TRADE
VIC1,"2014/01/02 08:00:00",4791.81,44.35,TRADE
VIC1,"2014/01/02 08:30:00",4895.36,44.71,TRADE
VIC1,"2014/01/02 09:00:00",5009.51,45.2,TRADE
VIC1,"2014/01/02 09:30:00",5027.5,45.2,TRADE
VIC1,"2014/01/02 10:00:00",5084.65,45.2,TRADE
VIC1,"2014/01/02 10:30:00",5119.04,45.2,TRADE
VIC1,"2014/01/02 11:00:00",5145.33,45.2,TRADE
VIC1,"2014/01/02 11:30:00",5191.38,45.19,TRADE
VIC1,"2014/01/02 12:00:00",5140.49,45.19,TRADE
VIC1,"2014/01/02 12:30:00",5169.86,45.31,TRADE
VIC1,"2014/01/02 13:00:00",5194.09,45.39,TRADE
VIC1,"2014/01/02 13:30:00",5205.1,45.48,TRADE
VIC1,"2014/01/02 14:00:00",5238.76,45.33,TRADE
VIC1,"2014/01/02 14:30:00",5257.64,45.05,TRADE
VIC1,"2014/01/02 15:00:00",5304.43,45.41,TRADE
VIC1,"2014/01/02 15:30:00",5363.54,45.42,TRADE
VIC1,"2014/01/02 16:00:00",5387.5,45.53,TRADE
VIC1,"2014/01/02 16:30:00",5415.57,46.5,TRADE
VIC1,"2014/01/02 17:00:00",5450.55,46.95,TRADE
VIC1,"2014/01/02 17:30:00",5350.85,45.73,TRADE
VIC1,"2014/01/02 18:00:00",5272.29,45.48,TRADE
VIC1,"2014/01/02 18:30:00",5170.62,45.2,TRADE
VIC1,"2014/01/02 19:00:00",5055.8,45.2,TRADE
VIC1,"2014/01/02 19:30:00",4983.8,45.22,TRADE
VIC1,"2014/01/02 20:00:00",5015.04,45.35,TRADE
VIC1,"2014/01/02 20:30:00",5052.99,45.47,TRADE
VIC1,"2014/01/02 21:00:00",4970.75,46.72,TRADE
VIC1,"2014/01/02 21:30:00",4790.82,45.94,TRADE
VIC1,"2014/01/02 22:00:00",4639.26,45.2,TRADE
VIC1,"2014/01/02 22:30:00",4611.05,45.92,TRADE
VIC1,"2014/01/02 23:00:00",4595.88,45.26,TRADE
VIC1,"2014/01/02 23:30:00",4966.1,46.47,TRADE
VIC1,"2014/01/03 00:00:00",5113.63,48.68,TRADE
VIC1,"2014/01/03 00:30:00",4792.26,47.11,TRADE
VIC1,"2014/01/03 01:00:00",4518.78,45.5,TRADE
VIC1,"2014/01/03 01:30:00",4394.34,45.2,TRADE
VIC1,"2014/01/03 02:00:00",4245.83,43.99,TRADE
VIC1,"2014/01/03 02:30:00",4119.25,43.58,TRADE
VIC1,"2014/01/03 03:00:00",4047.98,43.55,TRADE
VIC1,"2014/01/03 03:30:00",4026.87,43.52,TRADE
VIC1,"2014/01/03 04:00:00",4019.68,43.36,TRADE
VIC1,"2014/01/03 04:30:00",4148.12,43.67,TRADE
VIC1,"2014/01/03 05:00:00",4214.2,43.67,TRADE
VIC1,"2014/01/03 05:30:00",4368.85,44.88,TRADE
VIC1,"2014/01/03 06:00:00",4495.96,44.86,TRADE
VIC1,"2014/01/03 06:30:00",4711.3,45.21,TRADE
VIC1,"2014/01/03 07:00:00",4926.5,45.34,TRADE
VIC1,"2014/01/03 07:30:00",4912.12,45.15,TRADE
VIC1,"2014/01/03 08:00:00",5093.72,45.33,TRADE
VIC1,"2014/01/03 08:30:00",5138.26,45.37,TRADE
VIC1,"2014/01/03 09:00:00",5147.69,45.96,TRADE
VIC1,"2014/01/03 09:30:00",5176.89,45.48,TRADE
VIC1,"2014/01/03 10:00:00",5159.57,45.18,TRADE
VIC1,"2014/01/03 10:30:00",5111.92,44.8,TRADE
VIC1,"2014/01/03 11:00:00",5078.18,44.14,TRADE
VIC1,"2014/01/03 11:30:00",5035.63,43.76,TRADE
VIC1,"2014/01/03 12:00:00",5035.32,43.79,TRADE
VIC1,"2014/01/03 12:30:00",5017.74,42.99,TRADE
VIC1,"2014/01/03 13:00:00",4981.18,43.73,TRADE
VIC1,"2014/01/03 13:30:00",4894.58,43.28,TRADE
VIC1,"2014/01/03 14:00:00",4834.98,42.31,TRADE
VIC1,"2014/01/03 14:30:00",4832.19,39.04,TRADE
VIC1,"2014/01/03 15:00:00",4845.29,43.65,TRADE
VIC1,"2014/01/03 15:30:00",4844.59,42.17,TRADE
VIC1,"2014/01/03 16:00:00",4919.22,43.09,TRADE
VIC1,"2014/01/03 16:30:00",4929.36,44.23,TRADE
VIC1,"2014/01/03 17:00:00",4995.07,44.29,TRADE
VIC1,"2014/01/03 17:30:00",4935.22,42.67,TRADE
VIC1,"2014/01/03 18:00:00",4846.6,43.04,TRADE
VIC1,"2014/01/03 18:30:00",4821.64,43.79,TRADE
VIC1,"2014/01/03 19:00:00",4768.38,43.5,TRADE
VIC1,"2014/01/03 19:30:00",4681.39,43.55,TRADE
VIC1,"2014/01/03 20:00:00",4702.47,43.82,TRADE
VIC1,"2014/01/03 20:30:00",4744.89,44.43,TRADE
VIC1,"2014/01/03 21:00:00",4696.34,43.84,TRADE
VIC1,"2014/01/03 21:30:00",4518.3,44.44,TRADE
VIC1,"2014/01/03 22:00:00",4398.85,43.83,TRADE
VIC1,"2014/01/03 22:30:00",4327.29,44.32,TRADE
VIC1,"2014/01/03 23:00:00",4353.5,42.97,TRADE
VIC1,"2014/01/03 23:30:00",4750.99,45.06,TRADE
VIC1,"2014/01/04 00:00:00",4850.93,45.32,TRADE
VIC1,"2014/01/04 00:30:00",4527,44.3,TRADE
VIC1,"2014/01/04 01:00:00",4227.85,43.12,TRADE
VIC1,"2014/01/04 01:30:00",4016.31,41.27,TRADE
VIC1,"2014/01/04 02:00:00",3860.43,38.26,TRADE
VIC1,"2014/01/04 02:30:00",3785.64,38.2,TRADE
VIC1,"2014/01/04 03:00:00",3741.96,38.25,TRADE
VIC1,"2014/01/04 03:30:00",3731.96,38.25,TRADE
VIC1,"2014/01/04 04:00:00",3719.88,38.36,TRADE
VIC1,"2014/01/04 04:30:00",3725.52,38.28,TRADE
VIC1,"2014/01/04 05:00:00",3749.63,38.2,TRADE
VIC1,"2014/01/04 05:30:00",3809.83,39.94,TRADE
VIC1,"2014/01/04 06:00:00",3909.64,41.11,TRADE
VIC1,"2014/01/04 06:30:00",4061.27,42.75,TRADE
VIC1,"2014/01/04 07:00:00",4215.94,43.47,TRADE
VIC1,"2014/01/04 07:30:00",4183.72,42.91,TRADE
VIC1,"2014/01/04 08:00:00",4237.43,42.84,TRADE
VIC1,"2014/01/04 08:30:00",4427.01,43.7,TRADE
VIC1,"2014/01/04 09:00:00",4364.26,43.55,TRADE
VIC1,"2014/01/04 09:30:00",4349.18,43.59,TRADE
VIC1,"2014/01/04 10:00:00",4366.63,43.57,TRADE
VIC1,"2014/01/04 10:30:00",4399.37,43.5,TRADE
VIC1,"2014/01/04 11:00:00",4394.01,42.91,TRADE
VIC1,"2014/01/04 11:30:00",4462.83,43.69,TRADE
VIC1,"2014/01/04 12:00:00",4410.25,42.65,TRADE
VIC1,"2014/01/04 12:30:00",4417.59,40.26,TRADE
VIC1,"2014/01/04 13:00:00",4427.56,41.36,TRADE
VIC1,"2014/01/04 13:30:00",4390.08,41.32,TRADE
VIC1,"2014/01/04 14:00:00",4432.41,43.13,TRADE
VIC1,"2014/01/04 14:30:00",4422.25,43.03,TRADE
VIC1,"2014/01/04 15:00:00",4425.61,42.35,TRADE
VIC1,"2014/01/04 15:30:00",4477.84,42.36,TRADE
VIC1,"2014/01/04 16:00:00",4564.75,44.04,TRADE
VIC1,"2014/01/04 16:30:00",4558.25,43.34,TRADE
VIC1,"2014/01/04 17:00:00",4577.48,43.81,TRADE
VIC1,"2014/01/04 17:30:00",4600.77,41.24,TRADE
VIC1,"2014/01/04 18:00:00",4545.07,46.68,TRADE
VIC1,"2014/01/04 18:30:00",4626.08,44.3,TRADE
VIC1,"2014/01/04 19:00:00",4605.21,44.81,TRADE
VIC1,"2014/01/04 19:30:00",4560.47,45.04,TRADE
VIC1,"2014/01/04 20:00:00",4627.88,45.58,TRADE
VIC1,"2014/01/04 20:30:00",4756.2,46.34,TRADE
VIC1,"2014/01/04 21:00:00",4760.29,45.58,TRADE
VIC1,"2014/01/04 21:30:00",4649.73,45.2,TRADE
VIC1,"2014/01/04 22:00:00",4528.48,45.15,TRADE
VIC1,"2014/01/04 22:30:00",4490.56,45.42,TRADE
VIC1,"2014/01/04 23:00:00",4515.76,45.02,TRADE
VIC1,"2014/01/04 23:30:00",4911.54,45.59,TRADE
VIC1,"2014/01/05 00:00:00",4988.1,46.19,TRADE
VIC1,"2014/01/05 00:30:00",4721.27,45.15,TRADE
VIC1,"2014/01/05 01:00:00",4453.21,44.74,TRADE
VIC1,"2014/01/05 01:30:00",4226.86,42.69,TRADE
VIC1,"2014/01/05 02:00:00",4070.43,41.4,TRADE
VIC1,"2014/01/05 02:30:00",3940.26,39.68,TRADE
VIC1,"2014/01/05 03:00:00",3845.17,40.43,TRADE
VIC1,"2014/01/05 03:30:00",3789.54,38.57,TRADE
VIC1,"2014/01/05 04:00:00",3745.33,38.53,TRADE
VIC1,"2014/01/05 04:30:00",3739.64,38.52,TRADE
VIC1,"2014/01/05 05:00:00",3742.92,38.28,TRADE
VIC1,"2014/01/05 05:30:00",3713.46,38.22,TRADE
VIC1,"2014/01/05 06:00:00",3722.25,36.97,TRADE
VIC1,"2014/01/05 06:30:00",3826.89,39.02,TRADE
VIC1,"2014/01/05 07:00:00",4022.09,41.3,TRADE
VIC1,"2014/01/05 07:30:00",3934.45,38.85,TRADE
VIC1,"2014/01/05 08:00:00",4001.97,38.42,TRADE
VIC1,"2014/01/05 08:30:00",4026.98,38.29,TRADE
VIC1,"2014/01/05 09:00:00",4020.52,39.37,TRADE
VIC1,"2014/01/05 09:30:00",4069.08,39.15,TRADE
VIC1,"2014/01/05 10:00:00",4071.95,39.25,TRADE
VIC1,"2014/01/05 10:30:00",4090,38.72,TRADE
VIC1,"2014/01/05 11:00:00",4075.83,39.03,TRADE
VIC1,"2014/01/05 11:30:00",3985.05,36.76,TRADE
VIC1,"2014/01/05 12:00:00",4119.99,39.13,TRADE
VIC1,"2014/01/05 12:30:00",4114.86,38.87,TRADE
VIC1,"2014/01/05 13:00:00",4131.47,39.16,TRADE
VIC1,"2014/01/05 13:30:00",4207.81,39.84,TRADE
VIC1,"2014/01/05 14:00:00",4251.98,39.95,TRADE
VIC1,"2014/01/05 14:30:00",4302.7,41.03,TRADE
VIC1,"2014/01/05 15:00:00",4463.16,42.8,TRADE
VIC1,"2014/01/05 15:30:00",4568.58,43.41,TRADE
VIC1,"2014/01/05 16:00:00",4594.64,42.84,TRADE
VIC1,"2014/01/05 16:30:00",4638.42,42.94,TRADE
VIC1,"2014/01/05 17:00:00",4601.45,42.67,TRADE
VIC1,"2014/01/05 17:30:00",4584.69,42.36,TRADE
VIC1,"2014/01/05 18:00:00",4537.92,43.06,TRADE
VIC1,"2014/01/05 18:30:00",4470.98,40.99,TRADE
VIC1,"2014/01/05 19:00:00",4400.19,40.25,TRADE
VIC1,"2014/01/05 19:30:00",4371.57,40.7,TRADE
VIC1,"2014/01/05 20:00:00",4435.73,41.57,TRADE
VIC1,"2014/01/05 20:30:00",4568.15,43.61,TRADE
VIC1,"2014/01/05 21:00:00",4493.53,41.26,TRADE
VIC1,"2014/01/05 21:30:00",4360.97,39.72,TRADE
VIC1,"2014/01/05 22:00:00",4210.52,39.47,TRADE
VIC1,"2014/01/05 22:30:00",4146.93,39.28,TRADE
VIC1,"2014/01/05 23:00:00",4198.04,39.22,TRADE
VIC1,"2014/01/05 23:30:00",4608.63,43.22,TRADE
VIC1,"2014/01/06 00:00:00",4688.58,43.53,TRADE
VIC1,"2014/01/06 00:30:00",4362.3,41.03,TRADE
VIC1,"2014/01/06 01:00:00",4148.09,38.98,TRADE
VIC1,"2014/01/06 01:30:00",3977.11,37.93,TRADE
VIC1,"2014/01/06 02:00:00",3834.06,35.56,TRADE
VIC1,"2014/01/06 02:30:00",3710.37,34.06,TRADE
VIC1,"2014/01/06 03:00:00",3651.69,35.04,TRADE
VIC1,"2014/01/06 03:30:00",3625.9,36.07,TRADE
VIC1,"2014/01/06 04:00:00",3640.65,37.1,TRADE
VIC1,"2014/01/06 04:30:00",3754.5,37.8,TRADE
VIC1,"2014/01/06 05:00:00",3929.54,40.98,TRADE
VIC1,"2014/01/06 05:30:00",4162.22,43.62,TRADE
VIC1,"2014/01/06 06:00:00",4356.71,43.82,TRADE
VIC1,"2014/01/06 06:30:00",4734.78,44.98,TRADE
VIC1,"2014/01/06 07:00:00",4963.79,45.2,TRADE
VIC1,"2014/01/06 07:30:00",4865.68,44.76,TRADE
VIC1,"2014/01/06 08:00:00",4977.49,44.24,TRADE
VIC1,"2014/01/06 08:30:00",5049.82,45.07,TRADE
VIC1,"2014/01/06 09:00:00",5087.9,45.16,TRADE
VIC1,"2014/01/06 09:30:00",5150.57,43.78,TRADE
VIC1,"2014/01/06 10:00:00",5183.8,44.01,TRADE
VIC1,"2014/01/06 10:30:00",5185.66,44.07,TRADE
VIC1,"2014/01/06 11:00:00",5194.89,44.05,TRADE
VIC1,"2014/01/06 11:30:00",5172.81,44.57,TRADE
VIC1,"2014/01/06 12:00:00",5156.05,44.26,TRADE
VIC1,"2014/01/06 12:30:00",5121.82,43.9,TRADE
VIC1,"2014/01/06 13:00:00",5118.88,43.93,TRADE
VIC1,"2014/01/06 13:30:00",5146.41,43.97,TRADE
VIC1,"2014/01/06 14:00:00",5134.03,43.9,TRADE
VIC1,"2014/01/06 14:30:00",5109.12,44.16,TRADE
VIC1,"2014/01/06 15:00:00",5093.05,44.21,TRADE
VIC1,"2014/01/06 15:30:00",5129,44.24,TRADE
VIC1,"2014/01/06 16:00:00",5158.07,44.38,TRADE
VIC1,"2014/01/06 16:30:00",5218.31,44.17,TRADE
VIC1,"2014/01/06 17:00:00",5234.15,44.63,TRADE
VIC1,"2014/01/06 17:30:00",5181.08,43.95,TRADE
VIC1,"2014/01/06 18:00:00",5132.92,43.73,TRADE
VIC1,"2014/01/06 18:30:00",4988.99,43.44,TRADE
VIC1,"2014/01/06 19:00:00",4971.62,43.63,TRADE
VIC1,"2014/01/06 19:30:00",4961.2,43.7,TRADE
VIC1,"2014/01/06 20:00:00",4962.13,43.61,TRADE
VIC1,"2014/01/06 20:30:00",5098.55,43.73,TRADE
VIC1,"2014/01/06 21:00:00",4992.94,43.67,TRADE
VIC1,"2014/01/06 21:30:00",4786.06,43.47,TRADE
VIC1,"2014/01/06 22:00:00",4588.31,42.06,TRADE
VIC1,"2014/01/06 22:30:00",4609.29,44.04,TRADE
VIC1,"2014/01/06 23:00:00",4571.43,43.52,TRADE
VIC1,"2014/01/06 23:30:00",4946.89,44.49,TRADE
VIC1,"2014/01/07 00:00:00",5068.48,45.73,TRADE
VIC1,"2014/01/07 00:30:00",4815.84,44.52,TRADE
VIC1,"2014/01/07 01:00:00",4532.58,43.78,TRADE
VIC1,"2014/01/07 01:30:00",4329.37,41.9,TRADE
VIC1,"2014/01/07 02:00:00",4209.91,37.64,TRADE
VIC1,"2014/01/07 02:30:00",4147.36,38.15,TRADE
VIC1,"2014/01/07 03:00:00",4013.43,36.17,TRADE
VIC1,"2014/01/07 03:30:00",3965.36,35.81,TRADE
VIC1,"2014/01/07 04:00:00",3947.58,35.94,TRADE
VIC1,"2014/01/07 04:30:00",4010.4,37.77,TRADE
VIC1,"2014/01/07 05:00:00",4121.08,38.99,TRADE
VIC1,"2014/01/07 05:30:00",4401.27,39.92,TRADE
VIC1,"2014/01/07 06:00:00",4669.85,41.69,TRADE
VIC1,"2014/01/07 06:30:00",4959.62,43.8,TRADE
VIC1,"2014/01/07 07:00:00",5247.79,44.78,TRADE
VIC1,"2014/01/07 07:30:00",5293.84,44.04,TRADE
VIC1,"2014/01/07 08:00:00",5360.76,44.02,TRADE
VIC1,"2014/01/07 08:30:00",5386.32,43.98,TRADE
VIC1,"2014/01/07 09:00:00",5361.25,43.74,TRADE
VIC1,"2014/01/07 09:30:00",4875.29,41.09,TRADE
VIC1,"2014/01/07 10:00:00",5136.47,43.04,TRADE
VIC1,"2014/01/07 10:30:00",5384.65,43.94,TRADE
VIC1,"2014/01/07 11:00:00",5351.91,43.93,TRADE
VIC1,"2014/01/07 11:30:00",5351.28,43.89,TRADE
VIC1,"2014/01/07 12:00:00",5290.84,43.75,TRADE
VIC1,"2014/01/07 12:30:00",5280.93,43.83,TRADE
VIC1,"2014/01/07 13:00:00",5275.84,43.97,TRADE
VIC1,"2014/01/07 13:30:00",5193.39,43.7,TRADE
VIC1,"2014/01/07 14:00:00",5261.56,43.71,TRADE
VIC1,"2014/01/07 14:30:00",5216.15,43.69,TRADE
VIC1,"2014/01/07 15:00:00",5182.58,43.63,TRADE
VIC1,"2014/01/07 15:30:00",5204.55,43.69,TRADE
VIC1,"2014/01/07 16:00:00",5301.36,43.7,TRADE
VIC1,"2014/01/07 16:30:00",5332.4,43.71,TRADE
VIC1,"2014/01/07 17:00:00",5334.19,43.69,TRADE
VIC1,"2014/01/07 17:30:00",5226.04,43.38,TRADE
VIC1,"2014/01/07 18:00:00",5129.45,43.49,TRADE
VIC1,"2014/01/07 18:30:00",5057.13,42.37,TRADE
VIC1,"2014/01/07 19:00:00",4986.19,40.62,TRADE
VIC1,"2014/01/07 19:30:00",4904.18,41.52,TRADE
VIC1,"2014/01/07 20:00:00",4901.82,42.31,TRADE
VIC1,"2014/01/07 20:30:00",5027.52,42.38,TRADE
VIC1,"2014/01/07 21:00:00",4960.53,40.33,TRADE
VIC1,"2014/01/07 21:30:00",4797.85,40.77,TRADE
VIC1,"2014/01/07 22:00:00",4661.97,40.3,TRADE
VIC1,"2014/01/07 22:30:00",4590.16,39.64,TRADE
VIC1,"2014/01/07 23:00:00",4583.04,39.47,TRADE
VIC1,"2014/01/07 23:30:00",4897.46,41.09,TRADE
VIC1,"2014/01/08 00:00:00",4959.62,41.84,TRADE
VIC1,"2014/01/08 00:30:00",4687.01,38.65,TRADE
VIC1,"2014/01/08 01:00:00",4452.19,38.32,TRADE
VIC1,"2014/01/08 01:30:00",4283.75,37.06,TRADE
VIC1,"2014/01/08 02:00:00",4157.07,36.68,TRADE
VIC1,"2014/01/08 02:30:00",4002.63,35.58,TRADE
VIC1,"2014/01/08 03:00:00",3910.55,35.39,TRADE
VIC1,"2014/01/08 03:30:00",3876.31,35.46,TRADE
VIC1,"2014/01/08 04:00:00",3908.44,35.52,TRADE
VIC1,"2014/01/08 04:30:00",3987.99,36.16,TRADE
VIC1,"2014/01/08 05:00:00",4103.57,39.17,TRADE
VIC1,"2014/01/08 05:30:00",4385.57,41.38,TRADE
VIC1,"2014/01/08 06:00:00",4622.94,43.84,TRADE
VIC1,"2014/01/08 06:30:00",4989.75,44.27,TRADE
VIC1,"2014/01/08 07:00:00",5304.66,45.01,TRADE
VIC1,"2014/01/08 07:30:00",5259.82,44.15,TRADE
VIC1,"2014/01/08 08:00:00",5326.17,44.13,TRADE
VIC1,"2014/01/08 08:30:00",5365.94,44.18,TRADE
VIC1,"2014/01/08 09:00:00",5299.77,43.98,TRADE
VIC1,"2014/01/08 09:30:00",5333.57,44.2,TRADE
VIC1,"2014/01/08 10:00:00",5315.25,44.25,TRADE
VIC1,"2014/01/08 10:30:00",5346.02,44.84,TRADE
VIC1,"2014/01/08 11:00:00",5460.15,45.21,TRADE
VIC1,"2014/01/08 11:30:00",5500.85,45.2,TRADE
VIC1,"2014/01/08 12:00:00",5506.79,45.2,TRADE
VIC1,"2014/01/08 12:30:00",5526.48,45.2,TRADE
VIC1,"2014/01/08 13:00:00",5550.73,45.2,TRADE
VIC1,"2014/01/08 13:30:00",5564.06,45.2,TRADE
VIC1,"2014/01/08 14:00:00",5598.64,45.2,TRADE
VIC1,"2014/01/08 14:30:00",5634.97,45.2,TRADE
VIC1,"2014/01/08 15:00:00",5677.97,45.19,TRADE
VIC1,"2014/01/08 15:30:00",5739.2,45.18,TRADE
VIC1,"2014/01/08 16:00:00",5819.85,45.2,TRADE
VIC1,"2014/01/08 16:30:00",5825.31,45.2,TRADE
VIC1,"2014/01/08 17:00:00",5795.99,45.2,TRADE
VIC1,"2014/01/08 17:30:00",5615.5,44.92,TRADE
VIC1,"2014/01/08 18:00:00",5383.23,43.97,TRADE
VIC1,"2014/01/08 18:30:00",5173.18,43.72,TRADE
VIC1,"2014/01/08 19:00:00",5062.32,43.7,TRADE
VIC1,"2014/01/08 19:30:00",4954.6,43.78,TRADE
VIC1,"2014/01/08 20:00:00",4960.23,44.14,TRADE
VIC1,"2014/01/08 20:30:00",5063.42,44.63,TRADE
VIC1,"2014/01/08 21:00:00",5003.21,43.8,TRADE
VIC1,"2014/01/08 21:30:00",4784.91,43.63,TRADE
VIC1,"2014/01/08 22:00:00",4595.1,41.77,TRADE
VIC1,"2014/01/08 22:30:00",4512.49,43.05,TRADE
VIC1,"2014/01/08 23:00:00",4534.64,43.75,TRADE
VIC1,"2014/01/08 23:30:00",4902.35,44.23,TRADE
VIC1,"2014/01/09 00:00:00",5029.82,45,TRADE
VIC1,"2014/01/09 00:30:00",4651.13,43.59,TRADE
VIC1,"2014/01/09 01:00:00",4387.17,42.29,TRADE
VIC1,"2014/01/09 01:30:00",4284.31,41.43,TRADE
VIC1,"2014/01/09 02:00:00",4200.85,38.2,TRADE
VIC1,"2014/01/09 02:30:00",4112.37,38.2,TRADE
VIC1,"2014/01/09 03:00:00",4041.92,38.12,TRADE
VIC1,"2014/01/09 03:30:00",4070.07,38.1,TRADE
VIC1,"2014/01/09 04:00:00",4078.22,37.91,TRADE
VIC1,"2014/01/09 04:30:00",4161.84,38.74,TRADE
VIC1,"2014/01/09 05:00:00",4292.71,42.36,TRADE
VIC1,"2014/01/09 05:30:00",4503.53,44.05,TRADE
VIC1,"2014/01/09 06:00:00",4744.52,44.55,TRADE
VIC1,"2014/01/09 06:30:00",5045.46,45.04,TRADE
VIC1,"2014/01/09 07:00:00",5310.97,45.24,TRADE
VIC1,"2014/01/09 07:30:00",5315.24,45.29,TRADE
VIC1,"2014/01/09 08:00:00",5442.77,45.88,TRADE
VIC1,"2014/01/09 08:30:00",5509.92,46.62,TRADE
VIC1,"2014/01/09 09:00:00",5558.3,46.99,TRADE
VIC1,"2014/01/09 09:30:00",5609.37,47.96,TRADE
VIC1,"2014/01/09 10:00:00",5709.91,51.09,TRADE
VIC1,"2014/01/09 10:30:00",5770.16,51.27,TRADE
VIC1,"2014/01/09 11:00:00",5877.61,52.52,TRADE
VIC1,"2014/01/09 11:30:00",5970.62,47.87,TRADE
VIC1,"2014/01/09 12:00:00",6051.94,47.82,TRADE
VIC1,"2014/01/09 12:30:00",6114.27,47.29,TRADE
VIC1,"2014/01/09 13:00:00",6189.11,50.49,TRADE
VIC1,"2014/01/09 13:30:00",6296.3,51.26,TRADE
VIC1,"2014/01/09 14:00:00",6404.49,52.81,TRADE
VIC1,"2014/01/09 14:30:00",6490.49,53.63,TRADE
VIC1,"2014/01/09 15:00:00",6592.63,54.36,TRADE
VIC1,"2014/01/09 15:30:00",6708.74,55.77,TRADE
VIC1,"2014/01/09 16:00:00",6776.07,56.76,TRADE
VIC1,"2014/01/09 16:30:00",6829.53,57.85,TRADE
VIC1,"2014/01/09 17:00:00",6816.34,57.37,TRADE
VIC1,"2014/01/09 17:30:00",6702.58,53.9,TRADE
VIC1,"2014/01/09 18:00:00",6612.24,55.18,TRADE
VIC1,"2014/01/09 18:30:00",6474.28,51.03,TRADE
VIC1,"2014/01/09 19:00:00",6359.53,48.31,TRADE
VIC1,"2014/01/09 19:30:00",6189.29,47.14,TRADE
VIC1,"2014/01/09 20:00:00",6091.08,46.98,TRADE
VIC1,"2014/01/09 20:30:00",6053.4,47.76,TRADE
VIC1,"2014/01/09 21:00:00",5887.15,48.13,TRADE
VIC1,"2014/01/09 21:30:00",5605.37,46.41,TRADE
VIC1,"2014/01/09 22:00:00",5321.76,45.33,TRADE
VIC1,"2014/01/09 22:30:00",5190.46,45.25,TRADE
VIC1,"2014/01/09 23:00:00",5148.66,45.2,TRADE
VIC1,"2014/01/09 23:30:00",5475.9,46.71,TRADE
VIC1,"2014/01/10 00:00:00",5481.5,47.2,TRADE
VIC1,"2014/01/10 00:30:00",5083.33,44.78,TRADE
VIC1,"2014/01/10 01:00:00",4823.79,43.92,TRADE
VIC1,"2014/01/10 01:30:00",4633.25,43.37,TRADE
VIC1,"2014/01/10 02:00:00",4463.8,41.74,TRADE
VIC1,"2014/01/10 02:30:00",4319.55,40.47,TRADE
VIC1,"2014/01/10 03:00:00",4274.02,38.64,TRADE
VIC1,"2014/01/10 03:30:00",4244.65,38.07,TRADE
VIC1,"2014/01/10 04:00:00",4250.11,38.08,TRADE
VIC1,"2014/01/10 04:30:00",4330.41,38.2,TRADE
VIC1,"2014/01/10 05:00:00",4457.64,40.95,TRADE
VIC1,"2014/01/10 05:30:00",4689.26,43.76,TRADE
VIC1,"2014/01/10 06:00:00",4939.09,44.33,TRADE
VIC1,"2014/01/10 06:30:00",5295.65,45.49,TRADE
VIC1,"2014/01/10 07:00:00",5660.75,48.05,TRADE
VIC1,"2014/01/10 07:30:00",5732.43,49.34,TRADE
VIC1,"2014/01/10 08:00:00",5964.46,52.97,TRADE
VIC1,"2014/01/10 08:30:00",6091.14,54.43,TRADE
VIC1,"2014/01/10 09:00:00",6188.36,54.24,TRADE
VIC1,"2014/01/10 09:30:00",6270.36,53.62,TRADE
VIC1,"2014/01/10 10:00:00",6340.74,53.55,TRADE
VIC1,"2014/01/10 10:30:00",6485.1,54,TRADE
VIC1,"2014/01/10 11:00:00",6604.3,57.82,TRADE
VIC1,"2014/01/10 11:30:00",6767.07,56.72,TRADE
VIC1,"2014/01/10 12:00:00",6941.45,56.44,TRADE
VIC1,"2014/01/10 12:30:00",7106.54,55.94,TRADE
VIC1,"2014/01/10 13:00:00",7179.04,58.86,TRADE
VIC1,"2014/01/10 13:30:00",7283.24,60.65,TRADE
VIC1,"2014/01/10 14:00:00",7478.11,62.15,TRADE
VIC1,"2014/01/10 14:30:00",7539.36,62.17,TRADE
VIC1,"2014/01/10 15:00:00",7706.74,76.81,TRADE
VIC1,"2014/01/10 15:30:00",7848.34,62.21,TRADE
VIC1,"2014/01/10 16:00:00",7940.25,76.05,TRADE
VIC1,"2014/01/10 16:30:00",7963.45,66.95,TRADE
VIC1,"2014/01/10 17:00:00",7969.63,58.71,TRADE
VIC1,"2014/01/10 17:30:00",7856.17,59.38,TRADE
VIC1,"2014/01/10 18:00:00",7762.23,59.35,TRADE
VIC1,"2014/01/10 18:30:00",7600.31,60.03,TRADE
VIC1,"2014/01/10 19:00:00",7420.19,61.63,TRADE
VIC1,"2014/01/10 19:30:00",7220.48,59.45,TRADE
VIC1,"2014/01/10 20:00:00",7060.78,57.67,TRADE
VIC1,"2014/01/10 20:30:00",6937.12,56.02,TRADE
VIC1,"2014/01/10 21:00:00",6712.02,50.55,TRADE
VIC1,"2014/01/10 21:30:00",6388.23,47.9,TRADE
VIC1,"2014/01/10 22:00:00",6109.56,46.34,TRADE
VIC1,"2014/01/10 22:30:00",5933.7,57.78,TRADE
VIC1,"2014/01/10 23:00:00",5763.29,47.36,TRADE
VIC1,"2014/01/10 23:30:00",6002.2,48.04,TRADE
VIC1,"2014/01/11 00:00:00",5889.77,48.73,TRADE
VIC1,"2014/01/11 00:30:00",5420.29,45.68,TRADE
VIC1,"2014/01/11 01:00:00",5087.66,43.59,TRADE
VIC1,"2014/01/11 01:30:00",4874.65,43.51,TRADE
VIC1,"2014/01/11 02:00:00",4751.1,41.05,TRADE
VIC1,"2014/01/11 02:30:00",4637.38,43.81,TRADE
VIC1,"2014/01/11 03:00:00",4514.68,42.28,TRADE
VIC1,"2014/01/11 03:30:00",4492.28,40.55,TRADE
VIC1,"2014/01/11 04:00:00",4494.5,43.65,TRADE
VIC1,"2014/01/11 04:30:00",4492.41,40.76,TRADE
VIC1,"2014/01/11 05:00:00",4551.06,43.53,TRADE
VIC1,"2014/01/11 05:30:00",4653.34,43.7,TRADE
VIC1,"2014/01/11 06:00:00",4645.59,43.75,TRADE
VIC1,"2014/01/11 06:30:00",4766.55,41.97,TRADE
VIC1,"2014/01/11 07:00:00",4968.72,44.27,TRADE
VIC1,"2014/01/11 07:30:00",5040.61,44.29,TRADE
VIC1,"2014/01/11 08:00:00",5166.4,45.16,TRADE
VIC1,"2014/01/11 08:30:00",5338.1,45.42,TRADE
VIC1,"2014/01/11 09:00:00",5309.31,45.3,TRADE
VIC1,"2014/01/11 09:30:00",5381.86,45.35,TRADE
VIC1,"2014/01/11 10:00:00",5379.99,45.28,TRADE
VIC1,"2014/01/11 10:30:00",5383.93,45.29,TRADE
VIC1,"2014/01/11 11:00:00",5360.97,45.23,TRADE
VIC1,"2014/01/11 11:30:00",5358.13,45.12,TRADE
VIC1,"2014/01/11 12:00:00",5317.91,45.18,TRADE
VIC1,"2014/01/11 12:30:00",5292.99,44.88,TRADE
VIC1,"2014/01/11 13:00:00",5239.35,44.23,TRADE
VIC1,"2014/01/11 13:30:00",5242.84,45.2,TRADE
VIC1,"2014/01/11 14:00:00",5247.21,45.39,TRADE
VIC1,"2014/01/11 14:30:00",5299.52,45.2,TRADE
VIC1,"2014/01/11 15:00:00",5344.07,45.2,TRADE
VIC1,"2014/01/11 15:30:00",5376.81,45.28,TRADE
VIC1,"2014/01/11 16:00:00",5499.17,45.52,TRADE
VIC1,"2014/01/11 16:30:00",5490.89,45.62,TRADE
VIC1,"2014/01/11 17:00:00",5539.31,45.9,TRADE
VIC1,"2014/01/11 17:30:00",5529.7,45.35,TRADE
VIC1,"2014/01/11 18:00:00",5485.84,45.5,TRADE
VIC1,"2014/01/11 18:30:00",5410.13,45.2,TRADE
VIC1,"2014/01/11 19:00:00",5291.33,44.14,TRADE
VIC1,"2014/01/11 19:30:00",5161.96,43.91,TRADE
VIC1,"2014/01/11 20:00:00",5158.95,43.96,TRADE
VIC1,"2014/01/11 20:30:00",5229.1,45.32,TRADE
VIC1,"2014/01/11 21:00:00",5101.37,46.21,TRADE
VIC1,"2014/01/11 21:30:00",5001.17,45.45,TRADE
VIC1,"2014/01/11 22:00:00",4837.73,44.03,TRADE
VIC1,"2014/01/11 22:30:00",4748.44,43.65,TRADE
VIC1,"2014/01/11 23:00:00",4811.57,43.85,TRADE
VIC1,"2014/01/11 23:30:00",5141.07,44.82,TRADE
VIC1,"2014/01/12 00:00:00",5170.38,45.79,TRADE
VIC1,"2014/01/12 00:30:00",4821.13,43.72,TRADE
VIC1,"2014/01/12 01:00:00",4493.24,42.23,TRADE
VIC1,"2014/01/12 01:30:00",4338,38.31,TRADE
VIC1,"2014/01/12 02:00:00",4181.1,36.71,TRADE
VIC1,"2014/01/12 02:30:00",4086.58,40.4,TRADE
VIC1,"2014/01/12 03:00:00",4031.32,37.42,TRADE
VIC1,"2014/01/12 03:30:00",3976.33,37.79,TRADE
VIC1,"2014/01/12 04:00:00",3951.26,36.44,TRADE
VIC1,"2014/01/12 04:30:00",3990.62,36.64,TRADE
VIC1,"2014/01/12 05:00:00",3942.76,37.27,TRADE
VIC1,"2014/01/12 05:30:00",4005.07,37.19,TRADE
VIC1,"2014/01/12 06:00:00",4009.61,39.45,TRADE
VIC1,"2014/01/12 06:30:00",4091.19,36.93,TRADE
VIC1,"2014/01/12 07:00:00",4237.62,43.69,TRADE
VIC1,"2014/01/12 07:30:00",4215.4,43.54,TRADE
VIC1,"2014/01/12 08:00:00",4390.95,43.91,TRADE
VIC1,"2014/01/12 08:30:00",4480.89,43.3,TRADE
VIC1,"2014/01/12 09:00:00",4541.41,43.68,TRADE
VIC1,"2014/01/12 09:30:00",4651.22,43.69,TRADE
VIC1,"2014/01/12 10:00:00",4560.61,43.57,TRADE
VIC1,"2014/01/12 10:30:00",4669,43.7,TRADE
VIC1,"2014/01/12 11:00:00",4689.47,43.4,TRADE
VIC1,"2014/01/12 11:30:00",4674.32,43.49,TRADE
VIC1,"2014/01/12 12:00:00",4754.57,43.7,TRADE
VIC1,"2014/01/12 12:30:00",4817.06,44.1,TRADE
VIC1,"2014/01/12 13:00:00",4836.63,43.96,TRADE
VIC1,"2014/01/12 13:30:00",4944.86,45.17,TRADE
VIC1,"2014/01/12 14:00:00",5020.13,45.2,TRADE
VIC1,"2014/01/12 14:30:00",5065.38,45.65,TRADE
VIC1,"2014/01/12 15:00:00",5192.74,45.73,TRADE
VIC1,"2014/01/12 15:30:00",5263.82,45.45,TRADE
VIC1,"2014/01/12 16:00:00",5357.25,46.4,TRADE
VIC1,"2014/01/12 16:30:00",5431.94,46.43,TRADE
VIC1,"2014/01/12 17:00:00",5449.79,45.2,TRADE
VIC1,"2014/01/12 17:30:00",5508.91,45.19,TRADE
VIC1,"2014/01/12 18:00:00",5487.07,45.2,TRADE
VIC1,"2014/01/12 18:30:00",5426.16,45.2,TRADE
VIC1,"2014/01/12 19:00:00",5377.85,44.98,TRADE
VIC1,"2014/01/12 19:30:00",5325.26,45.2,TRADE
VIC1,"2014/01/12 20:00:00",5297.01,45.21,TRADE
VIC1,"2014/01/12 20:30:00",5312.59,45.37,TRADE
VIC1,"2014/01/12 21:00:00",5262.25,45.13,TRADE
VIC1,"2014/01/12 21:30:00",5089.51,44.89,TRADE
VIC1,"2014/01/12 22:00:00",4866.67,43.85,TRADE
VIC1,"2014/01/12 22:30:00",4750.01,43.79,TRADE
VIC1,"2014/01/12 23:00:00",4734.95,43.64,TRADE
VIC1,"2014/01/12 23:30:00",5116.58,45.13,TRADE
VIC1,"2014/01/13 00:00:00",5105.9,45.31,TRADE
VIC1,"2014/01/13 00:30:00",4772.01,43.96,TRADE
VIC1,"2014/01/13 01:00:00",4457.9,43.55,TRADE
VIC1,"2014/01/13 01:30:00",4259.13,40.06,TRADE
VIC1,"2014/01/13 02:00:00",4222.7,37.71,TRADE
VIC1,"2014/01/13 02:30:00",4144.04,37.72,TRADE
VIC1,"2014/01/13 03:00:00",4103.28,37.42,TRADE
VIC1,"2014/01/13 03:30:00",4098.49,38,TRADE
VIC1,"2014/01/13 04:00:00",4119.66,38.1,TRADE
VIC1,"2014/01/13 04:30:00",4259.57,38.09,TRADE
VIC1,"2014/01/13 05:00:00",4496.99,43.3,TRADE
VIC1,"2014/01/13 05:30:00",4728.32,43.89,TRADE
VIC1,"2014/01/13 06:00:00",4997.69,44.19,TRADE
VIC1,"2014/01/13 06:30:00",5389.91,44,TRADE
VIC1,"2014/01/13 07:00:00",5724.64,46.67,TRADE
VIC1,"2014/01/13 07:30:00",5689.62,47.7,TRADE
VIC1,"2014/01/13 08:00:00",5882.07,51.91,TRADE
VIC1,"2014/01/13 08:30:00",5940.15,50.79,TRADE
VIC1,"2014/01/13 09:00:00",6033.26,51.86,TRADE
VIC1,"2014/01/13 09:30:00",6150.75,53.46,TRADE
VIC1,"2014/01/13 10:00:00",6280.39,53.86,TRADE
VIC1,"2014/01/13 10:30:00",6387.05,49.14,TRADE
VIC1,"2014/01/13 11:00:00",6541.58,49.55,TRADE
VIC1,"2014/01/13 11:30:00",6611.67,45.79,TRADE
VIC1,"2014/01/13 12:00:00",6708.54,43.86,TRADE
VIC1,"2014/01/13 12:30:00",6844.32,43.38,TRADE
VIC1,"2014/01/13 13:00:00",6986.78,45.29,TRADE
VIC1,"2014/01/13 13:30:00",7134.55,37.2,TRADE
VIC1,"2014/01/13 14:00:00",7285.42,43.14,TRADE
VIC1,"2014/01/13 14:30:00",7409.45,43.7,TRADE
VIC1,"2014/01/13 15:00:00",7619.02,43.75,TRADE
VIC1,"2014/01/13 15:30:00",7788.33,41.86,TRADE
VIC1,"2014/01/13 16:00:00",8028.62,47.01,TRADE
VIC1,"2014/01/13 16:30:00",8144.59,32.27,TRADE
VIC1,"2014/01/13 17:00:00",8110.89,81.63,TRADE
VIC1,"2014/01/13 17:30:00",8063.35,46.5,TRADE
VIC1,"2014/01/13 18:00:00",7959.67,46.99,TRADE
VIC1,"2014/01/13 18:30:00",7819.67,49.48,TRADE
VIC1,"2014/01/13 19:00:00",7671.23,45.51,TRADE
VIC1,"2014/01/13 19:30:00",7430.44,44.59,TRADE
VIC1,"2014/01/13 20:00:00",7272.2,45.96,TRADE
VIC1,"2014/01/13 20:30:00",7126.18,47.5,TRADE
VIC1,"2014/01/13 21:00:00",6873.11,43.97,TRADE
VIC1,"2014/01/13 21:30:00",6565.68,51.84,TRADE
VIC1,"2014/01/13 22:00:00",6144.57,47.96,TRADE
VIC1,"2014/01/13 22:30:00",5901.67,49.1,TRADE
VIC1,"2014/01/13 23:00:00",5699.17,48.25,TRADE
VIC1,"2014/01/13 23:30:00",5956.06,49.75,TRADE
VIC1,"2014/01/14 00:00:00",5869.81,49.5,TRADE
VIC1,"2014/01/14 00:30:00",5429.43,45.65,TRADE
VIC1,"2014/01/14 01:00:00",5137.06,43.91,TRADE
VIC1,"2014/01/14 01:30:00",4984.49,42.33,TRADE
VIC1,"2014/01/14 02:00:00",4848.71,41.96,TRADE
VIC1,"2014/01/14 02:30:00",4749.43,42.36,TRADE
VIC1,"2014/01/14 03:00:00",4666.23,40.14,TRADE
VIC1,"2014/01/14 03:30:00",4658.23,39.2,TRADE
VIC1,"2014/01/14 04:00:00",4647.2,41.21,TRADE
VIC1,"2014/01/14 04:30:00",4795.78,44.24,TRADE
VIC1,"2014/01/14 05:00:00",4888.75,45.1,TRADE
VIC1,"2014/01/14 05:30:00",5200.27,45.5,TRADE
VIC1,"2014/01/14 06:00:00",5494.75,45.98,TRADE
VIC1,"2014/01/14 06:30:00",5851.83,48.8,TRADE
VIC1,"2014/01/14 07:00:00",6246.44,52.68,TRADE
VIC1,"2014/01/14 07:30:00",6424.48,53.62,TRADE
VIC1,"2014/01/14 08:00:00",6799.33,55.61,TRADE
VIC1,"2014/01/14 08:30:00",7101.98,59.45,TRADE
VIC1,"2014/01/14 09:00:00",7395.04,61.72,TRADE
VIC1,"2014/01/14 09:30:00",7666.22,110.12,TRADE
VIC1,"2014/01/14 10:00:00",7940.68,97.42,TRADE
VIC1,"2014/01/14 10:30:00",8223.09,235.91,TRADE
VIC1,"2014/01/14 11:00:00",8447.1,194.29,TRADE
VIC1,"2014/01/14 11:30:00",8662.52,55.04,TRADE
VIC1,"2014/01/14 12:00:00",8876.23,42.4,TRADE
VIC1,"2014/01/14 12:30:00",9138.99,44.95,TRADE
VIC1,"2014/01/14 13:00:00",9299.39,45,TRADE
VIC1,"2014/01/14 13:30:00",9409.57,44.75,TRADE
VIC1,"2014/01/14 14:00:00",9553.5,828.68,TRADE
VIC1,"2014/01/14 14:30:00",9608.39,161.1,TRADE
VIC1,"2014/01/14 15:00:00",9715.72,41.34,TRADE
VIC1,"2014/01/14 15:30:00",9890.21,69.17,TRADE
VIC1,"2014/01/14 16:00:00",10014.15,184.41,TRADE
VIC1,"2014/01/14 16:30:00",10007.99,215.25,TRADE
VIC1,"2014/01/14 17:00:00",9952.92,157.92,TRADE
VIC1,"2014/01/14 17:30:00",9752.74,51.25,TRADE
VIC1,"2014/01/14 18:00:00",9773.44,84.36,TRADE
VIC1,"2014/01/14 18:30:00",9496.32,1803.52,TRADE
VIC1,"2014/01/14 19:00:00",9278.25,1889.48,TRADE
VIC1,"2014/01/14 19:30:00",9071.23,107.42,TRADE
VIC1,"2014/01/14 20:00:00",9016.14,67.89,TRADE
VIC1,"2014/01/14 20:30:00",8910.38,92.16,TRADE
VIC1,"2014/01/14 21:00:00",8564.2,211.88,TRADE
VIC1,"2014/01/14 21:30:00",8105.48,154.87,TRADE
VIC1,"2014/01/14 22:00:00",7758,71.12,TRADE
VIC1,"2014/01/14 22:30:00",7395.06,93.75,TRADE
VIC1,"2014/01/14 23:00:00",7131.15,87.87,TRADE
VIC1,"2014/01/14 23:30:00",7320.65,160.29,TRADE
VIC1,"2014/01/15 00:00:00",7179.81,143.87,TRADE
VIC1,"2014/01/15 00:30:00",6664.58,77.87,TRADE
VIC1,"2014/01/15 01:00:00",6393.62,67.55,TRADE
VIC1,"2014/01/15 01:30:00",6222.45,58.02,TRADE
VIC1,"2014/01/15 02:00:00",6035.2,54.48,TRADE
VIC1,"2014/01/15 02:30:00",5881.83,53.97,TRADE
VIC1,"2014/01/15 03:00:00",5817.16,53.4,TRADE
VIC1,"2014/01/15 03:30:00",5785.12,53.74,TRADE
VIC1,"2014/01/15 04:00:00",5786.35,53.97,TRADE
VIC1,"2014/01/15 04:30:00",5910.35,56,TRADE
VIC1,"2014/01/15 05:00:00",6031.95,58.15,TRADE
VIC1,"2014/01/15 05:30:00",6311.65,64.47,TRADE
VIC1,"2014/01/15 06:00:00",6609.47,116.75,TRADE
VIC1,"2014/01/15 06:30:00",7037.94,117.7,TRADE
VIC1,"2014/01/15 07:00:00",7479.85,151.84,TRADE
VIC1,"2014/01/15 07:30:00",7713.01,79.42,TRADE
VIC1,"2014/01/15 08:00:00",8091.14,176.89,TRADE
VIC1,"2014/01/15 08:30:00",8410.1,286.85,TRADE
VIC1,"2014/01/15 09:00:00",8635.72,278.78,TRADE
VIC1,"2014/01/15 09:30:00",8808.14,268.66,TRADE
VIC1,"2014/01/15 10:00:00",9014.26,293.11,TRADE
VIC1,"2014/01/15 10:30:00",9314.75,322.43,TRADE
VIC1,"2014/01/15 11:00:00",9517.46,378.55,TRADE
VIC1,"2014/01/15 11:30:00",9636.57,508.07,TRADE
VIC1,"2014/01/15 12:00:00",9769.48,435.29,TRADE
VIC1,"2014/01/15 12:30:00",9887.24,1188.78,TRADE
VIC1,"2014/01/15 13:00:00",9920.31,338.13,TRADE
VIC1,"2014/01/15 13:30:00",9979.65,2053.42,TRADE
VIC1,"2014/01/15 14:00:00",9993.38,3884.18,TRADE
VIC1,"2014/01/15 14:30:00",9984.64,1127.05,TRADE
VIC1,"2014/01/15 15:00:00",9967.8,202.64,TRADE
VIC1,"2014/01/15 15:30:00",10000.91,3330.9,TRADE
VIC1,"2014/01/15 16:00:00",10042,5972.27,TRADE
VIC1,"2014/01/15 16:30:00",9880.71,206.74,TRADE
VIC1,"2014/01/15 17:00:00",9810.84,311.31,TRADE
VIC1,"2014/01/15 17:30:00",9514.3,96.16,TRADE
VIC1,"2014/01/15 18:00:00",9266.48,108.81,TRADE
VIC1,"2014/01/15 18:30:00",8962.18,100.47,TRADE
VIC1,"2014/01/15 19:00:00",8758.48,53.74,TRADE
VIC1,"2014/01/15 19:30:00",8583.44,57.83,TRADE
VIC1,"2014/01/15 20:00:00",8398.36,68.11,TRADE
VIC1,"2014/01/15 20:30:00",8270.26,228.53,TRADE
VIC1,"2014/01/15 21:00:00",7968.01,56.12,TRADE
VIC1,"2014/01/15 21:30:00",7569.39,58.83,TRADE
VIC1,"2014/01/15 22:00:00",7138.27,57.25,TRADE
VIC1,"2014/01/15 22:30:00",6769.88,71.2,TRADE
VIC1,"2014/01/15 23:00:00",6538.74,58.72,TRADE
VIC1,"2014/01/15 23:30:00",6751.89,83.24,TRADE
VIC1,"2014/01/16 00:00:00",6628.43,77.55,TRADE
VIC1,"2014/01/16 00:30:00",6148.3,61.09,TRADE
VIC1,"2014/01/16 01:00:00",5911.94,55.9,TRADE
VIC1,"2014/01/16 01:30:00",5811.67,51.25,TRADE
VIC1,"2014/01/16 02:00:00",5682.75,50.56,TRADE
VIC1,"2014/01/16 02:30:00",5602.46,50.06,TRADE
VIC1,"2014/01/16 03:00:00",5549.14,50.05,TRADE
VIC1,"2014/01/16 03:30:00",5533.39,50.02,TRADE
VIC1,"2014/01/16 04:00:00",5526.23,49.88,TRADE
VIC1,"2014/01/16 04:30:00",5589.38,50.17,TRADE
VIC1,"2014/01/16 05:00:00",5745.78,51.54,TRADE
VIC1,"2014/01/16 05:30:00",6046.94,59.12,TRADE
VIC1,"2014/01/16 06:00:00",6341.86,60,TRADE
VIC1,"2014/01/16 06:30:00",6776.25,59.38,TRADE
VIC1,"2014/01/16 07:00:00",7193.96,105.23,TRADE
VIC1,"2014/01/16 07:30:00",7405.96,63.32,TRADE
VIC1,"2014/01/16 08:00:00",7771.35,132.97,TRADE
VIC1,"2014/01/16 08:30:00",8145.27,238.76,TRADE
VIC1,"2014/01/16 09:00:00",8422.58,63.1,TRADE
VIC1,"2014/01/16 09:30:00",8732.21,113.61,TRADE
VIC1,"2014/01/16 10:00:00",8975.77,166.12,TRADE
VIC1,"2014/01/16 10:30:00",9173.02,171.98,TRADE
VIC1,"2014/01/16 11:00:00",9306.94,229.38,TRADE
VIC1,"2014/01/16 11:30:00",9483.97,251.82,TRADE
VIC1,"2014/01/16 12:00:00",9701.46,252.24,TRADE
VIC1,"2014/01/16 12:30:00",9886.36,204.39,TRADE
VIC1,"2014/01/16 13:00:00",9952.17,166.31,TRADE
VIC1,"2014/01/16 13:30:00",10006.46,94.52,TRADE
VIC1,"2014/01/16 14:00:00",10079.99,122.93,TRADE
VIC1,"2014/01/16 14:30:00",10144.94,206.68,TRADE
VIC1,"2014/01/16 15:00:00",10192.59,277.53,TRADE
VIC1,"2014/01/16 15:30:00",10196.41,400.47,TRADE
VIC1,"2014/01/16 16:00:00",10240.22,1823.23,TRADE
VIC1,"2014/01/16 16:30:00",10180.35,2048.65,TRADE
VIC1,"2014/01/16 17:00:00",10132.31,221.43,TRADE
VIC1,"2014/01/16 17:30:00",9989.83,296.06,TRADE
VIC1,"2014/01/16 18:00:00",9834.99,70.18,TRADE
VIC1,"2014/01/16 18:30:00",9601.83,59.63,TRADE
VIC1,"2014/01/16 19:00:00",9339.19,69.73,TRADE
VIC1,"2014/01/16 19:30:00",9156.72,155.33,TRADE
VIC1,"2014/01/16 20:00:00",9021.8,106.35,TRADE
VIC1,"2014/01/16 20:30:00",8912.5,98.96,TRADE
VIC1,"2014/01/16 21:00:00",8484.62,100.24,TRADE
VIC1,"2014/01/16 21:30:00",8009.28,66.69,TRADE
VIC1,"2014/01/16 22:00:00",7567.76,56.97,TRADE
VIC1,"2014/01/16 22:30:00",7250.6,61.22,TRADE
VIC1,"2014/01/16 23:00:00",6984.58,59.22,TRADE
VIC1,"2014/01/16 23:30:00",7114.27,63.19,TRADE
VIC1,"2014/01/17 00:00:00",6874,61.79,TRADE
VIC1,"2014/01/17 00:30:00",6398.51,51.39,TRADE
VIC1,"2014/01/17 01:00:00",6089.11,48.47,TRADE
VIC1,"2014/01/17 01:30:00",5905.07,46.88,TRADE
VIC1,"2014/01/17 02:00:00",5763.45,45.77,TRADE
VIC1,"2014/01/17 02:30:00",5605.76,44.95,TRADE
VIC1,"2014/01/17 03:00:00",5494.44,44.15,TRADE
VIC1,"2014/01/17 03:30:00",5422.47,43.81,TRADE
VIC1,"2014/01/17 04:00:00",5517.33,43.96,TRADE
VIC1,"2014/01/17 04:30:00",5635.04,44.27,TRADE
VIC1,"2014/01/17 05:00:00",5859.62,45.04,TRADE
VIC1,"2014/01/17 05:30:00",6123.07,46.13,TRADE
VIC1,"2014/01/17 06:00:00",6364.53,47.18,TRADE
VIC1,"2014/01/17 06:30:00",6882.83,49.47,TRADE
VIC1,"2014/01/17 07:00:00",7351.16,54.65,TRADE
VIC1,"2014/01/17 07:30:00",7585.45,54.19,TRADE
VIC1,"2014/01/17 08:00:00",7977.63,64.84,TRADE
VIC1,"2014/01/17 08:30:00",8322.1,58.18,TRADE
VIC1,"2014/01/17 09:00:00",8577.21,65.04,TRADE
VIC1,"2014/01/17 09:30:00",8808.25,61.54,TRADE
VIC1,"2014/01/17 10:00:00",9105.12,78.98,TRADE
VIC1,"2014/01/17 10:30:00",9273.64,176.72,TRADE
VIC1,"2014/01/17 11:00:00",9516.06,140.32,TRADE
VIC1,"2014/01/17 11:30:00",9762.67,77.81,TRADE
VIC1,"2014/01/17 12:00:00",9895.26,99.03,TRADE
VIC1,"2014/01/17 12:30:00",9967.71,134.65,TRADE
VIC1,"2014/01/17 13:00:00",10029.75,150.48,TRADE
VIC1,"2014/01/17 13:30:00",10088.56,96.76,TRADE
VIC1,"2014/01/17 14:00:00",10210.85,103.87,TRADE
VIC1,"2014/01/17 14:30:00",10126.88,186.37,TRADE
VIC1,"2014/01/17 15:00:00",10172.77,218.56,TRADE
VIC1,"2014/01/17 15:30:00",10161.9,100.71,TRADE
VIC1,"2014/01/17 16:00:00",10092.5,2033.78,TRADE
VIC1,"2014/01/17 16:30:00",9831.62,61.53,TRADE
VIC1,"2014/01/17 17:00:00",9721.2,52.79,TRADE
VIC1,"2014/01/17 17:30:00",9075.89,-25.7,TRADE
VIC1,"2014/01/17 18:00:00",8671.57,-21.1,TRADE
VIC1,"2014/01/17 18:30:00",8447.89,54.25,TRADE
VIC1,"2014/01/17 19:00:00",8220.04,56.07,TRADE
VIC1,"2014/01/17 19:30:00",7733.37,53.37,TRADE
VIC1,"2014/01/17 20:00:00",7433.46,49.68,TRADE
VIC1,"2014/01/17 20:30:00",7273.16,50.68,TRADE
VIC1,"2014/01/17 21:00:00",6978.5,51.06,TRADE
VIC1,"2014/01/17 21:30:00",6704.56,49.09,TRADE
VIC1,"2014/01/17 22:00:00",6338.73,47,TRADE
VIC1,"2014/01/17 22:30:00",6166.73,50.24,TRADE
VIC1,"2014/01/17 23:00:00",6010.19,49.13,TRADE
VIC1,"2014/01/17 23:30:00",6179.74,50.36,TRADE
VIC1,"2014/01/18 00:00:00",6056.49,54.9,TRADE
VIC1,"2014/01/18 00:30:00",5548.32,47.26,TRADE
VIC1,"2014/01/18 01:00:00",5294.56,44.55,TRADE
VIC1,"2014/01/18 01:30:00",5079.94,40.89,TRADE
VIC1,"2014/01/18 02:00:00",4973.02,40.67,TRADE
VIC1,"2014/01/18 02:30:00",4887.16,41.27,TRADE
VIC1,"2014/01/18 03:00:00",4800.63,40.16,TRADE
VIC1,"2014/01/18 03:30:00",4745.16,39.63,TRADE
VIC1,"2014/01/18 04:00:00",4771.64,38.87,TRADE
VIC1,"2014/01/18 04:30:00",4802.65,39.89,TRADE
VIC1,"2014/01/18 05:00:00",4884.4,39.97,TRADE
VIC1,"2014/01/18 05:30:00",4980.82,42.28,TRADE
VIC1,"2014/01/18 06:00:00",4930.99,42.94,TRADE
VIC1,"2014/01/18 06:30:00",5057.86,45.25,TRADE
VIC1,"2014/01/18 07:00:00",5323.49,46.27,TRADE
VIC1,"2014/01/18 07:30:00",5422.58,46.78,TRADE
VIC1,"2014/01/18 08:00:00",5586.62,49.02,TRADE
VIC1,"2014/01/18 08:30:00",5774.97,49.65,TRADE
VIC1,"2014/01/18 09:00:00",5826.31,49.28,TRADE
VIC1,"2014/01/18 09:30:00",5871.97,48.8,TRADE
VIC1,"2014/01/18 10:00:00",5867.71,48.4,TRADE
VIC1,"2014/01/18 10:30:00",5853.43,48.34,TRADE
VIC1,"2014/01/18 11:00:00",5927.68,47.78,TRADE
VIC1,"2014/01/18 11:30:00",5909.21,47.1,TRADE
VIC1,"2014/01/18 12:00:00",5906.45,48.36,TRADE
VIC1,"2014/01/18 12:30:00",5918.91,49.13,TRADE
VIC1,"2014/01/18 13:00:00",5970.58,50.54,TRADE
VIC1,"2014/01/18 13:30:00",5955.88,50.67,TRADE
VIC1,"2014/01/18 14:00:00",5927.62,49.78,TRADE
VIC1,"2014/01/18 14:30:00",5872.63,49.43,TRADE
VIC1,"2014/01/18 15:00:00",5864.41,47.66,TRADE
VIC1,"2014/01/18 15:30:00",5850.13,47.34,TRADE
VIC1,"2014/01/18 16:00:00",5922.01,48.28,TRADE
VIC1,"2014/01/18 16:30:00",5882.06,47.14,TRADE
VIC1,"2014/01/18 17:00:00",5875.08,48.73,TRADE
VIC1,"2014/01/18 17:30:00",5775.09,48.71,TRADE
VIC1,"2014/01/18 18:00:00",5625.37,44.59,TRADE
VIC1,"2014/01/18 18:30:00",5525.34,45.82,TRADE
VIC1,"2014/01/18 19:00:00",5468.93,47,TRADE
VIC1,"2014/01/18 19:30:00",5344.58,46.43,TRADE
VIC1,"2014/01/18 20:00:00",5350.49,46.97,TRADE
VIC1,"2014/01/18 20:30:00",5341.36,46.92,TRADE
VIC1,"2014/01/18 21:00:00",5225.76,45.68,TRADE
VIC1,"2014/01/18 21:30:00",5079.95,45.35,TRADE
VIC1,"2014/01/18 22:00:00",4838.95,43.45,TRADE
VIC1,"2014/01/18 22:30:00",4792.6,43.81,TRADE
VIC1,"2014/01/18 23:00:00",4780.9,43.55,TRADE
VIC1,"2014/01/18 23:30:00",5143.62,44.91,TRADE
VIC1,"2014/01/19 00:00:00",5133.89,44.48,TRADE
VIC1,"2014/01/19 00:30:00",4700.91,41.44,TRADE
VIC1,"2014/01/19 01:00:00",4416.31,37.34,TRADE
VIC1,"2014/01/19 01:30:00",4252.56,37.66,TRADE
VIC1,"2014/01/19 02:00:00",4156.97,37.47,TRADE
VIC1,"2014/01/19 02:30:00",4067.07,37.07,TRADE
VIC1,"2014/01/19 03:00:00",3997.47,36.88,TRADE
VIC1,"2014/01/19 03:30:00",3954.69,36.15,TRADE
VIC1,"2014/01/19 04:00:00",3935.25,36.09,TRADE
VIC1,"2014/01/19 04:30:00",3943.8,36.37,TRADE
VIC1,"2014/01/19 05:00:00",3954.74,36.29,TRADE
VIC1,"2014/01/19 05:30:00",3994.42,36.16,TRADE
VIC1,"2014/01/19 06:00:00",3991.85,36.12,TRADE
VIC1,"2014/01/19 06:30:00",4078.13,38.07,TRADE
VIC1,"2014/01/19 07:00:00",4173.97,38.55,TRADE
VIC1,"2014/01/19 07:30:00",4221.88,38.93,TRADE
VIC1,"2014/01/19 08:00:00",4302.9,39.77,TRADE
VIC1,"2014/01/19 08:30:00",4443.61,39.76,TRADE
VIC1,"2014/01/19 09:00:00",4535.04,39.46,TRADE
VIC1,"2014/01/19 09:30:00",4613.8,39.12,TRADE
VIC1,"2014/01/19 10:00:00",4629.35,38.15,TRADE
VIC1,"2014/01/19 10:30:00",4673.81,38.56,TRADE
VIC1,"2014/01/19 11:00:00",4675.55,38.15,TRADE
VIC1,"2014/01/19 11:30:00",4732.74,38.2,TRADE
VIC1,"2014/01/19 12:00:00",4717.07,38.58,TRADE
VIC1,"2014/01/19 12:30:00",4723.37,38.2,TRADE
VIC1,"2014/01/19 13:00:00",4751.51,38.2,TRADE
VIC1,"2014/01/19 13:30:00",4778.15,38.2,TRADE
VIC1,"2014/01/19 14:00:00",4842.3,39.11,TRADE
VIC1,"2014/01/19 14:30:00",4871.3,41.15,TRADE
VIC1,"2014/01/19 15:00:00",4939.92,43.91,TRADE
VIC1,"2014/01/19 15:30:00",4985.25,44.19,TRADE
VIC1,"2014/01/19 16:00:00",5077.11,44.21,TRADE
VIC1,"2014/01/19 16:30:00",5109.31,44.02,TRADE
VIC1,"2014/01/19 17:00:00",5167.93,44.46,TRADE
VIC1,"2014/01/19 17:30:00",5266.05,45.05,TRADE
VIC1,"2014/01/19 18:00:00",5226.64,44.02,TRADE
VIC1,"2014/01/19 18:30:00",5192.19,44.02,TRADE
VIC1,"2014/01/19 19:00:00",5118.11,44.28,TRADE
VIC1,"2014/01/19 19:30:00",5069.14,44.07,TRADE
VIC1,"2014/01/19 20:00:00",5088.16,44.3,TRADE
VIC1,"2014/01/19 20:30:00",5167.18,45.42,TRADE
VIC1,"2014/01/19 21:00:00",5130.85,45.93,TRADE
VIC1,"2014/01/19 21:30:00",4920.5,44.01,TRADE
VIC1,"2014/01/19 22:00:00",4717.47,43.42,TRADE
VIC1,"2014/01/19 22:30:00",4653.9,43.76,TRADE
VIC1,"2014/01/19 23:00:00",4682.98,44.1,TRADE
VIC1,"2014/01/19 23:30:00",5066.69,45.04,TRADE
VIC1,"2014/01/20 00:00:00",5128.89,45.63,TRADE
VIC1,"2014/01/20 00:30:00",4769.54,43.45,TRADE
VIC1,"2014/01/20 01:00:00",4512.39,37.97,TRADE
VIC1,"2014/01/20 01:30:00",4414.6,37.67,TRADE
VIC1,"2014/01/20 02:00:00",4327.42,37.58,TRADE
VIC1,"2014/01/20 02:30:00",4219.02,37.39,TRADE
VIC1,"2014/01/20 03:00:00",4130.93,37.93,TRADE
VIC1,"2014/01/20 03:30:00",4156.72,38.04,TRADE
VIC1,"2014/01/20 04:00:00",4221.17,38.2,TRADE
VIC1,"2014/01/20 04:30:00",4366.76,38.28,TRADE
VIC1,"2014/01/20 05:00:00",4586.4,40.72,TRADE
VIC1,"2014/01/20 05:30:00",4912.82,44.35,TRADE
VIC1,"2014/01/20 06:00:00",5216.82,45.28,TRADE
VIC1,"2014/01/20 06:30:00",5607.59,49.03,TRADE
VIC1,"2014/01/20 07:00:00",5908.31,50.4,TRADE
VIC1,"2014/01/20 07:30:00",5883.95,49.86,TRADE
VIC1,"2014/01/20 08:00:00",6054.46,50.83,TRADE
VIC1,"2014/01/20 08:30:00",6135.45,49.87,TRADE
VIC1,"2014/01/20 09:00:00",6169.4,49.88,TRADE
VIC1,"2014/01/20 09:30:00",6150.43,51.1,TRADE
VIC1,"2014/01/20 10:00:00",6260.97,52.33,TRADE
VIC1,"2014/01/20 10:30:00",6300.82,52.96,TRADE
VIC1,"2014/01/20 11:00:00",6325.09,53.28,TRADE
VIC1,"2014/01/20 11:30:00",6334.29,53.89,TRADE
VIC1,"2014/01/20 12:00:00",6346.89,54.33,TRADE
VIC1,"2014/01/20 12:30:00",6386.78,52.27,TRADE
VIC1,"2014/01/20 13:00:00",6427.13,53.6,TRADE
VIC1,"2014/01/20 13:30:00",6447.7,53.72,TRADE
VIC1,"2014/01/20 14:00:00",6521.38,51.58,TRADE
VIC1,"2014/01/20 14:30:00",6509.37,51.5,TRADE
VIC1,"2014/01/20 15:00:00",6538.82,51.78,TRADE
VIC1,"2014/01/20 15:30:00",6556.1,50.87,TRADE
VIC1,"2014/01/20 16:00:00",6524.44,50.4,TRADE
VIC1,"2014/01/20 16:30:00",6529.78,50.02,TRADE
VIC1,"2014/01/20 17:00:00",6425.93,49.04,TRADE
VIC1,"2014/01/20 17:30:00",6262.41,48.47,TRADE
VIC1,"2014/01/20 18:00:00",6097.3,46.81,TRADE
VIC1,"2014/01/20 18:30:00",5941.9,46.57,TRADE
VIC1,"2014/01/20 19:00:00",5858.64,45.51,TRADE
VIC1,"2014/01/20 19:30:00",5707.06,46.49,TRADE
VIC1,"2014/01/20 20:00:00",5686.72,46.71,TRADE
VIC1,"2014/01/20 20:30:00",5690.95,49.65,TRADE
VIC1,"2014/01/20 21:00:00",5553.2,48.03,TRADE
VIC1,"2014/01/20 21:30:00",5323.08,46.02,TRADE
VIC1,"2014/01/20 22:00:00",5127.21,44.63,TRADE
VIC1,"2014/01/20 22:30:00",5070.48,45.45,TRADE
VIC1,"2014/01/20 23:00:00",5055.02,44.21,TRADE
VIC1,"2014/01/20 23:30:00",5372.27,46.12,TRADE
VIC1,"2014/01/21 00:00:00",5399.73,47.37,TRADE
VIC1,"2014/01/21 00:30:00",5036.7,45.31,TRADE
VIC1,"2014/01/21 01:00:00",4767.41,43.66,TRADE
VIC1,"2014/01/21 01:30:00",4634.97,39.74,TRADE
VIC1,"2014/01/21 02:00:00",4506.82,38.73,TRADE
VIC1,"2014/01/21 02:30:00",4459.94,38.75,TRADE
VIC1,"2014/01/21 03:00:00",4396.48,38.13,TRADE
VIC1,"2014/01/21 03:30:00",4388.74,39.64,TRADE
VIC1,"2014/01/21 04:00:00",4412.29,41.35,TRADE
VIC1,"2014/01/21 04:30:00",4553.66,41.72,TRADE
VIC1,"2014/01/21 05:00:00",4708.62,44.56,TRADE
VIC1,"2014/01/21 05:30:00",5071.09,45.67,TRADE
VIC1,"2014/01/21 06:00:00",5270.9,45.59,TRADE
VIC1,"2014/01/21 06:30:00",5619.13,48.06,TRADE
VIC1,"2014/01/21 07:00:00",5925.63,51.51,TRADE
VIC1,"2014/01/21 07:30:00",5892.21,49.8,TRADE
VIC1,"2014/01/21 08:00:00",6023.18,49.43,TRADE
VIC1,"2014/01/21 08:30:00",6110.12,48.42,TRADE
VIC1,"2014/01/21 09:00:00",6106.87,46.46,TRADE
VIC1,"2014/01/21 09:30:00",6120.69,47.58,TRADE
VIC1,"2014/01/21 10:00:00",6126.3,49.33,TRADE
VIC1,"2014/01/21 10:30:00",6123.63,48.01,TRADE
VIC1,"2014/01/21 11:00:00",6119.78,48.4,TRADE
VIC1,"2014/01/21 11:30:00",6044.76,46.8,TRADE
VIC1,"2014/01/21 12:00:00",6069.51,46.97,TRADE
VIC1,"2014/01/21 12:30:00",6054.61,47.5,TRADE
VIC1,"2014/01/21 13:00:00",6038.59,47.48,TRADE
VIC1,"2014/01/21 13:30:00",6079.5,47.65,TRADE
VIC1,"2014/01/21 14:00:00",6058.79,48.05,TRADE
VIC1,"2014/01/21 14:30:00",6006.23,47.51,TRADE
VIC1,"2014/01/21 15:00:00",6033.07,48.39,TRADE
VIC1,"2014/01/21 15:30:00",6004.35,45.5,TRADE
VIC1,"2014/01/21 16:00:00",6065.46,46.07,TRADE
VIC1,"2014/01/21 16:30:00",6069.2,48.77,TRADE
VIC1,"2014/01/21 17:00:00",5944.39,43.33,TRADE
VIC1,"2014/01/21 17:30:00",5794.92,45.41,TRADE
VIC1,"2014/01/21 18:00:00",5742.72,44.5,TRADE
VIC1,"2014/01/21 18:30:00",5628.83,44.43,TRADE
VIC1,"2014/01/21 19:00:00",5528.05,44.95,TRADE
VIC1,"2014/01/21 19:30:00",5435.28,46.37,TRADE
VIC1,"2014/01/21 20:00:00",5462.42,46.75,TRADE
VIC1,"2014/01/21 20:30:00",5503.1,46.85,TRADE
VIC1,"2014/01/21 21:00:00",5416.21,45.19,TRADE
VIC1,"2014/01/21 21:30:00",5186.28,44.98,TRADE
VIC1,"2014/01/21 22:00:00",4961.35,43.58,TRADE
VIC1,"2014/01/21 22:30:00",4944.99,47.73,TRADE
VIC1,"2014/01/21 23:00:00",4932.15,44.08,TRADE
VIC1,"2014/01/21 23:30:00",5271.8,47.32,TRADE
VIC1,"2014/01/22 00:00:00",5354.4,47.91,TRADE
VIC1,"2014/01/22 00:30:00",4957.65,45.74,TRADE
VIC1,"2014/01/22 01:00:00",4717.96,44.65,TRADE
VIC1,"2014/01/22 01:30:00",4582.88,43.25,TRADE
VIC1,"2014/01/22 02:00:00",4465.59,38.75,TRADE
VIC1,"2014/01/22 02:30:00",4414.62,38.08,TRADE
VIC1,"2014/01/22 03:00:00",4329.04,38.28,TRADE
VIC1,"2014/01/22 03:30:00",4304.42,38.42,TRADE
VIC1,"2014/01/22 04:00:00",4288.89,38.42,TRADE
VIC1,"2014/01/22 04:30:00",4406.12,41.24,TRADE
VIC1,"2014/01/22 05:00:00",4595.55,42.29,TRADE
VIC1,"2014/01/22 05:30:00",4908.05,43.64,TRADE
VIC1,"2014/01/22 06:00:00",5139.58,44.67,TRADE
VIC1,"2014/01/22 06:30:00",5477.23,46.65,TRADE
VIC1,"2014/01/22 07:00:00",5701.94,50.91,TRADE
VIC1,"2014/01/22 07:30:00",5733.27,50.75,TRADE
VIC1,"2014/01/22 08:00:00",5823.85,49.84,TRADE
VIC1,"2014/01/22 08:30:00",5843.82,48.71,TRADE
VIC1,"2014/01/22 09:00:00",5849.4,48.59,TRADE
VIC1,"2014/01/22 09:30:00",5869.25,49.87,TRADE
VIC1,"2014/01/22 10:00:00",5901.46,49.95,TRADE
VIC1,"2014/01/22 10:30:00",5910.7,50.74,TRADE
VIC1,"2014/01/22 11:00:00",5910.62,48.84,TRADE
VIC1,"2014/01/22 11:30:00",5957.16,49.32,TRADE
VIC1,"2014/01/22 12:00:00",6004.51,50.23,TRADE
VIC1,"2014/01/22 12:30:00",6022.41,50.79,TRADE
VIC1,"2014/01/22 13:00:00",6028.62,53.91,TRADE
VIC1,"2014/01/22 13:30:00",6062.97,52.47,TRADE
VIC1,"2014/01/22 14:00:00",6057.32,52.84,TRADE
VIC1,"2014/01/22 14:30:00",6067.15,53.43,TRADE
VIC1,"2014/01/22 15:00:00",6074.62,49.93,TRADE
VIC1,"2014/01/22 15:30:00",6108.43,50.87,TRADE
VIC1,"2014/01/22 16:00:00",6131.1,49.01,TRADE
VIC1,"2014/01/22 16:30:00",6113.04,50.73,TRADE
VIC1,"2014/01/22 17:00:00",6052.69,48.79,TRADE
VIC1,"2014/01/22 17:30:00",6014.08,47.66,TRADE
VIC1,"2014/01/22 18:00:00",5862.79,51.44,TRADE
VIC1,"2014/01/22 18:30:00",5708.35,48.75,TRADE
VIC1,"2014/01/22 19:00:00",5604.74,46.84,TRADE
VIC1,"2014/01/22 19:30:00",5501.77,46.64,TRADE
VIC1,"2014/01/22 20:00:00",5455.24,47.89,TRADE
VIC1,"2014/01/22 20:30:00",5491.99,48.19,TRADE
VIC1,"2014/01/22 21:00:00",5401.77,47.46,TRADE
VIC1,"2014/01/22 21:30:00",5212.53,45.65,TRADE
VIC1,"2014/01/22 22:00:00",5027.04,43.97,TRADE
VIC1,"2014/01/22 22:30:00",4917.39,43.68,TRADE
VIC1,"2014/01/22 23:00:00",4876.33,40.45,TRADE
VIC1,"2014/01/22 23:30:00",5181.04,46.59,TRADE
VIC1,"2014/01/23 00:00:00",5258.85,47.32,TRADE
VIC1,"2014/01/23 00:30:00",4968.63,43.97,TRADE
VIC1,"2014/01/23 01:00:00",4658.34,40.64,TRADE
VIC1,"2014/01/23 01:30:00",4533.59,38.74,TRADE
VIC1,"2014/01/23 02:00:00",4420.49,38.15,TRADE
VIC1,"2014/01/23 02:30:00",4314.42,38.02,TRADE
VIC1,"2014/01/23 03:00:00",4260.92,38.17,TRADE
VIC1,"2014/01/23 03:30:00",4282.7,38.2,TRADE
VIC1,"2014/01/23 04:00:00",4313.02,38.31,TRADE
VIC1,"2014/01/23 04:30:00",4457.43,42.35,TRADE
VIC1,"2014/01/23 05:00:00",4675.59,42.34,TRADE
VIC1,"2014/01/23 05:30:00",4974.01,45,TRADE
VIC1,"2014/01/23 06:00:00",5188.54,46.36,TRADE
VIC1,"2014/01/23 06:30:00",5510.94,50.4,TRADE
VIC1,"2014/01/23 07:00:00",5728.56,54.93,TRADE
VIC1,"2014/01/23 07:30:00",5718.47,52.85,TRADE
VIC1,"2014/01/23 08:00:00",5834.54,52.29,TRADE
VIC1,"2014/01/23 08:30:00",5916.17,53.97,TRADE
VIC1,"2014/01/23 09:00:00",5935.74,54.19,TRADE
VIC1,"2014/01/23 09:30:00",5943.45,53.86,TRADE
VIC1,"2014/01/23 10:00:00",6012.99,55.6,TRADE
VIC1,"2014/01/23 10:30:00",6114.7,54.44,TRADE
VIC1,"2014/01/23 11:00:00",6173.26,57.59,TRADE
VIC1,"2014/01/23 11:30:00",6230.97,57.13,TRADE
VIC1,"2014/01/23 12:00:00",6295.77,58.91,TRADE
VIC1,"2014/01/23 12:30:00",6386.58,63.71,TRADE
VIC1,"2014/01/23 13:00:00",6471.85,58.01,TRADE
VIC1,"2014/01/23 13:30:00",6586.76,58.46,TRADE
VIC1,"2014/01/23 14:00:00",6670.13,56.94,TRADE
VIC1,"2014/01/23 14:30:00",6777.07,56.45,TRADE
VIC1,"2014/01/23 15:00:00",6943.06,55.2,TRADE
VIC1,"2014/01/23 15:30:00",7081.84,79.44,TRADE
VIC1,"2014/01/23 16:00:00",7196.85,80.01,TRADE
VIC1,"2014/01/23 16:30:00",7223.53,61.87,TRADE
VIC1,"2014/01/23 17:00:00",7262.52,54.43,TRADE
VIC1,"2014/01/23 17:30:00",7166.06,45.25,TRADE
VIC1,"2014/01/23 18:00:00",7131.11,45.9,TRADE
VIC1,"2014/01/23 18:30:00",7024.38,51.93,TRADE
VIC1,"2014/01/23 19:00:00",6863.68,54.33,TRADE
VIC1,"2014/01/23 19:30:00",6674.83,62.94,TRADE
VIC1,"2014/01/23 20:00:00",6579.28,64.57,TRADE
VIC1,"2014/01/23 20:30:00",6490.53,65.73,TRADE
VIC1,"2014/01/23 21:00:00",6297.52,55.66,TRADE
VIC1,"2014/01/23 21:30:00",5939.13,52.22,TRADE
VIC1,"2014/01/23 22:00:00",5657.22,49.7,TRADE
VIC1,"2014/01/23 22:30:00",5545.98,50.86,TRADE
VIC1,"2014/01/23 23:00:00",5491.43,50.92,TRADE
VIC1,"2014/01/23 23:30:00",5731.52,52.83,TRADE
VIC1,"2014/01/24 00:00:00",5687.69,55.9,TRADE
VIC1,"2014/01/24 00:30:00",5320.56,50.89,TRADE
VIC1,"2014/01/24 01:00:00",5087.68,48.67,TRADE
VIC1,"2014/01/24 01:30:00",4922.31,43.84,TRADE
VIC1,"2014/01/24 02:00:00",4785.55,43.8,TRADE
VIC1,"2014/01/24 02:30:00",4648.25,41.17,TRADE
VIC1,"2014/01/24 03:00:00",4522.42,41.32,TRADE
VIC1,"2014/01/24 03:30:00",4584.66,43.68,TRADE
VIC1,"2014/01/24 04:00:00",4559.52,43.21,TRADE
VIC1,"2014/01/24 04:30:00",4704.42,43.84,TRADE
VIC1,"2014/01/24 05:00:00",4889.68,50.86,TRADE
VIC1,"2014/01/24 05:30:00",5175.57,57.4,TRADE
VIC1,"2014/01/24 06:00:00",5447.64,55.92,TRADE
VIC1,"2014/01/24 06:30:00",5821.7,56.52,TRADE
VIC1,"2014/01/24 07:00:00",6164.03,56.73,TRADE
VIC1,"2014/01/24 07:30:00",6113.88,53.53,TRADE
VIC1,"2014/01/24 08:00:00",6281.91,54.38,TRADE
VIC1,"2014/01/24 08:30:00",6434.38,55.7,TRADE
VIC1,"2014/01/24 09:00:00",6381.13,50.69,TRADE
VIC1,"2014/01/24 09:30:00",6426.49,50.38,TRADE
VIC1,"2014/01/24 10:00:00",6495.74,51.12,TRADE
VIC1,"2014/01/24 10:30:00",6514.57,50.76,TRADE
VIC1,"2014/01/24 11:00:00",6426.95,50.62,TRADE
VIC1,"2014/01/24 11:30:00",6176.85,49.16,TRADE
VIC1,"2014/01/24 12:00:00",6237.01,49.56,TRADE
VIC1,"2014/01/24 12:30:00",6153.54,49.08,TRADE
VIC1,"2014/01/24 13:00:00",6126.24,49.1,TRADE
VIC1,"2014/01/24 13:30:00",6063.61,48.88,TRADE
VIC1,"2014/01/24 14:00:00",6078.08,48.18,TRADE
VIC1,"2014/01/24 14:30:00",5963.21,47.45,TRADE
VIC1,"2014/01/24 15:00:00",5916.61,46.54,TRADE
VIC1,"2014/01/24 15:30:00",5920.93,47.39,TRADE
VIC1,"2014/01/24 16:00:00",5886.78,46.28,TRADE
VIC1,"2014/01/24 16:30:00",5825.79,47.71,TRADE
VIC1,"2014/01/24 17:00:00",5799.39,47.37,TRADE
VIC1,"2014/01/24 17:30:00",5673.59,46.55,TRADE
VIC1,"2014/01/24 18:00:00",5513.65,46.08,TRADE
VIC1,"2014/01/24 18:30:00",5469.17,47.46,TRADE
VIC1,"2014/01/24 19:00:00",5380.21,47.1,TRADE
VIC1,"2014/01/24 19:30:00",5310.54,46.81,TRADE
VIC1,"2014/01/24 20:00:00",5262.67,45.68,TRADE
VIC1,"2014/01/24 20:30:00",5328.08,46,TRADE
VIC1,"2014/01/24 21:00:00",5181.15,45.42,TRADE
VIC1,"2014/01/24 21:30:00",5019.12,44.73,TRADE
VIC1,"2014/01/24 22:00:00",4869.53,43.81,TRADE
VIC1,"2014/01/24 22:30:00",4777.52,43.69,TRADE
VIC1,"2014/01/24 23:00:00",4764.94,43.68,TRADE
VIC1,"2014/01/24 23:30:00",5061.45,44.4,TRADE
VIC1,"2014/01/25 00:00:00",5168.67,45.25,TRADE
VIC1,"2014/01/25 00:30:00",4792.85,43.78,TRADE
VIC1,"2014/01/25 01:00:00",4456.53,41.56,TRADE
VIC1,"2014/01/25 01:30:00",4322.01,38.11,TRADE
VIC1,"2014/01/25 02:00:00",4207.93,38.1,TRADE
VIC1,"2014/01/25 02:30:00",4101.86,38.04,TRADE
VIC1,"2014/01/25 03:00:00",4021.09,37.97,TRADE
VIC1,"2014/01/25 03:30:00",3983.94,37.97,TRADE
VIC1,"2014/01/25 04:00:00",3969.34,37.96,TRADE
VIC1,"2014/01/25 04:30:00",3964.36,35.68,TRADE
VIC1,"2014/01/25 05:00:00",4055.12,38.03,TRADE
VIC1,"2014/01/25 05:30:00",4155.85,38.13,TRADE
VIC1,"2014/01/25 06:00:00",4108.21,38.03,TRADE
VIC1,"2014/01/25 06:30:00",4265.54,39.52,TRADE
VIC1,"2014/01/25 07:00:00",4475.2,42.05,TRADE
VIC1,"2014/01/25 07:30:00",4496.7,41.67,TRADE
VIC1,"2014/01/25 08:00:00",4586.07,42.26,TRADE
VIC1,"2014/01/25 08:30:00",4669.34,42.37,TRADE
VIC1,"2014/01/25 09:00:00",4740.9,42.6,TRADE
VIC1,"2014/01/25 09:30:00",4750.31,41.95,TRADE
VIC1,"2014/01/25 10:00:00",4741.18,41.96,TRADE
VIC1,"2014/01/25 10:30:00",4723.25,41.9,TRADE
VIC1,"2014/01/25 11:00:00",4745.64,42.24,TRADE
VIC1,"2014/01/25 11:30:00",4777.4,43.01,TRADE
VIC1,"2014/01/25 12:00:00",4724.92,42.85,TRADE
VIC1,"2014/01/25 12:30:00",4685.77,42.28,TRADE
VIC1,"2014/01/25 13:00:00",4677.46,42.15,TRADE
VIC1,"2014/01/25 13:30:00",4650.88,42.45,TRADE
VIC1,"2014/01/25 14:00:00",4678.87,42.95,TRADE
VIC1,"2014/01/25 14:30:00",4666.83,43.23,TRADE
VIC1,"2014/01/25 15:00:00",4741.43,43.68,TRADE
VIC1,"2014/01/25 15:30:00",4801.37,43.68,TRADE
VIC1,"2014/01/25 16:00:00",4847.49,43.68,TRADE
VIC1,"2014/01/25 16:30:00",4916.96,43.68,TRADE
VIC1,"2014/01/25 17:00:00",4936.98,43.68,TRADE
VIC1,"2014/01/25 17:30:00",4938.79,43.68,TRADE
VIC1,"2014/01/25 18:00:00",5009.08,43.68,TRADE
VIC1,"2014/01/25 18:30:00",4917.65,43.68,TRADE
VIC1,"2014/01/25 19:00:00",4899.5,43.68,TRADE
VIC1,"2014/01/25 19:30:00",4837.25,43.68,TRADE
VIC1,"2014/01/25 20:00:00",4834.26,43.68,TRADE
VIC1,"2014/01/25 20:30:00",4988.36,43.68,TRADE
VIC1,"2014/01/25 21:00:00",4929.18,43.68,TRADE
VIC1,"2014/01/25 21:30:00",4828.94,43.6,TRADE
VIC1,"2014/01/25 22:00:00",4666.3,40.92,TRADE
VIC1,"2014/01/25 22:30:00",4584.41,41.59,TRADE
VIC1,"2014/01/25 23:00:00",4638.61,40.57,TRADE
VIC1,"2014/01/25 23:30:00",4994.38,43.28,TRADE
VIC1,"2014/01/26 00:00:00",5068.2,42.9,TRADE
VIC1,"2014/01/26 00:30:00",4723.43,39.19,TRADE
VIC1,"2014/01/26 01:00:00",4441.61,37.89,TRADE
VIC1,"2014/01/26 01:30:00",4303.64,37.93,TRADE
VIC1,"2014/01/26 02:00:00",4138.35,35.81,TRADE
VIC1,"2014/01/26 02:30:00",4060.61,36.86,TRADE
VIC1,"2014/01/26 03:00:00",3978.6,35.25,TRADE
VIC1,"2014/01/26 03:30:00",3933.95,31.25,TRADE
VIC1,"2014/01/26 04:00:00",3929.7,29.99,TRADE
VIC1,"2014/01/26 04:30:00",3942.38,36.29,TRADE
VIC1,"2014/01/26 05:00:00",3819.92,31.93,TRADE
VIC1,"2014/01/26 05:30:00",3867.85,30.63,TRADE
VIC1,"2014/01/26 06:00:00",3980.92,34.53,TRADE
VIC1,"2014/01/26 06:30:00",4082.26,36.13,TRADE
VIC1,"2014/01/26 07:00:00",4235.84,38.07,TRADE
VIC1,"2014/01/26 07:30:00",4302.12,38.95,TRADE
VIC1,"2014/01/26 08:00:00",4421.01,40.57,TRADE
VIC1,"2014/01/26 08:30:00",4497.7,40.77,TRADE
VIC1,"2014/01/26 09:00:00",4609.33,40.85,TRADE
VIC1,"2014/01/26 09:30:00",4696.36,40.84,TRADE
VIC1,"2014/01/26 10:00:00",4685.79,40.34,TRADE
VIC1,"2014/01/26 10:30:00",4747.99,40.91,TRADE
VIC1,"2014/01/26 11:00:00",4740.14,40.91,TRADE
VIC1,"2014/01/26 11:30:00",4803.17,40.36,TRADE
VIC1,"2014/01/26 12:00:00",4711.97,38.29,TRADE
VIC1,"2014/01/26 12:30:00",4780.1,40.39,TRADE
VIC1,"2014/01/26 13:00:00",4781.13,40.51,TRADE
VIC1,"2014/01/26 13:30:00",4793.12,40.82,TRADE
VIC1,"2014/01/26 14:00:00",4845.4,40.83,TRADE
VIC1,"2014/01/26 14:30:00",4874.66,40.81,TRADE
VIC1,"2014/01/26 15:00:00",4969.32,41.02,TRADE
VIC1,"2014/01/26 15:30:00",5117.52,42.21,TRADE
VIC1,"2014/01/26 16:00:00",5248.97,45.97,TRADE
VIC1,"2014/01/26 16:30:00",5246.71,44.79,TRADE
VIC1,"2014/01/26 17:00:00",5418.15,45.37,TRADE
VIC1,"2014/01/26 17:30:00",5522.89,45.85,TRADE
VIC1,"2014/01/26 18:00:00",5524.94,45.77,TRADE
VIC1,"2014/01/26 18:30:00",5534.89,45.75,TRADE
VIC1,"2014/01/26 19:00:00",5508.06,46.19,TRADE
VIC1,"2014/01/26 19:30:00",5399.25,45.31,TRADE
VIC1,"2014/01/26 20:00:00",5354.43,45.91,TRADE
VIC1,"2014/01/26 20:30:00",5413.92,46.02,TRADE
VIC1,"2014/01/26 21:00:00",5313.74,44.26,TRADE
VIC1,"2014/01/26 21:30:00",5138.27,44.35,TRADE
VIC1,"2014/01/26 22:00:00",4997.81,41.34,TRADE
VIC1,"2014/01/26 22:30:00",4899.3,40.8,TRADE
VIC1,"2014/01/26 23:00:00",4892.28,40.33,TRADE
VIC1,"2014/01/26 23:30:00",5170.06,41.86,TRADE
VIC1,"2014/01/27 00:00:00",5196.48,41.01,TRADE
VIC1,"2014/01/27 00:30:00",4817.39,39.59,TRADE
VIC1,"2014/01/27 01:00:00",4535.56,38.1,TRADE
VIC1,"2014/01/27 01:30:00",4364.71,37.2,TRADE
VIC1,"2014/01/27 02:00:00",4277.35,38.03,TRADE
VIC1,"2014/01/27 02:30:00",4161.51,37.83,TRADE
VIC1,"2014/01/27 03:00:00",4104.32,36.81,TRADE
VIC1,"2014/01/27 03:30:00",4033.55,35.11,TRADE
VIC1,"2014/01/27 04:00:00",4004.51,34.14,TRADE
VIC1,"2014/01/27 04:30:00",4006.78,33.04,TRADE
VIC1,"2014/01/27 05:00:00",4008.78,36.9,TRADE
VIC1,"2014/01/27 05:30:00",4176.15,37.99,TRADE
VIC1,"2014/01/27 06:00:00",4163.89,31.23,TRADE
VIC1,"2014/01/27 06:30:00",4274.16,37.73,TRADE
VIC1,"2014/01/27 07:00:00",4488.02,38.27,TRADE
VIC1,"2014/01/27 07:30:00",4515.9,38.16,TRADE
VIC1,"2014/01/27 08:00:00",4700.21,40.01,TRADE
VIC1,"2014/01/27 08:30:00",4871.02,40.85,TRADE
VIC1,"2014/01/27 09:00:00",5014.77,41.67,TRADE
VIC1,"2014/01/27 09:30:00",5197.93,42.67,TRADE
VIC1,"2014/01/27 10:00:00",5323.83,43.24,TRADE
VIC1,"2014/01/27 10:30:00",5455.53,44.68,TRADE
VIC1,"2014/01/27 11:00:00",5581.45,46.52,TRADE
VIC1,"2014/01/27 11:30:00",5740.98,49.09,TRADE
VIC1,"2014/01/27 12:00:00",5830.63,50.92,TRADE
VIC1,"2014/01/27 12:30:00",5999,52.06,TRADE
VIC1,"2014/01/27 13:00:00",6175.91,50.38,TRADE
VIC1,"2014/01/27 13:30:00",6317.67,52.19,TRADE
VIC1,"2014/01/27 14:00:00",6479.82,53.42,TRADE
VIC1,"2014/01/27 14:30:00",6702.05,53.1,TRADE
VIC1,"2014/01/27 15:00:00",6892.17,58.48,TRADE
VIC1,"2014/01/27 15:30:00",7042.7,67.21,TRADE
VIC1,"2014/01/27 16:00:00",7315.66,89.12,TRADE
VIC1,"2014/01/27 16:30:00",7521.71,86.39,TRADE
VIC1,"2014/01/27 17:00:00",7649.21,113.18,TRADE
VIC1,"2014/01/27 17:30:00",7674.87,121.48,TRADE
VIC1,"2014/01/27 18:00:00",7640.96,161.43,TRADE
VIC1,"2014/01/27 18:30:00",7509.86,67.94,TRADE
VIC1,"2014/01/27 19:00:00",7369.96,65.65,TRADE
VIC1,"2014/01/27 19:30:00",7139.01,59.34,TRADE
VIC1,"2014/01/27 20:00:00",6962.92,51.54,TRADE
VIC1,"2014/01/27 20:30:00",6838.04,58.25,TRADE
VIC1,"2014/01/27 21:00:00",6595.78,53.9,TRADE
VIC1,"2014/01/27 21:30:00",6216.01,51.41,TRADE
VIC1,"2014/01/27 22:00:00",5909.87,51.53,TRADE
VIC1,"2014/01/27 22:30:00",5643.13,51.27,TRADE
VIC1,"2014/01/27 23:00:00",5516.7,50.69,TRADE
VIC1,"2014/01/27 23:30:00",5796.8,50.97,TRADE
VIC1,"2014/01/28 00:00:00",5715.44,54.63,TRADE
VIC1,"2014/01/28 00:30:00",5320.62,48.4,TRADE
VIC1,"2014/01/28 01:00:00",5051.05,42.67,TRADE
VIC1,"2014/01/28 01:30:00",4845.75,40.59,TRADE
VIC1,"2014/01/28 02:00:00",4711.61,40.01,TRADE
VIC1,"2014/01/28 02:30:00",4644.9,38.66,TRADE
VIC1,"2014/01/28 03:00:00",4544.1,37.32,TRADE
VIC1,"2014/01/28 03:30:00",4539.78,38.06,TRADE
VIC1,"2014/01/28 04:00:00",4541.37,38.2,TRADE
VIC1,"2014/01/28 04:30:00",4706.07,38.16,TRADE
VIC1,"2014/01/28 05:00:00",4879.8,39.19,TRADE
VIC1,"2014/01/28 05:30:00",5302.22,42.25,TRADE
VIC1,"2014/01/28 06:00:00",5557.57,43.18,TRADE
VIC1,"2014/01/28 06:30:00",5952.76,47.56,TRADE
VIC1,"2014/01/28 07:00:00",6311.49,53.72,TRADE
VIC1,"2014/01/28 07:30:00",6548.52,55.73,TRADE
VIC1,"2014/01/28 08:00:00",6875.08,55.79,TRADE
VIC1,"2014/01/28 08:30:00",7195.94,56.26,TRADE
VIC1,"2014/01/28 09:00:00",7399.04,57.24,TRADE
VIC1,"2014/01/28 09:30:00",7648.85,59.29,TRADE
VIC1,"2014/01/28 10:00:00",7901.05,75,TRADE
VIC1,"2014/01/28 10:30:00",8110.69,69.87,TRADE
VIC1,"2014/01/28 11:00:00",8332.84,93.17,TRADE
VIC1,"2014/01/28 11:30:00",8354.16,79.83,TRADE
VIC1,"2014/01/28 12:00:00",8644.75,82.7,TRADE
VIC1,"2014/01/28 12:30:00",8864.8,86.39,TRADE
VIC1,"2014/01/28 13:00:00",8998.5,66.56,TRADE
VIC1,"2014/01/28 13:30:00",9178.49,100.59,TRADE
VIC1,"2014/01/28 14:00:00",9293.24,82.83,TRADE
VIC1,"2014/01/28 14:30:00",9507.48,64.25,TRADE
VIC1,"2014/01/28 15:00:00",9655.37,151.17,TRADE
VIC1,"2014/01/28 15:30:00",9802.4,239.1,TRADE
VIC1,"2014/01/28 16:00:00",9940.38,235.55,TRADE
VIC1,"2014/01/28 16:30:00",10021.93,135.31,TRADE
VIC1,"2014/01/28 17:00:00",9950.7,704.68,TRADE
VIC1,"2014/01/28 17:30:00",9749.87,84.53,TRADE
VIC1,"2014/01/28 18:00:00",9682.42,96.05,TRADE
VIC1,"2014/01/28 18:30:00",9327.14,61.49,TRADE
VIC1,"2014/01/28 19:00:00",8814.87,55.56,TRADE
VIC1,"2014/01/28 19:30:00",8337.91,56.05,TRADE
VIC1,"2014/01/28 20:00:00",7928.36,56.04,TRADE
VIC1,"2014/01/28 20:30:00",7562.4,56.04,TRADE
VIC1,"2014/01/28 21:00:00",7163.41,54.77,TRADE
VIC1,"2014/01/28 21:30:00",6765.49,52,TRADE
VIC1,"2014/01/28 22:00:00",6262.72,48.9,TRADE
VIC1,"2014/01/28 22:30:00",6051.83,52.84,TRADE
VIC1,"2014/01/28 23:00:00",5901.13,51.64,TRADE
VIC1,"2014/01/28 23:30:00",6079.59,53.14,TRADE
VIC1,"2014/01/29 00:00:00",5998.73,55.67,TRADE
VIC1,"2014/01/29 00:30:00",5570.4,44.46,TRADE
VIC1,"2014/01/29 01:00:00",5265.42,40.09,TRADE
VIC1,"2014/01/29 01:30:00",5118.91,39.5,TRADE
VIC1,"2014/01/29 02:00:00",4985.58,39.13,TRADE
VIC1,"2014/01/29 02:30:00",4857.93,38.51,TRADE
VIC1,"2014/01/29 03:00:00",4761.01,38.15,TRADE
VIC1,"2014/01/29 03:30:00",4677.9,38.1,TRADE
VIC1,"2014/01/29 04:00:00",4677.63,38.2,TRADE
VIC1,"2014/01/29 04:30:00",4788.92,38.34,TRADE
VIC1,"2014/01/29 05:00:00",4952.14,39.01,TRADE
VIC1,"2014/01/29 05:30:00",5296.66,41.78,TRADE
VIC1,"2014/01/29 06:00:00",5580.64,40.87,TRADE
VIC1,"2014/01/29 06:30:00",5972.34,44.25,TRADE
VIC1,"2014/01/29 07:00:00",6250.97,53.72,TRADE
VIC1,"2014/01/29 07:30:00",6249.34,50.42,TRADE
VIC1,"2014/01/29 08:00:00",6301.03,48.6,TRADE
VIC1,"2014/01/29 08:30:00",6371.1,48.27,TRADE
VIC1,"2014/01/29 09:00:00",6363.11,50.06,TRADE
VIC1,"2014/01/29 09:30:00",6349.01,50.89,TRADE
VIC1,"2014/01/29 10:00:00",6341.98,49.22,TRADE
VIC1,"2014/01/29 10:30:00",6384.4,50.85,TRADE
VIC1,"2014/01/29 11:00:00",6469.5,51.11,TRADE
VIC1,"2014/01/29 11:30:00",6508.2,54.43,TRADE
VIC1,"2014/01/29 12:00:00",6519.7,55.7,TRADE
VIC1,"2014/01/29 12:30:00",6523.04,57.33,TRADE
VIC1,"2014/01/29 13:00:00",6563.25,59,TRADE
VIC1,"2014/01/29 13:30:00",6585.35,56.35,TRADE
VIC1,"2014/01/29 14:00:00",6615.75,53.8,TRADE
VIC1,"2014/01/29 14:30:00",6648.06,54.07,TRADE
VIC1,"2014/01/29 15:00:00",6688.24,53,TRADE
VIC1,"2014/01/29 15:30:00",6703.82,53.88,TRADE
VIC1,"2014/01/29 16:00:00",6725.52,50.38,TRADE
VIC1,"2014/01/29 16:30:00",6697.01,49.41,TRADE
VIC1,"2014/01/29 17:00:00",6596.53,48.75,TRADE
VIC1,"2014/01/29 17:30:00",6433.25,46.48,TRADE
VIC1,"2014/01/29 18:00:00",6269.1,46.35,TRADE
VIC1,"2014/01/29 18:30:00",6125.4,44.87,TRADE
VIC1,"2014/01/29 19:00:00",5987.08,44.78,TRADE
VIC1,"2014/01/29 19:30:00",5856.69,46.85,TRADE
VIC1,"2014/01/29 20:00:00",5805.34,48.55,TRADE
VIC1,"2014/01/29 20:30:00",5819.33,49.17,TRADE
VIC1,"2014/01/29 21:00:00",5669.97,46.42,TRADE
VIC1,"2014/01/29 21:30:00",5417.87,44.65,TRADE
VIC1,"2014/01/29 22:00:00",5173.03,41.62,TRADE
VIC1,"2014/01/29 22:30:00",5065.12,41.95,TRADE
VIC1,"2014/01/29 23:00:00",5002.73,41.66,TRADE
VIC1,"2014/01/29 23:30:00",5357.48,42.81,TRADE
VIC1,"2014/01/30 00:00:00",5394.6,43.85,TRADE
VIC1,"2014/01/30 00:30:00",4991.22,38.78,TRADE
VIC1,"2014/01/30 01:00:00",4718.02,38.98,TRADE
VIC1,"2014/01/30 01:30:00",4591.66,38.03,TRADE
VIC1,"2014/01/30 02:00:00",4527.28,38.14,TRADE
VIC1,"2014/01/30 02:30:00",4427.97,38.15,TRADE
VIC1,"2014/01/30 03:00:00",4358.72,35.89,TRADE
VIC1,"2014/01/30 03:30:00",4376.34,38.17,TRADE
VIC1,"2014/01/30 04:00:00",4431.03,38.2,TRADE
VIC1,"2014/01/30 04:30:00",4569.61,38.2,TRADE
VIC1,"2014/01/30 05:00:00",4792.02,39.53,TRADE
VIC1,"2014/01/30 05:30:00",5194.72,44.3,TRADE
VIC1,"2014/01/30 06:00:00",5513.06,45.22,TRADE
VIC1,"2014/01/30 06:30:00",5889.62,46.55,TRADE
VIC1,"2014/01/30 07:00:00",6166.72,50.11,TRADE
VIC1,"2014/01/30 07:30:00",6152.41,50.69,TRADE
VIC1,"2014/01/30 08:00:00",6213.94,51.97,TRADE
VIC1,"2014/01/30 08:30:00",6301.06,51.2,TRADE
VIC1,"2014/01/30 09:00:00",6330.35,51.95,TRADE
VIC1,"2014/01/30 09:30:00",6383.56,50.93,TRADE
VIC1,"2014/01/30 10:00:00",6484.93,52.56,TRADE
VIC1,"2014/01/30 10:30:00",6603.6,53.09,TRADE
VIC1,"2014/01/30 11:00:00",6716.28,54.82,TRADE
VIC1,"2014/01/30 11:30:00",6839.76,56.84,TRADE
VIC1,"2014/01/30 12:00:00",6952.71,66.46,TRADE
VIC1,"2014/01/30 12:30:00",7089.5,62.39,TRADE
VIC1,"2014/01/30 13:00:00",7224.53,62.44,TRADE
VIC1,"2014/01/30 13:30:00",7344.62,56.27,TRADE
VIC1,"2014/01/30 14:00:00",7446.74,57.67,TRADE
VIC1,"2014/01/30 14:30:00",7564.04,56.72,TRADE
VIC1,"2014/01/30 15:00:00",7672.81,52.07,TRADE
VIC1,"2014/01/30 15:30:00",7825.78,62.05,TRADE
VIC1,"2014/01/30 16:00:00",7938.1,90.23,TRADE
VIC1,"2014/01/30 16:30:00",7986.77,75.32,TRADE
VIC1,"2014/01/30 17:00:00",7976.92,70.3,TRADE
VIC1,"2014/01/30 17:30:00",7834.97,63.66,TRADE
VIC1,"2014/01/30 18:00:00",7762.84,57.76,TRADE
VIC1,"2014/01/30 18:30:00",7542.37,56.12,TRADE
VIC1,"2014/01/30 19:00:00",7324.96,55.16,TRADE
VIC1,"2014/01/30 19:30:00",7049.41,56.02,TRADE
VIC1,"2014/01/30 20:00:00",6939.72,56.02,TRADE
VIC1,"2014/01/30 20:30:00",6787.14,56.27,TRADE
VIC1,"2014/01/30 21:00:00",6507.88,55.24,TRADE
VIC1,"2014/01/30 21:30:00",6183.72,52.18,TRADE
VIC1,"2014/01/30 22:00:00",5874.58,49.95,TRADE
VIC1,"2014/01/30 22:30:00",5715.41,49.35,TRADE
VIC1,"2014/01/30 23:00:00",5566.99,50.31,TRADE
VIC1,"2014/01/30 23:30:00",5765.17,51.48,TRADE
VIC1,"2014/01/31 00:00:00",5711.79,54.61,TRADE
VIC1,"2014/01/31 00:30:00",5335.57,51.1,TRADE
VIC1,"2014/01/31 01:00:00",5126.92,47.47,TRADE
VIC1,"2014/01/31 01:30:00",5028.06,42.26,TRADE
VIC1,"2014/01/31 02:00:00",4918.93,41.27,TRADE
VIC1,"2014/01/31 02:30:00",4807.18,40.92,TRADE
VIC1,"2014/01/31 03:00:00",4742.56,40.97,TRADE
VIC1,"2014/01/31 03:30:00",4701.77,40.91,TRADE
VIC1,"2014/01/31 04:00:00",4739.95,41.14,TRADE
VIC1,"2014/01/31 04:30:00",4921.87,46.11,TRADE
VIC1,"2014/01/31 05:00:00",5064.94,48.63,TRADE
VIC1,"2014/01/31 05:30:00",5391.04,56.72,TRADE
VIC1,"2014/01/31 06:00:00",5651.65,71.59,TRADE
VIC1,"2014/01/31 06:30:00",6097.83,50.98,TRADE
VIC1,"2014/01/31 07:00:00",6463.31,55.85,TRADE
VIC1,"2014/01/31 07:30:00",6482.33,54.19,TRADE
VIC1,"2014/01/31 08:00:00",6552.82,54.72,TRADE
VIC1,"2014/01/31 08:30:00",6709.66,55.86,TRADE
VIC1,"2014/01/31 09:00:00",6724.03,57.27,TRADE
VIC1,"2014/01/31 09:30:00",6765.69,58.04,TRADE
VIC1,"2014/01/31 10:00:00",6881.39,57.29,TRADE
VIC1,"2014/01/31 10:30:00",6931.82,56.45,TRADE
VIC1,"2014/01/31 11:00:00",6994.15,57.05,TRADE
VIC1,"2014/01/31 11:30:00",7070.41,65.59,TRADE
VIC1,"2014/01/31 12:00:00",7126.19,58.21,TRADE
VIC1,"2014/01/31 12:30:00",7166.95,56.4,TRADE
VIC1,"2014/01/31 13:00:00",7281.15,54.61,TRADE
VIC1,"2014/01/31 13:30:00",7372.81,42.32,TRADE
VIC1,"2014/01/31 14:00:00",7492.85,47.17,TRADE
VIC1,"2014/01/31 14:30:00",7439.27,51.36,TRADE
VIC1,"2014/01/31 15:00:00",7529.87,56.11,TRADE
VIC1,"2014/01/31 15:30:00",7668.96,94.8,TRADE
VIC1,"2014/01/31 16:00:00",7721.6,107.38,TRADE
VIC1,"2014/01/31 16:30:00",7737.1,79.85,TRADE
VIC1,"2014/01/31 17:00:00",7609.37,62.58,TRADE
VIC1,"2014/01/31 17:30:00",7398.99,55.79,TRADE
VIC1,"2014/01/31 18:00:00",7171.77,56.96,TRADE
VIC1,"2014/01/31 18:30:00",6919.34,54.15,TRADE
VIC1,"2014/01/31 19:00:00",6706.81,55.14,TRADE
VIC1,"2014/01/31 19:30:00",6439.14,55.37,TRADE
VIC1,"2014/01/31 20:00:00",6335.44,53.89,TRADE
VIC1,"2014/01/31 20:30:00",6277.58,52.87,TRADE
VIC1,"2014/01/31 21:00:00",6073.67,51.66,TRADE
VIC1,"2014/01/31 21:30:00",5796.86,54.96,TRADE
VIC1,"2014/01/31 22:00:00",5562.22,48.95,TRADE
VIC1,"2014/01/31 22:30:00",5425.44,49.18,TRADE
VIC1,"2014/01/31 23:00:00",5393.45,45.58,TRADE
VIC1,"2014/01/31 23:30:00",5686.17,45.16,TRADE
VIC1,"2014/02/01 00:00:00",5572.9,47.29,TRADE
