REGION,SETTLEMENTDATE,TOTALDEMAND,RRP,PERIODTYPE
TAS1,"2007/10/01 00:30:00",1020.66,31.78,TRADE
TAS1,"2007/10/01 01:00:00",1013.47,29.7,TRADE
TAS1,"2007/10/01 01:30:00",998.35,34.88,TRADE
TAS1,"2007/10/01 02:00:00",998.41,28.41,TRADE
TAS1,"2007/10/01 02:30:00",993.41,18.59,TRADE
TAS1,"2007/10/01 03:00:00",990.56,19.6,TRADE
TAS1,"2007/10/01 03:30:00",998.97,15.05,TRADE
TAS1,"2007/10/01 04:00:00",1002.61,19.63,TRADE
TAS1,"2007/10/01 04:30:00",1006.84,13.06,TRADE
TAS1,"2007/10/01 05:00:00",1019.66,15.68,TRADE
TAS1,"2007/10/01 05:30:00",1036.1,12.02,TRADE
TAS1,"2007/10/01 06:00:00",1079.52,3.31,TRADE
TAS1,"2007/10/01 06:30:00",1163.75,15.66,TRADE
TAS1,"2007/10/01 07:00:00",1260.18,26.02,TRADE
TAS1,"2007/10/01 07:30:00",1364.36,44.03,TRADE
TAS1,"2007/10/01 08:00:00",1406.47,38.57,TRADE
TAS1,"2007/10/01 08:30:00",1412.99,35.25,TRADE
TAS1,"2007/10/01 09:00:00",1404.49,55.24,TRADE
TAS1,"2007/10/01 09:30:00",1398.3,55.24,TRADE
TAS1,"2007/10/01 10:00:00",1352.49,54.16,TRADE
TAS1,"2007/10/01 10:30:00",1326.47,55.08,TRADE
TAS1,"2007/10/01 11:00:00",1304.19,56.02,TRADE
TAS1,"2007/10/01 11:30:00",1269.64,53.21,TRADE
TAS1,"2007/10/01 12:00:00",1288.64,54.89,TRADE
TAS1,"2007/10/01 12:30:00",1294.95,50.91,TRADE
TAS1,"2007/10/01 13:00:00",1279.98,39.99,TRADE
TAS1,"2007/10/01 13:30:00",1287.88,40.02,TRADE
TAS1,"2007/10/01 14:00:00",1265.88,32.16,TRADE
TAS1,"2007/10/01 14:30:00",1261.16,27.42,TRADE
TAS1,"2007/10/01 15:00:00",1261.08,26.13,TRADE
TAS1,"2007/10/01 15:30:00",1254.06,25.86,TRADE
TAS1,"2007/10/01 16:00:00",1255.77,26.32,TRADE
TAS1,"2007/10/01 16:30:00",1279,28.74,TRADE
TAS1,"2007/10/01 17:00:00",1302.29,30.15,TRADE
TAS1,"2007/10/01 17:30:00",1335.74,35.79,TRADE
TAS1,"2007/10/01 18:00:00",1397.49,41.5,TRADE
TAS1,"2007/10/01 18:30:00",1439.55,53.22,TRADE
TAS1,"2007/10/01 19:00:00",1484.52,57.33,TRADE
TAS1,"2007/10/01 19:30:00",1469.71,50.07,TRADE
TAS1,"2007/10/01 20:00:00",1443.51,47.76,TRADE
TAS1,"2007/10/01 20:30:00",1431.52,41.75,TRADE
TAS1,"2007/10/01 21:00:00",1404.11,39.34,TRADE
TAS1,"2007/10/01 21:30:00",1371.15,37.02,TRADE
TAS1,"2007/10/01 22:00:00",1317.92,28.84,TRADE
TAS1,"2007/10/01 22:30:00",1239.96,14.31,TRADE
TAS1,"2007/10/01 23:00:00",1174.18,2.34,TRADE
TAS1,"2007/10/01 23:30:00",1126.3,46.62,TRADE
TAS1,"2007/10/02 00:00:00",1091.29,37.86,TRADE
TAS1,"2007/10/02 00:30:00",1065.91,31.09,TRADE
TAS1,"2007/10/02 01:00:00",1043.06,27.51,TRADE
TAS1,"2007/10/02 01:30:00",1031.78,31.37,TRADE
TAS1,"2007/10/02 02:00:00",1030.23,28.02,TRADE
TAS1,"2007/10/02 02:30:00",1040.34,27.87,TRADE
TAS1,"2007/10/02 03:00:00",1040.61,27.51,TRADE
TAS1,"2007/10/02 03:30:00",1050.11,26.16,TRADE
TAS1,"2007/10/02 04:00:00",1049.15,22.85,TRADE
TAS1,"2007/10/02 04:30:00",1059.53,17.5,TRADE
TAS1,"2007/10/02 05:00:00",1072.82,21.11,TRADE
TAS1,"2007/10/02 05:30:00",1115.03,35.15,TRADE
TAS1,"2007/10/02 06:00:00",1164.42,51.2,TRADE
TAS1,"2007/10/02 06:30:00",1244.38,17.63,TRADE
TAS1,"2007/10/02 07:00:00",1354.26,27.33,TRADE
TAS1,"2007/10/02 07:30:00",1466.48,34.23,TRADE
TAS1,"2007/10/02 08:00:00",1493.65,41.92,TRADE
TAS1,"2007/10/02 08:30:00",1489.63,44.63,TRADE
TAS1,"2007/10/02 09:00:00",1452.26,40.8,TRADE
TAS1,"2007/10/02 09:30:00",1407.75,42.09,TRADE
TAS1,"2007/10/02 10:00:00",1358.36,33.04,TRADE
TAS1,"2007/10/02 10:30:00",1326.8,22.79,TRADE
TAS1,"2007/10/02 11:00:00",1305.72,19.24,TRADE
TAS1,"2007/10/02 11:30:00",1269.82,26.62,TRADE
TAS1,"2007/10/02 12:00:00",1247.9,41.58,TRADE
TAS1,"2007/10/02 12:30:00",1229.1,17.15,TRADE
TAS1,"2007/10/02 13:00:00",1219.66,19.65,TRADE
TAS1,"2007/10/02 13:30:00",1215.97,58.3,TRADE
TAS1,"2007/10/02 14:00:00",1213.14,67.63,TRADE
TAS1,"2007/10/02 14:30:00",1219.6,68.63,TRADE
TAS1,"2007/10/02 15:00:00",1213.84,67.63,TRADE
TAS1,"2007/10/02 15:30:00",1215.18,67.97,TRADE
TAS1,"2007/10/02 16:00:00",1222.86,60.55,TRADE
TAS1,"2007/10/02 16:30:00",1222.5,45.65,TRADE
TAS1,"2007/10/02 17:00:00",1262.93,51.23,TRADE
TAS1,"2007/10/02 17:30:00",1300.76,51.22,TRADE
TAS1,"2007/10/02 18:00:00",1355.54,59.49,TRADE
TAS1,"2007/10/02 18:30:00",1381.94,47.94,TRADE
TAS1,"2007/10/02 19:00:00",1387.83,46.47,TRADE
TAS1,"2007/10/02 19:30:00",1391.33,49.42,TRADE
TAS1,"2007/10/02 20:00:00",1372.43,45.3,TRADE
TAS1,"2007/10/02 20:30:00",1358.79,51.17,TRADE
TAS1,"2007/10/02 21:00:00",1325.22,8.99,TRADE
TAS1,"2007/10/02 21:30:00",1291.99,1.65,TRADE
TAS1,"2007/10/02 22:00:00",1249.39,4.58,TRADE
TAS1,"2007/10/02 22:30:00",1201.22,-9.12,TRADE
TAS1,"2007/10/02 23:00:00",1140.29,-3.37,TRADE
TAS1,"2007/10/02 23:30:00",1106.9,54.58,TRADE
TAS1,"2007/10/03 00:00:00",1066.28,36.18,TRADE
TAS1,"2007/10/03 00:30:00",1026.59,27.6,TRADE
TAS1,"2007/10/03 01:00:00",1009.06,25.68,TRADE
TAS1,"2007/10/03 01:30:00",998.82,28.66,TRADE
TAS1,"2007/10/03 02:00:00",995.94,25.74,TRADE
TAS1,"2007/10/03 02:30:00",991.3,23.96,TRADE
TAS1,"2007/10/03 03:00:00",977.26,20.91,TRADE
TAS1,"2007/10/03 03:30:00",982.72,16.71,TRADE
TAS1,"2007/10/03 04:00:00",986.39,14.14,TRADE
TAS1,"2007/10/03 04:30:00",984.53,15.6,TRADE
TAS1,"2007/10/03 05:00:00",995.64,17.29,TRADE
TAS1,"2007/10/03 05:30:00",1023.86,30.82,TRADE
TAS1,"2007/10/03 06:00:00",1049.95,35.33,TRADE
TAS1,"2007/10/03 06:30:00",1122.57,24.07,TRADE
TAS1,"2007/10/03 07:00:00",1212.66,4.49,TRADE
TAS1,"2007/10/03 07:30:00",1318.81,16.61,TRADE
TAS1,"2007/10/03 08:00:00",1351.2,23.15,TRADE
TAS1,"2007/10/03 08:30:00",1334.42,13.39,TRADE
TAS1,"2007/10/03 09:00:00",1319.03,11.48,TRADE
TAS1,"2007/10/03 09:30:00",1286.07,22.13,TRADE
TAS1,"2007/10/03 10:00:00",1266.54,28.12,TRADE
TAS1,"2007/10/03 10:30:00",1242.6,26.46,TRADE
TAS1,"2007/10/03 11:00:00",1223.23,18.53,TRADE
TAS1,"2007/10/03 11:30:00",1224.71,19.46,TRADE
TAS1,"2007/10/03 12:00:00",1220.98,20.93,TRADE
TAS1,"2007/10/03 12:30:00",1243.74,14.15,TRADE
TAS1,"2007/10/03 13:00:00",1266.71,42.56,TRADE
TAS1,"2007/10/03 13:30:00",1244.46,53.46,TRADE
TAS1,"2007/10/03 14:00:00",1248.22,51.48,TRADE
TAS1,"2007/10/03 14:30:00",1257.06,50.73,TRADE
TAS1,"2007/10/03 15:00:00",1257.7,52.43,TRADE
TAS1,"2007/10/03 15:30:00",1270.48,51.65,TRADE
TAS1,"2007/10/03 16:00:00",1285.04,53.29,TRADE
TAS1,"2007/10/03 16:30:00",1307.62,54.61,TRADE
TAS1,"2007/10/03 17:00:00",1340.06,54.32,TRADE
TAS1,"2007/10/03 17:30:00",1376.85,54.33,TRADE
TAS1,"2007/10/03 18:00:00",1414.6,56.08,TRADE
TAS1,"2007/10/03 18:30:00",1460.43,62.35,TRADE
TAS1,"2007/10/03 19:00:00",1495.87,75.65,TRADE
TAS1,"2007/10/03 19:30:00",1466.06,54.66,TRADE
TAS1,"2007/10/03 20:00:00",1454.12,70.27,TRADE
TAS1,"2007/10/03 20:30:00",1442.81,39.67,TRADE
TAS1,"2007/10/03 21:00:00",1415.48,13.02,TRADE
TAS1,"2007/10/03 21:30:00",1385.44,14.27,TRADE
TAS1,"2007/10/03 22:00:00",1325.29,1.51,TRADE
TAS1,"2007/10/03 22:30:00",1243.47,33.51,TRADE
TAS1,"2007/10/03 23:00:00",1185.9,1.79,TRADE
TAS1,"2007/10/03 23:30:00",1118.25,2.16,TRADE
TAS1,"2007/10/04 00:00:00",1085.03,26.87,TRADE
TAS1,"2007/10/04 00:30:00",1071.01,48.57,TRADE
TAS1,"2007/10/04 01:00:00",1050.16,31.02,TRADE
TAS1,"2007/10/04 01:30:00",1042.93,27.68,TRADE
TAS1,"2007/10/04 02:00:00",1045.53,26.44,TRADE
TAS1,"2007/10/04 02:30:00",1036.01,25.18,TRADE
TAS1,"2007/10/04 03:00:00",1030.44,22.15,TRADE
TAS1,"2007/10/04 03:30:00",1034.66,18.22,TRADE
TAS1,"2007/10/04 04:00:00",1037.19,17.93,TRADE
TAS1,"2007/10/04 04:30:00",1043.77,18.32,TRADE
TAS1,"2007/10/04 05:00:00",1056.6,19.05,TRADE
TAS1,"2007/10/04 05:30:00",1077.39,24.51,TRADE
TAS1,"2007/10/04 06:00:00",1111.09,25.83,TRADE
TAS1,"2007/10/04 06:30:00",1194.6,29.96,TRADE
TAS1,"2007/10/04 07:00:00",1276.15,23.39,TRADE
TAS1,"2007/10/04 07:30:00",1362.85,6.45,TRADE
TAS1,"2007/10/04 08:00:00",1399.71,12.59,TRADE
TAS1,"2007/10/04 08:30:00",1396.62,10.96,TRADE
TAS1,"2007/10/04 09:00:00",1354.3,-3.6,TRADE
TAS1,"2007/10/04 09:30:00",1320.07,40.47,TRADE
TAS1,"2007/10/04 10:00:00",1270.21,35.39,TRADE
TAS1,"2007/10/04 10:30:00",1236.96,26.44,TRADE
TAS1,"2007/10/04 11:00:00",1205.64,38.3,TRADE
TAS1,"2007/10/04 11:30:00",1210.35,37.73,TRADE
TAS1,"2007/10/04 12:00:00",1200.59,37.17,TRADE
TAS1,"2007/10/04 12:30:00",1198.7,38.21,TRADE
TAS1,"2007/10/04 13:00:00",1187.64,37.1,TRADE
TAS1,"2007/10/04 13:30:00",1192.28,38.28,TRADE
TAS1,"2007/10/04 14:00:00",1199.54,38.51,TRADE
TAS1,"2007/10/04 14:30:00",1214.17,41.41,TRADE
TAS1,"2007/10/04 15:00:00",1197.35,39.98,TRADE
TAS1,"2007/10/04 15:30:00",1193.99,39.66,TRADE
TAS1,"2007/10/04 16:00:00",1222.26,40.6,TRADE
TAS1,"2007/10/04 16:30:00",1255.46,44.41,TRADE
TAS1,"2007/10/04 17:00:00",1292.62,41.32,TRADE
TAS1,"2007/10/04 17:30:00",1313.66,43.79,TRADE
TAS1,"2007/10/04 18:00:00",1364.64,46.3,TRADE
TAS1,"2007/10/04 18:30:00",1397.48,47.24,TRADE
TAS1,"2007/10/04 19:00:00",1419.07,52.58,TRADE
TAS1,"2007/10/04 19:30:00",1410.54,46.31,TRADE
TAS1,"2007/10/04 20:00:00",1410.89,46.3,TRADE
TAS1,"2007/10/04 20:30:00",1404.19,55.9,TRADE
TAS1,"2007/10/04 21:00:00",1378.58,39.94,TRADE
TAS1,"2007/10/04 21:30:00",1347.98,39.67,TRADE
TAS1,"2007/10/04 22:00:00",1302.06,32.71,TRADE
TAS1,"2007/10/04 22:30:00",1236.36,34.48,TRADE
TAS1,"2007/10/04 23:00:00",1175.79,-2.05,TRADE
TAS1,"2007/10/04 23:30:00",1125.35,52.94,TRADE
TAS1,"2007/10/05 00:00:00",1090.8,33.13,TRADE
TAS1,"2007/10/05 00:30:00",1067.04,29.13,TRADE
TAS1,"2007/10/05 01:00:00",1050.56,27.93,TRADE
TAS1,"2007/10/05 01:30:00",1036.01,29.15,TRADE
TAS1,"2007/10/05 02:00:00",1028.59,26.81,TRADE
TAS1,"2007/10/05 02:30:00",1028.58,25.68,TRADE
TAS1,"2007/10/05 03:00:00",1025.81,25.56,TRADE
TAS1,"2007/10/05 03:30:00",1025.7,30.86,TRADE
TAS1,"2007/10/05 04:00:00",1030.5,30,TRADE
TAS1,"2007/10/05 04:30:00",1041.29,20.51,TRADE
TAS1,"2007/10/05 05:00:00",1049.91,22.53,TRADE
TAS1,"2007/10/05 05:30:00",1078.71,32,TRADE
TAS1,"2007/10/05 06:00:00",1107.08,25.25,TRADE
TAS1,"2007/10/05 06:30:00",1191.22,20.64,TRADE
TAS1,"2007/10/05 07:00:00",1280.74,11.32,TRADE
TAS1,"2007/10/05 07:30:00",1387.38,20.89,TRADE
TAS1,"2007/10/05 08:00:00",1420.78,29.12,TRADE
TAS1,"2007/10/05 08:30:00",1445.27,33.7,TRADE
TAS1,"2007/10/05 09:00:00",1416.1,16.96,TRADE
TAS1,"2007/10/05 09:30:00",1381.3,28.34,TRADE
TAS1,"2007/10/05 10:00:00",1345.02,46.3,TRADE
TAS1,"2007/10/05 10:30:00",1306.6,46.3,TRADE
TAS1,"2007/10/05 11:00:00",1283.03,46.3,TRADE
TAS1,"2007/10/05 11:30:00",1255.24,40.61,TRADE
TAS1,"2007/10/05 12:00:00",1249.2,40.33,TRADE
TAS1,"2007/10/05 12:30:00",1241.2,39.71,TRADE
TAS1,"2007/10/05 13:00:00",1223.87,40.11,TRADE
TAS1,"2007/10/05 13:30:00",1213.54,40.96,TRADE
TAS1,"2007/10/05 14:00:00",1228.14,40.63,TRADE
TAS1,"2007/10/05 14:30:00",1241.58,40.27,TRADE
TAS1,"2007/10/05 15:00:00",1234.16,39.67,TRADE
TAS1,"2007/10/05 15:30:00",1247.88,40.7,TRADE
TAS1,"2007/10/05 16:00:00",1246.91,39.1,TRADE
TAS1,"2007/10/05 16:30:00",1284.56,43.17,TRADE
TAS1,"2007/10/05 17:00:00",1300.3,45.08,TRADE
TAS1,"2007/10/05 17:30:00",1336.1,45.28,TRADE
TAS1,"2007/10/05 18:00:00",1360.92,45.95,TRADE
TAS1,"2007/10/05 18:30:00",1394.79,45.03,TRADE
TAS1,"2007/10/05 19:00:00",1407.75,42.43,TRADE
TAS1,"2007/10/05 19:30:00",1358.11,45.44,TRADE
TAS1,"2007/10/05 20:00:00",1329.69,28.54,TRADE
TAS1,"2007/10/05 20:30:00",1350.32,2.31,TRADE
TAS1,"2007/10/05 21:00:00",1335.24,-3.2,TRADE
TAS1,"2007/10/05 21:30:00",1313.01,-16.08,TRADE
TAS1,"2007/10/05 22:00:00",1287.18,-43.36,TRADE
TAS1,"2007/10/05 22:30:00",1245.56,27.21,TRADE
TAS1,"2007/10/05 23:00:00",1206.32,28,TRADE
TAS1,"2007/10/05 23:30:00",1157.93,43.48,TRADE
TAS1,"2007/10/06 00:00:00",1102.94,34.14,TRADE
TAS1,"2007/10/06 00:30:00",1064.47,26.61,TRADE
TAS1,"2007/10/06 01:00:00",1042.19,25.82,TRADE
TAS1,"2007/10/06 01:30:00",1025.04,28.72,TRADE
TAS1,"2007/10/06 02:00:00",1007.74,23.7,TRADE
TAS1,"2007/10/06 02:30:00",993.02,18.71,TRADE
TAS1,"2007/10/06 03:00:00",966.4,16.64,TRADE
TAS1,"2007/10/06 03:30:00",957.99,11.81,TRADE
TAS1,"2007/10/06 04:00:00",963.33,8.92,TRADE
TAS1,"2007/10/06 04:30:00",969.38,9.59,TRADE
TAS1,"2007/10/06 05:00:00",984.78,12.97,TRADE
TAS1,"2007/10/06 05:30:00",993.97,12.85,TRADE
TAS1,"2007/10/06 06:00:00",1009.22,14.82,TRADE
TAS1,"2007/10/06 06:30:00",1042.65,30.38,TRADE
TAS1,"2007/10/06 07:00:00",1076.33,20.72,TRADE
TAS1,"2007/10/06 07:30:00",1103.76,24.23,TRADE
TAS1,"2007/10/06 08:00:00",1151.16,24.49,TRADE
TAS1,"2007/10/06 08:30:00",1189.22,24.96,TRADE
TAS1,"2007/10/06 09:00:00",1217.76,9.31,TRADE
TAS1,"2007/10/06 09:30:00",1230.68,17.99,TRADE
TAS1,"2007/10/06 10:00:00",1228.24,25.33,TRADE
TAS1,"2007/10/06 10:30:00",1222.2,32.69,TRADE
TAS1,"2007/10/06 11:00:00",1203.2,33.99,TRADE
TAS1,"2007/10/06 11:30:00",1183.57,32.66,TRADE
TAS1,"2007/10/06 12:00:00",1164.19,35.17,TRADE
TAS1,"2007/10/06 12:30:00",1157.61,33.2,TRADE
TAS1,"2007/10/06 13:00:00",1143.01,27.92,TRADE
TAS1,"2007/10/06 13:30:00",1139.57,26.78,TRADE
TAS1,"2007/10/06 14:00:00",1126.89,25.44,TRADE
TAS1,"2007/10/06 14:30:00",1139.91,26.06,TRADE
TAS1,"2007/10/06 15:00:00",1153.5,31.33,TRADE
TAS1,"2007/10/06 15:30:00",1159.38,29.57,TRADE
TAS1,"2007/10/06 16:00:00",1167.47,28.23,TRADE
TAS1,"2007/10/06 16:30:00",1191.23,24.08,TRADE
TAS1,"2007/10/06 17:00:00",1206.11,24.61,TRADE
TAS1,"2007/10/06 17:30:00",1248.11,25.27,TRADE
TAS1,"2007/10/06 18:00:00",1293.72,21.68,TRADE
TAS1,"2007/10/06 18:30:00",1338.88,17.73,TRADE
TAS1,"2007/10/06 19:00:00",1363.86,27.93,TRADE
TAS1,"2007/10/06 19:30:00",1359.07,20.63,TRADE
TAS1,"2007/10/06 20:00:00",1342.54,13.18,TRADE
TAS1,"2007/10/06 20:30:00",1314.78,14.98,TRADE
TAS1,"2007/10/06 21:00:00",1301.37,12.13,TRADE
TAS1,"2007/10/06 21:30:00",1287.84,23.41,TRADE
TAS1,"2007/10/06 22:00:00",1259.95,26.88,TRADE
TAS1,"2007/10/06 22:30:00",1226.09,29,TRADE
TAS1,"2007/10/06 23:00:00",1188.71,26.88,TRADE
TAS1,"2007/10/06 23:30:00",1132.85,32.91,TRADE
TAS1,"2007/10/07 00:00:00",1109.03,27.75,TRADE
TAS1,"2007/10/07 00:30:00",1100.08,38.04,TRADE
TAS1,"2007/10/07 01:00:00",1084.72,27.86,TRADE
TAS1,"2007/10/07 01:30:00",1071.99,31,TRADE
TAS1,"2007/10/07 02:00:00",1032.35,26.99,TRADE
TAS1,"2007/10/07 02:30:00",1022.41,26.08,TRADE
TAS1,"2007/10/07 03:00:00",1027.85,25.12,TRADE
TAS1,"2007/10/07 03:30:00",1013.54,29.36,TRADE
TAS1,"2007/10/07 04:00:00",1029.43,18.41,TRADE
TAS1,"2007/10/07 04:30:00",1023.63,14.64,TRADE
TAS1,"2007/10/07 05:00:00",1024.93,15.38,TRADE
TAS1,"2007/10/07 05:30:00",1052.12,16.58,TRADE
TAS1,"2007/10/07 06:00:00",1052.28,15.83,TRADE
TAS1,"2007/10/07 06:30:00",1089,16.43,TRADE
TAS1,"2007/10/07 07:00:00",1118.59,6.68,TRADE
TAS1,"2007/10/07 07:30:00",1127.75,1.18,TRADE
TAS1,"2007/10/07 08:00:00",1161.78,-7.65,TRADE
TAS1,"2007/10/07 08:30:00",1211,25.51,TRADE
TAS1,"2007/10/07 09:00:00",1222.34,25.69,TRADE
TAS1,"2007/10/07 09:30:00",1236.22,25.4,TRADE
TAS1,"2007/10/07 10:00:00",1231.81,24.99,TRADE
TAS1,"2007/10/07 10:30:00",1212.79,25.3,TRADE
TAS1,"2007/10/07 11:00:00",1199.96,27.38,TRADE
TAS1,"2007/10/07 11:30:00",1190.15,26.96,TRADE
TAS1,"2007/10/07 12:00:00",1185.15,24.87,TRADE
TAS1,"2007/10/07 12:30:00",1164.74,24.79,TRADE
TAS1,"2007/10/07 13:00:00",1148.38,26.28,TRADE
TAS1,"2007/10/07 13:30:00",1137.95,24.23,TRADE
TAS1,"2007/10/07 14:00:00",1134.94,23.29,TRADE
TAS1,"2007/10/07 14:30:00",1146.69,23.32,TRADE
TAS1,"2007/10/07 15:00:00",1148.81,23.39,TRADE
TAS1,"2007/10/07 15:30:00",1160.62,23.61,TRADE
TAS1,"2007/10/07 16:00:00",1164.36,25.15,TRADE
TAS1,"2007/10/07 16:30:00",1187.92,38.96,TRADE
TAS1,"2007/10/07 17:00:00",1204.7,24.8,TRADE
TAS1,"2007/10/07 17:30:00",1228.72,25.05,TRADE
TAS1,"2007/10/07 18:00:00",1266.85,15.11,TRADE
TAS1,"2007/10/07 18:30:00",1295.06,16.01,TRADE
TAS1,"2007/10/07 19:00:00",1334.33,29.76,TRADE
TAS1,"2007/10/07 19:30:00",1352.56,27.3,TRADE
TAS1,"2007/10/07 20:00:00",1340.86,22.42,TRADE
TAS1,"2007/10/07 20:30:00",1329.06,22.47,TRADE
TAS1,"2007/10/07 21:00:00",1292.3,11.47,TRADE
TAS1,"2007/10/07 21:30:00",1246.13,23.35,TRADE
TAS1,"2007/10/07 22:00:00",1203.31,26.5,TRADE
TAS1,"2007/10/07 22:30:00",1119.91,28.11,TRADE
TAS1,"2007/10/07 23:00:00",1127.71,28.14,TRADE
TAS1,"2007/10/07 23:30:00",1091.49,27.87,TRADE
TAS1,"2007/10/08 00:00:00",1067.14,29.37,TRADE
TAS1,"2007/10/08 00:30:00",1043.28,24.55,TRADE
TAS1,"2007/10/08 01:00:00",1028.89,7.19,TRADE
TAS1,"2007/10/08 01:30:00",1031.37,7.12,TRADE
TAS1,"2007/10/08 02:00:00",1038.23,11.63,TRADE
TAS1,"2007/10/08 02:30:00",1030.11,11.6,TRADE
TAS1,"2007/10/08 03:00:00",1041.18,8.93,TRADE
TAS1,"2007/10/08 03:30:00",1060.06,5.8,TRADE
TAS1,"2007/10/08 04:00:00",1069.08,10.46,TRADE
TAS1,"2007/10/08 04:30:00",1085.93,11.52,TRADE
TAS1,"2007/10/08 05:00:00",1118.19,13.49,TRADE
TAS1,"2007/10/08 05:30:00",1206.99,41.8,TRADE
TAS1,"2007/10/08 06:00:00",1287.26,56.29,TRADE
TAS1,"2007/10/08 06:30:00",1412.6,79.55,TRADE
TAS1,"2007/10/08 07:00:00",1472.93,56.98,TRADE
TAS1,"2007/10/08 07:30:00",1459.32,46.3,TRADE
TAS1,"2007/10/08 08:00:00",1445.4,46.3,TRADE
TAS1,"2007/10/08 08:30:00",1407.03,41,TRADE
TAS1,"2007/10/08 09:00:00",1385.74,53.93,TRADE
TAS1,"2007/10/08 09:30:00",1351.61,46.47,TRADE
TAS1,"2007/10/08 10:00:00",1314.4,46.3,TRADE
TAS1,"2007/10/08 10:30:00",1296.05,46.3,TRADE
TAS1,"2007/10/08 11:00:00",1281.11,46.3,TRADE
TAS1,"2007/10/08 11:30:00",1273.1,46.3,TRADE
TAS1,"2007/10/08 12:00:00",1252.2,46.3,TRADE
TAS1,"2007/10/08 12:30:00",1238.81,46.3,TRADE
TAS1,"2007/10/08 13:00:00",1232.61,46.3,TRADE
TAS1,"2007/10/08 13:30:00",1232.18,46.3,TRADE
TAS1,"2007/10/08 14:00:00",1228.3,46.3,TRADE
TAS1,"2007/10/08 14:30:00",1245.1,46.3,TRADE
TAS1,"2007/10/08 15:00:00",1253.56,46.3,TRADE
TAS1,"2007/10/08 15:30:00",1258.68,46.3,TRADE
TAS1,"2007/10/08 16:00:00",1271.46,46.3,TRADE
TAS1,"2007/10/08 16:30:00",1276.87,46.3,TRADE
TAS1,"2007/10/08 17:00:00",1293.47,46.3,TRADE
TAS1,"2007/10/08 17:30:00",1305.96,46.3,TRADE
TAS1,"2007/10/08 18:00:00",1328.23,46.3,TRADE
TAS1,"2007/10/08 18:30:00",1340.32,46.46,TRADE
TAS1,"2007/10/08 19:00:00",1379.97,54.31,TRADE
TAS1,"2007/10/08 19:30:00",1386.72,51.05,TRADE
TAS1,"2007/10/08 20:00:00",1365.76,46.58,TRADE
TAS1,"2007/10/08 20:30:00",1337.83,42.7,TRADE
TAS1,"2007/10/08 21:00:00",1281.79,31.14,TRADE
TAS1,"2007/10/08 21:30:00",1256.43,26.77,TRADE
TAS1,"2007/10/08 22:00:00",1210.81,20.83,TRADE
TAS1,"2007/10/08 22:30:00",1157.7,18.48,TRADE
TAS1,"2007/10/08 23:00:00",1117.39,6.33,TRADE
TAS1,"2007/10/08 23:30:00",1077.64,38.46,TRADE
TAS1,"2007/10/09 00:00:00",1058.76,36.37,TRADE
TAS1,"2007/10/09 00:30:00",1035.6,30.35,TRADE
TAS1,"2007/10/09 01:00:00",1020.22,27.13,TRADE
TAS1,"2007/10/09 01:30:00",1011.74,37.23,TRADE
TAS1,"2007/10/09 02:00:00",1022.74,26.87,TRADE
TAS1,"2007/10/09 02:30:00",1017.29,35.04,TRADE
TAS1,"2007/10/09 03:00:00",1011.6,24.84,TRADE
TAS1,"2007/10/09 03:30:00",1028.41,22.11,TRADE
TAS1,"2007/10/09 04:00:00",1053.1,20.57,TRADE
TAS1,"2007/10/09 04:30:00",1076.89,18.31,TRADE
TAS1,"2007/10/09 05:00:00",1111.69,11.11,TRADE
TAS1,"2007/10/09 05:30:00",1194.81,24.26,TRADE
TAS1,"2007/10/09 06:00:00",1285.42,33.74,TRADE
TAS1,"2007/10/09 06:30:00",1412.51,46.3,TRADE
TAS1,"2007/10/09 07:00:00",1464.2,47.65,TRADE
TAS1,"2007/10/09 07:30:00",1453.65,46.3,TRADE
TAS1,"2007/10/09 08:00:00",1414.47,46.3,TRADE
TAS1,"2007/10/09 08:30:00",1363.3,49.11,TRADE
TAS1,"2007/10/09 09:00:00",1333.5,51.11,TRADE
TAS1,"2007/10/09 09:30:00",1305.77,51.82,TRADE
TAS1,"2007/10/09 10:00:00",1285.45,54.33,TRADE
TAS1,"2007/10/09 10:30:00",1267.46,46.3,TRADE
TAS1,"2007/10/09 11:00:00",1247.69,46.3,TRADE
TAS1,"2007/10/09 11:30:00",1172.43,39.4,TRADE
TAS1,"2007/10/09 12:00:00",1206.54,42.94,TRADE
TAS1,"2007/10/09 12:30:00",1199.15,46.3,TRADE
TAS1,"2007/10/09 13:00:00",1162.62,44.4,TRADE
TAS1,"2007/10/09 13:30:00",1164.03,39.81,TRADE
TAS1,"2007/10/09 14:00:00",1190.98,40.56,TRADE
TAS1,"2007/10/09 14:30:00",1204.39,44.79,TRADE
TAS1,"2007/10/09 15:00:00",1218.71,46.3,TRADE
TAS1,"2007/10/09 15:30:00",1218.95,46.3,TRADE
TAS1,"2007/10/09 16:00:00",1227.79,46.3,TRADE
TAS1,"2007/10/09 16:30:00",1245.5,46.3,TRADE
TAS1,"2007/10/09 17:00:00",1264.48,46.3,TRADE
TAS1,"2007/10/09 17:30:00",1275.2,49.17,TRADE
TAS1,"2007/10/09 18:00:00",1286.58,46.3,TRADE
TAS1,"2007/10/09 18:30:00",1321.33,46.3,TRADE
TAS1,"2007/10/09 19:00:00",1370.96,46.3,TRADE
TAS1,"2007/10/09 19:30:00",1380.63,50.05,TRADE
TAS1,"2007/10/09 20:00:00",1369.12,47.38,TRADE
TAS1,"2007/10/09 20:30:00",1352.7,46.3,TRADE
TAS1,"2007/10/09 21:00:00",1319.46,40.19,TRADE
TAS1,"2007/10/09 21:30:00",1273.23,30.14,TRADE
TAS1,"2007/10/09 22:00:00",1214.6,14.41,TRADE
TAS1,"2007/10/09 22:30:00",1157.53,45.62,TRADE
TAS1,"2007/10/09 23:00:00",1119.79,32.62,TRADE
TAS1,"2007/10/09 23:30:00",1093.64,45.51,TRADE
TAS1,"2007/10/10 00:00:00",1079.89,40.09,TRADE
TAS1,"2007/10/10 00:30:00",1071.03,22.08,TRADE
TAS1,"2007/10/10 01:00:00",1059.64,21.14,TRADE
TAS1,"2007/10/10 01:30:00",1049.88,22.09,TRADE
TAS1,"2007/10/10 02:00:00",1051.15,21.4,TRADE
TAS1,"2007/10/10 02:30:00",1051.18,14.89,TRADE
TAS1,"2007/10/10 03:00:00",1048.36,12.95,TRADE
TAS1,"2007/10/10 03:30:00",1050,12.81,TRADE
TAS1,"2007/10/10 04:00:00",1055.31,10.88,TRADE
TAS1,"2007/10/10 04:30:00",1068.06,18.46,TRADE
TAS1,"2007/10/10 05:00:00",1100.55,23.09,TRADE
TAS1,"2007/10/10 05:30:00",1182.41,40.28,TRADE
TAS1,"2007/10/10 06:00:00",1278.89,40.29,TRADE
TAS1,"2007/10/10 06:30:00",1369.36,40.3,TRADE
TAS1,"2007/10/10 07:00:00",1417.57,40.3,TRADE
TAS1,"2007/10/10 07:30:00",1413.38,40.56,TRADE
TAS1,"2007/10/10 08:00:00",1376.95,40.28,TRADE
TAS1,"2007/10/10 08:30:00",1326.68,39.97,TRADE
TAS1,"2007/10/10 09:00:00",1265.35,24.18,TRADE
TAS1,"2007/10/10 09:30:00",1222.02,14.23,TRADE
TAS1,"2007/10/10 10:00:00",1203.32,9.18,TRADE
TAS1,"2007/10/10 10:30:00",1181.41,38.66,TRADE
TAS1,"2007/10/10 11:00:00",1168.25,45.25,TRADE
TAS1,"2007/10/10 11:30:00",1149.73,42.99,TRADE
TAS1,"2007/10/10 12:00:00",1129.19,43.72,TRADE
TAS1,"2007/10/10 12:30:00",1103.79,38.49,TRADE
TAS1,"2007/10/10 13:00:00",1093.46,35.41,TRADE
TAS1,"2007/10/10 13:30:00",1095.79,37.16,TRADE
TAS1,"2007/10/10 14:00:00",1105.97,38.15,TRADE
TAS1,"2007/10/10 14:30:00",1114,37.67,TRADE
TAS1,"2007/10/10 15:00:00",1124.3,40.7,TRADE
TAS1,"2007/10/10 15:30:00",1131.96,35.34,TRADE
TAS1,"2007/10/10 16:00:00",1157.75,40.36,TRADE
TAS1,"2007/10/10 16:30:00",1175.82,41.48,TRADE
TAS1,"2007/10/10 17:00:00",1200.68,34.34,TRADE
TAS1,"2007/10/10 17:30:00",1200.4,1.26,TRADE
TAS1,"2007/10/10 18:00:00",1212.54,49.89,TRADE
TAS1,"2007/10/10 18:30:00",1233.76,54.89,TRADE
TAS1,"2007/10/10 19:00:00",1259.06,55.29,TRADE
TAS1,"2007/10/10 19:30:00",1253.32,54.34,TRADE
TAS1,"2007/10/10 20:00:00",1236.16,56.07,TRADE
TAS1,"2007/10/10 20:30:00",1210.45,37.13,TRADE
TAS1,"2007/10/10 21:00:00",1185.64,35.33,TRADE
TAS1,"2007/10/10 21:30:00",1156.34,30.44,TRADE
TAS1,"2007/10/10 22:00:00",1110,25.74,TRADE
TAS1,"2007/10/10 22:30:00",1052.84,29.37,TRADE
TAS1,"2007/10/10 23:00:00",1018.47,25.12,TRADE
TAS1,"2007/10/10 23:30:00",990.82,33.41,TRADE
TAS1,"2007/10/11 00:00:00",959.08,30.16,TRADE
TAS1,"2007/10/11 00:30:00",939.84,42.09,TRADE
TAS1,"2007/10/11 01:00:00",934.1,49.92,TRADE
TAS1,"2007/10/11 01:30:00",934.12,54.28,TRADE
TAS1,"2007/10/11 02:00:00",935.14,40.75,TRADE
TAS1,"2007/10/11 02:30:00",935.47,26.31,TRADE
TAS1,"2007/10/11 03:00:00",925.36,22.59,TRADE
TAS1,"2007/10/11 03:30:00",927.25,20.33,TRADE
TAS1,"2007/10/11 04:00:00",938.56,19.62,TRADE
TAS1,"2007/10/11 04:30:00",957.57,53.28,TRADE
TAS1,"2007/10/11 05:00:00",1002.94,53.28,TRADE
TAS1,"2007/10/11 05:30:00",1077.68,46.8,TRADE
TAS1,"2007/10/11 06:00:00",1154.38,40.34,TRADE
TAS1,"2007/10/11 06:30:00",1256.46,40.47,TRADE
TAS1,"2007/10/11 07:00:00",1304.65,40.31,TRADE
TAS1,"2007/10/11 07:30:00",1308.42,46.36,TRADE
TAS1,"2007/10/11 08:00:00",1273.55,42.67,TRADE
TAS1,"2007/10/11 08:30:00",1262.94,40.11,TRADE
TAS1,"2007/10/11 09:00:00",1218.07,25.04,TRADE
TAS1,"2007/10/11 09:30:00",1186.15,26.51,TRADE
TAS1,"2007/10/11 10:00:00",1169.92,27.48,TRADE
TAS1,"2007/10/11 10:30:00",1164.36,36.68,TRADE
TAS1,"2007/10/11 11:00:00",1156.22,24.88,TRADE
TAS1,"2007/10/11 11:30:00",1145.42,29.96,TRADE
TAS1,"2007/10/11 12:00:00",1119.33,44.26,TRADE
TAS1,"2007/10/11 12:30:00",1103.81,34.55,TRADE
TAS1,"2007/10/11 13:00:00",1093.92,29.29,TRADE
TAS1,"2007/10/11 13:30:00",1095.48,38.12,TRADE
TAS1,"2007/10/11 14:00:00",1114.22,10.16,TRADE
TAS1,"2007/10/11 14:30:00",1095.34,45.29,TRADE
TAS1,"2007/10/11 15:00:00",1122.72,30.32,TRADE
TAS1,"2007/10/11 15:30:00",1132.89,44.87,TRADE
TAS1,"2007/10/11 16:00:00",1153.48,44.65,TRADE
TAS1,"2007/10/11 16:30:00",1180.22,45.1,TRADE
TAS1,"2007/10/11 17:00:00",1197.9,45.22,TRADE
TAS1,"2007/10/11 17:30:00",1200.8,45.23,TRADE
TAS1,"2007/10/11 18:00:00",1202.66,50.66,TRADE
TAS1,"2007/10/11 18:30:00",1225.09,53.47,TRADE
TAS1,"2007/10/11 19:00:00",1249.8,56.79,TRADE
TAS1,"2007/10/11 19:30:00",1276.43,48.51,TRADE
TAS1,"2007/10/11 20:00:00",1261.79,45.86,TRADE
TAS1,"2007/10/11 20:30:00",1217.68,45.94,TRADE
TAS1,"2007/10/11 21:00:00",1172.8,45.41,TRADE
TAS1,"2007/10/11 21:30:00",1143.85,36.16,TRADE
TAS1,"2007/10/11 22:00:00",1099.7,21.69,TRADE
TAS1,"2007/10/11 22:30:00",1053.24,37.19,TRADE
TAS1,"2007/10/11 23:00:00",1034.24,26.67,TRADE
TAS1,"2007/10/11 23:30:00",1008.69,32.4,TRADE
TAS1,"2007/10/12 00:00:00",965.44,43.33,TRADE
TAS1,"2007/10/12 00:30:00",988.12,28.91,TRADE
TAS1,"2007/10/12 01:00:00",979,23.58,TRADE
TAS1,"2007/10/12 01:30:00",973.05,35.36,TRADE
TAS1,"2007/10/12 02:00:00",954.33,22.4,TRADE
TAS1,"2007/10/12 02:30:00",945.81,17.54,TRADE
TAS1,"2007/10/12 03:00:00",951.64,15.27,TRADE
TAS1,"2007/10/12 03:30:00",963.86,14.36,TRADE
TAS1,"2007/10/12 04:00:00",979.78,15.49,TRADE
TAS1,"2007/10/12 04:30:00",996.62,15.72,TRADE
TAS1,"2007/10/12 05:00:00",1033.34,17.89,TRADE
TAS1,"2007/10/12 05:30:00",1114.71,30.53,TRADE
TAS1,"2007/10/12 06:00:00",1203.09,31.59,TRADE
TAS1,"2007/10/12 06:30:00",1301.27,35.12,TRADE
TAS1,"2007/10/12 07:00:00",1336.22,37.83,TRADE
TAS1,"2007/10/12 07:30:00",1328.3,37.83,TRADE
TAS1,"2007/10/12 08:00:00",1309.83,38.52,TRADE
TAS1,"2007/10/12 08:30:00",1269.18,46.86,TRADE
TAS1,"2007/10/12 09:00:00",1231.9,46.15,TRADE
TAS1,"2007/10/12 09:30:00",1220.98,46.32,TRADE
TAS1,"2007/10/12 10:00:00",1180.61,47.13,TRADE
TAS1,"2007/10/12 10:30:00",1200,46.62,TRADE
TAS1,"2007/10/12 11:00:00",1154.78,46.57,TRADE
TAS1,"2007/10/12 11:30:00",1130.8,46.38,TRADE
TAS1,"2007/10/12 12:00:00",1117.1,46.01,TRADE
TAS1,"2007/10/12 12:30:00",1118.67,46.14,TRADE
TAS1,"2007/10/12 13:00:00",1104.72,45.54,TRADE
TAS1,"2007/10/12 13:30:00",1106.58,45.42,TRADE
TAS1,"2007/10/12 14:00:00",1101.83,45.26,TRADE
TAS1,"2007/10/12 14:30:00",1123.16,45.53,TRADE
TAS1,"2007/10/12 15:00:00",1115.86,45.53,TRADE
TAS1,"2007/10/12 15:30:00",1138.59,45.53,TRADE
TAS1,"2007/10/12 16:00:00",1139.17,45.76,TRADE
TAS1,"2007/10/12 16:30:00",1170.55,46.01,TRADE
TAS1,"2007/10/12 17:00:00",1191.1,45.92,TRADE
TAS1,"2007/10/12 17:30:00",1189.96,42.84,TRADE
TAS1,"2007/10/12 18:00:00",1202.28,43.38,TRADE
TAS1,"2007/10/12 18:30:00",1207.03,36.04,TRADE
TAS1,"2007/10/12 19:00:00",1246.08,36.76,TRADE
TAS1,"2007/10/12 19:30:00",1272.32,47.34,TRADE
TAS1,"2007/10/12 20:00:00",1256.91,46.75,TRADE
TAS1,"2007/10/12 20:30:00",1243.09,52.92,TRADE
TAS1,"2007/10/12 21:00:00",1215.68,33.71,TRADE
TAS1,"2007/10/12 21:30:00",1182.49,39.22,TRADE
TAS1,"2007/10/12 22:00:00",1129.28,26.63,TRADE
TAS1,"2007/10/12 22:30:00",1077.97,40.54,TRADE
TAS1,"2007/10/12 23:00:00",1049.48,41.63,TRADE
TAS1,"2007/10/12 23:30:00",1020.19,42.69,TRADE
TAS1,"2007/10/13 00:00:00",1003.85,37.81,TRADE
TAS1,"2007/10/13 00:30:00",990.48,36.83,TRADE
TAS1,"2007/10/13 01:00:00",995.12,34.13,TRADE
TAS1,"2007/10/13 01:30:00",990.59,42.29,TRADE
TAS1,"2007/10/13 02:00:00",991.2,35.45,TRADE
TAS1,"2007/10/13 02:30:00",991.75,29.96,TRADE
TAS1,"2007/10/13 03:00:00",989.33,28.54,TRADE
TAS1,"2007/10/13 03:30:00",995.68,27.01,TRADE
TAS1,"2007/10/13 04:00:00",997.11,23.42,TRADE
TAS1,"2007/10/13 04:30:00",1008.45,20.27,TRADE
TAS1,"2007/10/13 05:00:00",1024.03,19.94,TRADE
TAS1,"2007/10/13 05:30:00",1057.06,19.52,TRADE
TAS1,"2007/10/13 06:00:00",1088,19.82,TRADE
TAS1,"2007/10/13 06:30:00",1140.09,23.01,TRADE
TAS1,"2007/10/13 07:00:00",1189.67,28.62,TRADE
TAS1,"2007/10/13 07:30:00",1229.21,32.89,TRADE
TAS1,"2007/10/13 08:00:00",1231.72,28.69,TRADE
TAS1,"2007/10/13 08:30:00",1237.08,34.23,TRADE
TAS1,"2007/10/13 09:00:00",1237.42,36.72,TRADE
TAS1,"2007/10/13 09:30:00",1239.1,39.25,TRADE
TAS1,"2007/10/13 10:00:00",1221.09,38.61,TRADE
TAS1,"2007/10/13 10:30:00",1198.48,32.74,TRADE
TAS1,"2007/10/13 11:00:00",1187.4,36.85,TRADE
TAS1,"2007/10/13 11:30:00",1161.72,35.5,TRADE
TAS1,"2007/10/13 12:00:00",1118.88,28.68,TRADE
TAS1,"2007/10/13 12:30:00",1113.79,26.02,TRADE
TAS1,"2007/10/13 13:00:00",1110.67,27.42,TRADE
TAS1,"2007/10/13 13:30:00",1111.65,28.72,TRADE
TAS1,"2007/10/13 14:00:00",1102.68,26.54,TRADE
TAS1,"2007/10/13 14:30:00",1099.77,20.02,TRADE
TAS1,"2007/10/13 15:00:00",1086.54,13.19,TRADE
TAS1,"2007/10/13 15:30:00",1114.92,25.46,TRADE
TAS1,"2007/10/13 16:00:00",1138.79,28.23,TRADE
TAS1,"2007/10/13 16:30:00",1159.87,28.63,TRADE
TAS1,"2007/10/13 17:00:00",1192.15,28.85,TRADE
TAS1,"2007/10/13 17:30:00",1206.32,30.08,TRADE
TAS1,"2007/10/13 18:00:00",1203.46,28.66,TRADE
TAS1,"2007/10/13 18:30:00",1207.03,35.26,TRADE
TAS1,"2007/10/13 19:00:00",1220.4,45.25,TRADE
TAS1,"2007/10/13 19:30:00",1214.77,38.3,TRADE
TAS1,"2007/10/13 20:00:00",1201.43,28.46,TRADE
TAS1,"2007/10/13 20:30:00",1181.28,18.6,TRADE
TAS1,"2007/10/13 21:00:00",1158.24,-1.12,TRADE
TAS1,"2007/10/13 21:30:00",1127.77,2.12,TRADE
TAS1,"2007/10/13 22:00:00",1085.61,-16.09,TRADE
TAS1,"2007/10/13 22:30:00",1056.43,-33.98,TRADE
TAS1,"2007/10/13 23:00:00",1024.54,29.42,TRADE
TAS1,"2007/10/13 23:30:00",996.56,34.49,TRADE
TAS1,"2007/10/14 00:00:00",981.48,30.84,TRADE
TAS1,"2007/10/14 00:30:00",952.53,29.81,TRADE
TAS1,"2007/10/14 01:00:00",945.28,-5.06,TRADE
TAS1,"2007/10/14 01:30:00",932.95,0.71,TRADE
TAS1,"2007/10/14 02:00:00",934.05,-6.51,TRADE
TAS1,"2007/10/14 02:30:00",929.95,-26.29,TRADE
TAS1,"2007/10/14 03:00:00",925.32,-16.16,TRADE
TAS1,"2007/10/14 03:30:00",922.64,-16.26,TRADE
TAS1,"2007/10/14 04:00:00",926.36,-52.79,TRADE
TAS1,"2007/10/14 04:30:00",936.72,-27.31,TRADE
TAS1,"2007/10/14 05:00:00",951.91,-25.75,TRADE
TAS1,"2007/10/14 05:30:00",967.11,-20.81,TRADE
TAS1,"2007/10/14 06:00:00",979.87,-7.92,TRADE
TAS1,"2007/10/14 06:30:00",1016.98,-19,TRADE
TAS1,"2007/10/14 07:00:00",1056.7,-29.01,TRADE
TAS1,"2007/10/14 07:30:00",1099.21,-34.34,TRADE
TAS1,"2007/10/14 08:00:00",1132.14,-19.57,TRADE
TAS1,"2007/10/14 08:30:00",1160.53,-16.33,TRADE
TAS1,"2007/10/14 09:00:00",1164.53,-22.96,TRADE
TAS1,"2007/10/14 09:30:00",1164.7,-3.9,TRADE
TAS1,"2007/10/14 10:00:00",1166.25,26.45,TRADE
TAS1,"2007/10/14 10:30:00",1152.44,29.32,TRADE
TAS1,"2007/10/14 11:00:00",1130.65,30.16,TRADE
TAS1,"2007/10/14 11:30:00",1112.72,25.01,TRADE
TAS1,"2007/10/14 12:00:00",1093.74,22,TRADE
TAS1,"2007/10/14 12:30:00",1066.93,18.79,TRADE
TAS1,"2007/10/14 13:00:00",1059.27,20.47,TRADE
TAS1,"2007/10/14 13:30:00",1060.79,20.43,TRADE
TAS1,"2007/10/14 14:00:00",1055.6,20.48,TRADE
TAS1,"2007/10/14 14:30:00",1067.56,19.07,TRADE
TAS1,"2007/10/14 15:00:00",1062.83,18.45,TRADE
TAS1,"2007/10/14 15:30:00",1067.94,18.37,TRADE
TAS1,"2007/10/14 16:00:00",1079.37,18.55,TRADE
TAS1,"2007/10/14 16:30:00",1100.48,19.89,TRADE
TAS1,"2007/10/14 17:00:00",1116.89,19.37,TRADE
TAS1,"2007/10/14 17:30:00",1135.07,18.49,TRADE
TAS1,"2007/10/14 18:00:00",1148.8,20.43,TRADE
TAS1,"2007/10/14 18:30:00",1154.02,24.31,TRADE
TAS1,"2007/10/14 19:00:00",1168.86,26.32,TRADE
TAS1,"2007/10/14 19:30:00",1177.13,26.23,TRADE
TAS1,"2007/10/14 20:00:00",1163.38,25.71,TRADE
TAS1,"2007/10/14 20:30:00",1147.82,25.11,TRADE
TAS1,"2007/10/14 21:00:00",1122.63,23.87,TRADE
TAS1,"2007/10/14 21:30:00",1089.52,21.82,TRADE
TAS1,"2007/10/14 22:00:00",1045.83,18.45,TRADE
TAS1,"2007/10/14 22:30:00",1012.57,12.38,TRADE
TAS1,"2007/10/14 23:00:00",957.05,18.63,TRADE
TAS1,"2007/10/14 23:30:00",934.74,23.92,TRADE
TAS1,"2007/10/15 00:00:00",944.53,20.98,TRADE
TAS1,"2007/10/15 00:30:00",923.18,17.96,TRADE
TAS1,"2007/10/15 01:00:00",920.88,17.32,TRADE
TAS1,"2007/10/15 01:30:00",915.89,16.43,TRADE
TAS1,"2007/10/15 02:00:00",909.73,13.95,TRADE
TAS1,"2007/10/15 02:30:00",915,9.24,TRADE
TAS1,"2007/10/15 03:00:00",910.3,8.59,TRADE
TAS1,"2007/10/15 03:30:00",920.45,8.21,TRADE
TAS1,"2007/10/15 04:00:00",926.52,8.2,TRADE
TAS1,"2007/10/15 04:30:00",949.34,7.85,TRADE
TAS1,"2007/10/15 05:00:00",984.17,8.25,TRADE
TAS1,"2007/10/15 05:30:00",1043.7,9.7,TRADE
TAS1,"2007/10/15 06:00:00",1134.88,34.67,TRADE
TAS1,"2007/10/15 06:30:00",1249.7,89.08,TRADE
TAS1,"2007/10/15 07:00:00",1305.35,66.34,TRADE
TAS1,"2007/10/15 07:30:00",1302.83,48.82,TRADE
TAS1,"2007/10/15 08:00:00",1288.56,49.57,TRADE
TAS1,"2007/10/15 08:30:00",1289.44,49.41,TRADE
TAS1,"2007/10/15 09:00:00",1238.63,43.32,TRADE
TAS1,"2007/10/15 09:30:00",1215.74,33.02,TRADE
TAS1,"2007/10/15 10:00:00",1193.75,33.3,TRADE
TAS1,"2007/10/15 10:30:00",1180.87,33.35,TRADE
TAS1,"2007/10/15 11:00:00",1164.9,33.69,TRADE
TAS1,"2007/10/15 11:30:00",1150.58,35.16,TRADE
TAS1,"2007/10/15 12:00:00",1134.38,32.52,TRADE
TAS1,"2007/10/15 12:30:00",1127.39,32.8,TRADE
TAS1,"2007/10/15 13:00:00",1111.42,31.49,TRADE
TAS1,"2007/10/15 13:30:00",1094.24,40.08,TRADE
TAS1,"2007/10/15 14:00:00",1117.54,42.07,TRADE
TAS1,"2007/10/15 14:30:00",1135.36,42.35,TRADE
TAS1,"2007/10/15 15:00:00",1141.05,42.28,TRADE
TAS1,"2007/10/15 15:30:00",1149.92,42.09,TRADE
TAS1,"2007/10/15 16:00:00",1162.05,42.35,TRADE
TAS1,"2007/10/15 16:30:00",1186.3,42.22,TRADE
TAS1,"2007/10/15 17:00:00",1208.17,41.52,TRADE
TAS1,"2007/10/15 17:30:00",1224.33,41.81,TRADE
TAS1,"2007/10/15 18:00:00",1238.92,34.94,TRADE
TAS1,"2007/10/15 18:30:00",1238.55,33.05,TRADE
TAS1,"2007/10/15 19:00:00",1270.69,48.82,TRADE
TAS1,"2007/10/15 19:30:00",1251.54,45.38,TRADE
TAS1,"2007/10/15 20:00:00",1223.29,28.58,TRADE
TAS1,"2007/10/15 20:30:00",1201.44,26.12,TRADE
TAS1,"2007/10/15 21:00:00",1162.14,25.21,TRADE
TAS1,"2007/10/15 21:30:00",1128.32,24.01,TRADE
TAS1,"2007/10/15 22:00:00",1089.76,19.85,TRADE
TAS1,"2007/10/15 22:30:00",1046.83,19.77,TRADE
TAS1,"2007/10/15 23:00:00",1005.93,15.89,TRADE
TAS1,"2007/10/15 23:30:00",985.73,18,TRADE
TAS1,"2007/10/16 00:00:00",975.38,19.54,TRADE
TAS1,"2007/10/16 00:30:00",963.53,14.21,TRADE
TAS1,"2007/10/16 01:00:00",954.13,9.77,TRADE
TAS1,"2007/10/16 01:30:00",953.04,14.79,TRADE
TAS1,"2007/10/16 02:00:00",951.88,9.08,TRADE
TAS1,"2007/10/16 02:30:00",877.02,7.77,TRADE
TAS1,"2007/10/16 03:00:00",946.75,8.09,TRADE
TAS1,"2007/10/16 03:30:00",962.39,7.86,TRADE
TAS1,"2007/10/16 04:00:00",977.39,7.79,TRADE
TAS1,"2007/10/16 04:30:00",1000.17,7.82,TRADE
TAS1,"2007/10/16 05:00:00",1035.41,7.92,TRADE
TAS1,"2007/10/16 05:30:00",1117.05,8.15,TRADE
TAS1,"2007/10/16 06:00:00",1205.4,37.88,TRADE
TAS1,"2007/10/16 06:30:00",1319.2,69.96,TRADE
TAS1,"2007/10/16 07:00:00",1367.23,67.34,TRADE
TAS1,"2007/10/16 07:30:00",1377.66,49.33,TRADE
TAS1,"2007/10/16 08:00:00",1373.86,50.32,TRADE
TAS1,"2007/10/16 08:30:00",1366.84,9.5,TRADE
TAS1,"2007/10/16 09:00:00",1317.54,-363.25,TRADE
TAS1,"2007/10/16 09:30:00",1293.88,-487.96,TRADE
TAS1,"2007/10/16 10:00:00",1278.64,-301.67,TRADE
TAS1,"2007/10/16 10:30:00",1294.19,47.33,TRADE
TAS1,"2007/10/16 11:00:00",1256.55,-666.29,TRADE
TAS1,"2007/10/16 11:30:00",1250.78,-999.67,TRADE
TAS1,"2007/10/16 12:00:00",1245.56,-999.67,TRADE
TAS1,"2007/10/16 12:30:00",1245.02,-999.68,TRADE
TAS1,"2007/10/16 13:00:00",1234.92,-825.81,TRADE
TAS1,"2007/10/16 13:30:00",1251.29,-158.86,TRADE
TAS1,"2007/10/16 14:00:00",1246.92,-167.47,TRADE
TAS1,"2007/10/16 14:30:00",1263.81,37.85,TRADE
TAS1,"2007/10/16 15:00:00",1290.88,47.34,TRADE
TAS1,"2007/10/16 15:30:00",1281.96,47.33,TRADE
TAS1,"2007/10/16 16:00:00",1290,47.34,TRADE
TAS1,"2007/10/16 16:30:00",1314.16,47.33,TRADE
TAS1,"2007/10/16 17:00:00",1343.16,47.34,TRADE
TAS1,"2007/10/16 17:30:00",1345.76,47.34,TRADE
TAS1,"2007/10/16 18:00:00",1352.78,47.34,TRADE
TAS1,"2007/10/16 18:30:00",1353.27,47.34,TRADE
TAS1,"2007/10/16 19:00:00",1379.34,48.33,TRADE
TAS1,"2007/10/16 19:30:00",1391.54,49.33,TRADE
TAS1,"2007/10/16 20:00:00",1382.43,47.34,TRADE
TAS1,"2007/10/16 20:30:00",1352.44,47.33,TRADE
TAS1,"2007/10/16 21:00:00",1319.02,47.33,TRADE
TAS1,"2007/10/16 21:30:00",1269.33,44.09,TRADE
TAS1,"2007/10/16 22:00:00",1212.19,26.4,TRADE
TAS1,"2007/10/16 22:30:00",1148.93,27.77,TRADE
TAS1,"2007/10/16 23:00:00",1103.44,24.54,TRADE
TAS1,"2007/10/16 23:30:00",1081.67,35.74,TRADE
TAS1,"2007/10/17 00:00:00",1058.93,26.41,TRADE
TAS1,"2007/10/17 00:30:00",1069.1,23.84,TRADE
TAS1,"2007/10/17 01:00:00",1045.5,23.94,TRADE
TAS1,"2007/10/17 01:30:00",1054.88,25.23,TRADE
TAS1,"2007/10/17 02:00:00",1062.46,20.97,TRADE
TAS1,"2007/10/17 02:30:00",1067.2,17.8,TRADE
TAS1,"2007/10/17 03:00:00",1074.6,13.55,TRADE
TAS1,"2007/10/17 03:30:00",1076.65,10.32,TRADE
TAS1,"2007/10/17 04:00:00",1085.85,10.45,TRADE
TAS1,"2007/10/17 04:30:00",1127.29,8.81,TRADE
TAS1,"2007/10/17 05:00:00",1176.98,13.19,TRADE
TAS1,"2007/10/17 05:30:00",1278.68,52.33,TRADE
TAS1,"2007/10/17 06:00:00",1388.45,83.42,TRADE
TAS1,"2007/10/17 06:30:00",1504.61,4501.26,TRADE
TAS1,"2007/10/17 07:00:00",1547.06,4017.4,TRADE
TAS1,"2007/10/17 07:30:00",1513.76,50.83,TRADE
TAS1,"2007/10/17 08:00:00",1488.42,35.44,TRADE
TAS1,"2007/10/17 08:30:00",1431.39,16.94,TRADE
TAS1,"2007/10/17 09:00:00",1390.05,17.72,TRADE
TAS1,"2007/10/17 09:30:00",1337.52,6.14,TRADE
TAS1,"2007/10/17 10:00:00",1314.84,-13.9,TRADE
TAS1,"2007/10/17 10:30:00",1286.44,2.56,TRADE
TAS1,"2007/10/17 11:00:00",1303.95,39.05,TRADE
TAS1,"2007/10/17 11:30:00",1265.02,35.24,TRADE
TAS1,"2007/10/17 12:00:00",1257.73,37.44,TRADE
TAS1,"2007/10/17 12:30:00",1242.5,33.4,TRADE
TAS1,"2007/10/17 13:00:00",1228.41,34.58,TRADE
TAS1,"2007/10/17 13:30:00",1215,36.09,TRADE
TAS1,"2007/10/17 14:00:00",1215.35,36.94,TRADE
TAS1,"2007/10/17 14:30:00",1223.62,33.52,TRADE
TAS1,"2007/10/17 15:00:00",1229.4,32.17,TRADE
TAS1,"2007/10/17 15:30:00",1231.31,32.18,TRADE
TAS1,"2007/10/17 16:00:00",1229.04,31.94,TRADE
TAS1,"2007/10/17 16:30:00",1270.38,32.51,TRADE
TAS1,"2007/10/17 17:00:00",1287.87,36.39,TRADE
TAS1,"2007/10/17 17:30:00",1288.35,37.67,TRADE
TAS1,"2007/10/17 18:00:00",1302.54,33.73,TRADE
TAS1,"2007/10/17 18:30:00",1296.9,31.4,TRADE
TAS1,"2007/10/17 19:00:00",1309.41,39.48,TRADE
TAS1,"2007/10/17 19:30:00",1334.17,38.49,TRADE
TAS1,"2007/10/17 20:00:00",1338.57,32.08,TRADE
TAS1,"2007/10/17 20:30:00",1353.18,34.48,TRADE
TAS1,"2007/10/17 21:00:00",1321.26,31.96,TRADE
TAS1,"2007/10/17 21:30:00",1299.47,26.65,TRADE
TAS1,"2007/10/17 22:00:00",1234.76,22.4,TRADE
TAS1,"2007/10/17 22:30:00",1160.14,26.33,TRADE
TAS1,"2007/10/17 23:00:00",1085.94,23.42,TRADE
TAS1,"2007/10/17 23:30:00",1062.54,29.54,TRADE
TAS1,"2007/10/18 00:00:00",1029.86,24.71,TRADE
TAS1,"2007/10/18 00:30:00",1012.9,21.11,TRADE
TAS1,"2007/10/18 01:00:00",1019.92,14.48,TRADE
TAS1,"2007/10/18 01:30:00",1015.39,19.27,TRADE
TAS1,"2007/10/18 02:00:00",1009.38,17.15,TRADE
TAS1,"2007/10/18 02:30:00",1009.63,11.05,TRADE
TAS1,"2007/10/18 03:00:00",1020.16,8.27,TRADE
TAS1,"2007/10/18 03:30:00",1019.38,7.87,TRADE
TAS1,"2007/10/18 04:00:00",1023.38,7.85,TRADE
TAS1,"2007/10/18 04:30:00",1039.01,6.67,TRADE
TAS1,"2007/10/18 05:00:00",1088.89,7.94,TRADE
TAS1,"2007/10/18 05:30:00",1160.07,9.64,TRADE
TAS1,"2007/10/18 06:00:00",1250.76,13.02,TRADE
TAS1,"2007/10/18 06:30:00",1366.44,30.58,TRADE
TAS1,"2007/10/18 07:00:00",1433.89,35.83,TRADE
TAS1,"2007/10/18 07:30:00",1434.68,23.76,TRADE
TAS1,"2007/10/18 08:00:00",1391.73,27.09,TRADE
TAS1,"2007/10/18 08:30:00",1341.12,33.59,TRADE
TAS1,"2007/10/18 09:00:00",1294.39,30.67,TRADE
TAS1,"2007/10/18 09:30:00",1262.74,29.58,TRADE
TAS1,"2007/10/18 10:00:00",1239.62,30.88,TRADE
TAS1,"2007/10/18 10:30:00",1211.95,28.93,TRADE
TAS1,"2007/10/18 11:00:00",1201.56,28.82,TRADE
TAS1,"2007/10/18 11:30:00",1185.21,25.63,TRADE
TAS1,"2007/10/18 12:00:00",1181.62,24.88,TRADE
TAS1,"2007/10/18 12:30:00",1171.05,26.07,TRADE
TAS1,"2007/10/18 13:00:00",1170.02,25.22,TRADE
TAS1,"2007/10/18 13:30:00",1163.76,27.07,TRADE
TAS1,"2007/10/18 14:00:00",1134.04,26.79,TRADE
TAS1,"2007/10/18 14:30:00",1161.09,25.23,TRADE
TAS1,"2007/10/18 15:00:00",1164.34,24.77,TRADE
TAS1,"2007/10/18 15:30:00",1169.61,26.98,TRADE
TAS1,"2007/10/18 16:00:00",1173.9,26.9,TRADE
TAS1,"2007/10/18 16:30:00",1187.73,25.61,TRADE
TAS1,"2007/10/18 17:00:00",1196.44,26.23,TRADE
TAS1,"2007/10/18 17:30:00",1202.38,24.49,TRADE
TAS1,"2007/10/18 18:00:00",1213.07,24.1,TRADE
TAS1,"2007/10/18 18:30:00",1223.32,25.33,TRADE
TAS1,"2007/10/18 19:00:00",1272.85,31.68,TRADE
TAS1,"2007/10/18 19:30:00",1284.23,28.04,TRADE
TAS1,"2007/10/18 20:00:00",1294.13,24.88,TRADE
TAS1,"2007/10/18 20:30:00",1254.72,23.11,TRADE
TAS1,"2007/10/18 21:00:00",1219.87,21.35,TRADE
TAS1,"2007/10/18 21:30:00",1203.88,18,TRADE
TAS1,"2007/10/18 22:00:00",1171.9,13.23,TRADE
TAS1,"2007/10/18 22:30:00",1114.71,12.61,TRADE
TAS1,"2007/10/18 23:00:00",1089.75,19.01,TRADE
TAS1,"2007/10/18 23:30:00",1039.06,26.17,TRADE
TAS1,"2007/10/19 00:00:00",993.28,20.77,TRADE
TAS1,"2007/10/19 00:30:00",979.5,11.64,TRADE
TAS1,"2007/10/19 01:00:00",983.65,10.2,TRADE
TAS1,"2007/10/19 01:30:00",986.19,19.52,TRADE
TAS1,"2007/10/19 02:00:00",977.6,12.03,TRADE
TAS1,"2007/10/19 02:30:00",973.13,9.16,TRADE
TAS1,"2007/10/19 03:00:00",971.37,7.97,TRADE
TAS1,"2007/10/19 03:30:00",974.47,5.81,TRADE
TAS1,"2007/10/19 04:00:00",982.26,8.76,TRADE
TAS1,"2007/10/19 04:30:00",982.2,8.37,TRADE
TAS1,"2007/10/19 05:00:00",1010.3,8.23,TRADE
TAS1,"2007/10/19 05:30:00",1082.78,12.93,TRADE
TAS1,"2007/10/19 06:00:00",1167.94,14.57,TRADE
TAS1,"2007/10/19 06:30:00",1251.11,16.12,TRADE
TAS1,"2007/10/19 07:00:00",1308.33,15.2,TRADE
TAS1,"2007/10/19 07:30:00",1312.55,19.6,TRADE
TAS1,"2007/10/19 08:00:00",1294.65,22.7,TRADE
TAS1,"2007/10/19 08:30:00",1274.49,23.79,TRADE
TAS1,"2007/10/19 09:00:00",1243.64,23.52,TRADE
TAS1,"2007/10/19 09:30:00",1216.15,23.26,TRADE
TAS1,"2007/10/19 10:00:00",1201.36,26.36,TRADE
TAS1,"2007/10/19 10:30:00",1187.47,28.87,TRADE
TAS1,"2007/10/19 11:00:00",1163.94,26.62,TRADE
TAS1,"2007/10/19 11:30:00",1172.23,25.42,TRADE
TAS1,"2007/10/19 12:00:00",1164.52,28.73,TRADE
TAS1,"2007/10/19 12:30:00",1167.94,28.87,TRADE
TAS1,"2007/10/19 13:00:00",1168.8,28.7,TRADE
TAS1,"2007/10/19 13:30:00",1161.71,30.49,TRADE
TAS1,"2007/10/19 14:00:00",1144.76,28.22,TRADE
TAS1,"2007/10/19 14:30:00",1149.07,26.36,TRADE
TAS1,"2007/10/19 15:00:00",1142.24,26.86,TRADE
TAS1,"2007/10/19 15:30:00",1139.51,26.13,TRADE
TAS1,"2007/10/19 16:00:00",1156.42,25.57,TRADE
TAS1,"2007/10/19 16:30:00",1171.29,25.57,TRADE
TAS1,"2007/10/19 17:00:00",1174.18,24.59,TRADE
TAS1,"2007/10/19 17:30:00",1183.84,22.31,TRADE
TAS1,"2007/10/19 18:00:00",1193.96,22.2,TRADE
TAS1,"2007/10/19 18:30:00",1202.91,22.16,TRADE
TAS1,"2007/10/19 19:00:00",1235.63,22.7,TRADE
TAS1,"2007/10/19 19:30:00",1248.33,22.94,TRADE
TAS1,"2007/10/19 20:00:00",1250.4,24,TRADE
TAS1,"2007/10/19 20:30:00",1233.98,22.86,TRADE
TAS1,"2007/10/19 21:00:00",1219.89,23.36,TRADE
TAS1,"2007/10/19 21:30:00",1188.74,23.76,TRADE
TAS1,"2007/10/19 22:00:00",1157.81,23.4,TRADE
TAS1,"2007/10/19 22:30:00",1120.39,23.27,TRADE
TAS1,"2007/10/19 23:00:00",1095.1,23.56,TRADE
TAS1,"2007/10/19 23:30:00",1074.14,28.38,TRADE
TAS1,"2007/10/20 00:00:00",1067.71,24.45,TRADE
TAS1,"2007/10/20 00:30:00",1049.01,23.66,TRADE
TAS1,"2007/10/20 01:00:00",1042.68,22.49,TRADE
TAS1,"2007/10/20 01:30:00",1047.96,23.66,TRADE
TAS1,"2007/10/20 02:00:00",1041.86,20.45,TRADE
TAS1,"2007/10/20 02:30:00",1017.44,18.67,TRADE
TAS1,"2007/10/20 03:00:00",1035.79,15.95,TRADE
TAS1,"2007/10/20 03:30:00",1044.98,11.11,TRADE
TAS1,"2007/10/20 04:00:00",1050.8,10.66,TRADE
TAS1,"2007/10/20 04:30:00",1053.58,10.44,TRADE
TAS1,"2007/10/20 05:00:00",1073.77,10.36,TRADE
TAS1,"2007/10/20 05:30:00",1099.3,13.39,TRADE
TAS1,"2007/10/20 06:00:00",1131.08,17.29,TRADE
TAS1,"2007/10/20 06:30:00",1168.09,19.51,TRADE
TAS1,"2007/10/20 07:00:00",1213.23,22.02,TRADE
TAS1,"2007/10/20 07:30:00",1246.56,17.78,TRADE
TAS1,"2007/10/20 08:00:00",1274.36,19.88,TRADE
TAS1,"2007/10/20 08:30:00",1283.99,23.07,TRADE
TAS1,"2007/10/20 09:00:00",1281.94,24.14,TRADE
TAS1,"2007/10/20 09:30:00",1265.69,25.43,TRADE
TAS1,"2007/10/20 10:00:00",1236.71,25.06,TRADE
TAS1,"2007/10/20 10:30:00",1206.77,25.38,TRADE
TAS1,"2007/10/20 11:00:00",1197.56,26.19,TRADE
TAS1,"2007/10/20 11:30:00",1181.26,26.83,TRADE
TAS1,"2007/10/20 12:00:00",1149.63,26.15,TRADE
TAS1,"2007/10/20 12:30:00",1128,25.62,TRADE
TAS1,"2007/10/20 13:00:00",1123.23,24.55,TRADE
TAS1,"2007/10/20 13:30:00",1127.87,24.56,TRADE
TAS1,"2007/10/20 14:00:00",1111.3,24.38,TRADE
TAS1,"2007/10/20 14:30:00",1115.57,24.31,TRADE
TAS1,"2007/10/20 15:00:00",1118.13,24.04,TRADE
TAS1,"2007/10/20 15:30:00",1122.59,24.12,TRADE
TAS1,"2007/10/20 16:00:00",1141.75,24.32,TRADE
TAS1,"2007/10/20 16:30:00",1154.77,24.42,TRADE
TAS1,"2007/10/20 17:00:00",1162.16,24.69,TRADE
TAS1,"2007/10/20 17:30:00",1170.03,23.96,TRADE
TAS1,"2007/10/20 18:00:00",1177.21,24.11,TRADE
TAS1,"2007/10/20 18:30:00",1189.19,24.32,TRADE
TAS1,"2007/10/20 19:00:00",1211.32,27.23,TRADE
TAS1,"2007/10/20 19:30:00",1229.8,27.75,TRADE
TAS1,"2007/10/20 20:00:00",1231.68,25.75,TRADE
TAS1,"2007/10/20 20:30:00",1219.6,24.62,TRADE
TAS1,"2007/10/20 21:00:00",1201.97,24.52,TRADE
TAS1,"2007/10/20 21:30:00",1179.91,23.9,TRADE
TAS1,"2007/10/20 22:00:00",1154.1,23.4,TRADE
TAS1,"2007/10/20 22:30:00",1115.49,23.04,TRADE
TAS1,"2007/10/20 23:00:00",1094.35,23.88,TRADE
TAS1,"2007/10/20 23:30:00",1061.13,26.13,TRADE
TAS1,"2007/10/21 00:00:00",1041.99,24.24,TRADE
TAS1,"2007/10/21 00:30:00",1024.31,22.97,TRADE
TAS1,"2007/10/21 01:00:00",1020.15,22.34,TRADE
TAS1,"2007/10/21 01:30:00",1018.53,24.51,TRADE
TAS1,"2007/10/21 02:00:00",1013.95,22.63,TRADE
TAS1,"2007/10/21 02:30:00",1011.54,21.62,TRADE
TAS1,"2007/10/21 03:00:00",1010.79,17.72,TRADE
TAS1,"2007/10/21 03:30:00",1007.24,15.95,TRADE
TAS1,"2007/10/21 04:00:00",1008.65,15.8,TRADE
TAS1,"2007/10/21 04:30:00",1016.71,14.97,TRADE
TAS1,"2007/10/21 05:00:00",1023.65,15.04,TRADE
TAS1,"2007/10/21 05:30:00",1032.05,13.76,TRADE
TAS1,"2007/10/21 06:00:00",1048.79,14.4,TRADE
TAS1,"2007/10/21 06:30:00",1081.39,19.4,TRADE
TAS1,"2007/10/21 07:00:00",1112.59,22.34,TRADE
TAS1,"2007/10/21 07:30:00",1145.13,20.94,TRADE
TAS1,"2007/10/21 08:00:00",1199.5,17.37,TRADE
TAS1,"2007/10/21 08:30:00",1247.61,23.27,TRADE
TAS1,"2007/10/21 09:00:00",1252.97,24.11,TRADE
TAS1,"2007/10/21 09:30:00",1262.03,24.49,TRADE
TAS1,"2007/10/21 10:00:00",1246.52,24.57,TRADE
TAS1,"2007/10/21 10:30:00",1227.42,25.59,TRADE
TAS1,"2007/10/21 11:00:00",1221.94,27.08,TRADE
TAS1,"2007/10/21 11:30:00",1204.12,29.18,TRADE
TAS1,"2007/10/21 12:00:00",1192.07,36.29,TRADE
TAS1,"2007/10/21 12:30:00",1168.21,40.1,TRADE
TAS1,"2007/10/21 13:00:00",1130.27,38.99,TRADE
TAS1,"2007/10/21 13:30:00",1084.83,38.67,TRADE
TAS1,"2007/10/21 14:00:00",1056.17,38.21,TRADE
TAS1,"2007/10/21 14:30:00",1074.38,38.59,TRADE
TAS1,"2007/10/21 15:00:00",1077.9,36.53,TRADE
TAS1,"2007/10/21 15:30:00",1072.31,37.94,TRADE
TAS1,"2007/10/21 16:00:00",1085.11,39.8,TRADE
TAS1,"2007/10/21 16:30:00",1121.75,41.78,TRADE
TAS1,"2007/10/21 17:00:00",1176.92,42.84,TRADE
TAS1,"2007/10/21 17:30:00",1207.75,36.93,TRADE
TAS1,"2007/10/21 18:00:00",1215.4,38.96,TRADE
TAS1,"2007/10/21 18:30:00",1235.25,44.99,TRADE
TAS1,"2007/10/21 19:00:00",1253.18,62.47,TRADE
TAS1,"2007/10/21 19:30:00",1275.78,61.14,TRADE
TAS1,"2007/10/21 20:00:00",1237.96,46.47,TRADE
TAS1,"2007/10/21 20:30:00",1208.91,41.24,TRADE
TAS1,"2007/10/21 21:00:00",1194.3,34.54,TRADE
TAS1,"2007/10/21 21:30:00",1160.25,27.56,TRADE
TAS1,"2007/10/21 22:00:00",1107.51,24.84,TRADE
TAS1,"2007/10/21 22:30:00",1056.76,23.84,TRADE
TAS1,"2007/10/21 23:00:00",1021.44,25.23,TRADE
TAS1,"2007/10/21 23:30:00",1018.05,33.46,TRADE
TAS1,"2007/10/22 00:00:00",1000.96,24.71,TRADE
TAS1,"2007/10/22 00:30:00",988.93,23.93,TRADE
TAS1,"2007/10/22 01:00:00",981.25,23.68,TRADE
TAS1,"2007/10/22 01:30:00",988.5,25.91,TRADE
TAS1,"2007/10/22 02:00:00",994.16,23.57,TRADE
TAS1,"2007/10/22 02:30:00",1018.73,23.66,TRADE
TAS1,"2007/10/22 03:00:00",1039.99,20.82,TRADE
TAS1,"2007/10/22 03:30:00",1026.14,20.08,TRADE
TAS1,"2007/10/22 04:00:00",1026.69,19.21,TRADE
TAS1,"2007/10/22 04:30:00",1041.07,18.66,TRADE
TAS1,"2007/10/22 05:00:00",1075.81,16.86,TRADE
TAS1,"2007/10/22 05:30:00",1133.09,1.2,TRADE
TAS1,"2007/10/22 06:00:00",1229.9,2.82,TRADE
TAS1,"2007/10/22 06:30:00",1330.59,4.77,TRADE
TAS1,"2007/10/22 07:00:00",1392.61,10.26,TRADE
TAS1,"2007/10/22 07:30:00",1385.49,38.16,TRADE
TAS1,"2007/10/22 08:00:00",1368.01,58.97,TRADE
TAS1,"2007/10/22 08:30:00",1349.76,68.93,TRADE
TAS1,"2007/10/22 09:00:00",1351.63,82.08,TRADE
TAS1,"2007/10/22 09:30:00",1260.33,179.02,TRADE
TAS1,"2007/10/22 10:00:00",1202.99,1284.41,TRADE
TAS1,"2007/10/22 10:30:00",1186.36,71.67,TRADE
TAS1,"2007/10/22 11:00:00",1167.83,62.15,TRADE
TAS1,"2007/10/22 11:30:00",1151.77,72.31,TRADE
TAS1,"2007/10/22 12:00:00",1130.63,69.65,TRADE
TAS1,"2007/10/22 12:30:00",1095.67,74.36,TRADE
TAS1,"2007/10/22 13:00:00",1084.41,74.01,TRADE
TAS1,"2007/10/22 13:30:00",1099.17,70,TRADE
TAS1,"2007/10/22 14:00:00",1109.01,58.83,TRADE
TAS1,"2007/10/22 14:30:00",1135.9,73.85,TRADE
TAS1,"2007/10/22 15:00:00",1156.16,68.11,TRADE
TAS1,"2007/10/22 15:30:00",1151.64,61.22,TRADE
TAS1,"2007/10/22 16:00:00",1140.12,58.04,TRADE
TAS1,"2007/10/22 16:30:00",1163.14,57.26,TRADE
TAS1,"2007/10/22 17:00:00",1173.95,57.23,TRADE
TAS1,"2007/10/22 17:30:00",1160,53.27,TRADE
TAS1,"2007/10/22 18:00:00",1177.98,61.98,TRADE
TAS1,"2007/10/22 18:30:00",1202.38,61.93,TRADE
TAS1,"2007/10/22 19:00:00",1221.69,74.1,TRADE
TAS1,"2007/10/22 19:30:00",1261.74,54.57,TRADE
TAS1,"2007/10/22 20:00:00",1253.59,47.15,TRADE
TAS1,"2007/10/22 20:30:00",1235.45,41.13,TRADE
TAS1,"2007/10/22 21:00:00",1202.34,40.2,TRADE
TAS1,"2007/10/22 21:30:00",1185.32,40.42,TRADE
TAS1,"2007/10/22 22:00:00",1128.45,34.7,TRADE
TAS1,"2007/10/22 22:30:00",1096.93,68.4,TRADE
TAS1,"2007/10/22 23:00:00",1064.88,39.07,TRADE
TAS1,"2007/10/22 23:30:00",1033.78,29,TRADE
TAS1,"2007/10/23 00:00:00",989.89,1.22,TRADE
TAS1,"2007/10/23 00:30:00",988.11,31.39,TRADE
TAS1,"2007/10/23 01:00:00",997.16,22.41,TRADE
TAS1,"2007/10/23 01:30:00",991.38,22.66,TRADE
TAS1,"2007/10/23 02:00:00",987.44,18.34,TRADE
TAS1,"2007/10/23 02:30:00",985.38,16.09,TRADE
TAS1,"2007/10/23 03:00:00",980.38,14.05,TRADE
TAS1,"2007/10/23 03:30:00",994.12,12.74,TRADE
TAS1,"2007/10/23 04:00:00",1005.66,13.72,TRADE
TAS1,"2007/10/23 04:30:00",1031.05,10.84,TRADE
TAS1,"2007/10/23 05:00:00",1095.88,30.59,TRADE
TAS1,"2007/10/23 05:30:00",1186.63,44.13,TRADE
TAS1,"2007/10/23 06:00:00",1271.94,53.3,TRADE
TAS1,"2007/10/23 06:30:00",1371.45,49.64,TRADE
TAS1,"2007/10/23 07:00:00",1421.96,42.23,TRADE
TAS1,"2007/10/23 07:30:00",1418.95,36.28,TRADE
TAS1,"2007/10/23 08:00:00",1368.37,41.46,TRADE
TAS1,"2007/10/23 08:30:00",1338.94,49.68,TRADE
TAS1,"2007/10/23 09:00:00",1286.4,53.6,TRADE
TAS1,"2007/10/23 09:30:00",1223.7,54.87,TRADE
TAS1,"2007/10/23 10:00:00",1211.33,54.32,TRADE
TAS1,"2007/10/23 10:30:00",1187.68,54.14,TRADE
TAS1,"2007/10/23 11:00:00",1157.28,54.49,TRADE
TAS1,"2007/10/23 11:30:00",1144.67,54.3,TRADE
TAS1,"2007/10/23 12:00:00",1155.17,57.31,TRADE
TAS1,"2007/10/23 12:30:00",1142.71,55.81,TRADE
TAS1,"2007/10/23 13:00:00",1130.59,53.49,TRADE
TAS1,"2007/10/23 13:30:00",1134.61,55.69,TRADE
TAS1,"2007/10/23 14:00:00",1146.03,56.99,TRADE
TAS1,"2007/10/23 14:30:00",1145.56,54.42,TRADE
TAS1,"2007/10/23 15:00:00",1137.63,51.06,TRADE
TAS1,"2007/10/23 15:30:00",1140.68,51.25,TRADE
TAS1,"2007/10/23 16:00:00",1137.49,55.92,TRADE
TAS1,"2007/10/23 16:30:00",1156.15,44.64,TRADE
TAS1,"2007/10/23 17:00:00",1159.5,47.89,TRADE
TAS1,"2007/10/23 17:30:00",1161.99,47.86,TRADE
TAS1,"2007/10/23 18:00:00",1167.71,44.69,TRADE
TAS1,"2007/10/23 18:30:00",1170.8,44.2,TRADE
TAS1,"2007/10/23 19:00:00",1202.05,52.1,TRADE
TAS1,"2007/10/23 19:30:00",1227.24,53.25,TRADE
TAS1,"2007/10/23 20:00:00",1244.51,43.66,TRADE
TAS1,"2007/10/23 20:30:00",1208.36,40.25,TRADE
TAS1,"2007/10/23 21:00:00",1174.85,36.45,TRADE
TAS1,"2007/10/23 21:30:00",1150.81,38.92,TRADE
TAS1,"2007/10/23 22:00:00",1111.69,30.23,TRADE
TAS1,"2007/10/23 22:30:00",1062.26,50.12,TRADE
TAS1,"2007/10/23 23:00:00",1003.21,23.08,TRADE
TAS1,"2007/10/23 23:30:00",991.19,30.61,TRADE
TAS1,"2007/10/24 00:00:00",970.78,17.03,TRADE
TAS1,"2007/10/24 00:30:00",984.61,29.82,TRADE
TAS1,"2007/10/24 01:00:00",972.48,24.27,TRADE
TAS1,"2007/10/24 01:30:00",994.52,28.72,TRADE
TAS1,"2007/10/24 02:00:00",987.39,22.33,TRADE
TAS1,"2007/10/24 02:30:00",983.14,19.96,TRADE
TAS1,"2007/10/24 03:00:00",981.32,19.03,TRADE
TAS1,"2007/10/24 03:30:00",980.35,18.31,TRADE
TAS1,"2007/10/24 04:00:00",976.03,18.1,TRADE
TAS1,"2007/10/24 04:30:00",1007.04,26.77,TRADE
TAS1,"2007/10/24 05:00:00",1053.18,38.03,TRADE
TAS1,"2007/10/24 05:30:00",1132.4,38.3,TRADE
TAS1,"2007/10/24 06:00:00",1213.25,38.45,TRADE
TAS1,"2007/10/24 06:30:00",1290.84,47.88,TRADE
TAS1,"2007/10/24 07:00:00",1349.7,13.45,TRADE
TAS1,"2007/10/24 07:30:00",1337.76,38.41,TRADE
TAS1,"2007/10/24 08:00:00",1340.29,49.34,TRADE
TAS1,"2007/10/24 08:30:00",1321.15,54.4,TRADE
TAS1,"2007/10/24 09:00:00",1249.74,39.99,TRADE
TAS1,"2007/10/24 09:30:00",1223.85,37.83,TRADE
TAS1,"2007/10/24 10:00:00",1208.28,38.53,TRADE
TAS1,"2007/10/24 10:30:00",1213.15,39.75,TRADE
TAS1,"2007/10/24 11:00:00",1195.63,39.82,TRADE
TAS1,"2007/10/24 11:30:00",1182.12,39.25,TRADE
TAS1,"2007/10/24 12:00:00",1181.39,39.81,TRADE
TAS1,"2007/10/24 12:30:00",1153.25,40.33,TRADE
TAS1,"2007/10/24 13:00:00",1137.42,40,TRADE
TAS1,"2007/10/24 13:30:00",1137.22,40.42,TRADE
TAS1,"2007/10/24 14:00:00",1130.59,40.41,TRADE
TAS1,"2007/10/24 14:30:00",1147.58,40.71,TRADE
TAS1,"2007/10/24 15:00:00",1148.91,40.9,TRADE
TAS1,"2007/10/24 15:30:00",1151.01,40.43,TRADE
TAS1,"2007/10/24 16:00:00",1133.77,40.22,TRADE
TAS1,"2007/10/24 16:30:00",1155.45,40.33,TRADE
TAS1,"2007/10/24 17:00:00",1157.75,40.44,TRADE
TAS1,"2007/10/24 17:30:00",1151.35,40.53,TRADE
TAS1,"2007/10/24 18:00:00",1151.24,41.53,TRADE
TAS1,"2007/10/24 18:30:00",1148.63,40.89,TRADE
TAS1,"2007/10/24 19:00:00",1166.3,45.67,TRADE
TAS1,"2007/10/24 19:30:00",1192.51,42.03,TRADE
TAS1,"2007/10/24 20:00:00",1199.69,42.4,TRADE
TAS1,"2007/10/24 20:30:00",1200.45,41.71,TRADE
TAS1,"2007/10/24 21:00:00",1166.26,34.87,TRADE
TAS1,"2007/10/24 21:30:00",1151.2,33.04,TRADE
TAS1,"2007/10/24 22:00:00",1110.25,38.34,TRADE
TAS1,"2007/10/24 22:30:00",1057.55,16.98,TRADE
TAS1,"2007/10/24 23:00:00",1031.21,39.43,TRADE
TAS1,"2007/10/24 23:30:00",1019.61,37.6,TRADE
TAS1,"2007/10/25 00:00:00",1017.53,36.83,TRADE
TAS1,"2007/10/25 00:30:00",1010.53,38.85,TRADE
TAS1,"2007/10/25 01:00:00",1009.31,38.3,TRADE
TAS1,"2007/10/25 01:30:00",1009.7,38.3,TRADE
TAS1,"2007/10/25 02:00:00",1005.97,38.63,TRADE
TAS1,"2007/10/25 02:30:00",1017.48,43.49,TRADE
TAS1,"2007/10/25 03:00:00",1020.65,44.51,TRADE
TAS1,"2007/10/25 03:30:00",1015.67,43.54,TRADE
TAS1,"2007/10/25 04:00:00",1006.56,40.89,TRADE
TAS1,"2007/10/25 04:30:00",1032.52,45.3,TRADE
TAS1,"2007/10/25 05:00:00",1063.09,56.2,TRADE
TAS1,"2007/10/25 05:30:00",1112.66,57.33,TRADE
TAS1,"2007/10/25 06:00:00",1155.47,52.23,TRADE
TAS1,"2007/10/25 06:30:00",1203.54,2.92,TRADE
TAS1,"2007/10/25 07:00:00",1259.93,1.23,TRADE
TAS1,"2007/10/25 07:30:00",1271.39,-13.37,TRADE
TAS1,"2007/10/25 08:00:00",1301.62,42.28,TRADE
TAS1,"2007/10/25 08:30:00",1284.17,47.19,TRADE
TAS1,"2007/10/25 09:00:00",1250.83,43.22,TRADE
TAS1,"2007/10/25 09:30:00",1227.93,60.46,TRADE
TAS1,"2007/10/25 10:00:00",1208.81,54.32,TRADE
TAS1,"2007/10/25 10:30:00",1189.9,50.29,TRADE
TAS1,"2007/10/25 11:00:00",1171.82,49.17,TRADE
TAS1,"2007/10/25 11:30:00",1142.98,51.19,TRADE
TAS1,"2007/10/25 12:00:00",1110.96,51.07,TRADE
TAS1,"2007/10/25 12:30:00",1098.06,48.86,TRADE
TAS1,"2007/10/25 13:00:00",1098.68,51.97,TRADE
TAS1,"2007/10/25 13:30:00",1099.76,55.89,TRADE
TAS1,"2007/10/25 14:00:00",1086.79,55.35,TRADE
TAS1,"2007/10/25 14:30:00",1070.24,54.88,TRADE
TAS1,"2007/10/25 15:00:00",1077.89,55.37,TRADE
TAS1,"2007/10/25 15:30:00",1093.42,55.46,TRADE
TAS1,"2007/10/25 16:00:00",1110.94,57.28,TRADE
TAS1,"2007/10/25 16:30:00",1116.34,55.27,TRADE
TAS1,"2007/10/25 17:00:00",1130.22,55.24,TRADE
TAS1,"2007/10/25 17:30:00",1135.97,52.54,TRADE
TAS1,"2007/10/25 18:00:00",1144.57,55.36,TRADE
TAS1,"2007/10/25 18:30:00",1144.58,60.33,TRADE
TAS1,"2007/10/25 19:00:00",1185.84,73.06,TRADE
TAS1,"2007/10/25 19:30:00",1198.48,61.88,TRADE
TAS1,"2007/10/25 20:00:00",1171.67,55.67,TRADE
TAS1,"2007/10/25 20:30:00",1158.49,56.83,TRADE
TAS1,"2007/10/25 21:00:00",1156.09,55.41,TRADE
TAS1,"2007/10/25 21:30:00",1083.87,44.17,TRADE
TAS1,"2007/10/25 22:00:00",1065.77,38.33,TRADE
TAS1,"2007/10/25 22:30:00",1064.07,68.71,TRADE
TAS1,"2007/10/25 23:00:00",1030.98,47.34,TRADE
TAS1,"2007/10/25 23:30:00",1027.69,53.61,TRADE
TAS1,"2007/10/26 00:00:00",1023.62,53.01,TRADE
TAS1,"2007/10/26 00:30:00",1003.94,52.5,TRADE
TAS1,"2007/10/26 01:00:00",1018.56,43.83,TRADE
TAS1,"2007/10/26 01:30:00",1028.53,53.9,TRADE
TAS1,"2007/10/26 02:00:00",1017.79,53.74,TRADE
TAS1,"2007/10/26 02:30:00",1007.09,41.68,TRADE
TAS1,"2007/10/26 03:00:00",1006.82,36.96,TRADE
TAS1,"2007/10/26 03:30:00",1002.87,46.54,TRADE
TAS1,"2007/10/26 04:00:00",1001.62,34.87,TRADE
TAS1,"2007/10/26 04:30:00",1004.63,29.4,TRADE
TAS1,"2007/10/26 05:00:00",1007.68,33.3,TRADE
TAS1,"2007/10/26 05:30:00",1051.95,32.4,TRADE
TAS1,"2007/10/26 06:00:00",1112.42,33.91,TRADE
TAS1,"2007/10/26 06:30:00",1180.99,1.23,TRADE
TAS1,"2007/10/26 07:00:00",1240.28,-13.05,TRADE
TAS1,"2007/10/26 07:30:00",1260.26,39.49,TRADE
TAS1,"2007/10/26 08:00:00",1255.56,50.16,TRADE
TAS1,"2007/10/26 08:30:00",1240.51,58.09,TRADE
TAS1,"2007/10/26 09:00:00",1224.7,56.46,TRADE
TAS1,"2007/10/26 09:30:00",1210.94,65.27,TRADE
TAS1,"2007/10/26 10:00:00",1193.49,57.89,TRADE
TAS1,"2007/10/26 10:30:00",1169.53,54.24,TRADE
TAS1,"2007/10/26 11:00:00",1137.6,52.02,TRADE
TAS1,"2007/10/26 11:30:00",1119.12,52.41,TRADE
TAS1,"2007/10/26 12:00:00",1108.62,53.2,TRADE
TAS1,"2007/10/26 12:30:00",1092.49,44.71,TRADE
TAS1,"2007/10/26 13:00:00",1063.57,42.66,TRADE
TAS1,"2007/10/26 13:30:00",1095.48,49.01,TRADE
TAS1,"2007/10/26 14:00:00",1121.01,45.66,TRADE
TAS1,"2007/10/26 14:30:00",1120.75,41.47,TRADE
TAS1,"2007/10/26 15:00:00",1133.59,41.58,TRADE
TAS1,"2007/10/26 15:30:00",1153.49,41.96,TRADE
TAS1,"2007/10/26 16:00:00",1181.51,42.38,TRADE
TAS1,"2007/10/26 16:30:00",1193.7,42.5,TRADE
TAS1,"2007/10/26 17:00:00",1195.53,42.97,TRADE
TAS1,"2007/10/26 17:30:00",1192.87,42.32,TRADE
TAS1,"2007/10/26 18:00:00",1203.1,42.69,TRADE
TAS1,"2007/10/26 18:30:00",1193.2,42.01,TRADE
TAS1,"2007/10/26 19:00:00",1211.52,44.63,TRADE
TAS1,"2007/10/26 19:30:00",1217.36,46.06,TRADE
TAS1,"2007/10/26 20:00:00",1195.57,43.77,TRADE
TAS1,"2007/10/26 20:30:00",1165.45,42.22,TRADE
TAS1,"2007/10/26 21:00:00",1134.75,38.63,TRADE
TAS1,"2007/10/26 21:30:00",1105.23,41.79,TRADE
TAS1,"2007/10/26 22:00:00",1056.3,38.33,TRADE
TAS1,"2007/10/26 22:30:00",1013.47,52.47,TRADE
TAS1,"2007/10/26 23:00:00",971.75,10.94,TRADE
TAS1,"2007/10/26 23:30:00",963.17,1.22,TRADE
TAS1,"2007/10/27 00:00:00",940.24,38.79,TRADE
TAS1,"2007/10/27 00:30:00",937.76,34.2,TRADE
TAS1,"2007/10/27 01:00:00",916.08,30.24,TRADE
TAS1,"2007/10/27 01:30:00",925.15,2.97,TRADE
TAS1,"2007/10/27 02:00:00",918.36,32.79,TRADE
TAS1,"2007/10/27 02:30:00",915.17,42.33,TRADE
TAS1,"2007/10/27 03:00:00",924.27,29.39,TRADE
TAS1,"2007/10/27 03:30:00",918.1,28.16,TRADE
TAS1,"2007/10/27 04:00:00",917.5,26.73,TRADE
TAS1,"2007/10/27 04:30:00",920.79,27.06,TRADE
TAS1,"2007/10/27 05:00:00",937.77,26.18,TRADE
TAS1,"2007/10/27 05:30:00",960.58,24.33,TRADE
TAS1,"2007/10/27 06:00:00",984.13,22.34,TRADE
TAS1,"2007/10/27 06:30:00",1027.76,25.87,TRADE
TAS1,"2007/10/27 07:00:00",1081.52,27.31,TRADE
TAS1,"2007/10/27 07:30:00",1100.8,27.77,TRADE
TAS1,"2007/10/27 08:00:00",1099.88,-5.01,TRADE
TAS1,"2007/10/27 08:30:00",1122.2,11.62,TRADE
TAS1,"2007/10/27 09:00:00",1127.66,42.52,TRADE
TAS1,"2007/10/27 09:30:00",1133.52,61.55,TRADE
TAS1,"2007/10/27 10:00:00",1110.98,57.82,TRADE
TAS1,"2007/10/27 10:30:00",1096.18,61.82,TRADE
TAS1,"2007/10/27 11:00:00",1089.95,62.59,TRADE
TAS1,"2007/10/27 11:30:00",1066.85,47.75,TRADE
TAS1,"2007/10/27 12:00:00",1060.25,48.17,TRADE
TAS1,"2007/10/27 12:30:00",1045.49,44.11,TRADE
TAS1,"2007/10/27 13:00:00",1036.74,42.35,TRADE
TAS1,"2007/10/27 13:30:00",1025.05,45.14,TRADE
TAS1,"2007/10/27 14:00:00",1030.77,45.46,TRADE
TAS1,"2007/10/27 14:30:00",1034.17,42.15,TRADE
TAS1,"2007/10/27 15:00:00",1030.01,36.89,TRADE
TAS1,"2007/10/27 15:30:00",1018.57,32.02,TRADE
TAS1,"2007/10/27 16:00:00",1035.14,32.44,TRADE
TAS1,"2007/10/27 16:30:00",1057.33,30.25,TRADE
TAS1,"2007/10/27 17:00:00",1074.66,35.12,TRADE
TAS1,"2007/10/27 17:30:00",1086.1,32.19,TRADE
TAS1,"2007/10/27 18:00:00",1081.06,32.04,TRADE
TAS1,"2007/10/27 18:30:00",1076.55,34.4,TRADE
TAS1,"2007/10/27 19:00:00",1086.79,38.49,TRADE
TAS1,"2007/10/27 19:30:00",1083.62,35.64,TRADE
TAS1,"2007/10/27 20:00:00",1069.29,30.99,TRADE
TAS1,"2007/10/27 20:30:00",1055.14,42.23,TRADE
TAS1,"2007/10/27 21:00:00",1015.48,6.64,TRADE
TAS1,"2007/10/27 21:30:00",987.57,2.03,TRADE
TAS1,"2007/10/27 22:00:00",975.62,19.85,TRADE
TAS1,"2007/10/27 22:30:00",951.09,19.62,TRADE
TAS1,"2007/10/27 23:00:00",944.94,21.16,TRADE
TAS1,"2007/10/27 23:30:00",931.48,31.43,TRADE
TAS1,"2007/10/28 00:00:00",915.78,30.32,TRADE
TAS1,"2007/10/28 00:30:00",905.1,21.85,TRADE
TAS1,"2007/10/28 01:00:00",899.25,20.15,TRADE
TAS1,"2007/10/28 01:30:00",896.64,20.21,TRADE
TAS1,"2007/10/28 02:00:00",889.67,20.06,TRADE
TAS1,"2007/10/28 02:30:00",886.88,16.56,TRADE
TAS1,"2007/10/28 03:00:00",891.29,14.21,TRADE
TAS1,"2007/10/28 03:30:00",886.01,13.31,TRADE
TAS1,"2007/10/28 04:00:00",893.36,14.58,TRADE
TAS1,"2007/10/28 04:30:00",901.12,15.69,TRADE
TAS1,"2007/10/28 05:00:00",902.47,14.16,TRADE
TAS1,"2007/10/28 05:30:00",913.82,16.79,TRADE
TAS1,"2007/10/28 06:00:00",931.51,16.22,TRADE
TAS1,"2007/10/28 06:30:00",955.43,20.56,TRADE
TAS1,"2007/10/28 07:00:00",996.48,21.69,TRADE
TAS1,"2007/10/28 07:30:00",1025.69,19.08,TRADE
TAS1,"2007/10/28 08:00:00",1052.21,23.5,TRADE
TAS1,"2007/10/28 08:30:00",1073.51,-2.57,TRADE
TAS1,"2007/10/28 09:00:00",1028.18,-9.25,TRADE
TAS1,"2007/10/28 09:30:00",1099.62,17.58,TRADE
TAS1,"2007/10/28 10:00:00",1112.22,21.67,TRADE
TAS1,"2007/10/28 10:30:00",1149.83,30.21,TRADE
TAS1,"2007/10/28 11:00:00",1155.86,25.72,TRADE
TAS1,"2007/10/28 11:30:00",1154.79,22.83,TRADE
TAS1,"2007/10/28 12:00:00",1128.55,9.05,TRADE
TAS1,"2007/10/28 12:30:00",1113.42,18.23,TRADE
TAS1,"2007/10/28 13:00:00",1098.46,16.76,TRADE
TAS1,"2007/10/28 13:30:00",1076.44,11.28,TRADE
TAS1,"2007/10/28 14:00:00",1072.88,5.84,TRADE
TAS1,"2007/10/28 14:30:00",1097.77,17.5,TRADE
TAS1,"2007/10/28 15:00:00",1085.43,25.12,TRADE
TAS1,"2007/10/28 15:30:00",1093.67,34.69,TRADE
TAS1,"2007/10/28 16:00:00",1113.21,35.32,TRADE
TAS1,"2007/10/28 16:30:00",1127.97,36.65,TRADE
TAS1,"2007/10/28 17:00:00",1166.15,38.28,TRADE
TAS1,"2007/10/28 17:30:00",1181.22,34.02,TRADE
TAS1,"2007/10/28 18:00:00",1178.33,31.79,TRADE
TAS1,"2007/10/28 18:30:00",1176.51,34.82,TRADE
TAS1,"2007/10/28 19:00:00",1181.89,37.09,TRADE
TAS1,"2007/10/28 19:30:00",1192.42,38.13,TRADE
TAS1,"2007/10/28 20:00:00",1191.22,38.27,TRADE
TAS1,"2007/10/28 20:30:00",1163.15,37.71,TRADE
TAS1,"2007/10/28 21:00:00",1127.38,25.94,TRADE
TAS1,"2007/10/28 21:30:00",1056.18,21.11,TRADE
TAS1,"2007/10/28 22:00:00",989.68,4.5,TRADE
TAS1,"2007/10/28 22:30:00",942.47,-5.39,TRADE
TAS1,"2007/10/28 23:00:00",955.01,7.08,TRADE
TAS1,"2007/10/28 23:30:00",926.96,3.94,TRADE
TAS1,"2007/10/29 00:00:00",922.5,17.83,TRADE
TAS1,"2007/10/29 00:30:00",924.16,22.11,TRADE
TAS1,"2007/10/29 01:00:00",922.75,21.18,TRADE
TAS1,"2007/10/29 01:30:00",921.83,18.22,TRADE
TAS1,"2007/10/29 02:00:00",926.34,19.13,TRADE
TAS1,"2007/10/29 02:30:00",933.81,17.36,TRADE
TAS1,"2007/10/29 03:00:00",939.75,15.4,TRADE
TAS1,"2007/10/29 03:30:00",941.69,14.82,TRADE
TAS1,"2007/10/29 04:00:00",947.17,15.18,TRADE
TAS1,"2007/10/29 04:30:00",971.39,18.89,TRADE
TAS1,"2007/10/29 05:00:00",1006.15,19.74,TRADE
TAS1,"2007/10/29 05:30:00",1055.09,22.3,TRADE
TAS1,"2007/10/29 06:00:00",1142.57,29.01,TRADE
TAS1,"2007/10/29 06:30:00",1254.48,31.63,TRADE
TAS1,"2007/10/29 07:00:00",1300.26,38.14,TRADE
TAS1,"2007/10/29 07:30:00",1306.17,16.58,TRADE
TAS1,"2007/10/29 08:00:00",1282.21,34.07,TRADE
TAS1,"2007/10/29 08:30:00",1208.68,36.41,TRADE
TAS1,"2007/10/29 09:00:00",1210.74,39.4,TRADE
TAS1,"2007/10/29 09:30:00",1149.71,39.19,TRADE
TAS1,"2007/10/29 10:00:00",1181.35,39.59,TRADE
TAS1,"2007/10/29 10:30:00",1180.77,38.26,TRADE
TAS1,"2007/10/29 11:00:00",1117.99,37.56,TRADE
TAS1,"2007/10/29 11:30:00",1160.21,38.5,TRADE
TAS1,"2007/10/29 12:00:00",1166.04,38.49,TRADE
TAS1,"2007/10/29 12:30:00",1175.1,38.62,TRADE
TAS1,"2007/10/29 13:00:00",1173.06,38.02,TRADE
TAS1,"2007/10/29 13:30:00",1178.06,37.9,TRADE
TAS1,"2007/10/29 14:00:00",1173.41,39.15,TRADE
TAS1,"2007/10/29 14:30:00",1161.45,39.12,TRADE
TAS1,"2007/10/29 15:00:00",1178.94,39.05,TRADE
TAS1,"2007/10/29 15:30:00",1171.91,39.32,TRADE
TAS1,"2007/10/29 16:00:00",1176.41,39.61,TRADE
TAS1,"2007/10/29 16:30:00",1195.08,40.67,TRADE
TAS1,"2007/10/29 17:00:00",1211.85,39.62,TRADE
TAS1,"2007/10/29 17:30:00",1205.65,37.03,TRADE
TAS1,"2007/10/29 18:00:00",1199.64,29.48,TRADE
TAS1,"2007/10/29 18:30:00",1204.63,28.72,TRADE
TAS1,"2007/10/29 19:00:00",1210.36,29.15,TRADE
TAS1,"2007/10/29 19:30:00",1229.7,30.37,TRADE
TAS1,"2007/10/29 20:00:00",1216.38,25.45,TRADE
TAS1,"2007/10/29 20:30:00",1194.35,29.3,TRADE
TAS1,"2007/10/29 21:00:00",1139.59,7.98,TRADE
TAS1,"2007/10/29 21:30:00",1092.96,16.03,TRADE
TAS1,"2007/10/29 22:00:00",1044.55,16.86,TRADE
TAS1,"2007/10/29 22:30:00",1015.29,17.07,TRADE
TAS1,"2007/10/29 23:00:00",979.11,10.97,TRADE
TAS1,"2007/10/29 23:30:00",1003.6,26.92,TRADE
TAS1,"2007/10/30 00:00:00",956.65,24.43,TRADE
TAS1,"2007/10/30 00:30:00",948.95,24.75,TRADE
TAS1,"2007/10/30 01:00:00",944.75,22.84,TRADE
TAS1,"2007/10/30 01:30:00",937.58,38.28,TRADE
TAS1,"2007/10/30 02:00:00",938.63,38.31,TRADE
TAS1,"2007/10/30 02:30:00",942.66,38.3,TRADE
TAS1,"2007/10/30 03:00:00",936.67,38.28,TRADE
TAS1,"2007/10/30 03:30:00",947.29,38.28,TRADE
TAS1,"2007/10/30 04:00:00",956.09,38.28,TRADE
TAS1,"2007/10/30 04:30:00",975.64,43.55,TRADE
TAS1,"2007/10/30 05:00:00",1024.06,39.56,TRADE
TAS1,"2007/10/30 05:30:00",1120.15,35.43,TRADE
TAS1,"2007/10/30 06:00:00",1201.49,40.99,TRADE
TAS1,"2007/10/30 06:30:00",1313.33,60.09,TRADE
TAS1,"2007/10/30 07:00:00",1394.38,43.51,TRADE
TAS1,"2007/10/30 07:30:00",1379.65,39.27,TRADE
TAS1,"2007/10/30 08:00:00",1320.21,39.01,TRADE
TAS1,"2007/10/30 08:30:00",1273.36,38.33,TRADE
TAS1,"2007/10/30 09:00:00",1220.37,25.83,TRADE
TAS1,"2007/10/30 09:30:00",1190.01,40.89,TRADE
TAS1,"2007/10/30 10:00:00",1172.28,41.03,TRADE
TAS1,"2007/10/30 10:30:00",1154.42,40.16,TRADE
TAS1,"2007/10/30 11:00:00",1110.44,38.91,TRADE
TAS1,"2007/10/30 11:30:00",1092.15,38.93,TRADE
TAS1,"2007/10/30 12:00:00",1091.04,39.16,TRADE
TAS1,"2007/10/30 12:30:00",1087.53,39.05,TRADE
TAS1,"2007/10/30 13:00:00",1081.04,38.6,TRADE
TAS1,"2007/10/30 13:30:00",1069.8,38.79,TRADE
TAS1,"2007/10/30 14:00:00",1072.5,38.9,TRADE
TAS1,"2007/10/30 14:30:00",1074.48,38.96,TRADE
TAS1,"2007/10/30 15:00:00",1051.61,38.32,TRADE
TAS1,"2007/10/30 15:30:00",1057.28,38.32,TRADE
TAS1,"2007/10/30 16:00:00",1095.95,38.37,TRADE
TAS1,"2007/10/30 16:30:00",1138.12,38.73,TRADE
TAS1,"2007/10/30 17:00:00",1153.13,39.08,TRADE
TAS1,"2007/10/30 17:30:00",1159.54,36.19,TRADE
TAS1,"2007/10/30 18:00:00",1166.49,43.01,TRADE
TAS1,"2007/10/30 18:30:00",1165.47,40.43,TRADE
TAS1,"2007/10/30 19:00:00",1180.29,39.66,TRADE
TAS1,"2007/10/30 19:30:00",1238.16,49.74,TRADE
TAS1,"2007/10/30 20:00:00",1243.85,57.28,TRADE
TAS1,"2007/10/30 20:30:00",1195.67,27.2,TRADE
TAS1,"2007/10/30 21:00:00",1181.2,19.6,TRADE
TAS1,"2007/10/30 21:30:00",1136.45,16.32,TRADE
TAS1,"2007/10/30 22:00:00",1069.94,11.11,TRADE
TAS1,"2007/10/30 22:30:00",1024.3,38.32,TRADE
TAS1,"2007/10/30 23:00:00",990.02,30.17,TRADE
TAS1,"2007/10/30 23:30:00",964.12,36.46,TRADE
TAS1,"2007/10/31 00:00:00",953.21,35.68,TRADE
TAS1,"2007/10/31 00:30:00",940.27,30.08,TRADE
TAS1,"2007/10/31 01:00:00",939.25,26.47,TRADE
TAS1,"2007/10/31 01:30:00",931.01,27.46,TRADE
TAS1,"2007/10/31 02:00:00",955.07,23.6,TRADE
TAS1,"2007/10/31 02:30:00",956.25,23.24,TRADE
TAS1,"2007/10/31 03:00:00",958.69,20.19,TRADE
TAS1,"2007/10/31 03:30:00",964.23,19.99,TRADE
TAS1,"2007/10/31 04:00:00",976.28,21.99,TRADE
TAS1,"2007/10/31 04:30:00",990.03,24.23,TRADE
TAS1,"2007/10/31 05:00:00",1013.88,25.44,TRADE
TAS1,"2007/10/31 05:30:00",1099.47,30.46,TRADE
TAS1,"2007/10/31 06:00:00",1202.42,37.61,TRADE
TAS1,"2007/10/31 06:30:00",1252.28,47.53,TRADE
TAS1,"2007/10/31 07:00:00",1308.73,55.66,TRADE
TAS1,"2007/10/31 07:30:00",1303.06,33.87,TRADE
TAS1,"2007/10/31 08:00:00",1278.4,40.06,TRADE
TAS1,"2007/10/31 08:30:00",1231.16,39.33,TRADE
TAS1,"2007/10/31 09:00:00",1185.84,40.67,TRADE
TAS1,"2007/10/31 09:30:00",1164.26,41.92,TRADE
TAS1,"2007/10/31 10:00:00",1138.31,40.82,TRADE
TAS1,"2007/10/31 10:30:00",1105.81,39.05,TRADE
TAS1,"2007/10/31 11:00:00",1100.33,43.09,TRADE
TAS1,"2007/10/31 11:30:00",1088.64,40.86,TRADE
TAS1,"2007/10/31 12:00:00",1065.19,39.84,TRADE
TAS1,"2007/10/31 12:30:00",1077.87,39.86,TRADE
TAS1,"2007/10/31 13:00:00",1074.47,39.07,TRADE
TAS1,"2007/10/31 13:30:00",1084.27,39.99,TRADE
TAS1,"2007/10/31 14:00:00",1084.02,39.99,TRADE
TAS1,"2007/10/31 14:30:00",1110.1,39.99,TRADE
TAS1,"2007/10/31 15:00:00",1151.93,40.32,TRADE
TAS1,"2007/10/31 15:30:00",1194.7,40.84,TRADE
TAS1,"2007/10/31 16:00:00",1203.93,40.52,TRADE
TAS1,"2007/10/31 16:30:00",1214.32,42.33,TRADE
TAS1,"2007/10/31 17:00:00",1212.9,41.62,TRADE
TAS1,"2007/10/31 17:30:00",1207.19,38.75,TRADE
TAS1,"2007/10/31 18:00:00",1198.12,50.02,TRADE
TAS1,"2007/10/31 18:30:00",1178.63,24.78,TRADE
TAS1,"2007/10/31 19:00:00",1205.46,25.74,TRADE
TAS1,"2007/10/31 19:30:00",1231.54,37.23,TRADE
TAS1,"2007/10/31 20:00:00",1258.97,26.75,TRADE
TAS1,"2007/10/31 20:30:00",1253.67,20.27,TRADE
TAS1,"2007/10/31 21:00:00",1221.62,12.09,TRADE
TAS1,"2007/10/31 21:30:00",1183.8,22.1,TRADE
TAS1,"2007/10/31 22:00:00",1137.47,24.59,TRADE
TAS1,"2007/10/31 22:30:00",1085.16,28.16,TRADE
TAS1,"2007/10/31 23:00:00",1054.98,24.58,TRADE
TAS1,"2007/10/31 23:30:00",1033.97,32.12,TRADE
TAS1,"2007/11/01 00:00:00",1034.42,33.63,TRADE
