REGION,SETTLEMENTDATE,TOTALDEMAND,RRP,PERIODTYPE
TAS1,"2008/10/01 00:30:00",1071.58,26.11,TRADE
TAS1,"2008/10/01 01:00:00",1065.08,29.68,TRADE
TAS1,"2008/10/01 01:30:00",1055.11,29.69,TRADE
TAS1,"2008/10/01 02:00:00",1053.25,28.34,TRADE
TAS1,"2008/10/01 02:30:00",1035.12,22.89,TRADE
TAS1,"2008/10/01 03:00:00",1053.65,24.45,TRADE
TAS1,"2008/10/01 03:30:00",1055.88,23.81,TRADE
TAS1,"2008/10/01 04:00:00",1051.48,18.01,TRADE
TAS1,"2008/10/01 04:30:00",1032.34,21.03,TRADE
TAS1,"2008/10/01 05:00:00",1054,25.55,TRADE
TAS1,"2008/10/01 05:30:00",1068.08,29.67,TRADE
TAS1,"2008/10/01 06:00:00",1085.44,23.82,TRADE
TAS1,"2008/10/01 06:30:00",1149.55,4.41,TRADE
TAS1,"2008/10/01 07:00:00",1258.73,13.2,TRADE
TAS1,"2008/10/01 07:30:00",1372.19,27.72,TRADE
TAS1,"2008/10/01 08:00:00",1340.74,30.79,TRADE
TAS1,"2008/10/01 08:30:00",1236.35,22.54,TRADE
TAS1,"2008/10/01 09:00:00",1308.67,38.06,TRADE
TAS1,"2008/10/01 09:30:00",1286.52,41.64,TRADE
TAS1,"2008/10/01 10:00:00",1264.55,41.75,TRADE
TAS1,"2008/10/01 10:30:00",1182.62,26.89,TRADE
TAS1,"2008/10/01 11:00:00",1142.51,5.85,TRADE
TAS1,"2008/10/01 11:30:00",1130.39,6.89,TRADE
TAS1,"2008/10/01 12:00:00",1117.74,11.58,TRADE
TAS1,"2008/10/01 12:30:00",1126.32,36.56,TRADE
TAS1,"2008/10/01 13:00:00",1120.51,7.85,TRADE
TAS1,"2008/10/01 13:30:00",1122.23,38.41,TRADE
TAS1,"2008/10/01 14:00:00",1112.59,8.02,TRADE
TAS1,"2008/10/01 14:30:00",1153.39,28.52,TRADE
TAS1,"2008/10/01 15:00:00",1153.56,17.44,TRADE
TAS1,"2008/10/01 15:30:00",1142.78,6.86,TRADE
TAS1,"2008/10/01 16:00:00",1158.55,7.14,TRADE
TAS1,"2008/10/01 16:30:00",1167.3,6.84,TRADE
TAS1,"2008/10/01 17:00:00",1163.35,11.61,TRADE
TAS1,"2008/10/01 17:30:00",1209.4,31.36,TRADE
TAS1,"2008/10/01 18:00:00",1263.87,40.93,TRADE
TAS1,"2008/10/01 18:30:00",1295.1,45.59,TRADE
TAS1,"2008/10/01 19:00:00",1231.94,35.89,TRADE
TAS1,"2008/10/01 19:30:00",1257.45,36,TRADE
TAS1,"2008/10/01 20:00:00",1296.76,40.62,TRADE
TAS1,"2008/10/01 20:30:00",1287.8,37.92,TRADE
TAS1,"2008/10/01 21:00:00",1264.39,28.6,TRADE
TAS1,"2008/10/01 21:30:00",1237.26,20.65,TRADE
TAS1,"2008/10/01 22:00:00",1211.77,6.19,TRADE
TAS1,"2008/10/01 22:30:00",1137.47,4.11,TRADE
TAS1,"2008/10/01 23:00:00",1068.67,3.52,TRADE
TAS1,"2008/10/01 23:30:00",1037.3,24.6,TRADE
TAS1,"2008/10/02 00:00:00",1039.79,24.65,TRADE
TAS1,"2008/10/02 00:30:00",1039.84,22.86,TRADE
TAS1,"2008/10/02 01:00:00",1009.92,22.68,TRADE
TAS1,"2008/10/02 01:30:00",1012.63,28.88,TRADE
TAS1,"2008/10/02 02:00:00",978.19,20.46,TRADE
TAS1,"2008/10/02 02:30:00",975.92,19.89,TRADE
TAS1,"2008/10/02 03:00:00",969.06,19.48,TRADE
TAS1,"2008/10/02 03:30:00",965.33,14.94,TRADE
TAS1,"2008/10/02 04:00:00",962.94,16.88,TRADE
TAS1,"2008/10/02 04:30:00",961.92,24.23,TRADE
TAS1,"2008/10/02 05:00:00",967.13,22.59,TRADE
TAS1,"2008/10/02 05:30:00",965.3,23.95,TRADE
TAS1,"2008/10/02 06:00:00",1005.19,31.04,TRADE
TAS1,"2008/10/02 06:30:00",1073.29,28.68,TRADE
TAS1,"2008/10/02 07:00:00",1153.15,22.34,TRADE
TAS1,"2008/10/02 07:30:00",1252.25,19.38,TRADE
TAS1,"2008/10/02 08:00:00",1285.29,23.86,TRADE
TAS1,"2008/10/02 08:30:00",1272.84,36.01,TRADE
TAS1,"2008/10/02 09:00:00",1242.9,37.77,TRADE
TAS1,"2008/10/02 09:30:00",1216.78,15.98,TRADE
TAS1,"2008/10/02 10:00:00",1198.97,23.67,TRADE
TAS1,"2008/10/02 10:30:00",1156.64,13.48,TRADE
TAS1,"2008/10/02 11:00:00",1151.46,23.91,TRADE
TAS1,"2008/10/02 11:30:00",1141.97,26.28,TRADE
TAS1,"2008/10/02 12:00:00",1142.13,36.27,TRADE
TAS1,"2008/10/02 12:30:00",1121.72,8.16,TRADE
TAS1,"2008/10/02 13:00:00",1126.84,11.36,TRADE
TAS1,"2008/10/02 13:30:00",1119.49,9.41,TRADE
TAS1,"2008/10/02 14:00:00",1123.87,17.33,TRADE
TAS1,"2008/10/02 14:30:00",1137.9,57.85,TRADE
TAS1,"2008/10/02 15:00:00",1129.78,42.82,TRADE
TAS1,"2008/10/02 15:30:00",1121.01,40.35,TRADE
TAS1,"2008/10/02 16:00:00",1127.77,37.58,TRADE
TAS1,"2008/10/02 16:30:00",1123.07,38.43,TRADE
TAS1,"2008/10/02 17:00:00",1120.86,40.2,TRADE
TAS1,"2008/10/02 17:30:00",1141,36.51,TRADE
TAS1,"2008/10/02 18:00:00",1177.09,38.28,TRADE
TAS1,"2008/10/02 18:30:00",1206.41,44.36,TRADE
TAS1,"2008/10/02 19:00:00",1250.31,59.29,TRADE
TAS1,"2008/10/02 19:30:00",1254.42,54.49,TRADE
TAS1,"2008/10/02 20:00:00",1252.64,45.95,TRADE
TAS1,"2008/10/02 20:30:00",1266.56,46.47,TRADE
TAS1,"2008/10/02 21:00:00",1242.95,42.62,TRADE
TAS1,"2008/10/02 21:30:00",1208.32,34.72,TRADE
TAS1,"2008/10/02 22:00:00",1175.73,32.37,TRADE
TAS1,"2008/10/02 22:30:00",1142.75,37.25,TRADE
TAS1,"2008/10/02 23:00:00",1101.87,29.55,TRADE
TAS1,"2008/10/02 23:30:00",1042.17,34.8,TRADE
TAS1,"2008/10/03 00:00:00",1008.89,6.37,TRADE
TAS1,"2008/10/03 00:30:00",995.56,4.56,TRADE
TAS1,"2008/10/03 01:00:00",979.86,4.4,TRADE
TAS1,"2008/10/03 01:30:00",979.81,4.03,TRADE
TAS1,"2008/10/03 02:00:00",968.02,2.22,TRADE
TAS1,"2008/10/03 02:30:00",955.99,1.16,TRADE
TAS1,"2008/10/03 03:00:00",955.35,1.16,TRADE
TAS1,"2008/10/03 03:30:00",956.69,1.16,TRADE
TAS1,"2008/10/03 04:00:00",946.98,1.16,TRADE
TAS1,"2008/10/03 04:30:00",956.57,1.85,TRADE
TAS1,"2008/10/03 05:00:00",972.84,1.17,TRADE
TAS1,"2008/10/03 05:30:00",973.67,1.54,TRADE
TAS1,"2008/10/03 06:00:00",1017.56,3.79,TRADE
TAS1,"2008/10/03 06:30:00",1077.89,3.82,TRADE
TAS1,"2008/10/03 07:00:00",1171.68,12.11,TRADE
TAS1,"2008/10/03 07:30:00",1279.57,19.51,TRADE
TAS1,"2008/10/03 08:00:00",1255.11,25.22,TRADE
TAS1,"2008/10/03 08:30:00",1123.66,12.19,TRADE
TAS1,"2008/10/03 09:00:00",1213.96,11.71,TRADE
TAS1,"2008/10/03 09:30:00",1234.44,47.39,TRADE
TAS1,"2008/10/03 10:00:00",1204.93,57.45,TRADE
TAS1,"2008/10/03 10:30:00",1187.24,70.78,TRADE
TAS1,"2008/10/03 11:00:00",1162.61,70.8,TRADE
TAS1,"2008/10/03 11:30:00",1212.86,74.6,TRADE
TAS1,"2008/10/03 12:00:00",1192.25,71.74,TRADE
TAS1,"2008/10/03 12:30:00",1164.28,75.68,TRADE
TAS1,"2008/10/03 13:00:00",1140.99,74.05,TRADE
TAS1,"2008/10/03 13:30:00",1145.58,76.48,TRADE
TAS1,"2008/10/03 14:00:00",1146.57,76.07,TRADE
TAS1,"2008/10/03 14:30:00",1165.57,76.22,TRADE
TAS1,"2008/10/03 15:00:00",1151.89,70.79,TRADE
TAS1,"2008/10/03 15:30:00",1141.51,71.73,TRADE
TAS1,"2008/10/03 16:00:00",1147.08,70.78,TRADE
TAS1,"2008/10/03 16:30:00",1164.47,70.78,TRADE
TAS1,"2008/10/03 17:00:00",1183.28,68.1,TRADE
TAS1,"2008/10/03 17:30:00",1199.66,61.33,TRADE
TAS1,"2008/10/03 18:00:00",1201.35,57.92,TRADE
TAS1,"2008/10/03 18:30:00",1174.15,60.28,TRADE
TAS1,"2008/10/03 19:00:00",1311.67,68.38,TRADE
TAS1,"2008/10/03 19:30:00",1328.51,46.45,TRADE
TAS1,"2008/10/03 20:00:00",1303.81,40.56,TRADE
TAS1,"2008/10/03 20:30:00",1304.11,40.12,TRADE
TAS1,"2008/10/03 21:00:00",1271.25,34.32,TRADE
TAS1,"2008/10/03 21:30:00",1250.7,32.82,TRADE
TAS1,"2008/10/03 22:00:00",1209.23,21.07,TRADE
TAS1,"2008/10/03 22:30:00",1179.26,24.93,TRADE
TAS1,"2008/10/03 23:00:00",1137.67,21.86,TRADE
TAS1,"2008/10/03 23:30:00",1083.61,39.87,TRADE
TAS1,"2008/10/04 00:00:00",1055.43,31.72,TRADE
TAS1,"2008/10/04 00:30:00",1046.43,24.08,TRADE
TAS1,"2008/10/04 01:00:00",1045.73,22.71,TRADE
TAS1,"2008/10/04 01:30:00",1021.63,36.04,TRADE
TAS1,"2008/10/04 02:00:00",1009.26,27.66,TRADE
TAS1,"2008/10/04 02:30:00",1019.39,25.54,TRADE
TAS1,"2008/10/04 03:00:00",1008.42,23.96,TRADE
TAS1,"2008/10/04 03:30:00",1053.99,19.87,TRADE
TAS1,"2008/10/04 04:00:00",1049.17,20.99,TRADE
TAS1,"2008/10/04 04:30:00",1029.76,21.46,TRADE
TAS1,"2008/10/04 05:00:00",1037.09,20.32,TRADE
TAS1,"2008/10/04 05:30:00",1047.82,20.67,TRADE
TAS1,"2008/10/04 06:00:00",1062.22,19.84,TRADE
TAS1,"2008/10/04 06:30:00",1096.76,20.11,TRADE
TAS1,"2008/10/04 07:00:00",1119.21,21.8,TRADE
TAS1,"2008/10/04 07:30:00",1162.77,15.08,TRADE
TAS1,"2008/10/04 08:00:00",1216.16,22.46,TRADE
TAS1,"2008/10/04 08:30:00",1208.94,27.17,TRADE
TAS1,"2008/10/04 09:00:00",1196.45,33.25,TRADE
TAS1,"2008/10/04 09:30:00",1214.94,40.18,TRADE
TAS1,"2008/10/04 10:00:00",1208.88,43.1,TRADE
TAS1,"2008/10/04 10:30:00",1194.32,45.15,TRADE
TAS1,"2008/10/04 11:00:00",1180.37,43.08,TRADE
TAS1,"2008/10/04 11:30:00",1166.24,38.03,TRADE
TAS1,"2008/10/04 12:00:00",1156.88,35.78,TRADE
TAS1,"2008/10/04 12:30:00",1114.16,34.14,TRADE
TAS1,"2008/10/04 13:00:00",1098.39,31.27,TRADE
TAS1,"2008/10/04 13:30:00",1090.05,30.7,TRADE
TAS1,"2008/10/04 14:00:00",1075.52,26.55,TRADE
TAS1,"2008/10/04 14:30:00",1080.16,36.14,TRADE
TAS1,"2008/10/04 15:00:00",1081.55,21.89,TRADE
TAS1,"2008/10/04 15:30:00",1091.37,23.05,TRADE
TAS1,"2008/10/04 16:00:00",1093.84,22.35,TRADE
TAS1,"2008/10/04 16:30:00",1091.93,30.46,TRADE
TAS1,"2008/10/04 17:00:00",1100.87,24.61,TRADE
TAS1,"2008/10/04 17:30:00",1136.78,31.01,TRADE
TAS1,"2008/10/04 18:00:00",1187.86,31.51,TRADE
TAS1,"2008/10/04 18:30:00",1240,35.4,TRADE
TAS1,"2008/10/04 19:00:00",1276.26,38.26,TRADE
TAS1,"2008/10/04 19:30:00",1276.63,41.14,TRADE
TAS1,"2008/10/04 20:00:00",1252.62,31.62,TRADE
TAS1,"2008/10/04 20:30:00",1247.49,31.35,TRADE
TAS1,"2008/10/04 21:00:00",1223.7,28.07,TRADE
TAS1,"2008/10/04 21:30:00",1218.4,23.81,TRADE
TAS1,"2008/10/04 22:00:00",1187.3,23.46,TRADE
TAS1,"2008/10/04 22:30:00",1146.11,24.22,TRADE
TAS1,"2008/10/04 23:00:00",1112.23,22.93,TRADE
TAS1,"2008/10/04 23:30:00",1074.63,30.2,TRADE
TAS1,"2008/10/05 00:00:00",1054.86,25.56,TRADE
TAS1,"2008/10/05 00:30:00",1039.06,22.01,TRADE
TAS1,"2008/10/05 01:00:00",1003.68,24.59,TRADE
TAS1,"2008/10/05 01:30:00",989.08,29.27,TRADE
TAS1,"2008/10/05 02:00:00",990.31,25.59,TRADE
TAS1,"2008/10/05 02:30:00",991.76,27.17,TRADE
TAS1,"2008/10/05 03:00:00",1004.99,17.84,TRADE
TAS1,"2008/10/05 03:30:00",1004.04,20.69,TRADE
TAS1,"2008/10/05 04:00:00",1006.04,19.06,TRADE
TAS1,"2008/10/05 04:30:00",1021.17,16.71,TRADE
TAS1,"2008/10/05 05:00:00",1038.76,16.5,TRADE
TAS1,"2008/10/05 05:30:00",1048.28,15.52,TRADE
TAS1,"2008/10/05 06:00:00",1061.91,13.8,TRADE
TAS1,"2008/10/05 06:30:00",1090.27,16.17,TRADE
TAS1,"2008/10/05 07:00:00",1115.48,16.81,TRADE
TAS1,"2008/10/05 07:30:00",1143.61,4.42,TRADE
TAS1,"2008/10/05 08:00:00",1174.47,7.73,TRADE
TAS1,"2008/10/05 08:30:00",1191.28,21.1,TRADE
TAS1,"2008/10/05 09:00:00",1208.45,21.76,TRADE
TAS1,"2008/10/05 09:30:00",1197.59,21.91,TRADE
TAS1,"2008/10/05 10:00:00",1207.65,21.09,TRADE
TAS1,"2008/10/05 10:30:00",1200.64,21.29,TRADE
TAS1,"2008/10/05 11:00:00",1189.41,21.97,TRADE
TAS1,"2008/10/05 11:30:00",1165.73,20.89,TRADE
TAS1,"2008/10/05 12:00:00",1152.23,20.25,TRADE
TAS1,"2008/10/05 12:30:00",1121.91,20.45,TRADE
TAS1,"2008/10/05 13:00:00",1109.42,20.09,TRADE
TAS1,"2008/10/05 13:30:00",1080.82,19.96,TRADE
TAS1,"2008/10/05 14:00:00",1058.55,19.7,TRADE
TAS1,"2008/10/05 14:30:00",1083.09,19.85,TRADE
TAS1,"2008/10/05 15:00:00",1099.31,19.92,TRADE
TAS1,"2008/10/05 15:30:00",1105.47,20.09,TRADE
TAS1,"2008/10/05 16:00:00",1104.03,20.23,TRADE
TAS1,"2008/10/05 16:30:00",1124.7,20.63,TRADE
TAS1,"2008/10/05 17:00:00",1150.44,17.74,TRADE
TAS1,"2008/10/05 17:30:00",1174.28,20.34,TRADE
TAS1,"2008/10/05 18:00:00",1196.99,21.01,TRADE
TAS1,"2008/10/05 18:30:00",1224.05,22.86,TRADE
TAS1,"2008/10/05 19:00:00",1256.74,33.04,TRADE
TAS1,"2008/10/05 19:30:00",1253.44,31.87,TRADE
TAS1,"2008/10/05 20:00:00",1238.89,29.6,TRADE
TAS1,"2008/10/05 20:30:00",1218.66,25.55,TRADE
TAS1,"2008/10/05 21:00:00",1180.63,21.28,TRADE
TAS1,"2008/10/05 21:30:00",1138.15,20.13,TRADE
TAS1,"2008/10/05 22:00:00",1095.71,24.35,TRADE
TAS1,"2008/10/05 22:30:00",1018.62,28.78,TRADE
TAS1,"2008/10/05 23:00:00",971.43,15.27,TRADE
TAS1,"2008/10/05 23:30:00",945.79,16.48,TRADE
TAS1,"2008/10/06 00:00:00",965.96,16.64,TRADE
TAS1,"2008/10/06 00:30:00",965.4,17.41,TRADE
TAS1,"2008/10/06 01:00:00",995.01,14.17,TRADE
TAS1,"2008/10/06 01:30:00",1011.38,3.12,TRADE
TAS1,"2008/10/06 02:00:00",994.01,10.66,TRADE
TAS1,"2008/10/06 02:30:00",994.84,4.49,TRADE
TAS1,"2008/10/06 03:00:00",1009.09,8.28,TRADE
TAS1,"2008/10/06 03:30:00",1007.39,8.67,TRADE
TAS1,"2008/10/06 04:00:00",970.01,2.22,TRADE
TAS1,"2008/10/06 04:30:00",977.59,4.71,TRADE
TAS1,"2008/10/06 05:00:00",1021.11,2.79,TRADE
TAS1,"2008/10/06 05:30:00",1107.11,6.19,TRADE
TAS1,"2008/10/06 06:00:00",1191.64,13.2,TRADE
TAS1,"2008/10/06 06:30:00",1335.95,59.63,TRADE
TAS1,"2008/10/06 07:00:00",1397.58,48.97,TRADE
TAS1,"2008/10/06 07:30:00",1391.99,26.76,TRADE
TAS1,"2008/10/06 08:00:00",1382.02,30.79,TRADE
TAS1,"2008/10/06 08:30:00",1331.12,43.27,TRADE
TAS1,"2008/10/06 09:00:00",1274.88,54.25,TRADE
TAS1,"2008/10/06 09:30:00",1233.17,51.74,TRADE
TAS1,"2008/10/06 10:00:00",1187.29,45.22,TRADE
TAS1,"2008/10/06 10:30:00",1173,57.1,TRADE
TAS1,"2008/10/06 11:00:00",1166.21,58.56,TRADE
TAS1,"2008/10/06 11:30:00",1181.06,58.65,TRADE
TAS1,"2008/10/06 12:00:00",1164.41,58.92,TRADE
TAS1,"2008/10/06 12:30:00",1149.1,60.36,TRADE
TAS1,"2008/10/06 13:00:00",1162.8,63.37,TRADE
TAS1,"2008/10/06 13:30:00",1164.46,63.21,TRADE
TAS1,"2008/10/06 14:00:00",1145.03,55.26,TRADE
TAS1,"2008/10/06 14:30:00",1136.12,44.09,TRADE
TAS1,"2008/10/06 15:00:00",1155.05,48.21,TRADE
TAS1,"2008/10/06 15:30:00",1186.59,50.54,TRADE
TAS1,"2008/10/06 16:00:00",1200.49,48.17,TRADE
TAS1,"2008/10/06 16:30:00",1235.61,53.18,TRADE
TAS1,"2008/10/06 17:00:00",1259.36,43.82,TRADE
TAS1,"2008/10/06 17:30:00",1263.69,47.35,TRADE
TAS1,"2008/10/06 18:00:00",1283.54,50.15,TRADE
TAS1,"2008/10/06 18:30:00",1313.28,60.89,TRADE
TAS1,"2008/10/06 19:00:00",1354.71,58.64,TRADE
TAS1,"2008/10/06 19:30:00",1345.42,59.88,TRADE
TAS1,"2008/10/06 20:00:00",1351.09,51.15,TRADE
TAS1,"2008/10/06 20:30:00",1331.71,44.43,TRADE
TAS1,"2008/10/06 21:00:00",1305.33,39.39,TRADE
TAS1,"2008/10/06 21:30:00",1254.59,33.8,TRADE
TAS1,"2008/10/06 22:00:00",1181.75,25.39,TRADE
TAS1,"2008/10/06 22:30:00",1111.81,37.26,TRADE
TAS1,"2008/10/06 23:00:00",1063.62,28.68,TRADE
TAS1,"2008/10/06 23:30:00",1048,32.25,TRADE
TAS1,"2008/10/07 00:00:00",1015.72,31.58,TRADE
TAS1,"2008/10/07 00:30:00",1015.77,27.06,TRADE
TAS1,"2008/10/07 01:00:00",1005.42,24.58,TRADE
TAS1,"2008/10/07 01:30:00",1002.15,26.56,TRADE
TAS1,"2008/10/07 02:00:00",1001.31,30.59,TRADE
TAS1,"2008/10/07 02:30:00",992.94,20.61,TRADE
TAS1,"2008/10/07 03:00:00",992.94,20.24,TRADE
TAS1,"2008/10/07 03:30:00",991.97,20.58,TRADE
TAS1,"2008/10/07 04:00:00",998.38,22.31,TRADE
TAS1,"2008/10/07 04:30:00",1024.57,21.4,TRADE
TAS1,"2008/10/07 05:00:00",1052.99,23.2,TRADE
TAS1,"2008/10/07 05:30:00",1139.46,32.97,TRADE
TAS1,"2008/10/07 06:00:00",1247.13,48.2,TRADE
TAS1,"2008/10/07 06:30:00",1372.61,60.7,TRADE
TAS1,"2008/10/07 07:00:00",1434.72,77.43,TRADE
TAS1,"2008/10/07 07:30:00",1426.13,51.66,TRADE
TAS1,"2008/10/07 08:00:00",1413.89,47.32,TRADE
TAS1,"2008/10/07 08:30:00",1354.57,46.81,TRADE
TAS1,"2008/10/07 09:00:00",1316.76,64.1,TRADE
TAS1,"2008/10/07 09:30:00",1267.64,54.56,TRADE
TAS1,"2008/10/07 10:00:00",1227.33,44.71,TRADE
TAS1,"2008/10/07 10:30:00",1220.34,41.29,TRADE
TAS1,"2008/10/07 11:00:00",1210.53,41.62,TRADE
TAS1,"2008/10/07 11:30:00",1190.29,41.51,TRADE
TAS1,"2008/10/07 12:00:00",1172.93,41.65,TRADE
TAS1,"2008/10/07 12:30:00",1140.35,40.42,TRADE
TAS1,"2008/10/07 13:00:00",1132.12,40.93,TRADE
TAS1,"2008/10/07 13:30:00",1123.72,40.41,TRADE
TAS1,"2008/10/07 14:00:00",1133.94,40.1,TRADE
TAS1,"2008/10/07 14:30:00",1136.79,39.12,TRADE
TAS1,"2008/10/07 15:00:00",1143.98,42.94,TRADE
TAS1,"2008/10/07 15:30:00",1170.3,52.1,TRADE
TAS1,"2008/10/07 16:00:00",1182.32,64.79,TRADE
TAS1,"2008/10/07 16:30:00",1204.3,68.68,TRADE
TAS1,"2008/10/07 17:00:00",1190.95,64.55,TRADE
TAS1,"2008/10/07 17:30:00",1206.4,26.86,TRADE
TAS1,"2008/10/07 18:00:00",1239.99,39.82,TRADE
TAS1,"2008/10/07 18:30:00",1295.22,58.31,TRADE
TAS1,"2008/10/07 19:00:00",1326.79,76.07,TRADE
TAS1,"2008/10/07 19:30:00",1351.98,75.32,TRADE
TAS1,"2008/10/07 20:00:00",1336.96,72.3,TRADE
TAS1,"2008/10/07 20:30:00",1311.75,50.55,TRADE
TAS1,"2008/10/07 21:00:00",1254.87,25.08,TRADE
TAS1,"2008/10/07 21:30:00",1207.86,44.16,TRADE
TAS1,"2008/10/07 22:00:00",1163.89,36,TRADE
TAS1,"2008/10/07 22:30:00",1101.68,37.56,TRADE
TAS1,"2008/10/07 23:00:00",1055.68,34.27,TRADE
TAS1,"2008/10/07 23:30:00",1023.89,36.7,TRADE
TAS1,"2008/10/08 00:00:00",996.78,37.74,TRADE
TAS1,"2008/10/08 00:30:00",987.37,39.52,TRADE
TAS1,"2008/10/08 01:00:00",985.2,38,TRADE
TAS1,"2008/10/08 01:30:00",983.87,42.36,TRADE
TAS1,"2008/10/08 02:00:00",976.72,27.96,TRADE
TAS1,"2008/10/08 02:30:00",976.78,30.38,TRADE
TAS1,"2008/10/08 03:00:00",976.35,31.18,TRADE
TAS1,"2008/10/08 03:30:00",980.5,37.3,TRADE
TAS1,"2008/10/08 04:00:00",989.16,37.28,TRADE
TAS1,"2008/10/08 04:30:00",1013.68,23.27,TRADE
TAS1,"2008/10/08 05:00:00",1018.35,20.99,TRADE
TAS1,"2008/10/08 05:30:00",1108.68,35.8,TRADE
TAS1,"2008/10/08 06:00:00",1215.36,44.07,TRADE
TAS1,"2008/10/08 06:30:00",1318.72,44.8,TRADE
TAS1,"2008/10/08 07:00:00",1383.27,84.31,TRADE
TAS1,"2008/10/08 07:30:00",1382.35,41.54,TRADE
TAS1,"2008/10/08 08:00:00",1350.92,58.73,TRADE
TAS1,"2008/10/08 08:30:00",1335.94,72.2,TRADE
TAS1,"2008/10/08 09:00:00",1302.96,72.59,TRADE
TAS1,"2008/10/08 09:30:00",1238.73,65.58,TRADE
TAS1,"2008/10/08 10:00:00",1202.09,56.97,TRADE
TAS1,"2008/10/08 10:30:00",1224.56,58.32,TRADE
TAS1,"2008/10/08 11:00:00",1213.7,55.1,TRADE
TAS1,"2008/10/08 11:30:00",1189.56,48.05,TRADE
TAS1,"2008/10/08 12:00:00",1177.61,67.9,TRADE
TAS1,"2008/10/08 12:30:00",1162.4,49.8,TRADE
TAS1,"2008/10/08 13:00:00",1179.93,42.08,TRADE
TAS1,"2008/10/08 13:30:00",1157.7,42.12,TRADE
TAS1,"2008/10/08 14:00:00",1160.28,22.27,TRADE
TAS1,"2008/10/08 14:30:00",1177.02,8.03,TRADE
TAS1,"2008/10/08 15:00:00",1188.04,1.66,TRADE
TAS1,"2008/10/08 15:30:00",1190.22,26.56,TRADE
TAS1,"2008/10/08 16:00:00",1206.65,19.53,TRADE
TAS1,"2008/10/08 16:30:00",1220.89,31.14,TRADE
TAS1,"2008/10/08 17:00:00",1228.1,31.8,TRADE
TAS1,"2008/10/08 17:30:00",1223.66,31,TRADE
TAS1,"2008/10/08 18:00:00",1259.56,29.49,TRADE
TAS1,"2008/10/08 18:30:00",1290.61,34.26,TRADE
TAS1,"2008/10/08 19:00:00",1322.19,43.28,TRADE
TAS1,"2008/10/08 19:30:00",1327.87,43.68,TRADE
TAS1,"2008/10/08 20:00:00",1313.84,36.4,TRADE
TAS1,"2008/10/08 20:30:00",1298.07,41.35,TRADE
TAS1,"2008/10/08 21:00:00",1250.35,28.63,TRADE
TAS1,"2008/10/08 21:30:00",1217.27,33.05,TRADE
TAS1,"2008/10/08 22:00:00",1141.5,30.7,TRADE
TAS1,"2008/10/08 22:30:00",1096.83,25.27,TRADE
TAS1,"2008/10/08 23:00:00",1036.81,28.16,TRADE
TAS1,"2008/10/08 23:30:00",1034.81,32.72,TRADE
TAS1,"2008/10/09 00:00:00",1019.26,33.27,TRADE
TAS1,"2008/10/09 00:30:00",1012.08,22.33,TRADE
TAS1,"2008/10/09 01:00:00",993.16,13.58,TRADE
TAS1,"2008/10/09 01:30:00",991.15,37.15,TRADE
TAS1,"2008/10/09 02:00:00",1008.28,13.63,TRADE
TAS1,"2008/10/09 02:30:00",1000.27,3.56,TRADE
TAS1,"2008/10/09 03:00:00",1007.41,16.28,TRADE
TAS1,"2008/10/09 03:30:00",1011.99,14.53,TRADE
TAS1,"2008/10/09 04:00:00",1006.32,12.8,TRADE
TAS1,"2008/10/09 04:30:00",1024.71,22.64,TRADE
TAS1,"2008/10/09 05:00:00",1057.04,19.76,TRADE
TAS1,"2008/10/09 05:30:00",1175.08,40.15,TRADE
TAS1,"2008/10/09 06:00:00",1235.99,55.44,TRADE
TAS1,"2008/10/09 06:30:00",1332.14,39.83,TRADE
TAS1,"2008/10/09 07:00:00",1387.83,66.11,TRADE
TAS1,"2008/10/09 07:30:00",1385.73,32.56,TRADE
TAS1,"2008/10/09 08:00:00",1374.69,36.37,TRADE
TAS1,"2008/10/09 08:30:00",1326.29,38.74,TRADE
TAS1,"2008/10/09 09:00:00",1279.9,17.59,TRADE
TAS1,"2008/10/09 09:30:00",1231.97,17.08,TRADE
TAS1,"2008/10/09 10:00:00",1196.16,36.73,TRADE
TAS1,"2008/10/09 10:30:00",1176.38,33.69,TRADE
TAS1,"2008/10/09 11:00:00",1169.56,41.12,TRADE
TAS1,"2008/10/09 11:30:00",1140.28,40.42,TRADE
TAS1,"2008/10/09 12:00:00",1117.35,36.62,TRADE
TAS1,"2008/10/09 12:30:00",1096.52,38.98,TRADE
TAS1,"2008/10/09 13:00:00",1076.96,36.38,TRADE
TAS1,"2008/10/09 13:30:00",1086.24,35.88,TRADE
TAS1,"2008/10/09 14:00:00",1084.59,33.51,TRADE
TAS1,"2008/10/09 14:30:00",1112.92,34.67,TRADE
TAS1,"2008/10/09 15:00:00",1101.21,34.79,TRADE
TAS1,"2008/10/09 15:30:00",1133.66,34.08,TRADE
TAS1,"2008/10/09 16:00:00",1143.65,37.39,TRADE
TAS1,"2008/10/09 16:30:00",1148.95,32.77,TRADE
TAS1,"2008/10/09 17:00:00",1162.66,33.39,TRADE
TAS1,"2008/10/09 17:30:00",1165.55,29.81,TRADE
TAS1,"2008/10/09 18:00:00",1173.66,29.95,TRADE
TAS1,"2008/10/09 18:30:00",1194.62,31.12,TRADE
TAS1,"2008/10/09 19:00:00",1238.89,39.58,TRADE
TAS1,"2008/10/09 19:30:00",1267.41,40.63,TRADE
TAS1,"2008/10/09 20:00:00",1246.23,40.95,TRADE
TAS1,"2008/10/09 20:30:00",1224.63,34.64,TRADE
TAS1,"2008/10/09 21:00:00",1193.37,31.22,TRADE
TAS1,"2008/10/09 21:30:00",1149.08,30.85,TRADE
TAS1,"2008/10/09 22:00:00",1111.24,25.94,TRADE
TAS1,"2008/10/09 22:30:00",1071.26,28.85,TRADE
TAS1,"2008/10/09 23:00:00",1042.68,25.03,TRADE
TAS1,"2008/10/09 23:30:00",1027.41,29.75,TRADE
TAS1,"2008/10/10 00:00:00",1011.75,26.5,TRADE
TAS1,"2008/10/10 00:30:00",1017.52,20.67,TRADE
TAS1,"2008/10/10 01:00:00",1002.72,8.91,TRADE
TAS1,"2008/10/10 01:30:00",996.77,26.81,TRADE
TAS1,"2008/10/10 02:00:00",1012.81,24.95,TRADE
TAS1,"2008/10/10 02:30:00",1014.4,22.23,TRADE
TAS1,"2008/10/10 03:00:00",1013.03,22.35,TRADE
TAS1,"2008/10/10 03:30:00",1021.65,21.74,TRADE
TAS1,"2008/10/10 04:00:00",1034.38,22.5,TRADE
TAS1,"2008/10/10 04:30:00",1058.49,25.41,TRADE
TAS1,"2008/10/10 05:00:00",1087.58,27.21,TRADE
TAS1,"2008/10/10 05:30:00",1134.16,34.14,TRADE
TAS1,"2008/10/10 06:00:00",1229.01,37.26,TRADE
TAS1,"2008/10/10 06:30:00",1320.8,44.42,TRADE
TAS1,"2008/10/10 07:00:00",1377.68,44.74,TRADE
TAS1,"2008/10/10 07:30:00",1367.95,26.81,TRADE
TAS1,"2008/10/10 08:00:00",1375.89,41.01,TRADE
TAS1,"2008/10/10 08:30:00",1365.24,46.08,TRADE
TAS1,"2008/10/10 09:00:00",1321.81,46.75,TRADE
TAS1,"2008/10/10 09:30:00",1284.7,66.31,TRADE
TAS1,"2008/10/10 10:00:00",1257.99,66.31,TRADE
TAS1,"2008/10/10 10:30:00",1268.67,66.3,TRADE
TAS1,"2008/10/10 11:00:00",1238.18,58.54,TRADE
TAS1,"2008/10/10 11:30:00",1215.76,54.96,TRADE
TAS1,"2008/10/10 12:00:00",1213.67,46.96,TRADE
TAS1,"2008/10/10 12:30:00",1190.48,52.56,TRADE
TAS1,"2008/10/10 13:00:00",1166.58,47.66,TRADE
TAS1,"2008/10/10 13:30:00",1151.18,47.02,TRADE
TAS1,"2008/10/10 14:00:00",1153.08,47.32,TRADE
TAS1,"2008/10/10 14:30:00",1154.96,43.82,TRADE
TAS1,"2008/10/10 15:00:00",1163.43,43.92,TRADE
TAS1,"2008/10/10 15:30:00",1190.62,42.82,TRADE
TAS1,"2008/10/10 16:00:00",1220.4,42.94,TRADE
TAS1,"2008/10/10 16:30:00",1231.13,40.4,TRADE
TAS1,"2008/10/10 17:00:00",1224.59,33.5,TRADE
TAS1,"2008/10/10 17:30:00",1221.37,29.87,TRADE
TAS1,"2008/10/10 18:00:00",1229.51,27.23,TRADE
TAS1,"2008/10/10 18:30:00",1241.51,27.63,TRADE
TAS1,"2008/10/10 19:00:00",1265.71,30.96,TRADE
TAS1,"2008/10/10 19:30:00",1273.12,29.67,TRADE
TAS1,"2008/10/10 20:00:00",1270.04,29.21,TRADE
TAS1,"2008/10/10 20:30:00",1250.27,33.79,TRADE
TAS1,"2008/10/10 21:00:00",1223.42,29.09,TRADE
TAS1,"2008/10/10 21:30:00",1200.14,28.54,TRADE
TAS1,"2008/10/10 22:00:00",1174.63,25.12,TRADE
TAS1,"2008/10/10 22:30:00",1122.09,26.99,TRADE
TAS1,"2008/10/10 23:00:00",1085.91,30.3,TRADE
TAS1,"2008/10/10 23:30:00",1053.34,31.08,TRADE
TAS1,"2008/10/11 00:00:00",1043.75,28.84,TRADE
TAS1,"2008/10/11 00:30:00",1034.24,24.23,TRADE
TAS1,"2008/10/11 01:00:00",1023.3,21.09,TRADE
TAS1,"2008/10/11 01:30:00",1013.08,23.75,TRADE
TAS1,"2008/10/11 02:00:00",1008.41,19.51,TRADE
TAS1,"2008/10/11 02:30:00",999.49,19.68,TRADE
TAS1,"2008/10/11 03:00:00",1002.39,21.57,TRADE
TAS1,"2008/10/11 03:30:00",1030.1,20.91,TRADE
TAS1,"2008/10/11 04:00:00",1035.8,19.95,TRADE
TAS1,"2008/10/11 04:30:00",1049.05,21.42,TRADE
TAS1,"2008/10/11 05:00:00",1070.38,19.6,TRADE
TAS1,"2008/10/11 05:30:00",1095.23,17.96,TRADE
TAS1,"2008/10/11 06:00:00",1124.32,11.52,TRADE
TAS1,"2008/10/11 06:30:00",1164.92,14.28,TRADE
TAS1,"2008/10/11 07:00:00",1215.1,21.93,TRADE
TAS1,"2008/10/11 07:30:00",1245.69,24.77,TRADE
TAS1,"2008/10/11 08:00:00",1258.26,24.25,TRADE
TAS1,"2008/10/11 08:30:00",1272.22,28.86,TRADE
TAS1,"2008/10/11 09:00:00",1268.81,31.84,TRADE
TAS1,"2008/10/11 09:30:00",1242.63,24.69,TRADE
TAS1,"2008/10/11 10:00:00",1222.27,33.96,TRADE
TAS1,"2008/10/11 10:30:00",1197.72,33.87,TRADE
TAS1,"2008/10/11 11:00:00",1159.92,32.38,TRADE
TAS1,"2008/10/11 11:30:00",1146.79,28.36,TRADE
TAS1,"2008/10/11 12:00:00",1125.45,30.16,TRADE
TAS1,"2008/10/11 12:30:00",1116.41,29.84,TRADE
TAS1,"2008/10/11 13:00:00",1109.02,26.98,TRADE
TAS1,"2008/10/11 13:30:00",1114.83,26.19,TRADE
TAS1,"2008/10/11 14:00:00",1110.91,27.45,TRADE
TAS1,"2008/10/11 14:30:00",1113.44,29.5,TRADE
TAS1,"2008/10/11 15:00:00",1112.52,27.77,TRADE
TAS1,"2008/10/11 15:30:00",1118.27,29.23,TRADE
TAS1,"2008/10/11 16:00:00",1131.87,31.76,TRADE
TAS1,"2008/10/11 16:30:00",1140.25,28.75,TRADE
TAS1,"2008/10/11 17:00:00",1161.16,29.26,TRADE
TAS1,"2008/10/11 17:30:00",1166.78,34.66,TRADE
TAS1,"2008/10/11 18:00:00",1166.55,34.1,TRADE
TAS1,"2008/10/11 18:30:00",1174.29,35.47,TRADE
TAS1,"2008/10/11 19:00:00",1191.79,30.56,TRADE
TAS1,"2008/10/11 19:30:00",1196.4,23.21,TRADE
TAS1,"2008/10/11 20:00:00",1190.8,24.34,TRADE
TAS1,"2008/10/11 20:30:00",1179.43,29.45,TRADE
TAS1,"2008/10/11 21:00:00",1172.84,31.35,TRADE
TAS1,"2008/10/11 21:30:00",1164.22,27.7,TRADE
TAS1,"2008/10/11 22:00:00",1137.58,22.27,TRADE
TAS1,"2008/10/11 22:30:00",1096.01,25.72,TRADE
TAS1,"2008/10/11 23:00:00",1067.76,21.63,TRADE
TAS1,"2008/10/11 23:30:00",1050.26,23.5,TRADE
TAS1,"2008/10/12 00:00:00",1030.98,23.06,TRADE
TAS1,"2008/10/12 00:30:00",1025.27,21.76,TRADE
TAS1,"2008/10/12 01:00:00",1023.01,20.86,TRADE
TAS1,"2008/10/12 01:30:00",1014.18,22.53,TRADE
TAS1,"2008/10/12 02:00:00",1012.98,19.15,TRADE
TAS1,"2008/10/12 02:30:00",1009.26,16.98,TRADE
TAS1,"2008/10/12 03:00:00",1002.43,15.87,TRADE
TAS1,"2008/10/12 03:30:00",1004.17,9.67,TRADE
TAS1,"2008/10/12 04:00:00",1008.27,9.64,TRADE
TAS1,"2008/10/12 04:30:00",1002.98,9.67,TRADE
TAS1,"2008/10/12 05:00:00",1018.88,9.84,TRADE
TAS1,"2008/10/12 05:30:00",1029.8,9.86,TRADE
TAS1,"2008/10/12 06:00:00",1046.38,10.13,TRADE
TAS1,"2008/10/12 06:30:00",1081.74,10.27,TRADE
TAS1,"2008/10/12 07:00:00",1112.26,11.78,TRADE
TAS1,"2008/10/12 07:30:00",1153.58,13.14,TRADE
TAS1,"2008/10/12 08:00:00",1197.86,5.71,TRADE
TAS1,"2008/10/12 08:30:00",1195.38,7.17,TRADE
TAS1,"2008/10/12 09:00:00",1190.81,15.79,TRADE
TAS1,"2008/10/12 09:30:00",1184.7,18.58,TRADE
TAS1,"2008/10/12 10:00:00",1179.33,20.75,TRADE
TAS1,"2008/10/12 10:30:00",1162.12,21.14,TRADE
TAS1,"2008/10/12 11:00:00",1144.07,20.5,TRADE
TAS1,"2008/10/12 11:30:00",1128.23,20.46,TRADE
TAS1,"2008/10/12 12:00:00",1115.76,20.29,TRADE
TAS1,"2008/10/12 12:30:00",1091.07,25.56,TRADE
TAS1,"2008/10/12 13:00:00",1075.86,24.4,TRADE
TAS1,"2008/10/12 13:30:00",1078.5,24.57,TRADE
TAS1,"2008/10/12 14:00:00",1075.39,23.62,TRADE
TAS1,"2008/10/12 14:30:00",1075.63,24.71,TRADE
TAS1,"2008/10/12 15:00:00",1053.62,21.53,TRADE
TAS1,"2008/10/12 15:30:00",1053.13,22.05,TRADE
TAS1,"2008/10/12 16:00:00",1062.07,24.2,TRADE
TAS1,"2008/10/12 16:30:00",1091.62,25.17,TRADE
TAS1,"2008/10/12 17:00:00",1119.05,26.74,TRADE
TAS1,"2008/10/12 17:30:00",1129.94,32.48,TRADE
TAS1,"2008/10/12 18:00:00",1137.18,34.19,TRADE
TAS1,"2008/10/12 18:30:00",1145.98,43.29,TRADE
TAS1,"2008/10/12 19:00:00",1185.76,29.03,TRADE
TAS1,"2008/10/12 19:30:00",1176.76,25.7,TRADE
TAS1,"2008/10/12 20:00:00",1153.51,25.75,TRADE
TAS1,"2008/10/12 20:30:00",1097.56,27.86,TRADE
TAS1,"2008/10/12 21:00:00",1067.68,20.88,TRADE
TAS1,"2008/10/12 21:30:00",1069.95,26.48,TRADE
TAS1,"2008/10/12 22:00:00",1037.26,20.26,TRADE
TAS1,"2008/10/12 22:30:00",961.52,8.22,TRADE
TAS1,"2008/10/12 23:00:00",916.68,13.03,TRADE
TAS1,"2008/10/12 23:30:00",907.24,18.83,TRADE
TAS1,"2008/10/13 00:00:00",896.6,19.7,TRADE
TAS1,"2008/10/13 00:30:00",891.44,18.64,TRADE
TAS1,"2008/10/13 01:00:00",885.4,18.81,TRADE
TAS1,"2008/10/13 01:30:00",890.87,19.1,TRADE
TAS1,"2008/10/13 02:00:00",888.83,15.41,TRADE
TAS1,"2008/10/13 02:30:00",883.79,10.91,TRADE
TAS1,"2008/10/13 03:00:00",883.51,8.32,TRADE
TAS1,"2008/10/13 03:30:00",882.75,7.1,TRADE
TAS1,"2008/10/13 04:00:00",887.13,5.28,TRADE
TAS1,"2008/10/13 04:30:00",911.6,11.05,TRADE
TAS1,"2008/10/13 05:00:00",934.43,16.67,TRADE
TAS1,"2008/10/13 05:30:00",993.82,25.17,TRADE
TAS1,"2008/10/13 06:00:00",1074.81,21.66,TRADE
TAS1,"2008/10/13 06:30:00",1173.66,25.12,TRADE
TAS1,"2008/10/13 07:00:00",1228.63,29.73,TRADE
TAS1,"2008/10/13 07:30:00",1207.54,32.28,TRADE
TAS1,"2008/10/13 08:00:00",1171.13,32.63,TRADE
TAS1,"2008/10/13 08:30:00",1149.4,37.32,TRADE
TAS1,"2008/10/13 09:00:00",1124.46,34.12,TRADE
TAS1,"2008/10/13 09:30:00",1105.53,35.25,TRADE
TAS1,"2008/10/13 10:00:00",1108.45,39.44,TRADE
TAS1,"2008/10/13 10:30:00",1112.56,44.4,TRADE
TAS1,"2008/10/13 11:00:00",1115.82,56.43,TRADE
TAS1,"2008/10/13 11:30:00",1084.43,49.66,TRADE
TAS1,"2008/10/13 12:00:00",1090.51,41.66,TRADE
TAS1,"2008/10/13 12:30:00",1084.12,43.69,TRADE
TAS1,"2008/10/13 13:00:00",1094.41,38.32,TRADE
TAS1,"2008/10/13 13:30:00",1105.31,41.71,TRADE
TAS1,"2008/10/13 14:00:00",1083.21,36.45,TRADE
TAS1,"2008/10/13 14:30:00",1078.88,37.64,TRADE
TAS1,"2008/10/13 15:00:00",1089.42,42.08,TRADE
TAS1,"2008/10/13 15:30:00",1092.05,40.39,TRADE
TAS1,"2008/10/13 16:00:00",1115.01,40.78,TRADE
TAS1,"2008/10/13 16:30:00",1134.46,41.21,TRADE
TAS1,"2008/10/13 17:00:00",1154.87,40.5,TRADE
TAS1,"2008/10/13 17:30:00",1160.63,38.16,TRADE
TAS1,"2008/10/13 18:00:00",1163.49,48.07,TRADE
TAS1,"2008/10/13 18:30:00",1164.94,38.9,TRADE
TAS1,"2008/10/13 19:00:00",1213.65,47.62,TRADE
TAS1,"2008/10/13 19:30:00",1203.91,46.95,TRADE
TAS1,"2008/10/13 20:00:00",1196.81,33.22,TRADE
TAS1,"2008/10/13 20:30:00",1172.36,32.66,TRADE
TAS1,"2008/10/13 21:00:00",1148.06,30.38,TRADE
TAS1,"2008/10/13 21:30:00",1150.48,29.94,TRADE
TAS1,"2008/10/13 22:00:00",1103.55,19.85,TRADE
TAS1,"2008/10/13 22:30:00",1055.31,33.03,TRADE
TAS1,"2008/10/13 23:00:00",1049.52,26.84,TRADE
TAS1,"2008/10/13 23:30:00",1019.21,33.21,TRADE
TAS1,"2008/10/14 00:00:00",1043.41,32.37,TRADE
TAS1,"2008/10/14 00:30:00",1040.27,30.53,TRADE
TAS1,"2008/10/14 01:00:00",1026.9,28.9,TRADE
TAS1,"2008/10/14 01:30:00",1034.52,34.19,TRADE
TAS1,"2008/10/14 02:00:00",1033.95,26.93,TRADE
TAS1,"2008/10/14 02:30:00",1028.49,25.19,TRADE
TAS1,"2008/10/14 03:00:00",1016.41,24.77,TRADE
TAS1,"2008/10/14 03:30:00",1030.7,31.01,TRADE
TAS1,"2008/10/14 04:00:00",1049.15,28.37,TRADE
TAS1,"2008/10/14 04:30:00",1061.7,35.33,TRADE
TAS1,"2008/10/14 05:00:00",1095.1,28.61,TRADE
TAS1,"2008/10/14 05:30:00",1137.07,37.9,TRADE
TAS1,"2008/10/14 06:00:00",1263.48,54.48,TRADE
TAS1,"2008/10/14 06:30:00",1372.73,52.1,TRADE
TAS1,"2008/10/14 07:00:00",1429.58,68.29,TRADE
TAS1,"2008/10/14 07:30:00",1436.27,41.52,TRADE
TAS1,"2008/10/14 08:00:00",1395.15,34.44,TRADE
TAS1,"2008/10/14 08:30:00",1334.31,41.84,TRADE
TAS1,"2008/10/14 09:00:00",1306.53,40.79,TRADE
TAS1,"2008/10/14 09:30:00",1277.38,38.16,TRADE
TAS1,"2008/10/14 10:00:00",1254.8,41.9,TRADE
TAS1,"2008/10/14 10:30:00",1222.45,42.32,TRADE
TAS1,"2008/10/14 11:00:00",1199.84,42.16,TRADE
TAS1,"2008/10/14 11:30:00",1195.17,46.59,TRADE
TAS1,"2008/10/14 12:00:00",1191.77,46.55,TRADE
TAS1,"2008/10/14 12:30:00",1183.32,46.38,TRADE
TAS1,"2008/10/14 13:00:00",1165.79,46.55,TRADE
TAS1,"2008/10/14 13:30:00",1162.43,46.55,TRADE
TAS1,"2008/10/14 14:00:00",1156.48,46.43,TRADE
TAS1,"2008/10/14 14:30:00",1175.11,46.65,TRADE
TAS1,"2008/10/14 15:00:00",1193.12,46.6,TRADE
TAS1,"2008/10/14 15:30:00",1181.57,47.46,TRADE
TAS1,"2008/10/14 16:00:00",1181.57,47.44,TRADE
TAS1,"2008/10/14 16:30:00",1191.73,49.19,TRADE
TAS1,"2008/10/14 17:00:00",1193.76,47.84,TRADE
TAS1,"2008/10/14 17:30:00",1220.21,45.29,TRADE
TAS1,"2008/10/14 18:00:00",1229.13,41.24,TRADE
TAS1,"2008/10/14 18:30:00",1247.76,40.49,TRADE
TAS1,"2008/10/14 19:00:00",1289.1,46.68,TRADE
TAS1,"2008/10/14 19:30:00",1284.13,45.66,TRADE
TAS1,"2008/10/14 20:00:00",1264.25,52.96,TRADE
TAS1,"2008/10/14 20:30:00",1261.32,41.79,TRADE
TAS1,"2008/10/14 21:00:00",1225.57,38.78,TRADE
TAS1,"2008/10/14 21:30:00",1168.45,41.43,TRADE
TAS1,"2008/10/14 22:00:00",1128.16,34.01,TRADE
TAS1,"2008/10/14 22:30:00",1075.63,59.23,TRADE
TAS1,"2008/10/14 23:00:00",1025.35,40.19,TRADE
TAS1,"2008/10/14 23:30:00",987.96,59.18,TRADE
TAS1,"2008/10/15 00:00:00",979.23,40.18,TRADE
TAS1,"2008/10/15 00:30:00",995.15,40.3,TRADE
TAS1,"2008/10/15 01:00:00",981.73,40.3,TRADE
TAS1,"2008/10/15 01:30:00",960.75,59.24,TRADE
TAS1,"2008/10/15 02:00:00",972.96,40.3,TRADE
TAS1,"2008/10/15 02:30:00",961.98,40.14,TRADE
TAS1,"2008/10/15 03:00:00",951.2,40.12,TRADE
TAS1,"2008/10/15 03:30:00",947.22,40.12,TRADE
TAS1,"2008/10/15 04:00:00",950.41,40.12,TRADE
TAS1,"2008/10/15 04:30:00",959.6,33.88,TRADE
TAS1,"2008/10/15 05:00:00",1008.25,40.27,TRADE
TAS1,"2008/10/15 05:30:00",1098.73,40.42,TRADE
TAS1,"2008/10/15 06:00:00",1184.47,62.79,TRADE
TAS1,"2008/10/15 06:30:00",1280.44,87.03,TRADE
TAS1,"2008/10/15 07:00:00",1290.83,93.48,TRADE
TAS1,"2008/10/15 07:30:00",1246.93,45.17,TRADE
TAS1,"2008/10/15 08:00:00",1219.96,44.28,TRADE
TAS1,"2008/10/15 08:30:00",1201.35,42.64,TRADE
TAS1,"2008/10/15 09:00:00",1157.36,40.28,TRADE
TAS1,"2008/10/15 09:30:00",1129.6,48.72,TRADE
TAS1,"2008/10/15 10:00:00",1132.01,65.41,TRADE
TAS1,"2008/10/15 10:30:00",1125.46,63.03,TRADE
TAS1,"2008/10/15 11:00:00",1096.7,59.81,TRADE
TAS1,"2008/10/15 11:30:00",1096.6,43.25,TRADE
TAS1,"2008/10/15 12:00:00",1091.8,45.78,TRADE
TAS1,"2008/10/15 12:30:00",1108.29,45.27,TRADE
TAS1,"2008/10/15 13:00:00",1117.26,48.62,TRADE
TAS1,"2008/10/15 13:30:00",1117.49,67.76,TRADE
TAS1,"2008/10/15 14:00:00",1115.18,59.45,TRADE
TAS1,"2008/10/15 14:30:00",1133.99,52.08,TRADE
TAS1,"2008/10/15 15:00:00",1132.85,49.08,TRADE
TAS1,"2008/10/15 15:30:00",1136.19,45.87,TRADE
TAS1,"2008/10/15 16:00:00",1141.06,45.9,TRADE
TAS1,"2008/10/15 16:30:00",1176.79,47.66,TRADE
TAS1,"2008/10/15 17:00:00",1197.07,47.86,TRADE
TAS1,"2008/10/15 17:30:00",1194.5,49.86,TRADE
TAS1,"2008/10/15 18:00:00",1196.09,46.3,TRADE
TAS1,"2008/10/15 18:30:00",1204.99,46.16,TRADE
TAS1,"2008/10/15 19:00:00",1237.68,49.03,TRADE
TAS1,"2008/10/15 19:30:00",1257.24,50.55,TRADE
TAS1,"2008/10/15 20:00:00",1254.67,50.29,TRADE
TAS1,"2008/10/15 20:30:00",1239.64,50.22,TRADE
TAS1,"2008/10/15 21:00:00",1210.21,50.23,TRADE
TAS1,"2008/10/15 21:30:00",1197.74,48.45,TRADE
TAS1,"2008/10/15 22:00:00",1125.35,35.74,TRADE
TAS1,"2008/10/15 22:30:00",1098.63,55.62,TRADE
TAS1,"2008/10/15 23:00:00",1070.48,40.27,TRADE
TAS1,"2008/10/15 23:30:00",1049.89,50.19,TRADE
TAS1,"2008/10/16 00:00:00",1031.37,50.18,TRADE
TAS1,"2008/10/16 00:30:00",1016.12,40.22,TRADE
TAS1,"2008/10/16 01:00:00",1021.35,40.25,TRADE
TAS1,"2008/10/16 01:30:00",994.61,52.39,TRADE
TAS1,"2008/10/16 02:00:00",1020.99,40.25,TRADE
TAS1,"2008/10/16 02:30:00",1018.52,40.25,TRADE
TAS1,"2008/10/16 03:00:00",1031.77,40.27,TRADE
TAS1,"2008/10/16 03:30:00",1047.38,40.29,TRADE
TAS1,"2008/10/16 04:00:00",1071.77,55.3,TRADE
TAS1,"2008/10/16 04:30:00",1091.71,35.3,TRADE
TAS1,"2008/10/16 05:00:00",1109.9,35.3,TRADE
TAS1,"2008/10/16 05:30:00",1192.69,47.84,TRADE
TAS1,"2008/10/16 06:00:00",1299.9,60.72,TRADE
TAS1,"2008/10/16 06:30:00",1394.54,58.34,TRADE
TAS1,"2008/10/16 07:00:00",1438.18,72.64,TRADE
TAS1,"2008/10/16 07:30:00",1342.06,50.33,TRADE
TAS1,"2008/10/16 08:00:00",1316.18,49.63,TRADE
TAS1,"2008/10/16 08:30:00",1286.27,51.25,TRADE
TAS1,"2008/10/16 09:00:00",1257.91,50.76,TRADE
TAS1,"2008/10/16 09:30:00",1223.58,51.26,TRADE
TAS1,"2008/10/16 10:00:00",1200.52,51.29,TRADE
TAS1,"2008/10/16 10:30:00",1200.71,52.79,TRADE
TAS1,"2008/10/16 11:00:00",1193.94,55.94,TRADE
TAS1,"2008/10/16 11:30:00",1185.39,59.99,TRADE
TAS1,"2008/10/16 12:00:00",1162.23,54.22,TRADE
TAS1,"2008/10/16 12:30:00",1154.74,59.38,TRADE
TAS1,"2008/10/16 13:00:00",1152.01,68.08,TRADE
TAS1,"2008/10/16 13:30:00",1151.55,65.74,TRADE
TAS1,"2008/10/16 14:00:00",1164.37,65.49,TRADE
TAS1,"2008/10/16 14:30:00",1162.74,68.72,TRADE
TAS1,"2008/10/16 15:00:00",1156.39,75.96,TRADE
TAS1,"2008/10/16 15:30:00",1164.14,65.48,TRADE
TAS1,"2008/10/16 16:00:00",1158.48,60.7,TRADE
TAS1,"2008/10/16 16:30:00",1139.17,63.1,TRADE
TAS1,"2008/10/16 17:00:00",1137.43,64.26,TRADE
TAS1,"2008/10/16 17:30:00",1165.31,54.01,TRADE
TAS1,"2008/10/16 18:00:00",1157.11,51.17,TRADE
TAS1,"2008/10/16 18:30:00",1178.89,51.21,TRADE
TAS1,"2008/10/16 19:00:00",1207.23,64.85,TRADE
TAS1,"2008/10/16 19:30:00",1229.46,70.72,TRADE
TAS1,"2008/10/16 20:00:00",1234.06,65.03,TRADE
TAS1,"2008/10/16 20:30:00",1224,57.88,TRADE
TAS1,"2008/10/16 21:00:00",1195.42,51.23,TRADE
TAS1,"2008/10/16 21:30:00",1165.79,51.22,TRADE
TAS1,"2008/10/16 22:00:00",1121.48,51.24,TRADE
TAS1,"2008/10/16 22:30:00",1075.33,45.25,TRADE
TAS1,"2008/10/16 23:00:00",1032.82,45.22,TRADE
TAS1,"2008/10/16 23:30:00",1017.12,51.25,TRADE
TAS1,"2008/10/17 00:00:00",1005.35,51.23,TRADE
TAS1,"2008/10/17 00:30:00",986.2,45.22,TRADE
TAS1,"2008/10/17 01:00:00",985.84,45.22,TRADE
TAS1,"2008/10/17 01:30:00",997.3,51.22,TRADE
TAS1,"2008/10/17 02:00:00",1009.19,45.22,TRADE
TAS1,"2008/10/17 02:30:00",1013.46,45.22,TRADE
TAS1,"2008/10/17 03:00:00",996.44,35.22,TRADE
TAS1,"2008/10/17 03:30:00",1008.26,35.22,TRADE
TAS1,"2008/10/17 04:00:00",1017.15,35.25,TRADE
TAS1,"2008/10/17 04:30:00",1043.59,39.36,TRADE
TAS1,"2008/10/17 05:00:00",1063.29,35.36,TRADE
TAS1,"2008/10/17 05:30:00",1134.72,47.27,TRADE
TAS1,"2008/10/17 06:00:00",1197.9,51.14,TRADE
TAS1,"2008/10/17 06:30:00",1292.76,53.38,TRADE
TAS1,"2008/10/17 07:00:00",1344.75,72.56,TRADE
TAS1,"2008/10/17 07:30:00",1318.65,51.21,TRADE
TAS1,"2008/10/17 08:00:00",1269.42,51.23,TRADE
TAS1,"2008/10/17 08:30:00",1266.74,62.82,TRADE
TAS1,"2008/10/17 09:00:00",1248.26,74.42,TRADE
TAS1,"2008/10/17 09:30:00",1266.31,75.75,TRADE
TAS1,"2008/10/17 10:00:00",1255.11,72.43,TRADE
TAS1,"2008/10/17 10:30:00",1235.72,74.76,TRADE
TAS1,"2008/10/17 11:00:00",1213.56,86.86,TRADE
TAS1,"2008/10/17 11:30:00",1206.07,83.4,TRADE
TAS1,"2008/10/17 12:00:00",1165.09,79.38,TRADE
TAS1,"2008/10/17 12:30:00",1149.66,82.2,TRADE
TAS1,"2008/10/17 13:00:00",1131.48,81.2,TRADE
TAS1,"2008/10/17 13:30:00",1125.59,81.2,TRADE
TAS1,"2008/10/17 14:00:00",1160.28,84.74,TRADE
TAS1,"2008/10/17 14:30:00",1174.85,67.09,TRADE
TAS1,"2008/10/17 15:00:00",1174.54,63.04,TRADE
TAS1,"2008/10/17 15:30:00",1163.38,60.34,TRADE
TAS1,"2008/10/17 16:00:00",1163.24,59.11,TRADE
TAS1,"2008/10/17 16:30:00",1179.45,60.75,TRADE
TAS1,"2008/10/17 17:00:00",1189.06,55.99,TRADE
TAS1,"2008/10/17 17:30:00",1194.36,51.22,TRADE
TAS1,"2008/10/17 18:00:00",1219.67,51.25,TRADE
TAS1,"2008/10/17 18:30:00",1214.35,51.22,TRADE
TAS1,"2008/10/17 19:00:00",1246.85,51.28,TRADE
TAS1,"2008/10/17 19:30:00",1275.78,51.29,TRADE
TAS1,"2008/10/17 20:00:00",1265.12,51.27,TRADE
TAS1,"2008/10/17 20:30:00",1255.32,51.26,TRADE
TAS1,"2008/10/17 21:00:00",1229.93,51.3,TRADE
TAS1,"2008/10/17 21:30:00",1202.29,51.29,TRADE
TAS1,"2008/10/17 22:00:00",1172.56,45.3,TRADE
TAS1,"2008/10/17 22:30:00",1133.51,45.3,TRADE
TAS1,"2008/10/17 23:00:00",1100.5,45.26,TRADE
TAS1,"2008/10/17 23:30:00",1081.29,45.26,TRADE
TAS1,"2008/10/18 00:00:00",1049.45,45.26,TRADE
TAS1,"2008/10/18 00:30:00",1002.41,45.26,TRADE
TAS1,"2008/10/18 01:00:00",995.94,45.26,TRADE
TAS1,"2008/10/18 01:30:00",956.09,51.22,TRADE
TAS1,"2008/10/18 02:00:00",934.36,35.2,TRADE
TAS1,"2008/10/18 02:30:00",947,35.21,TRADE
TAS1,"2008/10/18 03:00:00",956.31,35.22,TRADE
TAS1,"2008/10/18 03:30:00",960.68,35.22,TRADE
TAS1,"2008/10/18 04:00:00",949.91,35.22,TRADE
TAS1,"2008/10/18 04:30:00",959.36,35.21,TRADE
TAS1,"2008/10/18 05:00:00",997.85,35.25,TRADE
TAS1,"2008/10/18 05:30:00",1009.86,35.19,TRADE
TAS1,"2008/10/18 06:00:00",1021.82,35.2,TRADE
TAS1,"2008/10/18 06:30:00",1065.12,35.26,TRADE
TAS1,"2008/10/18 07:00:00",1116.1,35.2,TRADE
TAS1,"2008/10/18 07:30:00",1147.61,40.88,TRADE
TAS1,"2008/10/18 08:00:00",1185.83,48.86,TRADE
TAS1,"2008/10/18 08:30:00",1175.61,51.64,TRADE
TAS1,"2008/10/18 09:00:00",1168.24,52.72,TRADE
TAS1,"2008/10/18 09:30:00",1151.58,47.44,TRADE
TAS1,"2008/10/18 10:00:00",1114.35,54.52,TRADE
TAS1,"2008/10/18 10:30:00",1082.09,56.96,TRADE
TAS1,"2008/10/18 11:00:00",1082.68,56.96,TRADE
TAS1,"2008/10/18 11:30:00",1065.6,56.96,TRADE
TAS1,"2008/10/18 12:00:00",1050.66,56.97,TRADE
TAS1,"2008/10/18 12:30:00",1015.55,56.96,TRADE
TAS1,"2008/10/18 13:00:00",1020.1,56.99,TRADE
TAS1,"2008/10/18 13:30:00",1016.33,56.99,TRADE
TAS1,"2008/10/18 14:00:00",1011.61,57,TRADE
TAS1,"2008/10/18 14:30:00",1014.41,56.96,TRADE
TAS1,"2008/10/18 15:00:00",1015.1,57.02,TRADE
TAS1,"2008/10/18 15:30:00",1021.56,56.98,TRADE
TAS1,"2008/10/18 16:00:00",1024.98,58.3,TRADE
TAS1,"2008/10/18 16:30:00",1040.2,56.96,TRADE
TAS1,"2008/10/18 17:00:00",1067.14,57.05,TRADE
TAS1,"2008/10/18 17:30:00",1071.6,57.05,TRADE
TAS1,"2008/10/18 18:00:00",1084.73,56.98,TRADE
TAS1,"2008/10/18 18:30:00",1085.53,56.97,TRADE
TAS1,"2008/10/18 19:00:00",1102.31,56.98,TRADE
TAS1,"2008/10/18 19:30:00",1114.55,57,TRADE
TAS1,"2008/10/18 20:00:00",1109.91,57.01,TRADE
TAS1,"2008/10/18 20:30:00",1113.7,57.01,TRADE
TAS1,"2008/10/18 21:00:00",1136.1,45.22,TRADE
TAS1,"2008/10/18 21:30:00",1126.75,45.2,TRADE
TAS1,"2008/10/18 22:00:00",1108.03,45.2,TRADE
TAS1,"2008/10/18 22:30:00",1074.67,46.15,TRADE
TAS1,"2008/10/18 23:00:00",1054.19,45.2,TRADE
TAS1,"2008/10/18 23:30:00",1038.96,45.3,TRADE
TAS1,"2008/10/19 00:00:00",1029.05,45.24,TRADE
TAS1,"2008/10/19 00:30:00",978.35,35.19,TRADE
TAS1,"2008/10/19 01:00:00",940.26,35.16,TRADE
TAS1,"2008/10/19 01:30:00",947.71,35.19,TRADE
TAS1,"2008/10/19 02:00:00",932.35,35.24,TRADE
TAS1,"2008/10/19 02:30:00",923.76,35.26,TRADE
TAS1,"2008/10/19 03:00:00",935.81,35.29,TRADE
TAS1,"2008/10/19 03:30:00",940.54,35.29,TRADE
TAS1,"2008/10/19 04:00:00",939.56,35.3,TRADE
TAS1,"2008/10/19 04:30:00",947.71,35.3,TRADE
TAS1,"2008/10/19 05:00:00",965.62,35.26,TRADE
TAS1,"2008/10/19 05:30:00",959.5,35.19,TRADE
TAS1,"2008/10/19 06:00:00",962.52,34.67,TRADE
TAS1,"2008/10/19 06:30:00",977.61,34.62,TRADE
TAS1,"2008/10/19 07:00:00",1031.18,34.86,TRADE
TAS1,"2008/10/19 07:30:00",1058,37.47,TRADE
TAS1,"2008/10/19 08:00:00",1080.73,53.99,TRADE
TAS1,"2008/10/19 08:30:00",1106.37,57.18,TRADE
TAS1,"2008/10/19 09:00:00",1101.66,57.2,TRADE
TAS1,"2008/10/19 09:30:00",1102.57,57.19,TRADE
TAS1,"2008/10/19 10:00:00",1093.38,57.19,TRADE
TAS1,"2008/10/19 10:30:00",1077.75,57.22,TRADE
TAS1,"2008/10/19 11:00:00",1062.7,60.2,TRADE
TAS1,"2008/10/19 11:30:00",1057.61,58.27,TRADE
TAS1,"2008/10/19 12:00:00",1038.72,57.18,TRADE
TAS1,"2008/10/19 12:30:00",1031.1,57.17,TRADE
TAS1,"2008/10/19 13:00:00",1021.38,57.16,TRADE
TAS1,"2008/10/19 13:30:00",1006.66,57.16,TRADE
TAS1,"2008/10/19 14:00:00",1005.3,57.16,TRADE
TAS1,"2008/10/19 14:30:00",1007.99,57.16,TRADE
TAS1,"2008/10/19 15:00:00",1001.46,51.83,TRADE
TAS1,"2008/10/19 15:30:00",1005.68,49.16,TRADE
TAS1,"2008/10/19 16:00:00",1004.33,49.16,TRADE
TAS1,"2008/10/19 16:30:00",1034.47,49.15,TRADE
TAS1,"2008/10/19 17:00:00",1068.22,49.18,TRADE
TAS1,"2008/10/19 17:30:00",1094.44,49.18,TRADE
TAS1,"2008/10/19 18:00:00",1106.57,49.23,TRADE
TAS1,"2008/10/19 18:30:00",1112.47,57.17,TRADE
TAS1,"2008/10/19 19:00:00",1166.58,57.25,TRADE
TAS1,"2008/10/19 19:30:00",1196.64,57.3,TRADE
TAS1,"2008/10/19 20:00:00",1192.8,57.28,TRADE
TAS1,"2008/10/19 20:30:00",1206.14,57.3,TRADE
TAS1,"2008/10/19 21:00:00",1191.54,57.26,TRADE
TAS1,"2008/10/19 21:30:00",1160.53,49.3,TRADE
TAS1,"2008/10/19 22:00:00",1118.61,49.24,TRADE
TAS1,"2008/10/19 22:30:00",1054.62,49.18,TRADE
TAS1,"2008/10/19 23:00:00",1047.37,49.3,TRADE
TAS1,"2008/10/19 23:30:00",1029.82,49.19,TRADE
TAS1,"2008/10/20 00:00:00",1008.93,49.22,TRADE
TAS1,"2008/10/20 00:30:00",1027.01,49.23,TRADE
TAS1,"2008/10/20 01:00:00",1033.62,49.22,TRADE
TAS1,"2008/10/20 01:30:00",1031.18,49.27,TRADE
TAS1,"2008/10/20 02:00:00",1025.93,35.25,TRADE
TAS1,"2008/10/20 02:30:00",1042.04,35.3,TRADE
TAS1,"2008/10/20 03:00:00",1043.61,35.3,TRADE
TAS1,"2008/10/20 03:30:00",1031.87,35.26,TRADE
TAS1,"2008/10/20 04:00:00",1034.73,35.27,TRADE
TAS1,"2008/10/20 04:30:00",1080.55,35.3,TRADE
TAS1,"2008/10/20 05:00:00",1082.19,35.3,TRADE
TAS1,"2008/10/20 05:30:00",1143.83,51.3,TRADE
TAS1,"2008/10/20 06:00:00",1248.93,51.29,TRADE
TAS1,"2008/10/20 06:30:00",1373.14,51.31,TRADE
TAS1,"2008/10/20 07:00:00",1422.25,53.14,TRADE
TAS1,"2008/10/20 07:30:00",1411.53,53.63,TRADE
TAS1,"2008/10/20 08:00:00",1351.33,52.63,TRADE
TAS1,"2008/10/20 08:30:00",1313.47,51.42,TRADE
TAS1,"2008/10/20 09:00:00",1285.88,55.86,TRADE
TAS1,"2008/10/20 09:30:00",1265.34,60.38,TRADE
TAS1,"2008/10/20 10:00:00",1213.31,59.45,TRADE
TAS1,"2008/10/20 10:30:00",1186.78,62.28,TRADE
TAS1,"2008/10/20 11:00:00",1187.32,64.38,TRADE
TAS1,"2008/10/20 11:30:00",1175.09,63.54,TRADE
TAS1,"2008/10/20 12:00:00",1174.68,63.19,TRADE
TAS1,"2008/10/20 12:30:00",1170.8,62.87,TRADE
TAS1,"2008/10/20 13:00:00",1161.19,62.71,TRADE
TAS1,"2008/10/20 13:30:00",1153.02,62.71,TRADE
TAS1,"2008/10/20 14:00:00",1146.57,62.63,TRADE
TAS1,"2008/10/20 14:30:00",1151.5,58.94,TRADE
TAS1,"2008/10/20 15:00:00",1156.04,62.52,TRADE
TAS1,"2008/10/20 15:30:00",1170.77,60.89,TRADE
TAS1,"2008/10/20 16:00:00",1183.2,57.83,TRADE
TAS1,"2008/10/20 16:30:00",1200.53,54.68,TRADE
TAS1,"2008/10/20 17:00:00",1208.63,55.97,TRADE
TAS1,"2008/10/20 17:30:00",1206.66,51.3,TRADE
TAS1,"2008/10/20 18:00:00",1230,51.3,TRADE
TAS1,"2008/10/20 18:30:00",1235.87,51.3,TRADE
TAS1,"2008/10/20 19:00:00",1259.89,51.3,TRADE
TAS1,"2008/10/20 19:30:00",1279.63,51.3,TRADE
TAS1,"2008/10/20 20:00:00",1277.17,51.3,TRADE
TAS1,"2008/10/20 20:30:00",1273.09,51.3,TRADE
TAS1,"2008/10/20 21:00:00",1248.11,51.3,TRADE
TAS1,"2008/10/20 21:30:00",1221.07,51.3,TRADE
TAS1,"2008/10/20 22:00:00",1174.45,51.3,TRADE
TAS1,"2008/10/20 22:30:00",1127.72,51.3,TRADE
TAS1,"2008/10/20 23:00:00",1106.72,51.3,TRADE
TAS1,"2008/10/20 23:30:00",1095.12,51.3,TRADE
TAS1,"2008/10/21 00:00:00",1091.01,51.3,TRADE
TAS1,"2008/10/21 00:30:00",1076.97,51.3,TRADE
TAS1,"2008/10/21 01:00:00",1068.4,51.3,TRADE
TAS1,"2008/10/21 01:30:00",1073.7,51.3,TRADE
TAS1,"2008/10/21 02:00:00",1070.92,51.3,TRADE
TAS1,"2008/10/21 02:30:00",1075.54,35.3,TRADE
TAS1,"2008/10/21 03:00:00",1066.13,35.3,TRADE
TAS1,"2008/10/21 03:30:00",1068.19,35.3,TRADE
TAS1,"2008/10/21 04:00:00",1067.89,35.3,TRADE
TAS1,"2008/10/21 04:30:00",1074.87,35.3,TRADE
TAS1,"2008/10/21 05:00:00",1127.74,35.3,TRADE
TAS1,"2008/10/21 05:30:00",1180.37,50.31,TRADE
TAS1,"2008/10/21 06:00:00",1279.89,58.3,TRADE
TAS1,"2008/10/21 06:30:00",1353.71,58.3,TRADE
TAS1,"2008/10/21 07:00:00",1390.93,66.31,TRADE
TAS1,"2008/10/21 07:30:00",1371.61,60.96,TRADE
TAS1,"2008/10/21 08:00:00",1326.49,50.27,TRADE
TAS1,"2008/10/21 08:30:00",1261.53,52.95,TRADE
TAS1,"2008/10/21 09:00:00",1202,63.57,TRADE
TAS1,"2008/10/21 09:30:00",1195.36,66.23,TRADE
TAS1,"2008/10/21 10:00:00",1196.86,91.23,TRADE
TAS1,"2008/10/21 10:30:00",1179.7,159.21,TRADE
TAS1,"2008/10/21 11:00:00",1172.6,218.29,TRADE
TAS1,"2008/10/21 11:30:00",1199.12,218.3,TRADE
TAS1,"2008/10/21 12:00:00",1180.74,199.17,TRADE
TAS1,"2008/10/21 12:30:00",1196.69,128.64,TRADE
TAS1,"2008/10/21 13:00:00",1180.65,66.32,TRADE
TAS1,"2008/10/21 13:30:00",1169.48,71.96,TRADE
TAS1,"2008/10/21 14:00:00",1129.45,66.28,TRADE
TAS1,"2008/10/21 14:30:00",1176.87,66.3,TRADE
TAS1,"2008/10/21 15:00:00",1156.5,66.26,TRADE
TAS1,"2008/10/21 15:30:00",1158.29,66.26,TRADE
TAS1,"2008/10/21 16:00:00",1184.34,63.62,TRADE
TAS1,"2008/10/21 16:30:00",1221.47,50.3,TRADE
TAS1,"2008/10/21 17:00:00",1243.78,50.3,TRADE
TAS1,"2008/10/21 17:30:00",1232.42,50.3,TRADE
TAS1,"2008/10/21 18:00:00",1250.23,50.3,TRADE
TAS1,"2008/10/21 18:30:00",1268.27,50.3,TRADE
TAS1,"2008/10/21 19:00:00",1317.12,66.3,TRADE
TAS1,"2008/10/21 19:30:00",1344.29,66.3,TRADE
TAS1,"2008/10/21 20:00:00",1326.12,66.3,TRADE
TAS1,"2008/10/21 20:30:00",1301.73,66.3,TRADE
TAS1,"2008/10/21 21:00:00",1243.23,66.3,TRADE
TAS1,"2008/10/21 21:30:00",1169.72,66.3,TRADE
TAS1,"2008/10/21 22:00:00",1118.1,66.3,TRADE
TAS1,"2008/10/21 22:30:00",1052.27,50.22,TRADE
TAS1,"2008/10/21 23:00:00",1038.29,50.3,TRADE
TAS1,"2008/10/21 23:30:00",1035.56,50.3,TRADE
TAS1,"2008/10/22 00:00:00",1028.71,50.3,TRADE
TAS1,"2008/10/22 00:30:00",1094.03,50.3,TRADE
TAS1,"2008/10/22 01:00:00",1070.97,50.3,TRADE
TAS1,"2008/10/22 01:30:00",1072.27,50.31,TRADE
TAS1,"2008/10/22 02:00:00",1103.85,35.32,TRADE
TAS1,"2008/10/22 02:30:00",1102.72,67.93,TRADE
TAS1,"2008/10/22 03:00:00",1114.77,35.32,TRADE
TAS1,"2008/10/22 03:30:00",1124.2,35.32,TRADE
TAS1,"2008/10/22 04:00:00",1119.29,35.32,TRADE
TAS1,"2008/10/22 04:30:00",1114.52,35.32,TRADE
TAS1,"2008/10/22 05:00:00",1177.64,35.58,TRADE
TAS1,"2008/10/22 05:30:00",1254.32,53.42,TRADE
TAS1,"2008/10/22 06:00:00",1369.96,59.98,TRADE
TAS1,"2008/10/22 06:30:00",1469.46,62.88,TRADE
TAS1,"2008/10/22 07:00:00",1532.19,67.18,TRADE
TAS1,"2008/10/22 07:30:00",1554.8,66.87,TRADE
TAS1,"2008/10/22 08:00:00",1517.13,66.57,TRADE
TAS1,"2008/10/22 08:30:00",1499.25,66.81,TRADE
TAS1,"2008/10/22 09:00:00",1451.96,66.4,TRADE
TAS1,"2008/10/22 09:30:00",1403.79,66.4,TRADE
TAS1,"2008/10/22 10:00:00",1361.34,66.32,TRADE
TAS1,"2008/10/22 10:30:00",1326.69,66.32,TRADE
TAS1,"2008/10/22 11:00:00",1340.73,66.32,TRADE
TAS1,"2008/10/22 11:30:00",1337.05,66.4,TRADE
TAS1,"2008/10/22 12:00:00",1314.98,66.32,TRADE
TAS1,"2008/10/22 12:30:00",1302.66,66.32,TRADE
TAS1,"2008/10/22 13:00:00",1290.28,66.32,TRADE
TAS1,"2008/10/22 13:30:00",1190.95,66.32,TRADE
TAS1,"2008/10/22 14:00:00",1220.66,66.32,TRADE
TAS1,"2008/10/22 14:30:00",1257.24,55.49,TRADE
TAS1,"2008/10/22 15:00:00",1257.69,53.32,TRADE
TAS1,"2008/10/22 15:30:00",1271.78,53.32,TRADE
TAS1,"2008/10/22 16:00:00",1265.92,59.82,TRADE
TAS1,"2008/10/22 16:30:00",1287.47,66.32,TRADE
TAS1,"2008/10/22 17:00:00",1324.44,66.32,TRADE
TAS1,"2008/10/22 17:30:00",1338.34,66.54,TRADE
TAS1,"2008/10/22 18:00:00",1357.98,66.32,TRADE
TAS1,"2008/10/22 18:30:00",1368.53,66.32,TRADE
TAS1,"2008/10/22 19:00:00",1397.68,66.31,TRADE
TAS1,"2008/10/22 19:30:00",1448.66,66.32,TRADE
TAS1,"2008/10/22 20:00:00",1442.82,66.32,TRADE
TAS1,"2008/10/22 20:30:00",1418.71,66.32,TRADE
TAS1,"2008/10/22 21:00:00",1349.93,66.32,TRADE
TAS1,"2008/10/22 21:30:00",1299.98,66.3,TRADE
TAS1,"2008/10/22 22:00:00",1251.62,66.32,TRADE
TAS1,"2008/10/22 22:30:00",1214.05,84.33,TRADE
TAS1,"2008/10/22 23:00:00",1185.21,66.32,TRADE
TAS1,"2008/10/22 23:30:00",1156.6,84.32,TRADE
TAS1,"2008/10/23 00:00:00",1132.26,66.32,TRADE
TAS1,"2008/10/23 00:30:00",1142.76,66.32,TRADE
TAS1,"2008/10/23 01:00:00",1152.75,66.32,TRADE
TAS1,"2008/10/23 01:30:00",1154.5,66.32,TRADE
TAS1,"2008/10/23 02:00:00",1158.77,53.32,TRADE
TAS1,"2008/10/23 02:30:00",1161.18,53.32,TRADE
TAS1,"2008/10/23 03:00:00",1154.86,53.32,TRADE
TAS1,"2008/10/23 03:30:00",1160.14,35.32,TRADE
TAS1,"2008/10/23 04:00:00",1169.3,35.32,TRADE
TAS1,"2008/10/23 04:30:00",1181.25,47.33,TRADE
TAS1,"2008/10/23 05:00:00",1208.81,53.32,TRADE
TAS1,"2008/10/23 05:30:00",1274.98,61.99,TRADE
TAS1,"2008/10/23 06:00:00",1349.25,75.52,TRADE
TAS1,"2008/10/23 06:30:00",1417.55,86.16,TRADE
TAS1,"2008/10/23 07:00:00",1457.78,82.14,TRADE
TAS1,"2008/10/23 07:30:00",1433.88,66.32,TRADE
TAS1,"2008/10/23 08:00:00",1428.99,67.86,TRADE
TAS1,"2008/10/23 08:30:00",1394.59,66.32,TRADE
TAS1,"2008/10/23 09:00:00",1360.38,66.34,TRADE
TAS1,"2008/10/23 09:30:00",1329.6,66.63,TRADE
TAS1,"2008/10/23 10:00:00",1318.2,66.31,TRADE
TAS1,"2008/10/23 10:30:00",1297.8,66.32,TRADE
TAS1,"2008/10/23 11:00:00",1271.12,66.32,TRADE
TAS1,"2008/10/23 11:30:00",1232.71,66.3,TRADE
TAS1,"2008/10/23 12:00:00",1223.53,66.31,TRADE
TAS1,"2008/10/23 12:30:00",1187.21,66.32,TRADE
TAS1,"2008/10/23 13:00:00",1163.16,66.32,TRADE
TAS1,"2008/10/23 13:30:00",1165.08,66.32,TRADE
TAS1,"2008/10/23 14:00:00",1179.79,66.32,TRADE
TAS1,"2008/10/23 14:30:00",1195.83,66.32,TRADE
TAS1,"2008/10/23 15:00:00",1205.35,66.32,TRADE
TAS1,"2008/10/23 15:30:00",1211.86,66.32,TRADE
TAS1,"2008/10/23 16:00:00",1228.8,66.32,TRADE
TAS1,"2008/10/23 16:30:00",1249.25,66.32,TRADE
TAS1,"2008/10/23 17:00:00",1273.47,66.32,TRADE
TAS1,"2008/10/23 17:30:00",1295.85,66.32,TRADE
TAS1,"2008/10/23 18:00:00",1319.86,66.32,TRADE
TAS1,"2008/10/23 18:30:00",1329.45,66.32,TRADE
TAS1,"2008/10/23 19:00:00",1350.09,66.34,TRADE
TAS1,"2008/10/23 19:30:00",1356.56,66.43,TRADE
TAS1,"2008/10/23 20:00:00",1350.61,66.37,TRADE
TAS1,"2008/10/23 20:30:00",1332.42,66.32,TRADE
TAS1,"2008/10/23 21:00:00",1296.9,66.32,TRADE
TAS1,"2008/10/23 21:30:00",1243.97,66.33,TRADE
TAS1,"2008/10/23 22:00:00",1185.5,53.32,TRADE
TAS1,"2008/10/23 22:30:00",1148.15,53.32,TRADE
TAS1,"2008/10/23 23:00:00",1125.27,53.32,TRADE
TAS1,"2008/10/23 23:30:00",1106.87,53.32,TRADE
TAS1,"2008/10/24 00:00:00",1074.72,53.32,TRADE
TAS1,"2008/10/24 00:30:00",1075.48,53.32,TRADE
TAS1,"2008/10/24 01:00:00",1069.74,53.32,TRADE
TAS1,"2008/10/24 01:30:00",1062.76,53.33,TRADE
TAS1,"2008/10/24 02:00:00",1073.22,53.32,TRADE
TAS1,"2008/10/24 02:30:00",1063.66,53.32,TRADE
TAS1,"2008/10/24 03:00:00",1061.22,35.32,TRADE
TAS1,"2008/10/24 03:30:00",1082.5,35.32,TRADE
TAS1,"2008/10/24 04:00:00",1086.67,35.32,TRADE
TAS1,"2008/10/24 04:30:00",1104.59,35.32,TRADE
TAS1,"2008/10/24 05:00:00",1142.35,35.32,TRADE
TAS1,"2008/10/24 05:30:00",1203.59,53.47,TRADE
TAS1,"2008/10/24 06:00:00",1266.77,70.42,TRADE
TAS1,"2008/10/24 06:30:00",1362.54,84.31,TRADE
TAS1,"2008/10/24 07:00:00",1395.37,84.35,TRADE
TAS1,"2008/10/24 07:30:00",1423.31,70.09,TRADE
TAS1,"2008/10/24 08:00:00",1416.33,66.39,TRADE
TAS1,"2008/10/24 08:30:00",1363.36,66.75,TRADE
TAS1,"2008/10/24 09:00:00",1362.13,66.52,TRADE
TAS1,"2008/10/24 09:30:00",1333.88,68.62,TRADE
TAS1,"2008/10/24 10:00:00",1314.97,66.32,TRADE
TAS1,"2008/10/24 10:30:00",1301.74,66.32,TRADE
TAS1,"2008/10/24 11:00:00",1303.75,66.32,TRADE
TAS1,"2008/10/24 11:30:00",1303.92,66.32,TRADE
TAS1,"2008/10/24 12:00:00",1271.04,66.32,TRADE
TAS1,"2008/10/24 12:30:00",1251.43,66.32,TRADE
TAS1,"2008/10/24 13:00:00",1239.99,66.32,TRADE
TAS1,"2008/10/24 13:30:00",1235.18,66.32,TRADE
TAS1,"2008/10/24 14:00:00",1242.22,67.02,TRADE
TAS1,"2008/10/24 14:30:00",1220.91,66.37,TRADE
TAS1,"2008/10/24 15:00:00",1258.75,66.52,TRADE
TAS1,"2008/10/24 15:30:00",1276.45,67.71,TRADE
TAS1,"2008/10/24 16:00:00",1275.02,66.76,TRADE
TAS1,"2008/10/24 16:30:00",1290.31,66.33,TRADE
TAS1,"2008/10/24 17:00:00",1314.28,66.35,TRADE
TAS1,"2008/10/24 17:30:00",1315.02,66.32,TRADE
TAS1,"2008/10/24 18:00:00",1313.83,66.32,TRADE
TAS1,"2008/10/24 18:30:00",1312.55,53.32,TRADE
TAS1,"2008/10/24 19:00:00",1322.29,53.32,TRADE
TAS1,"2008/10/24 19:30:00",1327.77,53.32,TRADE
TAS1,"2008/10/24 20:00:00",1314.2,53.32,TRADE
TAS1,"2008/10/24 20:30:00",1302.83,53.32,TRADE
TAS1,"2008/10/24 21:00:00",1269.48,53.32,TRADE
TAS1,"2008/10/24 21:30:00",1231.41,53.32,TRADE
TAS1,"2008/10/24 22:00:00",1200.06,53.32,TRADE
TAS1,"2008/10/24 22:30:00",1153.65,66.32,TRADE
TAS1,"2008/10/24 23:00:00",1113.05,53.31,TRADE
TAS1,"2008/10/24 23:30:00",1088.49,66.32,TRADE
TAS1,"2008/10/25 00:00:00",1074.37,53.32,TRADE
TAS1,"2008/10/25 00:30:00",1062.45,66.32,TRADE
TAS1,"2008/10/25 01:00:00",1054.65,53.32,TRADE
TAS1,"2008/10/25 01:30:00",1044.58,53.32,TRADE
TAS1,"2008/10/25 02:00:00",1040.27,53.32,TRADE
TAS1,"2008/10/25 02:30:00",1039.35,53.32,TRADE
TAS1,"2008/10/25 03:00:00",1038.4,35.32,TRADE
TAS1,"2008/10/25 03:30:00",1026.93,35.32,TRADE
TAS1,"2008/10/25 04:00:00",1018.03,35.31,TRADE
TAS1,"2008/10/25 04:30:00",1021.52,35.31,TRADE
TAS1,"2008/10/25 05:00:00",1044.59,35.32,TRADE
TAS1,"2008/10/25 05:30:00",1066.95,35.32,TRADE
TAS1,"2008/10/25 06:00:00",1093.86,35.3,TRADE
TAS1,"2008/10/25 06:30:00",1128.61,35.3,TRADE
TAS1,"2008/10/25 07:00:00",1156.6,35.31,TRADE
TAS1,"2008/10/25 07:30:00",1185.56,35.3,TRADE
TAS1,"2008/10/25 08:00:00",1200.98,48.3,TRADE
TAS1,"2008/10/25 08:30:00",1194.76,48.3,TRADE
TAS1,"2008/10/25 09:00:00",1168.93,48.3,TRADE
TAS1,"2008/10/25 09:30:00",1150.27,48.3,TRADE
TAS1,"2008/10/25 10:00:00",1137.36,48.3,TRADE
TAS1,"2008/10/25 10:30:00",1129.39,48.3,TRADE
TAS1,"2008/10/25 11:00:00",1118.05,48.3,TRADE
TAS1,"2008/10/25 11:30:00",1111.5,48.3,TRADE
TAS1,"2008/10/25 12:00:00",1107.99,48.3,TRADE
TAS1,"2008/10/25 12:30:00",1088.64,48.3,TRADE
TAS1,"2008/10/25 13:00:00",1088.66,48.3,TRADE
TAS1,"2008/10/25 13:30:00",1065.95,48.3,TRADE
TAS1,"2008/10/25 14:00:00",1051.78,48.3,TRADE
TAS1,"2008/10/25 14:30:00",1054.04,48.26,TRADE
TAS1,"2008/10/25 15:00:00",1047.76,48.26,TRADE
TAS1,"2008/10/25 15:30:00",1042.46,48.26,TRADE
TAS1,"2008/10/25 16:00:00",1062.2,48.27,TRADE
TAS1,"2008/10/25 16:30:00",1089.52,48.3,TRADE
TAS1,"2008/10/25 17:00:00",1117.03,48.3,TRADE
TAS1,"2008/10/25 17:30:00",1127.66,48.3,TRADE
TAS1,"2008/10/25 18:00:00",1133.92,48.3,TRADE
TAS1,"2008/10/25 18:30:00",1137.17,48.3,TRADE
TAS1,"2008/10/25 19:00:00",1123.28,48.3,TRADE
TAS1,"2008/10/25 19:30:00",1139.3,48.3,TRADE
TAS1,"2008/10/25 20:00:00",1127.67,48.3,TRADE
TAS1,"2008/10/25 20:30:00",1118.68,48.3,TRADE
TAS1,"2008/10/25 21:00:00",1109.06,48.3,TRADE
TAS1,"2008/10/25 21:30:00",1090.92,48.3,TRADE
TAS1,"2008/10/25 22:00:00",1048.85,48.27,TRADE
TAS1,"2008/10/25 22:30:00",1031.31,48.3,TRADE
TAS1,"2008/10/25 23:00:00",1009.48,48.3,TRADE
TAS1,"2008/10/25 23:30:00",1019.45,48.3,TRADE
TAS1,"2008/10/26 00:00:00",1035.41,48.3,TRADE
TAS1,"2008/10/26 00:30:00",1039.04,35.3,TRADE
TAS1,"2008/10/26 01:00:00",1030.26,35.3,TRADE
TAS1,"2008/10/26 01:30:00",1024.1,35.32,TRADE
TAS1,"2008/10/26 02:00:00",1020.45,35.31,TRADE
TAS1,"2008/10/26 02:30:00",1019.44,35.31,TRADE
TAS1,"2008/10/26 03:00:00",1012.09,35.31,TRADE
TAS1,"2008/10/26 03:30:00",1017.18,35.31,TRADE
TAS1,"2008/10/26 04:00:00",1031.22,35.32,TRADE
TAS1,"2008/10/26 04:30:00",1037.12,35.32,TRADE
TAS1,"2008/10/26 05:00:00",1043.85,35.32,TRADE
TAS1,"2008/10/26 05:30:00",1053.14,35.32,TRADE
TAS1,"2008/10/26 06:00:00",1066.83,35.3,TRADE
TAS1,"2008/10/26 06:30:00",1096.69,35.3,TRADE
TAS1,"2008/10/26 07:00:00",1114.56,35.3,TRADE
TAS1,"2008/10/26 07:30:00",1155.1,35.3,TRADE
TAS1,"2008/10/26 08:00:00",1195.72,35.3,TRADE
TAS1,"2008/10/26 08:30:00",1219.65,41.8,TRADE
TAS1,"2008/10/26 09:00:00",1227.15,48.3,TRADE
TAS1,"2008/10/26 09:30:00",1218.64,48.32,TRADE
TAS1,"2008/10/26 10:00:00",1209.07,48.3,TRADE
TAS1,"2008/10/26 10:30:00",1194.51,48.3,TRADE
TAS1,"2008/10/26 11:00:00",1177.7,48.3,TRADE
TAS1,"2008/10/26 11:30:00",1167.68,48.3,TRADE
TAS1,"2008/10/26 12:00:00",1162.61,48.3,TRADE
TAS1,"2008/10/26 12:30:00",1146.82,48.3,TRADE
TAS1,"2008/10/26 13:00:00",1129.75,48.3,TRADE
TAS1,"2008/10/26 13:30:00",1128.62,48.3,TRADE
TAS1,"2008/10/26 14:00:00",1129.3,48.3,TRADE
TAS1,"2008/10/26 14:30:00",1133.25,48.3,TRADE
TAS1,"2008/10/26 15:00:00",1124.42,48.3,TRADE
TAS1,"2008/10/26 15:30:00",1108.85,48.3,TRADE
TAS1,"2008/10/26 16:00:00",1107.66,48.3,TRADE
TAS1,"2008/10/26 16:30:00",1121.71,43.97,TRADE
TAS1,"2008/10/26 17:00:00",1144.09,43.97,TRADE
TAS1,"2008/10/26 17:30:00",1129.69,48.3,TRADE
TAS1,"2008/10/26 18:00:00",1120.81,48.3,TRADE
TAS1,"2008/10/26 18:30:00",1107.87,48.3,TRADE
TAS1,"2008/10/26 19:00:00",1136.72,48.3,TRADE
TAS1,"2008/10/26 19:30:00",1151.64,48.3,TRADE
TAS1,"2008/10/26 20:00:00",1151.02,48.3,TRADE
TAS1,"2008/10/26 20:30:00",1192.31,48.3,TRADE
TAS1,"2008/10/26 21:00:00",1173.19,48.3,TRADE
TAS1,"2008/10/26 21:30:00",1146.84,48.3,TRADE
TAS1,"2008/10/26 22:00:00",1115.04,48.3,TRADE
TAS1,"2008/10/26 22:30:00",1078.67,35.3,TRADE
TAS1,"2008/10/26 23:00:00",1061.16,35.3,TRADE
TAS1,"2008/10/26 23:30:00",1032.2,35.3,TRADE
TAS1,"2008/10/27 00:00:00",998.99,35.32,TRADE
TAS1,"2008/10/27 00:30:00",969.78,35.3,TRADE
TAS1,"2008/10/27 01:00:00",944.85,35.3,TRADE
TAS1,"2008/10/27 01:30:00",921.54,35.3,TRADE
TAS1,"2008/10/27 02:00:00",920.96,35.3,TRADE
TAS1,"2008/10/27 02:30:00",950.79,35.3,TRADE
TAS1,"2008/10/27 03:00:00",937.04,35.3,TRADE
TAS1,"2008/10/27 03:30:00",949.61,35.3,TRADE
TAS1,"2008/10/27 04:00:00",1000.77,35.31,TRADE
TAS1,"2008/10/27 04:30:00",1023.86,35.32,TRADE
TAS1,"2008/10/27 05:00:00",1048.11,35.3,TRADE
TAS1,"2008/10/27 05:30:00",1116.53,35.31,TRADE
TAS1,"2008/10/27 06:00:00",1215.91,35.31,TRADE
TAS1,"2008/10/27 06:30:00",1290.77,53.32,TRADE
TAS1,"2008/10/27 07:00:00",1330.53,53.32,TRADE
TAS1,"2008/10/27 07:30:00",1321.02,53.3,TRADE
TAS1,"2008/10/27 08:00:00",1307.72,66.3,TRADE
TAS1,"2008/10/27 08:30:00",1273.06,66.3,TRADE
TAS1,"2008/10/27 09:00:00",1245.67,66.58,TRADE
TAS1,"2008/10/27 09:30:00",1241.78,66.62,TRADE
TAS1,"2008/10/27 10:00:00",1232.72,66.45,TRADE
TAS1,"2008/10/27 10:30:00",1242.03,66.88,TRADE
TAS1,"2008/10/27 11:00:00",1229.86,66.8,TRADE
TAS1,"2008/10/27 11:30:00",1219.69,73.42,TRADE
TAS1,"2008/10/27 12:00:00",1219.25,71.91,TRADE
TAS1,"2008/10/27 12:30:00",1197.46,66.93,TRADE
TAS1,"2008/10/27 13:00:00",1173.78,74.31,TRADE
TAS1,"2008/10/27 13:30:00",1176.86,70.13,TRADE
TAS1,"2008/10/27 14:00:00",1162.51,68.22,TRADE
TAS1,"2008/10/27 14:30:00",1152.45,71.01,TRADE
TAS1,"2008/10/27 15:00:00",1143.12,74.14,TRADE
TAS1,"2008/10/27 15:30:00",1110.45,75.36,TRADE
TAS1,"2008/10/27 16:00:00",1118.88,80.71,TRADE
TAS1,"2008/10/27 16:30:00",1130.27,75.1,TRADE
TAS1,"2008/10/27 17:00:00",1142.5,68.65,TRADE
TAS1,"2008/10/27 17:30:00",1146.23,66.3,TRADE
TAS1,"2008/10/27 18:00:00",1133.4,55.47,TRADE
TAS1,"2008/10/27 18:30:00",1131.41,53.3,TRADE
TAS1,"2008/10/27 19:00:00",1141.26,53.3,TRADE
TAS1,"2008/10/27 19:30:00",1160.46,55.15,TRADE
TAS1,"2008/10/27 20:00:00",1158.93,53.3,TRADE
TAS1,"2008/10/27 20:30:00",1150.23,53.3,TRADE
TAS1,"2008/10/27 21:00:00",1121.65,53.29,TRADE
TAS1,"2008/10/27 21:30:00",1088.92,53.28,TRADE
TAS1,"2008/10/27 22:00:00",1049.56,53.26,TRADE
TAS1,"2008/10/27 22:30:00",1027.8,53.3,TRADE
TAS1,"2008/10/27 23:00:00",1006.63,53.3,TRADE
TAS1,"2008/10/27 23:30:00",982.6,53.3,TRADE
TAS1,"2008/10/28 00:00:00",955.8,53.3,TRADE
TAS1,"2008/10/28 00:30:00",938.46,53.3,TRADE
TAS1,"2008/10/28 01:00:00",944.62,53.3,TRADE
TAS1,"2008/10/28 01:30:00",931.51,53.3,TRADE
TAS1,"2008/10/28 02:00:00",935.49,53.3,TRADE
TAS1,"2008/10/28 02:30:00",936.4,53.3,TRADE
TAS1,"2008/10/28 03:00:00",938.19,35.3,TRADE
TAS1,"2008/10/28 03:30:00",944.1,35.3,TRADE
TAS1,"2008/10/28 04:00:00",955.38,35.3,TRADE
TAS1,"2008/10/28 04:30:00",999.75,35.32,TRADE
TAS1,"2008/10/28 05:00:00",1021.01,35.32,TRADE
TAS1,"2008/10/28 05:30:00",1081.94,53.32,TRADE
TAS1,"2008/10/28 06:00:00",1162.04,53.74,TRADE
TAS1,"2008/10/28 06:30:00",1272.58,71.32,TRADE
TAS1,"2008/10/28 07:00:00",1318.4,71.48,TRADE
TAS1,"2008/10/28 07:30:00",1304,71.32,TRADE
TAS1,"2008/10/28 08:00:00",1293.26,71.32,TRADE
TAS1,"2008/10/28 08:30:00",1239.7,71.3,TRADE
TAS1,"2008/10/28 09:00:00",1227.7,71.3,TRADE
TAS1,"2008/10/28 09:30:00",1175.98,71.3,TRADE
TAS1,"2008/10/28 10:00:00",1179.63,72.36,TRADE
TAS1,"2008/10/28 10:30:00",1170,80.01,TRADE
TAS1,"2008/10/28 11:00:00",1146.67,82.52,TRADE
TAS1,"2008/10/28 11:30:00",1138.49,78.25,TRADE
TAS1,"2008/10/28 12:00:00",1120.21,79.68,TRADE
TAS1,"2008/10/28 12:30:00",1106.78,73.5,TRADE
TAS1,"2008/10/28 13:00:00",1102.64,72.05,TRADE
TAS1,"2008/10/28 13:30:00",1109.95,75.09,TRADE
TAS1,"2008/10/28 14:00:00",1093.37,71.69,TRADE
TAS1,"2008/10/28 14:30:00",1100.19,71.3,TRADE
TAS1,"2008/10/28 15:00:00",1102.16,71.32,TRADE
TAS1,"2008/10/28 15:30:00",1095.46,71.32,TRADE
TAS1,"2008/10/28 16:00:00",1099.55,71.32,TRADE
TAS1,"2008/10/28 16:30:00",1119.81,71.32,TRADE
TAS1,"2008/10/28 17:00:00",1121.7,71.32,TRADE
TAS1,"2008/10/28 17:30:00",1117.43,59.32,TRADE
TAS1,"2008/10/28 18:00:00",1129.05,69.5,TRADE
TAS1,"2008/10/28 18:30:00",1156.76,71.75,TRADE
TAS1,"2008/10/28 19:00:00",1182.06,72.86,TRADE
TAS1,"2008/10/28 19:30:00",1220.77,73.3,TRADE
TAS1,"2008/10/28 20:00:00",1221.95,82.82,TRADE
TAS1,"2008/10/28 20:30:00",1198.74,53.32,TRADE
TAS1,"2008/10/28 21:00:00",1183.12,53.32,TRADE
TAS1,"2008/10/28 21:30:00",1179.3,53.33,TRADE
TAS1,"2008/10/28 22:00:00",1156.82,53.34,TRADE
TAS1,"2008/10/28 22:30:00",1118.75,53.53,TRADE
TAS1,"2008/10/28 23:00:00",1058.91,53.32,TRADE
TAS1,"2008/10/28 23:30:00",1033.77,53.32,TRADE
TAS1,"2008/10/29 00:00:00",1004.21,53.32,TRADE
TAS1,"2008/10/29 00:30:00",1001.44,53.32,TRADE
TAS1,"2008/10/29 01:00:00",1024.05,53.69,TRADE
TAS1,"2008/10/29 01:30:00",1010.54,53.55,TRADE
TAS1,"2008/10/29 02:00:00",1017.11,53.32,TRADE
TAS1,"2008/10/29 02:30:00",1003.32,53.32,TRADE
TAS1,"2008/10/29 03:00:00",1018.02,35.32,TRADE
TAS1,"2008/10/29 03:30:00",1029.56,35.32,TRADE
TAS1,"2008/10/29 04:00:00",1033.62,35.32,TRADE
TAS1,"2008/10/29 04:30:00",1055.38,35.32,TRADE
TAS1,"2008/10/29 05:00:00",1071.82,53.32,TRADE
TAS1,"2008/10/29 05:30:00",1133.54,53.32,TRADE
TAS1,"2008/10/29 06:00:00",1219.35,60.65,TRADE
TAS1,"2008/10/29 06:30:00",1318.71,75.32,TRADE
TAS1,"2008/10/29 07:00:00",1365.26,75.32,TRADE
TAS1,"2008/10/29 07:30:00",1350.04,60.65,TRADE
TAS1,"2008/10/29 08:00:00",1304.9,53.32,TRADE
TAS1,"2008/10/29 08:30:00",1251.24,53.32,TRADE
TAS1,"2008/10/29 09:00:00",1224.08,75.32,TRADE
TAS1,"2008/10/29 09:30:00",1209.63,75.32,TRADE
TAS1,"2008/10/29 10:00:00",1177.69,75.32,TRADE
TAS1,"2008/10/29 10:30:00",1170.25,75.32,TRADE
TAS1,"2008/10/29 11:00:00",1154.59,75.31,TRADE
TAS1,"2008/10/29 11:30:00",1146.68,75.3,TRADE
TAS1,"2008/10/29 12:00:00",1128.27,75.32,TRADE
TAS1,"2008/10/29 12:30:00",1096.9,75.32,TRADE
TAS1,"2008/10/29 13:00:00",1099.62,75.32,TRADE
TAS1,"2008/10/29 13:30:00",1141.19,75.44,TRADE
TAS1,"2008/10/29 14:00:00",1142.08,75.45,TRADE
TAS1,"2008/10/29 14:30:00",1132.24,75.32,TRADE
TAS1,"2008/10/29 15:00:00",1129.71,75.36,TRADE
TAS1,"2008/10/29 15:30:00",1147.09,75.31,TRADE
TAS1,"2008/10/29 16:00:00",1148.67,75.31,TRADE
TAS1,"2008/10/29 16:30:00",1131.02,73.12,TRADE
TAS1,"2008/10/29 17:00:00",1139.53,73.05,TRADE
TAS1,"2008/10/29 17:30:00",1151.13,75.3,TRADE
TAS1,"2008/10/29 18:00:00",1152.86,53.3,TRADE
TAS1,"2008/10/29 18:30:00",1152.3,53.32,TRADE
TAS1,"2008/10/29 19:00:00",1174.09,75.32,TRADE
TAS1,"2008/10/29 19:30:00",1200.55,75.32,TRADE
TAS1,"2008/10/29 20:00:00",1210.65,75.32,TRADE
TAS1,"2008/10/29 20:30:00",1205.24,53.32,TRADE
TAS1,"2008/10/29 21:00:00",1186.56,53.32,TRADE
TAS1,"2008/10/29 21:30:00",1130.56,71.65,TRADE
TAS1,"2008/10/29 22:00:00",1085.06,53.32,TRADE
TAS1,"2008/10/29 22:30:00",1039.27,60.65,TRADE
TAS1,"2008/10/29 23:00:00",1002.28,53.32,TRADE
TAS1,"2008/10/29 23:30:00",982.55,53.32,TRADE
TAS1,"2008/10/30 00:00:00",969.5,53.32,TRADE
TAS1,"2008/10/30 00:30:00",957.51,53.32,TRADE
TAS1,"2008/10/30 01:00:00",950.84,53.32,TRADE
TAS1,"2008/10/30 01:30:00",941.6,53.32,TRADE
TAS1,"2008/10/30 02:00:00",940.24,53.32,TRADE
TAS1,"2008/10/30 02:30:00",945.45,53.32,TRADE
TAS1,"2008/10/30 03:00:00",944.61,35.32,TRADE
TAS1,"2008/10/30 03:30:00",938.24,35.32,TRADE
TAS1,"2008/10/30 04:00:00",947.21,35.32,TRADE
TAS1,"2008/10/30 04:30:00",962,35.32,TRADE
TAS1,"2008/10/30 05:00:00",992.26,35.32,TRADE
TAS1,"2008/10/30 05:30:00",1061.08,45.32,TRADE
TAS1,"2008/10/30 06:00:00",1134.98,51.32,TRADE
TAS1,"2008/10/30 06:30:00",1240.26,64.02,TRADE
TAS1,"2008/10/30 07:00:00",1299.8,69.32,TRADE
TAS1,"2008/10/30 07:30:00",1286.29,57.32,TRADE
TAS1,"2008/10/30 08:00:00",1254.65,57.44,TRADE
TAS1,"2008/10/30 08:30:00",1216.8,72.32,TRADE
TAS1,"2008/10/30 09:00:00",1191.38,75.31,TRADE
TAS1,"2008/10/30 09:30:00",1168.7,80.51,TRADE
TAS1,"2008/10/30 10:00:00",1154.71,77.85,TRADE
TAS1,"2008/10/30 10:30:00",1140.44,91.63,TRADE
TAS1,"2008/10/30 11:00:00",1131.77,90.81,TRADE
TAS1,"2008/10/30 11:30:00",1109.32,75.32,TRADE
TAS1,"2008/10/30 12:00:00",1092.86,75.54,TRADE
TAS1,"2008/10/30 12:30:00",1090.77,85.65,TRADE
TAS1,"2008/10/30 13:00:00",1105.34,106.33,TRADE
TAS1,"2008/10/30 13:30:00",1121.45,106.33,TRADE
TAS1,"2008/10/30 14:00:00",1115.63,106.33,TRADE
TAS1,"2008/10/30 14:30:00",1108.74,106.33,TRADE
TAS1,"2008/10/30 15:00:00",1111.22,106.33,TRADE
TAS1,"2008/10/30 15:30:00",1129.34,106.33,TRADE
TAS1,"2008/10/30 16:00:00",1130.12,106.33,TRADE
TAS1,"2008/10/30 16:30:00",1145.3,106.33,TRADE
TAS1,"2008/10/30 17:00:00",1147.24,106.33,TRADE
TAS1,"2008/10/30 17:30:00",1153.67,106.33,TRADE
TAS1,"2008/10/30 18:00:00",1165.96,106.33,TRADE
TAS1,"2008/10/30 18:30:00",1200.9,106.33,TRADE
TAS1,"2008/10/30 19:00:00",1242.36,106.36,TRADE
TAS1,"2008/10/30 19:30:00",1254.48,108.68,TRADE
TAS1,"2008/10/30 20:00:00",1258.7,106.36,TRADE
TAS1,"2008/10/30 20:30:00",1249.05,106.33,TRADE
TAS1,"2008/10/30 21:00:00",1216.99,106.33,TRADE
TAS1,"2008/10/30 21:30:00",1186.12,75.34,TRADE
TAS1,"2008/10/30 22:00:00",1152.05,75.35,TRADE
TAS1,"2008/10/30 22:30:00",1105.02,55.72,TRADE
TAS1,"2008/10/30 23:00:00",1100.47,31.39,TRADE
TAS1,"2008/10/30 23:30:00",1059.25,35.46,TRADE
TAS1,"2008/10/31 00:00:00",1047.11,60.35,TRADE
TAS1,"2008/10/31 00:30:00",1033.11,75.33,TRADE
TAS1,"2008/10/31 01:00:00",1025.83,75.35,TRADE
TAS1,"2008/10/31 01:30:00",1029.86,75.35,TRADE
TAS1,"2008/10/31 02:00:00",1019.42,57.35,TRADE
TAS1,"2008/10/31 02:30:00",1002.32,45.34,TRADE
TAS1,"2008/10/31 03:00:00",994.69,45.33,TRADE
TAS1,"2008/10/31 03:30:00",993.21,35.32,TRADE
TAS1,"2008/10/31 04:00:00",996.86,35.32,TRADE
TAS1,"2008/10/31 04:30:00",1025.24,35.35,TRADE
TAS1,"2008/10/31 05:00:00",1048.08,57.34,TRADE
TAS1,"2008/10/31 05:30:00",1107.32,69.36,TRADE
TAS1,"2008/10/31 06:00:00",1179.7,75.93,TRADE
TAS1,"2008/10/31 06:30:00",1278.55,75.34,TRADE
TAS1,"2008/10/31 07:00:00",1327.76,75.34,TRADE
TAS1,"2008/10/31 07:30:00",1330.11,80.31,TRADE
TAS1,"2008/10/31 08:00:00",1285.51,96.84,TRADE
TAS1,"2008/10/31 08:30:00",1262.53,96.89,TRADE
TAS1,"2008/10/31 09:00:00",1246.62,96.94,TRADE
TAS1,"2008/10/31 09:30:00",1218.79,96.86,TRADE
TAS1,"2008/10/31 10:00:00",1221.91,130.31,TRADE
TAS1,"2008/10/31 10:30:00",1205.83,80.7,TRADE
TAS1,"2008/10/31 11:00:00",1190.5,73.62,TRADE
TAS1,"2008/10/31 11:30:00",1158.01,57.3,TRADE
TAS1,"2008/10/31 12:00:00",1156.08,58.77,TRADE
TAS1,"2008/10/31 12:30:00",1133.42,53.32,TRADE
TAS1,"2008/10/31 13:00:00",1119.91,62.79,TRADE
TAS1,"2008/10/31 13:30:00",1117.27,64.52,TRADE
TAS1,"2008/10/31 14:00:00",1117.73,56.52,TRADE
TAS1,"2008/10/31 14:30:00",1114.37,46.72,TRADE
TAS1,"2008/10/31 15:00:00",1116.66,42.21,TRADE
TAS1,"2008/10/31 15:30:00",1115.41,-0.43,TRADE
TAS1,"2008/10/31 16:00:00",1121.68,1.32,TRADE
TAS1,"2008/10/31 16:30:00",1121.68,18.33,TRADE
TAS1,"2008/10/31 17:00:00",1104.66,51.47,TRADE
TAS1,"2008/10/31 17:30:00",1085.52,66.32,TRADE
TAS1,"2008/10/31 18:00:00",1087.99,89.6,TRADE
TAS1,"2008/10/31 18:30:00",1094.26,75.34,TRADE
TAS1,"2008/10/31 19:00:00",1100.73,75.45,TRADE
TAS1,"2008/10/31 19:30:00",1137.82,75.49,TRADE
TAS1,"2008/10/31 20:00:00",1157.21,75.56,TRADE
TAS1,"2008/10/31 20:30:00",1153.53,75.61,TRADE
TAS1,"2008/10/31 21:00:00",1132.72,57.36,TRADE
TAS1,"2008/10/31 21:30:00",1108.23,75.44,TRADE
TAS1,"2008/10/31 22:00:00",1081.51,75.34,TRADE
TAS1,"2008/10/31 22:30:00",1056.53,75.34,TRADE
TAS1,"2008/10/31 23:00:00",1033.2,75.34,TRADE
TAS1,"2008/10/31 23:30:00",1003.79,75.34,TRADE
TAS1,"2008/11/01 00:00:00",1004.89,57.34,TRADE
