REGION,SETTLEMENTDATE,TOTALDEMAND,RRP,PERIODTYPE
QLD1,"2000/04/01 00:30",4443.275,21.86,TRADE
QLD1,"2000/04/01 01:00",4179.39167,21.24,TRADE
QLD1,"2000/04/01 01:30",3957.20833,20.12,TRADE
QLD1,"2000/04/01 02:00",3843.39167,18.83,TRADE
QLD1,"2000/04/01 02:30",3796.355,18,TRADE
QLD1,"2000/04/01 03:00",3762.73,18,TRADE
QLD1,"2000/04/01 03:30",3723.71833,18,TRADE
QLD1,"2000/04/01 04:00",3698.50667,18,TRADE
QLD1,"2000/04/01 04:30",3709.49667,18,TRADE
QLD1,"2000/04/01 05:00",3738.09,18,TRADE
QLD1,"2000/04/01 05:30",3788.92833,18,TRADE
QLD1,"2000/04/01 06:00",3850.84167,18.42,TRADE
QLD1,"2000/04/01 06:30",3983.75167,20.64,TRADE
QLD1,"2000/04/01 07:00",4143.86,20.72,TRADE
QLD1,"2000/04/01 07:30",4392.68333,19.82,TRADE
QLD1,"2000/04/01 08:00",4594.465,21.24,TRADE
QLD1,"2000/04/01 08:30",4855.875,43.94,TRADE
QLD1,"2000/04/01 09:00",4992.35667,214.46,TRADE
QLD1,"2000/04/01 09:30",5057.38167,121.07,TRADE
QLD1,"2000/04/01 10:00",5093.79667,171.17,TRADE
QLD1,"2000/04/01 10:30",5052.01333,65.86,TRADE
QLD1,"2000/04/01 11:00",5055.43833,83.69,TRADE
QLD1,"2000/04/01 11:30",5055.915,94.09,TRADE
QLD1,"2000/04/01 12:00",5031.45,112.64,TRADE
QLD1,"2000/04/01 12:30",4983.24333,37.37,TRADE
QLD1,"2000/04/01 13:00",4955.775,56.43,TRADE
QLD1,"2000/04/01 13:30",4952.17167,37.59,TRADE
QLD1,"2000/04/01 14:00",4910.39167,35.67,TRADE
QLD1,"2000/04/01 14:30",4882.79167,32.9,TRADE
QLD1,"2000/04/01 15:00",4873.63667,32.05,TRADE
QLD1,"2000/04/01 15:30",4860.90167,31.85,TRADE
QLD1,"2000/04/01 16:00",4850.60667,29.32,TRADE
QLD1,"2000/04/01 16:30",4829.99833,24.54,TRADE
QLD1,"2000/04/01 17:00",4884.56,33.18,TRADE
QLD1,"2000/04/01 17:30",4954.20833,55.24,TRADE
QLD1,"2000/04/01 18:00",5053.16833,127.08,TRADE
QLD1,"2000/04/01 18:30",5266.775,249.92,TRADE
QLD1,"2000/04/01 19:00",5287.02833,274.89,TRADE
QLD1,"2000/04/01 19:30",5103.00333,97.66,TRADE
QLD1,"2000/04/01 20:00",5058.72333,135.26,TRADE
QLD1,"2000/04/01 20:30",4868.90333,32.44,TRADE
QLD1,"2000/04/01 21:00",4739.38833,21.93,TRADE
QLD1,"2000/04/01 21:30",4611.925,20.83,TRADE
QLD1,"2000/04/01 22:00",4494.36,20.72,TRADE
QLD1,"2000/04/01 22:30",4649.495,26.24,TRADE
QLD1,"2000/04/01 23:00",4713.235,32.98,TRADE
QLD1,"2000/04/01 23:30",4783.17333,89.27,TRADE
QLD1,"2000/04/02 00:00",4511.23333,27.64,TRADE
QLD1,"2000/04/02 00:30",4284.19167,21.68,TRADE
QLD1,"2000/04/02 01:00",4003.19,18,TRADE
QLD1,"2000/04/02 01:30",3836.73,18,TRADE
QLD1,"2000/04/02 02:00",3711.02,19.62,TRADE
QLD1,"2000/04/02 02:30",3677.87667,18.75,TRADE
QLD1,"2000/04/02 03:00",3605.97,15.37,TRADE
QLD1,"2000/04/02 03:30",3595.61,15.37,TRADE
QLD1,"2000/04/02 04:00",3603.89333,16.47,TRADE
QLD1,"2000/04/02 04:30",3585.46167,17.39,TRADE
QLD1,"2000/04/02 05:00",3590.105,16.59,TRADE
QLD1,"2000/04/02 05:30",3589.85833,17.36,TRADE
QLD1,"2000/04/02 06:00",3663.02333,17.63,TRADE
QLD1,"2000/04/02 06:30",3712.745,18,TRADE
QLD1,"2000/04/02 07:00",3820.305,18,TRADE
QLD1,"2000/04/02 07:30",4005.38167,18,TRADE
QLD1,"2000/04/02 08:00",4150.22167,18,TRADE
QLD1,"2000/04/02 08:30",4350.14667,19.25,TRADE
QLD1,"2000/04/02 09:00",4487.04,20.65,TRADE
QLD1,"2000/04/02 09:30",4569.34667,20.86,TRADE
QLD1,"2000/04/02 10:00",4599.34833,20.92,TRADE
QLD1,"2000/04/02 10:30",4623.75667,20.96,TRADE
QLD1,"2000/04/02 11:00",4622.38,20.94,TRADE
QLD1,"2000/04/02 11:30",4666.88667,21.5,TRADE
QLD1,"2000/04/02 12:00",4633.37167,20.97,TRADE
QLD1,"2000/04/02 12:30",4604.81167,20.93,TRADE
QLD1,"2000/04/02 13:00",4616.90667,20.93,TRADE
QLD1,"2000/04/02 13:30",4562.27333,20.81,TRADE
QLD1,"2000/04/02 14:00",4550.05333,20.81,TRADE
QLD1,"2000/04/02 14:30",4527.01167,20.76,TRADE
QLD1,"2000/04/02 15:00",4521.22167,20.73,TRADE
QLD1,"2000/04/02 15:30",4521.74833,20.74,TRADE
QLD1,"2000/04/02 16:00",4545.07333,20.81,TRADE
QLD1,"2000/04/02 16:30",4584.29167,20.81,TRADE
QLD1,"2000/04/02 17:00",4638.53833,20.94,TRADE
QLD1,"2000/04/02 17:30",4844.305,49,TRADE
QLD1,"2000/04/02 18:00",4981.58333,148.09,TRADE
QLD1,"2000/04/02 18:30",5177.93333,274.88,TRADE
QLD1,"2000/04/02 19:00",5184.38667,274.88,TRADE
QLD1,"2000/04/02 19:30",4989.79,41.06,TRADE
QLD1,"2000/04/02 20:00",4994.54333,50.35,TRADE
QLD1,"2000/04/02 20:30",4876.3,33.95,TRADE
QLD1,"2000/04/02 21:00",4789.01167,27.13,TRADE
QLD1,"2000/04/02 21:30",4569.875,21.24,TRADE
QLD1,"2000/04/02 22:00",4439.47833,20.17,TRADE
QLD1,"2000/04/02 22:30",4508.80333,22.32,TRADE
QLD1,"2000/04/02 23:00",4565.72333,23.75,TRADE
QLD1,"2000/04/02 23:30",4662.635,30.58,TRADE
QLD1,"2000/04/03 00:00",4402.83333,20.23,TRADE
QLD1,"2000/04/03 00:30",4133.78,18,TRADE
QLD1,"2000/04/03 01:00",3900.88333,18,TRADE
QLD1,"2000/04/03 01:30",3750.77667,18,TRADE
QLD1,"2000/04/03 02:00",3664.095,18,TRADE
QLD1,"2000/04/03 02:30",3584.95,18,TRADE
QLD1,"2000/04/03 03:00",3513.59667,17.65,TRADE
QLD1,"2000/04/03 03:30",3546.24333,17.38,TRADE
QLD1,"2000/04/03 04:00",3521.95167,17.3,TRADE
QLD1,"2000/04/03 04:30",3564.03333,18,TRADE
QLD1,"2000/04/03 05:00",3614.34,17.61,TRADE
QLD1,"2000/04/03 05:30",3757.64833,18,TRADE
QLD1,"2000/04/03 06:00",3915.79,17.18,TRADE
QLD1,"2000/04/03 06:30",4330.45833,19.3,TRADE
QLD1,"2000/04/03 07:00",4657.14833,20.75,TRADE
QLD1,"2000/04/03 07:30",5029.45833,27.63,TRADE
QLD1,"2000/04/03 08:00",5297.74333,44.08,TRADE
QLD1,"2000/04/03 08:30",5436.41667,65.25,TRADE
QLD1,"2000/04/03 09:00",5478.40833,107.9,TRADE
QLD1,"2000/04/03 09:30",5486.98833,59.76,TRADE
QLD1,"2000/04/03 10:00",5494.255,43.16,TRADE
QLD1,"2000/04/03 10:30",5492.34667,55.89,TRADE
QLD1,"2000/04/03 11:00",5553.56833,199.63,TRADE
QLD1,"2000/04/03 11:30",5559.40667,146.79,TRADE
QLD1,"2000/04/03 12:00",5562.79667,127.92,TRADE
QLD1,"2000/04/03 12:30",5543.88,39.77,TRADE
QLD1,"2000/04/03 13:00",5544.13333,81.81,TRADE
QLD1,"2000/04/03 13:30",5524.03,75.92,TRADE
QLD1,"2000/04/03 14:00",5576.22,178,TRADE
QLD1,"2000/04/03 14:30",5646.635,299.88,TRADE
QLD1,"2000/04/03 15:00",5569.42667,81.49,TRADE
QLD1,"2000/04/03 15:30",5541.22833,69.77,TRADE
QLD1,"2000/04/03 16:00",5576.36,113.51,TRADE
QLD1,"2000/04/03 16:30",5587.95,191.18,TRADE
QLD1,"2000/04/03 17:00",5596.11667,154.98,TRADE
QLD1,"2000/04/03 17:30",5538.45667,68.15,TRADE
QLD1,"2000/04/03 18:00",5625.905,166.53,TRADE
QLD1,"2000/04/03 18:30",5776.61,299.88,TRADE
QLD1,"2000/04/03 19:00",5733.16333,273.44,TRADE
QLD1,"2000/04/03 19:30",5520.58,80.56,TRADE
QLD1,"2000/04/03 20:00",5331.76333,34.81,TRADE
QLD1,"2000/04/03 20:30",5128.72167,20.97,TRADE
QLD1,"2000/04/03 21:00",5055.92667,20.91,TRADE
QLD1,"2000/04/03 21:30",4899.13,20.74,TRADE
QLD1,"2000/04/03 22:00",4783.07333,20.68,TRADE
QLD1,"2000/04/03 22:30",4823.08667,22.2,TRADE
QLD1,"2000/04/03 23:00",4889.41333,31.04,TRADE
QLD1,"2000/04/03 23:30",4890.39667,34.71,TRADE
QLD1,"2000/04/04 00:00",4645.77,26.38,TRADE
QLD1,"2000/04/04 00:30",4350.11,19.33,TRADE
QLD1,"2000/04/04 01:00",4094.58,18,TRADE
QLD1,"2000/04/04 01:30",3870.00333,18,TRADE
QLD1,"2000/04/04 02:00",3824.07167,18,TRADE
QLD1,"2000/04/04 02:30",3782.735,17.49,TRADE
QLD1,"2000/04/04 03:00",3702.40167,15.37,TRADE
QLD1,"2000/04/04 03:30",3722.15,17.7,TRADE
QLD1,"2000/04/04 04:00",3705.31,17.42,TRADE
QLD1,"2000/04/04 04:30",3769.735,18,TRADE
QLD1,"2000/04/04 05:00",3785.20167,18,TRADE
QLD1,"2000/04/04 05:30",3906.77,18,TRADE
QLD1,"2000/04/04 06:00",4048.735,17.82,TRADE
QLD1,"2000/04/04 06:30",4399.6,20.78,TRADE
QLD1,"2000/04/04 07:00",4752.57167,22.86,TRADE
QLD1,"2000/04/04 07:30",5071.91833,22.98,TRADE
QLD1,"2000/04/04 08:00",5336.84167,30.55,TRADE
QLD1,"2000/04/04 08:30",5498.135,82.59,TRADE
QLD1,"2000/04/04 09:00",5545.8,227.79,TRADE
QLD1,"2000/04/04 09:30",5563.32167,260.61,TRADE
QLD1,"2000/04/04 10:00",5593.36667,170.24,TRADE
QLD1,"2000/04/04 10:30",5564.22667,113.9,TRADE
QLD1,"2000/04/04 11:00",5598.54333,288.34,TRADE
QLD1,"2000/04/04 11:30",5648.675,188.06,TRADE
QLD1,"2000/04/04 12:00",5656.02333,171.64,TRADE
QLD1,"2000/04/04 12:30",5687.205,267.02,TRADE
QLD1,"2000/04/04 13:00",5637.48667,150.73,TRADE
QLD1,"2000/04/04 13:30",5710.36,250.77,TRADE
QLD1,"2000/04/04 14:00",5724.895,274.02,TRADE
QLD1,"2000/04/04 14:30",5727.44,292.83,TRADE
QLD1,"2000/04/04 15:00",5722.90667,248.21,TRADE
QLD1,"2000/04/04 15:30",5693.13667,192.09,TRADE
QLD1,"2000/04/04 16:00",5719.55833,274.62,TRADE
QLD1,"2000/04/04 16:30",5689.04333,268.09,TRADE
QLD1,"2000/04/04 17:00",5703.705,294.04,TRADE
QLD1,"2000/04/04 17:30",5652.97333,151.33,TRADE
QLD1,"2000/04/04 18:00",5733.54333,274.04,TRADE
QLD1,"2000/04/04 18:30",5847.44,230.75,TRADE
QLD1,"2000/04/04 19:00",5823.15167,187.36,TRADE
QLD1,"2000/04/04 19:30",5648.41833,233.6,TRADE
QLD1,"2000/04/04 20:00",5398.32833,46.4,TRADE
QLD1,"2000/04/04 20:30",5327.36167,30.1,TRADE
QLD1,"2000/04/04 21:00",5206.32667,26.33,TRADE
QLD1,"2000/04/04 21:30",5060.41333,21.86,TRADE
QLD1,"2000/04/04 22:00",4974.11333,22.68,TRADE
QLD1,"2000/04/04 22:30",4963.81,28.29,TRADE
QLD1,"2000/04/04 23:00",4984.80333,31.39,TRADE
QLD1,"2000/04/04 23:30",4983.96833,30.3,TRADE
QLD1,"2000/04/05 00:00",4725.38833,21.21,TRADE
QLD1,"2000/04/05 00:30",4419.92167,19.69,TRADE
QLD1,"2000/04/05 01:00",4164.84833,18,TRADE
QLD1,"2000/04/05 01:30",3971.44167,17.82,TRADE
QLD1,"2000/04/05 02:00",3877.79,17.37,TRADE
QLD1,"2000/04/05 02:30",3853.98167,18,TRADE
QLD1,"2000/04/05 03:00",3803.885,18,TRADE
QLD1,"2000/04/05 03:30",3784.775,18,TRADE
QLD1,"2000/04/05 04:00",3779.46667,18,TRADE
QLD1,"2000/04/05 04:30",3799.96,18,TRADE
QLD1,"2000/04/05 05:00",3805.73667,18,TRADE
QLD1,"2000/04/05 05:30",3905.72667,18,TRADE
QLD1,"2000/04/05 06:00",4061.20333,16.68,TRADE
QLD1,"2000/04/05 06:30",4513.67667,20.28,TRADE
QLD1,"2000/04/05 07:00",4816.635,24.11,TRADE
QLD1,"2000/04/05 07:30",5157.01667,30.77,TRADE
QLD1,"2000/04/05 08:00",5373.15667,41.23,TRADE
QLD1,"2000/04/05 08:30",5431.55333,60.45,TRADE
QLD1,"2000/04/05 09:00",5563.56,120.14,TRADE
QLD1,"2000/04/05 09:30",5614.905,62.62,TRADE
QLD1,"2000/04/05 10:00",5641.72333,55.21,TRADE
QLD1,"2000/04/05 10:30",5683.66167,84.48,TRADE
QLD1,"2000/04/05 11:00",5701.66833,106.16,TRADE
QLD1,"2000/04/05 11:30",5728.06667,155.86,TRADE
QLD1,"2000/04/05 12:00",5642.86167,33.58,TRADE
QLD1,"2000/04/05 12:30",5658.305,177.25,TRADE
QLD1,"2000/04/05 13:00",5712.59333,65.06,TRADE
QLD1,"2000/04/05 13:30",5775.12667,222.81,TRADE
QLD1,"2000/04/05 14:00",5739.445,82.32,TRADE
QLD1,"2000/04/05 14:30",5787.41,223.22,TRADE
QLD1,"2000/04/05 15:00",5806.31833,247.18,TRADE
QLD1,"2000/04/05 15:30",5784.07333,165.36,TRADE
QLD1,"2000/04/05 16:00",5778.62167,264.6,TRADE
QLD1,"2000/04/05 16:30",5747.98833,146.89,TRADE
QLD1,"2000/04/05 17:00",5736.51667,148.09,TRADE
QLD1,"2000/04/05 17:30",5679.04333,103.16,TRADE
QLD1,"2000/04/05 18:00",5769.80167,206.37,TRADE
QLD1,"2000/04/05 18:30",5924.80167,263.87,TRADE
QLD1,"2000/04/05 19:00",5875.44,299.92,TRADE
QLD1,"2000/04/05 19:30",5717.17333,254.04,TRADE
QLD1,"2000/04/05 20:00",5585.285,149,TRADE
QLD1,"2000/04/05 20:30",5323.29167,35.68,TRADE
QLD1,"2000/04/05 21:00",5247.89167,30.15,TRADE
QLD1,"2000/04/05 21:30",5122.78,22.77,TRADE
QLD1,"2000/04/05 22:00",5060.41167,26.39,TRADE
QLD1,"2000/04/05 22:30",5090.50167,36.39,TRADE
QLD1,"2000/04/05 23:00",5104.82333,46.31,TRADE
QLD1,"2000/04/05 23:30",5082.18667,56.9,TRADE
QLD1,"2000/04/06 00:00",4800.52167,21.98,TRADE
QLD1,"2000/04/06 00:30",4513.79333,20.24,TRADE
QLD1,"2000/04/06 01:00",4237.98,20.63,TRADE
QLD1,"2000/04/06 01:30",4013.28167,18,TRADE
QLD1,"2000/04/06 02:00",3966.98333,20.18,TRADE
QLD1,"2000/04/06 02:30",3937.05833,20.55,TRADE
QLD1,"2000/04/06 03:00",3904.025,20.08,TRADE
QLD1,"2000/04/06 03:30",3891.00833,20.08,TRADE
QLD1,"2000/04/06 04:00",3893.68167,19.25,TRADE
QLD1,"2000/04/06 04:30",3918.94167,20.5,TRADE
QLD1,"2000/04/06 05:00",3968.75167,20.6,TRADE
QLD1,"2000/04/06 05:30",4131.35667,21.76,TRADE
QLD1,"2000/04/06 06:00",4254.77333,20.23,TRADE
QLD1,"2000/04/06 06:30",4642.77667,21.56,TRADE
QLD1,"2000/04/06 07:00",4987.84167,28.73,TRADE
QLD1,"2000/04/06 07:30",5346.085,98.28,TRADE
QLD1,"2000/04/06 08:00",5535.69667,40.7,TRADE
QLD1,"2000/04/06 08:30",5594.65667,98.97,TRADE
QLD1,"2000/04/06 09:00",5641.36333,81.37,TRADE
QLD1,"2000/04/06 09:30",5686.06167,67.04,TRADE
QLD1,"2000/04/06 10:00",5659.15167,62,TRADE
QLD1,"2000/04/06 10:30",5597.16,40.24,TRADE
QLD1,"2000/04/06 11:00",5592.86833,36.31,TRADE
QLD1,"2000/04/06 11:30",5596.96833,37.99,TRADE
QLD1,"2000/04/06 12:00",5613.93,38.78,TRADE
QLD1,"2000/04/06 12:30",5557.46333,38,TRADE
QLD1,"2000/04/06 13:00",5531.015,65.76,TRADE
QLD1,"2000/04/06 13:30",5563.79333,93.29,TRADE
QLD1,"2000/04/06 14:00",5544.04,46.18,TRADE
QLD1,"2000/04/06 14:30",5541.295,41.31,TRADE
QLD1,"2000/04/06 15:00",5477.53,34.36,TRADE
QLD1,"2000/04/06 15:30",5490.44667,60.85,TRADE
QLD1,"2000/04/06 16:00",5456.49833,45.83,TRADE
QLD1,"2000/04/06 16:30",5493.735,52.44,TRADE
QLD1,"2000/04/06 17:00",5539.565,75.35,TRADE
QLD1,"2000/04/06 17:30",5598.97833,59.67,TRADE
QLD1,"2000/04/06 18:00",5777.46,470.77,TRADE
QLD1,"2000/04/06 18:30",5859.105,288.85,TRADE
QLD1,"2000/04/06 19:00",5745.275,121.61,TRADE
QLD1,"2000/04/06 19:30",5594.78667,51.36,TRADE
QLD1,"2000/04/06 20:00",5416.66,45.12,TRADE
QLD1,"2000/04/06 20:30",5304.51667,34.26,TRADE
QLD1,"2000/04/06 21:00",5199.72,27.05,TRADE
QLD1,"2000/04/06 21:30",5018.845,22.06,TRADE
QLD1,"2000/04/06 22:00",4884.91667,22.89,TRADE
QLD1,"2000/04/06 22:30",4971.49167,32.25,TRADE
QLD1,"2000/04/06 23:00",4968,34.5,TRADE
QLD1,"2000/04/06 23:30",4960.89833,40.9,TRADE
QLD1,"2000/04/07 00:00",4719.12167,21.42,TRADE
QLD1,"2000/04/07 00:30",4443.07167,19.75,TRADE
QLD1,"2000/04/07 01:00",4158.765,19.3,TRADE
QLD1,"2000/04/07 01:30",3973.67167,18,TRADE
QLD1,"2000/04/07 02:00",3872.58167,18,TRADE
QLD1,"2000/04/07 02:30",3836.58833,18.42,TRADE
QLD1,"2000/04/07 03:00",3823.51833,18,TRADE
QLD1,"2000/04/07 03:30",3785.44167,18.86,TRADE
QLD1,"2000/04/07 04:00",3814.025,20.53,TRADE
QLD1,"2000/04/07 04:30",3845.08,19.73,TRADE
QLD1,"2000/04/07 05:00",3913.97833,20.55,TRADE
QLD1,"2000/04/07 05:30",4020.085,18,TRADE
QLD1,"2000/04/07 06:00",4153.195,17.73,TRADE
QLD1,"2000/04/07 06:30",4511.475,20.76,TRADE
QLD1,"2000/04/07 07:00",4864.96167,24.88,TRADE
QLD1,"2000/04/07 07:30",5239.24667,54.66,TRADE
QLD1,"2000/04/07 08:00",5376.43333,50.22,TRADE
QLD1,"2000/04/07 08:30",5496.92333,73.5,TRADE
QLD1,"2000/04/07 09:00",5508.67333,66.52,TRADE
QLD1,"2000/04/07 09:30",5547.79667,78.95,TRADE
QLD1,"2000/04/07 10:00",5512.95833,72.53,TRADE
QLD1,"2000/04/07 10:30",5463.825,47.32,TRADE
QLD1,"2000/04/07 11:00",5465.08,47.86,TRADE
QLD1,"2000/04/07 11:30",5454.33333,45.07,TRADE
QLD1,"2000/04/07 12:00",5482.86,83.82,TRADE
QLD1,"2000/04/07 12:30",5419.13,51,TRADE
QLD1,"2000/04/07 13:00",5393.42167,41.12,TRADE
QLD1,"2000/04/07 13:30",5318.205,33.5,TRADE
QLD1,"2000/04/07 14:00",5328.90833,34.61,TRADE
QLD1,"2000/04/07 14:30",5328.365,33.8,TRADE
QLD1,"2000/04/07 15:00",5264.29167,33.09,TRADE
QLD1,"2000/04/07 15:30",5198.47667,28.4,TRADE
QLD1,"2000/04/07 16:00",5233.20167,33.09,TRADE
QLD1,"2000/04/07 16:30",5237.835,33.59,TRADE
QLD1,"2000/04/07 17:00",5263.7,34.51,TRADE
QLD1,"2000/04/07 17:30",5284.035,35.96,TRADE
QLD1,"2000/04/07 18:00",5402.795,110.71,TRADE
QLD1,"2000/04/07 18:30",5414.23,114.9,TRADE
QLD1,"2000/04/07 19:00",5320.66667,34.61,TRADE
QLD1,"2000/04/07 19:30",5150.46,26.64,TRADE
QLD1,"2000/04/07 20:00",5037.66333,21.45,TRADE
QLD1,"2000/04/07 20:30",4937.93,20.84,TRADE
QLD1,"2000/04/07 21:00",4809.44,20.63,TRADE
QLD1,"2000/04/07 21:30",4661.50667,18.42,TRADE
QLD1,"2000/04/07 22:00",4649.275,20.61,TRADE
QLD1,"2000/04/07 22:30",4696.78667,21.76,TRADE
QLD1,"2000/04/07 23:00",4756.42167,28.4,TRADE
QLD1,"2000/04/07 23:30",4831.505,69.21,TRADE
QLD1,"2000/04/08 00:00",4623.59833,43.25,TRADE
QLD1,"2000/04/08 00:30",4319.07333,22.97,TRADE
QLD1,"2000/04/08 01:00",4050.09167,19.4,TRADE
QLD1,"2000/04/08 01:30",3821.02667,18,TRADE
QLD1,"2000/04/08 02:00",3735.78833,18,TRADE
QLD1,"2000/04/08 02:30",3636.76167,18,TRADE
QLD1,"2000/04/08 03:00",3590.27667,18,TRADE
QLD1,"2000/04/08 03:30",3574.68167,18,TRADE
QLD1,"2000/04/08 04:00",3564.34167,17.99,TRADE
QLD1,"2000/04/08 04:30",3596.275,18,TRADE
QLD1,"2000/04/08 05:00",3601.56833,18,TRADE
QLD1,"2000/04/08 05:30",3667.86667,18,TRADE
QLD1,"2000/04/08 06:00",3749.55333,18,TRADE
QLD1,"2000/04/08 06:30",3857.12667,18,TRADE
QLD1,"2000/04/08 07:00",4027.755,18,TRADE
QLD1,"2000/04/08 07:30",4248.89,18,TRADE
QLD1,"2000/04/08 08:00",4486.39833,20.21,TRADE
QLD1,"2000/04/08 08:30",4678.30667,20.99,TRADE
QLD1,"2000/04/08 09:00",4852.235,32.25,TRADE
QLD1,"2000/04/08 09:30",4931.66167,43.03,TRADE
QLD1,"2000/04/08 10:00",4897.38167,23.46,TRADE
QLD1,"2000/04/08 10:30",4890.2,33.91,TRADE
QLD1,"2000/04/08 11:00",4891.715,41.89,TRADE
QLD1,"2000/04/08 11:30",4864.73,35.55,TRADE
QLD1,"2000/04/08 12:00",4829.86167,30.59,TRADE
QLD1,"2000/04/08 12:30",4732.09333,22.38,TRADE
QLD1,"2000/04/08 13:00",4675.00667,21.42,TRADE
QLD1,"2000/04/08 13:30",4629.60333,20.88,TRADE
QLD1,"2000/04/08 14:00",4560.42833,20.7,TRADE
QLD1,"2000/04/08 14:30",4527.76,20.64,TRADE
QLD1,"2000/04/08 15:00",4513.71833,20.63,TRADE
QLD1,"2000/04/08 15:30",4490.91333,20.53,TRADE
QLD1,"2000/04/08 16:00",4499.94833,20.53,TRADE
QLD1,"2000/04/08 16:30",4504.715,20.54,TRADE
QLD1,"2000/04/08 17:00",4614.14833,20.85,TRADE
QLD1,"2000/04/08 17:30",4740.63667,23.89,TRADE
QLD1,"2000/04/08 18:00",5013.92167,63.3,TRADE
QLD1,"2000/04/08 18:30",5183.575,127.91,TRADE
QLD1,"2000/04/08 19:00",5043.41667,64.56,TRADE
QLD1,"2000/04/08 19:30",4881.615,38.57,TRADE
QLD1,"2000/04/08 20:00",4787.535,25.26,TRADE
QLD1,"2000/04/08 20:30",4634.965,20.87,TRADE
QLD1,"2000/04/08 21:00",4538.97833,20.65,TRADE
QLD1,"2000/04/08 21:30",4353.455,18.42,TRADE
QLD1,"2000/04/08 22:00",4249.15,18,TRADE
QLD1,"2000/04/08 22:30",4389.40667,19.25,TRADE
QLD1,"2000/04/08 23:00",4463.58167,20.14,TRADE
QLD1,"2000/04/08 23:30",4564.93333,23.24,TRADE
QLD1,"2000/04/09 00:00",4401.07667,21.76,TRADE
QLD1,"2000/04/09 00:30",4121.66167,19.4,TRADE
QLD1,"2000/04/09 01:00",3894.61167,18.42,TRADE
QLD1,"2000/04/09 01:30",3715.12833,18,TRADE
QLD1,"2000/04/09 02:00",3585.83667,18,TRADE
QLD1,"2000/04/09 02:30",3511.88,17.71,TRADE
QLD1,"2000/04/09 03:00",3455.015,16.95,TRADE
QLD1,"2000/04/09 03:30",3428.91333,16.13,TRADE
QLD1,"2000/04/09 04:00",3408.27167,15.55,TRADE
QLD1,"2000/04/09 04:30",3399.05667,14.97,TRADE
QLD1,"2000/04/09 05:00",3407.85,13.87,TRADE
QLD1,"2000/04/09 05:30",3468.48833,13.87,TRADE
QLD1,"2000/04/09 06:00",3539.54333,16.09,TRADE
QLD1,"2000/04/09 06:30",3573.14333,17.23,TRADE
QLD1,"2000/04/09 07:00",3680.29833,15.56,TRADE
QLD1,"2000/04/09 07:30",3838.00833,16.38,TRADE
QLD1,"2000/04/09 08:00",4055.92,17.68,TRADE
QLD1,"2000/04/09 08:30",4295.505,18,TRADE
QLD1,"2000/04/09 09:00",4386.02333,18,TRADE
QLD1,"2000/04/09 09:30",4438.64,18.42,TRADE
QLD1,"2000/04/09 10:00",4527.605,20.63,TRADE
QLD1,"2000/04/09 10:30",4562.57833,20.69,TRADE
QLD1,"2000/04/09 11:00",4542.30667,20.65,TRADE
QLD1,"2000/04/09 11:30",4499.59667,20.55,TRADE
QLD1,"2000/04/09 12:00",4462.155,20.5,TRADE
QLD1,"2000/04/09 12:30",4457.08167,20.08,TRADE
QLD1,"2000/04/09 13:00",4422.43833,18.42,TRADE
QLD1,"2000/04/09 13:30",4378.13167,18,TRADE
QLD1,"2000/04/09 14:00",4353.84833,18,TRADE
QLD1,"2000/04/09 14:30",4330.57167,17.56,TRADE
QLD1,"2000/04/09 15:00",4320.30833,17.54,TRADE
QLD1,"2000/04/09 15:30",4362.02833,17.91,TRADE
QLD1,"2000/04/09 16:00",4345.465,17.58,TRADE
QLD1,"2000/04/09 16:30",4386.65,17.59,TRADE
QLD1,"2000/04/09 17:00",4473.115,18.66,TRADE
QLD1,"2000/04/09 17:30",4643.37167,20.7,TRADE
QLD1,"2000/04/09 18:00",4907.61333,26.91,TRADE
QLD1,"2000/04/09 18:30",5174.75833,33.64,TRADE
QLD1,"2000/04/09 19:00",5143.37,34.83,TRADE
QLD1,"2000/04/09 19:30",4957.38167,28.84,TRADE
QLD1,"2000/04/09 20:00",4895.97,24.03,TRADE
QLD1,"2000/04/09 20:30",4772.95333,21.49,TRADE
QLD1,"2000/04/09 21:00",4620.55333,20.67,TRADE
QLD1,"2000/04/09 21:30",4488.555,20.55,TRADE
QLD1,"2000/04/09 22:00",4331.56,18.42,TRADE
QLD1,"2000/04/09 22:30",4410.29833,20.19,TRADE
QLD1,"2000/04/09 23:00",4551.935,21.24,TRADE
QLD1,"2000/04/09 23:30",4591.90167,20.97,TRADE
QLD1,"2000/04/10 00:00",4410.43833,20.66,TRADE
QLD1,"2000/04/10 00:30",4169.73,19.25,TRADE
QLD1,"2000/04/10 01:00",3941.05333,18,TRADE
QLD1,"2000/04/10 01:30",3853.35167,18,TRADE
QLD1,"2000/04/10 02:00",3704.475,18,TRADE
QLD1,"2000/04/10 02:30",3677.545,18,TRADE
QLD1,"2000/04/10 03:00",3634.92333,18,TRADE
QLD1,"2000/04/10 03:30",3588.52333,17.49,TRADE
QLD1,"2000/04/10 04:00",3587.64333,17.32,TRADE
QLD1,"2000/04/10 04:30",3639.74667,17.53,TRADE
QLD1,"2000/04/10 05:00",3716.22167,18,TRADE
QLD1,"2000/04/10 05:30",3846.05333,18,TRADE
QLD1,"2000/04/10 06:00",4040.065,18.86,TRADE
QLD1,"2000/04/10 06:30",4390.84333,19.36,TRADE
QLD1,"2000/04/10 07:00",4744.45833,21.7,TRADE
QLD1,"2000/04/10 07:30",5191.27667,30.4,TRADE
QLD1,"2000/04/10 08:00",5386.49,39.02,TRADE
QLD1,"2000/04/10 08:30",5444.90667,38.48,TRADE
QLD1,"2000/04/10 09:00",5523.55833,44.52,TRADE
QLD1,"2000/04/10 09:30",5549.00333,43.17,TRADE
QLD1,"2000/04/10 10:00",5539.35167,41.99,TRADE
QLD1,"2000/04/10 10:30",5565.885,42.96,TRADE
QLD1,"2000/04/10 11:00",5537.98333,40.17,TRADE
QLD1,"2000/04/10 11:30",5528.25167,38.61,TRADE
QLD1,"2000/04/10 12:00",5547.79167,40.81,TRADE
QLD1,"2000/04/10 12:30",5475.05,35.61,TRADE
QLD1,"2000/04/10 13:00",5415.06,33.34,TRADE
QLD1,"2000/04/10 13:30",5443.22167,33.8,TRADE
QLD1,"2000/04/10 14:00",5421.41833,31.84,TRADE
QLD1,"2000/04/10 14:30",5450.92833,34,TRADE
QLD1,"2000/04/10 15:00",5419.36333,33.55,TRADE
QLD1,"2000/04/10 15:30",5394.83,32.89,TRADE
QLD1,"2000/04/10 16:00",5362.465,30.98,TRADE
QLD1,"2000/04/10 16:30",5434.77667,34,TRADE
QLD1,"2000/04/10 17:00",5452.36333,34.25,TRADE
QLD1,"2000/04/10 17:30",5507.33667,37.32,TRADE
QLD1,"2000/04/10 18:00",5733.865,37.12,TRADE
QLD1,"2000/04/10 18:30",5832.53333,34.83,TRADE
QLD1,"2000/04/10 19:00",5725.69,62.98,TRADE
QLD1,"2000/04/10 19:30",5476.80667,36.17,TRADE
QLD1,"2000/04/10 20:00",5324.91833,28.6,TRADE
QLD1,"2000/04/10 20:30",5165.31833,21.5,TRADE
QLD1,"2000/04/10 21:00",5073.37333,20.9,TRADE
QLD1,"2000/04/10 21:30",4893.305,20.69,TRADE
QLD1,"2000/04/10 22:00",4813.58167,20.71,TRADE
QLD1,"2000/04/10 22:30",4861.79667,21.33,TRADE
QLD1,"2000/04/10 23:00",4862.08667,23.6,TRADE
QLD1,"2000/04/10 23:30",4923.26667,33.9,TRADE
QLD1,"2000/04/11 00:00",4735.68833,28.12,TRADE
QLD1,"2000/04/11 00:30",4408.41333,20.23,TRADE
QLD1,"2000/04/11 01:00",4165.01,18.42,TRADE
QLD1,"2000/04/11 01:30",4021.07833,18,TRADE
QLD1,"2000/04/11 02:00",3896.22667,17.99,TRADE
QLD1,"2000/04/11 02:30",3747.15,15.77,TRADE
QLD1,"2000/04/11 03:00",3719.04333,15.73,TRADE
QLD1,"2000/04/11 03:30",3685.445,14.63,TRADE
QLD1,"2000/04/11 04:00",3647.295,14.26,TRADE
QLD1,"2000/04/11 04:30",3708.655,17.2,TRADE
QLD1,"2000/04/11 05:00",3725.665,16.74,TRADE
QLD1,"2000/04/11 05:30",3935.25667,17.9,TRADE
QLD1,"2000/04/11 06:00",4119.85,18.83,TRADE
QLD1,"2000/04/11 06:30",4465.25667,25.15,TRADE
QLD1,"2000/04/11 07:00",4803.36167,27.45,TRADE
QLD1,"2000/04/11 07:30",5216.77667,32.55,TRADE
QLD1,"2000/04/11 08:00",5416.78667,50.71,TRADE
QLD1,"2000/04/11 08:30",5484.60667,62.37,TRADE
QLD1,"2000/04/11 09:00",5509.07333,68.98,TRADE
QLD1,"2000/04/11 09:30",5520.34833,53.85,TRADE
QLD1,"2000/04/11 10:00",5485.055,44.52,TRADE
QLD1,"2000/04/11 10:30",5489,42.93,TRADE
QLD1,"2000/04/11 11:00",5444.68167,40.74,TRADE
QLD1,"2000/04/11 11:30",5415.4,40.25,TRADE
QLD1,"2000/04/11 12:00",5426.275,42.44,TRADE
QLD1,"2000/04/11 12:30",5402.47,39.02,TRADE
QLD1,"2000/04/11 13:00",5348.95167,34,TRADE
QLD1,"2000/04/11 13:30",5371.62833,34.25,TRADE
QLD1,"2000/04/11 14:00",5357.44167,34,TRADE
QLD1,"2000/04/11 14:30",5403.36833,34.25,TRADE
QLD1,"2000/04/11 15:00",5342.81167,25.79,TRADE
QLD1,"2000/04/11 15:30",5294.54,23.73,TRADE
QLD1,"2000/04/11 16:00",5350.68167,25.7,TRADE
QLD1,"2000/04/11 16:30",5394.29333,28.59,TRADE
QLD1,"2000/04/11 17:00",5445.32167,33.5,TRADE
QLD1,"2000/04/11 17:30",5473.99833,34.05,TRADE
QLD1,"2000/04/11 18:00",5695.8,64.66,TRADE
QLD1,"2000/04/11 18:30",5796.475,69.27,TRADE
QLD1,"2000/04/11 19:00",5696.93167,32.96,TRADE
QLD1,"2000/04/11 19:30",5501.15333,22.74,TRADE
QLD1,"2000/04/11 20:00",5293.57333,25.63,TRADE
QLD1,"2000/04/11 20:30",5175.68667,21.67,TRADE
QLD1,"2000/04/11 21:00",5070.73,21.3,TRADE
QLD1,"2000/04/11 21:30",4909.82333,20.64,TRADE
QLD1,"2000/04/11 22:00",4825.53667,20.7,TRADE
QLD1,"2000/04/11 22:30",4869.43667,21.75,TRADE
QLD1,"2000/04/11 23:00",4876.87,23.15,TRADE
QLD1,"2000/04/11 23:30",4926.56667,32.15,TRADE
QLD1,"2000/04/12 00:00",4710.37167,26.11,TRADE
QLD1,"2000/04/12 00:30",4429.93333,21.09,TRADE
QLD1,"2000/04/12 01:00",4177.00333,18,TRADE
QLD1,"2000/04/12 01:30",3995.00167,18,TRADE
QLD1,"2000/04/12 02:00",3863.17333,17.79,TRADE
QLD1,"2000/04/12 02:30",3822.87,17.6,TRADE
QLD1,"2000/04/12 03:00",3705.8,16.68,TRADE
QLD1,"2000/04/12 03:30",3720.12167,16.74,TRADE
QLD1,"2000/04/12 04:00",3700.58,17.2,TRADE
QLD1,"2000/04/12 04:30",3725.98,17.23,TRADE
QLD1,"2000/04/12 05:00",3739.97667,16.72,TRADE
QLD1,"2000/04/12 05:30",3935.105,17.91,TRADE
QLD1,"2000/04/12 06:00",4097.67,18,TRADE
QLD1,"2000/04/12 06:30",4447.66167,22.73,TRADE
QLD1,"2000/04/12 07:00",4814.20333,25.61,TRADE
QLD1,"2000/04/12 07:30",5192.04,87.39,TRADE
QLD1,"2000/04/12 08:00",5290.915,86.46,TRADE
QLD1,"2000/04/12 08:30",5416.60167,183.94,TRADE
QLD1,"2000/04/12 09:00",5491.81167,272.64,TRADE
QLD1,"2000/04/12 09:30",5457.50833,67.27,TRADE
QLD1,"2000/04/12 10:00",5449.70167,102.52,TRADE
QLD1,"2000/04/12 10:30",5455.465,107.1,TRADE
QLD1,"2000/04/12 11:00",5369.55,77.62,TRADE
QLD1,"2000/04/12 11:30",5403.80167,70.28,TRADE
QLD1,"2000/04/12 12:00",5400.67167,69.04,TRADE
QLD1,"2000/04/12 12:30",5395.43,65.35,TRADE
QLD1,"2000/04/12 13:00",5361.87,58.69,TRADE
QLD1,"2000/04/12 13:30",5370.33333,57.37,TRADE
QLD1,"2000/04/12 14:00",5374.03667,56.37,TRADE
QLD1,"2000/04/12 14:30",5358.70833,56.19,TRADE
QLD1,"2000/04/12 15:00",5274.19833,42.28,TRADE
QLD1,"2000/04/12 15:30",5239.92,34.86,TRADE
QLD1,"2000/04/12 16:00",5312.25833,42.89,TRADE
QLD1,"2000/04/12 16:30",5284.88167,34.25,TRADE
QLD1,"2000/04/12 17:00",5354.83667,35.36,TRADE
QLD1,"2000/04/12 17:30",5444.80333,54.28,TRADE
QLD1,"2000/04/12 18:00",5666.66,87.03,TRADE
QLD1,"2000/04/12 18:30",5678.345,188.51,TRADE
QLD1,"2000/04/12 19:00",5643.90167,78.05,TRADE
QLD1,"2000/04/12 19:30",5439.05167,41.26,TRADE
QLD1,"2000/04/12 20:00",5356.44,38.08,TRADE
QLD1,"2000/04/12 20:30",5174.11833,22.18,TRADE
QLD1,"2000/04/12 21:00",5094.50167,21.75,TRADE
QLD1,"2000/04/12 21:30",4942.22167,20.88,TRADE
QLD1,"2000/04/12 22:00",4898.49333,21.35,TRADE
QLD1,"2000/04/12 22:30",5006.44667,26.73,TRADE
QLD1,"2000/04/12 23:00",4934.55333,27.1,TRADE
QLD1,"2000/04/12 23:30",4988.30667,37.76,TRADE
QLD1,"2000/04/13 00:00",4712.155,28.58,TRADE
QLD1,"2000/04/13 00:30",4420.59167,21.24,TRADE
QLD1,"2000/04/13 01:00",4161.96333,18.83,TRADE
QLD1,"2000/04/13 01:30",3964.145,17.99,TRADE
QLD1,"2000/04/13 02:00",3872.80667,18.03,TRADE
QLD1,"2000/04/13 02:30",3825.42167,17.35,TRADE
QLD1,"2000/04/13 03:00",3771.23167,16.71,TRADE
QLD1,"2000/04/13 03:30",3750.665,16.65,TRADE
QLD1,"2000/04/13 04:00",3743.685,16.65,TRADE
QLD1,"2000/04/13 04:30",3744.43667,16.65,TRADE
QLD1,"2000/04/13 05:00",3811.975,17.4,TRADE
QLD1,"2000/04/13 05:30",3958.61167,17.9,TRADE
QLD1,"2000/04/13 06:00",4118.5,18,TRADE
QLD1,"2000/04/13 06:30",4484.96667,23.26,TRADE
QLD1,"2000/04/13 07:00",4820.705,26.42,TRADE
QLD1,"2000/04/13 07:30",5211.02667,29.94,TRADE
QLD1,"2000/04/13 08:00",5375.38,34.95,TRADE
QLD1,"2000/04/13 08:30",5467.035,46.67,TRADE
QLD1,"2000/04/13 09:00",5475.945,42.97,TRADE
QLD1,"2000/04/13 09:30",5475.34333,43.13,TRADE
QLD1,"2000/04/13 10:00",5446.355,37.32,TRADE
QLD1,"2000/04/13 10:30",5444.675,36.18,TRADE
QLD1,"2000/04/13 11:00",5453.53167,38.09,TRADE
QLD1,"2000/04/13 11:30",5440.245,36.01,TRADE
QLD1,"2000/04/13 12:00",5418.65,34.75,TRADE
QLD1,"2000/04/13 12:30",5356.76333,32.94,TRADE
QLD1,"2000/04/13 13:00",5347.83667,31.39,TRADE
QLD1,"2000/04/13 13:30",5349.09,31.59,TRADE
QLD1,"2000/04/13 14:00",5346.42333,33.5,TRADE
QLD1,"2000/04/13 14:30",5359.86833,33.5,TRADE
QLD1,"2000/04/13 15:00",5331.47333,33.09,TRADE
QLD1,"2000/04/13 15:30",5307.65167,25.65,TRADE
QLD1,"2000/04/13 16:00",5325.67,24.35,TRADE
QLD1,"2000/04/13 16:30",5330.37167,25.8,TRADE
QLD1,"2000/04/13 17:00",5400.745,30.09,TRADE
QLD1,"2000/04/13 17:30",5488.78167,34.5,TRADE
QLD1,"2000/04/13 18:00",5747.17333,78.27,TRADE
QLD1,"2000/04/13 18:30",5777.745,183.64,TRADE
QLD1,"2000/04/13 19:00",5678.70667,103.22,TRADE
QLD1,"2000/04/13 19:30",5527.35,64.23,TRADE
QLD1,"2000/04/13 20:00",5374.545,52.86,TRADE
QLD1,"2000/04/13 20:30",5284.05167,37.71,TRADE
QLD1,"2000/04/13 21:00",5160.91833,31.8,TRADE
QLD1,"2000/04/13 21:30",4971.73833,24.2,TRADE
QLD1,"2000/04/13 22:00",4825.775,21.83,TRADE
QLD1,"2000/04/13 22:30",4904.07,24.31,TRADE
QLD1,"2000/04/13 23:00",4901.385,24.64,TRADE
QLD1,"2000/04/13 23:30",4979.13167,33.24,TRADE
QLD1,"2000/04/14 00:00",4759.86,26.09,TRADE
QLD1,"2000/04/14 00:30",4464.035,22.05,TRADE
QLD1,"2000/04/14 01:00",4200.89167,18,TRADE
QLD1,"2000/04/14 01:30",3977.94833,17.99,TRADE
QLD1,"2000/04/14 02:00",3865.475,17.45,TRADE
QLD1,"2000/04/14 02:30",3816.18667,17.32,TRADE
QLD1,"2000/04/14 03:00",3750.65,17.2,TRADE
QLD1,"2000/04/14 03:30",3725.96667,15.54,TRADE
QLD1,"2000/04/14 04:00",3716.56833,16.1,TRADE
QLD1,"2000/04/14 04:30",3757.06667,17.26,TRADE
QLD1,"2000/04/14 05:00",3802.17833,17.36,TRADE
QLD1,"2000/04/14 05:30",3940.855,19.33,TRADE
QLD1,"2000/04/14 06:00",4163.145,20.36,TRADE
QLD1,"2000/04/14 06:30",4497.82667,19.84,TRADE
QLD1,"2000/04/14 07:00",4837.24,22.71,TRADE
QLD1,"2000/04/14 07:30",5199.30667,22.6,TRADE
QLD1,"2000/04/14 08:00",5402.50167,26.42,TRADE
QLD1,"2000/04/14 08:30",5542.65833,33.09,TRADE
QLD1,"2000/04/14 09:00",5601.82667,34.5,TRADE
QLD1,"2000/04/14 09:30",5617.01333,35.93,TRADE
QLD1,"2000/04/14 10:00",5577.80833,34.75,TRADE
QLD1,"2000/04/14 10:30",5575.935,35.16,TRADE
QLD1,"2000/04/14 11:00",5564.81667,33.84,TRADE
QLD1,"2000/04/14 11:30",5566.21833,34.25,TRADE
QLD1,"2000/04/14 12:00",5561.83667,35,TRADE
QLD1,"2000/04/14 12:30",5523.70667,32.65,TRADE
QLD1,"2000/04/14 13:00",5483.775,31.73,TRADE
QLD1,"2000/04/14 13:30",5475.51667,31.79,TRADE
QLD1,"2000/04/14 14:00",5434.405,25.22,TRADE
QLD1,"2000/04/14 14:30",5419.64,27.81,TRADE
QLD1,"2000/04/14 15:00",5395.085,24.5,TRADE
QLD1,"2000/04/14 15:30",5382.72167,25.45,TRADE
QLD1,"2000/04/14 16:00",5331.49833,24.05,TRADE
QLD1,"2000/04/14 16:30",5361.72833,25.8,TRADE
QLD1,"2000/04/14 17:00",5392.14833,30.4,TRADE
QLD1,"2000/04/14 17:30",5394.79167,28.46,TRADE
QLD1,"2000/04/14 18:00",5529.60167,34.23,TRADE
QLD1,"2000/04/14 18:30",5566.06,34.45,TRADE
QLD1,"2000/04/14 19:00",5506.995,33.53,TRADE
QLD1,"2000/04/14 19:30",5316.42,23.64,TRADE
QLD1,"2000/04/14 20:00",5201.60667,21.88,TRADE
QLD1,"2000/04/14 20:30",5052.83833,20.79,TRADE
QLD1,"2000/04/14 21:00",4926.87167,20.52,TRADE
QLD1,"2000/04/14 21:30",4857.14833,20.63,TRADE
QLD1,"2000/04/14 22:00",4738.375,19.27,TRADE
QLD1,"2000/04/14 22:30",4815.94667,20.79,TRADE
QLD1,"2000/04/14 23:00",4881.255,22.12,TRADE
QLD1,"2000/04/14 23:30",4957.07333,25.11,TRADE
QLD1,"2000/04/15 00:00",4740.16167,23.72,TRADE
QLD1,"2000/04/15 00:30",4407.85833,22.13,TRADE
QLD1,"2000/04/15 01:00",4132.32167,18.42,TRADE
QLD1,"2000/04/15 01:30",3925.06333,16.36,TRADE
QLD1,"2000/04/15 02:00",3818.11833,17.3,TRADE
QLD1,"2000/04/15 02:30",3732.15333,15.58,TRADE
QLD1,"2000/04/15 03:00",3707.28333,19.57,TRADE
QLD1,"2000/04/15 03:30",3645.96167,18.5,TRADE
QLD1,"2000/04/15 04:00",3608.62333,17.38,TRADE
QLD1,"2000/04/15 04:30",3660.18333,19.56,TRADE
QLD1,"2000/04/15 05:00",3635.94,17.96,TRADE
QLD1,"2000/04/15 05:30",3715.43833,20.69,TRADE
QLD1,"2000/04/15 06:00",3791.00833,19.28,TRADE
QLD1,"2000/04/15 06:30",3934.23833,18,TRADE
QLD1,"2000/04/15 07:00",4024.64833,16.75,TRADE
QLD1,"2000/04/15 07:30",4340.79667,17.88,TRADE
QLD1,"2000/04/15 08:00",4562.395,18,TRADE
QLD1,"2000/04/15 08:30",4807.18,20.7,TRADE
QLD1,"2000/04/15 09:00",4959.935,21.41,TRADE
QLD1,"2000/04/15 09:30",5064.08667,23.55,TRADE
QLD1,"2000/04/15 10:00",5055.74167,23.55,TRADE
QLD1,"2000/04/15 10:30",5024.20333,23.15,TRADE
QLD1,"2000/04/15 11:00",4994.46333,22.7,TRADE
QLD1,"2000/04/15 11:30",4969.35333,23.11,TRADE
QLD1,"2000/04/15 12:00",4930.39667,22.29,TRADE
QLD1,"2000/04/15 12:30",4875.58167,20.99,TRADE
QLD1,"2000/04/15 13:00",4809.61333,20.86,TRADE
QLD1,"2000/04/15 13:30",4778.54833,20.82,TRADE
QLD1,"2000/04/15 14:00",4741.90833,20.74,TRADE
QLD1,"2000/04/15 14:30",4700.06167,20.63,TRADE
QLD1,"2000/04/15 15:00",4667.00167,20.55,TRADE
QLD1,"2000/04/15 15:30",4671.86667,20.57,TRADE
QLD1,"2000/04/15 16:00",4685.85833,20.59,TRADE
QLD1,"2000/04/15 16:30",4718.11,20.71,TRADE
QLD1,"2000/04/15 17:00",4771.59,20.79,TRADE
QLD1,"2000/04/15 17:30",4909.49667,22.27,TRADE
QLD1,"2000/04/15 18:00",5153.94,30.28,TRADE
QLD1,"2000/04/15 18:30",5322.15833,35.43,TRADE
QLD1,"2000/04/15 19:00",5241.15,33.96,TRADE
QLD1,"2000/04/15 19:30",5058.67333,26.62,TRADE
QLD1,"2000/04/15 20:00",4923.87167,22.27,TRADE
QLD1,"2000/04/15 20:30",4759.93333,20.77,TRADE
QLD1,"2000/04/15 21:00",4622.82333,19.71,TRADE
QLD1,"2000/04/15 21:30",4443.475,17.5,TRADE
QLD1,"2000/04/15 22:00",4352.53,17.33,TRADE
QLD1,"2000/04/15 22:30",4490.89667,19.71,TRADE
QLD1,"2000/04/15 23:00",4576.675,20.63,TRADE
QLD1,"2000/04/15 23:30",4681.65,24.05,TRADE
QLD1,"2000/04/16 00:00",4457.145,20.81,TRADE
QLD1,"2000/04/16 00:30",4190.40167,20.15,TRADE
QLD1,"2000/04/16 01:00",3961.16833,18,TRADE
QLD1,"2000/04/16 01:30",3772.65667,19.16,TRADE
QLD1,"2000/04/16 02:00",3658.58833,17.91,TRADE
QLD1,"2000/04/16 02:30",3585.41833,15.12,TRADE
QLD1,"2000/04/16 03:00",3553.26667,13.7,TRADE
QLD1,"2000/04/16 03:30",3510.325,12.95,TRADE
QLD1,"2000/04/16 04:00",3495.17833,12.92,TRADE
QLD1,"2000/04/16 04:30",3478.85333,12.9,TRADE
QLD1,"2000/04/16 05:00",3521.33,13.68,TRADE
QLD1,"2000/04/16 05:30",3535.275,15.1,TRADE
QLD1,"2000/04/16 06:00",3578.34833,17.36,TRADE
QLD1,"2000/04/16 06:30",3647.02,19.01,TRADE
QLD1,"2000/04/16 07:00",3759.385,17.33,TRADE
QLD1,"2000/04/16 07:30",3937.39167,17.35,TRADE
QLD1,"2000/04/16 08:00",4129.35333,20.83,TRADE
QLD1,"2000/04/16 08:30",4335.605,18,TRADE
QLD1,"2000/04/16 09:00",4445.97667,18,TRADE
QLD1,"2000/04/16 09:30",4534.66167,20.11,TRADE
QLD1,"2000/04/16 10:00",4603.6,20.63,TRADE
QLD1,"2000/04/16 10:30",4637.90667,20.74,TRADE
QLD1,"2000/04/16 11:00",4563.58,20.52,TRADE
QLD1,"2000/04/16 11:30",4536.23833,20.08,TRADE
QLD1,"2000/04/16 12:00",4570.39667,20.55,TRADE
QLD1,"2000/04/16 12:30",4560.83833,20.55,TRADE
QLD1,"2000/04/16 13:00",4529.53333,20.08,TRADE
QLD1,"2000/04/16 13:30",4528.54,20.08,TRADE
QLD1,"2000/04/16 14:00",4484.28833,18,TRADE
QLD1,"2000/04/16 14:30",4451.30333,18,TRADE
QLD1,"2000/04/16 15:00",4476.04833,18,TRADE
QLD1,"2000/04/16 15:30",4481.66167,18,TRADE
QLD1,"2000/04/16 16:00",4466.03167,18.42,TRADE
QLD1,"2000/04/16 16:30",4516.8,20.5,TRADE
QLD1,"2000/04/16 17:00",4569.7,20.58,TRADE
QLD1,"2000/04/16 17:30",4758.27833,21.79,TRADE
QLD1,"2000/04/16 18:00",5046.44,33.85,TRADE
QLD1,"2000/04/16 18:30",5296.84833,58.9,TRADE
QLD1,"2000/04/16 19:00",5268.32667,37.42,TRADE
QLD1,"2000/04/16 19:30",5077.53667,33.13,TRADE
QLD1,"2000/04/16 20:00",4983.23167,30.33,TRADE
QLD1,"2000/04/16 20:30",4854.62833,23.34,TRADE
QLD1,"2000/04/16 21:00",4771.42333,21.48,TRADE
QLD1,"2000/04/16 21:30",4594.38333,20.69,TRADE
QLD1,"2000/04/16 22:00",4471.38167,20.63,TRADE
QLD1,"2000/04/16 22:30",4507.54667,20.92,TRADE
QLD1,"2000/04/16 23:00",4572.30167,22.86,TRADE
QLD1,"2000/04/16 23:30",4639.955,28.69,TRADE
QLD1,"2000/04/17 00:00",4469.55833,25.2,TRADE
QLD1,"2000/04/17 00:30",4212.18667,23.61,TRADE
QLD1,"2000/04/17 01:00",3978.92833,19.67,TRADE
QLD1,"2000/04/17 01:30",3853.04,22.44,TRADE
QLD1,"2000/04/17 02:00",3760.545,24.03,TRADE
QLD1,"2000/04/17 02:30",3706.62167,22.22,TRADE
QLD1,"2000/04/17 03:00",3659.76667,18.65,TRADE
QLD1,"2000/04/17 03:30",3655.87167,18.78,TRADE
QLD1,"2000/04/17 04:00",3654.63,18.52,TRADE
QLD1,"2000/04/17 04:30",3684.05,17.4,TRADE
QLD1,"2000/04/17 05:00",3789.55833,19.63,TRADE
QLD1,"2000/04/17 05:30",3895.715,20.32,TRADE
QLD1,"2000/04/17 06:00",4131.39,18.91,TRADE
QLD1,"2000/04/17 06:30",4456.13167,23.67,TRADE
QLD1,"2000/04/17 07:00",4785.02333,25.03,TRADE
QLD1,"2000/04/17 07:30",5215.28167,30.81,TRADE
QLD1,"2000/04/17 08:00",5439.97333,47.75,TRADE
QLD1,"2000/04/17 08:30",5522.86833,58,TRADE
QLD1,"2000/04/17 09:00",5637.05167,68.29,TRADE
QLD1,"2000/04/17 09:30",5671.405,61.67,TRADE
QLD1,"2000/04/17 10:00",5680.53833,57.62,TRADE
QLD1,"2000/04/17 10:30",5628.43833,43,TRADE
QLD1,"2000/04/17 11:00",5606.57333,41.29,TRADE
QLD1,"2000/04/17 11:30",5554.74333,40.27,TRADE
QLD1,"2000/04/17 12:00",5546.34,39.32,TRADE
QLD1,"2000/04/17 12:30",5568.33,39.53,TRADE
QLD1,"2000/04/17 13:00",5521.79333,36.69,TRADE
QLD1,"2000/04/17 13:30",5548.14333,37.19,TRADE
QLD1,"2000/04/17 14:00",5530.18833,35.43,TRADE
QLD1,"2000/04/17 14:30",5550.09667,36.96,TRADE
QLD1,"2000/04/17 15:00",5510.86167,34.43,TRADE
QLD1,"2000/04/17 15:30",5505.615,34.08,TRADE
QLD1,"2000/04/17 16:00",5527.88833,34.27,TRADE
QLD1,"2000/04/17 16:30",5558.05333,34.82,TRADE
QLD1,"2000/04/17 17:00",5596.57833,35.43,TRADE
QLD1,"2000/04/17 17:30",5670.71833,43.63,TRADE
QLD1,"2000/04/17 18:00",5869.89833,88.75,TRADE
QLD1,"2000/04/17 18:30",5922.36167,80.27,TRADE
QLD1,"2000/04/17 19:00",5762.95333,51.16,TRADE
QLD1,"2000/04/17 19:30",5570.26,39.58,TRADE
QLD1,"2000/04/17 20:00",5426.04,27.62,TRADE
QLD1,"2000/04/17 20:30",5279.17167,23.43,TRADE
QLD1,"2000/04/17 21:00",5119.055,20.88,TRADE
QLD1,"2000/04/17 21:30",4973.38333,20.7,TRADE
QLD1,"2000/04/17 22:00",4877.54333,20.73,TRADE
QLD1,"2000/04/17 22:30",4924.26833,21.39,TRADE
QLD1,"2000/04/17 23:00",4941.90167,23.75,TRADE
QLD1,"2000/04/17 23:30",4966.96,29.3,TRADE
QLD1,"2000/04/18 00:00",4787.7,23.87,TRADE
QLD1,"2000/04/18 00:30",4492.67833,22.43,TRADE
QLD1,"2000/04/18 01:00",4191.81167,21.49,TRADE
QLD1,"2000/04/18 01:30",4019.61,20.15,TRADE
QLD1,"2000/04/18 02:00",3927.90333,18.79,TRADE
QLD1,"2000/04/18 02:30",3841.33667,17.38,TRADE
QLD1,"2000/04/18 03:00",3782.975,17.33,TRADE
QLD1,"2000/04/18 03:30",3754.46667,17.33,TRADE
QLD1,"2000/04/18 04:00",3757.43667,17.36,TRADE
QLD1,"2000/04/18 04:30",3780.515,17.39,TRADE
QLD1,"2000/04/18 05:00",3849.93,17.4,TRADE
QLD1,"2000/04/18 05:30",3984.83333,20.37,TRADE
QLD1,"2000/04/18 06:00",4128.21,22.95,TRADE
QLD1,"2000/04/18 06:30",4504.385,21.08,TRADE
QLD1,"2000/04/18 07:00",4820.47333,21.21,TRADE
QLD1,"2000/04/18 07:30",5181.87667,22.96,TRADE
QLD1,"2000/04/18 08:00",5386.05667,32.95,TRADE
QLD1,"2000/04/18 08:30",5513.31167,36.36,TRADE
QLD1,"2000/04/18 09:00",5561.21,37.57,TRADE
QLD1,"2000/04/18 09:30",5603.18667,43.63,TRADE
QLD1,"2000/04/18 10:00",5584.13,37.04,TRADE
QLD1,"2000/04/18 10:30",5579.53,37.36,TRADE
QLD1,"2000/04/18 11:00",5631.17667,44,TRADE
QLD1,"2000/04/18 11:30",5601.14167,41.51,TRADE
QLD1,"2000/04/18 12:00",5613.10333,42.18,TRADE
QLD1,"2000/04/18 12:30",5613.91667,44.85,TRADE
QLD1,"2000/04/18 13:00",5536.475,37.48,TRADE
QLD1,"2000/04/18 13:30",5524.705,36.92,TRADE
QLD1,"2000/04/18 14:00",5574.19667,37.69,TRADE
QLD1,"2000/04/18 14:30",5571.22,37.76,TRADE
QLD1,"2000/04/18 15:00",5555.54667,36.8,TRADE
QLD1,"2000/04/18 15:30",5571.67167,37.44,TRADE
QLD1,"2000/04/18 16:00",5610.65667,43,TRADE
QLD1,"2000/04/18 16:30",5585.92167,39.8,TRADE
QLD1,"2000/04/18 17:00",5582.39833,38.99,TRADE
QLD1,"2000/04/18 17:30",5665.61333,44.92,TRADE
QLD1,"2000/04/18 18:00",5920.71833,76.74,TRADE
QLD1,"2000/04/18 18:30",5931.81333,70.19,TRADE
QLD1,"2000/04/18 19:00",5792.85,44.95,TRADE
QLD1,"2000/04/18 19:30",5613.17,46.91,TRADE
QLD1,"2000/04/18 20:00",5440.93,35.44,TRADE
QLD1,"2000/04/18 20:30",5291.95,23.33,TRADE
QLD1,"2000/04/18 21:00",5216.82667,21.81,TRADE
QLD1,"2000/04/18 21:30",5048.26167,20.84,TRADE
QLD1,"2000/04/18 22:00",4955.81833,20.87,TRADE
QLD1,"2000/04/18 22:30",4987.27667,22.23,TRADE
QLD1,"2000/04/18 23:00",5003.38667,24.05,TRADE
QLD1,"2000/04/18 23:30",4994.72667,26.54,TRADE
QLD1,"2000/04/19 00:00",4830.63667,24.17,TRADE
QLD1,"2000/04/19 00:30",4481.06333,21.83,TRADE
QLD1,"2000/04/19 01:00",4206.9,18.83,TRADE
QLD1,"2000/04/19 01:30",4021.75,19.34,TRADE
QLD1,"2000/04/19 02:00",3900.77667,17.36,TRADE
QLD1,"2000/04/19 02:30",3891.835,24.25,TRADE
QLD1,"2000/04/19 03:00",3836.04,21.32,TRADE
QLD1,"2000/04/19 03:30",3806.615,20.57,TRADE
QLD1,"2000/04/19 04:00",3789.825,18.49,TRADE
QLD1,"2000/04/19 04:30",3850.42833,20.38,TRADE
QLD1,"2000/04/19 05:00",3898.88,18,TRADE
QLD1,"2000/04/19 05:30",4027.89167,17.91,TRADE
QLD1,"2000/04/19 06:00",4202.1,17.91,TRADE
QLD1,"2000/04/19 06:30",4582.995,22.16,TRADE
QLD1,"2000/04/19 07:00",4906.62167,22.37,TRADE
QLD1,"2000/04/19 07:30",5281.86833,24.08,TRADE
QLD1,"2000/04/19 08:00",5440.76167,36.48,TRADE
QLD1,"2000/04/19 08:30",5557.46833,40.28,TRADE
QLD1,"2000/04/19 09:00",5558.205,37.25,TRADE
QLD1,"2000/04/19 09:30",5525.96167,36.79,TRADE
QLD1,"2000/04/19 10:00",5500.925,36.06,TRADE
QLD1,"2000/04/19 10:30",5450.34167,32.42,TRADE
QLD1,"2000/04/19 11:00",5404.25833,25.74,TRADE
QLD1,"2000/04/19 11:30",5417.93167,26.04,TRADE
QLD1,"2000/04/19 12:00",5414.91333,34.17,TRADE
QLD1,"2000/04/19 12:30",5364.77,30.43,TRADE
QLD1,"2000/04/19 13:00",5324.12167,23.9,TRADE
QLD1,"2000/04/19 13:30",5350.84833,28.74,TRADE
QLD1,"2000/04/19 14:00",5342.24167,24.35,TRADE
QLD1,"2000/04/19 14:30",5316.37167,27.5,TRADE
QLD1,"2000/04/19 15:00",5307.02833,26,TRADE
QLD1,"2000/04/19 15:30",5284.50833,24.35,TRADE
QLD1,"2000/04/19 16:00",5314.785,25.85,TRADE
QLD1,"2000/04/19 16:30",5345.86833,25.7,TRADE
QLD1,"2000/04/19 17:00",5377.315,34.33,TRADE
QLD1,"2000/04/19 17:30",5422.205,35.84,TRADE
QLD1,"2000/04/19 18:00",5704.715,57.06,TRADE
QLD1,"2000/04/19 18:30",5693.53333,53.53,TRADE
QLD1,"2000/04/19 19:00",5684.45833,59.27,TRADE
QLD1,"2000/04/19 19:30",5483.915,35.66,TRADE
QLD1,"2000/04/19 20:00",5411.76167,31.08,TRADE
QLD1,"2000/04/19 20:30",5242.16167,21.89,TRADE
QLD1,"2000/04/19 21:00",5155.98333,21.88,TRADE
QLD1,"2000/04/19 21:30",5000.79667,20.79,TRADE
QLD1,"2000/04/19 22:00",4893.15,20.74,TRADE
QLD1,"2000/04/19 22:30",4901.835,20.97,TRADE
QLD1,"2000/04/19 23:00",4956.37,24.48,TRADE
QLD1,"2000/04/19 23:30",5015.47333,27.99,TRADE
QLD1,"2000/04/20 00:00",4786.18667,23.96,TRADE
QLD1,"2000/04/20 00:30",4485.71,23.53,TRADE
QLD1,"2000/04/20 01:00",4181.8,18,TRADE
QLD1,"2000/04/20 01:30",4000.18,18.82,TRADE
QLD1,"2000/04/20 02:00",3855.61333,15.83,TRADE
QLD1,"2000/04/20 02:30",3788.35667,13.68,TRADE
QLD1,"2000/04/20 03:00",3749.93,13.4,TRADE
QLD1,"2000/04/20 03:30",3711.60833,12.48,TRADE
QLD1,"2000/04/20 04:00",3647.005,11.61,TRADE
QLD1,"2000/04/20 04:30",3700.27833,12.65,TRADE
QLD1,"2000/04/20 05:00",3786.57167,14.81,TRADE
QLD1,"2000/04/20 05:30",3923.82667,17.4,TRADE
QLD1,"2000/04/20 06:00",4134.29,17.72,TRADE
QLD1,"2000/04/20 06:30",4477.01333,18.89,TRADE
QLD1,"2000/04/20 07:00",4793.16167,18,TRADE
QLD1,"2000/04/20 07:30",5143.71333,19.67,TRADE
QLD1,"2000/04/20 08:00",5284.495,21.53,TRADE
QLD1,"2000/04/20 08:30",5381.93333,29.51,TRADE
QLD1,"2000/04/20 09:00",5400.40167,34.38,TRADE
QLD1,"2000/04/20 09:30",5446.66167,36.06,TRADE
QLD1,"2000/04/20 10:00",5387.08667,34.99,TRADE
QLD1,"2000/04/20 10:30",5351.63333,32.17,TRADE
QLD1,"2000/04/20 11:00",5347.69167,32.37,TRADE
QLD1,"2000/04/20 11:30",5377.045,37.26,TRADE
QLD1,"2000/04/20 12:00",5350.68833,46.99,TRADE
QLD1,"2000/04/20 12:30",5323.97333,44.97,TRADE
QLD1,"2000/04/20 13:00",5280.24167,38.13,TRADE
QLD1,"2000/04/20 13:30",5290.655,39.34,TRADE
QLD1,"2000/04/20 14:00",5263.84833,33.48,TRADE
QLD1,"2000/04/20 14:30",5271.80667,24.35,TRADE
QLD1,"2000/04/20 15:00",5241.085,23.08,TRADE
QLD1,"2000/04/20 15:30",5174.53333,21.02,TRADE
QLD1,"2000/04/20 16:00",5135.30833,20.07,TRADE
QLD1,"2000/04/20 16:30",5151.695,20.49,TRADE
QLD1,"2000/04/20 17:00",5178.36833,20.5,TRADE
QLD1,"2000/04/20 17:30",5217.18833,21.68,TRADE
QLD1,"2000/04/20 18:00",5492.11833,38.55,TRADE
QLD1,"2000/04/20 18:30",5513.26667,38.35,TRADE
QLD1,"2000/04/20 19:00",5435.38833,35.19,TRADE
QLD1,"2000/04/20 19:30",5240.625,22.72,TRADE
QLD1,"2000/04/20 20:00",5085.00833,18.8,TRADE
QLD1,"2000/04/20 20:30",4977.53667,18,TRADE
QLD1,"2000/04/20 21:00",4903.81167,18,TRADE
QLD1,"2000/04/20 21:30",4716.26833,17.98,TRADE
QLD1,"2000/04/20 22:00",4596.86,17.86,TRADE
QLD1,"2000/04/20 22:30",4683.54833,18,TRADE
QLD1,"2000/04/20 23:00",4718.02,18,TRADE
QLD1,"2000/04/20 23:30",4812.42667,24.84,TRADE
QLD1,"2000/04/21 00:00",4562.195,20.75,TRADE
QLD1,"2000/04/21 00:30",4250.53833,18,TRADE
QLD1,"2000/04/21 01:00",3988.89,18.83,TRADE
QLD1,"2000/04/21 01:30",3806.965,19.25,TRADE
QLD1,"2000/04/21 02:00",3679.65,17.59,TRADE
QLD1,"2000/04/21 02:30",3619.155,17.04,TRADE
QLD1,"2000/04/21 03:00",3542.555,14.77,TRADE
QLD1,"2000/04/21 03:30",3495.88667,14.59,TRADE
QLD1,"2000/04/21 04:00",3465.28,14.59,TRADE
QLD1,"2000/04/21 04:30",3513.64833,16.27,TRADE
QLD1,"2000/04/21 05:00",3479.18333,13.83,TRADE
QLD1,"2000/04/21 05:30",3523.45667,15.15,TRADE
QLD1,"2000/04/21 06:00",3580.09167,15.15,TRADE
QLD1,"2000/04/21 06:30",3690.78,17.4,TRADE
QLD1,"2000/04/21 07:00",3762.74167,16.64,TRADE
QLD1,"2000/04/21 07:30",3911.45333,17.64,TRADE
QLD1,"2000/04/21 08:00",4014.46833,18.71,TRADE
QLD1,"2000/04/21 08:30",4211.83167,25.06,TRADE
QLD1,"2000/04/21 09:00",4319.09333,19.99,TRADE
QLD1,"2000/04/21 09:30",4403.62167,18,TRADE
QLD1,"2000/04/21 10:00",4417.51667,18,TRADE
QLD1,"2000/04/21 10:30",4372.04833,18,TRADE
QLD1,"2000/04/21 11:00",4351.275,18,TRADE
QLD1,"2000/04/21 11:30",4332.555,18,TRADE
QLD1,"2000/04/21 12:00",4304.08167,18,TRADE
QLD1,"2000/04/21 12:30",4275.89333,18,TRADE
QLD1,"2000/04/21 13:00",4242.415,18,TRADE
QLD1,"2000/04/21 13:30",4211.80833,18,TRADE
QLD1,"2000/04/21 14:00",4113.06167,17.99,TRADE
QLD1,"2000/04/21 14:30",4074.645,17.94,TRADE
QLD1,"2000/04/21 15:00",4095.31833,17.99,TRADE
QLD1,"2000/04/21 15:30",4095.2,18,TRADE
QLD1,"2000/04/21 16:00",4117.63833,18,TRADE
QLD1,"2000/04/21 16:30",4180.75833,18,TRADE
QLD1,"2000/04/21 17:00",4288.02167,18,TRADE
QLD1,"2000/04/21 17:30",4522.35667,19.25,TRADE
QLD1,"2000/04/21 18:00",4833.66167,26.87,TRADE
QLD1,"2000/04/21 18:30",4956.35167,31.63,TRADE
QLD1,"2000/04/21 19:00",4839.56333,25.31,TRADE
QLD1,"2000/04/21 19:30",4642.985,20.63,TRADE
QLD1,"2000/04/21 20:00",4548.41833,18.83,TRADE
QLD1,"2000/04/21 20:30",4424.2,18,TRADE
QLD1,"2000/04/21 21:00",4348.95,18,TRADE
QLD1,"2000/04/21 21:30",4258.61833,18,TRADE
QLD1,"2000/04/21 22:00",4217.55,18,TRADE
QLD1,"2000/04/21 22:30",4316.925,18,TRADE
QLD1,"2000/04/21 23:00",4398.465,18,TRADE
QLD1,"2000/04/21 23:30",4476.46,20.66,TRADE
QLD1,"2000/04/22 00:00",4266.66167,18.83,TRADE
QLD1,"2000/04/22 00:30",4005.23333,18,TRADE
QLD1,"2000/04/22 01:00",3795.74167,18.75,TRADE
QLD1,"2000/04/22 01:30",3623.28,17.04,TRADE
QLD1,"2000/04/22 02:00",3553.365,16.64,TRADE
QLD1,"2000/04/22 02:30",3468.86167,14.78,TRADE
QLD1,"2000/04/22 03:00",3407.61167,14.39,TRADE
QLD1,"2000/04/22 03:30",3390.38167,14.39,TRADE
QLD1,"2000/04/22 04:00",3351.89167,12.33,TRADE
QLD1,"2000/04/22 04:30",3418.16333,15.14,TRADE
QLD1,"2000/04/22 05:00",3394.825,13.45,TRADE
QLD1,"2000/04/22 05:30",3465.78167,15.15,TRADE
QLD1,"2000/04/22 06:00",3542.83167,14.78,TRADE
QLD1,"2000/04/22 06:30",3641.25167,17.02,TRADE
QLD1,"2000/04/22 07:00",3762.175,16.64,TRADE
QLD1,"2000/04/22 07:30",3958.99,17.63,TRADE
QLD1,"2000/04/22 08:00",4188.05,21.48,TRADE
QLD1,"2000/04/22 08:30",4398.27167,30.78,TRADE
QLD1,"2000/04/22 09:00",4541.62333,24.71,TRADE
QLD1,"2000/04/22 09:30",4652.85833,20.5,TRADE
QLD1,"2000/04/22 10:00",4589.97333,18.83,TRADE
QLD1,"2000/04/22 10:30",4544.74333,18,TRADE
QLD1,"2000/04/22 11:00",4479.175,18,TRADE
QLD1,"2000/04/22 11:30",4475.78833,18,TRADE
QLD1,"2000/04/22 12:00",4410.45167,18,TRADE
QLD1,"2000/04/22 12:30",4399.93667,18,TRADE
QLD1,"2000/04/22 13:00",4352.49667,18,TRADE
QLD1,"2000/04/22 13:30",4298.94667,18,TRADE
QLD1,"2000/04/22 14:00",4286.48167,18,TRADE
QLD1,"2000/04/22 14:30",4282.03667,18,TRADE
QLD1,"2000/04/22 15:00",4253.66,18,TRADE
QLD1,"2000/04/22 15:30",4265.61667,18,TRADE
QLD1,"2000/04/22 16:00",4287.09667,18,TRADE
QLD1,"2000/04/22 16:30",4354.27167,18,TRADE
QLD1,"2000/04/22 17:00",4427.67,18,TRADE
QLD1,"2000/04/22 17:30",4625.935,19.37,TRADE
QLD1,"2000/04/22 18:00",4937.14333,27.72,TRADE
QLD1,"2000/04/22 18:30",4999.42833,31.53,TRADE
QLD1,"2000/04/22 19:00",4877.52167,24.67,TRADE
QLD1,"2000/04/22 19:30",4681.03167,20.63,TRADE
QLD1,"2000/04/22 20:00",4585.46333,18.42,TRADE
QLD1,"2000/04/22 20:30",4468.29,18,TRADE
QLD1,"2000/04/22 21:00",4326.21833,18,TRADE
QLD1,"2000/04/22 21:30",4219.94833,17.92,TRADE
QLD1,"2000/04/22 22:00",4150.98167,17.92,TRADE
QLD1,"2000/04/22 22:30",4268.21333,18,TRADE
QLD1,"2000/04/22 23:00",4357.865,18,TRADE
QLD1,"2000/04/22 23:30",4422.87333,19.67,TRADE
QLD1,"2000/04/23 00:00",4220.87833,18,TRADE
QLD1,"2000/04/23 00:30",4000.52333,18,TRADE
QLD1,"2000/04/23 01:00",3773.8,18.11,TRADE
QLD1,"2000/04/23 01:30",3611.035,16.67,TRADE
QLD1,"2000/04/23 02:00",3526.32833,16.66,TRADE
QLD1,"2000/04/23 02:30",3413.05333,15.18,TRADE
QLD1,"2000/04/23 03:00",3359.77833,15.13,TRADE
QLD1,"2000/04/23 03:30",3351.68,14.76,TRADE
QLD1,"2000/04/23 04:00",3356.735,13.66,TRADE
QLD1,"2000/04/23 04:30",3344.43333,14.76,TRADE
QLD1,"2000/04/23 05:00",3364.86833,15.15,TRADE
QLD1,"2000/04/23 05:30",3371.59167,13.83,TRADE
QLD1,"2000/04/23 06:00",3429.005,14.19,TRADE
QLD1,"2000/04/23 06:30",3515.85333,15.55,TRADE
QLD1,"2000/04/23 07:00",3591.92333,15.37,TRADE
QLD1,"2000/04/23 07:30",3794.825,17.04,TRADE
QLD1,"2000/04/23 08:00",3969.68,18.23,TRADE
QLD1,"2000/04/23 08:30",4132.64667,20.91,TRADE
QLD1,"2000/04/23 09:00",4264.395,18,TRADE
QLD1,"2000/04/23 09:30",4316.16833,18,TRADE
QLD1,"2000/04/23 10:00",4326.075,18,TRADE
QLD1,"2000/04/23 10:30",4319.90833,18,TRADE
QLD1,"2000/04/23 11:00",4247.84,18,TRADE
QLD1,"2000/04/23 11:30",4154.35,18,TRADE
QLD1,"2000/04/23 12:00",4218.53833,18,TRADE
QLD1,"2000/04/23 12:30",4257.48833,18,TRADE
QLD1,"2000/04/23 13:00",4178.10333,18,TRADE
QLD1,"2000/04/23 13:30",4096.76833,17.99,TRADE
QLD1,"2000/04/23 14:00",4074.93833,17.99,TRADE
QLD1,"2000/04/23 14:30",4076.90667,17.99,TRADE
QLD1,"2000/04/23 15:00",4068.72167,17.99,TRADE
QLD1,"2000/04/23 15:30",4086.045,18,TRADE
QLD1,"2000/04/23 16:00",4140.35833,18,TRADE
QLD1,"2000/04/23 16:30",4180.02167,18,TRADE
QLD1,"2000/04/23 17:00",4294.765,18,TRADE
QLD1,"2000/04/23 17:30",4539.77333,18.42,TRADE
QLD1,"2000/04/23 18:00",4789.42833,22.32,TRADE
QLD1,"2000/04/23 18:30",4880.62333,24.35,TRADE
QLD1,"2000/04/23 19:00",4758.47333,21.17,TRADE
QLD1,"2000/04/23 19:30",4606.23333,18,TRADE
QLD1,"2000/04/23 20:00",4550.83167,18,TRADE
QLD1,"2000/04/23 20:30",4438.295,18,TRADE
QLD1,"2000/04/23 21:00",4352.48667,18,TRADE
QLD1,"2000/04/23 21:30",4171.09833,17.82,TRADE
QLD1,"2000/04/23 22:00",4089.73833,17.76,TRADE
QLD1,"2000/04/23 22:30",4195.95667,17.96,TRADE
QLD1,"2000/04/23 23:00",4317.785,18,TRADE
QLD1,"2000/04/23 23:30",4401.24833,18.83,TRADE
QLD1,"2000/04/24 00:00",4196.80833,18,TRADE
QLD1,"2000/04/24 00:30",3982.51,18,TRADE
QLD1,"2000/04/24 01:00",3757.83,18.09,TRADE
QLD1,"2000/04/24 01:30",3619.93,17.4,TRADE
QLD1,"2000/04/24 02:00",3525.26167,15.92,TRADE
QLD1,"2000/04/24 02:30",3453.19167,15.17,TRADE
QLD1,"2000/04/24 03:00",3405.56167,15.15,TRADE
QLD1,"2000/04/24 03:30",3368.07167,14.77,TRADE
QLD1,"2000/04/24 04:00",3350.21667,14.76,TRADE
QLD1,"2000/04/24 04:30",3367.04833,15.14,TRADE
QLD1,"2000/04/24 05:00",3376.04,14.77,TRADE
QLD1,"2000/04/24 05:30",3437.52833,15.17,TRADE
QLD1,"2000/04/24 06:00",3513.73,15.01,TRADE
QLD1,"2000/04/24 06:30",3637.845,17.02,TRADE
QLD1,"2000/04/24 07:00",3711.975,17.02,TRADE
QLD1,"2000/04/24 07:30",3873.29,17.69,TRADE
QLD1,"2000/04/24 08:00",4008.06833,18.76,TRADE
QLD1,"2000/04/24 08:30",4237.78,19.45,TRADE
QLD1,"2000/04/24 09:00",4387.21,18,TRADE
QLD1,"2000/04/24 09:30",4494.665,18,TRADE
QLD1,"2000/04/24 10:00",4560.60667,20.08,TRADE
QLD1,"2000/04/24 10:30",4543.205,18.83,TRADE
QLD1,"2000/04/24 11:00",4520.16667,18,TRADE
QLD1,"2000/04/24 11:30",4462.06167,18,TRADE
QLD1,"2000/04/24 12:00",4438.645,18,TRADE
QLD1,"2000/04/24 12:30",4383.73833,18,TRADE
QLD1,"2000/04/24 13:00",4310.57833,18,TRADE
QLD1,"2000/04/24 13:30",4294.935,18,TRADE
QLD1,"2000/04/24 14:00",4269.35333,18,TRADE
QLD1,"2000/04/24 14:30",4192.31333,18,TRADE
QLD1,"2000/04/24 15:00",4165.85833,18,TRADE
QLD1,"2000/04/24 15:30",4171.66,18,TRADE
QLD1,"2000/04/24 16:00",4198.36667,18,TRADE
QLD1,"2000/04/24 16:30",4249.46833,18,TRADE
QLD1,"2000/04/24 17:00",4323.04,18,TRADE
QLD1,"2000/04/24 17:30",4575.78833,19.41,TRADE
QLD1,"2000/04/24 18:00",4924.215,28.79,TRADE
QLD1,"2000/04/24 18:30",5009.41167,32.73,TRADE
QLD1,"2000/04/24 19:00",4912.98,28.63,TRADE
QLD1,"2000/04/24 19:30",4738.34667,21.8,TRADE
QLD1,"2000/04/24 20:00",4610.335,20.5,TRADE
QLD1,"2000/04/24 20:30",4482.12833,18.42,TRADE
QLD1,"2000/04/24 21:00",4333.27167,18,TRADE
QLD1,"2000/04/24 21:30",4260.94667,18,TRADE
QLD1,"2000/04/24 22:00",4189.82667,18,TRADE
QLD1,"2000/04/24 22:30",4312.24167,18,TRADE
QLD1,"2000/04/24 23:00",4394.83333,18,TRADE
QLD1,"2000/04/24 23:30",4451.25167,20.12,TRADE
QLD1,"2000/04/25 00:00",4258.37833,18,TRADE
QLD1,"2000/04/25 00:30",4017.81167,18,TRADE
QLD1,"2000/04/25 01:00",3814.68833,19.81,TRADE
QLD1,"2000/04/25 01:30",3619.92167,16.66,TRADE
QLD1,"2000/04/25 02:00",3520.74333,15.91,TRADE
QLD1,"2000/04/25 02:30",3424.225,14.77,TRADE
QLD1,"2000/04/25 03:00",3391.72167,14.77,TRADE
QLD1,"2000/04/25 03:30",3373.56,15.14,TRADE
QLD1,"2000/04/25 04:00",3363.72,14.2,TRADE
QLD1,"2000/04/25 04:30",3349.78,13.64,TRADE
QLD1,"2000/04/25 05:00",3292.885,8.55,TRADE
QLD1,"2000/04/25 05:30",3312.10833,8.84,TRADE
QLD1,"2000/04/25 06:00",3428.25333,13.72,TRADE
QLD1,"2000/04/25 06:30",3544.65333,15.16,TRADE
QLD1,"2000/04/25 07:00",3648.77,15.92,TRADE
QLD1,"2000/04/25 07:30",3839.71833,17.58,TRADE
QLD1,"2000/04/25 08:00",3975.05,18.7,TRADE
QLD1,"2000/04/25 08:30",4171.065,18,TRADE
QLD1,"2000/04/25 09:00",4311.365,18,TRADE
QLD1,"2000/04/25 09:30",4405.89333,18,TRADE
QLD1,"2000/04/25 10:00",4475.41667,18,TRADE
QLD1,"2000/04/25 10:30",4476.48333,18,TRADE
QLD1,"2000/04/25 11:00",4438.6,18,TRADE
QLD1,"2000/04/25 11:30",4368.065,18,TRADE
QLD1,"2000/04/25 12:00",4358.14,18,TRADE
QLD1,"2000/04/25 12:30",4370.33333,18,TRADE
QLD1,"2000/04/25 13:00",4320.14333,18,TRADE
QLD1,"2000/04/25 13:30",4263.03167,18,TRADE
QLD1,"2000/04/25 14:00",4210.95167,18,TRADE
QLD1,"2000/04/25 14:30",4202.32667,18,TRADE
QLD1,"2000/04/25 15:00",4149.65167,18,TRADE
QLD1,"2000/04/25 15:30",4216.24333,18,TRADE
QLD1,"2000/04/25 16:00",4201.54,18,TRADE
QLD1,"2000/04/25 16:30",4341.26833,18,TRADE
QLD1,"2000/04/25 17:00",4522.25333,18.83,TRADE
QLD1,"2000/04/25 17:30",4810.03833,23.97,TRADE
QLD1,"2000/04/25 18:00",5138.735,34.69,TRADE
QLD1,"2000/04/25 18:30",5148.38,34.73,TRADE
QLD1,"2000/04/25 19:00",4962.47,27.28,TRADE
QLD1,"2000/04/25 19:30",4813.2,22.28,TRADE
QLD1,"2000/04/25 20:00",4694.58167,20.54,TRADE
QLD1,"2000/04/25 20:30",4607.24833,19.25,TRADE
QLD1,"2000/04/25 21:00",4493.53167,18,TRADE
QLD1,"2000/04/25 21:30",4316.07,18,TRADE
QLD1,"2000/04/25 22:00",4281.43667,18,TRADE
QLD1,"2000/04/25 22:30",4358.74167,18,TRADE
QLD1,"2000/04/25 23:00",4415.31667,18,TRADE
QLD1,"2000/04/25 23:30",4469.02833,20.08,TRADE
QLD1,"2000/04/26 00:00",4310.41,18.42,TRADE
QLD1,"2000/04/26 00:30",4091.135,18,TRADE
QLD1,"2000/04/26 01:00",3878.98667,21.08,TRADE
QLD1,"2000/04/26 01:30",3724.90833,17.14,TRADE
QLD1,"2000/04/26 02:00",3634.21167,15.53,TRADE
QLD1,"2000/04/26 02:30",3562.92833,15.34,TRADE
QLD1,"2000/04/26 03:00",3479.57833,12.29,TRADE
QLD1,"2000/04/26 03:30",3472.05167,12.52,TRADE
QLD1,"2000/04/26 04:00",3474.27667,12.7,TRADE
QLD1,"2000/04/26 04:30",3508.045,15.9,TRADE
QLD1,"2000/04/26 05:00",3584.14833,17.4,TRADE
QLD1,"2000/04/26 05:30",3718.13833,17.75,TRADE
QLD1,"2000/04/26 06:00",3860.53667,20.17,TRADE
QLD1,"2000/04/26 06:30",4194.35667,18.32,TRADE
QLD1,"2000/04/26 07:00",4474.83,19.76,TRADE
QLD1,"2000/04/26 07:30",4778.97667,23.77,TRADE
QLD1,"2000/04/26 08:00",5026.12333,27.14,TRADE
QLD1,"2000/04/26 08:30",5199.71167,35.36,TRADE
QLD1,"2000/04/26 09:00",5313.855,37.82,TRADE
QLD1,"2000/04/26 09:30",5339.85167,38.8,TRADE
QLD1,"2000/04/26 10:00",5313.32333,37.23,TRADE
QLD1,"2000/04/26 10:30",5280.06333,37.45,TRADE
QLD1,"2000/04/26 11:00",5232.44667,37.11,TRADE
QLD1,"2000/04/26 11:30",5217.14167,36.37,TRADE
QLD1,"2000/04/26 12:00",5181.97,35.6,TRADE
QLD1,"2000/04/26 12:30",5134.76833,34.73,TRADE
QLD1,"2000/04/26 13:00",5087.625,34.66,TRADE
QLD1,"2000/04/26 13:30",5068.39833,33.6,TRADE
QLD1,"2000/04/26 14:00",5036.58333,28.96,TRADE
QLD1,"2000/04/26 14:30",5074.605,33.83,TRADE
QLD1,"2000/04/26 15:00",5065.73,32.33,TRADE
QLD1,"2000/04/26 15:30",5051.40167,31.37,TRADE
QLD1,"2000/04/26 16:00",5080.19,34.43,TRADE
QLD1,"2000/04/26 16:30",5151.85833,34.95,TRADE
QLD1,"2000/04/26 17:00",5249.95833,35.73,TRADE
QLD1,"2000/04/26 17:30",5499.24833,49,TRADE
QLD1,"2000/04/26 18:00",5758.21333,70.37,TRADE
QLD1,"2000/04/26 18:30",5681.74333,65.79,TRADE
QLD1,"2000/04/26 19:00",5535.83,39.94,TRADE
QLD1,"2000/04/26 19:30",5322.155,35.24,TRADE
QLD1,"2000/04/26 20:00",5145.055,26.42,TRADE
QLD1,"2000/04/26 20:30",5015.46833,22.13,TRADE
QLD1,"2000/04/26 21:00",4907.44333,20.95,TRADE
QLD1,"2000/04/26 21:30",4751.18167,20.64,TRADE
QLD1,"2000/04/26 22:00",4677.6,20.28,TRADE
QLD1,"2000/04/26 22:30",4732.54667,20.86,TRADE
QLD1,"2000/04/26 23:00",4796.68167,22.67,TRADE
QLD1,"2000/04/26 23:30",4835.64167,24.45,TRADE
QLD1,"2000/04/27 00:00",4663.56167,22.9,TRADE
QLD1,"2000/04/27 00:30",4390.99,20.27,TRADE
QLD1,"2000/04/27 01:00",4131.26,18,TRADE
QLD1,"2000/04/27 01:30",3959.26833,18,TRADE
QLD1,"2000/04/27 02:00",3809.29333,17.66,TRADE
QLD1,"2000/04/27 02:30",3740.66833,18.14,TRADE
QLD1,"2000/04/27 03:00",3657.28167,17.05,TRADE
QLD1,"2000/04/27 03:30",3615.59667,16.65,TRADE
QLD1,"2000/04/27 04:00",3658.23833,17.39,TRADE
QLD1,"2000/04/27 04:30",3646.385,16.27,TRADE
QLD1,"2000/04/27 05:00",3679.52833,17.42,TRADE
QLD1,"2000/04/27 05:30",3807.52167,17.64,TRADE
QLD1,"2000/04/27 06:00",3942.23,17.6,TRADE
QLD1,"2000/04/27 06:30",4276.18667,17.96,TRADE
QLD1,"2000/04/27 07:00",4556.49,18.83,TRADE
QLD1,"2000/04/27 07:30",4860.595,20.35,TRADE
QLD1,"2000/04/27 08:00",5073.52167,22.32,TRADE
QLD1,"2000/04/27 08:30",5249.41167,27.87,TRADE
QLD1,"2000/04/27 09:00",5373.285,34.9,TRADE
QLD1,"2000/04/27 09:30",5369.25333,33.17,TRADE
QLD1,"2000/04/27 10:00",5368.12833,34.89,TRADE
QLD1,"2000/04/27 10:30",5346.365,34.01,TRADE
QLD1,"2000/04/27 11:00",5337.73333,34.01,TRADE
QLD1,"2000/04/27 11:30",5273.73167,29.43,TRADE
QLD1,"2000/04/27 12:00",5223.25167,25.71,TRADE
QLD1,"2000/04/27 12:30",5219.44667,24.93,TRADE
QLD1,"2000/04/27 13:00",5135.16667,22.07,TRADE
QLD1,"2000/04/27 13:30",5127.20167,23.17,TRADE
QLD1,"2000/04/27 14:00",5106.26833,22.38,TRADE
QLD1,"2000/04/27 14:30",5063.04333,21.82,TRADE
QLD1,"2000/04/27 15:00",5055.30667,21.02,TRADE
QLD1,"2000/04/27 15:30",5062.01167,21.82,TRADE
QLD1,"2000/04/27 16:00",5064.62833,21.83,TRADE
QLD1,"2000/04/27 16:30",5146.72,22.75,TRADE
QLD1,"2000/04/27 17:00",5222.79,24.02,TRADE
QLD1,"2000/04/27 17:30",5386.15333,30.17,TRADE
QLD1,"2000/04/27 18:00",5740.83833,39.82,TRADE
QLD1,"2000/04/27 18:30",5758.13667,45.23,TRADE
QLD1,"2000/04/27 19:00",5619.31167,34.47,TRADE
QLD1,"2000/04/27 19:30",5384.63,30.47,TRADE
QLD1,"2000/04/27 20:00",5239.46667,24.05,TRADE
QLD1,"2000/04/27 20:30",5101.66833,21.39,TRADE
QLD1,"2000/04/27 21:00",5001.88167,20.83,TRADE
QLD1,"2000/04/27 21:30",4808.745,20.54,TRADE
QLD1,"2000/04/27 22:00",4706.565,20.56,TRADE
QLD1,"2000/04/27 22:30",4758.22333,20.84,TRADE
QLD1,"2000/04/27 23:00",4808.42167,20.99,TRADE
QLD1,"2000/04/27 23:30",4872.945,24.05,TRADE
QLD1,"2000/04/28 00:00",4647.27667,21.25,TRADE
QLD1,"2000/04/28 00:30",4369.62667,19.73,TRADE
QLD1,"2000/04/28 01:00",4115.27667,18,TRADE
QLD1,"2000/04/28 01:30",3891.295,17.73,TRADE
QLD1,"2000/04/28 02:00",3808.99,18.68,TRADE
QLD1,"2000/04/28 02:30",3704.45833,17.45,TRADE
QLD1,"2000/04/28 03:00",3669.55,17.07,TRADE
QLD1,"2000/04/28 03:30",3636.73167,17.03,TRADE
QLD1,"2000/04/28 04:00",3638.94667,17.01,TRADE
QLD1,"2000/04/28 04:30",3638.40667,16.67,TRADE
QLD1,"2000/04/28 05:00",3676.97667,17.42,TRADE
QLD1,"2000/04/28 05:30",3772.11833,17.69,TRADE
QLD1,"2000/04/28 06:00",3915.03333,18.13,TRADE
QLD1,"2000/04/28 06:30",4191.20833,17.92,TRADE
QLD1,"2000/04/28 07:00",4482.005,18,TRADE
QLD1,"2000/04/28 07:30",4804.74333,20.19,TRADE
QLD1,"2000/04/28 08:00",5081.96667,21.81,TRADE
QLD1,"2000/04/28 08:30",5333.87667,28.57,TRADE
QLD1,"2000/04/28 09:00",5398.88167,31.88,TRADE
QLD1,"2000/04/28 09:30",5453.095,33.86,TRADE
QLD1,"2000/04/28 10:00",5494.26833,34.95,TRADE
QLD1,"2000/04/28 10:30",5461.40833,34.9,TRADE
QLD1,"2000/04/28 11:00",5399.04833,31.39,TRADE
QLD1,"2000/04/28 11:30",5370.36667,29.97,TRADE
QLD1,"2000/04/28 12:00",5324.8,26.52,TRADE
QLD1,"2000/04/28 12:30",5296.89333,25.51,TRADE
QLD1,"2000/04/28 13:00",5226.67833,23.9,TRADE
QLD1,"2000/04/28 13:30",5173.69667,23.53,TRADE
QLD1,"2000/04/28 14:00",5159.755,22.68,TRADE
QLD1,"2000/04/28 14:30",5080.50667,20.99,TRADE
QLD1,"2000/04/28 15:00",5042.20333,20.93,TRADE
QLD1,"2000/04/28 15:30",5041.44167,20.91,TRADE
QLD1,"2000/04/28 16:00",5019.72667,20.88,TRADE
QLD1,"2000/04/28 16:30",5077.55167,21.01,TRADE
QLD1,"2000/04/28 17:00",5136.96,22.66,TRADE
QLD1,"2000/04/28 17:30",5293.405,26.66,TRADE
QLD1,"2000/04/28 18:00",5499.52833,34.97,TRADE
QLD1,"2000/04/28 18:30",5476.82833,34.93,TRADE
QLD1,"2000/04/28 19:00",5343.5525,26.47,TRADE
QLD1,"2000/04/28 19:30",5082.426,22.02,TRADE
QLD1,"2000/04/28 20:00",4987.68167,20.82,TRADE
QLD1,"2000/04/28 20:30",4853.37833,20.11,TRADE
QLD1,"2000/04/28 21:00",4768.97333,18.42,TRADE
QLD1,"2000/04/28 21:30",4645.73167,18,TRADE
QLD1,"2000/04/28 22:00",4641.40167,18.83,TRADE
QLD1,"2000/04/28 22:30",4696.31833,20.82,TRADE
QLD1,"2000/04/28 23:00",4774.22,22.63,TRADE
QLD1,"2000/04/28 23:30",4841.47667,24.2,TRADE
QLD1,"2000/04/29 00:00",4628.48333,20.96,TRADE
QLD1,"2000/04/29 00:30",4347.965,19.3,TRADE
QLD1,"2000/04/29 01:00",4060.08667,18,TRADE
QLD1,"2000/04/29 01:30",3831.22667,18.23,TRADE
QLD1,"2000/04/29 02:00",3713.88333,17.63,TRADE
QLD1,"2000/04/29 02:30",3599.635,16.71,TRADE
QLD1,"2000/04/29 03:00",3533.625,16.32,TRADE
QLD1,"2000/04/29 03:30",3462.83667,15.24,TRADE
QLD1,"2000/04/29 04:00",3439.45,15.21,TRADE
QLD1,"2000/04/29 04:30",3444.07667,15.22,TRADE
QLD1,"2000/04/29 05:00",3449.20167,15.23,TRADE
QLD1,"2000/04/29 05:30",3534.40333,15.97,TRADE
QLD1,"2000/04/29 06:00",3623.48,15.24,TRADE
QLD1,"2000/04/29 06:30",3715.175,17.39,TRADE
QLD1,"2000/04/29 07:00",3876.74667,17.05,TRADE
QLD1,"2000/04/29 07:30",4129.74333,17.96,TRADE
QLD1,"2000/04/29 08:00",4343.65833,18,TRADE
QLD1,"2000/04/29 08:30",4582.08833,19.97,TRADE
QLD1,"2000/04/29 09:00",4735.98333,20.63,TRADE
QLD1,"2000/04/29 09:30",4852.04,22.26,TRADE
QLD1,"2000/04/29 10:00",4897.005,23.6,TRADE
QLD1,"2000/04/29 10:30",4858.71333,21,TRADE
QLD1,"2000/04/29 11:00",4822.29333,20.77,TRADE
QLD1,"2000/04/29 11:30",4771.63167,20.59,TRADE
QLD1,"2000/04/29 12:00",4728.355,20.5,TRADE
QLD1,"2000/04/29 12:30",4663.205,20.38,TRADE
QLD1,"2000/04/29 13:00",4577.74333,18.76,TRADE
QLD1,"2000/04/29 13:30",4509.90167,18,TRADE
QLD1,"2000/04/29 14:00",4451.19667,18,TRADE
QLD1,"2000/04/29 14:30",4422.05333,18,TRADE
QLD1,"2000/04/29 15:00",4347.13667,18,TRADE
QLD1,"2000/04/29 15:30",4368.31333,18,TRADE
QLD1,"2000/04/29 16:00",4385.62167,18,TRADE
QLD1,"2000/04/29 16:30",4437.98,18,TRADE
QLD1,"2000/04/29 17:00",4545.48667,18.79,TRADE
QLD1,"2000/04/29 17:30",4776.78,21.05,TRADE
QLD1,"2000/04/29 18:00",5044.10167,29.87,TRADE
QLD1,"2000/04/29 18:30",5076.365,29.65,TRADE
QLD1,"2000/04/29 19:00",4953.91833,23.93,TRADE
QLD1,"2000/04/29 19:30",4799.21,20.72,TRADE
QLD1,"2000/04/29 20:00",4703.32833,20.5,TRADE
QLD1,"2000/04/29 20:30",4542.21167,18.74,TRADE
QLD1,"2000/04/29 21:00",4420.085,18,TRADE
QLD1,"2000/04/29 21:30",4260.20167,17.83,TRADE
QLD1,"2000/04/29 22:00",4183.00167,18,TRADE
QLD1,"2000/04/29 22:30",4288.76667,19.55,TRADE
QLD1,"2000/04/29 23:00",4379.86333,22.07,TRADE
QLD1,"2000/04/29 23:30",4503.45833,24.89,TRADE
QLD1,"2000/04/30 00:00",4307.94,21.94,TRADE
QLD1,"2000/04/30 00:30",4043.20333,19.63,TRADE
QLD1,"2000/04/30 01:00",3794.18667,18,TRADE
QLD1,"2000/04/30 01:30",3630.41833,18,TRADE
QLD1,"2000/04/30 02:00",3551.53667,18.11,TRADE
QLD1,"2000/04/30 02:30",3437.03167,17.42,TRADE
QLD1,"2000/04/30 03:00",3377.715,16.67,TRADE
QLD1,"2000/04/30 03:30",3342.34667,16.65,TRADE
QLD1,"2000/04/30 04:00",3219.555,13.04,TRADE
QLD1,"2000/04/30 04:30",3089.88167,10.55,TRADE
QLD1,"2000/04/30 05:00",3096.58333,12.51,TRADE
QLD1,"2000/04/30 05:30",3125.46,13.07,TRADE
QLD1,"2000/04/30 06:00",3174.16,13.7,TRADE
QLD1,"2000/04/30 06:30",3262.84833,14.92,TRADE
QLD1,"2000/04/30 07:00",3351.89,14.57,TRADE
QLD1,"2000/04/30 07:30",3562.245,16.71,TRADE
QLD1,"2000/04/30 08:00",3886.035,17.95,TRADE
QLD1,"2000/04/30 08:30",4127.775,18,TRADE
QLD1,"2000/04/30 09:00",4271.27333,18,TRADE
QLD1,"2000/04/30 09:30",4391.84167,18,TRADE
QLD1,"2000/04/30 10:00",4447.45,18,TRADE
QLD1,"2000/04/30 10:30",4456.605,18,TRADE
QLD1,"2000/04/30 11:00",4454.175,18,TRADE
QLD1,"2000/04/30 11:30",4423.365,18,TRADE
QLD1,"2000/04/30 12:00",4435.31667,18,TRADE
QLD1,"2000/04/30 12:30",4384.06,18,TRADE
QLD1,"2000/04/30 13:00",4317.22,18,TRADE
QLD1,"2000/04/30 13:30",4268.63833,18,TRADE
QLD1,"2000/04/30 14:00",4216.83667,18,TRADE
QLD1,"2000/04/30 14:30",4128.03167,17.96,TRADE
QLD1,"2000/04/30 15:00",4156.47833,18,TRADE
QLD1,"2000/04/30 15:30",4186.395,18,TRADE
QLD1,"2000/04/30 16:00",4192.51667,18,TRADE
QLD1,"2000/04/30 16:30",4255.70333,18,TRADE
QLD1,"2000/04/30 17:00",4400.04,18,TRADE
QLD1,"2000/04/30 17:30",4607.92333,20.64,TRADE
QLD1,"2000/04/30 18:00",4883.77,24.35,TRADE
QLD1,"2000/04/30 18:30",4972.75167,26.08,TRADE
QLD1,"2000/04/30 19:00",4855.37167,22.28,TRADE
QLD1,"2000/04/30 19:30",4726.975,20.91,TRADE
QLD1,"2000/04/30 20:00",4648.05833,20.69,TRADE
QLD1,"2000/04/30 20:30",4482,18.42,TRADE
QLD1,"2000/04/30 21:00",4372.765,18,TRADE
QLD1,"2000/04/30 21:30",4249.005,18,TRADE
QLD1,"2000/04/30 22:00",4153.30167,18,TRADE
QLD1,"2000/04/30 22:30",4253.54333,18,TRADE
QLD1,"2000/04/30 23:00",4424.98833,20.59,TRADE
QLD1,"2000/04/30 23:30",4510.985,20.08,TRADE
QLD1,"2000/05/01 00:00",4342.34333,18,TRADE
