REGION,SETTLEMENTDATE,TOTALDEMAND,RRP,PERIODTYPE
SNOWY1,"2005/02/01 00:30:00",23.035,20.41,TRADE
SNOWY1,"2005/02/01 01:00:00",15.2,19.49,TRADE
SNOWY1,"2005/02/01 01:30:00",19.555,21.88,TRADE
SNOWY1,"2005/02/01 02:00:00",17.15,18.92,TRADE
SNOWY1,"2005/02/01 02:30:00",10.49167,18.5,TRADE
SNOWY1,"2005/02/01 03:00:00",50.075,17.96,TRADE
SNOWY1,"2005/02/01 03:30:00",48.59,17.28,TRADE
SNOWY1,"2005/02/01 04:00:00",45.76667,17.71,TRADE
SNOWY1,"2005/02/01 04:30:00",50.95667,18.59,TRADE
SNOWY1,"2005/02/01 05:00:00",23.775,19.65,TRADE
SNOWY1,"2005/02/01 05:30:00",20.725,21.77,TRADE
SNOWY1,"2005/02/01 06:00:00",14.605,23.41,TRADE
SNOWY1,"2005/02/01 06:30:00",22.97,23.53,TRADE
SNOWY1,"2005/02/01 07:00:00",34.50833,24.77,TRADE
SNOWY1,"2005/02/01 07:30:00",26.36,23.01,TRADE
SNOWY1,"2005/02/01 08:00:00",33.81833,24.43,TRADE
SNOWY1,"2005/02/01 08:30:00",31.07333,24.94,TRADE
SNOWY1,"2005/02/01 09:00:00",18.225,26.58,TRADE
SNOWY1,"2005/02/01 09:30:00",19.36167,30.93,TRADE
SNOWY1,"2005/02/01 10:00:00",30.715,34.68,TRADE
SNOWY1,"2005/02/01 10:30:00",35.24,35.06,TRADE
SNOWY1,"2005/02/01 11:00:00",26.53333,35.58,TRADE
SNOWY1,"2005/02/01 11:30:00",30.43167,40.49,TRADE
SNOWY1,"2005/02/01 12:00:00",22.04,42.1,TRADE
SNOWY1,"2005/02/01 12:30:00",16.465,42.1,TRADE
SNOWY1,"2005/02/01 13:00:00",25.41,42.1,TRADE
SNOWY1,"2005/02/01 13:30:00",31.23333,42.05,TRADE
SNOWY1,"2005/02/01 14:00:00",11.19333,42,TRADE
SNOWY1,"2005/02/01 14:30:00",14.66667,139.51,TRADE
SNOWY1,"2005/02/01 15:00:00",37.38167,103.69,TRADE
SNOWY1,"2005/02/01 15:30:00",55.28833,62.59,TRADE
SNOWY1,"2005/02/01 16:00:00",46.66333,52.85,TRADE
SNOWY1,"2005/02/01 16:30:00",27.86,48.04,TRADE
SNOWY1,"2005/02/01 17:00:00",27.19667,42.1,TRADE
SNOWY1,"2005/02/01 17:30:00",5.40667,37.4,TRADE
SNOWY1,"2005/02/01 18:00:00",11.46167,30.95,TRADE
SNOWY1,"2005/02/01 18:30:00",14.44667,24.59,TRADE
SNOWY1,"2005/02/01 19:00:00",27.29333,25.65,TRADE
SNOWY1,"2005/02/01 19:30:00",13.60667,24.76,TRADE
SNOWY1,"2005/02/01 20:00:00",26.455,24.19,TRADE
SNOWY1,"2005/02/01 20:30:00",17.34667,21.75,TRADE
SNOWY1,"2005/02/01 21:00:00",17.32167,19.01,TRADE
SNOWY1,"2005/02/01 21:30:00",15.07667,19.54,TRADE
SNOWY1,"2005/02/01 22:00:00",20.38,18.65,TRADE
SNOWY1,"2005/02/01 22:30:00",17.15833,19.58,TRADE
SNOWY1,"2005/02/01 23:00:00",14.565,19.5,TRADE
SNOWY1,"2005/02/01 23:30:00",16.17667,20.35,TRADE
SNOWY1,"2005/02/02 00:00:00",24.96667,20.22,TRADE
SNOWY1,"2005/02/02 00:30:00",15.44667,19.4,TRADE
SNOWY1,"2005/02/02 01:00:00",15.98333,18.31,TRADE
SNOWY1,"2005/02/02 01:30:00",19.41833,19.82,TRADE
SNOWY1,"2005/02/02 02:00:00",26.56833,15.88,TRADE
SNOWY1,"2005/02/02 02:30:00",58.94167,14.29,TRADE
SNOWY1,"2005/02/02 03:00:00",52.25167,13.55,TRADE
SNOWY1,"2005/02/02 03:30:00",50.36667,13.56,TRADE
SNOWY1,"2005/02/02 04:00:00",55.605,13.88,TRADE
SNOWY1,"2005/02/02 04:30:00",51.655,15.4,TRADE
SNOWY1,"2005/02/02 05:00:00",47.40167,17.09,TRADE
SNOWY1,"2005/02/02 05:30:00",18.31167,19.77,TRADE
SNOWY1,"2005/02/02 06:00:00",19.70333,21.87,TRADE
SNOWY1,"2005/02/02 06:30:00",18.96167,23.23,TRADE
SNOWY1,"2005/02/02 07:00:00",27.85167,24.92,TRADE
SNOWY1,"2005/02/02 07:30:00",42.45167,22.12,TRADE
SNOWY1,"2005/02/02 08:00:00",29.54833,21.64,TRADE
SNOWY1,"2005/02/02 08:30:00",33.055,21.18,TRADE
SNOWY1,"2005/02/02 09:00:00",35.19333,21.5,TRADE
SNOWY1,"2005/02/02 09:30:00",33.03167,21.44,TRADE
SNOWY1,"2005/02/02 10:00:00",21.59,22.11,TRADE
SNOWY1,"2005/02/02 10:30:00",28.135,21.5,TRADE
SNOWY1,"2005/02/02 11:00:00",24.77167,22.77,TRADE
SNOWY1,"2005/02/02 11:30:00",22.01167,23.27,TRADE
SNOWY1,"2005/02/02 12:00:00",24.15333,23.24,TRADE
SNOWY1,"2005/02/02 12:30:00",29.585,25.84,TRADE
SNOWY1,"2005/02/02 13:00:00",25.57667,26.99,TRADE
SNOWY1,"2005/02/02 13:30:00",24.46333,28.77,TRADE
SNOWY1,"2005/02/02 14:00:00",36.80167,34.87,TRADE
SNOWY1,"2005/02/02 14:30:00",13.58167,28.29,TRADE
SNOWY1,"2005/02/02 15:00:00",24.63833,26.83,TRADE
SNOWY1,"2005/02/02 15:30:00",18.07833,25.44,TRADE
SNOWY1,"2005/02/02 16:00:00",26.53833,26.5,TRADE
SNOWY1,"2005/02/02 16:30:00",19.96667,23.87,TRADE
SNOWY1,"2005/02/02 17:00:00",29.52,23.84,TRADE
SNOWY1,"2005/02/02 17:30:00",15.71167,22.92,TRADE
SNOWY1,"2005/02/02 18:00:00",38.49,21.74,TRADE
SNOWY1,"2005/02/02 18:30:00",24.22667,20.94,TRADE
SNOWY1,"2005/02/02 19:00:00",27.18,20.69,TRADE
SNOWY1,"2005/02/02 19:30:00",27.71667,20.56,TRADE
SNOWY1,"2005/02/02 20:00:00",30.84833,20.42,TRADE
SNOWY1,"2005/02/02 20:30:00",20.415,20.62,TRADE
SNOWY1,"2005/02/02 21:00:00",21.95,18.61,TRADE
SNOWY1,"2005/02/02 21:30:00",23.675,20.82,TRADE
SNOWY1,"2005/02/02 22:00:00",35.11,21.27,TRADE
SNOWY1,"2005/02/02 22:30:00",16.40167,22.87,TRADE
SNOWY1,"2005/02/02 23:00:00",22.15833,23.58,TRADE
SNOWY1,"2005/02/02 23:30:00",27.78667,25.53,TRADE
SNOWY1,"2005/02/03 00:00:00",23.22,24.38,TRADE
SNOWY1,"2005/02/03 00:30:00",28.155,24.19,TRADE
SNOWY1,"2005/02/03 01:00:00",23.54667,22.46,TRADE
SNOWY1,"2005/02/03 01:30:00",21.59,24.08,TRADE
SNOWY1,"2005/02/03 02:00:00",31.07667,23.85,TRADE
SNOWY1,"2005/02/03 02:30:00",22.51333,21.83,TRADE
SNOWY1,"2005/02/03 03:00:00",29.74167,21.13,TRADE
SNOWY1,"2005/02/03 03:30:00",21.90167,21.07,TRADE
SNOWY1,"2005/02/03 04:00:00",26.025,20.74,TRADE
SNOWY1,"2005/02/03 04:30:00",21.41833,20.43,TRADE
SNOWY1,"2005/02/03 05:00:00",35.20167,21.31,TRADE
SNOWY1,"2005/02/03 05:30:00",35.55167,24.46,TRADE
SNOWY1,"2005/02/03 06:00:00",31.00333,28.3,TRADE
SNOWY1,"2005/02/03 06:30:00",36.75,37.39,TRADE
SNOWY1,"2005/02/03 07:00:00",43.04,61.58,TRADE
SNOWY1,"2005/02/03 07:30:00",50.04167,35.74,TRADE
SNOWY1,"2005/02/03 08:00:00",14.77333,35,TRADE
SNOWY1,"2005/02/03 08:30:00",17.39,32.82,TRADE
SNOWY1,"2005/02/03 09:00:00",23.29667,27.56,TRADE
SNOWY1,"2005/02/03 09:30:00",27.96333,31.25,TRADE
SNOWY1,"2005/02/03 10:00:00",25.965,26.5,TRADE
SNOWY1,"2005/02/03 10:30:00",24.87333,26.5,TRADE
SNOWY1,"2005/02/03 11:00:00",31.97167,26.5,TRADE
SNOWY1,"2005/02/03 11:30:00",30.48,26.45,TRADE
SNOWY1,"2005/02/03 12:00:00",41.82,26.5,TRADE
SNOWY1,"2005/02/03 12:30:00",29.16,26.5,TRADE
SNOWY1,"2005/02/03 13:00:00",31.12667,26.5,TRADE
SNOWY1,"2005/02/03 13:30:00",39.79167,26.72,TRADE
SNOWY1,"2005/02/03 14:00:00",23.315,26.58,TRADE
SNOWY1,"2005/02/03 14:30:00",32.79833,26.58,TRADE
SNOWY1,"2005/02/03 15:00:00",28.24167,26.58,TRADE
SNOWY1,"2005/02/03 15:30:00",21.33333,26.51,TRADE
SNOWY1,"2005/02/03 16:00:00",25.81333,24.02,TRADE
SNOWY1,"2005/02/03 16:30:00",21.17,22.94,TRADE
SNOWY1,"2005/02/03 17:00:00",23.84333,21.87,TRADE
SNOWY1,"2005/02/03 17:30:00",33.18,20.88,TRADE
SNOWY1,"2005/02/03 18:00:00",39.79,20.79,TRADE
SNOWY1,"2005/02/03 18:30:00",30.63,20.45,TRADE
SNOWY1,"2005/02/03 19:00:00",27.89333,20.33,TRADE
SNOWY1,"2005/02/03 19:30:00",33.73333,20.44,TRADE
SNOWY1,"2005/02/03 20:00:00",34.46667,21.1,TRADE
SNOWY1,"2005/02/03 20:30:00",30.90667,21.15,TRADE
SNOWY1,"2005/02/03 21:00:00",31.395,19.79,TRADE
SNOWY1,"2005/02/03 21:30:00",34.05167,19.24,TRADE
SNOWY1,"2005/02/03 22:00:00",28.52167,18,TRADE
SNOWY1,"2005/02/03 22:30:00",15.71,19.4,TRADE
SNOWY1,"2005/02/03 23:00:00",22.43167,20.68,TRADE
SNOWY1,"2005/02/03 23:30:00",22.01,20.88,TRADE
SNOWY1,"2005/02/04 00:00:00",33.68,21.11,TRADE
SNOWY1,"2005/02/04 00:30:00",23.86333,20.63,TRADE
SNOWY1,"2005/02/04 01:00:00",22.95,20.14,TRADE
SNOWY1,"2005/02/04 01:30:00",21.755,20.73,TRADE
SNOWY1,"2005/02/04 02:00:00",30.805,17.91,TRADE
SNOWY1,"2005/02/04 02:30:00",58.80167,16.52,TRADE
SNOWY1,"2005/02/04 03:00:00",57.69667,16.1,TRADE
SNOWY1,"2005/02/04 03:30:00",58.53333,15.62,TRADE
SNOWY1,"2005/02/04 04:00:00",61.38167,15.81,TRADE
SNOWY1,"2005/02/04 04:30:00",58.83667,15.4,TRADE
SNOWY1,"2005/02/04 05:00:00",54.72167,16.7,TRADE
SNOWY1,"2005/02/04 05:30:00",23.98,18.88,TRADE
SNOWY1,"2005/02/04 06:00:00",23.96333,20.19,TRADE
SNOWY1,"2005/02/04 06:30:00",39.62167,21.99,TRADE
SNOWY1,"2005/02/04 07:00:00",36.365,22.12,TRADE
SNOWY1,"2005/02/04 07:30:00",43.36667,21.56,TRADE
SNOWY1,"2005/02/04 08:00:00",52.35167,21.6,TRADE
SNOWY1,"2005/02/04 08:30:00",43.015,21.22,TRADE
SNOWY1,"2005/02/04 09:00:00",33.16333,21.49,TRADE
SNOWY1,"2005/02/04 09:30:00",34.25,21.53,TRADE
SNOWY1,"2005/02/04 10:00:00",34.57667,21.82,TRADE
SNOWY1,"2005/02/04 10:30:00",19.17333,21.35,TRADE
SNOWY1,"2005/02/04 11:00:00",30.355,21.21,TRADE
SNOWY1,"2005/02/04 11:30:00",27.01333,20.74,TRADE
SNOWY1,"2005/02/04 12:00:00",35.15167,21.14,TRADE
SNOWY1,"2005/02/04 12:30:00",28.21333,21.63,TRADE
SNOWY1,"2005/02/04 13:00:00",36.42,21.46,TRADE
SNOWY1,"2005/02/04 13:30:00",31.66667,22.19,TRADE
SNOWY1,"2005/02/04 14:00:00",35.08333,20.55,TRADE
SNOWY1,"2005/02/04 14:30:00",25.46833,19.86,TRADE
SNOWY1,"2005/02/04 15:00:00",30.10667,19.6,TRADE
SNOWY1,"2005/02/04 15:30:00",22.73167,19.42,TRADE
SNOWY1,"2005/02/04 16:00:00",32.16333,19.4,TRADE
SNOWY1,"2005/02/04 16:30:00",33.61833,19.67,TRADE
SNOWY1,"2005/02/04 17:00:00",29.245,19.52,TRADE
SNOWY1,"2005/02/04 17:30:00",24.09667,18.36,TRADE
SNOWY1,"2005/02/04 18:00:00",34.34167,18.49,TRADE
SNOWY1,"2005/02/04 18:30:00",34.03833,18.57,TRADE
SNOWY1,"2005/02/04 19:00:00",19.695,18.3,TRADE
SNOWY1,"2005/02/04 19:30:00",31.80333,18.6,TRADE
SNOWY1,"2005/02/04 20:00:00",30.33667,18.61,TRADE
SNOWY1,"2005/02/04 20:30:00",27.91833,18.54,TRADE
SNOWY1,"2005/02/04 21:00:00",28.18667,17.55,TRADE
SNOWY1,"2005/02/04 21:30:00",27.42167,19.29,TRADE
SNOWY1,"2005/02/04 22:00:00",26.07667,17.57,TRADE
SNOWY1,"2005/02/04 22:30:00",26.43833,19.54,TRADE
SNOWY1,"2005/02/04 23:00:00",40.24,19.43,TRADE
SNOWY1,"2005/02/04 23:30:00",31.11667,20.06,TRADE
SNOWY1,"2005/02/05 00:00:00",26.08667,19.58,TRADE
SNOWY1,"2005/02/05 00:30:00",28.39,19.38,TRADE
SNOWY1,"2005/02/05 01:00:00",26.67833,18.74,TRADE
SNOWY1,"2005/02/05 01:30:00",28.92,18.8,TRADE
SNOWY1,"2005/02/05 02:00:00",41.535,14.96,TRADE
SNOWY1,"2005/02/05 02:30:00",59.42667,14.41,TRADE
SNOWY1,"2005/02/05 03:00:00",58.52333,13.08,TRADE
SNOWY1,"2005/02/05 03:30:00",57.83833,12.31,TRADE
SNOWY1,"2005/02/05 04:00:00",60.46833,12,TRADE
SNOWY1,"2005/02/05 04:30:00",54.97667,12.04,TRADE
SNOWY1,"2005/02/05 05:00:00",66.44667,12.87,TRADE
SNOWY1,"2005/02/05 05:30:00",57.97333,13.83,TRADE
SNOWY1,"2005/02/05 06:00:00",61.145,12.71,TRADE
SNOWY1,"2005/02/05 06:30:00",57.52833,14.2,TRADE
SNOWY1,"2005/02/05 07:00:00",66.24,15.72,TRADE
SNOWY1,"2005/02/05 07:30:00",65.08667,15.76,TRADE
SNOWY1,"2005/02/05 08:00:00",65.62,17.38,TRADE
SNOWY1,"2005/02/05 08:30:00",26.68333,19,TRADE
SNOWY1,"2005/02/05 09:00:00",32.465,19.53,TRADE
SNOWY1,"2005/02/05 09:30:00",34.90167,20.18,TRADE
SNOWY1,"2005/02/05 10:00:00",36.07,20.02,TRADE
SNOWY1,"2005/02/05 10:30:00",31.745,20.64,TRADE
SNOWY1,"2005/02/05 11:00:00",34.37667,21.07,TRADE
SNOWY1,"2005/02/05 11:30:00",23.53667,19.43,TRADE
SNOWY1,"2005/02/05 12:00:00",24.21167,19.18,TRADE
SNOWY1,"2005/02/05 12:30:00",24.28,18.98,TRADE
SNOWY1,"2005/02/05 13:00:00",22.41333,18.97,TRADE
SNOWY1,"2005/02/05 13:30:00",25.06,18.92,TRADE
SNOWY1,"2005/02/05 14:00:00",17.61,18.93,TRADE
SNOWY1,"2005/02/05 14:30:00",32.00667,19.08,TRADE
SNOWY1,"2005/02/05 15:00:00",28.22833,18.83,TRADE
SNOWY1,"2005/02/05 15:30:00",22.93667,18.98,TRADE
SNOWY1,"2005/02/05 16:00:00",25.405,19.13,TRADE
SNOWY1,"2005/02/05 16:30:00",23.23333,19.29,TRADE
SNOWY1,"2005/02/05 17:00:00",29.355,19.29,TRADE
SNOWY1,"2005/02/05 17:30:00",29.08,19.26,TRADE
SNOWY1,"2005/02/05 18:00:00",31.31833,18.85,TRADE
SNOWY1,"2005/02/05 18:30:00",24.55667,18.91,TRADE
SNOWY1,"2005/02/05 19:00:00",15.72333,19.03,TRADE
SNOWY1,"2005/02/05 19:30:00",28.26667,18.99,TRADE
SNOWY1,"2005/02/05 20:00:00",32.72,18.64,TRADE
SNOWY1,"2005/02/05 20:30:00",24.44667,18.37,TRADE
SNOWY1,"2005/02/05 21:00:00",27.52667,18.18,TRADE
SNOWY1,"2005/02/05 21:30:00",27.64667,18.81,TRADE
SNOWY1,"2005/02/05 22:00:00",23.6,18.11,TRADE
SNOWY1,"2005/02/05 22:30:00",18.78833,19.67,TRADE
SNOWY1,"2005/02/05 23:00:00",25.145,19.59,TRADE
SNOWY1,"2005/02/05 23:30:00",27.23,19.74,TRADE
SNOWY1,"2005/02/06 00:00:00",20.63,18.87,TRADE
SNOWY1,"2005/02/06 00:30:00",22.62167,18.82,TRADE
SNOWY1,"2005/02/06 01:00:00",20.12667,18.3,TRADE
SNOWY1,"2005/02/06 01:30:00",26.06,18.14,TRADE
SNOWY1,"2005/02/06 02:00:00",51.01833,15.49,TRADE
SNOWY1,"2005/02/06 02:30:00",63.245,14.07,TRADE
SNOWY1,"2005/02/06 03:00:00",60.455,12.81,TRADE
SNOWY1,"2005/02/06 03:30:00",58.1,11.9,TRADE
SNOWY1,"2005/02/06 04:00:00",60.76167,11.44,TRADE
SNOWY1,"2005/02/06 04:30:00",60.675,11.47,TRADE
SNOWY1,"2005/02/06 05:00:00",56.655,11.52,TRADE
SNOWY1,"2005/02/06 05:30:00",51.90167,11.29,TRADE
SNOWY1,"2005/02/06 06:00:00",55.125,11.88,TRADE
SNOWY1,"2005/02/06 06:30:00",55.20833,12.44,TRADE
SNOWY1,"2005/02/06 07:00:00",60.57167,12.21,TRADE
SNOWY1,"2005/02/06 07:30:00",61.88333,12.46,TRADE
SNOWY1,"2005/02/06 08:00:00",67.12333,14.63,TRADE
SNOWY1,"2005/02/06 08:30:00",68.22833,14.87,TRADE
SNOWY1,"2005/02/06 09:00:00",57.68,15.89,TRADE
SNOWY1,"2005/02/06 09:30:00",58.78833,16.42,TRADE
SNOWY1,"2005/02/06 10:00:00",57.79167,17.23,TRADE
SNOWY1,"2005/02/06 10:30:00",31.665,18.42,TRADE
SNOWY1,"2005/02/06 11:00:00",26.98,18.57,TRADE
SNOWY1,"2005/02/06 11:30:00",24.55,18.78,TRADE
SNOWY1,"2005/02/06 12:00:00",18.26,18.58,TRADE
SNOWY1,"2005/02/06 12:30:00",23.805,19.09,TRADE
SNOWY1,"2005/02/06 13:00:00",22.13667,19.13,TRADE
SNOWY1,"2005/02/06 13:30:00",21.26333,19.21,TRADE
SNOWY1,"2005/02/06 14:00:00",22.66167,19.26,TRADE
SNOWY1,"2005/02/06 14:30:00",24.50167,19.34,TRADE
SNOWY1,"2005/02/06 15:00:00",25.54,19.39,TRADE
SNOWY1,"2005/02/06 15:30:00",16.125,19.32,TRADE
SNOWY1,"2005/02/06 16:00:00",24.82667,20.75,TRADE
SNOWY1,"2005/02/06 16:30:00",22.69167,21.14,TRADE
SNOWY1,"2005/02/06 17:00:00",26.9,21.5,TRADE
SNOWY1,"2005/02/06 17:30:00",25.76833,21.92,TRADE
SNOWY1,"2005/02/06 18:00:00",25.50333,21.61,TRADE
SNOWY1,"2005/02/06 18:30:00",23.39167,21.47,TRADE
SNOWY1,"2005/02/06 19:00:00",29.66333,21.35,TRADE
SNOWY1,"2005/02/06 19:30:00",28.64,21.74,TRADE
SNOWY1,"2005/02/06 20:00:00",33.63333,22.39,TRADE
SNOWY1,"2005/02/06 20:30:00",28.98667,22.2,TRADE
SNOWY1,"2005/02/06 21:00:00",23.75667,20.62,TRADE
SNOWY1,"2005/02/06 21:30:00",24.26167,19.7,TRADE
SNOWY1,"2005/02/06 22:00:00",30.17667,18.49,TRADE
SNOWY1,"2005/02/06 22:30:00",30.67833,19.94,TRADE
SNOWY1,"2005/02/06 23:00:00",23.73,19.43,TRADE
SNOWY1,"2005/02/06 23:30:00",24.71833,20.34,TRADE
SNOWY1,"2005/02/07 00:00:00",27.83667,19.02,TRADE
SNOWY1,"2005/02/07 00:30:00",25.24833,17.63,TRADE
SNOWY1,"2005/02/07 01:00:00",48.11667,16.98,TRADE
SNOWY1,"2005/02/07 01:30:00",62.60333,18.31,TRADE
SNOWY1,"2005/02/07 02:00:00",65.565,15.46,TRADE
SNOWY1,"2005/02/07 02:30:00",57.38833,15.69,TRADE
SNOWY1,"2005/02/07 03:00:00",58.42,15.26,TRADE
SNOWY1,"2005/02/07 03:30:00",72.715,14.65,TRADE
SNOWY1,"2005/02/07 04:00:00",62.59167,15.01,TRADE
SNOWY1,"2005/02/07 04:30:00",61.16333,15.16,TRADE
SNOWY1,"2005/02/07 05:00:00",60.82167,16.37,TRADE
SNOWY1,"2005/02/07 05:30:00",27.535,19.49,TRADE
SNOWY1,"2005/02/07 06:00:00",27.89667,19.49,TRADE
SNOWY1,"2005/02/07 06:30:00",35.05,21.07,TRADE
SNOWY1,"2005/02/07 07:00:00",35.99,21,TRADE
SNOWY1,"2005/02/07 07:30:00",38.8,20.18,TRADE
SNOWY1,"2005/02/07 08:00:00",33.56333,21.04,TRADE
SNOWY1,"2005/02/07 08:30:00",27.57167,20.92,TRADE
SNOWY1,"2005/02/07 09:00:00",41.60167,21.66,TRADE
SNOWY1,"2005/02/07 09:30:00",47.77667,23.87,TRADE
SNOWY1,"2005/02/07 10:00:00",31.09167,23.88,TRADE
SNOWY1,"2005/02/07 10:30:00",36.17,25.06,TRADE
SNOWY1,"2005/02/07 11:00:00",38.255,26.5,TRADE
SNOWY1,"2005/02/07 11:30:00",42.68667,26.6,TRADE
SNOWY1,"2005/02/07 12:00:00",35.06,27.65,TRADE
SNOWY1,"2005/02/07 12:30:00",39.135,34.21,TRADE
SNOWY1,"2005/02/07 13:00:00",43.54833,35.05,TRADE
SNOWY1,"2005/02/07 13:30:00",27.10167,35.48,TRADE
SNOWY1,"2005/02/07 14:00:00",36.12833,36.53,TRADE
SNOWY1,"2005/02/07 14:30:00",33.62333,36.16,TRADE
SNOWY1,"2005/02/07 15:00:00",62.01667,39.62,TRADE
SNOWY1,"2005/02/07 15:30:00",61.25333,44.52,TRADE
SNOWY1,"2005/02/07 16:00:00",83.89667,64.5,TRADE
SNOWY1,"2005/02/07 16:30:00",71.20333,51.4,TRADE
SNOWY1,"2005/02/07 17:00:00",57.02,41.53,TRADE
SNOWY1,"2005/02/07 17:30:00",32.975,35.72,TRADE
SNOWY1,"2005/02/07 18:00:00",26.635,33.06,TRADE
SNOWY1,"2005/02/07 18:30:00",18.395,25.55,TRADE
SNOWY1,"2005/02/07 19:00:00",22.70167,26.5,TRADE
SNOWY1,"2005/02/07 19:30:00",32.615,30.64,TRADE
SNOWY1,"2005/02/07 20:00:00",47.18,34.13,TRADE
SNOWY1,"2005/02/07 20:30:00",31.77333,32.21,TRADE
SNOWY1,"2005/02/07 21:00:00",19.965,25.97,TRADE
SNOWY1,"2005/02/07 21:30:00",31.38667,29.42,TRADE
SNOWY1,"2005/02/07 22:00:00",15.13167,22.69,TRADE
SNOWY1,"2005/02/07 22:30:00",26.32333,24.18,TRADE
SNOWY1,"2005/02/07 23:00:00",20.305,23.53,TRADE
SNOWY1,"2005/02/07 23:30:00",20.40333,24.75,TRADE
SNOWY1,"2005/02/08 00:00:00",31.39833,21.63,TRADE
SNOWY1,"2005/02/08 00:30:00",32.15833,20.85,TRADE
SNOWY1,"2005/02/08 01:00:00",17.69333,20.15,TRADE
SNOWY1,"2005/02/08 01:30:00",43.62833,20.9,TRADE
SNOWY1,"2005/02/08 02:00:00",24.025,18.62,TRADE
SNOWY1,"2005/02/08 02:30:00",25.02167,18.45,TRADE
SNOWY1,"2005/02/08 03:00:00",47.44,17.36,TRADE
SNOWY1,"2005/02/08 03:30:00",55.9,17.34,TRADE
SNOWY1,"2005/02/08 04:00:00",57.625,17.01,TRADE
SNOWY1,"2005/02/08 04:30:00",31.92333,17.76,TRADE
SNOWY1,"2005/02/08 05:00:00",19.82833,19.12,TRADE
SNOWY1,"2005/02/08 05:30:00",25.91,21.74,TRADE
SNOWY1,"2005/02/08 06:00:00",27.04833,22.97,TRADE
SNOWY1,"2005/02/08 06:30:00",41.16167,24.94,TRADE
SNOWY1,"2005/02/08 07:00:00",27.07333,27.34,TRADE
SNOWY1,"2005/02/08 07:30:00",38.805,23.8,TRADE
SNOWY1,"2005/02/08 08:00:00",42.41333,25.9,TRADE
SNOWY1,"2005/02/08 08:30:00",45.38667,24.31,TRADE
SNOWY1,"2005/02/08 09:00:00",59.78333,29.58,TRADE
SNOWY1,"2005/02/08 09:30:00",52.30167,34.89,TRADE
SNOWY1,"2005/02/08 10:00:00",57.47333,34.94,TRADE
SNOWY1,"2005/02/08 10:30:00",48.40333,34.99,TRADE
SNOWY1,"2005/02/08 11:00:00",33.87833,35,TRADE
SNOWY1,"2005/02/08 11:30:00",42.12167,35.06,TRADE
SNOWY1,"2005/02/08 12:00:00",58.17,35.27,TRADE
SNOWY1,"2005/02/08 12:30:00",34.97667,34.98,TRADE
SNOWY1,"2005/02/08 13:00:00",21.425,33.8,TRADE
SNOWY1,"2005/02/08 13:30:00",32.84833,33.42,TRADE
SNOWY1,"2005/02/08 14:00:00",30.03333,24.28,TRADE
SNOWY1,"2005/02/08 14:30:00",33.80833,125.63,TRADE
SNOWY1,"2005/02/08 15:00:00",32.32,26.5,TRADE
SNOWY1,"2005/02/08 15:30:00",38.43,737.6,TRADE
SNOWY1,"2005/02/08 16:00:00",32.065,46.02,TRADE
SNOWY1,"2005/02/08 16:30:00",22.07833,0.02,TRADE
SNOWY1,"2005/02/08 17:00:00",31.9,90.87,TRADE
SNOWY1,"2005/02/08 17:30:00",35.04333,62.59,TRADE
SNOWY1,"2005/02/08 18:00:00",31.44167,19.04,TRADE
SNOWY1,"2005/02/08 18:30:00",14.67,41.72,TRADE
SNOWY1,"2005/02/08 19:00:00",11.785,40.3,TRADE
SNOWY1,"2005/02/08 19:30:00",43.26167,42.2,TRADE
SNOWY1,"2005/02/08 20:00:00",16.51667,41.62,TRADE
SNOWY1,"2005/02/08 20:30:00",8.8,38.96,TRADE
SNOWY1,"2005/02/08 21:00:00",14.61167,31.12,TRADE
SNOWY1,"2005/02/08 21:30:00",23.97833,33.52,TRADE
SNOWY1,"2005/02/08 22:00:00",33.275,21.65,TRADE
SNOWY1,"2005/02/08 22:30:00",16.695,23.33,TRADE
SNOWY1,"2005/02/08 23:00:00",17.86333,23.13,TRADE
SNOWY1,"2005/02/08 23:30:00",31.07833,26.6,TRADE
SNOWY1,"2005/02/09 00:00:00",17.18833,23,TRADE
SNOWY1,"2005/02/09 00:30:00",20.16667,22,TRADE
SNOWY1,"2005/02/09 01:00:00",17.43167,20.71,TRADE
SNOWY1,"2005/02/09 01:30:00",22.59667,22.05,TRADE
SNOWY1,"2005/02/09 02:00:00",23.58667,20.26,TRADE
SNOWY1,"2005/02/09 02:30:00",27.675,19.39,TRADE
SNOWY1,"2005/02/09 03:00:00",45.45167,17.18,TRADE
SNOWY1,"2005/02/09 03:30:00",53.33833,16.74,TRADE
SNOWY1,"2005/02/09 04:00:00",47.16,16.52,TRADE
SNOWY1,"2005/02/09 04:30:00",55.585,17.97,TRADE
SNOWY1,"2005/02/09 05:00:00",19.17667,19.17,TRADE
SNOWY1,"2005/02/09 05:30:00",26.32833,22.41,TRADE
SNOWY1,"2005/02/09 06:00:00",20.54,24.46,TRADE
SNOWY1,"2005/02/09 06:30:00",35.85667,27.51,TRADE
SNOWY1,"2005/02/09 07:00:00",36.64833,25.82,TRADE
SNOWY1,"2005/02/09 07:30:00",28.49667,22.86,TRADE
SNOWY1,"2005/02/09 08:00:00",22.27,23.94,TRADE
SNOWY1,"2005/02/09 08:30:00",33.11,24.83,TRADE
SNOWY1,"2005/02/09 09:00:00",26.91167,29.51,TRADE
SNOWY1,"2005/02/09 09:30:00",20.66333,26.71,TRADE
SNOWY1,"2005/02/09 10:00:00",15.525,26.98,TRADE
SNOWY1,"2005/02/09 10:30:00",28.285,26.5,TRADE
SNOWY1,"2005/02/09 11:00:00",26.69333,23.63,TRADE
SNOWY1,"2005/02/09 11:30:00",21.92333,23.03,TRADE
SNOWY1,"2005/02/09 12:00:00",32.51833,25.57,TRADE
SNOWY1,"2005/02/09 12:30:00",36.76167,26.01,TRADE
SNOWY1,"2005/02/09 13:00:00",29.65833,26.02,TRADE
SNOWY1,"2005/02/09 13:30:00",20.375,24.95,TRADE
SNOWY1,"2005/02/09 14:00:00",39.29167,28.6,TRADE
SNOWY1,"2005/02/09 14:30:00",18.12333,26.5,TRADE
SNOWY1,"2005/02/09 15:00:00",26.75833,26.02,TRADE
SNOWY1,"2005/02/09 15:30:00",25.29167,23.76,TRADE
SNOWY1,"2005/02/09 16:00:00",30.90333,23.28,TRADE
SNOWY1,"2005/02/09 16:30:00",28.39667,22.03,TRADE
SNOWY1,"2005/02/09 17:00:00",22.09167,22.27,TRADE
SNOWY1,"2005/02/09 17:30:00",29.73167,21.45,TRADE
SNOWY1,"2005/02/09 18:00:00",27.97,20.27,TRADE
SNOWY1,"2005/02/09 18:30:00",14.20667,18.42,TRADE
SNOWY1,"2005/02/09 19:00:00",25.505,19.48,TRADE
SNOWY1,"2005/02/09 19:30:00",32.815,19.54,TRADE
SNOWY1,"2005/02/09 20:00:00",28.28167,19.05,TRADE
SNOWY1,"2005/02/09 20:30:00",23.71333,19.66,TRADE
SNOWY1,"2005/02/09 21:00:00",26.59667,19.41,TRADE
SNOWY1,"2005/02/09 21:30:00",18.71667,20.06,TRADE
SNOWY1,"2005/02/09 22:00:00",28.61,17.85,TRADE
SNOWY1,"2005/02/09 22:30:00",28.44333,20.69,TRADE
SNOWY1,"2005/02/09 23:00:00",21.78,19.51,TRADE
SNOWY1,"2005/02/09 23:30:00",25.02667,20.61,TRADE
SNOWY1,"2005/02/10 00:00:00",20.175,20.37,TRADE
SNOWY1,"2005/02/10 00:30:00",26.89,18.46,TRADE
SNOWY1,"2005/02/10 01:00:00",19.81667,17.19,TRADE
SNOWY1,"2005/02/10 01:30:00",29.355,19.17,TRADE
SNOWY1,"2005/02/10 02:00:00",22.03333,16.4,TRADE
SNOWY1,"2005/02/10 02:30:00",27.295,15.42,TRADE
SNOWY1,"2005/02/10 03:00:00",21.20667,12.63,TRADE
SNOWY1,"2005/02/10 03:30:00",20.85167,12.92,TRADE
SNOWY1,"2005/02/10 04:00:00",18.66833,12.69,TRADE
SNOWY1,"2005/02/10 04:30:00",20.84667,14.44,TRADE
SNOWY1,"2005/02/10 05:00:00",22.94667,15.68,TRADE
SNOWY1,"2005/02/10 05:30:00",23.72333,19.21,TRADE
SNOWY1,"2005/02/10 06:00:00",27.95167,21.25,TRADE
SNOWY1,"2005/02/10 06:30:00",38.79167,21.22,TRADE
SNOWY1,"2005/02/10 07:00:00",38.215,21.63,TRADE
SNOWY1,"2005/02/10 07:30:00",29.82833,20.14,TRADE
SNOWY1,"2005/02/10 08:00:00",23.92667,18.71,TRADE
SNOWY1,"2005/02/10 08:30:00",18.27167,16.84,TRADE
SNOWY1,"2005/02/10 09:00:00",32.29,17.03,TRADE
SNOWY1,"2005/02/10 09:30:00",29.98833,17.97,TRADE
SNOWY1,"2005/02/10 10:00:00",29.375,17.43,TRADE
SNOWY1,"2005/02/10 10:30:00",37.215,19.81,TRADE
SNOWY1,"2005/02/10 11:00:00",24.01,20.01,TRADE
SNOWY1,"2005/02/10 11:30:00",32.09833,20.05,TRADE
SNOWY1,"2005/02/10 12:00:00",24.525,20.08,TRADE
SNOWY1,"2005/02/10 12:30:00",26.56167,20.33,TRADE
SNOWY1,"2005/02/10 13:00:00",29.73833,20.33,TRADE
SNOWY1,"2005/02/10 13:30:00",28.16,20.25,TRADE
SNOWY1,"2005/02/10 14:00:00",27.505,20.17,TRADE
SNOWY1,"2005/02/10 14:30:00",25.835,19.85,TRADE
SNOWY1,"2005/02/10 15:00:00",26.71167,19.85,TRADE
SNOWY1,"2005/02/10 15:30:00",35.595,19.85,TRADE
SNOWY1,"2005/02/10 16:00:00",22.455,19.9,TRADE
SNOWY1,"2005/02/10 16:30:00",25.22333,19.3,TRADE
SNOWY1,"2005/02/10 17:00:00",21.34667,19.69,TRADE
SNOWY1,"2005/02/10 17:30:00",26.55833,19.36,TRADE
SNOWY1,"2005/02/10 18:00:00",28.42167,19.14,TRADE
SNOWY1,"2005/02/10 18:30:00",62.40167,17.09,TRADE
SNOWY1,"2005/02/10 19:00:00",53.09667,16.48,TRADE
SNOWY1,"2005/02/10 19:30:00",31.57667,19.08,TRADE
SNOWY1,"2005/02/10 20:00:00",20.875,19.1,TRADE
SNOWY1,"2005/02/10 20:30:00",28.39667,18.25,TRADE
SNOWY1,"2005/02/10 21:00:00",24.87667,17.7,TRADE
SNOWY1,"2005/02/10 21:30:00",18.19167,19.91,TRADE
SNOWY1,"2005/02/10 22:00:00",19.96833,17.43,TRADE
SNOWY1,"2005/02/10 22:30:00",12.545,19.11,TRADE
SNOWY1,"2005/02/10 23:00:00",15.59833,19.28,TRADE
SNOWY1,"2005/02/10 23:30:00",19.055,19.88,TRADE
SNOWY1,"2005/02/11 00:00:00",27.50167,19.74,TRADE
SNOWY1,"2005/02/11 00:30:00",14.69,19.79,TRADE
SNOWY1,"2005/02/11 01:00:00",18.36833,19.24,TRADE
SNOWY1,"2005/02/11 01:30:00",28.82667,18.44,TRADE
SNOWY1,"2005/02/11 02:00:00",27.28833,16.36,TRADE
SNOWY1,"2005/02/11 02:30:00",62.78,16.17,TRADE
SNOWY1,"2005/02/11 03:00:00",55.28167,14.78,TRADE
SNOWY1,"2005/02/11 03:30:00",61.73667,14.22,TRADE
SNOWY1,"2005/02/11 04:00:00",60.21,14.47,TRADE
SNOWY1,"2005/02/11 04:30:00",63.465,15.01,TRADE
SNOWY1,"2005/02/11 05:00:00",56.675,16.84,TRADE
SNOWY1,"2005/02/11 05:30:00",24.60667,19.95,TRADE
SNOWY1,"2005/02/11 06:00:00",29.91667,20.64,TRADE
SNOWY1,"2005/02/11 06:30:00",41.455,21.81,TRADE
SNOWY1,"2005/02/11 07:00:00",35.22167,21.7,TRADE
SNOWY1,"2005/02/11 07:30:00",23.08,20.42,TRADE
SNOWY1,"2005/02/11 08:00:00",29.57667,20.32,TRADE
SNOWY1,"2005/02/11 08:30:00",34.31167,18.71,TRADE
SNOWY1,"2005/02/11 09:00:00",36.35167,19.81,TRADE
SNOWY1,"2005/02/11 09:30:00",33.91333,20.09,TRADE
SNOWY1,"2005/02/11 10:00:00",36.48333,20.09,TRADE
SNOWY1,"2005/02/11 10:30:00",36.385,19.74,TRADE
SNOWY1,"2005/02/11 11:00:00",30.66167,19.97,TRADE
SNOWY1,"2005/02/11 11:30:00",37.91833,20.29,TRADE
SNOWY1,"2005/02/11 12:00:00",30.33833,20.21,TRADE
SNOWY1,"2005/02/11 12:30:00",28.925,20.07,TRADE
SNOWY1,"2005/02/11 13:00:00",30.38833,20.33,TRADE
SNOWY1,"2005/02/11 13:30:00",31.05333,19.58,TRADE
SNOWY1,"2005/02/11 14:00:00",43.74833,20.03,TRADE
SNOWY1,"2005/02/11 14:30:00",66.11833,19.97,TRADE
SNOWY1,"2005/02/11 15:00:00",66.31167,19.16,TRADE
SNOWY1,"2005/02/11 15:30:00",62.62333,19.76,TRADE
SNOWY1,"2005/02/11 16:00:00",38.98833,19.68,TRADE
SNOWY1,"2005/02/11 16:30:00",31.445,19.57,TRADE
SNOWY1,"2005/02/11 17:00:00",29.86333,19.62,TRADE
SNOWY1,"2005/02/11 17:30:00",36.835,17.19,TRADE
SNOWY1,"2005/02/11 18:00:00",32.00833,16.45,TRADE
SNOWY1,"2005/02/11 18:30:00",20.05833,16.41,TRADE
SNOWY1,"2005/02/11 19:00:00",53.44667,16.3,TRADE
SNOWY1,"2005/02/11 19:30:00",52.65,19.19,TRADE
SNOWY1,"2005/02/11 20:00:00",35.15,18.12,TRADE
SNOWY1,"2005/02/11 20:30:00",32.01167,18.01,TRADE
SNOWY1,"2005/02/11 21:00:00",23.43833,16.61,TRADE
SNOWY1,"2005/02/11 21:30:00",29.3,19.94,TRADE
SNOWY1,"2005/02/11 22:00:00",22.86667,18.1,TRADE
SNOWY1,"2005/02/11 22:30:00",16.42,19.78,TRADE
SNOWY1,"2005/02/11 23:00:00",23.875,19.52,TRADE
SNOWY1,"2005/02/11 23:30:00",40.50333,20.04,TRADE
SNOWY1,"2005/02/12 00:00:00",30.45167,19.67,TRADE
SNOWY1,"2005/02/12 00:30:00",27.56333,19.9,TRADE
SNOWY1,"2005/02/12 01:00:00",17.895,18.68,TRADE
SNOWY1,"2005/02/12 01:30:00",21.44833,19.82,TRADE
SNOWY1,"2005/02/12 02:00:00",38.44833,16.07,TRADE
SNOWY1,"2005/02/12 02:30:00",90.06167,15.83,TRADE
SNOWY1,"2005/02/12 03:00:00",80.73833,14.14,TRADE
SNOWY1,"2005/02/12 03:30:00",87.25833,12.03,TRADE
SNOWY1,"2005/02/12 04:00:00",90.48,11.91,TRADE
SNOWY1,"2005/02/12 04:30:00",80.09333,11.57,TRADE
SNOWY1,"2005/02/12 05:00:00",88.115,11.83,TRADE
SNOWY1,"2005/02/12 05:30:00",93.49167,15.54,TRADE
SNOWY1,"2005/02/12 06:00:00",87.50833,13.35,TRADE
SNOWY1,"2005/02/12 06:30:00",89.45167,14.16,TRADE
SNOWY1,"2005/02/12 07:00:00",86.75167,15.07,TRADE
SNOWY1,"2005/02/12 07:30:00",20.54167,14.99,TRADE
SNOWY1,"2005/02/12 08:00:00",22.31167,16.26,TRADE
SNOWY1,"2005/02/12 08:30:00",20.92833,17.29,TRADE
SNOWY1,"2005/02/12 09:00:00",29.68167,18.49,TRADE
SNOWY1,"2005/02/12 09:30:00",24.535,19.29,TRADE
SNOWY1,"2005/02/12 10:00:00",22.34667,19.51,TRADE
SNOWY1,"2005/02/12 10:30:00",23.72333,19.5,TRADE
SNOWY1,"2005/02/12 11:00:00",15.58667,19.5,TRADE
SNOWY1,"2005/02/12 11:30:00",26.14333,19.56,TRADE
SNOWY1,"2005/02/12 12:00:00",25.85,19.64,TRADE
SNOWY1,"2005/02/12 12:30:00",23.48667,19.45,TRADE
SNOWY1,"2005/02/12 13:00:00",28.89333,19.41,TRADE
SNOWY1,"2005/02/12 13:30:00",20.85833,19.32,TRADE
SNOWY1,"2005/02/12 14:00:00",22.62333,19.22,TRADE
SNOWY1,"2005/02/12 14:30:00",28.315,19.14,TRADE
SNOWY1,"2005/02/12 15:00:00",22.26667,19.14,TRADE
SNOWY1,"2005/02/12 15:30:00",23.28833,19.14,TRADE
SNOWY1,"2005/02/12 16:00:00",25.15833,19.25,TRADE
SNOWY1,"2005/02/12 16:30:00",23.02667,19.05,TRADE
SNOWY1,"2005/02/12 17:00:00",26.61667,19.17,TRADE
SNOWY1,"2005/02/12 17:30:00",26.09667,19.08,TRADE
SNOWY1,"2005/02/12 18:00:00",23.33167,18.65,TRADE
SNOWY1,"2005/02/12 18:30:00",26.52333,18.53,TRADE
SNOWY1,"2005/02/12 19:00:00",20.79167,18.74,TRADE
SNOWY1,"2005/02/12 19:30:00",20.11667,18.95,TRADE
SNOWY1,"2005/02/12 20:00:00",22.245,19.11,TRADE
SNOWY1,"2005/02/12 20:30:00",17.92667,18.66,TRADE
SNOWY1,"2005/02/12 21:00:00",16.54667,18,TRADE
SNOWY1,"2005/02/12 21:30:00",24.96833,18.46,TRADE
SNOWY1,"2005/02/12 22:00:00",22.55667,18.96,TRADE
SNOWY1,"2005/02/12 22:30:00",23.64667,19.21,TRADE
SNOWY1,"2005/02/12 23:00:00",22.45833,19.28,TRADE
SNOWY1,"2005/02/12 23:30:00",14.40667,19.59,TRADE
SNOWY1,"2005/02/13 00:00:00",15.24,19.99,TRADE
SNOWY1,"2005/02/13 00:30:00",21.41167,18.82,TRADE
SNOWY1,"2005/02/13 01:00:00",19.42333,16.52,TRADE
SNOWY1,"2005/02/13 01:30:00",29.20333,16.62,TRADE
SNOWY1,"2005/02/13 02:00:00",22.79833,15.58,TRADE
SNOWY1,"2005/02/13 02:30:00",32.16667,13.2,TRADE
SNOWY1,"2005/02/13 03:00:00",92.57833,11.83,TRADE
SNOWY1,"2005/02/13 03:30:00",84.96167,11.21,TRADE
SNOWY1,"2005/02/13 04:00:00",86.835,11.1,TRADE
SNOWY1,"2005/02/13 04:30:00",93.29,11.2,TRADE
SNOWY1,"2005/02/13 05:00:00",89.435,11.32,TRADE
SNOWY1,"2005/02/13 05:30:00",90.7,11.81,TRADE
SNOWY1,"2005/02/13 06:00:00",81.10167,11.49,TRADE
SNOWY1,"2005/02/13 06:30:00",91.62,11.63,TRADE
SNOWY1,"2005/02/13 07:00:00",94.185,11.67,TRADE
SNOWY1,"2005/02/13 07:30:00",92.15333,11.79,TRADE
SNOWY1,"2005/02/13 08:00:00",90.42333,12.77,TRADE
SNOWY1,"2005/02/13 08:30:00",60.21333,14.77,TRADE
SNOWY1,"2005/02/13 09:00:00",33.51167,15.18,TRADE
SNOWY1,"2005/02/13 09:30:00",15.66833,15.63,TRADE
SNOWY1,"2005/02/13 10:00:00",24.915,15.67,TRADE
SNOWY1,"2005/02/13 10:30:00",20.75667,15.8,TRADE
SNOWY1,"2005/02/13 11:00:00",23.72333,15.8,TRADE
SNOWY1,"2005/02/13 11:30:00",26.49333,15.83,TRADE
SNOWY1,"2005/02/13 12:00:00",22.64,15.86,TRADE
SNOWY1,"2005/02/13 12:30:00",19.68,15.86,TRADE
SNOWY1,"2005/02/13 13:00:00",24.70667,15.85,TRADE
SNOWY1,"2005/02/13 13:30:00",19.2,15.94,TRADE
SNOWY1,"2005/02/13 14:00:00",24.88667,15.87,TRADE
SNOWY1,"2005/02/13 14:30:00",26.12667,15.92,TRADE
SNOWY1,"2005/02/13 15:00:00",23.60667,15.87,TRADE
SNOWY1,"2005/02/13 15:30:00",22.91167,15.99,TRADE
SNOWY1,"2005/02/13 16:00:00",26.685,16.15,TRADE
SNOWY1,"2005/02/13 16:30:00",21.41,16.31,TRADE
SNOWY1,"2005/02/13 17:00:00",20.72833,16.65,TRADE
SNOWY1,"2005/02/13 17:30:00",27.695,16.82,TRADE
SNOWY1,"2005/02/13 18:00:00",19.29333,16.78,TRADE
SNOWY1,"2005/02/13 18:30:00",22.71833,16.23,TRADE
SNOWY1,"2005/02/13 19:00:00",20.41833,16.26,TRADE
SNOWY1,"2005/02/13 19:30:00",22.28,16.91,TRADE
SNOWY1,"2005/02/13 20:00:00",23.725,17.63,TRADE
SNOWY1,"2005/02/13 20:30:00",28.44667,16.87,TRADE
SNOWY1,"2005/02/13 21:00:00",24.20333,16.13,TRADE
SNOWY1,"2005/02/13 21:30:00",25.65,15.96,TRADE
SNOWY1,"2005/02/13 22:00:00",23.805,15.83,TRADE
SNOWY1,"2005/02/13 22:30:00",24.57,16.35,TRADE
SNOWY1,"2005/02/13 23:00:00",25.96333,16.1,TRADE
SNOWY1,"2005/02/13 23:30:00",17.14,16.48,TRADE
SNOWY1,"2005/02/14 00:00:00",25.47667,16.48,TRADE
SNOWY1,"2005/02/14 00:30:00",17.645,14.98,TRADE
SNOWY1,"2005/02/14 01:00:00",16.65667,15.22,TRADE
SNOWY1,"2005/02/14 01:30:00",21.17333,15.29,TRADE
SNOWY1,"2005/02/14 02:00:00",51.15333,13.53,TRADE
SNOWY1,"2005/02/14 02:30:00",61.69833,12.44,TRADE
SNOWY1,"2005/02/14 03:00:00",60.43667,12.3,TRADE
SNOWY1,"2005/02/14 03:30:00",54.78333,12.15,TRADE
SNOWY1,"2005/02/14 04:00:00",59.46333,12.12,TRADE
SNOWY1,"2005/02/14 04:30:00",58.56,12.24,TRADE
SNOWY1,"2005/02/14 05:00:00",39.77833,14.4,TRADE
SNOWY1,"2005/02/14 05:30:00",24.87333,16.98,TRADE
SNOWY1,"2005/02/14 06:00:00",22.75833,17.56,TRADE
SNOWY1,"2005/02/14 06:30:00",42.29833,18.71,TRADE
SNOWY1,"2005/02/14 07:00:00",22.19667,18.06,TRADE
SNOWY1,"2005/02/14 07:30:00",25.97167,16.56,TRADE
SNOWY1,"2005/02/14 08:00:00",36.69333,17.18,TRADE
SNOWY1,"2005/02/14 08:30:00",27.70667,17.11,TRADE
SNOWY1,"2005/02/14 09:00:00",37.58333,17.17,TRADE
SNOWY1,"2005/02/14 09:30:00",27.38167,17.59,TRADE
SNOWY1,"2005/02/14 10:00:00",26.11667,17.38,TRADE
SNOWY1,"2005/02/14 10:30:00",31.43667,18.56,TRADE
SNOWY1,"2005/02/14 11:00:00",27.665,19.67,TRADE
SNOWY1,"2005/02/14 11:30:00",22.205,19.7,TRADE
SNOWY1,"2005/02/14 12:00:00",33.18833,20.09,TRADE
SNOWY1,"2005/02/14 12:30:00",31.675,20.56,TRADE
SNOWY1,"2005/02/14 13:00:00",22.5,20.75,TRADE
SNOWY1,"2005/02/14 13:30:00",31.64833,20.88,TRADE
SNOWY1,"2005/02/14 14:00:00",32.78667,21.06,TRADE
SNOWY1,"2005/02/14 14:30:00",17.47833,20.97,TRADE
SNOWY1,"2005/02/14 15:00:00",29.10333,21.77,TRADE
SNOWY1,"2005/02/14 15:30:00",24.77333,23.83,TRADE
SNOWY1,"2005/02/14 16:00:00",25.72667,23.57,TRADE
SNOWY1,"2005/02/14 16:30:00",17.42333,24.36,TRADE
SNOWY1,"2005/02/14 17:00:00",31.98,21.14,TRADE
SNOWY1,"2005/02/14 17:30:00",27.16167,20.1,TRADE
SNOWY1,"2005/02/14 18:00:00",29.88667,19.77,TRADE
SNOWY1,"2005/02/14 18:30:00",26.40167,17.94,TRADE
SNOWY1,"2005/02/14 19:00:00",31.75,17.25,TRADE
SNOWY1,"2005/02/14 19:30:00",34.115,17.72,TRADE
SNOWY1,"2005/02/14 20:00:00",21.2,17.73,TRADE
SNOWY1,"2005/02/14 20:30:00",28.955,18.01,TRADE
SNOWY1,"2005/02/14 21:00:00",27.91,17.23,TRADE
SNOWY1,"2005/02/14 21:30:00",32.94833,19.3,TRADE
SNOWY1,"2005/02/14 22:00:00",21.97833,17.06,TRADE
SNOWY1,"2005/02/14 22:30:00",25.07167,18.6,TRADE
SNOWY1,"2005/02/14 23:00:00",25.94667,18.5,TRADE
SNOWY1,"2005/02/14 23:30:00",34.49667,20.49,TRADE
SNOWY1,"2005/02/15 00:00:00",13.36833,18.4,TRADE
SNOWY1,"2005/02/15 00:30:00",19.40333,17.79,TRADE
SNOWY1,"2005/02/15 01:00:00",33.18667,17.31,TRADE
SNOWY1,"2005/02/15 01:30:00",29.42667,16.99,TRADE
SNOWY1,"2005/02/15 02:00:00",39.32167,14.84,TRADE
SNOWY1,"2005/02/15 02:30:00",58.115,13.08,TRADE
SNOWY1,"2005/02/15 03:00:00",56.48,12.32,TRADE
SNOWY1,"2005/02/15 03:30:00",52.13833,12.28,TRADE
SNOWY1,"2005/02/15 04:00:00",53.1,12.23,TRADE
SNOWY1,"2005/02/15 04:30:00",60.60667,14.11,TRADE
SNOWY1,"2005/02/15 05:00:00",33.47333,15.54,TRADE
SNOWY1,"2005/02/15 05:30:00",13.90667,17.49,TRADE
SNOWY1,"2005/02/15 06:00:00",31.555,19.49,TRADE
SNOWY1,"2005/02/15 06:30:00",38.27,20.42,TRADE
SNOWY1,"2005/02/15 07:00:00",37.36333,21,TRADE
SNOWY1,"2005/02/15 07:30:00",24.935,18.77,TRADE
SNOWY1,"2005/02/15 08:00:00",28.28833,18.39,TRADE
SNOWY1,"2005/02/15 08:30:00",27.265,18.25,TRADE
SNOWY1,"2005/02/15 09:00:00",33.33833,19.2,TRADE
SNOWY1,"2005/02/15 09:30:00",32.97333,19.48,TRADE
SNOWY1,"2005/02/15 10:00:00",26.38,19.48,TRADE
SNOWY1,"2005/02/15 10:30:00",33.51167,19.76,TRADE
SNOWY1,"2005/02/15 11:00:00",34.53333,20.09,TRADE
SNOWY1,"2005/02/15 11:30:00",24.97167,20.31,TRADE
SNOWY1,"2005/02/15 12:00:00",33.68167,20.42,TRADE
SNOWY1,"2005/02/15 12:30:00",35.3,21.27,TRADE
SNOWY1,"2005/02/15 13:00:00",30.89833,22.88,TRADE
SNOWY1,"2005/02/15 13:30:00",30.03833,23.78,TRADE
SNOWY1,"2005/02/15 14:00:00",39.97,26.5,TRADE
SNOWY1,"2005/02/15 14:30:00",37.49833,29.23,TRADE
SNOWY1,"2005/02/15 15:00:00",31.19,31.4,TRADE
SNOWY1,"2005/02/15 15:30:00",30.08667,31.77,TRADE
SNOWY1,"2005/02/15 16:00:00",37.41333,32.61,TRADE
SNOWY1,"2005/02/15 16:30:00",41.69667,31.9,TRADE
SNOWY1,"2005/02/15 17:00:00",32.87333,26.45,TRADE
SNOWY1,"2005/02/15 17:30:00",36.07833,25.16,TRADE
SNOWY1,"2005/02/15 18:00:00",25.93,20.49,TRADE
SNOWY1,"2005/02/15 18:30:00",18.55333,19.3,TRADE
SNOWY1,"2005/02/15 19:00:00",31.35667,19.08,TRADE
SNOWY1,"2005/02/15 19:30:00",29.29333,19.21,TRADE
SNOWY1,"2005/02/15 20:00:00",24.255,18.57,TRADE
SNOWY1,"2005/02/15 20:30:00",31.51667,18.38,TRADE
SNOWY1,"2005/02/15 21:00:00",21.95667,16.85,TRADE
SNOWY1,"2005/02/15 21:30:00",30.39,18.75,TRADE
SNOWY1,"2005/02/15 22:00:00",26.35667,16.78,TRADE
SNOWY1,"2005/02/15 22:30:00",23.11833,17.42,TRADE
SNOWY1,"2005/02/15 23:00:00",21.11667,18.75,TRADE
SNOWY1,"2005/02/15 23:30:00",27.39167,19.53,TRADE
SNOWY1,"2005/02/16 00:00:00",26.72,18.93,TRADE
SNOWY1,"2005/02/16 00:30:00",19.70833,17.92,TRADE
SNOWY1,"2005/02/16 01:00:00",24.35667,17.13,TRADE
SNOWY1,"2005/02/16 01:30:00",22.82833,16.39,TRADE
SNOWY1,"2005/02/16 02:00:00",58.77167,14.39,TRADE
SNOWY1,"2005/02/16 02:30:00",54.31,13.26,TRADE
SNOWY1,"2005/02/16 03:00:00",56.38833,12.44,TRADE
SNOWY1,"2005/02/16 03:30:00",58.84333,12.22,TRADE
SNOWY1,"2005/02/16 04:00:00",59.15833,12.37,TRADE
SNOWY1,"2005/02/16 04:30:00",52.755,13.49,TRADE
SNOWY1,"2005/02/16 05:00:00",46.365,15.12,TRADE
SNOWY1,"2005/02/16 05:30:00",23.605,17.69,TRADE
SNOWY1,"2005/02/16 06:00:00",27.22667,18.62,TRADE
SNOWY1,"2005/02/16 06:30:00",27.45333,19.05,TRADE
SNOWY1,"2005/02/16 07:00:00",41.48833,19.99,TRADE
SNOWY1,"2005/02/16 07:30:00",19.95333,17.49,TRADE
SNOWY1,"2005/02/16 08:00:00",31.19333,17.08,TRADE
SNOWY1,"2005/02/16 08:30:00",26.74,17.21,TRADE
SNOWY1,"2005/02/16 09:00:00",33.19,17.29,TRADE
SNOWY1,"2005/02/16 09:30:00",24.56333,19.07,TRADE
SNOWY1,"2005/02/16 10:00:00",19.81,19.7,TRADE
SNOWY1,"2005/02/16 10:30:00",19.53,19.52,TRADE
SNOWY1,"2005/02/16 11:00:00",16.48333,19.7,TRADE
SNOWY1,"2005/02/16 11:30:00",23.615,19.28,TRADE
SNOWY1,"2005/02/16 12:00:00",21.36333,19.27,TRADE
SNOWY1,"2005/02/16 12:30:00",24.63833,19.7,TRADE
SNOWY1,"2005/02/16 13:00:00",31.645,19.7,TRADE
SNOWY1,"2005/02/16 13:30:00",9.37167,19.7,TRADE
SNOWY1,"2005/02/16 14:00:00",22.60667,19.7,TRADE
SNOWY1,"2005/02/16 14:30:00",19.075,19.62,TRADE
SNOWY1,"2005/02/16 15:00:00",24.51,18.53,TRADE
SNOWY1,"2005/02/16 15:30:00",30.525,18.8,TRADE
SNOWY1,"2005/02/16 16:00:00",17.205,19.3,TRADE
SNOWY1,"2005/02/16 16:30:00",33.49833,19.38,TRADE
SNOWY1,"2005/02/16 17:00:00",30.21667,19.04,TRADE
SNOWY1,"2005/02/16 17:30:00",36.49167,17.36,TRADE
SNOWY1,"2005/02/16 18:00:00",26.48167,16.94,TRADE
SNOWY1,"2005/02/16 18:30:00",21.60833,16.47,TRADE
SNOWY1,"2005/02/16 19:00:00",18.25,16.66,TRADE
SNOWY1,"2005/02/16 19:30:00",17.025,17.07,TRADE
SNOWY1,"2005/02/16 20:00:00",22.78,16.91,TRADE
SNOWY1,"2005/02/16 20:30:00",17.00167,17.02,TRADE
SNOWY1,"2005/02/16 21:00:00",21.085,16.67,TRADE
SNOWY1,"2005/02/16 21:30:00",22.59667,18.96,TRADE
SNOWY1,"2005/02/16 22:00:00",24.30333,16,TRADE
SNOWY1,"2005/02/16 22:30:00",26.91167,17.3,TRADE
SNOWY1,"2005/02/16 23:00:00",25.13,17.32,TRADE
SNOWY1,"2005/02/16 23:30:00",17.23667,18.46,TRADE
SNOWY1,"2005/02/17 00:00:00",21.135,17.43,TRADE
SNOWY1,"2005/02/17 00:30:00",21.01167,16.69,TRADE
SNOWY1,"2005/02/17 01:00:00",25.95,16.39,TRADE
SNOWY1,"2005/02/17 01:30:00",16.97333,17.77,TRADE
SNOWY1,"2005/02/17 02:00:00",23.11833,15.12,TRADE
SNOWY1,"2005/02/17 02:30:00",52.54667,13.89,TRADE
SNOWY1,"2005/02/17 03:00:00",48.31833,12.75,TRADE
SNOWY1,"2005/02/17 03:30:00",51.84333,12.55,TRADE
SNOWY1,"2005/02/17 04:00:00",52.74833,13.09,TRADE
SNOWY1,"2005/02/17 04:30:00",60.5,14.82,TRADE
SNOWY1,"2005/02/17 05:00:00",56.51333,16.26,TRADE
SNOWY1,"2005/02/17 05:30:00",23.835,18.87,TRADE
SNOWY1,"2005/02/17 06:00:00",17.655,18.72,TRADE
SNOWY1,"2005/02/17 06:30:00",36.32333,19.53,TRADE
SNOWY1,"2005/02/17 07:00:00",32.475,20.07,TRADE
SNOWY1,"2005/02/17 07:30:00",30.345,17.58,TRADE
SNOWY1,"2005/02/17 08:00:00",23.62333,17.03,TRADE
SNOWY1,"2005/02/17 08:30:00",26.07,17.4,TRADE
SNOWY1,"2005/02/17 09:00:00",18.6,18.08,TRADE
SNOWY1,"2005/02/17 09:30:00",30.335,18.67,TRADE
SNOWY1,"2005/02/17 10:00:00",18.00833,18.93,TRADE
SNOWY1,"2005/02/17 10:30:00",27.68667,18.26,TRADE
SNOWY1,"2005/02/17 11:00:00",32.87667,18.23,TRADE
SNOWY1,"2005/02/17 11:30:00",32.36333,18.45,TRADE
SNOWY1,"2005/02/17 12:00:00",21.14333,18.56,TRADE
SNOWY1,"2005/02/17 12:30:00",30.92833,18.82,TRADE
SNOWY1,"2005/02/17 13:00:00",21.005,19.04,TRADE
SNOWY1,"2005/02/17 13:30:00",33.57333,19.49,TRADE
SNOWY1,"2005/02/17 14:00:00",32.18167,19.38,TRADE
SNOWY1,"2005/02/17 14:30:00",32.45167,19.05,TRADE
SNOWY1,"2005/02/17 15:00:00",26.555,18.76,TRADE
SNOWY1,"2005/02/17 15:30:00",35.23333,19.33,TRADE
SNOWY1,"2005/02/17 16:00:00",37.67667,19.51,TRADE
SNOWY1,"2005/02/17 16:30:00",30.24667,19.9,TRADE
SNOWY1,"2005/02/17 17:00:00",39.4,20.79,TRADE
SNOWY1,"2005/02/17 17:30:00",27.07333,19.78,TRADE
SNOWY1,"2005/02/17 18:00:00",33.69833,19.34,TRADE
SNOWY1,"2005/02/17 18:30:00",22.52833,17.7,TRADE
SNOWY1,"2005/02/17 19:00:00",23.64333,17.53,TRADE
SNOWY1,"2005/02/17 19:30:00",25.98833,19.6,TRADE
SNOWY1,"2005/02/17 20:00:00",35.85167,19.6,TRADE
SNOWY1,"2005/02/17 20:30:00",30.305,19.2,TRADE
SNOWY1,"2005/02/17 21:00:00",29.51333,17.17,TRADE
SNOWY1,"2005/02/17 21:30:00",37.82667,19.92,TRADE
SNOWY1,"2005/02/17 22:00:00",29.30667,17.73,TRADE
SNOWY1,"2005/02/17 22:30:00",28.29333,20.61,TRADE
SNOWY1,"2005/02/17 23:00:00",30.46167,20.4,TRADE
SNOWY1,"2005/02/17 23:30:00",25.555,24.6,TRADE
SNOWY1,"2005/02/18 00:00:00",26.95167,22.46,TRADE
SNOWY1,"2005/02/18 00:30:00",31.19667,21.28,TRADE
SNOWY1,"2005/02/18 01:00:00",20.58,19.16,TRADE
SNOWY1,"2005/02/18 01:30:00",19.79833,18.61,TRADE
SNOWY1,"2005/02/18 02:00:00",16.65,16.14,TRADE
SNOWY1,"2005/02/18 02:30:00",30.92333,14.97,TRADE
SNOWY1,"2005/02/18 03:00:00",61.53667,14.03,TRADE
SNOWY1,"2005/02/18 03:30:00",63.23333,12.95,TRADE
SNOWY1,"2005/02/18 04:00:00",58.18833,13.43,TRADE
SNOWY1,"2005/02/18 04:30:00",59.36,15.14,TRADE
SNOWY1,"2005/02/18 05:00:00",57.43333,16.74,TRADE
SNOWY1,"2005/02/18 05:30:00",30.05333,19.27,TRADE
SNOWY1,"2005/02/18 06:00:00",27.02167,21.63,TRADE
SNOWY1,"2005/02/18 06:30:00",29.635,23.11,TRADE
SNOWY1,"2005/02/18 07:00:00",37.45667,25.23,TRADE
SNOWY1,"2005/02/18 07:30:00",36.89,20.47,TRADE
SNOWY1,"2005/02/18 08:00:00",26.75833,20.64,TRADE
SNOWY1,"2005/02/18 08:30:00",28.4,19.97,TRADE
SNOWY1,"2005/02/18 09:00:00",38.235,20.93,TRADE
SNOWY1,"2005/02/18 09:30:00",24.86,24.42,TRADE
SNOWY1,"2005/02/18 10:00:00",34.54167,24.98,TRADE
SNOWY1,"2005/02/18 10:30:00",26.17,23.38,TRADE
SNOWY1,"2005/02/18 11:00:00",28.235,25.17,TRADE
SNOWY1,"2005/02/18 11:30:00",30.49833,24.43,TRADE
SNOWY1,"2005/02/18 12:00:00",24.67,23.73,TRADE
SNOWY1,"2005/02/18 12:30:00",16.26167,24.73,TRADE
SNOWY1,"2005/02/18 13:00:00",30.685,25.67,TRADE
SNOWY1,"2005/02/18 13:30:00",34.65333,26.28,TRADE
SNOWY1,"2005/02/18 14:00:00",29.46,26.5,TRADE
SNOWY1,"2005/02/18 14:30:00",28.13333,26.42,TRADE
SNOWY1,"2005/02/18 15:00:00",17.37167,25.4,TRADE
SNOWY1,"2005/02/18 15:30:00",30.04333,24.57,TRADE
SNOWY1,"2005/02/18 16:00:00",21.25167,24.6,TRADE
SNOWY1,"2005/02/18 16:30:00",29.35833,25.04,TRADE
SNOWY1,"2005/02/18 17:00:00",27.80333,23.12,TRADE
SNOWY1,"2005/02/18 17:30:00",15.21333,20.09,TRADE
SNOWY1,"2005/02/18 18:00:00",16.97167,19.4,TRADE
SNOWY1,"2005/02/18 18:30:00",34.745,17.25,TRADE
SNOWY1,"2005/02/18 19:00:00",27.29167,17.94,TRADE
SNOWY1,"2005/02/18 19:30:00",26.075,19.06,TRADE
SNOWY1,"2005/02/18 20:00:00",28.43333,18.83,TRADE
SNOWY1,"2005/02/18 20:30:00",31.46833,18.77,TRADE
SNOWY1,"2005/02/18 21:00:00",24.695,16.98,TRADE
SNOWY1,"2005/02/18 21:30:00",26.41,19.93,TRADE
SNOWY1,"2005/02/18 22:00:00",22.77333,18.12,TRADE
SNOWY1,"2005/02/18 22:30:00",14.525,19.56,TRADE
SNOWY1,"2005/02/18 23:00:00",20.71167,19.62,TRADE
SNOWY1,"2005/02/18 23:30:00",24.55167,25.42,TRADE
SNOWY1,"2005/02/19 00:00:00",34.87833,24.5,TRADE
SNOWY1,"2005/02/19 00:30:00",26.43,22.96,TRADE
SNOWY1,"2005/02/19 01:00:00",18.38833,21.27,TRADE
SNOWY1,"2005/02/19 01:30:00",23.04,22.53,TRADE
SNOWY1,"2005/02/19 02:00:00",16.85333,19.53,TRADE
SNOWY1,"2005/02/19 02:30:00",28.85333,18.37,TRADE
SNOWY1,"2005/02/19 03:00:00",57.645,17.01,TRADE
SNOWY1,"2005/02/19 03:30:00",61.91,16.35,TRADE
SNOWY1,"2005/02/19 04:00:00",62.39167,15.54,TRADE
SNOWY1,"2005/02/19 04:30:00",57.265,15.57,TRADE
SNOWY1,"2005/02/19 05:00:00",58.05167,16.03,TRADE
SNOWY1,"2005/02/19 05:30:00",25.03833,17.19,TRADE
SNOWY1,"2005/02/19 06:00:00",21.585,17.62,TRADE
SNOWY1,"2005/02/19 06:30:00",31.785,17.37,TRADE
SNOWY1,"2005/02/19 07:00:00",24.35167,18.76,TRADE
SNOWY1,"2005/02/19 07:30:00",28.365,18.62,TRADE
SNOWY1,"2005/02/19 08:00:00",19.95833,19.64,TRADE
SNOWY1,"2005/02/19 08:30:00",28.49,20.79,TRADE
SNOWY1,"2005/02/19 09:00:00",24.68833,21.66,TRADE
SNOWY1,"2005/02/19 09:30:00",18.97333,24.12,TRADE
SNOWY1,"2005/02/19 10:00:00",21.72333,25.48,TRADE
SNOWY1,"2005/02/19 10:30:00",27.54833,26.52,TRADE
SNOWY1,"2005/02/19 11:00:00",28.63167,30.16,TRADE
SNOWY1,"2005/02/19 11:30:00",27.945,34.85,TRADE
SNOWY1,"2005/02/19 12:00:00",49.00667,35,TRADE
SNOWY1,"2005/02/19 12:30:00",25.075,35,TRADE
SNOWY1,"2005/02/19 13:00:00",21.42167,34.82,TRADE
SNOWY1,"2005/02/19 13:30:00",28.54833,33.46,TRADE
SNOWY1,"2005/02/19 14:00:00",24.30833,36.15,TRADE
SNOWY1,"2005/02/19 14:30:00",27.93167,26.58,TRADE
SNOWY1,"2005/02/19 15:00:00",25.675,25.45,TRADE
SNOWY1,"2005/02/19 15:30:00",24.89,23.51,TRADE
SNOWY1,"2005/02/19 16:00:00",25.685,20.89,TRADE
SNOWY1,"2005/02/19 16:30:00",30.90333,19.6,TRADE
SNOWY1,"2005/02/19 17:00:00",30.23167,20.06,TRADE
SNOWY1,"2005/02/19 17:30:00",22.20833,19.57,TRADE
SNOWY1,"2005/02/19 18:00:00",24.77167,19.5,TRADE
SNOWY1,"2005/02/19 18:30:00",24.08333,18.48,TRADE
SNOWY1,"2005/02/19 19:00:00",19.54833,18.05,TRADE
SNOWY1,"2005/02/19 19:30:00",21.78333,18.61,TRADE
SNOWY1,"2005/02/19 20:00:00",18.595,18.81,TRADE
SNOWY1,"2005/02/19 20:30:00",19.965,18.06,TRADE
SNOWY1,"2005/02/19 21:00:00",24.75667,17.14,TRADE
SNOWY1,"2005/02/19 21:30:00",29.63333,17.84,TRADE
SNOWY1,"2005/02/19 22:00:00",22.25167,17.52,TRADE
SNOWY1,"2005/02/19 22:30:00",19.305,19.19,TRADE
SNOWY1,"2005/02/19 23:00:00",14.61833,19.69,TRADE
SNOWY1,"2005/02/19 23:30:00",22.12667,20.43,TRADE
SNOWY1,"2005/02/20 00:00:00",26.78833,19.62,TRADE
SNOWY1,"2005/02/20 00:30:00",23.22333,17.49,TRADE
SNOWY1,"2005/02/20 01:00:00",24.22,17.06,TRADE
SNOWY1,"2005/02/20 01:30:00",20.45,18.09,TRADE
SNOWY1,"2005/02/20 02:00:00",24.295,16.29,TRADE
SNOWY1,"2005/02/20 02:30:00",59.06333,15.37,TRADE
SNOWY1,"2005/02/20 03:00:00",90.03667,15.02,TRADE
SNOWY1,"2005/02/20 03:30:00",95.04,14.21,TRADE
SNOWY1,"2005/02/20 04:00:00",86,12.46,TRADE
SNOWY1,"2005/02/20 04:30:00",83.755,13.84,TRADE
SNOWY1,"2005/02/20 05:00:00",84.92167,14.99,TRADE
SNOWY1,"2005/02/20 05:30:00",90.09833,15.08,TRADE
SNOWY1,"2005/02/20 06:00:00",92.64833,15.15,TRADE
SNOWY1,"2005/02/20 06:30:00",102.57167,14.6,TRADE
SNOWY1,"2005/02/20 07:00:00",91.66167,14.64,TRADE
SNOWY1,"2005/02/20 07:30:00",99.63667,14.51,TRADE
SNOWY1,"2005/02/20 08:00:00",96.65833,15.56,TRADE
SNOWY1,"2005/02/20 08:30:00",92.975,16.08,TRADE
SNOWY1,"2005/02/20 09:00:00",93.235,17.17,TRADE
SNOWY1,"2005/02/20 09:30:00",29.27167,18.31,TRADE
SNOWY1,"2005/02/20 10:00:00",32.10833,18.25,TRADE
SNOWY1,"2005/02/20 10:30:00",27.76,18.7,TRADE
SNOWY1,"2005/02/20 11:00:00",31.54167,18.67,TRADE
SNOWY1,"2005/02/20 11:30:00",29.20833,18.61,TRADE
SNOWY1,"2005/02/20 12:00:00",24.96167,19.17,TRADE
SNOWY1,"2005/02/20 12:30:00",29.16333,18.68,TRADE
SNOWY1,"2005/02/20 13:00:00",30.62833,18.54,TRADE
SNOWY1,"2005/02/20 13:30:00",23.665,19.04,TRADE
SNOWY1,"2005/02/20 14:00:00",21.18,18.77,TRADE
SNOWY1,"2005/02/20 14:30:00",33.40667,18.79,TRADE
SNOWY1,"2005/02/20 15:00:00",24.27,18.83,TRADE
SNOWY1,"2005/02/20 15:30:00",28.40333,19.6,TRADE
SNOWY1,"2005/02/20 16:00:00",24.41667,19.5,TRADE
SNOWY1,"2005/02/20 16:30:00",33.185,19.55,TRADE
SNOWY1,"2005/02/20 17:00:00",35.63833,19.58,TRADE
SNOWY1,"2005/02/20 17:30:00",26.30833,19.58,TRADE
SNOWY1,"2005/02/20 18:00:00",26.915,19.58,TRADE
SNOWY1,"2005/02/20 18:30:00",30.86667,19.58,TRADE
SNOWY1,"2005/02/20 19:00:00",29.36833,19.94,TRADE
SNOWY1,"2005/02/20 19:30:00",25.94833,22.27,TRADE
SNOWY1,"2005/02/20 20:00:00",34.15833,21.13,TRADE
SNOWY1,"2005/02/20 20:30:00",30.99333,18.95,TRADE
SNOWY1,"2005/02/20 21:00:00",32.20667,17.92,TRADE
SNOWY1,"2005/02/20 21:30:00",30.5,18.19,TRADE
SNOWY1,"2005/02/20 22:00:00",22.64667,16.97,TRADE
SNOWY1,"2005/02/20 22:30:00",37.15833,18.21,TRADE
SNOWY1,"2005/02/20 23:00:00",21.47,18.27,TRADE
SNOWY1,"2005/02/20 23:30:00",23.88333,20.11,TRADE
SNOWY1,"2005/02/21 00:00:00",24.21167,19.76,TRADE
SNOWY1,"2005/02/21 00:30:00",26.27833,17.54,TRADE
SNOWY1,"2005/02/21 01:00:00",56.955,16.42,TRADE
SNOWY1,"2005/02/21 01:30:00",84.29333,17.42,TRADE
SNOWY1,"2005/02/21 02:00:00",94.25167,15.57,TRADE
SNOWY1,"2005/02/21 02:30:00",95.90833,14.79,TRADE
SNOWY1,"2005/02/21 03:00:00",93.46,15.35,TRADE
SNOWY1,"2005/02/21 03:30:00",90.79667,15.17,TRADE
SNOWY1,"2005/02/21 04:00:00",96.61167,15.4,TRADE
SNOWY1,"2005/02/21 04:30:00",90.825,15.91,TRADE
SNOWY1,"2005/02/21 05:00:00",73.61,16.84,TRADE
SNOWY1,"2005/02/21 05:30:00",34.94333,19.86,TRADE
SNOWY1,"2005/02/21 06:00:00",32.085,22.34,TRADE
SNOWY1,"2005/02/21 06:30:00",30.085,23.26,TRADE
SNOWY1,"2005/02/21 07:00:00",36.29333,26.13,TRADE
SNOWY1,"2005/02/21 07:30:00",30.765,20.84,TRADE
SNOWY1,"2005/02/21 08:00:00",28.44667,20.85,TRADE
SNOWY1,"2005/02/21 08:30:00",31.79833,20.66,TRADE
SNOWY1,"2005/02/21 09:00:00",28.13667,22.53,TRADE
SNOWY1,"2005/02/21 09:30:00",34.54833,24.21,TRADE
SNOWY1,"2005/02/21 10:00:00",28.54833,24.03,TRADE
SNOWY1,"2005/02/21 10:30:00",39.13,25.12,TRADE
SNOWY1,"2005/02/21 11:00:00",31.175,26.5,TRADE
SNOWY1,"2005/02/21 11:30:00",35.73833,27.08,TRADE
SNOWY1,"2005/02/21 12:00:00",15.81333,27.4,TRADE
SNOWY1,"2005/02/21 12:30:00",29.83667,29.64,TRADE
SNOWY1,"2005/02/21 13:00:00",30.31333,34.51,TRADE
SNOWY1,"2005/02/21 13:30:00",42.27,31.54,TRADE
SNOWY1,"2005/02/21 14:00:00",26.41833,32.86,TRADE
SNOWY1,"2005/02/21 14:30:00",43.65333,37.84,TRADE
SNOWY1,"2005/02/21 15:00:00",31.35333,42.2,TRADE
SNOWY1,"2005/02/21 15:30:00",18.47333,42.1,TRADE
SNOWY1,"2005/02/21 16:00:00",25.33833,42.1,TRADE
SNOWY1,"2005/02/21 16:30:00",36.58,42.08,TRADE
SNOWY1,"2005/02/21 17:00:00",16.76833,37.35,TRADE
SNOWY1,"2005/02/21 17:30:00",31.25,34.12,TRADE
SNOWY1,"2005/02/21 18:00:00",26.77333,27.48,TRADE
SNOWY1,"2005/02/21 18:30:00",33.97167,23.92,TRADE
SNOWY1,"2005/02/21 19:00:00",18.04,22.46,TRADE
SNOWY1,"2005/02/21 19:30:00",40.52333,26.27,TRADE
SNOWY1,"2005/02/21 20:00:00",34.06333,24.16,TRADE
SNOWY1,"2005/02/21 20:30:00",24.375,24.54,TRADE
SNOWY1,"2005/02/21 21:00:00",36.01667,21.12,TRADE
SNOWY1,"2005/02/21 21:30:00",36.36833,23.22,TRADE
SNOWY1,"2005/02/21 22:00:00",28.24,19.17,TRADE
SNOWY1,"2005/02/21 22:30:00",28.39167,21.22,TRADE
SNOWY1,"2005/02/21 23:00:00",18.48167,23.91,TRADE
SNOWY1,"2005/02/21 23:30:00",29.47167,26.17,TRADE
SNOWY1,"2005/02/22 00:00:00",25.37833,23.26,TRADE
SNOWY1,"2005/02/22 00:30:00",36.62167,21.72,TRADE
SNOWY1,"2005/02/22 01:00:00",27.52667,19.61,TRADE
SNOWY1,"2005/02/22 01:30:00",36.535,19.54,TRADE
SNOWY1,"2005/02/22 02:00:00",26.20333,17.76,TRADE
SNOWY1,"2005/02/22 02:30:00",61.22,15.02,TRADE
SNOWY1,"2005/02/22 03:00:00",64.14667,14.64,TRADE
SNOWY1,"2005/02/22 03:30:00",65.62333,14.93,TRADE
SNOWY1,"2005/02/22 04:00:00",52.58667,15.03,TRADE
SNOWY1,"2005/02/22 04:30:00",52.46167,15.23,TRADE
SNOWY1,"2005/02/22 05:00:00",50.23333,16.75,TRADE
SNOWY1,"2005/02/22 05:30:00",32.00833,21.78,TRADE
SNOWY1,"2005/02/22 06:00:00",35.905,26.12,TRADE
SNOWY1,"2005/02/22 06:30:00",39.38667,26.16,TRADE
SNOWY1,"2005/02/22 07:00:00",43.46833,29.61,TRADE
SNOWY1,"2005/02/22 07:30:00",40.09667,22.74,TRADE
SNOWY1,"2005/02/22 08:00:00",19.09167,24.23,TRADE
SNOWY1,"2005/02/22 08:30:00",31.84167,24.63,TRADE
SNOWY1,"2005/02/22 09:00:00",31.86833,26.5,TRADE
SNOWY1,"2005/02/22 09:30:00",39.125,28.37,TRADE
SNOWY1,"2005/02/22 10:00:00",25.85,28.35,TRADE
SNOWY1,"2005/02/22 10:30:00",26.54167,28.22,TRADE
SNOWY1,"2005/02/22 11:00:00",29.215,33.82,TRADE
SNOWY1,"2005/02/22 11:30:00",28.135,34.72,TRADE
SNOWY1,"2005/02/22 12:00:00",26.285,32.95,TRADE
SNOWY1,"2005/02/22 12:30:00",32.00333,34.3,TRADE
SNOWY1,"2005/02/22 13:00:00",42.09833,35.52,TRADE
SNOWY1,"2005/02/22 13:30:00",25.42333,35.27,TRADE
SNOWY1,"2005/02/22 14:00:00",34.72333,35.08,TRADE
SNOWY1,"2005/02/22 14:30:00",27.02667,35.02,TRADE
SNOWY1,"2005/02/22 15:00:00",29.80667,35.08,TRADE
SNOWY1,"2005/02/22 15:30:00",43.97333,36.23,TRADE
SNOWY1,"2005/02/22 16:00:00",26.32667,35.1,TRADE
SNOWY1,"2005/02/22 16:30:00",22.99333,36.18,TRADE
SNOWY1,"2005/02/22 17:00:00",14.705,31.04,TRADE
SNOWY1,"2005/02/22 17:30:00",21.18167,25.99,TRADE
SNOWY1,"2005/02/22 18:00:00",25.74,23.87,TRADE
SNOWY1,"2005/02/22 18:30:00",22.8,22.42,TRADE
SNOWY1,"2005/02/22 19:00:00",24.40167,21.44,TRADE
SNOWY1,"2005/02/22 19:30:00",25.87333,23.08,TRADE
SNOWY1,"2005/02/22 20:00:00",36.27833,21.29,TRADE
SNOWY1,"2005/02/22 20:30:00",21.63833,21.63,TRADE
SNOWY1,"2005/02/22 21:00:00",20.13,18.02,TRADE
SNOWY1,"2005/02/22 21:30:00",32.995,20.73,TRADE
SNOWY1,"2005/02/22 22:00:00",30.49167,18.28,TRADE
SNOWY1,"2005/02/22 22:30:00",30.81667,20.97,TRADE
SNOWY1,"2005/02/22 23:00:00",26.26333,20,TRADE
SNOWY1,"2005/02/22 23:30:00",25.43167,22.97,TRADE
SNOWY1,"2005/02/23 00:00:00",29.825,21.33,TRADE
SNOWY1,"2005/02/23 00:30:00",21.35833,19.73,TRADE
SNOWY1,"2005/02/23 01:00:00",15.68833,18.78,TRADE
SNOWY1,"2005/02/23 01:30:00",30.245,18.28,TRADE
SNOWY1,"2005/02/23 02:00:00",48.66167,16.4,TRADE
SNOWY1,"2005/02/23 02:30:00",61.06333,14.05,TRADE
SNOWY1,"2005/02/23 03:00:00",55.58667,12.93,TRADE
SNOWY1,"2005/02/23 03:30:00",59.32833,12.46,TRADE
SNOWY1,"2005/02/23 04:00:00",64.92333,12.82,TRADE
SNOWY1,"2005/02/23 04:30:00",62.135,13.45,TRADE
SNOWY1,"2005/02/23 05:00:00",48.8,16.78,TRADE
SNOWY1,"2005/02/23 05:30:00",26.34833,20.19,TRADE
SNOWY1,"2005/02/23 06:00:00",25.75333,23.42,TRADE
SNOWY1,"2005/02/23 06:30:00",26.47,24.72,TRADE
SNOWY1,"2005/02/23 07:00:00",32.12667,26.37,TRADE
SNOWY1,"2005/02/23 07:30:00",30.68167,23.09,TRADE
SNOWY1,"2005/02/23 08:00:00",20.31667,21.88,TRADE
SNOWY1,"2005/02/23 08:30:00",31.67833,22.89,TRADE
SNOWY1,"2005/02/23 09:00:00",22.58333,24.08,TRADE
SNOWY1,"2005/02/23 09:30:00",18.58833,25.68,TRADE
SNOWY1,"2005/02/23 10:00:00",38.685,26.5,TRADE
SNOWY1,"2005/02/23 10:30:00",42.86833,26.91,TRADE
SNOWY1,"2005/02/23 11:00:00",34.42333,28.18,TRADE
SNOWY1,"2005/02/23 11:30:00",25.335,26.97,TRADE
SNOWY1,"2005/02/23 12:00:00",35.90667,30.01,TRADE
SNOWY1,"2005/02/23 12:30:00",32.17167,33.36,TRADE
SNOWY1,"2005/02/23 13:00:00",23.46,35,TRADE
SNOWY1,"2005/02/23 13:30:00",44.385,35.99,TRADE
SNOWY1,"2005/02/23 14:00:00",67.53167,39.7,TRADE
SNOWY1,"2005/02/23 14:30:00",47.44667,35.96,TRADE
SNOWY1,"2005/02/23 15:00:00",56.88,38.82,TRADE
SNOWY1,"2005/02/23 15:30:00",66.23,42,TRADE
SNOWY1,"2005/02/23 16:00:00",68.765,42.08,TRADE
SNOWY1,"2005/02/23 16:30:00",19.34667,39.01,TRADE
SNOWY1,"2005/02/23 17:00:00",45.77167,35.02,TRADE
SNOWY1,"2005/02/23 17:30:00",20.505,31.71,TRADE
SNOWY1,"2005/02/23 18:00:00",17.85667,26.8,TRADE
SNOWY1,"2005/02/23 18:30:00",19.96667,25.25,TRADE
SNOWY1,"2005/02/23 19:00:00",18.69,26.5,TRADE
SNOWY1,"2005/02/23 19:30:00",31.38,27.24,TRADE
SNOWY1,"2005/02/23 20:00:00",22.75833,26.24,TRADE
SNOWY1,"2005/02/23 20:30:00",19.72167,25.13,TRADE
SNOWY1,"2005/02/23 21:00:00",20.80667,21.9,TRADE
SNOWY1,"2005/02/23 21:30:00",27.35167,23.78,TRADE
SNOWY1,"2005/02/23 22:00:00",36.78667,20.59,TRADE
SNOWY1,"2005/02/23 22:30:00",23.925,21.45,TRADE
SNOWY1,"2005/02/23 23:00:00",27.015,20.73,TRADE
SNOWY1,"2005/02/23 23:30:00",27.465,23.55,TRADE
SNOWY1,"2005/02/24 00:00:00",31.16167,21.43,TRADE
SNOWY1,"2005/02/24 00:30:00",30.86667,20.5,TRADE
SNOWY1,"2005/02/24 01:00:00",25.46667,19.81,TRADE
SNOWY1,"2005/02/24 01:30:00",39.44667,19.76,TRADE
SNOWY1,"2005/02/24 02:00:00",27.355,17.5,TRADE
SNOWY1,"2005/02/24 02:30:00",61.345,14.32,TRADE
SNOWY1,"2005/02/24 03:00:00",55.97167,13.36,TRADE
SNOWY1,"2005/02/24 03:30:00",58.99333,12.48,TRADE
SNOWY1,"2005/02/24 04:00:00",54.70667,12.64,TRADE
SNOWY1,"2005/02/24 04:30:00",64.47333,15.1,TRADE
SNOWY1,"2005/02/24 05:00:00",58.32833,17.64,TRADE
SNOWY1,"2005/02/24 05:30:00",42.435,20.82,TRADE
SNOWY1,"2005/02/24 06:00:00",30.075,23.88,TRADE
SNOWY1,"2005/02/24 06:30:00",30.01,25.03,TRADE
SNOWY1,"2005/02/24 07:00:00",31.12667,26.75,TRADE
SNOWY1,"2005/02/24 07:30:00",22.68667,23.22,TRADE
SNOWY1,"2005/02/24 08:00:00",23.33667,23.39,TRADE
SNOWY1,"2005/02/24 08:30:00",27.68667,23.82,TRADE
SNOWY1,"2005/02/24 09:00:00",23.65833,26.5,TRADE
SNOWY1,"2005/02/24 09:30:00",24.395,26.5,TRADE
SNOWY1,"2005/02/24 10:00:00",23.485,27.71,TRADE
SNOWY1,"2005/02/24 10:30:00",24.14333,28.3,TRADE
SNOWY1,"2005/02/24 11:00:00",37.22,30.69,TRADE
SNOWY1,"2005/02/24 11:30:00",20.355,30.85,TRADE
SNOWY1,"2005/02/24 12:00:00",42.58,30.47,TRADE
SNOWY1,"2005/02/24 12:30:00",28.22667,34.71,TRADE
SNOWY1,"2005/02/24 13:00:00",42.34667,35,TRADE
SNOWY1,"2005/02/24 13:30:00",37.06667,35,TRADE
SNOWY1,"2005/02/24 14:00:00",63.94333,42.13,TRADE
SNOWY1,"2005/02/24 14:30:00",39.05833,42.17,TRADE
SNOWY1,"2005/02/24 15:00:00",38.39667,49,TRADE
SNOWY1,"2005/02/24 15:30:00",47.62833,47.8,TRADE
SNOWY1,"2005/02/24 16:00:00",37.09167,47.73,TRADE
SNOWY1,"2005/02/24 16:30:00",42.85167,42.2,TRADE
SNOWY1,"2005/02/24 17:00:00",33.225,38.53,TRADE
SNOWY1,"2005/02/24 17:30:00",26.75167,35,TRADE
SNOWY1,"2005/02/24 18:00:00",23.82833,27.88,TRADE
SNOWY1,"2005/02/24 18:30:00",37.05,24.95,TRADE
SNOWY1,"2005/02/24 19:00:00",35.88833,26.29,TRADE
SNOWY1,"2005/02/24 19:30:00",36.79833,26.88,TRADE
SNOWY1,"2005/02/24 20:00:00",26.395,26.27,TRADE
SNOWY1,"2005/02/24 20:30:00",33.945,24.46,TRADE
SNOWY1,"2005/02/24 21:00:00",30.58,20.67,TRADE
SNOWY1,"2005/02/24 21:30:00",25.775,23.13,TRADE
SNOWY1,"2005/02/24 22:00:00",30.69,20.24,TRADE
SNOWY1,"2005/02/24 22:30:00",29.88,20.81,TRADE
SNOWY1,"2005/02/24 23:00:00",26.73333,23.05,TRADE
SNOWY1,"2005/02/24 23:30:00",32.70167,25.11,TRADE
SNOWY1,"2005/02/25 00:00:00",29.87333,21.31,TRADE
SNOWY1,"2005/02/25 00:30:00",32.26167,20.36,TRADE
SNOWY1,"2005/02/25 01:00:00",23.66667,19.82,TRADE
SNOWY1,"2005/02/25 01:30:00",28.625,19.63,TRADE
SNOWY1,"2005/02/25 02:00:00",37.22667,18.25,TRADE
SNOWY1,"2005/02/25 02:30:00",39.72,15.17,TRADE
SNOWY1,"2005/02/25 03:00:00",73.94167,14.88,TRADE
SNOWY1,"2005/02/25 03:30:00",70.66833,13.13,TRADE
SNOWY1,"2005/02/25 04:00:00",71.51,13.56,TRADE
SNOWY1,"2005/02/25 04:30:00",68.39167,15.86,TRADE
SNOWY1,"2005/02/25 05:00:00",61.77167,17.25,TRADE
SNOWY1,"2005/02/25 05:30:00",42.98667,20.23,TRADE
SNOWY1,"2005/02/25 06:00:00",36.02,23.14,TRADE
SNOWY1,"2005/02/25 06:30:00",39.47333,23.93,TRADE
SNOWY1,"2005/02/25 07:00:00",39.155,26.29,TRADE
SNOWY1,"2005/02/25 07:30:00",24.39333,21.34,TRADE
SNOWY1,"2005/02/25 08:00:00",20.88167,22.03,TRADE
SNOWY1,"2005/02/25 08:30:00",28.96667,22.42,TRADE
SNOWY1,"2005/02/25 09:00:00",40.32167,24.12,TRADE
SNOWY1,"2005/02/25 09:30:00",33.26333,26.06,TRADE
SNOWY1,"2005/02/25 10:00:00",38.185,26.5,TRADE
SNOWY1,"2005/02/25 10:30:00",34.30333,27.25,TRADE
SNOWY1,"2005/02/25 11:00:00",29.83333,29.76,TRADE
SNOWY1,"2005/02/25 11:30:00",34.08667,29.39,TRADE
SNOWY1,"2005/02/25 12:00:00",30.84833,32.75,TRADE
SNOWY1,"2005/02/25 12:30:00",30.80167,34.71,TRADE
SNOWY1,"2005/02/25 13:00:00",37.70333,35,TRADE
SNOWY1,"2005/02/25 13:30:00",49.44167,35.03,TRADE
SNOWY1,"2005/02/25 14:00:00",23.21333,35,TRADE
SNOWY1,"2005/02/25 14:30:00",24.71833,35.02,TRADE
SNOWY1,"2005/02/25 15:00:00",44.92667,35.05,TRADE
SNOWY1,"2005/02/25 15:30:00",32.73667,35,TRADE
SNOWY1,"2005/02/25 16:00:00",34.60833,35,TRADE
SNOWY1,"2005/02/25 16:30:00",24.345,35,TRADE
SNOWY1,"2005/02/25 17:00:00",30.24,32.29,TRADE
SNOWY1,"2005/02/25 17:30:00",19.655,22.88,TRADE
SNOWY1,"2005/02/25 18:00:00",23.63333,20.31,TRADE
SNOWY1,"2005/02/25 18:30:00",26.43667,19.01,TRADE
SNOWY1,"2005/02/25 19:00:00",31.53167,19.5,TRADE
SNOWY1,"2005/02/25 19:30:00",27.82667,19.69,TRADE
SNOWY1,"2005/02/25 20:00:00",26.13167,19.72,TRADE
SNOWY1,"2005/02/25 20:30:00",27.925,19.95,TRADE
SNOWY1,"2005/02/25 21:00:00",25.635,17.34,TRADE
SNOWY1,"2005/02/25 21:30:00",30.87667,19.77,TRADE
SNOWY1,"2005/02/25 22:00:00",29.26,18.36,TRADE
SNOWY1,"2005/02/25 22:30:00",31.29833,20.42,TRADE
SNOWY1,"2005/02/25 23:00:00",25.925,21.71,TRADE
SNOWY1,"2005/02/25 23:30:00",32.26833,25.57,TRADE
SNOWY1,"2005/02/26 00:00:00",33.95833,21.72,TRADE
SNOWY1,"2005/02/26 00:30:00",28.85,20.73,TRADE
SNOWY1,"2005/02/26 01:00:00",28.015,19.6,TRADE
SNOWY1,"2005/02/26 01:30:00",33.88333,20.36,TRADE
SNOWY1,"2005/02/26 02:00:00",32.18167,18.65,TRADE
SNOWY1,"2005/02/26 02:30:00",27.045,16.81,TRADE
SNOWY1,"2005/02/26 03:00:00",82.15167,15.37,TRADE
SNOWY1,"2005/02/26 03:30:00",110.91167,12.67,TRADE
SNOWY1,"2005/02/26 04:00:00",104.17,12.45,TRADE
SNOWY1,"2005/02/26 04:30:00",103.185,12.7,TRADE
SNOWY1,"2005/02/26 05:00:00",102.15333,13.3,TRADE
SNOWY1,"2005/02/26 05:30:00",99.19,16.67,TRADE
SNOWY1,"2005/02/26 06:00:00",82.28333,17.54,TRADE
SNOWY1,"2005/02/26 06:30:00",40.53833,17.27,TRADE
SNOWY1,"2005/02/26 07:00:00",32.07167,18.59,TRADE
SNOWY1,"2005/02/26 07:30:00",39.73667,17.43,TRADE
SNOWY1,"2005/02/26 08:00:00",23.94833,19.24,TRADE
SNOWY1,"2005/02/26 08:30:00",31.18333,19.89,TRADE
SNOWY1,"2005/02/26 09:00:00",29.77667,20.45,TRADE
SNOWY1,"2005/02/26 09:30:00",27.685,21.13,TRADE
SNOWY1,"2005/02/26 10:00:00",31.55333,22.94,TRADE
SNOWY1,"2005/02/26 10:30:00",26.21,22.26,TRADE
SNOWY1,"2005/02/26 11:00:00",32.61333,22.26,TRADE
SNOWY1,"2005/02/26 11:30:00",28.02167,21.96,TRADE
SNOWY1,"2005/02/26 12:00:00",26.91,21.62,TRADE
SNOWY1,"2005/02/26 12:30:00",35.75667,20,TRADE
SNOWY1,"2005/02/26 13:00:00",26.155,20.38,TRADE
SNOWY1,"2005/02/26 13:30:00",25.315,20.03,TRADE
SNOWY1,"2005/02/26 14:00:00",28.495,20.08,TRADE
SNOWY1,"2005/02/26 14:30:00",21.25333,20.06,TRADE
SNOWY1,"2005/02/26 15:00:00",21.18167,20.02,TRADE
SNOWY1,"2005/02/26 15:30:00",28.67333,19.97,TRADE
SNOWY1,"2005/02/26 16:00:00",25.84833,19.99,TRADE
SNOWY1,"2005/02/26 16:30:00",24.29667,20.02,TRADE
SNOWY1,"2005/02/26 17:00:00",31.07167,20.14,TRADE
SNOWY1,"2005/02/26 17:30:00",29.025,20.03,TRADE
SNOWY1,"2005/02/26 18:00:00",29.75,19.9,TRADE
SNOWY1,"2005/02/26 18:30:00",20.09833,19.16,TRADE
SNOWY1,"2005/02/26 19:00:00",20.30833,19.29,TRADE
SNOWY1,"2005/02/26 19:30:00",32.58667,19.83,TRADE
SNOWY1,"2005/02/26 20:00:00",27.19833,19.86,TRADE
SNOWY1,"2005/02/26 20:30:00",27.31833,19.48,TRADE
SNOWY1,"2005/02/26 21:00:00",25.91,18.06,TRADE
SNOWY1,"2005/02/26 21:30:00",23.31167,18.16,TRADE
SNOWY1,"2005/02/26 22:00:00",24.52333,18.27,TRADE
SNOWY1,"2005/02/26 22:30:00",23.78667,20.48,TRADE
SNOWY1,"2005/02/26 23:00:00",30.575,20.77,TRADE
SNOWY1,"2005/02/26 23:30:00",19.74,21.11,TRADE
SNOWY1,"2005/02/27 00:00:00",25.335,21.18,TRADE
SNOWY1,"2005/02/27 00:30:00",30.64,19.76,TRADE
SNOWY1,"2005/02/27 01:00:00",25.55667,18.33,TRADE
SNOWY1,"2005/02/27 01:30:00",23.99167,19.93,TRADE
SNOWY1,"2005/02/27 02:00:00",25.01667,17,TRADE
SNOWY1,"2005/02/27 02:30:00",78.75333,15.27,TRADE
SNOWY1,"2005/02/27 03:00:00",94.25,12.58,TRADE
SNOWY1,"2005/02/27 03:30:00",96.46167,12.42,TRADE
SNOWY1,"2005/02/27 04:00:00",91.81833,12.14,TRADE
SNOWY1,"2005/02/27 04:30:00",97.1,12.59,TRADE
SNOWY1,"2005/02/27 05:00:00",91.075,12.38,TRADE
SNOWY1,"2005/02/27 05:30:00",94.81667,14.38,TRADE
SNOWY1,"2005/02/27 06:00:00",99.79,16.3,TRADE
SNOWY1,"2005/02/27 06:30:00",103.07167,15.55,TRADE
SNOWY1,"2005/02/27 07:00:00",101.90667,16.46,TRADE
SNOWY1,"2005/02/27 07:30:00",97.78667,15.46,TRADE
SNOWY1,"2005/02/27 08:00:00",37.69833,17.51,TRADE
SNOWY1,"2005/02/27 08:30:00",32.47667,18.39,TRADE
SNOWY1,"2005/02/27 09:00:00",30.89667,18.55,TRADE
SNOWY1,"2005/02/27 09:30:00",33.31333,20,TRADE
SNOWY1,"2005/02/27 10:00:00",33.50167,20.21,TRADE
SNOWY1,"2005/02/27 10:30:00",27.14333,20.27,TRADE
SNOWY1,"2005/02/27 11:00:00",30.09,20.39,TRADE
SNOWY1,"2005/02/27 11:30:00",23.97,20.43,TRADE
SNOWY1,"2005/02/27 12:00:00",31.50333,20.42,TRADE
SNOWY1,"2005/02/27 12:30:00",28.32,20.4,TRADE
SNOWY1,"2005/02/27 13:00:00",25.01667,20.39,TRADE
SNOWY1,"2005/02/27 13:30:00",23.30167,20.43,TRADE
SNOWY1,"2005/02/27 14:00:00",22.60833,20.42,TRADE
SNOWY1,"2005/02/27 14:30:00",29.34667,20.38,TRADE
SNOWY1,"2005/02/27 15:00:00",29.215,20.57,TRADE
SNOWY1,"2005/02/27 15:30:00",29.75333,20.66,TRADE
SNOWY1,"2005/02/27 16:00:00",24.88167,20.45,TRADE
SNOWY1,"2005/02/27 16:30:00",26.56333,20.73,TRADE
SNOWY1,"2005/02/27 17:00:00",33.65333,20.85,TRADE
SNOWY1,"2005/02/27 17:30:00",25.2,20.82,TRADE
SNOWY1,"2005/02/27 18:00:00",30.84667,20.82,TRADE
SNOWY1,"2005/02/27 18:30:00",25.44,20.76,TRADE
SNOWY1,"2005/02/27 19:00:00",34.95167,23.04,TRADE
SNOWY1,"2005/02/27 19:30:00",33.50333,23.78,TRADE
SNOWY1,"2005/02/27 20:00:00",31.19833,23.51,TRADE
SNOWY1,"2005/02/27 20:30:00",29.26,20.77,TRADE
SNOWY1,"2005/02/27 21:00:00",28.3,19.73,TRADE
SNOWY1,"2005/02/27 21:30:00",29.76333,19.29,TRADE
SNOWY1,"2005/02/27 22:00:00",26.31333,18.05,TRADE
SNOWY1,"2005/02/27 22:30:00",28.855,19.98,TRADE
SNOWY1,"2005/02/27 23:00:00",30.255,20.85,TRADE
SNOWY1,"2005/02/27 23:30:00",22.29,21.13,TRADE
SNOWY1,"2005/02/28 00:00:00",21.40167,19.44,TRADE
SNOWY1,"2005/02/28 00:30:00",28.035,19.36,TRADE
SNOWY1,"2005/02/28 01:00:00",24.83667,19.29,TRADE
SNOWY1,"2005/02/28 01:30:00",24.75333,20.87,TRADE
SNOWY1,"2005/02/28 02:00:00",24.36,18.26,TRADE
SNOWY1,"2005/02/28 02:30:00",26.465,16.44,TRADE
SNOWY1,"2005/02/28 03:00:00",61.75167,14.89,TRADE
SNOWY1,"2005/02/28 03:30:00",54.52167,14.58,TRADE
SNOWY1,"2005/02/28 04:00:00",61.46,15.57,TRADE
SNOWY1,"2005/02/28 04:30:00",60.145,16.28,TRADE
SNOWY1,"2005/02/28 05:00:00",42.89833,17.98,TRADE
SNOWY1,"2005/02/28 05:30:00",27.75833,19.6,TRADE
SNOWY1,"2005/02/28 06:00:00",34.82,22.87,TRADE
SNOWY1,"2005/02/28 06:30:00",33.32,23.98,TRADE
SNOWY1,"2005/02/28 07:00:00",22.63333,24.39,TRADE
SNOWY1,"2005/02/28 07:30:00",26.215,20.9,TRADE
SNOWY1,"2005/02/28 08:00:00",24.43167,21.01,TRADE
SNOWY1,"2005/02/28 08:30:00",23.85667,20.57,TRADE
SNOWY1,"2005/02/28 09:00:00",34.50167,21.46,TRADE
SNOWY1,"2005/02/28 09:30:00",22.89333,22.09,TRADE
SNOWY1,"2005/02/28 10:00:00",30.99167,23.19,TRADE
SNOWY1,"2005/02/28 10:30:00",40.69,24.79,TRADE
SNOWY1,"2005/02/28 11:00:00",33.04167,25.94,TRADE
SNOWY1,"2005/02/28 11:30:00",46.835,26.5,TRADE
SNOWY1,"2005/02/28 12:00:00",46.20667,26.54,TRADE
SNOWY1,"2005/02/28 12:30:00",53.70333,27.85,TRADE
SNOWY1,"2005/02/28 13:00:00",48.17833,29.36,TRADE
SNOWY1,"2005/02/28 13:30:00",48.21167,28.82,TRADE
SNOWY1,"2005/02/28 14:00:00",57.78833,32.26,TRADE
SNOWY1,"2005/02/28 14:30:00",68.22667,34.6,TRADE
SNOWY1,"2005/02/28 15:00:00",59.57333,34.69,TRADE
SNOWY1,"2005/02/28 15:30:00",50.09833,35,TRADE
SNOWY1,"2005/02/28 16:00:00",64.68167,35,TRADE
SNOWY1,"2005/02/28 16:30:00",24.58333,30.77,TRADE
SNOWY1,"2005/02/28 17:00:00",38.44667,27.27,TRADE
SNOWY1,"2005/02/28 17:30:00",27.27667,26.58,TRADE
SNOWY1,"2005/02/28 18:00:00",47.635,25.28,TRADE
SNOWY1,"2005/02/28 18:30:00",42.82333,23.54,TRADE
SNOWY1,"2005/02/28 19:00:00",32.75667,22.18,TRADE
SNOWY1,"2005/02/28 19:30:00",30.80667,24.61,TRADE
SNOWY1,"2005/02/28 20:00:00",28.58833,22.95,TRADE
SNOWY1,"2005/02/28 20:30:00",32.95,23.78,TRADE
SNOWY1,"2005/02/28 21:00:00",22.85667,21.14,TRADE
SNOWY1,"2005/02/28 21:30:00",37.10833,22.89,TRADE
SNOWY1,"2005/02/28 22:00:00",39.67833,20.54,TRADE
SNOWY1,"2005/02/28 22:30:00",28.33667,20.95,TRADE
SNOWY1,"2005/02/28 23:00:00",25.92,21.98,TRADE
SNOWY1,"2005/02/28 23:30:00",23.48833,24.47,TRADE
SNOWY1,"2005/03/01 00:00:00",25.745,21.63,TRADE
