REGION,SETTLEMENTDATE,TOTALDEMAND,RRP,PERIODTYPE
VIC1,"2000/08/01 00:30",5563.23667,51.14,TRADE
VIC1,"2000/08/01 01:00",5407.97333,41.41,TRADE
VIC1,"2000/08/01 01:30",5770.915,103.19,TRADE
VIC1,"2000/08/01 02:00",5671.33667,57.11,TRADE
VIC1,"2000/08/01 02:30",5463.33333,41.41,TRADE
VIC1,"2000/08/01 03:00",5285.66,44.53,TRADE
VIC1,"2000/08/01 03:30",5135.77333,40.53,TRADE
VIC1,"2000/08/01 04:00",5005.085,39.15,TRADE
VIC1,"2000/08/01 04:30",4915.78,28.96,TRADE
VIC1,"2000/08/01 05:00",4895.66833,31.96,TRADE
VIC1,"2000/08/01 05:30",4924.08,29.31,TRADE
VIC1,"2000/08/01 06:00",5058.83167,34.41,TRADE
VIC1,"2000/08/01 06:30",5411.45167,64.11,TRADE
VIC1,"2000/08/01 07:00",5789.47167,94.06,TRADE
VIC1,"2000/08/01 07:30",5985.12333,67.29,TRADE
VIC1,"2000/08/01 08:00",6316.44,77.33,TRADE
VIC1,"2000/08/01 08:30",6470.33833,96.34,TRADE
VIC1,"2000/08/01 09:00",6445.24333,85.99,TRADE
VIC1,"2000/08/01 09:30",6531.62333,67.81,TRADE
VIC1,"2000/08/01 10:00",6403.75833,62.69,TRADE
VIC1,"2000/08/01 10:30",6358.05833,56.03,TRADE
VIC1,"2000/08/01 11:00",6349.625,51.02,TRADE
VIC1,"2000/08/01 11:30",6266.84,42.01,TRADE
VIC1,"2000/08/01 12:00",6196.47667,40.83,TRADE
VIC1,"2000/08/01 12:30",6092.79833,40.93,TRADE
VIC1,"2000/08/01 13:00",6019.145,40.29,TRADE
VIC1,"2000/08/01 13:30",6107.94333,41.26,TRADE
VIC1,"2000/08/01 14:00",6093.29,40.53,TRADE
VIC1,"2000/08/01 14:30",6059.65,40.3,TRADE
VIC1,"2000/08/01 15:00",5991.685,40.79,TRADE
VIC1,"2000/08/01 15:30",5861.40833,39.95,TRADE
VIC1,"2000/08/01 16:00",5816.93,40.06,TRADE
VIC1,"2000/08/01 16:30",5826.025,39.94,TRADE
VIC1,"2000/08/01 17:00",5933.12,41.68,TRADE
VIC1,"2000/08/01 17:30",6137.174,48.97,TRADE
VIC1,"2000/08/01 18:00",6480.14833,63.88,TRADE
VIC1,"2000/08/01 18:30",6674.05833,81.78,TRADE
VIC1,"2000/08/01 19:00",6574.865,71.16,TRADE
VIC1,"2000/08/01 19:30",6422.83667,66.25,TRADE
VIC1,"2000/08/01 20:00",6294.83833,66.32,TRADE
VIC1,"2000/08/01 20:30",6202.21667,56.87,TRADE
VIC1,"2000/08/01 21:00",6084.62,50.39,TRADE
VIC1,"2000/08/01 21:30",5911.78167,53.68,TRADE
VIC1,"2000/08/01 22:00",5786.64333,49.66,TRADE
VIC1,"2000/08/01 22:30",5584.28,56.59,TRADE
VIC1,"2000/08/01 23:00",5426.44833,43.81,TRADE
VIC1,"2000/08/01 23:30",5761.37833,67.54,TRADE
VIC1,"2000/08/02 00:00",5704.08167,60.69,TRADE
VIC1,"2000/08/02 00:30",5642.42833,55.82,TRADE
VIC1,"2000/08/02 01:00",5487.59,46.19,TRADE
VIC1,"2000/08/02 01:30",5804.97167,61,TRADE
VIC1,"2000/08/02 02:00",5718.67833,55.04,TRADE
VIC1,"2000/08/02 02:30",5508.81833,40.68,TRADE
VIC1,"2000/08/02 03:00",5343.475,45.21,TRADE
VIC1,"2000/08/02 03:30",5178.205,41.31,TRADE
VIC1,"2000/08/02 04:00",5046.24,37.1,TRADE
VIC1,"2000/08/02 04:30",4948.07,30.66,TRADE
VIC1,"2000/08/02 05:00",4919.015,33.54,TRADE
VIC1,"2000/08/02 05:30",4964.655,33.69,TRADE
VIC1,"2000/08/02 06:00",5113.61333,41.4,TRADE
VIC1,"2000/08/02 06:30",5489.94833,59.55,TRADE
VIC1,"2000/08/02 07:00",5876.27833,88.82,TRADE
VIC1,"2000/08/02 07:30",6124.69,66.43,TRADE
VIC1,"2000/08/02 08:00",6384.00333,81.02,TRADE
VIC1,"2000/08/02 08:30",6504.50667,96.04,TRADE
VIC1,"2000/08/02 09:00",6450.07,87.62,TRADE
VIC1,"2000/08/02 09:30",6451.98167,76.53,TRADE
VIC1,"2000/08/02 10:00",6313.84833,64.82,TRADE
VIC1,"2000/08/02 10:30",6222.81167,51.17,TRADE
VIC1,"2000/08/02 11:00",6148.62167,46.65,TRADE
VIC1,"2000/08/02 11:30",6068.19167,41.93,TRADE
VIC1,"2000/08/02 12:00",6006.31167,56.31,TRADE
VIC1,"2000/08/02 12:30",5895.28333,46.64,TRADE
VIC1,"2000/08/02 13:00",5824.27667,46.42,TRADE
VIC1,"2000/08/02 13:30",5918.925,121.59,TRADE
VIC1,"2000/08/02 14:00",5849.35,129.9,TRADE
VIC1,"2000/08/02 14:30",5795.79,42.85,TRADE
VIC1,"2000/08/02 15:00",5814.21167,40.94,TRADE
VIC1,"2000/08/02 15:30",5737.48833,35.28,TRADE
VIC1,"2000/08/02 16:00",5746.89,37.51,TRADE
VIC1,"2000/08/02 16:30",5730.61167,40.13,TRADE
VIC1,"2000/08/02 17:00",5786.83833,40.46,TRADE
VIC1,"2000/08/02 17:30",5932.61333,44.45,TRADE
VIC1,"2000/08/02 18:00",6231.685,54.91,TRADE
VIC1,"2000/08/02 18:30",6418.13667,70.68,TRADE
VIC1,"2000/08/02 19:00",6356.52333,70.56,TRADE
VIC1,"2000/08/02 19:30",6211.76833,65.74,TRADE
VIC1,"2000/08/02 20:00",6119.71333,65.5,TRADE
VIC1,"2000/08/02 20:30",6016.67,57.14,TRADE
VIC1,"2000/08/02 21:00",5895.09,54.44,TRADE
VIC1,"2000/08/02 21:30",5746.34833,63.36,TRADE
VIC1,"2000/08/02 22:00",5567.44667,63.9,TRADE
VIC1,"2000/08/02 22:30",5402.48667,70.34,TRADE
VIC1,"2000/08/02 23:00",5304.23,55.54,TRADE
VIC1,"2000/08/02 23:30",5627.815,84.31,TRADE
VIC1,"2000/08/03 00:00",5587.33333,103.28,TRADE
VIC1,"2000/08/03 00:30",5492.24667,91.76,TRADE
VIC1,"2000/08/03 01:00",5348.395,77.14,TRADE
VIC1,"2000/08/03 01:30",5671.04333,94.03,TRADE
VIC1,"2000/08/03 02:00",5536.14667,81.28,TRADE
VIC1,"2000/08/03 02:30",5366.81833,67.39,TRADE
VIC1,"2000/08/03 03:00",5163.60667,53.97,TRADE
VIC1,"2000/08/03 03:30",5014.66667,41.35,TRADE
VIC1,"2000/08/03 04:00",4932.685,34.09,TRADE
VIC1,"2000/08/03 04:30",4820.78,33.73,TRADE
VIC1,"2000/08/03 05:00",4790.23333,36.75,TRADE
VIC1,"2000/08/03 05:30",4831.68833,36.97,TRADE
VIC1,"2000/08/03 06:00",4965.185,38.07,TRADE
VIC1,"2000/08/03 06:30",5343.28333,58.74,TRADE
VIC1,"2000/08/03 07:00",5740.94833,85.82,TRADE
VIC1,"2000/08/03 07:30",5969.96667,78.93,TRADE
VIC1,"2000/08/03 08:00",6185.825,89.91,TRADE
VIC1,"2000/08/03 08:30",6195.045,79.62,TRADE
VIC1,"2000/08/03 09:00",6154.32,73.22,TRADE
VIC1,"2000/08/03 09:30",6135.62833,69.07,TRADE
VIC1,"2000/08/03 10:00",6020.29,65.66,TRADE
VIC1,"2000/08/03 10:30",5929.51833,54.12,TRADE
VIC1,"2000/08/03 11:00",5892.81,51.04,TRADE
VIC1,"2000/08/03 11:30",5864.68667,43.64,TRADE
VIC1,"2000/08/03 12:00",5773.95167,41.7,TRADE
VIC1,"2000/08/03 12:30",5714.61,41.4,TRADE
VIC1,"2000/08/03 13:00",5683.96667,41.23,TRADE
VIC1,"2000/08/03 13:30",5784.91333,41.58,TRADE
VIC1,"2000/08/03 14:00",5778.18333,41.56,TRADE
VIC1,"2000/08/03 14:30",5728.23,41.43,TRADE
VIC1,"2000/08/03 15:00",5691.42833,41.39,TRADE
VIC1,"2000/08/03 15:30",5667.11167,40.71,TRADE
VIC1,"2000/08/03 16:00",5640.55,40.38,TRADE
VIC1,"2000/08/03 16:30",5631.14833,40.68,TRADE
VIC1,"2000/08/03 17:00",5659.40667,40.85,TRADE
VIC1,"2000/08/03 17:30",5791.54833,43.44,TRADE
VIC1,"2000/08/03 18:00",6078.90167,54.6,TRADE
VIC1,"2000/08/03 18:30",6268.89333,74.03,TRADE
VIC1,"2000/08/03 19:00",6232.55,71.32,TRADE
VIC1,"2000/08/03 19:30",6136.36,68.93,TRADE
VIC1,"2000/08/03 20:00",6029.66167,68.15,TRADE
VIC1,"2000/08/03 20:30",5956.14833,61.59,TRADE
VIC1,"2000/08/03 21:00",5851.36333,56.06,TRADE
VIC1,"2000/08/03 21:30",5726.80167,59.55,TRADE
VIC1,"2000/08/03 22:00",5607.53833,53.23,TRADE
VIC1,"2000/08/03 22:30",5417.40833,57.49,TRADE
VIC1,"2000/08/03 23:00",5310.47,52.08,TRADE
VIC1,"2000/08/03 23:30",5683.23833,82.37,TRADE
VIC1,"2000/08/04 00:00",5589.815,86.46,TRADE
VIC1,"2000/08/04 00:30",5486.675,64.51,TRADE
VIC1,"2000/08/04 01:00",5337.52833,54.57,TRADE
VIC1,"2000/08/04 01:30",5619.745,74.02,TRADE
VIC1,"2000/08/04 02:00",5532.42667,68.17,TRADE
VIC1,"2000/08/04 02:30",5359.97167,48.98,TRADE
VIC1,"2000/08/04 03:00",5169.80667,48.16,TRADE
VIC1,"2000/08/04 03:30",4974.58667,38.41,TRADE
VIC1,"2000/08/04 04:00",4867.71833,37.34,TRADE
VIC1,"2000/08/04 04:30",4776.37,36.98,TRADE
VIC1,"2000/08/04 05:00",4758.475,36.82,TRADE
VIC1,"2000/08/04 05:30",4814.01,37.05,TRADE
VIC1,"2000/08/04 06:00",4943.91333,40.09,TRADE
VIC1,"2000/08/04 06:30",5317.60833,69.55,TRADE
VIC1,"2000/08/04 07:00",5691.925,89.86,TRADE
VIC1,"2000/08/04 07:30",5887.29333,65.32,TRADE
VIC1,"2000/08/04 08:00",6108.49833,83.61,TRADE
VIC1,"2000/08/04 08:30",6194.64167,90.51,TRADE
VIC1,"2000/08/04 09:00",6184.065,83.94,TRADE
VIC1,"2000/08/04 09:30",6157.44833,68.8,TRADE
VIC1,"2000/08/04 10:00",6061.72667,64.29,TRADE
VIC1,"2000/08/04 10:30",5978.81667,55.13,TRADE
VIC1,"2000/08/04 11:00",5919.78,51.32,TRADE
VIC1,"2000/08/04 11:30",5842.33833,43.2,TRADE
VIC1,"2000/08/04 12:00",5806.43833,42.69,TRADE
VIC1,"2000/08/04 12:30",5699.695,41.57,TRADE
VIC1,"2000/08/04 13:00",5680.76333,42.9,TRADE
VIC1,"2000/08/04 13:30",5733.44333,42,TRADE
VIC1,"2000/08/04 14:00",5706.91167,40.91,TRADE
VIC1,"2000/08/04 14:30",5648.81833,40.76,TRADE
VIC1,"2000/08/04 15:00",5610.15667,40.52,TRADE
VIC1,"2000/08/04 15:30",5557.91667,40.09,TRADE
VIC1,"2000/08/04 16:00",5464.53833,39.75,TRADE
VIC1,"2000/08/04 16:30",5444.02333,39.89,TRADE
VIC1,"2000/08/04 17:00",5525.56333,40.21,TRADE
VIC1,"2000/08/04 17:30",5647.08167,40.69,TRADE
VIC1,"2000/08/04 18:00",5904.44333,47.18,TRADE
VIC1,"2000/08/04 18:30",6088.11833,64.53,TRADE
VIC1,"2000/08/04 19:00",6020.85333,62.99,TRADE
VIC1,"2000/08/04 19:30",5917.655,52.08,TRADE
VIC1,"2000/08/04 20:00",5812.51333,50.25,TRADE
VIC1,"2000/08/04 20:30",5726.075,48.31,TRADE
VIC1,"2000/08/04 21:00",5642.54,47.02,TRADE
VIC1,"2000/08/04 21:30",5490.27167,51.61,TRADE
VIC1,"2000/08/04 22:00",5358.89833,45.61,TRADE
VIC1,"2000/08/04 22:30",5293.98167,56.92,TRADE
VIC1,"2000/08/04 23:00",5235.55167,58.41,TRADE
VIC1,"2000/08/04 23:30",5624.42333,95.59,TRADE
VIC1,"2000/08/05 00:00",5566.51833,81.78,TRADE
VIC1,"2000/08/05 00:30",5450.565,68.72,TRADE
VIC1,"2000/08/05 01:00",5322.99333,60.81,TRADE
VIC1,"2000/08/05 01:30",5547.92833,67.84,TRADE
VIC1,"2000/08/05 02:00",5439.54167,58.02,TRADE
VIC1,"2000/08/05 02:30",5232.33333,52.72,TRADE
VIC1,"2000/08/05 03:00",5101.33833,41.37,TRADE
VIC1,"2000/08/05 03:30",4883.97333,38.1,TRADE
VIC1,"2000/08/05 04:00",4751.05,35.16,TRADE
VIC1,"2000/08/05 04:30",4641.69833,36.33,TRADE
VIC1,"2000/08/05 05:00",4626.655,36.2,TRADE
VIC1,"2000/08/05 05:30",4601.015,36.15,TRADE
VIC1,"2000/08/05 06:00",4615.3,35.48,TRADE
VIC1,"2000/08/05 06:30",4740.63833,36.28,TRADE
VIC1,"2000/08/05 07:00",4826.305,37.72,TRADE
VIC1,"2000/08/05 07:30",4822.20167,34.03,TRADE
VIC1,"2000/08/05 08:00",4937.97667,45.34,TRADE
VIC1,"2000/08/05 08:30",5148.45167,52.38,TRADE
VIC1,"2000/08/05 09:00",5269.08833,61.57,TRADE
VIC1,"2000/08/05 09:30",5318.65167,82.38,TRADE
VIC1,"2000/08/05 10:00",5258.315,62.38,TRADE
VIC1,"2000/08/05 10:30",5193.895,50.66,TRADE
VIC1,"2000/08/05 11:00",5126.40333,46.76,TRADE
VIC1,"2000/08/05 11:30",5050.37,41.13,TRADE
VIC1,"2000/08/05 12:00",4991.12833,40.92,TRADE
VIC1,"2000/08/05 12:30",4922.71,39.2,TRADE
VIC1,"2000/08/05 13:00",4877.82667,37.86,TRADE
VIC1,"2000/08/05 13:30",4863.76,37.63,TRADE
VIC1,"2000/08/05 14:00",4812.13667,36.73,TRADE
VIC1,"2000/08/05 14:30",4723.785,34.47,TRADE
VIC1,"2000/08/05 15:00",4681.83667,32.8,TRADE
VIC1,"2000/08/05 15:30",4651.87,36.49,TRADE
VIC1,"2000/08/05 16:00",4671.93167,37.39,TRADE
VIC1,"2000/08/05 16:30",4652.31667,36.89,TRADE
VIC1,"2000/08/05 17:00",4780.03,42.17,TRADE
VIC1,"2000/08/05 17:30",4932.08,44.71,TRADE
VIC1,"2000/08/05 18:00",5280.79167,68.21,TRADE
VIC1,"2000/08/05 18:30",5571.35167,96.53,TRADE
VIC1,"2000/08/05 19:00",5579.13667,93.6,TRADE
VIC1,"2000/08/05 19:30",5479.605,61.89,TRADE
VIC1,"2000/08/05 20:00",5400.355,60.17,TRADE
VIC1,"2000/08/05 20:30",5305.83833,47.7,TRADE
VIC1,"2000/08/05 21:00",5207.01833,42.42,TRADE
VIC1,"2000/08/05 21:30",5084.745,40.4,TRADE
VIC1,"2000/08/05 22:00",5069.69333,38.15,TRADE
VIC1,"2000/08/05 22:30",5007.23833,41.17,TRADE
VIC1,"2000/08/05 23:00",4986.87167,39.78,TRADE
VIC1,"2000/08/05 23:30",5308.46167,43.56,TRADE
VIC1,"2000/08/06 00:00",5306.79167,45.9,TRADE
VIC1,"2000/08/06 00:30",5214.36333,51,TRADE
VIC1,"2000/08/06 01:00",5095.69,54.54,TRADE
VIC1,"2000/08/06 01:30",5315.70167,86.92,TRADE
VIC1,"2000/08/06 02:00",5232.77,102.44,TRADE
VIC1,"2000/08/06 02:30",5041.695,73.69,TRADE
VIC1,"2000/08/06 03:00",4885.54167,51.93,TRADE
VIC1,"2000/08/06 03:30",4733.41333,39.2,TRADE
VIC1,"2000/08/06 04:00",4606.975,38.42,TRADE
VIC1,"2000/08/06 04:30",4489.74833,37.39,TRADE
VIC1,"2000/08/06 05:00",4414.08,33.58,TRADE
VIC1,"2000/08/06 05:30",4321.23333,30.37,TRADE
VIC1,"2000/08/06 06:00",4306.09667,28.88,TRADE
VIC1,"2000/08/06 06:30",4332.59167,32.72,TRADE
VIC1,"2000/08/06 07:00",4392.125,34.13,TRADE
VIC1,"2000/08/06 07:30",4287.51667,27.97,TRADE
VIC1,"2000/08/06 08:00",4375.85167,32.3,TRADE
VIC1,"2000/08/06 08:30",4524.94833,38.6,TRADE
VIC1,"2000/08/06 09:00",4604.33667,40.63,TRADE
VIC1,"2000/08/06 09:30",4718.29833,48.97,TRADE
VIC1,"2000/08/06 10:00",4721.65,43.67,TRADE
VIC1,"2000/08/06 10:30",4671.35667,45.81,TRADE
VIC1,"2000/08/06 11:00",4607.525,44.27,TRADE
VIC1,"2000/08/06 11:30",4566.65,54.24,TRADE
VIC1,"2000/08/06 12:00",4571.92833,92.4,TRADE
VIC1,"2000/08/06 12:30",4517.54333,72.89,TRADE
VIC1,"2000/08/06 13:00",4492.05333,71.06,TRADE
VIC1,"2000/08/06 13:30",4520.62167,78.24,TRADE
VIC1,"2000/08/06 14:00",4468.45833,65.94,TRADE
VIC1,"2000/08/06 14:30",4413.36833,61.46,TRADE
VIC1,"2000/08/06 15:00",4356.11167,57.69,TRADE
VIC1,"2000/08/06 15:30",4363.37333,62.28,TRADE
VIC1,"2000/08/06 16:00",4378.00333,84.28,TRADE
VIC1,"2000/08/06 16:30",4375.47333,68.03,TRADE
VIC1,"2000/08/06 17:00",4484.49833,77.6,TRADE
VIC1,"2000/08/06 17:30",4693.03833,49.1,TRADE
VIC1,"2000/08/06 18:00",5100.56333,96.73,TRADE
VIC1,"2000/08/06 18:30",5366.69333,138.84,TRADE
VIC1,"2000/08/06 19:00",5445.08667,123.46,TRADE
VIC1,"2000/08/06 19:30",5289.05333,79.47,TRADE
VIC1,"2000/08/06 20:00",5315.13,70.03,TRADE
VIC1,"2000/08/06 20:30",5210.945,70.09,TRADE
VIC1,"2000/08/06 21:00",5152.46167,64.49,TRADE
VIC1,"2000/08/06 21:30",5012.19333,58.32,TRADE
VIC1,"2000/08/06 22:00",4910.78667,53.12,TRADE
VIC1,"2000/08/06 22:30",4820.08833,49.59,TRADE
VIC1,"2000/08/06 23:00",4789.70333,60.91,TRADE
VIC1,"2000/08/06 23:30",5071.21,69.28,TRADE
VIC1,"2000/08/07 00:00",5028.35667,58.61,TRADE
VIC1,"2000/08/07 00:30",4963.19667,52.77,TRADE
VIC1,"2000/08/07 01:00",4819.88333,44.59,TRADE
VIC1,"2000/08/07 01:30",5120.65667,80.67,TRADE
VIC1,"2000/08/07 02:00",5040.4,61.19,TRADE
VIC1,"2000/08/07 02:30",4907.37667,63.89,TRADE
VIC1,"2000/08/07 03:00",4744.17,43.31,TRADE
VIC1,"2000/08/07 03:30",4612.91,38.52,TRADE
VIC1,"2000/08/07 04:00",4506.06,29.13,TRADE
VIC1,"2000/08/07 04:30",4408.64167,29.33,TRADE
VIC1,"2000/08/07 05:00",4395.17333,31.98,TRADE
VIC1,"2000/08/07 05:30",4455.07333,36.59,TRADE
VIC1,"2000/08/07 06:00",4626.41167,47.17,TRADE
VIC1,"2000/08/07 06:30",4948.15667,60.54,TRADE
VIC1,"2000/08/07 07:00",5304.85167,67.2,TRADE
VIC1,"2000/08/07 07:30",5578.45,60.49,TRADE
VIC1,"2000/08/07 08:00",5806.26,70.01,TRADE
VIC1,"2000/08/07 08:30",5936.695,88.4,TRADE
VIC1,"2000/08/07 09:00",5908.21833,75.04,TRADE
VIC1,"2000/08/07 09:30",5929.235,64.61,TRADE
VIC1,"2000/08/07 10:00",5909.50667,61.4,TRADE
VIC1,"2000/08/07 10:30",5848.81833,53.12,TRADE
VIC1,"2000/08/07 11:00",5810.67667,56.26,TRADE
VIC1,"2000/08/07 11:30",5767.845,53.76,TRADE
VIC1,"2000/08/07 12:00",5785.455,54.55,TRADE
VIC1,"2000/08/07 12:30",5719.39833,55.35,TRADE
VIC1,"2000/08/07 13:00",5712.81667,61.3,TRADE
VIC1,"2000/08/07 13:30",5816.47833,67.07,TRADE
VIC1,"2000/08/07 14:00",5823.16167,65.32,TRADE
VIC1,"2000/08/07 14:30",5819.48333,72.08,TRADE
VIC1,"2000/08/07 15:00",5824.21667,88.31,TRADE
VIC1,"2000/08/07 15:30",5807.65833,79.04,TRADE
VIC1,"2000/08/07 16:00",5809.22667,70.45,TRADE
VIC1,"2000/08/07 16:30",5859.505,86.87,TRADE
VIC1,"2000/08/07 17:00",5934.36833,81.77,TRADE
VIC1,"2000/08/07 17:30",6042.41167,80.11,TRADE
VIC1,"2000/08/07 18:00",6203.03833,83.92,TRADE
VIC1,"2000/08/07 18:30",6310.72167,79.66,TRADE
VIC1,"2000/08/07 19:00",6167.27833,76.31,TRADE
VIC1,"2000/08/07 19:30",6010.815,71.75,TRADE
VIC1,"2000/08/07 20:00",5864.41167,70.67,TRADE
VIC1,"2000/08/07 20:30",5759.025,59.84,TRADE
VIC1,"2000/08/07 21:00",5621.90333,51.45,TRADE
VIC1,"2000/08/07 21:30",5458.22167,52.91,TRADE
VIC1,"2000/08/07 22:00",5298.98667,45.93,TRADE
VIC1,"2000/08/07 22:30",5156.68333,55.32,TRADE
VIC1,"2000/08/07 23:00",5004.48667,43.57,TRADE
VIC1,"2000/08/07 23:30",5440.17167,198.45,TRADE
VIC1,"2000/08/08 00:00",5317.71333,67.56,TRADE
VIC1,"2000/08/08 00:30",5232.48,67.07,TRADE
VIC1,"2000/08/08 01:00",5099.915,47.76,TRADE
VIC1,"2000/08/08 01:30",5387.89667,98.69,TRADE
VIC1,"2000/08/08 02:00",5251.39833,85.57,TRADE
VIC1,"2000/08/08 02:30",5040.125,90.27,TRADE
VIC1,"2000/08/08 03:00",4865.32167,81.06,TRADE
VIC1,"2000/08/08 03:30",4686.275,54.93,TRADE
VIC1,"2000/08/08 04:00",4574.23833,40.64,TRADE
VIC1,"2000/08/08 04:30",4492.50333,38.18,TRADE
VIC1,"2000/08/08 05:00",4466.395,38.04,TRADE
VIC1,"2000/08/08 05:30",4514.925,39.69,TRADE
VIC1,"2000/08/08 06:00",4659.23667,51.24,TRADE
VIC1,"2000/08/08 06:30",4999.81333,68.18,TRADE
VIC1,"2000/08/08 07:00",5354.82333,66.17,TRADE
VIC1,"2000/08/08 07:30",5561.94333,56.88,TRADE
VIC1,"2000/08/08 08:00",5852.58167,100.86,TRADE
VIC1,"2000/08/08 08:30",5941.63,116.66,TRADE
VIC1,"2000/08/08 09:00",5886.555,107.76,TRADE
VIC1,"2000/08/08 09:30",5879.48833,115.36,TRADE
VIC1,"2000/08/08 10:00",5810.68,86.35,TRADE
VIC1,"2000/08/08 10:30",5796.55,108.35,TRADE
VIC1,"2000/08/08 11:00",5778.75667,98.27,TRADE
VIC1,"2000/08/08 11:30",5718.135,67.14,TRADE
VIC1,"2000/08/08 12:00",5744.52833,68.03,TRADE
VIC1,"2000/08/08 12:30",5674.81333,61.65,TRADE
VIC1,"2000/08/08 13:00",5625.99,65.81,TRADE
VIC1,"2000/08/08 13:30",5693.17833,66.71,TRADE
VIC1,"2000/08/08 14:00",5715.13,68.25,TRADE
VIC1,"2000/08/08 14:30",5704.75667,67.97,TRADE
VIC1,"2000/08/08 15:00",5661.97833,66.24,TRADE
VIC1,"2000/08/08 15:30",5604.26167,65.8,TRADE
VIC1,"2000/08/08 16:00",5605.66667,65.14,TRADE
VIC1,"2000/08/08 16:30",5624.50333,67.12,TRADE
VIC1,"2000/08/08 17:00",5731.86,71.13,TRADE
VIC1,"2000/08/08 17:30",5960.90333,65.21,TRADE
VIC1,"2000/08/08 18:00",6225.35333,111.88,TRADE
VIC1,"2000/08/08 18:30",6218.455,114.98,TRADE
VIC1,"2000/08/08 19:00",6030.625,74.81,TRADE
VIC1,"2000/08/08 19:30",5900.93167,60.35,TRADE
VIC1,"2000/08/08 20:00",5750.57333,51.05,TRADE
VIC1,"2000/08/08 20:30",5688.09167,47.24,TRADE
VIC1,"2000/08/08 21:00",5604.61333,55.81,TRADE
VIC1,"2000/08/08 21:30",5445.05667,54.52,TRADE
VIC1,"2000/08/08 22:00",5314.67167,43.4,TRADE
VIC1,"2000/08/08 22:30",5202.985,54.92,TRADE
VIC1,"2000/08/08 23:00",5045.40167,46.63,TRADE
VIC1,"2000/08/08 23:30",5402.30833,96.93,TRADE
VIC1,"2000/08/09 00:00",5346.71,71.25,TRADE
VIC1,"2000/08/09 00:30",5245.84667,73.92,TRADE
VIC1,"2000/08/09 01:00",5083.42,82.21,TRADE
VIC1,"2000/08/09 01:30",5404.11167,211.46,TRADE
VIC1,"2000/08/09 02:00",5247.725,103.22,TRADE
VIC1,"2000/08/09 02:30",5109.51667,69.74,TRADE
VIC1,"2000/08/09 03:00",4923.625,51.86,TRADE
VIC1,"2000/08/09 03:30",4798.12167,41.03,TRADE
VIC1,"2000/08/09 04:00",4653.01167,45.13,TRADE
VIC1,"2000/08/09 04:30",4578.86,38.33,TRADE
VIC1,"2000/08/09 05:00",4546.975,38.12,TRADE
VIC1,"2000/08/09 05:30",4608.14833,38.42,TRADE
VIC1,"2000/08/09 06:00",4740.35167,59.17,TRADE
VIC1,"2000/08/09 06:30",5091.72667,64.06,TRADE
VIC1,"2000/08/09 07:00",5464.51667,57.56,TRADE
VIC1,"2000/08/09 07:30",5630.19,50.77,TRADE
VIC1,"2000/08/09 08:00",5864.86667,64.46,TRADE
VIC1,"2000/08/09 08:30",5964.12333,95.98,TRADE
VIC1,"2000/08/09 09:00",5939.77333,96.59,TRADE
VIC1,"2000/08/09 09:30",5974.81333,69.65,TRADE
VIC1,"2000/08/09 10:00",5959.565,68.29,TRADE
VIC1,"2000/08/09 10:30",5918.665,66.49,TRADE
VIC1,"2000/08/09 11:00",5882.61667,67,TRADE
VIC1,"2000/08/09 11:30",5859.78333,68.89,TRADE
VIC1,"2000/08/09 12:00",5877.09167,78.24,TRADE
VIC1,"2000/08/09 12:30",5838.8,58.32,TRADE
VIC1,"2000/08/09 13:00",5796.28833,44.53,TRADE
VIC1,"2000/08/09 13:30",5950.305,85.47,TRADE
VIC1,"2000/08/09 14:00",5990.83833,43.9,TRADE
VIC1,"2000/08/09 14:30",6009.005,54.51,TRADE
VIC1,"2000/08/09 15:00",5982.59333,145.02,TRADE
VIC1,"2000/08/09 15:30",5920.71,104.31,TRADE
VIC1,"2000/08/09 16:00",5904.07833,99.49,TRADE
VIC1,"2000/08/09 16:30",5850.24167,84.97,TRADE
VIC1,"2000/08/09 17:00",5969.13167,85.55,TRADE
VIC1,"2000/08/09 17:30",6200.29667,92.81,TRADE
VIC1,"2000/08/09 18:00",6415.74833,65.39,TRADE
VIC1,"2000/08/09 18:30",6492.19667,72.22,TRADE
VIC1,"2000/08/09 19:00",6386.07333,70.13,TRADE
VIC1,"2000/08/09 19:30",6241.64167,67.28,TRADE
VIC1,"2000/08/09 20:00",6090.33667,65.69,TRADE
VIC1,"2000/08/09 20:30",5975.985,48.79,TRADE
VIC1,"2000/08/09 21:00",5811.11833,45.21,TRADE
VIC1,"2000/08/09 21:30",5657.64667,44.62,TRADE
VIC1,"2000/08/09 22:00",5543.78667,35.04,TRADE
VIC1,"2000/08/09 22:30",5390.255,43.71,TRADE
VIC1,"2000/08/09 23:00",5266.88833,39.19,TRADE
VIC1,"2000/08/09 23:30",5619.79667,74.43,TRADE
VIC1,"2000/08/10 00:00",5571.16333,44.81,TRADE
VIC1,"2000/08/10 00:30",5448.87333,45.69,TRADE
VIC1,"2000/08/10 01:00",5342.40833,42.84,TRADE
VIC1,"2000/08/10 01:30",5658.02667,103.11,TRADE
VIC1,"2000/08/10 02:00",5549.73833,87.64,TRADE
VIC1,"2000/08/10 02:30",5391.34833,49.29,TRADE
VIC1,"2000/08/10 03:00",5207.64333,51.08,TRADE
VIC1,"2000/08/10 03:30",5040.92667,40.14,TRADE
VIC1,"2000/08/10 04:00",4917.19667,36.65,TRADE
VIC1,"2000/08/10 04:30",4825.59,35.54,TRADE
VIC1,"2000/08/10 05:00",4774.215,28.31,TRADE
VIC1,"2000/08/10 05:30",4832.77,32.66,TRADE
VIC1,"2000/08/10 06:00",4969.29,36.53,TRADE
VIC1,"2000/08/10 06:30",5328.48333,51.61,TRADE
VIC1,"2000/08/10 07:00",5703.02833,50.89,TRADE
VIC1,"2000/08/10 07:30",5903.405,57.45,TRADE
VIC1,"2000/08/10 08:00",6195.91333,66.74,TRADE
VIC1,"2000/08/10 08:30",6285.23333,82.36,TRADE
VIC1,"2000/08/10 09:00",6274.76667,76.6,TRADE
VIC1,"2000/08/10 09:30",6262.945,68.66,TRADE
VIC1,"2000/08/10 10:00",6208.17,64.92,TRADE
VIC1,"2000/08/10 10:30",6151.02167,56.28,TRADE
VIC1,"2000/08/10 11:00",6115.64833,54.22,TRADE
VIC1,"2000/08/10 11:30",6043.62,54.97,TRADE
VIC1,"2000/08/10 12:00",6028.21833,53.43,TRADE
VIC1,"2000/08/10 12:30",6000.64667,57.4,TRADE
VIC1,"2000/08/10 13:00",5979.11167,55.05,TRADE
VIC1,"2000/08/10 13:30",6057.21,57.89,TRADE
VIC1,"2000/08/10 14:00",6063.72167,54.98,TRADE
VIC1,"2000/08/10 14:30",6029.12667,58.9,TRADE
VIC1,"2000/08/10 15:00",6007.44667,64.79,TRADE
VIC1,"2000/08/10 15:30",5947.75333,60.06,TRADE
VIC1,"2000/08/10 16:00",5919.60833,46.17,TRADE
VIC1,"2000/08/10 16:30",5898.79167,41.09,TRADE
VIC1,"2000/08/10 17:00",5910.90667,41.15,TRADE
VIC1,"2000/08/10 17:30",6026.43833,48.57,TRADE
VIC1,"2000/08/10 18:00",6317.76,65.55,TRADE
VIC1,"2000/08/10 18:30",6498.85667,75.06,TRADE
VIC1,"2000/08/10 19:00",6434.41333,73.26,TRADE
VIC1,"2000/08/10 19:30",6307.49333,71.65,TRADE
VIC1,"2000/08/10 20:00",6188.52667,69.64,TRADE
VIC1,"2000/08/10 20:30",6092.35167,63.61,TRADE
VIC1,"2000/08/10 21:00",5964.47167,59.32,TRADE
VIC1,"2000/08/10 21:30",5835.23167,61.27,TRADE
VIC1,"2000/08/10 22:00",5631.045,52.16,TRADE
VIC1,"2000/08/10 22:30",5488.63667,52.21,TRADE
VIC1,"2000/08/10 23:00",5327.51333,44.22,TRADE
VIC1,"2000/08/10 23:30",5720.35167,77.19,TRADE
VIC1,"2000/08/11 00:00",5638.81333,65.17,TRADE
VIC1,"2000/08/11 00:30",5546.49333,61.44,TRADE
VIC1,"2000/08/11 01:00",5431.75833,51.2,TRADE
VIC1,"2000/08/11 01:30",5723.93167,91.35,TRADE
VIC1,"2000/08/11 02:00",5596.225,65.31,TRADE
VIC1,"2000/08/11 02:30",5420.22833,56.02,TRADE
VIC1,"2000/08/11 03:00",5208.63167,45.71,TRADE
VIC1,"2000/08/11 03:30",5049.69667,41.17,TRADE
VIC1,"2000/08/11 04:00",4911.27167,42.49,TRADE
VIC1,"2000/08/11 04:30",4820.06,37.54,TRADE
VIC1,"2000/08/11 05:00",4764.61167,37.26,TRADE
VIC1,"2000/08/11 05:30",4825.51667,37.51,TRADE
VIC1,"2000/08/11 06:00",4950.54667,39.28,TRADE
VIC1,"2000/08/11 06:30",5320.85,58.75,TRADE
VIC1,"2000/08/11 07:00",5682.64667,69.8,TRADE
VIC1,"2000/08/11 07:30",5880.07833,51.69,TRADE
VIC1,"2000/08/11 08:00",6189.285,80.13,TRADE
VIC1,"2000/08/11 08:30",6298.59,91.81,TRADE
VIC1,"2000/08/11 09:00",6225.25667,79.23,TRADE
VIC1,"2000/08/11 09:30",6302.07833,68.86,TRADE
VIC1,"2000/08/11 10:00",6245.84333,67.39,TRADE
VIC1,"2000/08/11 10:30",6202.69,67.38,TRADE
VIC1,"2000/08/11 11:00",6213.43167,68.63,TRADE
VIC1,"2000/08/11 11:30",6220.94833,64.17,TRADE
VIC1,"2000/08/11 12:00",6174.47667,55.58,TRADE
VIC1,"2000/08/11 12:30",6105.00833,61.12,TRADE
VIC1,"2000/08/11 13:00",6066.19833,45.53,TRADE
VIC1,"2000/08/11 13:30",6127.435,55,TRADE
VIC1,"2000/08/11 14:00",6091.11333,46.94,TRADE
VIC1,"2000/08/11 14:30",5992.77833,44.46,TRADE
VIC1,"2000/08/11 15:00",5994.99167,43.83,TRADE
VIC1,"2000/08/11 15:30",5933.20667,43.25,TRADE
VIC1,"2000/08/11 16:00",5892.56,41.25,TRADE
VIC1,"2000/08/11 16:30",5901.625,41.48,TRADE
VIC1,"2000/08/11 17:00",5952.74333,41.98,TRADE
VIC1,"2000/08/11 17:30",6070.27333,48.58,TRADE
VIC1,"2000/08/11 18:00",6293.11667,60.22,TRADE
VIC1,"2000/08/11 18:30",6336.86333,72.72,TRADE
VIC1,"2000/08/11 19:00",6227.98333,71.1,TRADE
VIC1,"2000/08/11 19:30",6036.115,67.61,TRADE
VIC1,"2000/08/11 20:00",5951.68667,66.96,TRADE
VIC1,"2000/08/11 20:30",5751.59833,47.47,TRADE
VIC1,"2000/08/11 21:00",5753.27,47.7,TRADE
VIC1,"2000/08/11 21:30",5592.78,46.53,TRADE
VIC1,"2000/08/11 22:00",5444.64667,40.94,TRADE
VIC1,"2000/08/11 22:30",5406.38667,59.8,TRADE
VIC1,"2000/08/11 23:00",5306.07,56.08,TRADE
VIC1,"2000/08/11 23:30",5773.46,90,TRADE
VIC1,"2000/08/12 00:00",5662.82833,69.2,TRADE
VIC1,"2000/08/12 00:30",5483.54667,72.15,TRADE
VIC1,"2000/08/12 01:00",5349.47,45.84,TRADE
VIC1,"2000/08/12 01:30",5573.70167,92.47,TRADE
VIC1,"2000/08/12 02:00",5446.47667,87.78,TRADE
VIC1,"2000/08/12 02:30",5269.06833,50.01,TRADE
VIC1,"2000/08/12 03:00",5080.77333,40.31,TRADE
VIC1,"2000/08/12 03:30",4874.77833,38.88,TRADE
VIC1,"2000/08/12 04:00",4754.31333,33.93,TRADE
VIC1,"2000/08/12 04:30",4625.23,35.07,TRADE
VIC1,"2000/08/12 05:00",4585.93,29.59,TRADE
VIC1,"2000/08/12 05:30",4557.18667,27.33,TRADE
VIC1,"2000/08/12 06:00",4569.01167,27.21,TRADE
VIC1,"2000/08/12 06:30",4701.625,38.2,TRADE
VIC1,"2000/08/12 07:00",4755.065,39.72,TRADE
VIC1,"2000/08/12 07:30",4761.085,34.85,TRADE
VIC1,"2000/08/12 08:00",4879.03333,40.86,TRADE
VIC1,"2000/08/12 08:30",5098.65833,49.8,TRADE
VIC1,"2000/08/12 09:00",5290.43833,59.64,TRADE
VIC1,"2000/08/12 09:30",5384.96167,76.48,TRADE
VIC1,"2000/08/12 10:00",5378.16167,87.06,TRADE
VIC1,"2000/08/12 10:30",5389.74,75.65,TRADE
VIC1,"2000/08/12 11:00",5371.42167,52.7,TRADE
VIC1,"2000/08/12 11:30",5341.31,67.73,TRADE
VIC1,"2000/08/12 12:00",5300.60333,53.1,TRADE
VIC1,"2000/08/12 12:30",5256.47167,51.71,TRADE
VIC1,"2000/08/12 13:00",5212.53333,47.96,TRADE
VIC1,"2000/08/12 13:30",5295.34833,47.67,TRADE
VIC1,"2000/08/12 14:00",5238.21667,42.96,TRADE
VIC1,"2000/08/12 14:30",5185.06833,45.13,TRADE
VIC1,"2000/08/12 15:00",5134.18333,44.81,TRADE
VIC1,"2000/08/12 15:30",5083.38833,46.94,TRADE
VIC1,"2000/08/12 16:00",5090.765,51.97,TRADE
VIC1,"2000/08/12 16:30",5067.98167,48.01,TRADE
VIC1,"2000/08/12 17:00",5185.98,44.39,TRADE
VIC1,"2000/08/12 17:30",5350.54833,73.29,TRADE
VIC1,"2000/08/12 18:00",5617.51,81.47,TRADE
VIC1,"2000/08/12 18:30",5841.00333,105.01,TRADE
VIC1,"2000/08/12 19:00",5728.265,97.49,TRADE
VIC1,"2000/08/12 19:30",5589.61333,66.33,TRADE
VIC1,"2000/08/12 20:00",5446.445,61.1,TRADE
VIC1,"2000/08/12 20:30",5359.25333,52.71,TRADE
VIC1,"2000/08/12 21:00",5292.97333,51.47,TRADE
VIC1,"2000/08/12 21:30",5202.48,47.38,TRADE
VIC1,"2000/08/12 22:00",5133.62667,43.75,TRADE
VIC1,"2000/08/12 22:30",5066.32,48.71,TRADE
VIC1,"2000/08/12 23:00",5056.325,46.36,TRADE
VIC1,"2000/08/12 23:30",5359.07,46.9,TRADE
VIC1,"2000/08/13 00:00",5263.11833,42.99,TRADE
VIC1,"2000/08/13 00:30",5236.78333,55.53,TRADE
VIC1,"2000/08/13 01:00",5108.32167,43.66,TRADE
VIC1,"2000/08/13 01:30",5401.22,78.48,TRADE
VIC1,"2000/08/13 02:00",5280.73167,69.04,TRADE
VIC1,"2000/08/13 02:30",5088.27,45.34,TRADE
VIC1,"2000/08/13 03:00",4905.87167,42.48,TRADE
VIC1,"2000/08/13 03:30",4764.92167,38.22,TRADE
VIC1,"2000/08/13 04:00",4627.44667,30.08,TRADE
VIC1,"2000/08/13 04:30",4494.52333,30.01,TRADE
VIC1,"2000/08/13 05:00",4398.51,27.67,TRADE
VIC1,"2000/08/13 05:30",4312.21167,20.08,TRADE
VIC1,"2000/08/13 06:00",4311.89667,24.9,TRADE
VIC1,"2000/08/13 06:30",4321.04333,22.64,TRADE
VIC1,"2000/08/13 07:00",4363.09333,25.34,TRADE
VIC1,"2000/08/13 07:30",4246.61167,26.04,TRADE
VIC1,"2000/08/13 08:00",4376.09833,30.26,TRADE
VIC1,"2000/08/13 08:30",4517.97167,35.53,TRADE
VIC1,"2000/08/13 09:00",4681.84,43.97,TRADE
VIC1,"2000/08/13 09:30",4808.43667,44.95,TRADE
VIC1,"2000/08/13 10:00",4829.5,44.38,TRADE
VIC1,"2000/08/13 10:30",4846.05833,48.3,TRADE
VIC1,"2000/08/13 11:00",4833.24833,45.33,TRADE
VIC1,"2000/08/13 11:30",4798.68167,43.94,TRADE
VIC1,"2000/08/13 12:00",4787.855,38.03,TRADE
VIC1,"2000/08/13 12:30",4748.29833,40.57,TRADE
VIC1,"2000/08/13 13:00",4748.755,48.47,TRADE
VIC1,"2000/08/13 13:30",4757.745,40.14,TRADE
VIC1,"2000/08/13 14:00",4732.36,39.9,TRADE
VIC1,"2000/08/13 14:30",4652.87667,38.03,TRADE
VIC1,"2000/08/13 15:00",4619.03667,37.91,TRADE
VIC1,"2000/08/13 15:30",4638.73333,45.84,TRADE
VIC1,"2000/08/13 16:00",4643.77833,50.23,TRADE
VIC1,"2000/08/13 16:30",4665.59333,49.34,TRADE
VIC1,"2000/08/13 17:00",4796.705,49.68,TRADE
VIC1,"2000/08/13 17:30",5016.03333,44.78,TRADE
VIC1,"2000/08/13 18:00",5373.77667,65.72,TRADE
VIC1,"2000/08/13 18:30",5667.14333,94.4,TRADE
VIC1,"2000/08/13 19:00",5644.125,85.78,TRADE
VIC1,"2000/08/13 19:30",5545.55,61.72,TRADE
VIC1,"2000/08/13 20:00",5508.85,60.97,TRADE
VIC1,"2000/08/13 20:30",5422.69833,57.57,TRADE
VIC1,"2000/08/13 21:00",5368.445,62.89,TRADE
VIC1,"2000/08/13 21:30",5236.46333,52.4,TRADE
VIC1,"2000/08/13 22:00",5090.425,47.84,TRADE
VIC1,"2000/08/13 22:30",4975.87167,46.56,TRADE
VIC1,"2000/08/13 23:00",4895.95667,38.9,TRADE
VIC1,"2000/08/13 23:30",5191.02667,45.97,TRADE
VIC1,"2000/08/14 00:00",5164.22167,38.51,TRADE
VIC1,"2000/08/14 00:30",5103.12667,36.99,TRADE
VIC1,"2000/08/14 01:00",5019.875,35.35,TRADE
VIC1,"2000/08/14 01:30",5276.98333,44.36,TRADE
VIC1,"2000/08/14 02:00",5202.25333,46.92,TRADE
VIC1,"2000/08/14 02:30",5056.05833,41.6,TRADE
VIC1,"2000/08/14 03:00",4928.92833,42.69,TRADE
VIC1,"2000/08/14 03:30",4764.84333,32.3,TRADE
VIC1,"2000/08/14 04:00",4652.96,29.46,TRADE
VIC1,"2000/08/14 04:30",4561.46667,28.3,TRADE
VIC1,"2000/08/14 05:00",4513.40167,28.08,TRADE
VIC1,"2000/08/14 05:30",4604.48833,35.51,TRADE
VIC1,"2000/08/14 06:00",4752.165,41.75,TRADE
VIC1,"2000/08/14 06:30",5141.765,50.64,TRADE
VIC1,"2000/08/14 07:00",5535.05333,57.58,TRADE
VIC1,"2000/08/14 07:30",5729.645,57.81,TRADE
VIC1,"2000/08/14 08:00",6062.16333,86.57,TRADE
VIC1,"2000/08/14 08:30",6157.77,104.07,TRADE
VIC1,"2000/08/14 09:00",6170.91167,94.5,TRADE
VIC1,"2000/08/14 09:30",6122.14167,75.31,TRADE
VIC1,"2000/08/14 10:00",6085.17667,67.41,TRADE
VIC1,"2000/08/14 10:30",6039.61,62.5,TRADE
VIC1,"2000/08/14 11:00",5995.10333,67.32,TRADE
VIC1,"2000/08/14 11:30",6002.26667,71.89,TRADE
VIC1,"2000/08/14 12:00",5924.53,64.22,TRADE
VIC1,"2000/08/14 12:30",5928.79333,59.91,TRADE
VIC1,"2000/08/14 13:00",5937.075,72.41,TRADE
VIC1,"2000/08/14 13:30",6030.485,93.23,TRADE
VIC1,"2000/08/14 14:00",5944.135,98.96,TRADE
VIC1,"2000/08/14 14:30",5941.405,130.04,TRADE
VIC1,"2000/08/14 15:00",5934.19667,100.72,TRADE
VIC1,"2000/08/14 15:30",5908.63,93.69,TRADE
VIC1,"2000/08/14 16:00",5884.09333,196.23,TRADE
VIC1,"2000/08/14 16:30",5901.90667,99.36,TRADE
VIC1,"2000/08/14 17:00",6015.20667,105.85,TRADE
VIC1,"2000/08/14 17:30",6169.03,124.38,TRADE
VIC1,"2000/08/14 18:00",6407.15833,237.06,TRADE
VIC1,"2000/08/14 18:30",6498.37667,388.78,TRADE
VIC1,"2000/08/14 19:00",6360.24167,110.71,TRADE
VIC1,"2000/08/14 19:30",6208.39167,103.23,TRADE
VIC1,"2000/08/14 20:00",6024.15833,89.17,TRADE
VIC1,"2000/08/14 20:30",5939.405,98.06,TRADE
VIC1,"2000/08/14 21:00",5794.84833,69.99,TRADE
VIC1,"2000/08/14 21:30",5659.00833,63.48,TRADE
VIC1,"2000/08/14 22:00",5476.915,49.13,TRADE
VIC1,"2000/08/14 22:30",5328.215,57.97,TRADE
VIC1,"2000/08/14 23:00",5172.99833,47.52,TRADE
VIC1,"2000/08/14 23:30",5502.10333,67.14,TRADE
VIC1,"2000/08/15 00:00",5473.795,56.05,TRADE
VIC1,"2000/08/15 00:30",5386.41333,62.44,TRADE
VIC1,"2000/08/15 01:00",5255.44,47.15,TRADE
VIC1,"2000/08/15 01:30",5607.6,90.35,TRADE
VIC1,"2000/08/15 02:00",5493.825,89.82,TRADE
VIC1,"2000/08/15 02:30",5326.97833,93.58,TRADE
VIC1,"2000/08/15 03:00",5108.765,51.13,TRADE
VIC1,"2000/08/15 03:30",4940.71833,42.54,TRADE
VIC1,"2000/08/15 04:00",4785.375,37.37,TRADE
VIC1,"2000/08/15 04:30",4701.29833,28.25,TRADE
VIC1,"2000/08/15 05:00",4639.39833,27.97,TRADE
VIC1,"2000/08/15 05:30",4726.64167,34.03,TRADE
VIC1,"2000/08/15 06:00",4841.38,41.26,TRADE
VIC1,"2000/08/15 06:30",5189.475,48.68,TRADE
VIC1,"2000/08/15 07:00",5613.965,69.44,TRADE
VIC1,"2000/08/15 07:30",5782.765,53.36,TRADE
VIC1,"2000/08/15 08:00",6127.44333,74.86,TRADE
VIC1,"2000/08/15 08:30",6292.76,98.65,TRADE
VIC1,"2000/08/15 09:00",6254.525,92.76,TRADE
VIC1,"2000/08/15 09:30",6263.58167,82.65,TRADE
VIC1,"2000/08/15 10:00",6205.06,71.83,TRADE
VIC1,"2000/08/15 10:30",6166.26833,73.46,TRADE
VIC1,"2000/08/15 11:00",6140.075,75.23,TRADE
VIC1,"2000/08/15 11:30",6137.67667,71.38,TRADE
VIC1,"2000/08/15 12:00",6178.53667,90.18,TRADE
VIC1,"2000/08/15 12:30",6089.40667,95.94,TRADE
VIC1,"2000/08/15 13:00",5996.98167,80.42,TRADE
VIC1,"2000/08/15 13:30",6169.16167,100.64,TRADE
VIC1,"2000/08/15 14:00",6185.73167,127.36,TRADE
VIC1,"2000/08/15 14:30",6108.19,71.53,TRADE
VIC1,"2000/08/15 15:00",6117.20833,67.46,TRADE
VIC1,"2000/08/15 15:30",6066.27333,64.8,TRADE
VIC1,"2000/08/15 16:00",6037.66,59.39,TRADE
VIC1,"2000/08/15 16:30",6099.83,71.93,TRADE
VIC1,"2000/08/15 17:00",6242.12167,71.64,TRADE
VIC1,"2000/08/15 17:30",6445.78333,80.77,TRADE
VIC1,"2000/08/15 18:00",6642.68667,100.42,TRADE
VIC1,"2000/08/15 18:30",6723.23,110.14,TRADE
VIC1,"2000/08/15 19:00",6621.87,111.82,TRADE
VIC1,"2000/08/15 19:30",6450.04,87.92,TRADE
VIC1,"2000/08/15 20:00",6326.885,76.65,TRADE
VIC1,"2000/08/15 20:30",6217.935,74.71,TRADE
VIC1,"2000/08/15 21:00",6061.64333,64.89,TRADE
VIC1,"2000/08/15 21:30",5924.03667,65.72,TRADE
VIC1,"2000/08/15 22:00",5784.01667,59.77,TRADE
VIC1,"2000/08/15 22:30",5592.965,66.13,TRADE
VIC1,"2000/08/15 23:00",5436.80333,55.43,TRADE
VIC1,"2000/08/15 23:30",5764.91,72.23,TRADE
VIC1,"2000/08/16 00:00",5692.57333,69.83,TRADE
VIC1,"2000/08/16 00:30",5606,63,TRADE
VIC1,"2000/08/16 01:00",5503.46,50.53,TRADE
VIC1,"2000/08/16 01:30",5842.02667,96.45,TRADE
VIC1,"2000/08/16 02:00",5723.54833,97.31,TRADE
VIC1,"2000/08/16 02:30",5511.76167,93.55,TRADE
VIC1,"2000/08/16 03:00",5349.29,73.54,TRADE
VIC1,"2000/08/16 03:30",5144.61667,45.31,TRADE
VIC1,"2000/08/16 04:00",4999.07333,40.06,TRADE
VIC1,"2000/08/16 04:30",4947.27333,37.73,TRADE
VIC1,"2000/08/16 05:00",4862.12,37.44,TRADE
VIC1,"2000/08/16 05:30",4886.79667,39.61,TRADE
VIC1,"2000/08/16 06:00",5056.73167,51.76,TRADE
VIC1,"2000/08/16 06:30",5406.72667,63.42,TRADE
VIC1,"2000/08/16 07:00",5826.20667,83.67,TRADE
VIC1,"2000/08/16 07:30",5943.25167,55.11,TRADE
VIC1,"2000/08/16 08:00",6239.37,81.95,TRADE
VIC1,"2000/08/16 08:30",6377.44,104.72,TRADE
VIC1,"2000/08/16 09:00",6400,102.11,TRADE
VIC1,"2000/08/16 09:30",6398.305,98.64,TRADE
VIC1,"2000/08/16 10:00",6353.005,75.33,TRADE
VIC1,"2000/08/16 10:30",6300.33167,86.33,TRADE
VIC1,"2000/08/16 11:00",6245.12333,77.94,TRADE
VIC1,"2000/08/16 11:30",6197.96833,77.36,TRADE
VIC1,"2000/08/16 12:00",6186.71,74.77,TRADE
VIC1,"2000/08/16 12:30",6090.42,73.85,TRADE
VIC1,"2000/08/16 13:00",6037.835,69.92,TRADE
VIC1,"2000/08/16 13:30",6146.62167,77.82,TRADE
VIC1,"2000/08/16 14:00",6101.41167,75.12,TRADE
VIC1,"2000/08/16 14:30",6061.415,70.84,TRADE
VIC1,"2000/08/16 15:00",6012.94667,74.82,TRADE
VIC1,"2000/08/16 15:30",5907.07333,71.26,TRADE
VIC1,"2000/08/16 16:00",5884.53333,68.25,TRADE
VIC1,"2000/08/16 16:30",5869.57833,71.25,TRADE
VIC1,"2000/08/16 17:00",5984.27167,81.02,TRADE
VIC1,"2000/08/16 17:30",6093.75333,88.64,TRADE
VIC1,"2000/08/16 18:00",6301.03833,373.41,TRADE
VIC1,"2000/08/16 18:30",6488.36833,112.02,TRADE
VIC1,"2000/08/16 19:00",6501.415,111.96,TRADE
VIC1,"2000/08/16 19:30",6350.47833,106.22,TRADE
VIC1,"2000/08/16 20:00",6226.35167,103.89,TRADE
VIC1,"2000/08/16 20:30",6069.98833,88.85,TRADE
VIC1,"2000/08/16 21:00",5959.655,79.7,TRADE
VIC1,"2000/08/16 21:30",5824.53167,83.61,TRADE
VIC1,"2000/08/16 22:00",5702.085,72.21,TRADE
VIC1,"2000/08/16 22:30",5531.95667,64.53,TRADE
VIC1,"2000/08/16 23:00",5359.45667,63,TRADE
VIC1,"2000/08/16 23:30",5697.62333,73.25,TRADE
VIC1,"2000/08/17 00:00",5615.02333,66.8,TRADE
VIC1,"2000/08/17 00:30",5511.38,52.07,TRADE
VIC1,"2000/08/17 01:00",5416.68333,50.49,TRADE
VIC1,"2000/08/17 01:30",5749.68333,76.22,TRADE
VIC1,"2000/08/17 02:00",5661.28167,81.49,TRADE
VIC1,"2000/08/17 02:30",5477.74667,76.87,TRADE
VIC1,"2000/08/17 03:00",5267.53333,53.07,TRADE
VIC1,"2000/08/17 03:30",5114.98,40.38,TRADE
VIC1,"2000/08/17 04:00",4990.77667,39.43,TRADE
VIC1,"2000/08/17 04:30",4892.74333,37.49,TRADE
VIC1,"2000/08/17 05:00",4854.40167,37.33,TRADE
VIC1,"2000/08/17 05:30",4924.545,42.32,TRADE
VIC1,"2000/08/17 06:00",5070.855,46.58,TRADE
VIC1,"2000/08/17 06:30",5446.64667,63.28,TRADE
VIC1,"2000/08/17 07:00",5835.82333,70.33,TRADE
VIC1,"2000/08/17 07:30",6000.945,62.99,TRADE
VIC1,"2000/08/17 08:00",6313.96,87.77,TRADE
VIC1,"2000/08/17 08:30",6429.66,96.01,TRADE
VIC1,"2000/08/17 09:00",6393.30167,89.67,TRADE
VIC1,"2000/08/17 09:30",6362.935,75.49,TRADE
VIC1,"2000/08/17 10:00",6288.78,64.87,TRADE
VIC1,"2000/08/17 10:30",6185.89,57.72,TRADE
VIC1,"2000/08/17 11:00",6103.305,55.29,TRADE
VIC1,"2000/08/17 11:30",6042.36167,47.39,TRADE
VIC1,"2000/08/17 12:00",6023.90833,47.83,TRADE
VIC1,"2000/08/17 12:30",5908.22,44.11,TRADE
VIC1,"2000/08/17 13:00",5898.91,47.87,TRADE
VIC1,"2000/08/17 13:30",5969.09167,49.57,TRADE
VIC1,"2000/08/17 14:00",5936.09,45.81,TRADE
VIC1,"2000/08/17 14:30",5918.25833,44.08,TRADE
VIC1,"2000/08/17 15:00",5856.12,41.49,TRADE
VIC1,"2000/08/17 15:30",5798.96167,41.33,TRADE
VIC1,"2000/08/17 16:00",5723.615,40.97,TRADE
VIC1,"2000/08/17 16:30",5724.42167,41.11,TRADE
VIC1,"2000/08/17 17:00",5762.71,43.37,TRADE
VIC1,"2000/08/17 17:30",5899.77333,45.33,TRADE
VIC1,"2000/08/17 18:00",6193.96667,70.25,TRADE
VIC1,"2000/08/17 18:30",6444.37833,88.02,TRADE
VIC1,"2000/08/17 19:00",6403.80333,87.73,TRADE
VIC1,"2000/08/17 19:30",6309.105,77.42,TRADE
VIC1,"2000/08/17 20:00",6174.56167,73.48,TRADE
VIC1,"2000/08/17 20:30",6093.68167,73.65,TRADE
VIC1,"2000/08/17 21:00",5966.12667,69.23,TRADE
VIC1,"2000/08/17 21:30",5826.035,75.85,TRADE
VIC1,"2000/08/17 22:00",5643.24333,61.63,TRADE
VIC1,"2000/08/17 22:30",5504.16333,78.63,TRADE
VIC1,"2000/08/17 23:00",5389.56333,63.87,TRADE
VIC1,"2000/08/17 23:30",5742.665,76.05,TRADE
VIC1,"2000/08/18 00:00",5639.91167,66.4,TRADE
VIC1,"2000/08/18 00:30",5555.32167,59.12,TRADE
VIC1,"2000/08/18 01:00",5416.06167,46.3,TRADE
VIC1,"2000/08/18 01:30",5738,65.96,TRADE
VIC1,"2000/08/18 02:00",5623.46167,60.25,TRADE
VIC1,"2000/08/18 02:30",5427.295,58.01,TRADE
VIC1,"2000/08/18 03:00",5229.745,46.52,TRADE
VIC1,"2000/08/18 03:30",5107.75667,44.27,TRADE
VIC1,"2000/08/18 04:00",4956.12333,38.86,TRADE
VIC1,"2000/08/18 04:30",4883.685,35.86,TRADE
VIC1,"2000/08/18 05:00",4815.30667,30.31,TRADE
VIC1,"2000/08/18 05:30",4900.98333,38.82,TRADE
VIC1,"2000/08/18 06:00",5026.055,41.89,TRADE
VIC1,"2000/08/18 06:30",5391.91333,48.09,TRADE
VIC1,"2000/08/18 07:00",5780.65167,56.68,TRADE
VIC1,"2000/08/18 07:30",5975.96667,50.58,TRADE
VIC1,"2000/08/18 08:00",6229.63167,64.18,TRADE
VIC1,"2000/08/18 08:30",6340.455,76.05,TRADE
VIC1,"2000/08/18 09:00",6308.35667,75.78,TRADE
VIC1,"2000/08/18 09:30",6315.145,67.79,TRADE
VIC1,"2000/08/18 10:00",6222.19,64.52,TRADE
VIC1,"2000/08/18 10:30",6177.44667,59.96,TRADE
VIC1,"2000/08/18 11:00",6100.74333,51.92,TRADE
VIC1,"2000/08/18 11:30",5983.065,41.9,TRADE
VIC1,"2000/08/18 12:00",5918.765,41.23,TRADE
VIC1,"2000/08/18 12:30",5861.34167,40.87,TRADE
VIC1,"2000/08/18 13:00",5808.96833,40.61,TRADE
VIC1,"2000/08/18 13:30",5892.695,40.95,TRADE
VIC1,"2000/08/18 14:00",5848.4,41,TRADE
VIC1,"2000/08/18 14:30",5788.06667,40.82,TRADE
VIC1,"2000/08/18 15:00",5722.575,40.56,TRADE
VIC1,"2000/08/18 15:30",5611.74833,40.65,TRADE
VIC1,"2000/08/18 16:00",5594.73667,40.63,TRADE
VIC1,"2000/08/18 16:30",5591.67167,40.93,TRADE
VIC1,"2000/08/18 17:00",5682.54667,41.98,TRADE
VIC1,"2000/08/18 17:30",5809.98333,49.78,TRADE
VIC1,"2000/08/18 18:00",6073.385,60.69,TRADE
VIC1,"2000/08/18 18:30",6174.355,66.57,TRADE
VIC1,"2000/08/18 19:00",6144.03,61.9,TRADE
VIC1,"2000/08/18 19:30",6044.30167,50.72,TRADE
VIC1,"2000/08/18 20:00",5908.57167,54.4,TRADE
VIC1,"2000/08/18 20:30",5798.085,50.44,TRADE
VIC1,"2000/08/18 21:00",5637.55333,46.97,TRADE
VIC1,"2000/08/18 21:30",5497.98667,50.63,TRADE
VIC1,"2000/08/18 22:00",5334.14333,41.73,TRADE
VIC1,"2000/08/18 22:30",5297.71,60.83,TRADE
VIC1,"2000/08/18 23:00",5228.24167,52.29,TRADE
VIC1,"2000/08/18 23:30",5683.30667,87.89,TRADE
VIC1,"2000/08/19 00:00",5597.54833,74.5,TRADE
VIC1,"2000/08/19 00:30",5467.09,63.87,TRADE
VIC1,"2000/08/19 01:00",5316.60167,59.04,TRADE
VIC1,"2000/08/19 01:30",5537.50333,72.06,TRADE
VIC1,"2000/08/19 02:00",5406.125,58.03,TRADE
VIC1,"2000/08/19 02:30",5233.36333,57.86,TRADE
VIC1,"2000/08/19 03:00",5048.98333,48.99,TRADE
VIC1,"2000/08/19 03:30",4860.325,38.44,TRADE
VIC1,"2000/08/19 04:00",4711.57833,34.83,TRADE
VIC1,"2000/08/19 04:30",4627.15833,34.26,TRADE
VIC1,"2000/08/19 05:00",4551.02667,33.67,TRADE
VIC1,"2000/08/19 05:30",4534.93,31.46,TRADE
VIC1,"2000/08/19 06:00",4577.73833,31.55,TRADE
VIC1,"2000/08/19 06:30",4707.00833,33.87,TRADE
VIC1,"2000/08/19 07:00",4773.07333,35.02,TRADE
VIC1,"2000/08/19 07:30",4769.85,28.68,TRADE
VIC1,"2000/08/19 08:00",4905.70167,41.72,TRADE
VIC1,"2000/08/19 08:30",5115.475,48.9,TRADE
VIC1,"2000/08/19 09:00",5247.94333,57.11,TRADE
VIC1,"2000/08/19 09:30",5321.32167,62.7,TRADE
VIC1,"2000/08/19 10:00",5311.62833,53.52,TRADE
VIC1,"2000/08/19 10:30",5288.85833,52.23,TRADE
VIC1,"2000/08/19 11:00",5220.75167,46.2,TRADE
VIC1,"2000/08/19 11:30",5156.10833,39.4,TRADE
VIC1,"2000/08/19 12:00",5088.94667,38.99,TRADE
VIC1,"2000/08/19 12:30",5014.865,35.4,TRADE
VIC1,"2000/08/19 13:00",4983.595,33.31,TRADE
VIC1,"2000/08/19 13:30",5017.15167,31.63,TRADE
VIC1,"2000/08/19 14:00",4982.28833,29.97,TRADE
VIC1,"2000/08/19 14:30",4931.245,25.77,TRADE
VIC1,"2000/08/19 15:00",4851.88167,19.43,TRADE
VIC1,"2000/08/19 15:30",4856.03167,19.54,TRADE
VIC1,"2000/08/19 16:00",4876.91667,21.18,TRADE
VIC1,"2000/08/19 16:30",4895.15833,18.19,TRADE
VIC1,"2000/08/19 17:00",5026.12167,21.2,TRADE
VIC1,"2000/08/19 17:30",5212.555,24.22,TRADE
VIC1,"2000/08/19 18:00",5523.52,42.62,TRADE
VIC1,"2000/08/19 18:30",5728.74,54.55,TRADE
VIC1,"2000/08/19 19:00",5704.95667,54.89,TRADE
VIC1,"2000/08/19 19:30",5577.86167,53.77,TRADE
VIC1,"2000/08/19 20:00",5447.365,53.92,TRADE
VIC1,"2000/08/19 20:30",5281.475,38.88,TRADE
VIC1,"2000/08/19 21:00",5224.195,38.22,TRADE
VIC1,"2000/08/19 21:30",5157.14333,37.2,TRADE
VIC1,"2000/08/19 22:00",5056.34,32.85,TRADE
VIC1,"2000/08/19 22:30",5016.50333,38.76,TRADE
VIC1,"2000/08/19 23:00",4957.39667,37.81,TRADE
VIC1,"2000/08/19 23:30",5300.87167,49.84,TRADE
VIC1,"2000/08/20 00:00",5281.225,42.63,TRADE
VIC1,"2000/08/20 00:30",5191.15833,39.83,TRADE
VIC1,"2000/08/20 01:00",5054.81,38.77,TRADE
VIC1,"2000/08/20 01:30",5358.46167,44.48,TRADE
VIC1,"2000/08/20 02:00",5219.62,43.86,TRADE
VIC1,"2000/08/20 02:30",5045.08667,42.81,TRADE
VIC1,"2000/08/20 03:00",4843.99667,36.71,TRADE
VIC1,"2000/08/20 03:30",4728.42167,26.27,TRADE
VIC1,"2000/08/20 04:00",4554.25333,17.1,TRADE
VIC1,"2000/08/20 04:30",4434.635,16.56,TRADE
VIC1,"2000/08/20 05:00",4342.89833,14.54,TRADE
VIC1,"2000/08/20 05:30",4292.055,14.31,TRADE
VIC1,"2000/08/20 06:00",4258.05667,14.08,TRADE
VIC1,"2000/08/20 06:30",4300.07333,14.34,TRADE
VIC1,"2000/08/20 07:00",4358.72,13.91,TRADE
VIC1,"2000/08/20 07:30",4295.06833,13.64,TRADE
VIC1,"2000/08/20 08:00",4350.53167,14.79,TRADE
VIC1,"2000/08/20 08:30",4560.19333,26.22,TRADE
VIC1,"2000/08/20 09:00",4634.92833,31.87,TRADE
VIC1,"2000/08/20 09:30",4746.955,37.63,TRADE
VIC1,"2000/08/20 10:00",4788.61833,38.01,TRADE
VIC1,"2000/08/20 10:30",4770.37667,32.62,TRADE
VIC1,"2000/08/20 11:00",4756.04833,29.44,TRADE
VIC1,"2000/08/20 11:30",4800.955,30.05,TRADE
VIC1,"2000/08/20 12:00",4806.60667,30.54,TRADE
VIC1,"2000/08/20 12:30",4827.64667,29.38,TRADE
VIC1,"2000/08/20 13:00",4811.175,29.09,TRADE
VIC1,"2000/08/20 13:30",4895.66833,29.72,TRADE
VIC1,"2000/08/20 14:00",4868.22167,29.08,TRADE
VIC1,"2000/08/20 14:30",4825.46167,28.09,TRADE
VIC1,"2000/08/20 15:00",4800.49667,26.21,TRADE
VIC1,"2000/08/20 15:30",4781.69667,20.68,TRADE
VIC1,"2000/08/20 16:00",4862.63167,24.55,TRADE
VIC1,"2000/08/20 16:30",4886.63833,25.48,TRADE
VIC1,"2000/08/20 17:00",4989.3,25.26,TRADE
VIC1,"2000/08/20 17:30",5163.55333,33.55,TRADE
VIC1,"2000/08/20 18:00",5382.50167,48.19,TRADE
VIC1,"2000/08/20 18:30",5639.23333,69.65,TRADE
VIC1,"2000/08/20 19:00",5700.24,86.38,TRADE
VIC1,"2000/08/20 19:30",5655.925,67.3,TRADE
VIC1,"2000/08/20 20:00",5543.10167,61.94,TRADE
VIC1,"2000/08/20 20:30",5484.50833,59.95,TRADE
VIC1,"2000/08/20 21:00",5375.095,55,TRADE
VIC1,"2000/08/20 21:30",5231.11167,49.02,TRADE
VIC1,"2000/08/20 22:00",5084.27,37.42,TRADE
VIC1,"2000/08/20 22:30",4992.72,47.3,TRADE
VIC1,"2000/08/20 23:00",4884.85167,42.24,TRADE
VIC1,"2000/08/20 23:30",5147.54,44.25,TRADE
VIC1,"2000/08/21 00:00",5132.06167,38.28,TRADE
VIC1,"2000/08/21 00:30",5075.31333,33.54,TRADE
VIC1,"2000/08/21 01:00",4964.99333,35.88,TRADE
VIC1,"2000/08/21 01:30",5290.75167,48.22,TRADE
VIC1,"2000/08/21 02:00",5242.3,43.86,TRADE
VIC1,"2000/08/21 02:30",5075.435,44.96,TRADE
VIC1,"2000/08/21 03:00",4928.54333,37.06,TRADE
VIC1,"2000/08/21 03:30",4748.40833,27.85,TRADE
VIC1,"2000/08/21 04:00",4685.02667,23.24,TRADE
VIC1,"2000/08/21 04:30",4568.675,27.49,TRADE
VIC1,"2000/08/21 05:00",4546.44,26.81,TRADE
VIC1,"2000/08/21 05:30",4613.66667,29.46,TRADE
VIC1,"2000/08/21 06:00",4734.485,37.04,TRADE
VIC1,"2000/08/21 06:30",5128.405,55.05,TRADE
VIC1,"2000/08/21 07:00",5489.82333,64.3,TRADE
VIC1,"2000/08/21 07:30",5726.32667,50.51,TRADE
VIC1,"2000/08/21 08:00",6021.42667,65.77,TRADE
VIC1,"2000/08/21 08:30",6168.99667,85.35,TRADE
VIC1,"2000/08/21 09:00",6144.7,78.77,TRADE
VIC1,"2000/08/21 09:30",6136.49,65.74,TRADE
VIC1,"2000/08/21 10:00",6017.97333,57.89,TRADE
VIC1,"2000/08/21 10:30",5973.78667,46.27,TRADE
VIC1,"2000/08/21 11:00",5910.275,47.56,TRADE
VIC1,"2000/08/21 11:30",5884.985,42.55,TRADE
VIC1,"2000/08/21 12:00",5849.755,47.45,TRADE
VIC1,"2000/08/21 12:30",5829.71667,45.79,TRADE
VIC1,"2000/08/21 13:00",5842.57833,63.27,TRADE
VIC1,"2000/08/21 13:30",5979.86667,75.61,TRADE
VIC1,"2000/08/21 14:00",5926.785,49.82,TRADE
VIC1,"2000/08/21 14:30",5908.39667,97.07,TRADE
VIC1,"2000/08/21 15:00",5893.36167,81.02,TRADE
VIC1,"2000/08/21 15:30",5828.86333,47.32,TRADE
VIC1,"2000/08/21 16:00",5775.13833,44.32,TRADE
VIC1,"2000/08/21 16:30",5794.65833,44.85,TRADE
VIC1,"2000/08/21 17:00",5861.00167,45.51,TRADE
VIC1,"2000/08/21 17:30",5960.8,52.02,TRADE
VIC1,"2000/08/21 18:00",6129.43333,58.6,TRADE
VIC1,"2000/08/21 18:30",6359.55167,70.01,TRADE
VIC1,"2000/08/21 19:00",6317.71833,69.14,TRADE
VIC1,"2000/08/21 19:30",6212.60833,69.35,TRADE
VIC1,"2000/08/21 20:00",6085.53,67.94,TRADE
VIC1,"2000/08/21 20:30",5973.755,63.77,TRADE
VIC1,"2000/08/21 21:00",5823.685,51.99,TRADE
VIC1,"2000/08/21 21:30",5679.27333,57.42,TRADE
VIC1,"2000/08/21 22:00",5555.45667,58.09,TRADE
VIC1,"2000/08/21 22:30",5372.66667,50.4,TRADE
VIC1,"2000/08/21 23:00",5185.74167,42.89,TRADE
VIC1,"2000/08/21 23:30",5555.47833,64.05,TRADE
VIC1,"2000/08/22 00:00",5517.04167,61.71,TRADE
VIC1,"2000/08/22 00:30",5375.08667,53.92,TRADE
VIC1,"2000/08/22 01:00",5264.73,52.62,TRADE
VIC1,"2000/08/22 01:30",5607.05667,93.1,TRADE
VIC1,"2000/08/22 02:00",5438.975,66.73,TRADE
VIC1,"2000/08/22 02:30",5275.875,46.54,TRADE
VIC1,"2000/08/22 03:00",5097.82,43.7,TRADE
VIC1,"2000/08/22 03:30",4926.03667,33.55,TRADE
VIC1,"2000/08/22 04:00",4795.66667,29.69,TRADE
VIC1,"2000/08/22 04:30",4706.11833,28.98,TRADE
VIC1,"2000/08/22 05:00",4656.53667,27.96,TRADE
VIC1,"2000/08/22 05:30",4709.51,34.57,TRADE
VIC1,"2000/08/22 06:00",4834.73,37.35,TRADE
VIC1,"2000/08/22 06:30",5204.86167,52.95,TRADE
VIC1,"2000/08/22 07:00",5586.795,58.09,TRADE
VIC1,"2000/08/22 07:30",5801.895,48.93,TRADE
VIC1,"2000/08/22 08:00",6092.27333,63.81,TRADE
VIC1,"2000/08/22 08:30",6229.40833,89.38,TRADE
VIC1,"2000/08/22 09:00",6239.95667,88.22,TRADE
VIC1,"2000/08/22 09:30",6296.29,80.11,TRADE
VIC1,"2000/08/22 10:00",6213.14667,70.36,TRADE
VIC1,"2000/08/22 10:30",6199.826,74.89,TRADE
VIC1,"2000/08/22 11:00",6142.71167,67.29,TRADE
VIC1,"2000/08/22 11:30",6149.29833,60.22,TRADE
VIC1,"2000/08/22 12:00",6164.2,55.08,TRADE
VIC1,"2000/08/22 12:30",6102.67,55.67,TRADE
VIC1,"2000/08/22 13:00",6047.00167,42.69,TRADE
VIC1,"2000/08/22 13:30",6224.29833,61.83,TRADE
VIC1,"2000/08/22 14:00",6177.89833,64.09,TRADE
VIC1,"2000/08/22 14:30",6190.545,71.93,TRADE
VIC1,"2000/08/22 15:00",6198.93167,90.48,TRADE
VIC1,"2000/08/22 15:30",6144.36833,99.29,TRADE
VIC1,"2000/08/22 16:00",6148.58833,98.72,TRADE
VIC1,"2000/08/22 16:30",6160.07833,87.37,TRADE
VIC1,"2000/08/22 17:00",6270.37,96.86,TRADE
VIC1,"2000/08/22 17:30",6313.66333,60.26,TRADE
VIC1,"2000/08/22 18:00",6524.23833,74.37,TRADE
VIC1,"2000/08/22 18:30",6609.96333,92.34,TRADE
VIC1,"2000/08/22 19:00",6510.16667,76.19,TRADE
VIC1,"2000/08/22 19:30",6368.99167,68.13,TRADE
VIC1,"2000/08/22 20:00",6218.89333,65.99,TRADE
VIC1,"2000/08/22 20:30",6122.56333,65.55,TRADE
VIC1,"2000/08/22 21:00",5958.21667,49.92,TRADE
VIC1,"2000/08/22 21:30",5795.10667,60.53,TRADE
VIC1,"2000/08/22 22:00",5660.045,61.56,TRADE
VIC1,"2000/08/22 22:30",5516.26833,58.21,TRADE
VIC1,"2000/08/22 23:00",5346.67833,54.07,TRADE
VIC1,"2000/08/22 23:30",5692.11,108.13,TRADE
VIC1,"2000/08/23 00:00",5648.61833,72.25,TRADE
VIC1,"2000/08/23 00:30",5573.64667,82.51,TRADE
VIC1,"2000/08/23 01:00",5417.64167,62.79,TRADE
VIC1,"2000/08/23 01:30",5717.19167,120.45,TRADE
VIC1,"2000/08/23 02:00",5636.935,101.48,TRADE
VIC1,"2000/08/23 02:30",5379.35667,78.33,TRADE
VIC1,"2000/08/23 03:00",5189.44,40.82,TRADE
VIC1,"2000/08/23 03:30",5090.13833,38.86,TRADE
VIC1,"2000/08/23 04:00",4962.19167,36.85,TRADE
VIC1,"2000/08/23 04:30",4860.925,29.49,TRADE
VIC1,"2000/08/23 05:00",4810.08,28.72,TRADE
VIC1,"2000/08/23 05:30",4874.615,33.61,TRADE
VIC1,"2000/08/23 06:00",4993.05,39.59,TRADE
VIC1,"2000/08/23 06:30",5378.45833,53.85,TRADE
VIC1,"2000/08/23 07:00",5758.05,57.39,TRADE
VIC1,"2000/08/23 07:30",5886.07167,45.68,TRADE
VIC1,"2000/08/23 08:00",6179.53667,53.95,TRADE
VIC1,"2000/08/23 08:30",6278.635,68.85,TRADE
VIC1,"2000/08/23 09:00",6281.32667,71.4,TRADE
VIC1,"2000/08/23 09:30",6315.895,62.96,TRADE
VIC1,"2000/08/23 10:00",6228.02833,47.83,TRADE
VIC1,"2000/08/23 10:30",6154.77333,45.85,TRADE
VIC1,"2000/08/23 11:00",6123.86833,49.06,TRADE
VIC1,"2000/08/23 11:30",6056.69333,40.76,TRADE
VIC1,"2000/08/23 12:00",6037.61833,40.6,TRADE
VIC1,"2000/08/23 12:30",5960.145,40.44,TRADE
VIC1,"2000/08/23 13:00",5938.63833,40.36,TRADE
VIC1,"2000/08/23 13:30",6008.90333,40.64,TRADE
VIC1,"2000/08/23 14:30",5913.23,41.3,TRADE
VIC1,"2000/08/23 15:00",5920.97333,40.29,TRADE
VIC1,"2000/08/23 15:30",5888.70167,39.84,TRADE
VIC1,"2000/08/23 16:00",5890.03833,33.76,TRADE
VIC1,"2000/08/23 16:30",5890.01667,37.3,TRADE
VIC1,"2000/08/23 17:00",5943.13833,39.63,TRADE
VIC1,"2000/08/23 17:30",6067.9,38.95,TRADE
VIC1,"2000/08/23 18:00",6243.74,48.33,TRADE
VIC1,"2000/08/23 18:30",6465.50167,66.87,TRADE
VIC1,"2000/08/23 19:00",6404.35167,70.35,TRADE
VIC1,"2000/08/23 19:30",6273.47667,64.42,TRADE
VIC1,"2000/08/23 20:00",6179.30167,60.69,TRADE
VIC1,"2000/08/23 20:30",6074.43,57.99,TRADE
VIC1,"2000/08/23 21:00",5952.71667,52.11,TRADE
VIC1,"2000/08/23 21:30",5818.21167,56.88,TRADE
VIC1,"2000/08/23 22:00",5662.88,55.87,TRADE
VIC1,"2000/08/23 22:30",5514.015,67.15,TRADE
VIC1,"2000/08/23 23:00",5359.01333,56.51,TRADE
VIC1,"2000/08/23 23:30",5688.81,85.34,TRADE
VIC1,"2000/08/24 00:00",5602.22833,74.79,TRADE
VIC1,"2000/08/24 00:30",5507.63667,65.52,TRADE
VIC1,"2000/08/24 01:00",5394.26667,54.52,TRADE
VIC1,"2000/08/24 01:30",5723.69167,67.75,TRADE
VIC1,"2000/08/24 02:00",5625.89833,55.84,TRADE
VIC1,"2000/08/24 02:30",5419.88667,47.18,TRADE
VIC1,"2000/08/24 03:00",5283.16833,42.35,TRADE
VIC1,"2000/08/24 03:30",5082.82,38.69,TRADE
VIC1,"2000/08/24 04:00",4909.30167,33.96,TRADE
VIC1,"2000/08/24 04:30",4833.255,27.95,TRADE
VIC1,"2000/08/24 05:00",4836.72167,28.07,TRADE
VIC1,"2000/08/24 05:30",4881.94,32.44,TRADE
VIC1,"2000/08/24 06:00",5031.57833,34.26,TRADE
VIC1,"2000/08/24 06:30",5359.96333,55.23,TRADE
VIC1,"2000/08/24 07:00",5796.05667,91.64,TRADE
VIC1,"2000/08/24 07:30",5942.25667,53.58,TRADE
VIC1,"2000/08/24 08:00",6244.83,73.41,TRADE
VIC1,"2000/08/24 08:30",6353.97667,94.26,TRADE
VIC1,"2000/08/24 09:00",6301.485,75.68,TRADE
VIC1,"2000/08/24 09:30",6356.08167,67.32,TRADE
VIC1,"2000/08/24 10:00",6296.11833,61.62,TRADE
VIC1,"2000/08/24 10:30",6250.095,56.05,TRADE
VIC1,"2000/08/24 11:00",6210.90667,59.96,TRADE
VIC1,"2000/08/24 11:30",6162.27167,51.48,TRADE
VIC1,"2000/08/24 12:00",6153.555,42.74,TRADE
VIC1,"2000/08/24 12:30",6077.03167,45.28,TRADE
VIC1,"2000/08/24 13:00",6039.155,41.58,TRADE
VIC1,"2000/08/24 13:30",6147.135,54.04,TRADE
VIC1,"2000/08/24 14:00",6159.83333,58.94,TRADE
VIC1,"2000/08/24 14:30",6173.57667,62.04,TRADE
VIC1,"2000/08/24 15:00",6124.36667,51.52,TRADE
VIC1,"2000/08/24 15:30",6092.93333,48.91,TRADE
VIC1,"2000/08/24 16:00",6016.80667,41.09,TRADE
VIC1,"2000/08/24 16:30",6040.29833,47.43,TRADE
VIC1,"2000/08/24 17:00",6114.28167,57.54,TRADE
VIC1,"2000/08/24 17:30",6236.79667,57.85,TRADE
VIC1,"2000/08/24 18:00",6512.82833,93.69,TRADE
VIC1,"2000/08/24 18:30",6608.8175,111.75,TRADE
VIC1,"2000/08/24 19:00",6556.16,111.2,TRADE
VIC1,"2000/08/24 19:30",6395.665,92.59,TRADE
VIC1,"2000/08/24 20:00",6283.64167,89.58,TRADE
VIC1,"2000/08/24 20:30",6119.45167,89.91,TRADE
VIC1,"2000/08/24 21:00",5976.00167,84.05,TRADE
VIC1,"2000/08/24 21:30",5835.55333,92.75,TRADE
VIC1,"2000/08/24 22:00",5725.17667,82.92,TRADE
VIC1,"2000/08/24 22:30",5530.55,90.98,TRADE
VIC1,"2000/08/24 23:00",5410.63667,82.77,TRADE
VIC1,"2000/08/24 23:30",5774.57,99.38,TRADE
VIC1,"2000/08/25 00:00",5674.30333,90.46,TRADE
VIC1,"2000/08/25 00:30",5523.75833,68.06,TRADE
VIC1,"2000/08/25 01:00",5427.22333,54.95,TRADE
VIC1,"2000/08/25 01:30",5755.145,64.29,TRADE
VIC1,"2000/08/25 02:00",5615.035,60.34,TRADE
VIC1,"2000/08/25 02:30",5418.18833,47.53,TRADE
VIC1,"2000/08/25 03:00",5232.79167,40.77,TRADE
VIC1,"2000/08/25 03:30",5040.54833,40.4,TRADE
VIC1,"2000/08/25 04:00",4909.185,34.89,TRADE
VIC1,"2000/08/25 04:30",4800.93,27.56,TRADE
VIC1,"2000/08/25 05:00",4740.70833,27.36,TRADE
VIC1,"2000/08/25 05:30",4790.86833,28.86,TRADE
VIC1,"2000/08/25 06:00",4907.46167,34.96,TRADE
VIC1,"2000/08/25 06:30",5285.02,47.53,TRADE
VIC1,"2000/08/25 07:00",5667.045,59.23,TRADE
VIC1,"2000/08/25 07:30",5843.32333,52.05,TRADE
VIC1,"2000/08/25 08:00",6145.23,67.28,TRADE
VIC1,"2000/08/25 08:30",6281.26667,90.96,TRADE
VIC1,"2000/08/25 09:00",6269.49833,91.4,TRADE
VIC1,"2000/08/25 09:30",6268.635,85.16,TRADE
VIC1,"2000/08/25 10:00",6164.92667,69.96,TRADE
VIC1,"2000/08/25 10:30",6155.56833,62.33,TRADE
VIC1,"2000/08/25 11:00",6143.86333,59.73,TRADE
VIC1,"2000/08/25 11:30",6103.12667,53.09,TRADE
VIC1,"2000/08/25 12:00",6070.00333,51.06,TRADE
VIC1,"2000/08/25 12:30",5991.02167,50.76,TRADE
VIC1,"2000/08/25 13:00",5952.56333,41.23,TRADE
VIC1,"2000/08/25 13:30",6023.63,41.47,TRADE
VIC1,"2000/08/25 14:00",5994.97167,41.59,TRADE
VIC1,"2000/08/25 14:30",5946.605,41.33,TRADE
VIC1,"2000/08/25 15:00",5906.82,41.14,TRADE
VIC1,"2000/08/25 15:30",5810.69667,40.69,TRADE
VIC1,"2000/08/25 16:00",5768.34167,36.66,TRADE
VIC1,"2000/08/25 16:30",5774.06167,40.19,TRADE
VIC1,"2000/08/25 17:00",5853.21333,41.22,TRADE
VIC1,"2000/08/25 17:30",5995.35667,44.55,TRADE
VIC1,"2000/08/25 18:00",6129.5,52.76,TRADE
VIC1,"2000/08/25 18:30",6232.885,69.36,TRADE
VIC1,"2000/08/25 19:00",6217.385,71.08,TRADE
VIC1,"2000/08/25 19:30",6098.44667,69.42,TRADE
VIC1,"2000/08/25 20:00",6004.01167,69.07,TRADE
VIC1,"2000/08/25 20:30",5863.32667,54.81,TRADE
VIC1,"2000/08/25 21:00",5770.71833,57.7,TRADE
VIC1,"2000/08/25 21:30",5583.765,53.15,TRADE
VIC1,"2000/08/25 22:00",5462.93667,51.71,TRADE
VIC1,"2000/08/25 22:30",5385.55,67.14,TRADE
VIC1,"2000/08/25 23:00",5344.78167,64.35,TRADE
VIC1,"2000/08/25 23:30",5760.16333,175.77,TRADE
VIC1,"2000/08/26 00:00",5682.29333,72.04,TRADE
VIC1,"2000/08/26 00:30",5493.965,60.42,TRADE
VIC1,"2000/08/26 01:00",5357.79833,51.78,TRADE
VIC1,"2000/08/26 01:30",5608.18,56.54,TRADE
VIC1,"2000/08/26 02:00",5462.575,49.26,TRADE
VIC1,"2000/08/26 02:30",5279.475,35.7,TRADE
VIC1,"2000/08/26 03:00",5120.35333,34.45,TRADE
VIC1,"2000/08/26 03:30",4943.185,28.49,TRADE
VIC1,"2000/08/26 04:00",4788.33667,26.95,TRADE
VIC1,"2000/08/26 04:30",4690.77667,22.27,TRADE
VIC1,"2000/08/26 05:00",4605.49833,19.46,TRADE
VIC1,"2000/08/26 05:30",4622.94167,22.59,TRADE
VIC1,"2000/08/26 06:00",4609.83,21.39,TRADE
VIC1,"2000/08/26 06:30",4746.45333,24.8,TRADE
VIC1,"2000/08/26 07:00",4811.72333,24.76,TRADE
VIC1,"2000/08/26 07:30",4825.09167,33.21,TRADE
VIC1,"2000/08/26 08:00",4969.24667,52.02,TRADE
VIC1,"2000/08/26 08:30",5200.475,69.72,TRADE
VIC1,"2000/08/26 09:00",5312.27,82.83,TRADE
VIC1,"2000/08/26 09:30",5391.55667,86.93,TRADE
VIC1,"2000/08/26 10:00",5394.43667,85.01,TRADE
VIC1,"2000/08/26 10:30",5332.70667,78.75,TRADE
VIC1,"2000/08/26 11:00",5316.99,79.75,TRADE
VIC1,"2000/08/26 11:30",5253.40667,70.56,TRADE
VIC1,"2000/08/26 12:00",5223.18167,75.69,TRADE
VIC1,"2000/08/26 12:30",5155.29333,56.94,TRADE
VIC1,"2000/08/26 13:00",5133.285,52.57,TRADE
VIC1,"2000/08/26 13:30",5134.83,50.63,TRADE
VIC1,"2000/08/26 14:00",5081.52833,48.33,TRADE
VIC1,"2000/08/26 14:30",5025.185,38.4,TRADE
VIC1,"2000/08/26 15:00",4977.32333,38.14,TRADE
VIC1,"2000/08/26 15:30",4963.92167,37.94,TRADE
VIC1,"2000/08/26 16:00",4937.30667,37.3,TRADE
VIC1,"2000/08/26 16:30",4910.28333,35.24,TRADE
VIC1,"2000/08/26 17:00",4996.79833,32.66,TRADE
VIC1,"2000/08/26 17:30",5146.09,31.62,TRADE
VIC1,"2000/08/26 18:00",5462.8,49.24,TRADE
VIC1,"2000/08/26 18:30",5666.37167,61.99,TRADE
VIC1,"2000/08/26 19:00",5683.14,67.61,TRADE
VIC1,"2000/08/26 19:30",5562.94667,60.71,TRADE
VIC1,"2000/08/26 20:00",5449.74,61.49,TRADE
VIC1,"2000/08/26 20:30",5310.91,52.74,TRADE
VIC1,"2000/08/26 21:00",5265.84333,50.72,TRADE
VIC1,"2000/08/26 21:30",5128.68167,49.84,TRADE
VIC1,"2000/08/26 22:00",5068.78667,49.35,TRADE
VIC1,"2000/08/26 22:30",4969.89,49.22,TRADE
VIC1,"2000/08/26 23:00",4978.185,48.32,TRADE
VIC1,"2000/08/26 23:30",5275.38667,50.22,TRADE
VIC1,"2000/08/27 00:00",5286.15667,43.74,TRADE
VIC1,"2000/08/27 00:30",5202.54,38.5,TRADE
VIC1,"2000/08/27 01:00",5101.52,34.49,TRADE
VIC1,"2000/08/27 01:30",5379.65167,38.91,TRADE
VIC1,"2000/08/27 02:00",5301.81833,34.24,TRADE
VIC1,"2000/08/27 02:30",5080.225,30.5,TRADE
VIC1,"2000/08/27 03:00",4939.10167,25.08,TRADE
VIC1,"2000/08/27 03:30",4758.37667,17.42,TRADE
VIC1,"2000/08/27 04:00",4606.855,14.52,TRADE
VIC1,"2000/08/27 04:30",4510.58,15.03,TRADE
VIC1,"2000/08/27 05:00",4447.755,13.99,TRADE
VIC1,"2000/08/27 05:30",4427.85833,14.83,TRADE
VIC1,"2000/08/27 06:00",4426.485,17.8,TRADE
VIC1,"2000/08/27 06:30",4487.05833,13.49,TRADE
VIC1,"2000/08/27 07:00",4604.03167,15.36,TRADE
VIC1,"2000/08/27 07:30",4497.19667,16.52,TRADE
VIC1,"2000/08/27 08:00",4569.32833,30.97,TRADE
VIC1,"2000/08/27 08:30",4678.76167,42.26,TRADE
VIC1,"2000/08/27 09:00",4737.07,48.73,TRADE
VIC1,"2000/08/27 09:30",4770.12667,41.75,TRADE
VIC1,"2000/08/27 10:00",4790.99833,37.65,TRADE
VIC1,"2000/08/27 10:30",4780.31333,37.15,TRADE
VIC1,"2000/08/27 11:00",4770.21333,35.08,TRADE
VIC1,"2000/08/27 11:30",4743.255,31.81,TRADE
VIC1,"2000/08/27 12:00",4734.44333,31.89,TRADE
VIC1,"2000/08/27 12:30",4712.685,28.69,TRADE
VIC1,"2000/08/27 13:00",4711.75,24.89,TRADE
VIC1,"2000/08/27 13:30",4744.37667,23.97,TRADE
VIC1,"2000/08/27 14:00",4753.375,22.37,TRADE
VIC1,"2000/08/27 14:30",4715.42333,20.19,TRADE
VIC1,"2000/08/27 15:00",4734.3,20.68,TRADE
VIC1,"2000/08/27 15:30",4726.94167,22.13,TRADE
VIC1,"2000/08/27 16:00",4787.23833,23.9,TRADE
VIC1,"2000/08/27 16:30",4807.34333,23.44,TRADE
VIC1,"2000/08/27 17:00",4859.73167,26.6,TRADE
VIC1,"2000/08/27 17:30",5044.99167,37.88,TRADE
VIC1,"2000/08/27 18:00",5217.90167,41.99,TRADE
VIC1,"2000/08/27 18:30",5460.64333,53.07,TRADE
VIC1,"2000/08/27 19:00",5430.74,52.7,TRADE
VIC1,"2000/08/27 19:30",5420.93167,52.43,TRADE
VIC1,"2000/08/27 20:00",5399.745,52.21,TRADE
VIC1,"2000/08/27 20:30",5279.64167,45.74,TRADE
VIC1,"2000/08/27 21:00",5100.67,30.98,TRADE
VIC1,"2000/08/27 21:30",4947.195,22.51,TRADE
VIC1,"2000/08/27 22:00",4836.33333,20.97,TRADE
VIC1,"2000/08/27 22:30",4733.86667,29.99,TRADE
VIC1,"2000/08/27 23:00",4622.06333,30.37,TRADE
VIC1,"2000/08/27 23:30",4995.535,34.71,TRADE
VIC1,"2000/08/28 00:00",4979.36833,31.58,TRADE
VIC1,"2000/08/28 00:30",4979.81333,34.25,TRADE
VIC1,"2000/08/28 01:00",4913.91667,28.86,TRADE
VIC1,"2000/08/28 01:30",5309.045,45.6,TRADE
VIC1,"2000/08/28 02:00",5221.11333,37.71,TRADE
VIC1,"2000/08/28 02:30",5071.46167,29.2,TRADE
VIC1,"2000/08/28 03:00",4945.87167,25.31,TRADE
VIC1,"2000/08/28 03:30",4835.90667,23.61,TRADE
VIC1,"2000/08/28 04:00",4787.86333,25.67,TRADE
VIC1,"2000/08/28 04:30",4760.35333,27.31,TRADE
VIC1,"2000/08/28 05:00",4842.04167,29.74,TRADE
VIC1,"2000/08/28 05:30",5116.33833,40.44,TRADE
VIC1,"2000/08/28 06:00",5497.555,52.19,TRADE
VIC1,"2000/08/28 06:30",6190.78667,1602.92,TRADE
VIC1,"2000/08/28 07:00",6707.31333,4527.21,TRADE
VIC1,"2000/08/28 07:30",6472.39833,97.45,TRADE
VIC1,"2000/08/28 08:00",6358.975,88.09,TRADE
VIC1,"2000/08/28 08:30",6380.94833,83.73,TRADE
VIC1,"2000/08/28 09:00",6325.27333,86.05,TRADE
VIC1,"2000/08/28 09:30",6285.92833,75.27,TRADE
VIC1,"2000/08/28 10:00",6167.85,66.96,TRADE
VIC1,"2000/08/28 10:30",6115.81,58.28,TRADE
VIC1,"2000/08/28 11:00",6058.31,69.49,TRADE
VIC1,"2000/08/28 11:30",5976.61833,57.3,TRADE
VIC1,"2000/08/28 12:00",5930.015,49.55,TRADE
VIC1,"2000/08/28 12:30",5895.81,41.57,TRADE
VIC1,"2000/08/28 13:00",5872.83333,41.52,TRADE
VIC1,"2000/08/28 13:30",5960.84333,50.99,TRADE
VIC1,"2000/08/28 14:00",5892.07,41.91,TRADE
VIC1,"2000/08/28 14:30",5854.31333,42.08,TRADE
VIC1,"2000/08/28 15:00",5834.015,41.27,TRADE
VIC1,"2000/08/28 15:30",5889.77667,65.7,TRADE
VIC1,"2000/08/28 16:00",5935.495,44.55,TRADE
VIC1,"2000/08/28 16:30",5958.28167,41.65,TRADE
VIC1,"2000/08/28 17:00",5985.1,42.28,TRADE
VIC1,"2000/08/28 17:30",6021.885,46.03,TRADE
VIC1,"2000/08/28 18:00",6022.525,53.39,TRADE
VIC1,"2000/08/28 18:30",6129.16667,67.19,TRADE
VIC1,"2000/08/28 19:00",6054.41667,66.95,TRADE
VIC1,"2000/08/28 19:30",6002.175,65.93,TRADE
VIC1,"2000/08/28 20:00",5867.36333,61.71,TRADE
VIC1,"2000/08/28 20:30",5772.21333,54.01,TRADE
VIC1,"2000/08/28 21:00",5606.645,46.76,TRADE
VIC1,"2000/08/28 21:30",5414.83667,34.58,TRADE
VIC1,"2000/08/28 22:00",5197.58,30.6,TRADE
VIC1,"2000/08/28 22:30",5011.31667,42.29,TRADE
VIC1,"2000/08/28 23:00",4861.75333,36.25,TRADE
VIC1,"2000/08/28 23:30",5263.42833,46.34,TRADE
VIC1,"2000/08/29 00:00",5274.95333,41.6,TRADE
VIC1,"2000/08/29 00:30",5275.595,44.79,TRADE
VIC1,"2000/08/29 01:00",5194.49167,44.11,TRADE
VIC1,"2000/08/29 01:30",5535.73167,52.07,TRADE
VIC1,"2000/08/29 02:00",5452.10333,79.53,TRADE
VIC1,"2000/08/29 02:30",5234.05333,44.54,TRADE
VIC1,"2000/08/29 03:00",5079.79167,36,TRADE
VIC1,"2000/08/29 03:30",4943.365,31.53,TRADE
VIC1,"2000/08/29 04:00",4843.855,28.38,TRADE
VIC1,"2000/08/29 04:30",4841.345,29.12,TRADE
VIC1,"2000/08/29 05:00",4921.04333,32.08,TRADE
VIC1,"2000/08/29 05:30",5227.51833,46.6,TRADE
VIC1,"2000/08/29 06:00",5437.725,51.98,TRADE
VIC1,"2000/08/29 06:30",5943.655,768.63,TRADE
VIC1,"2000/08/29 07:00",6481.76,4380.79,TRADE
VIC1,"2000/08/29 07:30",6410.57667,81.79,TRADE
VIC1,"2000/08/29 08:00",6307.84667,55.2,TRADE
VIC1,"2000/08/29 08:30",6311.31833,87.33,TRADE
VIC1,"2000/08/29 09:00",6293.44833,92.33,TRADE
VIC1,"2000/08/29 09:30",6223.33833,70.7,TRADE
VIC1,"2000/08/29 10:00",6212.375,68.96,TRADE
VIC1,"2000/08/29 10:30",6186.305,66.9,TRADE
VIC1,"2000/08/29 11:00",6134.6,68.7,TRADE
VIC1,"2000/08/29 11:30",6063.98,55.03,TRADE
VIC1,"2000/08/29 12:00",5998.33,54.12,TRADE
VIC1,"2000/08/29 12:30",5986.52333,44.41,TRADE
VIC1,"2000/08/29 13:00",5985.675,47.84,TRADE
VIC1,"2000/08/29 13:30",6013.125,49.58,TRADE
VIC1,"2000/08/29 14:00",5975.18,58.34,TRADE
VIC1,"2000/08/29 14:30",5918.35,43.27,TRADE
VIC1,"2000/08/29 15:00",5899.81667,43.95,TRADE
VIC1,"2000/08/29 15:30",6013.225,68.76,TRADE
VIC1,"2000/08/29 16:00",6055.71167,65.93,TRADE
VIC1,"2000/08/29 16:30",6119.04167,57.17,TRADE
VIC1,"2000/08/29 17:00",6089.405,44.05,TRADE
VIC1,"2000/08/29 17:30",6008.16667,46.55,TRADE
VIC1,"2000/08/29 18:00",6071.68,62.07,TRADE
VIC1,"2000/08/29 18:30",6156.8,73.8,TRADE
VIC1,"2000/08/29 19:00",6114.63167,71.7,TRADE
VIC1,"2000/08/29 19:30",6033.39833,70.67,TRADE
VIC1,"2000/08/29 20:00",5902.9,68.02,TRADE
VIC1,"2000/08/29 20:30",5784.58667,62.21,TRADE
VIC1,"2000/08/29 21:00",5586.135,46.9,TRADE
VIC1,"2000/08/29 21:30",5376.85833,36.99,TRADE
VIC1,"2000/08/29 22:00",5144.05167,27.38,TRADE
VIC1,"2000/08/29 22:30",4946.635,37.95,TRADE
VIC1,"2000/08/29 23:00",4850.61167,38.49,TRADE
VIC1,"2000/08/29 23:30",5301.71167,49.36,TRADE
VIC1,"2000/08/30 00:00",5317.03,43.74,TRADE
VIC1,"2000/08/30 00:30",5317.91333,48.11,TRADE
VIC1,"2000/08/30 01:00",5204.61833,42.82,TRADE
VIC1,"2000/08/30 01:30",5526.105,49.62,TRADE
VIC1,"2000/08/30 02:00",5430.72,43.38,TRADE
VIC1,"2000/08/30 02:30",5249.345,44.86,TRADE
VIC1,"2000/08/30 03:00",5092.81333,43.23,TRADE
VIC1,"2000/08/30 03:30",4989.59333,39.33,TRADE
VIC1,"2000/08/30 04:00",4868.54667,30.73,TRADE
VIC1,"2000/08/30 04:30",4915.03333,32.93,TRADE
VIC1,"2000/08/30 05:00",4992.59167,42.03,TRADE
VIC1,"2000/08/30 05:30",5348.01167,58.34,TRADE
VIC1,"2000/08/30 06:00",5670.83167,57.46,TRADE
VIC1,"2000/08/30 06:30",6375.09667,1545.29,TRADE
VIC1,"2000/08/30 07:00",6861.31833,3117.78,TRADE
VIC1,"2000/08/30 07:30",6501.67667,95.72,TRADE
VIC1,"2000/08/30 08:00",6377.00833,52.34,TRADE
VIC1,"2000/08/30 08:30",6289.28333,84.36,TRADE
VIC1,"2000/08/30 09:00",6283.445,84.49,TRADE
VIC1,"2000/08/30 09:30",6201.22833,63.31,TRADE
VIC1,"2000/08/30 10:00",6148.605,58.12,TRADE
VIC1,"2000/08/30 10:30",6117.81333,52.53,TRADE
VIC1,"2000/08/30 11:00",6051.02333,48,TRADE
VIC1,"2000/08/30 11:30",5901.79667,41.13,TRADE
VIC1,"2000/08/30 12:00",5834.365,37.54,TRADE
VIC1,"2000/08/30 12:30",5866.72667,41.07,TRADE
VIC1,"2000/08/30 13:00",5859.125,40.61,TRADE
VIC1,"2000/08/30 13:30",5929.54833,43,TRADE
VIC1,"2000/08/30 14:00",5952.76667,61.16,TRADE
VIC1,"2000/08/30 14:30",5909.58,53.61,TRADE
VIC1,"2000/08/30 15:00",5874.925,54.44,TRADE
VIC1,"2000/08/30 15:30",5964.74667,46.11,TRADE
VIC1,"2000/08/30 16:00",6065.695,65.05,TRADE
VIC1,"2000/08/30 16:30",6162.19167,72.26,TRADE
VIC1,"2000/08/30 17:00",6251.35,79.33,TRADE
VIC1,"2000/08/30 17:30",6239.61167,53.92,TRADE
VIC1,"2000/08/30 18:00",6166.28833,44.75,TRADE
VIC1,"2000/08/30 18:30",6216.55667,63.26,TRADE
VIC1,"2000/08/30 19:00",6157.41,57.12,TRADE
VIC1,"2000/08/30 19:30",5995.86,46.32,TRADE
VIC1,"2000/08/30 20:00",5879.94167,45.71,TRADE
VIC1,"2000/08/30 20:30",5716.40333,44.29,TRADE
VIC1,"2000/08/30 21:00",5562.15333,43.87,TRADE
VIC1,"2000/08/30 21:30",5342.445,28.95,TRADE
VIC1,"2000/08/30 22:00",5060.09167,19.95,TRADE
VIC1,"2000/08/30 22:30",4931.49833,34.45,TRADE
VIC1,"2000/08/30 23:00",4811.67667,29.77,TRADE
VIC1,"2000/08/30 23:30",5297.285,43.38,TRADE
VIC1,"2000/08/31 00:00",5303.88833,41.9,TRADE
VIC1,"2000/08/31 00:30",5300.50167,45.96,TRADE
VIC1,"2000/08/31 01:00",5222.56833,41.39,TRADE
VIC1,"2000/08/31 01:30",5577.15833,77.9,TRADE
VIC1,"2000/08/31 02:00",5418.41667,38.37,TRADE
VIC1,"2000/08/31 02:30",5276.33,36.75,TRADE
VIC1,"2000/08/31 03:00",5107.02333,36.53,TRADE
VIC1,"2000/08/31 03:30",4995.71167,35.43,TRADE
VIC1,"2000/08/31 04:00",4891.475,29.06,TRADE
VIC1,"2000/08/31 04:30",4934.06833,30.65,TRADE
VIC1,"2000/08/31 05:00",5027.19167,34.31,TRADE
VIC1,"2000/08/31 05:30",5352.16,48.14,TRADE
VIC1,"2000/08/31 06:00",5761.36,50.25,TRADE
VIC1,"2000/08/31 06:30",6295.245,78.92,TRADE
VIC1,"2000/08/31 07:00",6816.00167,964.79,TRADE
VIC1,"2000/08/31 07:30",6511.50667,58.51,TRADE
VIC1,"2000/08/31 08:00",6438.20167,55.77,TRADE
VIC1,"2000/08/31 08:30",6368.31833,66.58,TRADE
VIC1,"2000/08/31 09:00",6272.28167,48.49,TRADE
VIC1,"2000/08/31 09:30",6207.30333,44.38,TRADE
VIC1,"2000/08/31 10:00",6192.50667,43.6,TRADE
VIC1,"2000/08/31 10:30",6173.07333,42.51,TRADE
VIC1,"2000/08/31 11:00",6121.83333,42.18,TRADE
VIC1,"2000/08/31 11:30",6050.735,41.76,TRADE
VIC1,"2000/08/31 12:00",5987.91167,41.55,TRADE
VIC1,"2000/08/31 12:30",5995.26667,41.42,TRADE
VIC1,"2000/08/31 13:00",5987.93333,41.64,TRADE
VIC1,"2000/08/31 13:30",6078.22167,42.92,TRADE
VIC1,"2000/08/31 14:00",6058.04,45.37,TRADE
VIC1,"2000/08/31 14:30",6022.90667,44.18,TRADE
VIC1,"2000/08/31 15:00",5993.475,65.03,TRADE
VIC1,"2000/08/31 15:30",6035.805,41.53,TRADE
VIC1,"2000/08/31 16:00",6044.49,42.47,TRADE
VIC1,"2000/08/31 16:30",6014.765,42.96,TRADE
VIC1,"2000/08/31 17:00",5978.46,35.76,TRADE
VIC1,"2000/08/31 17:30",5916.605,35.17,TRADE
VIC1,"2000/08/31 18:00",5904.19,37.14,TRADE
VIC1,"2000/08/31 18:30",6050.58167,43.13,TRADE
VIC1,"2000/08/31 19:00",6087.48667,43.2,TRADE
VIC1,"2000/08/31 19:30",5971.23167,41.42,TRADE
VIC1,"2000/08/31 20:00",5864.12667,35.6,TRADE
VIC1,"2000/08/31 20:30",5736.585,43.96,TRADE
VIC1,"2000/08/31 21:00",5562.46667,32.49,TRADE
VIC1,"2000/08/31 21:30",5357.755,28.83,TRADE
VIC1,"2000/08/31 22:00",5145.36333,25.66,TRADE
VIC1,"2000/08/31 22:30",5003.58,36.23,TRADE
VIC1,"2000/08/31 23:00",4954.02333,35.4,TRADE
VIC1,"2000/08/31 23:30",5349.43333,39.55,TRADE
VIC1,"2000/09/01 00:00",5346.91667,39.4,TRADE
