REGION,SETTLEMENTDATE,TOTALDEMAND,RRP,PERIODTYPE
VIC1,"1999/12/01 00:30",5073.85167,18.59,TRADE
VIC1,"1999/12/01 01:00",4871.155,16.16,TRADE
VIC1,"1999/12/01 01:30",5154.10833,22.2,TRADE
VIC1,"1999/12/01 02:00",5015.34167,15.22,TRADE
VIC1,"1999/12/01 02:30",4762.15833,13.83,TRADE
VIC1,"1999/12/01 03:00",4559.52833,13.77,TRADE
VIC1,"1999/12/01 03:30",4439.805,13.41,TRADE
VIC1,"1999/12/01 04:00",4401.56,12.86,TRADE
VIC1,"1999/12/01 04:30",4445.07667,13.58,TRADE
VIC1,"1999/12/01 05:00",4569,13.44,TRADE
VIC1,"1999/12/01 05:30",4871.47667,17.7,TRADE
VIC1,"1999/12/01 06:00",5205.64667,19.35,TRADE
VIC1,"1999/12/01 06:30",5628.775,22.51,TRADE
VIC1,"1999/12/01 07:00",5930.89833,29.37,TRADE
VIC1,"1999/12/01 07:30",5911.8,31.28,TRADE
VIC1,"1999/12/01 08:00",6036.7,31.62,TRADE
VIC1,"1999/12/01 08:30",6170.535,33.36,TRADE
VIC1,"1999/12/01 09:00",6316.68,45.49,TRADE
VIC1,"1999/12/01 09:30",6379.39,47.71,TRADE
VIC1,"1999/12/01 10:00",6490.66333,51.33,TRADE
VIC1,"1999/12/01 10:30",6603.42,52.16,TRADE
VIC1,"1999/12/01 11:00",6679.205,55.51,TRADE
VIC1,"1999/12/01 11:30",6689.025,58.01,TRADE
VIC1,"1999/12/01 12:00",6727.71333,57.63,TRADE
VIC1,"1999/12/01 12:30",6848.425,62.14,TRADE
VIC1,"1999/12/01 13:00",6901.81333,65.5,TRADE
VIC1,"1999/12/01 13:30",7014.16667,66.5,TRADE
VIC1,"1999/12/01 14:00",7006.58167,67.2,TRADE
VIC1,"1999/12/01 14:30",6972.61167,57.59,TRADE
VIC1,"1999/12/01 15:00",6794.465,49.35,TRADE
VIC1,"1999/12/01 15:30",7150.205,62.11,TRADE
VIC1,"1999/12/01 16:00",7207.41167,54.79,TRADE
VIC1,"1999/12/01 16:30",7194.52167,50.44,TRADE
VIC1,"1999/12/01 17:00",7077.31833,48.23,TRADE
VIC1,"1999/12/01 17:30",6809.51333,37.43,TRADE
VIC1,"1999/12/01 18:00",6658.325,35.53,TRADE
VIC1,"1999/12/01 18:30",6464.24667,31.95,TRADE
VIC1,"1999/12/01 19:00",6261.20167,30.48,TRADE
VIC1,"1999/12/01 19:30",6211.85167,32.36,TRADE
VIC1,"1999/12/01 20:00",6216.10667,31.52,TRADE
VIC1,"1999/12/01 20:30",6220.475,30.88,TRADE
VIC1,"1999/12/01 21:00",6015.65667,21.42,TRADE
VIC1,"1999/12/01 21:30",5783.82333,21.88,TRADE
VIC1,"1999/12/01 22:00",5461.19,18.29,TRADE
VIC1,"1999/12/01 22:30",5258.27333,19.07,TRADE
VIC1,"1999/12/01 23:00",5117.365,20.17,TRADE
VIC1,"1999/12/01 23:30",5607.22167,37.81,TRADE
VIC1,"1999/12/02 00:00",5489.88167,27.96,TRADE
VIC1,"1999/12/02 00:30",5227.6,22.74,TRADE
VIC1,"1999/12/02 01:00",5018.09333,18.14,TRADE
VIC1,"1999/12/02 01:30",5264.71,21.89,TRADE
VIC1,"1999/12/02 02:00",5127.79,15.98,TRADE
VIC1,"1999/12/02 02:30",4846.25833,14.63,TRADE
VIC1,"1999/12/02 03:00",4653.86667,13.69,TRADE
VIC1,"1999/12/02 03:30",4542.07167,13.27,TRADE
VIC1,"1999/12/02 04:00",4510.21667,13.21,TRADE
VIC1,"1999/12/02 04:30",4599.855,13.82,TRADE
VIC1,"1999/12/02 05:00",4732.63333,14.42,TRADE
VIC1,"1999/12/02 05:30",5012.01,21.91,TRADE
VIC1,"1999/12/02 06:00",5352.29833,21.32,TRADE
VIC1,"1999/12/02 06:30",5783.33667,21.51,TRADE
VIC1,"1999/12/02 07:00",6136.77167,28.95,TRADE
VIC1,"1999/12/02 07:30",6165.28667,32.4,TRADE
VIC1,"1999/12/02 08:00",6281.395,32.49,TRADE
VIC1,"1999/12/02 08:30",6495.78,43.44,TRADE
VIC1,"1999/12/02 09:00",6599.61667,48.84,TRADE
VIC1,"1999/12/02 09:30",6620.6,48.33,TRADE
VIC1,"1999/12/02 10:00",6685.62667,45.54,TRADE
VIC1,"1999/12/02 10:30",6942.07667,49.66,TRADE
VIC1,"1999/12/02 11:00",7058.67667,50.2,TRADE
VIC1,"1999/12/02 11:30",7075.24333,50.04,TRADE
VIC1,"1999/12/02 12:00",7153.155,50.34,TRADE
VIC1,"1999/12/02 12:30",7282.06167,53.22,TRADE
VIC1,"1999/12/02 13:00",7315.79667,51.65,TRADE
VIC1,"1999/12/02 13:30",7351.258,48.3,TRADE
VIC1,"1999/12/02 14:00",7313.07833,43.75,TRADE
VIC1,"1999/12/02 14:30",7380.37167,51.43,TRADE
VIC1,"1999/12/02 15:00",7427.445,54.69,TRADE
VIC1,"1999/12/02 15:30",7494.81333,65.06,TRADE
VIC1,"1999/12/02 16:00",7527.34,64.33,TRADE
VIC1,"1999/12/02 16:30",7476.13667,54.1,TRADE
VIC1,"1999/12/02 17:00",7404.37833,56.48,TRADE
VIC1,"1999/12/02 17:30",7183.62,43.24,TRADE
VIC1,"1999/12/02 18:00",6953.56,37.24,TRADE
VIC1,"1999/12/02 18:30",6736.71167,32.67,TRADE
VIC1,"1999/12/02 19:00",6595.32333,31.68,TRADE
VIC1,"1999/12/02 19:30",6542.925,34.15,TRADE
VIC1,"1999/12/02 20:00",6550.62667,33.62,TRADE
VIC1,"1999/12/02 20:30",6471.68667,27.43,TRADE
VIC1,"1999/12/02 21:00",6236.955,23.2,TRADE
VIC1,"1999/12/02 21:30",5981.875,25.74,TRADE
VIC1,"1999/12/02 22:00",5687.88167,20.72,TRADE
VIC1,"1999/12/02 22:30",5503.47,21.62,TRADE
VIC1,"1999/12/02 23:00",5347.84333,26.68,TRADE
VIC1,"1999/12/02 23:30",5752.78333,41.38,TRADE
VIC1,"1999/12/03 00:00",5577.14833,26.73,TRADE
VIC1,"1999/12/03 00:30",5380.13,21.03,TRADE
VIC1,"1999/12/03 01:00",5134.56,18.71,TRADE
VIC1,"1999/12/03 01:30",5430.545,22.84,TRADE
VIC1,"1999/12/03 02:00",5263.28167,16.28,TRADE
VIC1,"1999/12/03 02:30",4987.42667,14.97,TRADE
VIC1,"1999/12/03 03:00",4824.33833,13.98,TRADE
VIC1,"1999/12/03 03:30",4693.45167,13.97,TRADE
VIC1,"1999/12/03 04:00",4656.30167,13.86,TRADE
VIC1,"1999/12/03 04:30",4786.01,17.06,TRADE
VIC1,"1999/12/03 05:00",4886.23,17.71,TRADE
VIC1,"1999/12/03 05:30",5172.73167,28.43,TRADE
VIC1,"1999/12/03 06:00",5497.75667,32.18,TRADE
VIC1,"1999/12/03 06:30",5915.31167,26.25,TRADE
VIC1,"1999/12/03 07:00",6276.60667,27.74,TRADE
VIC1,"1999/12/03 07:30",6200.045,25.23,TRADE
VIC1,"1999/12/03 08:00",6151.40167,23.57,TRADE
VIC1,"1999/12/03 08:30",6072.28333,23.32,TRADE
VIC1,"1999/12/03 09:00",6058.08167,22.76,TRADE
VIC1,"1999/12/03 09:30",6133.05,23.99,TRADE
VIC1,"1999/12/03 10:00",6096.68333,23.18,TRADE
VIC1,"1999/12/03 10:30",6077.40333,22.88,TRADE
VIC1,"1999/12/03 11:00",6060.38667,22.07,TRADE
VIC1,"1999/12/03 11:30",6017.11833,21.89,TRADE
VIC1,"1999/12/03 12:00",5979.51,22.01,TRADE
VIC1,"1999/12/03 12:30",6023.67,23.26,TRADE
VIC1,"1999/12/03 13:00",6044.16167,25.2,TRADE
VIC1,"1999/12/03 13:30",6011.85333,22.45,TRADE
VIC1,"1999/12/03 14:00",5976.48833,21.75,TRADE
VIC1,"1999/12/03 14:30",5910.85167,21.73,TRADE
VIC1,"1999/12/03 15:00",5950.56167,23.77,TRADE
VIC1,"1999/12/03 15:30",5927.40333,21.77,TRADE
VIC1,"1999/12/03 16:00",5917.01,21.52,TRADE
VIC1,"1999/12/03 16:30",5902.53167,21.63,TRADE
VIC1,"1999/12/03 17:00",5829.73167,21.02,TRADE
VIC1,"1999/12/03 17:30",5632.35333,17.61,TRADE
VIC1,"1999/12/03 18:00",5423.76167,18.42,TRADE
VIC1,"1999/12/03 18:30",5237.97,14.12,TRADE
VIC1,"1999/12/03 19:00",5200.26333,17.24,TRADE
VIC1,"1999/12/03 19:30",5140.40833,18.32,TRADE
VIC1,"1999/12/03 20:00",5238.59167,19.3,TRADE
VIC1,"1999/12/03 20:30",5138.74833,18.98,TRADE
VIC1,"1999/12/03 21:00",5036.865,17.3,TRADE
VIC1,"1999/12/03 21:30",4915.29667,20.37,TRADE
VIC1,"1999/12/03 22:00",4755.28833,16.83,TRADE
VIC1,"1999/12/03 22:30",4674.92,17.56,TRADE
VIC1,"1999/12/03 23:00",4668.14,18.08,TRADE
VIC1,"1999/12/03 23:30",5133,26.09,TRADE
VIC1,"1999/12/04 00:00",5073.63,20.76,TRADE
VIC1,"1999/12/04 00:30",4876.62167,17.69,TRADE
VIC1,"1999/12/04 01:00",4693.535,14.77,TRADE
VIC1,"1999/12/04 01:30",4989.03333,17.28,TRADE
VIC1,"1999/12/04 02:00",4844.04167,14.91,TRADE
VIC1,"1999/12/04 02:30",4562.48667,13.29,TRADE
VIC1,"1999/12/04 03:00",4385.87833,12.89,TRADE
VIC1,"1999/12/04 03:30",4243.80833,11.46,TRADE
VIC1,"1999/12/04 04:00",4195.98,11.41,TRADE
VIC1,"1999/12/04 04:30",4172.9,11.62,TRADE
VIC1,"1999/12/04 05:00",4186.985,12.16,TRADE
VIC1,"1999/12/04 05:30",4270.45833,11.66,TRADE
VIC1,"1999/12/04 06:00",4378.57833,12.36,TRADE
VIC1,"1999/12/04 06:30",4595.16167,17.56,TRADE
VIC1,"1999/12/04 07:00",4770.84,16.91,TRADE
VIC1,"1999/12/04 07:30",4795.12833,19.81,TRADE
VIC1,"1999/12/04 08:00",4879.27167,20.77,TRADE
VIC1,"1999/12/04 08:30",4980.02,21.52,TRADE
VIC1,"1999/12/04 09:00",5052.675,22.63,TRADE
VIC1,"1999/12/04 09:30",5063.10667,24.42,TRADE
VIC1,"1999/12/04 10:00",5086.22833,24.54,TRADE
VIC1,"1999/12/04 10:30",5047.79333,21.59,TRADE
VIC1,"1999/12/04 11:00",5055.09833,22.13,TRADE
VIC1,"1999/12/04 11:30",4999.325,21.81,TRADE
VIC1,"1999/12/04 12:00",4863.72333,20.65,TRADE
VIC1,"1999/12/04 12:30",4963.37167,21.11,TRADE
VIC1,"1999/12/04 13:00",4900.05333,21.14,TRADE
VIC1,"1999/12/04 13:30",4905.19833,21.07,TRADE
VIC1,"1999/12/04 14:00",4850.71333,20.8,TRADE
VIC1,"1999/12/04 14:30",4825.72167,20.09,TRADE
VIC1,"1999/12/04 15:00",4829.16833,20.36,TRADE
VIC1,"1999/12/04 15:30",4823.43333,20.39,TRADE
VIC1,"1999/12/04 16:00",4871.095,19.81,TRADE
VIC1,"1999/12/04 16:30",4856.78,18.48,TRADE
VIC1,"1999/12/04 17:00",4878.59333,20.5,TRADE
VIC1,"1999/12/04 17:30",4846.565,17.93,TRADE
VIC1,"1999/12/04 18:00",4791.64667,18.97,TRADE
VIC1,"1999/12/04 18:30",4664.96,15.5,TRADE
VIC1,"1999/12/04 19:00",4610.485,14.01,TRADE
VIC1,"1999/12/04 19:30",4586.75833,14,TRADE
VIC1,"1999/12/04 20:00",4720.24833,17.41,TRADE
VIC1,"1999/12/04 20:30",4706.98667,16.07,TRADE
VIC1,"1999/12/04 21:00",4682.75333,13.99,TRADE
VIC1,"1999/12/04 21:30",4571.10333,13.99,TRADE
VIC1,"1999/12/04 22:00",4453.83667,13.76,TRADE
VIC1,"1999/12/04 22:30",4408.37333,14.6,TRADE
VIC1,"1999/12/04 23:00",4362.78833,13.87,TRADE
VIC1,"1999/12/04 23:30",4808.525,16.59,TRADE
VIC1,"1999/12/05 00:00",4784.59167,14.09,TRADE
VIC1,"1999/12/05 00:30",4673.075,14,TRADE
VIC1,"1999/12/05 01:00",4525.18667,13.94,TRADE
VIC1,"1999/12/05 01:30",4787.82167,14.16,TRADE
VIC1,"1999/12/05 02:00",4667.965,13.57,TRADE
VIC1,"1999/12/05 02:30",4403.16167,12.96,TRADE
VIC1,"1999/12/05 03:00",4268.01833,11.03,TRADE
VIC1,"1999/12/05 03:30",4042.23833,8.01,TRADE
VIC1,"1999/12/05 04:00",3957.72167,8.11,TRADE
VIC1,"1999/12/05 04:30",3956.82833,10.17,TRADE
VIC1,"1999/12/05 05:00",3903.20167,8.21,TRADE
VIC1,"1999/12/05 05:30",3841.42333,9.51,TRADE
VIC1,"1999/12/05 06:00",3927.02333,10.86,TRADE
VIC1,"1999/12/05 06:30",4016.73667,10.25,TRADE
VIC1,"1999/12/05 07:00",4201.26,12.29,TRADE
VIC1,"1999/12/05 07:30",4166.94833,12.24,TRADE
VIC1,"1999/12/05 08:00",4252.95667,13.57,TRADE
VIC1,"1999/12/05 08:30",4316.06833,13.58,TRADE
VIC1,"1999/12/05 09:00",4393.09167,13.36,TRADE
VIC1,"1999/12/05 09:30",4426.05833,13.24,TRADE
VIC1,"1999/12/05 10:00",4452.51,13.96,TRADE
VIC1,"1999/12/05 10:30",4529.62333,14.01,TRADE
VIC1,"1999/12/05 11:00",4537.29,15.13,TRADE
VIC1,"1999/12/05 11:30",4563.335,15.45,TRADE
VIC1,"1999/12/05 12:00",4547.98167,14.14,TRADE
VIC1,"1999/12/05 12:30",4521.575,14.16,TRADE
VIC1,"1999/12/05 13:00",4537.99833,15.29,TRADE
VIC1,"1999/12/05 13:30",4499.79667,14.66,TRADE
VIC1,"1999/12/05 14:00",4517.875,14.86,TRADE
VIC1,"1999/12/05 14:30",4515.69333,15.01,TRADE
VIC1,"1999/12/05 15:00",4538.08667,15.03,TRADE
VIC1,"1999/12/05 15:30",4520.64667,14.61,TRADE
VIC1,"1999/12/05 16:00",4585.63333,15.75,TRADE
VIC1,"1999/12/05 16:30",4611.545,15.97,TRADE
VIC1,"1999/12/05 17:00",4663.925,17.2,TRADE
VIC1,"1999/12/05 17:30",4674.26667,17.24,TRADE
VIC1,"1999/12/05 18:00",4623.78,14.3,TRADE
VIC1,"1999/12/05 18:30",4574.74167,14.15,TRADE
VIC1,"1999/12/05 19:00",4515.345,14,TRADE
VIC1,"1999/12/05 19:30",4509.06833,12.27,TRADE
VIC1,"1999/12/05 20:00",4616.03,13.81,TRADE
VIC1,"1999/12/05 20:30",4733.91833,17.95,TRADE
VIC1,"1999/12/05 21:00",4652.25667,16.4,TRADE
VIC1,"1999/12/05 21:30",4554.94333,14.01,TRADE
VIC1,"1999/12/05 22:00",4413.385,13.14,TRADE
VIC1,"1999/12/05 22:30",4407.59667,13.5,TRADE
VIC1,"1999/12/05 23:00",4379.89333,14.02,TRADE
VIC1,"1999/12/05 23:30",4803.96,19.92,TRADE
VIC1,"1999/12/06 00:00",4803.80333,15.02,TRADE
VIC1,"1999/12/06 00:30",4682.83167,13.85,TRADE
VIC1,"1999/12/06 01:00",4524.36667,13.54,TRADE
VIC1,"1999/12/06 01:30",4842.63167,14.21,TRADE
VIC1,"1999/12/06 02:00",4715.40167,13.38,TRADE
VIC1,"1999/12/06 02:30",4480.63167,12.03,TRADE
VIC1,"1999/12/06 03:00",4233.64333,7.67,TRADE
VIC1,"1999/12/06 03:30",4176.62667,8.2,TRADE
VIC1,"1999/12/06 04:00",4172.53667,8.86,TRADE
VIC1,"1999/12/06 04:30",4178.345,9.51,TRADE
VIC1,"1999/12/06 05:00",4289.68,11.91,TRADE
VIC1,"1999/12/06 05:30",4562.505,12.91,TRADE
VIC1,"1999/12/06 06:00",4886.58667,14.65,TRADE
VIC1,"1999/12/06 06:30",5349.10167,17.29,TRADE
VIC1,"1999/12/06 07:00",5658.96667,19.03,TRADE
VIC1,"1999/12/06 07:30",5558.23333,20.71,TRADE
VIC1,"1999/12/06 08:00",5555.21167,19.75,TRADE
VIC1,"1999/12/06 08:30",5621.18333,20.08,TRADE
VIC1,"1999/12/06 09:00",5640.84167,20.91,TRADE
VIC1,"1999/12/06 09:30",5687.9,21.39,TRADE
VIC1,"1999/12/06 10:00",5799.73167,21.78,TRADE
VIC1,"1999/12/06 10:30",5804.64833,21.91,TRADE
VIC1,"1999/12/06 11:00",5832.51,21.94,TRADE
VIC1,"1999/12/06 11:30",5819.03833,21.83,TRADE
VIC1,"1999/12/06 12:00",5837.91,22.03,TRADE
VIC1,"1999/12/06 12:30",5903.12333,22.18,TRADE
VIC1,"1999/12/06 13:00",5917.35833,22.14,TRADE
VIC1,"1999/12/06 13:30",5960.215,23.08,TRADE
VIC1,"1999/12/06 14:00",5949.04833,24.14,TRADE
VIC1,"1999/12/06 14:30",5951.605,23.03,TRADE
VIC1,"1999/12/06 15:00",5988.225,25.64,TRADE
VIC1,"1999/12/06 15:30",6021.83833,27.01,TRADE
VIC1,"1999/12/06 16:00",6046.525,27.35,TRADE
VIC1,"1999/12/06 16:30",6058.95833,26.48,TRADE
VIC1,"1999/12/06 17:00",5970.94167,22.58,TRADE
VIC1,"1999/12/06 17:30",5732.29,19.63,TRADE
VIC1,"1999/12/06 18:00",5528.91,17.38,TRADE
VIC1,"1999/12/06 18:30",5273.64333,14.12,TRADE
VIC1,"1999/12/06 19:00",5165.18167,14.06,TRADE
VIC1,"1999/12/06 19:30",5133.61167,14.88,TRADE
VIC1,"1999/12/06 20:00",5242.58833,17.02,TRADE
VIC1,"1999/12/06 20:30",5290.75,17.27,TRADE
VIC1,"1999/12/06 21:00",5138.28333,15.67,TRADE
VIC1,"1999/12/06 21:30",4989.29833,16.61,TRADE
VIC1,"1999/12/06 22:00",4797.32,14.11,TRADE
VIC1,"1999/12/06 22:30",4724.94,15.9,TRADE
VIC1,"1999/12/06 23:00",4682.7,14.23,TRADE
VIC1,"1999/12/06 23:30",5171.77833,28.48,TRADE
VIC1,"1999/12/07 00:00",5140.22,19.75,TRADE
VIC1,"1999/12/07 00:30",4961.96333,14.11,TRADE
VIC1,"1999/12/07 01:00",4784.95,14.01,TRADE
VIC1,"1999/12/07 01:30",5067.80167,14.38,TRADE
VIC1,"1999/12/07 02:00",4902.44167,14.01,TRADE
VIC1,"1999/12/07 02:30",4611.32,13.83,TRADE
VIC1,"1999/12/07 03:00",4455.445,13.43,TRADE
VIC1,"1999/12/07 03:30",4350.595,10.22,TRADE
VIC1,"1999/12/07 04:00",4333.495,11.97,TRADE
VIC1,"1999/12/07 04:30",4363.035,12.51,TRADE
VIC1,"1999/12/07 05:00",4497.845,13.05,TRADE
VIC1,"1999/12/07 05:30",4750.48667,13.61,TRADE
VIC1,"1999/12/07 06:00",5071.93,18.45,TRADE
VIC1,"1999/12/07 06:30",5480.815,19.59,TRADE
VIC1,"1999/12/07 07:00",5847.48,22.06,TRADE
VIC1,"1999/12/07 07:30",5723.72833,23.49,TRADE
VIC1,"1999/12/07 08:00",5705.49,22.03,TRADE
VIC1,"1999/12/07 08:30",5786.20833,23.67,TRADE
VIC1,"1999/12/07 09:00",5829.48,21.67,TRADE
VIC1,"1999/12/07 09:30",5936.65,24.56,TRADE
VIC1,"1999/12/07 10:00",5994.55333,24.39,TRADE
VIC1,"1999/12/07 10:30",6076.76333,22.12,TRADE
VIC1,"1999/12/07 11:00",6151.15333,23.3,TRADE
VIC1,"1999/12/07 11:30",6197.44667,24.27,TRADE
VIC1,"1999/12/07 12:00",6233.18333,25.09,TRADE
VIC1,"1999/12/07 12:30",6348.17833,29.68,TRADE
VIC1,"1999/12/07 13:00",6416.52833,32.28,TRADE
VIC1,"1999/12/07 13:30",6510.71833,38.84,TRADE
VIC1,"1999/12/07 14:00",6532.05,34.47,TRADE
VIC1,"1999/12/07 14:30",6537.52,36.86,TRADE
VIC1,"1999/12/07 15:00",6552.18833,41.64,TRADE
VIC1,"1999/12/07 15:30",6613.335,38.06,TRADE
VIC1,"1999/12/07 16:00",6602.55167,36.55,TRADE
VIC1,"1999/12/07 16:30",6536.595,33.72,TRADE
VIC1,"1999/12/07 17:00",6457.38333,29.11,TRADE
VIC1,"1999/12/07 17:30",6262.86,23.74,TRADE
VIC1,"1999/12/07 18:00",6059.825,21.47,TRADE
VIC1,"1999/12/07 18:30",5831.69167,19.78,TRADE
VIC1,"1999/12/07 19:00",5709.76833,19.48,TRADE
VIC1,"1999/12/07 19:30",5632.38,19.53,TRADE
VIC1,"1999/12/07 20:00",5714.02167,23.31,TRADE
VIC1,"1999/12/07 20:30",5648.53667,22.24,TRADE
VIC1,"1999/12/07 21:00",5513.85,20.25,TRADE
VIC1,"1999/12/07 21:30",5363.742,31.29,TRADE
VIC1,"1999/12/07 22:00",5148.945,23.13,TRADE
VIC1,"1999/12/07 22:30",4965.15167,19.05,TRADE
VIC1,"1999/12/07 23:00",4917.035,19.42,TRADE
VIC1,"1999/12/07 23:30",5389.14667,34.74,TRADE
VIC1,"1999/12/08 00:00",5305.92667,26.08,TRADE
VIC1,"1999/12/08 00:30",5056.86667,17.06,TRADE
VIC1,"1999/12/08 01:00",4871.575,14.9,TRADE
VIC1,"1999/12/08 01:30",5175.655,25.71,TRADE
VIC1,"1999/12/08 02:00",4974.875,15.92,TRADE
VIC1,"1999/12/08 02:30",4748.06333,13.96,TRADE
VIC1,"1999/12/08 03:00",4588.73167,13.98,TRADE
VIC1,"1999/12/08 03:30",4472.67833,12.61,TRADE
VIC1,"1999/12/08 04:00",4468.49167,12.66,TRADE
VIC1,"1999/12/08 04:30",4501.49833,13.69,TRADE
VIC1,"1999/12/08 05:00",4672.10833,16.06,TRADE
VIC1,"1999/12/08 05:30",4955.985,23.4,TRADE
VIC1,"1999/12/08 06:00",5280.70833,23.06,TRADE
VIC1,"1999/12/08 06:30",5625.165,26.77,TRADE
VIC1,"1999/12/08 07:00",5968.22,31.56,TRADE
VIC1,"1999/12/08 07:30",5940.97667,29.02,TRADE
VIC1,"1999/12/08 08:00",5976.48,21.72,TRADE
VIC1,"1999/12/08 08:30",6052.18,19.78,TRADE
VIC1,"1999/12/08 09:00",6091.42833,21.72,TRADE
VIC1,"1999/12/08 09:30",6194.25333,23.16,TRADE
VIC1,"1999/12/08 10:00",6305.74333,24.27,TRADE
VIC1,"1999/12/08 10:30",6365.24833,26.49,TRADE
VIC1,"1999/12/08 11:00",6454.60833,31.62,TRADE
VIC1,"1999/12/08 11:30",6439.85333,27.76,TRADE
VIC1,"1999/12/08 12:00",6462.92,32.72,TRADE
VIC1,"1999/12/08 12:30",6481.17167,35.7,TRADE
VIC1,"1999/12/08 13:00",6574.78833,36.59,TRADE
VIC1,"1999/12/08 13:30",6572.22,36.57,TRADE
VIC1,"1999/12/08 14:00",6577.565,36.19,TRADE
VIC1,"1999/12/08 14:30",6492.12333,30.89,TRADE
VIC1,"1999/12/08 15:00",6552.64333,36.78,TRADE
VIC1,"1999/12/08 15:30",6539.21833,35.92,TRADE
VIC1,"1999/12/08 16:00",6510.73667,35.31,TRADE
VIC1,"1999/12/08 16:30",6404.025,30.61,TRADE
VIC1,"1999/12/08 17:00",6245.94,25.33,TRADE
VIC1,"1999/12/08 17:30",5975.82167,21.54,TRADE
VIC1,"1999/12/08 18:00",5788.11667,20.13,TRADE
VIC1,"1999/12/08 18:30",5586.34333,18.36,TRADE
VIC1,"1999/12/08 19:00",5487.53167,18.95,TRADE
VIC1,"1999/12/08 19:30",5449.66333,20,TRADE
VIC1,"1999/12/08 20:00",5507.035,19.59,TRADE
VIC1,"1999/12/08 20:30",5539.39833,19.45,TRADE
VIC1,"1999/12/08 21:00",5437.52167,19.17,TRADE
VIC1,"1999/12/08 21:30",5273.14,26.64,TRADE
VIC1,"1999/12/08 22:00",5036.82167,19.24,TRADE
VIC1,"1999/12/08 22:30",4959.965,20.35,TRADE
VIC1,"1999/12/08 23:00",4849.39167,21.06,TRADE
VIC1,"1999/12/08 23:30",5310.465,29.36,TRADE
VIC1,"1999/12/09 00:00",5268.28333,22.66,TRADE
VIC1,"1999/12/09 00:30",5099.05667,16.38,TRADE
VIC1,"1999/12/09 01:00",4892.51,14.18,TRADE
VIC1,"1999/12/09 01:30",5165.59833,20.14,TRADE
VIC1,"1999/12/09 02:00",4992.015,14.15,TRADE
VIC1,"1999/12/09 02:30",4738.73,13.82,TRADE
VIC1,"1999/12/09 03:00",4555.22167,13.69,TRADE
VIC1,"1999/12/09 03:30",4431.25667,13.15,TRADE
VIC1,"1999/12/09 04:00",4385.24,13.02,TRADE
VIC1,"1999/12/09 04:30",4466.285,12.72,TRADE
VIC1,"1999/12/09 05:00",4582.55833,13.61,TRADE
VIC1,"1999/12/09 05:30",4830.18333,19.25,TRADE
VIC1,"1999/12/09 06:00",5144.76833,20.66,TRADE
VIC1,"1999/12/09 06:30",5540.45,24.4,TRADE
VIC1,"1999/12/09 07:00",5885.79,28.77,TRADE
VIC1,"1999/12/09 07:30",5830.59333,31.81,TRADE
VIC1,"1999/12/09 08:00",5834.705,26.24,TRADE
VIC1,"1999/12/09 08:30",5853.16333,23,TRADE
VIC1,"1999/12/09 09:00",5875.535,25.23,TRADE
VIC1,"1999/12/09 09:30",5877.07167,23,TRADE
VIC1,"1999/12/09 10:00",5944.48833,23.36,TRADE
VIC1,"1999/12/09 10:30",5888.44333,22.23,TRADE
VIC1,"1999/12/09 11:00",5918.86167,22.43,TRADE
VIC1,"1999/12/09 11:30",5839.35667,21.65,TRADE
VIC1,"1999/12/09 12:00",5822.91833,21.58,TRADE
VIC1,"1999/12/09 12:30",5824.25333,22.58,TRADE
VIC1,"1999/12/09 13:00",5812.41333,22.09,TRADE
VIC1,"1999/12/09 13:30",5779.42667,21.13,TRADE
VIC1,"1999/12/09 14:00",5775.225,20.57,TRADE
VIC1,"1999/12/09 14:30",5718.58333,20.2,TRADE
VIC1,"1999/12/09 15:00",5694.19667,19.48,TRADE
VIC1,"1999/12/09 15:30",5687.095,19.33,TRADE
VIC1,"1999/12/09 16:00",5706.20833,19.83,TRADE
VIC1,"1999/12/09 16:30",5665.93333,23.64,TRADE
VIC1,"1999/12/09 17:00",5625.95833,20.95,TRADE
VIC1,"1999/12/09 17:30",5472.715,14.6,TRADE
VIC1,"1999/12/09 18:00",5298.75167,14.27,TRADE
VIC1,"1999/12/09 18:30",5103.43,13.97,TRADE
VIC1,"1999/12/09 19:00",5050.90833,13.97,TRADE
VIC1,"1999/12/09 19:30",5019.88667,13.93,TRADE
VIC1,"1999/12/09 20:00",5093.44333,13.99,TRADE
VIC1,"1999/12/09 20:30",5163.70667,14,TRADE
VIC1,"1999/12/09 21:00",5056.11667,14,TRADE
VIC1,"1999/12/09 21:30",4923.71333,14,TRADE
VIC1,"1999/12/09 22:00",4771.17667,14.02,TRADE
VIC1,"1999/12/09 22:30",4666.33833,14.04,TRADE
VIC1,"1999/12/09 23:00",4615.11,14.06,TRADE
VIC1,"1999/12/09 23:30",5105.87167,19.72,TRADE
VIC1,"1999/12/10 00:00",5081.255,16.45,TRADE
VIC1,"1999/12/10 00:30",4959.91667,14.94,TRADE
VIC1,"1999/12/10 01:00",4761.605,13.93,TRADE
VIC1,"1999/12/10 01:30",5073.77833,14.52,TRADE
VIC1,"1999/12/10 02:00",4932.55667,14.03,TRADE
VIC1,"1999/12/10 02:30",4687.43833,13.76,TRADE
VIC1,"1999/12/10 03:00",4513.09167,12.83,TRADE
VIC1,"1999/12/10 03:30",4351.54667,10.8,TRADE
VIC1,"1999/12/10 04:00",4284.12833,12.21,TRADE
VIC1,"1999/12/10 04:30",4338.695,12.64,TRADE
VIC1,"1999/12/10 05:00",4469.56,13.34,TRADE
VIC1,"1999/12/10 05:30",4731.46333,17.58,TRADE
VIC1,"1999/12/10 06:00",5041.265,19.73,TRADE
VIC1,"1999/12/10 06:30",5429.99833,18.21,TRADE
VIC1,"1999/12/10 07:00",5791.095,21.61,TRADE
VIC1,"1999/12/10 07:30",5635.06333,20.95,TRADE
VIC1,"1999/12/10 08:00",5594.89833,18.8,TRADE
VIC1,"1999/12/10 08:30",5593.7,16.75,TRADE
VIC1,"1999/12/10 09:00",5604.51333,18.49,TRADE
VIC1,"1999/12/10 09:30",5589.66167,18,TRADE
VIC1,"1999/12/10 10:00",5621.055,18.12,TRADE
VIC1,"1999/12/10 10:30",5624.52333,17.49,TRADE
VIC1,"1999/12/10 11:00",5672.18667,17.94,TRADE
VIC1,"1999/12/10 11:30",5612.62667,14.45,TRADE
VIC1,"1999/12/10 12:00",5580.40833,14.12,TRADE
VIC1,"1999/12/10 12:30",5621.95833,14.14,TRADE
VIC1,"1999/12/10 13:00",5575.41333,14.01,TRADE
VIC1,"1999/12/10 13:30",5572.24667,14.06,TRADE
VIC1,"1999/12/10 14:00",5593.26833,14.07,TRADE
VIC1,"1999/12/10 14:30",5527.77,14.05,TRADE
VIC1,"1999/12/10 15:00",5533.37,14.16,TRADE
VIC1,"1999/12/10 15:30",5501.57833,14.23,TRADE
VIC1,"1999/12/10 16:00",5530.21333,17.04,TRADE
VIC1,"1999/12/10 16:30",5494.64333,14.05,TRADE
VIC1,"1999/12/10 17:00",5482.02667,14.04,TRADE
VIC1,"1999/12/10 17:30",5288.95833,14.01,TRADE
VIC1,"1999/12/10 18:00",5144.29333,13.98,TRADE
VIC1,"1999/12/10 18:30",5001.84167,13.81,TRADE
VIC1,"1999/12/10 19:00",4925.915,13.62,TRADE
VIC1,"1999/12/10 19:30",4874.03833,13.72,TRADE
VIC1,"1999/12/10 20:00",4915.61833,13.85,TRADE
VIC1,"1999/12/10 20:30",4980.62,13.97,TRADE
VIC1,"1999/12/10 21:00",4905.36333,13.97,TRADE
VIC1,"1999/12/10 21:30",4840.60333,14.02,TRADE
VIC1,"1999/12/10 22:00",4746.06333,14.02,TRADE
VIC1,"1999/12/10 22:30",4666.90333,14.09,TRADE
VIC1,"1999/12/10 23:00",4678.225,15.72,TRADE
VIC1,"1999/12/10 23:30",5130.14167,24.05,TRADE
VIC1,"1999/12/11 00:00",5136.47667,19.67,TRADE
VIC1,"1999/12/11 00:30",4927.08833,15.8,TRADE
VIC1,"1999/12/11 01:00",4759.32667,14.04,TRADE
VIC1,"1999/12/11 01:30",5046.28333,14.92,TRADE
VIC1,"1999/12/11 02:00",4865.465,13.88,TRADE
VIC1,"1999/12/11 02:30",4674.22,13.42,TRADE
VIC1,"1999/12/11 03:00",4476.76833,12.4,TRADE
VIC1,"1999/12/11 03:30",4310.505,8.89,TRADE
VIC1,"1999/12/11 04:00",4206.87333,10.14,TRADE
VIC1,"1999/12/11 04:30",4199.22667,12.2,TRADE
VIC1,"1999/12/11 05:00",4220.91667,12.4,TRADE
VIC1,"1999/12/11 05:30",4309.37,12.52,TRADE
VIC1,"1999/12/11 06:00",4416.71167,12.62,TRADE
VIC1,"1999/12/11 06:30",4597.31833,15.42,TRADE
VIC1,"1999/12/11 07:00",4796.85,20.9,TRADE
VIC1,"1999/12/11 07:30",4818.03,20.58,TRADE
VIC1,"1999/12/11 08:00",4889.82167,18.78,TRADE
VIC1,"1999/12/11 08:30",4988.52167,19.54,TRADE
VIC1,"1999/12/11 09:00",4992.86333,15.46,TRADE
VIC1,"1999/12/11 09:30",5034.10667,17.96,TRADE
VIC1,"1999/12/11 10:00",4965.89167,15.5,TRADE
VIC1,"1999/12/11 10:30",5009.32667,16.11,TRADE
VIC1,"1999/12/11 11:00",5022.71667,21.87,TRADE
VIC1,"1999/12/11 11:30",4996.42833,21.08,TRADE
VIC1,"1999/12/11 12:00",5040.375,20.96,TRADE
VIC1,"1999/12/11 12:30",4947.745,15.16,TRADE
VIC1,"1999/12/11 13:00",4859.485,14.07,TRADE
VIC1,"1999/12/11 13:30",4823.24167,14.15,TRADE
VIC1,"1999/12/11 14:00",4734.91333,12.36,TRADE
VIC1,"1999/12/11 14:30",4696.13667,12.44,TRADE
VIC1,"1999/12/11 15:00",4699.11167,12.72,TRADE
VIC1,"1999/12/11 15:30",4742.08,19.51,TRADE
VIC1,"1999/12/11 16:00",4775.61667,19.19,TRADE
VIC1,"1999/12/11 16:30",4737.04,17.38,TRADE
VIC1,"1999/12/11 17:00",4842.06833,24.08,TRADE
VIC1,"1999/12/11 17:30",4783.89,18.74,TRADE
VIC1,"1999/12/11 18:00",4719.97833,15.16,TRADE
VIC1,"1999/12/11 18:30",4595.25833,14.15,TRADE
VIC1,"1999/12/11 19:00",4595.33167,14.32,TRADE
VIC1,"1999/12/11 19:30",4584.85333,14.35,TRADE
VIC1,"1999/12/11 20:00",4721.065,19.28,TRADE
VIC1,"1999/12/11 20:30",4712.99,20,TRADE
VIC1,"1999/12/11 21:00",4687.425,19.77,TRADE
VIC1,"1999/12/11 21:30",4632.695,18.62,TRADE
VIC1,"1999/12/11 22:00",4529.38833,15.6,TRADE
VIC1,"1999/12/11 22:30",4412.47667,13.7,TRADE
VIC1,"1999/12/11 23:00",4431.16167,13.71,TRADE
VIC1,"1999/12/11 23:30",4855.91,16.78,TRADE
VIC1,"1999/12/12 00:00",4813.735,13.92,TRADE
VIC1,"1999/12/12 00:30",4724.84667,13.76,TRADE
VIC1,"1999/12/12 01:00",4594.115,13.16,TRADE
VIC1,"1999/12/12 01:30",4859.16833,13.6,TRADE
VIC1,"1999/12/12 02:00",4735.22667,12.94,TRADE
VIC1,"1999/12/12 02:30",4533.46833,10.82,TRADE
VIC1,"1999/12/12 03:00",4328.76,8.32,TRADE
VIC1,"1999/12/12 03:30",4188.625,5.96,TRADE
VIC1,"1999/12/12 04:00",4048.09167,3.89,TRADE
VIC1,"1999/12/12 04:30",3979.43667,4.33,TRADE
VIC1,"1999/12/12 05:00",3924.42,3.6,TRADE
VIC1,"1999/12/12 05:30",3929.02667,5.77,TRADE
VIC1,"1999/12/12 06:00",3975.48667,6.84,TRADE
VIC1,"1999/12/12 06:30",4105.44833,10.2,TRADE
VIC1,"1999/12/12 07:00",4244.83667,11.14,TRADE
VIC1,"1999/12/12 07:30",4287.55833,12.13,TRADE
VIC1,"1999/12/12 08:00",4344.43333,12.18,TRADE
VIC1,"1999/12/12 08:30",4493.94833,14.95,TRADE
VIC1,"1999/12/12 09:00",4509.11167,14.2,TRADE
VIC1,"1999/12/12 09:30",4592.45333,14.28,TRADE
VIC1,"1999/12/12 10:00",4656.11833,15.89,TRADE
VIC1,"1999/12/12 10:30",4648.48167,15.36,TRADE
VIC1,"1999/12/12 11:00",4662.34333,14.41,TRADE
VIC1,"1999/12/12 11:30",4671.77833,14.36,TRADE
VIC1,"1999/12/12 12:00",4636.07167,14.56,TRADE
VIC1,"1999/12/12 12:30",4585.595,13.74,TRADE
VIC1,"1999/12/12 13:00",4531.18833,13.46,TRADE
VIC1,"1999/12/12 13:30",4478.13667,13.01,TRADE
VIC1,"1999/12/12 14:00",4480.91667,12.83,TRADE
VIC1,"1999/12/12 14:30",4461.60333,12.75,TRADE
VIC1,"1999/12/12 15:00",4469.06667,12.81,TRADE
VIC1,"1999/12/12 15:30",4497.00333,12.81,TRADE
VIC1,"1999/12/12 16:00",4547.35167,12.89,TRADE
VIC1,"1999/12/12 16:30",4576.865,12.95,TRADE
VIC1,"1999/12/12 17:00",4625.16167,13.56,TRADE
VIC1,"1999/12/12 17:30",4646.115,13.18,TRADE
VIC1,"1999/12/12 18:00",4606.90167,13,TRADE
VIC1,"1999/12/12 18:30",4605.65667,13.01,TRADE
VIC1,"1999/12/12 19:00",4602.84167,13.08,TRADE
VIC1,"1999/12/12 19:30",4670.00167,13.95,TRADE
VIC1,"1999/12/12 20:00",4768.58167,15.57,TRADE
VIC1,"1999/12/12 20:30",4816.45,14.74,TRADE
VIC1,"1999/12/12 21:00",4738.94167,14.15,TRADE
VIC1,"1999/12/12 21:30",4587.37,14.04,TRADE
VIC1,"1999/12/12 22:00",4490.96833,13.35,TRADE
VIC1,"1999/12/12 22:30",4390.10333,12.79,TRADE
VIC1,"1999/12/12 23:00",4389.16167,12.52,TRADE
VIC1,"1999/12/12 23:30",4806.065,14.07,TRADE
VIC1,"1999/12/13 00:00",4799.85667,13.54,TRADE
VIC1,"1999/12/13 00:30",4708.29833,13.33,TRADE
VIC1,"1999/12/13 01:00",4588.98667,13.15,TRADE
VIC1,"1999/12/13 01:30",4895.75333,13.68,TRADE
VIC1,"1999/12/13 02:00",4802.22,13.45,TRADE
VIC1,"1999/12/13 02:30",4598.82333,12.95,TRADE
VIC1,"1999/12/13 03:00",4419.37667,9.66,TRADE
VIC1,"1999/12/13 03:30",4276.61167,8.24,TRADE
VIC1,"1999/12/13 04:00",4250.48667,10.25,TRADE
VIC1,"1999/12/13 04:30",4244.98333,9.42,TRADE
VIC1,"1999/12/13 05:00",4381.435,12.26,TRADE
VIC1,"1999/12/13 05:30",4641.655,15.39,TRADE
VIC1,"1999/12/13 06:00",4967.31333,18.13,TRADE
VIC1,"1999/12/13 06:30",5404.66167,17.24,TRADE
VIC1,"1999/12/13 07:00",5732.89833,21.03,TRADE
VIC1,"1999/12/13 07:30",5632.47167,20.32,TRADE
VIC1,"1999/12/13 08:00",5570.905,18.98,TRADE
VIC1,"1999/12/13 08:30",5617.865,18.13,TRADE
VIC1,"1999/12/13 09:00",5613.40333,18.21,TRADE
VIC1,"1999/12/13 09:30",5645.535,19.21,TRADE
VIC1,"1999/12/13 10:00",5647.83833,18.92,TRADE
VIC1,"1999/12/13 10:30",5643.58167,18.31,TRADE
VIC1,"1999/12/13 11:00",5621.39167,18.14,TRADE
VIC1,"1999/12/13 11:30",5647.01,18.37,TRADE
VIC1,"1999/12/13 12:00",5649.98667,18.18,TRADE
VIC1,"1999/12/13 12:30",5687.87833,19,TRADE
VIC1,"1999/12/13 13:00",5698.83,18.97,TRADE
VIC1,"1999/12/13 13:30",5702.06167,18.74,TRADE
VIC1,"1999/12/13 14:00",5704.28,18.48,TRADE
VIC1,"1999/12/13 14:30",5688.465,18.53,TRADE
VIC1,"1999/12/13 15:00",5672.67833,18.03,TRADE
VIC1,"1999/12/13 15:30",5713.81167,18.01,TRADE
VIC1,"1999/12/13 16:00",5707.89833,16.15,TRADE
VIC1,"1999/12/13 16:30",5726.575,15.18,TRADE
VIC1,"1999/12/13 17:00",5671.90333,14.65,TRADE
VIC1,"1999/12/13 17:30",5505.69667,14.21,TRADE
VIC1,"1999/12/13 18:00",5311.09,14,TRADE
VIC1,"1999/12/13 18:30",5152.14333,13.99,TRADE
VIC1,"1999/12/13 19:00",5033.92,13.98,TRADE
VIC1,"1999/12/13 19:30",5032.16833,14.01,TRADE
VIC1,"1999/12/13 20:00",5120.88167,14.01,TRADE
VIC1,"1999/12/13 20:30",5209.56167,14.9,TRADE
VIC1,"1999/12/13 21:00",5117.92,14.03,TRADE
VIC1,"1999/12/13 21:30",4993.19167,14.16,TRADE
VIC1,"1999/12/13 22:00",4822.45333,14.05,TRADE
VIC1,"1999/12/13 22:30",4691.76833,14.9,TRADE
VIC1,"1999/12/13 23:00",4710.06833,17.51,TRADE
VIC1,"1999/12/13 23:30",5173.56,22.47,TRADE
VIC1,"1999/12/14 00:00",5191.30167,19.95,TRADE
VIC1,"1999/12/14 00:30",5006.485,16.26,TRADE
VIC1,"1999/12/14 01:00",4839.535,15.03,TRADE
VIC1,"1999/12/14 01:30",5129.64833,21.64,TRADE
VIC1,"1999/12/14 02:00",4990.58667,15.09,TRADE
VIC1,"1999/12/14 02:30",4741.48,13.54,TRADE
VIC1,"1999/12/14 03:00",4580.67,13.09,TRADE
VIC1,"1999/12/14 03:30",4456.45667,11.93,TRADE
VIC1,"1999/12/14 04:00",4406.07833,12.52,TRADE
VIC1,"1999/12/14 04:30",4410.77667,12.79,TRADE
VIC1,"1999/12/14 05:00",4504.22667,13.52,TRADE
VIC1,"1999/12/14 05:30",4748.59833,16.95,TRADE
VIC1,"1999/12/14 06:00",5055.68167,17.14,TRADE
VIC1,"1999/12/14 06:30",5476.94333,17.69,TRADE
VIC1,"1999/12/14 07:00",5800.59667,20.36,TRADE
VIC1,"1999/12/14 07:30",5655.825,20.56,TRADE
VIC1,"1999/12/14 08:00",5660.80667,19.58,TRADE
VIC1,"1999/12/14 08:30",5677.90333,17.48,TRADE
VIC1,"1999/12/14 09:00",5750.02,19.4,TRADE
VIC1,"1999/12/14 09:30",5768.66167,20.53,TRADE
VIC1,"1999/12/14 10:00",5814.25333,20.31,TRADE
VIC1,"1999/12/14 10:30",5824.39833,20.07,TRADE
VIC1,"1999/12/14 11:00",5820.86833,20.02,TRADE
VIC1,"1999/12/14 11:30",5806.33167,19.84,TRADE
VIC1,"1999/12/14 12:00",5864.13167,19.96,TRADE
VIC1,"1999/12/14 12:30",5949.145,21.01,TRADE
VIC1,"1999/12/14 13:00",5992.75,20.79,TRADE
VIC1,"1999/12/14 13:30",6025.63667,21.94,TRADE
VIC1,"1999/12/14 14:00",5999.515,20.87,TRADE
VIC1,"1999/12/14 14:30",6088.12167,21.53,TRADE
VIC1,"1999/12/14 15:00",6114.21167,21.23,TRADE
VIC1,"1999/12/14 15:30",6186.05333,21.13,TRADE
VIC1,"1999/12/14 16:00",6240.01833,21.92,TRADE
VIC1,"1999/12/14 16:30",6200.48667,20.97,TRADE
VIC1,"1999/12/14 17:00",6172.555,21.81,TRADE
VIC1,"1999/12/14 17:30",5967.33667,19.79,TRADE
VIC1,"1999/12/14 18:00",5789.73667,17.42,TRADE
VIC1,"1999/12/14 18:30",5594.33,14.33,TRADE
VIC1,"1999/12/14 19:00",5450.94667,14.09,TRADE
VIC1,"1999/12/14 19:30",5371.75,14.08,TRADE
VIC1,"1999/12/14 20:00",5435.19833,15.08,TRADE
VIC1,"1999/12/14 20:30",5450.02833,14.98,TRADE
VIC1,"1999/12/14 21:00",5369.975,15.07,TRADE
VIC1,"1999/12/14 21:30",5226.49333,19.66,TRADE
VIC1,"1999/12/14 22:00",5016.45,16.03,TRADE
VIC1,"1999/12/14 22:30",4911.00167,19.64,TRADE
VIC1,"1999/12/14 23:00",4863.31,19.52,TRADE
VIC1,"1999/12/14 23:30",5315.75167,30.32,TRADE
VIC1,"1999/12/15 00:00",5267.02833,21.49,TRADE
VIC1,"1999/12/15 00:30",5083.485,16.54,TRADE
VIC1,"1999/12/15 01:00",4882.55333,14.12,TRADE
VIC1,"1999/12/15 01:30",5171.60333,20.3,TRADE
VIC1,"1999/12/15 02:00",5007.62,17.07,TRADE
VIC1,"1999/12/15 02:30",4753.69,13.77,TRADE
VIC1,"1999/12/15 03:00",4564.435,13.4,TRADE
VIC1,"1999/12/15 03:30",4474.20167,10.26,TRADE
VIC1,"1999/12/15 04:00",4426.195,12.44,TRADE
VIC1,"1999/12/15 04:30",4443.02167,13.4,TRADE
VIC1,"1999/12/15 05:00",4536.11333,13.69,TRADE
VIC1,"1999/12/15 05:30",4809.45333,18.73,TRADE
VIC1,"1999/12/15 06:00",5069.00833,20.6,TRADE
VIC1,"1999/12/15 06:30",5533.57,24.5,TRADE
VIC1,"1999/12/15 07:00",5857.20333,25.38,TRADE
VIC1,"1999/12/15 07:30",5821.86,21.96,TRADE
VIC1,"1999/12/15 08:00",5878.50667,20.07,TRADE
VIC1,"1999/12/15 08:30",5999.54667,19.4,TRADE
VIC1,"1999/12/15 09:00",6113.625,23,TRADE
VIC1,"1999/12/15 09:30",6175.02,21.53,TRADE
VIC1,"1999/12/15 10:00",6309.875,22.42,TRADE
VIC1,"1999/12/15 10:30",6392.125,22.99,TRADE
VIC1,"1999/12/15 11:00",6500.54833,25.56,TRADE
VIC1,"1999/12/15 11:30",6538.25167,24.14,TRADE
VIC1,"1999/12/15 12:00",6600.53333,23.2,TRADE
VIC1,"1999/12/15 12:30",6704.56667,26.05,TRADE
VIC1,"1999/12/15 13:00",6771.54333,26.34,TRADE
VIC1,"1999/12/15 13:30",6806.25667,23.87,TRADE
VIC1,"1999/12/15 14:00",6859.35167,29.21,TRADE
VIC1,"1999/12/15 14:30",6885.07833,29.11,TRADE
VIC1,"1999/12/15 15:00",6912.3,29.82,TRADE
VIC1,"1999/12/15 15:30",6995.015,32.91,TRADE
VIC1,"1999/12/15 16:00",7058.59167,34.4,TRADE
VIC1,"1999/12/15 16:30",7006.705,27.89,TRADE
VIC1,"1999/12/15 17:00",6948.51,27.09,TRADE
VIC1,"1999/12/15 17:30",6718.51667,23.64,TRADE
VIC1,"1999/12/15 18:00",6567.23,24.43,TRADE
VIC1,"1999/12/15 18:30",6325.72667,22.82,TRADE
VIC1,"1999/12/15 19:00",6169.295,21.44,TRADE
VIC1,"1999/12/15 19:30",6022.57167,21.35,TRADE
VIC1,"1999/12/15 20:00",6018.41667,22.51,TRADE
VIC1,"1999/12/15 20:30",6015.13167,22.53,TRADE
VIC1,"1999/12/15 21:00",5858.19,19.55,TRADE
VIC1,"1999/12/15 21:30",5702.96833,29.95,TRADE
VIC1,"1999/12/15 22:00",5435.33,22.19,TRADE
VIC1,"1999/12/15 22:30",5267.62333,24.52,TRADE
VIC1,"1999/12/15 23:00",5169.23167,25.61,TRADE
VIC1,"1999/12/15 23:30",5615.75167,33.5,TRADE
VIC1,"1999/12/16 00:00",5535.62,25.91,TRADE
VIC1,"1999/12/16 00:30",5268.685,19.35,TRADE
VIC1,"1999/12/16 01:00",5083.475,16.29,TRADE
VIC1,"1999/12/16 01:30",5313.94167,19.01,TRADE
VIC1,"1999/12/16 02:00",5194.96667,18.58,TRADE
VIC1,"1999/12/16 02:30",4888.99167,14.01,TRADE
VIC1,"1999/12/16 03:00",4740.75167,13.69,TRADE
VIC1,"1999/12/16 03:30",4627.25667,13.35,TRADE
VIC1,"1999/12/16 04:00",4617.09167,13.32,TRADE
VIC1,"1999/12/16 04:30",4659.69333,14.82,TRADE
VIC1,"1999/12/16 05:00",4807.34333,16.23,TRADE
VIC1,"1999/12/16 05:30",5055.35833,20.88,TRADE
VIC1,"1999/12/16 06:00",5388.02,28.87,TRADE
VIC1,"1999/12/16 06:30",5765.93333,26.37,TRADE
VIC1,"1999/12/16 07:00",6111.74833,34.47,TRADE
VIC1,"1999/12/16 07:30",6022.24333,35.36,TRADE
VIC1,"1999/12/16 08:00",6073.84333,38.51,TRADE
VIC1,"1999/12/16 08:30",6087.46,26.77,TRADE
VIC1,"1999/12/16 09:00",6055.71,19.9,TRADE
VIC1,"1999/12/16 09:30",6068.87,23.84,TRADE
VIC1,"1999/12/16 10:00",6062.41,29.9,TRADE
VIC1,"1999/12/16 10:30",6061.95333,33.02,TRADE
VIC1,"1999/12/16 11:00",6071.475,33.87,TRADE
VIC1,"1999/12/16 11:30",6042.83,33.84,TRADE
VIC1,"1999/12/16 12:00",6001.00833,33.72,TRADE
VIC1,"1999/12/16 12:30",6062.67,34.44,TRADE
VIC1,"1999/12/16 13:00",6008.90333,34.04,TRADE
VIC1,"1999/12/16 13:30",5999.49,26.63,TRADE
VIC1,"1999/12/16 14:00",6030.875,21.84,TRADE
VIC1,"1999/12/16 14:30",6007.91667,21.57,TRADE
VIC1,"1999/12/16 15:00",5979.57667,20.42,TRADE
VIC1,"1999/12/16 15:30",5947.12667,19.85,TRADE
VIC1,"1999/12/16 16:00",5934.85833,19.96,TRADE
VIC1,"1999/12/16 16:30",5907.895,19.35,TRADE
VIC1,"1999/12/16 17:00",5828.255,19.66,TRADE
VIC1,"1999/12/16 17:30",5687.1,19.36,TRADE
VIC1,"1999/12/16 18:00",5530.36,18.46,TRADE
VIC1,"1999/12/16 18:30",5325.70667,14.87,TRADE
VIC1,"1999/12/16 19:00",5188.675,14.07,TRADE
VIC1,"1999/12/16 19:30",5129.20833,14.12,TRADE
VIC1,"1999/12/16 20:00",5182.73,14.19,TRADE
VIC1,"1999/12/16 20:30",5200.40667,14.73,TRADE
VIC1,"1999/12/16 21:00",5147.27667,14.08,TRADE
VIC1,"1999/12/16 21:30",5016.58833,16.32,TRADE
VIC1,"1999/12/16 22:00",4857.97167,15.21,TRADE
VIC1,"1999/12/16 22:30",4759.80333,16.26,TRADE
VIC1,"1999/12/16 23:00",4686.21667,16.08,TRADE
VIC1,"1999/12/16 23:30",5225.6,24.58,TRADE
VIC1,"1999/12/17 00:00",5175.89167,20.27,TRADE
VIC1,"1999/12/17 00:30",5027.57167,16.36,TRADE
VIC1,"1999/12/17 01:00",4833.29833,14.07,TRADE
VIC1,"1999/12/17 01:30",5103.31167,16.1,TRADE
VIC1,"1999/12/17 02:00",4941.74667,13.83,TRADE
VIC1,"1999/12/17 02:30",4704.195,13.26,TRADE
VIC1,"1999/12/17 03:00",4524.69667,12.7,TRADE
VIC1,"1999/12/17 03:30",4402.51167,11.98,TRADE
VIC1,"1999/12/17 04:00",4278.76333,11.37,TRADE
VIC1,"1999/12/17 04:30",4341.895,13.03,TRADE
VIC1,"1999/12/17 05:00",4405.29667,13.34,TRADE
VIC1,"1999/12/17 05:30",4674.59333,16.64,TRADE
VIC1,"1999/12/17 06:00",5001.64667,18.27,TRADE
VIC1,"1999/12/17 06:30",5337.37667,18.19,TRADE
VIC1,"1999/12/17 07:00",5648.53333,20.75,TRADE
VIC1,"1999/12/17 07:30",5573.42333,21.17,TRADE
VIC1,"1999/12/17 08:00",5557.09833,20.13,TRADE
VIC1,"1999/12/17 08:30",5654.27667,19.86,TRADE
VIC1,"1999/12/17 09:00",5612.06,19.5,TRADE
VIC1,"1999/12/17 09:30",5609.01667,19.99,TRADE
VIC1,"1999/12/17 10:00",5611.155,18.86,TRADE
VIC1,"1999/12/17 10:30",5670.91833,18.5,TRADE
VIC1,"1999/12/17 11:00",5661.70333,18.55,TRADE
VIC1,"1999/12/17 11:30",5605.25833,18.04,TRADE
VIC1,"1999/12/17 12:00",5561.775,17.99,TRADE
VIC1,"1999/12/17 12:30",5514.48,16.68,TRADE
VIC1,"1999/12/17 13:00",5542.70333,15.8,TRADE
VIC1,"1999/12/17 13:30",5542.71167,14.63,TRADE
VIC1,"1999/12/17 14:00",5500.40667,16.92,TRADE
VIC1,"1999/12/17 14:30",5454.18833,14.85,TRADE
VIC1,"1999/12/17 15:00",5410.085,14.12,TRADE
VIC1,"1999/12/17 15:30",5424.33833,13.99,TRADE
VIC1,"1999/12/17 16:00",5445.875,14.01,TRADE
VIC1,"1999/12/17 16:30",5405.635,13.99,TRADE
VIC1,"1999/12/17 17:00",5386.91,14,TRADE
VIC1,"1999/12/17 17:30",5253.9,13.98,TRADE
VIC1,"1999/12/17 18:00",5110.82167,13.97,TRADE
VIC1,"1999/12/17 18:30",4961.24333,13.68,TRADE
VIC1,"1999/12/17 19:00",4860.27667,12.94,TRADE
VIC1,"1999/12/17 19:30",4841.96833,13.55,TRADE
VIC1,"1999/12/17 20:00",4959.00333,13.93,TRADE
VIC1,"1999/12/17 20:30",4970.91833,13.96,TRADE
VIC1,"1999/12/17 21:00",4956.88,13.96,TRADE
VIC1,"1999/12/17 21:30",4841.92,13.97,TRADE
VIC1,"1999/12/17 22:00",4749.41167,13.96,TRADE
VIC1,"1999/12/17 22:30",4741.62167,14.13,TRADE
VIC1,"1999/12/17 23:00",4726.03333,15.27,TRADE
VIC1,"1999/12/17 23:30",5164.53167,19.53,TRADE
VIC1,"1999/12/18 00:00",5132.62833,17.26,TRADE
VIC1,"1999/12/18 00:30",4907.42,14.95,TRADE
VIC1,"1999/12/18 01:00",4771.83,14,TRADE
VIC1,"1999/12/18 01:30",5061.485,15.21,TRADE
VIC1,"1999/12/18 02:00",4900.65,14.05,TRADE
VIC1,"1999/12/18 02:30",4680.40667,13.88,TRADE
VIC1,"1999/12/18 03:00",4477.33667,13.39,TRADE
VIC1,"1999/12/18 03:30",4360.52167,12.48,TRADE
VIC1,"1999/12/18 04:00",4265.07833,12.65,TRADE
VIC1,"1999/12/18 04:30",4237.90667,12.51,TRADE
VIC1,"1999/12/18 05:00",4254.68833,12.67,TRADE
VIC1,"1999/12/18 05:30",4313.99333,12.86,TRADE
VIC1,"1999/12/18 06:00",4417.76167,12.77,TRADE
VIC1,"1999/12/18 06:30",4587.29667,14.22,TRADE
VIC1,"1999/12/18 07:00",4811.90167,16.69,TRADE
VIC1,"1999/12/18 07:30",4794.96333,17.19,TRADE
VIC1,"1999/12/18 08:00",4908.69167,17.63,TRADE
VIC1,"1999/12/18 08:30",4957.5,18.23,TRADE
VIC1,"1999/12/18 09:00",5010.25167,19.9,TRADE
VIC1,"1999/12/18 09:30",5003.15833,20.65,TRADE
VIC1,"1999/12/18 10:00",5026.01333,20.44,TRADE
VIC1,"1999/12/18 10:30",5027.54833,20.52,TRADE
VIC1,"1999/12/18 11:00",4985.21333,15.43,TRADE
VIC1,"1999/12/18 11:30",4944.02,14.04,TRADE
VIC1,"1999/12/18 12:00",4936.59,15.41,TRADE
VIC1,"1999/12/18 12:30",4909.91167,14.16,TRADE
VIC1,"1999/12/18 13:00",4878.18167,14.13,TRADE
VIC1,"1999/12/18 13:30",4828.21,14.11,TRADE
VIC1,"1999/12/18 14:00",4774.00167,14.15,TRADE
VIC1,"1999/12/18 14:30",4747.665,13.89,TRADE
VIC1,"1999/12/18 15:00",4726.59667,13.95,TRADE
VIC1,"1999/12/18 15:30",4756.925,13.97,TRADE
VIC1,"1999/12/18 16:00",4796.45833,14.2,TRADE
VIC1,"1999/12/18 16:30",4797.79833,13.98,TRADE
VIC1,"1999/12/18 17:00",4823.77833,13.69,TRADE
VIC1,"1999/12/18 17:30",4765.705,13.5,TRADE
VIC1,"1999/12/18 18:00",4715.035,13.13,TRADE
VIC1,"1999/12/18 18:30",4628.875,13.09,TRADE
VIC1,"1999/12/18 19:00",4569.345,12.96,TRADE
VIC1,"1999/12/18 19:30",4554.77167,12.93,TRADE
VIC1,"1999/12/18 20:00",4687.19667,13.99,TRADE
VIC1,"1999/12/18 20:30",4729.185,13.85,TRADE
VIC1,"1999/12/18 21:00",4671.97333,13.36,TRADE
VIC1,"1999/12/18 21:30",4631.185,13.56,TRADE
VIC1,"1999/12/18 22:00",4541.82833,12.95,TRADE
VIC1,"1999/12/18 22:30",4503.62333,12.91,TRADE
VIC1,"1999/12/18 23:00",4512.265,12.84,TRADE
VIC1,"1999/12/18 23:30",4890.68667,14.91,TRADE
VIC1,"1999/12/19 00:00",4895.475,14.09,TRADE
VIC1,"1999/12/19 00:30",4762.03333,13.51,TRADE
VIC1,"1999/12/19 01:00",4613.825,13,TRADE
VIC1,"1999/12/19 01:30",4842.835,13.62,TRADE
VIC1,"1999/12/19 02:00",4729.71833,12.84,TRADE
VIC1,"1999/12/19 02:30",4577.96,12.39,TRADE
VIC1,"1999/12/19 03:00",4335.14667,12.17,TRADE
VIC1,"1999/12/19 03:30",4182.95333,8.88,TRADE
VIC1,"1999/12/19 04:00",4057.96,8.23,TRADE
VIC1,"1999/12/19 04:30",4003.995,7.67,TRADE
VIC1,"1999/12/19 05:00",3954.16833,7.51,TRADE
VIC1,"1999/12/19 05:30",3926.44333,6.83,TRADE
VIC1,"1999/12/19 06:00",3965.9,9.05,TRADE
VIC1,"1999/12/19 06:30",4114.58667,13.03,TRADE
VIC1,"1999/12/19 07:00",4235.05167,12.96,TRADE
VIC1,"1999/12/19 07:30",4239.795,14.37,TRADE
VIC1,"1999/12/19 08:00",4303.44333,13.95,TRADE
VIC1,"1999/12/19 08:30",4374.65167,17.52,TRADE
VIC1,"1999/12/19 09:00",4457.18833,16.76,TRADE
VIC1,"1999/12/19 09:30",4496.26667,14.97,TRADE
VIC1,"1999/12/19 10:00",4496.70167,13.65,TRADE
VIC1,"1999/12/19 10:30",4502.10167,8.61,TRADE
VIC1,"1999/12/19 11:00",4509.97333,10.85,TRADE
VIC1,"1999/12/19 11:30",4547.81333,10.16,TRADE
VIC1,"1999/12/19 12:00",4508.485,8.23,TRADE
VIC1,"1999/12/19 12:30",4513.44833,8.23,TRADE
VIC1,"1999/12/19 13:00",4478.92667,8.87,TRADE
VIC1,"1999/12/19 13:30",4441.60667,8.22,TRADE
VIC1,"1999/12/19 14:00",4418.54167,8.22,TRADE
VIC1,"1999/12/19 14:30",4399.84833,8.22,TRADE
VIC1,"1999/12/19 15:00",4441.04667,11.45,TRADE
VIC1,"1999/12/19 15:30",4473.57167,13.23,TRADE
VIC1,"1999/12/19 16:00",4529.23333,13.85,TRADE
VIC1,"1999/12/19 16:30",4579.2,13.89,TRADE
VIC1,"1999/12/19 17:00",4597.125,13.96,TRADE
VIC1,"1999/12/19 17:30",4598.76333,14.02,TRADE
VIC1,"1999/12/19 18:00",4571.99833,14.08,TRADE
VIC1,"1999/12/19 18:30",4568.74,14.08,TRADE
VIC1,"1999/12/19 19:00",4528.335,14,TRADE
VIC1,"1999/12/19 19:30",4532.50333,13.85,TRADE
VIC1,"1999/12/19 20:00",4606.10333,12.52,TRADE
VIC1,"1999/12/19 20:30",4728.49333,14,TRADE
VIC1,"1999/12/19 21:00",4692.76167,13.99,TRADE
VIC1,"1999/12/19 21:30",4629.625,14.15,TRADE
VIC1,"1999/12/19 22:00",4515.50667,13.63,TRADE
VIC1,"1999/12/19 22:30",4436.41333,12.84,TRADE
VIC1,"1999/12/19 23:00",4423.47833,13.03,TRADE
VIC1,"1999/12/19 23:30",4852.83167,14.26,TRADE
VIC1,"1999/12/20 00:00",4837,14.02,TRADE
VIC1,"1999/12/20 00:30",4691.71,13.22,TRADE
VIC1,"1999/12/20 01:00",4593.49667,13.01,TRADE
VIC1,"1999/12/20 01:30",4914.27667,14.14,TRADE
VIC1,"1999/12/20 02:00",4793.82,13.37,TRADE
VIC1,"1999/12/20 02:30",4615.76833,12.72,TRADE
VIC1,"1999/12/20 03:00",4465.99667,12.37,TRADE
VIC1,"1999/12/20 03:30",4309.49167,12.13,TRADE
VIC1,"1999/12/20 04:00",4275.73167,12.12,TRADE
VIC1,"1999/12/20 04:30",4312.31,12.89,TRADE
VIC1,"1999/12/20 05:00",4398.6,13.18,TRADE
VIC1,"1999/12/20 05:30",4646.52833,15.47,TRADE
VIC1,"1999/12/20 06:00",4928.49667,14.25,TRADE
VIC1,"1999/12/20 06:30",5283.285,15.35,TRADE
VIC1,"1999/12/20 07:00",5616.74167,15.44,TRADE
VIC1,"1999/12/20 07:30",5490.05333,15.19,TRADE
VIC1,"1999/12/20 08:00",5548.985,15.14,TRADE
VIC1,"1999/12/20 08:30",5596.42,15.04,TRADE
VIC1,"1999/12/20 09:00",5591.775,14.8,TRADE
VIC1,"1999/12/20 09:30",5559.30667,14.42,TRADE
VIC1,"1999/12/20 10:00",5582.62833,14.22,TRADE
VIC1,"1999/12/20 10:30",5584.26667,14.18,TRADE
VIC1,"1999/12/20 11:00",5594.02667,14.63,TRADE
VIC1,"1999/12/20 11:30",5570.54,14.28,TRADE
VIC1,"1999/12/20 12:00",5532.475,14.16,TRADE
VIC1,"1999/12/20 12:30",5594.495,14.19,TRADE
VIC1,"1999/12/20 13:00",5630.59167,14.48,TRADE
VIC1,"1999/12/20 13:30",5646.54667,14.34,TRADE
VIC1,"1999/12/20 14:00",5615.42333,14.23,TRADE
VIC1,"1999/12/20 14:30",5633.81,14.27,TRADE
VIC1,"1999/12/20 15:00",5622.14333,14.28,TRADE
VIC1,"1999/12/20 15:30",5606.55167,14.33,TRADE
VIC1,"1999/12/20 16:00",5619.73833,14.36,TRADE
VIC1,"1999/12/20 16:30",5608.2,14.35,TRADE
VIC1,"1999/12/20 17:00",5591.045,14.31,TRADE
VIC1,"1999/12/20 17:30",5437.32667,14.48,TRADE
VIC1,"1999/12/20 18:00",5286.18667,14.13,TRADE
VIC1,"1999/12/20 18:30",5074.38667,13.98,TRADE
VIC1,"1999/12/20 19:00",4978.16667,13.97,TRADE
VIC1,"1999/12/20 19:30",4973.49833,13.98,TRADE
VIC1,"1999/12/20 20:00",5057.76,14.17,TRADE
VIC1,"1999/12/20 20:30",5171.68167,14.08,TRADE
VIC1,"1999/12/20 21:00",5127.42167,14.07,TRADE
VIC1,"1999/12/20 21:30",4990.50833,14.48,TRADE
VIC1,"1999/12/20 22:00",4845.29833,14.27,TRADE
VIC1,"1999/12/20 22:30",4744.20333,18.35,TRADE
VIC1,"1999/12/20 23:00",4700.10167,19.17,TRADE
VIC1,"1999/12/20 23:30",5165.855,24.74,TRADE
VIC1,"1999/12/21 00:00",5155.63,20.55,TRADE
VIC1,"1999/12/21 00:30",5004.145,17.25,TRADE
VIC1,"1999/12/21 01:00",4831.885,14.76,TRADE
VIC1,"1999/12/21 01:30",5151.06167,19.5,TRADE
VIC1,"1999/12/21 02:00",5025.28833,19.23,TRADE
VIC1,"1999/12/21 02:30",4747.16,14.62,TRADE
VIC1,"1999/12/21 03:00",4584.80333,13.3,TRADE
VIC1,"1999/12/21 03:30",4447.36833,12.39,TRADE
VIC1,"1999/12/21 04:00",4368.20167,11.79,TRADE
VIC1,"1999/12/21 04:30",4330.92333,13.39,TRADE
VIC1,"1999/12/21 05:00",4414.39833,13.89,TRADE
VIC1,"1999/12/21 05:30",4667.88167,14.88,TRADE
VIC1,"1999/12/21 06:00",4949.97667,15.58,TRADE
VIC1,"1999/12/21 06:30",5323.66167,14.68,TRADE
VIC1,"1999/12/21 07:00",5633.53667,16.04,TRADE
VIC1,"1999/12/21 07:30",5530.65333,16.18,TRADE
VIC1,"1999/12/21 08:00",5537.335,14.61,TRADE
VIC1,"1999/12/21 08:30",5592.15667,14.35,TRADE
VIC1,"1999/12/21 09:00",5600.32667,14.39,TRADE
VIC1,"1999/12/21 09:30",5614.975,14.71,TRADE
VIC1,"1999/12/21 10:00",5646.40833,20.66,TRADE
VIC1,"1999/12/21 10:30",5637.19833,14.52,TRADE
VIC1,"1999/12/21 11:00",5656.79833,14.39,TRADE
VIC1,"1999/12/21 11:30",5646.77,14.62,TRADE
VIC1,"1999/12/21 12:00",5642.95667,14.22,TRADE
VIC1,"1999/12/21 12:30",5644.98,14.35,TRADE
VIC1,"1999/12/21 13:00",5653.59167,14.23,TRADE
VIC1,"1999/12/21 13:30",5670.295,14.3,TRADE
VIC1,"1999/12/21 14:00",5670.13833,14.29,TRADE
VIC1,"1999/12/21 14:30",5668.42667,14.64,TRADE
VIC1,"1999/12/21 15:00",5675.09167,14.59,TRADE
VIC1,"1999/12/21 15:30",5694.63667,15.96,TRADE
VIC1,"1999/12/21 16:00",5694.09,15.14,TRADE
VIC1,"1999/12/21 16:30",5677.74,14.53,TRADE
VIC1,"1999/12/21 17:00",5639.67333,14.68,TRADE
VIC1,"1999/12/21 17:30",5529.53333,14.67,TRADE
VIC1,"1999/12/21 18:00",5335.00167,14.35,TRADE
VIC1,"1999/12/21 18:30",5163.24167,14.12,TRADE
VIC1,"1999/12/21 19:00",5049.99167,14.02,TRADE
VIC1,"1999/12/21 19:30",4977.215,14.01,TRADE
VIC1,"1999/12/21 20:00",5081.57667,14.15,TRADE
VIC1,"1999/12/21 20:30",5142.84833,14.16,TRADE
VIC1,"1999/12/21 21:00",5154.865,14.26,TRADE
VIC1,"1999/12/21 21:30",5002.92167,14.2,TRADE
VIC1,"1999/12/21 22:00",4836.38167,14.08,TRADE
VIC1,"1999/12/21 22:30",4724.84833,16.67,TRADE
VIC1,"1999/12/21 23:00",4698.57,16.95,TRADE
VIC1,"1999/12/21 23:30",5116.81167,24.29,TRADE
VIC1,"1999/12/22 00:00",5099.27333,20.08,TRADE
VIC1,"1999/12/22 00:30",4914.97667,15.14,TRADE
VIC1,"1999/12/22 01:00",4765.12833,14.06,TRADE
VIC1,"1999/12/22 01:30",5045.92333,17.97,TRADE
VIC1,"1999/12/22 02:00",4900.23167,14.23,TRADE
VIC1,"1999/12/22 02:30",4705.77833,13.56,TRADE
VIC1,"1999/12/22 03:00",4525.09167,12.42,TRADE
VIC1,"1999/12/22 03:30",4394.74,12.62,TRADE
VIC1,"1999/12/22 04:00",4366.775,12.62,TRADE
VIC1,"1999/12/22 04:30",4376.24833,13.18,TRADE
VIC1,"1999/12/22 05:00",4455.98167,13.41,TRADE
VIC1,"1999/12/22 05:30",4688.28,14.76,TRADE
VIC1,"1999/12/22 06:00",4944.04667,14.11,TRADE
VIC1,"1999/12/22 06:30",5292.32667,14.69,TRADE
VIC1,"1999/12/22 07:00",5545.51,15.35,TRADE
VIC1,"1999/12/22 07:30",5459.235,15.51,TRADE
VIC1,"1999/12/22 08:00",5529.31167,15.45,TRADE
VIC1,"1999/12/22 08:30",5592.11333,15.74,TRADE
VIC1,"1999/12/22 09:00",5601.02,16.67,TRADE
VIC1,"1999/12/22 09:30",5632.15333,16.08,TRADE
VIC1,"1999/12/22 10:00",5658.23333,15.74,TRADE
VIC1,"1999/12/22 10:30",5688.19667,16.03,TRADE
VIC1,"1999/12/22 11:00",5714.605,15.86,TRADE
VIC1,"1999/12/22 11:30",5678.13333,15.82,TRADE
VIC1,"1999/12/22 12:00",5685.63667,15.5,TRADE
VIC1,"1999/12/22 12:30",5714.19833,16.39,TRADE
VIC1,"1999/12/22 13:00",5751.63833,15.99,TRADE
VIC1,"1999/12/22 13:30",5734.95167,15.69,TRADE
VIC1,"1999/12/22 14:00",5759.25333,17.14,TRADE
VIC1,"1999/12/22 14:30",5767.55333,16.22,TRADE
VIC1,"1999/12/22 15:00",5791.565,16.21,TRADE
VIC1,"1999/12/22 15:30",5816.47833,16.47,TRADE
VIC1,"1999/12/22 16:00",5836.19333,16.48,TRADE
VIC1,"1999/12/22 16:30",5816.36333,16.28,TRADE
VIC1,"1999/12/22 17:00",5762.16333,16.03,TRADE
VIC1,"1999/12/22 17:30",5594.26,14.71,TRADE
VIC1,"1999/12/22 18:00",5397.78333,14.22,TRADE
VIC1,"1999/12/22 18:30",5202.38333,14.03,TRADE
VIC1,"1999/12/22 19:00",5081.82667,13.97,TRADE
VIC1,"1999/12/22 19:30",5008.58167,13.97,TRADE
VIC1,"1999/12/22 20:00",5006.965,13.99,TRADE
VIC1,"1999/12/22 20:30",5119.89167,14.06,TRADE
VIC1,"1999/12/22 21:00",5081.61667,13.98,TRADE
VIC1,"1999/12/22 21:30",4972.99,13.99,TRADE
VIC1,"1999/12/22 22:00",4772.845,13.83,TRADE
VIC1,"1999/12/22 22:30",4704.52833,13.86,TRADE
VIC1,"1999/12/22 23:00",4624.51833,14.19,TRADE
VIC1,"1999/12/22 23:30",5071.51833,18.78,TRADE
VIC1,"1999/12/23 00:00",5026.53667,14.8,TRADE
VIC1,"1999/12/23 00:30",4858.15167,14.75,TRADE
VIC1,"1999/12/23 01:00",4713.675,14.1,TRADE
VIC1,"1999/12/23 01:30",4994.03667,17.03,TRADE
VIC1,"1999/12/23 02:00",4788.94833,14.88,TRADE
VIC1,"1999/12/23 02:30",4584.09833,13.17,TRADE
VIC1,"1999/12/23 03:00",4392.58333,12,TRADE
VIC1,"1999/12/23 03:30",4248.14,11.42,TRADE
VIC1,"1999/12/23 04:00",4181.78833,12.34,TRADE
VIC1,"1999/12/23 04:30",4252.29,13.05,TRADE
VIC1,"1999/12/23 05:00",4316.08833,13.04,TRADE
VIC1,"1999/12/23 05:30",4518.52333,13.48,TRADE
VIC1,"1999/12/23 06:00",4803.76167,13.98,TRADE
VIC1,"1999/12/23 06:30",5102.68667,14.1,TRADE
VIC1,"1999/12/23 07:00",5377.44,14.74,TRADE
VIC1,"1999/12/23 07:30",5322.23667,14.46,TRADE
VIC1,"1999/12/23 08:00",5347.72167,14.25,TRADE
VIC1,"1999/12/23 08:30",5321.82667,14.15,TRADE
VIC1,"1999/12/23 09:00",5380.63167,14.15,TRADE
VIC1,"1999/12/23 09:30",5337.79833,14.21,TRADE
VIC1,"1999/12/23 10:00",5329.27167,14.12,TRADE
VIC1,"1999/12/23 10:30",5325.67667,14.13,TRADE
VIC1,"1999/12/23 11:00",5326.83333,14.15,TRADE
VIC1,"1999/12/23 11:30",5279.26167,14.11,TRADE
VIC1,"1999/12/23 12:00",5261.78167,14.13,TRADE
VIC1,"1999/12/23 12:30",5263.255,14.15,TRADE
VIC1,"1999/12/23 13:00",5247.215,14.17,TRADE
VIC1,"1999/12/23 13:30",5202.155,14.05,TRADE
VIC1,"1999/12/23 14:00",5242.27167,14.09,TRADE
VIC1,"1999/12/23 14:30",5186.39,14.02,TRADE
VIC1,"1999/12/23 15:00",5218.78667,14.02,TRADE
VIC1,"1999/12/23 15:30",5238.38833,14.01,TRADE
VIC1,"1999/12/23 16:00",5294.21333,14.09,TRADE
VIC1,"1999/12/23 16:30",5283.07167,14.08,TRADE
VIC1,"1999/12/23 17:00",5238.72167,14.01,TRADE
VIC1,"1999/12/23 17:30",5065.30167,13.92,TRADE
VIC1,"1999/12/23 18:00",4933.39167,13.65,TRADE
VIC1,"1999/12/23 18:30",4738.85667,12.38,TRADE
VIC1,"1999/12/23 19:00",4697.37333,12.41,TRADE
VIC1,"1999/12/23 19:30",4639.71333,12.92,TRADE
VIC1,"1999/12/23 20:00",4666.905,13.28,TRADE
VIC1,"1999/12/23 20:30",4740.70333,13.56,TRADE
VIC1,"1999/12/23 21:00",4736.35667,13.63,TRADE
VIC1,"1999/12/23 21:30",4628.005,13.54,TRADE
VIC1,"1999/12/23 22:00",4540.945,13.55,TRADE
VIC1,"1999/12/23 22:30",4466.75333,13.93,TRADE
VIC1,"1999/12/23 23:00",4443.735,13.96,TRADE
VIC1,"1999/12/23 23:30",4910.60667,18.12,TRADE
VIC1,"1999/12/24 00:00",4840.51,14.86,TRADE
VIC1,"1999/12/24 00:30",4648.08167,13.95,TRADE
VIC1,"1999/12/24 01:00",4495.275,13.88,TRADE
VIC1,"1999/12/24 01:30",4758.29167,14.7,TRADE
VIC1,"1999/12/24 02:00",4599.81833,13.62,TRADE
VIC1,"1999/12/24 02:30",4418.73667,10.43,TRADE
VIC1,"1999/12/24 03:00",4212.38333,8.7,TRADE
VIC1,"1999/12/24 03:30",4050.69833,4.6,TRADE
VIC1,"1999/12/24 04:00",3971.04167,4.42,TRADE
VIC1,"1999/12/24 04:30",3984.18333,9.09,TRADE
VIC1,"1999/12/24 05:00",4032.85167,10.27,TRADE
VIC1,"1999/12/24 05:30",4183.80667,11.87,TRADE
VIC1,"1999/12/24 06:00",4361.95833,12.09,TRADE
VIC1,"1999/12/24 06:30",4628.63,12.73,TRADE
VIC1,"1999/12/24 07:00",4846.89167,12.71,TRADE
VIC1,"1999/12/24 07:30",4757.09333,12.45,TRADE
VIC1,"1999/12/24 08:00",4785.33833,12.33,TRADE
VIC1,"1999/12/24 08:30",4886.89167,12.43,TRADE
VIC1,"1999/12/24 09:00",4916.085,12.48,TRADE
VIC1,"1999/12/24 09:30",4966.97167,12.58,TRADE
VIC1,"1999/12/24 10:00",4985.18167,12.45,TRADE
VIC1,"1999/12/24 10:30",4983.00167,12.65,TRADE
VIC1,"1999/12/24 11:00",5003.615,12.7,TRADE
VIC1,"1999/12/24 11:30",4999.375,12.72,TRADE
VIC1,"1999/12/24 12:00",4998.4475,12.7,TRADE
VIC1,"1999/12/24 12:30",4966.92,12.71,TRADE
VIC1,"1999/12/24 13:00",4952.91333,12.48,TRADE
VIC1,"1999/12/24 13:30",4977.78333,12.45,TRADE
VIC1,"1999/12/24 14:00",4975.96333,12.48,TRADE
VIC1,"1999/12/24 14:30",4985.89833,12.48,TRADE
VIC1,"1999/12/24 15:00",5025.06833,12.74,TRADE
VIC1,"1999/12/24 15:30",5087.836,13.03,TRADE
VIC1,"1999/12/24 16:00",5132.58833,13.14,TRADE
VIC1,"1999/12/24 16:30",5196.92167,13.78,TRADE
VIC1,"1999/12/24 17:00",5167.88833,13.94,TRADE
VIC1,"1999/12/24 17:30",4981.97333,13.09,TRADE
VIC1,"1999/12/24 18:00",4819.70333,11.93,TRADE
VIC1,"1999/12/24 18:30",4637.60833,12.06,TRADE
VIC1,"1999/12/24 19:00",4454.975,11.75,TRADE
VIC1,"1999/12/24 19:30",4365.60667,11.99,TRADE
VIC1,"1999/12/24 20:00",4392.735,12.26,TRADE
VIC1,"1999/12/24 20:30",4492.05833,12.61,TRADE
VIC1,"1999/12/24 21:00",4466.985,12.55,TRADE
VIC1,"1999/12/24 21:30",4400.33333,12.74,TRADE
VIC1,"1999/12/24 22:00",4310.18167,12.66,TRADE
VIC1,"1999/12/24 22:30",4315.12167,13.22,TRADE
VIC1,"1999/12/24 23:00",4277.15833,13.14,TRADE
VIC1,"1999/12/24 23:30",4689.985,15.8,TRADE
VIC1,"1999/12/25 00:00",4630.695,13.49,TRADE
VIC1,"1999/12/25 00:30",4483.73167,15.01,TRADE
VIC1,"1999/12/25 01:00",4314.75833,13.07,TRADE
VIC1,"1999/12/25 01:30",4566.58333,13.43,TRADE
VIC1,"1999/12/25 02:00",4415.43667,12.96,TRADE
VIC1,"1999/12/25 02:30",4171.60333,12.36,TRADE
VIC1,"1999/12/25 03:00",3978.20833,11.44,TRADE
VIC1,"1999/12/25 03:30",3808.51167,8.48,TRADE
VIC1,"1999/12/25 04:00",3692.34167,5.62,TRADE
VIC1,"1999/12/25 04:30",3591.63,5.03,TRADE
VIC1,"1999/12/25 05:00",3558.25,5.65,TRADE
VIC1,"1999/12/25 05:30",3576.73833,7.55,TRADE
VIC1,"1999/12/25 06:00",3630.87667,8.25,TRADE
VIC1,"1999/12/25 06:30",3776.12167,11.67,TRADE
VIC1,"1999/12/25 07:00",3933.77,12.28,TRADE
VIC1,"1999/12/25 07:30",3922.91833,12.3,TRADE
VIC1,"1999/12/25 08:00",3994.10333,12.32,TRADE
VIC1,"1999/12/25 08:30",4058.23333,12.37,TRADE
VIC1,"1999/12/25 09:00",4110.68667,12.4,TRADE
VIC1,"1999/12/25 09:30",4174.675,12.64,TRADE
VIC1,"1999/12/25 10:00",4253.175,12.54,TRADE
VIC1,"1999/12/25 10:30",4306.47667,12.65,TRADE
VIC1,"1999/12/25 11:00",4350.06167,12.42,TRADE
VIC1,"1999/12/25 11:30",4385.29667,12.61,TRADE
VIC1,"1999/12/25 12:00",4360.08,12.45,TRADE
VIC1,"1999/12/25 12:30",4308.29,12.14,TRADE
VIC1,"1999/12/25 13:00",4220.87,11.58,TRADE
VIC1,"1999/12/25 13:30",4201.67333,10.32,TRADE
VIC1,"1999/12/25 14:00",4188.71333,11.81,TRADE
VIC1,"1999/12/25 14:30",4188.71333,11.81,TRADE
VIC1,"1999/12/25 15:00",4179.98333,11.81,TRADE
VIC1,"1999/12/25 15:30",4202.92333,12.11,TRADE
VIC1,"1999/12/25 16:00",4194.925,12.08,TRADE
VIC1,"1999/12/25 16:30",4153.19667,10.49,TRADE
VIC1,"1999/12/25 17:00",4144.57,12.06,TRADE
VIC1,"1999/12/25 17:30",4111.06833,12.14,TRADE
VIC1,"1999/12/25 18:00",4067.41167,12.14,TRADE
VIC1,"1999/12/25 18:30",4038.24833,12.14,TRADE
VIC1,"1999/12/25 19:00",4009.14833,12.12,TRADE
VIC1,"1999/12/25 19:30",4018.195,12.25,TRADE
VIC1,"1999/12/25 20:00",4097.62,12.48,TRADE
VIC1,"1999/12/25 20:30",4168.54,12.66,TRADE
VIC1,"1999/12/25 21:00",4213.13167,12.78,TRADE
VIC1,"1999/12/25 21:30",4178.655,12.56,TRADE
VIC1,"1999/12/25 22:00",4113.08667,12.41,TRADE
VIC1,"1999/12/25 22:30",4072.34667,12.37,TRADE
VIC1,"1999/12/25 23:00",4039.05833,12.39,TRADE
VIC1,"1999/12/25 23:30",4432.91333,13.18,TRADE
VIC1,"1999/12/26 00:00",4389.98667,12.89,TRADE
VIC1,"1999/12/26 00:30",4242.59167,12.58,TRADE
VIC1,"1999/12/26 01:00",4073.73667,12.21,TRADE
VIC1,"1999/12/26 01:30",4372.22833,12.84,TRADE
VIC1,"1999/12/26 02:00",4236.81167,12.16,TRADE
VIC1,"1999/12/26 02:30",4052.07667,11.5,TRADE
VIC1,"1999/12/26 03:00",3847.16667,9.02,TRADE
VIC1,"1999/12/26 03:30",3721.495,8.08,TRADE
VIC1,"1999/12/26 04:00",3622.275,5.5,TRADE
VIC1,"1999/12/26 04:30",3592.005,5.5,TRADE
VIC1,"1999/12/26 05:00",3581.65333,5.5,TRADE
VIC1,"1999/12/26 05:30",3555.465,6.61,TRADE
VIC1,"1999/12/26 06:00",3587.21,7.86,TRADE
VIC1,"1999/12/26 06:30",3717.44167,10.39,TRADE
VIC1,"1999/12/26 07:00",3854.28333,11.5,TRADE
VIC1,"1999/12/26 07:30",3848.81,12.07,TRADE
VIC1,"1999/12/26 08:00",3939.04167,12.13,TRADE
VIC1,"1999/12/26 08:30",4035.05667,12.19,TRADE
VIC1,"1999/12/26 09:00",4124.86167,12.46,TRADE
VIC1,"1999/12/26 09:30",4184.29,13.1,TRADE
VIC1,"1999/12/26 10:00",4213.105,13.19,TRADE
VIC1,"1999/12/26 10:30",4280.92667,13.33,TRADE
VIC1,"1999/12/26 11:00",4278.03,13.28,TRADE
VIC1,"1999/12/26 11:30",4281.165,13.11,TRADE
VIC1,"1999/12/26 12:00",4265.32667,12.9,TRADE
VIC1,"1999/12/26 12:30",4241.41167,12.72,TRADE
VIC1,"1999/12/26 13:00",4210.895,12.45,TRADE
VIC1,"1999/12/26 13:30",4196.34667,12.13,TRADE
VIC1,"1999/12/26 14:00",4191.49167,12.13,TRADE
VIC1,"1999/12/26 14:30",4166.86833,12.12,TRADE
VIC1,"1999/12/26 15:00",4180.52,12.13,TRADE
VIC1,"1999/12/26 15:30",4219.22,12.2,TRADE
VIC1,"1999/12/26 16:00",4281.29667,12.65,TRADE
VIC1,"1999/12/26 16:30",4282.04,12.66,TRADE
VIC1,"1999/12/26 17:00",4314.72667,12.71,TRADE
VIC1,"1999/12/26 17:30",4365.11,12.8,TRADE
VIC1,"1999/12/26 18:00",4353.59333,12.83,TRADE
VIC1,"1999/12/26 18:30",4339.72667,12.76,TRADE
VIC1,"1999/12/26 19:00",4357.71167,12.69,TRADE
VIC1,"1999/12/26 19:30",4324.74333,12.74,TRADE
VIC1,"1999/12/26 20:00",4404.02333,13.13,TRADE
VIC1,"1999/12/26 20:30",4377.28667,12.74,TRADE
VIC1,"1999/12/26 21:00",4317.72833,12.6,TRADE
VIC1,"1999/12/26 21:30",4248.485,12.57,TRADE
VIC1,"1999/12/26 22:00",4160.86667,12.48,TRADE
VIC1,"1999/12/26 22:30",4099.72167,12.48,TRADE
VIC1,"1999/12/26 23:00",4101.36667,12.5,TRADE
VIC1,"1999/12/26 23:30",4515.22833,13.54,TRADE
VIC1,"1999/12/27 00:00",4494.91167,13.14,TRADE
VIC1,"1999/12/27 00:30",4347.335,12.83,TRADE
VIC1,"1999/12/27 01:00",4228.395,12.45,TRADE
VIC1,"1999/12/27 01:30",4486.655,13.08,TRADE
VIC1,"1999/12/27 02:00",4349.34667,12.74,TRADE
VIC1,"1999/12/27 02:30",4183,12.33,TRADE
VIC1,"1999/12/27 03:00",3976.86,12.08,TRADE
VIC1,"1999/12/27 03:30",3867.40333,12.11,TRADE
VIC1,"1999/12/27 04:00",3778.025,11.72,TRADE
VIC1,"1999/12/27 04:30",3757.98167,9.37,TRADE
VIC1,"1999/12/27 05:00",3744.69833,9.83,TRADE
VIC1,"1999/12/27 05:30",3840.42667,12.14,TRADE
VIC1,"1999/12/27 06:00",3881.21667,12.07,TRADE
VIC1,"1999/12/27 06:30",3969.455,10.82,TRADE
VIC1,"1999/12/27 07:00",4061.07167,12.32,TRADE
VIC1,"1999/12/27 07:30",4007.285,12.23,TRADE
VIC1,"1999/12/27 08:00",4087.17167,12.32,TRADE
VIC1,"1999/12/27 08:30",4183.52,12.36,TRADE
VIC1,"1999/12/27 09:00",4265.31833,12.73,TRADE
VIC1,"1999/12/27 09:30",4367.49833,13.75,TRADE
VIC1,"1999/12/27 10:00",4380.24833,13.78,TRADE
VIC1,"1999/12/27 10:30",4425.74833,14.25,TRADE
VIC1,"1999/12/27 11:00",4402.40667,13.79,TRADE
VIC1,"1999/12/27 11:30",4402.49,13.7,TRADE
VIC1,"1999/12/27 12:00",4360.27833,13.43,TRADE
VIC1,"1999/12/27 12:30",4371.96333,13.35,TRADE
VIC1,"1999/12/27 13:00",4354.88167,13.27,TRADE
VIC1,"1999/12/27 13:30",4350.95333,12.93,TRADE
VIC1,"1999/12/27 14:00",4325.53167,12.46,TRADE
VIC1,"1999/12/27 14:30",4311.945,12.43,TRADE
VIC1,"1999/12/27 15:00",4315.03167,12.45,TRADE
VIC1,"1999/12/27 15:30",4359.21333,12.88,TRADE
VIC1,"1999/12/27 16:00",4407.61667,12.94,TRADE
VIC1,"1999/12/27 16:30",4463.77167,13.6,TRADE
VIC1,"1999/12/27 17:00",4501.94167,13.78,TRADE
VIC1,"1999/12/27 17:30",4478.18,13.24,TRADE
VIC1,"1999/12/27 18:00",4413.81167,13.75,TRADE
VIC1,"1999/12/27 18:30",4361.87,12.98,TRADE
VIC1,"1999/12/27 19:00",4323.52167,12.6,TRADE
VIC1,"1999/12/27 19:30",4299.08333,12.55,TRADE
VIC1,"1999/12/27 20:00",3758.12333,11.32,TRADE
VIC1,"1999/12/27 20:30",3856.36833,12.12,TRADE
VIC1,"1999/12/27 21:00",4258.04833,12.62,TRADE
VIC1,"1999/12/27 21:30",4195.97,12.5,TRADE
VIC1,"1999/12/27 22:00",4099.87,12.34,TRADE
VIC1,"1999/12/27 22:30",4070.565,12.28,TRADE
VIC1,"1999/12/27 23:00",4041.21333,12.29,TRADE
VIC1,"1999/12/27 23:30",4511.465,13.99,TRADE
VIC1,"1999/12/28 00:00",4525.16167,13.41,TRADE
VIC1,"1999/12/28 00:30",4364.42167,13.62,TRADE
VIC1,"1999/12/28 01:00",4203.45167,13.2,TRADE
VIC1,"1999/12/28 01:30",4488.425,16.85,TRADE
VIC1,"1999/12/28 02:00",4382.85,15.45,TRADE
VIC1,"1999/12/28 02:30",4180.60667,12.96,TRADE
VIC1,"1999/12/28 03:00",3980.86333,11.9,TRADE
VIC1,"1999/12/28 03:30",3815.05667,7.13,TRADE
VIC1,"1999/12/28 04:00",3734.41833,6.57,TRADE
VIC1,"1999/12/28 04:30",3704.575,7.69,TRADE
VIC1,"1999/12/28 05:00",3689.945,8.58,TRADE
VIC1,"1999/12/28 05:30",3747.98667,12.29,TRADE
VIC1,"1999/12/28 06:00",3779.28333,10.02,TRADE
VIC1,"1999/12/28 06:30",3897.41833,10.73,TRADE
VIC1,"1999/12/28 07:00",3990.77333,12.72,TRADE
VIC1,"1999/12/28 07:30",3949.01333,12.98,TRADE
VIC1,"1999/12/28 08:00",4013.45167,13.45,TRADE
VIC1,"1999/12/28 08:30",4124.735,15.02,TRADE
VIC1,"1999/12/28 09:00",4207.62167,16.3,TRADE
VIC1,"1999/12/28 09:30",4247.055,16.41,TRADE
VIC1,"1999/12/28 10:00",4269.65333,15.77,TRADE
VIC1,"1999/12/28 10:30",4276.62333,14.53,TRADE
VIC1,"1999/12/28 11:00",4292.52333,14.5,TRADE
VIC1,"1999/12/28 11:30",4297.38167,14.59,TRADE
VIC1,"1999/12/28 12:00",4296.70833,16.1,TRADE
VIC1,"1999/12/28 12:30",4278.20833,14.95,TRADE
VIC1,"1999/12/28 13:00",4240.36833,14.44,TRADE
VIC1,"1999/12/28 13:30",4217.86333,14.49,TRADE
VIC1,"1999/12/28 14:00",4219.14667,13.86,TRADE
VIC1,"1999/12/28 14:30",4205.265,14.24,TRADE
VIC1,"1999/12/28 15:00",4200.25333,14.22,TRADE
VIC1,"1999/12/28 15:30",4220.69167,13.79,TRADE
VIC1,"1999/12/28 16:00",4265.9,14.91,TRADE
VIC1,"1999/12/28 16:30",4305.82167,15.32,TRADE
VIC1,"1999/12/28 17:00",4351.70833,16.71,TRADE
VIC1,"1999/12/28 17:30",4300.01,14.33,TRADE
VIC1,"1999/12/28 18:00",4245.88,14.07,TRADE
VIC1,"1999/12/28 18:30",4191.59,13.63,TRADE
VIC1,"1999/12/28 19:00",4159.5,13.22,TRADE
VIC1,"1999/12/28 19:30",4154.49333,13.57,TRADE
VIC1,"1999/12/28 20:00",4226.33,13.54,TRADE
VIC1,"1999/12/28 20:30",4275.4,13.67,TRADE
VIC1,"1999/12/28 21:00",4253.89833,14.15,TRADE
VIC1,"1999/12/28 21:30",4147.915,13.02,TRADE
VIC1,"1999/12/28 22:00",4048.86667,12.76,TRADE
VIC1,"1999/12/28 22:30",4005.66667,12.66,TRADE
VIC1,"1999/12/28 23:00",3983.83333,12.7,TRADE
VIC1,"1999/12/28 23:30",4458.995,17.57,TRADE
VIC1,"1999/12/29 00:00",4455.18,14.11,TRADE
VIC1,"1999/12/29 00:30",4342.22833,13.4,TRADE
VIC1,"1999/12/29 01:00",4196.34167,12.26,TRADE
VIC1,"1999/12/29 01:30",4517.48833,13.85,TRADE
VIC1,"1999/12/29 02:00",4403.72333,11.96,TRADE
VIC1,"1999/12/29 02:30",4216.445,7.68,TRADE
VIC1,"1999/12/29 03:00",3992.93667,3.61,TRADE
VIC1,"1999/12/29 03:30",3841.56,4.33,TRADE
VIC1,"1999/12/29 04:00",3745.97333,4.33,TRADE
VIC1,"1999/12/29 04:30",3723.11333,4.09,TRADE
VIC1,"1999/12/29 05:00",3767.18167,8.42,TRADE
VIC1,"1999/12/29 05:30",3925.725,12.85,TRADE
VIC1,"1999/12/29 06:00",4064.92333,12.33,TRADE
VIC1,"1999/12/29 06:30",4275.19,11.9,TRADE
VIC1,"1999/12/29 07:00",4455.72,13.82,TRADE
VIC1,"1999/12/29 07:30",4465.49,13.44,TRADE
VIC1,"1999/12/29 08:00",4547.95667,13.48,TRADE
VIC1,"1999/12/29 08:30",4613.12833,13.66,TRADE
VIC1,"1999/12/29 09:00",4651.505,14.03,TRADE
VIC1,"1999/12/29 09:30",4701.71833,16.45,TRADE
VIC1,"1999/12/29 10:00",4721.39667,14.01,TRADE
VIC1,"1999/12/29 10:30",4697.70167,13.76,TRADE
VIC1,"1999/12/29 11:00",4698.925,13.49,TRADE
VIC1,"1999/12/29 11:30",4690.42,13.02,TRADE
VIC1,"1999/12/29 12:00",4672.84333,12.98,TRADE
VIC1,"1999/12/29 12:30",4634.99833,12.85,TRADE
VIC1,"1999/12/29 13:00",4623.495,12.8,TRADE
VIC1,"1999/12/29 13:30",4568.51167,12.49,TRADE
VIC1,"1999/12/29 14:00",4547.62667,12.34,TRADE
VIC1,"1999/12/29 14:30",4534.36,12.23,TRADE
VIC1,"1999/12/29 15:00",4590.295,12.51,TRADE
VIC1,"1999/12/29 15:30",4630.715,12.83,TRADE
VIC1,"1999/12/29 16:00",4691.76167,13.17,TRADE
VIC1,"1999/12/29 16:30",4705.82,13.34,TRADE
VIC1,"1999/12/29 17:00",4731.85333,13.42,TRADE
VIC1,"1999/12/29 17:30",4647.99833,13.42,TRADE
VIC1,"1999/12/29 18:00",4552.21167,13.2,TRADE
VIC1,"1999/12/29 18:30",4436.64667,12.82,TRADE
VIC1,"1999/12/29 19:00",4370.33167,12.53,TRADE
VIC1,"1999/12/29 19:30",4312.285,12.63,TRADE
VIC1,"1999/12/29 20:00",4375.49667,12.88,TRADE
VIC1,"1999/12/29 20:30",4485.09167,13.28,TRADE
VIC1,"1999/12/29 21:00",4437.85333,13.2,TRADE
VIC1,"1999/12/29 21:30",4327.68167,13.4,TRADE
VIC1,"1999/12/29 22:00",4225.975,12.99,TRADE
VIC1,"1999/12/29 22:30",4168.43333,13.11,TRADE
VIC1,"1999/12/29 23:00",4137.16833,12.82,TRADE
VIC1,"1999/12/29 23:30",4591.53833,17.07,TRADE
VIC1,"1999/12/30 00:00",4589.135,13.45,TRADE
VIC1,"1999/12/30 00:30",4458.24667,13.07,TRADE
VIC1,"1999/12/30 01:00",4317.78333,12.7,TRADE
VIC1,"1999/12/30 01:30",4596.98,13.39,TRADE
VIC1,"1999/12/30 02:00",4457.02333,12.63,TRADE
VIC1,"1999/12/30 02:30",4265.17833,9.28,TRADE
VIC1,"1999/12/30 03:00",4043.83833,8.23,TRADE
VIC1,"1999/12/30 03:30",3896.11333,7.55,TRADE
VIC1,"1999/12/30 04:00",3825.42167,7.34,TRADE
VIC1,"1999/12/30 04:30",3807.585,8.21,TRADE
VIC1,"1999/12/30 05:00",3816.43833,8.19,TRADE
VIC1,"1999/12/30 05:30",3957.55,10.82,TRADE
VIC1,"1999/12/30 06:00",4125.93833,11.95,TRADE
VIC1,"1999/12/30 06:30",4312.34667,11.74,TRADE
VIC1,"1999/12/30 07:00",4524.51167,12.91,TRADE
VIC1,"1999/12/30 07:30",4486.01667,12.61,TRADE
VIC1,"1999/12/30 08:00",4543.62667,12.43,TRADE
VIC1,"1999/12/30 08:30",4626.85167,12.44,TRADE
VIC1,"1999/12/30 09:00",4660.33667,12.29,TRADE
VIC1,"1999/12/30 09:30",4648.65833,12.23,TRADE
VIC1,"1999/12/30 10:00",4634.53833,12.23,TRADE
VIC1,"1999/12/30 10:30",4658.26833,12.24,TRADE
VIC1,"1999/12/30 11:00",4671.675,12.23,TRADE
VIC1,"1999/12/30 11:30",4689.03333,12.25,TRADE
VIC1,"1999/12/30 12:00",4660.33667,12.34,TRADE
VIC1,"1999/12/30 12:30",4648.19167,12.32,TRADE
VIC1,"1999/12/30 13:00",4631.00667,12.3,TRADE
VIC1,"1999/12/30 13:30",4624.85667,12.2,TRADE
VIC1,"1999/12/30 14:00",4587.82,12.14,TRADE
VIC1,"1999/12/30 14:30",4583.09,11.59,TRADE
VIC1,"1999/12/30 15:00",4584.34,12.08,TRADE
VIC1,"1999/12/30 15:30",4619.305,12.13,TRADE
VIC1,"1999/12/30 16:00",4657.87833,12.2,TRADE
VIC1,"1999/12/30 16:30",4731.44,12.31,TRADE
VIC1,"1999/12/30 17:00",4776.23833,12.44,TRADE
VIC1,"1999/12/30 17:30",4767.815,12.5,TRADE
VIC1,"1999/12/30 18:00",4674.46,12.2,TRADE
VIC1,"1999/12/30 18:30",4561.62333,11.63,TRADE
VIC1,"1999/12/30 19:00",4493.705,11.4,TRADE
VIC1,"1999/12/30 19:30",4489.46,12.34,TRADE
VIC1,"1999/12/30 20:00",4558.92,12.52,TRADE
VIC1,"1999/12/30 20:30",4593.11833,12.77,TRADE
VIC1,"1999/12/30 21:00",4505.82833,11.85,TRADE
VIC1,"1999/12/30 21:30",4399.52,12.62,TRADE
VIC1,"1999/12/30 22:00",4294.895,12.61,TRADE
VIC1,"1999/12/30 22:30",4211.79167,12.63,TRADE
VIC1,"1999/12/30 23:00",4164.56833,12.58,TRADE
VIC1,"1999/12/30 23:30",4638.29,15.77,TRADE
VIC1,"1999/12/31 00:00",4597.60333,13.58,TRADE
VIC1,"1999/12/31 00:30",4479.14,13.38,TRADE
VIC1,"1999/12/31 01:00",4341.96167,12.91,TRADE
VIC1,"1999/12/31 01:30",4662.045,13.62,TRADE
VIC1,"1999/12/31 02:00",4518.45,13.26,TRADE
VIC1,"1999/12/31 02:30",4309.46,11.66,TRADE
VIC1,"1999/12/31 03:00",4109.10833,10.31,TRADE
VIC1,"1999/12/31 03:30",3962.295,9.25,TRADE
VIC1,"1999/12/31 04:00",3839.70667,8.43,TRADE
VIC1,"1999/12/31 04:30",3850.11833,8.23,TRADE
VIC1,"1999/12/31 05:00",3842.73,8.24,TRADE
VIC1,"1999/12/31 05:30",3948.64833,9.55,TRADE
VIC1,"1999/12/31 06:00",4073.81667,11.64,TRADE
VIC1,"1999/12/31 06:30",4299.96167,11.3,TRADE
VIC1,"1999/12/31 07:00",4541.92,12.64,TRADE
VIC1,"1999/12/31 07:30",4459.89333,12.13,TRADE
VIC1,"1999/12/31 08:00",4530.105,12.36,TRADE
VIC1,"1999/12/31 08:30",4634.11167,12.4,TRADE
VIC1,"1999/12/31 09:00",4680.935,12.52,TRADE
VIC1,"1999/12/31 09:30",4716.965,12.52,TRADE
VIC1,"1999/12/31 10:00",4690.19333,12.41,TRADE
VIC1,"1999/12/31 10:30",4683.51,12.19,TRADE
VIC1,"1999/12/31 11:00",4665.07833,12.53,TRADE
VIC1,"1999/12/31 11:30",4659.45,13.02,TRADE
VIC1,"1999/12/31 12:00",4606.48667,12.87,TRADE
VIC1,"1999/12/31 12:30",4581.97333,12.75,TRADE
VIC1,"1999/12/31 13:00",4494.21667,12.5,TRADE
VIC1,"1999/12/31 13:30",4454.35,12.35,TRADE
VIC1,"1999/12/31 14:00",4396.91,12.35,TRADE
VIC1,"1999/12/31 14:30",4348.19,12.17,TRADE
VIC1,"1999/12/31 15:00",4308.94,12.14,TRADE
VIC1,"1999/12/31 15:30",4329.71833,12.14,TRADE
VIC1,"1999/12/31 16:00",4335.60667,12.23,TRADE
VIC1,"1999/12/31 16:30",4362.38833,12.16,TRADE
VIC1,"1999/12/31 17:00",4307.73833,12.17,TRADE
VIC1,"1999/12/31 17:30",4176.49667,11.12,TRADE
VIC1,"1999/12/31 18:00",4059.91,10.36,TRADE
VIC1,"1999/12/31 18:30",3944.73333,9.42,TRADE
VIC1,"1999/12/31 19:00",3870.48,8.96,TRADE
VIC1,"1999/12/31 19:30",3824.16167,9.33,TRADE
VIC1,"1999/12/31 20:00",3847.70167,10.28,TRADE
VIC1,"1999/12/31 20:30",3919.54333,10.07,TRADE
VIC1,"1999/12/31 21:00",3882.52667,9.89,TRADE
VIC1,"1999/12/31 21:30",3839.325,11.82,TRADE
VIC1,"1999/12/31 22:00",3786.69833,6.51,TRADE
VIC1,"1999/12/31 22:30",3781.77167,3.61,TRADE
VIC1,"1999/12/31 23:00",3862.50833,4.54,TRADE
VIC1,"1999/12/31 23:30",4375.49167,12.11,TRADE
VIC1,"2000/01/01 00:00",4511.25833,11.59,TRADE
