REGION,SETTLEMENTDATE,TOTALDEMAND,RRP,PERIODTYPE
QLD1,"2013/10/01 00:30:00",5105.78,51.31,TRADE
QLD1,"2013/10/01 01:00:00",4969.32,49.87,TRADE
QLD1,"2013/10/01 01:30:00",4786.67,47.58,TRADE
QLD1,"2013/10/01 02:00:00",4680.81,46.63,TRADE
QLD1,"2013/10/01 02:30:00",4605.58,41.79,TRADE
QLD1,"2013/10/01 03:00:00",4526.36,41.03,TRADE
QLD1,"2013/10/01 03:30:00",4520.65,38.97,TRADE
QLD1,"2013/10/01 04:00:00",4545.35,41.28,TRADE
QLD1,"2013/10/01 04:30:00",4607.31,43.14,TRADE
QLD1,"2013/10/01 05:00:00",4662.03,46.01,TRADE
QLD1,"2013/10/01 05:30:00",4852.36,49.42,TRADE
QLD1,"2013/10/01 06:00:00",4948.81,49.07,TRADE
QLD1,"2013/10/01 06:30:00",5263.79,53.35,TRADE
QLD1,"2013/10/01 07:00:00",5537.45,53.6,TRADE
QLD1,"2013/10/01 07:30:00",5726.63,52.24,TRADE
QLD1,"2013/10/01 08:00:00",5810.46,56.88,TRADE
QLD1,"2013/10/01 08:30:00",5887.67,60.05,TRADE
QLD1,"2013/10/01 09:00:00",5881.19,59.19,TRADE
QLD1,"2013/10/01 09:30:00",5832.18,55.96,TRADE
QLD1,"2013/10/01 10:00:00",5827.82,57,TRADE
QLD1,"2013/10/01 10:30:00",5878.23,55.79,TRADE
QLD1,"2013/10/01 11:00:00",5854.95,58.12,TRADE
QLD1,"2013/10/01 11:30:00",5892.33,56.35,TRADE
QLD1,"2013/10/01 12:00:00",5984.56,59.06,TRADE
QLD1,"2013/10/01 12:30:00",6031.28,60.67,TRADE
QLD1,"2013/10/01 13:00:00",6053.58,60.06,TRADE
QLD1,"2013/10/01 13:30:00",6136.65,60.13,TRADE
QLD1,"2013/10/01 14:00:00",6198.41,59.03,TRADE
QLD1,"2013/10/01 14:30:00",6223.23,59.46,TRADE
QLD1,"2013/10/01 15:00:00",6309.67,60.57,TRADE
QLD1,"2013/10/01 15:30:00",6358.84,70.48,TRADE
QLD1,"2013/10/01 16:00:00",6425.11,64.96,TRADE
QLD1,"2013/10/01 16:30:00",6453.22,66.28,TRADE
QLD1,"2013/10/01 17:00:00",6585.44,84.61,TRADE
QLD1,"2013/10/01 17:30:00",6550.9,65.55,TRADE
QLD1,"2013/10/01 18:00:00",6546.47,59.8,TRADE
QLD1,"2013/10/01 18:30:00",6637.35,65.31,TRADE
QLD1,"2013/10/01 19:00:00",6690.29,67.46,TRADE
QLD1,"2013/10/01 19:30:00",6524.14,58.48,TRADE
QLD1,"2013/10/01 20:00:00",6427.53,57.1,TRADE
QLD1,"2013/10/01 20:30:00",6360.85,55.83,TRADE
QLD1,"2013/10/01 21:00:00",6141.89,54.35,TRADE
QLD1,"2013/10/01 21:30:00",5992.35,55.26,TRADE
QLD1,"2013/10/01 22:00:00",5852.11,54.14,TRADE
QLD1,"2013/10/01 22:30:00",5661.11,64.3,TRADE
QLD1,"2013/10/01 23:00:00",5539.21,57.73,TRADE
QLD1,"2013/10/01 23:30:00",5426.68,55.94,TRADE
QLD1,"2013/10/02 00:00:00",5222.8,55.45,TRADE
QLD1,"2013/10/02 00:30:00",5041.63,53.64,TRADE
QLD1,"2013/10/02 01:00:00",4952.96,53.48,TRADE
QLD1,"2013/10/02 01:30:00",4780.09,49.26,TRADE
QLD1,"2013/10/02 02:00:00",4626.85,46.08,TRADE
QLD1,"2013/10/02 02:30:00",4545.28,46.25,TRADE
QLD1,"2013/10/02 03:00:00",4519.76,45.52,TRADE
QLD1,"2013/10/02 03:30:00",4508.56,42.24,TRADE
QLD1,"2013/10/02 04:00:00",4461.98,38.76,TRADE
QLD1,"2013/10/02 04:30:00",4574.67,42.1,TRADE
QLD1,"2013/10/02 05:00:00",4610.13,45.96,TRADE
QLD1,"2013/10/02 05:30:00",4788.25,48.67,TRADE
QLD1,"2013/10/02 06:00:00",4913.38,49.03,TRADE
QLD1,"2013/10/02 06:30:00",5205.43,52.99,TRADE
QLD1,"2013/10/02 07:00:00",5489.56,53.22,TRADE
QLD1,"2013/10/02 07:30:00",5726.86,52.03,TRADE
QLD1,"2013/10/02 08:00:00",5775.64,55.33,TRADE
QLD1,"2013/10/02 08:30:00",5803.3,55.47,TRADE
QLD1,"2013/10/02 09:00:00",5819.47,55.64,TRADE
QLD1,"2013/10/02 09:30:00",5841.46,57.69,TRADE
QLD1,"2013/10/02 10:00:00",5785.34,54.94,TRADE
QLD1,"2013/10/02 10:30:00",5779.56,57.23,TRADE
QLD1,"2013/10/02 11:00:00",5782.95,55.18,TRADE
QLD1,"2013/10/02 11:30:00",5801.42,55.77,TRADE
QLD1,"2013/10/02 12:00:00",5820.18,56.52,TRADE
QLD1,"2013/10/02 12:30:00",5869.76,60.12,TRADE
QLD1,"2013/10/02 13:00:00",5911.71,57.54,TRADE
QLD1,"2013/10/02 13:30:00",5988.53,56.43,TRADE
QLD1,"2013/10/02 14:00:00",6081.35,58.49,TRADE
QLD1,"2013/10/02 14:30:00",6160.62,58.68,TRADE
QLD1,"2013/10/02 15:00:00",6201.98,58.07,TRADE
QLD1,"2013/10/02 15:30:00",6261.16,59.3,TRADE
QLD1,"2013/10/02 16:00:00",6293.74,59.85,TRADE
QLD1,"2013/10/02 16:30:00",6394.22,59.98,TRADE
QLD1,"2013/10/02 17:00:00",6505.87,62.95,TRADE
QLD1,"2013/10/02 17:30:00",6474.74,59.85,TRADE
QLD1,"2013/10/02 18:00:00",6445.94,55.07,TRADE
QLD1,"2013/10/02 18:30:00",6546.82,58.83,TRADE
QLD1,"2013/10/02 19:00:00",6578.59,58.48,TRADE
QLD1,"2013/10/02 19:30:00",6457.72,55.22,TRADE
QLD1,"2013/10/02 20:00:00",6367.06,55.19,TRADE
QLD1,"2013/10/02 20:30:00",6264.57,55.18,TRADE
QLD1,"2013/10/02 21:00:00",6089.47,53.47,TRADE
QLD1,"2013/10/02 21:30:00",5954.23,55.2,TRADE
QLD1,"2013/10/02 22:00:00",5785.83,54.94,TRADE
QLD1,"2013/10/02 22:30:00",5638,55.83,TRADE
QLD1,"2013/10/02 23:00:00",5518.37,55.54,TRADE
QLD1,"2013/10/02 23:30:00",5452.67,56.28,TRADE
QLD1,"2013/10/03 00:00:00",5225.93,55.89,TRADE
QLD1,"2013/10/03 00:30:00",5023.75,52.31,TRADE
QLD1,"2013/10/03 01:00:00",4922.75,52.01,TRADE
QLD1,"2013/10/03 01:30:00",4743.73,50.11,TRADE
QLD1,"2013/10/03 02:00:00",4589.04,47.78,TRADE
QLD1,"2013/10/03 02:30:00",4534.57,43.81,TRADE
QLD1,"2013/10/03 03:00:00",4481.32,39.46,TRADE
QLD1,"2013/10/03 03:30:00",4482.53,40.09,TRADE
QLD1,"2013/10/03 04:00:00",4472.25,41.2,TRADE
QLD1,"2013/10/03 04:30:00",4492.59,41.72,TRADE
QLD1,"2013/10/03 05:00:00",4599.1,45.1,TRADE
QLD1,"2013/10/03 05:30:00",4765.73,49.94,TRADE
QLD1,"2013/10/03 06:00:00",4920.56,51.08,TRADE
QLD1,"2013/10/03 06:30:00",5171.08,53.01,TRADE
QLD1,"2013/10/03 07:00:00",5434.32,53.26,TRADE
QLD1,"2013/10/03 07:30:00",5722.79,53.6,TRADE
QLD1,"2013/10/03 08:00:00",5820.67,59.92,TRADE
QLD1,"2013/10/03 08:30:00",5935.39,59.59,TRADE
QLD1,"2013/10/03 09:00:00",5968.56,59.36,TRADE
QLD1,"2013/10/03 09:30:00",6046.7,59.75,TRADE
QLD1,"2013/10/03 10:00:00",6032.28,59.2,TRADE
QLD1,"2013/10/03 10:30:00",6047.77,59.8,TRADE
QLD1,"2013/10/03 11:00:00",6055.66,58.58,TRADE
QLD1,"2013/10/03 11:30:00",6077.6,57.49,TRADE
QLD1,"2013/10/03 12:00:00",6098.27,58.43,TRADE
QLD1,"2013/10/03 12:30:00",6162.92,59.99,TRADE
QLD1,"2013/10/03 13:00:00",6136.39,59.98,TRADE
QLD1,"2013/10/03 13:30:00",6186.91,59.29,TRADE
QLD1,"2013/10/03 14:00:00",6239.95,59.59,TRADE
QLD1,"2013/10/03 14:30:00",6272.12,58.9,TRADE
QLD1,"2013/10/03 15:00:00",6343.61,59.38,TRADE
QLD1,"2013/10/03 15:30:00",6417.32,57.56,TRADE
QLD1,"2013/10/03 16:00:00",6467.94,56.22,TRADE
QLD1,"2013/10/03 16:30:00",6486.8,57.02,TRADE
QLD1,"2013/10/03 17:00:00",6548.56,57.32,TRADE
QLD1,"2013/10/03 17:30:00",6445.15,55.25,TRADE
QLD1,"2013/10/03 18:00:00",6410.71,54.41,TRADE
QLD1,"2013/10/03 18:30:00",6551.8,59.52,TRADE
QLD1,"2013/10/03 19:00:00",6597.58,63.24,TRADE
QLD1,"2013/10/03 19:30:00",6444.32,54.51,TRADE
QLD1,"2013/10/03 20:00:00",6374.27,54.17,TRADE
QLD1,"2013/10/03 20:30:00",6313.28,53.95,TRADE
QLD1,"2013/10/03 21:00:00",6144.14,53.06,TRADE
QLD1,"2013/10/03 21:30:00",5911.59,53.06,TRADE
QLD1,"2013/10/03 22:00:00",5742.62,52.72,TRADE
QLD1,"2013/10/03 22:30:00",5576.66,53.83,TRADE
QLD1,"2013/10/03 23:00:00",5521.12,55.02,TRADE
QLD1,"2013/10/03 23:30:00",5402.74,54.6,TRADE
QLD1,"2013/10/04 00:00:00",5215.72,54.82,TRADE
QLD1,"2013/10/04 00:30:00",5007.34,54.86,TRADE
QLD1,"2013/10/04 01:00:00",4894.08,54.65,TRADE
QLD1,"2013/10/04 01:30:00",4726.73,52.07,TRADE
QLD1,"2013/10/04 02:00:00",4589.84,49.7,TRADE
QLD1,"2013/10/04 02:30:00",4523.47,46.33,TRADE
QLD1,"2013/10/04 03:00:00",4447.88,46,TRADE
QLD1,"2013/10/04 03:30:00",4471.78,45.01,TRADE
QLD1,"2013/10/04 04:00:00",4470.12,45.24,TRADE
QLD1,"2013/10/04 04:30:00",4499.46,45.48,TRADE
QLD1,"2013/10/04 05:00:00",4588.1,48.01,TRADE
QLD1,"2013/10/04 05:30:00",4730.25,52.16,TRADE
QLD1,"2013/10/04 06:00:00",4867.94,52.3,TRADE
QLD1,"2013/10/04 06:30:00",5107.19,52.95,TRADE
QLD1,"2013/10/04 07:00:00",5311.35,52.89,TRADE
QLD1,"2013/10/04 07:30:00",5553.09,51.21,TRADE
QLD1,"2013/10/04 08:00:00",5630.46,52.6,TRADE
QLD1,"2013/10/04 08:30:00",5643.92,52.65,TRADE
QLD1,"2013/10/04 09:00:00",5584.04,52.13,TRADE
QLD1,"2013/10/04 09:30:00",5569.77,52.11,TRADE
QLD1,"2013/10/04 10:00:00",5540.17,52.09,TRADE
QLD1,"2013/10/04 10:30:00",5515.27,52.1,TRADE
QLD1,"2013/10/04 11:00:00",5460.1,52.2,TRADE
QLD1,"2013/10/04 11:30:00",5455.87,52.25,TRADE
QLD1,"2013/10/04 12:00:00",5448.2,51.86,TRADE
QLD1,"2013/10/04 12:30:00",5471.55,50.97,TRADE
QLD1,"2013/10/04 13:00:00",5477.69,52.09,TRADE
QLD1,"2013/10/04 13:30:00",5509.36,52.24,TRADE
QLD1,"2013/10/04 14:00:00",5568.71,51.54,TRADE
QLD1,"2013/10/04 14:30:00",5622.63,52.11,TRADE
QLD1,"2013/10/04 15:00:00",5609.73,51.1,TRADE
QLD1,"2013/10/04 15:30:00",5695.32,52.26,TRADE
QLD1,"2013/10/04 16:00:00",5762.71,52.57,TRADE
QLD1,"2013/10/04 16:30:00",5934.34,53.53,TRADE
QLD1,"2013/10/04 17:00:00",6057.46,54.37,TRADE
QLD1,"2013/10/04 17:30:00",6009.44,53.53,TRADE
QLD1,"2013/10/04 18:00:00",6024.14,52.99,TRADE
QLD1,"2013/10/04 18:30:00",6073.94,53.02,TRADE
QLD1,"2013/10/04 19:00:00",6157.12,53.1,TRADE
QLD1,"2013/10/04 19:30:00",6043.69,52.71,TRADE
QLD1,"2013/10/04 20:00:00",5941.03,52.99,TRADE
QLD1,"2013/10/04 20:30:00",5899.53,52.99,TRADE
QLD1,"2013/10/04 21:00:00",5722.28,52.39,TRADE
QLD1,"2013/10/04 21:30:00",5617.24,51.37,TRADE
QLD1,"2013/10/04 22:00:00",5515.66,50.99,TRADE
QLD1,"2013/10/04 22:30:00",5413.95,52.79,TRADE
QLD1,"2013/10/04 23:00:00",5339.39,53.01,TRADE
QLD1,"2013/10/04 23:30:00",5239.68,53.57,TRADE
QLD1,"2013/10/05 00:00:00",5101.53,52.63,TRADE
QLD1,"2013/10/05 00:30:00",4947.92,50.58,TRADE
QLD1,"2013/10/05 01:00:00",4788.49,48.24,TRADE
QLD1,"2013/10/05 01:30:00",4612.02,48.72,TRADE
QLD1,"2013/10/05 02:00:00",4484.99,45.12,TRADE
QLD1,"2013/10/05 02:30:00",4415.49,41.08,TRADE
QLD1,"2013/10/05 03:00:00",4396.78,40.37,TRADE
QLD1,"2013/10/05 03:30:00",4375.32,40.54,TRADE
QLD1,"2013/10/05 04:00:00",4310.45,40.82,TRADE
QLD1,"2013/10/05 04:30:00",4340.74,42.91,TRADE
QLD1,"2013/10/05 05:00:00",4375.46,37.08,TRADE
QLD1,"2013/10/05 05:30:00",4462.73,41.88,TRADE
QLD1,"2013/10/05 06:00:00",4472.13,42.19,TRADE
QLD1,"2013/10/05 06:30:00",4505.62,45.95,TRADE
QLD1,"2013/10/05 07:00:00",4631.16,46.3,TRADE
QLD1,"2013/10/05 07:30:00",4813.32,45.55,TRADE
QLD1,"2013/10/05 08:00:00",4911.15,47.05,TRADE
QLD1,"2013/10/05 08:30:00",4968.15,48.82,TRADE
QLD1,"2013/10/05 09:00:00",5014.03,49.58,TRADE
QLD1,"2013/10/05 09:30:00",5060.15,49.15,TRADE
QLD1,"2013/10/05 10:00:00",5003.58,47.79,TRADE
QLD1,"2013/10/05 10:30:00",4986.59,47.63,TRADE
QLD1,"2013/10/05 11:00:00",4948.44,46.91,TRADE
QLD1,"2013/10/05 11:30:00",4883.25,45.81,TRADE
QLD1,"2013/10/05 12:00:00",4889.97,46.24,TRADE
QLD1,"2013/10/05 12:30:00",4893.44,45.75,TRADE
QLD1,"2013/10/05 13:00:00",4901.19,45.15,TRADE
QLD1,"2013/10/05 13:30:00",4930.55,46.61,TRADE
QLD1,"2013/10/05 14:00:00",4976.98,47.39,TRADE
QLD1,"2013/10/05 14:30:00",5003.25,47.36,TRADE
QLD1,"2013/10/05 15:00:00",5100.72,48.97,TRADE
QLD1,"2013/10/05 15:30:00",5185.5,51.38,TRADE
QLD1,"2013/10/05 16:00:00",5289.68,52.02,TRADE
QLD1,"2013/10/05 16:30:00",5425.01,52.51,TRADE
QLD1,"2013/10/05 17:00:00",5597.35,53.97,TRADE
QLD1,"2013/10/05 17:30:00",5595.92,52.85,TRADE
QLD1,"2013/10/05 18:00:00",5654.17,53.16,TRADE
QLD1,"2013/10/05 18:30:00",5764.36,55.71,TRADE
QLD1,"2013/10/05 19:00:00",5883.71,54.74,TRADE
QLD1,"2013/10/05 19:30:00",5778.81,54.2,TRADE
QLD1,"2013/10/05 20:00:00",5678.04,52.78,TRADE
QLD1,"2013/10/05 20:30:00",5635.01,52.81,TRADE
QLD1,"2013/10/05 21:00:00",5529.9,52.72,TRADE
QLD1,"2013/10/05 21:30:00",5393.79,52.57,TRADE
QLD1,"2013/10/05 22:00:00",5368.01,52.85,TRADE
QLD1,"2013/10/05 22:30:00",5258.11,54.09,TRADE
QLD1,"2013/10/05 23:00:00",5190.76,55.09,TRADE
QLD1,"2013/10/05 23:30:00",5144.13,54.73,TRADE
QLD1,"2013/10/06 00:00:00",5042.37,54.12,TRADE
QLD1,"2013/10/06 00:30:00",4863.93,52.56,TRADE
QLD1,"2013/10/06 01:00:00",4692.29,52.03,TRADE
QLD1,"2013/10/06 01:30:00",4545.09,50.66,TRADE
QLD1,"2013/10/06 02:00:00",4435.37,49.96,TRADE
QLD1,"2013/10/06 02:30:00",4360.72,48.68,TRADE
QLD1,"2013/10/06 03:00:00",4307.83,46.39,TRADE
QLD1,"2013/10/06 03:30:00",4250.93,44,TRADE
QLD1,"2013/10/06 04:00:00",4281.83,45.49,TRADE
QLD1,"2013/10/06 04:30:00",4256.89,45.85,TRADE
QLD1,"2013/10/06 05:00:00",4325.15,47.44,TRADE
QLD1,"2013/10/06 05:30:00",4391.66,49.11,TRADE
QLD1,"2013/10/06 06:00:00",4366.52,48.32,TRADE
QLD1,"2013/10/06 06:30:00",4396.27,49.03,TRADE
QLD1,"2013/10/06 07:00:00",4461.91,48.16,TRADE
QLD1,"2013/10/06 07:30:00",4582.38,47.64,TRADE
QLD1,"2013/10/06 08:00:00",4624.84,47.66,TRADE
QLD1,"2013/10/06 08:30:00",4677.55,47.56,TRADE
QLD1,"2013/10/06 09:00:00",4738.73,48.12,TRADE
QLD1,"2013/10/06 09:30:00",4785.46,49.41,TRADE
QLD1,"2013/10/06 10:00:00",4837.81,50.01,TRADE
QLD1,"2013/10/06 10:30:00",4816.48,49.21,TRADE
QLD1,"2013/10/06 11:00:00",4855.17,48.78,TRADE
QLD1,"2013/10/06 11:30:00",4856.2,48.9,TRADE
QLD1,"2013/10/06 12:00:00",4882.48,48.61,TRADE
QLD1,"2013/10/06 12:30:00",4885.3,47.7,TRADE
QLD1,"2013/10/06 13:00:00",4971.45,49.74,TRADE
QLD1,"2013/10/06 13:30:00",5027.66,50.33,TRADE
QLD1,"2013/10/06 14:00:00",5035.99,50.12,TRADE
QLD1,"2013/10/06 14:30:00",5133.97,51.81,TRADE
QLD1,"2013/10/06 15:00:00",5229.18,52.16,TRADE
QLD1,"2013/10/06 15:30:00",5402.56,52.87,TRADE
QLD1,"2013/10/06 16:00:00",5453.24,53.22,TRADE
QLD1,"2013/10/06 16:30:00",5620.01,54.35,TRADE
QLD1,"2013/10/06 17:00:00",5721.06,54.94,TRADE
QLD1,"2013/10/06 17:30:00",5771.9,54.32,TRADE
QLD1,"2013/10/06 18:00:00",5782.27,53.03,TRADE
QLD1,"2013/10/06 18:30:00",5891.32,52.99,TRADE
QLD1,"2013/10/06 19:00:00",6000.97,52.91,TRADE
QLD1,"2013/10/06 19:30:00",5926.42,52.72,TRADE
QLD1,"2013/10/06 20:00:00",5847.35,52.55,TRADE
QLD1,"2013/10/06 20:30:00",5762.21,52.26,TRADE
QLD1,"2013/10/06 21:00:00",5664.42,52.14,TRADE
QLD1,"2013/10/06 21:30:00",5563.21,52.16,TRADE
QLD1,"2013/10/06 22:00:00",5433.45,51.47,TRADE
QLD1,"2013/10/06 22:30:00",5301.87,51.93,TRADE
QLD1,"2013/10/06 23:00:00",5291.7,52.81,TRADE
QLD1,"2013/10/06 23:30:00",5166.14,52.11,TRADE
QLD1,"2013/10/07 00:00:00",5054.39,51.58,TRADE
QLD1,"2013/10/07 00:30:00",4875.28,49.29,TRADE
QLD1,"2013/10/07 01:00:00",4743.94,46.2,TRADE
QLD1,"2013/10/07 01:30:00",4614.3,43.64,TRADE
QLD1,"2013/10/07 02:00:00",4478.43,42.88,TRADE
QLD1,"2013/10/07 02:30:00",4389.75,41.92,TRADE
QLD1,"2013/10/07 03:00:00",4385.13,42.06,TRADE
QLD1,"2013/10/07 03:30:00",4330.58,41.57,TRADE
QLD1,"2013/10/07 04:00:00",4311.53,41.24,TRADE
QLD1,"2013/10/07 04:30:00",4302.44,42.74,TRADE
QLD1,"2013/10/07 05:00:00",4368.13,44.04,TRADE
QLD1,"2013/10/07 05:30:00",4394.66,46.14,TRADE
QLD1,"2013/10/07 06:00:00",4404.49,44.37,TRADE
QLD1,"2013/10/07 06:30:00",4442.41,46.59,TRADE
QLD1,"2013/10/07 07:00:00",4528.59,47.27,TRADE
QLD1,"2013/10/07 07:30:00",4653.53,45.24,TRADE
QLD1,"2013/10/07 08:00:00",4728.67,45.61,TRADE
QLD1,"2013/10/07 08:30:00",4800.67,46.62,TRADE
QLD1,"2013/10/07 09:00:00",4861.9,47.69,TRADE
QLD1,"2013/10/07 09:30:00",4943.81,48.7,TRADE
QLD1,"2013/10/07 10:00:00",4989.34,50.46,TRADE
QLD1,"2013/10/07 10:30:00",4970.58,48.5,TRADE
QLD1,"2013/10/07 11:00:00",5003.4,48.87,TRADE
QLD1,"2013/10/07 11:30:00",5048.58,49.05,TRADE
QLD1,"2013/10/07 12:00:00",5164.54,50.31,TRADE
QLD1,"2013/10/07 12:30:00",5262.55,51.59,TRADE
QLD1,"2013/10/07 13:00:00",5385.51,52.37,TRADE
QLD1,"2013/10/07 13:30:00",5482.65,52.95,TRADE
QLD1,"2013/10/07 14:00:00",5583.68,52.99,TRADE
QLD1,"2013/10/07 14:30:00",5659.89,52.79,TRADE
QLD1,"2013/10/07 15:00:00",5839.62,54,TRADE
QLD1,"2013/10/07 15:30:00",5924.26,54.75,TRADE
QLD1,"2013/10/07 16:00:00",5989.2,55.13,TRADE
QLD1,"2013/10/07 16:30:00",6127.07,55.44,TRADE
QLD1,"2013/10/07 17:00:00",6250.27,56.99,TRADE
QLD1,"2013/10/07 17:30:00",6280.89,55.12,TRADE
QLD1,"2013/10/07 18:00:00",6261.81,54.24,TRADE
QLD1,"2013/10/07 18:30:00",6377.16,55.33,TRADE
QLD1,"2013/10/07 19:00:00",6438.21,55.82,TRADE
QLD1,"2013/10/07 19:30:00",6234.35,54.39,TRADE
QLD1,"2013/10/07 20:00:00",6136.5,53.19,TRADE
QLD1,"2013/10/07 20:30:00",6049.69,52.89,TRADE
QLD1,"2013/10/07 21:00:00",5883.15,52.73,TRADE
QLD1,"2013/10/07 21:30:00",5712.54,53.16,TRADE
QLD1,"2013/10/07 22:00:00",5589.95,52.7,TRADE
QLD1,"2013/10/07 22:30:00",5402.46,53.11,TRADE
QLD1,"2013/10/07 23:00:00",5339.28,53.54,TRADE
QLD1,"2013/10/07 23:30:00",5239.7,54.15,TRADE
QLD1,"2013/10/08 00:00:00",5082.35,53.41,TRADE
QLD1,"2013/10/08 00:30:00",4940.74,52.65,TRADE
QLD1,"2013/10/08 01:00:00",4829.02,52.28,TRADE
QLD1,"2013/10/08 01:30:00",4687.25,50.75,TRADE
QLD1,"2013/10/08 02:00:00",4546.38,47.38,TRADE
QLD1,"2013/10/08 02:30:00",4482.19,43.27,TRADE
QLD1,"2013/10/08 03:00:00",4474.3,44.17,TRADE
QLD1,"2013/10/08 03:30:00",4437.33,44.03,TRADE
QLD1,"2013/10/08 04:00:00",4433.11,44.52,TRADE
QLD1,"2013/10/08 04:30:00",4497.05,48.89,TRADE
QLD1,"2013/10/08 05:00:00",4587.72,51.51,TRADE
QLD1,"2013/10/08 05:30:00",4750.35,52.41,TRADE
QLD1,"2013/10/08 06:00:00",4943.54,53.6,TRADE
QLD1,"2013/10/08 06:30:00",5238.1,54.16,TRADE
QLD1,"2013/10/08 07:00:00",5601.42,62.99,TRADE
QLD1,"2013/10/08 07:30:00",5805.88,52.69,TRADE
QLD1,"2013/10/08 08:00:00",5876.77,53.23,TRADE
QLD1,"2013/10/08 08:30:00",5904.55,54.49,TRADE
QLD1,"2013/10/08 09:00:00",5938.98,54.37,TRADE
QLD1,"2013/10/08 09:30:00",5996.5,54.9,TRADE
QLD1,"2013/10/08 10:00:00",5971.43,55.46,TRADE
QLD1,"2013/10/08 10:30:00",5987.26,55.23,TRADE
QLD1,"2013/10/08 11:00:00",5988.74,54.14,TRADE
QLD1,"2013/10/08 11:30:00",6017.98,53.85,TRADE
QLD1,"2013/10/08 12:00:00",6042.71,54.49,TRADE
QLD1,"2013/10/08 12:30:00",6076,54.91,TRADE
QLD1,"2013/10/08 13:00:00",6110.21,54.86,TRADE
QLD1,"2013/10/08 13:30:00",6139.34,55.18,TRADE
QLD1,"2013/10/08 14:00:00",6216.76,55.57,TRADE
QLD1,"2013/10/08 14:30:00",6237.89,55.46,TRADE
QLD1,"2013/10/08 15:00:00",6271.27,55.74,TRADE
QLD1,"2013/10/08 15:30:00",6279.18,55.94,TRADE
QLD1,"2013/10/08 16:00:00",6373.88,55.55,TRADE
QLD1,"2013/10/08 16:30:00",6487.64,55.25,TRADE
QLD1,"2013/10/08 17:00:00",6562.83,57.59,TRADE
QLD1,"2013/10/08 17:30:00",6516.33,55.32,TRADE
QLD1,"2013/10/08 18:00:00",6464.77,53.27,TRADE
QLD1,"2013/10/08 18:30:00",6564.49,55.08,TRADE
QLD1,"2013/10/08 19:00:00",6576.74,62.27,TRADE
QLD1,"2013/10/08 19:30:00",6428.57,293.74,TRADE
QLD1,"2013/10/08 20:00:00",6363.67,52.81,TRADE
QLD1,"2013/10/08 20:30:00",6318.36,53.34,TRADE
QLD1,"2013/10/08 21:00:00",6162.89,53.07,TRADE
QLD1,"2013/10/08 21:30:00",5994.52,58.71,TRADE
QLD1,"2013/10/08 22:00:00",5832.17,52.76,TRADE
QLD1,"2013/10/08 22:30:00",5686.53,55.16,TRADE
QLD1,"2013/10/08 23:00:00",5544.85,55.2,TRADE
QLD1,"2013/10/08 23:30:00",5431.32,54.86,TRADE
QLD1,"2013/10/09 00:00:00",5241.44,54.07,TRADE
QLD1,"2013/10/09 00:30:00",5091.38,53.08,TRADE
QLD1,"2013/10/09 01:00:00",4946.08,51.66,TRADE
QLD1,"2013/10/09 01:30:00",4746.39,44.93,TRADE
QLD1,"2013/10/09 02:00:00",4618.63,42.25,TRADE
QLD1,"2013/10/09 02:30:00",4555.45,43.59,TRADE
QLD1,"2013/10/09 03:00:00",4534.83,43.29,TRADE
QLD1,"2013/10/09 03:30:00",4522.04,43.15,TRADE
QLD1,"2013/10/09 04:00:00",4503.08,43.11,TRADE
QLD1,"2013/10/09 04:30:00",4536.88,46.88,TRADE
QLD1,"2013/10/09 05:00:00",4593.26,49.99,TRADE
QLD1,"2013/10/09 05:30:00",4725.07,51.81,TRADE
QLD1,"2013/10/09 06:00:00",4895.51,52.26,TRADE
QLD1,"2013/10/09 06:30:00",5192.89,53.2,TRADE
QLD1,"2013/10/09 07:00:00",5494.38,53.58,TRADE
QLD1,"2013/10/09 07:30:00",5709.2,53.06,TRADE
QLD1,"2013/10/09 08:00:00",5787.57,52.92,TRADE
QLD1,"2013/10/09 08:30:00",5757.9,52.77,TRADE
QLD1,"2013/10/09 09:00:00",5728.16,52.81,TRADE
QLD1,"2013/10/09 09:30:00",5734.96,52.78,TRADE
QLD1,"2013/10/09 10:00:00",5719.63,52.56,TRADE
QLD1,"2013/10/09 10:30:00",5730.44,53.47,TRADE
QLD1,"2013/10/09 11:00:00",5748.2,53.76,TRADE
QLD1,"2013/10/09 11:30:00",5758.82,53.38,TRADE
QLD1,"2013/10/09 12:00:00",5771.6,53.83,TRADE
QLD1,"2013/10/09 12:30:00",5810.47,54.06,TRADE
QLD1,"2013/10/09 13:00:00",5809.62,54.12,TRADE
QLD1,"2013/10/09 13:30:00",5804.73,54.14,TRADE
QLD1,"2013/10/09 14:00:00",5876.02,54.49,TRADE
QLD1,"2013/10/09 14:30:00",5942.27,55.1,TRADE
QLD1,"2013/10/09 15:00:00",6009.08,55.91,TRADE
QLD1,"2013/10/09 15:30:00",6062.08,54.9,TRADE
QLD1,"2013/10/09 16:00:00",6171.63,55.31,TRADE
QLD1,"2013/10/09 16:30:00",6238.26,56.2,TRADE
QLD1,"2013/10/09 17:00:00",6337.69,56.57,TRADE
QLD1,"2013/10/09 17:30:00",6372.18,55.5,TRADE
QLD1,"2013/10/09 18:00:00",6345.71,52.93,TRADE
QLD1,"2013/10/09 18:30:00",6461.29,53.93,TRADE
QLD1,"2013/10/09 19:00:00",6599.83,55.65,TRADE
QLD1,"2013/10/09 19:30:00",6410.38,55.2,TRADE
QLD1,"2013/10/09 20:00:00",6331.3,56.27,TRADE
QLD1,"2013/10/09 20:30:00",6233.89,55.62,TRADE
QLD1,"2013/10/09 21:00:00",6059.58,53.51,TRADE
QLD1,"2013/10/09 21:30:00",5942.37,56.5,TRADE
QLD1,"2013/10/09 22:00:00",5830.11,54.99,TRADE
QLD1,"2013/10/09 22:30:00",5670.86,54.84,TRADE
QLD1,"2013/10/09 23:00:00",5538.18,53.16,TRADE
QLD1,"2013/10/09 23:30:00",5393.24,52.73,TRADE
QLD1,"2013/10/10 00:00:00",5203.87,52.43,TRADE
QLD1,"2013/10/10 00:30:00",5062.68,51.84,TRADE
QLD1,"2013/10/10 01:00:00",4926.77,51.29,TRADE
QLD1,"2013/10/10 01:30:00",4732.04,46.79,TRADE
QLD1,"2013/10/10 02:00:00",4588.61,40.83,TRADE
QLD1,"2013/10/10 02:30:00",4541.34,41.85,TRADE
QLD1,"2013/10/10 03:00:00",4447.66,42.45,TRADE
QLD1,"2013/10/10 03:30:00",4463.79,42.79,TRADE
QLD1,"2013/10/10 04:00:00",4466.77,42.81,TRADE
QLD1,"2013/10/10 04:30:00",4524.42,47.55,TRADE
QLD1,"2013/10/10 05:00:00",4627.21,49.82,TRADE
QLD1,"2013/10/10 05:30:00",4770.96,51.65,TRADE
QLD1,"2013/10/10 06:00:00",4933.73,52.29,TRADE
QLD1,"2013/10/10 06:30:00",5225.58,52.89,TRADE
QLD1,"2013/10/10 07:00:00",5569.75,53.19,TRADE
QLD1,"2013/10/10 07:30:00",5758.57,49.8,TRADE
QLD1,"2013/10/10 08:00:00",5770.05,50.87,TRADE
QLD1,"2013/10/10 08:30:00",5671,52.24,TRADE
QLD1,"2013/10/10 09:00:00",5706.31,52.66,TRADE
QLD1,"2013/10/10 09:30:00",5735.1,52.98,TRADE
QLD1,"2013/10/10 10:00:00",5738.79,52.99,TRADE
QLD1,"2013/10/10 10:30:00",5730.82,52.88,TRADE
QLD1,"2013/10/10 11:00:00",5697.49,52.39,TRADE
QLD1,"2013/10/10 11:30:00",5773.83,52.48,TRADE
QLD1,"2013/10/10 12:00:00",5835.1,52.97,TRADE
QLD1,"2013/10/10 12:30:00",5964.96,53.36,TRADE
QLD1,"2013/10/10 13:00:00",5967.12,53.67,TRADE
QLD1,"2013/10/10 13:30:00",6011.34,54.34,TRADE
QLD1,"2013/10/10 14:00:00",6052.23,54.78,TRADE
QLD1,"2013/10/10 14:30:00",6165,53.99,TRADE
QLD1,"2013/10/10 15:00:00",6230.16,54,TRADE
QLD1,"2013/10/10 15:30:00",6274.2,54.51,TRADE
QLD1,"2013/10/10 16:00:00",6373.32,55.17,TRADE
QLD1,"2013/10/10 16:30:00",6469.37,55.56,TRADE
QLD1,"2013/10/10 17:00:00",6545.87,73.24,TRADE
QLD1,"2013/10/10 17:30:00",6478.72,55.31,TRADE
QLD1,"2013/10/10 18:00:00",6483.06,53.29,TRADE
QLD1,"2013/10/10 18:30:00",6632.04,54.73,TRADE
QLD1,"2013/10/10 19:00:00",6740.25,55.16,TRADE
QLD1,"2013/10/10 19:30:00",6612.37,304.37,TRADE
QLD1,"2013/10/10 20:00:00",6469.94,54.61,TRADE
QLD1,"2013/10/10 20:30:00",6418.06,54.8,TRADE
QLD1,"2013/10/10 21:00:00",6265.54,54.07,TRADE
QLD1,"2013/10/10 21:30:00",6089.84,55.01,TRADE
QLD1,"2013/10/10 22:00:00",5892.07,54,TRADE
QLD1,"2013/10/10 22:30:00",5712.08,60.45,TRADE
QLD1,"2013/10/10 23:00:00",5629.54,57.87,TRADE
QLD1,"2013/10/10 23:30:00",5510.91,58.71,TRADE
QLD1,"2013/10/11 00:00:00",5323.62,55.71,TRADE
QLD1,"2013/10/11 00:30:00",5179.61,54.54,TRADE
QLD1,"2013/10/11 01:00:00",4996.06,53.43,TRADE
QLD1,"2013/10/11 01:30:00",4814.58,52.26,TRADE
QLD1,"2013/10/11 02:00:00",4712.31,48.36,TRADE
QLD1,"2013/10/11 02:30:00",4645.55,46.76,TRADE
QLD1,"2013/10/11 03:00:00",4626,48.61,TRADE
QLD1,"2013/10/11 03:30:00",4613.34,49.04,TRADE
QLD1,"2013/10/11 04:00:00",4611.26,51.29,TRADE
QLD1,"2013/10/11 04:30:00",4632.63,51.34,TRADE
QLD1,"2013/10/11 05:00:00",4712.15,52.11,TRADE
QLD1,"2013/10/11 05:30:00",4852.43,52.9,TRADE
QLD1,"2013/10/11 06:00:00",5055.76,53.23,TRADE
QLD1,"2013/10/11 06:30:00",5287.36,54.11,TRADE
QLD1,"2013/10/11 07:00:00",5596.55,56.1,TRADE
QLD1,"2013/10/11 07:30:00",5843.18,53.4,TRADE
QLD1,"2013/10/11 08:00:00",5911.61,61.82,TRADE
QLD1,"2013/10/11 08:30:00",5927.66,55.19,TRADE
QLD1,"2013/10/11 09:00:00",5926.22,54.1,TRADE
QLD1,"2013/10/11 09:30:00",5951.99,54.68,TRADE
QLD1,"2013/10/11 10:00:00",5952.33,58.8,TRADE
QLD1,"2013/10/11 10:30:00",6037.29,56.65,TRADE
QLD1,"2013/10/11 11:00:00",6091.49,54.99,TRADE
QLD1,"2013/10/11 11:30:00",6177.89,56.11,TRADE
QLD1,"2013/10/11 12:00:00",6235.85,58.5,TRADE
QLD1,"2013/10/11 12:30:00",6314.34,64.9,TRADE
QLD1,"2013/10/11 13:00:00",6379.92,108.65,TRADE
QLD1,"2013/10/11 13:30:00",6394.18,58,TRADE
QLD1,"2013/10/11 14:00:00",6523.3,59.06,TRADE
QLD1,"2013/10/11 14:30:00",6616.08,58.3,TRADE
QLD1,"2013/10/11 15:00:00",6669.59,58.82,TRADE
QLD1,"2013/10/11 15:30:00",6692.03,56.29,TRADE
QLD1,"2013/10/11 16:00:00",6789.46,57.16,TRADE
QLD1,"2013/10/11 16:30:00",6867.47,56.43,TRADE
QLD1,"2013/10/11 17:00:00",6867.8,61.54,TRADE
QLD1,"2013/10/11 17:30:00",6759.76,56.09,TRADE
QLD1,"2013/10/11 18:00:00",6667.69,55.18,TRADE
QLD1,"2013/10/11 18:30:00",6697.64,54.85,TRADE
QLD1,"2013/10/11 19:00:00",6766.16,55.18,TRADE
QLD1,"2013/10/11 19:30:00",6636.65,53.88,TRADE
QLD1,"2013/10/11 20:00:00",6546.24,53.1,TRADE
QLD1,"2013/10/11 20:30:00",6406.62,54.34,TRADE
QLD1,"2013/10/11 21:00:00",6248.76,53.19,TRADE
QLD1,"2013/10/11 21:30:00",6055.6,55.19,TRADE
QLD1,"2013/10/11 22:00:00",5887.13,56.98,TRADE
QLD1,"2013/10/11 22:30:00",5785.43,66.71,TRADE
QLD1,"2013/10/11 23:00:00",5665.3,56.62,TRADE
QLD1,"2013/10/11 23:30:00",5612.27,55.54,TRADE
QLD1,"2013/10/12 00:00:00",5380.87,55.08,TRADE
QLD1,"2013/10/12 00:30:00",5218.52,53.16,TRADE
QLD1,"2013/10/12 01:00:00",5040.34,53.17,TRADE
QLD1,"2013/10/12 01:30:00",4850.41,50.62,TRADE
QLD1,"2013/10/12 02:00:00",4759.05,51.29,TRADE
QLD1,"2013/10/12 02:30:00",4646.66,51.36,TRADE
QLD1,"2013/10/12 03:00:00",4621.06,51.38,TRADE
QLD1,"2013/10/12 03:30:00",4586.81,50.05,TRADE
QLD1,"2013/10/12 04:00:00",4614.58,49.43,TRADE
QLD1,"2013/10/12 04:30:00",4621.09,50.48,TRADE
QLD1,"2013/10/12 05:00:00",4649.57,50.79,TRADE
QLD1,"2013/10/12 05:30:00",4675.08,51.41,TRADE
QLD1,"2013/10/12 06:00:00",4724.81,50.33,TRADE
QLD1,"2013/10/12 06:30:00",4844.77,52.02,TRADE
QLD1,"2013/10/12 07:00:00",5034.1,53.26,TRADE
QLD1,"2013/10/12 07:30:00",5273.39,53.32,TRADE
QLD1,"2013/10/12 08:00:00",5384.89,53.22,TRADE
QLD1,"2013/10/12 08:30:00",5559.95,53.5,TRADE
QLD1,"2013/10/12 09:00:00",5671.1,53.72,TRADE
QLD1,"2013/10/12 09:30:00",5700.01,53.81,TRADE
QLD1,"2013/10/12 10:00:00",5652.18,53.47,TRADE
QLD1,"2013/10/12 10:30:00",5621.68,52.73,TRADE
QLD1,"2013/10/12 11:00:00",5557.48,52.89,TRADE
QLD1,"2013/10/12 11:30:00",5563.18,53.12,TRADE
QLD1,"2013/10/12 12:00:00",5582.75,53.22,TRADE
QLD1,"2013/10/12 12:30:00",5543.21,52.72,TRADE
QLD1,"2013/10/12 13:00:00",5590.36,53.64,TRADE
QLD1,"2013/10/12 13:30:00",5552.98,53.04,TRADE
QLD1,"2013/10/12 14:00:00",5618.14,54.02,TRADE
QLD1,"2013/10/12 14:30:00",5640.98,54.39,TRADE
QLD1,"2013/10/12 15:00:00",5711.61,55.22,TRADE
QLD1,"2013/10/12 15:30:00",5738.7,54.5,TRADE
QLD1,"2013/10/12 16:00:00",5847.48,56.28,TRADE
QLD1,"2013/10/12 16:30:00",5946.21,56.32,TRADE
QLD1,"2013/10/12 17:00:00",6000.18,56.74,TRADE
QLD1,"2013/10/12 17:30:00",6010.86,57.26,TRADE
QLD1,"2013/10/12 18:00:00",6005.42,53.98,TRADE
QLD1,"2013/10/12 18:30:00",6137.04,63.47,TRADE
QLD1,"2013/10/12 19:00:00",6238.81,57.25,TRADE
QLD1,"2013/10/12 19:30:00",6166.54,54.86,TRADE
QLD1,"2013/10/12 20:00:00",6065.7,54.38,TRADE
QLD1,"2013/10/12 20:30:00",6009.99,53.44,TRADE
QLD1,"2013/10/12 21:00:00",5896.98,52.99,TRADE
QLD1,"2013/10/12 21:30:00",5727.1,53.43,TRADE
QLD1,"2013/10/12 22:00:00",5612.5,53.08,TRADE
QLD1,"2013/10/12 22:30:00",5540.5,55.39,TRADE
QLD1,"2013/10/12 23:00:00",5441.91,55.8,TRADE
QLD1,"2013/10/12 23:30:00",5363.85,58.96,TRADE
QLD1,"2013/10/13 00:00:00",5183.57,56.05,TRADE
QLD1,"2013/10/13 00:30:00",5042.84,54.32,TRADE
QLD1,"2013/10/13 01:00:00",4869.12,52.97,TRADE
QLD1,"2013/10/13 01:30:00",4703.11,52.49,TRADE
QLD1,"2013/10/13 02:00:00",4576.67,51.75,TRADE
QLD1,"2013/10/13 02:30:00",4523.11,51.33,TRADE
QLD1,"2013/10/13 03:00:00",4464.85,49.79,TRADE
QLD1,"2013/10/13 03:30:00",4439.66,49.07,TRADE
QLD1,"2013/10/13 04:00:00",4434.86,48.81,TRADE
QLD1,"2013/10/13 04:30:00",4442.65,48.56,TRADE
QLD1,"2013/10/13 05:00:00",4480.81,50.51,TRADE
QLD1,"2013/10/13 05:30:00",4471.93,49.21,TRADE
QLD1,"2013/10/13 06:00:00",4432.63,48.62,TRADE
QLD1,"2013/10/13 06:30:00",4529.88,48.03,TRADE
QLD1,"2013/10/13 07:00:00",4631.73,48.39,TRADE
QLD1,"2013/10/13 07:30:00",4788.05,47.71,TRADE
QLD1,"2013/10/13 08:00:00",4908.75,51.1,TRADE
QLD1,"2013/10/13 08:30:00",4980.06,51.21,TRADE
QLD1,"2013/10/13 09:00:00",5067.28,51.98,TRADE
QLD1,"2013/10/13 09:30:00",5134.24,52.16,TRADE
QLD1,"2013/10/13 10:00:00",5142.89,52.21,TRADE
QLD1,"2013/10/13 10:30:00",5168.33,52.19,TRADE
QLD1,"2013/10/13 11:00:00",5190.77,52.27,TRADE
QLD1,"2013/10/13 11:30:00",5204.52,52.4,TRADE
QLD1,"2013/10/13 12:00:00",5258.53,52.87,TRADE
QLD1,"2013/10/13 12:30:00",5321.68,52.53,TRADE
QLD1,"2013/10/13 13:00:00",5407.97,52.9,TRADE
QLD1,"2013/10/13 13:30:00",5468.27,53.16,TRADE
QLD1,"2013/10/13 14:00:00",5537.05,53.19,TRADE
QLD1,"2013/10/13 14:30:00",5613.51,53.78,TRADE
QLD1,"2013/10/13 15:00:00",5690.9,55.18,TRADE
QLD1,"2013/10/13 15:30:00",5793.74,56.83,TRADE
QLD1,"2013/10/13 16:00:00",5875.7,57.92,TRADE
QLD1,"2013/10/13 16:30:00",5964.94,58.78,TRADE
QLD1,"2013/10/13 17:00:00",6121.93,59.59,TRADE
QLD1,"2013/10/13 17:30:00",6162.9,59.52,TRADE
QLD1,"2013/10/13 18:00:00",6214.17,56.46,TRADE
QLD1,"2013/10/13 18:30:00",6359.53,60.34,TRADE
QLD1,"2013/10/13 19:00:00",6472.03,302.96,TRADE
QLD1,"2013/10/13 19:30:00",6310.59,56.76,TRADE
QLD1,"2013/10/13 20:00:00",6261.98,57.04,TRADE
QLD1,"2013/10/13 20:30:00",6192.62,55.44,TRADE
QLD1,"2013/10/13 21:00:00",6047.81,53.18,TRADE
QLD1,"2013/10/13 21:30:00",5902.04,53.29,TRADE
QLD1,"2013/10/13 22:00:00",5691.83,52.7,TRADE
QLD1,"2013/10/13 22:30:00",5598.21,53.79,TRADE
QLD1,"2013/10/13 23:00:00",5502.67,54.72,TRADE
QLD1,"2013/10/13 23:30:00",5339.34,54.05,TRADE
QLD1,"2013/10/14 00:00:00",5199.54,55.01,TRADE
QLD1,"2013/10/14 00:30:00",5063.93,53.99,TRADE
QLD1,"2013/10/14 01:00:00",4906.1,52.57,TRADE
QLD1,"2013/10/14 01:30:00",4732.53,50.18,TRADE
QLD1,"2013/10/14 02:00:00",4643.58,48.97,TRADE
QLD1,"2013/10/14 02:30:00",4595.91,46.89,TRADE
QLD1,"2013/10/14 03:00:00",4546.17,46.49,TRADE
QLD1,"2013/10/14 03:30:00",4529.52,45.74,TRADE
QLD1,"2013/10/14 04:00:00",4540.22,46.69,TRADE
QLD1,"2013/10/14 04:30:00",4618.07,51.21,TRADE
QLD1,"2013/10/14 05:00:00",4662.22,52.18,TRADE
QLD1,"2013/10/14 05:30:00",4831.99,52.96,TRADE
QLD1,"2013/10/14 06:00:00",5025.75,54.21,TRADE
QLD1,"2013/10/14 06:30:00",5382.95,54.02,TRADE
QLD1,"2013/10/14 07:00:00",5677.36,55.38,TRADE
QLD1,"2013/10/14 07:30:00",5961.38,53.52,TRADE
QLD1,"2013/10/14 08:00:00",6071.91,56.1,TRADE
QLD1,"2013/10/14 08:30:00",6079.73,55.09,TRADE
QLD1,"2013/10/14 09:00:00",6072.35,54.29,TRADE
QLD1,"2013/10/14 09:30:00",6054.15,53.95,TRADE
QLD1,"2013/10/14 10:00:00",5975.69,53.53,TRADE
QLD1,"2013/10/14 10:30:00",5925.51,52.87,TRADE
QLD1,"2013/10/14 11:00:00",5918.1,52.99,TRADE
QLD1,"2013/10/14 11:30:00",5908.08,52.99,TRADE
QLD1,"2013/10/14 12:00:00",5909.97,52.83,TRADE
QLD1,"2013/10/14 12:30:00",5958.31,52.53,TRADE
QLD1,"2013/10/14 13:00:00",5984.42,52.6,TRADE
QLD1,"2013/10/14 13:30:00",6007.01,52.7,TRADE
QLD1,"2013/10/14 14:00:00",6043.22,52.82,TRADE
QLD1,"2013/10/14 14:30:00",6157.67,52.99,TRADE
QLD1,"2013/10/14 15:00:00",6193.43,52.99,TRADE
QLD1,"2013/10/14 15:30:00",6240.64,53.1,TRADE
QLD1,"2013/10/14 16:00:00",6341.6,54.58,TRADE
QLD1,"2013/10/14 16:30:00",6449.9,60.69,TRADE
QLD1,"2013/10/14 17:00:00",6540.46,61.98,TRADE
QLD1,"2013/10/14 17:30:00",6495.8,57,TRADE
QLD1,"2013/10/14 18:00:00",6433.21,54.66,TRADE
QLD1,"2013/10/14 18:30:00",6528.11,55.27,TRADE
QLD1,"2013/10/14 19:00:00",6606.92,56.38,TRADE
QLD1,"2013/10/14 19:30:00",6454.87,55,TRADE
QLD1,"2013/10/14 20:00:00",6356.56,54.35,TRADE
QLD1,"2013/10/14 20:30:00",6330.03,54.99,TRADE
QLD1,"2013/10/14 21:00:00",6131.73,53.2,TRADE
QLD1,"2013/10/14 21:30:00",6007.99,54.31,TRADE
QLD1,"2013/10/14 22:00:00",5831.06,52.98,TRADE
QLD1,"2013/10/14 22:30:00",5599.51,54.94,TRADE
QLD1,"2013/10/14 23:00:00",5497.45,55.69,TRADE
QLD1,"2013/10/14 23:30:00",5392.55,56.75,TRADE
QLD1,"2013/10/15 00:00:00",5193.35,54.02,TRADE
QLD1,"2013/10/15 00:30:00",5023.92,52.77,TRADE
QLD1,"2013/10/15 01:00:00",4872.2,52.97,TRADE
QLD1,"2013/10/15 01:30:00",4746.61,52.62,TRADE
QLD1,"2013/10/15 02:00:00",4607.14,50.66,TRADE
QLD1,"2013/10/15 02:30:00",4529.55,47.59,TRADE
QLD1,"2013/10/15 03:00:00",4536.85,48.26,TRADE
QLD1,"2013/10/15 03:30:00",4540.72,48.33,TRADE
QLD1,"2013/10/15 04:00:00",4546.01,48.78,TRADE
QLD1,"2013/10/15 04:30:00",4569.93,50.98,TRADE
QLD1,"2013/10/15 05:00:00",4633.86,52.4,TRADE
QLD1,"2013/10/15 05:30:00",4773.32,55.52,TRADE
QLD1,"2013/10/15 06:00:00",4941.69,53.06,TRADE
QLD1,"2013/10/15 06:30:00",5282.75,54.27,TRADE
QLD1,"2013/10/15 07:00:00",5540.37,54.26,TRADE
QLD1,"2013/10/15 07:30:00",5801.77,52.26,TRADE
QLD1,"2013/10/15 08:00:00",5910.38,53.66,TRADE
QLD1,"2013/10/15 08:30:00",5868.05,54.58,TRADE
QLD1,"2013/10/15 09:00:00",5874.88,53.9,TRADE
QLD1,"2013/10/15 09:30:00",5898.53,53.63,TRADE
QLD1,"2013/10/15 10:00:00",5861.18,53.03,TRADE
QLD1,"2013/10/15 10:30:00",5823.81,52.19,TRADE
QLD1,"2013/10/15 11:00:00",5843.49,53.15,TRADE
QLD1,"2013/10/15 11:30:00",5857.08,51.64,TRADE
QLD1,"2013/10/15 12:00:00",5857.68,51.69,TRADE
QLD1,"2013/10/15 12:30:00",5859.59,52.5,TRADE
QLD1,"2013/10/15 13:00:00",5862.89,52.18,TRADE
QLD1,"2013/10/15 13:30:00",5925.86,52.57,TRADE
QLD1,"2013/10/15 14:00:00",5981.48,52.95,TRADE
QLD1,"2013/10/15 14:30:00",6021.63,65.82,TRADE
QLD1,"2013/10/15 15:00:00",6057.66,53.44,TRADE
QLD1,"2013/10/15 15:30:00",6065.52,53.18,TRADE
QLD1,"2013/10/15 16:00:00",6223.66,54.76,TRADE
QLD1,"2013/10/15 16:30:00",6316.83,54.7,TRADE
QLD1,"2013/10/15 17:00:00",6419.3,54.46,TRADE
QLD1,"2013/10/15 17:30:00",6415.12,53.03,TRADE
QLD1,"2013/10/15 18:00:00",6485.74,53.76,TRADE
QLD1,"2013/10/15 18:30:00",6532.7,55.11,TRADE
QLD1,"2013/10/15 19:00:00",6511.38,55.84,TRADE
QLD1,"2013/10/15 19:30:00",6330.24,53.66,TRADE
QLD1,"2013/10/15 20:00:00",6205,52.87,TRADE
QLD1,"2013/10/15 20:30:00",6071.9,52.65,TRADE
QLD1,"2013/10/15 21:00:00",5989.33,52.84,TRADE
QLD1,"2013/10/15 21:30:00",6004.82,52.86,TRADE
QLD1,"2013/10/15 22:00:00",5913.2,52.67,TRADE
QLD1,"2013/10/15 22:30:00",5711.18,53.78,TRADE
QLD1,"2013/10/15 23:00:00",5505.89,53.24,TRADE
QLD1,"2013/10/15 23:30:00",5393.13,53.09,TRADE
QLD1,"2013/10/16 00:00:00",5210.95,52.66,TRADE
QLD1,"2013/10/16 00:30:00",5059.25,52.63,TRADE
QLD1,"2013/10/16 01:00:00",4902.84,52.28,TRADE
QLD1,"2013/10/16 01:30:00",4699.31,49.91,TRADE
QLD1,"2013/10/16 02:00:00",4586.83,46.73,TRADE
QLD1,"2013/10/16 02:30:00",4527.94,45.23,TRADE
QLD1,"2013/10/16 03:00:00",4472.27,43.48,TRADE
QLD1,"2013/10/16 03:30:00",4471.23,44.33,TRADE
QLD1,"2013/10/16 04:00:00",4510.89,45.31,TRADE
QLD1,"2013/10/16 04:30:00",4537.81,48.63,TRADE
QLD1,"2013/10/16 05:00:00",4616.06,51.41,TRADE
QLD1,"2013/10/16 05:30:00",4753.61,51.92,TRADE
QLD1,"2013/10/16 06:00:00",4983.84,52.71,TRADE
QLD1,"2013/10/16 06:30:00",5263.97,52.77,TRADE
QLD1,"2013/10/16 07:00:00",5550.24,52.94,TRADE
QLD1,"2013/10/16 07:30:00",5797.29,52.1,TRADE
QLD1,"2013/10/16 08:00:00",5882.39,52.9,TRADE
QLD1,"2013/10/16 08:30:00",5948.46,52.59,TRADE
QLD1,"2013/10/16 09:00:00",5923.55,52.28,TRADE
QLD1,"2013/10/16 09:30:00",5914.1,45.26,TRADE
QLD1,"2013/10/16 10:00:00",5829.26,49.65,TRADE
QLD1,"2013/10/16 10:30:00",5827.32,48.37,TRADE
QLD1,"2013/10/16 11:00:00",5758.09,51.65,TRADE
QLD1,"2013/10/16 11:30:00",5787.5,52.09,TRADE
QLD1,"2013/10/16 12:00:00",5821.01,52.2,TRADE
QLD1,"2013/10/16 12:30:00",5888.51,52.03,TRADE
QLD1,"2013/10/16 13:00:00",5922.04,52.14,TRADE
QLD1,"2013/10/16 13:30:00",5977.6,52.15,TRADE
QLD1,"2013/10/16 14:00:00",5970.9,52.18,TRADE
QLD1,"2013/10/16 14:30:00",5964.06,51.42,TRADE
QLD1,"2013/10/16 15:00:00",5992.59,51.67,TRADE
QLD1,"2013/10/16 15:30:00",6043.91,52.17,TRADE
QLD1,"2013/10/16 16:00:00",6110.4,52.09,TRADE
QLD1,"2013/10/16 16:30:00",6176,52.25,TRADE
QLD1,"2013/10/16 17:00:00",6286.37,52.47,TRADE
QLD1,"2013/10/16 17:30:00",6286.56,51.88,TRADE
QLD1,"2013/10/16 18:00:00",6315.46,52.75,TRADE
QLD1,"2013/10/16 18:30:00",6447.91,53.05,TRADE
QLD1,"2013/10/16 19:00:00",6488.12,52.45,TRADE
QLD1,"2013/10/16 19:30:00",6287.69,51.9,TRADE
QLD1,"2013/10/16 20:00:00",6160.98,52.03,TRADE
QLD1,"2013/10/16 20:30:00",6037.35,52.47,TRADE
QLD1,"2013/10/16 21:00:00",5954.47,52.13,TRADE
QLD1,"2013/10/16 21:30:00",5950.02,52.64,TRADE
QLD1,"2013/10/16 22:00:00",5901.46,51.76,TRADE
QLD1,"2013/10/16 22:30:00",5672.48,53.21,TRADE
QLD1,"2013/10/16 23:00:00",5599.86,53.69,TRADE
QLD1,"2013/10/16 23:30:00",5495.16,55.97,TRADE
QLD1,"2013/10/17 00:00:00",5258.99,53.19,TRADE
QLD1,"2013/10/17 00:30:00",5155.76,52.8,TRADE
QLD1,"2013/10/17 01:00:00",4985.15,52.13,TRADE
QLD1,"2013/10/17 01:30:00",4820.89,49.92,TRADE
QLD1,"2013/10/17 02:00:00",4672.29,46.45,TRADE
QLD1,"2013/10/17 02:30:00",4615.87,45.95,TRADE
QLD1,"2013/10/17 03:00:00",4574.99,45.01,TRADE
QLD1,"2013/10/17 03:30:00",4572.23,45.54,TRADE
QLD1,"2013/10/17 04:00:00",4632.53,47.44,TRADE
QLD1,"2013/10/17 04:30:00",4690.9,51.15,TRADE
QLD1,"2013/10/17 05:00:00",4753.04,51.98,TRADE
QLD1,"2013/10/17 05:30:00",4847.33,52.39,TRADE
QLD1,"2013/10/17 06:00:00",5020.42,52.98,TRADE
QLD1,"2013/10/17 06:30:00",5304.42,53.13,TRADE
QLD1,"2013/10/17 07:00:00",5630.2,53.43,TRADE
QLD1,"2013/10/17 07:30:00",5886.18,52.87,TRADE
QLD1,"2013/10/17 08:00:00",5916.87,52.81,TRADE
QLD1,"2013/10/17 08:30:00",5871.9,54.01,TRADE
QLD1,"2013/10/17 09:00:00",5860.03,52.99,TRADE
QLD1,"2013/10/17 09:30:00",5875.15,52.99,TRADE
QLD1,"2013/10/17 10:00:00",5861.69,52.6,TRADE
QLD1,"2013/10/17 10:30:00",5904.69,52.24,TRADE
QLD1,"2013/10/17 11:00:00",5892.22,52.05,TRADE
QLD1,"2013/10/17 11:30:00",5902.9,52.15,TRADE
QLD1,"2013/10/17 12:00:00",5911.68,52.17,TRADE
QLD1,"2013/10/17 12:30:00",5976.85,52.02,TRADE
QLD1,"2013/10/17 13:00:00",6018.68,52.43,TRADE
QLD1,"2013/10/17 13:30:00",6079.55,51.96,TRADE
QLD1,"2013/10/17 14:00:00",6106.58,52.3,TRADE
QLD1,"2013/10/17 14:30:00",6185.69,52.63,TRADE
QLD1,"2013/10/17 15:00:00",6271.32,53.92,TRADE
QLD1,"2013/10/17 15:30:00",6308.32,55.84,TRADE
QLD1,"2013/10/17 16:00:00",6373.91,104.57,TRADE
QLD1,"2013/10/17 16:30:00",6427.3,54.7,TRADE
QLD1,"2013/10/17 17:00:00",6567.07,55.67,TRADE
QLD1,"2013/10/17 17:30:00",6560.62,53.43,TRADE
QLD1,"2013/10/17 18:00:00",6595.58,52.99,TRADE
QLD1,"2013/10/17 18:30:00",6689.81,52.99,TRADE
QLD1,"2013/10/17 19:00:00",6700.42,53.23,TRADE
QLD1,"2013/10/17 19:30:00",6499.54,52.87,TRADE
QLD1,"2013/10/17 20:00:00",6319.05,52.77,TRADE
QLD1,"2013/10/17 20:30:00",6281.71,52.87,TRADE
QLD1,"2013/10/17 21:00:00",6184.11,52.87,TRADE
QLD1,"2013/10/17 21:30:00",6146.48,52.53,TRADE
QLD1,"2013/10/17 22:00:00",6022.19,51.55,TRADE
QLD1,"2013/10/17 22:30:00",5770.94,54.3,TRADE
QLD1,"2013/10/17 23:00:00",5636.33,54.54,TRADE
QLD1,"2013/10/17 23:30:00",5506.23,54.95,TRADE
QLD1,"2013/10/18 00:00:00",5330.99,54.21,TRADE
QLD1,"2013/10/18 00:30:00",5157.36,52.99,TRADE
QLD1,"2013/10/18 01:00:00",5003.25,52.79,TRADE
QLD1,"2013/10/18 01:30:00",4822.71,52.01,TRADE
QLD1,"2013/10/18 02:00:00",4739.76,50.84,TRADE
QLD1,"2013/10/18 02:30:00",4664.63,48.88,TRADE
QLD1,"2013/10/18 03:00:00",4635.72,48.38,TRADE
QLD1,"2013/10/18 03:30:00",4626.11,48.33,TRADE
QLD1,"2013/10/18 04:00:00",4664.41,48.93,TRADE
QLD1,"2013/10/18 04:30:00",4710.96,49.78,TRADE
QLD1,"2013/10/18 05:00:00",4786.39,52.06,TRADE
QLD1,"2013/10/18 05:30:00",4946.9,52.15,TRADE
QLD1,"2013/10/18 06:00:00",5110.19,53.73,TRADE
QLD1,"2013/10/18 06:30:00",5439.97,55.46,TRADE
QLD1,"2013/10/18 07:00:00",5771.36,56.08,TRADE
QLD1,"2013/10/18 07:30:00",6038.78,52.89,TRADE
QLD1,"2013/10/18 08:00:00",6130.03,53.68,TRADE
QLD1,"2013/10/18 08:30:00",6190.91,52.82,TRADE
QLD1,"2013/10/18 09:00:00",6133.8,52.71,TRADE
QLD1,"2013/10/18 09:30:00",6206.47,52.97,TRADE
QLD1,"2013/10/18 10:00:00",6253.8,53.74,TRADE
QLD1,"2013/10/18 10:30:00",6189.24,52.67,TRADE
QLD1,"2013/10/18 11:00:00",6106.9,52.65,TRADE
QLD1,"2013/10/18 11:30:00",6038.68,52.5,TRADE
QLD1,"2013/10/18 12:00:00",6014.31,52.24,TRADE
QLD1,"2013/10/18 12:30:00",6129.13,52.98,TRADE
QLD1,"2013/10/18 13:00:00",6174.1,53.01,TRADE
QLD1,"2013/10/18 13:30:00",6208.18,52.98,TRADE
QLD1,"2013/10/18 14:00:00",6279.09,52.98,TRADE
QLD1,"2013/10/18 14:30:00",6242.97,52.98,TRADE
QLD1,"2013/10/18 15:00:00",6171.83,52.98,TRADE
QLD1,"2013/10/18 15:30:00",6132.44,52.98,TRADE
QLD1,"2013/10/18 16:00:00",6200.37,52.98,TRADE
QLD1,"2013/10/18 16:30:00",6277.78,92.8,TRADE
QLD1,"2013/10/18 17:00:00",6320.69,54.71,TRADE
QLD1,"2013/10/18 17:30:00",6334.91,53.01,TRADE
QLD1,"2013/10/18 18:00:00",6432.29,53,TRADE
QLD1,"2013/10/18 18:30:00",6374.65,53.01,TRADE
QLD1,"2013/10/18 19:00:00",6289.62,56.09,TRADE
QLD1,"2013/10/18 19:30:00",6173.03,53.43,TRADE
QLD1,"2013/10/18 20:00:00",6112.4,52.97,TRADE
QLD1,"2013/10/18 20:30:00",5955.55,52.99,TRADE
QLD1,"2013/10/18 21:00:00",5847.83,52.96,TRADE
QLD1,"2013/10/18 21:30:00",5842.64,53.11,TRADE
QLD1,"2013/10/18 22:00:00",5776.84,53.03,TRADE
QLD1,"2013/10/18 22:30:00",5593.24,55.37,TRADE
QLD1,"2013/10/18 23:00:00",5497.24,54.78,TRADE
QLD1,"2013/10/18 23:30:00",5393.68,54.6,TRADE
QLD1,"2013/10/19 00:00:00",5224.33,53.1,TRADE
QLD1,"2013/10/19 00:30:00",5014.3,53.34,TRADE
QLD1,"2013/10/19 01:00:00",4902.35,54.18,TRADE
QLD1,"2013/10/19 01:30:00",4678.62,52.98,TRADE
QLD1,"2013/10/19 02:00:00",4590.25,52.33,TRADE
QLD1,"2013/10/19 02:30:00",4531.27,51.53,TRADE
QLD1,"2013/10/19 03:00:00",4484.41,49.62,TRADE
QLD1,"2013/10/19 03:30:00",4478.02,50.74,TRADE
QLD1,"2013/10/19 04:00:00",4477.84,48.78,TRADE
QLD1,"2013/10/19 04:30:00",4514.18,49.96,TRADE
QLD1,"2013/10/19 05:00:00",4547.36,52.07,TRADE
QLD1,"2013/10/19 05:30:00",4554.84,51.9,TRADE
QLD1,"2013/10/19 06:00:00",4550.42,52.16,TRADE
QLD1,"2013/10/19 06:30:00",4698.58,51,TRADE
QLD1,"2013/10/19 07:00:00",4850.28,52.79,TRADE
QLD1,"2013/10/19 07:30:00",4991.1,52.91,TRADE
QLD1,"2013/10/19 08:00:00",5065.5,52.91,TRADE
QLD1,"2013/10/19 08:30:00",5156.66,52.98,TRADE
QLD1,"2013/10/19 09:00:00",5243.6,52.98,TRADE
QLD1,"2013/10/19 09:30:00",5277.08,52.98,TRADE
QLD1,"2013/10/19 10:00:00",5239.73,52.97,TRADE
QLD1,"2013/10/19 10:30:00",5257.44,52.97,TRADE
QLD1,"2013/10/19 11:00:00",5229.26,52.98,TRADE
QLD1,"2013/10/19 11:30:00",5246.58,52.98,TRADE
QLD1,"2013/10/19 12:00:00",5257.81,52.98,TRADE
QLD1,"2013/10/19 12:30:00",5236.32,52.98,TRADE
QLD1,"2013/10/19 13:00:00",5234.93,52.97,TRADE
QLD1,"2013/10/19 13:30:00",5274,52.97,TRADE
QLD1,"2013/10/19 14:00:00",5305.88,52.98,TRADE
QLD1,"2013/10/19 14:30:00",5361.2,52.98,TRADE
QLD1,"2013/10/19 15:00:00",5385.08,52.97,TRADE
QLD1,"2013/10/19 15:30:00",5418.65,52.97,TRADE
QLD1,"2013/10/19 16:00:00",5507.81,52.98,TRADE
QLD1,"2013/10/19 16:30:00",5649,53.42,TRADE
QLD1,"2013/10/19 17:00:00",5782.5,56.82,TRADE
QLD1,"2013/10/19 17:30:00",5860.32,57.42,TRADE
QLD1,"2013/10/19 18:00:00",5946.15,54.33,TRADE
QLD1,"2013/10/19 18:30:00",6033.28,55.96,TRADE
QLD1,"2013/10/19 19:00:00",6061.5,56.1,TRADE
QLD1,"2013/10/19 19:30:00",5930.88,54.59,TRADE
QLD1,"2013/10/19 20:00:00",5812.84,53.19,TRADE
QLD1,"2013/10/19 20:30:00",5682.1,52.98,TRADE
QLD1,"2013/10/19 21:00:00",5653.8,52.99,TRADE
QLD1,"2013/10/19 21:30:00",5722.05,53.29,TRADE
QLD1,"2013/10/19 22:00:00",5647.79,53.16,TRADE
QLD1,"2013/10/19 22:30:00",5507.64,55.31,TRADE
QLD1,"2013/10/19 23:00:00",5427.71,54.95,TRADE
QLD1,"2013/10/19 23:30:00",5343.6,54.96,TRADE
QLD1,"2013/10/20 00:00:00",5155.44,54.1,TRADE
QLD1,"2013/10/20 00:30:00",5059.34,53.82,TRADE
QLD1,"2013/10/20 01:00:00",4907.08,54.12,TRADE
QLD1,"2013/10/20 01:30:00",4699.6,50.55,TRADE
QLD1,"2013/10/20 02:00:00",4575.67,48.36,TRADE
QLD1,"2013/10/20 02:30:00",4517.64,47.72,TRADE
QLD1,"2013/10/20 03:00:00",4464.15,48.95,TRADE
QLD1,"2013/10/20 03:30:00",4426.33,46.65,TRADE
QLD1,"2013/10/20 04:00:00",4401.37,46.28,TRADE
QLD1,"2013/10/20 04:30:00",4424.82,46.76,TRADE
QLD1,"2013/10/20 05:00:00",4419.97,46.32,TRADE
QLD1,"2013/10/20 05:30:00",4450.03,46.94,TRADE
QLD1,"2013/10/20 06:00:00",4480.38,46.78,TRADE
QLD1,"2013/10/20 06:30:00",4483.78,49.05,TRADE
QLD1,"2013/10/20 07:00:00",4579.29,51.57,TRADE
QLD1,"2013/10/20 07:30:00",4757.22,49.3,TRADE
QLD1,"2013/10/20 08:00:00",4848.59,52.65,TRADE
QLD1,"2013/10/20 08:30:00",4973.83,52.92,TRADE
QLD1,"2013/10/20 09:00:00",5058.6,52.87,TRADE
QLD1,"2013/10/20 09:30:00",5150.11,52.92,TRADE
QLD1,"2013/10/20 10:00:00",5148.11,52.88,TRADE
QLD1,"2013/10/20 10:30:00",5141.2,52.85,TRADE
QLD1,"2013/10/20 11:00:00",5127.24,52.77,TRADE
QLD1,"2013/10/20 11:30:00",5127.07,52.79,TRADE
QLD1,"2013/10/20 12:00:00",5149.71,52.89,TRADE
QLD1,"2013/10/20 12:30:00",5173.41,52.96,TRADE
QLD1,"2013/10/20 13:00:00",5183.43,52.98,TRADE
QLD1,"2013/10/20 13:30:00",5241.37,52.98,TRADE
QLD1,"2013/10/20 14:00:00",5240.05,52.98,TRADE
QLD1,"2013/10/20 14:30:00",5307.29,52.98,TRADE
QLD1,"2013/10/20 15:00:00",5353.57,53.04,TRADE
QLD1,"2013/10/20 15:30:00",5404.64,52.97,TRADE
QLD1,"2013/10/20 16:00:00",5520.8,53.36,TRADE
QLD1,"2013/10/20 16:30:00",5633.3,54.95,TRADE
QLD1,"2013/10/20 17:00:00",5782.35,57.43,TRADE
QLD1,"2013/10/20 17:30:00",5878.08,59.8,TRADE
QLD1,"2013/10/20 18:00:00",6049.55,60.85,TRADE
QLD1,"2013/10/20 18:30:00",6147.17,60.62,TRADE
QLD1,"2013/10/20 19:00:00",6194.36,61.99,TRADE
QLD1,"2013/10/20 19:30:00",6065.04,58.4,TRADE
QLD1,"2013/10/20 20:00:00",5971.91,54.85,TRADE
QLD1,"2013/10/20 20:30:00",5843.69,53.63,TRADE
QLD1,"2013/10/20 21:00:00",5726.97,52.95,TRADE
QLD1,"2013/10/20 21:30:00",5725.89,53.2,TRADE
QLD1,"2013/10/20 22:00:00",5663.49,53.04,TRADE
QLD1,"2013/10/20 22:30:00",5464.09,55.65,TRADE
QLD1,"2013/10/20 23:00:00",5381.38,58.41,TRADE
QLD1,"2013/10/20 23:30:00",5303.24,62.47,TRADE
QLD1,"2013/10/21 00:00:00",5127.33,55.28,TRADE
QLD1,"2013/10/21 00:30:00",4993.16,53.86,TRADE
QLD1,"2013/10/21 01:00:00",4833.32,54.97,TRADE
QLD1,"2013/10/21 01:30:00",4637.48,53.33,TRADE
QLD1,"2013/10/21 02:00:00",4572.92,52.92,TRADE
QLD1,"2013/10/21 02:30:00",4527.21,52.97,TRADE
QLD1,"2013/10/21 03:00:00",4488.49,52.71,TRADE
QLD1,"2013/10/21 03:30:00",4492.94,52.73,TRADE
QLD1,"2013/10/21 04:00:00",4494.27,53.06,TRADE
QLD1,"2013/10/21 04:30:00",4560,53.91,TRADE
QLD1,"2013/10/21 05:00:00",4655.15,57.21,TRADE
QLD1,"2013/10/21 05:30:00",4825.61,56.03,TRADE
QLD1,"2013/10/21 06:00:00",4963.14,53.15,TRADE
QLD1,"2013/10/21 06:30:00",5299.46,56.52,TRADE
QLD1,"2013/10/21 07:00:00",5549.92,69.42,TRADE
QLD1,"2013/10/21 07:30:00",5855.92,53.97,TRADE
QLD1,"2013/10/21 08:00:00",6011.99,56.51,TRADE
QLD1,"2013/10/21 08:30:00",6134.76,56.43,TRADE
QLD1,"2013/10/21 09:00:00",6178,60.17,TRADE
QLD1,"2013/10/21 09:30:00",6170.69,71.24,TRADE
QLD1,"2013/10/21 10:00:00",6153.41,57.57,TRADE
QLD1,"2013/10/21 10:30:00",6161.37,55.73,TRADE
QLD1,"2013/10/21 11:00:00",6143.18,57.04,TRADE
QLD1,"2013/10/21 11:30:00",6161.24,58.05,TRADE
QLD1,"2013/10/21 12:00:00",6237.63,62.07,TRADE
QLD1,"2013/10/21 12:30:00",6206.28,55.35,TRADE
QLD1,"2013/10/21 13:00:00",6240.14,66.18,TRADE
QLD1,"2013/10/21 13:30:00",6255.17,64.97,TRADE
QLD1,"2013/10/21 14:00:00",6337.81,65.29,TRADE
QLD1,"2013/10/21 14:30:00",6357.61,68.21,TRADE
QLD1,"2013/10/21 15:00:00",6401.88,68.04,TRADE
QLD1,"2013/10/21 15:30:00",6434.81,75.41,TRADE
QLD1,"2013/10/21 16:00:00",6482.76,83.28,TRADE
QLD1,"2013/10/21 16:30:00",6491,75.78,TRADE
QLD1,"2013/10/21 17:00:00",6371.75,61.19,TRADE
QLD1,"2013/10/21 17:30:00",6409.71,55.05,TRADE
QLD1,"2013/10/21 18:00:00",6390.22,61.26,TRADE
QLD1,"2013/10/21 18:30:00",6626.74,376.51,TRADE
QLD1,"2013/10/21 19:00:00",6648.07,98.6,TRADE
QLD1,"2013/10/21 19:30:00",6511.84,92.44,TRADE
QLD1,"2013/10/21 20:00:00",6374.46,74.23,TRADE
QLD1,"2013/10/21 20:30:00",6206.6,54.19,TRADE
QLD1,"2013/10/21 21:00:00",6138.16,53.16,TRADE
QLD1,"2013/10/21 21:30:00",6112.19,59.04,TRADE
QLD1,"2013/10/21 22:00:00",5986.54,56.36,TRADE
QLD1,"2013/10/21 22:30:00",5718.1,108.84,TRADE
QLD1,"2013/10/21 23:00:00",5540.76,301.86,TRADE
QLD1,"2013/10/21 23:30:00",5417.19,68.22,TRADE
QLD1,"2013/10/22 00:00:00",5217.25,59.55,TRADE
QLD1,"2013/10/22 00:30:00",5056.15,76.91,TRADE
QLD1,"2013/10/22 01:00:00",4954.22,63.38,TRADE
QLD1,"2013/10/22 01:30:00",4798.9,55.57,TRADE
QLD1,"2013/10/22 02:00:00",4663.11,54.43,TRADE
QLD1,"2013/10/22 02:30:00",4599.39,55,TRADE
QLD1,"2013/10/22 03:00:00",4598.22,55.33,TRADE
QLD1,"2013/10/22 03:30:00",4549.02,55.5,TRADE
QLD1,"2013/10/22 04:00:00",4585.52,55.59,TRADE
QLD1,"2013/10/22 04:30:00",4631.04,55.54,TRADE
QLD1,"2013/10/22 05:00:00",4759.25,57.09,TRADE
QLD1,"2013/10/22 05:30:00",4890.61,56.05,TRADE
QLD1,"2013/10/22 06:00:00",5038.17,55.58,TRADE
QLD1,"2013/10/22 06:30:00",5378.51,59.43,TRADE
QLD1,"2013/10/22 07:00:00",5641.46,74.5,TRADE
QLD1,"2013/10/22 07:30:00",5885.04,56.73,TRADE
QLD1,"2013/10/22 08:00:00",5966.07,56.63,TRADE
QLD1,"2013/10/22 08:30:00",5994.56,56.25,TRADE
QLD1,"2013/10/22 09:00:00",5974.59,55.08,TRADE
QLD1,"2013/10/22 09:30:00",5978.06,58.03,TRADE
QLD1,"2013/10/22 10:00:00",5906.73,58.88,TRADE
QLD1,"2013/10/22 10:30:00",5960.19,65.34,TRADE
QLD1,"2013/10/22 11:00:00",5962.11,83.35,TRADE
QLD1,"2013/10/22 11:30:00",5988.81,99.88,TRADE
QLD1,"2013/10/22 12:00:00",6013.14,99.87,TRADE
QLD1,"2013/10/22 12:30:00",6026.05,99.87,TRADE
QLD1,"2013/10/22 13:00:00",6083.64,99.87,TRADE
QLD1,"2013/10/22 13:30:00",6141.22,67.6,TRADE
QLD1,"2013/10/22 14:00:00",6223.01,84.53,TRADE
QLD1,"2013/10/22 14:30:00",6231.71,80.52,TRADE
QLD1,"2013/10/22 15:00:00",6234.38,80.84,TRADE
QLD1,"2013/10/22 15:30:00",6285.26,84.16,TRADE
QLD1,"2013/10/22 16:00:00",6356.47,57.6,TRADE
QLD1,"2013/10/22 16:30:00",6529.63,64.34,TRADE
QLD1,"2013/10/22 17:00:00",6677.13,81.34,TRADE
QLD1,"2013/10/22 17:30:00",6681.3,116.83,TRADE
QLD1,"2013/10/22 18:00:00",6625.87,99.85,TRADE
QLD1,"2013/10/22 18:30:00",6583.04,103.28,TRADE
QLD1,"2013/10/22 19:00:00",6653.1,109.71,TRADE
QLD1,"2013/10/22 19:30:00",6491.76,98.43,TRADE
QLD1,"2013/10/22 20:00:00",6369.78,71.74,TRADE
QLD1,"2013/10/22 20:30:00",6229.54,54.64,TRADE
QLD1,"2013/10/22 21:00:00",6154,54.43,TRADE
QLD1,"2013/10/22 21:30:00",6141.55,108.65,TRADE
QLD1,"2013/10/22 22:00:00",5912.26,54.96,TRADE
QLD1,"2013/10/22 22:30:00",5770.52,55.67,TRADE
QLD1,"2013/10/22 23:00:00",5626.64,55.62,TRADE
QLD1,"2013/10/22 23:30:00",5507.34,57.48,TRADE
QLD1,"2013/10/23 00:00:00",5295.17,56.18,TRADE
QLD1,"2013/10/23 00:30:00",5152.59,55.31,TRADE
QLD1,"2013/10/23 01:00:00",4993.51,54.59,TRADE
QLD1,"2013/10/23 01:30:00",4785.77,53.66,TRADE
QLD1,"2013/10/23 02:00:00",4654.78,52.89,TRADE
QLD1,"2013/10/23 02:30:00",4617.9,52.77,TRADE
QLD1,"2013/10/23 03:00:00",4617.84,52.17,TRADE
QLD1,"2013/10/23 03:30:00",4590.03,51.87,TRADE
QLD1,"2013/10/23 04:00:00",4587.96,52.54,TRADE
QLD1,"2013/10/23 04:30:00",4623.24,53.34,TRADE
QLD1,"2013/10/23 05:00:00",4735.03,54.78,TRADE
QLD1,"2013/10/23 05:30:00",4859.98,54.35,TRADE
QLD1,"2013/10/23 06:00:00",5054.85,53.56,TRADE
QLD1,"2013/10/23 06:30:00",5358.53,57.09,TRADE
QLD1,"2013/10/23 07:00:00",5583.09,548.1,TRADE
QLD1,"2013/10/23 07:30:00",5924.21,55.3,TRADE
QLD1,"2013/10/23 08:00:00",6023.95,56.4,TRADE
QLD1,"2013/10/23 08:30:00",6049.68,56.21,TRADE
QLD1,"2013/10/23 09:00:00",6060.87,56.51,TRADE
QLD1,"2013/10/23 09:30:00",6048,63.49,TRADE
QLD1,"2013/10/23 10:00:00",5982.01,69.02,TRADE
QLD1,"2013/10/23 10:30:00",5985.94,75.53,TRADE
QLD1,"2013/10/23 11:00:00",6076.4,94.56,TRADE
QLD1,"2013/10/23 11:30:00",6099.78,121.41,TRADE
QLD1,"2013/10/23 12:00:00",6133.43,119.3,TRADE
QLD1,"2013/10/23 12:30:00",6199.7,58.9,TRADE
QLD1,"2013/10/23 13:00:00",6255.96,64.28,TRADE
QLD1,"2013/10/23 13:30:00",6333.22,77.68,TRADE
QLD1,"2013/10/23 14:00:00",6399.08,158.33,TRADE
QLD1,"2013/10/23 14:30:00",6447.08,84.9,TRADE
QLD1,"2013/10/23 15:00:00",6523.76,99.06,TRADE
QLD1,"2013/10/23 15:30:00",6632.79,61,TRADE
QLD1,"2013/10/23 16:00:00",6682.55,115.9,TRADE
QLD1,"2013/10/23 16:30:00",6763.09,2463.61,TRADE
QLD1,"2013/10/23 17:00:00",6794.34,133.69,TRADE
QLD1,"2013/10/23 17:30:00",6813.7,131.62,TRADE
QLD1,"2013/10/23 18:00:00",6764.67,154.12,TRADE
QLD1,"2013/10/23 18:30:00",6799.23,98.46,TRADE
QLD1,"2013/10/23 19:00:00",6835.54,139.93,TRADE
QLD1,"2013/10/23 19:30:00",6712.42,95.6,TRADE
QLD1,"2013/10/23 20:00:00",6519.05,60.05,TRADE
QLD1,"2013/10/23 20:30:00",6401.16,59.16,TRADE
QLD1,"2013/10/23 21:00:00",6309.88,68.7,TRADE
QLD1,"2013/10/23 21:30:00",6281.35,110.25,TRADE
QLD1,"2013/10/23 22:00:00",6070.64,66.56,TRADE
QLD1,"2013/10/23 22:30:00",5865.64,97.17,TRADE
QLD1,"2013/10/23 23:00:00",5682.98,68.42,TRADE
QLD1,"2013/10/23 23:30:00",5527.46,58.78,TRADE
QLD1,"2013/10/24 00:00:00",5335.93,58.69,TRADE
QLD1,"2013/10/24 00:30:00",5172.99,59.98,TRADE
QLD1,"2013/10/24 01:00:00",5006.36,73.19,TRADE
QLD1,"2013/10/24 01:30:00",4876.84,59.18,TRADE
QLD1,"2013/10/24 02:00:00",4741.89,56.08,TRADE
QLD1,"2013/10/24 02:30:00",4740.98,54.66,TRADE
QLD1,"2013/10/24 03:00:00",4678.46,53.93,TRADE
QLD1,"2013/10/24 03:30:00",4696.41,54.44,TRADE
QLD1,"2013/10/24 04:00:00",4681.55,55.21,TRADE
QLD1,"2013/10/24 04:30:00",4711.46,54.77,TRADE
QLD1,"2013/10/24 05:00:00",4780.72,58.99,TRADE
QLD1,"2013/10/24 05:30:00",4952.08,56.77,TRADE
QLD1,"2013/10/24 06:00:00",5166.19,54.68,TRADE
QLD1,"2013/10/24 06:30:00",5502.6,62.49,TRADE
QLD1,"2013/10/24 07:00:00",5818.38,72.14,TRADE
QLD1,"2013/10/24 07:30:00",6087.62,75.01,TRADE
QLD1,"2013/10/24 08:00:00",6141.36,68.63,TRADE
QLD1,"2013/10/24 08:30:00",6166.81,78.52,TRADE
QLD1,"2013/10/24 09:00:00",6161.46,64.34,TRADE
QLD1,"2013/10/24 09:30:00",6230.91,95.73,TRADE
QLD1,"2013/10/24 10:00:00",6195.23,59.3,TRADE
QLD1,"2013/10/24 10:30:00",6217.71,58.15,TRADE
QLD1,"2013/10/24 11:00:00",6260.63,56.92,TRADE
QLD1,"2013/10/24 11:30:00",6309.65,58.24,TRADE
QLD1,"2013/10/24 12:00:00",6416.95,58.97,TRADE
QLD1,"2013/10/24 12:30:00",6516.47,161.64,TRADE
QLD1,"2013/10/24 13:00:00",6642.14,58.08,TRADE
QLD1,"2013/10/24 13:30:00",6715.5,67.42,TRADE
QLD1,"2013/10/24 14:00:00",6808.94,135.21,TRADE
QLD1,"2013/10/24 14:30:00",6804.45,148.51,TRADE
QLD1,"2013/10/24 15:00:00",6714.99,56.15,TRADE
QLD1,"2013/10/24 15:30:00",6700.45,55.38,TRADE
QLD1,"2013/10/24 16:00:00",6771.3,60.21,TRADE
QLD1,"2013/10/24 16:30:00",6822.72,57.96,TRADE
QLD1,"2013/10/24 17:00:00",6849.31,59.77,TRADE
QLD1,"2013/10/24 17:30:00",6803.52,58.17,TRADE
QLD1,"2013/10/24 18:00:00",6803.08,75.67,TRADE
QLD1,"2013/10/24 18:30:00",6843.22,86.02,TRADE
QLD1,"2013/10/24 19:00:00",6853.27,87.1,TRADE
QLD1,"2013/10/24 19:30:00",6726.69,66.85,TRADE
QLD1,"2013/10/24 20:00:00",6538.82,61.25,TRADE
QLD1,"2013/10/24 20:30:00",6423.84,58.31,TRADE
QLD1,"2013/10/24 21:00:00",6308.37,62.86,TRADE
QLD1,"2013/10/24 21:30:00",6257.54,60.07,TRADE
QLD1,"2013/10/24 22:00:00",6060.91,55.61,TRADE
QLD1,"2013/10/24 22:30:00",5799.27,56.82,TRADE
QLD1,"2013/10/24 23:00:00",5642.45,58.14,TRADE
QLD1,"2013/10/24 23:30:00",5486.21,64.47,TRADE
QLD1,"2013/10/25 00:00:00",5285.39,59.55,TRADE
QLD1,"2013/10/25 00:30:00",5089.98,58.4,TRADE
QLD1,"2013/10/25 01:00:00",4941.54,59.61,TRADE
QLD1,"2013/10/25 01:30:00",4719.55,57.81,TRADE
QLD1,"2013/10/25 02:00:00",4691.76,58.1,TRADE
QLD1,"2013/10/25 02:30:00",4602.08,55.03,TRADE
QLD1,"2013/10/25 03:00:00",4562.91,54.01,TRADE
QLD1,"2013/10/25 03:30:00",4553.14,54.84,TRADE
QLD1,"2013/10/25 04:00:00",4578.53,56.23,TRADE
QLD1,"2013/10/25 04:30:00",4639.7,57.88,TRADE
QLD1,"2013/10/25 05:00:00",4710.79,58.12,TRADE
QLD1,"2013/10/25 05:30:00",4843.54,56.54,TRADE
QLD1,"2013/10/25 06:00:00",5033.9,55.1,TRADE
QLD1,"2013/10/25 06:30:00",5367.75,59.49,TRADE
QLD1,"2013/10/25 07:00:00",5684.35,71.5,TRADE
QLD1,"2013/10/25 07:30:00",5986.48,54.95,TRADE
QLD1,"2013/10/25 08:00:00",6096.48,56.71,TRADE
QLD1,"2013/10/25 08:30:00",6121.34,57.7,TRADE
QLD1,"2013/10/25 09:00:00",6107.49,58.17,TRADE
QLD1,"2013/10/25 09:30:00",6115.14,60.05,TRADE
QLD1,"2013/10/25 10:00:00",6068.69,66.96,TRADE
QLD1,"2013/10/25 10:30:00",6025.23,72.56,TRADE
QLD1,"2013/10/25 11:00:00",6012.07,55.55,TRADE
QLD1,"2013/10/25 11:30:00",6016.58,56.86,TRADE
QLD1,"2013/10/25 12:00:00",6065.22,56.24,TRADE
QLD1,"2013/10/25 12:30:00",6097.26,56.53,TRADE
QLD1,"2013/10/25 13:00:00",6066.93,54.92,TRADE
QLD1,"2013/10/25 13:30:00",6053.82,55.19,TRADE
QLD1,"2013/10/25 14:00:00",6130.13,55.47,TRADE
QLD1,"2013/10/25 14:30:00",6165.57,57.92,TRADE
QLD1,"2013/10/25 15:00:00",6161.52,56.54,TRADE
QLD1,"2013/10/25 15:30:00",6180.82,58.82,TRADE
QLD1,"2013/10/25 16:00:00",6215.34,58.97,TRADE
QLD1,"2013/10/25 16:30:00",6262.66,2233.31,TRADE
QLD1,"2013/10/25 17:00:00",6219.14,58.5,TRADE
QLD1,"2013/10/25 17:30:00",6284.17,57.09,TRADE
QLD1,"2013/10/25 18:00:00",6317.38,57.32,TRADE
QLD1,"2013/10/25 18:30:00",6270.94,57.04,TRADE
QLD1,"2013/10/25 19:00:00",5956.98,54.94,TRADE
QLD1,"2013/10/25 19:30:00",5443.96,52.08,TRADE
QLD1,"2013/10/25 20:00:00",5163.45,52.48,TRADE
QLD1,"2013/10/25 20:30:00",5203.92,52.69,TRADE
QLD1,"2013/10/25 21:00:00",5437.61,52.98,TRADE
QLD1,"2013/10/25 21:30:00",5727.34,53.8,TRADE
QLD1,"2013/10/25 22:00:00",5653.71,52.99,TRADE
QLD1,"2013/10/25 22:30:00",5604.37,53.2,TRADE
QLD1,"2013/10/25 23:00:00",5556.63,52.99,TRADE
QLD1,"2013/10/25 23:30:00",5516.14,53.42,TRADE
QLD1,"2013/10/26 00:00:00",5337.13,53.01,TRADE
QLD1,"2013/10/26 00:30:00",5137.38,53.09,TRADE
QLD1,"2013/10/26 01:00:00",4965.26,54.44,TRADE
QLD1,"2013/10/26 01:30:00",4748.27,54.09,TRADE
QLD1,"2013/10/26 02:00:00",4679.67,52.86,TRADE
QLD1,"2013/10/26 02:30:00",4633.73,52.98,TRADE
QLD1,"2013/10/26 03:00:00",4586.44,52.93,TRADE
QLD1,"2013/10/26 03:30:00",4537.99,52.91,TRADE
QLD1,"2013/10/26 04:00:00",4533.89,52.98,TRADE
QLD1,"2013/10/26 04:30:00",4567.66,53.01,TRADE
QLD1,"2013/10/26 05:00:00",4618.69,52.92,TRADE
QLD1,"2013/10/26 05:30:00",4642.26,52.95,TRADE
QLD1,"2013/10/26 06:00:00",4682.38,52.99,TRADE
QLD1,"2013/10/26 06:30:00",4735.23,52.99,TRADE
QLD1,"2013/10/26 07:00:00",4926.31,52.99,TRADE
QLD1,"2013/10/26 07:30:00",5111.2,52.99,TRADE
QLD1,"2013/10/26 08:00:00",5205.15,53.49,TRADE
QLD1,"2013/10/26 08:30:00",5351.66,54.15,TRADE
QLD1,"2013/10/26 09:00:00",5450.65,56.6,TRADE
QLD1,"2013/10/26 09:30:00",5484.72,55.15,TRADE
QLD1,"2013/10/26 10:00:00",5499.25,54.53,TRADE
QLD1,"2013/10/26 10:30:00",5472.1,54.11,TRADE
QLD1,"2013/10/26 11:00:00",5457.51,53.64,TRADE
QLD1,"2013/10/26 11:30:00",5462.03,52.72,TRADE
QLD1,"2013/10/26 12:00:00",5453.73,53.07,TRADE
QLD1,"2013/10/26 12:30:00",5432.96,53.01,TRADE
QLD1,"2013/10/26 13:00:00",5441.64,53.01,TRADE
QLD1,"2013/10/26 13:30:00",5475.87,53,TRADE
QLD1,"2013/10/26 14:00:00",5485.57,52.87,TRADE
QLD1,"2013/10/26 14:30:00",5543.67,52.96,TRADE
QLD1,"2013/10/26 15:00:00",5630.95,53.41,TRADE
QLD1,"2013/10/26 15:30:00",5730.2,54.29,TRADE
QLD1,"2013/10/26 16:00:00",5780.45,56.46,TRADE
QLD1,"2013/10/26 16:30:00",5956.61,55.95,TRADE
QLD1,"2013/10/26 17:00:00",6066.48,56.65,TRADE
QLD1,"2013/10/26 17:30:00",6090.93,57.37,TRADE
QLD1,"2013/10/26 18:00:00",6132.4,55.75,TRADE
QLD1,"2013/10/26 18:30:00",6166.46,56.65,TRADE
QLD1,"2013/10/26 19:00:00",6169.92,2231.69,TRADE
QLD1,"2013/10/26 19:30:00",6062.9,54.51,TRADE
QLD1,"2013/10/26 20:00:00",6038.65,55.05,TRADE
QLD1,"2013/10/26 20:30:00",5923.6,54.01,TRADE
QLD1,"2013/10/26 21:00:00",5853.33,53.41,TRADE
QLD1,"2013/10/26 21:30:00",5900.63,54.09,TRADE
QLD1,"2013/10/26 22:00:00",5809.89,53.35,TRADE
QLD1,"2013/10/26 22:30:00",5659.53,54.52,TRADE
QLD1,"2013/10/26 23:00:00",5541.47,58.06,TRADE
QLD1,"2013/10/26 23:30:00",5457.14,57,TRADE
QLD1,"2013/10/27 00:00:00",5280.27,55.17,TRADE
QLD1,"2013/10/27 00:30:00",5137.78,54.7,TRADE
QLD1,"2013/10/27 01:00:00",4976.23,54.72,TRADE
QLD1,"2013/10/27 01:30:00",4780.65,54.29,TRADE
QLD1,"2013/10/27 02:00:00",4707.28,53.5,TRADE
QLD1,"2013/10/27 02:30:00",4666.14,52.19,TRADE
QLD1,"2013/10/27 03:00:00",4588.67,52.82,TRADE
QLD1,"2013/10/27 03:30:00",4557.25,52.47,TRADE
QLD1,"2013/10/27 04:00:00",4532.12,52.5,TRADE
QLD1,"2013/10/27 04:30:00",4519.01,52.48,TRADE
QLD1,"2013/10/27 05:00:00",4517.7,51.87,TRADE
QLD1,"2013/10/27 05:30:00",4515.59,52.51,TRADE
QLD1,"2013/10/27 06:00:00",4537.08,52.5,TRADE
QLD1,"2013/10/27 06:30:00",4544.8,52.64,TRADE
QLD1,"2013/10/27 07:00:00",4674.04,52.98,TRADE
QLD1,"2013/10/27 07:30:00",4802.89,52.93,TRADE
QLD1,"2013/10/27 08:00:00",4972.18,52.99,TRADE
QLD1,"2013/10/27 08:30:00",5148.13,53,TRADE
QLD1,"2013/10/27 09:00:00",5194.35,53.03,TRADE
QLD1,"2013/10/27 09:30:00",5202.87,53.07,TRADE
QLD1,"2013/10/27 10:00:00",5214.43,53.14,TRADE
QLD1,"2013/10/27 10:30:00",5210.6,53.04,TRADE
QLD1,"2013/10/27 11:00:00",5186.88,52.99,TRADE
QLD1,"2013/10/27 11:30:00",5180.57,52.98,TRADE
QLD1,"2013/10/27 12:00:00",5207.74,53.05,TRADE
QLD1,"2013/10/27 12:30:00",5275.53,52.98,TRADE
QLD1,"2013/10/27 13:00:00",5281.15,52.87,TRADE
QLD1,"2013/10/27 13:30:00",5299.78,52.98,TRADE
QLD1,"2013/10/27 14:00:00",5353.61,53.36,TRADE
QLD1,"2013/10/27 14:30:00",5367.06,53.31,TRADE
QLD1,"2013/10/27 15:00:00",5447.41,54.22,TRADE
QLD1,"2013/10/27 15:30:00",5512.29,54.75,TRADE
QLD1,"2013/10/27 16:00:00",5612.22,55.16,TRADE
QLD1,"2013/10/27 16:30:00",5752.13,52.99,TRADE
QLD1,"2013/10/27 17:00:00",5908.27,53.76,TRADE
QLD1,"2013/10/27 17:30:00",6088.71,56.7,TRADE
QLD1,"2013/10/27 18:00:00",6185.2,54.99,TRADE
QLD1,"2013/10/27 18:30:00",6275.88,54.99,TRADE
QLD1,"2013/10/27 19:00:00",6364.86,56.18,TRADE
QLD1,"2013/10/27 19:30:00",6211.49,54.92,TRADE
QLD1,"2013/10/27 20:00:00",6033.16,53.7,TRADE
QLD1,"2013/10/27 20:30:00",5959.75,53.89,TRADE
QLD1,"2013/10/27 21:00:00",5835.49,53.02,TRADE
QLD1,"2013/10/27 21:30:00",5896,53.65,TRADE
QLD1,"2013/10/27 22:00:00",5743.36,52.74,TRADE
QLD1,"2013/10/27 22:30:00",5586.48,53.07,TRADE
QLD1,"2013/10/27 23:00:00",5450.68,55.6,TRADE
QLD1,"2013/10/27 23:30:00",5357.39,57.01,TRADE
QLD1,"2013/10/28 00:00:00",5181.67,56.49,TRADE
QLD1,"2013/10/28 00:30:00",5045.17,54.45,TRADE
QLD1,"2013/10/28 01:00:00",4900.34,54.98,TRADE
QLD1,"2013/10/28 01:30:00",4724.91,53.71,TRADE
QLD1,"2013/10/28 02:00:00",4631.34,51.56,TRADE
QLD1,"2013/10/28 02:30:00",4578.53,52.51,TRADE
QLD1,"2013/10/28 03:00:00",4524.83,52.89,TRADE
QLD1,"2013/10/28 03:30:00",4549.87,53.01,TRADE
QLD1,"2013/10/28 04:00:00",4558.59,52.98,TRADE
QLD1,"2013/10/28 04:30:00",4620.37,53.25,TRADE
QLD1,"2013/10/28 05:00:00",4711.11,53.68,TRADE
QLD1,"2013/10/28 05:30:00",4887.49,53.19,TRADE
QLD1,"2013/10/28 06:00:00",5038.28,53.13,TRADE
QLD1,"2013/10/28 06:30:00",5375.23,53.91,TRADE
QLD1,"2013/10/28 07:00:00",5692.71,55.77,TRADE
QLD1,"2013/10/28 07:30:00",6035.25,55.8,TRADE
QLD1,"2013/10/28 08:00:00",6108.65,58.52,TRADE
QLD1,"2013/10/28 08:30:00",6212.41,60.29,TRADE
QLD1,"2013/10/28 09:00:00",6232.94,59.47,TRADE
QLD1,"2013/10/28 09:30:00",6282.78,57.59,TRADE
QLD1,"2013/10/28 10:00:00",6226.13,55.85,TRADE
QLD1,"2013/10/28 10:30:00",6195.44,55.26,TRADE
QLD1,"2013/10/28 11:00:00",6186.79,57.45,TRADE
QLD1,"2013/10/28 11:30:00",6172.25,56.16,TRADE
QLD1,"2013/10/28 12:00:00",6163.15,56.26,TRADE
QLD1,"2013/10/28 12:30:00",6211.95,56.97,TRADE
QLD1,"2013/10/28 13:00:00",6212.31,56,TRADE
QLD1,"2013/10/28 13:30:00",6286.83,56.43,TRADE
QLD1,"2013/10/28 14:00:00",6313.89,55.54,TRADE
QLD1,"2013/10/28 14:30:00",6369.64,55.09,TRADE
QLD1,"2013/10/28 15:00:00",6441.21,55.19,TRADE
QLD1,"2013/10/28 15:30:00",6454.5,55.13,TRADE
QLD1,"2013/10/28 16:00:00",6507.24,55.17,TRADE
QLD1,"2013/10/28 16:30:00",6574.53,56.36,TRADE
QLD1,"2013/10/28 17:00:00",6649.16,57.51,TRADE
QLD1,"2013/10/28 17:30:00",6697.74,56.64,TRADE
QLD1,"2013/10/28 18:00:00",6706.9,55.45,TRADE
QLD1,"2013/10/28 18:30:00",6741.79,57.08,TRADE
QLD1,"2013/10/28 19:00:00",6812.92,57.35,TRADE
QLD1,"2013/10/28 19:30:00",6658.8,53.98,TRADE
QLD1,"2013/10/28 20:00:00",6490.77,52.99,TRADE
QLD1,"2013/10/28 20:30:00",6385.87,52.99,TRADE
QLD1,"2013/10/28 21:00:00",6265.73,52.98,TRADE
QLD1,"2013/10/28 21:30:00",6212.04,54.05,TRADE
QLD1,"2013/10/28 22:00:00",6074.87,53.13,TRADE
QLD1,"2013/10/28 22:30:00",5846.79,54.15,TRADE
QLD1,"2013/10/28 23:00:00",5709.11,54.93,TRADE
QLD1,"2013/10/28 23:30:00",5621.21,54.9,TRADE
QLD1,"2013/10/29 00:00:00",5373.09,54.31,TRADE
QLD1,"2013/10/29 00:30:00",5218.72,54.78,TRADE
QLD1,"2013/10/29 01:00:00",5055.38,53.71,TRADE
QLD1,"2013/10/29 01:30:00",4840.8,52.48,TRADE
QLD1,"2013/10/29 02:00:00",4774.98,52.52,TRADE
QLD1,"2013/10/29 02:30:00",4691.57,50.42,TRADE
QLD1,"2013/10/29 03:00:00",4703.32,50.72,TRADE
QLD1,"2013/10/29 03:30:00",4686.4,51.37,TRADE
QLD1,"2013/10/29 04:00:00",4705.22,52.52,TRADE
QLD1,"2013/10/29 04:30:00",4768.58,52.95,TRADE
QLD1,"2013/10/29 05:00:00",4855.33,53,TRADE
QLD1,"2013/10/29 05:30:00",4979.6,53.66,TRADE
QLD1,"2013/10/29 06:00:00",5113.57,54.22,TRADE
QLD1,"2013/10/29 06:30:00",5454.32,55.17,TRADE
QLD1,"2013/10/29 07:00:00",5797.81,74.06,TRADE
QLD1,"2013/10/29 07:30:00",6032.39,77.28,TRADE
QLD1,"2013/10/29 08:00:00",6096.09,56.33,TRADE
QLD1,"2013/10/29 08:30:00",6176.13,56.18,TRADE
QLD1,"2013/10/29 09:00:00",6162.59,55.2,TRADE
QLD1,"2013/10/29 09:30:00",6199.53,55.43,TRADE
QLD1,"2013/10/29 10:00:00",6154.12,55.19,TRADE
QLD1,"2013/10/29 10:30:00",6192.37,54.63,TRADE
QLD1,"2013/10/29 11:00:00",6203.81,55.97,TRADE
QLD1,"2013/10/29 11:30:00",6239.37,57.44,TRADE
QLD1,"2013/10/29 12:00:00",6258.39,101.56,TRADE
QLD1,"2013/10/29 12:30:00",6385.42,58.5,TRADE
QLD1,"2013/10/29 13:00:00",6643.84,57.28,TRADE
QLD1,"2013/10/29 13:30:00",6764.63,56.74,TRADE
QLD1,"2013/10/29 14:00:00",6715.38,56.8,TRADE
QLD1,"2013/10/29 14:30:00",6641,58.17,TRADE
QLD1,"2013/10/29 15:00:00",6588.35,57.2,TRADE
QLD1,"2013/10/29 15:30:00",6528.39,55.37,TRADE
QLD1,"2013/10/29 16:00:00",6621.36,55.89,TRADE
QLD1,"2013/10/29 16:30:00",6711.66,56.27,TRADE
QLD1,"2013/10/29 17:00:00",6801.78,57.47,TRADE
QLD1,"2013/10/29 17:30:00",6867.34,56.91,TRADE
QLD1,"2013/10/29 18:00:00",6884.5,56.76,TRADE
QLD1,"2013/10/29 18:30:00",6798.66,56.87,TRADE
QLD1,"2013/10/29 19:00:00",6737.67,55.75,TRADE
QLD1,"2013/10/29 19:30:00",6562.14,54.95,TRADE
QLD1,"2013/10/29 20:00:00",6398.06,54.36,TRADE
QLD1,"2013/10/29 20:30:00",6231.79,55.3,TRADE
QLD1,"2013/10/29 21:00:00",6131.94,55.18,TRADE
QLD1,"2013/10/29 21:30:00",6130.42,57.97,TRADE
QLD1,"2013/10/29 22:00:00",5944.55,55.2,TRADE
QLD1,"2013/10/29 22:30:00",5735.26,54.85,TRADE
QLD1,"2013/10/29 23:00:00",5622.42,55.13,TRADE
QLD1,"2013/10/29 23:30:00",5440.13,56.06,TRADE
QLD1,"2013/10/30 00:00:00",5266.12,54.96,TRADE
QLD1,"2013/10/30 00:30:00",5138.03,54.48,TRADE
QLD1,"2013/10/30 01:00:00",4999.4,53.06,TRADE
QLD1,"2013/10/30 01:30:00",4807.47,52.48,TRADE
QLD1,"2013/10/30 02:00:00",4713.96,51.43,TRADE
QLD1,"2013/10/30 02:30:00",4639.06,51.05,TRADE
QLD1,"2013/10/30 03:00:00",4609.1,50.98,TRADE
QLD1,"2013/10/30 03:30:00",4618.02,50.92,TRADE
QLD1,"2013/10/30 04:00:00",4584.68,50.59,TRADE
QLD1,"2013/10/30 04:30:00",4620.33,52.43,TRADE
QLD1,"2013/10/30 05:00:00",4695.19,53.22,TRADE
QLD1,"2013/10/30 05:30:00",4878.7,53.44,TRADE
QLD1,"2013/10/30 06:00:00",5044.04,53.06,TRADE
QLD1,"2013/10/30 06:30:00",5373.1,53.91,TRADE
QLD1,"2013/10/30 07:00:00",5764.64,58.69,TRADE
QLD1,"2013/10/30 07:30:00",5995.15,54.42,TRADE
QLD1,"2013/10/30 08:00:00",6037.02,56.91,TRADE
QLD1,"2013/10/30 08:30:00",6027.58,184.6,TRADE
QLD1,"2013/10/30 09:00:00",5994.65,60.99,TRADE
QLD1,"2013/10/30 09:30:00",6065.44,52.94,TRADE
QLD1,"2013/10/30 10:00:00",6025.35,52.89,TRADE
QLD1,"2013/10/30 10:30:00",6067.8,52.62,TRADE
QLD1,"2013/10/30 11:00:00",6061.34,51.62,TRADE
QLD1,"2013/10/30 11:30:00",6119.4,52.29,TRADE
QLD1,"2013/10/30 12:00:00",6174.58,53.13,TRADE
QLD1,"2013/10/30 12:30:00",6184.16,53.25,TRADE
QLD1,"2013/10/30 13:00:00",6215.95,53.06,TRADE
QLD1,"2013/10/30 13:30:00",6234.03,52.92,TRADE
QLD1,"2013/10/30 14:00:00",6328.87,54.74,TRADE
QLD1,"2013/10/30 14:30:00",6353.38,52.67,TRADE
QLD1,"2013/10/30 15:00:00",6405.26,52.98,TRADE
QLD1,"2013/10/30 15:30:00",6393.02,52.98,TRADE
QLD1,"2013/10/30 16:00:00",6454.52,52.98,TRADE
QLD1,"2013/10/30 16:30:00",6551.57,53.1,TRADE
QLD1,"2013/10/30 17:00:00",6646.81,54.39,TRADE
QLD1,"2013/10/30 17:30:00",6625.92,54.77,TRADE
QLD1,"2013/10/30 18:00:00",6629.48,53.84,TRADE
QLD1,"2013/10/30 18:30:00",6705.73,54.63,TRADE
QLD1,"2013/10/30 19:00:00",6784.87,55.26,TRADE
QLD1,"2013/10/30 19:30:00",6586.46,54.11,TRADE
QLD1,"2013/10/30 20:00:00",6424.87,52.95,TRADE
QLD1,"2013/10/30 20:30:00",6301.51,53.01,TRADE
QLD1,"2013/10/30 21:00:00",6237.19,52.98,TRADE
QLD1,"2013/10/30 21:30:00",6200.8,53.66,TRADE
QLD1,"2013/10/30 22:00:00",6070.12,52.9,TRADE
QLD1,"2013/10/30 22:30:00",5849.14,52.98,TRADE
QLD1,"2013/10/30 23:00:00",5619.99,53.54,TRADE
QLD1,"2013/10/30 23:30:00",5478.76,55.07,TRADE
QLD1,"2013/10/31 00:00:00",5308.75,54.97,TRADE
QLD1,"2013/10/31 00:30:00",5137.61,54.75,TRADE
QLD1,"2013/10/31 01:00:00",5007.1,54.04,TRADE
QLD1,"2013/10/31 01:30:00",4870.71,53.75,TRADE
QLD1,"2013/10/31 02:00:00",4762.74,52.97,TRADE
QLD1,"2013/10/31 02:30:00",4764.43,51.37,TRADE
QLD1,"2013/10/31 03:00:00",4726.4,52.68,TRADE
QLD1,"2013/10/31 03:30:00",4709.88,52.17,TRADE
QLD1,"2013/10/31 04:00:00",4726.47,52.85,TRADE
QLD1,"2013/10/31 04:30:00",4758.34,55.18,TRADE
QLD1,"2013/10/31 05:00:00",4820.12,53.52,TRADE
QLD1,"2013/10/31 05:30:00",4927.03,54.45,TRADE
QLD1,"2013/10/31 06:00:00",5158.67,54.59,TRADE
QLD1,"2013/10/31 06:30:00",5481.99,54.73,TRADE
QLD1,"2013/10/31 07:00:00",5772.95,55.19,TRADE
QLD1,"2013/10/31 07:30:00",6073.43,54.26,TRADE
QLD1,"2013/10/31 08:00:00",6150.91,54.69,TRADE
QLD1,"2013/10/31 08:30:00",6109.95,53.91,TRADE
QLD1,"2013/10/31 09:00:00",6165.51,55.18,TRADE
QLD1,"2013/10/31 09:30:00",6197.07,54.74,TRADE
QLD1,"2013/10/31 10:00:00",6162.99,52.83,TRADE
QLD1,"2013/10/31 10:30:00",6149.68,51.89,TRADE
QLD1,"2013/10/31 11:00:00",6162.75,52.11,TRADE
QLD1,"2013/10/31 11:30:00",6181.02,53.82,TRADE
QLD1,"2013/10/31 12:00:00",6173.37,52.25,TRADE
QLD1,"2013/10/31 12:30:00",6196.35,51.72,TRADE
QLD1,"2013/10/31 13:00:00",6203.38,51.77,TRADE
QLD1,"2013/10/31 13:30:00",6251.15,51.45,TRADE
QLD1,"2013/10/31 14:00:00",6295.79,52.09,TRADE
QLD1,"2013/10/31 14:30:00",6338.52,52.24,TRADE
QLD1,"2013/10/31 15:00:00",6349.43,52.49,TRADE
QLD1,"2013/10/31 15:30:00",6353.53,52.46,TRADE
QLD1,"2013/10/31 16:00:00",6419.36,54.7,TRADE
QLD1,"2013/10/31 16:30:00",6501.82,54.87,TRADE
QLD1,"2013/10/31 17:00:00",6582.16,55.18,TRADE
QLD1,"2013/10/31 17:30:00",6570.01,55.12,TRADE
QLD1,"2013/10/31 18:00:00",6616.96,55.18,TRADE
QLD1,"2013/10/31 18:30:00",6605.66,55.15,TRADE
QLD1,"2013/10/31 19:00:00",6641.12,55.18,TRADE
QLD1,"2013/10/31 19:30:00",6513.99,54.42,TRADE
QLD1,"2013/10/31 20:00:00",6416,53.37,TRADE
QLD1,"2013/10/31 20:30:00",6335.46,54.95,TRADE
QLD1,"2013/10/31 21:00:00",6239.82,54.18,TRADE
QLD1,"2013/10/31 21:30:00",6184.7,55.12,TRADE
QLD1,"2013/10/31 22:00:00",6052.4,53.96,TRADE
QLD1,"2013/10/31 22:30:00",5881.65,55.07,TRADE
QLD1,"2013/10/31 23:00:00",5681.56,55.15,TRADE
QLD1,"2013/10/31 23:30:00",5503.79,55.18,TRADE
QLD1,"2013/11/01 00:00:00",5369.39,55,TRADE
