REGION,SETTLEMENTDATE,TOTALDEMAND,RRP,PERIODTYPE
VIC1,"2011/07/01 00:30:00",5491.62,23.51,TRADE
VIC1,"2011/07/01 01:00:00",5275.98,21.66,TRADE
VIC1,"2011/07/01 01:30:00",5565.74,22.99,TRADE
VIC1,"2011/07/01 02:00:00",5385.04,22.12,TRADE
VIC1,"2011/07/01 02:30:00",5191.61,20.51,TRADE
VIC1,"2011/07/01 03:00:00",5045.36,16.16,TRADE
VIC1,"2011/07/01 03:30:00",4943.14,16.77,TRADE
VIC1,"2011/07/01 04:00:00",4825.13,12.22,TRADE
VIC1,"2011/07/01 04:30:00",4782.78,12.17,TRADE
VIC1,"2011/07/01 05:00:00",4800.53,13.29,TRADE
VIC1,"2011/07/01 05:30:00",4948.29,16.98,TRADE
VIC1,"2011/07/01 06:00:00",5181.17,18.35,TRADE
VIC1,"2011/07/01 06:30:00",5660.21,23.18,TRADE
VIC1,"2011/07/01 07:00:00",6073.53,26.4,TRADE
VIC1,"2011/07/01 07:30:00",6404.89,27.42,TRADE
VIC1,"2011/07/01 08:00:00",6808.54,29.31,TRADE
VIC1,"2011/07/01 08:30:00",6972.06,30.39,TRADE
VIC1,"2011/07/01 09:00:00",6954.89,29.95,TRADE
VIC1,"2011/07/01 09:30:00",6975.8,31.67,TRADE
VIC1,"2011/07/01 10:00:00",6827.43,29.39,TRADE
VIC1,"2011/07/01 10:30:00",6721.34,27.21,TRADE
VIC1,"2011/07/01 11:00:00",6642.15,25.83,TRADE
VIC1,"2011/07/01 11:30:00",6579.25,25.52,TRADE
VIC1,"2011/07/01 12:00:00",6533.16,25.65,TRADE
VIC1,"2011/07/01 12:30:00",6484.18,25.76,TRADE
VIC1,"2011/07/01 13:00:00",6393.3,25.3,TRADE
VIC1,"2011/07/01 13:30:00",6403.38,25.46,TRADE
VIC1,"2011/07/01 14:00:00",6354.32,25.61,TRADE
VIC1,"2011/07/01 14:30:00",6249.24,25.27,TRADE
VIC1,"2011/07/01 15:00:00",6216.35,25.35,TRADE
VIC1,"2011/07/01 15:30:00",6190.98,25.03,TRADE
VIC1,"2011/07/01 16:00:00",6207.91,24.97,TRADE
VIC1,"2011/07/01 16:30:00",6198.27,25.75,TRADE
VIC1,"2011/07/01 17:00:00",6357.33,26.13,TRADE
VIC1,"2011/07/01 17:30:00",6661.53,28.71,TRADE
VIC1,"2011/07/01 18:00:00",7030.5,36.91,TRADE
VIC1,"2011/07/01 18:30:00",7018.5,34.64,TRADE
VIC1,"2011/07/01 19:00:00",6928.61,29.02,TRADE
VIC1,"2011/07/01 19:30:00",6754.42,26.54,TRADE
VIC1,"2011/07/01 20:00:00",6621.87,25.4,TRADE
VIC1,"2011/07/01 20:30:00",6527.36,24.39,TRADE
VIC1,"2011/07/01 21:00:00",6408.09,23.43,TRADE
VIC1,"2011/07/01 21:30:00",6191.82,22.01,TRADE
VIC1,"2011/07/01 22:00:00",6058.95,21.11,TRADE
VIC1,"2011/07/01 22:30:00",5870.65,18.15,TRADE
VIC1,"2011/07/01 23:00:00",5714.77,18.18,TRADE
VIC1,"2011/07/01 23:30:00",5878.17,18.71,TRADE
VIC1,"2011/07/02 00:00:00",5686.09,18.13,TRADE
VIC1,"2011/07/02 00:30:00",5456.19,15.51,TRADE
VIC1,"2011/07/02 01:00:00",5244.34,14.69,TRADE
VIC1,"2011/07/02 01:30:00",5497.84,10.96,TRADE
VIC1,"2011/07/02 02:00:00",5347.23,12.76,TRADE
VIC1,"2011/07/02 02:30:00",5157.33,12.14,TRADE
VIC1,"2011/07/02 03:00:00",4962.54,8.08,TRADE
VIC1,"2011/07/02 03:30:00",4863.12,6.42,TRADE
VIC1,"2011/07/02 04:00:00",4788.3,7.6,TRADE
VIC1,"2011/07/02 04:30:00",4711.64,6.37,TRADE
VIC1,"2011/07/02 05:00:00",4658.24,7.28,TRADE
VIC1,"2011/07/02 05:30:00",4709.4,7.97,TRADE
VIC1,"2011/07/02 06:00:00",4780.09,9.73,TRADE
VIC1,"2011/07/02 06:30:00",4905.62,11.47,TRADE
VIC1,"2011/07/02 07:00:00",4955.21,11.25,TRADE
VIC1,"2011/07/02 07:30:00",5002.65,13.03,TRADE
VIC1,"2011/07/02 08:00:00",5282.62,14.52,TRADE
VIC1,"2011/07/02 08:30:00",5554.23,18.54,TRADE
VIC1,"2011/07/02 09:00:00",5760.25,18.95,TRADE
VIC1,"2011/07/02 09:30:00",5901.8,19.75,TRADE
VIC1,"2011/07/02 10:00:00",5869.78,19.27,TRADE
VIC1,"2011/07/02 10:30:00",5800.13,17.99,TRADE
VIC1,"2011/07/02 11:00:00",5684.29,17.92,TRADE
VIC1,"2011/07/02 11:30:00",5624.23,17.89,TRADE
VIC1,"2011/07/02 12:00:00",5558.07,18.08,TRADE
VIC1,"2011/07/02 12:30:00",5399.43,15.16,TRADE
VIC1,"2011/07/02 13:00:00",5290.69,14.79,TRADE
VIC1,"2011/07/02 13:30:00",5317.03,11.61,TRADE
VIC1,"2011/07/02 14:00:00",5293.29,10.38,TRADE
VIC1,"2011/07/02 14:30:00",5238.16,9.99,TRADE
VIC1,"2011/07/02 15:00:00",5207.98,10.67,TRADE
VIC1,"2011/07/02 15:30:00",5214.74,11.51,TRADE
VIC1,"2011/07/02 16:00:00",5236.53,13.54,TRADE
VIC1,"2011/07/02 16:30:00",5272.23,17.59,TRADE
VIC1,"2011/07/02 17:00:00",5466.08,20.61,TRADE
VIC1,"2011/07/02 17:30:00",5847.96,25.66,TRADE
VIC1,"2011/07/02 18:00:00",6287.19,28.94,TRADE
VIC1,"2011/07/02 18:30:00",6318.08,27.12,TRADE
VIC1,"2011/07/02 19:00:00",6170.58,26.03,TRADE
VIC1,"2011/07/02 19:30:00",6013.28,25.16,TRADE
VIC1,"2011/07/02 20:00:00",5920.39,24.87,TRADE
VIC1,"2011/07/02 20:30:00",5757.77,24.4,TRADE
VIC1,"2011/07/02 21:00:00",5661.62,23.62,TRADE
VIC1,"2011/07/02 21:30:00",5578.58,23.4,TRADE
VIC1,"2011/07/02 22:00:00",5451.04,23.25,TRADE
VIC1,"2011/07/02 22:30:00",5335.24,23.23,TRADE
VIC1,"2011/07/02 23:00:00",5251.14,23.59,TRADE
VIC1,"2011/07/02 23:30:00",5408.67,24.88,TRADE
VIC1,"2011/07/03 00:00:00",5294.19,24.37,TRADE
VIC1,"2011/07/03 00:30:00",5168.16,23.1,TRADE
VIC1,"2011/07/03 01:00:00",5013,21.52,TRADE
VIC1,"2011/07/03 01:30:00",5281.68,22.8,TRADE
VIC1,"2011/07/03 02:00:00",5055.05,13.4,TRADE
VIC1,"2011/07/03 02:30:00",4946.38,15.76,TRADE
VIC1,"2011/07/03 03:00:00",4713.98,11.86,TRADE
VIC1,"2011/07/03 03:30:00",4613.28,11.01,TRADE
VIC1,"2011/07/03 04:00:00",4497.37,9.31,TRADE
VIC1,"2011/07/03 04:30:00",4376.26,7.41,TRADE
VIC1,"2011/07/03 05:00:00",4352.06,5.24,TRADE
VIC1,"2011/07/03 05:30:00",4344.76,6.56,TRADE
VIC1,"2011/07/03 06:00:00",4307.28,6.31,TRADE
VIC1,"2011/07/03 06:30:00",4397.27,7.1,TRADE
VIC1,"2011/07/03 07:00:00",4494.62,10.72,TRADE
VIC1,"2011/07/03 07:30:00",4494.53,12.25,TRADE
VIC1,"2011/07/03 08:00:00",4657.75,15.01,TRADE
VIC1,"2011/07/03 08:30:00",4864.46,19.07,TRADE
VIC1,"2011/07/03 09:00:00",5078.25,20.62,TRADE
VIC1,"2011/07/03 09:30:00",5278.57,20.8,TRADE
VIC1,"2011/07/03 10:00:00",5396.59,21.29,TRADE
VIC1,"2011/07/03 10:30:00",5522.33,18.85,TRADE
VIC1,"2011/07/03 11:00:00",5562.14,17.89,TRADE
VIC1,"2011/07/03 11:30:00",5623.01,17.89,TRADE
VIC1,"2011/07/03 12:00:00",5682.25,17.92,TRADE
VIC1,"2011/07/03 12:30:00",5642.45,17.89,TRADE
VIC1,"2011/07/03 13:00:00",5610.8,17.89,TRADE
VIC1,"2011/07/03 13:30:00",5662.27,16.54,TRADE
VIC1,"2011/07/03 14:00:00",5644.3,12.77,TRADE
VIC1,"2011/07/03 14:30:00",5662.18,11.48,TRADE
VIC1,"2011/07/03 15:00:00",5667.98,13.49,TRADE
VIC1,"2011/07/03 15:30:00",5658,18.04,TRADE
VIC1,"2011/07/03 16:00:00",5762.5,17.89,TRADE
VIC1,"2011/07/03 16:30:00",5901.28,18.64,TRADE
VIC1,"2011/07/03 17:00:00",6002.31,19.05,TRADE
VIC1,"2011/07/03 17:30:00",6345.46,25.56,TRADE
VIC1,"2011/07/03 18:00:00",6593.71,27,TRADE
VIC1,"2011/07/03 18:30:00",6655.72,27.76,TRADE
VIC1,"2011/07/03 19:00:00",6562.3,27.13,TRADE
VIC1,"2011/07/03 19:30:00",6379.55,26.4,TRADE
VIC1,"2011/07/03 20:00:00",6270.57,25.93,TRADE
VIC1,"2011/07/03 20:30:00",6146.01,25.04,TRADE
VIC1,"2011/07/03 21:00:00",6040.69,24.7,TRADE
VIC1,"2011/07/03 21:30:00",5890.56,23.75,TRADE
VIC1,"2011/07/03 22:00:00",5654.7,18.66,TRADE
VIC1,"2011/07/03 22:30:00",5484.09,18.1,TRADE
VIC1,"2011/07/03 23:00:00",5340.24,16.39,TRADE
VIC1,"2011/07/03 23:30:00",5437.99,16.9,TRADE
VIC1,"2011/07/04 00:00:00",5329.39,16.99,TRADE
VIC1,"2011/07/04 00:30:00",5113.85,13.5,TRADE
VIC1,"2011/07/04 01:00:00",4927.09,12.19,TRADE
VIC1,"2011/07/04 01:30:00",5165.24,13.5,TRADE
VIC1,"2011/07/04 02:00:00",4999.75,10.11,TRADE
VIC1,"2011/07/04 02:30:00",4890.48,6.85,TRADE
VIC1,"2011/07/04 03:00:00",4750.19,3,TRADE
VIC1,"2011/07/04 03:30:00",4625.69,4.03,TRADE
VIC1,"2011/07/04 04:00:00",4558.07,4.3,TRADE
VIC1,"2011/07/04 04:30:00",4533.75,7.01,TRADE
VIC1,"2011/07/04 05:00:00",4445.23,6.32,TRADE
VIC1,"2011/07/04 05:30:00",4607.34,8.82,TRADE
VIC1,"2011/07/04 06:00:00",4844.8,12.87,TRADE
VIC1,"2011/07/04 06:30:00",5297.46,15.25,TRADE
VIC1,"2011/07/04 07:00:00",5766.69,21.32,TRADE
VIC1,"2011/07/04 07:30:00",6071.71,21.44,TRADE
VIC1,"2011/07/04 08:00:00",6350.72,22.53,TRADE
VIC1,"2011/07/04 08:30:00",6559.22,24.01,TRADE
VIC1,"2011/07/04 09:00:00",6736.84,26.6,TRADE
VIC1,"2011/07/04 09:30:00",6786.18,26.77,TRADE
VIC1,"2011/07/04 10:00:00",6760.19,26.5,TRADE
VIC1,"2011/07/04 10:30:00",6707.55,26.02,TRADE
VIC1,"2011/07/04 11:00:00",6651.48,25.75,TRADE
VIC1,"2011/07/04 11:30:00",6558.26,25.06,TRADE
VIC1,"2011/07/04 12:00:00",6511.49,25.2,TRADE
VIC1,"2011/07/04 12:30:00",6563.06,26,TRADE
VIC1,"2011/07/04 13:00:00",6502.77,25.69,TRADE
VIC1,"2011/07/04 13:30:00",6510.4,25.95,TRADE
VIC1,"2011/07/04 14:00:00",6543.32,26.04,TRADE
VIC1,"2011/07/04 14:30:00",6549.82,25.79,TRADE
VIC1,"2011/07/04 15:00:00",6559.88,26.02,TRADE
VIC1,"2011/07/04 15:30:00",6593.79,26.08,TRADE
VIC1,"2011/07/04 16:00:00",6618.6,25.61,TRADE
VIC1,"2011/07/04 16:30:00",6609.45,26.18,TRADE
VIC1,"2011/07/04 17:00:00",6791.97,26.28,TRADE
VIC1,"2011/07/04 17:30:00",7074.11,28.79,TRADE
VIC1,"2011/07/04 18:00:00",7409.01,36.99,TRADE
VIC1,"2011/07/04 18:30:00",7405.91,30.7,TRADE
VIC1,"2011/07/04 19:00:00",7235.7,29.81,TRADE
VIC1,"2011/07/04 19:30:00",7035.01,27.65,TRADE
VIC1,"2011/07/04 20:00:00",6874.86,27.07,TRADE
VIC1,"2011/07/04 20:30:00",6732.53,26.65,TRADE
VIC1,"2011/07/04 21:00:00",6622.86,26.53,TRADE
VIC1,"2011/07/04 21:30:00",6397.99,25.78,TRADE
VIC1,"2011/07/04 22:00:00",6185.54,24.07,TRADE
VIC1,"2011/07/04 22:30:00",5921.01,23.28,TRADE
VIC1,"2011/07/04 23:00:00",5769.9,21.85,TRADE
VIC1,"2011/07/04 23:30:00",5859.66,20.16,TRADE
VIC1,"2011/07/05 00:00:00",5692.21,22.49,TRADE
VIC1,"2011/07/05 00:30:00",5451.76,22.44,TRADE
VIC1,"2011/07/05 01:00:00",5239.99,18.39,TRADE
VIC1,"2011/07/05 01:30:00",5484.81,19.45,TRADE
VIC1,"2011/07/05 02:00:00",5321.78,15.24,TRADE
VIC1,"2011/07/05 02:30:00",5162.58,9.94,TRADE
VIC1,"2011/07/05 03:00:00",5017.78,9.94,TRADE
VIC1,"2011/07/05 03:30:00",4906.75,10.57,TRADE
VIC1,"2011/07/05 04:00:00",4806.09,9.99,TRADE
VIC1,"2011/07/05 04:30:00",4762.1,10.92,TRADE
VIC1,"2011/07/05 05:00:00",4781.79,10.62,TRADE
VIC1,"2011/07/05 05:30:00",4942.21,13.96,TRADE
VIC1,"2011/07/05 06:00:00",5128.19,12.57,TRADE
VIC1,"2011/07/05 06:30:00",5611.34,21.99,TRADE
VIC1,"2011/07/05 07:00:00",5990.95,26.1,TRADE
VIC1,"2011/07/05 07:30:00",6247.74,26.61,TRADE
VIC1,"2011/07/05 08:00:00",6556.3,29.69,TRADE
VIC1,"2011/07/05 08:30:00",6792.63,31.98,TRADE
VIC1,"2011/07/05 09:00:00",6934.38,33.76,TRADE
VIC1,"2011/07/05 09:30:00",7074.09,34.89,TRADE
VIC1,"2011/07/05 10:00:00",7057.89,35.05,TRADE
VIC1,"2011/07/05 10:30:00",7017.59,29.92,TRADE
VIC1,"2011/07/05 11:00:00",6998.87,29.69,TRADE
VIC1,"2011/07/05 11:30:00",7021.07,29.79,TRADE
VIC1,"2011/07/05 12:00:00",6991.15,34.2,TRADE
VIC1,"2011/07/05 12:30:00",7012.46,40.32,TRADE
VIC1,"2011/07/05 13:00:00",7002.59,31.16,TRADE
VIC1,"2011/07/05 13:30:00",7057.79,30.73,TRADE
VIC1,"2011/07/05 14:00:00",7044.63,31.95,TRADE
VIC1,"2011/07/05 14:30:00",7027.21,30.5,TRADE
VIC1,"2011/07/05 15:00:00",6984.79,29.62,TRADE
VIC1,"2011/07/05 15:30:00",6969.47,29.66,TRADE
VIC1,"2011/07/05 16:00:00",6951.73,29.89,TRADE
VIC1,"2011/07/05 16:30:00",6958.57,29.83,TRADE
VIC1,"2011/07/05 17:00:00",7077.35,29.15,TRADE
VIC1,"2011/07/05 17:30:00",7338.23,55.46,TRADE
VIC1,"2011/07/05 18:00:00",7554.93,71.45,TRADE
VIC1,"2011/07/05 18:30:00",7439.3,45.43,TRADE
VIC1,"2011/07/05 19:00:00",7258.58,42.23,TRADE
VIC1,"2011/07/05 19:30:00",7146.2,40.6,TRADE
VIC1,"2011/07/05 20:00:00",7024.08,41.38,TRADE
VIC1,"2011/07/05 20:30:00",6837.42,36.08,TRADE
VIC1,"2011/07/05 21:00:00",6733.11,30.46,TRADE
VIC1,"2011/07/05 21:30:00",6531.58,30.21,TRADE
VIC1,"2011/07/05 22:00:00",6282.46,29.02,TRADE
VIC1,"2011/07/05 22:30:00",6060.07,29.71,TRADE
VIC1,"2011/07/05 23:00:00",5786.32,24.86,TRADE
VIC1,"2011/07/05 23:30:00",5920.92,24.99,TRADE
VIC1,"2011/07/06 00:00:00",5707.61,24.98,TRADE
VIC1,"2011/07/06 00:30:00",5610.03,24.05,TRADE
VIC1,"2011/07/06 01:00:00",5357.28,22.2,TRADE
VIC1,"2011/07/06 01:30:00",5629.14,23.52,TRADE
VIC1,"2011/07/06 02:00:00",5435.5,20.36,TRADE
VIC1,"2011/07/06 02:30:00",5259.86,17.89,TRADE
VIC1,"2011/07/06 03:00:00",5117.89,17.84,TRADE
VIC1,"2011/07/06 03:30:00",4965.19,14.03,TRADE
VIC1,"2011/07/06 04:00:00",4843.62,12.88,TRADE
VIC1,"2011/07/06 04:30:00",4832.78,13.61,TRADE
VIC1,"2011/07/06 05:00:00",4842.21,12.52,TRADE
VIC1,"2011/07/06 05:30:00",4929.05,17.7,TRADE
VIC1,"2011/07/06 06:00:00",5142.9,11.24,TRADE
VIC1,"2011/07/06 06:30:00",5575.17,22.13,TRADE
VIC1,"2011/07/06 07:00:00",5990.26,27.48,TRADE
VIC1,"2011/07/06 07:30:00",6283.92,26.77,TRADE
VIC1,"2011/07/06 08:00:00",6610.85,30.41,TRADE
VIC1,"2011/07/06 08:30:00",6789.31,33.7,TRADE
VIC1,"2011/07/06 09:00:00",6922.49,28.99,TRADE
VIC1,"2011/07/06 09:30:00",6912.53,30.04,TRADE
VIC1,"2011/07/06 10:00:00",6969.5,32.54,TRADE
VIC1,"2011/07/06 10:30:00",6929.69,30.82,TRADE
VIC1,"2011/07/06 11:00:00",6902.82,29.69,TRADE
VIC1,"2011/07/06 11:30:00",6843.34,29.22,TRADE
VIC1,"2011/07/06 12:00:00",6866.62,29.31,TRADE
VIC1,"2011/07/06 12:30:00",6797.38,27.78,TRADE
VIC1,"2011/07/06 13:00:00",6733.5,27.68,TRADE
VIC1,"2011/07/06 13:30:00",6767.3,28.54,TRADE
VIC1,"2011/07/06 14:00:00",6751.42,29.08,TRADE
VIC1,"2011/07/06 14:30:00",6764.23,29.15,TRADE
VIC1,"2011/07/06 15:00:00",6736.47,28.58,TRADE
VIC1,"2011/07/06 15:30:00",6857.64,30.02,TRADE
VIC1,"2011/07/06 16:00:00",6933.3,31.05,TRADE
VIC1,"2011/07/06 16:30:00",7030.16,30.51,TRADE
VIC1,"2011/07/06 17:00:00",7143.68,35.97,TRADE
VIC1,"2011/07/06 17:30:00",7382.62,43.39,TRADE
VIC1,"2011/07/06 18:00:00",7542.49,46.86,TRADE
VIC1,"2011/07/06 18:30:00",7423.53,42.17,TRADE
VIC1,"2011/07/06 19:00:00",7295.96,41.07,TRADE
VIC1,"2011/07/06 19:30:00",7106.49,35.62,TRADE
VIC1,"2011/07/06 20:00:00",6995.09,33.68,TRADE
VIC1,"2011/07/06 20:30:00",6832.29,33.93,TRADE
VIC1,"2011/07/06 21:00:00",6605.57,29.41,TRADE
VIC1,"2011/07/06 21:30:00",6429.65,27.52,TRADE
VIC1,"2011/07/06 22:00:00",6232.7,26.59,TRADE
VIC1,"2011/07/06 22:30:00",6012.26,34.21,TRADE
VIC1,"2011/07/06 23:00:00",5772.57,30.52,TRADE
VIC1,"2011/07/06 23:30:00",5865.43,28.7,TRADE
VIC1,"2011/07/07 00:00:00",5677.69,27.79,TRADE
VIC1,"2011/07/07 00:30:00",5481.36,26.83,TRADE
VIC1,"2011/07/07 01:00:00",5310.84,25.74,TRADE
VIC1,"2011/07/07 01:30:00",5586.85,27.84,TRADE
VIC1,"2011/07/07 02:00:00",5457.79,24.76,TRADE
VIC1,"2011/07/07 02:30:00",5273.53,24.72,TRADE
VIC1,"2011/07/07 03:00:00",5084.71,22.7,TRADE
VIC1,"2011/07/07 03:30:00",4957.77,19.49,TRADE
VIC1,"2011/07/07 04:00:00",4848.24,17.98,TRADE
VIC1,"2011/07/07 04:30:00",4778.32,17.9,TRADE
VIC1,"2011/07/07 05:00:00",4806.13,18.55,TRADE
VIC1,"2011/07/07 05:30:00",4985.34,21.67,TRADE
VIC1,"2011/07/07 06:00:00",5173.69,22.2,TRADE
VIC1,"2011/07/07 06:30:00",5641.82,27.86,TRADE
VIC1,"2011/07/07 07:00:00",6034.64,32.97,TRADE
VIC1,"2011/07/07 07:30:00",6419.54,31.82,TRADE
VIC1,"2011/07/07 08:00:00",6715.71,37.63,TRADE
VIC1,"2011/07/07 08:30:00",6962.01,40.55,TRADE
VIC1,"2011/07/07 09:00:00",7137.86,38.25,TRADE
VIC1,"2011/07/07 09:30:00",7266.03,39.35,TRADE
VIC1,"2011/07/07 10:00:00",7246.34,40.32,TRADE
VIC1,"2011/07/07 10:30:00",7159.87,35.2,TRADE
VIC1,"2011/07/07 11:00:00",7125.47,32.96,TRADE
VIC1,"2011/07/07 11:30:00",7061.28,35.5,TRADE
VIC1,"2011/07/07 12:00:00",7041.91,32.46,TRADE
VIC1,"2011/07/07 12:30:00",7017.88,30.69,TRADE
VIC1,"2011/07/07 13:00:00",7001.53,30.2,TRADE
VIC1,"2011/07/07 13:30:00",7065.39,30.4,TRADE
VIC1,"2011/07/07 14:00:00",7075.06,32.29,TRADE
VIC1,"2011/07/07 14:30:00",7008.54,33.74,TRADE
VIC1,"2011/07/07 15:00:00",6986.02,30.59,TRADE
VIC1,"2011/07/07 15:30:00",6979.62,29.97,TRADE
VIC1,"2011/07/07 16:00:00",6963.51,29.53,TRADE
VIC1,"2011/07/07 16:30:00",7014.98,30.16,TRADE
VIC1,"2011/07/07 17:00:00",7130.66,29.28,TRADE
VIC1,"2011/07/07 17:30:00",7384.75,33.86,TRADE
VIC1,"2011/07/07 18:00:00",7704.69,43.42,TRADE
VIC1,"2011/07/07 18:30:00",7700.74,50.72,TRADE
VIC1,"2011/07/07 19:00:00",7555.08,44.37,TRADE
VIC1,"2011/07/07 19:30:00",7377.2,36.97,TRADE
VIC1,"2011/07/07 20:00:00",7204.69,35.89,TRADE
VIC1,"2011/07/07 20:30:00",7097.53,35.59,TRADE
VIC1,"2011/07/07 21:00:00",6959.98,35.41,TRADE
VIC1,"2011/07/07 21:30:00",6766.69,34.07,TRADE
VIC1,"2011/07/07 22:00:00",6521.92,29.18,TRADE
VIC1,"2011/07/07 22:30:00",6275.93,41.44,TRADE
VIC1,"2011/07/07 23:00:00",6013.73,30.54,TRADE
VIC1,"2011/07/07 23:30:00",6116.53,30.65,TRADE
VIC1,"2011/07/08 00:00:00",5831.17,27.28,TRADE
VIC1,"2011/07/08 00:30:00",5623.3,26.35,TRADE
VIC1,"2011/07/08 01:00:00",5430.97,25,TRADE
VIC1,"2011/07/08 01:30:00",5650.41,26.51,TRADE
VIC1,"2011/07/08 02:00:00",5435.01,21.69,TRADE
VIC1,"2011/07/08 02:30:00",5250.47,17.94,TRADE
VIC1,"2011/07/08 03:00:00",5146.22,17.89,TRADE
VIC1,"2011/07/08 03:30:00",5030.68,16.49,TRADE
VIC1,"2011/07/08 04:00:00",4953.63,15.08,TRADE
VIC1,"2011/07/08 04:30:00",4880.22,16.64,TRADE
VIC1,"2011/07/08 05:00:00",4901.22,19.06,TRADE
VIC1,"2011/07/08 05:30:00",5046.14,20.24,TRADE
VIC1,"2011/07/08 06:00:00",5172.73,22.75,TRADE
VIC1,"2011/07/08 06:30:00",5607.62,27.06,TRADE
VIC1,"2011/07/08 07:00:00",5981.15,29.4,TRADE
VIC1,"2011/07/08 07:30:00",6286.87,29.86,TRADE
VIC1,"2011/07/08 08:00:00",6658.72,52.19,TRADE
VIC1,"2011/07/08 08:30:00",6901.16,51.27,TRADE
VIC1,"2011/07/08 09:00:00",7099.93,53.14,TRADE
VIC1,"2011/07/08 09:30:00",7184.65,45.7,TRADE
VIC1,"2011/07/08 10:00:00",7194.98,45.66,TRADE
VIC1,"2011/07/08 10:30:00",7196.38,45.18,TRADE
VIC1,"2011/07/08 11:00:00",7151.52,37.71,TRADE
VIC1,"2011/07/08 11:30:00",7070.48,36.91,TRADE
VIC1,"2011/07/08 12:00:00",7041.29,36.6,TRADE
VIC1,"2011/07/08 12:30:00",6975.02,34.25,TRADE
VIC1,"2011/07/08 13:00:00",6923.88,33.27,TRADE
VIC1,"2011/07/08 13:30:00",6968.26,35.53,TRADE
VIC1,"2011/07/08 14:00:00",6929.68,31.33,TRADE
VIC1,"2011/07/08 14:30:00",6864.87,31.14,TRADE
VIC1,"2011/07/08 15:00:00",6789.15,30.04,TRADE
VIC1,"2011/07/08 15:30:00",6805.21,31.07,TRADE
VIC1,"2011/07/08 16:00:00",6776.57,30.57,TRADE
VIC1,"2011/07/08 16:30:00",6769.4,31.2,TRADE
VIC1,"2011/07/08 17:00:00",6863.86,31.54,TRADE
VIC1,"2011/07/08 17:30:00",7127.43,40.36,TRADE
VIC1,"2011/07/08 18:00:00",7395.94,47.54,TRADE
VIC1,"2011/07/08 18:30:00",7290.69,40.02,TRADE
VIC1,"2011/07/08 19:00:00",7197.49,46.14,TRADE
VIC1,"2011/07/08 19:30:00",7036.22,37.06,TRADE
VIC1,"2011/07/08 20:00:00",6909.89,36.86,TRADE
VIC1,"2011/07/08 20:30:00",6762.8,36.42,TRADE
VIC1,"2011/07/08 21:00:00",6682.36,32.89,TRADE
VIC1,"2011/07/08 21:30:00",6487.38,37.12,TRADE
VIC1,"2011/07/08 22:00:00",6296.83,34.58,TRADE
VIC1,"2011/07/08 22:30:00",6094.31,42.01,TRADE
VIC1,"2011/07/08 23:00:00",5928.78,35.22,TRADE
VIC1,"2011/07/08 23:30:00",6120.69,36.46,TRADE
VIC1,"2011/07/09 00:00:00",5882.95,34.52,TRADE
VIC1,"2011/07/09 00:30:00",5611.59,32.58,TRADE
VIC1,"2011/07/09 01:00:00",5418.05,27.87,TRADE
VIC1,"2011/07/09 01:30:00",5625.01,32.51,TRADE
VIC1,"2011/07/09 02:00:00",5426.05,27.01,TRADE
VIC1,"2011/07/09 02:30:00",5170.07,24.43,TRADE
VIC1,"2011/07/09 03:00:00",5006.85,22.48,TRADE
VIC1,"2011/07/09 03:30:00",4866.08,21.85,TRADE
VIC1,"2011/07/09 04:00:00",4685.09,20.7,TRADE
VIC1,"2011/07/09 04:30:00",4684.27,19.35,TRADE
VIC1,"2011/07/09 05:00:00",4692.44,17.96,TRADE
VIC1,"2011/07/09 05:30:00",4697.42,18.42,TRADE
VIC1,"2011/07/09 06:00:00",4768.42,21.21,TRADE
VIC1,"2011/07/09 06:30:00",4813.07,21.63,TRADE
VIC1,"2011/07/09 07:00:00",4943.23,22.62,TRADE
VIC1,"2011/07/09 07:30:00",5074.8,24.81,TRADE
VIC1,"2011/07/09 08:00:00",5253.76,26.66,TRADE
VIC1,"2011/07/09 08:30:00",5543.78,29.71,TRADE
VIC1,"2011/07/09 09:00:00",5755.55,33.1,TRADE
VIC1,"2011/07/09 09:30:00",5915.6,36.48,TRADE
VIC1,"2011/07/09 10:00:00",5892.65,34.45,TRADE
VIC1,"2011/07/09 10:30:00",5856.67,33.81,TRADE
VIC1,"2011/07/09 11:00:00",5754.87,30.29,TRADE
VIC1,"2011/07/09 11:30:00",5668.12,28.5,TRADE
VIC1,"2011/07/09 12:00:00",5581.16,27.82,TRADE
VIC1,"2011/07/09 12:30:00",5485.25,27.49,TRADE
VIC1,"2011/07/09 13:00:00",5506.13,27.17,TRADE
VIC1,"2011/07/09 13:30:00",5569.83,27.44,TRADE
VIC1,"2011/07/09 14:00:00",5486.85,27.05,TRADE
VIC1,"2011/07/09 14:30:00",5487.08,27.05,TRADE
VIC1,"2011/07/09 15:00:00",5425.7,26.75,TRADE
VIC1,"2011/07/09 15:30:00",5422.58,26.62,TRADE
VIC1,"2011/07/09 16:00:00",5409.93,25.91,TRADE
VIC1,"2011/07/09 16:30:00",5492.65,27.02,TRADE
VIC1,"2011/07/09 17:00:00",5674.75,28.36,TRADE
VIC1,"2011/07/09 17:30:00",6060.41,42.9,TRADE
VIC1,"2011/07/09 18:00:00",6457.86,55.63,TRADE
VIC1,"2011/07/09 18:30:00",6566.01,64.86,TRADE
VIC1,"2011/07/09 19:00:00",6433.08,49.97,TRADE
VIC1,"2011/07/09 19:30:00",6258.88,38.81,TRADE
VIC1,"2011/07/09 20:00:00",6128.09,40.98,TRADE
VIC1,"2011/07/09 20:30:00",5986.09,37.9,TRADE
VIC1,"2011/07/09 21:00:00",5928.43,35.95,TRADE
VIC1,"2011/07/09 21:30:00",5829.34,33.58,TRADE
VIC1,"2011/07/09 22:00:00",5709.77,29.61,TRADE
VIC1,"2011/07/09 22:30:00",5648.26,35.91,TRADE
VIC1,"2011/07/09 23:00:00",5550.14,35.29,TRADE
VIC1,"2011/07/09 23:30:00",5667.46,36.97,TRADE
VIC1,"2011/07/10 00:00:00",5574.82,35.27,TRADE
VIC1,"2011/07/10 00:30:00",5395.4,27.8,TRADE
VIC1,"2011/07/10 01:00:00",5186.57,25.68,TRADE
VIC1,"2011/07/10 01:30:00",5421.59,26.63,TRADE
VIC1,"2011/07/10 02:00:00",5192.66,23.88,TRADE
VIC1,"2011/07/10 02:30:00",5014.9,22.14,TRADE
VIC1,"2011/07/10 03:00:00",4799.37,20.81,TRADE
VIC1,"2011/07/10 03:30:00",4731.05,19.79,TRADE
VIC1,"2011/07/10 04:00:00",4587.96,14.76,TRADE
VIC1,"2011/07/10 04:30:00",4531.12,17.92,TRADE
VIC1,"2011/07/10 05:00:00",4489.26,17.89,TRADE
VIC1,"2011/07/10 05:30:00",4518.14,16.6,TRADE
VIC1,"2011/07/10 06:00:00",4491.64,15.92,TRADE
VIC1,"2011/07/10 06:30:00",4567.56,17.67,TRADE
VIC1,"2011/07/10 07:00:00",4703.35,19.67,TRADE
VIC1,"2011/07/10 07:30:00",4710.57,20.25,TRADE
VIC1,"2011/07/10 08:00:00",4844.44,21.72,TRADE
VIC1,"2011/07/10 08:30:00",5028.61,23.24,TRADE
VIC1,"2011/07/10 09:00:00",5190.81,24.41,TRADE
VIC1,"2011/07/10 09:30:00",5327.25,25.19,TRADE
VIC1,"2011/07/10 10:00:00",5434.36,25.49,TRADE
VIC1,"2011/07/10 10:30:00",5569.64,26.63,TRADE
VIC1,"2011/07/10 11:00:00",5548.39,26.1,TRADE
VIC1,"2011/07/10 11:30:00",5540.03,26.15,TRADE
VIC1,"2011/07/10 12:00:00",5572.7,25.89,TRADE
VIC1,"2011/07/10 12:30:00",5613.59,25.78,TRADE
VIC1,"2011/07/10 13:00:00",5621.39,25.88,TRADE
VIC1,"2011/07/10 13:30:00",5678.44,26.12,TRADE
VIC1,"2011/07/10 14:00:00",5688.96,26.18,TRADE
VIC1,"2011/07/10 14:30:00",5648.04,26.13,TRADE
VIC1,"2011/07/10 15:00:00",5664.11,25.94,TRADE
VIC1,"2011/07/10 15:30:00",5676.39,25.91,TRADE
VIC1,"2011/07/10 16:00:00",5749.12,27.22,TRADE
VIC1,"2011/07/10 16:30:00",5823.23,28.26,TRADE
VIC1,"2011/07/10 17:00:00",5936.79,29.41,TRADE
VIC1,"2011/07/10 17:30:00",6187.73,34.58,TRADE
VIC1,"2011/07/10 18:00:00",6491.7,55.11,TRADE
VIC1,"2011/07/10 18:30:00",6519.05,74.08,TRADE
VIC1,"2011/07/10 19:00:00",6482.08,79.23,TRADE
VIC1,"2011/07/10 19:30:00",6305.22,52,TRADE
VIC1,"2011/07/10 20:00:00",6258.99,48.74,TRADE
VIC1,"2011/07/10 20:30:00",6116.22,48.23,TRADE
VIC1,"2011/07/10 21:00:00",6077.24,40.65,TRADE
VIC1,"2011/07/10 21:30:00",5924.78,32.81,TRADE
VIC1,"2011/07/10 22:00:00",5723.32,28.97,TRADE
VIC1,"2011/07/10 22:30:00",5547.04,30.36,TRADE
VIC1,"2011/07/10 23:00:00",5352.54,30.77,TRADE
VIC1,"2011/07/10 23:30:00",5435.58,31.38,TRADE
VIC1,"2011/07/11 00:00:00",5255.99,30.37,TRADE
VIC1,"2011/07/11 00:30:00",5069.08,26.09,TRADE
VIC1,"2011/07/11 01:00:00",4927.12,24.94,TRADE
VIC1,"2011/07/11 01:30:00",5185.1,26.18,TRADE
VIC1,"2011/07/11 02:00:00",5061.43,24.87,TRADE
VIC1,"2011/07/11 02:30:00",4903.02,23.04,TRADE
VIC1,"2011/07/11 03:00:00",4772.65,22.25,TRADE
VIC1,"2011/07/11 03:30:00",4683.74,19.32,TRADE
VIC1,"2011/07/11 04:00:00",4594.19,17.99,TRADE
VIC1,"2011/07/11 04:30:00",4596.67,19.16,TRADE
VIC1,"2011/07/11 05:00:00",4633.36,22.07,TRADE
VIC1,"2011/07/11 05:30:00",4773.66,23.2,TRADE
VIC1,"2011/07/11 06:00:00",5001.84,24.44,TRADE
VIC1,"2011/07/11 06:30:00",5434.99,26.6,TRADE
VIC1,"2011/07/11 07:00:00",5902.6,29.3,TRADE
VIC1,"2011/07/11 07:30:00",6166.07,29.31,TRADE
VIC1,"2011/07/11 08:00:00",6532.56,45.66,TRADE
VIC1,"2011/07/11 08:30:00",6825.01,69.11,TRADE
VIC1,"2011/07/11 09:00:00",7004.26,84.81,TRADE
VIC1,"2011/07/11 09:30:00",7177,104.08,TRADE
VIC1,"2011/07/11 10:00:00",7189.91,44.21,TRADE
VIC1,"2011/07/11 10:30:00",7155.93,47.86,TRADE
VIC1,"2011/07/11 11:00:00",7133.9,50.38,TRADE
VIC1,"2011/07/11 11:30:00",7069.73,42.99,TRADE
VIC1,"2011/07/11 12:00:00",6977.02,45.32,TRADE
VIC1,"2011/07/11 12:30:00",6928.13,47.92,TRADE
VIC1,"2011/07/11 13:00:00",6852.22,42.38,TRADE
VIC1,"2011/07/11 13:30:00",6900.94,43.22,TRADE
VIC1,"2011/07/11 14:00:00",6874.45,40,TRADE
VIC1,"2011/07/11 14:30:00",6839.35,32.92,TRADE
VIC1,"2011/07/11 15:00:00",6823.8,32.67,TRADE
VIC1,"2011/07/11 15:30:00",6825.2,31.94,TRADE
VIC1,"2011/07/11 16:00:00",6783.39,30.91,TRADE
VIC1,"2011/07/11 16:30:00",6817.1,32.75,TRADE
VIC1,"2011/07/11 17:00:00",7018.13,40.52,TRADE
VIC1,"2011/07/11 17:30:00",7254.51,62.72,TRADE
VIC1,"2011/07/11 18:00:00",7536.79,111.56,TRADE
VIC1,"2011/07/11 18:30:00",7474.06,60.63,TRADE
VIC1,"2011/07/11 19:00:00",7268.39,52.72,TRADE
VIC1,"2011/07/11 19:30:00",7078.74,45.1,TRADE
VIC1,"2011/07/11 20:00:00",6941.92,51.16,TRADE
VIC1,"2011/07/11 20:30:00",6741.14,49.23,TRADE
VIC1,"2011/07/11 21:00:00",6585.12,39.66,TRADE
VIC1,"2011/07/11 21:30:00",6447.15,35.64,TRADE
VIC1,"2011/07/11 22:00:00",6198.32,32.91,TRADE
VIC1,"2011/07/11 22:30:00",5970.68,47.86,TRADE
VIC1,"2011/07/11 23:00:00",5722.64,41.37,TRADE
VIC1,"2011/07/11 23:30:00",5889.3,41.06,TRADE
VIC1,"2011/07/12 00:00:00",5661.1,40.22,TRADE
VIC1,"2011/07/12 00:30:00",5429.66,34.64,TRADE
VIC1,"2011/07/12 01:00:00",5235.79,30.9,TRADE
VIC1,"2011/07/12 01:30:00",5473.79,32.62,TRADE
VIC1,"2011/07/12 02:00:00",5336.62,27.86,TRADE
VIC1,"2011/07/12 02:30:00",5123.28,26.09,TRADE
VIC1,"2011/07/12 03:00:00",5013.29,25.22,TRADE
VIC1,"2011/07/12 03:30:00",4918.56,24.64,TRADE
VIC1,"2011/07/12 04:00:00",4819.43,23.83,TRADE
VIC1,"2011/07/12 04:30:00",4805.34,21.77,TRADE
VIC1,"2011/07/12 05:00:00",4801.65,22.12,TRADE
VIC1,"2011/07/12 05:30:00",4956.62,24.34,TRADE
VIC1,"2011/07/12 06:00:00",5143.95,25.26,TRADE
VIC1,"2011/07/12 06:30:00",5565.95,34.3,TRADE
VIC1,"2011/07/12 07:00:00",5981.11,46.62,TRADE
VIC1,"2011/07/12 07:30:00",6290.75,41.93,TRADE
VIC1,"2011/07/12 08:00:00",6629,52.05,TRADE
VIC1,"2011/07/12 08:30:00",6860.98,49.1,TRADE
VIC1,"2011/07/12 09:00:00",7056.42,53.33,TRADE
VIC1,"2011/07/12 09:30:00",7094.74,49.78,TRADE
VIC1,"2011/07/12 10:00:00",7026.4,46.2,TRADE
VIC1,"2011/07/12 10:30:00",7037.15,43,TRADE
VIC1,"2011/07/12 11:00:00",6964.72,41.8,TRADE
VIC1,"2011/07/12 11:30:00",6911.64,42.08,TRADE
VIC1,"2011/07/12 12:00:00",6930.59,38.43,TRADE
VIC1,"2011/07/12 12:30:00",6890.77,37.27,TRADE
VIC1,"2011/07/12 13:00:00",6907.34,33.26,TRADE
VIC1,"2011/07/12 13:30:00",6947.03,32.65,TRADE
VIC1,"2011/07/12 14:00:00",6916.26,31.79,TRADE
VIC1,"2011/07/12 14:30:00",6950.51,32.47,TRADE
VIC1,"2011/07/12 15:00:00",6910.57,30.75,TRADE
VIC1,"2011/07/12 15:30:00",6883.91,30.18,TRADE
VIC1,"2011/07/12 16:00:00",6896.28,30.6,TRADE
VIC1,"2011/07/12 16:30:00",6879.61,30.01,TRADE
VIC1,"2011/07/12 17:00:00",7028.16,34.9,TRADE
VIC1,"2011/07/12 17:30:00",7253.3,52.62,TRADE
VIC1,"2011/07/12 18:00:00",7531.75,61.3,TRADE
VIC1,"2011/07/12 18:30:00",7484.69,59.11,TRADE
VIC1,"2011/07/12 19:00:00",7341.83,53.97,TRADE
VIC1,"2011/07/12 19:30:00",7158.69,48.96,TRADE
VIC1,"2011/07/12 20:00:00",7024.75,44.34,TRADE
VIC1,"2011/07/12 20:30:00",6851.83,46.7,TRADE
VIC1,"2011/07/12 21:00:00",6758.52,39.05,TRADE
VIC1,"2011/07/12 21:30:00",6581.65,38.74,TRADE
VIC1,"2011/07/12 22:00:00",6338.29,30.09,TRADE
VIC1,"2011/07/12 22:30:00",6104.71,53.42,TRADE
VIC1,"2011/07/12 23:00:00",5855.1,40.07,TRADE
VIC1,"2011/07/12 23:30:00",5959.76,34.48,TRADE
VIC1,"2011/07/13 00:00:00",5752.99,30.76,TRADE
VIC1,"2011/07/13 00:30:00",5549.22,29.05,TRADE
VIC1,"2011/07/13 01:00:00",5326.62,28.12,TRADE
VIC1,"2011/07/13 01:30:00",5614.38,30.3,TRADE
VIC1,"2011/07/13 02:00:00",5421.8,28.06,TRADE
VIC1,"2011/07/13 02:30:00",5291.34,26.4,TRADE
VIC1,"2011/07/13 03:00:00",5098.89,25.32,TRADE
VIC1,"2011/07/13 03:30:00",4971.26,24.29,TRADE
VIC1,"2011/07/13 04:00:00",4878.6,22.85,TRADE
VIC1,"2011/07/13 04:30:00",4843.15,23.01,TRADE
VIC1,"2011/07/13 05:00:00",4826.27,22.5,TRADE
VIC1,"2011/07/13 05:30:00",4978.58,24.25,TRADE
VIC1,"2011/07/13 06:00:00",5139.38,24.58,TRADE
VIC1,"2011/07/13 06:30:00",5587.74,29.76,TRADE
VIC1,"2011/07/13 07:00:00",5964.27,38.79,TRADE
VIC1,"2011/07/13 07:30:00",6261.74,30.52,TRADE
VIC1,"2011/07/13 08:00:00",6559.64,52.67,TRADE
VIC1,"2011/07/13 08:30:00",6789.59,53.2,TRADE
VIC1,"2011/07/13 09:00:00",6926.64,47.23,TRADE
VIC1,"2011/07/13 09:30:00",6982.4,50.41,TRADE
VIC1,"2011/07/13 10:00:00",6997.7,43.65,TRADE
VIC1,"2011/07/13 10:30:00",6944.02,48.59,TRADE
VIC1,"2011/07/13 11:00:00",6874.87,43.21,TRADE
VIC1,"2011/07/13 11:30:00",6784.97,36.94,TRADE
VIC1,"2011/07/13 12:00:00",6700.84,36.42,TRADE
VIC1,"2011/07/13 12:30:00",6665.85,36.44,TRADE
VIC1,"2011/07/13 13:00:00",6626.33,36.45,TRADE
VIC1,"2011/07/13 13:30:00",6684.1,36.52,TRADE
VIC1,"2011/07/13 14:00:00",6672.51,39.21,TRADE
VIC1,"2011/07/13 14:30:00",6617.21,35.94,TRADE
VIC1,"2011/07/13 15:00:00",6551.14,36.14,TRADE
VIC1,"2011/07/13 15:30:00",6527.15,36.54,TRADE
VIC1,"2011/07/13 16:00:00",6643.74,39.48,TRADE
VIC1,"2011/07/13 16:30:00",6701.91,43.66,TRADE
VIC1,"2011/07/13 17:00:00",6936.86,47.23,TRADE
VIC1,"2011/07/13 17:30:00",7096.35,56.37,TRADE
VIC1,"2011/07/13 18:00:00",7416.2,95,TRADE
VIC1,"2011/07/13 18:30:00",7390.78,54.9,TRADE
VIC1,"2011/07/13 19:00:00",7309.53,49.65,TRADE
VIC1,"2011/07/13 19:30:00",7098.73,43.1,TRADE
VIC1,"2011/07/13 20:00:00",6991.45,40.47,TRADE
VIC1,"2011/07/13 20:30:00",6878.24,58.06,TRADE
VIC1,"2011/07/13 21:00:00",6709.78,38.4,TRADE
VIC1,"2011/07/13 21:30:00",6625.96,35.39,TRADE
VIC1,"2011/07/13 22:00:00",6387.23,31.22,TRADE
VIC1,"2011/07/13 22:30:00",6151.43,54.86,TRADE
VIC1,"2011/07/13 23:00:00",5935.35,38.73,TRADE
VIC1,"2011/07/13 23:30:00",6058.84,36.29,TRADE
VIC1,"2011/07/14 00:00:00",5815.53,31.86,TRADE
VIC1,"2011/07/14 00:30:00",5649.02,31.53,TRADE
VIC1,"2011/07/14 01:00:00",5464.73,28.95,TRADE
VIC1,"2011/07/14 01:30:00",5792.07,34.43,TRADE
VIC1,"2011/07/14 02:00:00",5585.8,29.4,TRADE
VIC1,"2011/07/14 02:30:00",5386.01,26,TRADE
VIC1,"2011/07/14 03:00:00",5231.77,24.76,TRADE
VIC1,"2011/07/14 03:30:00",5108.34,24.27,TRADE
VIC1,"2011/07/14 04:00:00",5013,24.01,TRADE
VIC1,"2011/07/14 04:30:00",5021.81,23.8,TRADE
VIC1,"2011/07/14 05:00:00",5062.25,24.17,TRADE
VIC1,"2011/07/14 05:30:00",5197.01,25.08,TRADE
VIC1,"2011/07/14 06:00:00",5330.01,25.53,TRADE
VIC1,"2011/07/14 06:30:00",5821.1,32.46,TRADE
VIC1,"2011/07/14 07:00:00",6181.3,40.78,TRADE
VIC1,"2011/07/14 07:30:00",6562.01,41.06,TRADE
VIC1,"2011/07/14 08:00:00",6827.72,51.1,TRADE
VIC1,"2011/07/14 08:30:00",7101.47,52.61,TRADE
VIC1,"2011/07/14 09:00:00",7281.63,48.94,TRADE
VIC1,"2011/07/14 09:30:00",7398.64,47.05,TRADE
VIC1,"2011/07/14 10:00:00",7330.91,41.74,TRADE
VIC1,"2011/07/14 10:30:00",7294.34,42.29,TRADE
VIC1,"2011/07/14 11:00:00",7167.01,48.82,TRADE
VIC1,"2011/07/14 11:30:00",7078.72,42.41,TRADE
VIC1,"2011/07/14 12:00:00",7082.41,41.72,TRADE
VIC1,"2011/07/14 12:30:00",6983.24,40.48,TRADE
VIC1,"2011/07/14 13:00:00",6949.74,41.37,TRADE
VIC1,"2011/07/14 13:30:00",6924.13,41.55,TRADE
VIC1,"2011/07/14 14:00:00",6911.9,41.32,TRADE
VIC1,"2011/07/14 14:30:00",6825.49,40.38,TRADE
VIC1,"2011/07/14 15:00:00",6750.6,37.89,TRADE
VIC1,"2011/07/14 15:30:00",6735.82,37.29,TRADE
VIC1,"2011/07/14 16:00:00",6693.13,38.39,TRADE
VIC1,"2011/07/14 16:30:00",6738.79,37.99,TRADE
VIC1,"2011/07/14 17:00:00",6870.29,35.28,TRADE
VIC1,"2011/07/14 17:30:00",7123.66,49.13,TRADE
VIC1,"2011/07/14 18:00:00",7491.27,114.97,TRADE
VIC1,"2011/07/14 18:30:00",7616.82,124.11,TRADE
VIC1,"2011/07/14 19:00:00",7495.12,117.74,TRADE
VIC1,"2011/07/14 19:30:00",7402.5,63.24,TRADE
VIC1,"2011/07/14 20:00:00",7265.68,45.39,TRADE
VIC1,"2011/07/14 20:30:00",7097.41,46.61,TRADE
VIC1,"2011/07/14 21:00:00",6976.38,47.18,TRADE
VIC1,"2011/07/14 21:30:00",6839.42,42.37,TRADE
VIC1,"2011/07/14 22:00:00",6626.41,35.22,TRADE
VIC1,"2011/07/14 22:30:00",6414.47,50.19,TRADE
VIC1,"2011/07/14 23:00:00",6175.25,36.34,TRADE
VIC1,"2011/07/14 23:30:00",6339.96,33.76,TRADE
VIC1,"2011/07/15 00:00:00",6129.58,30.39,TRADE
VIC1,"2011/07/15 00:30:00",5876.75,30.53,TRADE
VIC1,"2011/07/15 01:00:00",5680.79,29.49,TRADE
VIC1,"2011/07/15 01:30:00",5877.15,29.81,TRADE
VIC1,"2011/07/15 02:00:00",5751.97,27.34,TRADE
VIC1,"2011/07/15 02:30:00",5557.38,25.09,TRADE
VIC1,"2011/07/15 03:00:00",5382.09,22.53,TRADE
VIC1,"2011/07/15 03:30:00",5331.93,17.89,TRADE
VIC1,"2011/07/15 04:00:00",5271.42,17.63,TRADE
VIC1,"2011/07/15 04:30:00",5184.64,10.13,TRADE
VIC1,"2011/07/15 05:00:00",5228.27,14.42,TRADE
VIC1,"2011/07/15 05:30:00",5432.13,17.97,TRADE
VIC1,"2011/07/15 06:00:00",5651.05,22.84,TRADE
VIC1,"2011/07/15 06:30:00",6003.26,25.63,TRADE
VIC1,"2011/07/15 07:00:00",6427.16,27.61,TRADE
VIC1,"2011/07/15 07:30:00",6691.11,29.62,TRADE
VIC1,"2011/07/15 08:00:00",7067.29,40.35,TRADE
VIC1,"2011/07/15 08:30:00",7301.84,45.31,TRADE
VIC1,"2011/07/15 09:00:00",7351.42,46.76,TRADE
VIC1,"2011/07/15 09:30:00",7517.87,53.22,TRADE
VIC1,"2011/07/15 10:00:00",7439.43,49.13,TRADE
VIC1,"2011/07/15 10:30:00",7312.48,49.9,TRADE
VIC1,"2011/07/15 11:00:00",7163.91,45.59,TRADE
VIC1,"2011/07/15 11:30:00",7072.68,43.08,TRADE
VIC1,"2011/07/15 12:00:00",6930.26,38.17,TRADE
VIC1,"2011/07/15 12:30:00",6884.57,40.06,TRADE
VIC1,"2011/07/15 13:00:00",6683.48,39.8,TRADE
VIC1,"2011/07/15 13:30:00",6788.72,39.48,TRADE
VIC1,"2011/07/15 14:00:00",6736.2,38.29,TRADE
VIC1,"2011/07/15 14:30:00",6676.02,38.41,TRADE
VIC1,"2011/07/15 15:00:00",6603.79,34.3,TRADE
VIC1,"2011/07/15 15:30:00",6576.14,37.16,TRADE
VIC1,"2011/07/15 16:00:00",6540.46,38.33,TRADE
VIC1,"2011/07/15 16:30:00",6567.6,42.87,TRADE
VIC1,"2011/07/15 17:00:00",6674.86,43.25,TRADE
VIC1,"2011/07/15 17:30:00",6972.43,58.34,TRADE
VIC1,"2011/07/15 18:00:00",7362.18,111.26,TRADE
VIC1,"2011/07/15 18:30:00",7460.86,104.76,TRADE
VIC1,"2011/07/15 19:00:00",7427.44,57.87,TRADE
VIC1,"2011/07/15 19:30:00",7223.82,43.88,TRADE
VIC1,"2011/07/15 20:00:00",7076.25,40.06,TRADE
VIC1,"2011/07/15 20:30:00",6948.55,47.1,TRADE
VIC1,"2011/07/15 21:00:00",6836.88,39.02,TRADE
VIC1,"2011/07/15 21:30:00",6627.54,32.4,TRADE
VIC1,"2011/07/15 22:00:00",6447.96,28.96,TRADE
VIC1,"2011/07/15 22:30:00",6295.95,36.18,TRADE
VIC1,"2011/07/15 23:00:00",6166.22,36.63,TRADE
VIC1,"2011/07/15 23:30:00",6305.72,38.12,TRADE
VIC1,"2011/07/16 00:00:00",6114.63,34.65,TRADE
VIC1,"2011/07/16 00:30:00",5847.67,29.34,TRADE
VIC1,"2011/07/16 01:00:00",5625.27,27.56,TRADE
VIC1,"2011/07/16 01:30:00",5831.6,28.92,TRADE
VIC1,"2011/07/16 02:00:00",5613.97,26.47,TRADE
VIC1,"2011/07/16 02:30:00",5470.15,25.58,TRADE
VIC1,"2011/07/16 03:00:00",5308.54,24.04,TRADE
VIC1,"2011/07/16 03:30:00",5216.44,23.05,TRADE
VIC1,"2011/07/16 04:00:00",5117.69,21.54,TRADE
VIC1,"2011/07/16 04:30:00",5003.32,17.67,TRADE
VIC1,"2011/07/16 05:00:00",4958.92,17.72,TRADE
VIC1,"2011/07/16 05:30:00",5019.33,17.97,TRADE
VIC1,"2011/07/16 06:00:00",5031.5,17.99,TRADE
VIC1,"2011/07/16 06:30:00",5170.97,22.82,TRADE
VIC1,"2011/07/16 07:00:00",5316.28,23.64,TRADE
VIC1,"2011/07/16 07:30:00",5363.75,24.02,TRADE
VIC1,"2011/07/16 08:00:00",5552.95,25.98,TRADE
VIC1,"2011/07/16 08:30:00",5919.48,29.39,TRADE
VIC1,"2011/07/16 09:00:00",6138.79,38.79,TRADE
VIC1,"2011/07/16 09:30:00",6290.84,44.47,TRADE
VIC1,"2011/07/16 10:00:00",6299.54,43.01,TRADE
VIC1,"2011/07/16 10:30:00",6264.31,45.9,TRADE
VIC1,"2011/07/16 11:00:00",6165.54,43.65,TRADE
VIC1,"2011/07/16 11:30:00",6051.56,40.34,TRADE
VIC1,"2011/07/16 12:00:00",5935.95,34.24,TRADE
VIC1,"2011/07/16 12:30:00",5834.21,31.43,TRADE
VIC1,"2011/07/16 13:00:00",5761.25,28.5,TRADE
VIC1,"2011/07/16 13:30:00",5706.94,27.36,TRADE
VIC1,"2011/07/16 14:00:00",5642.55,26.61,TRADE
VIC1,"2011/07/16 14:30:00",5634.14,26.5,TRADE
VIC1,"2011/07/16 15:00:00",5641.98,26.4,TRADE
VIC1,"2011/07/16 15:30:00",5648.58,26.59,TRADE
VIC1,"2011/07/16 16:00:00",5711.48,28.04,TRADE
VIC1,"2011/07/16 16:30:00",5790.8,28.02,TRADE
VIC1,"2011/07/16 17:00:00",5931,27.4,TRADE
VIC1,"2011/07/16 17:30:00",6243.88,34.07,TRADE
VIC1,"2011/07/16 18:00:00",6663.13,50.32,TRADE
VIC1,"2011/07/16 18:30:00",6730.7,45.42,TRADE
VIC1,"2011/07/16 19:00:00",6573.9,35.22,TRADE
VIC1,"2011/07/16 19:30:00",6382.53,29.25,TRADE
VIC1,"2011/07/16 20:00:00",6270.07,28.88,TRADE
VIC1,"2011/07/16 20:30:00",6099.4,27.85,TRADE
VIC1,"2011/07/16 21:00:00",5998.26,28.01,TRADE
VIC1,"2011/07/16 21:30:00",5891.54,27.51,TRADE
VIC1,"2011/07/16 22:00:00",5728.05,27.43,TRADE
VIC1,"2011/07/16 22:30:00",5653.75,29.81,TRADE
VIC1,"2011/07/16 23:00:00",5561.09,30.29,TRADE
VIC1,"2011/07/16 23:30:00",5696.98,31.42,TRADE
VIC1,"2011/07/17 00:00:00",5586.6,30.29,TRADE
VIC1,"2011/07/17 00:30:00",5392.59,26.04,TRADE
VIC1,"2011/07/17 01:00:00",5195.67,23.88,TRADE
VIC1,"2011/07/17 01:30:00",5430.99,24.01,TRADE
VIC1,"2011/07/17 02:00:00",5274.08,22.2,TRADE
VIC1,"2011/07/17 02:30:00",5051.93,19.01,TRADE
VIC1,"2011/07/17 03:00:00",4866.26,16.67,TRADE
VIC1,"2011/07/17 03:30:00",4722.02,14.43,TRADE
VIC1,"2011/07/17 04:00:00",4601.94,12.71,TRADE
VIC1,"2011/07/17 04:30:00",4485.06,12.96,TRADE
VIC1,"2011/07/17 05:00:00",4453.92,11.4,TRADE
VIC1,"2011/07/17 05:30:00",4486.24,12.27,TRADE
VIC1,"2011/07/17 06:00:00",4519.24,12.36,TRADE
VIC1,"2011/07/17 06:30:00",4618.61,12.93,TRADE
VIC1,"2011/07/17 07:00:00",4724.72,15.77,TRADE
VIC1,"2011/07/17 07:30:00",4739.04,13.88,TRADE
VIC1,"2011/07/17 08:00:00",4889.09,18.05,TRADE
VIC1,"2011/07/17 08:30:00",5112.58,19.6,TRADE
VIC1,"2011/07/17 09:00:00",5260.61,22.18,TRADE
VIC1,"2011/07/17 09:30:00",5408.17,23.6,TRADE
VIC1,"2011/07/17 10:00:00",5509.5,24.54,TRADE
VIC1,"2011/07/17 10:30:00",5567.72,25.21,TRADE
VIC1,"2011/07/17 11:00:00",5592.07,25.19,TRADE
VIC1,"2011/07/17 11:30:00",5577.04,25.2,TRADE
VIC1,"2011/07/17 12:00:00",5573.22,25.56,TRADE
VIC1,"2011/07/17 12:30:00",5609.61,25.6,TRADE
VIC1,"2011/07/17 13:00:00",5560.02,25.44,TRADE
VIC1,"2011/07/17 13:30:00",5580.91,25.18,TRADE
VIC1,"2011/07/17 14:00:00",5552.14,24.77,TRADE
VIC1,"2011/07/17 14:30:00",5604.12,25.08,TRADE
VIC1,"2011/07/17 15:00:00",5643.59,25.89,TRADE
VIC1,"2011/07/17 15:30:00",5708.43,26.23,TRADE
VIC1,"2011/07/17 16:00:00",5815.41,27.04,TRADE
VIC1,"2011/07/17 16:30:00",5943.36,27.64,TRADE
VIC1,"2011/07/17 17:00:00",6111.26,27.9,TRADE
VIC1,"2011/07/17 17:30:00",6409.89,32.15,TRADE
VIC1,"2011/07/17 18:00:00",6698.78,41.89,TRADE
VIC1,"2011/07/17 18:30:00",6728.36,47.57,TRADE
VIC1,"2011/07/17 19:00:00",6645.76,42.27,TRADE
VIC1,"2011/07/17 19:30:00",6429.77,34.81,TRADE
VIC1,"2011/07/17 20:00:00",6321.83,37.48,TRADE
VIC1,"2011/07/17 20:30:00",6227.07,30.4,TRADE
VIC1,"2011/07/17 21:00:00",6080.47,27.19,TRADE
VIC1,"2011/07/17 21:30:00",5925.91,26.71,TRADE
VIC1,"2011/07/17 22:00:00",5760.3,25.71,TRADE
VIC1,"2011/07/17 22:30:00",5606.63,25.51,TRADE
VIC1,"2011/07/17 23:00:00",5448.57,24.2,TRADE
VIC1,"2011/07/17 23:30:00",5579.88,24.97,TRADE
VIC1,"2011/07/18 00:00:00",5443.27,22.58,TRADE
VIC1,"2011/07/18 00:30:00",5257.39,17.82,TRADE
VIC1,"2011/07/18 01:00:00",5065.38,17.62,TRADE
VIC1,"2011/07/18 01:30:00",5383.96,19.71,TRADE
VIC1,"2011/07/18 02:00:00",5252.98,17.87,TRADE
VIC1,"2011/07/18 02:30:00",5085.47,12.97,TRADE
VIC1,"2011/07/18 03:00:00",4939.64,9.96,TRADE
VIC1,"2011/07/18 03:30:00",4834.97,10.03,TRADE
VIC1,"2011/07/18 04:00:00",4694.63,9.53,TRADE
VIC1,"2011/07/18 04:30:00",4732.31,12.15,TRADE
VIC1,"2011/07/18 05:00:00",4765.24,12.31,TRADE
VIC1,"2011/07/18 05:30:00",4914.79,13.83,TRADE
VIC1,"2011/07/18 06:00:00",5101.24,12.04,TRADE
VIC1,"2011/07/18 06:30:00",5597.54,15.24,TRADE
VIC1,"2011/07/18 07:00:00",6148.21,24.18,TRADE
VIC1,"2011/07/18 07:30:00",6412.58,26.14,TRADE
VIC1,"2011/07/18 08:00:00",6822.8,27.66,TRADE
VIC1,"2011/07/18 08:30:00",7077.65,31.47,TRADE
VIC1,"2011/07/18 09:00:00",7145.34,31.47,TRADE
VIC1,"2011/07/18 09:30:00",7236.87,33.48,TRADE
VIC1,"2011/07/18 10:00:00",7209.57,31.47,TRADE
VIC1,"2011/07/18 10:30:00",7222.46,31.47,TRADE
VIC1,"2011/07/18 11:00:00",7209.1,31.47,TRADE
VIC1,"2011/07/18 11:30:00",7212,30.47,TRADE
VIC1,"2011/07/18 12:00:00",7224.85,28.81,TRADE
VIC1,"2011/07/18 12:30:00",7192.47,28.2,TRADE
VIC1,"2011/07/18 13:00:00",7166,27.39,TRADE
VIC1,"2011/07/18 13:30:00",7170.91,27.28,TRADE
VIC1,"2011/07/18 14:00:00",7151.84,27.34,TRADE
VIC1,"2011/07/18 14:30:00",7140.78,27.22,TRADE
VIC1,"2011/07/18 15:00:00",7050.71,27.07,TRADE
VIC1,"2011/07/18 15:30:00",7005.82,27.07,TRADE
VIC1,"2011/07/18 16:00:00",7057.15,27.07,TRADE
VIC1,"2011/07/18 16:30:00",7117.39,27.07,TRADE
VIC1,"2011/07/18 17:00:00",7254.25,28,TRADE
VIC1,"2011/07/18 17:30:00",7453.92,31.06,TRADE
VIC1,"2011/07/18 18:00:00",7719.81,45.41,TRADE
VIC1,"2011/07/18 18:30:00",7700.69,47.59,TRADE
VIC1,"2011/07/18 19:00:00",7568.63,40.75,TRADE
VIC1,"2011/07/18 19:30:00",7341.27,31.04,TRADE
VIC1,"2011/07/18 20:00:00",7196.88,31.47,TRADE
VIC1,"2011/07/18 20:30:00",6954.97,30.68,TRADE
VIC1,"2011/07/18 21:00:00",6821.86,27.26,TRADE
VIC1,"2011/07/18 21:30:00",6630.84,26.95,TRADE
VIC1,"2011/07/18 22:00:00",6357.61,25.87,TRADE
VIC1,"2011/07/18 22:30:00",6062.82,23.92,TRADE
VIC1,"2011/07/18 23:00:00",5902.56,17.92,TRADE
VIC1,"2011/07/18 23:30:00",6018.56,14.13,TRADE
VIC1,"2011/07/19 00:00:00",5846.69,9.84,TRADE
VIC1,"2011/07/19 00:30:00",5590.53,9.54,TRADE
VIC1,"2011/07/19 01:00:00",5428.36,9.48,TRADE
VIC1,"2011/07/19 01:30:00",5701.21,9.49,TRADE
VIC1,"2011/07/19 02:00:00",5553.03,9.29,TRADE
VIC1,"2011/07/19 02:30:00",5338.21,7.28,TRADE
VIC1,"2011/07/19 03:00:00",5160.5,5.05,TRADE
VIC1,"2011/07/19 03:30:00",5023.52,2.72,TRADE
VIC1,"2011/07/19 04:00:00",4938.06,3.69,TRADE
VIC1,"2011/07/19 04:30:00",4848.35,5.7,TRADE
VIC1,"2011/07/19 05:00:00",4889.34,5.14,TRADE
VIC1,"2011/07/19 05:30:00",5054.9,9.39,TRADE
VIC1,"2011/07/19 06:00:00",5236.22,9.68,TRADE
VIC1,"2011/07/19 06:30:00",5709.85,31.93,TRADE
VIC1,"2011/07/19 07:00:00",6157.34,25.45,TRADE
VIC1,"2011/07/19 07:30:00",6595.68,31.95,TRADE
VIC1,"2011/07/19 08:00:00",6938.09,48.45,TRADE
VIC1,"2011/07/19 08:30:00",7114.05,42.54,TRADE
VIC1,"2011/07/19 09:00:00",7104.79,36.25,TRADE
VIC1,"2011/07/19 09:30:00",7106.19,39.87,TRADE
VIC1,"2011/07/19 10:00:00",7027.95,36.59,TRADE
VIC1,"2011/07/19 10:30:00",6993.32,34.1,TRADE
VIC1,"2011/07/19 11:00:00",6905.15,33.25,TRADE
VIC1,"2011/07/19 11:30:00",6849.64,28.65,TRADE
VIC1,"2011/07/19 12:00:00",6779.22,29.57,TRADE
VIC1,"2011/07/19 12:30:00",6765.46,29.08,TRADE
VIC1,"2011/07/19 13:00:00",6770.11,28.48,TRADE
VIC1,"2011/07/19 13:30:00",6801.26,27.63,TRADE
VIC1,"2011/07/19 14:00:00",6528.79,27.55,TRADE
VIC1,"2011/07/19 14:30:00",6707.35,29.36,TRADE
VIC1,"2011/07/19 15:00:00",6648.94,27.63,TRADE
VIC1,"2011/07/19 15:30:00",6652.42,29.18,TRADE
VIC1,"2011/07/19 16:00:00",6679.45,30.45,TRADE
VIC1,"2011/07/19 16:30:00",6786.22,31.18,TRADE
VIC1,"2011/07/19 17:00:00",6971.83,33.68,TRADE
VIC1,"2011/07/19 17:30:00",7245.92,42.73,TRADE
VIC1,"2011/07/19 18:00:00",7503.64,71.86,TRADE
VIC1,"2011/07/19 18:30:00",7511.58,86.43,TRADE
VIC1,"2011/07/19 19:00:00",7352.32,63.18,TRADE
VIC1,"2011/07/19 19:30:00",7178.92,34.28,TRADE
VIC1,"2011/07/19 20:00:00",6986.6,33.51,TRADE
VIC1,"2011/07/19 20:30:00",6834.77,33.79,TRADE
VIC1,"2011/07/19 21:00:00",6662.64,29.7,TRADE
VIC1,"2011/07/19 21:30:00",6519.6,27.89,TRADE
VIC1,"2011/07/19 22:00:00",6269.87,26.58,TRADE
VIC1,"2011/07/19 22:30:00",6010.59,26.19,TRADE
VIC1,"2011/07/19 23:00:00",5789.8,17.92,TRADE
VIC1,"2011/07/19 23:30:00",5863.66,18.44,TRADE
VIC1,"2011/07/20 00:00:00",5730,12.29,TRADE
VIC1,"2011/07/20 00:30:00",5523.38,11.14,TRADE
VIC1,"2011/07/20 01:00:00",5328.62,9.73,TRADE
VIC1,"2011/07/20 01:30:00",5561.44,13.72,TRADE
VIC1,"2011/07/20 02:00:00",5416.56,9.84,TRADE
VIC1,"2011/07/20 02:30:00",5213.53,9.91,TRADE
VIC1,"2011/07/20 03:00:00",5048.8,9.89,TRADE
VIC1,"2011/07/20 03:30:00",4919.38,9.86,TRADE
VIC1,"2011/07/20 04:00:00",4844.27,9.91,TRADE
VIC1,"2011/07/20 04:30:00",4835.4,9.91,TRADE
VIC1,"2011/07/20 05:00:00",4833.41,10.41,TRADE
VIC1,"2011/07/20 05:30:00",5018.65,17.11,TRADE
VIC1,"2011/07/20 06:00:00",5223.61,15.47,TRADE
VIC1,"2011/07/20 06:30:00",5682.3,23.26,TRADE
VIC1,"2011/07/20 07:00:00",6086.82,24.15,TRADE
VIC1,"2011/07/20 07:30:00",6527.42,28.46,TRADE
VIC1,"2011/07/20 08:00:00",6890.07,33.14,TRADE
VIC1,"2011/07/20 08:30:00",7072.71,34.48,TRADE
VIC1,"2011/07/20 09:00:00",7058.07,33.44,TRADE
VIC1,"2011/07/20 09:30:00",7069.22,33.61,TRADE
VIC1,"2011/07/20 10:00:00",6997.18,28.26,TRADE
VIC1,"2011/07/20 10:30:00",6923.24,27.89,TRADE
VIC1,"2011/07/20 11:00:00",6854.13,27.84,TRADE
VIC1,"2011/07/20 11:30:00",6823.97,27.85,TRADE
VIC1,"2011/07/20 12:00:00",6812.72,27.89,TRADE
VIC1,"2011/07/20 12:30:00",6809.67,27.89,TRADE
VIC1,"2011/07/20 13:00:00",6731.86,27.53,TRADE
VIC1,"2011/07/20 13:30:00",6793.73,27.88,TRADE
VIC1,"2011/07/20 14:00:00",6795.83,27.85,TRADE
VIC1,"2011/07/20 14:30:00",6758.06,27.89,TRADE
VIC1,"2011/07/20 15:00:00",6732.12,27.77,TRADE
VIC1,"2011/07/20 15:30:00",6713.38,27.67,TRADE
VIC1,"2011/07/20 16:00:00",6743.86,27.79,TRADE
VIC1,"2011/07/20 16:30:00",6848.49,29.01,TRADE
VIC1,"2011/07/20 17:00:00",7003.37,31.16,TRADE
VIC1,"2011/07/20 17:30:00",7162.29,38.09,TRADE
VIC1,"2011/07/20 18:00:00",7442.41,67.54,TRADE
VIC1,"2011/07/20 18:30:00",7464.42,97.96,TRADE
VIC1,"2011/07/20 19:00:00",7253.57,50.6,TRADE
VIC1,"2011/07/20 19:30:00",7063,36.66,TRADE
VIC1,"2011/07/20 20:00:00",7075.37,38.91,TRADE
VIC1,"2011/07/20 20:30:00",6945.5,34.54,TRADE
VIC1,"2011/07/20 21:00:00",6812.3,33.15,TRADE
VIC1,"2011/07/20 21:30:00",6621.97,28.74,TRADE
VIC1,"2011/07/20 22:00:00",6363.83,28.92,TRADE
VIC1,"2011/07/20 22:30:00",6131.42,38.11,TRADE
VIC1,"2011/07/20 23:00:00",5848.85,33.23,TRADE
VIC1,"2011/07/20 23:30:00",5924.75,29.94,TRADE
VIC1,"2011/07/21 00:00:00",5709.84,26.37,TRADE
VIC1,"2011/07/21 00:30:00",5500.73,17.66,TRADE
VIC1,"2011/07/21 01:00:00",5374.21,14.77,TRADE
VIC1,"2011/07/21 01:30:00",5621.5,17.74,TRADE
VIC1,"2011/07/21 02:00:00",5437.57,17.83,TRADE
VIC1,"2011/07/21 02:30:00",5248.25,17.43,TRADE
VIC1,"2011/07/21 03:00:00",5103.2,13.1,TRADE
VIC1,"2011/07/21 03:30:00",4992.62,12.86,TRADE
VIC1,"2011/07/21 04:00:00",4834.04,10.1,TRADE
VIC1,"2011/07/21 04:30:00",4846.45,9.99,TRADE
VIC1,"2011/07/21 05:00:00",4881.68,10.46,TRADE
VIC1,"2011/07/21 05:30:00",5020.31,14.3,TRADE
VIC1,"2011/07/21 06:00:00",5282.9,18.44,TRADE
VIC1,"2011/07/21 06:30:00",5698.35,22.53,TRADE
VIC1,"2011/07/21 07:00:00",6213.33,30.37,TRADE
VIC1,"2011/07/21 07:30:00",6650.41,28.42,TRADE
VIC1,"2011/07/21 08:00:00",7031.23,32.64,TRADE
VIC1,"2011/07/21 08:30:00",7198.54,33.44,TRADE
VIC1,"2011/07/21 09:00:00",7171.91,31.43,TRADE
VIC1,"2011/07/21 09:30:00",7196.41,32.91,TRADE
VIC1,"2011/07/21 10:00:00",7094.35,30.84,TRADE
VIC1,"2011/07/21 10:30:00",7065.64,31.83,TRADE
VIC1,"2011/07/21 11:00:00",6965.24,30.14,TRADE
VIC1,"2011/07/21 11:30:00",6888.03,28.21,TRADE
VIC1,"2011/07/21 12:00:00",6884.42,28.2,TRADE
VIC1,"2011/07/21 12:30:00",6885.49,28.2,TRADE
VIC1,"2011/07/21 13:00:00",6883.17,28.2,TRADE
VIC1,"2011/07/21 13:30:00",6913.69,28.2,TRADE
VIC1,"2011/07/21 14:00:00",6931.26,31.09,TRADE
VIC1,"2011/07/21 14:30:00",6870.91,29.93,TRADE
VIC1,"2011/07/21 15:00:00",6767.72,28.35,TRADE
VIC1,"2011/07/21 15:30:00",6694.35,28.58,TRADE
VIC1,"2011/07/21 16:00:00",6706.84,37.22,TRADE
VIC1,"2011/07/21 16:30:00",6794.02,33.44,TRADE
VIC1,"2011/07/21 17:00:00",6971.87,34.12,TRADE
VIC1,"2011/07/21 17:30:00",7170.35,37.63,TRADE
VIC1,"2011/07/21 18:00:00",7473.25,50.98,TRADE
VIC1,"2011/07/21 18:30:00",7482.24,53.83,TRADE
VIC1,"2011/07/21 19:00:00",7405.26,86.35,TRADE
VIC1,"2011/07/21 19:30:00",7255.73,50.64,TRADE
VIC1,"2011/07/21 20:00:00",7090.98,44.41,TRADE
VIC1,"2011/07/21 20:30:00",6903.78,43.71,TRADE
VIC1,"2011/07/21 21:00:00",6775.4,40.1,TRADE
VIC1,"2011/07/21 21:30:00",6547.55,32.32,TRADE
VIC1,"2011/07/21 22:00:00",6323.41,29.12,TRADE
VIC1,"2011/07/21 22:30:00",6010.77,37.25,TRADE
VIC1,"2011/07/21 23:00:00",5795.8,31.32,TRADE
VIC1,"2011/07/21 23:30:00",5904.8,37.06,TRADE
VIC1,"2011/07/22 00:00:00",5658.53,33.33,TRADE
VIC1,"2011/07/22 00:30:00",5463.98,29.76,TRADE
VIC1,"2011/07/22 01:00:00",5253.64,27.75,TRADE
VIC1,"2011/07/22 01:30:00",5486.8,30.35,TRADE
VIC1,"2011/07/22 02:00:00",5379.65,27.57,TRADE
VIC1,"2011/07/22 02:30:00",5211.41,26.16,TRADE
VIC1,"2011/07/22 03:00:00",5058.45,23.3,TRADE
VIC1,"2011/07/22 03:30:00",4935.54,22.47,TRADE
VIC1,"2011/07/22 04:00:00",4896.69,21.57,TRADE
VIC1,"2011/07/22 04:30:00",4830.07,20.58,TRADE
VIC1,"2011/07/22 05:00:00",4892.73,20.03,TRADE
VIC1,"2011/07/22 05:30:00",5000.71,22.85,TRADE
VIC1,"2011/07/22 06:00:00",5218.36,25.1,TRADE
VIC1,"2011/07/22 06:30:00",5683.05,30.29,TRADE
VIC1,"2011/07/22 07:00:00",6248.41,33.48,TRADE
VIC1,"2011/07/22 07:30:00",6678.87,30.23,TRADE
VIC1,"2011/07/22 08:00:00",7087.88,37.76,TRADE
VIC1,"2011/07/22 08:30:00",7255.07,35.86,TRADE
VIC1,"2011/07/22 09:00:00",7241.18,34.44,TRADE
VIC1,"2011/07/22 09:30:00",7179.45,36.77,TRADE
VIC1,"2011/07/22 10:00:00",7064.57,34.87,TRADE
VIC1,"2011/07/22 10:30:00",6923.61,31.2,TRADE
VIC1,"2011/07/22 11:00:00",6822.73,31.6,TRADE
VIC1,"2011/07/22 11:30:00",6728.66,30.11,TRADE
VIC1,"2011/07/22 12:00:00",6663.9,31.4,TRADE
VIC1,"2011/07/22 12:30:00",6635.85,33.91,TRADE
VIC1,"2011/07/22 13:00:00",6570.19,31.73,TRADE
VIC1,"2011/07/22 13:30:00",6606.6,31.54,TRADE
VIC1,"2011/07/22 14:00:00",6557.17,31.3,TRADE
VIC1,"2011/07/22 14:30:00",6512.19,30.99,TRADE
VIC1,"2011/07/22 15:00:00",6452.56,30.97,TRADE
VIC1,"2011/07/22 15:30:00",6361.63,30.34,TRADE
VIC1,"2011/07/22 16:00:00",6338.91,29.96,TRADE
VIC1,"2011/07/22 16:30:00",6412.66,29.25,TRADE
VIC1,"2011/07/22 17:00:00",6581.53,30.3,TRADE
VIC1,"2011/07/22 17:30:00",6804.09,32.39,TRADE
VIC1,"2011/07/22 18:00:00",7169.77,42.04,TRADE
VIC1,"2011/07/22 18:30:00",7272.82,42.37,TRADE
VIC1,"2011/07/22 19:00:00",7214.7,43.28,TRADE
VIC1,"2011/07/22 19:30:00",7042.53,36.84,TRADE
VIC1,"2011/07/22 20:00:00",6938.1,43.65,TRADE
VIC1,"2011/07/22 20:30:00",6797.66,33.75,TRADE
VIC1,"2011/07/22 21:00:00",6716.87,33.22,TRADE
VIC1,"2011/07/22 21:30:00",6479.53,29.8,TRADE
VIC1,"2011/07/22 22:00:00",6326.42,28.74,TRADE
VIC1,"2011/07/22 22:30:00",6167.27,35.18,TRADE
VIC1,"2011/07/22 23:00:00",6029,32.43,TRADE
VIC1,"2011/07/22 23:30:00",6247.19,33.27,TRADE
VIC1,"2011/07/23 00:00:00",6011.53,31.02,TRADE
VIC1,"2011/07/23 00:30:00",5816.01,20.78,TRADE
VIC1,"2011/07/23 01:00:00",5549.6,17.91,TRADE
VIC1,"2011/07/23 01:30:00",5843.51,19.04,TRADE
VIC1,"2011/07/23 02:00:00",5753.87,17.91,TRADE
VIC1,"2011/07/23 02:30:00",5515.68,13.94,TRADE
VIC1,"2011/07/23 03:00:00",5261.98,10.71,TRADE
VIC1,"2011/07/23 03:30:00",5179.03,9.99,TRADE
VIC1,"2011/07/23 04:00:00",5075.76,9.97,TRADE
VIC1,"2011/07/23 04:30:00",5016.56,9.96,TRADE
VIC1,"2011/07/23 05:00:00",4978.25,9.96,TRADE
VIC1,"2011/07/23 05:30:00",5024.09,10.39,TRADE
VIC1,"2011/07/23 06:00:00",5079.87,10.53,TRADE
VIC1,"2011/07/23 06:30:00",4930.58,10.75,TRADE
VIC1,"2011/07/23 07:00:00",4907.86,10.08,TRADE
VIC1,"2011/07/23 07:30:00",5247.98,16.28,TRADE
VIC1,"2011/07/23 08:00:00",5732.04,24.29,TRADE
VIC1,"2011/07/23 08:30:00",6056.36,29.37,TRADE
VIC1,"2011/07/23 09:00:00",6283.27,30.77,TRADE
VIC1,"2011/07/23 09:30:00",6471.9,34.67,TRADE
VIC1,"2011/07/23 10:00:00",6480.88,34.75,TRADE
VIC1,"2011/07/23 10:30:00",6485.98,34.29,TRADE
VIC1,"2011/07/23 11:00:00",6401.61,31.34,TRADE
VIC1,"2011/07/23 11:30:00",6299.89,30.29,TRADE
VIC1,"2011/07/23 12:00:00",6181.18,28.24,TRADE
VIC1,"2011/07/23 12:30:00",6055.66,26.75,TRADE
VIC1,"2011/07/23 13:00:00",5935,25.28,TRADE
VIC1,"2011/07/23 13:30:00",5888.76,27.93,TRADE
VIC1,"2011/07/23 14:00:00",5827.4,30.8,TRADE
VIC1,"2011/07/23 14:30:00",5775.16,30.2,TRADE
VIC1,"2011/07/23 15:00:00",5675.44,29.2,TRADE
VIC1,"2011/07/23 15:30:00",5411.31,28.94,TRADE
VIC1,"2011/07/23 16:00:00",5457.83,30.21,TRADE
VIC1,"2011/07/23 16:30:00",5760.04,29.93,TRADE
VIC1,"2011/07/23 17:00:00",6020.79,31,TRADE
VIC1,"2011/07/23 17:30:00",6420.55,36.12,TRADE
VIC1,"2011/07/23 18:00:00",6796.31,52.17,TRADE
VIC1,"2011/07/23 18:30:00",6862.32,59.38,TRADE
VIC1,"2011/07/23 19:00:00",6744.61,59.16,TRADE
VIC1,"2011/07/23 19:30:00",6589.42,43.29,TRADE
VIC1,"2011/07/23 20:00:00",6475.4,69.05,TRADE
VIC1,"2011/07/23 20:30:00",6310.38,44.85,TRADE
VIC1,"2011/07/23 21:00:00",6243.99,41.36,TRADE
VIC1,"2011/07/23 21:30:00",6095.59,38.58,TRADE
VIC1,"2011/07/23 22:00:00",6022.18,33.6,TRADE
VIC1,"2011/07/23 22:30:00",5835.48,30.48,TRADE
VIC1,"2011/07/23 23:00:00",5754.35,27.99,TRADE
VIC1,"2011/07/23 23:30:00",5885.79,31.21,TRADE
VIC1,"2011/07/24 00:00:00",5778.69,29.97,TRADE
VIC1,"2011/07/24 00:30:00",5590.84,22.26,TRADE
VIC1,"2011/07/24 01:00:00",5485.92,17.96,TRADE
VIC1,"2011/07/24 01:30:00",5723.44,17.79,TRADE
VIC1,"2011/07/24 02:00:00",5492.96,15.22,TRADE
VIC1,"2011/07/24 02:30:00",5286.57,15.64,TRADE
VIC1,"2011/07/24 03:00:00",5088.71,11.17,TRADE
VIC1,"2011/07/24 03:30:00",4942.12,10.63,TRADE
VIC1,"2011/07/24 04:00:00",4821.1,12.35,TRADE
VIC1,"2011/07/24 04:30:00",4677.75,10.04,TRADE
VIC1,"2011/07/24 05:00:00",4643.46,10.08,TRADE
VIC1,"2011/07/24 05:30:00",4649.5,8.76,TRADE
VIC1,"2011/07/24 06:00:00",4666.45,8.67,TRADE
VIC1,"2011/07/24 06:30:00",4806.07,12.05,TRADE
VIC1,"2011/07/24 07:00:00",4894,11.36,TRADE
VIC1,"2011/07/24 07:30:00",4930.74,12.9,TRADE
VIC1,"2011/07/24 08:00:00",5128.77,12.64,TRADE
VIC1,"2011/07/24 08:30:00",5363.44,19.19,TRADE
VIC1,"2011/07/24 09:00:00",5519.82,23.77,TRADE
VIC1,"2011/07/24 09:30:00",5697.97,24.46,TRADE
VIC1,"2011/07/24 10:00:00",5874.88,27.96,TRADE
VIC1,"2011/07/24 10:30:00",5972.41,26.02,TRADE
VIC1,"2011/07/24 11:00:00",6021.2,24.74,TRADE
VIC1,"2011/07/24 11:30:00",6026.14,24.4,TRADE
VIC1,"2011/07/24 12:00:00",6039.24,24.35,TRADE
VIC1,"2011/07/24 12:30:00",6042.01,24.41,TRADE
VIC1,"2011/07/24 13:00:00",6012.21,24.35,TRADE
VIC1,"2011/07/24 13:30:00",6034.89,24.4,TRADE
VIC1,"2011/07/24 14:00:00",5985.21,24.1,TRADE
VIC1,"2011/07/24 14:30:00",5954.18,23.91,TRADE
VIC1,"2011/07/24 15:00:00",5896.38,23.81,TRADE
VIC1,"2011/07/24 15:30:00",5927.92,24.13,TRADE
VIC1,"2011/07/24 16:00:00",5968.82,23.67,TRADE
VIC1,"2011/07/24 16:30:00",5953.15,24.77,TRADE
VIC1,"2011/07/24 17:00:00",6215.86,28.77,TRADE
VIC1,"2011/07/24 17:30:00",6515.92,42.24,TRADE
VIC1,"2011/07/24 18:00:00",6813.95,61.11,TRADE
VIC1,"2011/07/24 18:30:00",6987.63,73.7,TRADE
VIC1,"2011/07/24 19:00:00",6894.11,58.63,TRADE
VIC1,"2011/07/24 19:30:00",6794.9,57.99,TRADE
VIC1,"2011/07/24 20:00:00",6644.36,44.96,TRADE
VIC1,"2011/07/24 20:30:00",6567.57,39.83,TRADE
VIC1,"2011/07/24 21:00:00",6459.82,41.03,TRADE
VIC1,"2011/07/24 21:30:00",6282.5,34.35,TRADE
VIC1,"2011/07/24 22:00:00",6102.96,28.27,TRADE
VIC1,"2011/07/24 22:30:00",5936.35,24.33,TRADE
VIC1,"2011/07/24 23:00:00",5729.65,28.07,TRADE
VIC1,"2011/07/24 23:30:00",5818.8,23.41,TRADE
VIC1,"2011/07/25 00:00:00",5677.33,18.29,TRADE
VIC1,"2011/07/25 00:30:00",5507.23,11.54,TRADE
VIC1,"2011/07/25 01:00:00",5361.26,9.86,TRADE
VIC1,"2011/07/25 01:30:00",5590.86,12.61,TRADE
VIC1,"2011/07/25 02:00:00",5441.18,9.96,TRADE
VIC1,"2011/07/25 02:30:00",5272.3,9.86,TRADE
VIC1,"2011/07/25 03:00:00",5115.26,9.99,TRADE
VIC1,"2011/07/25 03:30:00",5017.83,9.91,TRADE
VIC1,"2011/07/25 04:00:00",4938.67,10.05,TRADE
VIC1,"2011/07/25 04:30:00",4909.31,11.81,TRADE
VIC1,"2011/07/25 05:00:00",4965.83,15.85,TRADE
VIC1,"2011/07/25 05:30:00",5111.92,18.66,TRADE
VIC1,"2011/07/25 06:00:00",5261.53,22.4,TRADE
VIC1,"2011/07/25 06:30:00",5725.45,26.27,TRADE
VIC1,"2011/07/25 07:00:00",6239.19,31.75,TRADE
VIC1,"2011/07/25 07:30:00",6699.07,30.78,TRADE
VIC1,"2011/07/25 08:00:00",7109.58,37.43,TRADE
VIC1,"2011/07/25 08:30:00",7320.91,36.89,TRADE
VIC1,"2011/07/25 09:00:00",7358.7,36.51,TRADE
VIC1,"2011/07/25 09:30:00",7452.1,37.66,TRADE
VIC1,"2011/07/25 10:00:00",7376.46,34.53,TRADE
VIC1,"2011/07/25 10:30:00",7354.06,33.44,TRADE
VIC1,"2011/07/25 11:00:00",7309.31,32.01,TRADE
VIC1,"2011/07/25 11:30:00",7210.41,32.93,TRADE
VIC1,"2011/07/25 12:00:00",7230.19,31.97,TRADE
VIC1,"2011/07/25 12:30:00",7206.58,32.08,TRADE
VIC1,"2011/07/25 13:00:00",7179.3,32.41,TRADE
VIC1,"2011/07/25 13:30:00",7170.51,32.58,TRADE
VIC1,"2011/07/25 14:00:00",7175.46,32.04,TRADE
VIC1,"2011/07/25 14:30:00",7118.46,32.35,TRADE
VIC1,"2011/07/25 15:00:00",7019.6,30.81,TRADE
VIC1,"2011/07/25 15:30:00",6950.83,30.07,TRADE
VIC1,"2011/07/25 16:00:00",6928,29.21,TRADE
VIC1,"2011/07/25 16:30:00",6961.82,28.82,TRADE
VIC1,"2011/07/25 17:00:00",7110.65,29.25,TRADE
VIC1,"2011/07/25 17:30:00",7305.2,32.52,TRADE
VIC1,"2011/07/25 18:00:00",7572.36,39.8,TRADE
VIC1,"2011/07/25 18:30:00",7642.32,41.93,TRADE
VIC1,"2011/07/25 19:00:00",7493.69,37.85,TRADE
VIC1,"2011/07/25 19:30:00",7318.23,33.44,TRADE
VIC1,"2011/07/25 20:00:00",7125.54,33.44,TRADE
VIC1,"2011/07/25 20:30:00",7011.97,33.27,TRADE
VIC1,"2011/07/25 21:00:00",6841.81,33.44,TRADE
VIC1,"2011/07/25 21:30:00",6698.06,31.14,TRADE
VIC1,"2011/07/25 22:00:00",6360.07,26.28,TRADE
VIC1,"2011/07/25 22:30:00",6180.3,25.65,TRADE
VIC1,"2011/07/25 23:00:00",5895.37,21.6,TRADE
VIC1,"2011/07/25 23:30:00",6028.17,21.66,TRADE
VIC1,"2011/07/26 00:00:00",5772.62,18.96,TRADE
VIC1,"2011/07/26 00:30:00",5549.32,11.79,TRADE
VIC1,"2011/07/26 01:00:00",5396.21,10.27,TRADE
VIC1,"2011/07/26 01:30:00",5692.13,15.81,TRADE
VIC1,"2011/07/26 02:00:00",5568.69,13.11,TRADE
VIC1,"2011/07/26 02:30:00",5328.1,9.92,TRADE
VIC1,"2011/07/26 03:00:00",5204.6,9.89,TRADE
VIC1,"2011/07/26 03:30:00",5070.3,9.89,TRADE
VIC1,"2011/07/26 04:00:00",4994.42,9.74,TRADE
VIC1,"2011/07/26 04:30:00",4955.31,9.92,TRADE
VIC1,"2011/07/26 05:00:00",5024.81,9.92,TRADE
VIC1,"2011/07/26 05:30:00",5153.52,11.26,TRADE
VIC1,"2011/07/26 06:00:00",5379.56,16.23,TRADE
VIC1,"2011/07/26 06:30:00",5803.86,23.37,TRADE
VIC1,"2011/07/26 07:00:00",6415.89,34.63,TRADE
VIC1,"2011/07/26 07:30:00",6806.91,35.77,TRADE
VIC1,"2011/07/26 08:00:00",7250.35,50.55,TRADE
VIC1,"2011/07/26 08:30:00",7438.51,39.41,TRADE
VIC1,"2011/07/26 09:00:00",7414.63,35.99,TRADE
VIC1,"2011/07/26 09:30:00",7463.42,35.67,TRADE
VIC1,"2011/07/26 10:00:00",7389.73,33.52,TRADE
VIC1,"2011/07/26 10:30:00",7319.74,35.76,TRADE
VIC1,"2011/07/26 11:00:00",7247.24,35.58,TRADE
VIC1,"2011/07/26 11:30:00",7220.38,34.81,TRADE
VIC1,"2011/07/26 12:00:00",7193.87,36.24,TRADE
VIC1,"2011/07/26 12:30:00",7178.66,37.59,TRADE
VIC1,"2011/07/26 13:00:00",7151.73,41.98,TRADE
VIC1,"2011/07/26 13:30:00",7181.04,38.79,TRADE
VIC1,"2011/07/26 14:00:00",7087.75,31.73,TRADE
VIC1,"2011/07/26 14:30:00",7038.25,30.18,TRADE
VIC1,"2011/07/26 15:00:00",6982.96,31.06,TRADE
VIC1,"2011/07/26 15:30:00",6957.42,28.97,TRADE
VIC1,"2011/07/26 16:00:00",6964.45,32.6,TRADE
VIC1,"2011/07/26 16:30:00",6991.28,31.87,TRADE
VIC1,"2011/07/26 17:00:00",7140.37,33.12,TRADE
VIC1,"2011/07/26 17:30:00",7381.47,34.35,TRADE
VIC1,"2011/07/26 18:00:00",7737.93,55.03,TRADE
VIC1,"2011/07/26 18:30:00",7849.22,74.45,TRADE
VIC1,"2011/07/26 19:00:00",7786.89,68,TRADE
VIC1,"2011/07/26 19:30:00",7663.47,43.4,TRADE
VIC1,"2011/07/26 20:00:00",7492.66,42.98,TRADE
VIC1,"2011/07/26 20:30:00",7379.83,42.62,TRADE
VIC1,"2011/07/26 21:00:00",7191.53,47.7,TRADE
VIC1,"2011/07/26 21:30:00",7001.32,65.6,TRADE
VIC1,"2011/07/26 22:00:00",6744.08,41.94,TRADE
VIC1,"2011/07/26 22:30:00",6470.68,48.71,TRADE
VIC1,"2011/07/26 23:00:00",6226.44,37.41,TRADE
VIC1,"2011/07/26 23:30:00",6285.13,34.36,TRADE
VIC1,"2011/07/27 00:00:00",6059.96,33.08,TRADE
VIC1,"2011/07/27 00:30:00",5857.11,30.65,TRADE
VIC1,"2011/07/27 01:00:00",5682.18,21.71,TRADE
VIC1,"2011/07/27 01:30:00",5973.46,21.81,TRADE
VIC1,"2011/07/27 02:00:00",5877.53,19.53,TRADE
VIC1,"2011/07/27 02:30:00",5686.35,18.13,TRADE
VIC1,"2011/07/27 03:00:00",5478.35,11.99,TRADE
VIC1,"2011/07/27 03:30:00",5361.31,12.67,TRADE
VIC1,"2011/07/27 04:00:00",5295.23,13.44,TRADE
VIC1,"2011/07/27 04:30:00",5286.25,17.82,TRADE
VIC1,"2011/07/27 05:00:00",5313.79,17.89,TRADE
VIC1,"2011/07/27 05:30:00",5445.92,18.61,TRADE
VIC1,"2011/07/27 06:00:00",5662.45,22.63,TRADE
VIC1,"2011/07/27 06:30:00",6172.04,31.28,TRADE
VIC1,"2011/07/27 07:00:00",6697.22,56.03,TRADE
VIC1,"2011/07/27 07:30:00",7162.51,42.3,TRADE
VIC1,"2011/07/27 08:00:00",7489.52,56.72,TRADE
VIC1,"2011/07/27 08:30:00",7609.16,43.71,TRADE
VIC1,"2011/07/27 09:00:00",7568.79,39.44,TRADE
VIC1,"2011/07/27 09:30:00",7593.95,39.07,TRADE
VIC1,"2011/07/27 10:00:00",7486.57,36.42,TRADE
VIC1,"2011/07/27 10:30:00",7342.54,38.23,TRADE
VIC1,"2011/07/27 11:00:00",7198.68,39.65,TRADE
VIC1,"2011/07/27 11:30:00",7031.18,32.04,TRADE
VIC1,"2011/07/27 12:00:00",6917.53,30.54,TRADE
VIC1,"2011/07/27 12:30:00",6820.43,30.04,TRADE
VIC1,"2011/07/27 13:00:00",6765.64,28.5,TRADE
VIC1,"2011/07/27 13:30:00",6816.53,30.03,TRADE
VIC1,"2011/07/27 14:00:00",6771.63,31.99,TRADE
VIC1,"2011/07/27 14:30:00",6684.16,28.97,TRADE
VIC1,"2011/07/27 15:00:00",6641.75,28.12,TRADE
VIC1,"2011/07/27 15:30:00",6553.75,29,TRADE
VIC1,"2011/07/27 16:00:00",6544.17,35.09,TRADE
VIC1,"2011/07/27 16:30:00",6618.03,37.33,TRADE
VIC1,"2011/07/27 17:00:00",6779.64,35.53,TRADE
VIC1,"2011/07/27 17:30:00",7071.58,40.76,TRADE
VIC1,"2011/07/27 18:00:00",7481.15,81.08,TRADE
VIC1,"2011/07/27 18:30:00",7634.44,97.96,TRADE
VIC1,"2011/07/27 19:00:00",7513.18,97.96,TRADE
VIC1,"2011/07/27 19:30:00",7369.43,67.57,TRADE
VIC1,"2011/07/27 20:00:00",7233.2,44.97,TRADE
VIC1,"2011/07/27 20:30:00",7061.73,48.38,TRADE
VIC1,"2011/07/27 21:00:00",6936.01,50.15,TRADE
VIC1,"2011/07/27 21:30:00",6758.84,37.62,TRADE
VIC1,"2011/07/27 22:00:00",6496.19,36.07,TRADE
VIC1,"2011/07/27 22:30:00",6168.28,38.88,TRADE
VIC1,"2011/07/27 23:00:00",5892.84,31.25,TRADE
VIC1,"2011/07/27 23:30:00",5995.61,28,TRADE
VIC1,"2011/07/28 00:00:00",5798.61,27.09,TRADE
VIC1,"2011/07/28 00:30:00",5582.38,21.46,TRADE
VIC1,"2011/07/28 01:00:00",5389.34,21.32,TRADE
VIC1,"2011/07/28 01:30:00",5632.17,21.94,TRADE
VIC1,"2011/07/28 02:00:00",5494.42,21.31,TRADE
VIC1,"2011/07/28 02:30:00",5288.37,20.44,TRADE
VIC1,"2011/07/28 03:00:00",5112.05,20.57,TRADE
VIC1,"2011/07/28 03:30:00",4996.92,19.3,TRADE
VIC1,"2011/07/28 04:00:00",4977.65,17.89,TRADE
VIC1,"2011/07/28 04:30:00",4971.52,17.89,TRADE
VIC1,"2011/07/28 05:00:00",4991.25,18.13,TRADE
VIC1,"2011/07/28 05:30:00",5100.66,20.9,TRADE
VIC1,"2011/07/28 06:00:00",5312.62,23.25,TRADE
VIC1,"2011/07/28 06:30:00",5817.78,31.48,TRADE
VIC1,"2011/07/28 07:00:00",6330.21,41.22,TRADE
VIC1,"2011/07/28 07:30:00",6779.74,38.06,TRADE
VIC1,"2011/07/28 08:00:00",7088.46,46.33,TRADE
VIC1,"2011/07/28 08:30:00",7230.68,41.68,TRADE
VIC1,"2011/07/28 09:00:00",7165.88,35.91,TRADE
VIC1,"2011/07/28 09:30:00",7170.97,36.3,TRADE
VIC1,"2011/07/28 10:00:00",7055.73,36.05,TRADE
VIC1,"2011/07/28 10:30:00",6888.06,39.35,TRADE
VIC1,"2011/07/28 11:00:00",6736.27,39.65,TRADE
VIC1,"2011/07/28 11:30:00",6658.23,36.42,TRADE
VIC1,"2011/07/28 12:00:00",6581.6,35.51,TRADE
VIC1,"2011/07/28 12:30:00",6465.85,35.28,TRADE
VIC1,"2011/07/28 13:00:00",6415.03,35.21,TRADE
VIC1,"2011/07/28 13:30:00",6434.15,36.21,TRADE
VIC1,"2011/07/28 14:00:00",6354.99,33.63,TRADE
VIC1,"2011/07/28 14:30:00",6269.39,30.72,TRADE
VIC1,"2011/07/28 15:00:00",6242.38,33.44,TRADE
VIC1,"2011/07/28 15:30:00",6189.85,33.44,TRADE
VIC1,"2011/07/28 16:00:00",6207.96,34.53,TRADE
VIC1,"2011/07/28 16:30:00",6311.1,33.59,TRADE
VIC1,"2011/07/28 17:00:00",6436.13,33.12,TRADE
VIC1,"2011/07/28 17:30:00",6671.68,37.98,TRADE
VIC1,"2011/07/28 18:00:00",7126.66,48.73,TRADE
VIC1,"2011/07/28 18:30:00",7315.32,55.96,TRADE
VIC1,"2011/07/28 19:00:00",7227.63,55.35,TRADE
VIC1,"2011/07/28 19:30:00",7058.04,46.91,TRADE
VIC1,"2011/07/28 20:00:00",6919.55,46.88,TRADE
VIC1,"2011/07/28 20:30:00",6782.22,54,TRADE
VIC1,"2011/07/28 21:00:00",6684.05,54.35,TRADE
VIC1,"2011/07/28 21:30:00",6479.44,41.23,TRADE
VIC1,"2011/07/28 22:00:00",6225.23,37.06,TRADE
VIC1,"2011/07/28 22:30:00",5934.95,44.92,TRADE
VIC1,"2011/07/28 23:00:00",5717.45,38.71,TRADE
VIC1,"2011/07/28 23:30:00",5807.47,38.12,TRADE
VIC1,"2011/07/29 00:00:00",5585.4,29.48,TRADE
VIC1,"2011/07/29 00:30:00",5382.94,24.91,TRADE
VIC1,"2011/07/29 01:00:00",5234.92,22.01,TRADE
VIC1,"2011/07/29 01:30:00",5482.36,23.87,TRADE
VIC1,"2011/07/29 02:00:00",5321.01,20.85,TRADE
VIC1,"2011/07/29 02:30:00",5125.81,18.12,TRADE
VIC1,"2011/07/29 03:00:00",4926.05,14.68,TRADE
VIC1,"2011/07/29 03:30:00",4860.15,14.55,TRADE
VIC1,"2011/07/29 04:00:00",4841.03,11.87,TRADE
VIC1,"2011/07/29 04:30:00",4793.61,8.94,TRADE
VIC1,"2011/07/29 05:00:00",4812.99,11.89,TRADE
VIC1,"2011/07/29 05:30:00",4968.65,18.15,TRADE
VIC1,"2011/07/29 06:00:00",5202.93,21.15,TRADE
VIC1,"2011/07/29 06:30:00",5658.41,30.55,TRADE
VIC1,"2011/07/29 07:00:00",6159.53,43.17,TRADE
VIC1,"2011/07/29 07:30:00",6556.17,39.06,TRADE
VIC1,"2011/07/29 08:00:00",6859.28,52.45,TRADE
VIC1,"2011/07/29 08:30:00",6971.96,53.29,TRADE
VIC1,"2011/07/29 09:00:00",6991.93,42.66,TRADE
VIC1,"2011/07/29 09:30:00",7006.1,43.94,TRADE
VIC1,"2011/07/29 10:00:00",6932.01,40.34,TRADE
VIC1,"2011/07/29 10:30:00",6829.48,37.67,TRADE
VIC1,"2011/07/29 11:00:00",6696.55,34.42,TRADE
VIC1,"2011/07/29 11:30:00",6594.44,33.44,TRADE
VIC1,"2011/07/29 12:00:00",6519.58,31.64,TRADE
VIC1,"2011/07/29 12:30:00",6445.16,30.71,TRADE
VIC1,"2011/07/29 13:00:00",6364.87,28.38,TRADE
VIC1,"2011/07/29 13:30:00",6374.11,27.27,TRADE
VIC1,"2011/07/29 14:00:00",6338.71,26.18,TRADE
VIC1,"2011/07/29 14:30:00",6287.05,26.11,TRADE
VIC1,"2011/07/29 15:00:00",6225.13,25.72,TRADE
VIC1,"2011/07/29 15:30:00",6125.26,25.08,TRADE
VIC1,"2011/07/29 16:00:00",6115.75,25.49,TRADE
VIC1,"2011/07/29 16:30:00",6181.16,25.58,TRADE
VIC1,"2011/07/29 17:00:00",6283.08,26.31,TRADE
VIC1,"2011/07/29 17:30:00",6480.2,29.01,TRADE
VIC1,"2011/07/29 18:00:00",6778.73,47.54,TRADE
VIC1,"2011/07/29 18:30:00",6906.53,51.37,TRADE
VIC1,"2011/07/29 19:00:00",6821.79,48.37,TRADE
VIC1,"2011/07/29 19:30:00",6682.15,38.38,TRADE
VIC1,"2011/07/29 20:00:00",6542.24,43.66,TRADE
VIC1,"2011/07/29 20:30:00",6422.35,45.2,TRADE
VIC1,"2011/07/29 21:00:00",6328.44,33.69,TRADE
VIC1,"2011/07/29 21:30:00",6155.85,28.36,TRADE
VIC1,"2011/07/29 22:00:00",5969.32,24.2,TRADE
VIC1,"2011/07/29 22:30:00",5757.55,23.33,TRADE
VIC1,"2011/07/29 23:00:00",5616.92,20.61,TRADE
VIC1,"2011/07/29 23:30:00",5780.5,23.96,TRADE
VIC1,"2011/07/30 00:00:00",5577.14,22.24,TRADE
VIC1,"2011/07/30 00:30:00",5300.68,16.45,TRADE
VIC1,"2011/07/30 01:00:00",5053.06,14.93,TRADE
VIC1,"2011/07/30 01:30:00",5292.61,17.45,TRADE
VIC1,"2011/07/30 02:00:00",5124.48,13.01,TRADE
VIC1,"2011/07/30 02:30:00",4883.78,9.21,TRADE
VIC1,"2011/07/30 03:00:00",4734.53,8.64,TRADE
VIC1,"2011/07/30 03:30:00",4629.63,7.87,TRADE
VIC1,"2011/07/30 04:00:00",4496.29,7.64,TRADE
VIC1,"2011/07/30 04:30:00",4467.16,8.48,TRADE
VIC1,"2011/07/30 05:00:00",4427.39,7.94,TRADE
VIC1,"2011/07/30 05:30:00",4480.52,8.3,TRADE
VIC1,"2011/07/30 06:00:00",4562.96,8.54,TRADE
VIC1,"2011/07/30 06:30:00",4728.68,9.77,TRADE
VIC1,"2011/07/30 07:00:00",4900.93,14.84,TRADE
VIC1,"2011/07/30 07:30:00",5040.29,15.78,TRADE
VIC1,"2011/07/30 08:00:00",5252.45,18.33,TRADE
VIC1,"2011/07/30 08:30:00",5523.9,22.51,TRADE
VIC1,"2011/07/30 09:00:00",5686.68,26.88,TRADE
VIC1,"2011/07/30 09:30:00",5847.74,30.17,TRADE
VIC1,"2011/07/30 10:00:00",5862.27,28.72,TRADE
VIC1,"2011/07/30 10:30:00",5887.17,28.16,TRADE
VIC1,"2011/07/30 11:00:00",5865.88,26.1,TRADE
VIC1,"2011/07/30 11:30:00",5787.79,25.88,TRADE
VIC1,"2011/07/30 12:00:00",5802.47,24.86,TRADE
VIC1,"2011/07/30 12:30:00",5760.47,24.41,TRADE
VIC1,"2011/07/30 13:00:00",5743.11,23.62,TRADE
VIC1,"2011/07/30 13:30:00",5778.73,23.4,TRADE
VIC1,"2011/07/30 14:00:00",5720.08,23.05,TRADE
VIC1,"2011/07/30 14:30:00",5720.13,23.1,TRADE
VIC1,"2011/07/30 15:00:00",5677.99,22.49,TRADE
VIC1,"2011/07/30 15:30:00",5727.87,23.56,TRADE
VIC1,"2011/07/30 16:00:00",5810.32,24.47,TRADE
VIC1,"2011/07/30 16:30:00",5896.59,25.43,TRADE
VIC1,"2011/07/30 17:00:00",6083.41,26.67,TRADE
VIC1,"2011/07/30 17:30:00",6285.29,28.75,TRADE
VIC1,"2011/07/30 18:00:00",6482.91,39.67,TRADE
VIC1,"2011/07/30 18:30:00",6593.67,41.65,TRADE
VIC1,"2011/07/30 19:00:00",6466.81,36.43,TRADE
VIC1,"2011/07/30 19:30:00",6313.83,31.97,TRADE
VIC1,"2011/07/30 20:00:00",6192.91,31.75,TRADE
VIC1,"2011/07/30 20:30:00",6087.12,30.92,TRADE
VIC1,"2011/07/30 21:00:00",5936,27.07,TRADE
VIC1,"2011/07/30 21:30:00",5793.93,25.02,TRADE
VIC1,"2011/07/30 22:00:00",5668.07,26.55,TRADE
VIC1,"2011/07/30 22:30:00",5556.14,18.26,TRADE
VIC1,"2011/07/30 23:00:00",5493.49,23.79,TRADE
VIC1,"2011/07/30 23:30:00",5641.57,24.82,TRADE
VIC1,"2011/07/31 00:00:00",5514.59,23.28,TRADE
VIC1,"2011/07/31 00:30:00",5313.66,24.21,TRADE
VIC1,"2011/07/31 01:00:00",5114.74,17.82,TRADE
VIC1,"2011/07/31 01:30:00",5358.43,23.21,TRADE
VIC1,"2011/07/31 02:00:00",5169.86,15.59,TRADE
VIC1,"2011/07/31 02:30:00",5048.8,10.07,TRADE
VIC1,"2011/07/31 03:00:00",4916.29,11.89,TRADE
VIC1,"2011/07/31 03:30:00",4754.1,11.81,TRADE
VIC1,"2011/07/31 04:00:00",4630.16,6.03,TRADE
VIC1,"2011/07/31 04:30:00",4519.5,9.19,TRADE
VIC1,"2011/07/31 05:00:00",4484.35,8.2,TRADE
VIC1,"2011/07/31 05:30:00",4473.38,7.63,TRADE
VIC1,"2011/07/31 06:00:00",4529.9,8.61,TRADE
VIC1,"2011/07/31 06:30:00",4635.97,10.76,TRADE
VIC1,"2011/07/31 07:00:00",4730.36,11.64,TRADE
VIC1,"2011/07/31 07:30:00",4776.52,12.28,TRADE
VIC1,"2011/07/31 08:00:00",4967.18,17.77,TRADE
VIC1,"2011/07/31 08:30:00",5149.64,27.45,TRADE
VIC1,"2011/07/31 09:00:00",5225.02,30.91,TRADE
VIC1,"2011/07/31 09:30:00",5297.86,27.22,TRADE
VIC1,"2011/07/31 10:00:00",5334.97,29.62,TRADE
VIC1,"2011/07/31 10:30:00",5346.73,40.29,TRADE
VIC1,"2011/07/31 11:00:00",5257.07,27.26,TRADE
VIC1,"2011/07/31 11:30:00",5209.32,25.37,TRADE
VIC1,"2011/07/31 12:00:00",5160.79,23.73,TRADE
VIC1,"2011/07/31 12:30:00",5158.97,24.68,TRADE
VIC1,"2011/07/31 13:00:00",5096.74,24.21,TRADE
VIC1,"2011/07/31 13:30:00",5066.92,23.14,TRADE
VIC1,"2011/07/31 14:00:00",5012.94,22.83,TRADE
VIC1,"2011/07/31 14:30:00",4941.49,12.33,TRADE
VIC1,"2011/07/31 15:00:00",5007.54,5.06,TRADE
VIC1,"2011/07/31 15:30:00",5056.02,17.74,TRADE
VIC1,"2011/07/31 16:00:00",5046.78,17.99,TRADE
VIC1,"2011/07/31 16:30:00",5119.87,19.94,TRADE
VIC1,"2011/07/31 17:00:00",5315.86,20.03,TRADE
VIC1,"2011/07/31 17:30:00",5588.78,23.13,TRADE
VIC1,"2011/07/31 18:00:00",6044.02,31.47,TRADE
VIC1,"2011/07/31 18:30:00",6351.48,40.68,TRADE
VIC1,"2011/07/31 19:00:00",6334.16,36.57,TRADE
VIC1,"2011/07/31 19:30:00",6217.17,30.85,TRADE
VIC1,"2011/07/31 20:00:00",6136.3,30.13,TRADE
VIC1,"2011/07/31 20:30:00",6010.87,27.75,TRADE
VIC1,"2011/07/31 21:00:00",5906.09,24.63,TRADE
VIC1,"2011/07/31 21:30:00",5718.47,18.46,TRADE
VIC1,"2011/07/31 22:00:00",5534.12,6.62,TRADE
VIC1,"2011/07/31 22:30:00",5380.09,13.57,TRADE
VIC1,"2011/07/31 23:00:00",5180.61,9.39,TRADE
VIC1,"2011/07/31 23:30:00",5282.42,23.94,TRADE
VIC1,"2011/08/01 00:00:00",5151.19,20.66,TRADE
