REGION,SETTLEMENTDATE,TOTALDEMAND,RRP,PERIODTYPE
VIC1,"2007/07/01 00:30:00",5751.37,46.17,TRADE
VIC1,"2007/07/01 01:00:00",5604.18,38.41,TRADE
VIC1,"2007/07/01 01:30:00",5889.7,59.42,TRADE
VIC1,"2007/07/01 02:00:00",5731.78,55.37,TRADE
VIC1,"2007/07/01 02:30:00",5519.54,29.42,TRADE
VIC1,"2007/07/01 03:00:00",5317.62,27.68,TRADE
VIC1,"2007/07/01 03:30:00",5140.89,23.39,TRADE
VIC1,"2007/07/01 04:00:00",5017.26,19.14,TRADE
VIC1,"2007/07/01 04:30:00",4910.67,20.53,TRADE
VIC1,"2007/07/01 05:00:00",4837.82,21.39,TRADE
VIC1,"2007/07/01 05:30:00",4774.92,27.52,TRADE
VIC1,"2007/07/01 06:00:00",4769.23,29.07,TRADE
VIC1,"2007/07/01 06:30:00",4839.08,32.5,TRADE
VIC1,"2007/07/01 07:00:00",4885.69,43.22,TRADE
VIC1,"2007/07/01 07:30:00",4868.61,39.88,TRADE
VIC1,"2007/07/01 08:00:00",5001.23,40.18,TRADE
VIC1,"2007/07/01 08:30:00",5215.18,52.96,TRADE
VIC1,"2007/07/01 09:00:00",5392.45,62.49,TRADE
VIC1,"2007/07/01 09:30:00",5555.42,77.28,TRADE
VIC1,"2007/07/01 10:00:00",5665.16,88.32,TRADE
VIC1,"2007/07/01 10:30:00",5711.59,83.42,TRADE
VIC1,"2007/07/01 11:00:00",5722.24,91.09,TRADE
VIC1,"2007/07/01 11:30:00",5676.51,88.81,TRADE
VIC1,"2007/07/01 12:00:00",5623.01,80.09,TRADE
VIC1,"2007/07/01 12:30:00",5616.07,90.75,TRADE
VIC1,"2007/07/01 13:00:00",5613.29,84.77,TRADE
VIC1,"2007/07/01 13:30:00",5745.8,47.85,TRADE
VIC1,"2007/07/01 14:00:00",5840.45,42.91,TRADE
VIC1,"2007/07/01 14:30:00",5804.21,42.48,TRADE
VIC1,"2007/07/01 15:00:00",5817.43,41.68,TRADE
VIC1,"2007/07/01 15:30:00",5843.84,45.12,TRADE
VIC1,"2007/07/01 16:00:00",5900.37,63.76,TRADE
VIC1,"2007/07/01 16:30:00",5861.86,72.68,TRADE
VIC1,"2007/07/01 17:00:00",6071.39,80.32,TRADE
VIC1,"2007/07/01 17:30:00",6368.3,113.73,TRADE
VIC1,"2007/07/01 18:00:00",6726.86,201.72,TRADE
VIC1,"2007/07/01 18:30:00",6743.38,191.88,TRADE
VIC1,"2007/07/01 19:00:00",6687.43,152.78,TRADE
VIC1,"2007/07/01 19:30:00",6555.43,149.13,TRADE
VIC1,"2007/07/01 20:00:00",6470.45,150.62,TRADE
VIC1,"2007/07/01 20:30:00",6390.66,174.17,TRADE
VIC1,"2007/07/01 21:00:00",6239.44,163.15,TRADE
VIC1,"2007/07/01 21:30:00",6129.56,103.05,TRADE
VIC1,"2007/07/01 22:00:00",5929.27,69.57,TRADE
VIC1,"2007/07/01 22:30:00",5764.36,84.61,TRADE
VIC1,"2007/07/01 23:00:00",5574.8,70.1,TRADE
VIC1,"2007/07/01 23:30:00",5744.54,96.42,TRADE
VIC1,"2007/07/02 00:00:00",5660.65,81.16,TRADE
VIC1,"2007/07/02 00:30:00",5545.37,75.67,TRADE
VIC1,"2007/07/02 01:00:00",5433.28,45.93,TRADE
VIC1,"2007/07/02 01:30:00",5792.74,85.34,TRADE
VIC1,"2007/07/02 02:00:00",5670.21,31.14,TRADE
VIC1,"2007/07/02 02:30:00",5460.88,28.04,TRADE
VIC1,"2007/07/02 03:00:00",5302.6,26.98,TRADE
VIC1,"2007/07/02 03:30:00",5175.66,23.31,TRADE
VIC1,"2007/07/02 04:00:00",5076.67,19.73,TRADE
VIC1,"2007/07/02 04:30:00",5074.32,20.51,TRADE
VIC1,"2007/07/02 05:00:00",5090.01,25.35,TRADE
VIC1,"2007/07/02 05:30:00",5205.02,27.06,TRADE
VIC1,"2007/07/02 06:00:00",5417.41,31.51,TRADE
VIC1,"2007/07/02 06:30:00",5825.79,57.77,TRADE
VIC1,"2007/07/02 07:00:00",6208.77,77.48,TRADE
VIC1,"2007/07/02 07:30:00",6482.57,91.29,TRADE
VIC1,"2007/07/02 08:00:00",6784.04,101.1,TRADE
VIC1,"2007/07/02 08:30:00",7038.4,119.15,TRADE
VIC1,"2007/07/02 09:00:00",7201.02,121.31,TRADE
VIC1,"2007/07/02 09:30:00",7295.99,130.29,TRADE
VIC1,"2007/07/02 10:00:00",7243.47,107.42,TRADE
VIC1,"2007/07/02 10:30:00",7200.16,104.35,TRADE
VIC1,"2007/07/02 11:00:00",7124.19,100.7,TRADE
VIC1,"2007/07/02 11:30:00",7048.77,104.8,TRADE
VIC1,"2007/07/02 12:00:00",6982.96,109.78,TRADE
VIC1,"2007/07/02 12:30:00",6916.41,112.37,TRADE
VIC1,"2007/07/02 13:00:00",6889.43,111.48,TRADE
VIC1,"2007/07/02 13:30:00",6974.21,111.89,TRADE
VIC1,"2007/07/02 14:00:00",6991.12,114.48,TRADE
VIC1,"2007/07/02 14:30:00",6972.34,116.14,TRADE
VIC1,"2007/07/02 15:00:00",6951.22,125.18,TRADE
VIC1,"2007/07/02 15:30:00",6983.64,124.6,TRADE
VIC1,"2007/07/02 16:00:00",7030.5,124.94,TRADE
VIC1,"2007/07/02 16:30:00",7076.7,117.15,TRADE
VIC1,"2007/07/02 17:00:00",7230.38,113.94,TRADE
VIC1,"2007/07/02 17:30:00",7526.41,129.29,TRADE
VIC1,"2007/07/02 18:00:00",7764.46,149.86,TRADE
VIC1,"2007/07/02 18:30:00",7701.66,161.41,TRADE
VIC1,"2007/07/02 19:00:00",7503.25,145.15,TRADE
VIC1,"2007/07/02 19:30:00",7228.63,111.85,TRADE
VIC1,"2007/07/02 20:00:00",7126.37,104.16,TRADE
VIC1,"2007/07/02 20:30:00",6977.13,98.6,TRADE
VIC1,"2007/07/02 21:00:00",6898.82,95.72,TRADE
VIC1,"2007/07/02 21:30:00",6684.16,94.66,TRADE
VIC1,"2007/07/02 22:00:00",6441.96,92.2,TRADE
VIC1,"2007/07/02 22:30:00",6253.84,107.1,TRADE
VIC1,"2007/07/02 23:00:00",6057.95,100.72,TRADE
VIC1,"2007/07/02 23:30:00",6266.9,118.35,TRADE
VIC1,"2007/07/03 00:00:00",6084.23,106.41,TRADE
VIC1,"2007/07/03 00:30:00",5859.14,79.99,TRADE
VIC1,"2007/07/03 01:00:00",5738.34,64.12,TRADE
VIC1,"2007/07/03 01:30:00",6060.5,106.27,TRADE
VIC1,"2007/07/03 02:00:00",5938.93,53.93,TRADE
VIC1,"2007/07/03 02:30:00",5692.6,42.07,TRADE
VIC1,"2007/07/03 03:00:00",5522.83,30.16,TRADE
VIC1,"2007/07/03 03:30:00",5374.81,27.7,TRADE
VIC1,"2007/07/03 04:00:00",5267.1,26.9,TRADE
VIC1,"2007/07/03 04:30:00",5190.71,26.79,TRADE
VIC1,"2007/07/03 05:00:00",5139.33,28.67,TRADE
VIC1,"2007/07/03 05:30:00",5216.92,39.09,TRADE
VIC1,"2007/07/03 06:00:00",5428.08,48.02,TRADE
VIC1,"2007/07/03 06:30:00",5838.46,70.48,TRADE
VIC1,"2007/07/03 07:00:00",6212.94,101.64,TRADE
VIC1,"2007/07/03 07:30:00",6512.8,98.97,TRADE
VIC1,"2007/07/03 08:00:00",6777.94,104.51,TRADE
VIC1,"2007/07/03 08:30:00",6961.78,121.74,TRADE
VIC1,"2007/07/03 09:00:00",7026.84,119.84,TRADE
VIC1,"2007/07/03 09:30:00",7093.73,106.18,TRADE
VIC1,"2007/07/03 10:00:00",7022.15,102.68,TRADE
VIC1,"2007/07/03 10:30:00",6954.53,99.68,TRADE
VIC1,"2007/07/03 11:00:00",6905.08,98.05,TRADE
VIC1,"2007/07/03 11:30:00",6776.3,99.19,TRADE
VIC1,"2007/07/03 12:00:00",6800.31,110.29,TRADE
VIC1,"2007/07/03 12:30:00",6717.58,96,TRADE
VIC1,"2007/07/03 13:00:00",6708.04,81.89,TRADE
VIC1,"2007/07/03 13:30:00",6748.73,82.5,TRADE
VIC1,"2007/07/03 14:00:00",6696.89,71.53,TRADE
VIC1,"2007/07/03 14:30:00",6617.48,61.8,TRADE
VIC1,"2007/07/03 15:00:00",6577.64,56.32,TRADE
VIC1,"2007/07/03 15:30:00",6560.6,57.05,TRADE
VIC1,"2007/07/03 16:00:00",6550.51,64.85,TRADE
VIC1,"2007/07/03 16:30:00",6557.83,68.95,TRADE
VIC1,"2007/07/03 17:00:00",6696.13,87.47,TRADE
VIC1,"2007/07/03 17:30:00",7008.71,93.28,TRADE
VIC1,"2007/07/03 18:00:00",7415.23,107.55,TRADE
VIC1,"2007/07/03 18:30:00",7457.45,114.36,TRADE
VIC1,"2007/07/03 19:00:00",7330.8,103.46,TRADE
VIC1,"2007/07/03 19:30:00",7191.94,95.88,TRADE
VIC1,"2007/07/03 20:00:00",7043.47,103.66,TRADE
VIC1,"2007/07/03 20:30:00",6911.23,104.93,TRADE
VIC1,"2007/07/03 21:00:00",6765.3,94.32,TRADE
VIC1,"2007/07/03 21:30:00",6627.89,89.67,TRADE
VIC1,"2007/07/03 22:00:00",6396.79,64.99,TRADE
VIC1,"2007/07/03 22:30:00",6182.53,91.3,TRADE
VIC1,"2007/07/03 23:00:00",5929.13,63.86,TRADE
VIC1,"2007/07/03 23:30:00",6227.94,75.09,TRADE
VIC1,"2007/07/04 00:00:00",6046.4,63.1,TRADE
VIC1,"2007/07/04 00:30:00",5894.1,52.81,TRADE
VIC1,"2007/07/04 01:00:00",5706.49,45.76,TRADE
VIC1,"2007/07/04 01:30:00",6032.45,68.58,TRADE
VIC1,"2007/07/04 02:00:00",5856.26,40.13,TRADE
VIC1,"2007/07/04 02:30:00",5615.42,36.37,TRADE
VIC1,"2007/07/04 03:00:00",5407.38,27.57,TRADE
VIC1,"2007/07/04 03:30:00",5284.78,23.61,TRADE
VIC1,"2007/07/04 04:00:00",5177.5,20.25,TRADE
VIC1,"2007/07/04 04:30:00",5091.89,18.08,TRADE
VIC1,"2007/07/04 05:00:00",5093.22,19.46,TRADE
VIC1,"2007/07/04 05:30:00",5201.31,26.62,TRADE
VIC1,"2007/07/04 06:00:00",5428.35,32.11,TRADE
VIC1,"2007/07/04 06:30:00",5742.53,44.69,TRADE
VIC1,"2007/07/04 07:00:00",6137.65,66.25,TRADE
VIC1,"2007/07/04 07:30:00",6361.23,76.64,TRADE
VIC1,"2007/07/04 08:00:00",6710.67,91.84,TRADE
VIC1,"2007/07/04 08:30:00",6877.53,94.59,TRADE
VIC1,"2007/07/04 09:00:00",7021.93,96.43,TRADE
VIC1,"2007/07/04 09:30:00",7173.22,98.67,TRADE
VIC1,"2007/07/04 10:00:00",7149.13,100.59,TRADE
VIC1,"2007/07/04 10:30:00",7124.01,104.8,TRADE
VIC1,"2007/07/04 11:00:00",7063.62,99.34,TRADE
VIC1,"2007/07/04 11:30:00",7003.63,105.41,TRADE
VIC1,"2007/07/04 12:00:00",7085.48,112.41,TRADE
VIC1,"2007/07/04 12:30:00",6959.22,112.69,TRADE
VIC1,"2007/07/04 13:00:00",6902.63,106.97,TRADE
VIC1,"2007/07/04 13:30:00",6990.84,114.15,TRADE
VIC1,"2007/07/04 14:00:00",6961.89,117.77,TRADE
VIC1,"2007/07/04 14:30:00",6846.5,111.18,TRADE
VIC1,"2007/07/04 15:00:00",6821.2,113.26,TRADE
VIC1,"2007/07/04 15:30:00",6759.63,110.76,TRADE
VIC1,"2007/07/04 16:00:00",6769.6,107.8,TRADE
VIC1,"2007/07/04 16:30:00",6762.73,99.9,TRADE
VIC1,"2007/07/04 17:00:00",6903.01,111.38,TRADE
VIC1,"2007/07/04 17:30:00",7169.34,109.29,TRADE
VIC1,"2007/07/04 18:00:00",7517.5,170.6,TRADE
VIC1,"2007/07/04 18:30:00",7548.21,161.26,TRADE
VIC1,"2007/07/04 19:00:00",7360.06,109.2,TRADE
VIC1,"2007/07/04 19:30:00",7145.56,94.18,TRADE
VIC1,"2007/07/04 20:00:00",7009.78,95.93,TRADE
VIC1,"2007/07/04 20:30:00",6863.26,99.54,TRADE
VIC1,"2007/07/04 21:00:00",6726.01,100.24,TRADE
VIC1,"2007/07/04 21:30:00",6569.4,96.12,TRADE
VIC1,"2007/07/04 22:00:00",6377.12,95.28,TRADE
VIC1,"2007/07/04 22:30:00",6159.09,96.37,TRADE
VIC1,"2007/07/04 23:00:00",5967.03,82.11,TRADE
VIC1,"2007/07/04 23:30:00",6219.58,88.73,TRADE
VIC1,"2007/07/05 00:00:00",6075.53,62.28,TRADE
VIC1,"2007/07/05 00:30:00",5883.38,50.18,TRADE
VIC1,"2007/07/05 01:00:00",5746.06,42.66,TRADE
VIC1,"2007/07/05 01:30:00",6085.04,66.85,TRADE
VIC1,"2007/07/05 02:00:00",5947.01,42.16,TRADE
VIC1,"2007/07/05 02:30:00",5738.36,32.64,TRADE
VIC1,"2007/07/05 03:00:00",5523.58,28.99,TRADE
VIC1,"2007/07/05 03:30:00",5383.51,22.63,TRADE
VIC1,"2007/07/05 04:00:00",5278.74,20.05,TRADE
VIC1,"2007/07/05 04:30:00",5202.27,18.31,TRADE
VIC1,"2007/07/05 05:00:00",5203.6,23.12,TRADE
VIC1,"2007/07/05 05:30:00",5356.25,25.09,TRADE
VIC1,"2007/07/05 06:00:00",5521.39,29,TRADE
VIC1,"2007/07/05 06:30:00",5952.92,53.35,TRADE
VIC1,"2007/07/05 07:00:00",6336.27,56.42,TRADE
VIC1,"2007/07/05 07:30:00",6541.79,69.5,TRADE
VIC1,"2007/07/05 08:00:00",6808.41,90.42,TRADE
VIC1,"2007/07/05 08:30:00",7011.99,99.96,TRADE
VIC1,"2007/07/05 09:00:00",7171.9,104.27,TRADE
VIC1,"2007/07/05 09:30:00",7271.85,98.69,TRADE
VIC1,"2007/07/05 10:00:00",7266.31,98.77,TRADE
VIC1,"2007/07/05 10:30:00",7248.51,102.43,TRADE
VIC1,"2007/07/05 11:00:00",7220.94,107.48,TRADE
VIC1,"2007/07/05 11:30:00",7178.08,106.48,TRADE
VIC1,"2007/07/05 12:00:00",7163.62,98.54,TRADE
VIC1,"2007/07/05 12:30:00",7119.7,91.93,TRADE
VIC1,"2007/07/05 13:00:00",7092.73,89.63,TRADE
VIC1,"2007/07/05 13:30:00",7201.31,90.71,TRADE
VIC1,"2007/07/05 14:00:00",7197.94,90.03,TRADE
VIC1,"2007/07/05 14:30:00",7215.59,104.17,TRADE
VIC1,"2007/07/05 15:00:00",7195.29,104.8,TRADE
VIC1,"2007/07/05 15:30:00",7193.42,111.7,TRADE
VIC1,"2007/07/05 16:00:00",7203.81,112.59,TRADE
VIC1,"2007/07/05 16:30:00",7164.69,94.3,TRADE
VIC1,"2007/07/05 17:00:00",7255.2,97.14,TRADE
VIC1,"2007/07/05 17:30:00",7463.56,100.51,TRADE
VIC1,"2007/07/05 18:00:00",7751.4,139.16,TRADE
VIC1,"2007/07/05 18:30:00",7752.85,160.83,TRADE
VIC1,"2007/07/05 19:00:00",7620.46,155.97,TRADE
VIC1,"2007/07/05 19:30:00",7429.62,114.86,TRADE
VIC1,"2007/07/05 20:00:00",7290.91,95.48,TRADE
VIC1,"2007/07/05 20:30:00",7161.97,103.79,TRADE
VIC1,"2007/07/05 21:00:00",7025.66,95.09,TRADE
VIC1,"2007/07/05 21:30:00",6854.42,94.42,TRADE
VIC1,"2007/07/05 22:00:00",6630.42,91.58,TRADE
VIC1,"2007/07/05 22:30:00",6413.13,110.7,TRADE
VIC1,"2007/07/05 23:00:00",6181.52,104.48,TRADE
VIC1,"2007/07/05 23:30:00",6422.29,112.41,TRADE
VIC1,"2007/07/06 00:00:00",6223.84,76.53,TRADE
VIC1,"2007/07/06 00:30:00",6083.47,66.83,TRADE
VIC1,"2007/07/06 01:00:00",5918.55,51.98,TRADE
VIC1,"2007/07/06 01:30:00",6224.68,59.14,TRADE
VIC1,"2007/07/06 02:00:00",6075.17,36.2,TRADE
VIC1,"2007/07/06 02:30:00",5859.44,31.64,TRADE
VIC1,"2007/07/06 03:00:00",5661.25,29.35,TRADE
VIC1,"2007/07/06 03:30:00",5491.96,23.89,TRADE
VIC1,"2007/07/06 04:00:00",5373.37,19.46,TRADE
VIC1,"2007/07/06 04:30:00",5305.7,18.69,TRADE
VIC1,"2007/07/06 05:00:00",5270.72,19.49,TRADE
VIC1,"2007/07/06 05:30:00",5411.52,26.78,TRADE
VIC1,"2007/07/06 06:00:00",5593.12,31.33,TRADE
VIC1,"2007/07/06 06:30:00",6014.42,46.79,TRADE
VIC1,"2007/07/06 07:00:00",6388.95,71.34,TRADE
VIC1,"2007/07/06 07:30:00",6596.01,82.09,TRADE
VIC1,"2007/07/06 08:00:00",6888.69,92.73,TRADE
VIC1,"2007/07/06 08:30:00",7122.6,94.96,TRADE
VIC1,"2007/07/06 09:00:00",7246.22,97.8,TRADE
VIC1,"2007/07/06 09:30:00",7371.48,99.16,TRADE
VIC1,"2007/07/06 10:00:00",7346.93,99.8,TRADE
VIC1,"2007/07/06 10:30:00",7331.39,91.84,TRADE
VIC1,"2007/07/06 11:00:00",7286.77,90.08,TRADE
VIC1,"2007/07/06 11:30:00",7289,93.78,TRADE
VIC1,"2007/07/06 12:00:00",7242.27,92.48,TRADE
VIC1,"2007/07/06 12:30:00",7203.21,91.45,TRADE
VIC1,"2007/07/06 13:00:00",7174,93.39,TRADE
VIC1,"2007/07/06 13:30:00",7308.97,126.88,TRADE
VIC1,"2007/07/06 14:00:00",7379.18,114.14,TRADE
VIC1,"2007/07/06 14:30:00",7444.56,111.5,TRADE
VIC1,"2007/07/06 15:00:00",7411.77,106.81,TRADE
VIC1,"2007/07/06 15:30:00",7417.83,114.89,TRADE
VIC1,"2007/07/06 16:00:00",7285.3,101.82,TRADE
VIC1,"2007/07/06 16:30:00",7213.85,87.89,TRADE
VIC1,"2007/07/06 17:00:00",7270.79,78.52,TRADE
VIC1,"2007/07/06 17:30:00",7428.42,84.88,TRADE
VIC1,"2007/07/06 18:00:00",7679.46,96.93,TRADE
VIC1,"2007/07/06 18:30:00",7631.91,98.23,TRADE
VIC1,"2007/07/06 19:00:00",7505.7,97.54,TRADE
VIC1,"2007/07/06 19:30:00",7315.43,93.49,TRADE
VIC1,"2007/07/06 20:00:00",7171.79,89.22,TRADE
VIC1,"2007/07/06 20:30:00",7029.76,84.43,TRADE
VIC1,"2007/07/06 21:00:00",6834.61,77.61,TRADE
VIC1,"2007/07/06 21:30:00",6508.36,59.26,TRADE
VIC1,"2007/07/06 22:00:00",6484.99,67.99,TRADE
VIC1,"2007/07/06 22:30:00",6421.05,93.86,TRADE
VIC1,"2007/07/06 23:00:00",6281.99,82.37,TRADE
VIC1,"2007/07/06 23:30:00",6563.15,100.81,TRADE
VIC1,"2007/07/07 00:00:00",6365.52,77.5,TRADE
VIC1,"2007/07/07 00:30:00",6182.13,51.29,TRADE
VIC1,"2007/07/07 01:00:00",5991.42,41.1,TRADE
VIC1,"2007/07/07 01:30:00",6309.68,63.8,TRADE
VIC1,"2007/07/07 02:00:00",6128.5,40.58,TRADE
VIC1,"2007/07/07 02:30:00",5911.53,35.88,TRADE
VIC1,"2007/07/07 03:00:00",5684.26,30,TRADE
VIC1,"2007/07/07 03:30:00",5531.88,29.01,TRADE
VIC1,"2007/07/07 04:00:00",5401.58,26.28,TRADE
VIC1,"2007/07/07 04:30:00",5287.26,20.65,TRADE
VIC1,"2007/07/07 05:00:00",5236.51,22.45,TRADE
VIC1,"2007/07/07 05:30:00",5258.15,25.47,TRADE
VIC1,"2007/07/07 06:00:00",5309.09,27.42,TRADE
VIC1,"2007/07/07 06:30:00",5457.98,31.63,TRADE
VIC1,"2007/07/07 07:00:00",5534.22,32.58,TRADE
VIC1,"2007/07/07 07:30:00",5578.91,36.25,TRADE
VIC1,"2007/07/07 08:00:00",5631.27,47.33,TRADE
VIC1,"2007/07/07 08:30:00",6045.45,58.14,TRADE
VIC1,"2007/07/07 09:00:00",6268.47,86.31,TRADE
VIC1,"2007/07/07 09:30:00",6461.08,96.54,TRADE
VIC1,"2007/07/07 10:00:00",6477.8,102.53,TRADE
VIC1,"2007/07/07 10:30:00",6458.17,98.08,TRADE
VIC1,"2007/07/07 11:00:00",6415.36,91.32,TRADE
VIC1,"2007/07/07 11:30:00",6334.23,75.45,TRADE
VIC1,"2007/07/07 12:00:00",6290.05,69.97,TRADE
VIC1,"2007/07/07 12:30:00",6263.9,77.69,TRADE
VIC1,"2007/07/07 13:00:00",6247.78,89.95,TRADE
VIC1,"2007/07/07 13:30:00",6329.33,95.38,TRADE
VIC1,"2007/07/07 14:00:00",6341.96,95.18,TRADE
VIC1,"2007/07/07 14:30:00",6311.7,68.68,TRADE
VIC1,"2007/07/07 15:00:00",6353.7,55.98,TRADE
VIC1,"2007/07/07 15:30:00",6408.48,60.02,TRADE
VIC1,"2007/07/07 16:00:00",6453.18,63.65,TRADE
VIC1,"2007/07/07 16:30:00",6505.1,78.3,TRADE
VIC1,"2007/07/07 17:00:00",6662.04,96.03,TRADE
VIC1,"2007/07/07 17:30:00",6871.63,97.62,TRADE
VIC1,"2007/07/07 18:00:00",7111.87,147.88,TRADE
VIC1,"2007/07/07 18:30:00",7079.13,135.62,TRADE
VIC1,"2007/07/07 19:00:00",6903.02,110.52,TRADE
VIC1,"2007/07/07 19:30:00",6721.44,83.19,TRADE
VIC1,"2007/07/07 20:00:00",6572.54,93.96,TRADE
VIC1,"2007/07/07 20:30:00",6419.34,90.87,TRADE
VIC1,"2007/07/07 21:00:00",6322.26,85.94,TRADE
VIC1,"2007/07/07 21:30:00",6186.95,82.74,TRADE
VIC1,"2007/07/07 22:00:00",6035.87,59.5,TRADE
VIC1,"2007/07/07 22:30:00",5932.99,68.41,TRADE
VIC1,"2007/07/07 23:00:00",5828.55,59.7,TRADE
VIC1,"2007/07/07 23:30:00",6015.74,81.01,TRADE
VIC1,"2007/07/08 00:00:00",5881.76,67.9,TRADE
VIC1,"2007/07/08 00:30:00",5773.51,45.78,TRADE
VIC1,"2007/07/08 01:00:00",5620.37,39.74,TRADE
VIC1,"2007/07/08 01:30:00",5955.51,41.04,TRADE
VIC1,"2007/07/08 02:00:00",5772.1,33.1,TRADE
VIC1,"2007/07/08 02:30:00",5554.67,32.54,TRADE
VIC1,"2007/07/08 03:00:00",5382.35,29.39,TRADE
VIC1,"2007/07/08 03:30:00",5201.7,27.44,TRADE
VIC1,"2007/07/08 04:00:00",5078.8,22.13,TRADE
VIC1,"2007/07/08 04:30:00",4960.68,20.83,TRADE
VIC1,"2007/07/08 05:00:00",4947.61,25.16,TRADE
VIC1,"2007/07/08 05:30:00",4884.98,25,TRADE
VIC1,"2007/07/08 06:00:00",4906.85,25.47,TRADE
VIC1,"2007/07/08 06:30:00",5005.9,26.39,TRADE
VIC1,"2007/07/08 07:00:00",5042.31,27,TRADE
VIC1,"2007/07/08 07:30:00",5003.67,29.96,TRADE
VIC1,"2007/07/08 08:00:00",5118.59,36.26,TRADE
VIC1,"2007/07/08 08:30:00",5349.28,45.77,TRADE
VIC1,"2007/07/08 09:00:00",5528.47,65.1,TRADE
VIC1,"2007/07/08 09:30:00",5721.33,78.97,TRADE
VIC1,"2007/07/08 10:00:00",5725.07,90.41,TRADE
VIC1,"2007/07/08 10:30:00",5769.22,90.53,TRADE
VIC1,"2007/07/08 11:00:00",5768.79,83.47,TRADE
VIC1,"2007/07/08 11:30:00",5751.32,71.73,TRADE
VIC1,"2007/07/08 12:00:00",5767.76,73.1,TRADE
VIC1,"2007/07/08 12:30:00",5738.35,71.72,TRADE
VIC1,"2007/07/08 13:00:00",5772.99,83.34,TRADE
VIC1,"2007/07/08 13:30:00",5822.44,85.02,TRADE
VIC1,"2007/07/08 14:00:00",5780.22,89.21,TRADE
VIC1,"2007/07/08 14:30:00",5693.6,75.03,TRADE
VIC1,"2007/07/08 15:00:00",5695.56,81.01,TRADE
VIC1,"2007/07/08 15:30:00",5689.9,85.8,TRADE
VIC1,"2007/07/08 16:00:00",5748.35,90.93,TRADE
VIC1,"2007/07/08 16:30:00",5742.67,90.97,TRADE
VIC1,"2007/07/08 17:00:00",5903.41,93.26,TRADE
VIC1,"2007/07/08 17:30:00",6221.37,100.54,TRADE
VIC1,"2007/07/08 18:00:00",6715.94,219.21,TRADE
VIC1,"2007/07/08 18:30:00",6808.87,314.5,TRADE
VIC1,"2007/07/08 19:00:00",6743.28,281.43,TRADE
VIC1,"2007/07/08 19:30:00",6619.76,167.89,TRADE
VIC1,"2007/07/08 20:00:00",6530.53,148.22,TRADE
VIC1,"2007/07/08 20:30:00",6477.17,148.61,TRADE
VIC1,"2007/07/08 21:00:00",6394.92,194.28,TRADE
VIC1,"2007/07/08 21:30:00",6223.1,137.3,TRADE
VIC1,"2007/07/08 22:00:00",6027.23,124.27,TRADE
VIC1,"2007/07/08 22:30:00",5863.71,151.65,TRADE
VIC1,"2007/07/08 23:00:00",5682.02,135.42,TRADE
VIC1,"2007/07/08 23:30:00",5855.7,129.87,TRADE
VIC1,"2007/07/09 00:00:00",5760.38,114.02,TRADE
VIC1,"2007/07/09 00:30:00",5645.2,79.75,TRADE
VIC1,"2007/07/09 01:00:00",5519.89,70.07,TRADE
VIC1,"2007/07/09 01:30:00",5826.38,64.03,TRADE
VIC1,"2007/07/09 02:00:00",5707.81,50.86,TRADE
VIC1,"2007/07/09 02:30:00",5499.16,42.84,TRADE
VIC1,"2007/07/09 03:00:00",5338.08,33.54,TRADE
VIC1,"2007/07/09 03:30:00",5222.43,30.07,TRADE
VIC1,"2007/07/09 04:00:00",5111.37,28.82,TRADE
VIC1,"2007/07/09 04:30:00",5032.54,27.88,TRADE
VIC1,"2007/07/09 05:00:00",5061.4,28.14,TRADE
VIC1,"2007/07/09 05:30:00",5166.12,31.44,TRADE
VIC1,"2007/07/09 06:00:00",5346.76,43.41,TRADE
VIC1,"2007/07/09 06:30:00",5770.55,85.6,TRADE
VIC1,"2007/07/09 07:00:00",6145.31,121.97,TRADE
VIC1,"2007/07/09 07:30:00",6435.9,92.66,TRADE
VIC1,"2007/07/09 08:00:00",6738.92,108.77,TRADE
VIC1,"2007/07/09 08:30:00",7004.8,140.85,TRADE
VIC1,"2007/07/09 09:00:00",7185.63,170.66,TRADE
VIC1,"2007/07/09 09:30:00",7279.22,197.87,TRADE
VIC1,"2007/07/09 10:00:00",7230.49,249.92,TRADE
VIC1,"2007/07/09 10:30:00",7196.7,189.97,TRADE
VIC1,"2007/07/09 11:00:00",7103.26,150.04,TRADE
VIC1,"2007/07/09 11:30:00",7082.21,150.3,TRADE
VIC1,"2007/07/09 12:00:00",6974.9,132.41,TRADE
VIC1,"2007/07/09 12:30:00",6875.64,146.13,TRADE
VIC1,"2007/07/09 13:00:00",6908.58,136,TRADE
VIC1,"2007/07/09 13:30:00",6995.88,136.3,TRADE
VIC1,"2007/07/09 14:00:00",6967.19,122.98,TRADE
VIC1,"2007/07/09 14:30:00",6915.96,120.88,TRADE
VIC1,"2007/07/09 15:00:00",6838.57,112.32,TRADE
VIC1,"2007/07/09 15:30:00",6801.24,123.47,TRADE
VIC1,"2007/07/09 16:00:00",6824.76,145.23,TRADE
VIC1,"2007/07/09 16:30:00",6777.54,148.54,TRADE
VIC1,"2007/07/09 17:00:00",6917.41,247.66,TRADE
VIC1,"2007/07/09 17:30:00",7159.96,230.77,TRADE
VIC1,"2007/07/09 18:00:00",7538.1,610.85,TRADE
VIC1,"2007/07/09 18:30:00",7598.94,387.76,TRADE
VIC1,"2007/07/09 19:00:00",7526.86,303.29,TRADE
VIC1,"2007/07/09 19:30:00",7292.1,226.89,TRADE
VIC1,"2007/07/09 20:00:00",7182.86,243.86,TRADE
VIC1,"2007/07/09 20:30:00",7072.06,286.77,TRADE
VIC1,"2007/07/09 21:00:00",6975.79,190.41,TRADE
VIC1,"2007/07/09 21:30:00",6762.05,220.02,TRADE
VIC1,"2007/07/09 22:00:00",6563.78,137.8,TRADE
VIC1,"2007/07/09 22:30:00",6294.94,306.74,TRADE
VIC1,"2007/07/09 23:00:00",6060.12,210.12,TRADE
VIC1,"2007/07/09 23:30:00",6311.24,158.09,TRADE
VIC1,"2007/07/10 00:00:00",6108.92,142.35,TRADE
VIC1,"2007/07/10 00:30:00",5978.56,107.34,TRADE
VIC1,"2007/07/10 01:00:00",5834.31,97.15,TRADE
VIC1,"2007/07/10 01:30:00",6152.08,111.38,TRADE
VIC1,"2007/07/10 02:00:00",5978.06,84.81,TRADE
VIC1,"2007/07/10 02:30:00",5768.96,54.62,TRADE
VIC1,"2007/07/10 03:00:00",5620.72,51.22,TRADE
VIC1,"2007/07/10 03:30:00",5479.18,41.88,TRADE
VIC1,"2007/07/10 04:00:00",5388.72,34.26,TRADE
VIC1,"2007/07/10 04:30:00",5321.98,29.76,TRADE
VIC1,"2007/07/10 05:00:00",5329.28,32.03,TRADE
VIC1,"2007/07/10 05:30:00",5449.09,48.33,TRADE
VIC1,"2007/07/10 06:00:00",5649.41,65.35,TRADE
VIC1,"2007/07/10 06:30:00",6065.96,100.25,TRADE
VIC1,"2007/07/10 07:00:00",6451.91,124.43,TRADE
VIC1,"2007/07/10 07:30:00",6692.84,115.16,TRADE
VIC1,"2007/07/10 08:00:00",7006.49,154.02,TRADE
VIC1,"2007/07/10 08:30:00",7267.22,260.59,TRADE
VIC1,"2007/07/10 09:00:00",7461,316.26,TRADE
VIC1,"2007/07/10 09:30:00",7551.83,315.98,TRADE
VIC1,"2007/07/10 10:00:00",7530.01,152.97,TRADE
VIC1,"2007/07/10 10:30:00",7476.05,136.87,TRADE
VIC1,"2007/07/10 11:00:00",7407.47,112.15,TRADE
VIC1,"2007/07/10 11:30:00",7338.92,108.1,TRADE
VIC1,"2007/07/10 12:00:00",7297.78,106.45,TRADE
VIC1,"2007/07/10 12:30:00",7191.56,100.15,TRADE
VIC1,"2007/07/10 13:00:00",7127.73,96.47,TRADE
VIC1,"2007/07/10 13:30:00",7191.07,97.12,TRADE
VIC1,"2007/07/10 14:00:00",7077.59,91.58,TRADE
VIC1,"2007/07/10 14:30:00",7029.3,91.22,TRADE
VIC1,"2007/07/10 15:00:00",6933.85,86.12,TRADE
VIC1,"2007/07/10 15:30:00",6873.24,77.72,TRADE
VIC1,"2007/07/10 16:00:00",6874.64,77.22,TRADE
VIC1,"2007/07/10 16:30:00",6859.96,80.72,TRADE
VIC1,"2007/07/10 17:00:00",7054.15,78.7,TRADE
VIC1,"2007/07/10 17:30:00",7330.8,98.86,TRADE
VIC1,"2007/07/10 18:00:00",7743.94,118.84,TRADE
VIC1,"2007/07/10 18:30:00",7804.36,123.29,TRADE
VIC1,"2007/07/10 19:00:00",7663.6,110.75,TRADE
VIC1,"2007/07/10 19:30:00",7480.93,94.23,TRADE
VIC1,"2007/07/10 20:00:00",7352.28,94.61,TRADE
VIC1,"2007/07/10 20:30:00",7219.63,94.18,TRADE
VIC1,"2007/07/10 21:00:00",7119.96,95.28,TRADE
VIC1,"2007/07/10 21:30:00",6891.42,92.87,TRADE
VIC1,"2007/07/10 22:00:00",6675.34,84.58,TRADE
VIC1,"2007/07/10 22:30:00",6431.87,94.42,TRADE
VIC1,"2007/07/10 23:00:00",6189.7,74.87,TRADE
VIC1,"2007/07/10 23:30:00",6447.18,78.73,TRADE
VIC1,"2007/07/11 00:00:00",6228.04,64.85,TRADE
VIC1,"2007/07/11 00:30:00",6033.8,54.58,TRADE
VIC1,"2007/07/11 01:00:00",5853.42,45.04,TRADE
VIC1,"2007/07/11 01:30:00",6206.58,68.62,TRADE
VIC1,"2007/07/11 02:00:00",6044.32,65.24,TRADE
VIC1,"2007/07/11 02:30:00",5851.72,35.6,TRADE
VIC1,"2007/07/11 03:00:00",5692.04,30.28,TRADE
VIC1,"2007/07/11 03:30:00",5527.5,25.82,TRADE
VIC1,"2007/07/11 04:00:00",5436.41,22.28,TRADE
VIC1,"2007/07/11 04:30:00",5360.73,20.44,TRADE
VIC1,"2007/07/11 05:00:00",5365.93,26.71,TRADE
VIC1,"2007/07/11 05:30:00",5460.06,28.97,TRADE
VIC1,"2007/07/11 06:00:00",5643.14,37.39,TRADE
VIC1,"2007/07/11 06:30:00",6051.89,56.91,TRADE
VIC1,"2007/07/11 07:00:00",6475.33,85.89,TRADE
VIC1,"2007/07/11 07:30:00",6683.66,82.05,TRADE
VIC1,"2007/07/11 08:00:00",7034.86,94.94,TRADE
VIC1,"2007/07/11 08:30:00",7288.31,96.93,TRADE
VIC1,"2007/07/11 09:00:00",7429.34,97.1,TRADE
VIC1,"2007/07/11 09:30:00",7505.89,97.86,TRADE
VIC1,"2007/07/11 10:00:00",7405.29,97.12,TRADE
VIC1,"2007/07/11 10:30:00",7335.55,96.79,TRADE
VIC1,"2007/07/11 11:00:00",7251,95.2,TRADE
VIC1,"2007/07/11 11:30:00",7179.58,93.05,TRADE
VIC1,"2007/07/11 12:00:00",7084.69,91.35,TRADE
VIC1,"2007/07/11 12:30:00",6944.65,84.48,TRADE
VIC1,"2007/07/11 13:00:00",6937.01,95.29,TRADE
VIC1,"2007/07/11 13:30:00",7076.54,115.63,TRADE
VIC1,"2007/07/11 14:00:00",7004,92.35,TRADE
VIC1,"2007/07/11 14:30:00",7002.16,102.87,TRADE
VIC1,"2007/07/11 15:00:00",6971.93,105.78,TRADE
VIC1,"2007/07/11 15:30:00",6900.29,97.17,TRADE
VIC1,"2007/07/11 16:00:00",6871.71,88.55,TRADE
VIC1,"2007/07/11 16:30:00",6842.79,78.25,TRADE
VIC1,"2007/07/11 17:00:00",6963.98,88.08,TRADE
VIC1,"2007/07/11 17:30:00",7253.74,97.42,TRADE
VIC1,"2007/07/11 18:00:00",7608.23,118.91,TRADE
VIC1,"2007/07/11 18:30:00",7652.77,103.44,TRADE
VIC1,"2007/07/11 19:00:00",7512.07,112.69,TRADE
VIC1,"2007/07/11 19:30:00",7349.02,96.16,TRADE
VIC1,"2007/07/11 20:00:00",7205.72,94.92,TRADE
VIC1,"2007/07/11 20:30:00",7067.08,96.29,TRADE
VIC1,"2007/07/11 21:00:00",6937.44,95.9,TRADE
VIC1,"2007/07/11 21:30:00",6741.02,92.26,TRADE
VIC1,"2007/07/11 22:00:00",6555.8,88.05,TRADE
VIC1,"2007/07/11 22:30:00",6318.67,109.92,TRADE
VIC1,"2007/07/11 23:00:00",6083.49,77.34,TRADE
VIC1,"2007/07/11 23:30:00",6332.69,98.3,TRADE
VIC1,"2007/07/12 00:00:00",6130.52,94.35,TRADE
VIC1,"2007/07/12 00:30:00",5958.7,78.38,TRADE
VIC1,"2007/07/12 01:00:00",5829.05,46.22,TRADE
VIC1,"2007/07/12 01:30:00",6178.1,96.66,TRADE
VIC1,"2007/07/12 02:00:00",6002.75,78.22,TRADE
VIC1,"2007/07/12 02:30:00",5804.43,65.41,TRADE
VIC1,"2007/07/12 03:00:00",5637.05,31.25,TRADE
VIC1,"2007/07/12 03:30:00",5464.84,30.09,TRADE
VIC1,"2007/07/12 04:00:00",5374.04,27.7,TRADE
VIC1,"2007/07/12 04:30:00",5282.56,23.81,TRADE
VIC1,"2007/07/12 05:00:00",5264.36,29.63,TRADE
VIC1,"2007/07/12 05:30:00",5375.25,32.76,TRADE
VIC1,"2007/07/12 06:00:00",5532.84,43.7,TRADE
VIC1,"2007/07/12 06:30:00",5953.93,70.51,TRADE
VIC1,"2007/07/12 07:00:00",6332.54,110.7,TRADE
VIC1,"2007/07/12 07:30:00",6568.73,89.42,TRADE
VIC1,"2007/07/12 08:00:00",6886.06,97.4,TRADE
VIC1,"2007/07/12 08:30:00",7161.13,99.47,TRADE
VIC1,"2007/07/12 09:00:00",7233.09,99.4,TRADE
VIC1,"2007/07/12 09:30:00",7314.36,100.12,TRADE
VIC1,"2007/07/12 10:00:00",7272.33,98.97,TRADE
VIC1,"2007/07/12 10:30:00",7180.47,97.27,TRADE
VIC1,"2007/07/12 11:00:00",7070.44,93.62,TRADE
VIC1,"2007/07/12 11:30:00",7029.83,85.62,TRADE
VIC1,"2007/07/12 12:00:00",6959.04,98.27,TRADE
VIC1,"2007/07/12 12:30:00",6952.52,98.5,TRADE
VIC1,"2007/07/12 13:00:00",6951.66,103.39,TRADE
VIC1,"2007/07/12 13:30:00",7055.06,98.06,TRADE
VIC1,"2007/07/12 14:00:00",7064.72,93.05,TRADE
VIC1,"2007/07/12 14:30:00",7023.53,99.27,TRADE
VIC1,"2007/07/12 15:00:00",7030.7,100.95,TRADE
VIC1,"2007/07/12 15:30:00",6999.82,97.98,TRADE
VIC1,"2007/07/12 16:00:00",7017.67,96.67,TRADE
VIC1,"2007/07/12 16:30:00",6969.61,76.99,TRADE
VIC1,"2007/07/12 17:00:00",7040.67,79.45,TRADE
VIC1,"2007/07/12 17:30:00",7280.28,92.1,TRADE
VIC1,"2007/07/12 18:00:00",7628.26,112.54,TRADE
VIC1,"2007/07/12 18:30:00",7683.63,105.11,TRADE
VIC1,"2007/07/12 19:00:00",7568.15,111.51,TRADE
VIC1,"2007/07/12 19:30:00",7355.02,104.02,TRADE
VIC1,"2007/07/12 20:00:00",7220.29,109.64,TRADE
VIC1,"2007/07/12 20:30:00",7045.56,130.89,TRADE
VIC1,"2007/07/12 21:00:00",6897.72,105.62,TRADE
VIC1,"2007/07/12 21:30:00",6726.93,102.2,TRADE
VIC1,"2007/07/12 22:00:00",6475.43,93.24,TRADE
VIC1,"2007/07/12 22:30:00",6320.68,123.49,TRADE
VIC1,"2007/07/12 23:00:00",6099.67,108.07,TRADE
VIC1,"2007/07/12 23:30:00",6325.5,119.06,TRADE
VIC1,"2007/07/13 00:00:00",6120,123.63,TRADE
VIC1,"2007/07/13 00:30:00",5936.1,102.18,TRADE
VIC1,"2007/07/13 01:00:00",5811.31,98.85,TRADE
VIC1,"2007/07/13 01:30:00",6105.21,108.31,TRADE
VIC1,"2007/07/13 02:00:00",5953.54,100.46,TRADE
VIC1,"2007/07/13 02:30:00",5739.9,77.78,TRADE
VIC1,"2007/07/13 03:00:00",5556.23,63.29,TRADE
VIC1,"2007/07/13 03:30:00",5415.94,64.98,TRADE
VIC1,"2007/07/13 04:00:00",5315.83,32.08,TRADE
VIC1,"2007/07/13 04:30:00",5239.96,30.99,TRADE
VIC1,"2007/07/13 05:00:00",5232.16,31.16,TRADE
VIC1,"2007/07/13 05:30:00",5315.25,40.08,TRADE
VIC1,"2007/07/13 06:00:00",5484.53,51.61,TRADE
VIC1,"2007/07/13 06:30:00",5859.6,71.11,TRADE
VIC1,"2007/07/13 07:00:00",6292.17,109.71,TRADE
VIC1,"2007/07/13 07:30:00",6515.46,114.15,TRADE
VIC1,"2007/07/13 08:00:00",6840.66,126.04,TRADE
VIC1,"2007/07/13 08:30:00",7119.78,152.04,TRADE
VIC1,"2007/07/13 09:00:00",7204.74,141.78,TRADE
VIC1,"2007/07/13 09:30:00",7326.24,133.87,TRADE
VIC1,"2007/07/13 10:00:00",7227.35,113.33,TRADE
VIC1,"2007/07/13 10:30:00",7190.89,122.42,TRADE
VIC1,"2007/07/13 11:00:00",7107.15,102.38,TRADE
VIC1,"2007/07/13 11:30:00",7065.51,101.43,TRADE
VIC1,"2007/07/13 12:00:00",7028.83,102.73,TRADE
VIC1,"2007/07/13 12:30:00",6975.3,101.52,TRADE
VIC1,"2007/07/13 13:00:00",6963.82,100.87,TRADE
VIC1,"2007/07/13 13:30:00",7057.75,101.28,TRADE
VIC1,"2007/07/13 14:00:00",7078.08,101.34,TRADE
VIC1,"2007/07/13 14:30:00",7045.78,101.19,TRADE
VIC1,"2007/07/13 15:00:00",6988.16,100.89,TRADE
VIC1,"2007/07/13 15:30:00",6720.44,96.35,TRADE
VIC1,"2007/07/13 16:00:00",6702.13,97.54,TRADE
VIC1,"2007/07/13 16:30:00",6936.6,101.59,TRADE
VIC1,"2007/07/13 17:00:00",7057.31,118.29,TRADE
VIC1,"2007/07/13 17:30:00",7196.72,136.18,TRADE
VIC1,"2007/07/13 18:00:00",7523.61,289.61,TRADE
VIC1,"2007/07/13 18:30:00",7545.66,317.98,TRADE
VIC1,"2007/07/13 19:00:00",7383.32,276.68,TRADE
VIC1,"2007/07/13 19:30:00",7236.74,150.08,TRADE
VIC1,"2007/07/13 20:00:00",7076.66,130.39,TRADE
VIC1,"2007/07/13 20:30:00",6947.1,124.81,TRADE
VIC1,"2007/07/13 21:00:00",6859.46,102.21,TRADE
VIC1,"2007/07/13 21:30:00",6661.1,94.06,TRADE
VIC1,"2007/07/13 22:00:00",6548.37,93.33,TRADE
VIC1,"2007/07/13 22:30:00",6391.31,116.18,TRADE
VIC1,"2007/07/13 23:00:00",6224.34,110.18,TRADE
VIC1,"2007/07/13 23:30:00",6470.48,118.48,TRADE
VIC1,"2007/07/14 00:00:00",6316.84,100.7,TRADE
VIC1,"2007/07/14 00:30:00",6094.96,81.24,TRADE
VIC1,"2007/07/14 01:00:00",5926.44,64.2,TRADE
VIC1,"2007/07/14 01:30:00",6224.06,97.7,TRADE
VIC1,"2007/07/14 02:00:00",6023.23,57.27,TRADE
VIC1,"2007/07/14 02:30:00",5825.08,57.01,TRADE
VIC1,"2007/07/14 03:00:00",5594.36,31.77,TRADE
VIC1,"2007/07/14 03:30:00",5452.23,28.26,TRADE
VIC1,"2007/07/14 04:00:00",5316.04,21.92,TRADE
VIC1,"2007/07/14 04:30:00",5196.39,19.25,TRADE
VIC1,"2007/07/14 05:00:00",5146.77,19.65,TRADE
VIC1,"2007/07/14 05:30:00",5189.66,22.3,TRADE
VIC1,"2007/07/14 06:00:00",5225.06,27.61,TRADE
VIC1,"2007/07/14 06:30:00",5369.27,34.32,TRADE
VIC1,"2007/07/14 07:00:00",5466.18,35.96,TRADE
VIC1,"2007/07/14 07:30:00",5540.88,40.62,TRADE
VIC1,"2007/07/14 08:00:00",5703.66,58.49,TRADE
VIC1,"2007/07/14 08:30:00",5997.27,80.1,TRADE
VIC1,"2007/07/14 09:00:00",6190.24,91.13,TRADE
VIC1,"2007/07/14 09:30:00",6383.28,98.92,TRADE
VIC1,"2007/07/14 10:00:00",6355.19,88.68,TRADE
VIC1,"2007/07/14 10:30:00",6311.42,74.81,TRADE
VIC1,"2007/07/14 11:00:00",6296.94,69.42,TRADE
VIC1,"2007/07/14 11:30:00",6271.4,65.82,TRADE
VIC1,"2007/07/14 12:00:00",6178.06,63.28,TRADE
VIC1,"2007/07/14 12:30:00",6133.39,58.03,TRADE
VIC1,"2007/07/14 13:00:00",6102.15,48.63,TRADE
VIC1,"2007/07/14 13:30:00",6140.35,52.49,TRADE
VIC1,"2007/07/14 14:00:00",6063.5,53.88,TRADE
VIC1,"2007/07/14 14:30:00",5993.65,44.13,TRADE
VIC1,"2007/07/14 15:00:00",5916.04,42.2,TRADE
VIC1,"2007/07/14 15:30:00",5926.83,42.29,TRADE
VIC1,"2007/07/14 16:00:00",5926.67,44.56,TRADE
VIC1,"2007/07/14 16:30:00",5951.71,49.39,TRADE
VIC1,"2007/07/14 17:00:00",6120.78,72.85,TRADE
VIC1,"2007/07/14 17:30:00",6379.21,100.07,TRADE
VIC1,"2007/07/14 18:00:00",6826.84,144.26,TRADE
VIC1,"2007/07/14 18:30:00",6961.78,189.87,TRADE
VIC1,"2007/07/14 19:00:00",6883.59,148.16,TRADE
VIC1,"2007/07/14 19:30:00",6757.05,111.98,TRADE
VIC1,"2007/07/14 20:00:00",6584.43,102.82,TRADE
VIC1,"2007/07/14 20:30:00",6499.7,105.6,TRADE
VIC1,"2007/07/14 21:00:00",6405.92,95.86,TRADE
VIC1,"2007/07/14 21:30:00",6304.9,93.32,TRADE
VIC1,"2007/07/14 22:00:00",6144.11,81.72,TRADE
VIC1,"2007/07/14 22:30:00",6073.89,84.77,TRADE
VIC1,"2007/07/14 23:00:00",5966.96,62.35,TRADE
VIC1,"2007/07/14 23:30:00",6140.11,89.07,TRADE
VIC1,"2007/07/15 00:00:00",6033.24,58.02,TRADE
VIC1,"2007/07/15 00:30:00",5936.01,68.54,TRADE
VIC1,"2007/07/15 01:00:00",5798.48,43.58,TRADE
VIC1,"2007/07/15 01:30:00",6124.23,86.05,TRADE
VIC1,"2007/07/15 02:00:00",5927.22,43.73,TRADE
VIC1,"2007/07/15 02:30:00",5693.24,49,TRADE
VIC1,"2007/07/15 03:00:00",5516.02,32.09,TRADE
VIC1,"2007/07/15 03:30:00",5365.79,32.04,TRADE
VIC1,"2007/07/15 04:00:00",5244.64,31.38,TRADE
VIC1,"2007/07/15 04:30:00",5125.13,29.33,TRADE
VIC1,"2007/07/15 05:00:00",5049.77,27.12,TRADE
VIC1,"2007/07/15 05:30:00",5021.34,26.75,TRADE
VIC1,"2007/07/15 06:00:00",5018.44,28.09,TRADE
VIC1,"2007/07/15 06:30:00",5100.5,29.78,TRADE
VIC1,"2007/07/15 07:00:00",5118.2,29.81,TRADE
VIC1,"2007/07/15 07:30:00",5080.73,37.19,TRADE
VIC1,"2007/07/15 08:00:00",5199.8,41.49,TRADE
VIC1,"2007/07/15 08:30:00",5449.18,49.75,TRADE
VIC1,"2007/07/15 09:00:00",5673.15,50.01,TRADE
VIC1,"2007/07/15 09:30:00",5831.33,68.06,TRADE
VIC1,"2007/07/15 10:00:00",5938.65,85.7,TRADE
VIC1,"2007/07/15 10:30:00",5949.62,84.96,TRADE
VIC1,"2007/07/15 11:00:00",5989.58,72.17,TRADE
VIC1,"2007/07/15 11:30:00",5911.86,54.53,TRADE
VIC1,"2007/07/15 12:00:00",5909.92,57.87,TRADE
VIC1,"2007/07/15 12:30:00",5896.18,63.38,TRADE
VIC1,"2007/07/15 13:00:00",5844.93,54.27,TRADE
VIC1,"2007/07/15 13:30:00",5849.75,44.83,TRADE
VIC1,"2007/07/15 14:00:00",5827.67,44.73,TRADE
VIC1,"2007/07/15 14:30:00",5815,44.14,TRADE
VIC1,"2007/07/15 15:00:00",5813.82,45.24,TRADE
VIC1,"2007/07/15 15:30:00",5849.25,52.37,TRADE
VIC1,"2007/07/15 16:00:00",5852.64,53.18,TRADE
VIC1,"2007/07/15 16:30:00",5846.7,58.02,TRADE
VIC1,"2007/07/15 17:00:00",6041.38,86.4,TRADE
VIC1,"2007/07/15 17:30:00",6351.95,123.79,TRADE
VIC1,"2007/07/15 18:00:00",6834.21,182.27,TRADE
VIC1,"2007/07/15 18:30:00",7065.66,292.41,TRADE
VIC1,"2007/07/15 19:00:00",7031.55,271.15,TRADE
VIC1,"2007/07/15 19:30:00",6892.15,177.21,TRADE
VIC1,"2007/07/15 20:00:00",6802.56,146.07,TRADE
VIC1,"2007/07/15 20:30:00",6687.21,144.14,TRADE
VIC1,"2007/07/15 21:00:00",6623.47,127.41,TRADE
VIC1,"2007/07/15 21:30:00",6417.9,114.33,TRADE
VIC1,"2007/07/15 22:00:00",6234.05,85.37,TRADE
VIC1,"2007/07/15 22:30:00",5995.23,83.99,TRADE
VIC1,"2007/07/15 23:00:00",5771.56,53.43,TRADE
VIC1,"2007/07/15 23:30:00",5924.54,79.74,TRADE
VIC1,"2007/07/16 00:00:00",5823.72,58.88,TRADE
VIC1,"2007/07/16 00:30:00",5759.16,52.29,TRADE
VIC1,"2007/07/16 01:00:00",5609.33,52.11,TRADE
VIC1,"2007/07/16 01:30:00",5981.58,101.59,TRADE
VIC1,"2007/07/16 02:00:00",5817.31,67.84,TRADE
VIC1,"2007/07/16 02:30:00",5650.03,30.84,TRADE
VIC1,"2007/07/16 03:00:00",5510.59,29.33,TRADE
VIC1,"2007/07/16 03:30:00",5383.28,23.65,TRADE
VIC1,"2007/07/16 04:00:00",5284.41,21.61,TRADE
VIC1,"2007/07/16 04:30:00",5226.28,19.87,TRADE
VIC1,"2007/07/16 05:00:00",5258.19,23.83,TRADE
VIC1,"2007/07/16 05:30:00",5365.1,32.42,TRADE
VIC1,"2007/07/16 06:00:00",5569,40.63,TRADE
VIC1,"2007/07/16 06:30:00",5993.02,61.77,TRADE
VIC1,"2007/07/16 07:00:00",6440.35,92.95,TRADE
VIC1,"2007/07/16 07:30:00",6802.76,106.17,TRADE
VIC1,"2007/07/16 08:00:00",7190.38,142.16,TRADE
VIC1,"2007/07/16 08:30:00",7423.17,149.25,TRADE
VIC1,"2007/07/16 09:00:00",7459.14,146.35,TRADE
VIC1,"2007/07/16 09:30:00",7489.03,130.92,TRADE
VIC1,"2007/07/16 10:00:00",7417.57,125.07,TRADE
VIC1,"2007/07/16 10:30:00",7353.53,127.97,TRADE
VIC1,"2007/07/16 11:00:00",7276.04,118.89,TRADE
VIC1,"2007/07/16 11:30:00",7201.31,107.35,TRADE
VIC1,"2007/07/16 12:00:00",7132.25,97.05,TRADE
VIC1,"2007/07/16 12:30:00",7083.27,99.3,TRADE
VIC1,"2007/07/16 13:00:00",7012.7,94.1,TRADE
VIC1,"2007/07/16 13:30:00",7073.3,91.13,TRADE
VIC1,"2007/07/16 14:00:00",7053.85,90.49,TRADE
VIC1,"2007/07/16 14:30:00",6996.16,86.01,TRADE
VIC1,"2007/07/16 15:00:00",6942.01,80.02,TRADE
VIC1,"2007/07/16 15:30:00",6899.3,76.48,TRADE
VIC1,"2007/07/16 16:00:00",6908.52,78.65,TRADE
VIC1,"2007/07/16 16:30:00",6920.48,90.43,TRADE
VIC1,"2007/07/16 17:00:00",7089.69,112.05,TRADE
VIC1,"2007/07/16 17:30:00",7425.01,128.2,TRADE
VIC1,"2007/07/16 18:00:00",7832.99,273.33,TRADE
VIC1,"2007/07/16 18:30:00",7895,274.78,TRADE
VIC1,"2007/07/16 19:00:00",7779.04,248.94,TRADE
VIC1,"2007/07/16 19:30:00",7567.97,162.24,TRADE
VIC1,"2007/07/16 20:00:00",7413.79,147.63,TRADE
VIC1,"2007/07/16 20:30:00",7294.54,152.05,TRADE
VIC1,"2007/07/16 21:00:00",7149.2,147.87,TRADE
VIC1,"2007/07/16 21:30:00",6925.93,139.54,TRADE
VIC1,"2007/07/16 22:00:00",6657.46,122.31,TRADE
VIC1,"2007/07/16 22:30:00",6373.03,120.92,TRADE
VIC1,"2007/07/16 23:00:00",6140.89,79.29,TRADE
VIC1,"2007/07/16 23:30:00",6326.91,85.54,TRADE
VIC1,"2007/07/17 00:00:00",6133.98,67.38,TRADE
VIC1,"2007/07/17 00:30:00",6006.72,77.24,TRADE
VIC1,"2007/07/17 01:00:00",5856.23,80.42,TRADE
VIC1,"2007/07/17 01:30:00",6183.87,82.03,TRADE
VIC1,"2007/07/17 02:00:00",6035.87,60.59,TRADE
VIC1,"2007/07/17 02:30:00",5843.42,31.99,TRADE
VIC1,"2007/07/17 03:00:00",5682.06,29.04,TRADE
VIC1,"2007/07/17 03:30:00",5546.52,28.06,TRADE
VIC1,"2007/07/17 04:00:00",5415.86,25.91,TRADE
VIC1,"2007/07/17 04:30:00",5372.82,26.55,TRADE
VIC1,"2007/07/17 05:00:00",5366.59,26.91,TRADE
VIC1,"2007/07/17 05:30:00",5527.85,28.1,TRADE
VIC1,"2007/07/17 06:00:00",5713.07,52.34,TRADE
VIC1,"2007/07/17 06:30:00",6159.81,95.82,TRADE
VIC1,"2007/07/17 07:00:00",6611.19,162.96,TRADE
VIC1,"2007/07/17 07:30:00",6990.06,155.52,TRADE
VIC1,"2007/07/17 08:00:00",7408.22,267.81,TRADE
VIC1,"2007/07/17 08:30:00",7583.72,269.11,TRADE
VIC1,"2007/07/17 09:00:00",7617.49,163.35,TRADE
VIC1,"2007/07/17 09:30:00",7714.79,161.13,TRADE
VIC1,"2007/07/17 10:00:00",7764.99,158.93,TRADE
VIC1,"2007/07/17 10:30:00",7806.15,158.81,TRADE
VIC1,"2007/07/17 11:00:00",7862.05,161.51,TRADE
VIC1,"2007/07/17 11:30:00",7838.28,254.52,TRADE
VIC1,"2007/07/17 12:00:00",7839.79,160.9,TRADE
VIC1,"2007/07/17 12:30:00",7840.02,160.06,TRADE
VIC1,"2007/07/17 13:00:00",7819.83,161.81,TRADE
VIC1,"2007/07/17 13:30:00",7939.41,156.54,TRADE
VIC1,"2007/07/17 14:00:00",7956.8,136.98,TRADE
VIC1,"2007/07/17 14:30:00",7881.7,134.09,TRADE
VIC1,"2007/07/17 15:00:00",7805.74,135.68,TRADE
VIC1,"2007/07/17 15:30:00",7745.47,133.9,TRADE
VIC1,"2007/07/17 16:00:00",7813.24,138.44,TRADE
VIC1,"2007/07/17 16:30:00",7794.56,146.59,TRADE
VIC1,"2007/07/17 17:00:00",7845.04,141.82,TRADE
VIC1,"2007/07/17 17:30:00",8071.2,197.53,TRADE
VIC1,"2007/07/17 18:00:00",8348.93,325.87,TRADE
VIC1,"2007/07/17 18:30:00",8292.81,375.99,TRADE
VIC1,"2007/07/17 19:00:00",8063.11,304.42,TRADE
VIC1,"2007/07/17 19:30:00",7874.74,297.82,TRADE
VIC1,"2007/07/17 20:00:00",7744.68,277.48,TRADE
VIC1,"2007/07/17 20:30:00",7618.47,288.77,TRADE
VIC1,"2007/07/17 21:00:00",7428.77,173.63,TRADE
VIC1,"2007/07/17 21:30:00",7183.43,148,TRADE
VIC1,"2007/07/17 22:00:00",6939.57,135.44,TRADE
VIC1,"2007/07/17 22:30:00",6592.9,138.83,TRADE
VIC1,"2007/07/17 23:00:00",6365.4,92.08,TRADE
VIC1,"2007/07/17 23:30:00",6576.76,99.45,TRADE
VIC1,"2007/07/18 00:00:00",6385.59,90.04,TRADE
VIC1,"2007/07/18 00:30:00",6222.12,81.58,TRADE
VIC1,"2007/07/18 01:00:00",6115.66,93.37,TRADE
VIC1,"2007/07/18 01:30:00",6463.15,113.56,TRADE
VIC1,"2007/07/18 02:00:00",6296.09,64.89,TRADE
VIC1,"2007/07/18 02:30:00",6123.1,64.83,TRADE
VIC1,"2007/07/18 03:00:00",5905.28,85.23,TRADE
VIC1,"2007/07/18 03:30:00",5765.71,31.38,TRADE
VIC1,"2007/07/18 04:00:00",5634.07,31.4,TRADE
VIC1,"2007/07/18 04:30:00",5565.74,30.16,TRADE
VIC1,"2007/07/18 05:00:00",5562.3,29.63,TRADE
VIC1,"2007/07/18 05:30:00",5668.7,75.27,TRADE
VIC1,"2007/07/18 06:00:00",5905.93,90.88,TRADE
VIC1,"2007/07/18 06:30:00",6354.96,124.29,TRADE
VIC1,"2007/07/18 07:00:00",6812.86,146.87,TRADE
VIC1,"2007/07/18 07:30:00",7171.51,178.61,TRADE
VIC1,"2007/07/18 08:00:00",7593.84,309.8,TRADE
VIC1,"2007/07/18 08:30:00",7825.01,314.25,TRADE
VIC1,"2007/07/18 09:00:00",7808.93,213.95,TRADE
VIC1,"2007/07/18 09:30:00",7863.55,252.29,TRADE
VIC1,"2007/07/18 10:00:00",7797.17,206.83,TRADE
VIC1,"2007/07/18 10:30:00",7764.91,187.15,TRADE
VIC1,"2007/07/18 11:00:00",7717.66,185.24,TRADE
VIC1,"2007/07/18 11:30:00",7695.48,171.6,TRADE
VIC1,"2007/07/18 12:00:00",7628.79,142.44,TRADE
VIC1,"2007/07/18 12:30:00",7604.76,136.91,TRADE
VIC1,"2007/07/18 13:00:00",7574.43,117.2,TRADE
VIC1,"2007/07/18 13:30:00",7646.57,124.96,TRADE
VIC1,"2007/07/18 14:00:00",7651.81,130.32,TRADE
VIC1,"2007/07/18 14:30:00",7616.13,121.99,TRADE
VIC1,"2007/07/18 15:00:00",7553.32,113.84,TRADE
VIC1,"2007/07/18 15:30:00",7453.17,107.42,TRADE
VIC1,"2007/07/18 16:00:00",7395.31,109.45,TRADE
VIC1,"2007/07/18 16:30:00",7398.55,106.94,TRADE
VIC1,"2007/07/18 17:00:00",7534.13,109.36,TRADE
VIC1,"2007/07/18 17:30:00",7775.51,164.54,TRADE
VIC1,"2007/07/18 18:00:00",8102.43,314.94,TRADE
VIC1,"2007/07/18 18:30:00",8161.09,329.38,TRADE
VIC1,"2007/07/18 19:00:00",8016.66,307.48,TRADE
VIC1,"2007/07/18 19:30:00",7794.67,223.93,TRADE
VIC1,"2007/07/18 20:00:00",7678.19,173.18,TRADE
VIC1,"2007/07/18 20:30:00",7565.29,287.07,TRADE
VIC1,"2007/07/18 21:00:00",7368.7,159.66,TRADE
VIC1,"2007/07/18 21:30:00",7183.83,137.53,TRADE
VIC1,"2007/07/18 22:00:00",6956.25,125.18,TRADE
VIC1,"2007/07/18 22:30:00",6649.06,145.88,TRADE
VIC1,"2007/07/18 23:00:00",6387.99,132.47,TRADE
VIC1,"2007/07/18 23:30:00",6582.25,128.64,TRADE
VIC1,"2007/07/19 00:00:00",6382.01,133.72,TRADE
VIC1,"2007/07/19 00:30:00",6267.49,121,TRADE
VIC1,"2007/07/19 01:00:00",6098.65,100.45,TRADE
VIC1,"2007/07/19 01:30:00",6446.86,154.55,TRADE
VIC1,"2007/07/19 02:00:00",6288.14,107.34,TRADE
VIC1,"2007/07/19 02:30:00",6078.81,63.69,TRADE
VIC1,"2007/07/19 03:00:00",5912.28,104.16,TRADE
VIC1,"2007/07/19 03:30:00",5761.62,32.98,TRADE
VIC1,"2007/07/19 04:00:00",5647.39,31.72,TRADE
VIC1,"2007/07/19 04:30:00",5626.25,31.49,TRADE
VIC1,"2007/07/19 05:00:00",5601.26,32.31,TRADE
VIC1,"2007/07/19 05:30:00",5699.52,36.07,TRADE
VIC1,"2007/07/19 06:00:00",5899.09,49.56,TRADE
VIC1,"2007/07/19 06:30:00",6350.93,81.52,TRADE
VIC1,"2007/07/19 07:00:00",6865.16,130.99,TRADE
VIC1,"2007/07/19 07:30:00",7209.73,137.25,TRADE
VIC1,"2007/07/19 08:00:00",7587.17,233.52,TRADE
VIC1,"2007/07/19 08:30:00",7778.59,253.84,TRADE
VIC1,"2007/07/19 09:00:00",7754.18,162.86,TRADE
VIC1,"2007/07/19 09:30:00",7743.42,162.04,TRADE
VIC1,"2007/07/19 10:00:00",7702.41,134.31,TRADE
VIC1,"2007/07/19 10:30:00",7622.51,132.6,TRADE
VIC1,"2007/07/19 11:00:00",7520.76,117.74,TRADE
VIC1,"2007/07/19 11:30:00",7399.63,121.74,TRADE
VIC1,"2007/07/19 12:00:00",7361.25,110.79,TRADE
VIC1,"2007/07/19 12:30:00",7311.73,103.21,TRADE
VIC1,"2007/07/19 13:00:00",7254.46,108.07,TRADE
VIC1,"2007/07/19 13:30:00",7337.58,108.7,TRADE
VIC1,"2007/07/19 14:00:00",7316.34,101.41,TRADE
VIC1,"2007/07/19 14:30:00",7263.83,100.57,TRADE
VIC1,"2007/07/19 15:00:00",7216.47,93.33,TRADE
VIC1,"2007/07/19 15:30:00",7139.32,86.06,TRADE
VIC1,"2007/07/19 16:00:00",7099.85,91.13,TRADE
VIC1,"2007/07/19 16:30:00",7116.5,99.14,TRADE
VIC1,"2007/07/19 17:00:00",7283.62,101.83,TRADE
VIC1,"2007/07/19 17:30:00",7502.97,116.58,TRADE
VIC1,"2007/07/19 18:00:00",7841.32,237.25,TRADE
VIC1,"2007/07/19 18:30:00",7983.93,258.19,TRADE
VIC1,"2007/07/19 19:00:00",7913.45,250.29,TRADE
VIC1,"2007/07/19 19:30:00",7717.86,159.62,TRADE
VIC1,"2007/07/19 20:00:00",7537.7,154.36,TRADE
VIC1,"2007/07/19 20:30:00",7424.81,165.14,TRADE
VIC1,"2007/07/19 21:00:00",7312.52,157.24,TRADE
VIC1,"2007/07/19 21:30:00",7125.74,139.82,TRADE
VIC1,"2007/07/19 22:00:00",6878.9,117.33,TRADE
VIC1,"2007/07/19 22:30:00",6626.87,113.93,TRADE
VIC1,"2007/07/19 23:00:00",6366.45,94.47,TRADE
VIC1,"2007/07/19 23:30:00",6594.56,99.83,TRADE
VIC1,"2007/07/20 00:00:00",6386.93,82.48,TRADE
VIC1,"2007/07/20 00:30:00",6201.31,64.97,TRADE
VIC1,"2007/07/20 01:00:00",6043.77,64.57,TRADE
VIC1,"2007/07/20 01:30:00",6366.3,76.38,TRADE
VIC1,"2007/07/20 02:00:00",6204.83,56.03,TRADE
VIC1,"2007/07/20 02:30:00",6016.85,42.18,TRADE
VIC1,"2007/07/20 03:00:00",5872.87,31.7,TRADE
VIC1,"2007/07/20 03:30:00",5751.58,29.14,TRADE
VIC1,"2007/07/20 04:00:00",5649.95,26.3,TRADE
VIC1,"2007/07/20 04:30:00",5554.81,21.15,TRADE
VIC1,"2007/07/20 05:00:00",5558.08,25.99,TRADE
VIC1,"2007/07/20 05:30:00",5648.27,33.28,TRADE
VIC1,"2007/07/20 06:00:00",5853.7,33.47,TRADE
VIC1,"2007/07/20 06:30:00",6312.25,62.75,TRADE
VIC1,"2007/07/20 07:00:00",6774.51,88.44,TRADE
VIC1,"2007/07/20 07:30:00",7110.37,95.67,TRADE
VIC1,"2007/07/20 08:00:00",7496.63,119.73,TRADE
VIC1,"2007/07/20 08:30:00",7663.04,126.6,TRADE
VIC1,"2007/07/20 09:00:00",7687.62,127.6,TRADE
VIC1,"2007/07/20 09:30:00",7737.84,124.92,TRADE
VIC1,"2007/07/20 10:00:00",7706.65,111.75,TRADE
VIC1,"2007/07/20 10:30:00",7599.79,107.27,TRADE
VIC1,"2007/07/20 11:00:00",7531.61,103.29,TRADE
VIC1,"2007/07/20 11:30:00",7491.39,105.92,TRADE
VIC1,"2007/07/20 12:00:00",7409.83,96.04,TRADE
VIC1,"2007/07/20 12:30:00",7308.64,86.01,TRADE
VIC1,"2007/07/20 13:00:00",7236.2,78.27,TRADE
VIC1,"2007/07/20 13:30:00",7313.19,78.95,TRADE
VIC1,"2007/07/20 14:00:00",7243.48,75.94,TRADE
VIC1,"2007/07/20 14:30:00",7119.97,78.82,TRADE
VIC1,"2007/07/20 15:00:00",7039.35,73.13,TRADE
VIC1,"2007/07/20 15:30:00",7042.82,73.96,TRADE
VIC1,"2007/07/20 16:00:00",7026.12,74.42,TRADE
VIC1,"2007/07/20 16:30:00",7021.75,75.85,TRADE
VIC1,"2007/07/20 17:00:00",7117.41,84.88,TRADE
VIC1,"2007/07/20 17:30:00",7330.86,87.67,TRADE
VIC1,"2007/07/20 18:00:00",7680.74,115.86,TRADE
VIC1,"2007/07/20 18:30:00",7757.27,123.38,TRADE
VIC1,"2007/07/20 19:00:00",7601.52,123.62,TRADE
VIC1,"2007/07/20 19:30:00",7420.24,112.42,TRADE
VIC1,"2007/07/20 20:00:00",7285.94,105.16,TRADE
VIC1,"2007/07/20 20:30:00",7167.36,116.49,TRADE
VIC1,"2007/07/20 21:00:00",7063.32,99.08,TRADE
VIC1,"2007/07/20 21:30:00",6847.09,92.16,TRADE
VIC1,"2007/07/20 22:00:00",6650.98,81.54,TRADE
VIC1,"2007/07/20 22:30:00",6503.53,92.7,TRADE
VIC1,"2007/07/20 23:00:00",6338.52,75.19,TRADE
VIC1,"2007/07/20 23:30:00",6617.1,81.84,TRADE
VIC1,"2007/07/21 00:00:00",6438.23,63.81,TRADE
VIC1,"2007/07/21 00:30:00",6281.96,63.92,TRADE
VIC1,"2007/07/21 01:00:00",6111.79,62.59,TRADE
VIC1,"2007/07/21 01:30:00",6419.46,91.47,TRADE
VIC1,"2007/07/21 02:00:00",6209.98,43.44,TRADE
VIC1,"2007/07/21 02:30:00",5977.05,32.2,TRADE
VIC1,"2007/07/21 03:00:00",5790.45,29.9,TRADE
VIC1,"2007/07/21 03:30:00",5634.69,23.57,TRADE
VIC1,"2007/07/21 04:00:00",5509.92,18.56,TRADE
VIC1,"2007/07/21 04:30:00",5392.99,18.08,TRADE
VIC1,"2007/07/21 05:00:00",5383.15,19.2,TRADE
VIC1,"2007/07/21 05:30:00",5390.04,25.82,TRADE
VIC1,"2007/07/21 06:00:00",5462.01,28.05,TRADE
VIC1,"2007/07/21 06:30:00",5639.24,31.97,TRADE
VIC1,"2007/07/21 07:00:00",5689.08,32.42,TRADE
VIC1,"2007/07/21 07:30:00",5745.11,37.97,TRADE
VIC1,"2007/07/21 08:00:00",5961.27,49.37,TRADE
VIC1,"2007/07/21 08:30:00",6312.98,71.29,TRADE
VIC1,"2007/07/21 09:00:00",6568.92,78.14,TRADE
VIC1,"2007/07/21 09:30:00",6693.75,74.86,TRADE
VIC1,"2007/07/21 10:00:00",6744.91,82.82,TRADE
VIC1,"2007/07/21 10:30:00",6774.97,74.93,TRADE
VIC1,"2007/07/21 11:00:00",6733.26,74,TRADE
VIC1,"2007/07/21 11:30:00",6646.68,74.13,TRADE
VIC1,"2007/07/21 12:00:00",6478.34,55.45,TRADE
VIC1,"2007/07/21 12:30:00",6436.57,53.02,TRADE
VIC1,"2007/07/21 13:00:00",6307.44,44.13,TRADE
VIC1,"2007/07/21 13:30:00",6302.01,43.91,TRADE
VIC1,"2007/07/21 14:00:00",6237.79,41.93,TRADE
VIC1,"2007/07/21 14:30:00",6131.22,37.17,TRADE
VIC1,"2007/07/21 15:00:00",5980.52,29.94,TRADE
VIC1,"2007/07/21 15:30:00",6056.2,34.4,TRADE
VIC1,"2007/07/21 16:00:00",6031.41,37.83,TRADE
VIC1,"2007/07/21 16:30:00",6102.45,45.43,TRADE
VIC1,"2007/07/21 17:00:00",6250.13,72.45,TRADE
VIC1,"2007/07/21 17:30:00",6545.52,71.9,TRADE
VIC1,"2007/07/21 18:00:00",6985.37,88.78,TRADE
VIC1,"2007/07/21 18:30:00",7174.23,100.7,TRADE
VIC1,"2007/07/21 19:00:00",7105.41,99.06,TRADE
VIC1,"2007/07/21 19:30:00",6917.31,76.22,TRADE
VIC1,"2007/07/21 20:00:00",6798.7,73.09,TRADE
VIC1,"2007/07/21 20:30:00",6698.18,72.63,TRADE
VIC1,"2007/07/21 21:00:00",6625.29,73.35,TRADE
VIC1,"2007/07/21 21:30:00",6512.64,68.9,TRADE
VIC1,"2007/07/21 22:00:00",6395.16,57.43,TRADE
VIC1,"2007/07/21 22:30:00",6282.86,75.75,TRADE
VIC1,"2007/07/21 23:00:00",6187.07,79.48,TRADE
VIC1,"2007/07/21 23:30:00",6404.04,78.22,TRADE
VIC1,"2007/07/22 00:00:00",6279.65,58.95,TRADE
VIC1,"2007/07/22 00:30:00",6155.36,44.81,TRADE
VIC1,"2007/07/22 01:00:00",6022.58,38.45,TRADE
VIC1,"2007/07/22 01:30:00",6315.69,74,TRADE
VIC1,"2007/07/22 02:00:00",6128.52,32.74,TRADE
VIC1,"2007/07/22 02:30:00",5929.47,31.95,TRADE
VIC1,"2007/07/22 03:00:00",5743.57,30.9,TRADE
VIC1,"2007/07/22 03:30:00",5577.96,30.73,TRADE
VIC1,"2007/07/22 04:00:00",5437.14,27.8,TRADE
VIC1,"2007/07/22 04:30:00",5350.07,21.98,TRADE
VIC1,"2007/07/22 05:00:00",5290.16,19.34,TRADE
VIC1,"2007/07/22 05:30:00",5280.13,19.31,TRADE
VIC1,"2007/07/22 06:00:00",5284.69,21.6,TRADE
VIC1,"2007/07/22 06:30:00",5349.23,27.1,TRADE
VIC1,"2007/07/22 07:00:00",5385.8,25.45,TRADE
VIC1,"2007/07/22 07:30:00",5294.31,29.09,TRADE
VIC1,"2007/07/22 08:00:00",5450.22,34.22,TRADE
VIC1,"2007/07/22 08:30:00",5727.07,42.93,TRADE
VIC1,"2007/07/22 09:00:00",5954.11,54.73,TRADE
VIC1,"2007/07/22 09:30:00",6099.97,63.15,TRADE
VIC1,"2007/07/22 10:00:00",6171.45,60.45,TRADE
VIC1,"2007/07/22 10:30:00",6156.26,51.94,TRADE
VIC1,"2007/07/22 11:00:00",6126.03,46.53,TRADE
VIC1,"2007/07/22 11:30:00",6057.19,46.86,TRADE
VIC1,"2007/07/22 12:00:00",5993.37,45.16,TRADE
VIC1,"2007/07/22 12:30:00",5928.47,41.46,TRADE
VIC1,"2007/07/22 13:00:00",5842.98,42.07,TRADE
VIC1,"2007/07/22 13:30:00",5888.49,43.12,TRADE
VIC1,"2007/07/22 14:00:00",5796.67,39.26,TRADE
VIC1,"2007/07/22 14:30:00",5744.04,40.1,TRADE
VIC1,"2007/07/22 15:00:00",5706.72,37.65,TRADE
VIC1,"2007/07/22 15:30:00",5722.55,41.28,TRADE
VIC1,"2007/07/22 16:00:00",5781.25,54.2,TRADE
VIC1,"2007/07/22 16:30:00",5808.71,67.68,TRADE
VIC1,"2007/07/22 17:00:00",5995.82,64.55,TRADE
VIC1,"2007/07/22 17:30:00",6399.56,64.28,TRADE
VIC1,"2007/07/22 18:00:00",6914.03,116.85,TRADE
VIC1,"2007/07/22 18:30:00",7139.04,152.24,TRADE
VIC1,"2007/07/22 19:00:00",7052.54,148.38,TRADE
VIC1,"2007/07/22 19:30:00",6952.76,148.59,TRADE
VIC1,"2007/07/22 20:00:00",6856.75,143.12,TRADE
VIC1,"2007/07/22 20:30:00",6753.04,139.59,TRADE
VIC1,"2007/07/22 21:00:00",6696.82,109.57,TRADE
VIC1,"2007/07/22 21:30:00",6486.96,122.27,TRADE
VIC1,"2007/07/22 22:00:00",6319.78,116.02,TRADE
VIC1,"2007/07/22 22:30:00",6075.67,99.26,TRADE
VIC1,"2007/07/22 23:00:00",5843.34,67.18,TRADE
VIC1,"2007/07/22 23:30:00",5973.46,77.63,TRADE
VIC1,"2007/07/23 00:00:00",5845.01,73.51,TRADE
VIC1,"2007/07/23 00:30:00",5742.17,53.77,TRADE
VIC1,"2007/07/23 01:00:00",5663.66,41.15,TRADE
VIC1,"2007/07/23 01:30:00",6049.96,109.95,TRADE
VIC1,"2007/07/23 02:00:00",5924.77,74.61,TRADE
VIC1,"2007/07/23 02:30:00",5750.96,38.75,TRADE
VIC1,"2007/07/23 03:00:00",5592.73,32.18,TRADE
VIC1,"2007/07/23 03:30:00",5503.53,31.54,TRADE
VIC1,"2007/07/23 04:00:00",5354.38,30.35,TRADE
VIC1,"2007/07/23 04:30:00",5328.56,29.94,TRADE
VIC1,"2007/07/23 05:00:00",5344.31,30.02,TRADE
VIC1,"2007/07/23 05:30:00",5436.22,34.55,TRADE
VIC1,"2007/07/23 06:00:00",5670.69,39.27,TRADE
VIC1,"2007/07/23 06:30:00",6151.6,63.82,TRADE
VIC1,"2007/07/23 07:00:00",6638.56,97.39,TRADE
VIC1,"2007/07/23 07:30:00",6978.5,99.26,TRADE
VIC1,"2007/07/23 08:00:00",7382.54,125.98,TRADE
VIC1,"2007/07/23 08:30:00",7576.43,130.11,TRADE
VIC1,"2007/07/23 09:00:00",7517.78,121.64,TRADE
VIC1,"2007/07/23 09:30:00",7565.29,121.96,TRADE
VIC1,"2007/07/23 10:00:00",7492.1,107.96,TRADE
VIC1,"2007/07/23 10:30:00",7387.71,98.47,TRADE
VIC1,"2007/07/23 11:00:00",7300.24,97.93,TRADE
VIC1,"2007/07/23 11:30:00",7238.32,97.82,TRADE
VIC1,"2007/07/23 12:00:00",7138.87,91.9,TRADE
VIC1,"2007/07/23 12:30:00",7049.79,92.9,TRADE
VIC1,"2007/07/23 13:00:00",7008.32,87.51,TRADE
VIC1,"2007/07/23 13:30:00",7094.63,92.28,TRADE
VIC1,"2007/07/23 14:00:00",7084.82,94.4,TRADE
VIC1,"2007/07/23 14:30:00",7028.3,86.93,TRADE
VIC1,"2007/07/23 15:00:00",7021.09,94.69,TRADE
VIC1,"2007/07/23 15:30:00",6978.73,98.1,TRADE
VIC1,"2007/07/23 16:00:00",6997.91,102.19,TRADE
VIC1,"2007/07/23 16:30:00",7093.98,101.18,TRADE
VIC1,"2007/07/23 17:00:00",7301.92,104.81,TRADE
VIC1,"2007/07/23 17:30:00",7539.89,148.61,TRADE
VIC1,"2007/07/23 18:00:00",7871.4,230.9,TRADE
VIC1,"2007/07/23 18:30:00",7865.13,199.43,TRADE
VIC1,"2007/07/23 19:00:00",7663.23,157.19,TRADE
VIC1,"2007/07/23 19:30:00",7469.72,139.98,TRADE
VIC1,"2007/07/23 20:00:00",7335.07,136.94,TRADE
VIC1,"2007/07/23 20:30:00",7122.87,109.02,TRADE
VIC1,"2007/07/23 21:00:00",7015.75,102.88,TRADE
VIC1,"2007/07/23 21:30:00",6831.49,93.06,TRADE
VIC1,"2007/07/23 22:00:00",6562.58,70.66,TRADE
VIC1,"2007/07/23 22:30:00",6285.62,79.17,TRADE
VIC1,"2007/07/23 23:00:00",6026.64,63.04,TRADE
VIC1,"2007/07/23 23:30:00",6229.92,77.83,TRADE
VIC1,"2007/07/24 00:00:00",6071.01,70.76,TRADE
VIC1,"2007/07/24 00:30:00",5904.98,75.36,TRADE
VIC1,"2007/07/24 01:00:00",5760.76,63.82,TRADE
VIC1,"2007/07/24 01:30:00",6050.27,85.52,TRADE
VIC1,"2007/07/24 02:00:00",5927.85,64.69,TRADE
VIC1,"2007/07/24 02:30:00",5739.96,41.13,TRADE
VIC1,"2007/07/24 03:00:00",5578.35,31.65,TRADE
VIC1,"2007/07/24 03:30:00",5469.6,29.24,TRADE
VIC1,"2007/07/24 04:00:00",5313.73,27.98,TRADE
VIC1,"2007/07/24 04:30:00",5264.79,26.5,TRADE
VIC1,"2007/07/24 05:00:00",5270.85,27.81,TRADE
VIC1,"2007/07/24 05:30:00",5391.37,33.24,TRADE
VIC1,"2007/07/24 06:00:00",5595.3,43.45,TRADE
VIC1,"2007/07/24 06:30:00",6039.73,66.33,TRADE
VIC1,"2007/07/24 07:00:00",6488.77,81.89,TRADE
VIC1,"2007/07/24 07:30:00",6850.86,93.13,TRADE
VIC1,"2007/07/24 08:00:00",7190.48,120.18,TRADE
VIC1,"2007/07/24 08:30:00",7310.64,117.24,TRADE
VIC1,"2007/07/24 09:00:00",7256.37,97.8,TRADE
VIC1,"2007/07/24 09:30:00",7295.02,99.92,TRADE
VIC1,"2007/07/24 10:00:00",7196.56,97.92,TRADE
VIC1,"2007/07/24 10:30:00",7093.05,95.64,TRADE
VIC1,"2007/07/24 11:00:00",7010.23,95.24,TRADE
VIC1,"2007/07/24 11:30:00",6893.28,84.64,TRADE
VIC1,"2007/07/24 12:00:00",6852.82,88.21,TRADE
VIC1,"2007/07/24 12:30:00",6791.99,96.25,TRADE
VIC1,"2007/07/24 13:00:00",6715.92,94.88,TRADE
VIC1,"2007/07/24 13:30:00",6777.42,96.08,TRADE
VIC1,"2007/07/24 14:00:00",6708.74,93.29,TRADE
VIC1,"2007/07/24 14:30:00",6654.48,85.61,TRADE
VIC1,"2007/07/24 15:00:00",6593.54,79.72,TRADE
VIC1,"2007/07/24 15:30:00",6546.05,76.69,TRADE
VIC1,"2007/07/24 16:00:00",6528.27,76.22,TRADE
VIC1,"2007/07/24 16:30:00",6510.18,71.57,TRADE
VIC1,"2007/07/24 17:00:00",6620.92,67.76,TRADE
VIC1,"2007/07/24 17:30:00",6846.61,84.74,TRADE
VIC1,"2007/07/24 18:00:00",7247.39,107.58,TRADE
VIC1,"2007/07/24 18:30:00",7400.58,118.45,TRADE
VIC1,"2007/07/24 19:00:00",7330.23,119.88,TRADE
VIC1,"2007/07/24 19:30:00",7163.64,116.91,TRADE
VIC1,"2007/07/24 20:00:00",7090.08,104.06,TRADE
VIC1,"2007/07/24 20:30:00",6947.75,104.08,TRADE
VIC1,"2007/07/24 21:00:00",6788.31,114.72,TRADE
VIC1,"2007/07/24 21:30:00",6558.51,96.93,TRADE
VIC1,"2007/07/24 22:00:00",6339.79,86.06,TRADE
VIC1,"2007/07/24 22:30:00",6033.9,104.12,TRADE
VIC1,"2007/07/24 23:00:00",5805.91,60.51,TRADE
VIC1,"2007/07/24 23:30:00",6034.8,60.57,TRADE
VIC1,"2007/07/25 00:00:00",5902.04,47.5,TRADE
VIC1,"2007/07/25 00:30:00",5761.71,49.7,TRADE
VIC1,"2007/07/25 01:00:00",5606.28,41.37,TRADE
VIC1,"2007/07/25 01:30:00",5970.57,50.61,TRADE
VIC1,"2007/07/25 02:00:00",5830.39,49.85,TRADE
VIC1,"2007/07/25 02:30:00",5632.08,39.15,TRADE
VIC1,"2007/07/25 03:00:00",5445.82,28.7,TRADE
VIC1,"2007/07/25 03:30:00",5328.66,27.83,TRADE
VIC1,"2007/07/25 04:00:00",5227.81,27.1,TRADE
VIC1,"2007/07/25 04:30:00",5181.21,26.7,TRADE
VIC1,"2007/07/25 05:00:00",5128.31,26.81,TRADE
VIC1,"2007/07/25 05:30:00",5255.33,32.6,TRADE
VIC1,"2007/07/25 06:00:00",5426.9,39.86,TRADE
VIC1,"2007/07/25 06:30:00",5879.87,63.06,TRADE
VIC1,"2007/07/25 07:00:00",6358.81,82.83,TRADE
VIC1,"2007/07/25 07:30:00",6681.97,90.93,TRADE
VIC1,"2007/07/25 08:00:00",6985.14,108.05,TRADE
VIC1,"2007/07/25 08:30:00",7069.38,104.22,TRADE
VIC1,"2007/07/25 09:00:00",7008.63,95.36,TRADE
VIC1,"2007/07/25 09:30:00",6996,97.23,TRADE
VIC1,"2007/07/25 10:00:00",6913.67,94.7,TRADE
VIC1,"2007/07/25 10:30:00",6791.97,85.11,TRADE
VIC1,"2007/07/25 11:00:00",6737.26,75.28,TRADE
VIC1,"2007/07/25 11:30:00",6639.04,69.53,TRADE
VIC1,"2007/07/25 12:00:00",6613.27,63.74,TRADE
VIC1,"2007/07/25 12:30:00",6561.61,55.17,TRADE
VIC1,"2007/07/25 13:00:00",6530.53,52.4,TRADE
VIC1,"2007/07/25 13:30:00",6587.91,51.68,TRADE
VIC1,"2007/07/25 14:00:00",6563.6,50.55,TRADE
VIC1,"2007/07/25 14:30:00",6533.26,55.11,TRADE
VIC1,"2007/07/25 15:00:00",6471.02,55.73,TRADE
VIC1,"2007/07/25 15:30:00",6419.3,51.09,TRADE
VIC1,"2007/07/25 16:00:00",6407.44,44.7,TRADE
VIC1,"2007/07/25 16:30:00",6406.59,35.73,TRADE
VIC1,"2007/07/25 17:00:00",6526.83,40.17,TRADE
VIC1,"2007/07/25 17:30:00",6675.46,51.76,TRADE
VIC1,"2007/07/25 18:00:00",7069.47,84.01,TRADE
VIC1,"2007/07/25 18:30:00",7243.65,86.41,TRADE
VIC1,"2007/07/25 19:00:00",7146.9,84.22,TRADE
VIC1,"2007/07/25 19:30:00",7017.58,76.1,TRADE
VIC1,"2007/07/25 20:00:00",6869.49,72.34,TRADE
VIC1,"2007/07/25 20:30:00",6740.37,70.99,TRADE
VIC1,"2007/07/25 21:00:00",6637.18,72.35,TRADE
VIC1,"2007/07/25 21:30:00",6415.81,48.94,TRADE
VIC1,"2007/07/25 22:00:00",6229.09,46.47,TRADE
VIC1,"2007/07/25 22:30:00",5918.67,45.34,TRADE
VIC1,"2007/07/25 23:00:00",5766.98,39.68,TRADE
VIC1,"2007/07/25 23:30:00",5977.01,43.28,TRADE
VIC1,"2007/07/26 00:00:00",5862.13,41.02,TRADE
VIC1,"2007/07/26 00:30:00",5685.27,39.4,TRADE
VIC1,"2007/07/26 01:00:00",5536.84,38.38,TRADE
VIC1,"2007/07/26 01:30:00",5879.93,47.36,TRADE
VIC1,"2007/07/26 02:00:00",5688.89,38.14,TRADE
VIC1,"2007/07/26 02:30:00",5500.12,30.2,TRADE
VIC1,"2007/07/26 03:00:00",5316.12,28.65,TRADE
VIC1,"2007/07/26 03:30:00",5195.5,25.29,TRADE
VIC1,"2007/07/26 04:00:00",5069.75,19.74,TRADE
VIC1,"2007/07/26 04:30:00",5023.08,23.78,TRADE
VIC1,"2007/07/26 05:00:00",5024.29,26.16,TRADE
VIC1,"2007/07/26 05:30:00",5089.03,30.25,TRADE
VIC1,"2007/07/26 06:00:00",5287.39,34.82,TRADE
VIC1,"2007/07/26 06:30:00",5730.89,60.15,TRADE
VIC1,"2007/07/26 07:00:00",6123.98,86.15,TRADE
VIC1,"2007/07/26 07:30:00",6502.3,93.39,TRADE
VIC1,"2007/07/26 08:00:00",6845.62,102.04,TRADE
VIC1,"2007/07/26 08:30:00",6958.73,95.54,TRADE
VIC1,"2007/07/26 09:00:00",6949.57,92.94,TRADE
VIC1,"2007/07/26 09:30:00",7003.17,94.93,TRADE
VIC1,"2007/07/26 10:00:00",6964.43,83.91,TRADE
VIC1,"2007/07/26 10:30:00",6877.41,80.92,TRADE
VIC1,"2007/07/26 11:00:00",6835.37,78.73,TRADE
VIC1,"2007/07/26 11:30:00",6828.97,75.63,TRADE
VIC1,"2007/07/26 12:00:00",6792.75,59.09,TRADE
VIC1,"2007/07/26 12:30:00",6732.35,63.95,TRADE
VIC1,"2007/07/26 13:00:00",6671.03,57.39,TRADE
VIC1,"2007/07/26 13:30:00",6740,59.39,TRADE
VIC1,"2007/07/26 14:00:00",6693.02,62.38,TRADE
VIC1,"2007/07/26 14:30:00",6630.62,57.34,TRADE
VIC1,"2007/07/26 15:00:00",6606.8,53.08,TRADE
VIC1,"2007/07/26 15:30:00",6558.84,51.06,TRADE
VIC1,"2007/07/26 16:00:00",6460.64,45.36,TRADE
VIC1,"2007/07/26 16:30:00",6467.86,41.75,TRADE
VIC1,"2007/07/26 17:00:00",6529.19,42.12,TRADE
VIC1,"2007/07/26 17:30:00",6667.33,56.84,TRADE
VIC1,"2007/07/26 18:00:00",7050.17,82.71,TRADE
VIC1,"2007/07/26 18:30:00",7228.06,91,TRADE
VIC1,"2007/07/26 19:00:00",7122.63,91.38,TRADE
VIC1,"2007/07/26 19:30:00",6978.88,78.25,TRADE
VIC1,"2007/07/26 20:00:00",6881.75,75.06,TRADE
VIC1,"2007/07/26 20:30:00",6778.52,69.46,TRADE
VIC1,"2007/07/26 21:00:00",6644.28,74.47,TRADE
VIC1,"2007/07/26 21:30:00",6478.93,57.87,TRADE
VIC1,"2007/07/26 22:00:00",6261.06,47.91,TRADE
VIC1,"2007/07/26 22:30:00",6030.48,47.55,TRADE
VIC1,"2007/07/26 23:00:00",5866.8,40.56,TRADE
VIC1,"2007/07/26 23:30:00",6087.42,48.11,TRADE
VIC1,"2007/07/27 00:00:00",5825.45,37.76,TRADE
VIC1,"2007/07/27 00:30:00",5663.28,37.18,TRADE
VIC1,"2007/07/27 01:00:00",5529.72,37.71,TRADE
VIC1,"2007/07/27 01:30:00",5824.82,42.31,TRADE
VIC1,"2007/07/27 02:00:00",5666.6,38.29,TRADE
VIC1,"2007/07/27 02:30:00",5478.12,30.09,TRADE
VIC1,"2007/07/27 03:00:00",5309.14,29.1,TRADE
VIC1,"2007/07/27 03:30:00",5177.3,28.01,TRADE
VIC1,"2007/07/27 04:00:00",5098.95,25.01,TRADE
VIC1,"2007/07/27 04:30:00",5024.46,21.52,TRADE
VIC1,"2007/07/27 05:00:00",5038.22,25.28,TRADE
VIC1,"2007/07/27 05:30:00",5130.35,30.47,TRADE
VIC1,"2007/07/27 06:00:00",5334.18,31.86,TRADE
VIC1,"2007/07/27 06:30:00",5775.67,43.4,TRADE
VIC1,"2007/07/27 07:00:00",6199.92,66.03,TRADE
VIC1,"2007/07/27 07:30:00",6546.48,71.27,TRADE
VIC1,"2007/07/27 08:00:00",6881.43,73.19,TRADE
VIC1,"2007/07/27 08:30:00",6945.51,79.5,TRADE
VIC1,"2007/07/27 09:00:00",6925.35,70.09,TRADE
VIC1,"2007/07/27 09:30:00",6907.91,68.61,TRADE
VIC1,"2007/07/27 10:00:00",6902.21,62.67,TRADE
VIC1,"2007/07/27 10:30:00",6867.36,66.05,TRADE
VIC1,"2007/07/27 11:00:00",6828.61,74.62,TRADE
VIC1,"2007/07/27 11:30:00",6789.95,77.13,TRADE
VIC1,"2007/07/27 12:00:00",6728.95,75,TRADE
VIC1,"2007/07/27 12:30:00",6657.47,73.99,TRADE
VIC1,"2007/07/27 13:00:00",6627.62,69.32,TRADE
VIC1,"2007/07/27 13:30:00",6685.65,68.42,TRADE
VIC1,"2007/07/27 14:00:00",6660.93,66.63,TRADE
VIC1,"2007/07/27 14:30:00",6663.4,66.43,TRADE
VIC1,"2007/07/27 15:00:00",6667.45,56.79,TRADE
VIC1,"2007/07/27 15:30:00",6583.66,54,TRADE
VIC1,"2007/07/27 16:00:00",6563.99,50.32,TRADE
VIC1,"2007/07/27 16:30:00",6542.15,47.88,TRADE
VIC1,"2007/07/27 17:00:00",6616.54,45.37,TRADE
VIC1,"2007/07/27 17:30:00",6803.43,53.82,TRADE
VIC1,"2007/07/27 18:00:00",7084.49,71.16,TRADE
VIC1,"2007/07/27 18:30:00",7192.02,74.2,TRADE
VIC1,"2007/07/27 19:00:00",7083.63,68.52,TRADE
VIC1,"2007/07/27 19:30:00",6928.62,60.1,TRADE
VIC1,"2007/07/27 20:00:00",6816.92,61.11,TRADE
VIC1,"2007/07/27 20:30:00",6686.7,71.45,TRADE
VIC1,"2007/07/27 21:00:00",6585.21,62.56,TRADE
VIC1,"2007/07/27 21:30:00",6418.34,48.7,TRADE
VIC1,"2007/07/27 22:00:00",6207.51,47.91,TRADE
VIC1,"2007/07/27 22:30:00",6035.66,55.93,TRADE
VIC1,"2007/07/27 23:00:00",5894.07,48.37,TRADE
VIC1,"2007/07/27 23:30:00",6157.47,55.25,TRADE
VIC1,"2007/07/28 00:00:00",5986.3,51.19,TRADE
VIC1,"2007/07/28 00:30:00",5743.43,43.34,TRADE
VIC1,"2007/07/28 01:00:00",5550.11,37.1,TRADE
VIC1,"2007/07/28 01:30:00",5889.51,45.85,TRADE
VIC1,"2007/07/28 02:00:00",5705.46,39.87,TRADE
VIC1,"2007/07/28 02:30:00",5494.47,31.57,TRADE
VIC1,"2007/07/28 03:00:00",5326.99,31.66,TRADE
VIC1,"2007/07/28 03:30:00",5169.08,28.52,TRADE
VIC1,"2007/07/28 04:00:00",5030.7,22.66,TRADE
VIC1,"2007/07/28 04:30:00",4928.66,22.1,TRADE
VIC1,"2007/07/28 05:00:00",4904.06,27.47,TRADE
VIC1,"2007/07/28 05:30:00",4940.71,28.8,TRADE
VIC1,"2007/07/28 06:00:00",4997.55,29.65,TRADE
VIC1,"2007/07/28 06:30:00",5148.13,33.4,TRADE
VIC1,"2007/07/28 07:00:00",5275.22,33.67,TRADE
VIC1,"2007/07/28 07:30:00",5326.63,34.91,TRADE
VIC1,"2007/07/28 08:00:00",5536.52,42.05,TRADE
VIC1,"2007/07/28 08:30:00",5807.05,49.57,TRADE
VIC1,"2007/07/28 09:00:00",5988.66,58.2,TRADE
VIC1,"2007/07/28 09:30:00",6155.41,59.72,TRADE
VIC1,"2007/07/28 10:00:00",6169.13,55.67,TRADE
VIC1,"2007/07/28 10:30:00",6110.51,47.03,TRADE
VIC1,"2007/07/28 11:00:00",6065.31,45.71,TRADE
VIC1,"2007/07/28 11:30:00",5978.17,45.9,TRADE
VIC1,"2007/07/28 12:00:00",6006.51,46.42,TRADE
VIC1,"2007/07/28 12:30:00",5912.49,44.99,TRADE
VIC1,"2007/07/28 13:00:00",5914.72,44.55,TRADE
VIC1,"2007/07/28 13:30:00",5909.3,42.02,TRADE
VIC1,"2007/07/28 14:00:00",5862.84,39.73,TRADE
VIC1,"2007/07/28 14:30:00",5741.45,34.76,TRADE
VIC1,"2007/07/28 15:00:00",5744.18,32.3,TRADE
VIC1,"2007/07/28 15:30:00",5709.7,35.71,TRADE
VIC1,"2007/07/28 16:00:00",5696.42,37.62,TRADE
VIC1,"2007/07/28 16:30:00",5737.42,37.15,TRADE
VIC1,"2007/07/28 17:00:00",5839.85,42.98,TRADE
VIC1,"2007/07/28 17:30:00",6116.64,49.99,TRADE
VIC1,"2007/07/28 18:00:00",6518.06,76.44,TRADE
VIC1,"2007/07/28 18:30:00",6709.53,94.7,TRADE
VIC1,"2007/07/28 19:00:00",6620.74,74.73,TRADE
VIC1,"2007/07/28 19:30:00",6471.52,61.77,TRADE
VIC1,"2007/07/28 20:00:00",6387.41,53.55,TRADE
VIC1,"2007/07/28 20:30:00",6266.77,45.95,TRADE
VIC1,"2007/07/28 21:00:00",6183.83,53.73,TRADE
VIC1,"2007/07/28 21:30:00",6092.98,45.71,TRADE
VIC1,"2007/07/28 22:00:00",5971.65,43.64,TRADE
VIC1,"2007/07/28 22:30:00",5848.8,44.45,TRADE
VIC1,"2007/07/28 23:00:00",5781.11,45.4,TRADE
VIC1,"2007/07/28 23:30:00",5978.03,46.29,TRADE
VIC1,"2007/07/29 00:00:00",5890.3,44.05,TRADE
VIC1,"2007/07/29 00:30:00",5783.97,42.23,TRADE
VIC1,"2007/07/29 01:00:00",5663.86,40.9,TRADE
VIC1,"2007/07/29 01:30:00",5977.38,48.68,TRADE
VIC1,"2007/07/29 02:00:00",5783.16,33.79,TRADE
VIC1,"2007/07/29 02:30:00",5559.03,31.93,TRADE
VIC1,"2007/07/29 03:00:00",5344.39,30.32,TRADE
VIC1,"2007/07/29 03:30:00",5221.47,29.14,TRADE
VIC1,"2007/07/29 04:00:00",5085.03,28.52,TRADE
VIC1,"2007/07/29 04:30:00",5004.21,24.92,TRADE
VIC1,"2007/07/29 05:00:00",4958.75,27.27,TRADE
VIC1,"2007/07/29 05:30:00",4885.4,25.34,TRADE
VIC1,"2007/07/29 06:00:00",4903.91,27.47,TRADE
VIC1,"2007/07/29 06:30:00",4985.47,27.92,TRADE
VIC1,"2007/07/29 07:00:00",5027.03,27.72,TRADE
VIC1,"2007/07/29 07:30:00",4988.02,25.68,TRADE
VIC1,"2007/07/29 08:00:00",5113.99,30.74,TRADE
VIC1,"2007/07/29 08:30:00",5384.83,39.82,TRADE
VIC1,"2007/07/29 09:00:00",5600.31,42.18,TRADE
VIC1,"2007/07/29 09:30:00",5770.36,42.2,TRADE
VIC1,"2007/07/29 10:00:00",5828.08,50.56,TRADE
VIC1,"2007/07/29 10:30:00",5857.27,49.12,TRADE
VIC1,"2007/07/29 11:00:00",5851.48,45.71,TRADE
VIC1,"2007/07/29 11:30:00",5804.09,41.24,TRADE
VIC1,"2007/07/29 12:00:00",5798.73,40.7,TRADE
VIC1,"2007/07/29 12:30:00",5763.76,40.34,TRADE
VIC1,"2007/07/29 13:00:00",5772.25,37.66,TRADE
VIC1,"2007/07/29 13:30:00",5860.68,38.72,TRADE
VIC1,"2007/07/29 14:00:00",5836.38,37.67,TRADE
VIC1,"2007/07/29 14:30:00",5781.65,35.3,TRADE
VIC1,"2007/07/29 15:00:00",5746.92,33.77,TRADE
VIC1,"2007/07/29 15:30:00",5733.89,34.83,TRADE
VIC1,"2007/07/29 16:00:00",5768.97,38.03,TRADE
VIC1,"2007/07/29 16:30:00",5726.06,39.88,TRADE
VIC1,"2007/07/29 17:00:00",5893.44,48.13,TRADE
VIC1,"2007/07/29 17:30:00",6212.62,63.81,TRADE
VIC1,"2007/07/29 18:00:00",6614.72,90.24,TRADE
VIC1,"2007/07/29 18:30:00",6847.2,100.12,TRADE
VIC1,"2007/07/29 19:00:00",6811.41,97.24,TRADE
VIC1,"2007/07/29 19:30:00",6721.77,93.13,TRADE
VIC1,"2007/07/29 20:00:00",6573.25,76.93,TRADE
VIC1,"2007/07/29 20:30:00",6492.2,88.25,TRADE
VIC1,"2007/07/29 21:00:00",6359.29,73.99,TRADE
VIC1,"2007/07/29 21:30:00",6192.94,71.7,TRADE
VIC1,"2007/07/29 22:00:00",5991.8,58.99,TRADE
VIC1,"2007/07/29 22:30:00",5841.65,40.34,TRADE
VIC1,"2007/07/29 23:00:00",5669.32,32.76,TRADE
VIC1,"2007/07/29 23:30:00",5834.47,34.22,TRADE
VIC1,"2007/07/30 00:00:00",5671.43,37.03,TRADE
VIC1,"2007/07/30 00:30:00",5615.63,36.23,TRADE
VIC1,"2007/07/30 01:00:00",5470.93,31,TRADE
VIC1,"2007/07/30 01:30:00",5838.45,44.79,TRADE
VIC1,"2007/07/30 02:00:00",5662.54,42.73,TRADE
VIC1,"2007/07/30 02:30:00",5474.73,31.77,TRADE
VIC1,"2007/07/30 03:00:00",5321.9,30.43,TRADE
VIC1,"2007/07/30 03:30:00",5161.22,29.25,TRADE
VIC1,"2007/07/30 04:00:00",5054.08,28.02,TRADE
VIC1,"2007/07/30 04:30:00",4981.1,27.7,TRADE
VIC1,"2007/07/30 05:00:00",5025.83,27.68,TRADE
VIC1,"2007/07/30 05:30:00",5115.19,31.96,TRADE
VIC1,"2007/07/30 06:00:00",5370.33,35.51,TRADE
VIC1,"2007/07/30 06:30:00",5843.51,52.92,TRADE
VIC1,"2007/07/30 07:00:00",6277.22,73.43,TRADE
VIC1,"2007/07/30 07:30:00",6653.41,82.38,TRADE
VIC1,"2007/07/30 08:00:00",7047.17,99.43,TRADE
VIC1,"2007/07/30 08:30:00",7207.02,101.42,TRADE
VIC1,"2007/07/30 09:00:00",7163.42,100.56,TRADE
VIC1,"2007/07/30 09:30:00",7249.01,101.86,TRADE
VIC1,"2007/07/30 10:00:00",7201.49,102.92,TRADE
VIC1,"2007/07/30 10:30:00",7173.78,103.26,TRADE
VIC1,"2007/07/30 11:00:00",7083.15,100.65,TRADE
VIC1,"2007/07/30 11:30:00",7012.32,86.5,TRADE
VIC1,"2007/07/30 12:00:00",6993.53,101.19,TRADE
VIC1,"2007/07/30 12:30:00",6949.79,100.25,TRADE
VIC1,"2007/07/30 13:00:00",6941.42,100.43,TRADE
VIC1,"2007/07/30 13:30:00",7022.01,107.67,TRADE
VIC1,"2007/07/30 14:00:00",6994.89,109.8,TRADE
VIC1,"2007/07/30 14:30:00",6954.35,116.27,TRADE
VIC1,"2007/07/30 15:00:00",6914.76,108.24,TRADE
VIC1,"2007/07/30 15:30:00",6840.3,94.67,TRADE
VIC1,"2007/07/30 16:00:00",6804,88.63,TRADE
VIC1,"2007/07/30 16:30:00",6851.27,91.53,TRADE
VIC1,"2007/07/30 17:00:00",6976.02,91.71,TRADE
VIC1,"2007/07/30 17:30:00",7160.01,111.79,TRADE
VIC1,"2007/07/30 18:00:00",7471.77,146.52,TRADE
VIC1,"2007/07/30 18:30:00",7582.87,191.14,TRADE
VIC1,"2007/07/30 19:00:00",7443.09,160.28,TRADE
VIC1,"2007/07/30 19:30:00",7226.37,159.57,TRADE
VIC1,"2007/07/30 20:00:00",7083.26,160.09,TRADE
VIC1,"2007/07/30 20:30:00",6924.21,137.09,TRADE
VIC1,"2007/07/30 21:00:00",6832.59,104.16,TRADE
VIC1,"2007/07/30 21:30:00",6603.13,93.52,TRADE
VIC1,"2007/07/30 22:00:00",6355.03,85.85,TRADE
VIC1,"2007/07/30 22:30:00",6164.37,88.84,TRADE
VIC1,"2007/07/30 23:00:00",5907.96,57.51,TRADE
VIC1,"2007/07/30 23:30:00",6166.9,61.7,TRADE
VIC1,"2007/07/31 00:00:00",5948.42,56.28,TRADE
VIC1,"2007/07/31 00:30:00",5787.11,55.64,TRADE
VIC1,"2007/07/31 01:00:00",5647.37,54.82,TRADE
VIC1,"2007/07/31 01:30:00",5983.83,57.35,TRADE
VIC1,"2007/07/31 02:00:00",5808.94,50.8,TRADE
VIC1,"2007/07/31 02:30:00",5622.24,52.3,TRADE
VIC1,"2007/07/31 03:00:00",5474.01,43.62,TRADE
VIC1,"2007/07/31 03:30:00",5297.3,30.72,TRADE
VIC1,"2007/07/31 04:00:00",5204.01,30.17,TRADE
VIC1,"2007/07/31 04:30:00",5155.87,29.83,TRADE
VIC1,"2007/07/31 05:00:00",5163.87,29.88,TRADE
VIC1,"2007/07/31 05:30:00",5263.4,35,TRADE
VIC1,"2007/07/31 06:00:00",5473.57,42.24,TRADE
VIC1,"2007/07/31 06:30:00",5961.04,66.06,TRADE
VIC1,"2007/07/31 07:00:00",6386.06,87.7,TRADE
VIC1,"2007/07/31 07:30:00",6763.68,95.38,TRADE
VIC1,"2007/07/31 08:00:00",7111.16,119.13,TRADE
VIC1,"2007/07/31 08:30:00",7240.65,103.42,TRADE
VIC1,"2007/07/31 09:00:00",7163.1,100.48,TRADE
VIC1,"2007/07/31 09:30:00",7229.07,99.76,TRADE
VIC1,"2007/07/31 10:00:00",7181.89,98.4,TRADE
VIC1,"2007/07/31 10:30:00",7085.3,97.49,TRADE
VIC1,"2007/07/31 11:00:00",7025.3,93.09,TRADE
VIC1,"2007/07/31 11:30:00",6940.56,83.78,TRADE
VIC1,"2007/07/31 12:00:00",6936.33,83.5,TRADE
VIC1,"2007/07/31 12:30:00",6910.18,84.99,TRADE
VIC1,"2007/07/31 13:00:00",6849.1,76.43,TRADE
VIC1,"2007/07/31 13:30:00",6894.73,78.07,TRADE
VIC1,"2007/07/31 14:00:00",6876.78,76.24,TRADE
VIC1,"2007/07/31 14:30:00",6789.88,67.63,TRADE
VIC1,"2007/07/31 15:00:00",6785.86,67.8,TRADE
VIC1,"2007/07/31 15:30:00",6735.25,65.14,TRADE
VIC1,"2007/07/31 16:00:00",6739.91,67.14,TRADE
VIC1,"2007/07/31 16:30:00",6791.64,67.76,TRADE
VIC1,"2007/07/31 17:00:00",6930.3,83.9,TRADE
VIC1,"2007/07/31 17:30:00",7175.44,97.03,TRADE
VIC1,"2007/07/31 18:00:00",7496.03,127.51,TRADE
VIC1,"2007/07/31 18:30:00",7624.47,143.49,TRADE
VIC1,"2007/07/31 19:00:00",7499.39,115.9,TRADE
VIC1,"2007/07/31 19:30:00",7293.77,106.69,TRADE
VIC1,"2007/07/31 20:00:00",7182.89,96.61,TRADE
VIC1,"2007/07/31 20:30:00",7016.99,95.35,TRADE
VIC1,"2007/07/31 21:00:00",6836.97,92.06,TRADE
VIC1,"2007/07/31 21:30:00",6637.02,85.85,TRADE
VIC1,"2007/07/31 22:00:00",6393,75.56,TRADE
VIC1,"2007/07/31 22:30:00",6078.62,85.55,TRADE
VIC1,"2007/07/31 23:00:00",5846.66,53.86,TRADE
VIC1,"2007/07/31 23:30:00",6065.14,59.3,TRADE
VIC1,"2007/08/01 00:00:00",5903.03,48.58,TRADE
