REGION,SETTLEMENTDATE,TOTALDEMAND,RRP,PERIODTYPE
TAS1,"2006/11/01 00:30:00",1071.86,29.7,TRADE
TAS1,"2006/11/01 01:00:00",1065.51,29.7,TRADE
TAS1,"2006/11/01 01:30:00",1036.56,29.7,TRADE
TAS1,"2006/11/01 02:00:00",1047.54,29.7,TRADE
TAS1,"2006/11/01 02:30:00",1046.55,29.7,TRADE
TAS1,"2006/11/01 03:00:00",1041.5,29.7,TRADE
TAS1,"2006/11/01 03:30:00",1042.22,29.7,TRADE
TAS1,"2006/11/01 04:00:00",1047.78,29.7,TRADE
TAS1,"2006/11/01 04:30:00",1069.52,29.7,TRADE
TAS1,"2006/11/01 05:00:00",1105.53,36.07,TRADE
TAS1,"2006/11/01 05:30:00",1176.03,33.57,TRADE
TAS1,"2006/11/01 06:00:00",1266.7,31.62,TRADE
TAS1,"2006/11/01 06:30:00",1364.38,40.14,TRADE
TAS1,"2006/11/01 07:00:00",1430.2,46.02,TRADE
TAS1,"2006/11/01 07:30:00",1408.27,37.5,TRADE
TAS1,"2006/11/01 08:00:00",1357.05,37.5,TRADE
TAS1,"2006/11/01 08:30:00",1320.53,37.5,TRADE
TAS1,"2006/11/01 09:00:00",1276.44,37.5,TRADE
TAS1,"2006/11/01 09:30:00",1231.01,37.5,TRADE
TAS1,"2006/11/01 10:00:00",1201.34,37.5,TRADE
TAS1,"2006/11/01 10:30:00",1204.27,37.5,TRADE
TAS1,"2006/11/01 11:00:00",1197.26,37.5,TRADE
TAS1,"2006/11/01 11:30:00",1182.12,37.72,TRADE
TAS1,"2006/11/01 12:00:00",1148.03,37.5,TRADE
TAS1,"2006/11/01 12:30:00",1164.76,40.46,TRADE
TAS1,"2006/11/01 13:00:00",1165.15,49.56,TRADE
TAS1,"2006/11/01 13:30:00",1154.03,42.96,TRADE
TAS1,"2006/11/01 14:00:00",1167.72,43.41,TRADE
TAS1,"2006/11/01 14:30:00",1179.73,43.69,TRADE
TAS1,"2006/11/01 15:00:00",1171.7,43.35,TRADE
TAS1,"2006/11/01 15:30:00",1174.35,39.62,TRADE
TAS1,"2006/11/01 16:00:00",1178.98,37.5,TRADE
TAS1,"2006/11/01 16:30:00",1201.78,37.5,TRADE
TAS1,"2006/11/01 17:00:00",1215.56,37.5,TRADE
TAS1,"2006/11/01 17:30:00",1222.27,37.5,TRADE
TAS1,"2006/11/01 18:00:00",1223.01,37.5,TRADE
TAS1,"2006/11/01 18:30:00",1216.03,37.5,TRADE
TAS1,"2006/11/01 19:00:00",1213.85,37.5,TRADE
TAS1,"2006/11/01 19:30:00",1248.79,37.5,TRADE
TAS1,"2006/11/01 20:00:00",1262.22,37.5,TRADE
TAS1,"2006/11/01 20:30:00",1259.21,37.5,TRADE
TAS1,"2006/11/01 21:00:00",1225.93,37.5,TRADE
TAS1,"2006/11/01 21:30:00",1178.9,37.5,TRADE
TAS1,"2006/11/01 22:00:00",1136.42,37.5,TRADE
TAS1,"2006/11/01 22:30:00",1076.31,37.5,TRADE
TAS1,"2006/11/01 23:00:00",1063.71,37.5,TRADE
TAS1,"2006/11/01 23:30:00",1039.2,29.7,TRADE
TAS1,"2006/11/02 00:00:00",1023.58,29.7,TRADE
TAS1,"2006/11/02 00:30:00",1015.33,29.7,TRADE
TAS1,"2006/11/02 01:00:00",1018.21,29.7,TRADE
TAS1,"2006/11/02 01:30:00",1020.98,29.7,TRADE
TAS1,"2006/11/02 02:00:00",1017.94,29.7,TRADE
TAS1,"2006/11/02 02:30:00",1016.75,29.7,TRADE
TAS1,"2006/11/02 03:00:00",1010.62,29.7,TRADE
TAS1,"2006/11/02 03:30:00",986.33,29.7,TRADE
TAS1,"2006/11/02 04:00:00",997.04,29.7,TRADE
TAS1,"2006/11/02 04:30:00",1022.72,28.8,TRADE
TAS1,"2006/11/02 05:00:00",1048.58,28.8,TRADE
TAS1,"2006/11/02 05:30:00",1125.53,31.94,TRADE
TAS1,"2006/11/02 06:00:00",1211.28,30.48,TRADE
TAS1,"2006/11/02 06:30:00",1319.32,32.32,TRADE
TAS1,"2006/11/02 07:00:00",1375.07,36.54,TRADE
TAS1,"2006/11/02 07:30:00",1397.84,35.76,TRADE
TAS1,"2006/11/02 08:00:00",1377.86,37,TRADE
TAS1,"2006/11/02 08:30:00",1360.35,47.98,TRADE
TAS1,"2006/11/02 09:00:00",1317.48,40.39,TRADE
TAS1,"2006/11/02 09:30:00",1272.27,36.34,TRADE
TAS1,"2006/11/02 10:00:00",1266.72,37.02,TRADE
TAS1,"2006/11/02 10:30:00",1255.53,35.14,TRADE
TAS1,"2006/11/02 11:00:00",1228.12,37.08,TRADE
TAS1,"2006/11/02 11:30:00",1206.8,40.72,TRADE
TAS1,"2006/11/02 12:00:00",1181.45,37.91,TRADE
TAS1,"2006/11/02 12:30:00",1168.95,39.42,TRADE
TAS1,"2006/11/02 13:00:00",1153.19,37.1,TRADE
TAS1,"2006/11/02 13:30:00",1152.22,39.18,TRADE
TAS1,"2006/11/02 14:00:00",1153.33,41.81,TRADE
TAS1,"2006/11/02 14:30:00",1166.27,42.58,TRADE
TAS1,"2006/11/02 15:00:00",1174.84,42.47,TRADE
TAS1,"2006/11/02 15:30:00",1176.75,42.52,TRADE
TAS1,"2006/11/02 16:00:00",1190.75,39.84,TRADE
TAS1,"2006/11/02 16:30:00",1211.42,37,TRADE
TAS1,"2006/11/02 17:00:00",1220.42,37,TRADE
TAS1,"2006/11/02 17:30:00",1208.15,37,TRADE
TAS1,"2006/11/02 18:00:00",1201.3,37,TRADE
TAS1,"2006/11/02 18:30:00",1182.35,37,TRADE
TAS1,"2006/11/02 19:00:00",1200.28,37,TRADE
TAS1,"2006/11/02 19:30:00",1236.36,37,TRADE
TAS1,"2006/11/02 20:00:00",1235.72,37,TRADE
TAS1,"2006/11/02 20:30:00",1240.07,37,TRADE
TAS1,"2006/11/02 21:00:00",1210.65,30.43,TRADE
TAS1,"2006/11/02 21:30:00",1162.89,31.31,TRADE
TAS1,"2006/11/02 22:00:00",1126.9,28.8,TRADE
TAS1,"2006/11/02 22:30:00",1085,28.8,TRADE
TAS1,"2006/11/02 23:00:00",1061.44,29.22,TRADE
TAS1,"2006/11/02 23:30:00",1038.97,31.71,TRADE
TAS1,"2006/11/03 00:00:00",1019.02,37,TRADE
TAS1,"2006/11/03 00:30:00",1021.2,28.84,TRADE
TAS1,"2006/11/03 01:00:00",1022.93,28.8,TRADE
TAS1,"2006/11/03 01:30:00",1006.85,28.8,TRADE
TAS1,"2006/11/03 02:00:00",1004.18,28.8,TRADE
TAS1,"2006/11/03 02:30:00",992.48,28.8,TRADE
TAS1,"2006/11/03 03:00:00",1002,28.8,TRADE
TAS1,"2006/11/03 03:30:00",1007.92,28.8,TRADE
TAS1,"2006/11/03 04:00:00",1013.42,28.8,TRADE
TAS1,"2006/11/03 04:30:00",1043.71,30.14,TRADE
TAS1,"2006/11/03 05:00:00",1078.07,28.8,TRADE
TAS1,"2006/11/03 05:30:00",1127.97,30.47,TRADE
TAS1,"2006/11/03 06:00:00",1190.78,32.09,TRADE
TAS1,"2006/11/03 06:30:00",1298.69,37.88,TRADE
TAS1,"2006/11/03 07:00:00",1330.33,40.42,TRADE
TAS1,"2006/11/03 07:30:00",1346.95,37,TRADE
TAS1,"2006/11/03 08:00:00",1316.3,37,TRADE
TAS1,"2006/11/03 08:30:00",1285.68,37,TRADE
TAS1,"2006/11/03 09:00:00",1255.27,37,TRADE
TAS1,"2006/11/03 09:30:00",1230.14,37,TRADE
TAS1,"2006/11/03 10:00:00",1212.22,37,TRADE
TAS1,"2006/11/03 10:30:00",1204.74,37,TRADE
TAS1,"2006/11/03 11:00:00",1188.2,37,TRADE
TAS1,"2006/11/03 11:30:00",1163.5,37,TRADE
TAS1,"2006/11/03 12:00:00",1159.56,37,TRADE
TAS1,"2006/11/03 12:30:00",1146.71,37,TRADE
TAS1,"2006/11/03 13:00:00",1137.22,37,TRADE
TAS1,"2006/11/03 13:30:00",1127.23,37,TRADE
TAS1,"2006/11/03 14:00:00",1125.14,37,TRADE
TAS1,"2006/11/03 14:30:00",1126.13,37,TRADE
TAS1,"2006/11/03 15:00:00",1133.13,37,TRADE
TAS1,"2006/11/03 15:30:00",1140.05,37,TRADE
TAS1,"2006/11/03 16:00:00",1161.82,37,TRADE
TAS1,"2006/11/03 16:30:00",1156.48,37,TRADE
TAS1,"2006/11/03 17:00:00",1154.31,39,TRADE
TAS1,"2006/11/03 17:30:00",1147.34,38.67,TRADE
TAS1,"2006/11/03 18:00:00",1149.74,39,TRADE
TAS1,"2006/11/03 18:30:00",1142.76,38.33,TRADE
TAS1,"2006/11/03 19:00:00",1154.85,37.33,TRADE
TAS1,"2006/11/03 19:30:00",1182.68,38.27,TRADE
TAS1,"2006/11/03 20:00:00",1200.21,39.53,TRADE
TAS1,"2006/11/03 20:30:00",1185.92,37.67,TRADE
TAS1,"2006/11/03 21:00:00",1165.45,28.8,TRADE
TAS1,"2006/11/03 21:30:00",1146.68,29.73,TRADE
TAS1,"2006/11/03 22:00:00",1112.46,36.9,TRADE
TAS1,"2006/11/03 22:30:00",1085.33,37.67,TRADE
TAS1,"2006/11/03 23:00:00",1054.94,38.18,TRADE
TAS1,"2006/11/03 23:30:00",1031.41,37.59,TRADE
TAS1,"2006/11/04 00:00:00",1016.89,37.36,TRADE
TAS1,"2006/11/04 00:30:00",998.56,37.31,TRADE
TAS1,"2006/11/04 01:00:00",992.84,37.2,TRADE
TAS1,"2006/11/04 01:30:00",988.47,37.12,TRADE
TAS1,"2006/11/04 02:00:00",988.14,37.17,TRADE
TAS1,"2006/11/04 02:30:00",980.26,28.83,TRADE
TAS1,"2006/11/04 03:00:00",977.77,28.93,TRADE
TAS1,"2006/11/04 03:30:00",972.88,28.83,TRADE
TAS1,"2006/11/04 04:00:00",975.7,28.8,TRADE
TAS1,"2006/11/04 04:30:00",993.86,28.85,TRADE
TAS1,"2006/11/04 05:00:00",1011.33,28.94,TRADE
TAS1,"2006/11/04 05:30:00",1032.53,28.96,TRADE
TAS1,"2006/11/04 06:00:00",1043.41,28.8,TRADE
TAS1,"2006/11/04 06:30:00",1076.13,29.55,TRADE
TAS1,"2006/11/04 07:00:00",1123.1,30.76,TRADE
TAS1,"2006/11/04 07:30:00",1156.11,32.78,TRADE
TAS1,"2006/11/04 08:00:00",1183.37,36.47,TRADE
TAS1,"2006/11/04 08:30:00",1203.1,40.43,TRADE
TAS1,"2006/11/04 09:00:00",1201.15,42.97,TRADE
TAS1,"2006/11/04 09:30:00",1195.56,45.1,TRADE
TAS1,"2006/11/04 10:00:00",1189.23,44.75,TRADE
TAS1,"2006/11/04 10:30:00",1155.19,42.3,TRADE
TAS1,"2006/11/04 11:00:00",1144.39,41.4,TRADE
TAS1,"2006/11/04 11:30:00",1128.52,38.15,TRADE
TAS1,"2006/11/04 12:00:00",1110.7,36.77,TRADE
TAS1,"2006/11/04 12:30:00",1089.13,35.82,TRADE
TAS1,"2006/11/04 13:00:00",1076.4,35.19,TRADE
TAS1,"2006/11/04 13:30:00",1066.37,37,TRADE
TAS1,"2006/11/04 14:00:00",1069.51,37,TRADE
TAS1,"2006/11/04 14:30:00",1069.05,37,TRADE
TAS1,"2006/11/04 15:00:00",1063.15,37,TRADE
TAS1,"2006/11/04 15:30:00",1067.19,37,TRADE
TAS1,"2006/11/04 16:00:00",1074.03,37,TRADE
TAS1,"2006/11/04 16:30:00",1098.3,37,TRADE
TAS1,"2006/11/04 17:00:00",1115.6,37,TRADE
TAS1,"2006/11/04 17:30:00",1122,37,TRADE
TAS1,"2006/11/04 18:00:00",1124.83,37,TRADE
TAS1,"2006/11/04 18:30:00",1130.96,37,TRADE
TAS1,"2006/11/04 19:00:00",1147.41,37,TRADE
TAS1,"2006/11/04 19:30:00",1159.16,37,TRADE
TAS1,"2006/11/04 20:00:00",1168.12,37,TRADE
TAS1,"2006/11/04 20:30:00",1174.83,37,TRADE
TAS1,"2006/11/04 21:00:00",1156.99,28.8,TRADE
TAS1,"2006/11/04 21:30:00",1137.71,28.8,TRADE
TAS1,"2006/11/04 22:00:00",1114.63,28.8,TRADE
TAS1,"2006/11/04 22:30:00",1065.42,28.8,TRADE
TAS1,"2006/11/04 23:00:00",1041.51,28.94,TRADE
TAS1,"2006/11/04 23:30:00",1030.25,28.96,TRADE
TAS1,"2006/11/05 00:00:00",1012.44,28.91,TRADE
TAS1,"2006/11/05 00:30:00",998.7,28.85,TRADE
TAS1,"2006/11/05 01:00:00",992.31,28.86,TRADE
TAS1,"2006/11/05 01:30:00",990.3,28.85,TRADE
TAS1,"2006/11/05 02:00:00",1001.98,28.95,TRADE
TAS1,"2006/11/05 02:30:00",1007.86,28.93,TRADE
TAS1,"2006/11/05 03:00:00",1014.36,28.95,TRADE
TAS1,"2006/11/05 03:30:00",1014.07,28.8,TRADE
TAS1,"2006/11/05 04:00:00",1019.11,28.8,TRADE
TAS1,"2006/11/05 04:30:00",1027.46,28.8,TRADE
TAS1,"2006/11/05 05:00:00",1035.21,28.8,TRADE
TAS1,"2006/11/05 05:30:00",1052.08,36.83,TRADE
TAS1,"2006/11/05 06:00:00",1064.91,28.8,TRADE
TAS1,"2006/11/05 06:30:00",1101.3,28.8,TRADE
TAS1,"2006/11/05 07:00:00",1136.38,28.8,TRADE
TAS1,"2006/11/05 07:30:00",1169.53,37.1,TRADE
TAS1,"2006/11/05 08:00:00",1193.94,38.3,TRADE
TAS1,"2006/11/05 08:30:00",1223.45,31.97,TRADE
TAS1,"2006/11/05 09:00:00",1231.64,28.8,TRADE
TAS1,"2006/11/05 09:30:00",1225.97,28.85,TRADE
TAS1,"2006/11/05 10:00:00",1224.16,29.01,TRADE
TAS1,"2006/11/05 10:30:00",1205.57,28.87,TRADE
TAS1,"2006/11/05 11:00:00",1189.17,35.63,TRADE
TAS1,"2006/11/05 11:30:00",1170.06,37,TRADE
TAS1,"2006/11/05 12:00:00",1157.97,37,TRADE
TAS1,"2006/11/05 12:30:00",1146.64,37,TRADE
TAS1,"2006/11/05 13:00:00",1123.04,37,TRADE
TAS1,"2006/11/05 13:30:00",1124.49,37,TRADE
TAS1,"2006/11/05 14:00:00",1129.43,37,TRADE
TAS1,"2006/11/05 14:30:00",1136.56,37,TRADE
TAS1,"2006/11/05 15:00:00",1149.17,37,TRADE
TAS1,"2006/11/05 15:30:00",1158.72,37,TRADE
TAS1,"2006/11/05 16:00:00",1165.88,37,TRADE
TAS1,"2006/11/05 16:30:00",1187.32,38.9,TRADE
TAS1,"2006/11/05 17:00:00",1212.67,40.93,TRADE
TAS1,"2006/11/05 17:30:00",1233.58,41.31,TRADE
TAS1,"2006/11/05 18:00:00",1253.92,42.21,TRADE
TAS1,"2006/11/05 18:30:00",1265.5,43.63,TRADE
TAS1,"2006/11/05 19:00:00",1291.95,45.81,TRADE
TAS1,"2006/11/05 19:30:00",1309.01,46.3,TRADE
TAS1,"2006/11/05 20:00:00",1306.17,46.13,TRADE
TAS1,"2006/11/05 20:30:00",1291.61,41,TRADE
TAS1,"2006/11/05 21:00:00",1259.27,41,TRADE
TAS1,"2006/11/05 21:30:00",1239.67,35.91,TRADE
TAS1,"2006/11/05 22:00:00",1188.69,37,TRADE
TAS1,"2006/11/05 22:30:00",1134.21,35.48,TRADE
TAS1,"2006/11/05 23:00:00",1102.99,36.9,TRADE
TAS1,"2006/11/05 23:30:00",1084.02,35.49,TRADE
TAS1,"2006/11/06 00:00:00",1074.86,29.59,TRADE
TAS1,"2006/11/06 00:30:00",1059.03,30.22,TRADE
TAS1,"2006/11/06 01:00:00",1054.88,29.29,TRADE
TAS1,"2006/11/06 01:30:00",1038.26,30.51,TRADE
TAS1,"2006/11/06 02:00:00",1043.34,29.13,TRADE
TAS1,"2006/11/06 02:30:00",1043.76,30.17,TRADE
TAS1,"2006/11/06 03:00:00",1032.1,34.29,TRADE
TAS1,"2006/11/06 03:30:00",1013.38,35.64,TRADE
TAS1,"2006/11/06 04:00:00",1016.76,35.64,TRADE
TAS1,"2006/11/06 04:30:00",1032.18,28.5,TRADE
TAS1,"2006/11/06 05:00:00",1046.47,28.83,TRADE
TAS1,"2006/11/06 05:30:00",1098.18,28.5,TRADE
TAS1,"2006/11/06 06:00:00",1164.42,30.1,TRADE
TAS1,"2006/11/06 06:30:00",1232.07,38.73,TRADE
TAS1,"2006/11/06 07:00:00",1280.1,44.7,TRADE
TAS1,"2006/11/06 07:30:00",1301.2,37.31,TRADE
TAS1,"2006/11/06 08:00:00",1314.56,36.8,TRADE
TAS1,"2006/11/06 08:30:00",1289.6,38.2,TRADE
TAS1,"2006/11/06 09:00:00",1254.54,36.8,TRADE
TAS1,"2006/11/06 09:30:00",1236.45,38.2,TRADE
TAS1,"2006/11/06 10:00:00",1236.33,36.8,TRADE
TAS1,"2006/11/06 10:30:00",1206.08,36.8,TRADE
TAS1,"2006/11/06 11:00:00",1187.81,36.8,TRADE
TAS1,"2006/11/06 11:30:00",1181.64,36.8,TRADE
TAS1,"2006/11/06 12:00:00",1175.69,36.8,TRADE
TAS1,"2006/11/06 12:30:00",1149.91,36.8,TRADE
TAS1,"2006/11/06 13:00:00",1159.82,36.8,TRADE
TAS1,"2006/11/06 13:30:00",1156.9,36.8,TRADE
TAS1,"2006/11/06 14:00:00",1152.13,36.8,TRADE
TAS1,"2006/11/06 14:30:00",1163.22,36.8,TRADE
TAS1,"2006/11/06 15:00:00",1155.85,36.8,TRADE
TAS1,"2006/11/06 15:30:00",1173.54,39.54,TRADE
TAS1,"2006/11/06 16:00:00",1209.42,28.5,TRADE
TAS1,"2006/11/06 16:30:00",1240.67,29.85,TRADE
TAS1,"2006/11/06 17:00:00",1274.63,36.79,TRADE
TAS1,"2006/11/06 17:30:00",1291.18,35.25,TRADE
TAS1,"2006/11/06 18:00:00",1304.38,37.62,TRADE
TAS1,"2006/11/06 18:30:00",1313.66,41.41,TRADE
TAS1,"2006/11/06 19:00:00",1314.53,41.47,TRADE
TAS1,"2006/11/06 19:30:00",1331.06,41.07,TRADE
TAS1,"2006/11/06 20:00:00",1317.9,38.2,TRADE
TAS1,"2006/11/06 20:30:00",1302.43,36.8,TRADE
TAS1,"2006/11/06 21:00:00",1266.95,36.8,TRADE
TAS1,"2006/11/06 21:30:00",1214.1,30.16,TRADE
TAS1,"2006/11/06 22:00:00",1164.62,36.8,TRADE
TAS1,"2006/11/06 22:30:00",1103.51,36.8,TRADE
TAS1,"2006/11/06 23:00:00",1059.67,29.4,TRADE
TAS1,"2006/11/06 23:30:00",1049,33.79,TRADE
TAS1,"2006/11/07 00:00:00",1034.37,34.32,TRADE
TAS1,"2006/11/07 00:30:00",1029.3,36.9,TRADE
TAS1,"2006/11/07 01:00:00",1024.85,36.89,TRADE
TAS1,"2006/11/07 01:30:00",1024.17,36.93,TRADE
TAS1,"2006/11/07 02:00:00",1026.96,28.91,TRADE
TAS1,"2006/11/07 02:30:00",1040.09,28.61,TRADE
TAS1,"2006/11/07 03:00:00",1015.68,28.67,TRADE
TAS1,"2006/11/07 03:30:00",1008.2,28.67,TRADE
TAS1,"2006/11/07 04:00:00",1022.57,28.67,TRADE
TAS1,"2006/11/07 04:30:00",1036.93,28.99,TRADE
TAS1,"2006/11/07 05:00:00",1068.18,33.5,TRADE
TAS1,"2006/11/07 05:30:00",1144.02,38.99,TRADE
TAS1,"2006/11/07 06:00:00",1199.77,28.8,TRADE
TAS1,"2006/11/07 06:30:00",1280.56,30.39,TRADE
TAS1,"2006/11/07 07:00:00",1330.15,37,TRADE
TAS1,"2006/11/07 07:30:00",1317.08,37,TRADE
TAS1,"2006/11/07 08:00:00",1285.15,37,TRADE
TAS1,"2006/11/07 08:30:00",1287.38,37,TRADE
TAS1,"2006/11/07 09:00:00",1264.43,37,TRADE
TAS1,"2006/11/07 09:30:00",1202.95,38.31,TRADE
TAS1,"2006/11/07 10:00:00",1189.43,37,TRADE
TAS1,"2006/11/07 10:30:00",1179.31,37,TRADE
TAS1,"2006/11/07 11:00:00",1169.43,37,TRADE
TAS1,"2006/11/07 11:30:00",1170.72,37,TRADE
TAS1,"2006/11/07 12:00:00",1175.08,38.14,TRADE
TAS1,"2006/11/07 12:30:00",1168.8,38.19,TRADE
TAS1,"2006/11/07 13:00:00",1157.58,37,TRADE
TAS1,"2006/11/07 13:30:00",1148.97,37,TRADE
TAS1,"2006/11/07 14:00:00",1144.07,37,TRADE
TAS1,"2006/11/07 14:30:00",1144.2,37,TRADE
TAS1,"2006/11/07 15:00:00",1159.7,37,TRADE
TAS1,"2006/11/07 15:30:00",1163.83,37,TRADE
TAS1,"2006/11/07 16:00:00",1160.79,37,TRADE
TAS1,"2006/11/07 16:30:00",1236.05,38.27,TRADE
TAS1,"2006/11/07 17:00:00",1262.87,37.5,TRADE
TAS1,"2006/11/07 17:30:00",1257.36,37,TRADE
TAS1,"2006/11/07 18:00:00",1261.83,37,TRADE
TAS1,"2006/11/07 18:30:00",1268.44,37.17,TRADE
TAS1,"2006/11/07 19:00:00",1283.95,40.5,TRADE
TAS1,"2006/11/07 19:30:00",1321.25,40.97,TRADE
TAS1,"2006/11/07 20:00:00",1338.26,41.04,TRADE
TAS1,"2006/11/07 20:30:00",1317.43,41.64,TRADE
TAS1,"2006/11/07 21:00:00",1287.4,40.87,TRADE
TAS1,"2006/11/07 21:30:00",1246.5,34.96,TRADE
TAS1,"2006/11/07 22:00:00",1191.4,37,TRADE
TAS1,"2006/11/07 22:30:00",1137.58,37,TRADE
TAS1,"2006/11/07 23:00:00",1104.2,37,TRADE
TAS1,"2006/11/07 23:30:00",1071.77,37,TRADE
TAS1,"2006/11/08 00:00:00",1050.92,37,TRADE
TAS1,"2006/11/08 00:30:00",1042.98,37,TRADE
TAS1,"2006/11/08 01:00:00",1052.91,37,TRADE
TAS1,"2006/11/08 01:30:00",1036.3,37,TRADE
TAS1,"2006/11/08 02:00:00",1031.52,37,TRADE
TAS1,"2006/11/08 02:30:00",1045.09,28.8,TRADE
TAS1,"2006/11/08 03:00:00",1054.42,28.8,TRADE
TAS1,"2006/11/08 03:30:00",1064.71,28.8,TRADE
TAS1,"2006/11/08 04:00:00",1069.1,28.8,TRADE
TAS1,"2006/11/08 04:30:00",1090.45,28.9,TRADE
TAS1,"2006/11/08 05:00:00",1127.1,28.93,TRADE
TAS1,"2006/11/08 05:30:00",1193.39,28.9,TRADE
TAS1,"2006/11/08 06:00:00",1293.57,29.25,TRADE
TAS1,"2006/11/08 06:30:00",1412.45,35.84,TRADE
TAS1,"2006/11/08 07:00:00",1468.17,43.07,TRADE
TAS1,"2006/11/08 07:30:00",1446.54,37.2,TRADE
TAS1,"2006/11/08 08:00:00",1414.01,37.57,TRADE
TAS1,"2006/11/08 08:30:00",1387.13,37.67,TRADE
TAS1,"2006/11/08 09:00:00",1350.76,37.4,TRADE
TAS1,"2006/11/08 09:30:00",1322.96,39.51,TRADE
TAS1,"2006/11/08 10:00:00",1301.09,57.99,TRADE
TAS1,"2006/11/08 10:30:00",1289.02,49.12,TRADE
TAS1,"2006/11/08 11:00:00",1276.3,21.49,TRADE
TAS1,"2006/11/08 11:30:00",1250.63,15.8,TRADE
TAS1,"2006/11/08 12:00:00",1221.27,37.8,TRADE
TAS1,"2006/11/08 12:30:00",1223.31,37.73,TRADE
TAS1,"2006/11/08 13:00:00",1210.6,44.03,TRADE
TAS1,"2006/11/08 13:30:00",1206,38.97,TRADE
TAS1,"2006/11/08 14:00:00",1176.95,46.36,TRADE
TAS1,"2006/11/08 14:30:00",1179.88,43.71,TRADE
TAS1,"2006/11/08 15:00:00",1197.57,43.9,TRADE
TAS1,"2006/11/08 15:30:00",1187.63,45.08,TRADE
TAS1,"2006/11/08 16:00:00",1200.32,50.06,TRADE
TAS1,"2006/11/08 16:30:00",1223.25,51.17,TRADE
TAS1,"2006/11/08 17:00:00",1241.2,68.5,TRADE
TAS1,"2006/11/08 17:30:00",1236.87,68.5,TRADE
TAS1,"2006/11/08 18:00:00",1243.06,70.14,TRADE
TAS1,"2006/11/08 18:30:00",1225.08,52.05,TRADE
TAS1,"2006/11/08 19:00:00",1224.44,55.3,TRADE
TAS1,"2006/11/08 19:30:00",1276.27,45.67,TRADE
TAS1,"2006/11/08 20:00:00",1314.98,44.85,TRADE
TAS1,"2006/11/08 20:30:00",1322.42,45.38,TRADE
TAS1,"2006/11/08 21:00:00",1286.27,41.22,TRADE
TAS1,"2006/11/08 21:30:00",1238.81,37.41,TRADE
TAS1,"2006/11/08 22:00:00",1191.83,37.05,TRADE
TAS1,"2006/11/08 22:30:00",1139.44,38.05,TRADE
TAS1,"2006/11/08 23:00:00",1115.27,36.98,TRADE
TAS1,"2006/11/08 23:30:00",1097.29,36.9,TRADE
TAS1,"2006/11/09 00:00:00",1067.37,41.15,TRADE
TAS1,"2006/11/09 00:30:00",1062.08,41.6,TRADE
TAS1,"2006/11/09 01:00:00",1063.5,41.54,TRADE
TAS1,"2006/11/09 01:30:00",1067.05,41.64,TRADE
TAS1,"2006/11/09 02:00:00",1047.01,37.44,TRADE
TAS1,"2006/11/09 02:30:00",1051.98,37.39,TRADE
TAS1,"2006/11/09 03:00:00",1049.9,37.53,TRADE
TAS1,"2006/11/09 03:30:00",1029.47,30.64,TRADE
TAS1,"2006/11/09 04:00:00",1049.16,35.42,TRADE
TAS1,"2006/11/09 04:30:00",1079.1,29.19,TRADE
TAS1,"2006/11/09 05:00:00",1104.89,35.07,TRADE
TAS1,"2006/11/09 05:30:00",1177.23,31.2,TRADE
TAS1,"2006/11/09 06:00:00",1270.24,35.2,TRADE
TAS1,"2006/11/09 06:30:00",1382.69,47.72,TRADE
TAS1,"2006/11/09 07:00:00",1435.77,57.74,TRADE
TAS1,"2006/11/09 07:30:00",1430.54,40.56,TRADE
TAS1,"2006/11/09 08:00:00",1385.32,37.12,TRADE
TAS1,"2006/11/09 08:30:00",1349.31,36.7,TRADE
TAS1,"2006/11/09 09:00:00",1287.36,36.7,TRADE
TAS1,"2006/11/09 09:30:00",1229.46,37.17,TRADE
TAS1,"2006/11/09 10:00:00",1217.6,38.02,TRADE
TAS1,"2006/11/09 10:30:00",1210.92,37.7,TRADE
TAS1,"2006/11/09 11:00:00",1201.83,37.7,TRADE
TAS1,"2006/11/09 11:30:00",1183.15,37.66,TRADE
TAS1,"2006/11/09 12:00:00",1171.85,36.87,TRADE
TAS1,"2006/11/09 12:30:00",1152.91,36.7,TRADE
TAS1,"2006/11/09 13:00:00",1145.85,36.7,TRADE
TAS1,"2006/11/09 13:30:00",1146.66,36.7,TRADE
TAS1,"2006/11/09 14:00:00",1137.67,36.7,TRADE
TAS1,"2006/11/09 14:30:00",1152.63,36.78,TRADE
TAS1,"2006/11/09 15:00:00",1153.09,36.75,TRADE
TAS1,"2006/11/09 15:30:00",1157.36,36.7,TRADE
TAS1,"2006/11/09 16:00:00",1170.04,36.7,TRADE
TAS1,"2006/11/09 16:30:00",1193.66,37.82,TRADE
TAS1,"2006/11/09 17:00:00",1222.25,38.96,TRADE
TAS1,"2006/11/09 17:30:00",1225.49,39.94,TRADE
TAS1,"2006/11/09 18:00:00",1212.59,36.7,TRADE
TAS1,"2006/11/09 18:30:00",1224.76,36.7,TRADE
TAS1,"2006/11/09 19:00:00",1241.7,37.83,TRADE
TAS1,"2006/11/09 19:30:00",1281.52,41.26,TRADE
TAS1,"2006/11/09 20:00:00",1305.82,44.31,TRADE
TAS1,"2006/11/09 20:30:00",1293.17,41.17,TRADE
TAS1,"2006/11/09 21:00:00",1287.56,41.1,TRADE
TAS1,"2006/11/09 21:30:00",1258.22,37.49,TRADE
TAS1,"2006/11/09 22:00:00",1178.03,38.17,TRADE
TAS1,"2006/11/09 22:30:00",1133.41,36.7,TRADE
TAS1,"2006/11/09 23:00:00",1099.19,38.83,TRADE
TAS1,"2006/11/09 23:30:00",1060.43,38.68,TRADE
TAS1,"2006/11/10 00:00:00",1036.63,36.7,TRADE
TAS1,"2006/11/10 00:30:00",1048.13,36.7,TRADE
TAS1,"2006/11/10 01:00:00",1040.92,36.7,TRADE
TAS1,"2006/11/10 01:30:00",1033.37,36.7,TRADE
TAS1,"2006/11/10 02:00:00",1034.09,36.7,TRADE
TAS1,"2006/11/10 02:30:00",1036.81,28.8,TRADE
TAS1,"2006/11/10 03:00:00",1041.96,28.89,TRADE
TAS1,"2006/11/10 03:30:00",1048.96,29,TRADE
TAS1,"2006/11/10 04:00:00",1055.09,29.06,TRADE
TAS1,"2006/11/10 04:30:00",1070.46,36.8,TRADE
TAS1,"2006/11/10 05:00:00",1098.85,37,TRADE
TAS1,"2006/11/10 05:30:00",1150.41,37.58,TRADE
TAS1,"2006/11/10 06:00:00",1228.67,36.35,TRADE
TAS1,"2006/11/10 06:30:00",1319.96,45.1,TRADE
TAS1,"2006/11/10 07:00:00",1370.16,48.11,TRADE
TAS1,"2006/11/10 07:30:00",1365.97,43.75,TRADE
TAS1,"2006/11/10 08:00:00",1331.07,43.18,TRADE
TAS1,"2006/11/10 08:30:00",1269.05,44.71,TRADE
TAS1,"2006/11/10 09:00:00",1223.96,43.6,TRADE
TAS1,"2006/11/10 09:30:00",1172.89,43.2,TRADE
TAS1,"2006/11/10 10:00:00",1163.2,37.93,TRADE
TAS1,"2006/11/10 10:30:00",1158.29,37.7,TRADE
TAS1,"2006/11/10 11:00:00",1133.9,42.71,TRADE
TAS1,"2006/11/10 11:30:00",1115.08,41.29,TRADE
TAS1,"2006/11/10 12:00:00",1115.78,41.17,TRADE
TAS1,"2006/11/10 12:30:00",1108.42,41.1,TRADE
TAS1,"2006/11/10 13:00:00",1097.96,37.61,TRADE
TAS1,"2006/11/10 13:30:00",1084.6,36.85,TRADE
TAS1,"2006/11/10 14:00:00",1076.16,36.91,TRADE
TAS1,"2006/11/10 14:30:00",1105.5,36.81,TRADE
TAS1,"2006/11/10 15:00:00",1105.19,36.8,TRADE
TAS1,"2006/11/10 15:30:00",1139.15,39.74,TRADE
TAS1,"2006/11/10 16:00:00",1152.05,41.1,TRADE
TAS1,"2006/11/10 16:30:00",1168.26,41.1,TRADE
TAS1,"2006/11/10 17:00:00",1189.18,41.58,TRADE
TAS1,"2006/11/10 17:30:00",1190.34,41.41,TRADE
TAS1,"2006/11/10 18:00:00",1185.83,41.41,TRADE
TAS1,"2006/11/10 18:30:00",1180.03,41.41,TRADE
TAS1,"2006/11/10 19:00:00",1198.01,41.95,TRADE
TAS1,"2006/11/10 19:30:00",1216.12,42.24,TRADE
TAS1,"2006/11/10 20:00:00",1233.18,42.31,TRADE
TAS1,"2006/11/10 20:30:00",1224.33,38.31,TRADE
TAS1,"2006/11/10 21:00:00",1193.84,34.22,TRADE
TAS1,"2006/11/10 21:30:00",1170.16,37.01,TRADE
TAS1,"2006/11/10 22:00:00",1137.76,36.8,TRADE
TAS1,"2006/11/10 22:30:00",1104.55,30.4,TRADE
TAS1,"2006/11/10 23:00:00",1075.41,29.12,TRADE
TAS1,"2006/11/10 23:30:00",1055.05,33.75,TRADE
TAS1,"2006/11/11 00:00:00",1039.65,37.11,TRADE
TAS1,"2006/11/11 00:30:00",1026.54,37.11,TRADE
TAS1,"2006/11/11 01:00:00",1022.16,36.98,TRADE
TAS1,"2006/11/11 01:30:00",1022.26,37.06,TRADE
TAS1,"2006/11/11 02:00:00",1022.58,37.11,TRADE
TAS1,"2006/11/11 02:30:00",1028.88,37.11,TRADE
TAS1,"2006/11/11 03:00:00",1025.93,40.16,TRADE
TAS1,"2006/11/11 03:30:00",1025.41,41.55,TRADE
TAS1,"2006/11/11 04:00:00",1030.66,37.32,TRADE
TAS1,"2006/11/11 04:30:00",1039.7,84.26,TRADE
TAS1,"2006/11/11 05:00:00",1043.35,46.25,TRADE
TAS1,"2006/11/11 05:30:00",1066.04,39.78,TRADE
TAS1,"2006/11/11 06:00:00",1090.84,36.7,TRADE
TAS1,"2006/11/11 06:30:00",1129.8,37.76,TRADE
TAS1,"2006/11/11 07:00:00",1179.71,38.02,TRADE
TAS1,"2006/11/11 07:30:00",1221.04,39.48,TRADE
TAS1,"2006/11/11 08:00:00",1248.42,39.89,TRADE
TAS1,"2006/11/11 08:30:00",1259.1,44.99,TRADE
TAS1,"2006/11/11 09:00:00",1248.6,52.46,TRADE
TAS1,"2006/11/11 09:30:00",1261.38,57.05,TRADE
TAS1,"2006/11/11 10:00:00",1235.57,38.77,TRADE
TAS1,"2006/11/11 10:30:00",1194.26,50.62,TRADE
TAS1,"2006/11/11 11:00:00",1172.8,51.71,TRADE
TAS1,"2006/11/11 11:30:00",1149.86,40.19,TRADE
TAS1,"2006/11/11 12:00:00",1137.48,36.7,TRADE
TAS1,"2006/11/11 12:30:00",1122.16,39.23,TRADE
TAS1,"2006/11/11 13:00:00",1116.11,36.89,TRADE
TAS1,"2006/11/11 13:30:00",1111.8,36.73,TRADE
TAS1,"2006/11/11 14:00:00",1104.39,36.7,TRADE
TAS1,"2006/11/11 14:30:00",1108.23,36.7,TRADE
TAS1,"2006/11/11 15:00:00",1115.68,36.7,TRADE
TAS1,"2006/11/11 15:30:00",1111.19,36.7,TRADE
TAS1,"2006/11/11 16:00:00",1123.82,36.7,TRADE
TAS1,"2006/11/11 16:30:00",1147.71,36.7,TRADE
TAS1,"2006/11/11 17:00:00",1168.48,40.38,TRADE
TAS1,"2006/11/11 17:30:00",1176.76,41.1,TRADE
TAS1,"2006/11/11 18:00:00",1180.38,41.31,TRADE
TAS1,"2006/11/11 18:30:00",1185.04,41.32,TRADE
TAS1,"2006/11/11 19:00:00",1197.71,41.9,TRADE
TAS1,"2006/11/11 19:30:00",1220.72,42.95,TRADE
TAS1,"2006/11/11 20:00:00",1243.08,45.27,TRADE
TAS1,"2006/11/11 20:30:00",1236.22,44.18,TRADE
TAS1,"2006/11/11 21:00:00",1215.11,38.02,TRADE
TAS1,"2006/11/11 21:30:00",1188.31,37.1,TRADE
TAS1,"2006/11/11 22:00:00",1156.23,36.71,TRADE
TAS1,"2006/11/11 22:30:00",1079.38,36.71,TRADE
TAS1,"2006/11/11 23:00:00",1085.85,32.85,TRADE
TAS1,"2006/11/11 23:30:00",1076.3,29.5,TRADE
TAS1,"2006/11/12 00:00:00",1053.5,36.71,TRADE
TAS1,"2006/11/12 00:30:00",1038.25,36.71,TRADE
TAS1,"2006/11/12 01:00:00",1038.54,36.71,TRADE
TAS1,"2006/11/12 01:30:00",1036.03,36.71,TRADE
TAS1,"2006/11/12 02:00:00",1032.91,36.71,TRADE
TAS1,"2006/11/12 02:30:00",1023.17,37.06,TRADE
TAS1,"2006/11/12 03:00:00",1021.06,37.02,TRADE
TAS1,"2006/11/12 03:30:00",1017.37,37.02,TRADE
TAS1,"2006/11/12 04:00:00",1001.2,36.93,TRADE
TAS1,"2006/11/12 04:30:00",993.93,29.16,TRADE
TAS1,"2006/11/12 05:00:00",1009.38,29.11,TRADE
TAS1,"2006/11/12 05:30:00",1012.45,29.11,TRADE
TAS1,"2006/11/12 06:00:00",1025.06,29.11,TRADE
TAS1,"2006/11/12 06:30:00",1024.58,29.03,TRADE
TAS1,"2006/11/12 07:00:00",1077.4,29.19,TRADE
TAS1,"2006/11/12 07:30:00",1118.16,33.94,TRADE
TAS1,"2006/11/12 08:00:00",1149.47,34.9,TRADE
TAS1,"2006/11/12 08:30:00",1181.84,43.17,TRADE
TAS1,"2006/11/12 09:00:00",1208.1,43.83,TRADE
TAS1,"2006/11/12 09:30:00",1216.37,44,TRADE
TAS1,"2006/11/12 10:00:00",1218.45,44,TRADE
TAS1,"2006/11/12 10:30:00",1221.07,44,TRADE
TAS1,"2006/11/12 11:00:00",1218.86,44,TRADE
TAS1,"2006/11/12 11:30:00",1166.75,43.17,TRADE
TAS1,"2006/11/12 12:00:00",1139.75,30.79,TRADE
TAS1,"2006/11/12 12:30:00",1132.29,23.93,TRADE
TAS1,"2006/11/12 13:00:00",1105.16,41.16,TRADE
TAS1,"2006/11/12 13:30:00",1104.86,43,TRADE
TAS1,"2006/11/12 14:00:00",1101.13,41.27,TRADE
TAS1,"2006/11/12 14:30:00",1119.62,43,TRADE
TAS1,"2006/11/12 15:00:00",1127.34,43,TRADE
TAS1,"2006/11/12 15:30:00",1122.78,43,TRADE
TAS1,"2006/11/12 16:00:00",1122.52,43,TRADE
TAS1,"2006/11/12 16:30:00",1149.37,43,TRADE
TAS1,"2006/11/12 17:00:00",1159.35,43.17,TRADE
TAS1,"2006/11/12 17:30:00",1141.55,43,TRADE
TAS1,"2006/11/12 18:00:00",1139.71,43,TRADE
TAS1,"2006/11/12 18:30:00",1148.67,43,TRADE
TAS1,"2006/11/12 19:00:00",1189.32,43.67,TRADE
TAS1,"2006/11/12 19:30:00",1172.82,43.5,TRADE
TAS1,"2006/11/12 20:00:00",1221.22,44,TRADE
TAS1,"2006/11/12 20:30:00",1221.85,44,TRADE
TAS1,"2006/11/12 21:00:00",1177.51,35.07,TRADE
TAS1,"2006/11/12 21:30:00",1147.8,34.9,TRADE
TAS1,"2006/11/12 22:00:00",1103.77,32.01,TRADE
TAS1,"2006/11/12 22:30:00",1058.59,32.01,TRADE
TAS1,"2006/11/12 23:00:00",1038.01,29.11,TRADE
TAS1,"2006/11/12 23:30:00",1025.01,29.11,TRADE
TAS1,"2006/11/13 00:00:00",1014.03,29.11,TRADE
TAS1,"2006/11/13 00:30:00",1010.05,28.97,TRADE
TAS1,"2006/11/13 01:00:00",1012.93,28.97,TRADE
TAS1,"2006/11/13 01:30:00",1017.83,29.07,TRADE
TAS1,"2006/11/13 02:00:00",1026.7,29.11,TRADE
TAS1,"2006/11/13 02:30:00",1028.77,29.11,TRADE
TAS1,"2006/11/13 03:00:00",1003.13,29.11,TRADE
TAS1,"2006/11/13 03:30:00",994.81,29.06,TRADE
TAS1,"2006/11/13 04:00:00",1005.94,29.11,TRADE
TAS1,"2006/11/13 04:30:00",1023.49,28.81,TRADE
TAS1,"2006/11/13 05:00:00",1049.24,29.39,TRADE
TAS1,"2006/11/13 05:30:00",1128.44,38.91,TRADE
TAS1,"2006/11/13 06:00:00",1222.57,30.15,TRADE
TAS1,"2006/11/13 06:30:00",1338.32,34,TRADE
TAS1,"2006/11/13 07:00:00",1384.64,39.2,TRADE
TAS1,"2006/11/13 07:30:00",1378.47,39.67,TRADE
TAS1,"2006/11/13 08:00:00",1366.07,40.89,TRADE
TAS1,"2006/11/13 08:30:00",1339.18,39.39,TRADE
TAS1,"2006/11/13 09:00:00",1332.33,40.85,TRADE
TAS1,"2006/11/13 09:30:00",1307.78,44.07,TRADE
TAS1,"2006/11/13 10:00:00",1283.14,40.88,TRADE
TAS1,"2006/11/13 10:30:00",1275.67,40.67,TRADE
TAS1,"2006/11/13 11:00:00",1285.07,40.2,TRADE
TAS1,"2006/11/13 11:30:00",1265.59,44.01,TRADE
TAS1,"2006/11/13 12:00:00",1230.73,41.21,TRADE
TAS1,"2006/11/13 12:30:00",1214.22,43.05,TRADE
TAS1,"2006/11/13 13:00:00",1206.03,41.16,TRADE
TAS1,"2006/11/13 13:30:00",1191.75,39.21,TRADE
TAS1,"2006/11/13 14:00:00",1155.89,39,TRADE
TAS1,"2006/11/13 14:30:00",1173.3,44.84,TRADE
TAS1,"2006/11/13 15:00:00",1176.42,44.18,TRADE
TAS1,"2006/11/13 15:30:00",1185,46.74,TRADE
TAS1,"2006/11/13 16:00:00",1208.66,44.84,TRADE
TAS1,"2006/11/13 16:30:00",1215.72,43.17,TRADE
TAS1,"2006/11/13 17:00:00",1229.54,45.2,TRADE
TAS1,"2006/11/13 17:30:00",1260.17,47.23,TRADE
TAS1,"2006/11/13 18:00:00",1275.44,44.39,TRADE
TAS1,"2006/11/13 18:30:00",1269.58,43.33,TRADE
TAS1,"2006/11/13 19:00:00",1284.39,44.4,TRADE
TAS1,"2006/11/13 19:30:00",1315.4,43.13,TRADE
TAS1,"2006/11/13 20:00:00",1331.13,43.52,TRADE
TAS1,"2006/11/13 20:30:00",1340.91,44.11,TRADE
TAS1,"2006/11/13 21:00:00",1307.24,34.9,TRADE
TAS1,"2006/11/13 21:30:00",1260.96,34.9,TRADE
TAS1,"2006/11/13 22:00:00",1191.02,31.9,TRADE
TAS1,"2006/11/13 22:30:00",1151.98,28.85,TRADE
TAS1,"2006/11/13 23:00:00",1110.81,30.1,TRADE
TAS1,"2006/11/13 23:30:00",1089.76,31.34,TRADE
TAS1,"2006/11/14 00:00:00",1064.41,29.01,TRADE
TAS1,"2006/11/14 00:30:00",1048.75,29.61,TRADE
TAS1,"2006/11/14 01:00:00",1038.77,28.8,TRADE
TAS1,"2006/11/14 01:30:00",1037.02,28.82,TRADE
TAS1,"2006/11/14 02:00:00",1037,28.82,TRADE
TAS1,"2006/11/14 02:30:00",1025.55,28.8,TRADE
TAS1,"2006/11/14 03:00:00",1028.28,28.8,TRADE
TAS1,"2006/11/14 03:30:00",1029.19,28.9,TRADE
TAS1,"2006/11/14 04:00:00",1036.76,28.8,TRADE
TAS1,"2006/11/14 04:30:00",1059.99,29.18,TRADE
TAS1,"2006/11/14 05:00:00",1092,30.54,TRADE
TAS1,"2006/11/14 05:30:00",1170.18,29.86,TRADE
TAS1,"2006/11/14 06:00:00",1270.59,40.38,TRADE
TAS1,"2006/11/14 06:30:00",1366.64,51.44,TRADE
TAS1,"2006/11/14 07:00:00",1428.09,60.39,TRADE
TAS1,"2006/11/14 07:30:00",1423.54,42.93,TRADE
TAS1,"2006/11/14 08:00:00",1385.26,41.57,TRADE
TAS1,"2006/11/14 08:30:00",1354.28,41.8,TRADE
TAS1,"2006/11/14 09:00:00",1328.15,40.09,TRADE
TAS1,"2006/11/14 09:30:00",1290.1,39.5,TRADE
TAS1,"2006/11/14 10:00:00",1279.03,39.5,TRADE
TAS1,"2006/11/14 10:30:00",1260.4,39.66,TRADE
TAS1,"2006/11/14 11:00:00",1231.48,39.55,TRADE
TAS1,"2006/11/14 11:30:00",1229.29,39.5,TRADE
TAS1,"2006/11/14 12:00:00",1223.68,39.5,TRADE
TAS1,"2006/11/14 12:30:00",1207.5,40.81,TRADE
TAS1,"2006/11/14 13:00:00",1218.66,41.09,TRADE
TAS1,"2006/11/14 13:30:00",1228.05,44.07,TRADE
TAS1,"2006/11/14 14:00:00",1209.47,38.93,TRADE
TAS1,"2006/11/14 14:30:00",1244.14,40.81,TRADE
TAS1,"2006/11/14 15:00:00",1278.9,41.37,TRADE
TAS1,"2006/11/14 15:30:00",1280.23,40.94,TRADE
TAS1,"2006/11/14 16:00:00",1306.11,42.34,TRADE
TAS1,"2006/11/14 16:30:00",1325.04,43.1,TRADE
TAS1,"2006/11/14 17:00:00",1340.35,44.84,TRADE
TAS1,"2006/11/14 17:30:00",1333.76,44.45,TRADE
TAS1,"2006/11/14 18:00:00",1334.89,43.76,TRADE
TAS1,"2006/11/14 18:30:00",1320.19,43.1,TRADE
TAS1,"2006/11/14 19:00:00",1328.81,45.39,TRADE
TAS1,"2006/11/14 19:30:00",1343.55,44.91,TRADE
TAS1,"2006/11/14 20:00:00",1375.31,41.21,TRADE
TAS1,"2006/11/14 20:30:00",1376.43,43.15,TRADE
TAS1,"2006/11/14 21:00:00",1314.25,29.49,TRADE
TAS1,"2006/11/14 21:30:00",1249.11,28.9,TRADE
TAS1,"2006/11/14 22:00:00",1181.22,28.9,TRADE
TAS1,"2006/11/14 22:30:00",1121.89,28.95,TRADE
TAS1,"2006/11/14 23:00:00",1089.32,30.61,TRADE
TAS1,"2006/11/14 23:30:00",1057.57,29.94,TRADE
TAS1,"2006/11/15 00:00:00",1081.35,28.9,TRADE
TAS1,"2006/11/15 00:30:00",1073.31,28.9,TRADE
TAS1,"2006/11/15 01:00:00",1044.67,28.9,TRADE
TAS1,"2006/11/15 01:30:00",1047.56,28.9,TRADE
TAS1,"2006/11/15 02:00:00",1062.2,28.92,TRADE
TAS1,"2006/11/15 02:30:00",1045.92,28.9,TRADE
TAS1,"2006/11/15 03:00:00",1055.77,28.9,TRADE
TAS1,"2006/11/15 03:30:00",1065.24,28.9,TRADE
TAS1,"2006/11/15 04:00:00",1063.44,28.9,TRADE
TAS1,"2006/11/15 04:30:00",1083.9,35.2,TRADE
TAS1,"2006/11/15 05:00:00",1141.86,35.31,TRADE
TAS1,"2006/11/15 05:30:00",1216.48,35.32,TRADE
TAS1,"2006/11/15 06:00:00",1347.99,30.89,TRADE
TAS1,"2006/11/15 06:30:00",1448.16,40.87,TRADE
TAS1,"2006/11/15 07:00:00",1452.24,40.52,TRADE
TAS1,"2006/11/15 07:30:00",1434.48,35.67,TRADE
TAS1,"2006/11/15 08:00:00",1415.45,40.51,TRADE
TAS1,"2006/11/15 08:30:00",1400.09,41.72,TRADE
TAS1,"2006/11/15 09:00:00",1345.77,42.8,TRADE
TAS1,"2006/11/15 09:30:00",1317.14,41.5,TRADE
TAS1,"2006/11/15 10:00:00",1277.57,42.33,TRADE
TAS1,"2006/11/15 10:30:00",1262.88,41.5,TRADE
TAS1,"2006/11/15 11:00:00",1252.24,41.5,TRADE
TAS1,"2006/11/15 11:30:00",1228.84,41.5,TRADE
TAS1,"2006/11/15 12:00:00",1216.38,41.5,TRADE
TAS1,"2006/11/15 12:30:00",1217.84,41.5,TRADE
TAS1,"2006/11/15 13:00:00",1207.02,41.5,TRADE
TAS1,"2006/11/15 13:30:00",1238.61,42.8,TRADE
TAS1,"2006/11/15 14:00:00",1237.92,42.8,TRADE
TAS1,"2006/11/15 14:30:00",1236.89,42.8,TRADE
TAS1,"2006/11/15 15:00:00",1264.48,43.03,TRADE
TAS1,"2006/11/15 15:30:00",1244.79,42.8,TRADE
TAS1,"2006/11/15 16:00:00",1275.92,43.13,TRADE
TAS1,"2006/11/15 16:30:00",1310,42.8,TRADE
TAS1,"2006/11/15 17:00:00",1335.28,43.82,TRADE
TAS1,"2006/11/15 17:30:00",1316.3,42.8,TRADE
TAS1,"2006/11/15 18:00:00",1324.75,43.37,TRADE
TAS1,"2006/11/15 18:30:00",1329.73,43.65,TRADE
TAS1,"2006/11/15 19:00:00",1338.91,42.8,TRADE
TAS1,"2006/11/15 19:30:00",1365.36,43,TRADE
TAS1,"2006/11/15 20:00:00",1407,42.97,TRADE
TAS1,"2006/11/15 20:30:00",1404.03,42.8,TRADE
TAS1,"2006/11/15 21:00:00",1347.05,35.2,TRADE
TAS1,"2006/11/15 21:30:00",1291.03,35.2,TRADE
TAS1,"2006/11/15 22:00:00",1216.28,33.17,TRADE
TAS1,"2006/11/15 22:30:00",1171.69,35.2,TRADE
TAS1,"2006/11/15 23:00:00",1136.11,34.18,TRADE
TAS1,"2006/11/15 23:30:00",1074.67,34.12,TRADE
TAS1,"2006/11/16 00:00:00",1055.21,32.15,TRADE
TAS1,"2006/11/16 00:30:00",1055.6,35.07,TRADE
TAS1,"2006/11/16 01:00:00",1046.67,31.07,TRADE
TAS1,"2006/11/16 01:30:00",1034.56,31.96,TRADE
TAS1,"2006/11/16 02:00:00",1051.4,33.72,TRADE
TAS1,"2006/11/16 02:30:00",1050.9,34.05,TRADE
TAS1,"2006/11/16 03:00:00",1049.25,35,TRADE
TAS1,"2006/11/16 03:30:00",1063.82,35.13,TRADE
TAS1,"2006/11/16 04:00:00",1066.88,32.85,TRADE
TAS1,"2006/11/16 04:30:00",1077.71,30.12,TRADE
TAS1,"2006/11/16 05:00:00",1129.11,34.18,TRADE
TAS1,"2006/11/16 05:30:00",1220.73,35.2,TRADE
TAS1,"2006/11/16 06:00:00",1316.31,31.31,TRADE
TAS1,"2006/11/16 06:30:00",1424.39,45.65,TRADE
TAS1,"2006/11/16 07:00:00",1484.21,54.04,TRADE
TAS1,"2006/11/16 07:30:00",1451.49,39.37,TRADE
TAS1,"2006/11/16 08:00:00",1403.81,41.5,TRADE
TAS1,"2006/11/16 08:30:00",1354.27,41.5,TRADE
TAS1,"2006/11/16 09:00:00",1297.1,41.5,TRADE
TAS1,"2006/11/16 09:30:00",1275.23,41.5,TRADE
TAS1,"2006/11/16 10:00:00",1290.97,43.83,TRADE
TAS1,"2006/11/16 10:30:00",1277.4,41.5,TRADE
TAS1,"2006/11/16 11:00:00",1253.98,41.5,TRADE
TAS1,"2006/11/16 11:30:00",1230.21,41.72,TRADE
TAS1,"2006/11/16 12:00:00",1208.45,41.5,TRADE
TAS1,"2006/11/16 12:30:00",1200.91,41.5,TRADE
TAS1,"2006/11/16 13:00:00",1188.83,41.5,TRADE
TAS1,"2006/11/16 13:30:00",1137.15,41.5,TRADE
TAS1,"2006/11/16 14:00:00",1142.07,41.5,TRADE
TAS1,"2006/11/16 14:30:00",1174.5,42.58,TRADE
TAS1,"2006/11/16 15:00:00",1167.9,41.72,TRADE
TAS1,"2006/11/16 15:30:00",1169.04,42.15,TRADE
TAS1,"2006/11/16 16:00:00",1174.64,41.72,TRADE
TAS1,"2006/11/16 16:30:00",1206.72,41.5,TRADE
TAS1,"2006/11/16 17:00:00",1214.89,41.5,TRADE
TAS1,"2006/11/16 17:30:00",1214.22,41.5,TRADE
TAS1,"2006/11/16 18:00:00",1216.93,41.72,TRADE
TAS1,"2006/11/16 18:30:00",1217.54,41.72,TRADE
TAS1,"2006/11/16 19:00:00",1241.98,42.37,TRADE
TAS1,"2006/11/16 19:30:00",1278.09,42.8,TRADE
TAS1,"2006/11/16 20:00:00",1309.41,41.72,TRADE
TAS1,"2006/11/16 20:30:00",1277.06,41.5,TRADE
TAS1,"2006/11/16 21:00:00",1250.33,29.1,TRADE
TAS1,"2006/11/16 21:30:00",1243.81,30.12,TRADE
TAS1,"2006/11/16 22:00:00",1197.85,29.1,TRADE
TAS1,"2006/11/16 22:30:00",1151.01,30.12,TRADE
TAS1,"2006/11/16 23:00:00",1112.36,29.1,TRADE
TAS1,"2006/11/16 23:30:00",1071.45,35.17,TRADE
TAS1,"2006/11/17 00:00:00",1062.09,35.04,TRADE
TAS1,"2006/11/17 00:30:00",1054.61,35.13,TRADE
TAS1,"2006/11/17 01:00:00",1050.59,35,TRADE
TAS1,"2006/11/17 01:30:00",1040.43,32.05,TRADE
TAS1,"2006/11/17 02:00:00",1026.64,32.12,TRADE
TAS1,"2006/11/17 02:30:00",1027.66,31.07,TRADE
TAS1,"2006/11/17 03:00:00",1018.94,29.1,TRADE
TAS1,"2006/11/17 03:30:00",1020.94,31.07,TRADE
TAS1,"2006/11/17 04:00:00",1025.25,32.05,TRADE
TAS1,"2006/11/17 04:30:00",1060.19,34.87,TRADE
TAS1,"2006/11/17 05:00:00",1086.68,33.98,TRADE
TAS1,"2006/11/17 05:30:00",1153.92,31.07,TRADE
TAS1,"2006/11/17 06:00:00",1229.17,33.99,TRADE
TAS1,"2006/11/17 06:30:00",1312.97,37.34,TRADE
TAS1,"2006/11/17 07:00:00",1372.73,41.84,TRADE
TAS1,"2006/11/17 07:30:00",1361.73,38.5,TRADE
TAS1,"2006/11/17 08:00:00",1319.61,42,TRADE
TAS1,"2006/11/17 08:30:00",1290.32,37.33,TRADE
TAS1,"2006/11/17 09:00:00",1270.46,35,TRADE
TAS1,"2006/11/17 09:30:00",1235.73,42,TRADE
TAS1,"2006/11/17 10:00:00",1209.71,42,TRADE
TAS1,"2006/11/17 10:30:00",1203.04,42,TRADE
TAS1,"2006/11/17 11:00:00",1183.12,42,TRADE
TAS1,"2006/11/17 11:30:00",1164.39,42,TRADE
TAS1,"2006/11/17 12:00:00",1165.81,42,TRADE
TAS1,"2006/11/17 12:30:00",1158.76,42,TRADE
TAS1,"2006/11/17 13:00:00",1151.44,42.01,TRADE
TAS1,"2006/11/17 13:30:00",1144.04,42.01,TRADE
TAS1,"2006/11/17 14:00:00",1136.79,42.01,TRADE
TAS1,"2006/11/17 14:30:00",1141.82,42.01,TRADE
TAS1,"2006/11/17 15:00:00",1143.54,42.01,TRADE
TAS1,"2006/11/17 15:30:00",1149.09,42.01,TRADE
TAS1,"2006/11/17 16:00:00",1148.04,42.01,TRADE
TAS1,"2006/11/17 16:30:00",1159.46,42,TRADE
TAS1,"2006/11/17 17:00:00",1166.34,42,TRADE
TAS1,"2006/11/17 17:30:00",1159.44,42,TRADE
TAS1,"2006/11/17 18:00:00",1154.15,41.99,TRADE
TAS1,"2006/11/17 18:30:00",1144.12,42,TRADE
TAS1,"2006/11/17 19:00:00",1150.94,42,TRADE
TAS1,"2006/11/17 19:30:00",1185.06,42,TRADE
TAS1,"2006/11/17 20:00:00",1220.42,42,TRADE
TAS1,"2006/11/17 20:30:00",1211.86,42,TRADE
TAS1,"2006/11/17 21:00:00",1203.99,29.1,TRADE
TAS1,"2006/11/17 21:30:00",1179.52,29.1,TRADE
TAS1,"2006/11/17 22:00:00",1154.58,29.1,TRADE
TAS1,"2006/11/17 22:30:00",1116.77,29.1,TRADE
TAS1,"2006/11/17 23:00:00",1092.24,29.1,TRADE
TAS1,"2006/11/17 23:30:00",1064.83,29.1,TRADE
TAS1,"2006/11/18 00:00:00",1049.34,29.1,TRADE
TAS1,"2006/11/18 00:30:00",1048.91,29.1,TRADE
TAS1,"2006/11/18 01:00:00",1038.39,29.1,TRADE
TAS1,"2006/11/18 01:30:00",1035.56,29.1,TRADE
TAS1,"2006/11/18 02:00:00",1034.25,29.1,TRADE
TAS1,"2006/11/18 02:30:00",1036.82,29.1,TRADE
TAS1,"2006/11/18 03:00:00",1031.93,29.1,TRADE
TAS1,"2006/11/18 03:30:00",1028.19,29.1,TRADE
TAS1,"2006/11/18 04:00:00",1030.68,29.1,TRADE
TAS1,"2006/11/18 04:30:00",1040.88,30.05,TRADE
TAS1,"2006/11/18 05:00:00",1049.46,29.1,TRADE
TAS1,"2006/11/18 05:30:00",1068.06,29.1,TRADE
TAS1,"2006/11/18 06:00:00",1093.92,29.1,TRADE
TAS1,"2006/11/18 06:30:00",1124.39,29.1,TRADE
TAS1,"2006/11/18 07:00:00",1160.02,30.08,TRADE
TAS1,"2006/11/18 07:30:00",1204.31,29.1,TRADE
TAS1,"2006/11/18 08:00:00",1240.26,29.1,TRADE
TAS1,"2006/11/18 08:30:00",1250.71,29.1,TRADE
TAS1,"2006/11/18 09:00:00",1245.17,35,TRADE
TAS1,"2006/11/18 09:30:00",1236.05,30.08,TRADE
TAS1,"2006/11/18 10:00:00",1214.63,29.1,TRADE
TAS1,"2006/11/18 10:30:00",1184.99,29.1,TRADE
TAS1,"2006/11/18 11:00:00",1163.84,29.1,TRADE
TAS1,"2006/11/18 11:30:00",1144.14,29.1,TRADE
TAS1,"2006/11/18 12:00:00",1128.85,29.1,TRADE
TAS1,"2006/11/18 12:30:00",1110.95,29.1,TRADE
TAS1,"2006/11/18 13:00:00",1093.93,29.1,TRADE
TAS1,"2006/11/18 13:30:00",1092.07,29.1,TRADE
TAS1,"2006/11/18 14:00:00",1081.97,29.1,TRADE
TAS1,"2006/11/18 14:30:00",1093.37,29.1,TRADE
TAS1,"2006/11/18 15:00:00",1093.03,29.1,TRADE
TAS1,"2006/11/18 15:30:00",1099.83,29.1,TRADE
TAS1,"2006/11/18 16:00:00",1127.83,29.1,TRADE
TAS1,"2006/11/18 16:30:00",1145.13,29.1,TRADE
TAS1,"2006/11/18 17:00:00",1172.64,31.07,TRADE
TAS1,"2006/11/18 17:30:00",1187.31,30.08,TRADE
TAS1,"2006/11/18 18:00:00",1184.26,29.1,TRADE
TAS1,"2006/11/18 18:30:00",1180.37,29.1,TRADE
TAS1,"2006/11/18 19:00:00",1178.61,29.1,TRADE
TAS1,"2006/11/18 19:30:00",1197.84,29.1,TRADE
TAS1,"2006/11/18 20:00:00",1210.83,29.1,TRADE
TAS1,"2006/11/18 20:30:00",1214.78,29.1,TRADE
TAS1,"2006/11/18 21:00:00",1201.28,29.1,TRADE
TAS1,"2006/11/18 21:30:00",1185.13,29.1,TRADE
TAS1,"2006/11/18 22:00:00",1163.96,29.1,TRADE
TAS1,"2006/11/18 22:30:00",1133.98,31.95,TRADE
TAS1,"2006/11/18 23:00:00",1107.19,31.95,TRADE
TAS1,"2006/11/18 23:30:00",1080.91,29.1,TRADE
TAS1,"2006/11/19 00:00:00",1074.81,29.1,TRADE
TAS1,"2006/11/19 00:30:00",1061.12,29.1,TRADE
TAS1,"2006/11/19 01:00:00",1054.41,29.1,TRADE
TAS1,"2006/11/19 01:30:00",1044.44,29.1,TRADE
TAS1,"2006/11/19 02:00:00",1039.41,29.1,TRADE
TAS1,"2006/11/19 02:30:00",1040.57,29.1,TRADE
TAS1,"2006/11/19 03:00:00",1032.45,29.1,TRADE
TAS1,"2006/11/19 03:30:00",1028.96,29.1,TRADE
TAS1,"2006/11/19 04:00:00",1034.51,29.1,TRADE
TAS1,"2006/11/19 04:30:00",1038.98,29.1,TRADE
TAS1,"2006/11/19 05:00:00",1034.63,29.1,TRADE
TAS1,"2006/11/19 05:30:00",1044.68,29.1,TRADE
TAS1,"2006/11/19 06:00:00",1057.19,30.05,TRADE
TAS1,"2006/11/19 06:30:00",1082.55,29.1,TRADE
TAS1,"2006/11/19 07:00:00",1130.42,32.05,TRADE
TAS1,"2006/11/19 07:30:00",1167.6,29.1,TRADE
TAS1,"2006/11/19 08:00:00",1203.44,29.1,TRADE
TAS1,"2006/11/19 08:30:00",1226.67,29.1,TRADE
TAS1,"2006/11/19 09:00:00",1236.14,29.1,TRADE
TAS1,"2006/11/19 09:30:00",1229.65,29.1,TRADE
TAS1,"2006/11/19 10:00:00",1220.15,29.1,TRADE
TAS1,"2006/11/19 10:30:00",1220.58,29.1,TRADE
TAS1,"2006/11/19 11:00:00",1199.38,29.1,TRADE
TAS1,"2006/11/19 11:30:00",1178.63,29.1,TRADE
TAS1,"2006/11/19 12:00:00",1164.13,29.1,TRADE
TAS1,"2006/11/19 12:30:00",1122.08,29.1,TRADE
TAS1,"2006/11/19 13:00:00",1118.08,29.1,TRADE
TAS1,"2006/11/19 13:30:00",1105.83,29.1,TRADE
TAS1,"2006/11/19 14:00:00",1111.57,32.05,TRADE
TAS1,"2006/11/19 14:30:00",1118.07,35,TRADE
TAS1,"2006/11/19 15:00:00",1111.94,35,TRADE
TAS1,"2006/11/19 15:30:00",1124.44,35,TRADE
TAS1,"2006/11/19 16:00:00",1150.21,35,TRADE
TAS1,"2006/11/19 16:30:00",1163.27,35,TRADE
TAS1,"2006/11/19 17:00:00",1180.15,35,TRADE
TAS1,"2006/11/19 17:30:00",1200.15,35,TRADE
TAS1,"2006/11/19 18:00:00",1212.56,35,TRADE
TAS1,"2006/11/19 18:30:00",1207.59,35,TRADE
TAS1,"2006/11/19 19:00:00",1212.37,35,TRADE
TAS1,"2006/11/19 19:30:00",1242.31,34.56,TRADE
TAS1,"2006/11/19 20:00:00",1258.47,36.13,TRADE
TAS1,"2006/11/19 20:30:00",1233.44,35,TRADE
TAS1,"2006/11/19 21:00:00",1189.46,29.1,TRADE
TAS1,"2006/11/19 21:30:00",1145.31,29.1,TRADE
TAS1,"2006/11/19 22:00:00",1096.23,29.1,TRADE
TAS1,"2006/11/19 22:30:00",1052.27,29.1,TRADE
TAS1,"2006/11/19 23:00:00",1012.49,29.1,TRADE
TAS1,"2006/11/19 23:30:00",987.26,29.1,TRADE
TAS1,"2006/11/20 00:00:00",983.62,29.1,TRADE
TAS1,"2006/11/20 00:30:00",975.54,29.1,TRADE
TAS1,"2006/11/20 01:00:00",967.75,29.1,TRADE
TAS1,"2006/11/20 01:30:00",972.34,29.1,TRADE
TAS1,"2006/11/20 02:00:00",970.62,29.1,TRADE
TAS1,"2006/11/20 02:30:00",962.52,29.1,TRADE
TAS1,"2006/11/20 03:00:00",966.29,29.1,TRADE
TAS1,"2006/11/20 03:30:00",973.3,29.1,TRADE
TAS1,"2006/11/20 04:00:00",979.65,29.1,TRADE
TAS1,"2006/11/20 04:30:00",1001.24,29.1,TRADE
TAS1,"2006/11/20 05:00:00",1020.17,29.1,TRADE
TAS1,"2006/11/20 05:30:00",1086.07,35.37,TRADE
TAS1,"2006/11/20 06:00:00",1159.75,33.45,TRADE
TAS1,"2006/11/20 06:30:00",1258.46,42.53,TRADE
TAS1,"2006/11/20 07:00:00",1309.28,42.05,TRADE
TAS1,"2006/11/20 07:30:00",1317.76,41.9,TRADE
TAS1,"2006/11/20 08:00:00",1298.04,41.46,TRADE
TAS1,"2006/11/20 08:30:00",1285.67,42.05,TRADE
TAS1,"2006/11/20 09:00:00",1259.69,44.21,TRADE
TAS1,"2006/11/20 09:30:00",1223.86,57.32,TRADE
TAS1,"2006/11/20 10:00:00",1226.12,51.07,TRADE
TAS1,"2006/11/20 10:30:00",1217.32,73.39,TRADE
TAS1,"2006/11/20 11:00:00",1208.79,63.1,TRADE
TAS1,"2006/11/20 11:30:00",1210.87,82.55,TRADE
TAS1,"2006/11/20 12:00:00",1189.2,65.82,TRADE
TAS1,"2006/11/20 12:30:00",1185.42,85.32,TRADE
TAS1,"2006/11/20 13:00:00",1182.97,90.83,TRADE
TAS1,"2006/11/20 13:30:00",1182.6,83.21,TRADE
TAS1,"2006/11/20 14:00:00",1185.41,83.37,TRADE
TAS1,"2006/11/20 14:30:00",1192.2,102.26,TRADE
TAS1,"2006/11/20 15:00:00",1189.23,214.29,TRADE
TAS1,"2006/11/20 15:30:00",1189.46,161.54,TRADE
TAS1,"2006/11/20 16:00:00",1198.28,60.28,TRADE
TAS1,"2006/11/20 16:30:00",1204.27,83.77,TRADE
TAS1,"2006/11/20 17:00:00",1205.73,56.78,TRADE
TAS1,"2006/11/20 17:30:00",1153.43,47.53,TRADE
TAS1,"2006/11/20 18:00:00",1138.5,50.63,TRADE
TAS1,"2006/11/20 18:30:00",1139.98,43.44,TRADE
TAS1,"2006/11/20 19:00:00",1134.43,42.8,TRADE
TAS1,"2006/11/20 19:30:00",1128.84,42.35,TRADE
TAS1,"2006/11/20 20:00:00",1151.76,42.66,TRADE
TAS1,"2006/11/20 20:30:00",1168.57,42.2,TRADE
TAS1,"2006/11/20 21:00:00",1141.75,41.9,TRADE
TAS1,"2006/11/20 21:30:00",1122.79,41.9,TRADE
TAS1,"2006/11/20 22:00:00",1097.91,41.9,TRADE
TAS1,"2006/11/20 22:30:00",1073.82,41.9,TRADE
TAS1,"2006/11/20 23:00:00",1044.52,41.9,TRADE
TAS1,"2006/11/20 23:30:00",1019.92,42.05,TRADE
TAS1,"2006/11/21 00:00:00",1010.67,42.65,TRADE
TAS1,"2006/11/21 00:30:00",994.57,39.33,TRADE
TAS1,"2006/11/21 01:00:00",991.32,41.9,TRADE
TAS1,"2006/11/21 01:30:00",990.73,41.9,TRADE
TAS1,"2006/11/21 02:00:00",992.77,41.9,TRADE
TAS1,"2006/11/21 02:30:00",994.42,29.1,TRADE
TAS1,"2006/11/21 03:00:00",987.65,29.1,TRADE
TAS1,"2006/11/21 03:30:00",995.63,29.1,TRADE
TAS1,"2006/11/21 04:00:00",1005.54,34.05,TRADE
TAS1,"2006/11/21 04:30:00",1033.17,32.97,TRADE
TAS1,"2006/11/21 05:00:00",1071.69,34.84,TRADE
TAS1,"2006/11/21 05:30:00",1114.74,35.04,TRADE
TAS1,"2006/11/21 06:00:00",1196.89,42.52,TRADE
TAS1,"2006/11/21 06:30:00",1266.6,42.2,TRADE
TAS1,"2006/11/21 07:00:00",1297.87,43.12,TRADE
TAS1,"2006/11/21 07:30:00",1280.61,43.24,TRADE
TAS1,"2006/11/21 08:00:00",1242.75,44.98,TRADE
TAS1,"2006/11/21 08:30:00",1216.24,45.2,TRADE
TAS1,"2006/11/21 09:00:00",1211.2,44.06,TRADE
TAS1,"2006/11/21 09:30:00",1178.68,44.84,TRADE
TAS1,"2006/11/21 10:00:00",1180.87,53.98,TRADE
TAS1,"2006/11/21 10:30:00",1173.01,55.37,TRADE
TAS1,"2006/11/21 11:00:00",1184.05,64.23,TRADE
TAS1,"2006/11/21 11:30:00",1124.29,56.63,TRADE
TAS1,"2006/11/21 12:00:00",1155,66.82,TRADE
TAS1,"2006/11/21 12:30:00",1163.13,80.44,TRADE
TAS1,"2006/11/21 13:00:00",1140.7,166.66,TRADE
TAS1,"2006/11/21 13:30:00",1132.79,121.19,TRADE
TAS1,"2006/11/21 14:00:00",1121.69,53.95,TRADE
TAS1,"2006/11/21 14:30:00",1128.23,47.8,TRADE
TAS1,"2006/11/21 15:00:00",1140.11,47.8,TRADE
TAS1,"2006/11/21 15:30:00",1120.82,47.8,TRADE
TAS1,"2006/11/21 16:00:00",1148.25,50.17,TRADE
TAS1,"2006/11/21 16:30:00",1201.48,54.9,TRADE
TAS1,"2006/11/21 17:00:00",1199.2,54.9,TRADE
TAS1,"2006/11/21 17:30:00",1193.11,54.9,TRADE
TAS1,"2006/11/21 18:00:00",1168.4,54.62,TRADE
TAS1,"2006/11/21 18:30:00",1155.64,52.6,TRADE
TAS1,"2006/11/21 19:00:00",1188.23,53.54,TRADE
TAS1,"2006/11/21 19:30:00",1232.42,54.82,TRADE
TAS1,"2006/11/21 20:00:00",1262.37,54.9,TRADE
TAS1,"2006/11/21 20:30:00",1232.84,53.1,TRADE
TAS1,"2006/11/21 21:00:00",1164.86,49.75,TRADE
TAS1,"2006/11/21 21:30:00",1101.56,42.5,TRADE
TAS1,"2006/11/21 22:00:00",1069.15,38.45,TRADE
TAS1,"2006/11/21 22:30:00",1039.15,40.6,TRADE
TAS1,"2006/11/21 23:00:00",1011.26,42.5,TRADE
TAS1,"2006/11/21 23:30:00",990.76,43.19,TRADE
TAS1,"2006/11/22 00:00:00",969.94,45.46,TRADE
TAS1,"2006/11/22 00:30:00",953.52,47.8,TRADE
TAS1,"2006/11/22 01:00:00",943.76,47.8,TRADE
TAS1,"2006/11/22 01:30:00",954.36,47.8,TRADE
TAS1,"2006/11/22 02:00:00",950.35,47.8,TRADE
TAS1,"2006/11/22 02:30:00",948.86,35,TRADE
TAS1,"2006/11/22 03:00:00",950.43,35,TRADE
TAS1,"2006/11/22 03:30:00",943.45,35,TRADE
TAS1,"2006/11/22 04:00:00",954.97,35,TRADE
TAS1,"2006/11/22 04:30:00",975.62,35.27,TRADE
TAS1,"2006/11/22 05:00:00",995.43,39.01,TRADE
TAS1,"2006/11/22 05:30:00",1045.28,42.1,TRADE
TAS1,"2006/11/22 06:00:00",1112.57,42.46,TRADE
TAS1,"2006/11/22 06:30:00",1203.94,50,TRADE
TAS1,"2006/11/22 07:00:00",1263.78,60.51,TRADE
TAS1,"2006/11/22 07:30:00",1253.06,43.4,TRADE
TAS1,"2006/11/22 08:00:00",1238,44.03,TRADE
TAS1,"2006/11/22 08:30:00",1218.69,49.7,TRADE
TAS1,"2006/11/22 09:00:00",1195.5,52.69,TRADE
TAS1,"2006/11/22 09:30:00",1155.02,47.35,TRADE
TAS1,"2006/11/22 10:00:00",1141.62,48.16,TRADE
TAS1,"2006/11/22 10:30:00",1143.37,48.99,TRADE
TAS1,"2006/11/22 11:00:00",1129.27,49.78,TRADE
TAS1,"2006/11/22 11:30:00",1147.48,61.05,TRADE
TAS1,"2006/11/22 12:00:00",1139.6,78,TRADE
TAS1,"2006/11/22 12:30:00",1140.21,73.92,TRADE
TAS1,"2006/11/22 13:00:00",1147.85,75.4,TRADE
TAS1,"2006/11/22 13:30:00",1141.55,74.14,TRADE
TAS1,"2006/11/22 14:00:00",1146.24,81.73,TRADE
TAS1,"2006/11/22 14:30:00",1148.69,73.03,TRADE
TAS1,"2006/11/22 15:00:00",1169.35,124.56,TRADE
TAS1,"2006/11/22 15:30:00",1161.47,95.41,TRADE
TAS1,"2006/11/22 16:00:00",1181.41,109.02,TRADE
TAS1,"2006/11/22 16:30:00",1179.94,62.82,TRADE
TAS1,"2006/11/22 17:00:00",1173.56,55.67,TRADE
TAS1,"2006/11/22 17:30:00",1163.66,46.66,TRADE
TAS1,"2006/11/22 18:00:00",1171.08,42.78,TRADE
TAS1,"2006/11/22 18:30:00",1167.35,40.77,TRADE
TAS1,"2006/11/22 19:00:00",1166.58,42.1,TRADE
TAS1,"2006/11/22 19:30:00",1173.34,42.1,TRADE
TAS1,"2006/11/22 20:00:00",1195.58,43.24,TRADE
TAS1,"2006/11/22 20:30:00",1201.59,42.6,TRADE
TAS1,"2006/11/22 21:00:00",1174.45,42.1,TRADE
TAS1,"2006/11/22 21:30:00",1145.07,42.1,TRADE
TAS1,"2006/11/22 22:00:00",1108.12,42.1,TRADE
TAS1,"2006/11/22 22:30:00",1076.46,42.1,TRADE
TAS1,"2006/11/22 23:00:00",1050.83,42.1,TRADE
TAS1,"2006/11/22 23:30:00",1021.66,42.1,TRADE
TAS1,"2006/11/23 00:00:00",1005.1,42.1,TRADE
TAS1,"2006/11/23 00:30:00",990.5,40.93,TRADE
TAS1,"2006/11/23 01:00:00",985.7,38.6,TRADE
TAS1,"2006/11/23 01:30:00",982.18,35.1,TRADE
TAS1,"2006/11/23 02:00:00",968.73,22.32,TRADE
TAS1,"2006/11/23 02:30:00",967.88,21.71,TRADE
TAS1,"2006/11/23 03:00:00",960.65,22.59,TRADE
TAS1,"2006/11/23 03:30:00",969.28,29.1,TRADE
TAS1,"2006/11/23 04:00:00",978.28,29.1,TRADE
TAS1,"2006/11/23 04:30:00",988.83,30.1,TRADE
TAS1,"2006/11/23 05:00:00",1000.41,34.27,TRADE
TAS1,"2006/11/23 05:30:00",1049.58,35.1,TRADE
TAS1,"2006/11/23 06:00:00",1097.64,42.27,TRADE
TAS1,"2006/11/23 06:30:00",1183.76,45.29,TRADE
TAS1,"2006/11/23 07:00:00",1228.75,46.71,TRADE
TAS1,"2006/11/23 07:30:00",1233.05,42.1,TRADE
TAS1,"2006/11/23 08:00:00",1216.36,42.1,TRADE
TAS1,"2006/11/23 08:30:00",1188.33,42.1,TRADE
TAS1,"2006/11/23 09:00:00",1164.18,42.43,TRADE
TAS1,"2006/11/23 09:30:00",1137.36,42.91,TRADE
TAS1,"2006/11/23 10:00:00",1115.1,42.1,TRADE
TAS1,"2006/11/23 10:30:00",1119.23,42.89,TRADE
TAS1,"2006/11/23 11:00:00",1102.96,43.13,TRADE
TAS1,"2006/11/23 11:30:00",1084.81,42.93,TRADE
TAS1,"2006/11/23 12:00:00",1064.97,42.75,TRADE
TAS1,"2006/11/23 12:30:00",1065.59,42.72,TRADE
TAS1,"2006/11/23 13:00:00",1054.07,42.77,TRADE
TAS1,"2006/11/23 13:30:00",1064.72,43.2,TRADE
TAS1,"2006/11/23 14:00:00",1053.75,42.74,TRADE
TAS1,"2006/11/23 14:30:00",1060.02,43.19,TRADE
TAS1,"2006/11/23 15:00:00",1099.67,52.17,TRADE
TAS1,"2006/11/23 15:30:00",1128.01,56.1,TRADE
TAS1,"2006/11/23 16:00:00",1125.88,46.05,TRADE
TAS1,"2006/11/23 16:30:00",1141.64,43.1,TRADE
TAS1,"2006/11/23 17:00:00",1150.78,42.93,TRADE
TAS1,"2006/11/23 17:30:00",1153.1,42.87,TRADE
TAS1,"2006/11/23 18:00:00",1147.44,42.23,TRADE
TAS1,"2006/11/23 18:30:00",1148.01,42.1,TRADE
TAS1,"2006/11/23 19:00:00",1163.09,42.1,TRADE
TAS1,"2006/11/23 19:30:00",1194.52,42.1,TRADE
TAS1,"2006/11/23 20:00:00",1234.55,42.1,TRADE
TAS1,"2006/11/23 20:30:00",1238.23,42.1,TRADE
TAS1,"2006/11/23 21:00:00",1221.77,42.1,TRADE
TAS1,"2006/11/23 21:30:00",1200.92,42.1,TRADE
TAS1,"2006/11/23 22:00:00",1173.6,42.27,TRADE
TAS1,"2006/11/23 22:30:00",1128.14,42.1,TRADE
TAS1,"2006/11/23 23:00:00",1102.17,42.1,TRADE
TAS1,"2006/11/23 23:30:00",1074.69,42.1,TRADE
TAS1,"2006/11/24 00:00:00",1054.82,42.1,TRADE
TAS1,"2006/11/24 00:30:00",1050.84,42.1,TRADE
TAS1,"2006/11/24 01:00:00",1042.91,42.1,TRADE
TAS1,"2006/11/24 01:30:00",1054.23,42.1,TRADE
TAS1,"2006/11/24 02:00:00",1052.69,35.1,TRADE
TAS1,"2006/11/24 02:30:00",1060.06,35.1,TRADE
TAS1,"2006/11/24 03:00:00",1056.96,35.1,TRADE
TAS1,"2006/11/24 03:30:00",1051.11,35.1,TRADE
TAS1,"2006/11/24 04:00:00",1052.63,35.1,TRADE
TAS1,"2006/11/24 04:30:00",1069.88,35.1,TRADE
TAS1,"2006/11/24 05:00:00",1082.16,35.1,TRADE
TAS1,"2006/11/24 05:30:00",1136.97,35.1,TRADE
TAS1,"2006/11/24 06:00:00",1218.54,42.1,TRADE
TAS1,"2006/11/24 06:30:00",1301.27,42.43,TRADE
TAS1,"2006/11/24 07:00:00",1354.06,44.26,TRADE
TAS1,"2006/11/24 07:30:00",1348.92,43.1,TRADE
TAS1,"2006/11/24 08:00:00",1292.32,42.74,TRADE
TAS1,"2006/11/24 08:30:00",1284.09,42.89,TRADE
TAS1,"2006/11/24 09:00:00",1267.06,42.46,TRADE
TAS1,"2006/11/24 09:30:00",1244.59,42.1,TRADE
TAS1,"2006/11/24 10:00:00",1222.66,43.82,TRADE
TAS1,"2006/11/24 10:30:00",1209.04,43.17,TRADE
TAS1,"2006/11/24 11:00:00",1204.73,43.39,TRADE
TAS1,"2006/11/24 11:30:00",1200.42,44.46,TRADE
TAS1,"2006/11/24 12:00:00",1183.75,43.1,TRADE
TAS1,"2006/11/24 12:30:00",1171.42,43.07,TRADE
TAS1,"2006/11/24 13:00:00",1164.33,42.41,TRADE
TAS1,"2006/11/24 13:30:00",1158.04,42.24,TRADE
TAS1,"2006/11/24 14:00:00",1144.58,42.96,TRADE
TAS1,"2006/11/24 14:30:00",1151.18,43.79,TRADE
TAS1,"2006/11/24 15:00:00",1155.59,44,TRADE
TAS1,"2006/11/24 15:30:00",1168.23,48.04,TRADE
TAS1,"2006/11/24 16:00:00",1169.48,44.42,TRADE
TAS1,"2006/11/24 16:30:00",1184.97,44.03,TRADE
TAS1,"2006/11/24 17:00:00",1193.01,43.8,TRADE
TAS1,"2006/11/24 17:30:00",1173.04,42.79,TRADE
TAS1,"2006/11/24 18:00:00",1168.25,42.1,TRADE
TAS1,"2006/11/24 18:30:00",1160.74,42.1,TRADE
TAS1,"2006/11/24 19:00:00",1161.43,42.1,TRADE
TAS1,"2006/11/24 19:30:00",1174.33,42.1,TRADE
TAS1,"2006/11/24 20:00:00",1194.83,42.1,TRADE
TAS1,"2006/11/24 20:30:00",1197.1,42.1,TRADE
TAS1,"2006/11/24 21:00:00",1181.84,42.1,TRADE
TAS1,"2006/11/24 21:30:00",1156.69,42.1,TRADE
TAS1,"2006/11/24 22:00:00",1130.19,42.1,TRADE
TAS1,"2006/11/24 22:30:00",1114.55,42.1,TRADE
TAS1,"2006/11/24 23:00:00",1088.23,42.1,TRADE
TAS1,"2006/11/24 23:30:00",1064.53,42.1,TRADE
TAS1,"2006/11/25 00:00:00",1019.21,42.1,TRADE
TAS1,"2006/11/25 00:30:00",1049.13,42.1,TRADE
TAS1,"2006/11/25 01:00:00",1030.07,42.1,TRADE
TAS1,"2006/11/25 01:30:00",1030.01,42.1,TRADE
TAS1,"2006/11/25 02:00:00",1026.71,35.1,TRADE
TAS1,"2006/11/25 02:30:00",1020.2,35.1,TRADE
TAS1,"2006/11/25 03:00:00",1022.22,35.1,TRADE
TAS1,"2006/11/25 03:30:00",1017.55,35.1,TRADE
TAS1,"2006/11/25 04:00:00",1021.51,35.1,TRADE
TAS1,"2006/11/25 04:30:00",1024.38,35.1,TRADE
TAS1,"2006/11/25 05:00:00",1026.21,35.1,TRADE
TAS1,"2006/11/25 05:30:00",1047.58,35.1,TRADE
TAS1,"2006/11/25 06:00:00",1064.69,35.1,TRADE
TAS1,"2006/11/25 06:30:00",1092.13,35.1,TRADE
TAS1,"2006/11/25 07:00:00",1139.54,35.1,TRADE
TAS1,"2006/11/25 07:30:00",1186.75,40.85,TRADE
TAS1,"2006/11/25 08:00:00",1213.23,42,TRADE
TAS1,"2006/11/25 08:30:00",1212.27,42,TRADE
TAS1,"2006/11/25 09:00:00",1206.73,42.17,TRADE
TAS1,"2006/11/25 09:30:00",1201.98,44.12,TRADE
TAS1,"2006/11/25 10:00:00",1183.06,43.41,TRADE
TAS1,"2006/11/25 10:30:00",1171.38,43.73,TRADE
TAS1,"2006/11/25 11:00:00",1172.4,48.43,TRADE
TAS1,"2006/11/25 11:30:00",1147.99,46.78,TRADE
TAS1,"2006/11/25 12:00:00",1124.3,58.32,TRADE
TAS1,"2006/11/25 12:30:00",1108.82,44.2,TRADE
TAS1,"2006/11/25 13:00:00",1091.17,48.2,TRADE
TAS1,"2006/11/25 13:30:00",1079.47,48.2,TRADE
TAS1,"2006/11/25 14:00:00",1086.04,59.58,TRADE
TAS1,"2006/11/25 14:30:00",1099.99,48.11,TRADE
TAS1,"2006/11/25 15:00:00",1086.82,52.34,TRADE
TAS1,"2006/11/25 15:30:00",1088.67,51.73,TRADE
TAS1,"2006/11/25 16:00:00",1107.92,59.24,TRADE
TAS1,"2006/11/25 16:30:00",1114.09,65.43,TRADE
TAS1,"2006/11/25 17:00:00",1137.6,59.85,TRADE
TAS1,"2006/11/25 17:30:00",1122.9,44.72,TRADE
TAS1,"2006/11/25 18:00:00",1090.44,45.61,TRADE
TAS1,"2006/11/25 18:30:00",1061.18,42.01,TRADE
TAS1,"2006/11/25 19:00:00",1058.51,42.54,TRADE
TAS1,"2006/11/25 19:30:00",1081.99,42.78,TRADE
TAS1,"2006/11/25 20:00:00",1118.57,43.17,TRADE
TAS1,"2006/11/25 20:30:00",1128.43,42.89,TRADE
TAS1,"2006/11/25 21:00:00",1118.86,42.66,TRADE
TAS1,"2006/11/25 21:30:00",1109.58,42.07,TRADE
TAS1,"2006/11/25 22:00:00",1088.56,42.19,TRADE
TAS1,"2006/11/25 22:30:00",1078.16,42.14,TRADE
TAS1,"2006/11/25 23:00:00",1060.8,42.19,TRADE
TAS1,"2006/11/25 23:30:00",1030.68,42.25,TRADE
TAS1,"2006/11/26 00:00:00",1021.82,42.12,TRADE
TAS1,"2006/11/26 00:30:00",1004.78,42.17,TRADE
TAS1,"2006/11/26 01:00:00",997.81,42.14,TRADE
TAS1,"2006/11/26 01:30:00",987.85,35.13,TRADE
TAS1,"2006/11/26 02:00:00",980.6,32.34,TRADE
TAS1,"2006/11/26 02:30:00",974.57,29.6,TRADE
TAS1,"2006/11/26 03:00:00",971.68,29.52,TRADE
TAS1,"2006/11/26 03:30:00",966.02,29.54,TRADE
TAS1,"2006/11/26 04:00:00",969.42,29.51,TRADE
TAS1,"2006/11/26 04:30:00",975.28,29.1,TRADE
TAS1,"2006/11/26 05:00:00",976.41,30.23,TRADE
TAS1,"2006/11/26 05:30:00",988.81,35.1,TRADE
TAS1,"2006/11/26 06:00:00",1007.47,34.02,TRADE
TAS1,"2006/11/26 06:30:00",1024.69,35.02,TRADE
TAS1,"2006/11/26 07:00:00",1065.42,35.1,TRADE
TAS1,"2006/11/26 07:30:00",1084.87,30.1,TRADE
TAS1,"2006/11/26 08:00:00",1113.59,32.1,TRADE
TAS1,"2006/11/26 08:30:00",1147.38,35.1,TRADE
TAS1,"2006/11/26 09:00:00",1149.54,35.1,TRADE
TAS1,"2006/11/26 09:30:00",1166.31,35.1,TRADE
TAS1,"2006/11/26 10:00:00",1163.7,35.1,TRADE
TAS1,"2006/11/26 10:30:00",1147.57,35.1,TRADE
TAS1,"2006/11/26 11:00:00",1134.94,35.1,TRADE
TAS1,"2006/11/26 11:30:00",1127.14,42.1,TRADE
TAS1,"2006/11/26 12:00:00",1108.9,42.1,TRADE
TAS1,"2006/11/26 12:30:00",1089.67,35.1,TRADE
TAS1,"2006/11/26 13:00:00",1079.28,35.1,TRADE
TAS1,"2006/11/26 13:30:00",1072.81,34.63,TRADE
TAS1,"2006/11/26 14:00:00",1065.39,34.56,TRADE
TAS1,"2006/11/26 14:30:00",1068.82,35.1,TRADE
TAS1,"2006/11/26 15:00:00",1068.44,35.1,TRADE
TAS1,"2006/11/26 15:30:00",1064.47,34.66,TRADE
TAS1,"2006/11/26 16:00:00",1073,34.73,TRADE
TAS1,"2006/11/26 16:30:00",1097.9,35.1,TRADE
TAS1,"2006/11/26 17:00:00",1111.69,35.1,TRADE
TAS1,"2006/11/26 17:30:00",1110.72,32.74,TRADE
TAS1,"2006/11/26 18:00:00",1116.83,35.1,TRADE
TAS1,"2006/11/26 18:30:00",1137.6,42.1,TRADE
TAS1,"2006/11/26 19:00:00",1150.99,42.1,TRADE
TAS1,"2006/11/26 19:30:00",1167.87,42.1,TRADE
TAS1,"2006/11/26 20:00:00",1191.86,42.1,TRADE
TAS1,"2006/11/26 20:30:00",1211.5,42.1,TRADE
TAS1,"2006/11/26 21:00:00",1197.62,35.1,TRADE
TAS1,"2006/11/26 21:30:00",1172.94,35.1,TRADE
TAS1,"2006/11/26 22:00:00",1143.47,35.1,TRADE
TAS1,"2006/11/26 22:30:00",1107.51,35.1,TRADE
TAS1,"2006/11/26 23:00:00",1082.82,35.1,TRADE
TAS1,"2006/11/26 23:30:00",1063.35,35.1,TRADE
TAS1,"2006/11/27 00:00:00",1048.01,35.1,TRADE
TAS1,"2006/11/27 00:30:00",1041.43,35.1,TRADE
TAS1,"2006/11/27 01:00:00",1035.98,35.1,TRADE
TAS1,"2006/11/27 01:30:00",1030,35.1,TRADE
TAS1,"2006/11/27 02:00:00",1031.12,35.1,TRADE
TAS1,"2006/11/27 02:30:00",1030.3,29.1,TRADE
TAS1,"2006/11/27 03:00:00",1028.92,29.1,TRADE
TAS1,"2006/11/27 03:30:00",1023.11,29.11,TRADE
TAS1,"2006/11/27 04:00:00",1038.88,29.12,TRADE
TAS1,"2006/11/27 04:30:00",1057.66,29.12,TRADE
TAS1,"2006/11/27 05:00:00",1083.32,29.11,TRADE
TAS1,"2006/11/27 05:30:00",1137.84,42.1,TRADE
TAS1,"2006/11/27 06:00:00",1205.74,42.44,TRADE
TAS1,"2006/11/27 06:30:00",1292.1,43.74,TRADE
TAS1,"2006/11/27 07:00:00",1336.31,47.49,TRADE
TAS1,"2006/11/27 07:30:00",1320.67,42.5,TRADE
TAS1,"2006/11/27 08:00:00",1297.63,42.14,TRADE
TAS1,"2006/11/27 08:30:00",1274.76,42.13,TRADE
TAS1,"2006/11/27 09:00:00",1249.64,42.11,TRADE
TAS1,"2006/11/27 09:30:00",1227.8,42.14,TRADE
TAS1,"2006/11/27 10:00:00",1215.49,42.72,TRADE
TAS1,"2006/11/27 10:30:00",1208.71,44.99,TRADE
TAS1,"2006/11/27 11:00:00",1192.65,48.04,TRADE
TAS1,"2006/11/27 11:30:00",1193.09,47.75,TRADE
TAS1,"2006/11/27 12:00:00",1189.89,47.65,TRADE
TAS1,"2006/11/27 12:30:00",1184.36,47.78,TRADE
TAS1,"2006/11/27 13:00:00",1170.15,47.82,TRADE
TAS1,"2006/11/27 13:30:00",1159.46,47.91,TRADE
TAS1,"2006/11/27 14:00:00",1152.04,47.85,TRADE
TAS1,"2006/11/27 14:30:00",1164.18,48.05,TRADE
TAS1,"2006/11/27 15:00:00",1151.78,49.84,TRADE
TAS1,"2006/11/27 15:30:00",1157.88,48.43,TRADE
TAS1,"2006/11/27 16:00:00",1158.82,48.38,TRADE
TAS1,"2006/11/27 16:30:00",1151.79,47.99,TRADE
TAS1,"2006/11/27 17:00:00",1173.42,47.5,TRADE
TAS1,"2006/11/27 17:30:00",1160.42,47.5,TRADE
TAS1,"2006/11/27 18:00:00",1148.38,43.05,TRADE
TAS1,"2006/11/27 18:30:00",1123.81,38.06,TRADE
TAS1,"2006/11/27 19:00:00",1126.23,39.17,TRADE
TAS1,"2006/11/27 19:30:00",1146.23,47.5,TRADE
TAS1,"2006/11/27 20:00:00",1141.71,47.51,TRADE
TAS1,"2006/11/27 20:30:00",1171.7,47.61,TRADE
TAS1,"2006/11/27 21:00:00",1172.78,47.52,TRADE
TAS1,"2006/11/27 21:30:00",1147.06,47.54,TRADE
TAS1,"2006/11/27 22:00:00",1106.91,47.54,TRADE
TAS1,"2006/11/27 22:30:00",1078.25,47.51,TRADE
TAS1,"2006/11/27 23:00:00",1051.95,47.5,TRADE
TAS1,"2006/11/27 23:30:00",1034.48,47.5,TRADE
TAS1,"2006/11/28 00:00:00",1018.02,47.5,TRADE
TAS1,"2006/11/28 00:30:00",1017.63,47.5,TRADE
TAS1,"2006/11/28 01:00:00",1025.63,47.5,TRADE
TAS1,"2006/11/28 01:30:00",1024.79,47.51,TRADE
TAS1,"2006/11/28 02:00:00",1021.77,47.5,TRADE
TAS1,"2006/11/28 02:30:00",1030.11,29.1,TRADE
TAS1,"2006/11/28 03:00:00",1020.6,29.11,TRADE
TAS1,"2006/11/28 03:30:00",1024.43,29.11,TRADE
TAS1,"2006/11/28 04:00:00",1035.1,29.11,TRADE
TAS1,"2006/11/28 04:30:00",1061.43,29.3,TRADE
TAS1,"2006/11/28 05:00:00",1081.12,29.3,TRADE
TAS1,"2006/11/28 05:30:00",1138.83,45.63,TRADE
TAS1,"2006/11/28 06:00:00",1212.41,47.17,TRADE
TAS1,"2006/11/28 06:30:00",1291.56,47.5,TRADE
TAS1,"2006/11/28 07:00:00",1340.02,51.07,TRADE
TAS1,"2006/11/28 07:30:00",1305.11,47.5,TRADE
TAS1,"2006/11/28 08:00:00",1270.13,47.5,TRADE
TAS1,"2006/11/28 08:30:00",1255.45,47.17,TRADE
TAS1,"2006/11/28 09:00:00",1228.04,47.17,TRADE
TAS1,"2006/11/28 09:30:00",1189.82,45.68,TRADE
TAS1,"2006/11/28 10:00:00",1183.06,46.79,TRADE
TAS1,"2006/11/28 10:30:00",1195.65,49.97,TRADE
TAS1,"2006/11/28 11:00:00",1195.79,48.07,TRADE
TAS1,"2006/11/28 11:30:00",1177.2,54.54,TRADE
TAS1,"2006/11/28 12:00:00",1181.49,57.22,TRADE
TAS1,"2006/11/28 12:30:00",1160.7,68.74,TRADE
TAS1,"2006/11/28 13:00:00",1150.62,75.95,TRADE
TAS1,"2006/11/28 13:30:00",1151.2,72.02,TRADE
TAS1,"2006/11/28 14:00:00",1133,58.01,TRADE
TAS1,"2006/11/28 14:30:00",1130.03,65.4,TRADE
TAS1,"2006/11/28 15:00:00",1121.85,56.43,TRADE
TAS1,"2006/11/28 15:30:00",1142.87,79.4,TRADE
TAS1,"2006/11/28 16:00:00",1163.47,75.53,TRADE
TAS1,"2006/11/28 16:30:00",1176.43,75.34,TRADE
TAS1,"2006/11/28 17:00:00",1199.21,67.83,TRADE
TAS1,"2006/11/28 17:30:00",1165.58,52.5,TRADE
TAS1,"2006/11/28 18:00:00",1196.03,51.67,TRADE
TAS1,"2006/11/28 18:30:00",1177.38,44.32,TRADE
TAS1,"2006/11/28 19:00:00",1141.57,45.69,TRADE
TAS1,"2006/11/28 19:30:00",1165.15,48.63,TRADE
TAS1,"2006/11/28 20:00:00",1184.76,47.31,TRADE
TAS1,"2006/11/28 20:30:00",1187.25,46.19,TRADE
TAS1,"2006/11/28 21:00:00",1171.35,45.54,TRADE
TAS1,"2006/11/28 21:30:00",1143.13,45.5,TRADE
TAS1,"2006/11/28 22:00:00",1113.01,45.5,TRADE
TAS1,"2006/11/28 22:30:00",1083.05,45.5,TRADE
TAS1,"2006/11/28 23:00:00",1040.83,45.5,TRADE
TAS1,"2006/11/28 23:30:00",995.14,45.5,TRADE
TAS1,"2006/11/29 00:00:00",989.39,45.5,TRADE
TAS1,"2006/11/29 00:30:00",982.5,45.5,TRADE
TAS1,"2006/11/29 01:00:00",981.83,45.5,TRADE
TAS1,"2006/11/29 01:30:00",977.74,37.4,TRADE
TAS1,"2006/11/29 02:00:00",978.02,29.3,TRADE
TAS1,"2006/11/29 02:30:00",974.1,29.3,TRADE
TAS1,"2006/11/29 03:00:00",978.09,29.3,TRADE
TAS1,"2006/11/29 03:30:00",982.83,29.3,TRADE
TAS1,"2006/11/29 04:00:00",982.93,29.3,TRADE
TAS1,"2006/11/29 04:30:00",995.16,29.3,TRADE
TAS1,"2006/11/29 05:00:00",1019.69,32.94,TRADE
TAS1,"2006/11/29 05:30:00",1080.81,40.1,TRADE
TAS1,"2006/11/29 06:00:00",1150.63,56.9,TRADE
TAS1,"2006/11/29 06:30:00",1245.67,59.13,TRADE
TAS1,"2006/11/29 07:00:00",1291.54,59.87,TRADE
TAS1,"2006/11/29 07:30:00",1280.72,57.03,TRADE
TAS1,"2006/11/29 08:00:00",1221.93,55.8,TRADE
TAS1,"2006/11/29 08:30:00",1226.11,55.79,TRADE
TAS1,"2006/11/29 09:00:00",1204.03,51.2,TRADE
TAS1,"2006/11/29 09:30:00",1187.89,51.2,TRADE
TAS1,"2006/11/29 10:00:00",1176.49,42.52,TRADE
TAS1,"2006/11/29 10:30:00",1165.94,29.44,TRADE
TAS1,"2006/11/29 11:00:00",1168.2,26.27,TRADE
TAS1,"2006/11/29 11:30:00",1142.88,34.19,TRADE
TAS1,"2006/11/29 12:00:00",1131.73,32.27,TRADE
TAS1,"2006/11/29 12:30:00",1131.19,32.47,TRADE
TAS1,"2006/11/29 13:00:00",1130.25,32.4,TRADE
TAS1,"2006/11/29 13:30:00",1122.39,31.91,TRADE
TAS1,"2006/11/29 14:00:00",1128.47,31.69,TRADE
TAS1,"2006/11/29 14:30:00",1142.9,31.58,TRADE
TAS1,"2006/11/29 15:00:00",1143.51,33.21,TRADE
TAS1,"2006/11/29 15:30:00",1139.18,31.13,TRADE
TAS1,"2006/11/29 16:00:00",1138.93,34.87,TRADE
TAS1,"2006/11/29 16:30:00",1156.1,36.54,TRADE
TAS1,"2006/11/29 17:00:00",1174.83,34.46,TRADE
TAS1,"2006/11/29 17:30:00",1172.36,25.63,TRADE
TAS1,"2006/11/29 18:00:00",1170.77,22.82,TRADE
TAS1,"2006/11/29 18:30:00",1199.81,51.17,TRADE
TAS1,"2006/11/29 19:00:00",1161.99,51.2,TRADE
TAS1,"2006/11/29 19:30:00",1191.94,51.2,TRADE
TAS1,"2006/11/29 20:00:00",1232.13,51.8,TRADE
TAS1,"2006/11/29 20:30:00",1264.58,52.51,TRADE
TAS1,"2006/11/29 21:00:00",1245.05,52.51,TRADE
TAS1,"2006/11/29 21:30:00",1208.72,51.53,TRADE
TAS1,"2006/11/29 22:00:00",1165.06,48.48,TRADE
TAS1,"2006/11/29 22:30:00",1131.26,39.1,TRADE
TAS1,"2006/11/29 23:00:00",1103.3,39.27,TRADE
TAS1,"2006/11/29 23:30:00",1072.79,43.97,TRADE
TAS1,"2006/11/30 00:00:00",1045.16,39.31,TRADE
TAS1,"2006/11/30 00:30:00",1037.39,39.26,TRADE
TAS1,"2006/11/30 01:00:00",1033.89,39.15,TRADE
TAS1,"2006/11/30 01:30:00",1036.38,39.15,TRADE
TAS1,"2006/11/30 02:00:00",1033.86,39.12,TRADE
TAS1,"2006/11/30 02:30:00",1031.71,31.21,TRADE
TAS1,"2006/11/30 03:00:00",1032.12,29.61,TRADE
TAS1,"2006/11/30 03:30:00",1046.52,29.58,TRADE
TAS1,"2006/11/30 04:00:00",1059.25,29.61,TRADE
TAS1,"2006/11/30 04:30:00",1062.32,29.36,TRADE
TAS1,"2006/11/30 05:00:00",1089.18,29.15,TRADE
TAS1,"2006/11/30 05:30:00",1154.05,39.33,TRADE
TAS1,"2006/11/30 06:00:00",1233.28,60.29,TRADE
TAS1,"2006/11/30 06:30:00",1324.82,62.1,TRADE
TAS1,"2006/11/30 07:00:00",1386.7,68.75,TRADE
TAS1,"2006/11/30 07:30:00",1390.28,62.17,TRADE
TAS1,"2006/11/30 08:00:00",1364.58,62.1,TRADE
TAS1,"2006/11/30 08:30:00",1319.12,59.72,TRADE
TAS1,"2006/11/30 09:00:00",1277.25,52.5,TRADE
TAS1,"2006/11/30 09:30:00",1214.02,52.25,TRADE
TAS1,"2006/11/30 10:00:00",1173.55,52.1,TRADE
TAS1,"2006/11/30 10:30:00",1152.92,52.1,TRADE
TAS1,"2006/11/30 11:00:00",1144.24,52.1,TRADE
TAS1,"2006/11/30 11:30:00",1116.94,29.1,TRADE
TAS1,"2006/11/30 12:00:00",1117.56,29.1,TRADE
TAS1,"2006/11/30 12:30:00",1109.79,29.1,TRADE
TAS1,"2006/11/30 13:00:00",1126.99,29.1,TRADE
TAS1,"2006/11/30 13:30:00",1057.1,52.1,TRADE
TAS1,"2006/11/30 14:00:00",948.49,52.1,TRADE
TAS1,"2006/11/30 14:30:00",1068.55,53.77,TRADE
TAS1,"2006/11/30 15:00:00",1139.1,57.03,TRADE
TAS1,"2006/11/30 15:30:00",1134.13,56.27,TRADE
TAS1,"2006/11/30 16:00:00",1122.23,52.1,TRADE
TAS1,"2006/11/30 16:30:00",1126.97,52.1,TRADE
TAS1,"2006/11/30 17:00:00",1141.65,52.1,TRADE
TAS1,"2006/11/30 17:30:00",1161.52,56.17,TRADE
TAS1,"2006/11/30 18:00:00",1144.78,53.71,TRADE
TAS1,"2006/11/30 18:30:00",1138.35,52.12,TRADE
TAS1,"2006/11/30 19:00:00",1142.89,57.2,TRADE
TAS1,"2006/11/30 19:30:00",1159.96,54.04,TRADE
TAS1,"2006/11/30 20:00:00",1186.59,52.1,TRADE
TAS1,"2006/11/30 20:30:00",1187.03,52.1,TRADE
TAS1,"2006/11/30 21:00:00",1170.23,52.1,TRADE
TAS1,"2006/11/30 21:30:00",1164.78,53.1,TRADE
TAS1,"2006/11/30 22:00:00",1153.17,53.1,TRADE
TAS1,"2006/11/30 22:30:00",1121.19,52.27,TRADE
TAS1,"2006/11/30 23:00:00",1091.75,52.22,TRADE
TAS1,"2006/11/30 23:30:00",1080.48,52.1,TRADE
TAS1,"2006/12/01 00:00:00",1067.08,48.32,TRADE
