REGION,SETTLEMENTDATE,TOTALDEMAND,RRP,PERIODTYPE
TAS1,"2012/12/01 00:30:00",1033.05,52.23,TRADE
TAS1,"2012/12/01 01:00:00",1002.58,61.25,TRADE
TAS1,"2012/12/01 01:30:00",988.72,54.83,TRADE
TAS1,"2012/12/01 02:00:00",988.81,55.86,TRADE
TAS1,"2012/12/01 02:30:00",972.5,53.54,TRADE
TAS1,"2012/12/01 03:00:00",973.14,53.32,TRADE
TAS1,"2012/12/01 03:30:00",966.75,51.73,TRADE
TAS1,"2012/12/01 04:00:00",962.76,49.53,TRADE
TAS1,"2012/12/01 04:30:00",959.97,50.19,TRADE
TAS1,"2012/12/01 05:00:00",942.98,49.07,TRADE
TAS1,"2012/12/01 05:30:00",945.55,48.88,TRADE
TAS1,"2012/12/01 06:00:00",953.61,47.82,TRADE
TAS1,"2012/12/01 06:30:00",984.46,49.46,TRADE
TAS1,"2012/12/01 07:00:00",1001.41,53.71,TRADE
TAS1,"2012/12/01 07:30:00",1004.53,52.99,TRADE
TAS1,"2012/12/01 08:00:00",1047.18,51.67,TRADE
TAS1,"2012/12/01 08:30:00",1070.87,52.23,TRADE
TAS1,"2012/12/01 09:00:00",1093.2,52.21,TRADE
TAS1,"2012/12/01 09:30:00",1094.88,52.21,TRADE
TAS1,"2012/12/01 10:00:00",1075.69,52.2,TRADE
TAS1,"2012/12/01 10:30:00",1056.56,52.35,TRADE
TAS1,"2012/12/01 11:00:00",1040.34,52.64,TRADE
TAS1,"2012/12/01 11:30:00",1010.69,52.2,TRADE
TAS1,"2012/12/01 12:00:00",887.68,52.23,TRADE
TAS1,"2012/12/01 12:30:00",922.68,53.31,TRADE
TAS1,"2012/12/01 13:00:00",879.55,56.34,TRADE
TAS1,"2012/12/01 13:30:00",907.81,60.02,TRADE
TAS1,"2012/12/01 14:00:00",864.94,60.09,TRADE
TAS1,"2012/12/01 14:30:00",881.69,57.65,TRADE
TAS1,"2012/12/01 15:00:00",906.7,52.37,TRADE
TAS1,"2012/12/01 15:30:00",926.11,52.28,TRADE
TAS1,"2012/12/01 16:00:00",932.89,52.47,TRADE
TAS1,"2012/12/01 16:30:00",962.63,52.44,TRADE
TAS1,"2012/12/01 17:00:00",983,53.55,TRADE
TAS1,"2012/12/01 17:30:00",977.91,52.27,TRADE
TAS1,"2012/12/01 18:00:00",971.98,61.48,TRADE
TAS1,"2012/12/01 18:30:00",962.68,49.35,TRADE
TAS1,"2012/12/01 19:00:00",966.92,48.24,TRADE
TAS1,"2012/12/01 19:30:00",956.57,49.45,TRADE
TAS1,"2012/12/01 20:00:00",987.83,51.96,TRADE
TAS1,"2012/12/01 20:30:00",1003.39,47.97,TRADE
TAS1,"2012/12/01 21:00:00",996.09,48.54,TRADE
TAS1,"2012/12/01 21:30:00",980.55,46.06,TRADE
TAS1,"2012/12/01 22:00:00",952.85,45.4,TRADE
TAS1,"2012/12/01 22:30:00",918.32,49.1,TRADE
TAS1,"2012/12/01 23:00:00",911.71,48.33,TRADE
TAS1,"2012/12/01 23:30:00",893.86,49.6,TRADE
TAS1,"2012/12/02 00:00:00",892.93,48.43,TRADE
TAS1,"2012/12/02 00:30:00",879.88,44.44,TRADE
TAS1,"2012/12/02 01:00:00",883.9,42.57,TRADE
TAS1,"2012/12/02 01:30:00",877.03,45.52,TRADE
TAS1,"2012/12/02 02:00:00",869.65,43.04,TRADE
TAS1,"2012/12/02 02:30:00",882.96,40.93,TRADE
TAS1,"2012/12/02 03:00:00",890.19,41.75,TRADE
TAS1,"2012/12/02 03:30:00",886.85,41.05,TRADE
TAS1,"2012/12/02 04:00:00",886.14,40.89,TRADE
TAS1,"2012/12/02 04:30:00",897.84,40.43,TRADE
TAS1,"2012/12/02 05:00:00",904.02,39.85,TRADE
TAS1,"2012/12/02 05:30:00",899.08,40,TRADE
TAS1,"2012/12/02 06:00:00",921.47,39.45,TRADE
TAS1,"2012/12/02 06:30:00",932.9,44.19,TRADE
TAS1,"2012/12/02 07:00:00",960.46,48.47,TRADE
TAS1,"2012/12/02 07:30:00",996.18,42.83,TRADE
TAS1,"2012/12/02 08:00:00",1018.44,41.73,TRADE
TAS1,"2012/12/02 08:30:00",1028.21,47.82,TRADE
TAS1,"2012/12/02 09:00:00",1033.34,52.58,TRADE
TAS1,"2012/12/02 09:30:00",1028.88,53.11,TRADE
TAS1,"2012/12/02 10:00:00",1039.02,53.26,TRADE
TAS1,"2012/12/02 10:30:00",1024.57,53.33,TRADE
TAS1,"2012/12/02 11:00:00",1035.27,53.67,TRADE
TAS1,"2012/12/02 11:30:00",1031.21,53.35,TRADE
TAS1,"2012/12/02 12:00:00",1012.4,52.56,TRADE
TAS1,"2012/12/02 12:30:00",1005.05,52.66,TRADE
TAS1,"2012/12/02 13:00:00",1007.46,52.47,TRADE
TAS1,"2012/12/02 13:30:00",1020.01,52.44,TRADE
TAS1,"2012/12/02 14:00:00",1024.01,52.72,TRADE
TAS1,"2012/12/02 14:30:00",1029.59,52.85,TRADE
TAS1,"2012/12/02 15:00:00",1036.3,52.85,TRADE
TAS1,"2012/12/02 15:30:00",1037.17,52.48,TRADE
TAS1,"2012/12/02 16:00:00",1090.52,53.8,TRADE
TAS1,"2012/12/02 16:30:00",1103.19,54,TRADE
TAS1,"2012/12/02 17:00:00",1119.41,55.01,TRADE
TAS1,"2012/12/02 17:30:00",1129.9,55.61,TRADE
TAS1,"2012/12/02 18:00:00",1137.28,55.91,TRADE
TAS1,"2012/12/02 18:30:00",1136.57,55.19,TRADE
TAS1,"2012/12/02 19:00:00",1141.94,55.63,TRADE
TAS1,"2012/12/02 19:30:00",1149.64,57.7,TRADE
TAS1,"2012/12/02 20:00:00",1152.65,58.82,TRADE
TAS1,"2012/12/02 20:30:00",1177.79,59.3,TRADE
TAS1,"2012/12/02 21:00:00",1155.61,56.84,TRADE
TAS1,"2012/12/02 21:30:00",1123.64,55.3,TRADE
TAS1,"2012/12/02 22:00:00",1084.89,53.81,TRADE
TAS1,"2012/12/02 22:30:00",1057.81,53.61,TRADE
TAS1,"2012/12/02 23:00:00",1030.66,52.69,TRADE
TAS1,"2012/12/02 23:30:00",1016.07,53.99,TRADE
TAS1,"2012/12/03 00:00:00",998.39,56.3,TRADE
TAS1,"2012/12/03 00:30:00",978.93,53.8,TRADE
TAS1,"2012/12/03 01:00:00",975.96,53.13,TRADE
TAS1,"2012/12/03 01:30:00",951.58,52.81,TRADE
TAS1,"2012/12/03 02:00:00",961.82,53.45,TRADE
TAS1,"2012/12/03 02:30:00",985.44,53.78,TRADE
TAS1,"2012/12/03 03:00:00",969.26,53.01,TRADE
TAS1,"2012/12/03 03:30:00",961.42,53.23,TRADE
TAS1,"2012/12/03 04:00:00",972.48,53.34,TRADE
TAS1,"2012/12/03 04:30:00",976.5,51.54,TRADE
TAS1,"2012/12/03 05:00:00",996,53.74,TRADE
TAS1,"2012/12/03 05:30:00",1043.91,54.76,TRADE
TAS1,"2012/12/03 06:00:00",1111.35,54.16,TRADE
TAS1,"2012/12/03 06:30:00",1144.28,52.59,TRADE
TAS1,"2012/12/03 07:00:00",1192.94,61.49,TRADE
TAS1,"2012/12/03 07:30:00",1182.17,51.9,TRADE
TAS1,"2012/12/03 08:00:00",1179.22,52.47,TRADE
TAS1,"2012/12/03 08:30:00",1142.63,52.33,TRADE
TAS1,"2012/12/03 09:00:00",1139.23,52.25,TRADE
TAS1,"2012/12/03 09:30:00",1108.49,52.23,TRADE
TAS1,"2012/12/03 10:00:00",1073.11,52.18,TRADE
TAS1,"2012/12/03 10:30:00",1091.58,52.23,TRADE
TAS1,"2012/12/03 11:00:00",1034.21,52.3,TRADE
TAS1,"2012/12/03 11:30:00",1069.47,53.98,TRADE
TAS1,"2012/12/03 12:00:00",1061.82,52.34,TRADE
TAS1,"2012/12/03 12:30:00",1036.33,53.24,TRADE
TAS1,"2012/12/03 13:00:00",1041.74,52.06,TRADE
TAS1,"2012/12/03 13:30:00",1052.16,51.86,TRADE
TAS1,"2012/12/03 14:00:00",1060.43,50.26,TRADE
TAS1,"2012/12/03 14:30:00",1070.51,53.38,TRADE
TAS1,"2012/12/03 15:00:00",1071.33,52.61,TRADE
TAS1,"2012/12/03 15:30:00",1073.95,49.3,TRADE
TAS1,"2012/12/03 16:00:00",1086.75,59.85,TRADE
TAS1,"2012/12/03 16:30:00",1118.86,54.35,TRADE
TAS1,"2012/12/03 17:00:00",1115.17,54.16,TRADE
TAS1,"2012/12/03 17:30:00",1127.03,54.16,TRADE
TAS1,"2012/12/03 18:00:00",1123.48,54.64,TRADE
TAS1,"2012/12/03 18:30:00",1117.98,56.09,TRADE
TAS1,"2012/12/03 19:00:00",1078.26,54.99,TRADE
TAS1,"2012/12/03 19:30:00",1077.44,54.97,TRADE
TAS1,"2012/12/03 20:00:00",1082.37,55.17,TRADE
TAS1,"2012/12/03 20:30:00",1096.53,55.08,TRADE
TAS1,"2012/12/03 21:00:00",1063.96,54.14,TRADE
TAS1,"2012/12/03 21:30:00",1043.97,53.65,TRADE
TAS1,"2012/12/03 22:00:00",1008.42,50.3,TRADE
TAS1,"2012/12/03 22:30:00",983.47,51.43,TRADE
TAS1,"2012/12/03 23:00:00",969.52,49.89,TRADE
TAS1,"2012/12/03 23:30:00",1005.99,53.64,TRADE
TAS1,"2012/12/04 00:00:00",955.32,53.22,TRADE
TAS1,"2012/12/04 00:30:00",944.8,50.7,TRADE
TAS1,"2012/12/04 01:00:00",932.56,49.08,TRADE
TAS1,"2012/12/04 01:30:00",920.35,48.64,TRADE
TAS1,"2012/12/04 02:00:00",922.05,45.23,TRADE
TAS1,"2012/12/04 02:30:00",926.61,47.37,TRADE
TAS1,"2012/12/04 03:00:00",921.53,46.84,TRADE
TAS1,"2012/12/04 03:30:00",912.4,44.42,TRADE
TAS1,"2012/12/04 04:00:00",914,43.37,TRADE
TAS1,"2012/12/04 04:30:00",939.74,42.59,TRADE
TAS1,"2012/12/04 05:00:00",963.35,47.39,TRADE
TAS1,"2012/12/04 05:30:00",1016.75,52.44,TRADE
TAS1,"2012/12/04 06:00:00",1085.97,54.24,TRADE
TAS1,"2012/12/04 06:30:00",1159.17,55.97,TRADE
TAS1,"2012/12/04 07:00:00",1199.11,60.15,TRADE
TAS1,"2012/12/04 07:30:00",1168.36,54.01,TRADE
TAS1,"2012/12/04 08:00:00",1132.86,54.8,TRADE
TAS1,"2012/12/04 08:30:00",1111.82,52.75,TRADE
TAS1,"2012/12/04 09:00:00",1079.65,49.47,TRADE
TAS1,"2012/12/04 09:30:00",1063.9,49.16,TRADE
TAS1,"2012/12/04 10:00:00",1046.97,50.47,TRADE
TAS1,"2012/12/04 10:30:00",1078.8,50.25,TRADE
TAS1,"2012/12/04 11:00:00",1064.89,49.5,TRADE
TAS1,"2012/12/04 11:30:00",1063.08,49.77,TRADE
TAS1,"2012/12/04 12:00:00",1071.84,49.99,TRADE
TAS1,"2012/12/04 12:30:00",1064.75,50.68,TRADE
TAS1,"2012/12/04 13:00:00",1053.31,51.55,TRADE
TAS1,"2012/12/04 13:30:00",1086.31,53.68,TRADE
TAS1,"2012/12/04 14:00:00",1069.51,52.94,TRADE
TAS1,"2012/12/04 14:30:00",1056.49,52.54,TRADE
TAS1,"2012/12/04 15:00:00",1057.83,53.38,TRADE
TAS1,"2012/12/04 15:30:00",1073.05,53.55,TRADE
TAS1,"2012/12/04 16:00:00",1080.24,53.97,TRADE
TAS1,"2012/12/04 16:30:00",1110.73,54.15,TRADE
TAS1,"2012/12/04 17:00:00",1119.01,54.42,TRADE
TAS1,"2012/12/04 17:30:00",1112.2,54,TRADE
TAS1,"2012/12/04 18:00:00",1108.38,54.16,TRADE
TAS1,"2012/12/04 18:30:00",1115.59,54.07,TRADE
TAS1,"2012/12/04 19:00:00",1130.02,54.12,TRADE
TAS1,"2012/12/04 19:30:00",1137.65,54.13,TRADE
TAS1,"2012/12/04 20:00:00",1148.58,54.16,TRADE
TAS1,"2012/12/04 20:30:00",1183.64,54.16,TRADE
TAS1,"2012/12/04 21:00:00",1155.7,54.13,TRADE
TAS1,"2012/12/04 21:30:00",1093.6,53.71,TRADE
TAS1,"2012/12/04 22:00:00",1043.9,50.65,TRADE
TAS1,"2012/12/04 22:30:00",1002.09,50.58,TRADE
TAS1,"2012/12/04 23:00:00",974.6,50.19,TRADE
TAS1,"2012/12/04 23:30:00",959.15,51.38,TRADE
TAS1,"2012/12/05 00:00:00",953.16,52.36,TRADE
TAS1,"2012/12/05 00:30:00",1001.7,52.75,TRADE
TAS1,"2012/12/05 01:00:00",1042.23,53.5,TRADE
TAS1,"2012/12/05 01:30:00",1012.48,52.29,TRADE
TAS1,"2012/12/05 02:00:00",959.9,49.88,TRADE
TAS1,"2012/12/05 02:30:00",954.13,48.26,TRADE
TAS1,"2012/12/05 03:00:00",947.26,48.11,TRADE
TAS1,"2012/12/05 03:30:00",950.23,47.14,TRADE
TAS1,"2012/12/05 04:00:00",955.16,47.87,TRADE
TAS1,"2012/12/05 04:30:00",970.5,47.65,TRADE
TAS1,"2012/12/05 05:00:00",997.58,50.97,TRADE
TAS1,"2012/12/05 05:30:00",1045.92,53.57,TRADE
TAS1,"2012/12/05 06:00:00",1106.57,55.54,TRADE
TAS1,"2012/12/05 06:30:00",1158.42,49.16,TRADE
TAS1,"2012/12/05 07:00:00",1223.41,54,TRADE
TAS1,"2012/12/05 07:30:00",1188.6,49.62,TRADE
TAS1,"2012/12/05 08:00:00",1167.81,46.76,TRADE
TAS1,"2012/12/05 08:30:00",1135.92,46.69,TRADE
TAS1,"2012/12/05 09:00:00",1092.86,50.34,TRADE
TAS1,"2012/12/05 09:30:00",1084.47,49.16,TRADE
TAS1,"2012/12/05 10:00:00",1067.6,49.16,TRADE
TAS1,"2012/12/05 10:30:00",1066.94,49.16,TRADE
TAS1,"2012/12/05 11:00:00",1048.62,49.16,TRADE
TAS1,"2012/12/05 11:30:00",1033.59,49.16,TRADE
TAS1,"2012/12/05 12:00:00",1012.24,49.94,TRADE
TAS1,"2012/12/05 12:30:00",1016.57,50.47,TRADE
TAS1,"2012/12/05 13:00:00",1021.69,49.18,TRADE
TAS1,"2012/12/05 13:30:00",1010.7,51.75,TRADE
TAS1,"2012/12/05 14:00:00",997.44,51.44,TRADE
TAS1,"2012/12/05 14:30:00",1005.37,48.51,TRADE
TAS1,"2012/12/05 15:00:00",1019.95,49.91,TRADE
TAS1,"2012/12/05 15:30:00",1037.35,51.39,TRADE
TAS1,"2012/12/05 16:00:00",1043.12,46.59,TRADE
TAS1,"2012/12/05 16:30:00",1064.66,46.49,TRADE
TAS1,"2012/12/05 17:00:00",1095.99,51.43,TRADE
TAS1,"2012/12/05 17:30:00",1093.73,49.58,TRADE
TAS1,"2012/12/05 18:00:00",1120.15,50.53,TRADE
TAS1,"2012/12/05 18:30:00",1099.31,50.67,TRADE
TAS1,"2012/12/05 19:00:00",1086.96,49.34,TRADE
TAS1,"2012/12/05 19:30:00",1061.6,47.05,TRADE
TAS1,"2012/12/05 20:00:00",1071.31,49.03,TRADE
TAS1,"2012/12/05 20:30:00",1087.96,52.04,TRADE
TAS1,"2012/12/05 21:00:00",1072.8,48.53,TRADE
TAS1,"2012/12/05 21:30:00",1028.3,44.46,TRADE
TAS1,"2012/12/05 22:00:00",982.91,51.83,TRADE
TAS1,"2012/12/05 22:30:00",989.49,53.29,TRADE
TAS1,"2012/12/05 23:00:00",981.99,53.43,TRADE
TAS1,"2012/12/05 23:30:00",971.93,53.56,TRADE
TAS1,"2012/12/06 00:00:00",942.15,53.81,TRADE
TAS1,"2012/12/06 00:30:00",955.64,53.13,TRADE
TAS1,"2012/12/06 01:00:00",940.8,52.79,TRADE
TAS1,"2012/12/06 01:30:00",932.41,52.66,TRADE
TAS1,"2012/12/06 02:00:00",935.5,51.93,TRADE
TAS1,"2012/12/06 02:30:00",957.14,50.54,TRADE
TAS1,"2012/12/06 03:00:00",972.15,49.69,TRADE
TAS1,"2012/12/06 03:30:00",970.53,50.21,TRADE
TAS1,"2012/12/06 04:00:00",967.39,50.71,TRADE
TAS1,"2012/12/06 04:30:00",990.59,52.24,TRADE
TAS1,"2012/12/06 05:00:00",1020.1,53.89,TRADE
TAS1,"2012/12/06 05:30:00",1085.64,57.18,TRADE
TAS1,"2012/12/06 06:00:00",1169.72,56.42,TRADE
TAS1,"2012/12/06 06:30:00",1241.91,54.25,TRADE
TAS1,"2012/12/06 07:00:00",1273.74,55.41,TRADE
TAS1,"2012/12/06 07:30:00",1253.27,49.59,TRADE
TAS1,"2012/12/06 08:00:00",1216.68,48.24,TRADE
TAS1,"2012/12/06 08:30:00",1166.22,48.23,TRADE
TAS1,"2012/12/06 09:00:00",1152.39,48.96,TRADE
TAS1,"2012/12/06 09:30:00",1133.88,50,TRADE
TAS1,"2012/12/06 10:00:00",1127.36,49.6,TRADE
TAS1,"2012/12/06 10:30:00",1118.3,50.13,TRADE
TAS1,"2012/12/06 11:00:00",1127.95,52.13,TRADE
TAS1,"2012/12/06 11:30:00",1153.19,50.46,TRADE
TAS1,"2012/12/06 12:00:00",1136.44,48.79,TRADE
TAS1,"2012/12/06 12:30:00",1126.83,48.41,TRADE
TAS1,"2012/12/06 13:00:00",1132.27,48.24,TRADE
TAS1,"2012/12/06 13:30:00",1127.15,48.24,TRADE
TAS1,"2012/12/06 14:00:00",1138.22,48.24,TRADE
TAS1,"2012/12/06 14:30:00",1138.2,50.98,TRADE
TAS1,"2012/12/06 15:00:00",1161.58,49.8,TRADE
TAS1,"2012/12/06 15:30:00",1163.19,48.23,TRADE
TAS1,"2012/12/06 16:00:00",1149.28,48.23,TRADE
TAS1,"2012/12/06 16:30:00",1182.45,50.12,TRADE
TAS1,"2012/12/06 17:00:00",1199.06,51.31,TRADE
TAS1,"2012/12/06 17:30:00",1184.71,52.23,TRADE
TAS1,"2012/12/06 18:00:00",1190.3,51.76,TRADE
TAS1,"2012/12/06 18:30:00",1181.85,52.62,TRADE
TAS1,"2012/12/06 19:00:00",1167.88,52.75,TRADE
TAS1,"2012/12/06 19:30:00",1182.89,54.22,TRADE
TAS1,"2012/12/06 20:00:00",1179.42,54.22,TRADE
TAS1,"2012/12/06 20:30:00",1209.44,54.31,TRADE
TAS1,"2012/12/06 21:00:00",1179.9,54.22,TRADE
TAS1,"2012/12/06 21:30:00",1134.24,56.21,TRADE
TAS1,"2012/12/06 22:00:00",1115.44,54.39,TRADE
TAS1,"2012/12/06 22:30:00",1113.08,54.94,TRADE
TAS1,"2012/12/06 23:00:00",1109.1,55.67,TRADE
TAS1,"2012/12/06 23:30:00",1096.43,58.46,TRADE
TAS1,"2012/12/07 00:00:00",1083.95,59.69,TRADE
TAS1,"2012/12/07 00:30:00",1063.16,55.7,TRADE
TAS1,"2012/12/07 01:00:00",1064.87,54.67,TRADE
TAS1,"2012/12/07 01:30:00",1059.46,54.75,TRADE
TAS1,"2012/12/07 02:00:00",1056.14,54.56,TRADE
TAS1,"2012/12/07 02:30:00",1058.6,53.26,TRADE
TAS1,"2012/12/07 03:00:00",1054.69,51.26,TRADE
TAS1,"2012/12/07 03:30:00",1054.57,51.01,TRADE
TAS1,"2012/12/07 04:00:00",1059.45,51.53,TRADE
TAS1,"2012/12/07 04:30:00",1077.31,53.29,TRADE
TAS1,"2012/12/07 05:00:00",1091.87,54.85,TRADE
TAS1,"2012/12/07 05:30:00",1148.37,57.18,TRADE
TAS1,"2012/12/07 06:00:00",1218.46,57.24,TRADE
TAS1,"2012/12/07 06:30:00",1277.6,54.66,TRADE
TAS1,"2012/12/07 07:00:00",1318.72,53.52,TRADE
TAS1,"2012/12/07 07:30:00",1302.71,49.54,TRADE
TAS1,"2012/12/07 08:00:00",1272.57,49.92,TRADE
TAS1,"2012/12/07 08:30:00",1245.29,49.77,TRADE
TAS1,"2012/12/07 09:00:00",1200.14,53.34,TRADE
TAS1,"2012/12/07 09:30:00",1181.6,54.2,TRADE
TAS1,"2012/12/07 10:00:00",1163.17,50.9,TRADE
TAS1,"2012/12/07 10:30:00",1156.34,52.09,TRADE
TAS1,"2012/12/07 11:00:00",1152.2,52.39,TRADE
TAS1,"2012/12/07 11:30:00",1140.49,50.46,TRADE
TAS1,"2012/12/07 12:00:00",1140.74,50.62,TRADE
TAS1,"2012/12/07 12:30:00",1123.62,49.03,TRADE
TAS1,"2012/12/07 13:00:00",1083.86,47.59,TRADE
TAS1,"2012/12/07 13:30:00",1091.75,47.69,TRADE
TAS1,"2012/12/07 14:00:00",1108.06,48.48,TRADE
TAS1,"2012/12/07 14:30:00",1087.36,48.33,TRADE
TAS1,"2012/12/07 15:00:00",1082.24,48.71,TRADE
TAS1,"2012/12/07 15:30:00",1067.8,48.33,TRADE
TAS1,"2012/12/07 16:00:00",1101.93,48.33,TRADE
TAS1,"2012/12/07 16:30:00",1110.62,48.43,TRADE
TAS1,"2012/12/07 17:00:00",1106.47,48.44,TRADE
TAS1,"2012/12/07 17:30:00",1083.71,48.33,TRADE
TAS1,"2012/12/07 18:00:00",1056.17,48.33,TRADE
TAS1,"2012/12/07 18:30:00",1046.45,48.33,TRADE
TAS1,"2012/12/07 19:00:00",1040.93,48.81,TRADE
TAS1,"2012/12/07 19:30:00",1062.47,49.05,TRADE
TAS1,"2012/12/07 20:00:00",1073.67,49.76,TRADE
TAS1,"2012/12/07 20:30:00",1104.45,49.57,TRADE
TAS1,"2012/12/07 21:00:00",1082.02,51.42,TRADE
TAS1,"2012/12/07 21:30:00",1056.88,55.31,TRADE
TAS1,"2012/12/07 22:00:00",1031.3,52.98,TRADE
TAS1,"2012/12/07 22:30:00",1007.48,55.44,TRADE
TAS1,"2012/12/07 23:00:00",1002.67,54.53,TRADE
TAS1,"2012/12/07 23:30:00",977.73,54.52,TRADE
TAS1,"2012/12/08 00:00:00",975.38,54.94,TRADE
TAS1,"2012/12/08 00:30:00",955.2,51.76,TRADE
TAS1,"2012/12/08 01:00:00",951.33,51.3,TRADE
TAS1,"2012/12/08 01:30:00",938.49,51.37,TRADE
TAS1,"2012/12/08 02:00:00",933.75,50.65,TRADE
TAS1,"2012/12/08 02:30:00",933.56,49.98,TRADE
TAS1,"2012/12/08 03:00:00",935.38,48.65,TRADE
TAS1,"2012/12/08 03:30:00",942.28,48.91,TRADE
TAS1,"2012/12/08 04:00:00",939.26,48.42,TRADE
TAS1,"2012/12/08 04:30:00",935.49,47.85,TRADE
TAS1,"2012/12/08 05:00:00",935.32,47.84,TRADE
TAS1,"2012/12/08 05:30:00",956.41,49.62,TRADE
TAS1,"2012/12/08 06:00:00",972.35,48.19,TRADE
TAS1,"2012/12/08 06:30:00",1003.82,47.13,TRADE
TAS1,"2012/12/08 07:00:00",1033.42,48.59,TRADE
TAS1,"2012/12/08 07:30:00",1032.79,47.95,TRADE
TAS1,"2012/12/08 08:00:00",1059.63,50.07,TRADE
TAS1,"2012/12/08 08:30:00",1079.53,50.35,TRADE
TAS1,"2012/12/08 09:00:00",1063.06,52.15,TRADE
TAS1,"2012/12/08 09:30:00",1051.97,52.27,TRADE
TAS1,"2012/12/08 10:00:00",1038.1,52.14,TRADE
TAS1,"2012/12/08 10:30:00",1036.58,56.47,TRADE
TAS1,"2012/12/08 11:00:00",1030.83,49.78,TRADE
TAS1,"2012/12/08 11:30:00",1014.98,49.95,TRADE
TAS1,"2012/12/08 12:00:00",1036.54,48.79,TRADE
TAS1,"2012/12/08 12:30:00",1057.27,52.62,TRADE
TAS1,"2012/12/08 13:00:00",1075.61,51.68,TRADE
TAS1,"2012/12/08 13:30:00",1108.1,54.65,TRADE
TAS1,"2012/12/08 14:00:00",1131.12,52.87,TRADE
TAS1,"2012/12/08 14:30:00",1113.32,51.09,TRADE
TAS1,"2012/12/08 15:00:00",1089.71,50.9,TRADE
TAS1,"2012/12/08 15:30:00",1067.15,46.33,TRADE
TAS1,"2012/12/08 16:00:00",1060.1,47.33,TRADE
TAS1,"2012/12/08 16:30:00",1078.78,46.34,TRADE
TAS1,"2012/12/08 17:00:00",1020.51,46.5,TRADE
TAS1,"2012/12/08 17:30:00",1034.58,45.22,TRADE
TAS1,"2012/12/08 18:00:00",1045.2,45.17,TRADE
TAS1,"2012/12/08 18:30:00",1040.2,44.16,TRADE
TAS1,"2012/12/08 19:00:00",1038,45.22,TRADE
TAS1,"2012/12/08 19:30:00",1048.39,41.57,TRADE
TAS1,"2012/12/08 20:00:00",990.24,42.35,TRADE
TAS1,"2012/12/08 20:30:00",1015.33,43.46,TRADE
TAS1,"2012/12/08 21:00:00",1028.85,40.96,TRADE
TAS1,"2012/12/08 21:30:00",1036.9,41.63,TRADE
TAS1,"2012/12/08 22:00:00",1010.66,38.71,TRADE
TAS1,"2012/12/08 22:30:00",1001.5,46.89,TRADE
TAS1,"2012/12/08 23:00:00",987.75,46.65,TRADE
TAS1,"2012/12/08 23:30:00",962.87,48.1,TRADE
TAS1,"2012/12/09 00:00:00",949.73,47.74,TRADE
TAS1,"2012/12/09 00:30:00",941.76,46.37,TRADE
TAS1,"2012/12/09 01:00:00",858.38,41.38,TRADE
TAS1,"2012/12/09 01:30:00",825.02,39.71,TRADE
TAS1,"2012/12/09 02:00:00",924.7,44.24,TRADE
TAS1,"2012/12/09 02:30:00",922.55,43.03,TRADE
TAS1,"2012/12/09 03:00:00",931.1,43.25,TRADE
TAS1,"2012/12/09 03:30:00",925.79,40.3,TRADE
TAS1,"2012/12/09 04:00:00",927.66,41.05,TRADE
TAS1,"2012/12/09 04:30:00",927.7,40.84,TRADE
TAS1,"2012/12/09 05:00:00",921.72,41.45,TRADE
TAS1,"2012/12/09 05:30:00",939.31,40.38,TRADE
TAS1,"2012/12/09 06:00:00",951.77,41.55,TRADE
TAS1,"2012/12/09 06:30:00",997.38,36.57,TRADE
TAS1,"2012/12/09 07:00:00",1030.08,37.09,TRADE
TAS1,"2012/12/09 07:30:00",1056.43,36.52,TRADE
TAS1,"2012/12/09 08:00:00",1054.28,42.65,TRADE
TAS1,"2012/12/09 08:30:00",1090.91,45.49,TRADE
TAS1,"2012/12/09 09:00:00",1101.7,46.27,TRADE
TAS1,"2012/12/09 09:30:00",1085.77,46.16,TRADE
TAS1,"2012/12/09 10:00:00",1064.64,46.06,TRADE
TAS1,"2012/12/09 10:30:00",1059.49,46.15,TRADE
TAS1,"2012/12/09 11:00:00",1061.89,46.05,TRADE
TAS1,"2012/12/09 11:30:00",1052.54,45.92,TRADE
TAS1,"2012/12/09 12:00:00",1037.56,45.74,TRADE
TAS1,"2012/12/09 12:30:00",1039.16,45.54,TRADE
TAS1,"2012/12/09 13:00:00",1024.57,43.87,TRADE
TAS1,"2012/12/09 13:30:00",1029.07,41.87,TRADE
TAS1,"2012/12/09 14:00:00",1026.7,42.03,TRADE
TAS1,"2012/12/09 14:30:00",1030.48,42.88,TRADE
TAS1,"2012/12/09 15:00:00",1029.06,44.04,TRADE
TAS1,"2012/12/09 15:30:00",1036.68,43.96,TRADE
TAS1,"2012/12/09 16:00:00",1058.13,45.24,TRADE
TAS1,"2012/12/09 16:30:00",1077.85,45.82,TRADE
TAS1,"2012/12/09 17:00:00",1100.61,49.58,TRADE
TAS1,"2012/12/09 17:30:00",1115.87,48.59,TRADE
TAS1,"2012/12/09 18:00:00",1120.81,47.98,TRADE
TAS1,"2012/12/09 18:30:00",1122.06,46.93,TRADE
TAS1,"2012/12/09 19:00:00",1121.76,46.97,TRADE
TAS1,"2012/12/09 19:30:00",1120.69,47.49,TRADE
TAS1,"2012/12/09 20:00:00",1129.41,47.5,TRADE
TAS1,"2012/12/09 20:30:00",1135.69,49.37,TRADE
TAS1,"2012/12/09 21:00:00",1139.18,47.15,TRADE
TAS1,"2012/12/09 21:30:00",1124.39,47.62,TRADE
TAS1,"2012/12/09 22:00:00",1110.67,45.53,TRADE
TAS1,"2012/12/09 22:30:00",1064.78,56.32,TRADE
TAS1,"2012/12/09 23:00:00",1041.83,50.87,TRADE
TAS1,"2012/12/09 23:30:00",998.54,48.54,TRADE
TAS1,"2012/12/10 00:00:00",1006.06,51.51,TRADE
TAS1,"2012/12/10 00:30:00",1007.28,53.1,TRADE
TAS1,"2012/12/10 01:00:00",1003.38,53.27,TRADE
TAS1,"2012/12/10 01:30:00",996.02,51.71,TRADE
TAS1,"2012/12/10 02:00:00",998.59,52.97,TRADE
TAS1,"2012/12/10 02:30:00",1005.74,56.32,TRADE
TAS1,"2012/12/10 03:00:00",1014.14,56.32,TRADE
TAS1,"2012/12/10 03:30:00",1011.99,56.32,TRADE
TAS1,"2012/12/10 04:00:00",1007.39,56.32,TRADE
TAS1,"2012/12/10 04:30:00",1028.49,51.75,TRADE
TAS1,"2012/12/10 05:00:00",1059.63,74.5,TRADE
TAS1,"2012/12/10 05:30:00",1106.15,50.79,TRADE
TAS1,"2012/12/10 06:00:00",1184.84,51.92,TRADE
TAS1,"2012/12/10 06:30:00",1266.18,47.23,TRADE
TAS1,"2012/12/10 07:00:00",1308.98,51.32,TRADE
TAS1,"2012/12/10 07:30:00",1295.3,46.22,TRADE
TAS1,"2012/12/10 08:00:00",1284.44,46.22,TRADE
TAS1,"2012/12/10 08:30:00",1264.08,50.66,TRADE
TAS1,"2012/12/10 09:00:00",1228.68,50.91,TRADE
TAS1,"2012/12/10 09:30:00",1209.83,50.53,TRADE
TAS1,"2012/12/10 10:00:00",1192.64,49.06,TRADE
TAS1,"2012/12/10 10:30:00",1176.57,48.74,TRADE
TAS1,"2012/12/10 11:00:00",1170.19,46.51,TRADE
TAS1,"2012/12/10 11:30:00",1161.02,50.39,TRADE
TAS1,"2012/12/10 12:00:00",1127.09,52.67,TRADE
TAS1,"2012/12/10 12:30:00",1127,53.92,TRADE
TAS1,"2012/12/10 13:00:00",1127.78,52.92,TRADE
TAS1,"2012/12/10 13:30:00",1143.92,53.07,TRADE
TAS1,"2012/12/10 14:00:00",1121.19,53.12,TRADE
TAS1,"2012/12/10 14:30:00",1146.33,52.77,TRADE
TAS1,"2012/12/10 15:00:00",1102.09,51.99,TRADE
TAS1,"2012/12/10 15:30:00",1111.19,52.73,TRADE
TAS1,"2012/12/10 16:00:00",1173.28,55.18,TRADE
TAS1,"2012/12/10 16:30:00",1187.93,55.11,TRADE
TAS1,"2012/12/10 17:00:00",1202.26,55.65,TRADE
TAS1,"2012/12/10 17:30:00",1209.42,54.35,TRADE
TAS1,"2012/12/10 18:00:00",1210.74,54.21,TRADE
TAS1,"2012/12/10 18:30:00",1217.21,52.48,TRADE
TAS1,"2012/12/10 19:00:00",1213.63,56.32,TRADE
TAS1,"2012/12/10 19:30:00",1220.85,56.32,TRADE
TAS1,"2012/12/10 20:00:00",1237.62,56.33,TRADE
TAS1,"2012/12/10 20:30:00",1236.61,56.36,TRADE
TAS1,"2012/12/10 21:00:00",1213.31,54.42,TRADE
TAS1,"2012/12/10 21:30:00",1178.92,56.32,TRADE
TAS1,"2012/12/10 22:00:00",1155.68,56.32,TRADE
TAS1,"2012/12/10 22:30:00",1131.59,56.32,TRADE
TAS1,"2012/12/10 23:00:00",1102.85,56.32,TRADE
TAS1,"2012/12/10 23:30:00",1083.64,56.32,TRADE
TAS1,"2012/12/11 00:00:00",1072.16,56.32,TRADE
TAS1,"2012/12/11 00:30:00",1059.73,56.32,TRADE
TAS1,"2012/12/11 01:00:00",1054.38,55.24,TRADE
TAS1,"2012/12/11 01:30:00",1043.17,50.58,TRADE
TAS1,"2012/12/11 02:00:00",1038.5,50.41,TRADE
TAS1,"2012/12/11 02:30:00",1027.15,56.32,TRADE
TAS1,"2012/12/11 03:00:00",1033.36,56.32,TRADE
TAS1,"2012/12/11 03:30:00",1032.53,56.32,TRADE
TAS1,"2012/12/11 04:00:00",1029.6,56.32,TRADE
TAS1,"2012/12/11 04:30:00",1034.84,56.32,TRADE
TAS1,"2012/12/11 05:00:00",1048.89,56.32,TRADE
TAS1,"2012/12/11 05:30:00",1096.35,55.45,TRADE
TAS1,"2012/12/11 06:00:00",1147.83,55.51,TRADE
TAS1,"2012/12/11 06:30:00",1190.31,53.2,TRADE
TAS1,"2012/12/11 07:00:00",1234.57,51.32,TRADE
TAS1,"2012/12/11 07:30:00",1208.58,50.13,TRADE
TAS1,"2012/12/11 08:00:00",1149.51,49.83,TRADE
TAS1,"2012/12/11 08:30:00",1104.6,50.38,TRADE
TAS1,"2012/12/11 09:00:00",1062.7,50.41,TRADE
TAS1,"2012/12/11 09:30:00",1056.05,51.89,TRADE
TAS1,"2012/12/11 10:00:00",1071.6,51.87,TRADE
TAS1,"2012/12/11 10:30:00",1121.56,52.86,TRADE
TAS1,"2012/12/11 11:00:00",1113.52,51.45,TRADE
TAS1,"2012/12/11 11:30:00",1095.83,51.34,TRADE
TAS1,"2012/12/11 12:00:00",1095.6,51.4,TRADE
TAS1,"2012/12/11 12:30:00",1096.35,51.33,TRADE
TAS1,"2012/12/11 13:00:00",1102.45,51.6,TRADE
TAS1,"2012/12/11 13:30:00",1095.22,51.32,TRADE
TAS1,"2012/12/11 14:00:00",1103.97,51.4,TRADE
TAS1,"2012/12/11 14:30:00",1090.91,51.45,TRADE
TAS1,"2012/12/11 15:00:00",1110.25,51.32,TRADE
TAS1,"2012/12/11 15:30:00",1101.67,51.32,TRADE
TAS1,"2012/12/11 16:00:00",1106.24,51.32,TRADE
TAS1,"2012/12/11 16:30:00",1124.21,51.32,TRADE
TAS1,"2012/12/11 17:00:00",1137.23,51.32,TRADE
TAS1,"2012/12/11 17:30:00",1143.53,51.32,TRADE
TAS1,"2012/12/11 18:00:00",1136.96,51.36,TRADE
TAS1,"2012/12/11 18:30:00",1125.41,51.32,TRADE
TAS1,"2012/12/11 19:00:00",1100.46,51.32,TRADE
TAS1,"2012/12/11 19:30:00",1135.64,53,TRADE
TAS1,"2012/12/11 20:00:00",1129.36,52.14,TRADE
TAS1,"2012/12/11 20:30:00",1155.48,52.59,TRADE
TAS1,"2012/12/11 21:00:00",1153.85,52.04,TRADE
TAS1,"2012/12/11 21:30:00",1118.9,54.03,TRADE
TAS1,"2012/12/11 22:00:00",1088.36,49.29,TRADE
TAS1,"2012/12/11 22:30:00",1051.79,48.92,TRADE
TAS1,"2012/12/11 23:00:00",1019.75,48.47,TRADE
TAS1,"2012/12/11 23:30:00",990.74,50.55,TRADE
TAS1,"2012/12/12 00:00:00",975.58,51.36,TRADE
TAS1,"2012/12/12 00:30:00",956.12,51.16,TRADE
TAS1,"2012/12/12 01:00:00",941.62,47.87,TRADE
TAS1,"2012/12/12 01:30:00",940.5,47.11,TRADE
TAS1,"2012/12/12 02:00:00",938.68,46.9,TRADE
TAS1,"2012/12/12 02:30:00",928,47.71,TRADE
TAS1,"2012/12/12 03:00:00",928.13,48.19,TRADE
TAS1,"2012/12/12 03:30:00",931.72,48.67,TRADE
TAS1,"2012/12/12 04:00:00",939.19,48.49,TRADE
TAS1,"2012/12/12 04:30:00",950.73,50.41,TRADE
TAS1,"2012/12/12 05:00:00",971.43,52.8,TRADE
TAS1,"2012/12/12 05:30:00",1021.34,52,TRADE
TAS1,"2012/12/12 06:00:00",1075.15,53.17,TRADE
TAS1,"2012/12/12 06:30:00",1137.39,56.1,TRADE
TAS1,"2012/12/12 07:00:00",1177.11,56.5,TRADE
TAS1,"2012/12/12 07:30:00",1163.74,56.32,TRADE
TAS1,"2012/12/12 08:00:00",1159.41,56.32,TRADE
TAS1,"2012/12/12 08:30:00",1139.52,56.32,TRADE
TAS1,"2012/12/12 09:00:00",1128.77,54.15,TRADE
TAS1,"2012/12/12 09:30:00",1110.06,55.43,TRADE
TAS1,"2012/12/12 10:00:00",1116.99,53,TRADE
TAS1,"2012/12/12 10:30:00",1128.04,63.87,TRADE
TAS1,"2012/12/12 11:00:00",1115.47,51.32,TRADE
TAS1,"2012/12/12 11:30:00",1105.98,51.32,TRADE
TAS1,"2012/12/12 12:00:00",1092.75,51.32,TRADE
TAS1,"2012/12/12 12:30:00",1074.46,51.32,TRADE
TAS1,"2012/12/12 13:00:00",1064,51.32,TRADE
TAS1,"2012/12/12 13:30:00",1063.71,51.32,TRADE
TAS1,"2012/12/12 14:00:00",1070.28,51.32,TRADE
TAS1,"2012/12/12 14:30:00",1070.27,51.32,TRADE
TAS1,"2012/12/12 15:00:00",1073.43,51.32,TRADE
TAS1,"2012/12/12 15:30:00",1078.71,51.32,TRADE
TAS1,"2012/12/12 16:00:00",1097.65,51.32,TRADE
TAS1,"2012/12/12 16:30:00",1117.48,51.32,TRADE
TAS1,"2012/12/12 17:00:00",1110.73,51.32,TRADE
TAS1,"2012/12/12 17:30:00",1095.82,51.32,TRADE
TAS1,"2012/12/12 18:00:00",1074.91,51.32,TRADE
TAS1,"2012/12/12 18:30:00",1062.76,51.32,TRADE
TAS1,"2012/12/12 19:00:00",1054.07,51.22,TRADE
TAS1,"2012/12/12 19:30:00",1054.85,51.32,TRADE
TAS1,"2012/12/12 20:00:00",1064.84,51.32,TRADE
TAS1,"2012/12/12 20:30:00",1082.15,51.32,TRADE
TAS1,"2012/12/12 21:00:00",1072.48,51.32,TRADE
TAS1,"2012/12/12 21:30:00",1063.02,51.21,TRADE
TAS1,"2012/12/12 22:00:00",1007.19,51.5,TRADE
TAS1,"2012/12/12 22:30:00",1004.64,51.52,TRADE
TAS1,"2012/12/12 23:00:00",968.75,56.2,TRADE
TAS1,"2012/12/12 23:30:00",961.78,56.32,TRADE
TAS1,"2012/12/13 00:00:00",954.71,56.3,TRADE
TAS1,"2012/12/13 00:30:00",941.39,52.64,TRADE
TAS1,"2012/12/13 01:00:00",942.91,50.26,TRADE
TAS1,"2012/12/13 01:30:00",930.68,49.41,TRADE
TAS1,"2012/12/13 02:00:00",932.92,47.98,TRADE
TAS1,"2012/12/13 02:30:00",939.71,50.4,TRADE
TAS1,"2012/12/13 03:00:00",938.34,49.5,TRADE
TAS1,"2012/12/13 03:30:00",918.18,48.05,TRADE
TAS1,"2012/12/13 04:00:00",908.76,48.49,TRADE
TAS1,"2012/12/13 04:30:00",925.31,49.35,TRADE
TAS1,"2012/12/13 05:00:00",941.83,51.39,TRADE
TAS1,"2012/12/13 05:30:00",1001.42,48.66,TRADE
TAS1,"2012/12/13 06:00:00",1070.36,51.41,TRADE
TAS1,"2012/12/13 06:30:00",1108.53,55.25,TRADE
TAS1,"2012/12/13 07:00:00",1171.16,53.68,TRADE
TAS1,"2012/12/13 07:30:00",1170.05,52.14,TRADE
TAS1,"2012/12/13 08:00:00",1146.71,54.55,TRADE
TAS1,"2012/12/13 08:30:00",1158.91,55.08,TRADE
TAS1,"2012/12/13 09:00:00",1132.87,51.32,TRADE
TAS1,"2012/12/13 09:30:00",1131.73,51.32,TRADE
TAS1,"2012/12/13 10:00:00",1123.27,51.32,TRADE
TAS1,"2012/12/13 10:30:00",1136.28,51.32,TRADE
TAS1,"2012/12/13 11:00:00",1142.68,51.32,TRADE
TAS1,"2012/12/13 11:30:00",1169.21,53.82,TRADE
TAS1,"2012/12/13 12:00:00",1175.02,56.32,TRADE
TAS1,"2012/12/13 12:30:00",1170.98,52.99,TRADE
TAS1,"2012/12/13 13:00:00",1156.41,51.32,TRADE
TAS1,"2012/12/13 13:30:00",1145.58,48.82,TRADE
TAS1,"2012/12/13 14:00:00",1150.1,46.32,TRADE
TAS1,"2012/12/13 14:30:00",1178.33,46.32,TRADE
TAS1,"2012/12/13 15:00:00",1185.29,14.98,TRADE
TAS1,"2012/12/13 15:30:00",1166.19,44.31,TRADE
TAS1,"2012/12/13 16:00:00",1162.33,36.28,TRADE
TAS1,"2012/12/13 16:30:00",1179.32,46.32,TRADE
TAS1,"2012/12/13 17:00:00",1196.6,46.32,TRADE
TAS1,"2012/12/13 17:30:00",1198.94,46.32,TRADE
TAS1,"2012/12/13 18:00:00",1190.99,51.47,TRADE
TAS1,"2012/12/13 18:30:00",1171.36,51.41,TRADE
TAS1,"2012/12/13 19:00:00",1175.13,51.33,TRADE
TAS1,"2012/12/13 19:30:00",1192.92,51.32,TRADE
TAS1,"2012/12/13 20:00:00",1205.17,51.71,TRADE
TAS1,"2012/12/13 20:30:00",1213.11,51.77,TRADE
TAS1,"2012/12/13 21:00:00",1193.15,51.32,TRADE
TAS1,"2012/12/13 21:30:00",1154.55,55.3,TRADE
TAS1,"2012/12/13 22:00:00",1117.85,51.19,TRADE
TAS1,"2012/12/13 22:30:00",1098.88,53.38,TRADE
TAS1,"2012/12/13 23:00:00",1072.9,56.32,TRADE
TAS1,"2012/12/13 23:30:00",1041.79,56.41,TRADE
TAS1,"2012/12/14 00:00:00",1029,56.77,TRADE
TAS1,"2012/12/14 00:30:00",1003.63,56.35,TRADE
TAS1,"2012/12/14 01:00:00",966.96,56.02,TRADE
TAS1,"2012/12/14 01:30:00",994.46,56.27,TRADE
TAS1,"2012/12/14 02:00:00",991.49,55.57,TRADE
TAS1,"2012/12/14 02:30:00",984.39,55.34,TRADE
TAS1,"2012/12/14 03:00:00",984.25,55.63,TRADE
TAS1,"2012/12/14 03:30:00",991.78,55.47,TRADE
TAS1,"2012/12/14 04:00:00",1003.06,56.1,TRADE
TAS1,"2012/12/14 04:30:00",1015.94,56.32,TRADE
TAS1,"2012/12/14 05:00:00",1045.14,56.32,TRADE
TAS1,"2012/12/14 05:30:00",1098.04,56.34,TRADE
TAS1,"2012/12/14 06:00:00",1163.73,56.01,TRADE
TAS1,"2012/12/14 06:30:00",1231.91,55.48,TRADE
TAS1,"2012/12/14 07:00:00",1283.42,54.6,TRADE
TAS1,"2012/12/14 07:30:00",1282.11,54.67,TRADE
TAS1,"2012/12/14 08:00:00",1272.92,51.32,TRADE
TAS1,"2012/12/14 08:30:00",1248.58,56.13,TRADE
TAS1,"2012/12/14 09:00:00",1239.82,56.27,TRADE
TAS1,"2012/12/14 09:30:00",1219.89,56.63,TRADE
TAS1,"2012/12/14 10:00:00",1185.34,55.26,TRADE
TAS1,"2012/12/14 10:30:00",1157.83,52.18,TRADE
TAS1,"2012/12/14 11:00:00",1142,51.31,TRADE
TAS1,"2012/12/14 11:30:00",1122.75,51.02,TRADE
TAS1,"2012/12/14 12:00:00",1119.76,51.32,TRADE
TAS1,"2012/12/14 12:30:00",1101.36,51.32,TRADE
TAS1,"2012/12/14 13:00:00",1092.17,51.66,TRADE
TAS1,"2012/12/14 13:30:00",1085.45,51.36,TRADE
TAS1,"2012/12/14 14:00:00",1095.17,51.36,TRADE
TAS1,"2012/12/14 14:30:00",1098.61,51.32,TRADE
TAS1,"2012/12/14 15:00:00",1093.71,51.32,TRADE
TAS1,"2012/12/14 15:30:00",1101.5,52.65,TRADE
TAS1,"2012/12/14 16:00:00",1108.25,54.61,TRADE
TAS1,"2012/12/14 16:30:00",1120.95,54.5,TRADE
TAS1,"2012/12/14 17:00:00",1110.22,55.21,TRADE
TAS1,"2012/12/14 17:30:00",1070.17,51.65,TRADE
TAS1,"2012/12/14 18:00:00",1057.4,51.39,TRADE
TAS1,"2012/12/14 18:30:00",1057.99,51.32,TRADE
TAS1,"2012/12/14 19:00:00",1063.82,51.32,TRADE
TAS1,"2012/12/14 19:30:00",1090.63,55.28,TRADE
TAS1,"2012/12/14 20:00:00",1102.13,56.05,TRADE
TAS1,"2012/12/14 20:30:00",1118.36,53.61,TRADE
TAS1,"2012/12/14 21:00:00",1083.66,51.32,TRADE
TAS1,"2012/12/14 21:30:00",1022.78,56.07,TRADE
TAS1,"2012/12/14 22:00:00",983.24,51.99,TRADE
TAS1,"2012/12/14 22:30:00",958.63,54.67,TRADE
TAS1,"2012/12/14 23:00:00",941.24,54.66,TRADE
TAS1,"2012/12/14 23:30:00",939.86,56.32,TRADE
TAS1,"2012/12/15 00:00:00",928.37,56.32,TRADE
TAS1,"2012/12/15 00:30:00",912.47,53.99,TRADE
TAS1,"2012/12/15 01:00:00",944.37,53.88,TRADE
TAS1,"2012/12/15 01:30:00",963.78,53.82,TRADE
TAS1,"2012/12/15 02:00:00",966.31,53.22,TRADE
TAS1,"2012/12/15 02:30:00",970.23,51.96,TRADE
TAS1,"2012/12/15 03:00:00",991.11,53.33,TRADE
TAS1,"2012/12/15 03:30:00",988.83,53.06,TRADE
TAS1,"2012/12/15 04:00:00",962.44,52.65,TRADE
TAS1,"2012/12/15 04:30:00",941.83,50.69,TRADE
TAS1,"2012/12/15 05:00:00",965.07,53.24,TRADE
TAS1,"2012/12/15 05:30:00",1018.7,55.74,TRADE
TAS1,"2012/12/15 06:00:00",1020.81,55.8,TRADE
TAS1,"2012/12/15 06:30:00",1099.66,56.32,TRADE
TAS1,"2012/12/15 07:00:00",1109.41,56.32,TRADE
TAS1,"2012/12/15 07:30:00",1105.93,56.32,TRADE
TAS1,"2012/12/15 08:00:00",1112.58,55.06,TRADE
TAS1,"2012/12/15 08:30:00",1113.92,54.41,TRADE
TAS1,"2012/12/15 09:00:00",1126.9,56,TRADE
TAS1,"2012/12/15 09:30:00",1092.51,49.01,TRADE
TAS1,"2012/12/15 10:00:00",1062.74,44.23,TRADE
TAS1,"2012/12/15 10:30:00",1057.65,43.45,TRADE
TAS1,"2012/12/15 11:00:00",1021.58,42.55,TRADE
TAS1,"2012/12/15 11:30:00",1013.09,44.38,TRADE
TAS1,"2012/12/15 12:00:00",991.57,46.03,TRADE
TAS1,"2012/12/15 12:30:00",981.68,46.07,TRADE
TAS1,"2012/12/15 13:00:00",986.65,45.28,TRADE
TAS1,"2012/12/15 13:30:00",980.28,47.8,TRADE
TAS1,"2012/12/15 14:00:00",963.21,46.53,TRADE
TAS1,"2012/12/15 14:30:00",989.91,46.92,TRADE
TAS1,"2012/12/15 15:00:00",1017.11,47.16,TRADE
TAS1,"2012/12/15 15:30:00",1035.89,47.11,TRADE
TAS1,"2012/12/15 16:00:00",1055.67,46.27,TRADE
TAS1,"2012/12/15 16:30:00",1075.45,46.55,TRADE
TAS1,"2012/12/15 17:00:00",1081.05,46.43,TRADE
TAS1,"2012/12/15 17:30:00",1042.1,46.08,TRADE
TAS1,"2012/12/15 18:00:00",1077.13,46.65,TRADE
TAS1,"2012/12/15 18:30:00",1063.14,46.28,TRADE
TAS1,"2012/12/15 19:00:00",1051.58,45.93,TRADE
TAS1,"2012/12/15 19:30:00",1025.34,46.03,TRADE
TAS1,"2012/12/15 20:00:00",1034.84,48.43,TRADE
TAS1,"2012/12/15 20:30:00",1076.95,49.88,TRADE
TAS1,"2012/12/15 21:00:00",1089.87,49.06,TRADE
TAS1,"2012/12/15 21:30:00",1074.84,47.23,TRADE
TAS1,"2012/12/15 22:00:00",1057.58,46.07,TRADE
TAS1,"2012/12/15 22:30:00",1030.52,44.43,TRADE
TAS1,"2012/12/15 23:00:00",1002.09,44.7,TRADE
TAS1,"2012/12/15 23:30:00",990.1,45.68,TRADE
TAS1,"2012/12/16 00:00:00",974.25,44.45,TRADE
TAS1,"2012/12/16 00:30:00",957.04,42.65,TRADE
TAS1,"2012/12/16 01:00:00",935.93,41.79,TRADE
TAS1,"2012/12/16 01:30:00",930.65,42.48,TRADE
TAS1,"2012/12/16 02:00:00",918.62,42.03,TRADE
TAS1,"2012/12/16 02:30:00",885.83,40.67,TRADE
TAS1,"2012/12/16 03:00:00",898.25,40.66,TRADE
TAS1,"2012/12/16 03:30:00",885.76,40.54,TRADE
TAS1,"2012/12/16 04:00:00",888.66,40.45,TRADE
TAS1,"2012/12/16 04:30:00",909.41,42.08,TRADE
TAS1,"2012/12/16 05:00:00",920.44,42.55,TRADE
TAS1,"2012/12/16 05:30:00",942.52,44.05,TRADE
TAS1,"2012/12/16 06:00:00",964.79,44.4,TRADE
TAS1,"2012/12/16 06:30:00",959.77,44.71,TRADE
TAS1,"2012/12/16 07:00:00",980.24,41.76,TRADE
TAS1,"2012/12/16 07:30:00",1017.98,43.72,TRADE
TAS1,"2012/12/16 08:00:00",1051.85,44.9,TRADE
TAS1,"2012/12/16 08:30:00",1071.25,45.92,TRADE
TAS1,"2012/12/16 09:00:00",1066.4,46.66,TRADE
TAS1,"2012/12/16 09:30:00",1053.62,45.55,TRADE
TAS1,"2012/12/16 10:00:00",1046.39,45.36,TRADE
TAS1,"2012/12/16 10:30:00",1042.39,45.15,TRADE
TAS1,"2012/12/16 11:00:00",1033.51,45.81,TRADE
TAS1,"2012/12/16 11:30:00",1022.98,44.97,TRADE
TAS1,"2012/12/16 12:00:00",1003.25,44.38,TRADE
TAS1,"2012/12/16 12:30:00",1003.22,44.35,TRADE
TAS1,"2012/12/16 13:00:00",1007.37,44.45,TRADE
TAS1,"2012/12/16 13:30:00",986.5,44.11,TRADE
TAS1,"2012/12/16 14:00:00",976.85,44.14,TRADE
TAS1,"2012/12/16 14:30:00",979.92,44.09,TRADE
TAS1,"2012/12/16 15:00:00",984.48,44.24,TRADE
TAS1,"2012/12/16 15:30:00",981.33,44.25,TRADE
TAS1,"2012/12/16 16:00:00",1008.18,44.46,TRADE
TAS1,"2012/12/16 16:30:00",1021.88,44.58,TRADE
TAS1,"2012/12/16 17:00:00",1058.76,45.58,TRADE
TAS1,"2012/12/16 17:30:00",1030.8,44.84,TRADE
TAS1,"2012/12/16 18:00:00",1044.27,45.03,TRADE
TAS1,"2012/12/16 18:30:00",1028.86,45.23,TRADE
TAS1,"2012/12/16 19:00:00",1024.03,46.34,TRADE
TAS1,"2012/12/16 19:30:00",1029.71,48.12,TRADE
TAS1,"2012/12/16 20:00:00",1038.93,50.4,TRADE
TAS1,"2012/12/16 20:30:00",1050.05,52,TRADE
TAS1,"2012/12/16 21:00:00",1037.31,49.94,TRADE
TAS1,"2012/12/16 21:30:00",1004.83,47.38,TRADE
TAS1,"2012/12/16 22:00:00",981.21,46.08,TRADE
TAS1,"2012/12/16 22:30:00",961.3,46.73,TRADE
TAS1,"2012/12/16 23:00:00",936.59,44.24,TRADE
TAS1,"2012/12/16 23:30:00",935.57,47.78,TRADE
TAS1,"2012/12/17 00:00:00",938.12,50.34,TRADE
TAS1,"2012/12/17 00:30:00",927.25,47.85,TRADE
TAS1,"2012/12/17 01:00:00",915.95,45.08,TRADE
TAS1,"2012/12/17 01:30:00",929.36,45.86,TRADE
TAS1,"2012/12/17 02:00:00",932.64,44.63,TRADE
TAS1,"2012/12/17 02:30:00",924.12,44.43,TRADE
TAS1,"2012/12/17 03:00:00",923.35,44.5,TRADE
TAS1,"2012/12/17 03:30:00",939.14,44.63,TRADE
TAS1,"2012/12/17 04:00:00",957.87,45.04,TRADE
TAS1,"2012/12/17 04:30:00",963.68,47.61,TRADE
TAS1,"2012/12/17 05:00:00",1010.69,49.8,TRADE
TAS1,"2012/12/17 05:30:00",1034.24,53.1,TRADE
TAS1,"2012/12/17 06:00:00",1100.67,54.38,TRADE
TAS1,"2012/12/17 06:30:00",1187.84,54.57,TRADE
TAS1,"2012/12/17 07:00:00",1212.58,52.16,TRADE
TAS1,"2012/12/17 07:30:00",1213.62,51.48,TRADE
TAS1,"2012/12/17 08:00:00",1163.09,49.21,TRADE
TAS1,"2012/12/17 08:30:00",1177.6,46.98,TRADE
TAS1,"2012/12/17 09:00:00",1173.08,46.89,TRADE
TAS1,"2012/12/17 09:30:00",1165.52,46.48,TRADE
TAS1,"2012/12/17 10:00:00",1151.39,46.09,TRADE
TAS1,"2012/12/17 10:30:00",1150.56,46.38,TRADE
TAS1,"2012/12/17 11:00:00",1142.2,44.54,TRADE
TAS1,"2012/12/17 11:30:00",1135.77,43.29,TRADE
TAS1,"2012/12/17 12:00:00",1100.68,43.42,TRADE
TAS1,"2012/12/17 12:30:00",1110.85,43.53,TRADE
TAS1,"2012/12/17 13:00:00",1101.03,43.81,TRADE
TAS1,"2012/12/17 13:30:00",1103.43,43.41,TRADE
TAS1,"2012/12/17 14:00:00",1120.91,42.62,TRADE
TAS1,"2012/12/17 14:30:00",1135.06,43.2,TRADE
TAS1,"2012/12/17 15:00:00",1128.35,42.49,TRADE
TAS1,"2012/12/17 15:30:00",1134.48,42.31,TRADE
TAS1,"2012/12/17 16:00:00",1124.81,41.9,TRADE
TAS1,"2012/12/17 16:30:00",1145.97,42.55,TRADE
TAS1,"2012/12/17 17:00:00",1131.96,42.53,TRADE
TAS1,"2012/12/17 17:30:00",1130.68,42.24,TRADE
TAS1,"2012/12/17 18:00:00",1127.6,46.32,TRADE
TAS1,"2012/12/17 18:30:00",1123.85,43.15,TRADE
TAS1,"2012/12/17 19:00:00",1109.02,46.67,TRADE
TAS1,"2012/12/17 19:30:00",1112.98,41.96,TRADE
TAS1,"2012/12/17 20:00:00",1120.55,44.83,TRADE
TAS1,"2012/12/17 20:30:00",1121.22,47.03,TRADE
TAS1,"2012/12/17 21:00:00",1108.57,45.61,TRADE
TAS1,"2012/12/17 21:30:00",1088.7,44.28,TRADE
TAS1,"2012/12/17 22:00:00",1054.31,41.75,TRADE
TAS1,"2012/12/17 22:30:00",1013.28,45.64,TRADE
TAS1,"2012/12/17 23:00:00",987.06,42.54,TRADE
TAS1,"2012/12/17 23:30:00",954.8,45.83,TRADE
TAS1,"2012/12/18 00:00:00",934.82,47.41,TRADE
TAS1,"2012/12/18 00:30:00",906.2,48.44,TRADE
TAS1,"2012/12/18 01:00:00",910.82,46.86,TRADE
TAS1,"2012/12/18 01:30:00",902.83,48.77,TRADE
TAS1,"2012/12/18 02:00:00",905.63,44.71,TRADE
TAS1,"2012/12/18 02:30:00",913.87,45.4,TRADE
TAS1,"2012/12/18 03:00:00",902.89,44.55,TRADE
TAS1,"2012/12/18 03:30:00",892.85,43.65,TRADE
TAS1,"2012/12/18 04:00:00",909.93,44.51,TRADE
TAS1,"2012/12/18 04:30:00",922.28,46.44,TRADE
TAS1,"2012/12/18 05:00:00",965.17,48.92,TRADE
TAS1,"2012/12/18 05:30:00",1011.37,43.6,TRADE
TAS1,"2012/12/18 06:00:00",1110.42,45.92,TRADE
TAS1,"2012/12/18 06:30:00",1184.36,47.35,TRADE
TAS1,"2012/12/18 07:00:00",1227.18,48.33,TRADE
TAS1,"2012/12/18 07:30:00",1214.8,48.03,TRADE
TAS1,"2012/12/18 08:00:00",1200.58,47.65,TRADE
TAS1,"2012/12/18 08:30:00",1176.7,46.23,TRADE
TAS1,"2012/12/18 09:00:00",1174.3,46.45,TRADE
TAS1,"2012/12/18 09:30:00",1158.29,46.15,TRADE
TAS1,"2012/12/18 10:00:00",1156,46.25,TRADE
TAS1,"2012/12/18 10:30:00",1130.92,45.87,TRADE
TAS1,"2012/12/18 11:00:00",1115.68,45.41,TRADE
TAS1,"2012/12/18 11:30:00",1131.14,46.51,TRADE
TAS1,"2012/12/18 12:00:00",1097.64,45.41,TRADE
TAS1,"2012/12/18 12:30:00",1099.15,46.19,TRADE
TAS1,"2012/12/18 13:00:00",1102.27,45.28,TRADE
TAS1,"2012/12/18 13:30:00",1107.93,43.33,TRADE
TAS1,"2012/12/18 14:00:00",1104.98,43.04,TRADE
TAS1,"2012/12/18 14:30:00",1123.5,43.4,TRADE
TAS1,"2012/12/18 15:00:00",1125.6,45.33,TRADE
TAS1,"2012/12/18 15:30:00",1101.21,43.22,TRADE
TAS1,"2012/12/18 16:00:00",1122.24,45.25,TRADE
TAS1,"2012/12/18 16:30:00",1144.11,45.25,TRADE
TAS1,"2012/12/18 17:00:00",1155.5,45.25,TRADE
TAS1,"2012/12/18 17:30:00",1144.4,44.91,TRADE
TAS1,"2012/12/18 18:00:00",1137,44.91,TRADE
TAS1,"2012/12/18 18:30:00",1144.35,44.03,TRADE
TAS1,"2012/12/18 19:00:00",1135.34,43.58,TRADE
TAS1,"2012/12/18 19:30:00",1134.14,44.78,TRADE
TAS1,"2012/12/18 20:00:00",1131.44,44.79,TRADE
TAS1,"2012/12/18 20:30:00",1135.87,44.16,TRADE
TAS1,"2012/12/18 21:00:00",1119.3,42.63,TRADE
TAS1,"2012/12/18 21:30:00",1096.33,39.03,TRADE
TAS1,"2012/12/18 22:00:00",1044.43,41.45,TRADE
TAS1,"2012/12/18 22:30:00",1002.77,55.74,TRADE
TAS1,"2012/12/18 23:00:00",976.49,45.65,TRADE
TAS1,"2012/12/18 23:30:00",948.9,45.95,TRADE
TAS1,"2012/12/19 00:00:00",942.27,46.24,TRADE
TAS1,"2012/12/19 00:30:00",933.74,44.62,TRADE
TAS1,"2012/12/19 01:00:00",941.56,41.04,TRADE
TAS1,"2012/12/19 01:30:00",929.61,42.45,TRADE
TAS1,"2012/12/19 02:00:00",940.09,44.65,TRADE
TAS1,"2012/12/19 02:30:00",943.97,44.75,TRADE
TAS1,"2012/12/19 03:00:00",942.81,43.61,TRADE
TAS1,"2012/12/19 03:30:00",940.52,44,TRADE
TAS1,"2012/12/19 04:00:00",947.24,44.65,TRADE
TAS1,"2012/12/19 04:30:00",955.17,44.01,TRADE
TAS1,"2012/12/19 05:00:00",969.36,39.45,TRADE
TAS1,"2012/12/19 05:30:00",992.32,42.78,TRADE
TAS1,"2012/12/19 06:00:00",1022.56,45.2,TRADE
TAS1,"2012/12/19 06:30:00",1082.01,45.6,TRADE
TAS1,"2012/12/19 07:00:00",1097.71,47.64,TRADE
TAS1,"2012/12/19 07:30:00",1093.12,46.04,TRADE
TAS1,"2012/12/19 08:00:00",1079.05,47.5,TRADE
TAS1,"2012/12/19 08:30:00",1057.62,45.5,TRADE
TAS1,"2012/12/19 09:00:00",1032.66,45.32,TRADE
TAS1,"2012/12/19 09:30:00",1019.01,43.77,TRADE
TAS1,"2012/12/19 10:00:00",1014.63,43.38,TRADE
TAS1,"2012/12/19 10:30:00",1045.97,46.69,TRADE
TAS1,"2012/12/19 11:00:00",1022.45,46.49,TRADE
TAS1,"2012/12/19 11:30:00",1013.55,44.11,TRADE
TAS1,"2012/12/19 12:00:00",1001.43,45.07,TRADE
TAS1,"2012/12/19 12:30:00",1014.96,44.07,TRADE
TAS1,"2012/12/19 13:00:00",977.47,43.54,TRADE
TAS1,"2012/12/19 13:30:00",1044.69,43.6,TRADE
TAS1,"2012/12/19 14:00:00",1067.02,45.5,TRADE
TAS1,"2012/12/19 14:30:00",1096.41,46.54,TRADE
TAS1,"2012/12/19 15:00:00",1092.62,46.74,TRADE
TAS1,"2012/12/19 15:30:00",1119.67,46.47,TRADE
TAS1,"2012/12/19 16:00:00",1148.37,47.66,TRADE
TAS1,"2012/12/19 16:30:00",1139.58,46.52,TRADE
TAS1,"2012/12/19 17:00:00",1153.16,46.69,TRADE
TAS1,"2012/12/19 17:30:00",1157.63,45.04,TRADE
TAS1,"2012/12/19 18:00:00",1166.23,43.8,TRADE
TAS1,"2012/12/19 18:30:00",1152.3,42.66,TRADE
TAS1,"2012/12/19 19:00:00",1140.63,42.52,TRADE
TAS1,"2012/12/19 19:30:00",1150.61,42.04,TRADE
TAS1,"2012/12/19 20:00:00",1149.46,43.09,TRADE
TAS1,"2012/12/19 20:30:00",1139.53,43.75,TRADE
TAS1,"2012/12/19 21:00:00",1120.22,41.35,TRADE
TAS1,"2012/12/19 21:30:00",1075.69,43.2,TRADE
TAS1,"2012/12/19 22:00:00",1032.99,41.19,TRADE
TAS1,"2012/12/19 22:30:00",980.2,42.71,TRADE
TAS1,"2012/12/19 23:00:00",967.51,42.61,TRADE
TAS1,"2012/12/19 23:30:00",960.56,42.65,TRADE
TAS1,"2012/12/20 00:00:00",965,45,TRADE
TAS1,"2012/12/20 00:30:00",964.12,42.67,TRADE
TAS1,"2012/12/20 01:00:00",953.2,43.1,TRADE
TAS1,"2012/12/20 01:30:00",931.46,45.02,TRADE
TAS1,"2012/12/20 02:00:00",901.87,43.39,TRADE
TAS1,"2012/12/20 02:30:00",902.26,42.69,TRADE
TAS1,"2012/12/20 03:00:00",880.11,41.41,TRADE
TAS1,"2012/12/20 03:30:00",874.1,40.16,TRADE
TAS1,"2012/12/20 04:00:00",895.57,42.48,TRADE
TAS1,"2012/12/20 04:30:00",920.83,44.99,TRADE
TAS1,"2012/12/20 05:00:00",937.25,45.52,TRADE
TAS1,"2012/12/20 05:30:00",978.76,43.13,TRADE
TAS1,"2012/12/20 06:00:00",1049.69,45.2,TRADE
TAS1,"2012/12/20 06:30:00",1128.36,45.21,TRADE
TAS1,"2012/12/20 07:00:00",1195.3,45.89,TRADE
TAS1,"2012/12/20 07:30:00",1189.68,42.48,TRADE
TAS1,"2012/12/20 08:00:00",1156.57,43.09,TRADE
TAS1,"2012/12/20 08:30:00",1152.92,42.92,TRADE
TAS1,"2012/12/20 09:00:00",1126.97,42.67,TRADE
TAS1,"2012/12/20 09:30:00",1110.12,42.08,TRADE
TAS1,"2012/12/20 10:00:00",1112.94,42.12,TRADE
TAS1,"2012/12/20 10:30:00",1119.37,41.45,TRADE
TAS1,"2012/12/20 11:00:00",1100.79,40.11,TRADE
TAS1,"2012/12/20 11:30:00",1086.21,38.89,TRADE
TAS1,"2012/12/20 12:00:00",1057.39,34.93,TRADE
TAS1,"2012/12/20 12:30:00",1055.83,36.01,TRADE
TAS1,"2012/12/20 13:00:00",1000.24,30.28,TRADE
TAS1,"2012/12/20 13:30:00",1028.08,33.61,TRADE
TAS1,"2012/12/20 14:00:00",1047.91,36.38,TRADE
TAS1,"2012/12/20 14:30:00",1038.89,34.27,TRADE
TAS1,"2012/12/20 15:00:00",1025.41,40.65,TRADE
TAS1,"2012/12/20 15:30:00",1031.28,40.89,TRADE
TAS1,"2012/12/20 16:00:00",1064.9,41.06,TRADE
TAS1,"2012/12/20 16:30:00",1096.14,41.28,TRADE
TAS1,"2012/12/20 17:00:00",1096.55,43.38,TRADE
TAS1,"2012/12/20 17:30:00",1100.52,42.02,TRADE
TAS1,"2012/12/20 18:00:00",1085.58,42.42,TRADE
TAS1,"2012/12/20 18:30:00",1083.44,42.65,TRADE
TAS1,"2012/12/20 19:00:00",1076.74,42.36,TRADE
TAS1,"2012/12/20 19:30:00",1062.37,43.33,TRADE
TAS1,"2012/12/20 20:00:00",1072.5,43.98,TRADE
TAS1,"2012/12/20 20:30:00",1094.6,43.5,TRADE
TAS1,"2012/12/20 21:00:00",1104.31,43.55,TRADE
TAS1,"2012/12/20 21:30:00",1090.4,43.16,TRADE
TAS1,"2012/12/20 22:00:00",1084.06,42.36,TRADE
TAS1,"2012/12/20 22:30:00",1078.11,45.93,TRADE
TAS1,"2012/12/20 23:00:00",1010.29,43.25,TRADE
TAS1,"2012/12/20 23:30:00",1032.18,47.13,TRADE
TAS1,"2012/12/21 00:00:00",1022.23,47.22,TRADE
TAS1,"2012/12/21 00:30:00",1008.02,44.53,TRADE
TAS1,"2012/12/21 01:00:00",1004.26,42.91,TRADE
TAS1,"2012/12/21 01:30:00",984.01,42.42,TRADE
TAS1,"2012/12/21 02:00:00",958.57,45.16,TRADE
TAS1,"2012/12/21 02:30:00",961.31,47.72,TRADE
TAS1,"2012/12/21 03:00:00",967.43,45.76,TRADE
TAS1,"2012/12/21 03:30:00",977.61,46.78,TRADE
TAS1,"2012/12/21 04:00:00",995.37,47.16,TRADE
TAS1,"2012/12/21 04:30:00",997.39,47.57,TRADE
TAS1,"2012/12/21 05:00:00",1011.24,47.65,TRADE
TAS1,"2012/12/21 05:30:00",1045.74,38.72,TRADE
TAS1,"2012/12/21 06:00:00",1108.37,110.91,TRADE
TAS1,"2012/12/21 06:30:00",1167.46,73.14,TRADE
TAS1,"2012/12/21 07:00:00",1196.75,44.86,TRADE
TAS1,"2012/12/21 07:30:00",1195.46,42.96,TRADE
TAS1,"2012/12/21 08:00:00",1203.72,43.65,TRADE
TAS1,"2012/12/21 08:30:00",1218.04,43.65,TRADE
TAS1,"2012/12/21 09:00:00",1204.79,42.16,TRADE
TAS1,"2012/12/21 09:30:00",1162.9,41.3,TRADE
TAS1,"2012/12/21 10:00:00",1139.63,41.28,TRADE
TAS1,"2012/12/21 10:30:00",1126.84,41.26,TRADE
TAS1,"2012/12/21 11:00:00",1111.04,41.27,TRADE
TAS1,"2012/12/21 11:30:00",1102.62,41.26,TRADE
TAS1,"2012/12/21 12:00:00",1076.16,42.13,TRADE
TAS1,"2012/12/21 12:30:00",1070.39,42.03,TRADE
TAS1,"2012/12/21 13:00:00",1087.6,42.47,TRADE
TAS1,"2012/12/21 13:30:00",1080.32,41.68,TRADE
TAS1,"2012/12/21 14:00:00",1089,42.56,TRADE
TAS1,"2012/12/21 14:30:00",1101.14,42.65,TRADE
TAS1,"2012/12/21 15:00:00",1104.13,42.7,TRADE
TAS1,"2012/12/21 15:30:00",1120.63,42.85,TRADE
TAS1,"2012/12/21 16:00:00",1110.83,43.63,TRADE
TAS1,"2012/12/21 16:30:00",1134.7,35.91,TRADE
TAS1,"2012/12/21 17:00:00",1158.48,34.73,TRADE
TAS1,"2012/12/21 17:30:00",1132.76,40.77,TRADE
TAS1,"2012/12/21 18:00:00",1124.96,40.13,TRADE
TAS1,"2012/12/21 18:30:00",1119.06,39.78,TRADE
TAS1,"2012/12/21 19:00:00",1114.81,40.83,TRADE
TAS1,"2012/12/21 19:30:00",1110.21,40.74,TRADE
TAS1,"2012/12/21 20:00:00",1129.68,40.76,TRADE
TAS1,"2012/12/21 20:30:00",1141.98,40.7,TRADE
TAS1,"2012/12/21 21:00:00",1125.77,40.73,TRADE
TAS1,"2012/12/21 21:30:00",1116.91,40.06,TRADE
TAS1,"2012/12/21 22:00:00",1097.72,39.06,TRADE
TAS1,"2012/12/21 22:30:00",1067.24,39.92,TRADE
TAS1,"2012/12/21 23:00:00",1062.71,30.32,TRADE
TAS1,"2012/12/21 23:30:00",1047.11,42.79,TRADE
TAS1,"2012/12/22 00:00:00",1037.27,43.13,TRADE
TAS1,"2012/12/22 00:30:00",1025.98,41.4,TRADE
TAS1,"2012/12/22 01:00:00",1008.98,45.73,TRADE
TAS1,"2012/12/22 01:30:00",1000.33,47.05,TRADE
TAS1,"2012/12/22 02:00:00",996.81,47.78,TRADE
TAS1,"2012/12/22 02:30:00",989.96,47.06,TRADE
TAS1,"2012/12/22 03:00:00",1000.99,47.86,TRADE
TAS1,"2012/12/22 03:30:00",1000.13,47.53,TRADE
TAS1,"2012/12/22 04:00:00",998.44,47.77,TRADE
TAS1,"2012/12/22 04:30:00",1004.71,46.66,TRADE
TAS1,"2012/12/22 05:00:00",1000.8,47.38,TRADE
TAS1,"2012/12/22 05:30:00",1014.65,49.37,TRADE
TAS1,"2012/12/22 06:00:00",1041.14,49.4,TRADE
TAS1,"2012/12/22 06:30:00",1070.07,49.9,TRADE
TAS1,"2012/12/22 07:00:00",1118.77,50.43,TRADE
TAS1,"2012/12/22 07:30:00",1140.41,45.58,TRADE
TAS1,"2012/12/22 08:00:00",1142.07,46.38,TRADE
TAS1,"2012/12/22 08:30:00",1151.91,46.13,TRADE
TAS1,"2012/12/22 09:00:00",1156.3,42.49,TRADE
TAS1,"2012/12/22 09:30:00",1152.12,43.18,TRADE
TAS1,"2012/12/22 10:00:00",1144.88,43.25,TRADE
TAS1,"2012/12/22 10:30:00",1135.96,44.08,TRADE
TAS1,"2012/12/22 11:00:00",1134.22,43.59,TRADE
TAS1,"2012/12/22 11:30:00",1121.79,43.5,TRADE
TAS1,"2012/12/22 12:00:00",1118.28,43.16,TRADE
TAS1,"2012/12/22 12:30:00",1097.39,42.89,TRADE
TAS1,"2012/12/22 13:00:00",1081.96,42.81,TRADE
TAS1,"2012/12/22 13:30:00",1068.11,42.91,TRADE
TAS1,"2012/12/22 14:00:00",1079.34,40.45,TRADE
TAS1,"2012/12/22 14:30:00",1091.11,40.24,TRADE
TAS1,"2012/12/22 15:00:00",1086.45,40.24,TRADE
TAS1,"2012/12/22 15:30:00",1065.02,40.23,TRADE
TAS1,"2012/12/22 16:00:00",1086.34,40.23,TRADE
TAS1,"2012/12/22 16:30:00",1083.8,40.22,TRADE
TAS1,"2012/12/22 17:00:00",1118.84,43.47,TRADE
TAS1,"2012/12/22 17:30:00",1110.23,43.01,TRADE
TAS1,"2012/12/22 18:00:00",1116.4,44.36,TRADE
TAS1,"2012/12/22 18:30:00",1110.23,42.62,TRADE
TAS1,"2012/12/22 19:00:00",1109.73,43.22,TRADE
TAS1,"2012/12/22 19:30:00",1110.11,43.69,TRADE
TAS1,"2012/12/22 20:00:00",1121.69,43.79,TRADE
TAS1,"2012/12/22 20:30:00",1117.2,44.37,TRADE
TAS1,"2012/12/22 21:00:00",1125.74,43.61,TRADE
TAS1,"2012/12/22 21:30:00",1101.36,43.54,TRADE
TAS1,"2012/12/22 22:00:00",1072.25,43.07,TRADE
TAS1,"2012/12/22 22:30:00",1023.48,44.37,TRADE
TAS1,"2012/12/22 23:00:00",1035.15,46.04,TRADE
TAS1,"2012/12/22 23:30:00",1026.55,46.65,TRADE
TAS1,"2012/12/23 00:00:00",1011.22,46.98,TRADE
TAS1,"2012/12/23 00:30:00",1009.85,46.46,TRADE
TAS1,"2012/12/23 01:00:00",1001.33,48.47,TRADE
TAS1,"2012/12/23 01:30:00",976.87,44.88,TRADE
TAS1,"2012/12/23 02:00:00",963.58,44.43,TRADE
TAS1,"2012/12/23 02:30:00",949.6,44.18,TRADE
TAS1,"2012/12/23 03:00:00",938.65,43.74,TRADE
TAS1,"2012/12/23 03:30:00",933.07,43.67,TRADE
TAS1,"2012/12/23 04:00:00",925.41,42.99,TRADE
TAS1,"2012/12/23 04:30:00",924.42,42.54,TRADE
TAS1,"2012/12/23 05:00:00",928.94,40.71,TRADE
TAS1,"2012/12/23 05:30:00",923.65,41.22,TRADE
TAS1,"2012/12/23 06:00:00",941,42.19,TRADE
TAS1,"2012/12/23 06:30:00",962.69,42.02,TRADE
TAS1,"2012/12/23 07:00:00",976.03,44.24,TRADE
TAS1,"2012/12/23 07:30:00",995.57,44.38,TRADE
TAS1,"2012/12/23 08:00:00",1012.84,45.86,TRADE
TAS1,"2012/12/23 08:30:00",1035.66,45.48,TRADE
TAS1,"2012/12/23 09:00:00",1046.48,46.13,TRADE
TAS1,"2012/12/23 09:30:00",1066.53,40.89,TRADE
TAS1,"2012/12/23 10:00:00",1065.28,44.53,TRADE
TAS1,"2012/12/23 10:30:00",1099.93,42.75,TRADE
TAS1,"2012/12/23 11:00:00",1084.32,43.31,TRADE
TAS1,"2012/12/23 11:30:00",1046.59,43.6,TRADE
TAS1,"2012/12/23 12:00:00",1030.48,45.07,TRADE
TAS1,"2012/12/23 12:30:00",1006.78,45.28,TRADE
TAS1,"2012/12/23 13:00:00",998.43,46.14,TRADE
TAS1,"2012/12/23 13:30:00",1002,46.13,TRADE
TAS1,"2012/12/23 14:00:00",1007.55,46.34,TRADE
TAS1,"2012/12/23 14:30:00",1019.91,46.07,TRADE
TAS1,"2012/12/23 15:00:00",1020.94,44.19,TRADE
TAS1,"2012/12/23 15:30:00",1046.27,45.67,TRADE
TAS1,"2012/12/23 16:00:00",1065.37,47.86,TRADE
TAS1,"2012/12/23 16:30:00",1058.73,48.18,TRADE
TAS1,"2012/12/23 17:00:00",1053.96,50.53,TRADE
TAS1,"2012/12/23 17:30:00",1044.15,50.05,TRADE
TAS1,"2012/12/23 18:00:00",1070.15,51.02,TRADE
TAS1,"2012/12/23 18:30:00",1055.52,49.39,TRADE
TAS1,"2012/12/23 19:00:00",1047.91,49.19,TRADE
TAS1,"2012/12/23 19:30:00",1040.37,45.33,TRADE
TAS1,"2012/12/23 20:00:00",1004.64,39.31,TRADE
TAS1,"2012/12/23 20:30:00",1042.59,44.11,TRADE
TAS1,"2012/12/23 21:00:00",1032.06,41.22,TRADE
TAS1,"2012/12/23 21:30:00",1032.25,41.15,TRADE
TAS1,"2012/12/23 22:00:00",1001.66,40.2,TRADE
TAS1,"2012/12/23 22:30:00",953.89,40.17,TRADE
TAS1,"2012/12/23 23:00:00",911.68,40.14,TRADE
TAS1,"2012/12/23 23:30:00",880.59,40.16,TRADE
TAS1,"2012/12/24 00:00:00",895.15,40.18,TRADE
TAS1,"2012/12/24 00:30:00",884.27,40.17,TRADE
TAS1,"2012/12/24 01:00:00",893.17,40.2,TRADE
TAS1,"2012/12/24 01:30:00",895.37,40.18,TRADE
TAS1,"2012/12/24 02:00:00",873.76,40.17,TRADE
TAS1,"2012/12/24 02:30:00",881.53,45.36,TRADE
TAS1,"2012/12/24 03:00:00",892.78,45.77,TRADE
TAS1,"2012/12/24 03:30:00",918.13,44.34,TRADE
TAS1,"2012/12/24 04:00:00",877.92,41.85,TRADE
TAS1,"2012/12/24 04:30:00",881.08,42.56,TRADE
TAS1,"2012/12/24 05:00:00",920.16,44.52,TRADE
TAS1,"2012/12/24 05:30:00",950.23,48.66,TRADE
TAS1,"2012/12/24 06:00:00",991.21,43.99,TRADE
TAS1,"2012/12/24 06:30:00",1050.8,43.66,TRADE
TAS1,"2012/12/24 07:00:00",1035.2,42.48,TRADE
TAS1,"2012/12/24 07:30:00",1049.19,43.7,TRADE
TAS1,"2012/12/24 08:00:00",1080.54,46.02,TRADE
TAS1,"2012/12/24 08:30:00",1098.05,47.04,TRADE
TAS1,"2012/12/24 09:00:00",1103.2,47.02,TRADE
TAS1,"2012/12/24 09:30:00",1106.89,47.39,TRADE
TAS1,"2012/12/24 10:00:00",1036.48,45.06,TRADE
TAS1,"2012/12/24 10:30:00",1055.51,45.37,TRADE
TAS1,"2012/12/24 11:00:00",1022.39,43.16,TRADE
TAS1,"2012/12/24 11:30:00",982.44,40.69,TRADE
TAS1,"2012/12/24 12:00:00",954.29,40.21,TRADE
TAS1,"2012/12/24 12:30:00",946.97,40.2,TRADE
TAS1,"2012/12/24 13:00:00",931.71,36.98,TRADE
TAS1,"2012/12/24 13:30:00",931.14,40.34,TRADE
TAS1,"2012/12/24 14:00:00",943.58,40.33,TRADE
TAS1,"2012/12/24 14:30:00",940.58,40.57,TRADE
TAS1,"2012/12/24 15:00:00",937.34,41.45,TRADE
TAS1,"2012/12/24 15:30:00",943.32,41.45,TRADE
TAS1,"2012/12/24 16:00:00",937.88,41.42,TRADE
TAS1,"2012/12/24 16:30:00",945.59,41.45,TRADE
TAS1,"2012/12/24 17:00:00",947.89,41.45,TRADE
TAS1,"2012/12/24 17:30:00",946.7,41.29,TRADE
TAS1,"2012/12/24 18:00:00",938.04,41.18,TRADE
TAS1,"2012/12/24 18:30:00",935.73,41.07,TRADE
TAS1,"2012/12/24 19:00:00",929.95,40.58,TRADE
TAS1,"2012/12/24 19:30:00",933.2,40.96,TRADE
TAS1,"2012/12/24 20:00:00",947.43,41.13,TRADE
TAS1,"2012/12/24 20:30:00",968.5,41.76,TRADE
TAS1,"2012/12/24 21:00:00",976.48,41.96,TRADE
TAS1,"2012/12/24 21:30:00",972.7,42.03,TRADE
TAS1,"2012/12/24 22:00:00",966.77,42.08,TRADE
TAS1,"2012/12/24 22:30:00",938.39,41.72,TRADE
TAS1,"2012/12/24 23:00:00",928.47,40.84,TRADE
TAS1,"2012/12/24 23:30:00",893.34,41.16,TRADE
TAS1,"2012/12/25 00:00:00",903.3,41.6,TRADE
TAS1,"2012/12/25 00:30:00",901.32,42.57,TRADE
TAS1,"2012/12/25 01:00:00",877.64,43.51,TRADE
TAS1,"2012/12/25 01:30:00",871.88,40.84,TRADE
TAS1,"2012/12/25 02:00:00",842.29,35.38,TRADE
TAS1,"2012/12/25 02:30:00",842.95,38.5,TRADE
TAS1,"2012/12/25 03:00:00",841.34,38.34,TRADE
TAS1,"2012/12/25 03:30:00",844.74,39.29,TRADE
TAS1,"2012/12/25 04:00:00",852.72,24.89,TRADE
TAS1,"2012/12/25 04:30:00",852.66,31.2,TRADE
TAS1,"2012/12/25 05:00:00",885.14,32.53,TRADE
TAS1,"2012/12/25 05:30:00",911.55,39.92,TRADE
TAS1,"2012/12/25 06:00:00",926.69,38.81,TRADE
TAS1,"2012/12/25 06:30:00",929.02,31.72,TRADE
TAS1,"2012/12/25 07:00:00",971.94,32.15,TRADE
TAS1,"2012/12/25 07:30:00",1023.75,33.34,TRADE
TAS1,"2012/12/25 08:00:00",1040.45,34.27,TRADE
TAS1,"2012/12/25 08:30:00",1024.11,34.27,TRADE
TAS1,"2012/12/25 09:00:00",1015.76,34.27,TRADE
TAS1,"2012/12/25 09:30:00",1019.6,34.27,TRADE
TAS1,"2012/12/25 10:00:00",1001.74,34.27,TRADE
TAS1,"2012/12/25 10:30:00",984.41,37.32,TRADE
TAS1,"2012/12/25 11:00:00",962.48,39.96,TRADE
TAS1,"2012/12/25 11:30:00",950.94,36.37,TRADE
TAS1,"2012/12/25 12:00:00",901.51,33.45,TRADE
TAS1,"2012/12/25 12:30:00",849.4,30.13,TRADE
TAS1,"2012/12/25 13:00:00",852.33,30.23,TRADE
TAS1,"2012/12/25 13:30:00",843.1,29.89,TRADE
TAS1,"2012/12/25 14:00:00",834.59,29.64,TRADE
TAS1,"2012/12/25 14:30:00",845.82,37.07,TRADE
TAS1,"2012/12/25 15:00:00",842.99,36.72,TRADE
TAS1,"2012/12/25 15:30:00",850.28,37.86,TRADE
TAS1,"2012/12/25 16:00:00",844.5,37.9,TRADE
TAS1,"2012/12/25 16:30:00",847.34,38.18,TRADE
TAS1,"2012/12/25 17:00:00",849.58,38.3,TRADE
TAS1,"2012/12/25 17:30:00",846.1,38.25,TRADE
TAS1,"2012/12/25 18:00:00",859.15,38.19,TRADE
TAS1,"2012/12/25 18:30:00",854.22,37.67,TRADE
TAS1,"2012/12/25 19:00:00",873.92,38.61,TRADE
TAS1,"2012/12/25 19:30:00",879.86,38.66,TRADE
TAS1,"2012/12/25 20:00:00",874.58,38.41,TRADE
TAS1,"2012/12/25 20:30:00",905.97,40.02,TRADE
TAS1,"2012/12/25 21:00:00",921.92,35.98,TRADE
TAS1,"2012/12/25 21:30:00",919.14,37.46,TRADE
TAS1,"2012/12/25 22:00:00",904.9,41.46,TRADE
TAS1,"2012/12/25 22:30:00",878.12,42.77,TRADE
TAS1,"2012/12/25 23:00:00",845.35,41.11,TRADE
TAS1,"2012/12/25 23:30:00",844.06,42.43,TRADE
TAS1,"2012/12/26 00:00:00",851.27,42.74,TRADE
TAS1,"2012/12/26 00:30:00",835.77,39.6,TRADE
TAS1,"2012/12/26 01:00:00",819.72,39.06,TRADE
TAS1,"2012/12/26 01:30:00",844.31,39.38,TRADE
TAS1,"2012/12/26 02:00:00",844.74,36.74,TRADE
TAS1,"2012/12/26 02:30:00",843.27,35.31,TRADE
TAS1,"2012/12/26 03:00:00",858.09,34.89,TRADE
TAS1,"2012/12/26 03:30:00",857.57,27.12,TRADE
TAS1,"2012/12/26 04:00:00",866.54,25.55,TRADE
TAS1,"2012/12/26 04:30:00",880.03,38.36,TRADE
TAS1,"2012/12/26 05:00:00",876.82,38.05,TRADE
TAS1,"2012/12/26 05:30:00",877.16,32.57,TRADE
TAS1,"2012/12/26 06:00:00",899.17,36.31,TRADE
TAS1,"2012/12/26 06:30:00",931.97,38.54,TRADE
TAS1,"2012/12/26 07:00:00",964.92,39.83,TRADE
TAS1,"2012/12/26 07:30:00",995.51,38.39,TRADE
TAS1,"2012/12/26 08:00:00",1013.3,41.61,TRADE
TAS1,"2012/12/26 08:30:00",1027.56,43.51,TRADE
TAS1,"2012/12/26 09:00:00",1035.61,44.31,TRADE
TAS1,"2012/12/26 09:30:00",1042.21,42.74,TRADE
TAS1,"2012/12/26 10:00:00",1029.55,38.17,TRADE
TAS1,"2012/12/26 10:30:00",1011.91,36.21,TRADE
TAS1,"2012/12/26 11:00:00",1001.95,34.94,TRADE
TAS1,"2012/12/26 11:30:00",981.38,34.92,TRADE
TAS1,"2012/12/26 12:00:00",965.81,34.35,TRADE
TAS1,"2012/12/26 12:30:00",945.3,39.98,TRADE
TAS1,"2012/12/26 13:00:00",938.25,42.31,TRADE
TAS1,"2012/12/26 13:30:00",928.24,41.65,TRADE
TAS1,"2012/12/26 14:00:00",928.38,41.63,TRADE
TAS1,"2012/12/26 14:30:00",931.56,42.49,TRADE
TAS1,"2012/12/26 15:00:00",931.39,42.69,TRADE
TAS1,"2012/12/26 15:30:00",927.71,42.73,TRADE
TAS1,"2012/12/26 16:00:00",944.3,43.07,TRADE
TAS1,"2012/12/26 16:30:00",939.11,61.46,TRADE
TAS1,"2012/12/26 17:00:00",917.37,52.34,TRADE
TAS1,"2012/12/26 17:30:00",922.46,47.52,TRADE
TAS1,"2012/12/26 18:00:00",918.14,42.78,TRADE
TAS1,"2012/12/26 18:30:00",932.46,42.64,TRADE
TAS1,"2012/12/26 19:00:00",930.98,42.62,TRADE
TAS1,"2012/12/26 19:30:00",943.67,42.8,TRADE
TAS1,"2012/12/26 20:00:00",947.74,42.86,TRADE
TAS1,"2012/12/26 20:30:00",960.18,42.96,TRADE
TAS1,"2012/12/26 21:00:00",968.17,43.13,TRADE
TAS1,"2012/12/26 21:30:00",957.19,42.95,TRADE
TAS1,"2012/12/26 22:00:00",940.24,42.09,TRADE
TAS1,"2012/12/26 22:30:00",926.16,43.36,TRADE
TAS1,"2012/12/26 23:00:00",895.81,45.37,TRADE
TAS1,"2012/12/26 23:30:00",901.88,42.92,TRADE
TAS1,"2012/12/27 00:00:00",876.22,42.48,TRADE
TAS1,"2012/12/27 00:30:00",866.52,43.56,TRADE
TAS1,"2012/12/27 01:00:00",864.01,43.55,TRADE
TAS1,"2012/12/27 01:30:00",853.6,42.75,TRADE
TAS1,"2012/12/27 02:00:00",842.8,41.36,TRADE
TAS1,"2012/12/27 02:30:00",841.85,41.54,TRADE
TAS1,"2012/12/27 03:00:00",812.72,37.46,TRADE
TAS1,"2012/12/27 03:30:00",805.2,38.06,TRADE
TAS1,"2012/12/27 04:00:00",827.26,39.27,TRADE
TAS1,"2012/12/27 04:30:00",845.28,41.42,TRADE
TAS1,"2012/12/27 05:00:00",859.56,42.62,TRADE
TAS1,"2012/12/27 05:30:00",882.01,38.03,TRADE
TAS1,"2012/12/27 06:00:00",910.99,41.8,TRADE
TAS1,"2012/12/27 06:30:00",947.64,44.19,TRADE
TAS1,"2012/12/27 07:00:00",991.12,36.33,TRADE
TAS1,"2012/12/27 07:30:00",1012.33,39.18,TRADE
TAS1,"2012/12/27 08:00:00",1031.8,38.72,TRADE
TAS1,"2012/12/27 08:30:00",1028.44,38.71,TRADE
TAS1,"2012/12/27 09:00:00",1031.88,40.12,TRADE
TAS1,"2012/12/27 09:30:00",1027.37,38.96,TRADE
TAS1,"2012/12/27 10:00:00",997.41,37.56,TRADE
TAS1,"2012/12/27 10:30:00",916.25,38.36,TRADE
TAS1,"2012/12/27 11:00:00",980.08,41.2,TRADE
TAS1,"2012/12/27 11:30:00",1026.07,42.38,TRADE
TAS1,"2012/12/27 12:00:00",1032.17,42.57,TRADE
TAS1,"2012/12/27 12:30:00",1016.12,41.94,TRADE
TAS1,"2012/12/27 13:00:00",1014.27,41.83,TRADE
TAS1,"2012/12/27 13:30:00",1000.74,41.49,TRADE
TAS1,"2012/12/27 14:00:00",982,41.22,TRADE
TAS1,"2012/12/27 14:30:00",982.47,41,TRADE
TAS1,"2012/12/27 15:00:00",984.56,39.46,TRADE
TAS1,"2012/12/27 15:30:00",997.13,39.44,TRADE
TAS1,"2012/12/27 16:00:00",998.93,38.87,TRADE
TAS1,"2012/12/27 16:30:00",983.55,37.88,TRADE
TAS1,"2012/12/27 17:00:00",981.32,37.85,TRADE
TAS1,"2012/12/27 17:30:00",995.68,36.77,TRADE
TAS1,"2012/12/27 18:00:00",1004.41,37.62,TRADE
TAS1,"2012/12/27 18:30:00",1008.21,36.67,TRADE
TAS1,"2012/12/27 19:00:00",974.55,41.87,TRADE
TAS1,"2012/12/27 19:30:00",964.74,42.12,TRADE
TAS1,"2012/12/27 20:00:00",988.84,42.27,TRADE
TAS1,"2012/12/27 20:30:00",995.53,42.35,TRADE
TAS1,"2012/12/27 21:00:00",988.65,42.25,TRADE
TAS1,"2012/12/27 21:30:00",966.61,41.83,TRADE
TAS1,"2012/12/27 22:00:00",956.98,41.31,TRADE
TAS1,"2012/12/27 22:30:00",945.19,42.11,TRADE
TAS1,"2012/12/27 23:00:00",898.51,41.68,TRADE
TAS1,"2012/12/27 23:30:00",884.49,43.26,TRADE
TAS1,"2012/12/28 00:00:00",907.09,45.91,TRADE
TAS1,"2012/12/28 00:30:00",878.88,40.7,TRADE
TAS1,"2012/12/28 01:00:00",877.73,39.46,TRADE
TAS1,"2012/12/28 01:30:00",870.87,43.8,TRADE
TAS1,"2012/12/28 02:00:00",884.27,43.06,TRADE
TAS1,"2012/12/28 02:30:00",867.51,42.91,TRADE
TAS1,"2012/12/28 03:00:00",866.67,41.83,TRADE
TAS1,"2012/12/28 03:30:00",859.9,41.09,TRADE
TAS1,"2012/12/28 04:00:00",855.59,40.99,TRADE
TAS1,"2012/12/28 04:30:00",858.31,41.75,TRADE
TAS1,"2012/12/28 05:00:00",850.54,42.31,TRADE
TAS1,"2012/12/28 05:30:00",902.37,37.06,TRADE
TAS1,"2012/12/28 06:00:00",885.3,43.59,TRADE
TAS1,"2012/12/28 06:30:00",953.05,36.59,TRADE
TAS1,"2012/12/28 07:00:00",973.52,39.32,TRADE
TAS1,"2012/12/28 07:30:00",991.53,40.48,TRADE
TAS1,"2012/12/28 08:00:00",1033.09,43.56,TRADE
TAS1,"2012/12/28 08:30:00",1019.32,41.96,TRADE
TAS1,"2012/12/28 09:00:00",1023.76,39.81,TRADE
TAS1,"2012/12/28 09:30:00",1025.78,41.04,TRADE
TAS1,"2012/12/28 10:00:00",993.8,38.31,TRADE
TAS1,"2012/12/28 10:30:00",1023.35,40.24,TRADE
TAS1,"2012/12/28 11:00:00",1010.75,40.68,TRADE
TAS1,"2012/12/28 11:30:00",986.49,40.42,TRADE
TAS1,"2012/12/28 12:00:00",980.24,41.14,TRADE
TAS1,"2012/12/28 12:30:00",959.54,40.41,TRADE
TAS1,"2012/12/28 13:00:00",952.81,40.41,TRADE
TAS1,"2012/12/28 13:30:00",957.82,40.44,TRADE
TAS1,"2012/12/28 14:00:00",953.66,40.41,TRADE
TAS1,"2012/12/28 14:30:00",947.58,39.75,TRADE
TAS1,"2012/12/28 15:00:00",936.67,38.85,TRADE
TAS1,"2012/12/28 15:30:00",958.3,39.34,TRADE
TAS1,"2012/12/28 16:00:00",968.34,36.65,TRADE
TAS1,"2012/12/28 16:30:00",979.92,38.59,TRADE
TAS1,"2012/12/28 17:00:00",999.72,39.16,TRADE
TAS1,"2012/12/28 17:30:00",990.45,37.91,TRADE
TAS1,"2012/12/28 18:00:00",972.05,36.99,TRADE
TAS1,"2012/12/28 18:30:00",964.29,36.76,TRADE
TAS1,"2012/12/28 19:00:00",945.86,44.94,TRADE
TAS1,"2012/12/28 19:30:00",938.47,40.88,TRADE
TAS1,"2012/12/28 20:00:00",949.02,42.07,TRADE
TAS1,"2012/12/28 20:30:00",980.61,43.48,TRADE
TAS1,"2012/12/28 21:00:00",976.14,43.23,TRADE
TAS1,"2012/12/28 21:30:00",955.14,41.8,TRADE
TAS1,"2012/12/28 22:00:00",948.22,41.07,TRADE
TAS1,"2012/12/28 22:30:00",910.5,36.91,TRADE
TAS1,"2012/12/28 23:00:00",924.47,42.39,TRADE
TAS1,"2012/12/28 23:30:00",884.54,43.47,TRADE
TAS1,"2012/12/29 00:00:00",891.96,49.43,TRADE
TAS1,"2012/12/29 00:30:00",871.06,43.01,TRADE
TAS1,"2012/12/29 01:00:00",859.89,43.7,TRADE
TAS1,"2012/12/29 01:30:00",864.94,43.63,TRADE
TAS1,"2012/12/29 02:00:00",842.09,42.3,TRADE
TAS1,"2012/12/29 02:30:00",829.49,40.78,TRADE
TAS1,"2012/12/29 03:00:00",821.37,39.8,TRADE
TAS1,"2012/12/29 03:30:00",829.86,38.49,TRADE
TAS1,"2012/12/29 04:00:00",823.69,38.43,TRADE
TAS1,"2012/12/29 04:30:00",834.05,39.91,TRADE
TAS1,"2012/12/29 05:00:00",840.56,42.27,TRADE
TAS1,"2012/12/29 05:30:00",844.54,42.76,TRADE
TAS1,"2012/12/29 06:00:00",863.35,38.54,TRADE
TAS1,"2012/12/29 06:30:00",880.61,39.89,TRADE
TAS1,"2012/12/29 07:00:00",897.62,34.61,TRADE
TAS1,"2012/12/29 07:30:00",940.27,40.25,TRADE
TAS1,"2012/12/29 08:00:00",954.95,36.12,TRADE
TAS1,"2012/12/29 08:30:00",972.81,38.7,TRADE
TAS1,"2012/12/29 09:00:00",991.15,41.67,TRADE
TAS1,"2012/12/29 09:30:00",989.99,41.78,TRADE
TAS1,"2012/12/29 10:00:00",966.66,41.41,TRADE
TAS1,"2012/12/29 10:30:00",955.05,41.25,TRADE
TAS1,"2012/12/29 11:00:00",942.49,41,TRADE
TAS1,"2012/12/29 11:30:00",934.63,40.9,TRADE
TAS1,"2012/12/29 12:00:00",911.48,41.44,TRADE
TAS1,"2012/12/29 12:30:00",901.41,41.64,TRADE
TAS1,"2012/12/29 13:00:00",895.95,41.63,TRADE
TAS1,"2012/12/29 13:30:00",881.02,41.4,TRADE
TAS1,"2012/12/29 14:00:00",885.06,41.02,TRADE
TAS1,"2012/12/29 14:30:00",898.18,41.09,TRADE
TAS1,"2012/12/29 15:00:00",900.7,40.95,TRADE
TAS1,"2012/12/29 15:30:00",900.31,41.46,TRADE
TAS1,"2012/12/29 16:00:00",896.15,42.97,TRADE
TAS1,"2012/12/29 16:30:00",911.03,40.88,TRADE
TAS1,"2012/12/29 17:00:00",915.09,42.07,TRADE
TAS1,"2012/12/29 17:30:00",911.94,41.96,TRADE
TAS1,"2012/12/29 18:00:00",929.18,42.16,TRADE
TAS1,"2012/12/29 18:30:00",940.02,41.21,TRADE
TAS1,"2012/12/29 19:00:00",929.62,41.77,TRADE
TAS1,"2012/12/29 19:30:00",933.45,41.62,TRADE
TAS1,"2012/12/29 20:00:00",937.33,42.05,TRADE
TAS1,"2012/12/29 20:30:00",963.98,43.14,TRADE
TAS1,"2012/12/29 21:00:00",994.2,45.87,TRADE
TAS1,"2012/12/29 21:30:00",988.11,44.26,TRADE
TAS1,"2012/12/29 22:00:00",969.12,43.16,TRADE
TAS1,"2012/12/29 22:30:00",961.8,43.14,TRADE
TAS1,"2012/12/29 23:00:00",937.53,43.73,TRADE
TAS1,"2012/12/29 23:30:00",921,46.15,TRADE
TAS1,"2012/12/30 00:00:00",906.25,47.12,TRADE
TAS1,"2012/12/30 00:30:00",885.71,42.65,TRADE
TAS1,"2012/12/30 01:00:00",880.41,45.24,TRADE
TAS1,"2012/12/30 01:30:00",892.61,46.94,TRADE
TAS1,"2012/12/30 02:00:00",892.31,46.88,TRADE
TAS1,"2012/12/30 02:30:00",890.57,46.62,TRADE
TAS1,"2012/12/30 03:00:00",876.65,45.02,TRADE
TAS1,"2012/12/30 03:30:00",886.36,42.09,TRADE
TAS1,"2012/12/30 04:00:00",892.45,42.72,TRADE
TAS1,"2012/12/30 04:30:00",901.09,42.81,TRADE
TAS1,"2012/12/30 05:00:00",901.29,43.54,TRADE
TAS1,"2012/12/30 05:30:00",913.96,44.06,TRADE
TAS1,"2012/12/30 06:00:00",938.69,44.28,TRADE
TAS1,"2012/12/30 06:30:00",947.34,44.88,TRADE
TAS1,"2012/12/30 07:00:00",972.87,44.43,TRADE
TAS1,"2012/12/30 07:30:00",1007.59,39.89,TRADE
TAS1,"2012/12/30 08:00:00",1030.9,37.13,TRADE
TAS1,"2012/12/30 08:30:00",1045.58,41,TRADE
TAS1,"2012/12/30 09:00:00",1050.71,41.23,TRADE
TAS1,"2012/12/30 09:30:00",1059.11,33.85,TRADE
TAS1,"2012/12/30 10:00:00",1051.79,34.43,TRADE
TAS1,"2012/12/30 10:30:00",1023.97,34.12,TRADE
TAS1,"2012/12/30 11:00:00",1013.69,41.35,TRADE
TAS1,"2012/12/30 11:30:00",970.65,43.03,TRADE
TAS1,"2012/12/30 12:00:00",948.08,41.45,TRADE
TAS1,"2012/12/30 12:30:00",935.5,41.37,TRADE
TAS1,"2012/12/30 13:00:00",933.17,41.43,TRADE
TAS1,"2012/12/30 13:30:00",935.23,41.1,TRADE
TAS1,"2012/12/30 14:00:00",933.46,40.94,TRADE
TAS1,"2012/12/30 14:30:00",931.86,41.23,TRADE
TAS1,"2012/12/30 15:00:00",929.25,41.32,TRADE
TAS1,"2012/12/30 15:30:00",936.61,41.65,TRADE
TAS1,"2012/12/30 16:00:00",955.52,42.65,TRADE
TAS1,"2012/12/30 16:30:00",975.61,43.58,TRADE
TAS1,"2012/12/30 17:00:00",1002.02,42.22,TRADE
TAS1,"2012/12/30 17:30:00",1008.25,42.09,TRADE
TAS1,"2012/12/30 18:00:00",1005.25,41.75,TRADE
TAS1,"2012/12/30 18:30:00",997.57,41.55,TRADE
TAS1,"2012/12/30 19:00:00",996.05,41.65,TRADE
TAS1,"2012/12/30 19:30:00",1011.11,45.67,TRADE
TAS1,"2012/12/30 20:00:00",1015.04,46.65,TRADE
TAS1,"2012/12/30 20:30:00",1040.8,42.7,TRADE
TAS1,"2012/12/30 21:00:00",1032.68,45.27,TRADE
TAS1,"2012/12/30 21:30:00",1011.65,45.45,TRADE
TAS1,"2012/12/30 22:00:00",979.26,42.7,TRADE
TAS1,"2012/12/30 22:30:00",960.23,43.38,TRADE
TAS1,"2012/12/30 23:00:00",948.88,43.53,TRADE
TAS1,"2012/12/30 23:30:00",922.85,45.06,TRADE
TAS1,"2012/12/31 00:00:00",914.42,45.3,TRADE
TAS1,"2012/12/31 00:30:00",901.71,43.17,TRADE
TAS1,"2012/12/31 01:00:00",896.47,46.2,TRADE
TAS1,"2012/12/31 01:30:00",894.82,46.8,TRADE
TAS1,"2012/12/31 02:00:00",896.88,47.14,TRADE
TAS1,"2012/12/31 02:30:00",886.92,44.81,TRADE
TAS1,"2012/12/31 03:00:00",873.58,41.52,TRADE
TAS1,"2012/12/31 03:30:00",878.75,41.2,TRADE
TAS1,"2012/12/31 04:00:00",877.88,41.31,TRADE
TAS1,"2012/12/31 04:30:00",901.97,42.07,TRADE
TAS1,"2012/12/31 05:00:00",912.78,43.5,TRADE
TAS1,"2012/12/31 05:30:00",944.93,39.76,TRADE
TAS1,"2012/12/31 06:00:00",941.81,39.91,TRADE
TAS1,"2012/12/31 06:30:00",974.37,42.42,TRADE
TAS1,"2012/12/31 07:00:00",985.79,41.83,TRADE
TAS1,"2012/12/31 07:30:00",1032.25,43.27,TRADE
TAS1,"2012/12/31 08:00:00",1046.91,43.17,TRADE
TAS1,"2012/12/31 08:30:00",1070.84,43.81,TRADE
TAS1,"2012/12/31 09:00:00",1078.85,43.65,TRADE
TAS1,"2012/12/31 09:30:00",1062.24,42.57,TRADE
TAS1,"2012/12/31 10:00:00",1054.76,42.38,TRADE
TAS1,"2012/12/31 10:30:00",1046.6,42.28,TRADE
TAS1,"2012/12/31 11:00:00",1033.8,42.1,TRADE
TAS1,"2012/12/31 11:30:00",1024.5,41.97,TRADE
TAS1,"2012/12/31 12:00:00",1012.9,41.55,TRADE
TAS1,"2012/12/31 12:30:00",1002.85,41.47,TRADE
TAS1,"2012/12/31 13:00:00",983.88,41.1,TRADE
TAS1,"2012/12/31 13:30:00",953.74,40.81,TRADE
TAS1,"2012/12/31 14:00:00",956.77,40.81,TRADE
TAS1,"2012/12/31 14:30:00",977.49,40.81,TRADE
TAS1,"2012/12/31 15:00:00",977.75,40.81,TRADE
TAS1,"2012/12/31 15:30:00",978.86,40.81,TRADE
TAS1,"2012/12/31 16:00:00",976.19,40.8,TRADE
TAS1,"2012/12/31 16:30:00",973.87,40.78,TRADE
TAS1,"2012/12/31 17:00:00",969.04,40.74,TRADE
TAS1,"2012/12/31 17:30:00",964.06,40.61,TRADE
TAS1,"2012/12/31 18:00:00",952.21,40.51,TRADE
TAS1,"2012/12/31 18:30:00",936.49,40.77,TRADE
TAS1,"2012/12/31 19:00:00",935.55,39.72,TRADE
TAS1,"2012/12/31 19:30:00",930.55,39.8,TRADE
TAS1,"2012/12/31 20:00:00",919.45,39.18,TRADE
TAS1,"2012/12/31 20:30:00",907.74,39.07,TRADE
TAS1,"2012/12/31 21:00:00",901.29,39.23,TRADE
TAS1,"2012/12/31 21:30:00",898.25,40.05,TRADE
TAS1,"2012/12/31 22:00:00",889.23,38.89,TRADE
TAS1,"2012/12/31 22:30:00",867.97,42.8,TRADE
TAS1,"2012/12/31 23:00:00",869.98,42.65,TRADE
TAS1,"2012/12/31 23:30:00",848.49,44.23,TRADE
TAS1,"2013/01/01 00:00:00",844.47,47.53,TRADE
