REGION,SETTLEMENTDATE,TOTALDEMAND,RRP,PERIODTYPE
SNOWY1,"2002/04/01 00:30",18.55667,18.37,TRADE
SNOWY1,"2002/04/01 01:00",17.42167,16.45,TRADE
SNOWY1,"2002/04/01 01:30",22.01667,17.49,TRADE
SNOWY1,"2002/04/01 02:00",20.30333,14.56,TRADE
SNOWY1,"2002/04/01 02:30",19.99167,12.88,TRADE
SNOWY1,"2002/04/01 03:00",18.25167,11.68,TRADE
SNOWY1,"2002/04/01 03:30",17.35833,9.12,TRADE
SNOWY1,"2002/04/01 04:00",10.68667,8.32,TRADE
SNOWY1,"2002/04/01 04:30",13.9,7.33,TRADE
SNOWY1,"2002/04/01 05:00",15.95167,8.24,TRADE
SNOWY1,"2002/04/01 05:30",11.31833,8.93,TRADE
SNOWY1,"2002/04/01 06:00",17.28,10.59,TRADE
SNOWY1,"2002/04/01 06:30",13.31167,12.03,TRADE
SNOWY1,"2002/04/01 07:00",13.55,13.67,TRADE
SNOWY1,"2002/04/01 07:30",9.67833,14,TRADE
SNOWY1,"2002/04/01 08:00",10.16167,15.83,TRADE
SNOWY1,"2002/04/01 08:30",14.83167,18.5,TRADE
SNOWY1,"2002/04/01 09:00",15.32333,19.87,TRADE
SNOWY1,"2002/04/01 09:30",13.2,22.52,TRADE
SNOWY1,"2002/04/01 10:00",12.99,24.01,TRADE
SNOWY1,"2002/04/01 10:30",20.89667,23.08,TRADE
SNOWY1,"2002/04/01 11:00",12.08,22.75,TRADE
SNOWY1,"2002/04/01 11:30",19.66833,22.51,TRADE
SNOWY1,"2002/04/01 12:00",22.40333,22.96,TRADE
SNOWY1,"2002/04/01 12:30",18.80833,24.09,TRADE
SNOWY1,"2002/04/01 13:00",12.21333,23.22,TRADE
SNOWY1,"2002/04/01 13:30",14.37167,22.93,TRADE
SNOWY1,"2002/04/01 14:00",12.34167,22.84,TRADE
SNOWY1,"2002/04/01 14:30",16.61833,20.89,TRADE
SNOWY1,"2002/04/01 15:00",16.87,20.59,TRADE
SNOWY1,"2002/04/01 15:30",12.90833,20.76,TRADE
SNOWY1,"2002/04/01 16:00",16.26167,21.71,TRADE
SNOWY1,"2002/04/01 16:30",13.35333,22.77,TRADE
SNOWY1,"2002/04/01 17:00",22.515,23.11,TRADE
SNOWY1,"2002/04/01 17:30",15.47333,24.36,TRADE
SNOWY1,"2002/04/01 18:00",9.98667,26.33,TRADE
SNOWY1,"2002/04/01 18:30",8.90667,35.15,TRADE
SNOWY1,"2002/04/01 19:00",17.49167,33.43,TRADE
SNOWY1,"2002/04/01 19:30",19.89833,26.34,TRADE
SNOWY1,"2002/04/01 20:00",14.235,24.54,TRADE
SNOWY1,"2002/04/01 20:30",15.09167,23.11,TRADE
SNOWY1,"2002/04/01 21:00",13.83167,22.75,TRADE
SNOWY1,"2002/04/01 21:30",14.15667,20.31,TRADE
SNOWY1,"2002/04/01 22:00",14.18833,18.24,TRADE
SNOWY1,"2002/04/01 22:30",13.12333,19.48,TRADE
SNOWY1,"2002/04/01 23:00",18.57167,18.86,TRADE
SNOWY1,"2002/04/01 23:30",18.03833,23.43,TRADE
SNOWY1,"2002/04/02 00:00",19.005,22.83,TRADE
SNOWY1,"2002/04/02 00:30",21.265,20.92,TRADE
SNOWY1,"2002/04/02 01:00",20.9,19.1,TRADE
SNOWY1,"2002/04/02 01:30",11.255,19.79,TRADE
SNOWY1,"2002/04/02 02:00",12.58667,15.9,TRADE
SNOWY1,"2002/04/02 02:30",11.00667,13.29,TRADE
SNOWY1,"2002/04/02 03:00",10.82167,11.91,TRADE
SNOWY1,"2002/04/02 03:30",12.56833,10.99,TRADE
SNOWY1,"2002/04/02 04:00",8.45167,9.31,TRADE
SNOWY1,"2002/04/02 04:30",7.83167,6.62,TRADE
SNOWY1,"2002/04/02 05:00",6.08333,8.33,TRADE
SNOWY1,"2002/04/02 05:30",6.66333,11.75,TRADE
SNOWY1,"2002/04/02 06:00",2.56167,13.77,TRADE
SNOWY1,"2002/04/02 06:30",11.56667,16.74,TRADE
SNOWY1,"2002/04/02 07:00",11.27833,18.35,TRADE
SNOWY1,"2002/04/02 07:30",15.33,16.63,TRADE
SNOWY1,"2002/04/02 08:00",8.855,20.23,TRADE
SNOWY1,"2002/04/02 08:30",11.08333,21.85,TRADE
SNOWY1,"2002/04/02 09:00",19.79333,24.34,TRADE
SNOWY1,"2002/04/02 09:30",15.16667,24.17,TRADE
SNOWY1,"2002/04/02 10:00",5.68333,24.57,TRADE
SNOWY1,"2002/04/02 10:30",20.655,24.46,TRADE
SNOWY1,"2002/04/02 11:00",11.445,24.81,TRADE
SNOWY1,"2002/04/02 11:30",10.45833,24.92,TRADE
SNOWY1,"2002/04/02 12:00",8.19833,24.98,TRADE
SNOWY1,"2002/04/02 12:30",12.86833,27.6,TRADE
SNOWY1,"2002/04/02 13:00",8.385,26.23,TRADE
SNOWY1,"2002/04/02 13:30",3.71333,27.58,TRADE
SNOWY1,"2002/04/02 14:00",10.86667,33.58,TRADE
SNOWY1,"2002/04/02 14:30",20.61667,29.23,TRADE
SNOWY1,"2002/04/02 15:00",10.67667,28.52,TRADE
SNOWY1,"2002/04/02 15:30",16.11833,29.45,TRADE
SNOWY1,"2002/04/02 16:00",18.53333,31,TRADE
SNOWY1,"2002/04/02 16:30",18.33,27.02,TRADE
SNOWY1,"2002/04/02 17:00",12.4,25.2,TRADE
SNOWY1,"2002/04/02 17:30",18.37667,23.88,TRADE
SNOWY1,"2002/04/02 18:00",21.24167,24.56,TRADE
SNOWY1,"2002/04/02 18:30",10.03667,25.31,TRADE
SNOWY1,"2002/04/02 19:00",10.99,28.51,TRADE
SNOWY1,"2002/04/02 19:30",14.19833,24.84,TRADE
SNOWY1,"2002/04/02 20:00",11.085,22.66,TRADE
SNOWY1,"2002/04/02 20:30",12.97667,21.63,TRADE
SNOWY1,"2002/04/02 21:00",17.41333,20.2,TRADE
SNOWY1,"2002/04/02 21:30",16.66167,19.69,TRADE
SNOWY1,"2002/04/02 22:00",9.93167,18.62,TRADE
SNOWY1,"2002/04/02 22:30",8.44,24.41,TRADE
SNOWY1,"2002/04/02 23:00",10.08333,24.23,TRADE
SNOWY1,"2002/04/02 23:30",4.95833,33.19,TRADE
SNOWY1,"2002/04/03 00:00",9.13167,30.84,TRADE
SNOWY1,"2002/04/03 00:30",13.03833,24.69,TRADE
SNOWY1,"2002/04/03 01:00",8.82167,24.42,TRADE
SNOWY1,"2002/04/03 01:30",10.40167,24.83,TRADE
SNOWY1,"2002/04/03 02:00",10.02167,23.14,TRADE
SNOWY1,"2002/04/03 02:30",5.26,17.91,TRADE
SNOWY1,"2002/04/03 03:00",8.75,13.84,TRADE
SNOWY1,"2002/04/03 03:30",14.45167,12.59,TRADE
SNOWY1,"2002/04/03 04:00",9.76667,11.73,TRADE
SNOWY1,"2002/04/03 04:30",4.80667,11.64,TRADE
SNOWY1,"2002/04/03 05:00",7.15333,12.53,TRADE
SNOWY1,"2002/04/03 05:30",7.885,15.03,TRADE
SNOWY1,"2002/04/03 06:00",6.46833,15.33,TRADE
SNOWY1,"2002/04/03 06:30",4.465,19.83,TRADE
SNOWY1,"2002/04/03 07:00",12.13833,24.43,TRADE
SNOWY1,"2002/04/03 07:30",11.03333,20.98,TRADE
SNOWY1,"2002/04/03 08:00",23.98833,24.32,TRADE
SNOWY1,"2002/04/03 08:30",12.82167,24.87,TRADE
SNOWY1,"2002/04/03 09:00",8.20667,25.14,TRADE
SNOWY1,"2002/04/03 09:30",11.92167,25,TRADE
SNOWY1,"2002/04/03 10:00",7.28333,25.09,TRADE
SNOWY1,"2002/04/03 10:30",7.74833,25.85,TRADE
SNOWY1,"2002/04/03 11:00",10.87667,26.61,TRADE
SNOWY1,"2002/04/03 11:30",16.84333,35.6,TRADE
SNOWY1,"2002/04/03 12:00",14.93667,32.97,TRADE
SNOWY1,"2002/04/03 12:30",13.68333,33.58,TRADE
SNOWY1,"2002/04/03 13:00",7.04667,36.58,TRADE
SNOWY1,"2002/04/03 13:30",15.66833,38.91,TRADE
SNOWY1,"2002/04/03 14:00",23.91833,36.56,TRADE
SNOWY1,"2002/04/03 14:30",22.535,33.84,TRADE
SNOWY1,"2002/04/03 15:00",26.48333,31.33,TRADE
SNOWY1,"2002/04/03 15:30",18.56167,32.89,TRADE
SNOWY1,"2002/04/03 16:00",19.59,33.18,TRADE
SNOWY1,"2002/04/03 16:30",12.41,31.71,TRADE
SNOWY1,"2002/04/03 17:00",9.21167,33.06,TRADE
SNOWY1,"2002/04/03 17:30",8.01,25.42,TRADE
SNOWY1,"2002/04/03 18:00",15.06333,28.3,TRADE
SNOWY1,"2002/04/03 18:30",9.985,32.89,TRADE
SNOWY1,"2002/04/03 19:00",18,29.35,TRADE
SNOWY1,"2002/04/03 19:30",16.68,24.5,TRADE
SNOWY1,"2002/04/03 20:00",3.13667,23.61,TRADE
SNOWY1,"2002/04/03 20:30",6.50833,23,TRADE
SNOWY1,"2002/04/03 21:00",8.06167,21.3,TRADE
SNOWY1,"2002/04/03 21:30",12.405,19.57,TRADE
SNOWY1,"2002/04/03 22:00",11.09167,17.84,TRADE
SNOWY1,"2002/04/03 22:30",6.15333,26.02,TRADE
SNOWY1,"2002/04/03 23:00",12.19833,23.64,TRADE
SNOWY1,"2002/04/03 23:30",10.395,31.95,TRADE
SNOWY1,"2002/04/04 00:00",5.69833,28.54,TRADE
SNOWY1,"2002/04/04 00:30",5.95167,25.23,TRADE
SNOWY1,"2002/04/04 01:00",6.91,23.74,TRADE
SNOWY1,"2002/04/04 01:30",8.84167,24.93,TRADE
SNOWY1,"2002/04/04 02:00",12.315,22.89,TRADE
SNOWY1,"2002/04/04 02:30",8.99667,18.07,TRADE
SNOWY1,"2002/04/04 03:00",7.44833,15.41,TRADE
SNOWY1,"2002/04/04 03:30",8.595,12.7,TRADE
SNOWY1,"2002/04/04 04:00",29.15,11.78,TRADE
SNOWY1,"2002/04/04 04:30",12.80667,11.67,TRADE
SNOWY1,"2002/04/04 05:00",39.03167,11.56,TRADE
SNOWY1,"2002/04/04 05:30",42.84,13.18,TRADE
SNOWY1,"2002/04/04 06:00",45.39833,15.45,TRADE
SNOWY1,"2002/04/04 06:30",47.99167,19.9,TRADE
SNOWY1,"2002/04/04 07:00",54.02833,22.93,TRADE
SNOWY1,"2002/04/04 07:30",41.18667,20.56,TRADE
SNOWY1,"2002/04/04 08:00",61.195,23.6,TRADE
SNOWY1,"2002/04/04 08:30",52.835,23.95,TRADE
SNOWY1,"2002/04/04 09:00",31.16,24.38,TRADE
SNOWY1,"2002/04/04 09:30",15.3,24.38,TRADE
SNOWY1,"2002/04/04 10:00",9.01,24.41,TRADE
SNOWY1,"2002/04/04 10:30",6.30667,25.75,TRADE
SNOWY1,"2002/04/04 11:00",14.81333,25.97,TRADE
SNOWY1,"2002/04/04 11:30",11.025,26.06,TRADE
SNOWY1,"2002/04/04 12:00",5.89833,28.1,TRADE
SNOWY1,"2002/04/04 12:30",18.63167,32.25,TRADE
SNOWY1,"2002/04/04 13:00",16.80333,28.32,TRADE
SNOWY1,"2002/04/04 13:30",4.62667,25.86,TRADE
SNOWY1,"2002/04/04 14:00",4.465,25.34,TRADE
SNOWY1,"2002/04/04 14:30",9.64167,25.35,TRADE
SNOWY1,"2002/04/04 15:00",12.435,24.82,TRADE
SNOWY1,"2002/04/04 15:30",15.56333,24.7,TRADE
SNOWY1,"2002/04/04 16:00",12.52667,25.51,TRADE
SNOWY1,"2002/04/04 16:30",9.165,25.65,TRADE
SNOWY1,"2002/04/04 17:00",11.69833,25.24,TRADE
SNOWY1,"2002/04/04 17:30",9.69,23.41,TRADE
SNOWY1,"2002/04/04 18:00",7.89,26.83,TRADE
SNOWY1,"2002/04/04 18:30",11.02333,32.78,TRADE
SNOWY1,"2002/04/04 19:00",8.08333,32.97,TRADE
SNOWY1,"2002/04/04 19:30",9.21167,29.91,TRADE
SNOWY1,"2002/04/04 20:00",7.76667,27.94,TRADE
SNOWY1,"2002/04/04 20:30",7.58333,24.96,TRADE
SNOWY1,"2002/04/04 21:00",10.78333,23.66,TRADE
SNOWY1,"2002/04/04 21:30",12.09167,22.31,TRADE
SNOWY1,"2002/04/04 22:00",5.39333,19.81,TRADE
SNOWY1,"2002/04/04 22:30",11.25333,27.47,TRADE
SNOWY1,"2002/04/04 23:00",6.30167,24.28,TRADE
SNOWY1,"2002/04/04 23:30",6.69,34.44,TRADE
SNOWY1,"2002/04/05 00:00",7.235,34.17,TRADE
SNOWY1,"2002/04/05 00:30",5.29333,32.26,TRADE
SNOWY1,"2002/04/05 01:00",9.42833,26.06,TRADE
SNOWY1,"2002/04/05 01:30",13.65333,31.48,TRADE
SNOWY1,"2002/04/05 02:00",10.41,24.12,TRADE
SNOWY1,"2002/04/05 02:30",4.845,20.71,TRADE
SNOWY1,"2002/04/05 03:00",11.64667,15.69,TRADE
SNOWY1,"2002/04/05 03:30",9.45667,13.93,TRADE
SNOWY1,"2002/04/05 04:00",5.2,11.9,TRADE
SNOWY1,"2002/04/05 04:30",4.77,11.29,TRADE
SNOWY1,"2002/04/05 05:00",6.89167,11.57,TRADE
SNOWY1,"2002/04/05 05:30",3.68333,13.33,TRADE
SNOWY1,"2002/04/05 06:00",9.85333,16.11,TRADE
SNOWY1,"2002/04/05 06:30",5.22,21.63,TRADE
SNOWY1,"2002/04/05 07:00",7.17333,24.65,TRADE
SNOWY1,"2002/04/05 07:30",10.72833,22.17,TRADE
SNOWY1,"2002/04/05 08:00",15.04,24.38,TRADE
SNOWY1,"2002/04/05 08:30",11.10167,24.34,TRADE
SNOWY1,"2002/04/05 09:00",11.66167,25.24,TRADE
SNOWY1,"2002/04/05 09:30",20.19833,24.66,TRADE
SNOWY1,"2002/04/05 10:00",10.43833,25.08,TRADE
SNOWY1,"2002/04/05 10:30",16.52333,25.21,TRADE
SNOWY1,"2002/04/05 11:00",13.79333,25.4,TRADE
SNOWY1,"2002/04/05 11:30",8.85,25.19,TRADE
SNOWY1,"2002/04/05 12:00",8.33167,24.93,TRADE
SNOWY1,"2002/04/05 12:30",8.35,25.31,TRADE
SNOWY1,"2002/04/05 13:00",11.64667,24.95,TRADE
SNOWY1,"2002/04/05 13:30",15.58167,24.85,TRADE
SNOWY1,"2002/04/05 14:00",9.97167,24.52,TRADE
SNOWY1,"2002/04/05 14:30",7.18,24.4,TRADE
SNOWY1,"2002/04/05 15:00",7.24333,23.4,TRADE
SNOWY1,"2002/04/05 15:30",9.94,23.37,TRADE
SNOWY1,"2002/04/05 16:00",8.09833,23.29,TRADE
SNOWY1,"2002/04/05 16:30",5.415,22.79,TRADE
SNOWY1,"2002/04/05 17:00",7.315,23.05,TRADE
SNOWY1,"2002/04/05 17:30",8.45,22.58,TRADE
SNOWY1,"2002/04/05 18:00",7.875,23.72,TRADE
SNOWY1,"2002/04/05 18:30",15.96167,24.5,TRADE
SNOWY1,"2002/04/05 19:00",9.46167,24.78,TRADE
SNOWY1,"2002/04/05 19:30",8.395,23.88,TRADE
SNOWY1,"2002/04/05 20:00",13.58,23.2,TRADE
SNOWY1,"2002/04/05 20:30",16.275,21.91,TRADE
SNOWY1,"2002/04/05 21:00",10.405,20.96,TRADE
SNOWY1,"2002/04/05 21:30",11.465,20.27,TRADE
SNOWY1,"2002/04/05 22:00",5.95333,18.78,TRADE
SNOWY1,"2002/04/05 22:30",10.095,27.89,TRADE
SNOWY1,"2002/04/05 23:00",6.92667,27.23,TRADE
SNOWY1,"2002/04/05 23:30",25.69,40.2,TRADE
SNOWY1,"2002/04/06 00:00",10.135,37.09,TRADE
SNOWY1,"2002/04/06 00:30",30.39667,33.66,TRADE
SNOWY1,"2002/04/06 01:00",11.05,25.57,TRADE
SNOWY1,"2002/04/06 01:30",25.84333,31.77,TRADE
SNOWY1,"2002/04/06 02:00",7.42,23.77,TRADE
SNOWY1,"2002/04/06 02:30",9.825,21.1,TRADE
SNOWY1,"2002/04/06 03:00",6.785,16.58,TRADE
SNOWY1,"2002/04/06 03:30",13.99333,12.71,TRADE
SNOWY1,"2002/04/06 04:00",4.68833,11.4,TRADE
SNOWY1,"2002/04/06 04:30",7.98667,10.71,TRADE
SNOWY1,"2002/04/06 05:00",12.61833,10.77,TRADE
SNOWY1,"2002/04/06 05:30",9.25167,11.11,TRADE
SNOWY1,"2002/04/06 06:00",4.61667,11.7,TRADE
SNOWY1,"2002/04/06 06:30",9.06333,14.21,TRADE
SNOWY1,"2002/04/06 07:00",15.06167,16.64,TRADE
SNOWY1,"2002/04/06 07:30",9.85333,18.62,TRADE
SNOWY1,"2002/04/06 08:00",11.56833,22.07,TRADE
SNOWY1,"2002/04/06 08:30",10.12833,25.36,TRADE
SNOWY1,"2002/04/06 09:00",17.07,27.31,TRADE
SNOWY1,"2002/04/06 09:30",9.32,32.71,TRADE
SNOWY1,"2002/04/06 10:00",17.30167,30.52,TRADE
SNOWY1,"2002/04/06 10:30",13.94333,30.73,TRADE
SNOWY1,"2002/04/06 11:00",25.11833,29.4,TRADE
SNOWY1,"2002/04/06 11:30",26.345,29.41,TRADE
SNOWY1,"2002/04/06 12:00",21.68,26.82,TRADE
SNOWY1,"2002/04/06 12:30",31.43833,24.56,TRADE
SNOWY1,"2002/04/06 13:00",20.76,23.48,TRADE
SNOWY1,"2002/04/06 13:30",31.47333,23.46,TRADE
SNOWY1,"2002/04/06 14:00",25.505,23.38,TRADE
SNOWY1,"2002/04/06 14:30",20.30833,22.95,TRADE
SNOWY1,"2002/04/06 15:00",20.64,22.85,TRADE
SNOWY1,"2002/04/06 15:30",10.39833,22.71,TRADE
SNOWY1,"2002/04/06 16:00",9.49667,22.8,TRADE
SNOWY1,"2002/04/06 16:30",13.33833,22.83,TRADE
SNOWY1,"2002/04/06 17:00",14.19333,22.95,TRADE
SNOWY1,"2002/04/06 17:30",12.99333,23.2,TRADE
SNOWY1,"2002/04/06 18:00",9.45,27.8,TRADE
SNOWY1,"2002/04/06 18:30",24.54833,44.54,TRADE
SNOWY1,"2002/04/06 19:00",16.05833,44.92,TRADE
SNOWY1,"2002/04/06 19:30",13.39833,39.84,TRADE
SNOWY1,"2002/04/06 20:00",19.30833,35.66,TRADE
SNOWY1,"2002/04/06 20:30",16.11167,26.28,TRADE
SNOWY1,"2002/04/06 21:00",11.74,23.79,TRADE
SNOWY1,"2002/04/06 21:30",13.18333,23.44,TRADE
SNOWY1,"2002/04/06 22:00",18.52167,22.19,TRADE
SNOWY1,"2002/04/06 22:30",16.235,22.68,TRADE
SNOWY1,"2002/04/06 23:00",13.50333,22.81,TRADE
SNOWY1,"2002/04/06 23:30",18.98833,23.7,TRADE
SNOWY1,"2002/04/07 00:00",16.05,23.51,TRADE
SNOWY1,"2002/04/07 00:30",17.11167,22.43,TRADE
SNOWY1,"2002/04/07 01:00",13.86667,19.78,TRADE
SNOWY1,"2002/04/07 01:30",18.235,21.95,TRADE
SNOWY1,"2002/04/07 02:00",19.16333,19.93,TRADE
SNOWY1,"2002/04/07 02:30",13.34667,15.72,TRADE
SNOWY1,"2002/04/07 03:00",14.28667,13.67,TRADE
SNOWY1,"2002/04/07 03:30",8.52667,11.69,TRADE
SNOWY1,"2002/04/07 04:00",15.77,10.96,TRADE
SNOWY1,"2002/04/07 04:30",11.61167,10.74,TRADE
SNOWY1,"2002/04/07 05:00",12.55667,10.75,TRADE
SNOWY1,"2002/04/07 05:30",12.49333,10.52,TRADE
SNOWY1,"2002/04/07 06:00",8.99833,10.84,TRADE
SNOWY1,"2002/04/07 06:30",10.50167,11.56,TRADE
SNOWY1,"2002/04/07 07:00",12.505,12.08,TRADE
SNOWY1,"2002/04/07 07:30",15.91833,13.6,TRADE
SNOWY1,"2002/04/07 08:00",12.16167,15.63,TRADE
SNOWY1,"2002/04/07 08:30",17.64167,20.99,TRADE
SNOWY1,"2002/04/07 09:00",14.72333,22.81,TRADE
SNOWY1,"2002/04/07 09:30",16.255,24.11,TRADE
SNOWY1,"2002/04/07 10:00",13.27167,25.21,TRADE
SNOWY1,"2002/04/07 10:30",11.00833,25.34,TRADE
SNOWY1,"2002/04/07 11:00",15.215,25.52,TRADE
SNOWY1,"2002/04/07 11:30",12.58333,25.01,TRADE
SNOWY1,"2002/04/07 12:00",10.12333,24.94,TRADE
SNOWY1,"2002/04/07 12:30",12.40167,25.26,TRADE
SNOWY1,"2002/04/07 13:00",12.61333,24.73,TRADE
SNOWY1,"2002/04/07 13:30",12.39,24.11,TRADE
SNOWY1,"2002/04/07 14:00",7.85833,22.79,TRADE
SNOWY1,"2002/04/07 14:30",9.06667,21.56,TRADE
SNOWY1,"2002/04/07 15:00",13.72667,21.33,TRADE
SNOWY1,"2002/04/07 15:30",6.44833,20.85,TRADE
SNOWY1,"2002/04/07 16:00",6.20667,21.12,TRADE
SNOWY1,"2002/04/07 16:30",8.40333,21.49,TRADE
SNOWY1,"2002/04/07 17:00",11.52,22.47,TRADE
SNOWY1,"2002/04/07 17:30",8.18167,23.36,TRADE
SNOWY1,"2002/04/07 18:00",5.78167,27.13,TRADE
SNOWY1,"2002/04/07 18:30",12.93667,41.34,TRADE
SNOWY1,"2002/04/07 19:00",18.465,41.24,TRADE
SNOWY1,"2002/04/07 19:30",11.07833,37.06,TRADE
SNOWY1,"2002/04/07 20:00",10.09,28.51,TRADE
SNOWY1,"2002/04/07 20:30",8.14667,25.38,TRADE
SNOWY1,"2002/04/07 21:00",7.73167,25.25,TRADE
SNOWY1,"2002/04/07 21:30",12.42167,23.11,TRADE
SNOWY1,"2002/04/07 22:00",15.63167,21.81,TRADE
SNOWY1,"2002/04/07 22:30",16.54333,22.32,TRADE
SNOWY1,"2002/04/07 23:00",6.23167,22.45,TRADE
SNOWY1,"2002/04/07 23:30",11.14167,23.89,TRADE
SNOWY1,"2002/04/08 00:00",9.49333,23.19,TRADE
SNOWY1,"2002/04/08 00:30",9.905,21.45,TRADE
SNOWY1,"2002/04/08 01:00",7.46,20.29,TRADE
SNOWY1,"2002/04/08 01:30",9.57333,21.9,TRADE
SNOWY1,"2002/04/08 02:00",14.91667,19.44,TRADE
SNOWY1,"2002/04/08 02:30",10.71833,16.09,TRADE
SNOWY1,"2002/04/08 03:00",7.12667,15.14,TRADE
SNOWY1,"2002/04/08 03:30",11.74833,12.19,TRADE
SNOWY1,"2002/04/08 04:00",6.085,11.99,TRADE
SNOWY1,"2002/04/08 04:30",8.25,11.37,TRADE
SNOWY1,"2002/04/08 05:00",7.92167,12.03,TRADE
SNOWY1,"2002/04/08 05:30",10.83,13.61,TRADE
SNOWY1,"2002/04/08 06:00",8.20333,15.14,TRADE
SNOWY1,"2002/04/08 06:30",11.78167,19.24,TRADE
SNOWY1,"2002/04/08 07:00",13.335,22.29,TRADE
SNOWY1,"2002/04/08 07:30",18.25,19.5,TRADE
SNOWY1,"2002/04/08 08:00",18.55333,22.83,TRADE
SNOWY1,"2002/04/08 08:30",16.61167,24.63,TRADE
SNOWY1,"2002/04/08 09:00",17.605,24.94,TRADE
SNOWY1,"2002/04/08 09:30",13.79833,24.91,TRADE
SNOWY1,"2002/04/08 10:00",16.055,24.83,TRADE
SNOWY1,"2002/04/08 10:30",7.96833,25.09,TRADE
SNOWY1,"2002/04/08 11:00",16.81833,25.7,TRADE
SNOWY1,"2002/04/08 11:30",5.21833,26.21,TRADE
SNOWY1,"2002/04/08 12:00",9.74833,26.39,TRADE
SNOWY1,"2002/04/08 12:30",4.17167,26.2,TRADE
SNOWY1,"2002/04/08 13:00",12.76333,26.02,TRADE
SNOWY1,"2002/04/08 13:30",7.48333,29.12,TRADE
SNOWY1,"2002/04/08 14:00",9.93667,27.97,TRADE
SNOWY1,"2002/04/08 14:30",10.62833,28.58,TRADE
SNOWY1,"2002/04/08 15:00",6.15833,26.78,TRADE
SNOWY1,"2002/04/08 15:30",11.88667,26.02,TRADE
SNOWY1,"2002/04/08 16:00",17.00167,25.92,TRADE
SNOWY1,"2002/04/08 16:30",11.30167,25.24,TRADE
SNOWY1,"2002/04/08 17:00",9.69333,25.08,TRADE
SNOWY1,"2002/04/08 17:30",8.82333,24.91,TRADE
SNOWY1,"2002/04/08 18:00",11.60667,27.77,TRADE
SNOWY1,"2002/04/08 18:30",15.24833,31.94,TRADE
SNOWY1,"2002/04/08 19:00",13.55833,27.73,TRADE
SNOWY1,"2002/04/08 19:30",4.41333,24.79,TRADE
SNOWY1,"2002/04/08 20:00",8.40167,23.14,TRADE
SNOWY1,"2002/04/08 20:30",12.08,20.66,TRADE
SNOWY1,"2002/04/08 21:00",6.27667,20.47,TRADE
SNOWY1,"2002/04/08 21:30",11.725,19.31,TRADE
SNOWY1,"2002/04/08 22:00",4.30167,18.48,TRADE
SNOWY1,"2002/04/08 22:30",9.295,25.29,TRADE
SNOWY1,"2002/04/08 23:00",3.22667,24.2,TRADE
SNOWY1,"2002/04/08 23:30",8.02833,29.03,TRADE
SNOWY1,"2002/04/09 00:00",2.45167,26.74,TRADE
SNOWY1,"2002/04/09 00:30",5.75833,24.87,TRADE
SNOWY1,"2002/04/09 01:00",7.91667,24.08,TRADE
SNOWY1,"2002/04/09 01:30",3.47167,24.52,TRADE
SNOWY1,"2002/04/09 02:00",8.95333,21.56,TRADE
SNOWY1,"2002/04/09 02:30",2.06833,17.14,TRADE
SNOWY1,"2002/04/09 03:00",7.39333,14.86,TRADE
SNOWY1,"2002/04/09 03:30",7.08,12.21,TRADE
SNOWY1,"2002/04/09 04:00",6.83,11.75,TRADE
SNOWY1,"2002/04/09 04:30",9.64333,11.53,TRADE
SNOWY1,"2002/04/09 05:00",7.57833,12.53,TRADE
SNOWY1,"2002/04/09 05:30",8.84333,13.44,TRADE
SNOWY1,"2002/04/09 06:00",12.63,15.46,TRADE
SNOWY1,"2002/04/09 06:30",11.50333,20.52,TRADE
SNOWY1,"2002/04/09 07:00",8.57333,23.4,TRADE
SNOWY1,"2002/04/09 07:30",13.83333,20.97,TRADE
SNOWY1,"2002/04/09 08:00",15.425,23.72,TRADE
SNOWY1,"2002/04/09 08:30",20.885,24.76,TRADE
SNOWY1,"2002/04/09 09:00",13.00167,24.87,TRADE
SNOWY1,"2002/04/09 09:30",13.735,24.96,TRADE
SNOWY1,"2002/04/09 10:00",14.60333,25.1,TRADE
SNOWY1,"2002/04/09 10:30",23.30333,25.81,TRADE
SNOWY1,"2002/04/09 11:00",14.93,27.7,TRADE
SNOWY1,"2002/04/09 11:30",12.64667,28.17,TRADE
SNOWY1,"2002/04/09 12:00",14.31,31.94,TRADE
SNOWY1,"2002/04/09 12:30",12.84833,31.94,TRADE
SNOWY1,"2002/04/09 13:00",36.04,32.85,TRADE
SNOWY1,"2002/04/09 13:30",15.95667,37.58,TRADE
SNOWY1,"2002/04/09 14:00",13.51333,36.41,TRADE
SNOWY1,"2002/04/09 14:30",24.715,37.82,TRADE
SNOWY1,"2002/04/09 15:00",17.74167,36.81,TRADE
SNOWY1,"2002/04/09 15:30",21.29167,35.29,TRADE
SNOWY1,"2002/04/09 16:00",19.29833,37.06,TRADE
SNOWY1,"2002/04/09 16:30",18.985,34.26,TRADE
SNOWY1,"2002/04/09 17:00",13.46,27.42,TRADE
SNOWY1,"2002/04/09 17:30",22.05,25.44,TRADE
SNOWY1,"2002/04/09 18:00",13.24,27.83,TRADE
SNOWY1,"2002/04/09 18:30",20.27333,31.23,TRADE
SNOWY1,"2002/04/09 19:00",9.81333,31.46,TRADE
SNOWY1,"2002/04/09 19:30",14.135,25.11,TRADE
SNOWY1,"2002/04/09 20:00",12.295,23.98,TRADE
SNOWY1,"2002/04/09 20:30",14.25333,23.92,TRADE
SNOWY1,"2002/04/09 21:00",16.98833,22.23,TRADE
SNOWY1,"2002/04/09 21:30",12.43,21.22,TRADE
SNOWY1,"2002/04/09 22:00",12.06833,20.37,TRADE
SNOWY1,"2002/04/09 22:30",14.52,25.78,TRADE
SNOWY1,"2002/04/09 23:00",16.01167,25.38,TRADE
SNOWY1,"2002/04/09 23:30",38.97333,35.66,TRADE
SNOWY1,"2002/04/10 00:00",14.44167,31.16,TRADE
SNOWY1,"2002/04/10 00:30",14.07833,25.74,TRADE
SNOWY1,"2002/04/10 01:00",13.41833,24.44,TRADE
SNOWY1,"2002/04/10 01:30",10.08167,25.37,TRADE
SNOWY1,"2002/04/10 02:00",12.79833,23.24,TRADE
SNOWY1,"2002/04/10 02:30",9.12667,19.22,TRADE
SNOWY1,"2002/04/10 03:00",9.05167,16.32,TRADE
SNOWY1,"2002/04/10 03:30",13.33333,13.91,TRADE
SNOWY1,"2002/04/10 04:00",13.58167,13.18,TRADE
SNOWY1,"2002/04/10 04:30",8.35833,12,TRADE
SNOWY1,"2002/04/10 05:00",13.24833,12.2,TRADE
SNOWY1,"2002/04/10 05:30",13.82833,15.14,TRADE
SNOWY1,"2002/04/10 06:00",14.63667,15.68,TRADE
SNOWY1,"2002/04/10 06:30",11.78,21.1,TRADE
SNOWY1,"2002/04/10 07:00",16.57,23.69,TRADE
SNOWY1,"2002/04/10 07:30",22.74333,21.32,TRADE
SNOWY1,"2002/04/10 08:00",19.03167,24.08,TRADE
SNOWY1,"2002/04/10 08:30",22.02,25.22,TRADE
SNOWY1,"2002/04/10 09:00",24.79167,24.99,TRADE
SNOWY1,"2002/04/10 09:30",20.31833,26.08,TRADE
SNOWY1,"2002/04/10 10:00",15.78,26.5,TRADE
SNOWY1,"2002/04/10 10:30",15.635,27.49,TRADE
SNOWY1,"2002/04/10 11:00",19.96167,31.49,TRADE
SNOWY1,"2002/04/10 11:30",13.89167,32.11,TRADE
SNOWY1,"2002/04/10 12:00",18.685,33.83,TRADE
SNOWY1,"2002/04/10 12:30",10.06667,30.9,TRADE
SNOWY1,"2002/04/10 13:00",14.05667,32.91,TRADE
SNOWY1,"2002/04/10 13:30",16.60167,36.44,TRADE
SNOWY1,"2002/04/10 14:00",19.63833,37.96,TRADE
SNOWY1,"2002/04/10 14:30",19.40167,37.98,TRADE
SNOWY1,"2002/04/10 15:00",8.90833,37.98,TRADE
SNOWY1,"2002/04/10 15:30",12.72833,36.5,TRADE
SNOWY1,"2002/04/10 16:00",14.75333,31.94,TRADE
SNOWY1,"2002/04/10 16:30",17.79667,30.67,TRADE
SNOWY1,"2002/04/10 17:00",11.475,26.62,TRADE
SNOWY1,"2002/04/10 17:30",11.75167,25.03,TRADE
SNOWY1,"2002/04/10 18:00",6.40833,28.84,TRADE
SNOWY1,"2002/04/10 18:30",11.725,32.65,TRADE
SNOWY1,"2002/04/10 19:00",23.56,34.97,TRADE
SNOWY1,"2002/04/10 19:30",21.10833,26.95,TRADE
SNOWY1,"2002/04/10 20:00",18.25167,24.43,TRADE
SNOWY1,"2002/04/10 20:30",20.28167,24.24,TRADE
SNOWY1,"2002/04/10 21:00",11.39833,23.13,TRADE
SNOWY1,"2002/04/10 21:30",18.97,22.61,TRADE
SNOWY1,"2002/04/10 22:00",15.72833,21.52,TRADE
SNOWY1,"2002/04/10 22:30",5.21,26.16,TRADE
SNOWY1,"2002/04/10 23:00",8.23833,25.62,TRADE
SNOWY1,"2002/04/10 23:30",13.18333,36.97,TRADE
SNOWY1,"2002/04/11 00:00",2.70333,32.56,TRADE
SNOWY1,"2002/04/11 00:30",17.325,27.33,TRADE
SNOWY1,"2002/04/11 01:00",9.28167,25.39,TRADE
SNOWY1,"2002/04/11 01:30",10.55667,26.29,TRADE
SNOWY1,"2002/04/11 02:00",8.81167,24.24,TRADE
SNOWY1,"2002/04/11 02:30",11.18833,20.61,TRADE
SNOWY1,"2002/04/11 03:00",10.24,17.29,TRADE
SNOWY1,"2002/04/11 03:30",18.12833,15.64,TRADE
SNOWY1,"2002/04/11 04:00",13.805,13.7,TRADE
SNOWY1,"2002/04/11 04:30",14.12833,13.39,TRADE
SNOWY1,"2002/04/11 05:00",8.90333,13.63,TRADE
SNOWY1,"2002/04/11 05:30",9.84167,15.71,TRADE
SNOWY1,"2002/04/11 06:00",15.36667,17.68,TRADE
SNOWY1,"2002/04/11 06:30",9.64333,22.15,TRADE
SNOWY1,"2002/04/11 07:00",11.135,24.93,TRADE
SNOWY1,"2002/04/11 07:30",18.835,22.22,TRADE
SNOWY1,"2002/04/11 08:00",10.99,24.6,TRADE
SNOWY1,"2002/04/11 08:30",11.22333,26.04,TRADE
SNOWY1,"2002/04/11 09:00",19.235,26.46,TRADE
SNOWY1,"2002/04/11 09:30",9.08,28.04,TRADE
SNOWY1,"2002/04/11 10:00",11.76,29.85,TRADE
SNOWY1,"2002/04/11 10:30",14.92,32.99,TRADE
SNOWY1,"2002/04/11 11:00",19.09833,37.9,TRADE
SNOWY1,"2002/04/11 11:30",22.76833,45.7,TRADE
SNOWY1,"2002/04/11 12:00",10.605,39.3,TRADE
SNOWY1,"2002/04/11 12:30",12.76333,37.94,TRADE
SNOWY1,"2002/04/11 13:00",8.195,38.06,TRADE
SNOWY1,"2002/04/11 13:30",12.59333,43.22,TRADE
SNOWY1,"2002/04/11 14:00",10.78,44.28,TRADE
SNOWY1,"2002/04/11 14:30",10.99667,44.53,TRADE
SNOWY1,"2002/04/11 15:00",9.57333,43.45,TRADE
SNOWY1,"2002/04/11 15:30",9.78667,43.27,TRADE
SNOWY1,"2002/04/11 16:00",7.93167,39.76,TRADE
SNOWY1,"2002/04/11 16:30",12.29167,37.93,TRADE
SNOWY1,"2002/04/11 17:00",13.075,38.17,TRADE
SNOWY1,"2002/04/11 17:30",13.26,37.5,TRADE
SNOWY1,"2002/04/11 18:00",8.695,46.71,TRADE
SNOWY1,"2002/04/11 18:30",14.52333,56.82,TRADE
SNOWY1,"2002/04/11 19:00",10.815,57.39,TRADE
SNOWY1,"2002/04/11 19:30",9.00333,41.78,TRADE
SNOWY1,"2002/04/11 20:00",8.75,33.92,TRADE
SNOWY1,"2002/04/11 20:30",10.46,33.22,TRADE
SNOWY1,"2002/04/11 21:00",10.26833,29.2,TRADE
SNOWY1,"2002/04/11 21:30",7.50667,25.63,TRADE
SNOWY1,"2002/04/11 22:00",15.12667,23.97,TRADE
SNOWY1,"2002/04/11 22:30",7.92667,38.88,TRADE
SNOWY1,"2002/04/11 23:00",4.82333,37.57,TRADE
SNOWY1,"2002/04/11 23:30",21.44333,41.29,TRADE
SNOWY1,"2002/04/12 00:00",14.28833,38.35,TRADE
SNOWY1,"2002/04/12 00:30",9.89167,28.04,TRADE
SNOWY1,"2002/04/12 01:00",8.78167,24.68,TRADE
SNOWY1,"2002/04/12 01:30",16.74,25,TRADE
SNOWY1,"2002/04/12 02:00",12.14333,23.42,TRADE
SNOWY1,"2002/04/12 02:30",18.44667,19.79,TRADE
SNOWY1,"2002/04/12 03:00",12.38833,18.2,TRADE
SNOWY1,"2002/04/12 03:30",10.18,16.13,TRADE
SNOWY1,"2002/04/12 04:00",9.925,15.92,TRADE
SNOWY1,"2002/04/12 04:30",12.305,16.6,TRADE
SNOWY1,"2002/04/12 05:00",4.40167,17,TRADE
SNOWY1,"2002/04/12 05:30",15.115,17.85,TRADE
SNOWY1,"2002/04/12 06:00",8.67,20.64,TRADE
SNOWY1,"2002/04/12 06:30",7.02333,24.08,TRADE
SNOWY1,"2002/04/12 07:00",17.30833,26.74,TRADE
SNOWY1,"2002/04/12 07:30",19.72667,23.04,TRADE
SNOWY1,"2002/04/12 08:00",8.89667,27.49,TRADE
SNOWY1,"2002/04/12 08:30",17.375,29.21,TRADE
SNOWY1,"2002/04/12 09:00",21.90333,32.41,TRADE
SNOWY1,"2002/04/12 09:30",22.51,34.51,TRADE
SNOWY1,"2002/04/12 10:00",18.92833,34.03,TRADE
SNOWY1,"2002/04/12 10:30",9.85833,37.93,TRADE
SNOWY1,"2002/04/12 11:00",18.485,39.83,TRADE
SNOWY1,"2002/04/12 11:30",9.48,40.17,TRADE
SNOWY1,"2002/04/12 12:00",14.74667,37.93,TRADE
SNOWY1,"2002/04/12 12:30",16.17833,41.22,TRADE
SNOWY1,"2002/04/12 13:00",16.62667,39.28,TRADE
SNOWY1,"2002/04/12 13:30",13.59833,39.22,TRADE
SNOWY1,"2002/04/12 14:00",20.37333,39.28,TRADE
SNOWY1,"2002/04/12 14:30",17.735,36.95,TRADE
SNOWY1,"2002/04/12 15:00",14.52833,36.39,TRADE
SNOWY1,"2002/04/12 15:30",14.40667,37.88,TRADE
SNOWY1,"2002/04/12 16:00",16.56333,35.98,TRADE
SNOWY1,"2002/04/12 16:30",14.63333,36.8,TRADE
SNOWY1,"2002/04/12 17:00",12.67,40.59,TRADE
SNOWY1,"2002/04/12 17:30",13.15167,34.87,TRADE
SNOWY1,"2002/04/12 18:00",12.125,36.34,TRADE
SNOWY1,"2002/04/12 18:30",16.02,38.5,TRADE
SNOWY1,"2002/04/12 19:00",13.46833,33.85,TRADE
SNOWY1,"2002/04/12 19:30",15.45,26.14,TRADE
SNOWY1,"2002/04/12 20:00",19.05,24.66,TRADE
SNOWY1,"2002/04/12 20:30",9.02833,24.27,TRADE
SNOWY1,"2002/04/12 21:00",9.35167,22.8,TRADE
SNOWY1,"2002/04/12 21:30",8.675,20.83,TRADE
SNOWY1,"2002/04/12 22:00",9.89,20.1,TRADE
SNOWY1,"2002/04/12 22:30",11.40333,40.02,TRADE
SNOWY1,"2002/04/12 23:00",14.03167,42.59,TRADE
SNOWY1,"2002/04/12 23:30",13.05833,60.94,TRADE
SNOWY1,"2002/04/13 00:00",17.02667,44.48,TRADE
SNOWY1,"2002/04/13 00:30",6.94333,37.17,TRADE
SNOWY1,"2002/04/13 01:00",5.93,27.23,TRADE
SNOWY1,"2002/04/13 01:30",24.87167,32.03,TRADE
SNOWY1,"2002/04/13 02:00",5.20667,25.59,TRADE
SNOWY1,"2002/04/13 02:30",7.39167,21.83,TRADE
SNOWY1,"2002/04/13 03:00",10.62667,19.79,TRADE
SNOWY1,"2002/04/13 03:30",6.85333,17.09,TRADE
SNOWY1,"2002/04/13 04:00",4.62,16.89,TRADE
SNOWY1,"2002/04/13 04:30",6.35833,14.84,TRADE
SNOWY1,"2002/04/13 05:00",7.91167,14.74,TRADE
SNOWY1,"2002/04/13 05:30",8.78167,15.92,TRADE
SNOWY1,"2002/04/13 06:00",11.46667,14.24,TRADE
SNOWY1,"2002/04/13 06:30",6.615,16.5,TRADE
SNOWY1,"2002/04/13 07:00",5.34833,19.36,TRADE
SNOWY1,"2002/04/13 07:30",6.29167,22.33,TRADE
SNOWY1,"2002/04/13 08:00",8.51667,27.72,TRADE
SNOWY1,"2002/04/13 08:30",10.15333,40.26,TRADE
SNOWY1,"2002/04/13 09:00",27.53667,47.79,TRADE
SNOWY1,"2002/04/13 09:30",12.68833,43.39,TRADE
SNOWY1,"2002/04/13 10:00",17.23167,42.45,TRADE
SNOWY1,"2002/04/13 10:30",17.59667,43.93,TRADE
SNOWY1,"2002/04/13 11:00",33.605,40.86,TRADE
SNOWY1,"2002/04/13 11:30",25.12167,41.57,TRADE
SNOWY1,"2002/04/13 12:00",31.975,38.83,TRADE
SNOWY1,"2002/04/13 12:30",22.02333,37.93,TRADE
SNOWY1,"2002/04/13 13:00",16.81167,37.93,TRADE
SNOWY1,"2002/04/13 13:30",13.83,37.69,TRADE
SNOWY1,"2002/04/13 14:00",10.575,37.9,TRADE
SNOWY1,"2002/04/13 14:30",9.57,37.93,TRADE
SNOWY1,"2002/04/13 15:00",25.70167,36.06,TRADE
SNOWY1,"2002/04/13 15:30",26.34333,31.02,TRADE
SNOWY1,"2002/04/13 16:00",24.31,37.42,TRADE
SNOWY1,"2002/04/13 16:30",12.29167,36.65,TRADE
SNOWY1,"2002/04/13 17:00",25.275,38.15,TRADE
SNOWY1,"2002/04/13 17:30",6.4,36.68,TRADE
SNOWY1,"2002/04/13 18:00",32.14333,59.12,TRADE
SNOWY1,"2002/04/13 18:30",25.75,99.59,TRADE
SNOWY1,"2002/04/13 19:00",10.44833,82.8,TRADE
SNOWY1,"2002/04/13 19:30",1.24667,44.91,TRADE
SNOWY1,"2002/04/13 20:00",13.69667,41.93,TRADE
SNOWY1,"2002/04/13 20:30",10.01833,34.68,TRADE
SNOWY1,"2002/04/13 21:00",12.36333,32.07,TRADE
SNOWY1,"2002/04/13 21:30",5.10333,24.1,TRADE
SNOWY1,"2002/04/13 22:00",9.85167,23.29,TRADE
SNOWY1,"2002/04/13 22:30",10.23667,24.87,TRADE
SNOWY1,"2002/04/13 23:00",14.77333,25.42,TRADE
SNOWY1,"2002/04/13 23:30",12.15833,31.85,TRADE
SNOWY1,"2002/04/14 00:00",22.65,31.41,TRADE
SNOWY1,"2002/04/14 00:30",11.97333,24.92,TRADE
SNOWY1,"2002/04/14 01:00",9.22667,22.87,TRADE
SNOWY1,"2002/04/14 01:30",11.53333,23.73,TRADE
SNOWY1,"2002/04/14 02:00",20.84333,21.02,TRADE
SNOWY1,"2002/04/14 02:30",11.885,17.95,TRADE
SNOWY1,"2002/04/14 03:00",18.72,14.02,TRADE
SNOWY1,"2002/04/14 03:30",9.945,13.6,TRADE
SNOWY1,"2002/04/14 04:00",19.37333,11.22,TRADE
SNOWY1,"2002/04/14 04:30",13.24,11.72,TRADE
SNOWY1,"2002/04/14 05:00",11.23833,12.51,TRADE
SNOWY1,"2002/04/14 05:30",16.23333,14.83,TRADE
SNOWY1,"2002/04/14 06:00",18.05,16.33,TRADE
SNOWY1,"2002/04/14 06:30",14.53667,15.53,TRADE
SNOWY1,"2002/04/14 07:00",17.53833,17.58,TRADE
SNOWY1,"2002/04/14 07:30",18.23333,17,TRADE
SNOWY1,"2002/04/14 08:00",14.665,19.27,TRADE
SNOWY1,"2002/04/14 08:30",18.41667,22.05,TRADE
SNOWY1,"2002/04/14 09:00",11.36167,24.85,TRADE
SNOWY1,"2002/04/14 09:30",11.11333,29.8,TRADE
SNOWY1,"2002/04/14 10:00",20.105,32.96,TRADE
SNOWY1,"2002/04/14 10:30",15.64333,33.02,TRADE
SNOWY1,"2002/04/14 11:00",17.9,28.68,TRADE
SNOWY1,"2002/04/14 11:30",13.51,28.45,TRADE
SNOWY1,"2002/04/14 12:00",11.335,28,TRADE
SNOWY1,"2002/04/14 12:30",13.18667,27.06,TRADE
SNOWY1,"2002/04/14 13:00",5.58667,24.58,TRADE
SNOWY1,"2002/04/14 13:30",7.27833,23.57,TRADE
SNOWY1,"2002/04/14 14:00",11.165,22.39,TRADE
SNOWY1,"2002/04/14 14:30",15.24,22.19,TRADE
SNOWY1,"2002/04/14 15:00",14.40833,21.93,TRADE
SNOWY1,"2002/04/14 15:30",20.66667,20.88,TRADE
SNOWY1,"2002/04/14 16:00",17.53833,21.73,TRADE
SNOWY1,"2002/04/14 16:30",13.97833,22.2,TRADE
SNOWY1,"2002/04/14 17:00",14.53333,26.34,TRADE
SNOWY1,"2002/04/14 17:30",21.69667,30.6,TRADE
SNOWY1,"2002/04/14 18:00",29.97167,50.84,TRADE
SNOWY1,"2002/04/14 18:30",27.31333,80.63,TRADE
SNOWY1,"2002/04/14 19:00",20.36333,58.31,TRADE
SNOWY1,"2002/04/14 19:30",29.64,44.97,TRADE
SNOWY1,"2002/04/14 20:00",21.19667,34.83,TRADE
SNOWY1,"2002/04/14 20:30",18.99167,35.54,TRADE
SNOWY1,"2002/04/14 21:00",16.52833,27.27,TRADE
SNOWY1,"2002/04/14 21:30",23.62167,24.84,TRADE
SNOWY1,"2002/04/14 22:00",15.33333,23.03,TRADE
SNOWY1,"2002/04/14 22:30",20.35333,24.56,TRADE
SNOWY1,"2002/04/14 23:00",19.88833,24.71,TRADE
SNOWY1,"2002/04/14 23:30",17.41833,31.44,TRADE
SNOWY1,"2002/04/15 00:00",16.65,24.2,TRADE
SNOWY1,"2002/04/15 00:30",21.565,22.37,TRADE
SNOWY1,"2002/04/15 01:00",19.56,20.98,TRADE
SNOWY1,"2002/04/15 01:30",11.12167,22.26,TRADE
SNOWY1,"2002/04/15 02:00",16.095,19.22,TRADE
SNOWY1,"2002/04/15 02:30",19.22833,16.11,TRADE
SNOWY1,"2002/04/15 03:00",10.705,13.77,TRADE
SNOWY1,"2002/04/15 03:30",18.57833,11.35,TRADE
SNOWY1,"2002/04/15 04:00",19.71667,10.13,TRADE
SNOWY1,"2002/04/15 04:30",17.59833,11.08,TRADE
SNOWY1,"2002/04/15 05:00",18.67333,11.03,TRADE
SNOWY1,"2002/04/15 05:30",15,13.95,TRADE
SNOWY1,"2002/04/15 06:00",11.655,15.48,TRADE
SNOWY1,"2002/04/15 06:30",21.35167,20.21,TRADE
SNOWY1,"2002/04/15 07:00",18.125,23.02,TRADE
SNOWY1,"2002/04/15 07:30",14.81833,21.39,TRADE
SNOWY1,"2002/04/15 08:00",28.365,24.53,TRADE
SNOWY1,"2002/04/15 08:30",18.56667,25.44,TRADE
SNOWY1,"2002/04/15 09:00",26.81333,25.22,TRADE
SNOWY1,"2002/04/15 09:30",17.99167,25.99,TRADE
SNOWY1,"2002/04/15 10:00",21.52667,28.02,TRADE
SNOWY1,"2002/04/15 10:30",16.44667,29.73,TRADE
SNOWY1,"2002/04/15 11:00",21.45833,30.29,TRADE
SNOWY1,"2002/04/15 11:30",21.26667,31.61,TRADE
SNOWY1,"2002/04/15 12:00",19.49833,31.83,TRADE
SNOWY1,"2002/04/15 12:30",27.37,30.54,TRADE
SNOWY1,"2002/04/15 13:00",17.52333,28.02,TRADE
SNOWY1,"2002/04/15 13:30",17.24333,29.25,TRADE
SNOWY1,"2002/04/15 14:00",24.18667,26.62,TRADE
SNOWY1,"2002/04/15 14:30",25.195,27.56,TRADE
SNOWY1,"2002/04/15 15:00",12.03333,30.21,TRADE
SNOWY1,"2002/04/15 15:30",22.82167,26.25,TRADE
SNOWY1,"2002/04/15 16:00",23.59667,26.14,TRADE
SNOWY1,"2002/04/15 16:30",22.50167,25.96,TRADE
SNOWY1,"2002/04/15 17:00",14.80333,26.11,TRADE
SNOWY1,"2002/04/15 17:30",8.93667,25.53,TRADE
SNOWY1,"2002/04/15 18:00",24.71,33.26,TRADE
SNOWY1,"2002/04/15 18:30",27.89833,37.14,TRADE
SNOWY1,"2002/04/15 19:00",20.765,31.58,TRADE
SNOWY1,"2002/04/15 19:30",21.84333,27.85,TRADE
SNOWY1,"2002/04/15 20:00",12.89333,23.62,TRADE
SNOWY1,"2002/04/15 20:30",25.885,23.22,TRADE
SNOWY1,"2002/04/15 21:00",19.525,21.83,TRADE
SNOWY1,"2002/04/15 21:30",20.28667,20.43,TRADE
SNOWY1,"2002/04/15 22:00",20.325,19.79,TRADE
SNOWY1,"2002/04/15 22:30",18.3,24.72,TRADE
SNOWY1,"2002/04/15 23:00",19.105,25,TRADE
SNOWY1,"2002/04/15 23:30",17.42667,32.34,TRADE
SNOWY1,"2002/04/16 00:00",8.54667,29.7,TRADE
SNOWY1,"2002/04/16 00:30",21.44,24.67,TRADE
SNOWY1,"2002/04/16 01:00",16.11667,23.79,TRADE
SNOWY1,"2002/04/16 01:30",17.775,24.36,TRADE
SNOWY1,"2002/04/16 02:00",18.815,21.63,TRADE
SNOWY1,"2002/04/16 02:30",21.15833,17.79,TRADE
SNOWY1,"2002/04/16 03:00",24.05167,13.99,TRADE
SNOWY1,"2002/04/16 03:30",22.735,12.45,TRADE
SNOWY1,"2002/04/16 04:00",25.14167,10.91,TRADE
SNOWY1,"2002/04/16 04:30",12.87667,10.84,TRADE
SNOWY1,"2002/04/16 05:00",16.40167,10.86,TRADE
SNOWY1,"2002/04/16 05:30",12.63333,11.93,TRADE
SNOWY1,"2002/04/16 06:00",18.63,14.48,TRADE
SNOWY1,"2002/04/16 06:30",17.57833,19.39,TRADE
SNOWY1,"2002/04/16 07:00",19.96,22.03,TRADE
SNOWY1,"2002/04/16 07:30",18.21667,19.49,TRADE
SNOWY1,"2002/04/16 08:00",19.12667,22.7,TRADE
SNOWY1,"2002/04/16 08:30",16.8,23.22,TRADE
SNOWY1,"2002/04/16 09:00",17.485,23.46,TRADE
SNOWY1,"2002/04/16 09:30",11.465,23.84,TRADE
SNOWY1,"2002/04/16 10:00",17.19333,24.3,TRADE
SNOWY1,"2002/04/16 10:30",13.195,24.56,TRADE
SNOWY1,"2002/04/16 11:00",16.565,24.56,TRADE
SNOWY1,"2002/04/16 11:30",17.36167,24.49,TRADE
SNOWY1,"2002/04/16 12:00",10.22167,24.61,TRADE
SNOWY1,"2002/04/16 12:30",8.86,24.67,TRADE
SNOWY1,"2002/04/16 13:00",10.725,24.59,TRADE
SNOWY1,"2002/04/16 13:30",15.455,24.76,TRADE
SNOWY1,"2002/04/16 14:00",10.67833,24.74,TRADE
SNOWY1,"2002/04/16 14:30",9.11833,24.66,TRADE
SNOWY1,"2002/04/16 15:00",7.15333,24.41,TRADE
SNOWY1,"2002/04/16 15:30",9.27833,22.59,TRADE
SNOWY1,"2002/04/16 16:00",8.99333,22.36,TRADE
SNOWY1,"2002/04/16 16:30",10.145,23.86,TRADE
SNOWY1,"2002/04/16 17:00",15.985,21.8,TRADE
SNOWY1,"2002/04/16 17:30",10.295,22.5,TRADE
SNOWY1,"2002/04/16 18:00",18,25.32,TRADE
SNOWY1,"2002/04/16 18:30",23.75,26.77,TRADE
SNOWY1,"2002/04/16 19:00",12.07333,25.08,TRADE
SNOWY1,"2002/04/16 19:30",8.895,23.44,TRADE
SNOWY1,"2002/04/16 20:00",16.57333,21.15,TRADE
SNOWY1,"2002/04/16 20:30",12.495,20.23,TRADE
SNOWY1,"2002/04/16 21:00",11.11833,19.37,TRADE
SNOWY1,"2002/04/16 21:30",19.87333,17.67,TRADE
SNOWY1,"2002/04/16 22:00",17.27833,17.87,TRADE
SNOWY1,"2002/04/16 22:30",18.88833,23.94,TRADE
SNOWY1,"2002/04/16 23:00",17.34333,23.55,TRADE
SNOWY1,"2002/04/16 23:30",11.28833,25.18,TRADE
SNOWY1,"2002/04/17 00:00",10.79167,23.97,TRADE
SNOWY1,"2002/04/17 00:30",18.3,22.16,TRADE
SNOWY1,"2002/04/17 01:00",9.145,19.53,TRADE
SNOWY1,"2002/04/17 01:30",13.44333,20.96,TRADE
SNOWY1,"2002/04/17 02:00",8.00333,17.97,TRADE
SNOWY1,"2002/04/17 02:30",16.70833,14.33,TRADE
SNOWY1,"2002/04/17 03:00",9.33333,11.57,TRADE
SNOWY1,"2002/04/17 03:30",6.79167,10.14,TRADE
SNOWY1,"2002/04/17 04:00",5.68167,9.05,TRADE
SNOWY1,"2002/04/17 04:30",8.08167,9.2,TRADE
SNOWY1,"2002/04/17 05:00",7.44,9.65,TRADE
SNOWY1,"2002/04/17 05:30",6.98833,11.89,TRADE
SNOWY1,"2002/04/17 06:00",8.95,13.7,TRADE
SNOWY1,"2002/04/17 06:30",8.40667,17.2,TRADE
SNOWY1,"2002/04/17 07:00",16.75167,21.1,TRADE
SNOWY1,"2002/04/17 07:30",18.905,17.75,TRADE
SNOWY1,"2002/04/17 08:00",13.36333,20.01,TRADE
SNOWY1,"2002/04/17 08:30",18.925,23.41,TRADE
SNOWY1,"2002/04/17 09:00",13.72,22.44,TRADE
SNOWY1,"2002/04/17 09:30",14.17333,23.22,TRADE
SNOWY1,"2002/04/17 10:00",13.47333,24.61,TRADE
SNOWY1,"2002/04/17 10:30",14.32667,25,TRADE
SNOWY1,"2002/04/17 11:00",15.19,25.21,TRADE
SNOWY1,"2002/04/17 11:30",7.35667,25.63,TRADE
SNOWY1,"2002/04/17 12:00",11.24,25.6,TRADE
SNOWY1,"2002/04/17 12:30",11.35167,25.31,TRADE
SNOWY1,"2002/04/17 13:00",5.43833,25.15,TRADE
SNOWY1,"2002/04/17 13:30",10.33667,25.54,TRADE
SNOWY1,"2002/04/17 14:00",13.03333,25.37,TRADE
SNOWY1,"2002/04/17 14:30",8.65333,25.15,TRADE
SNOWY1,"2002/04/17 15:00",10.35333,24.7,TRADE
SNOWY1,"2002/04/17 15:30",16.5,24.66,TRADE
SNOWY1,"2002/04/17 16:00",5.71167,24.39,TRADE
SNOWY1,"2002/04/17 16:30",19.16667,25.31,TRADE
SNOWY1,"2002/04/17 17:00",17.475,25.8,TRADE
SNOWY1,"2002/04/17 17:30",14.515,27.47,TRADE
SNOWY1,"2002/04/17 18:00",27.04,36.14,TRADE
SNOWY1,"2002/04/17 18:30",11.76667,36.58,TRADE
SNOWY1,"2002/04/17 19:00",16.23167,27.61,TRADE
SNOWY1,"2002/04/17 19:30",15.30333,24.75,TRADE
SNOWY1,"2002/04/17 20:00",17.54333,22.87,TRADE
SNOWY1,"2002/04/17 20:30",12.98333,20.05,TRADE
SNOWY1,"2002/04/17 21:00",11.81167,19.38,TRADE
SNOWY1,"2002/04/17 21:30",17.07333,18.31,TRADE
SNOWY1,"2002/04/17 22:00",14.04667,18.42,TRADE
SNOWY1,"2002/04/17 22:30",8.38167,25,TRADE
SNOWY1,"2002/04/17 23:00",10.04667,24.63,TRADE
SNOWY1,"2002/04/17 23:30",17.49833,29.35,TRADE
SNOWY1,"2002/04/18 00:00",25.92167,28.97,TRADE
SNOWY1,"2002/04/18 00:30",8.025,25.38,TRADE
SNOWY1,"2002/04/18 01:00",15.94833,24.43,TRADE
SNOWY1,"2002/04/18 01:30",13.98167,24.81,TRADE
SNOWY1,"2002/04/18 02:00",13.78,22.77,TRADE
SNOWY1,"2002/04/18 02:30",8.77333,18.26,TRADE
SNOWY1,"2002/04/18 03:00",7.765,16.46,TRADE
SNOWY1,"2002/04/18 03:30",0.97833,14.81,TRADE
SNOWY1,"2002/04/18 04:00",8.02,14.03,TRADE
SNOWY1,"2002/04/18 04:30",12.10333,13.33,TRADE
SNOWY1,"2002/04/18 05:00",6.88167,13.63,TRADE
SNOWY1,"2002/04/18 05:30",9.82,15.06,TRADE
SNOWY1,"2002/04/18 06:00",14.72333,16.4,TRADE
SNOWY1,"2002/04/18 06:30",15.32833,21.61,TRADE
SNOWY1,"2002/04/18 07:00",17.695,24.74,TRADE
SNOWY1,"2002/04/18 07:30",18.28667,20.72,TRADE
SNOWY1,"2002/04/18 08:00",18.87,24.56,TRADE
SNOWY1,"2002/04/18 08:30",16.90167,25.8,TRADE
SNOWY1,"2002/04/18 09:00",16.63667,25.69,TRADE
SNOWY1,"2002/04/18 09:30",11.41667,25.82,TRADE
SNOWY1,"2002/04/18 10:00",18.18167,26.14,TRADE
SNOWY1,"2002/04/18 10:30",24.56167,26.52,TRADE
SNOWY1,"2002/04/18 11:00",20.15167,29.46,TRADE
SNOWY1,"2002/04/18 11:30",25.67333,31.36,TRADE
SNOWY1,"2002/04/18 12:00",23.96,26.68,TRADE
SNOWY1,"2002/04/18 12:30",26.395,26.45,TRADE
SNOWY1,"2002/04/18 13:00",25.31167,26.15,TRADE
SNOWY1,"2002/04/18 13:30",20.94,26.05,TRADE
SNOWY1,"2002/04/18 14:00",22.04667,26.31,TRADE
SNOWY1,"2002/04/18 14:30",22.835,26.26,TRADE
SNOWY1,"2002/04/18 15:00",22.46,26.04,TRADE
SNOWY1,"2002/04/18 15:30",21.92,26.08,TRADE
SNOWY1,"2002/04/18 16:00",28.34,26.1,TRADE
SNOWY1,"2002/04/18 16:30",16.22167,26.14,TRADE
SNOWY1,"2002/04/18 17:00",18.24167,26.2,TRADE
SNOWY1,"2002/04/18 17:30",28.21,25.92,TRADE
SNOWY1,"2002/04/18 18:00",23.80667,32.29,TRADE
SNOWY1,"2002/04/18 18:30",22.90333,36.55,TRADE
SNOWY1,"2002/04/18 19:00",29.67667,31.37,TRADE
SNOWY1,"2002/04/18 19:30",24.33667,28.05,TRADE
SNOWY1,"2002/04/18 20:00",27.83833,26.24,TRADE
SNOWY1,"2002/04/18 20:30",26.05667,25.71,TRADE
SNOWY1,"2002/04/18 21:00",29.13333,24.53,TRADE
SNOWY1,"2002/04/18 21:30",17.21667,22.81,TRADE
SNOWY1,"2002/04/18 22:00",18.58,22.6,TRADE
SNOWY1,"2002/04/18 22:30",26.71833,34.81,TRADE
SNOWY1,"2002/04/18 23:00",24.19833,25.96,TRADE
SNOWY1,"2002/04/18 23:30",19.895,36.71,TRADE
SNOWY1,"2002/04/19 00:00",24.23333,29.24,TRADE
SNOWY1,"2002/04/19 00:30",22.15833,27.01,TRADE
SNOWY1,"2002/04/19 01:00",15.32667,25.51,TRADE
SNOWY1,"2002/04/19 01:30",19.80833,26.44,TRADE
SNOWY1,"2002/04/19 02:00",19.89,25.13,TRADE
SNOWY1,"2002/04/19 02:30",18.14833,20.29,TRADE
SNOWY1,"2002/04/19 03:00",26.905,18.25,TRADE
SNOWY1,"2002/04/19 03:30",18.21167,15.9,TRADE
SNOWY1,"2002/04/19 04:00",18.11833,15.03,TRADE
SNOWY1,"2002/04/19 04:30",21.12833,14.28,TRADE
SNOWY1,"2002/04/19 05:00",17.065,14.22,TRADE
SNOWY1,"2002/04/19 05:30",17.23333,15.9,TRADE
SNOWY1,"2002/04/19 06:00",18.32333,17.56,TRADE
SNOWY1,"2002/04/19 06:30",22.19833,22.56,TRADE
SNOWY1,"2002/04/19 07:00",18.28833,25.05,TRADE
SNOWY1,"2002/04/19 07:30",22.45333,23.12,TRADE
SNOWY1,"2002/04/19 08:00",22.86333,26.06,TRADE
SNOWY1,"2002/04/19 08:30",28.69333,30.07,TRADE
SNOWY1,"2002/04/19 09:00",23.14167,28.5,TRADE
SNOWY1,"2002/04/19 09:30",29.12167,26.92,TRADE
SNOWY1,"2002/04/19 10:00",19.10833,27.03,TRADE
SNOWY1,"2002/04/19 10:30",20.93,33.69,TRADE
SNOWY1,"2002/04/19 11:00",23.08833,38.86,TRADE
SNOWY1,"2002/04/19 11:30",17.27,38.38,TRADE
SNOWY1,"2002/04/19 12:00",22.47167,37.93,TRADE
SNOWY1,"2002/04/19 12:30",17.69667,39.12,TRADE
SNOWY1,"2002/04/19 13:00",23.76833,36.16,TRADE
SNOWY1,"2002/04/19 13:30",23.92833,34.22,TRADE
SNOWY1,"2002/04/19 14:00",19.99,35.57,TRADE
SNOWY1,"2002/04/19 14:30",19.02333,36.59,TRADE
SNOWY1,"2002/04/19 15:00",13.99167,34.65,TRADE
SNOWY1,"2002/04/19 15:30",23.835,32.95,TRADE
SNOWY1,"2002/04/19 16:00",29.47,31.94,TRADE
SNOWY1,"2002/04/19 16:30",17.80667,31.75,TRADE
SNOWY1,"2002/04/19 17:00",29.34667,36.6,TRADE
SNOWY1,"2002/04/19 17:30",12.75333,34.1,TRADE
SNOWY1,"2002/04/19 18:00",23.98833,42.45,TRADE
SNOWY1,"2002/04/19 18:30",19.635,42.85,TRADE
SNOWY1,"2002/04/19 19:00",26.24667,37.42,TRADE
SNOWY1,"2002/04/19 19:30",18.875,33.01,TRADE
SNOWY1,"2002/04/19 20:00",22.79167,29.18,TRADE
SNOWY1,"2002/04/19 20:30",14.91,25.87,TRADE
SNOWY1,"2002/04/19 21:00",18.31833,25.88,TRADE
SNOWY1,"2002/04/19 21:30",17.41167,24.44,TRADE
SNOWY1,"2002/04/19 22:00",17.02667,23.47,TRADE
SNOWY1,"2002/04/19 22:30",14.785,40.72,TRADE
SNOWY1,"2002/04/19 23:00",13.89167,39.82,TRADE
SNOWY1,"2002/04/19 23:30",20.335,60.51,TRADE
SNOWY1,"2002/04/20 00:00",20.73167,51.77,TRADE
SNOWY1,"2002/04/20 00:30",20.51667,42.21,TRADE
SNOWY1,"2002/04/20 01:00",17.875,37.3,TRADE
SNOWY1,"2002/04/20 01:30",14.73667,36.59,TRADE
SNOWY1,"2002/04/20 02:00",24.735,31.44,TRADE
SNOWY1,"2002/04/20 02:30",15.38833,24.97,TRADE
SNOWY1,"2002/04/20 03:00",14.35667,20.31,TRADE
SNOWY1,"2002/04/20 03:30",13.68167,17.83,TRADE
SNOWY1,"2002/04/20 04:00",14.305,17.33,TRADE
SNOWY1,"2002/04/20 04:30",14.685,16.49,TRADE
SNOWY1,"2002/04/20 05:00",14.37333,16.4,TRADE
SNOWY1,"2002/04/20 05:30",13.34833,16.58,TRADE
SNOWY1,"2002/04/20 06:00",10.42833,16.62,TRADE
SNOWY1,"2002/04/20 06:30",14.81667,16.86,TRADE
SNOWY1,"2002/04/20 07:00",16.78333,19.47,TRADE
SNOWY1,"2002/04/20 07:30",15.02,21.47,TRADE
SNOWY1,"2002/04/20 08:00",17.23333,25.15,TRADE
SNOWY1,"2002/04/20 08:30",17.31833,32.2,TRADE
SNOWY1,"2002/04/20 09:00",20.80833,42.51,TRADE
SNOWY1,"2002/04/20 09:30",23.27667,48.19,TRADE
SNOWY1,"2002/04/20 10:00",17.365,49.73,TRADE
SNOWY1,"2002/04/20 10:30",25.115,53.49,TRADE
SNOWY1,"2002/04/20 11:00",32.16167,45.87,TRADE
SNOWY1,"2002/04/20 11:30",26.22333,44.82,TRADE
SNOWY1,"2002/04/20 12:00",32.06833,45.6,TRADE
SNOWY1,"2002/04/20 12:30",24.435,44.58,TRADE
SNOWY1,"2002/04/20 13:00",15.66833,40.98,TRADE
SNOWY1,"2002/04/20 13:30",24.64667,38.71,TRADE
SNOWY1,"2002/04/20 14:00",19.21333,37.78,TRADE
SNOWY1,"2002/04/20 14:30",11.54,34.77,TRADE
SNOWY1,"2002/04/20 15:00",16.51,32.06,TRADE
SNOWY1,"2002/04/20 15:30",20.56167,34.66,TRADE
SNOWY1,"2002/04/20 16:00",22.10167,38.2,TRADE
SNOWY1,"2002/04/20 16:30",15.20667,40.79,TRADE
SNOWY1,"2002/04/20 17:00",14.27,43.63,TRADE
SNOWY1,"2002/04/20 17:30",16.04833,52.21,TRADE
SNOWY1,"2002/04/20 18:00",18.15,159.43,TRADE
SNOWY1,"2002/04/20 18:30",23.13667,280.92,TRADE
SNOWY1,"2002/04/20 19:00",20.01167,111.85,TRADE
SNOWY1,"2002/04/20 19:30",16.95333,65.18,TRADE
SNOWY1,"2002/04/20 20:00",16.03167,63.29,TRADE
SNOWY1,"2002/04/20 20:30",17.74833,50.57,TRADE
SNOWY1,"2002/04/20 21:00",20.37,57.01,TRADE
SNOWY1,"2002/04/20 21:30",15.74333,44.86,TRADE
SNOWY1,"2002/04/20 22:00",14.00667,42.9,TRADE
SNOWY1,"2002/04/20 22:30",17.70833,41.17,TRADE
SNOWY1,"2002/04/20 23:00",8.40833,38.31,TRADE
SNOWY1,"2002/04/20 23:30",24.69,62.91,TRADE
SNOWY1,"2002/04/21 00:00",22.64833,49.21,TRADE
SNOWY1,"2002/04/21 00:30",10.87167,30.47,TRADE
SNOWY1,"2002/04/21 01:00",10.94167,26.46,TRADE
SNOWY1,"2002/04/21 01:30",31.9,29.93,TRADE
SNOWY1,"2002/04/21 02:00",17.09,24.42,TRADE
SNOWY1,"2002/04/21 02:30",14.75833,20.87,TRADE
SNOWY1,"2002/04/21 03:00",14.73333,18.64,TRADE
SNOWY1,"2002/04/21 03:30",18.305,14.95,TRADE
SNOWY1,"2002/04/21 04:00",15.56833,14.72,TRADE
SNOWY1,"2002/04/21 04:30",17.53667,13.67,TRADE
SNOWY1,"2002/04/21 05:00",15.4,13.05,TRADE
SNOWY1,"2002/04/21 05:30",13.98,13.04,TRADE
SNOWY1,"2002/04/21 06:00",15.14667,13.46,TRADE
SNOWY1,"2002/04/21 06:30",14.50333,15.59,TRADE
SNOWY1,"2002/04/21 07:00",12.91833,16.64,TRADE
SNOWY1,"2002/04/21 07:30",18.92667,16.11,TRADE
SNOWY1,"2002/04/21 08:00",13.29833,17.8,TRADE
SNOWY1,"2002/04/21 08:30",15.34667,21.58,TRADE
SNOWY1,"2002/04/21 09:00",19.73333,25.84,TRADE
SNOWY1,"2002/04/21 09:30",17.32,31.09,TRADE
SNOWY1,"2002/04/21 10:00",16.09167,34.38,TRADE
SNOWY1,"2002/04/21 10:30",10.885,36.08,TRADE
SNOWY1,"2002/04/21 11:00",9.17,35.01,TRADE
SNOWY1,"2002/04/21 11:30",11.99167,34.13,TRADE
SNOWY1,"2002/04/21 12:00",9.69833,32.62,TRADE
SNOWY1,"2002/04/21 12:30",14.715,30.96,TRADE
SNOWY1,"2002/04/21 13:00",16.945,32.56,TRADE
SNOWY1,"2002/04/21 13:30",13.18167,27.72,TRADE
SNOWY1,"2002/04/21 14:00",9.825,24.88,TRADE
SNOWY1,"2002/04/21 14:30",26.55,24.25,TRADE
SNOWY1,"2002/04/21 15:00",7.64667,23.85,TRADE
SNOWY1,"2002/04/21 15:30",7.85833,23.93,TRADE
SNOWY1,"2002/04/21 16:00",5.975,24.45,TRADE
SNOWY1,"2002/04/21 16:30",8.15667,24.36,TRADE
SNOWY1,"2002/04/21 17:00",10.04167,26.95,TRADE
SNOWY1,"2002/04/21 17:30",7.04167,31.66,TRADE
SNOWY1,"2002/04/21 18:00",31.55667,65.48,TRADE
SNOWY1,"2002/04/21 18:30",16.535,95.37,TRADE
SNOWY1,"2002/04/21 19:00",13.90667,74.74,TRADE
SNOWY1,"2002/04/21 19:30",6.91167,55.05,TRADE
SNOWY1,"2002/04/21 20:00",10.52667,45.39,TRADE
SNOWY1,"2002/04/21 20:30",7.845,44.32,TRADE
SNOWY1,"2002/04/21 21:00",7.48833,41.28,TRADE
SNOWY1,"2002/04/21 21:30",12.425,39.25,TRADE
SNOWY1,"2002/04/21 22:00",8.28167,25.54,TRADE
SNOWY1,"2002/04/21 22:30",11.75,26.73,TRADE
SNOWY1,"2002/04/21 23:00",12.43833,27.07,TRADE
SNOWY1,"2002/04/21 23:30",6.17667,40.49,TRADE
SNOWY1,"2002/04/22 00:00",21.02,32.02,TRADE
SNOWY1,"2002/04/22 00:30",12.63667,24.13,TRADE
SNOWY1,"2002/04/22 01:00",16.885,23.39,TRADE
SNOWY1,"2002/04/22 01:30",10.845,23.68,TRADE
SNOWY1,"2002/04/22 02:00",7.25667,20.22,TRADE
SNOWY1,"2002/04/22 02:30",5.89333,17.8,TRADE
SNOWY1,"2002/04/22 03:00",15.195,15.72,TRADE
SNOWY1,"2002/04/22 03:30",8.03167,14.48,TRADE
SNOWY1,"2002/04/22 04:00",11.02333,14.44,TRADE
SNOWY1,"2002/04/22 04:30",10.32167,13.16,TRADE
SNOWY1,"2002/04/22 05:00",10.42,14.84,TRADE
SNOWY1,"2002/04/22 05:30",14.68167,15.52,TRADE
SNOWY1,"2002/04/22 06:00",13.85167,17.65,TRADE
SNOWY1,"2002/04/22 06:30",12.52,22.28,TRADE
SNOWY1,"2002/04/22 07:00",12.65667,24.47,TRADE
SNOWY1,"2002/04/22 07:30",21.08333,21.95,TRADE
SNOWY1,"2002/04/22 08:00",19.29,25.72,TRADE
SNOWY1,"2002/04/22 08:30",23.50333,30.14,TRADE
SNOWY1,"2002/04/22 09:00",16.775,30.77,TRADE
SNOWY1,"2002/04/22 09:30",22.18667,31.25,TRADE
SNOWY1,"2002/04/22 10:00",19.645,31.94,TRADE
SNOWY1,"2002/04/22 10:30",15.40833,31.94,TRADE
SNOWY1,"2002/04/22 11:00",11.58667,32.91,TRADE
SNOWY1,"2002/04/22 11:30",12.06167,35.48,TRADE
SNOWY1,"2002/04/22 12:00",18.31,37.12,TRADE
SNOWY1,"2002/04/22 12:30",13.89833,37.73,TRADE
SNOWY1,"2002/04/22 13:00",15.855,36.12,TRADE
SNOWY1,"2002/04/22 13:30",15.925,33.83,TRADE
SNOWY1,"2002/04/22 14:00",11.535,37.09,TRADE
SNOWY1,"2002/04/22 14:30",17.425,37.93,TRADE
SNOWY1,"2002/04/22 15:00",16.51167,37.87,TRADE
SNOWY1,"2002/04/22 15:30",19.775,33.04,TRADE
SNOWY1,"2002/04/22 16:00",16.80333,31.94,TRADE
SNOWY1,"2002/04/22 16:30",27.61833,33.66,TRADE
SNOWY1,"2002/04/22 17:00",24.64333,31.55,TRADE
SNOWY1,"2002/04/22 17:30",16.21,32.05,TRADE
SNOWY1,"2002/04/22 18:00",21.13333,57.36,TRADE
SNOWY1,"2002/04/22 18:30",26.34333,49.02,TRADE
SNOWY1,"2002/04/22 19:00",19.74667,42.6,TRADE
SNOWY1,"2002/04/22 19:30",24.32833,34.33,TRADE
SNOWY1,"2002/04/22 20:00",24.93167,26.15,TRADE
SNOWY1,"2002/04/22 20:30",18.43833,25.81,TRADE
SNOWY1,"2002/04/22 21:00",14.31833,24.98,TRADE
SNOWY1,"2002/04/22 21:30",12.31167,22.88,TRADE
SNOWY1,"2002/04/22 22:00",12.24,19.93,TRADE
SNOWY1,"2002/04/22 22:30",8.695,31.33,TRADE
SNOWY1,"2002/04/22 23:00",7.70167,27.78,TRADE
SNOWY1,"2002/04/22 23:30",19.59333,34.24,TRADE
SNOWY1,"2002/04/23 00:00",14.21333,33.12,TRADE
SNOWY1,"2002/04/23 00:30",15.905,28.11,TRADE
SNOWY1,"2002/04/23 01:00",16.35333,26.19,TRADE
SNOWY1,"2002/04/23 01:30",23.975,28.62,TRADE
SNOWY1,"2002/04/23 02:00",14.46333,25.61,TRADE
SNOWY1,"2002/04/23 02:30",5.45667,20.85,TRADE
SNOWY1,"2002/04/23 03:00",14.57333,17.39,TRADE
SNOWY1,"2002/04/23 03:30",13.79167,15.53,TRADE
SNOWY1,"2002/04/23 04:00",16.585,13.2,TRADE
SNOWY1,"2002/04/23 04:30",9.18667,12.79,TRADE
SNOWY1,"2002/04/23 05:00",14.705,13.49,TRADE
SNOWY1,"2002/04/23 05:30",14.71833,15.03,TRADE
SNOWY1,"2002/04/23 06:00",19.09833,16.4,TRADE
SNOWY1,"2002/04/23 06:30",13.29333,21.5,TRADE
SNOWY1,"2002/04/23 07:00",10.48667,23.85,TRADE
SNOWY1,"2002/04/23 07:30",17.23333,20.67,TRADE
SNOWY1,"2002/04/23 08:00",19.96667,25.32,TRADE
SNOWY1,"2002/04/23 08:30",22.13,25.81,TRADE
SNOWY1,"2002/04/23 09:00",22.615,25.83,TRADE
SNOWY1,"2002/04/23 09:30",16.99,26,TRADE
SNOWY1,"2002/04/23 10:00",10.495,25.95,TRADE
SNOWY1,"2002/04/23 10:30",15.46667,29.93,TRADE
SNOWY1,"2002/04/23 11:00",20.64167,31.37,TRADE
SNOWY1,"2002/04/23 11:30",17.43667,31.33,TRADE
SNOWY1,"2002/04/23 12:00",17.885,26.77,TRADE
SNOWY1,"2002/04/23 12:30",12.57,28.16,TRADE
SNOWY1,"2002/04/23 13:00",16.61,31.94,TRADE
SNOWY1,"2002/04/23 13:30",23.32,34.95,TRADE
SNOWY1,"2002/04/23 14:00",15.41,34.67,TRADE
SNOWY1,"2002/04/23 14:30",12.18333,33.56,TRADE
SNOWY1,"2002/04/23 15:00",17.85667,31.94,TRADE
SNOWY1,"2002/04/23 15:30",20.45667,32.79,TRADE
SNOWY1,"2002/04/23 16:00",29.615,35.29,TRADE
SNOWY1,"2002/04/23 16:30",24.765,36.93,TRADE
SNOWY1,"2002/04/23 17:00",24.44667,38.2,TRADE
SNOWY1,"2002/04/23 17:30",21.46333,39.38,TRADE
SNOWY1,"2002/04/23 18:00",22.51333,57.85,TRADE
SNOWY1,"2002/04/23 18:30",22.80333,57.14,TRADE
SNOWY1,"2002/04/23 19:00",15.07667,42.04,TRADE
SNOWY1,"2002/04/23 19:30",15.90167,34.11,TRADE
SNOWY1,"2002/04/23 20:00",16.795,28.52,TRADE
SNOWY1,"2002/04/23 20:30",17.425,26.53,TRADE
SNOWY1,"2002/04/23 21:00",15.51,25.31,TRADE
SNOWY1,"2002/04/23 21:30",18.64,23.83,TRADE
SNOWY1,"2002/04/23 22:00",15.09,22.28,TRADE
SNOWY1,"2002/04/23 22:30",15.14167,39.1,TRADE
SNOWY1,"2002/04/23 23:00",15.425,37.99,TRADE
SNOWY1,"2002/04/23 23:30",23.395,49.82,TRADE
SNOWY1,"2002/04/24 00:00",16.67,50.81,TRADE
SNOWY1,"2002/04/24 00:30",18.82,37.93,TRADE
SNOWY1,"2002/04/24 01:00",10.855,34.29,TRADE
SNOWY1,"2002/04/24 01:30",31.76,32.57,TRADE
SNOWY1,"2002/04/24 02:00",9.91833,28.68,TRADE
SNOWY1,"2002/04/24 02:30",13.46333,22.29,TRADE
SNOWY1,"2002/04/24 03:00",9.86833,18.39,TRADE
SNOWY1,"2002/04/24 03:30",16.17667,16.65,TRADE
SNOWY1,"2002/04/24 04:00",10.78167,15.51,TRADE
SNOWY1,"2002/04/24 04:30",8.57,14.6,TRADE
SNOWY1,"2002/04/24 05:00",11.15833,15.28,TRADE
SNOWY1,"2002/04/24 05:30",6.28167,16.17,TRADE
SNOWY1,"2002/04/24 06:00",9.14333,18.17,TRADE
SNOWY1,"2002/04/24 06:30",14.06833,24.88,TRADE
SNOWY1,"2002/04/24 07:00",18.99333,27.15,TRADE
SNOWY1,"2002/04/24 07:30",17.52667,23.92,TRADE
SNOWY1,"2002/04/24 08:00",19.33,28.27,TRADE
SNOWY1,"2002/04/24 08:30",25.34,28.19,TRADE
SNOWY1,"2002/04/24 09:00",43.10333,29.13,TRADE
SNOWY1,"2002/04/24 09:30",94.125,30.86,TRADE
SNOWY1,"2002/04/24 10:00",138.62167,31.94,TRADE
SNOWY1,"2002/04/24 10:30",20.06667,31.94,TRADE
SNOWY1,"2002/04/24 11:00",24.195,37.2,TRADE
SNOWY1,"2002/04/24 11:30",22.04167,37.93,TRADE
SNOWY1,"2002/04/24 12:00",23.93,38.65,TRADE
SNOWY1,"2002/04/24 12:30",21.22167,38.74,TRADE
SNOWY1,"2002/04/24 13:00",18.50167,37.95,TRADE
SNOWY1,"2002/04/24 13:30",20.48333,38.14,TRADE
SNOWY1,"2002/04/24 14:00",18.23833,35.89,TRADE
SNOWY1,"2002/04/24 14:30",23.34667,37.93,TRADE
SNOWY1,"2002/04/24 15:00",15.405,34.28,TRADE
SNOWY1,"2002/04/24 15:30",17.75333,31.94,TRADE
SNOWY1,"2002/04/24 16:00",17.95167,31.35,TRADE
SNOWY1,"2002/04/24 16:30",16.35167,31.94,TRADE
SNOWY1,"2002/04/24 17:00",18.825,31.94,TRADE
SNOWY1,"2002/04/24 17:30",16.075,33.74,TRADE
SNOWY1,"2002/04/24 18:00",22.27667,45.76,TRADE
SNOWY1,"2002/04/24 18:30",27.195,44.75,TRADE
SNOWY1,"2002/04/24 19:00",22.98,40.44,TRADE
SNOWY1,"2002/04/24 19:30",7.91333,33.28,TRADE
SNOWY1,"2002/04/24 20:00",17.09833,27.65,TRADE
SNOWY1,"2002/04/24 20:30",23.095,26.04,TRADE
SNOWY1,"2002/04/24 21:00",14.69833,25.64,TRADE
SNOWY1,"2002/04/24 21:30",25.31167,24.52,TRADE
SNOWY1,"2002/04/24 22:00",21.37167,19.33,TRADE
SNOWY1,"2002/04/24 22:30",11.76333,39.99,TRADE
SNOWY1,"2002/04/24 23:00",10.58833,32.6,TRADE
SNOWY1,"2002/04/24 23:30",16.11333,37.93,TRADE
SNOWY1,"2002/04/25 00:00",16.58167,36.81,TRADE
SNOWY1,"2002/04/25 00:30",13.695,27.34,TRADE
SNOWY1,"2002/04/25 01:00",14,25.61,TRADE
SNOWY1,"2002/04/25 01:30",21.13167,27.47,TRADE
SNOWY1,"2002/04/25 02:00",13.39,28.37,TRADE
SNOWY1,"2002/04/25 02:30",12.63833,22.59,TRADE
SNOWY1,"2002/04/25 03:00",16.09167,18.29,TRADE
SNOWY1,"2002/04/25 03:30",11.735,16.59,TRADE
SNOWY1,"2002/04/25 04:00",7.29,16.58,TRADE
SNOWY1,"2002/04/25 04:30",11.58,15.64,TRADE
SNOWY1,"2002/04/25 05:00",4.83833,15.45,TRADE
SNOWY1,"2002/04/25 05:30",10.75,15.17,TRADE
SNOWY1,"2002/04/25 06:00",12.44167,15.83,TRADE
SNOWY1,"2002/04/25 06:30",5.92667,15.45,TRADE
SNOWY1,"2002/04/25 07:00",9.45833,16.26,TRADE
SNOWY1,"2002/04/25 07:30",11.47667,16.18,TRADE
SNOWY1,"2002/04/25 08:00",14.6,17.38,TRADE
SNOWY1,"2002/04/25 08:30",5.48167,19.77,TRADE
SNOWY1,"2002/04/25 09:00",11.005,22.95,TRADE
SNOWY1,"2002/04/25 09:30",9.88167,25.08,TRADE
SNOWY1,"2002/04/25 10:00",10.34667,25.79,TRADE
SNOWY1,"2002/04/25 10:30",14.34667,26.58,TRADE
SNOWY1,"2002/04/25 11:00",21.28333,26.73,TRADE
SNOWY1,"2002/04/25 11:30",17.64667,26.28,TRADE
SNOWY1,"2002/04/25 12:00",19.22333,26.93,TRADE
SNOWY1,"2002/04/25 12:30",15.535,27.15,TRADE
SNOWY1,"2002/04/25 13:00",15.505,27.04,TRADE
SNOWY1,"2002/04/25 13:30",19.19333,26.94,TRADE
SNOWY1,"2002/04/25 14:00",16.23333,25.56,TRADE
SNOWY1,"2002/04/25 14:30",18.86167,24.73,TRADE
SNOWY1,"2002/04/25 15:00",16.08,24.75,TRADE
SNOWY1,"2002/04/25 15:30",15.84167,25.01,TRADE
SNOWY1,"2002/04/25 16:00",15.535,24.76,TRADE
SNOWY1,"2002/04/25 16:30",18.82167,25.17,TRADE
SNOWY1,"2002/04/25 17:00",14.34333,26.65,TRADE
SNOWY1,"2002/04/25 17:30",12.61333,32.29,TRADE
SNOWY1,"2002/04/25 18:00",32.66167,54.99,TRADE
SNOWY1,"2002/04/25 18:30",20.54,71.92,TRADE
SNOWY1,"2002/04/25 19:00",21.25,43,TRADE
SNOWY1,"2002/04/25 19:30",14.75,38.71,TRADE
SNOWY1,"2002/04/25 20:00",13.47,33.78,TRADE
SNOWY1,"2002/04/25 20:30",19.84667,33.04,TRADE
SNOWY1,"2002/04/25 21:00",18.28333,32.4,TRADE
SNOWY1,"2002/04/25 21:30",13.89833,26.02,TRADE
SNOWY1,"2002/04/25 22:00",12.785,24.77,TRADE
SNOWY1,"2002/04/25 22:30",17.81,25.29,TRADE
SNOWY1,"2002/04/25 23:00",17.59,24.96,TRADE
SNOWY1,"2002/04/25 23:30",22.04667,28.96,TRADE
SNOWY1,"2002/04/26 00:00",17.07833,27.1,TRADE
SNOWY1,"2002/04/26 00:30",15.925,24.77,TRADE
SNOWY1,"2002/04/26 01:00",18.15667,24.24,TRADE
SNOWY1,"2002/04/26 01:30",15.445,25.23,TRADE
SNOWY1,"2002/04/26 02:00",18.58,21.92,TRADE
SNOWY1,"2002/04/26 02:30",15.51333,18.94,TRADE
SNOWY1,"2002/04/26 03:00",20.32667,17.94,TRADE
SNOWY1,"2002/04/26 03:30",17.47,16.31,TRADE
SNOWY1,"2002/04/26 04:00",17.345,15,TRADE
SNOWY1,"2002/04/26 04:30",10.01,14.21,TRADE
SNOWY1,"2002/04/26 05:00",13.04333,14.5,TRADE
SNOWY1,"2002/04/26 05:30",10.38,15.34,TRADE
SNOWY1,"2002/04/26 06:00",16.01167,16.81,TRADE
SNOWY1,"2002/04/26 06:30",15.36667,21.78,TRADE
SNOWY1,"2002/04/26 07:00",16.96833,22.19,TRADE
SNOWY1,"2002/04/26 07:30",18.43833,18.71,TRADE
SNOWY1,"2002/04/26 08:00",15.29333,22.97,TRADE
SNOWY1,"2002/04/26 08:30",18.63167,24.95,TRADE
SNOWY1,"2002/04/26 09:00",20.19667,25.94,TRADE
SNOWY1,"2002/04/26 09:30",24.785,27.07,TRADE
SNOWY1,"2002/04/26 10:00",24.595,26.39,TRADE
SNOWY1,"2002/04/26 10:30",11.13167,26.03,TRADE
SNOWY1,"2002/04/26 11:00",20.28333,26.56,TRADE
SNOWY1,"2002/04/26 11:30",13.88833,27.5,TRADE
SNOWY1,"2002/04/26 12:00",20.12167,27.45,TRADE
SNOWY1,"2002/04/26 12:30",12.73667,26.96,TRADE
SNOWY1,"2002/04/26 13:00",8.30167,26.81,TRADE
SNOWY1,"2002/04/26 13:30",12.715,26.46,TRADE
SNOWY1,"2002/04/26 14:00",12.035,26.23,TRADE
SNOWY1,"2002/04/26 14:30",11.55333,25.87,TRADE
SNOWY1,"2002/04/26 15:00",16.74167,25.83,TRADE
SNOWY1,"2002/04/26 15:30",12.805,25.65,TRADE
SNOWY1,"2002/04/26 16:00",16.63167,25.58,TRADE
SNOWY1,"2002/04/26 16:30",12.465,25.53,TRADE
SNOWY1,"2002/04/26 17:00",16.38333,25.57,TRADE
SNOWY1,"2002/04/26 17:30",10.74833,26.37,TRADE
SNOWY1,"2002/04/26 18:00",12.94,36.78,TRADE
SNOWY1,"2002/04/26 18:30",30.25333,38.21,TRADE
SNOWY1,"2002/04/26 19:00",11.20333,32.39,TRADE
SNOWY1,"2002/04/26 19:30",11.93333,25.71,TRADE
SNOWY1,"2002/04/26 20:00",10.11667,24.18,TRADE
SNOWY1,"2002/04/26 20:30",14.40333,23.49,TRADE
SNOWY1,"2002/04/26 21:00",13.93833,19.93,TRADE
SNOWY1,"2002/04/26 21:30",15.545,18.17,TRADE
SNOWY1,"2002/04/26 22:00",11.37333,17.44,TRADE
SNOWY1,"2002/04/26 22:30",11.63833,37.22,TRADE
SNOWY1,"2002/04/26 23:00",13.80167,30.4,TRADE
SNOWY1,"2002/04/26 23:30",17.765,38.72,TRADE
SNOWY1,"2002/04/27 00:00",16.84333,34.12,TRADE
SNOWY1,"2002/04/27 00:30",15.17833,26.95,TRADE
SNOWY1,"2002/04/27 01:00",15.32,25.6,TRADE
SNOWY1,"2002/04/27 01:30",12.00833,25.98,TRADE
SNOWY1,"2002/04/27 02:00",16.67167,23.79,TRADE
SNOWY1,"2002/04/27 02:30",15.46167,20.24,TRADE
SNOWY1,"2002/04/27 03:00",16.57,17.08,TRADE
SNOWY1,"2002/04/27 03:30",14.9,14.51,TRADE
SNOWY1,"2002/04/27 04:00",13.27667,13.07,TRADE
SNOWY1,"2002/04/27 04:30",13.705,11.85,TRADE
SNOWY1,"2002/04/27 05:00",13.37333,11.35,TRADE
SNOWY1,"2002/04/27 05:30",15.65333,12.58,TRADE
SNOWY1,"2002/04/27 06:00",11.40333,13.15,TRADE
SNOWY1,"2002/04/27 06:30",19.53167,14.79,TRADE
SNOWY1,"2002/04/27 07:00",13.58167,16.18,TRADE
SNOWY1,"2002/04/27 07:30",16.06667,17.79,TRADE
SNOWY1,"2002/04/27 08:00",15.11167,19.64,TRADE
SNOWY1,"2002/04/27 08:30",13.07333,25.83,TRADE
SNOWY1,"2002/04/27 09:00",16.36667,32.18,TRADE
SNOWY1,"2002/04/27 09:30",10.44833,38.03,TRADE
SNOWY1,"2002/04/27 10:00",17.61167,36.17,TRADE
SNOWY1,"2002/04/27 10:30",22.85667,36.33,TRADE
SNOWY1,"2002/04/27 11:00",10.52167,31.78,TRADE
SNOWY1,"2002/04/27 11:30",20.81333,30.34,TRADE
SNOWY1,"2002/04/27 12:00",14.85833,31.47,TRADE
SNOWY1,"2002/04/27 12:30",19.18667,30.7,TRADE
SNOWY1,"2002/04/27 13:00",20.49667,27.91,TRADE
SNOWY1,"2002/04/27 13:30",18.25667,27.08,TRADE
SNOWY1,"2002/04/27 14:00",22.025,26.31,TRADE
SNOWY1,"2002/04/27 14:30",21.09333,24.66,TRADE
SNOWY1,"2002/04/27 15:00",18.515,23.27,TRADE
SNOWY1,"2002/04/27 15:30",10.86333,22.33,TRADE
SNOWY1,"2002/04/27 16:00",12.995,22.56,TRADE
SNOWY1,"2002/04/27 16:30",14.38833,25.03,TRADE
SNOWY1,"2002/04/27 17:00",19.62833,25.89,TRADE
SNOWY1,"2002/04/27 17:30",15.295,35.06,TRADE
SNOWY1,"2002/04/27 18:00",34.92333,75.65,TRADE
SNOWY1,"2002/04/27 18:30",23.34333,98.83,TRADE
SNOWY1,"2002/04/27 19:00",17.82167,82.25,TRADE
SNOWY1,"2002/04/27 19:30",11.34333,58.54,TRADE
SNOWY1,"2002/04/27 20:00",12.32833,43.24,TRADE
SNOWY1,"2002/04/27 20:30",17.03667,35.34,TRADE
SNOWY1,"2002/04/27 21:00",10.12833,32.02,TRADE
SNOWY1,"2002/04/27 21:30",19.63333,27.57,TRADE
SNOWY1,"2002/04/27 22:00",15.94,26.89,TRADE
SNOWY1,"2002/04/27 22:30",17.91,30.63,TRADE
SNOWY1,"2002/04/27 23:00",16.61667,30.47,TRADE
SNOWY1,"2002/04/27 23:30",22.275,41.29,TRADE
SNOWY1,"2002/04/28 00:00",10.87333,33.01,TRADE
SNOWY1,"2002/04/28 00:30",12.595,27.56,TRADE
SNOWY1,"2002/04/28 01:00",4.265,25.61,TRADE
SNOWY1,"2002/04/28 01:30",2.81,25,TRADE
SNOWY1,"2002/04/28 02:00",9.25833,22.67,TRADE
SNOWY1,"2002/04/28 02:30",12.22,19.12,TRADE
SNOWY1,"2002/04/28 03:00",17.64,15.79,TRADE
SNOWY1,"2002/04/28 03:30",24.15833,14.62,TRADE
SNOWY1,"2002/04/28 04:00",22.03333,14.14,TRADE
SNOWY1,"2002/04/28 04:30",24.63167,14.72,TRADE
SNOWY1,"2002/04/28 05:00",16.27167,13.92,TRADE
SNOWY1,"2002/04/28 05:30",17.44667,14.66,TRADE
SNOWY1,"2002/04/28 06:00",12.865,14.97,TRADE
SNOWY1,"2002/04/28 06:30",17.785,14.22,TRADE
SNOWY1,"2002/04/28 07:00",17.31667,15.69,TRADE
SNOWY1,"2002/04/28 07:30",12.165,15.21,TRADE
SNOWY1,"2002/04/28 08:00",13.32333,17.52,TRADE
SNOWY1,"2002/04/28 08:30",10.78167,21.98,TRADE
SNOWY1,"2002/04/28 09:00",11.11833,26.04,TRADE
SNOWY1,"2002/04/28 09:30",12.97167,31.6,TRADE
SNOWY1,"2002/04/28 10:00",12.28667,31.87,TRADE
SNOWY1,"2002/04/28 10:30",9.79833,31.22,TRADE
SNOWY1,"2002/04/28 11:00",9.92167,27.19,TRADE
SNOWY1,"2002/04/28 11:30",9.88167,27.77,TRADE
SNOWY1,"2002/04/28 12:00",16.52333,26.43,TRADE
SNOWY1,"2002/04/28 12:30",9.32333,27.46,TRADE
SNOWY1,"2002/04/28 13:00",10.03667,26.87,TRADE
SNOWY1,"2002/04/28 13:30",15.975,25.16,TRADE
SNOWY1,"2002/04/28 14:00",10.59,24.29,TRADE
SNOWY1,"2002/04/28 14:30",14.59333,22.69,TRADE
SNOWY1,"2002/04/28 15:00",6.37167,22.14,TRADE
SNOWY1,"2002/04/28 15:30",11.35833,21.38,TRADE
SNOWY1,"2002/04/28 16:00",11.12333,22.15,TRADE
SNOWY1,"2002/04/28 16:30",17.17,23.37,TRADE
SNOWY1,"2002/04/28 17:00",12.34667,26.5,TRADE
SNOWY1,"2002/04/28 17:30",15.83,31.48,TRADE
SNOWY1,"2002/04/28 18:00",24.76,60.51,TRADE
SNOWY1,"2002/04/28 18:30",33.53333,74.78,TRADE
SNOWY1,"2002/04/28 19:00",7.11833,72.48,TRADE
SNOWY1,"2002/04/28 19:30",0.22167,44.06,TRADE
SNOWY1,"2002/04/28 20:00",5.41167,38.22,TRADE
SNOWY1,"2002/04/28 20:30",16.51667,35.68,TRADE
SNOWY1,"2002/04/28 21:00",7.87333,33.41,TRADE
SNOWY1,"2002/04/28 21:30",9.645,30.42,TRADE
SNOWY1,"2002/04/28 22:00",5.14333,26.12,TRADE
SNOWY1,"2002/04/28 22:30",13.26167,26.76,TRADE
SNOWY1,"2002/04/28 23:00",5.375,25.86,TRADE
SNOWY1,"2002/04/28 23:30",5.16333,28.07,TRADE
SNOWY1,"2002/04/29 00:00",15.40833,25.77,TRADE
SNOWY1,"2002/04/29 00:30",4.72167,22.25,TRADE
SNOWY1,"2002/04/29 01:00",9.10833,20.78,TRADE
SNOWY1,"2002/04/29 01:30",10.59167,21.06,TRADE
SNOWY1,"2002/04/29 02:00",10.72833,19.31,TRADE
SNOWY1,"2002/04/29 02:30",8.735,17.19,TRADE
SNOWY1,"2002/04/29 03:00",4.40167,15.73,TRADE
SNOWY1,"2002/04/29 03:30",6.01,14.09,TRADE
SNOWY1,"2002/04/29 04:00",11.11167,12.03,TRADE
SNOWY1,"2002/04/29 04:30",1.56667,12.11,TRADE
SNOWY1,"2002/04/29 05:00",2.83,12.59,TRADE
SNOWY1,"2002/04/29 05:30",2.72333,16.07,TRADE
SNOWY1,"2002/04/29 06:00",6.185,17.08,TRADE
SNOWY1,"2002/04/29 06:30",3.23167,23.38,TRADE
SNOWY1,"2002/04/29 07:00",7.55833,29.01,TRADE
SNOWY1,"2002/04/29 07:30",15.23167,27.31,TRADE
SNOWY1,"2002/04/29 08:00",13.54667,33.02,TRADE
SNOWY1,"2002/04/29 08:30",14.96833,33.71,TRADE
SNOWY1,"2002/04/29 09:00",12.74833,30.84,TRADE
SNOWY1,"2002/04/29 09:30",15.84167,31.45,TRADE
SNOWY1,"2002/04/29 10:00",7.35,31.06,TRADE
SNOWY1,"2002/04/29 10:30",8.66,29.05,TRADE
SNOWY1,"2002/04/29 11:00",6.97833,27.11,TRADE
SNOWY1,"2002/04/29 11:30",9.21667,26.46,TRADE
SNOWY1,"2002/04/29 12:00",5.98167,26.31,TRADE
SNOWY1,"2002/04/29 12:30",7.46,25.22,TRADE
SNOWY1,"2002/04/29 13:00",8.62167,25.06,TRADE
SNOWY1,"2002/04/29 13:30",9.64,26.13,TRADE
SNOWY1,"2002/04/29 14:00",15.72667,25.46,TRADE
SNOWY1,"2002/04/29 14:30",9.15833,25.24,TRADE
SNOWY1,"2002/04/29 15:00",6.42667,25.26,TRADE
SNOWY1,"2002/04/29 15:30",19.80167,25.44,TRADE
SNOWY1,"2002/04/29 16:00",9.01,25.71,TRADE
SNOWY1,"2002/04/29 16:30",7.245,25.72,TRADE
SNOWY1,"2002/04/29 17:00",10.7,27.1,TRADE
SNOWY1,"2002/04/29 17:30",11.11833,32.98,TRADE
SNOWY1,"2002/04/29 18:00",19.70167,54.39,TRADE
SNOWY1,"2002/04/29 18:30",21.165,50.14,TRADE
SNOWY1,"2002/04/29 19:00",8.11667,35.11,TRADE
SNOWY1,"2002/04/29 19:30",6.275,30.67,TRADE
SNOWY1,"2002/04/29 20:00",11.47333,26.08,TRADE
SNOWY1,"2002/04/29 20:30",12.17167,25.46,TRADE
SNOWY1,"2002/04/29 21:00",12.01667,24.93,TRADE
SNOWY1,"2002/04/29 21:30",9.08667,23.37,TRADE
SNOWY1,"2002/04/29 22:00",12.325,20.12,TRADE
SNOWY1,"2002/04/29 22:30",13.85833,30.62,TRADE
SNOWY1,"2002/04/29 23:00",9.79833,30.45,TRADE
SNOWY1,"2002/04/29 23:30",14.93667,37.91,TRADE
SNOWY1,"2002/04/30 00:00",17.505,34.49,TRADE
SNOWY1,"2002/04/30 00:30",9.79,30.73,TRADE
SNOWY1,"2002/04/30 01:00",15.58667,25.97,TRADE
SNOWY1,"2002/04/30 01:30",25.44667,29.36,TRADE
SNOWY1,"2002/04/30 02:00",13.765,26.47,TRADE
SNOWY1,"2002/04/30 02:30",1.83667,21.21,TRADE
SNOWY1,"2002/04/30 03:00",2.50333,17.68,TRADE
SNOWY1,"2002/04/30 03:30",4.39833,15.59,TRADE
SNOWY1,"2002/04/30 04:00",4.77667,14.29,TRADE
SNOWY1,"2002/04/30 04:30",7.02,13.58,TRADE
SNOWY1,"2002/04/30 05:00",5.51833,13.66,TRADE
SNOWY1,"2002/04/30 05:30",4.83167,14.38,TRADE
SNOWY1,"2002/04/30 06:00",2.32667,17.32,TRADE
SNOWY1,"2002/04/30 06:30",7.59667,25.1,TRADE
SNOWY1,"2002/04/30 07:00",12.86167,29.49,TRADE
SNOWY1,"2002/04/30 07:30",14.80833,26.78,TRADE
SNOWY1,"2002/04/30 08:00",12.88833,27.16,TRADE
SNOWY1,"2002/04/30 08:30",17.65333,29.38,TRADE
SNOWY1,"2002/04/30 09:00",14.85833,26.8,TRADE
SNOWY1,"2002/04/30 09:30",14.58167,26.34,TRADE
SNOWY1,"2002/04/30 10:00",15.78833,28.34,TRADE
SNOWY1,"2002/04/30 10:30",10.74667,30.42,TRADE
SNOWY1,"2002/04/30 11:00",12.73333,26.4,TRADE
SNOWY1,"2002/04/30 11:30",14.79,26.22,TRADE
SNOWY1,"2002/04/30 12:00",12.70167,26.12,TRADE
SNOWY1,"2002/04/30 12:30",13.93167,27.8,TRADE
SNOWY1,"2002/04/30 13:00",12.54167,26.11,TRADE
SNOWY1,"2002/04/30 13:30",12.10333,26.19,TRADE
SNOWY1,"2002/04/30 14:00",11.14167,26.11,TRADE
SNOWY1,"2002/04/30 14:30",9.345,26.6,TRADE
SNOWY1,"2002/04/30 15:00",10.38833,26.12,TRADE
SNOWY1,"2002/04/30 15:30",8.73833,25.78,TRADE
SNOWY1,"2002/04/30 16:00",11.51,25.78,TRADE
SNOWY1,"2002/04/30 16:30",10.49333,25.76,TRADE
SNOWY1,"2002/04/30 17:00",10.91,25.77,TRADE
SNOWY1,"2002/04/30 17:30",9.89,30.04,TRADE
SNOWY1,"2002/04/30 18:00",21.795,43.01,TRADE
SNOWY1,"2002/04/30 18:30",10.83833,43.12,TRADE
SNOWY1,"2002/04/30 19:00",30.97,35.18,TRADE
SNOWY1,"2002/04/30 19:30",13.77333,31.07,TRADE
SNOWY1,"2002/04/30 20:00",9.00833,26.88,TRADE
SNOWY1,"2002/04/30 20:30",10.04167,26.08,TRADE
SNOWY1,"2002/04/30 21:00",14.16167,25.51,TRADE
SNOWY1,"2002/04/30 21:30",9.20333,25.4,TRADE
SNOWY1,"2002/04/30 22:00",8.745,21.34,TRADE
SNOWY1,"2002/04/30 22:30",13.985,35.9,TRADE
SNOWY1,"2002/04/30 23:00",4.54333,37.06,TRADE
SNOWY1,"2002/04/30 23:30",36.62667,41.22,TRADE
SNOWY1,"2002/05/01 00:00",10.73,35.91,TRADE
