REGION,SETTLEMENTDATE,TOTALDEMAND,RRP,PERIODTYPE
VIC1,"2010/11/01 00:30:00",4745.43,11.59,TRADE
VIC1,"2010/11/01 01:00:00",4635.73,11.03,TRADE
VIC1,"2010/11/01 01:30:00",4991.7,14.72,TRADE
VIC1,"2010/11/01 02:00:00",4870.42,12.61,TRADE
VIC1,"2010/11/01 02:30:00",4746.54,11.5,TRADE
VIC1,"2010/11/01 03:00:00",4615.16,12.69,TRADE
VIC1,"2010/11/01 03:30:00",4562.66,11.56,TRADE
VIC1,"2010/11/01 04:00:00",4511.44,10.99,TRADE
VIC1,"2010/11/01 04:30:00",4579.88,10.99,TRADE
VIC1,"2010/11/01 05:00:00",4711.85,11.12,TRADE
VIC1,"2010/11/01 05:30:00",4967.21,11.69,TRADE
VIC1,"2010/11/01 06:00:00",5212.92,12.9,TRADE
VIC1,"2010/11/01 06:30:00",5633.78,21.55,TRADE
VIC1,"2010/11/01 07:00:00",5936.47,23.52,TRADE
VIC1,"2010/11/01 07:30:00",5953.91,20.14,TRADE
VIC1,"2010/11/01 08:00:00",6010.27,18.97,TRADE
VIC1,"2010/11/01 08:30:00",6078.23,19.81,TRADE
VIC1,"2010/11/01 09:00:00",6089.47,19.85,TRADE
VIC1,"2010/11/01 09:30:00",6069.39,19.24,TRADE
VIC1,"2010/11/01 10:00:00",6034.3,18.46,TRADE
VIC1,"2010/11/01 10:30:00",5975.43,17.88,TRADE
VIC1,"2010/11/01 11:00:00",5916.06,17.88,TRADE
VIC1,"2010/11/01 11:30:00",5916.06,17.88,TRADE
VIC1,"2010/11/01 12:00:00",5860.37,16.43,TRADE
VIC1,"2010/11/01 12:30:00",5826.44,13.14,TRADE
VIC1,"2010/11/01 13:00:00",5714.9,9.27,TRADE
VIC1,"2010/11/01 13:30:00",5692.36,14.15,TRADE
VIC1,"2010/11/01 14:00:00",5726.11,17.47,TRADE
VIC1,"2010/11/01 14:30:00",5683.71,17.88,TRADE
VIC1,"2010/11/01 15:00:00",5687.08,17.66,TRADE
VIC1,"2010/11/01 15:30:00",5716.31,17.49,TRADE
VIC1,"2010/11/01 16:00:00",5721.94,17.99,TRADE
VIC1,"2010/11/01 16:30:00",5763.38,18.06,TRADE
VIC1,"2010/11/01 17:00:00",5748.52,18.12,TRADE
VIC1,"2010/11/01 17:30:00",5697.51,17.93,TRADE
VIC1,"2010/11/01 18:00:00",5646.75,17.88,TRADE
VIC1,"2010/11/01 18:30:00",5637.41,17.88,TRADE
VIC1,"2010/11/01 19:00:00",5728.45,18.57,TRADE
VIC1,"2010/11/01 19:30:00",5806.07,18.17,TRADE
VIC1,"2010/11/01 20:00:00",5847.18,17.91,TRADE
VIC1,"2010/11/01 20:30:00",5734.19,17.88,TRADE
VIC1,"2010/11/01 21:00:00",5605.84,16.94,TRADE
VIC1,"2010/11/01 21:30:00",5378.06,11.4,TRADE
VIC1,"2010/11/01 22:00:00",5158.72,11.16,TRADE
VIC1,"2010/11/01 22:30:00",5009.7,15.19,TRADE
VIC1,"2010/11/01 23:00:00",4891.92,11.47,TRADE
VIC1,"2010/11/01 23:30:00",5104.88,13.19,TRADE
VIC1,"2010/11/02 00:00:00",4947.82,11.06,TRADE
VIC1,"2010/11/02 00:30:00",4753.03,11.4,TRADE
VIC1,"2010/11/02 01:00:00",4613.3,11.14,TRADE
VIC1,"2010/11/02 01:30:00",4914.82,13.26,TRADE
VIC1,"2010/11/02 02:00:00",4766.76,11.32,TRADE
VIC1,"2010/11/02 02:30:00",4599.63,11.17,TRADE
VIC1,"2010/11/02 03:00:00",4462.06,11.73,TRADE
VIC1,"2010/11/02 03:30:00",4386.49,11.35,TRADE
VIC1,"2010/11/02 04:00:00",4305.42,12.19,TRADE
VIC1,"2010/11/02 04:30:00",4317.02,11.17,TRADE
VIC1,"2010/11/02 05:00:00",4328.97,11.26,TRADE
VIC1,"2010/11/02 05:30:00",4453.72,11.45,TRADE
VIC1,"2010/11/02 06:00:00",4589.29,13.19,TRADE
VIC1,"2010/11/02 06:30:00",4859.48,13.87,TRADE
VIC1,"2010/11/02 07:00:00",5124.16,14.99,TRADE
VIC1,"2010/11/02 07:30:00",5201.36,15.31,TRADE
VIC1,"2010/11/02 08:00:00",5217.55,15.67,TRADE
VIC1,"2010/11/02 08:30:00",5336.18,18.62,TRADE
VIC1,"2010/11/02 09:00:00",5397.82,18.58,TRADE
VIC1,"2010/11/02 09:30:00",5462.54,17.34,TRADE
VIC1,"2010/11/02 10:00:00",5467.59,17.47,TRADE
VIC1,"2010/11/02 10:30:00",5422.24,18.76,TRADE
VIC1,"2010/11/02 11:00:00",5409.23,18.56,TRADE
VIC1,"2010/11/02 11:30:00",5355.83,18.55,TRADE
VIC1,"2010/11/02 12:00:00",5323.66,18.56,TRADE
VIC1,"2010/11/02 12:30:00",5258.1,18.57,TRADE
VIC1,"2010/11/02 13:00:00",5196.89,18.52,TRADE
VIC1,"2010/11/02 13:30:00",5181.52,18.53,TRADE
VIC1,"2010/11/02 14:00:00",5176.99,18.5,TRADE
VIC1,"2010/11/02 14:30:00",5110.57,18.41,TRADE
VIC1,"2010/11/02 15:00:00",5184.15,18.55,TRADE
VIC1,"2010/11/02 15:30:00",5213.14,18.56,TRADE
VIC1,"2010/11/02 16:00:00",5251.27,18.61,TRADE
VIC1,"2010/11/02 16:30:00",5324.36,18.65,TRADE
VIC1,"2010/11/02 17:00:00",5342.7,18.65,TRADE
VIC1,"2010/11/02 17:30:00",5381.52,18.49,TRADE
VIC1,"2010/11/02 18:00:00",5362.27,18.62,TRADE
VIC1,"2010/11/02 18:30:00",5351.35,18.41,TRADE
VIC1,"2010/11/02 19:00:00",5432.75,18.48,TRADE
VIC1,"2010/11/02 19:30:00",5535.81,18.47,TRADE
VIC1,"2010/11/02 20:00:00",5526.52,18.55,TRADE
VIC1,"2010/11/02 20:30:00",5403.11,18.38,TRADE
VIC1,"2010/11/02 21:00:00",5264.95,18.06,TRADE
VIC1,"2010/11/02 21:30:00",5082.77,17.9,TRADE
VIC1,"2010/11/02 22:00:00",4875.2,17.28,TRADE
VIC1,"2010/11/02 22:30:00",4756.29,18.02,TRADE
VIC1,"2010/11/02 23:00:00",4686.69,15.85,TRADE
VIC1,"2010/11/02 23:30:00",4988.41,20.46,TRADE
VIC1,"2010/11/03 00:00:00",4892.16,14.81,TRADE
VIC1,"2010/11/03 00:30:00",4722.36,11.55,TRADE
VIC1,"2010/11/03 01:00:00",4649.19,17.74,TRADE
VIC1,"2010/11/03 01:30:00",5003.9,18.72,TRADE
VIC1,"2010/11/03 02:00:00",4874.14,18.49,TRADE
VIC1,"2010/11/03 02:30:00",4745.53,18.06,TRADE
VIC1,"2010/11/03 03:00:00",4616.71,17.76,TRADE
VIC1,"2010/11/03 03:30:00",4525.7,17.92,TRADE
VIC1,"2010/11/03 04:00:00",4523.08,18.04,TRADE
VIC1,"2010/11/03 04:30:00",4600.13,18.47,TRADE
VIC1,"2010/11/03 05:00:00",4773.64,18.73,TRADE
VIC1,"2010/11/03 05:30:00",5188.85,18.83,TRADE
VIC1,"2010/11/03 06:00:00",5600.21,22.87,TRADE
VIC1,"2010/11/03 06:30:00",6150.15,24.34,TRADE
VIC1,"2010/11/03 07:00:00",6481.11,28.95,TRADE
VIC1,"2010/11/03 07:30:00",6399.07,19.17,TRADE
VIC1,"2010/11/03 08:00:00",6431.97,19.66,TRADE
VIC1,"2010/11/03 08:30:00",6514.33,19.06,TRADE
VIC1,"2010/11/03 09:00:00",6465.87,18.7,TRADE
VIC1,"2010/11/03 09:30:00",6477.94,18.45,TRADE
VIC1,"2010/11/03 10:00:00",6487.96,18.4,TRADE
VIC1,"2010/11/03 10:30:00",6457.7,18.4,TRADE
VIC1,"2010/11/03 11:00:00",6441.26,18.36,TRADE
VIC1,"2010/11/03 11:30:00",6453.68,18.26,TRADE
VIC1,"2010/11/03 12:00:00",6392.45,18.23,TRADE
VIC1,"2010/11/03 12:30:00",6414.01,18.48,TRADE
VIC1,"2010/11/03 13:00:00",6360.33,18.56,TRADE
VIC1,"2010/11/03 13:30:00",6330.88,18.61,TRADE
VIC1,"2010/11/03 14:00:00",6317.87,18.63,TRADE
VIC1,"2010/11/03 14:30:00",6219.07,18.46,TRADE
VIC1,"2010/11/03 15:00:00",6179.71,18.49,TRADE
VIC1,"2010/11/03 15:30:00",6194.95,18.48,TRADE
VIC1,"2010/11/03 16:00:00",6199.61,18.61,TRADE
VIC1,"2010/11/03 16:30:00",6304.15,18.58,TRADE
VIC1,"2010/11/03 17:00:00",6323.89,18.6,TRADE
VIC1,"2010/11/03 17:30:00",6318.93,18.27,TRADE
VIC1,"2010/11/03 18:00:00",6271.09,18.38,TRADE
VIC1,"2010/11/03 18:30:00",6206.9,18.19,TRADE
VIC1,"2010/11/03 19:00:00",6251.4,18.56,TRADE
VIC1,"2010/11/03 19:30:00",6357.81,20.83,TRADE
VIC1,"2010/11/03 20:00:00",6337.45,20.21,TRADE
VIC1,"2010/11/03 20:30:00",6147.27,18.62,TRADE
VIC1,"2010/11/03 21:00:00",5932.74,17.96,TRADE
VIC1,"2010/11/03 21:30:00",5650.4,17.88,TRADE
VIC1,"2010/11/03 22:00:00",5360.49,17.88,TRADE
VIC1,"2010/11/03 22:30:00",5194.92,19.27,TRADE
VIC1,"2010/11/03 23:00:00",5035.15,19.41,TRADE
VIC1,"2010/11/03 23:30:00",5232.54,20.64,TRADE
VIC1,"2010/11/04 00:00:00",5127.54,23.36,TRADE
VIC1,"2010/11/04 00:30:00",4997.15,21.75,TRADE
VIC1,"2010/11/04 01:00:00",4908.26,19.09,TRADE
VIC1,"2010/11/04 01:30:00",5243.73,24.36,TRADE
VIC1,"2010/11/04 02:00:00",5101.35,20.19,TRADE
VIC1,"2010/11/04 02:30:00",4923.34,19.44,TRADE
VIC1,"2010/11/04 03:00:00",4758.03,17.97,TRADE
VIC1,"2010/11/04 03:30:00",4730.89,17.94,TRADE
VIC1,"2010/11/04 04:00:00",4704.37,16.85,TRADE
VIC1,"2010/11/04 04:30:00",4813.54,18.05,TRADE
VIC1,"2010/11/04 05:00:00",4972.85,19.22,TRADE
VIC1,"2010/11/04 05:30:00",5344.93,18.71,TRADE
VIC1,"2010/11/04 06:00:00",5739.79,15.22,TRADE
VIC1,"2010/11/04 06:30:00",6332.54,22.89,TRADE
VIC1,"2010/11/04 07:00:00",6705.76,25.16,TRADE
VIC1,"2010/11/04 07:30:00",6603.26,18.1,TRADE
VIC1,"2010/11/04 08:00:00",6546.73,17.88,TRADE
VIC1,"2010/11/04 08:30:00",6564.49,17.88,TRADE
VIC1,"2010/11/04 09:00:00",6501.25,17.88,TRADE
VIC1,"2010/11/04 09:30:00",6441.11,17.72,TRADE
VIC1,"2010/11/04 10:00:00",6422.51,17.88,TRADE
VIC1,"2010/11/04 10:30:00",6424.68,17.88,TRADE
VIC1,"2010/11/04 11:00:00",6399.46,17.88,TRADE
VIC1,"2010/11/04 11:30:00",6394.93,17.88,TRADE
VIC1,"2010/11/04 12:00:00",6348.06,17.88,TRADE
VIC1,"2010/11/04 12:30:00",6321.97,17.88,TRADE
VIC1,"2010/11/04 13:00:00",6301.06,17.88,TRADE
VIC1,"2010/11/04 13:30:00",6303.89,17.88,TRADE
VIC1,"2010/11/04 14:00:00",6242.41,17.88,TRADE
VIC1,"2010/11/04 14:30:00",6157.61,17.88,TRADE
VIC1,"2010/11/04 15:00:00",6109.7,17.88,TRADE
VIC1,"2010/11/04 15:30:00",6116.92,14.24,TRADE
VIC1,"2010/11/04 16:00:00",6107.02,11.82,TRADE
VIC1,"2010/11/04 16:30:00",6112.45,16.96,TRADE
VIC1,"2010/11/04 17:00:00",6132.1,18.57,TRADE
VIC1,"2010/11/04 17:30:00",6062.83,18.26,TRADE
VIC1,"2010/11/04 18:00:00",5990.5,18.27,TRADE
VIC1,"2010/11/04 18:30:00",5905.44,18.12,TRADE
VIC1,"2010/11/04 19:00:00",5924.32,18.51,TRADE
VIC1,"2010/11/04 19:30:00",6064.1,18.61,TRADE
VIC1,"2010/11/04 20:00:00",6087.68,19.41,TRADE
VIC1,"2010/11/04 20:30:00",5905.34,18.47,TRADE
VIC1,"2010/11/04 21:00:00",5691.55,17.95,TRADE
VIC1,"2010/11/04 21:30:00",5441.47,18.34,TRADE
VIC1,"2010/11/04 22:00:00",5177.67,16.52,TRADE
VIC1,"2010/11/04 22:30:00",4961.66,18.99,TRADE
VIC1,"2010/11/04 23:00:00",4813.02,18.28,TRADE
VIC1,"2010/11/04 23:30:00",5041.88,18.35,TRADE
VIC1,"2010/11/05 00:00:00",4936.45,19.03,TRADE
VIC1,"2010/11/05 00:30:00",4777.16,17.9,TRADE
VIC1,"2010/11/05 01:00:00",4688.58,19.62,TRADE
VIC1,"2010/11/05 01:30:00",5018.98,21.35,TRADE
VIC1,"2010/11/05 02:00:00",4892.78,20.53,TRADE
VIC1,"2010/11/05 02:30:00",4732.78,20.14,TRADE
VIC1,"2010/11/05 03:00:00",4612.1,17.85,TRADE
VIC1,"2010/11/05 03:30:00",4567.33,17.5,TRADE
VIC1,"2010/11/05 04:00:00",4592.32,18.42,TRADE
VIC1,"2010/11/05 04:30:00",4713.92,20.63,TRADE
VIC1,"2010/11/05 05:00:00",4915.21,17.75,TRADE
VIC1,"2010/11/05 05:30:00",5266.04,21,TRADE
VIC1,"2010/11/05 06:00:00",5676.13,21.72,TRADE
VIC1,"2010/11/05 06:30:00",6201.55,23.74,TRADE
VIC1,"2010/11/05 07:00:00",6528.81,24.72,TRADE
VIC1,"2010/11/05 07:30:00",6407.2,20.05,TRADE
VIC1,"2010/11/05 08:00:00",6346.96,18.81,TRADE
VIC1,"2010/11/05 08:30:00",6350.72,18.8,TRADE
VIC1,"2010/11/05 09:00:00",6279.37,18.75,TRADE
VIC1,"2010/11/05 09:30:00",6246.47,18.75,TRADE
VIC1,"2010/11/05 10:00:00",6221.6,18.73,TRADE
VIC1,"2010/11/05 10:30:00",6215.37,18.74,TRADE
VIC1,"2010/11/05 11:00:00",6250.26,22.74,TRADE
VIC1,"2010/11/05 11:30:00",6228.68,23.35,TRADE
VIC1,"2010/11/05 12:00:00",6177.06,23.04,TRADE
VIC1,"2010/11/05 12:30:00",6138.93,23.33,TRADE
VIC1,"2010/11/05 13:00:00",6112.96,24.01,TRADE
VIC1,"2010/11/05 13:30:00",6095.55,24.28,TRADE
VIC1,"2010/11/05 14:00:00",6035.18,23.21,TRADE
VIC1,"2010/11/05 14:30:00",5992.41,21.95,TRADE
VIC1,"2010/11/05 15:00:00",6017.99,21.03,TRADE
VIC1,"2010/11/05 15:30:00",5990.71,19.85,TRADE
VIC1,"2010/11/05 16:00:00",5963.61,19.95,TRADE
VIC1,"2010/11/05 16:30:00",5930.22,20,TRADE
VIC1,"2010/11/05 17:00:00",5892.85,19.13,TRADE
VIC1,"2010/11/05 17:30:00",5773.68,17.95,TRADE
VIC1,"2010/11/05 18:00:00",5668.6,18.07,TRADE
VIC1,"2010/11/05 18:30:00",5545.13,18.57,TRADE
VIC1,"2010/11/05 19:00:00",5517.46,19.4,TRADE
VIC1,"2010/11/05 19:30:00",5610.64,19.52,TRADE
VIC1,"2010/11/05 20:00:00",5676.14,19.88,TRADE
VIC1,"2010/11/05 20:30:00",5536.1,18.27,TRADE
VIC1,"2010/11/05 21:00:00",5393.79,17.88,TRADE
VIC1,"2010/11/05 21:30:00",5247.81,17.88,TRADE
VIC1,"2010/11/05 22:00:00",5079.07,17.88,TRADE
VIC1,"2010/11/05 22:30:00",4924.79,19.34,TRADE
VIC1,"2010/11/05 23:00:00",4824.94,18.11,TRADE
VIC1,"2010/11/05 23:30:00",5049.15,18.75,TRADE
VIC1,"2010/11/06 00:00:00",4958.58,18.58,TRADE
VIC1,"2010/11/06 00:30:00",4782.21,17.89,TRADE
VIC1,"2010/11/06 01:00:00",4651.94,17.88,TRADE
VIC1,"2010/11/06 01:30:00",4927.65,17.88,TRADE
VIC1,"2010/11/06 02:00:00",4737.27,16.88,TRADE
VIC1,"2010/11/06 02:30:00",4563.63,17.48,TRADE
VIC1,"2010/11/06 03:00:00",4425.02,16.07,TRADE
VIC1,"2010/11/06 03:30:00",4308.71,16.11,TRADE
VIC1,"2010/11/06 04:00:00",4232.37,14.65,TRADE
VIC1,"2010/11/06 04:30:00",4255.63,16.24,TRADE
VIC1,"2010/11/06 05:00:00",4301.77,16.24,TRADE
VIC1,"2010/11/06 05:30:00",4394.43,12.98,TRADE
VIC1,"2010/11/06 06:00:00",4540.9,15.49,TRADE
VIC1,"2010/11/06 06:30:00",4793.71,17.81,TRADE
VIC1,"2010/11/06 07:00:00",4993.99,18.53,TRADE
VIC1,"2010/11/06 07:30:00",5062.1,18.24,TRADE
VIC1,"2010/11/06 08:00:00",5150.43,18.4,TRADE
VIC1,"2010/11/06 08:30:00",5235.73,18.45,TRADE
VIC1,"2010/11/06 09:00:00",5297.62,18.48,TRADE
VIC1,"2010/11/06 09:30:00",5264.14,18.48,TRADE
VIC1,"2010/11/06 10:00:00",5278.55,18.49,TRADE
VIC1,"2010/11/06 10:30:00",5254.9,18.49,TRADE
VIC1,"2010/11/06 11:00:00",5281.97,18.51,TRADE
VIC1,"2010/11/06 11:30:00",5272.88,18.51,TRADE
VIC1,"2010/11/06 12:00:00",5244.52,18.5,TRADE
VIC1,"2010/11/06 12:30:00",5211.45,18.49,TRADE
VIC1,"2010/11/06 13:00:00",5201.27,18.45,TRADE
VIC1,"2010/11/06 13:30:00",5139.7,18.28,TRADE
VIC1,"2010/11/06 14:00:00",5116.72,20.43,TRADE
VIC1,"2010/11/06 14:30:00",5115.89,20.25,TRADE
VIC1,"2010/11/06 15:00:00",5104.08,20.43,TRADE
VIC1,"2010/11/06 15:30:00",5096.26,20.31,TRADE
VIC1,"2010/11/06 16:00:00",5142.91,20.3,TRADE
VIC1,"2010/11/06 16:30:00",5158.82,20.9,TRADE
VIC1,"2010/11/06 17:00:00",5164.87,21.1,TRADE
VIC1,"2010/11/06 17:30:00",5166.45,20.91,TRADE
VIC1,"2010/11/06 18:00:00",5127.52,20.85,TRADE
VIC1,"2010/11/06 18:30:00",5074.29,20.47,TRADE
VIC1,"2010/11/06 19:00:00",5078.12,21.09,TRADE
VIC1,"2010/11/06 19:30:00",5146.41,21.26,TRADE
VIC1,"2010/11/06 20:00:00",5190.27,21.36,TRADE
VIC1,"2010/11/06 20:30:00",5089.55,20.84,TRADE
VIC1,"2010/11/06 21:00:00",4971.4,19.14,TRADE
VIC1,"2010/11/06 21:30:00",4844.34,18.9,TRADE
VIC1,"2010/11/06 22:00:00",4674.21,13.03,TRADE
VIC1,"2010/11/06 22:30:00",4583.22,14.79,TRADE
VIC1,"2010/11/06 23:00:00",4503.34,17.7,TRADE
VIC1,"2010/11/06 23:30:00",4706.51,19.21,TRADE
VIC1,"2010/11/07 00:00:00",4634.85,19.38,TRADE
VIC1,"2010/11/07 00:30:00",4493.13,19.02,TRADE
VIC1,"2010/11/07 01:00:00",4389.63,17.77,TRADE
VIC1,"2010/11/07 01:30:00",4691.84,18.98,TRADE
VIC1,"2010/11/07 02:00:00",4535.38,17.64,TRADE
VIC1,"2010/11/07 02:30:00",4369.6,17.72,TRADE
VIC1,"2010/11/07 03:00:00",4212.54,15.08,TRADE
VIC1,"2010/11/07 03:30:00",4124.4,14.9,TRADE
VIC1,"2010/11/07 04:00:00",4045.87,13.01,TRADE
VIC1,"2010/11/07 04:30:00",4042.02,16.44,TRADE
VIC1,"2010/11/07 05:00:00",4038.59,16.38,TRADE
VIC1,"2010/11/07 05:30:00",4018.1,16.03,TRADE
VIC1,"2010/11/07 06:00:00",4111.03,16.89,TRADE
VIC1,"2010/11/07 06:30:00",4258.83,17.76,TRADE
VIC1,"2010/11/07 07:00:00",4444.01,18.49,TRADE
VIC1,"2010/11/07 07:30:00",4470.16,17.88,TRADE
VIC1,"2010/11/07 08:00:00",4554.2,18.14,TRADE
VIC1,"2010/11/07 08:30:00",4726.46,19.58,TRADE
VIC1,"2010/11/07 09:00:00",4810.59,19.26,TRADE
VIC1,"2010/11/07 09:30:00",4905.84,19.15,TRADE
VIC1,"2010/11/07 10:00:00",4960.9,18.26,TRADE
VIC1,"2010/11/07 10:30:00",4999.6,18.7,TRADE
VIC1,"2010/11/07 11:00:00",5044.87,19.01,TRADE
VIC1,"2010/11/07 11:30:00",5018.28,19.22,TRADE
VIC1,"2010/11/07 12:00:00",4979.73,18.56,TRADE
VIC1,"2010/11/07 12:30:00",4981.29,18.03,TRADE
VIC1,"2010/11/07 13:00:00",4991.14,17.88,TRADE
VIC1,"2010/11/07 13:30:00",4971.04,18.66,TRADE
VIC1,"2010/11/07 14:00:00",4951.81,18.77,TRADE
VIC1,"2010/11/07 14:30:00",4969.26,18.36,TRADE
VIC1,"2010/11/07 15:00:00",5047.77,19.17,TRADE
VIC1,"2010/11/07 15:30:00",5086.01,19.55,TRADE
VIC1,"2010/11/07 16:00:00",5174.71,18.75,TRADE
VIC1,"2010/11/07 16:30:00",5192.14,18.73,TRADE
VIC1,"2010/11/07 17:00:00",5223.49,19.58,TRADE
VIC1,"2010/11/07 17:30:00",5251.17,20.42,TRADE
VIC1,"2010/11/07 18:00:00",5269.94,21.51,TRADE
VIC1,"2010/11/07 18:30:00",5258.78,20.75,TRADE
VIC1,"2010/11/07 19:00:00",5249.68,21.98,TRADE
VIC1,"2010/11/07 19:30:00",5322.66,21.99,TRADE
VIC1,"2010/11/07 20:00:00",5345.62,21.99,TRADE
VIC1,"2010/11/07 20:30:00",5222.71,21.77,TRADE
VIC1,"2010/11/07 21:00:00",5107.86,20.33,TRADE
VIC1,"2010/11/07 21:30:00",4927.53,19.77,TRADE
VIC1,"2010/11/07 22:00:00",4754.02,17.81,TRADE
VIC1,"2010/11/07 22:30:00",4654.88,14.73,TRADE
VIC1,"2010/11/07 23:00:00",4602.97,17.04,TRADE
VIC1,"2010/11/07 23:30:00",4840.72,20.19,TRADE
VIC1,"2010/11/08 00:00:00",4762.31,19.64,TRADE
VIC1,"2010/11/08 00:30:00",4644.45,17.38,TRADE
VIC1,"2010/11/08 01:00:00",4539.16,16.11,TRADE
VIC1,"2010/11/08 01:30:00",4875.3,19.1,TRADE
VIC1,"2010/11/08 02:00:00",4733.84,17.35,TRADE
VIC1,"2010/11/08 02:30:00",4566.11,17.64,TRADE
VIC1,"2010/11/08 03:00:00",4458.49,17.35,TRADE
VIC1,"2010/11/08 03:30:00",4421.33,17.45,TRADE
VIC1,"2010/11/08 04:00:00",4432.58,16.45,TRADE
VIC1,"2010/11/08 04:30:00",4540.27,17.68,TRADE
VIC1,"2010/11/08 05:00:00",4707.43,17.79,TRADE
VIC1,"2010/11/08 05:30:00",5027.74,19.09,TRADE
VIC1,"2010/11/08 06:00:00",5360.29,20.17,TRADE
VIC1,"2010/11/08 06:30:00",5863.09,23.65,TRADE
VIC1,"2010/11/08 07:00:00",6194.01,24.98,TRADE
VIC1,"2010/11/08 07:30:00",6166.88,21.07,TRADE
VIC1,"2010/11/08 08:00:00",6163.17,21.99,TRADE
VIC1,"2010/11/08 08:30:00",6236.54,22.1,TRADE
VIC1,"2010/11/08 09:00:00",6213.16,21.99,TRADE
VIC1,"2010/11/08 09:30:00",6226.05,24.15,TRADE
VIC1,"2010/11/08 10:00:00",6289.96,23.4,TRADE
VIC1,"2010/11/08 10:30:00",6308.22,25.17,TRADE
VIC1,"2010/11/08 11:00:00",6414.03,23.95,TRADE
VIC1,"2010/11/08 11:30:00",6411.7,24.01,TRADE
VIC1,"2010/11/08 12:00:00",6393.04,23.73,TRADE
VIC1,"2010/11/08 12:30:00",6412.34,23.46,TRADE
VIC1,"2010/11/08 13:00:00",6433.61,23.59,TRADE
VIC1,"2010/11/08 13:30:00",6429.67,23.83,TRADE
VIC1,"2010/11/08 14:00:00",6410.16,23.93,TRADE
VIC1,"2010/11/08 14:30:00",6371.28,23.35,TRADE
VIC1,"2010/11/08 15:00:00",6365.87,23.42,TRADE
VIC1,"2010/11/08 15:30:00",6369.16,22.64,TRADE
VIC1,"2010/11/08 16:00:00",6335.62,22.68,TRADE
VIC1,"2010/11/08 16:30:00",6359.25,22.92,TRADE
VIC1,"2010/11/08 17:00:00",6293.41,22.85,TRADE
VIC1,"2010/11/08 17:30:00",6146.86,20.7,TRADE
VIC1,"2010/11/08 18:00:00",5961.97,19.22,TRADE
VIC1,"2010/11/08 18:30:00",5849.26,17.99,TRADE
VIC1,"2010/11/08 19:00:00",5815.48,18.11,TRADE
VIC1,"2010/11/08 19:30:00",5836.67,17.93,TRADE
VIC1,"2010/11/08 20:00:00",5913.31,18.17,TRADE
VIC1,"2010/11/08 20:30:00",5794.18,17.88,TRADE
VIC1,"2010/11/08 21:00:00",5651.4,17.88,TRADE
VIC1,"2010/11/08 21:30:00",5414.88,17.88,TRADE
VIC1,"2010/11/08 22:00:00",5203.43,13.67,TRADE
VIC1,"2010/11/08 22:30:00",5042.44,12.13,TRADE
VIC1,"2010/11/08 23:00:00",4961.36,16.56,TRADE
VIC1,"2010/11/08 23:30:00",5146.98,20.02,TRADE
VIC1,"2010/11/09 00:00:00",5006.06,16.91,TRADE
VIC1,"2010/11/09 00:30:00",4879.69,17.31,TRADE
VIC1,"2010/11/09 01:00:00",4758.32,11.31,TRADE
VIC1,"2010/11/09 01:30:00",5095.6,13.36,TRADE
VIC1,"2010/11/09 02:00:00",4967.35,11.04,TRADE
VIC1,"2010/11/09 02:30:00",4817.3,18.08,TRADE
VIC1,"2010/11/09 03:00:00",4698.13,17.82,TRADE
VIC1,"2010/11/09 03:30:00",4648.25,17.55,TRADE
VIC1,"2010/11/09 04:00:00",4647.67,17.6,TRADE
VIC1,"2010/11/09 04:30:00",4760.27,15.54,TRADE
VIC1,"2010/11/09 05:00:00",4920.85,12.39,TRADE
VIC1,"2010/11/09 05:30:00",5217.54,22.8,TRADE
VIC1,"2010/11/09 06:00:00",5529.27,23.61,TRADE
VIC1,"2010/11/09 06:30:00",6006.04,24.54,TRADE
VIC1,"2010/11/09 07:00:00",6328.47,26.66,TRADE
VIC1,"2010/11/09 07:30:00",6244.12,18.52,TRADE
VIC1,"2010/11/09 08:00:00",6293.59,21.81,TRADE
VIC1,"2010/11/09 08:30:00",6355.33,23.38,TRADE
VIC1,"2010/11/09 09:00:00",6377.94,23.91,TRADE
VIC1,"2010/11/09 09:30:00",6424.29,23.33,TRADE
VIC1,"2010/11/09 10:00:00",6499.97,24.76,TRADE
VIC1,"2010/11/09 10:30:00",6498.73,24.41,TRADE
VIC1,"2010/11/09 11:00:00",6524.19,24.35,TRADE
VIC1,"2010/11/09 11:30:00",6566.52,24.35,TRADE
VIC1,"2010/11/09 12:00:00",6585.3,24.19,TRADE
VIC1,"2010/11/09 12:30:00",6705.05,24.75,TRADE
VIC1,"2010/11/09 13:00:00",6723.44,24.97,TRADE
VIC1,"2010/11/09 13:30:00",6749.86,24.68,TRADE
VIC1,"2010/11/09 14:00:00",6825.35,24.79,TRADE
VIC1,"2010/11/09 14:30:00",6807.86,23.65,TRADE
VIC1,"2010/11/09 15:00:00",6852.31,24.91,TRADE
VIC1,"2010/11/09 15:30:00",6872.65,24.42,TRADE
VIC1,"2010/11/09 16:00:00",6890.91,24.52,TRADE
VIC1,"2010/11/09 16:30:00",6860.28,24.39,TRADE
VIC1,"2010/11/09 17:00:00",6793.65,24.46,TRADE
VIC1,"2010/11/09 17:30:00",6629.76,22.98,TRADE
VIC1,"2010/11/09 18:00:00",6432.44,23.32,TRADE
VIC1,"2010/11/09 18:30:00",6230.05,21.99,TRADE
VIC1,"2010/11/09 19:00:00",6138.8,22,TRADE
VIC1,"2010/11/09 19:30:00",6202.57,22.18,TRADE
VIC1,"2010/11/09 20:00:00",6191.64,22.78,TRADE
VIC1,"2010/11/09 20:30:00",6037.41,22.24,TRADE
VIC1,"2010/11/09 21:00:00",5843.02,19.97,TRADE
VIC1,"2010/11/09 21:30:00",5616.19,16.85,TRADE
VIC1,"2010/11/09 22:00:00",5390.79,17.2,TRADE
VIC1,"2010/11/09 22:30:00",5256.8,11.31,TRADE
VIC1,"2010/11/09 23:00:00",5122.73,11.5,TRADE
VIC1,"2010/11/09 23:30:00",5335.07,13.83,TRADE
VIC1,"2010/11/10 00:00:00",5198.34,11.39,TRADE
VIC1,"2010/11/10 00:30:00",4990.21,11.07,TRADE
VIC1,"2010/11/10 01:00:00",4861.81,10.96,TRADE
VIC1,"2010/11/10 01:30:00",5156.66,11.17,TRADE
VIC1,"2010/11/10 02:00:00",4984.37,10.45,TRADE
VIC1,"2010/11/10 02:30:00",4760.67,11.55,TRADE
VIC1,"2010/11/10 03:00:00",4608.33,11.15,TRADE
VIC1,"2010/11/10 03:30:00",4509.25,10.99,TRADE
VIC1,"2010/11/10 04:00:00",4483.67,11.07,TRADE
VIC1,"2010/11/10 04:30:00",4602.67,11.12,TRADE
VIC1,"2010/11/10 05:00:00",4819.39,11.97,TRADE
VIC1,"2010/11/10 05:30:00",5177.7,13.66,TRADE
VIC1,"2010/11/10 06:00:00",5535.35,18.35,TRADE
VIC1,"2010/11/10 06:30:00",6104.77,24.1,TRADE
VIC1,"2010/11/10 07:00:00",6405.44,25.41,TRADE
VIC1,"2010/11/10 07:30:00",6463.72,22.55,TRADE
VIC1,"2010/11/10 08:00:00",6534.83,23.8,TRADE
VIC1,"2010/11/10 08:30:00",6680.11,24.04,TRADE
VIC1,"2010/11/10 09:00:00",6743.65,24.57,TRADE
VIC1,"2010/11/10 09:30:00",6779.17,23.91,TRADE
VIC1,"2010/11/10 10:00:00",6845.81,24.6,TRADE
VIC1,"2010/11/10 10:30:00",6837.54,24.79,TRADE
VIC1,"2010/11/10 11:00:00",6816.82,24.8,TRADE
VIC1,"2010/11/10 11:30:00",6879.98,26.26,TRADE
VIC1,"2010/11/10 12:00:00",6878.33,25.49,TRADE
VIC1,"2010/11/10 12:30:00",6839.79,25.2,TRADE
VIC1,"2010/11/10 13:00:00",6836.32,24.65,TRADE
VIC1,"2010/11/10 13:30:00",6814.21,23.96,TRADE
VIC1,"2010/11/10 14:00:00",6730.08,24.94,TRADE
VIC1,"2010/11/10 14:30:00",6731.28,23.78,TRADE
VIC1,"2010/11/10 15:00:00",6716.83,23.95,TRADE
VIC1,"2010/11/10 15:30:00",6734.7,23.69,TRADE
VIC1,"2010/11/10 16:00:00",6702.86,23.82,TRADE
VIC1,"2010/11/10 16:30:00",6668.34,23.94,TRADE
VIC1,"2010/11/10 17:00:00",6583.24,23.12,TRADE
VIC1,"2010/11/10 17:30:00",6387.69,21.71,TRADE
VIC1,"2010/11/10 18:00:00",6254.34,20.55,TRADE
VIC1,"2010/11/10 18:30:00",6053.85,21.82,TRADE
VIC1,"2010/11/10 19:00:00",6023.11,21.96,TRADE
VIC1,"2010/11/10 19:30:00",6033.52,21.44,TRADE
VIC1,"2010/11/10 20:00:00",6082.83,20.59,TRADE
VIC1,"2010/11/10 20:30:00",5912.84,19.92,TRADE
VIC1,"2010/11/10 21:00:00",5741.71,18.1,TRADE
VIC1,"2010/11/10 21:30:00",5522.5,18,TRADE
VIC1,"2010/11/10 22:00:00",5291.91,17.79,TRADE
VIC1,"2010/11/10 22:30:00",5132.82,17.67,TRADE
VIC1,"2010/11/10 23:00:00",5046.18,17.44,TRADE
VIC1,"2010/11/10 23:30:00",5283.69,18.63,TRADE
VIC1,"2010/11/11 00:00:00",5175.38,17.26,TRADE
VIC1,"2010/11/11 00:30:00",5026.2,17.38,TRADE
VIC1,"2010/11/11 01:00:00",4883.15,12.97,TRADE
VIC1,"2010/11/11 01:30:00",5194.01,13.26,TRADE
VIC1,"2010/11/11 02:00:00",5035.78,11.41,TRADE
VIC1,"2010/11/11 02:30:00",4848.15,11.7,TRADE
VIC1,"2010/11/11 03:00:00",4688.9,11.92,TRADE
VIC1,"2010/11/11 03:30:00",4626.42,11.35,TRADE
VIC1,"2010/11/11 04:00:00",4618.02,11.33,TRADE
VIC1,"2010/11/11 04:30:00",4721.23,12.01,TRADE
VIC1,"2010/11/11 05:00:00",4880.02,13.67,TRADE
VIC1,"2010/11/11 05:30:00",5227.86,17.51,TRADE
VIC1,"2010/11/11 06:00:00",5477.18,11.19,TRADE
VIC1,"2010/11/11 06:30:00",6012.04,23.38,TRADE
VIC1,"2010/11/11 07:00:00",6260.38,26.04,TRADE
VIC1,"2010/11/11 07:30:00",6217.9,18.57,TRADE
VIC1,"2010/11/11 08:00:00",6282.9,23,TRADE
VIC1,"2010/11/11 08:30:00",6340.44,24.37,TRADE
VIC1,"2010/11/11 09:00:00",6385.19,23.6,TRADE
VIC1,"2010/11/11 09:30:00",6437.19,23.7,TRADE
VIC1,"2010/11/11 10:00:00",6555.04,24,TRADE
VIC1,"2010/11/11 10:30:00",6637.2,23.65,TRADE
VIC1,"2010/11/11 11:00:00",6738.32,19.14,TRADE
VIC1,"2010/11/11 11:30:00",6792.1,22.97,TRADE
VIC1,"2010/11/11 12:00:00",6795.08,19.59,TRADE
VIC1,"2010/11/11 12:30:00",6858.86,20.61,TRADE
VIC1,"2010/11/11 13:00:00",6951.27,19.59,TRADE
VIC1,"2010/11/11 13:30:00",7036.96,19.42,TRADE
VIC1,"2010/11/11 14:00:00",7067.62,19.46,TRADE
VIC1,"2010/11/11 14:30:00",7064.53,19.43,TRADE
VIC1,"2010/11/11 15:00:00",7105.06,19.45,TRADE
VIC1,"2010/11/11 15:30:00",7221.19,19.35,TRADE
VIC1,"2010/11/11 16:00:00",7223.65,19.42,TRADE
VIC1,"2010/11/11 16:30:00",7266.36,24.97,TRADE
VIC1,"2010/11/11 17:00:00",7216.91,24.48,TRADE
VIC1,"2010/11/11 17:30:00",7058.85,23.86,TRADE
VIC1,"2010/11/11 18:00:00",6881.87,23.42,TRADE
VIC1,"2010/11/11 18:30:00",6626.94,22.78,TRADE
VIC1,"2010/11/11 19:00:00",6464.62,22.28,TRADE
VIC1,"2010/11/11 19:30:00",6469.63,22.29,TRADE
VIC1,"2010/11/11 20:00:00",6468.78,21.78,TRADE
VIC1,"2010/11/11 20:30:00",6241.26,22.01,TRADE
VIC1,"2010/11/11 21:00:00",6044.12,19.06,TRADE
VIC1,"2010/11/11 21:30:00",5819.44,17.88,TRADE
VIC1,"2010/11/11 22:00:00",5540.26,16.5,TRADE
VIC1,"2010/11/11 22:30:00",5281.66,16.23,TRADE
VIC1,"2010/11/11 23:00:00",5119.19,14.54,TRADE
VIC1,"2010/11/11 23:30:00",5320.8,15.56,TRADE
VIC1,"2010/11/12 00:00:00",5171.05,14.88,TRADE
VIC1,"2010/11/12 00:30:00",4916.34,13.15,TRADE
VIC1,"2010/11/12 01:00:00",4768.37,14.06,TRADE
VIC1,"2010/11/12 01:30:00",5125.29,14.71,TRADE
VIC1,"2010/11/12 02:00:00",4992.7,11.43,TRADE
VIC1,"2010/11/12 02:30:00",4771.21,13.39,TRADE
VIC1,"2010/11/12 03:00:00",4625.69,13.11,TRADE
VIC1,"2010/11/12 03:30:00",4577.03,13.22,TRADE
VIC1,"2010/11/12 04:00:00",4525.7,12.66,TRADE
VIC1,"2010/11/12 04:30:00",4578.42,13.89,TRADE
VIC1,"2010/11/12 05:00:00",4709.65,14.4,TRADE
VIC1,"2010/11/12 05:30:00",4970.1,16.38,TRADE
VIC1,"2010/11/12 06:00:00",5375.21,19.56,TRADE
VIC1,"2010/11/12 06:30:00",5917.93,21.78,TRADE
VIC1,"2010/11/12 07:00:00",6252.05,24.02,TRADE
VIC1,"2010/11/12 07:30:00",6221.16,17.9,TRADE
VIC1,"2010/11/12 08:00:00",6271.68,18.26,TRADE
VIC1,"2010/11/12 08:30:00",6459.58,18.7,TRADE
VIC1,"2010/11/12 09:00:00",6539.75,21.86,TRADE
VIC1,"2010/11/12 09:30:00",6654.68,22.51,TRADE
VIC1,"2010/11/12 10:00:00",6747.76,22.98,TRADE
VIC1,"2010/11/12 10:30:00",6836.23,23.41,TRADE
VIC1,"2010/11/12 11:00:00",6898.96,25.64,TRADE
VIC1,"2010/11/12 11:30:00",6929.18,22.79,TRADE
VIC1,"2010/11/12 12:00:00",6947.38,23.84,TRADE
VIC1,"2010/11/12 12:30:00",7064.14,24.34,TRADE
VIC1,"2010/11/12 13:00:00",7269.04,29.47,TRADE
VIC1,"2010/11/12 13:30:00",7328.99,29.39,TRADE
VIC1,"2010/11/12 14:00:00",7316.21,28.56,TRADE
VIC1,"2010/11/12 14:30:00",7407.46,27.79,TRADE
VIC1,"2010/11/12 15:00:00",7444.5,26.61,TRADE
VIC1,"2010/11/12 15:30:00",7431.92,25.84,TRADE
VIC1,"2010/11/12 16:00:00",7444.55,26.01,TRADE
VIC1,"2010/11/12 16:30:00",7376.68,25.95,TRADE
VIC1,"2010/11/12 17:00:00",7230.06,24.78,TRADE
VIC1,"2010/11/12 17:30:00",6880.3,25.24,TRADE
VIC1,"2010/11/12 18:00:00",6621.94,21.36,TRADE
VIC1,"2010/11/12 18:30:00",6304.12,18.72,TRADE
VIC1,"2010/11/12 19:00:00",6218.46,18.54,TRADE
VIC1,"2010/11/12 19:30:00",6215.68,18.48,TRADE
VIC1,"2010/11/12 20:00:00",6175.42,18.13,TRADE
VIC1,"2010/11/12 20:30:00",5966.25,19.58,TRADE
VIC1,"2010/11/12 21:00:00",5750.84,17.9,TRADE
VIC1,"2010/11/12 21:30:00",5558.34,17.91,TRADE
VIC1,"2010/11/12 22:00:00",5404.72,17.88,TRADE
VIC1,"2010/11/12 22:30:00",5292.93,18.56,TRADE
VIC1,"2010/11/12 23:00:00",5174.04,17.92,TRADE
VIC1,"2010/11/12 23:30:00",5345.27,20.01,TRADE
VIC1,"2010/11/13 00:00:00",5136.88,14.3,TRADE
VIC1,"2010/11/13 00:30:00",4901.94,11.76,TRADE
VIC1,"2010/11/13 01:00:00",4739.52,12.7,TRADE
VIC1,"2010/11/13 01:30:00",5020.97,15.4,TRADE
VIC1,"2010/11/13 02:00:00",4777.48,11.57,TRADE
VIC1,"2010/11/13 02:30:00",4569.21,13.38,TRADE
VIC1,"2010/11/13 03:00:00",4458.13,11.56,TRADE
VIC1,"2010/11/13 03:30:00",4386.99,11.63,TRADE
VIC1,"2010/11/13 04:00:00",4370.96,11.64,TRADE
VIC1,"2010/11/13 04:30:00",4364.28,10.89,TRADE
VIC1,"2010/11/13 05:00:00",4432.35,10.89,TRADE
VIC1,"2010/11/13 05:30:00",4535.1,14.39,TRADE
VIC1,"2010/11/13 06:00:00",4675.68,10.94,TRADE
VIC1,"2010/11/13 06:30:00",4841.35,9.59,TRADE
VIC1,"2010/11/13 07:00:00",4967.52,15.9,TRADE
VIC1,"2010/11/13 07:30:00",5111.44,18.16,TRADE
VIC1,"2010/11/13 08:00:00",5274.09,18.94,TRADE
VIC1,"2010/11/13 08:30:00",5353.69,19.61,TRADE
VIC1,"2010/11/13 09:00:00",5442.51,20.68,TRADE
VIC1,"2010/11/13 09:30:00",5443.12,20.9,TRADE
VIC1,"2010/11/13 10:00:00",5508.41,20.03,TRADE
VIC1,"2010/11/13 10:30:00",5495.89,19.35,TRADE
VIC1,"2010/11/13 11:00:00",5455.63,19.46,TRADE
VIC1,"2010/11/13 11:30:00",5421.92,20.39,TRADE
VIC1,"2010/11/13 12:00:00",5413.59,19.7,TRADE
VIC1,"2010/11/13 12:30:00",5356.97,18.5,TRADE
VIC1,"2010/11/13 13:00:00",5330.45,17.78,TRADE
VIC1,"2010/11/13 13:30:00",5319.06,18.99,TRADE
VIC1,"2010/11/13 14:00:00",5280.27,17.36,TRADE
VIC1,"2010/11/13 14:30:00",5262.86,18.18,TRADE
VIC1,"2010/11/13 15:00:00",5308.49,18.01,TRADE
VIC1,"2010/11/13 15:30:00",5351.6,19.57,TRADE
VIC1,"2010/11/13 16:00:00",5439.8,21.08,TRADE
VIC1,"2010/11/13 16:30:00",5511.79,21.08,TRADE
VIC1,"2010/11/13 17:00:00",5565.8,21.71,TRADE
VIC1,"2010/11/13 17:30:00",5589.18,20.86,TRADE
VIC1,"2010/11/13 18:00:00",5520.82,19.64,TRADE
VIC1,"2010/11/13 18:30:00",5492.76,18.84,TRADE
VIC1,"2010/11/13 19:00:00",5471.94,20.45,TRADE
VIC1,"2010/11/13 19:30:00",5378.75,20.74,TRADE
VIC1,"2010/11/13 20:00:00",5357.74,20.46,TRADE
VIC1,"2010/11/13 20:30:00",5262.48,20.21,TRADE
VIC1,"2010/11/13 21:00:00",5160.2,18.63,TRADE
VIC1,"2010/11/13 21:30:00",5017.63,18.63,TRADE
VIC1,"2010/11/13 22:00:00",4910.6,17.25,TRADE
VIC1,"2010/11/13 22:30:00",4762.35,19.24,TRADE
VIC1,"2010/11/13 23:00:00",4728.72,18.33,TRADE
VIC1,"2010/11/13 23:30:00",4933.19,19.19,TRADE
VIC1,"2010/11/14 00:00:00",4840.22,19.07,TRADE
VIC1,"2010/11/14 00:30:00",4655.53,17.15,TRADE
VIC1,"2010/11/14 01:00:00",4510.64,15.16,TRADE
VIC1,"2010/11/14 01:30:00",4877.51,17.89,TRADE
VIC1,"2010/11/14 02:00:00",4675.03,13.87,TRADE
VIC1,"2010/11/14 02:30:00",4544.15,18.11,TRADE
VIC1,"2010/11/14 03:00:00",4377.49,13.11,TRADE
VIC1,"2010/11/14 03:30:00",4324.69,11.03,TRADE
VIC1,"2010/11/14 04:00:00",4213.86,10.99,TRADE
VIC1,"2010/11/14 04:30:00",4215.04,10.99,TRADE
VIC1,"2010/11/14 05:00:00",4201.11,10.97,TRADE
VIC1,"2010/11/14 05:30:00",4237.52,11.06,TRADE
VIC1,"2010/11/14 06:00:00",4258.98,12.82,TRADE
VIC1,"2010/11/14 06:30:00",4436.8,11.43,TRADE
VIC1,"2010/11/14 07:00:00",4572.24,10.99,TRADE
VIC1,"2010/11/14 07:30:00",4660.59,10.63,TRADE
VIC1,"2010/11/14 08:00:00",4821.23,11.45,TRADE
VIC1,"2010/11/14 08:30:00",4921.76,13.04,TRADE
VIC1,"2010/11/14 09:00:00",5001.83,18.36,TRADE
VIC1,"2010/11/14 09:30:00",5144.88,18.43,TRADE
VIC1,"2010/11/14 10:00:00",5191.86,18.43,TRADE
VIC1,"2010/11/14 10:30:00",5167.36,18.42,TRADE
VIC1,"2010/11/14 11:00:00",5168.91,18.42,TRADE
VIC1,"2010/11/14 11:30:00",5186.51,18.62,TRADE
VIC1,"2010/11/14 12:00:00",5174.33,18.65,TRADE
VIC1,"2010/11/14 12:30:00",5140.58,18.56,TRADE
VIC1,"2010/11/14 13:00:00",5103.7,18.38,TRADE
VIC1,"2010/11/14 13:30:00",5060.9,18.36,TRADE
VIC1,"2010/11/14 14:00:00",5038.32,18.35,TRADE
VIC1,"2010/11/14 14:30:00",5041.23,18.35,TRADE
VIC1,"2010/11/14 15:00:00",5061.13,16.63,TRADE
VIC1,"2010/11/14 15:30:00",5105.51,19.33,TRADE
VIC1,"2010/11/14 16:00:00",5186.87,20.12,TRADE
VIC1,"2010/11/14 16:30:00",5229.05,20.5,TRADE
VIC1,"2010/11/14 17:00:00",5325.07,21.47,TRADE
VIC1,"2010/11/14 17:30:00",5418.44,21.74,TRADE
VIC1,"2010/11/14 18:00:00",5396.74,21.21,TRADE
VIC1,"2010/11/14 18:30:00",5432.95,21.35,TRADE
VIC1,"2010/11/14 19:00:00",5402.35,21.28,TRADE
VIC1,"2010/11/14 19:30:00",5474.41,21.31,TRADE
VIC1,"2010/11/14 20:00:00",5508.98,21.47,TRADE
VIC1,"2010/11/14 20:30:00",5403.74,21.02,TRADE
VIC1,"2010/11/14 21:00:00",5261.99,18.7,TRADE
VIC1,"2010/11/14 21:30:00",5083.21,14.29,TRADE
VIC1,"2010/11/14 22:00:00",4905.84,10.99,TRADE
VIC1,"2010/11/14 22:30:00",4794.21,13.42,TRADE
VIC1,"2010/11/14 23:00:00",4721.99,11.46,TRADE
VIC1,"2010/11/14 23:30:00",4941.43,15.21,TRADE
VIC1,"2010/11/15 00:00:00",4816.95,12.95,TRADE
VIC1,"2010/11/15 00:30:00",4664.36,10.97,TRADE
VIC1,"2010/11/15 01:00:00",4526.74,10.84,TRADE
VIC1,"2010/11/15 01:30:00",4845.72,11.06,TRADE
VIC1,"2010/11/15 02:00:00",4736.21,10.75,TRADE
VIC1,"2010/11/15 02:30:00",4572.8,12.11,TRADE
VIC1,"2010/11/15 03:00:00",4480.81,10.79,TRADE
VIC1,"2010/11/15 03:30:00",4391.64,10.81,TRADE
VIC1,"2010/11/15 04:00:00",4446.23,10.79,TRADE
VIC1,"2010/11/15 04:30:00",4511.41,10.79,TRADE
VIC1,"2010/11/15 05:00:00",4704.23,10.89,TRADE
VIC1,"2010/11/15 05:30:00",5075.4,14.79,TRADE
VIC1,"2010/11/15 06:00:00",5417.11,23.12,TRADE
VIC1,"2010/11/15 06:30:00",5896.02,21.67,TRADE
VIC1,"2010/11/15 07:00:00",6277.34,27.47,TRADE
VIC1,"2010/11/15 07:30:00",6219.54,22.91,TRADE
VIC1,"2010/11/15 08:00:00",6265.03,23.06,TRADE
VIC1,"2010/11/15 08:30:00",6354.76,24.1,TRADE
VIC1,"2010/11/15 09:00:00",6338.64,23.94,TRADE
VIC1,"2010/11/15 09:30:00",6391.07,24.41,TRADE
VIC1,"2010/11/15 10:00:00",6359.83,24.17,TRADE
VIC1,"2010/11/15 10:30:00",6376.45,24.33,TRADE
VIC1,"2010/11/15 11:00:00",6381.8,24.69,TRADE
VIC1,"2010/11/15 11:30:00",6385.52,25.29,TRADE
VIC1,"2010/11/15 12:00:00",6371.19,25.09,TRADE
VIC1,"2010/11/15 12:30:00",6353.42,23.31,TRADE
VIC1,"2010/11/15 13:00:00",6318.69,22.7,TRADE
VIC1,"2010/11/15 13:30:00",6315.7,22.35,TRADE
VIC1,"2010/11/15 14:00:00",6274.24,21.99,TRADE
VIC1,"2010/11/15 14:30:00",6201.57,20.64,TRADE
VIC1,"2010/11/15 15:00:00",6143.54,18.6,TRADE
VIC1,"2010/11/15 15:30:00",6219.07,20.92,TRADE
VIC1,"2010/11/15 16:00:00",6241.62,20.01,TRADE
VIC1,"2010/11/15 16:30:00",6233.47,18.66,TRADE
VIC1,"2010/11/15 17:00:00",6250.62,22.19,TRADE
VIC1,"2010/11/15 17:30:00",6235.62,21.24,TRADE
VIC1,"2010/11/15 18:00:00",6126.98,18.7,TRADE
VIC1,"2010/11/15 18:30:00",6065.16,18.59,TRADE
VIC1,"2010/11/15 19:00:00",6004.43,18.59,TRADE
VIC1,"2010/11/15 19:30:00",6039.57,18.12,TRADE
VIC1,"2010/11/15 20:00:00",6116.75,18.13,TRADE
VIC1,"2010/11/15 20:30:00",5937.29,17.88,TRADE
VIC1,"2010/11/15 21:00:00",5773.35,17.88,TRADE
VIC1,"2010/11/15 21:30:00",5494.79,21.12,TRADE
VIC1,"2010/11/15 22:00:00",5299.06,14.75,TRADE
VIC1,"2010/11/15 22:30:00",5114.24,18,TRADE
VIC1,"2010/11/15 23:00:00",5009.26,18.99,TRADE
VIC1,"2010/11/15 23:30:00",5242.61,20.26,TRADE
VIC1,"2010/11/16 00:00:00",5106.36,20.9,TRADE
VIC1,"2010/11/16 00:30:00",4981.1,17.81,TRADE
VIC1,"2010/11/16 01:00:00",4838.88,10.2,TRADE
VIC1,"2010/11/16 01:30:00",5152.1,12.96,TRADE
VIC1,"2010/11/16 02:00:00",5018.04,10.82,TRADE
VIC1,"2010/11/16 02:30:00",4803.31,15.61,TRADE
VIC1,"2010/11/16 03:00:00",4721.71,10.99,TRADE
VIC1,"2010/11/16 03:30:00",4658.81,11.1,TRADE
VIC1,"2010/11/16 04:00:00",4630.61,16.17,TRADE
VIC1,"2010/11/16 04:30:00",4754.54,20.92,TRADE
VIC1,"2010/11/16 05:00:00",4937.37,23.13,TRADE
VIC1,"2010/11/16 05:30:00",5283.53,21.57,TRADE
VIC1,"2010/11/16 06:00:00",5642.2,24.02,TRADE
VIC1,"2010/11/16 06:30:00",6159.14,21.06,TRADE
VIC1,"2010/11/16 07:00:00",6482.97,23.87,TRADE
VIC1,"2010/11/16 07:30:00",6402.14,20.27,TRADE
VIC1,"2010/11/16 08:00:00",6432.56,20.22,TRADE
VIC1,"2010/11/16 08:30:00",6456.22,21,TRADE
VIC1,"2010/11/16 09:00:00",6466.44,21.7,TRADE
VIC1,"2010/11/16 09:30:00",6470.59,21.24,TRADE
VIC1,"2010/11/16 10:00:00",6434.26,20.81,TRADE
VIC1,"2010/11/16 10:30:00",6444.41,21.14,TRADE
VIC1,"2010/11/16 11:00:00",6449.46,21.03,TRADE
VIC1,"2010/11/16 11:30:00",6398.24,19.11,TRADE
VIC1,"2010/11/16 12:00:00",6427.28,18.76,TRADE
VIC1,"2010/11/16 12:30:00",6393.54,18.71,TRADE
VIC1,"2010/11/16 13:00:00",6417.78,18.7,TRADE
VIC1,"2010/11/16 13:30:00",6376.02,18.7,TRADE
VIC1,"2010/11/16 14:00:00",6378,18.69,TRADE
VIC1,"2010/11/16 14:30:00",6313.42,18.7,TRADE
VIC1,"2010/11/16 15:00:00",6322.58,15.89,TRADE
VIC1,"2010/11/16 15:30:00",6283.03,14.55,TRADE
VIC1,"2010/11/16 16:00:00",6339.37,16.25,TRADE
VIC1,"2010/11/16 16:30:00",6284.34,18.72,TRADE
VIC1,"2010/11/16 17:00:00",6262.29,18.68,TRADE
VIC1,"2010/11/16 17:30:00",6133.33,17.93,TRADE
VIC1,"2010/11/16 18:00:00",6025.98,17.91,TRADE
VIC1,"2010/11/16 18:30:00",5905.54,17.88,TRADE
VIC1,"2010/11/16 19:00:00",5866.94,17.88,TRADE
VIC1,"2010/11/16 19:30:00",5961.32,17.93,TRADE
VIC1,"2010/11/16 20:00:00",6032.51,17.92,TRADE
VIC1,"2010/11/16 20:30:00",5994.9,17.88,TRADE
VIC1,"2010/11/16 21:00:00",5861.37,21.6,TRADE
VIC1,"2010/11/16 21:30:00",5599.66,20.18,TRADE
VIC1,"2010/11/16 22:00:00",5359.61,13.25,TRADE
VIC1,"2010/11/16 22:30:00",5188.34,13.87,TRADE
VIC1,"2010/11/16 23:00:00",5079.39,17.88,TRADE
VIC1,"2010/11/16 23:30:00",5285.17,15.23,TRADE
VIC1,"2010/11/17 00:00:00",5149.3,15.88,TRADE
VIC1,"2010/11/17 00:30:00",4978.94,12.22,TRADE
VIC1,"2010/11/17 01:00:00",4868.74,11.46,TRADE
VIC1,"2010/11/17 01:30:00",5191.47,16.05,TRADE
VIC1,"2010/11/17 02:00:00",5019.67,11.12,TRADE
VIC1,"2010/11/17 02:30:00",4888.82,14.95,TRADE
VIC1,"2010/11/17 03:00:00",4765.02,11.56,TRADE
VIC1,"2010/11/17 03:30:00",4689.48,11.93,TRADE
VIC1,"2010/11/17 04:00:00",4705.77,11.49,TRADE
VIC1,"2010/11/17 04:30:00",4776.39,11.83,TRADE
VIC1,"2010/11/17 05:00:00",4969.38,11.58,TRADE
VIC1,"2010/11/17 05:30:00",5304.76,15.02,TRADE
VIC1,"2010/11/17 06:00:00",5655.06,20.73,TRADE
VIC1,"2010/11/17 06:30:00",6200.79,22.16,TRADE
VIC1,"2010/11/17 07:00:00",6449.97,26.4,TRADE
VIC1,"2010/11/17 07:30:00",6393.95,19.11,TRADE
VIC1,"2010/11/17 08:00:00",6357.05,20.84,TRADE
VIC1,"2010/11/17 08:30:00",6367.56,21.15,TRADE
VIC1,"2010/11/17 09:00:00",6301.33,20.6,TRADE
VIC1,"2010/11/17 09:30:00",6271.72,21.11,TRADE
VIC1,"2010/11/17 10:00:00",6322.73,21.47,TRADE
VIC1,"2010/11/17 10:30:00",6291.46,20.77,TRADE
VIC1,"2010/11/17 11:00:00",6355.78,20.98,TRADE
VIC1,"2010/11/17 11:30:00",6304.56,19.77,TRADE
VIC1,"2010/11/17 12:00:00",6354.57,21.76,TRADE
VIC1,"2010/11/17 12:30:00",6364.56,21.82,TRADE
VIC1,"2010/11/17 13:00:00",6398.47,22.54,TRADE
VIC1,"2010/11/17 13:30:00",6335.09,22.56,TRADE
VIC1,"2010/11/17 14:00:00",6353.11,20.97,TRADE
VIC1,"2010/11/17 14:30:00",6336.65,20.7,TRADE
VIC1,"2010/11/17 15:00:00",6297.9,19.39,TRADE
VIC1,"2010/11/17 15:30:00",6346.27,19.98,TRADE
VIC1,"2010/11/17 16:00:00",6389.05,19.16,TRADE
VIC1,"2010/11/17 16:30:00",6377.36,19.38,TRADE
VIC1,"2010/11/17 17:00:00",6294.84,18.31,TRADE
VIC1,"2010/11/17 17:30:00",6117.67,17.88,TRADE
VIC1,"2010/11/17 18:00:00",5964.18,18.31,TRADE
VIC1,"2010/11/17 18:30:00",5836.38,17.88,TRADE
VIC1,"2010/11/17 19:00:00",5782.94,17.88,TRADE
VIC1,"2010/11/17 19:30:00",5807.08,17.88,TRADE
VIC1,"2010/11/17 20:00:00",5889.61,17.88,TRADE
VIC1,"2010/11/17 20:30:00",5809.27,17.88,TRADE
VIC1,"2010/11/17 21:00:00",5639.95,17.88,TRADE
VIC1,"2010/11/17 21:30:00",5415.58,17.75,TRADE
VIC1,"2010/11/17 22:00:00",5138.57,12.3,TRADE
VIC1,"2010/11/17 22:30:00",4997.17,10.87,TRADE
VIC1,"2010/11/17 23:00:00",4880.09,11.16,TRADE
VIC1,"2010/11/17 23:30:00",5133.85,14.74,TRADE
VIC1,"2010/11/18 00:00:00",4994.44,12.72,TRADE
VIC1,"2010/11/18 00:30:00",4821.67,11.29,TRADE
VIC1,"2010/11/18 01:00:00",4672.71,11.41,TRADE
VIC1,"2010/11/18 01:30:00",5048.28,18.58,TRADE
VIC1,"2010/11/18 02:00:00",4895.43,10.64,TRADE
VIC1,"2010/11/18 02:30:00",4682.48,12.35,TRADE
VIC1,"2010/11/18 03:00:00",4586.77,12.02,TRADE
VIC1,"2010/11/18 03:30:00",4526.62,17.28,TRADE
VIC1,"2010/11/18 04:00:00",4524.52,19.11,TRADE
VIC1,"2010/11/18 04:30:00",4642.38,14.35,TRADE
VIC1,"2010/11/18 05:00:00",4786.82,12.23,TRADE
VIC1,"2010/11/18 05:30:00",5090.92,21.41,TRADE
VIC1,"2010/11/18 06:00:00",5392.79,22.31,TRADE
VIC1,"2010/11/18 06:30:00",5928.11,21.51,TRADE
VIC1,"2010/11/18 07:00:00",6186.77,25.01,TRADE
VIC1,"2010/11/18 07:30:00",6183.89,18.91,TRADE
VIC1,"2010/11/18 08:00:00",6186.33,20.04,TRADE
VIC1,"2010/11/18 08:30:00",6270.41,21.22,TRADE
VIC1,"2010/11/18 09:00:00",6273.26,22.25,TRADE
VIC1,"2010/11/18 09:30:00",6265.78,21.64,TRADE
VIC1,"2010/11/18 10:00:00",6297.1,22.23,TRADE
VIC1,"2010/11/18 10:30:00",6302.37,22.25,TRADE
VIC1,"2010/11/18 11:00:00",6343.17,23.04,TRADE
VIC1,"2010/11/18 11:30:00",6355.97,23.22,TRADE
VIC1,"2010/11/18 12:00:00",6335.61,22,TRADE
VIC1,"2010/11/18 12:30:00",6277.54,21.62,TRADE
VIC1,"2010/11/18 13:00:00",6303.8,21.93,TRADE
VIC1,"2010/11/18 13:30:00",6240.22,21.81,TRADE
VIC1,"2010/11/18 14:00:00",6267.9,21.75,TRADE
VIC1,"2010/11/18 14:30:00",6216.03,20,TRADE
VIC1,"2010/11/18 15:00:00",6203.5,19.71,TRADE
VIC1,"2010/11/18 15:30:00",6267.53,20.63,TRADE
VIC1,"2010/11/18 16:00:00",6298.42,21.13,TRADE
VIC1,"2010/11/18 16:30:00",6244.6,20.59,TRADE
VIC1,"2010/11/18 17:00:00",6244.56,20.76,TRADE
VIC1,"2010/11/18 17:30:00",6132.39,20.05,TRADE
VIC1,"2010/11/18 18:00:00",6105.84,18.55,TRADE
VIC1,"2010/11/18 18:30:00",6000.68,19.98,TRADE
VIC1,"2010/11/18 19:00:00",5940.23,20.07,TRADE
VIC1,"2010/11/18 19:30:00",5981.94,20.34,TRADE
VIC1,"2010/11/18 20:00:00",6081.15,21.81,TRADE
VIC1,"2010/11/18 20:30:00",5959.16,19.92,TRADE
VIC1,"2010/11/18 21:00:00",5750.28,18.83,TRADE
VIC1,"2010/11/18 21:30:00",5514.06,18.27,TRADE
VIC1,"2010/11/18 22:00:00",5291.58,17.82,TRADE
VIC1,"2010/11/18 22:30:00",5104.11,13.31,TRADE
VIC1,"2010/11/18 23:00:00",4994.35,11.02,TRADE
VIC1,"2010/11/18 23:30:00",5223.87,16.15,TRADE
VIC1,"2010/11/19 00:00:00",5084.94,10.96,TRADE
VIC1,"2010/11/19 00:30:00",4920.7,10.97,TRADE
VIC1,"2010/11/19 01:00:00",4799.34,15.92,TRADE
VIC1,"2010/11/19 01:30:00",5118.33,23.1,TRADE
VIC1,"2010/11/19 02:00:00",4971.3,15.83,TRADE
VIC1,"2010/11/19 02:30:00",4779.6,17.1,TRADE
VIC1,"2010/11/19 03:00:00",4646.95,16.76,TRADE
VIC1,"2010/11/19 03:30:00",4576.36,16.03,TRADE
VIC1,"2010/11/19 04:00:00",4559.28,17.18,TRADE
VIC1,"2010/11/19 04:30:00",4719.76,16.17,TRADE
VIC1,"2010/11/19 05:00:00",4831.05,15.69,TRADE
VIC1,"2010/11/19 05:30:00",5216.32,18.01,TRADE
VIC1,"2010/11/19 06:00:00",5599.61,22.47,TRADE
VIC1,"2010/11/19 06:30:00",6054.99,22.88,TRADE
VIC1,"2010/11/19 07:00:00",6352.54,27.06,TRADE
VIC1,"2010/11/19 07:30:00",6278.02,19.43,TRADE
VIC1,"2010/11/19 08:00:00",6232.47,18.86,TRADE
VIC1,"2010/11/19 08:30:00",6267.38,20.59,TRADE
VIC1,"2010/11/19 09:00:00",6229.15,20.62,TRADE
VIC1,"2010/11/19 09:30:00",6242.81,20.66,TRADE
VIC1,"2010/11/19 10:00:00",6252.34,20.83,TRADE
VIC1,"2010/11/19 10:30:00",6226.19,20.85,TRADE
VIC1,"2010/11/19 11:00:00",6188.93,20.46,TRADE
VIC1,"2010/11/19 11:30:00",6173.16,21.4,TRADE
VIC1,"2010/11/19 12:00:00",6174.86,20.77,TRADE
VIC1,"2010/11/19 12:30:00",6161.25,20.73,TRADE
VIC1,"2010/11/19 13:00:00",6159.05,21.19,TRADE
VIC1,"2010/11/19 13:30:00",6130.97,20.97,TRADE
VIC1,"2010/11/19 14:00:00",6139.47,20.48,TRADE
VIC1,"2010/11/19 14:30:00",6053.63,20.29,TRADE
VIC1,"2010/11/19 15:00:00",6064.49,19.98,TRADE
VIC1,"2010/11/19 15:30:00",6037.34,19.87,TRADE
VIC1,"2010/11/19 16:00:00",6068.36,20.45,TRADE
VIC1,"2010/11/19 16:30:00",6029.63,20.84,TRADE
VIC1,"2010/11/19 17:00:00",5990.39,20.15,TRADE
VIC1,"2010/11/19 17:30:00",5846.16,20.19,TRADE
VIC1,"2010/11/19 18:00:00",5754.71,19.52,TRADE
VIC1,"2010/11/19 18:30:00",5587.68,18.14,TRADE
VIC1,"2010/11/19 19:00:00",5550.62,18.69,TRADE
VIC1,"2010/11/19 19:30:00",5568.44,18.92,TRADE
VIC1,"2010/11/19 20:00:00",5652.47,19.04,TRADE
VIC1,"2010/11/19 20:30:00",5627.81,19.54,TRADE
VIC1,"2010/11/19 21:00:00",5500.67,18.01,TRADE
VIC1,"2010/11/19 21:30:00",5336.76,17.95,TRADE
VIC1,"2010/11/19 22:00:00",5187.98,18,TRADE
VIC1,"2010/11/19 22:30:00",5079.21,19.94,TRADE
VIC1,"2010/11/19 23:00:00",5008.86,19.34,TRADE
VIC1,"2010/11/19 23:30:00",5226.84,22.25,TRADE
VIC1,"2010/11/20 00:00:00",5081.43,21.54,TRADE
VIC1,"2010/11/20 00:30:00",4946.1,20.46,TRADE
VIC1,"2010/11/20 01:00:00",4833.92,15.04,TRADE
VIC1,"2010/11/20 01:30:00",5084.82,14.19,TRADE
VIC1,"2010/11/20 02:00:00",4934.78,10.92,TRADE
VIC1,"2010/11/20 02:30:00",4796.76,14.36,TRADE
VIC1,"2010/11/20 03:00:00",4658.77,17.68,TRADE
VIC1,"2010/11/20 03:30:00",4582.36,17.59,TRADE
VIC1,"2010/11/20 04:00:00",4542.74,18.16,TRADE
VIC1,"2010/11/20 04:30:00",4548.82,17.86,TRADE
VIC1,"2010/11/20 05:00:00",4551.37,12.86,TRADE
VIC1,"2010/11/20 05:30:00",4603.07,12.89,TRADE
VIC1,"2010/11/20 06:00:00",4748.4,15.65,TRADE
VIC1,"2010/11/20 06:30:00",5015.02,17.21,TRADE
VIC1,"2010/11/20 07:00:00",5194.06,22.09,TRADE
VIC1,"2010/11/20 07:30:00",5275.17,19.95,TRADE
VIC1,"2010/11/20 08:00:00",5331.13,21.58,TRADE
VIC1,"2010/11/20 08:30:00",5450.76,18.9,TRADE
VIC1,"2010/11/20 09:00:00",5437.88,18.36,TRADE
VIC1,"2010/11/20 09:30:00",5464.38,18.38,TRADE
VIC1,"2010/11/20 10:00:00",5479.55,18.3,TRADE
VIC1,"2010/11/20 10:30:00",5466.14,18.22,TRADE
VIC1,"2010/11/20 11:00:00",5490.79,18.2,TRADE
VIC1,"2010/11/20 11:30:00",5417.67,18.1,TRADE
VIC1,"2010/11/20 12:00:00",5394.47,18.11,TRADE
VIC1,"2010/11/20 12:30:00",5424.64,18.09,TRADE
VIC1,"2010/11/20 13:00:00",5385.51,17.85,TRADE
VIC1,"2010/11/20 13:30:00",5404.46,15.74,TRADE
VIC1,"2010/11/20 14:00:00",5331.8,12.68,TRADE
VIC1,"2010/11/20 14:30:00",5343.46,16.68,TRADE
VIC1,"2010/11/20 15:00:00",5346.82,16.42,TRADE
VIC1,"2010/11/20 15:30:00",5368.88,16.44,TRADE
VIC1,"2010/11/20 16:00:00",5356.65,12.18,TRADE
VIC1,"2010/11/20 16:30:00",5319.26,12.82,TRADE
VIC1,"2010/11/20 17:00:00",5353.97,15.04,TRADE
VIC1,"2010/11/20 17:30:00",5346.08,12.46,TRADE
VIC1,"2010/11/20 18:00:00",5292.27,12.08,TRADE
VIC1,"2010/11/20 18:30:00",5129.56,13.91,TRADE
VIC1,"2010/11/20 19:00:00",5077.93,15.38,TRADE
VIC1,"2010/11/20 19:30:00",5055.2,15.47,TRADE
VIC1,"2010/11/20 20:00:00",5149.55,16.09,TRADE
VIC1,"2010/11/20 20:30:00",5123.21,15.91,TRADE
VIC1,"2010/11/20 21:00:00",5017.78,13.87,TRADE
VIC1,"2010/11/20 21:30:00",4875.94,11.27,TRADE
VIC1,"2010/11/20 22:00:00",4710.52,9.32,TRADE
VIC1,"2010/11/20 22:30:00",4643.3,14.69,TRADE
VIC1,"2010/11/20 23:00:00",4640.97,12.82,TRADE
VIC1,"2010/11/20 23:30:00",4851.25,16.63,TRADE
VIC1,"2010/11/21 00:00:00",4757.4,17.95,TRADE
VIC1,"2010/11/21 00:30:00",4569.1,12.83,TRADE
VIC1,"2010/11/21 01:00:00",4496.22,12.92,TRADE
VIC1,"2010/11/21 01:30:00",4787.32,13.45,TRADE
VIC1,"2010/11/21 02:00:00",4639.71,10.72,TRADE
VIC1,"2010/11/21 02:30:00",4515.07,9.29,TRADE
VIC1,"2010/11/21 03:00:00",4413.06,9.17,TRADE
VIC1,"2010/11/21 03:30:00",4294.46,8.94,TRADE
VIC1,"2010/11/21 04:00:00",4239.83,8.87,TRADE
VIC1,"2010/11/21 04:30:00",4239.96,9.1,TRADE
VIC1,"2010/11/21 05:00:00",4246.59,9.11,TRADE
VIC1,"2010/11/21 05:30:00",4218.13,9.64,TRADE
VIC1,"2010/11/21 06:00:00",4298.79,9.52,TRADE
VIC1,"2010/11/21 06:30:00",4506.64,9.96,TRADE
VIC1,"2010/11/21 07:00:00",4631.89,9.37,TRADE
VIC1,"2010/11/21 07:30:00",4735.48,7.6,TRADE
VIC1,"2010/11/21 08:00:00",4850.27,9.51,TRADE
VIC1,"2010/11/21 08:30:00",5009.49,9.36,TRADE
VIC1,"2010/11/21 09:00:00",5074.64,11.21,TRADE
VIC1,"2010/11/21 09:30:00",5126.39,12.2,TRADE
VIC1,"2010/11/21 10:00:00",5159.25,13.19,TRADE
VIC1,"2010/11/21 10:30:00",5132.5,15.27,TRADE
VIC1,"2010/11/21 11:00:00",5172.31,18.01,TRADE
VIC1,"2010/11/21 11:30:00",5226.23,18.12,TRADE
VIC1,"2010/11/21 12:00:00",5189.1,18.1,TRADE
VIC1,"2010/11/21 12:30:00",5149.56,17.95,TRADE
VIC1,"2010/11/21 13:00:00",5206.13,17.96,TRADE
VIC1,"2010/11/21 13:30:00",5182.63,18.03,TRADE
VIC1,"2010/11/21 14:00:00",5176.45,16.28,TRADE
VIC1,"2010/11/21 14:30:00",5216.19,16.33,TRADE
VIC1,"2010/11/21 15:00:00",5226.33,14.02,TRADE
VIC1,"2010/11/21 15:30:00",5307.18,16.15,TRADE
VIC1,"2010/11/21 16:00:00",5355.93,17.3,TRADE
VIC1,"2010/11/21 16:30:00",5397.57,17.98,TRADE
VIC1,"2010/11/21 17:00:00",5456.05,18.08,TRADE
VIC1,"2010/11/21 17:30:00",5459.86,17.06,TRADE
VIC1,"2010/11/21 18:00:00",5432.32,17.96,TRADE
VIC1,"2010/11/21 18:30:00",5379.48,17.91,TRADE
VIC1,"2010/11/21 19:00:00",5297.21,17.89,TRADE
VIC1,"2010/11/21 19:30:00",5323.31,17.89,TRADE
VIC1,"2010/11/21 20:00:00",5459.02,17.88,TRADE
VIC1,"2010/11/21 20:30:00",5413.22,17.73,TRADE
VIC1,"2010/11/21 21:00:00",5293.41,15.53,TRADE
VIC1,"2010/11/21 21:30:00",5137.33,16.22,TRADE
VIC1,"2010/11/21 22:00:00",4965.37,15.4,TRADE
VIC1,"2010/11/21 22:30:00",4892.81,16.54,TRADE
VIC1,"2010/11/21 23:00:00",4809.37,15.2,TRADE
VIC1,"2010/11/21 23:30:00",5009.46,15.26,TRADE
VIC1,"2010/11/22 00:00:00",4934.36,13.38,TRADE
VIC1,"2010/11/22 00:30:00",4764.26,12.67,TRADE
VIC1,"2010/11/22 01:00:00",4658.96,12.75,TRADE
VIC1,"2010/11/22 01:30:00",4999.34,12.47,TRADE
VIC1,"2010/11/22 02:00:00",4853.02,9.82,TRADE
VIC1,"2010/11/22 02:30:00",4709.48,9.46,TRADE
VIC1,"2010/11/22 03:00:00",4590.16,9.39,TRADE
VIC1,"2010/11/22 03:30:00",4545.95,9.39,TRADE
VIC1,"2010/11/22 04:00:00",4529.25,9.4,TRADE
VIC1,"2010/11/22 04:30:00",4648.33,10.68,TRADE
VIC1,"2010/11/22 05:00:00",4797.97,11.25,TRADE
VIC1,"2010/11/22 05:30:00",5075.87,12.47,TRADE
VIC1,"2010/11/22 06:00:00",5421.65,14.39,TRADE
VIC1,"2010/11/22 06:30:00",5909.96,19.25,TRADE
VIC1,"2010/11/22 07:00:00",6182.29,22.64,TRADE
VIC1,"2010/11/22 07:30:00",6149.62,18.07,TRADE
VIC1,"2010/11/22 08:00:00",6260.59,18.49,TRADE
VIC1,"2010/11/22 08:30:00",6464.43,19.24,TRADE
VIC1,"2010/11/22 09:00:00",6560.19,18.73,TRADE
VIC1,"2010/11/22 09:30:00",6696.93,20.56,TRADE
VIC1,"2010/11/22 10:00:00",6793.14,22.32,TRADE
VIC1,"2010/11/22 10:30:00",6943.12,23.08,TRADE
VIC1,"2010/11/22 11:00:00",7021.39,23.02,TRADE
VIC1,"2010/11/22 11:30:00",7131.09,23.35,TRADE
VIC1,"2010/11/22 12:00:00",7212.08,23.46,TRADE
VIC1,"2010/11/22 12:30:00",7308.09,24.09,TRADE
VIC1,"2010/11/22 13:00:00",7372.13,24.43,TRADE
VIC1,"2010/11/22 13:30:00",7476.98,25.01,TRADE
VIC1,"2010/11/22 14:00:00",7550.74,25.21,TRADE
VIC1,"2010/11/22 14:30:00",7547.23,25.74,TRADE
VIC1,"2010/11/22 15:00:00",7570.05,26.69,TRADE
VIC1,"2010/11/22 15:30:00",7712.8,26.8,TRADE
VIC1,"2010/11/22 16:00:00",7751.54,27.43,TRADE
VIC1,"2010/11/22 16:30:00",7688.94,27.36,TRADE
VIC1,"2010/11/22 17:00:00",7654.66,26.63,TRADE
VIC1,"2010/11/22 17:30:00",7413.92,25.17,TRADE
VIC1,"2010/11/22 18:00:00",7207.24,24.24,TRADE
VIC1,"2010/11/22 18:30:00",6926.15,21,TRADE
VIC1,"2010/11/22 19:00:00",6745.93,20.85,TRADE
VIC1,"2010/11/22 19:30:00",6628.7,21.39,TRADE
VIC1,"2010/11/22 20:00:00",6568.88,20.84,TRADE
VIC1,"2010/11/22 20:30:00",6414.04,18.81,TRADE
VIC1,"2010/11/22 21:00:00",6189.81,16.03,TRADE
VIC1,"2010/11/22 21:30:00",5952.93,13.24,TRADE
VIC1,"2010/11/22 22:00:00",5623.23,12.22,TRADE
VIC1,"2010/11/22 22:30:00",5388.13,11.16,TRADE
VIC1,"2010/11/22 23:00:00",5203.61,10.69,TRADE
VIC1,"2010/11/22 23:30:00",5373.02,13.81,TRADE
VIC1,"2010/11/23 00:00:00",5185.18,9.76,TRADE
VIC1,"2010/11/23 00:30:00",4950.79,12.57,TRADE
VIC1,"2010/11/23 01:00:00",4851.53,11.72,TRADE
VIC1,"2010/11/23 01:30:00",5186.54,10.8,TRADE
VIC1,"2010/11/23 02:00:00",4991.24,9.48,TRADE
VIC1,"2010/11/23 02:30:00",4825.85,12.25,TRADE
VIC1,"2010/11/23 03:00:00",4712.58,12.43,TRADE
VIC1,"2010/11/23 03:30:00",4657.37,13.1,TRADE
VIC1,"2010/11/23 04:00:00",4664.95,15.58,TRADE
VIC1,"2010/11/23 04:30:00",4711.49,17.59,TRADE
VIC1,"2010/11/23 05:00:00",4872.1,18.97,TRADE
VIC1,"2010/11/23 05:30:00",5136.07,17.99,TRADE
VIC1,"2010/11/23 06:00:00",5482.38,19.81,TRADE
VIC1,"2010/11/23 06:30:00",5977.93,19.86,TRADE
VIC1,"2010/11/23 07:00:00",6326.89,21.43,TRADE
VIC1,"2010/11/23 07:30:00",6387.22,18.24,TRADE
VIC1,"2010/11/23 08:00:00",6599.85,18.59,TRADE
VIC1,"2010/11/23 08:30:00",6840.11,19.15,TRADE
VIC1,"2010/11/23 09:00:00",7041.86,22.33,TRADE
VIC1,"2010/11/23 09:30:00",7092.61,23.39,TRADE
VIC1,"2010/11/23 10:00:00",7220.39,23.52,TRADE
VIC1,"2010/11/23 10:30:00",7301.58,23.7,TRADE
VIC1,"2010/11/23 11:00:00",7362.58,23.92,TRADE
VIC1,"2010/11/23 11:30:00",7489.51,23.86,TRADE
VIC1,"2010/11/23 12:00:00",7541.87,24.13,TRADE
VIC1,"2010/11/23 12:30:00",7620.88,24.44,TRADE
VIC1,"2010/11/23 13:00:00",7722.05,25.35,TRADE
VIC1,"2010/11/23 13:30:00",7802.88,28.95,TRADE
VIC1,"2010/11/23 14:00:00",7875.18,28.03,TRADE
VIC1,"2010/11/23 14:30:00",7860.85,26.51,TRADE
VIC1,"2010/11/23 15:00:00",7956.23,26.93,TRADE
VIC1,"2010/11/23 15:30:00",8092.92,33.32,TRADE
VIC1,"2010/11/23 16:00:00",8143.04,29.76,TRADE
VIC1,"2010/11/23 16:30:00",8140.53,29.02,TRADE
VIC1,"2010/11/23 17:00:00",8000.27,25.79,TRADE
VIC1,"2010/11/23 17:30:00",7773.94,25.47,TRADE
VIC1,"2010/11/23 18:00:00",7581.59,24.57,TRADE
VIC1,"2010/11/23 18:30:00",7350.02,23.93,TRADE
VIC1,"2010/11/23 19:00:00",7132.37,23.33,TRADE
VIC1,"2010/11/23 19:30:00",6966.67,23.17,TRADE
VIC1,"2010/11/23 20:00:00",6935.26,24.58,TRADE
VIC1,"2010/11/23 20:30:00",6730.52,24.34,TRADE
VIC1,"2010/11/23 21:00:00",6478.21,21.99,TRADE
VIC1,"2010/11/23 21:30:00",6131.66,22.88,TRADE
VIC1,"2010/11/23 22:00:00",5775.36,20.1,TRADE
VIC1,"2010/11/23 22:30:00",5508.29,14.97,TRADE
VIC1,"2010/11/23 23:00:00",5357.09,16.69,TRADE
VIC1,"2010/11/23 23:30:00",5519.72,18.85,TRADE
VIC1,"2010/11/24 00:00:00",5312.12,14.92,TRADE
VIC1,"2010/11/24 00:30:00",5086.89,12.87,TRADE
VIC1,"2010/11/24 01:00:00",4993.86,17.03,TRADE
VIC1,"2010/11/24 01:30:00",5276.45,21.81,TRADE
VIC1,"2010/11/24 02:00:00",5099.12,16.52,TRADE
VIC1,"2010/11/24 02:30:00",4888.86,17.71,TRADE
VIC1,"2010/11/24 03:00:00",4777.48,17.14,TRADE
VIC1,"2010/11/24 03:30:00",4684.59,18.13,TRADE
VIC1,"2010/11/24 04:00:00",4706.91,17.9,TRADE
VIC1,"2010/11/24 04:30:00",4831.93,19.3,TRADE
VIC1,"2010/11/24 05:00:00",4952.07,18.15,TRADE
VIC1,"2010/11/24 05:30:00",5288.57,18.2,TRADE
VIC1,"2010/11/24 06:00:00",5606.5,19.53,TRADE
VIC1,"2010/11/24 06:30:00",6145.53,21.37,TRADE
VIC1,"2010/11/24 07:00:00",6493.49,23.99,TRADE
VIC1,"2010/11/24 07:30:00",6614.39,20.78,TRADE
VIC1,"2010/11/24 08:00:00",6757.16,23.5,TRADE
VIC1,"2010/11/24 08:30:00",7007.03,24.08,TRADE
VIC1,"2010/11/24 09:00:00",7047.64,22.99,TRADE
VIC1,"2010/11/24 09:30:00",7216.01,24.04,TRADE
VIC1,"2010/11/24 10:00:00",7296.22,24.47,TRADE
VIC1,"2010/11/24 10:30:00",7376.67,25.12,TRADE
VIC1,"2010/11/24 11:00:00",7327.07,23.52,TRADE
VIC1,"2010/11/24 11:30:00",7526.22,24.09,TRADE
VIC1,"2010/11/24 12:00:00",7543.74,23.94,TRADE
VIC1,"2010/11/24 12:30:00",7599.51,24.5,TRADE
VIC1,"2010/11/24 13:00:00",7616.88,24,TRADE
VIC1,"2010/11/24 13:30:00",7665.39,24.34,TRADE
VIC1,"2010/11/24 14:00:00",7597.19,24.2,TRADE
VIC1,"2010/11/24 14:30:00",7672.05,23.85,TRADE
VIC1,"2010/11/24 15:00:00",7704.18,24.12,TRADE
VIC1,"2010/11/24 15:30:00",7932.79,25.4,TRADE
VIC1,"2010/11/24 16:00:00",7972.5,24.8,TRADE
VIC1,"2010/11/24 16:30:00",7961.67,24.33,TRADE
VIC1,"2010/11/24 17:00:00",7838.23,24.28,TRADE
VIC1,"2010/11/24 17:30:00",7621.49,21.9,TRADE
VIC1,"2010/11/24 18:00:00",7449.76,20.58,TRADE
VIC1,"2010/11/24 18:30:00",7214.25,20.53,TRADE
VIC1,"2010/11/24 19:00:00",7075.02,23.42,TRADE
VIC1,"2010/11/24 19:30:00",6982.32,24.16,TRADE
VIC1,"2010/11/24 20:00:00",6895.96,23.54,TRADE
VIC1,"2010/11/24 20:30:00",6675.54,23.56,TRADE
VIC1,"2010/11/24 21:00:00",6414.97,22.52,TRADE
VIC1,"2010/11/24 21:30:00",6117.79,21.99,TRADE
VIC1,"2010/11/24 22:00:00",5847.77,21.69,TRADE
VIC1,"2010/11/24 22:30:00",5648.32,23.2,TRADE
VIC1,"2010/11/24 23:00:00",5500.37,22.08,TRADE
VIC1,"2010/11/24 23:30:00",5716.34,23.05,TRADE
VIC1,"2010/11/25 00:00:00",5526.5,21.63,TRADE
VIC1,"2010/11/25 00:30:00",5291.99,19.19,TRADE
VIC1,"2010/11/25 01:00:00",5192.76,18.57,TRADE
VIC1,"2010/11/25 01:30:00",5530.37,21.26,TRADE
VIC1,"2010/11/25 02:00:00",5281.98,13.14,TRADE
VIC1,"2010/11/25 02:30:00",5094.53,16.22,TRADE
VIC1,"2010/11/25 03:00:00",4937.89,12.55,TRADE
VIC1,"2010/11/25 03:30:00",4890.39,14.82,TRADE
VIC1,"2010/11/25 04:00:00",4857.16,12.49,TRADE
VIC1,"2010/11/25 04:30:00",4993.19,19.23,TRADE
VIC1,"2010/11/25 05:00:00",5145.85,20.63,TRADE
VIC1,"2010/11/25 05:30:00",5463.81,22.84,TRADE
VIC1,"2010/11/25 06:00:00",5789.98,23.01,TRADE
VIC1,"2010/11/25 06:30:00",6229.95,25.11,TRADE
VIC1,"2010/11/25 07:00:00",6520.08,29.5,TRADE
VIC1,"2010/11/25 07:30:00",6645.42,22.63,TRADE
VIC1,"2010/11/25 08:00:00",6717.09,24.95,TRADE
VIC1,"2010/11/25 08:30:00",6847.36,25.66,TRADE
VIC1,"2010/11/25 09:00:00",6914.33,24.54,TRADE
VIC1,"2010/11/25 09:30:00",6913.47,25.11,TRADE
VIC1,"2010/11/25 10:00:00",7001.32,26.8,TRADE
VIC1,"2010/11/25 10:30:00",7101.02,25.09,TRADE
VIC1,"2010/11/25 11:00:00",7108.74,25.23,TRADE
VIC1,"2010/11/25 11:30:00",7045.14,25.02,TRADE
VIC1,"2010/11/25 12:00:00",6948.8,24.21,TRADE
VIC1,"2010/11/25 12:30:00",6887.05,24.91,TRADE
VIC1,"2010/11/25 13:00:00",6903.89,24.31,TRADE
VIC1,"2010/11/25 13:30:00",6853.37,29.03,TRADE
VIC1,"2010/11/25 14:00:00",6814.47,28.98,TRADE
VIC1,"2010/11/25 14:30:00",6780.17,24.97,TRADE
VIC1,"2010/11/25 15:00:00",6713.97,23.22,TRADE
VIC1,"2010/11/25 15:30:00",6738.27,23.43,TRADE
VIC1,"2010/11/25 16:00:00",6722.14,23.71,TRADE
VIC1,"2010/11/25 16:30:00",6653.9,23.04,TRADE
VIC1,"2010/11/25 17:00:00",6618.98,23.16,TRADE
VIC1,"2010/11/25 17:30:00",6476.45,23.64,TRADE
VIC1,"2010/11/25 18:00:00",6366.84,23.65,TRADE
VIC1,"2010/11/25 18:30:00",6186.11,23.34,TRADE
VIC1,"2010/11/25 19:00:00",6099.36,23.34,TRADE
VIC1,"2010/11/25 19:30:00",6045.87,23.49,TRADE
VIC1,"2010/11/25 20:00:00",6084.61,23.95,TRADE
VIC1,"2010/11/25 20:30:00",5938.78,23.21,TRADE
VIC1,"2010/11/25 21:00:00",5766.16,22.22,TRADE
VIC1,"2010/11/25 21:30:00",5546.61,21.54,TRADE
VIC1,"2010/11/25 22:00:00",5362.51,18.68,TRADE
VIC1,"2010/11/25 22:30:00",5225.57,23.47,TRADE
VIC1,"2010/11/25 23:00:00",5141.74,21.78,TRADE
VIC1,"2010/11/25 23:30:00",5354.31,22.8,TRADE
VIC1,"2010/11/26 00:00:00",5193.31,21.67,TRADE
VIC1,"2010/11/26 00:30:00",5003.8,19.09,TRADE
VIC1,"2010/11/26 01:00:00",4866.16,18,TRADE
VIC1,"2010/11/26 01:30:00",5213.84,20.16,TRADE
VIC1,"2010/11/26 02:00:00",5052.98,18.05,TRADE
VIC1,"2010/11/26 02:30:00",4842.83,17.51,TRADE
VIC1,"2010/11/26 03:00:00",4708.1,16.78,TRADE
VIC1,"2010/11/26 03:30:00",4639.95,17.23,TRADE
VIC1,"2010/11/26 04:00:00",4657.91,17.83,TRADE
VIC1,"2010/11/26 04:30:00",4765,19.3,TRADE
VIC1,"2010/11/26 05:00:00",4934.56,20.63,TRADE
VIC1,"2010/11/26 05:30:00",5227.72,22.32,TRADE
VIC1,"2010/11/26 06:00:00",5511.9,22.6,TRADE
VIC1,"2010/11/26 06:30:00",5968.01,25.32,TRADE
VIC1,"2010/11/26 07:00:00",6325.84,30.05,TRADE
VIC1,"2010/11/26 07:30:00",6370.55,20.41,TRADE
VIC1,"2010/11/26 08:00:00",6413.36,23.28,TRADE
VIC1,"2010/11/26 08:30:00",6515,23.79,TRADE
VIC1,"2010/11/26 09:00:00",6540.97,24.76,TRADE
VIC1,"2010/11/26 09:30:00",6582.98,27.35,TRADE
VIC1,"2010/11/26 10:00:00",6638.19,24.4,TRADE
VIC1,"2010/11/26 10:30:00",6703.93,25.93,TRADE
VIC1,"2010/11/26 11:00:00",6779.09,30.39,TRADE
VIC1,"2010/11/26 11:30:00",6823.96,31.06,TRADE
VIC1,"2010/11/26 12:00:00",6844.31,31.94,TRADE
VIC1,"2010/11/26 12:30:00",6849.86,33.14,TRADE
VIC1,"2010/11/26 13:00:00",6861.24,33.23,TRADE
VIC1,"2010/11/26 13:30:00",6843.97,33.13,TRADE
VIC1,"2010/11/26 14:00:00",6835.99,32.19,TRADE
VIC1,"2010/11/26 14:30:00",6812.51,27.67,TRADE
VIC1,"2010/11/26 15:00:00",6828.4,30.4,TRADE
VIC1,"2010/11/26 15:30:00",6852.21,31.26,TRADE
VIC1,"2010/11/26 16:00:00",6828.7,30.61,TRADE
VIC1,"2010/11/26 16:30:00",6696.65,22.93,TRADE
VIC1,"2010/11/26 17:00:00",6576.68,22.63,TRADE
VIC1,"2010/11/26 17:30:00",6412.11,22.09,TRADE
VIC1,"2010/11/26 18:00:00",6247.19,22.18,TRADE
VIC1,"2010/11/26 18:30:00",6025.12,21.94,TRADE
VIC1,"2010/11/26 19:00:00",5991.85,21.87,TRADE
VIC1,"2010/11/26 19:30:00",5875.89,21.08,TRADE
VIC1,"2010/11/26 20:00:00",5821.33,21.09,TRADE
VIC1,"2010/11/26 20:30:00",5698.46,21,TRADE
VIC1,"2010/11/26 21:00:00",5556.56,20.1,TRADE
VIC1,"2010/11/26 21:30:00",5339.68,19.32,TRADE
VIC1,"2010/11/26 22:00:00",5114.45,17.99,TRADE
VIC1,"2010/11/26 22:30:00",5078.45,26.67,TRADE
VIC1,"2010/11/26 23:00:00",4965.16,19.5,TRADE
VIC1,"2010/11/26 23:30:00",5130,21.71,TRADE
VIC1,"2010/11/27 00:00:00",4995.79,20.84,TRADE
VIC1,"2010/11/27 00:30:00",4777.73,13.61,TRADE
VIC1,"2010/11/27 01:00:00",4601.67,14.67,TRADE
VIC1,"2010/11/27 01:30:00",4934.07,20.59,TRADE
VIC1,"2010/11/27 02:00:00",4745.06,14.92,TRADE
VIC1,"2010/11/27 02:30:00",4509.35,9.57,TRADE
VIC1,"2010/11/27 03:00:00",4410.94,9.32,TRADE
VIC1,"2010/11/27 03:30:00",4346.2,9.37,TRADE
VIC1,"2010/11/27 04:00:00",4298,9.11,TRADE
VIC1,"2010/11/27 04:30:00",4304.48,13.22,TRADE
VIC1,"2010/11/27 05:00:00",4377.6,91.32,TRADE
VIC1,"2010/11/27 05:30:00",4467.89,-40.15,TRADE
VIC1,"2010/11/27 06:00:00",4552.04,6.42,TRADE
VIC1,"2010/11/27 06:30:00",4725.84,13.61,TRADE
VIC1,"2010/11/27 07:00:00",4949.47,6.98,TRADE
VIC1,"2010/11/27 07:30:00",5043.72,11.46,TRADE
VIC1,"2010/11/27 08:00:00",5210.75,14.74,TRADE
VIC1,"2010/11/27 08:30:00",5444.5,17.96,TRADE
VIC1,"2010/11/27 09:00:00",5545.01,18.05,TRADE
VIC1,"2010/11/27 09:30:00",5645.38,18.74,TRADE
VIC1,"2010/11/27 10:00:00",5736.21,20.49,TRADE
VIC1,"2010/11/27 10:30:00",5778.99,16.98,TRADE
VIC1,"2010/11/27 11:00:00",5784.8,18.43,TRADE
VIC1,"2010/11/27 11:30:00",5758.49,17.9,TRADE
VIC1,"2010/11/27 12:00:00",5726.15,17.66,TRADE
VIC1,"2010/11/27 12:30:00",5567.77,13.78,TRADE
VIC1,"2010/11/27 13:00:00",5499.41,14.51,TRADE
VIC1,"2010/11/27 13:30:00",5462.67,14.14,TRADE
VIC1,"2010/11/27 14:00:00",5415.75,15.47,TRADE
VIC1,"2010/11/27 14:30:00",5393.76,12.01,TRADE
VIC1,"2010/11/27 15:00:00",5399.42,18.06,TRADE
VIC1,"2010/11/27 15:30:00",5455.35,13.32,TRADE
VIC1,"2010/11/27 16:00:00",5474.46,14.03,TRADE
VIC1,"2010/11/27 16:30:00",5470.7,12.86,TRADE
VIC1,"2010/11/27 17:00:00",5490.89,16.65,TRADE
VIC1,"2010/11/27 17:30:00",5515.69,18.28,TRADE
VIC1,"2010/11/27 18:00:00",5435.75,17.78,TRADE
VIC1,"2010/11/27 18:30:00",5313.98,18.31,TRADE
VIC1,"2010/11/27 19:00:00",5256.04,18.2,TRADE
VIC1,"2010/11/27 19:30:00",5208.37,17.99,TRADE
VIC1,"2010/11/27 20:00:00",5186.18,17.99,TRADE
VIC1,"2010/11/27 20:30:00",5088.93,16.86,TRADE
VIC1,"2010/11/27 21:00:00",5012.27,17.04,TRADE
VIC1,"2010/11/27 21:30:00",4859.08,13.25,TRADE
VIC1,"2010/11/27 22:00:00",4729.51,14.01,TRADE
VIC1,"2010/11/27 22:30:00",4680.68,13.93,TRADE
VIC1,"2010/11/27 23:00:00",4581.99,12.64,TRADE
VIC1,"2010/11/27 23:30:00",4774.06,16.8,TRADE
VIC1,"2010/11/28 00:00:00",4641.1,13.71,TRADE
VIC1,"2010/11/28 00:30:00",4419.06,13.47,TRADE
VIC1,"2010/11/28 01:00:00",4284.42,12.95,TRADE
VIC1,"2010/11/28 01:30:00",4573.62,16.19,TRADE
VIC1,"2010/11/28 02:00:00",4433.41,11.82,TRADE
VIC1,"2010/11/28 02:30:00",4249.43,8.74,TRADE
VIC1,"2010/11/28 03:00:00",4077.74,8.67,TRADE
VIC1,"2010/11/28 03:30:00",3947.94,6.58,TRADE
VIC1,"2010/11/28 04:00:00",3849.72,1.38,TRADE
VIC1,"2010/11/28 04:30:00",3828.6,4.92,TRADE
VIC1,"2010/11/28 05:00:00",3843.44,-107.77,TRADE
VIC1,"2010/11/28 05:30:00",3883.83,100.89,TRADE
VIC1,"2010/11/28 06:00:00",3894.84,115.13,TRADE
VIC1,"2010/11/28 06:30:00",4062.26,65.01,TRADE
VIC1,"2010/11/28 07:00:00",4248.8,-145.57,TRADE
VIC1,"2010/11/28 07:30:00",4323.52,11.66,TRADE
VIC1,"2010/11/28 08:00:00",4423.32,9.52,TRADE
VIC1,"2010/11/28 08:30:00",4642.77,9.8,TRADE
VIC1,"2010/11/28 09:00:00",4756.68,11.14,TRADE
VIC1,"2010/11/28 09:30:00",4823.79,9.17,TRADE
VIC1,"2010/11/28 10:00:00",4884.84,10.75,TRADE
VIC1,"2010/11/28 10:30:00",4959.32,12.31,TRADE
VIC1,"2010/11/28 11:00:00",4975.71,13.26,TRADE
VIC1,"2010/11/28 11:30:00",4984.38,17.26,TRADE
VIC1,"2010/11/28 12:00:00",4977.52,17.72,TRADE
VIC1,"2010/11/28 12:30:00",4908.62,15.87,TRADE
VIC1,"2010/11/28 13:00:00",4874.18,15.04,TRADE
VIC1,"2010/11/28 13:30:00",4858.37,11.04,TRADE
VIC1,"2010/11/28 14:00:00",4850.81,15.42,TRADE
VIC1,"2010/11/28 14:30:00",4862.74,17.88,TRADE
VIC1,"2010/11/28 15:00:00",4842.01,17,TRADE
VIC1,"2010/11/28 15:30:00",4917.99,17.3,TRADE
VIC1,"2010/11/28 16:00:00",4999.65,17.55,TRADE
VIC1,"2010/11/28 16:30:00",5054.56,16.24,TRADE
VIC1,"2010/11/28 17:00:00",5100.16,17.05,TRADE
VIC1,"2010/11/28 17:30:00",5109.69,15.49,TRADE
VIC1,"2010/11/28 18:00:00",5093.18,17.93,TRADE
VIC1,"2010/11/28 18:30:00",5076.93,17.8,TRADE
VIC1,"2010/11/28 19:00:00",5119.25,17.88,TRADE
VIC1,"2010/11/28 19:30:00",5179.22,18.01,TRADE
VIC1,"2010/11/28 20:00:00",5222.76,18.21,TRADE
VIC1,"2010/11/28 20:30:00",5164,18.08,TRADE
VIC1,"2010/11/28 21:00:00",5069.27,17.95,TRADE
VIC1,"2010/11/28 21:30:00",4898.91,17.88,TRADE
VIC1,"2010/11/28 22:00:00",4688.11,16.83,TRADE
VIC1,"2010/11/28 22:30:00",4533.15,14.33,TRADE
VIC1,"2010/11/28 23:00:00",4439.25,14.12,TRADE
VIC1,"2010/11/28 23:30:00",4694.1,16.66,TRADE
VIC1,"2010/11/29 00:00:00",4576.09,16.57,TRADE
VIC1,"2010/11/29 00:30:00",4434.23,15.02,TRADE
VIC1,"2010/11/29 01:00:00",4369.72,14.84,TRADE
VIC1,"2010/11/29 01:30:00",4669.25,17.33,TRADE
VIC1,"2010/11/29 02:00:00",4548.14,14.74,TRADE
VIC1,"2010/11/29 02:30:00",4384.65,14.1,TRADE
VIC1,"2010/11/29 03:00:00",4251.67,10.72,TRADE
VIC1,"2010/11/29 03:30:00",4207.99,11.59,TRADE
VIC1,"2010/11/29 04:00:00",4168.25,11.62,TRADE
VIC1,"2010/11/29 04:30:00",4265.81,16.49,TRADE
VIC1,"2010/11/29 05:00:00",4454.98,18.48,TRADE
VIC1,"2010/11/29 05:30:00",4798.39,21.6,TRADE
VIC1,"2010/11/29 06:00:00",5157.95,18.54,TRADE
VIC1,"2010/11/29 06:30:00",5687.54,22.58,TRADE
VIC1,"2010/11/29 07:00:00",5997.02,24.69,TRADE
VIC1,"2010/11/29 07:30:00",6031.04,19.93,TRADE
VIC1,"2010/11/29 08:00:00",6035.64,21.34,TRADE
VIC1,"2010/11/29 08:30:00",6085.19,21.52,TRADE
VIC1,"2010/11/29 09:00:00",6101.09,19.01,TRADE
VIC1,"2010/11/29 09:30:00",6086.16,18.69,TRADE
VIC1,"2010/11/29 10:00:00",6118.59,18.6,TRADE
VIC1,"2010/11/29 10:30:00",6148.81,18.55,TRADE
VIC1,"2010/11/29 11:00:00",6148.92,18.58,TRADE
VIC1,"2010/11/29 11:30:00",6137.75,18.58,TRADE
VIC1,"2010/11/29 12:00:00",6112.98,18.15,TRADE
VIC1,"2010/11/29 12:30:00",6111.06,18.03,TRADE
VIC1,"2010/11/29 13:00:00",6084.75,17.98,TRADE
VIC1,"2010/11/29 13:30:00",6008.58,14.43,TRADE
VIC1,"2010/11/29 14:00:00",6066.83,13.78,TRADE
VIC1,"2010/11/29 14:30:00",6045.88,13.41,TRADE
VIC1,"2010/11/29 15:00:00",6053.19,16.59,TRADE
VIC1,"2010/11/29 15:30:00",6070.4,11.18,TRADE
VIC1,"2010/11/29 16:00:00",6045.62,12.58,TRADE
VIC1,"2010/11/29 16:30:00",5972.6,12.25,TRADE
VIC1,"2010/11/29 17:00:00",5958.57,17.06,TRADE
VIC1,"2010/11/29 17:30:00",5810.71,11.23,TRADE
VIC1,"2010/11/29 18:00:00",5655.86,9.36,TRADE
VIC1,"2010/11/29 18:30:00",5491.44,10.11,TRADE
VIC1,"2010/11/29 19:00:00",5405.44,9.37,TRADE
VIC1,"2010/11/29 19:30:00",5359.61,17.93,TRADE
VIC1,"2010/11/29 20:00:00",5495.34,17.93,TRADE
VIC1,"2010/11/29 20:30:00",5478.62,17.48,TRADE
VIC1,"2010/11/29 21:00:00",5329.28,16.2,TRADE
VIC1,"2010/11/29 21:30:00",5101.77,13.78,TRADE
VIC1,"2010/11/29 22:00:00",4853.36,9.92,TRADE
VIC1,"2010/11/29 22:30:00",4716.09,17.3,TRADE
VIC1,"2010/11/29 23:00:00",4668.74,14.19,TRADE
VIC1,"2010/11/29 23:30:00",4913.82,17.28,TRADE
VIC1,"2010/11/30 00:00:00",4830.78,17.33,TRADE
VIC1,"2010/11/30 00:30:00",4655.56,17.76,TRADE
VIC1,"2010/11/30 01:00:00",4510.32,16.84,TRADE
VIC1,"2010/11/30 01:30:00",4851.78,18.41,TRADE
VIC1,"2010/11/30 02:00:00",4699.87,13.93,TRADE
VIC1,"2010/11/30 02:30:00",4496.35,12.91,TRADE
VIC1,"2010/11/30 03:00:00",4367.41,11.87,TRADE
VIC1,"2010/11/30 03:30:00",4303.87,12.24,TRADE
VIC1,"2010/11/30 04:00:00",4299.14,16.03,TRADE
VIC1,"2010/11/30 04:30:00",4398.7,17.52,TRADE
VIC1,"2010/11/30 05:00:00",4573.23,18.77,TRADE
VIC1,"2010/11/30 05:30:00",4907.47,21.73,TRADE
VIC1,"2010/11/30 06:00:00",5251.31,22.02,TRADE
VIC1,"2010/11/30 06:30:00",5756.41,19.24,TRADE
VIC1,"2010/11/30 07:00:00",6121.92,22.32,TRADE
VIC1,"2010/11/30 07:30:00",6061.46,18.86,TRADE
VIC1,"2010/11/30 08:00:00",6054.75,19.33,TRADE
VIC1,"2010/11/30 08:30:00",6135.52,20.28,TRADE
VIC1,"2010/11/30 09:00:00",6153.41,20.24,TRADE
VIC1,"2010/11/30 09:30:00",6191.08,18.49,TRADE
VIC1,"2010/11/30 10:00:00",6231.23,18.66,TRADE
VIC1,"2010/11/30 10:30:00",6263.17,18.29,TRADE
VIC1,"2010/11/30 11:00:00",6279.81,18.38,TRADE
VIC1,"2010/11/30 11:30:00",6325.77,18.52,TRADE
VIC1,"2010/11/30 12:00:00",6338.29,18.33,TRADE
VIC1,"2010/11/30 12:30:00",6333.99,18.08,TRADE
VIC1,"2010/11/30 13:00:00",6385.65,18.7,TRADE
VIC1,"2010/11/30 13:30:00",6369.1,18.1,TRADE
VIC1,"2010/11/30 14:00:00",6383.17,17.6,TRADE
VIC1,"2010/11/30 14:30:00",6344.85,16.5,TRADE
VIC1,"2010/11/30 15:00:00",6331.76,15.49,TRADE
VIC1,"2010/11/30 15:30:00",6387.09,17.24,TRADE
VIC1,"2010/11/30 16:00:00",6362.23,17.25,TRADE
VIC1,"2010/11/30 16:30:00",6287.46,17.5,TRADE
VIC1,"2010/11/30 17:00:00",6175.88,17.19,TRADE
VIC1,"2010/11/30 17:30:00",5971.33,15.64,TRADE
VIC1,"2010/11/30 18:00:00",5822.6,12.56,TRADE
VIC1,"2010/11/30 18:30:00",5680.68,17.6,TRADE
VIC1,"2010/11/30 19:00:00",5596.92,16.78,TRADE
VIC1,"2010/11/30 19:30:00",5544.3,15.88,TRADE
VIC1,"2010/11/30 20:00:00",5611.6,17.33,TRADE
VIC1,"2010/11/30 20:30:00",5590.27,17.52,TRADE
VIC1,"2010/11/30 21:00:00",5454.85,15.93,TRADE
VIC1,"2010/11/30 21:30:00",5225.62,12,TRADE
VIC1,"2010/11/30 22:00:00",5009.27,12.45,TRADE
VIC1,"2010/11/30 22:30:00",4886.52,17.7,TRADE
VIC1,"2010/11/30 23:00:00",4820.56,17.57,TRADE
VIC1,"2010/11/30 23:30:00",5017.24,18.17,TRADE
VIC1,"2010/12/01 00:00:00",4946.55,17.96,TRADE
