REGION,SETTLEMENTDATE,TOTALDEMAND,RRP,PERIODTYPE
SNOWY1,"2008/05/01 00:30:00",38.15,49.2,TRADE
SNOWY1,"2008/05/01 01:00:00",46.06,38.7,TRADE
SNOWY1,"2008/05/01 01:30:00",45.87,35.33,TRADE
SNOWY1,"2008/05/01 02:00:00",48.22,32.07,TRADE
SNOWY1,"2008/05/01 02:30:00",49.1,31.06,TRADE
SNOWY1,"2008/05/01 03:00:00",51.41,31.27,TRADE
SNOWY1,"2008/05/01 03:30:00",81.14,28.33,TRADE
SNOWY1,"2008/05/01 04:00:00",116.26,23.75,TRADE
SNOWY1,"2008/05/01 04:30:00",111.35,22.79,TRADE
SNOWY1,"2008/05/01 05:00:00",115.91,24.5,TRADE
SNOWY1,"2008/05/01 05:30:00",115.42,29.49,TRADE
SNOWY1,"2008/05/01 06:00:00",101.26,30.89,TRADE
SNOWY1,"2008/05/01 06:30:00",56.87,43.34,TRADE
SNOWY1,"2008/05/01 07:00:00",43.21,63.33,TRADE
SNOWY1,"2008/05/01 07:30:00",45.01,51.94,TRADE
SNOWY1,"2008/05/01 08:00:00",49,64.86,TRADE
SNOWY1,"2008/05/01 08:30:00",55.39,68.37,TRADE
SNOWY1,"2008/05/01 09:00:00",51.17,49.49,TRADE
SNOWY1,"2008/05/01 09:30:00",36.39,46.61,TRADE
SNOWY1,"2008/05/01 10:00:00",43.18,45,TRADE
SNOWY1,"2008/05/01 10:30:00",35.48,44.78,TRADE
SNOWY1,"2008/05/01 11:00:00",36.77,44.34,TRADE
SNOWY1,"2008/05/01 11:30:00",38.25,43.18,TRADE
SNOWY1,"2008/05/01 12:00:00",42.06,44.2,TRADE
SNOWY1,"2008/05/01 12:30:00",40.18,42.35,TRADE
SNOWY1,"2008/05/01 13:00:00",36.22,36.9,TRADE
SNOWY1,"2008/05/01 13:30:00",41.89,36.59,TRADE
SNOWY1,"2008/05/01 14:00:00",43.66,36.56,TRADE
SNOWY1,"2008/05/01 14:30:00",52.15,40.62,TRADE
SNOWY1,"2008/05/01 15:00:00",42.73,35.8,TRADE
SNOWY1,"2008/05/01 15:30:00",45.2,35.91,TRADE
SNOWY1,"2008/05/01 16:00:00",42,38.4,TRADE
SNOWY1,"2008/05/01 16:30:00",41.87,52.8,TRADE
SNOWY1,"2008/05/01 17:00:00",30.29,74.54,TRADE
SNOWY1,"2008/05/01 17:30:00",52.66,83.37,TRADE
SNOWY1,"2008/05/01 18:00:00",37.51,98.35,TRADE
SNOWY1,"2008/05/01 18:30:00",45.19,98.64,TRADE
SNOWY1,"2008/05/01 19:00:00",53.23,89.16,TRADE
SNOWY1,"2008/05/01 19:30:00",53.7,84.17,TRADE
SNOWY1,"2008/05/01 20:00:00",42.87,86.45,TRADE
SNOWY1,"2008/05/01 20:30:00",51.58,79.53,TRADE
SNOWY1,"2008/05/01 21:00:00",40.97,62.62,TRADE
SNOWY1,"2008/05/01 21:30:00",41.5,39.86,TRADE
SNOWY1,"2008/05/01 22:00:00",39.42,30.79,TRADE
SNOWY1,"2008/05/01 22:30:00",46.62,62.68,TRADE
SNOWY1,"2008/05/01 23:00:00",42.72,42.93,TRADE
SNOWY1,"2008/05/01 23:30:00",37.01,36.73,TRADE
SNOWY1,"2008/05/02 00:00:00",46.39,33.78,TRADE
SNOWY1,"2008/05/02 00:30:00",42.82,30.9,TRADE
SNOWY1,"2008/05/02 01:00:00",43.65,31.19,TRADE
SNOWY1,"2008/05/02 01:30:00",44.14,30.8,TRADE
SNOWY1,"2008/05/02 02:00:00",49.32,30.98,TRADE
SNOWY1,"2008/05/02 02:30:00",44.11,31,TRADE
SNOWY1,"2008/05/02 03:00:00",51.74,33.7,TRADE
SNOWY1,"2008/05/02 03:30:00",91.4,33.58,TRADE
SNOWY1,"2008/05/02 04:00:00",108.47,30.62,TRADE
SNOWY1,"2008/05/02 04:30:00",91.92,30.87,TRADE
SNOWY1,"2008/05/02 05:00:00",76.84,31.4,TRADE
SNOWY1,"2008/05/02 05:30:00",77.53,36.28,TRADE
SNOWY1,"2008/05/02 06:00:00",83.05,34.97,TRADE
SNOWY1,"2008/05/02 06:30:00",58.69,38.98,TRADE
SNOWY1,"2008/05/02 07:00:00",45.88,55.04,TRADE
SNOWY1,"2008/05/02 07:30:00",54.2,43.21,TRADE
SNOWY1,"2008/05/02 08:00:00",46.43,61.5,TRADE
SNOWY1,"2008/05/02 08:30:00",50.47,44.99,TRADE
SNOWY1,"2008/05/02 09:00:00",43.21,40.06,TRADE
SNOWY1,"2008/05/02 09:30:00",41.91,42.88,TRADE
SNOWY1,"2008/05/02 10:00:00",40.17,42.01,TRADE
SNOWY1,"2008/05/02 10:30:00",39.21,44.67,TRADE
SNOWY1,"2008/05/02 11:00:00",44.2,45,TRADE
SNOWY1,"2008/05/02 11:30:00",43.56,45,TRADE
SNOWY1,"2008/05/02 12:00:00",38.86,45,TRADE
SNOWY1,"2008/05/02 12:30:00",31.55,44.51,TRADE
SNOWY1,"2008/05/02 13:00:00",39.21,43.85,TRADE
SNOWY1,"2008/05/02 13:30:00",39.67,43.31,TRADE
SNOWY1,"2008/05/02 14:00:00",48.59,39.2,TRADE
SNOWY1,"2008/05/02 14:30:00",30.9,34.93,TRADE
SNOWY1,"2008/05/02 15:00:00",45.04,30.95,TRADE
SNOWY1,"2008/05/02 15:30:00",42.67,30.74,TRADE
SNOWY1,"2008/05/02 16:00:00",40.64,30.65,TRADE
SNOWY1,"2008/05/02 16:30:00",51.19,34.11,TRADE
SNOWY1,"2008/05/02 17:00:00",37.76,31,TRADE
SNOWY1,"2008/05/02 17:30:00",32.47,40.49,TRADE
SNOWY1,"2008/05/02 18:00:00",35.93,70.65,TRADE
SNOWY1,"2008/05/02 18:30:00",42.96,62.65,TRADE
SNOWY1,"2008/05/02 19:00:00",46.73,54.82,TRADE
SNOWY1,"2008/05/02 19:30:00",48.84,53.29,TRADE
SNOWY1,"2008/05/02 20:00:00",37.9,47.24,TRADE
SNOWY1,"2008/05/02 20:30:00",32.01,59.43,TRADE
SNOWY1,"2008/05/02 21:00:00",39.96,64.07,TRADE
SNOWY1,"2008/05/02 21:30:00",45.09,55.73,TRADE
SNOWY1,"2008/05/02 22:00:00",50.8,39.51,TRADE
SNOWY1,"2008/05/02 22:30:00",52.06,64.8,TRADE
SNOWY1,"2008/05/02 23:00:00",53.48,53.31,TRADE
SNOWY1,"2008/05/02 23:30:00",46,75.39,TRADE
SNOWY1,"2008/05/03 00:00:00",54.74,56.71,TRADE
SNOWY1,"2008/05/03 00:30:00",48.96,51.48,TRADE
SNOWY1,"2008/05/03 01:00:00",57.27,42.1,TRADE
SNOWY1,"2008/05/03 01:30:00",53.76,51.1,TRADE
SNOWY1,"2008/05/03 02:00:00",54.14,38.35,TRADE
SNOWY1,"2008/05/03 02:30:00",50.25,37.72,TRADE
SNOWY1,"2008/05/03 03:00:00",53.87,31.6,TRADE
SNOWY1,"2008/05/03 03:30:00",63.43,32.76,TRADE
SNOWY1,"2008/05/03 04:00:00",115.24,36.75,TRADE
SNOWY1,"2008/05/03 04:30:00",132.08,35.22,TRADE
SNOWY1,"2008/05/03 05:00:00",130.04,35.03,TRADE
SNOWY1,"2008/05/03 05:30:00",129.46,35.55,TRADE
SNOWY1,"2008/05/03 06:00:00",119.29,39.53,TRADE
SNOWY1,"2008/05/03 06:30:00",73.84,33.7,TRADE
SNOWY1,"2008/05/03 07:00:00",64.13,31.81,TRADE
SNOWY1,"2008/05/03 07:30:00",60.37,33.77,TRADE
SNOWY1,"2008/05/03 08:00:00",55.55,43.67,TRADE
SNOWY1,"2008/05/03 08:30:00",61.82,58.05,TRADE
SNOWY1,"2008/05/03 09:00:00",61.42,63.09,TRADE
SNOWY1,"2008/05/03 09:30:00",57.72,66.78,TRADE
SNOWY1,"2008/05/03 10:00:00",62.47,64.31,TRADE
SNOWY1,"2008/05/03 10:30:00",54.45,59.44,TRADE
SNOWY1,"2008/05/03 11:00:00",59.59,51.43,TRADE
SNOWY1,"2008/05/03 11:30:00",55.89,50.8,TRADE
SNOWY1,"2008/05/03 12:00:00",55.46,45.41,TRADE
SNOWY1,"2008/05/03 12:30:00",57.09,36.99,TRADE
SNOWY1,"2008/05/03 13:00:00",52.26,35.06,TRADE
SNOWY1,"2008/05/03 13:30:00",52.29,33.05,TRADE
SNOWY1,"2008/05/03 14:00:00",52.96,32.15,TRADE
SNOWY1,"2008/05/03 14:30:00",50.01,31.44,TRADE
SNOWY1,"2008/05/03 15:00:00",55.73,30.84,TRADE
SNOWY1,"2008/05/03 15:30:00",50.54,31.02,TRADE
SNOWY1,"2008/05/03 16:00:00",56.75,31.26,TRADE
SNOWY1,"2008/05/03 16:30:00",57.14,33.45,TRADE
SNOWY1,"2008/05/03 17:00:00",47.91,38.23,TRADE
SNOWY1,"2008/05/03 17:30:00",39.04,42.6,TRADE
SNOWY1,"2008/05/03 18:00:00",49.29,60.19,TRADE
SNOWY1,"2008/05/03 18:30:00",57.54,67.2,TRADE
SNOWY1,"2008/05/03 19:00:00",48.82,61.71,TRADE
SNOWY1,"2008/05/03 19:30:00",47.23,48.36,TRADE
SNOWY1,"2008/05/03 20:00:00",47.91,49.14,TRADE
SNOWY1,"2008/05/03 20:30:00",41.69,44.75,TRADE
SNOWY1,"2008/05/03 21:00:00",46.91,44.23,TRADE
SNOWY1,"2008/05/03 21:30:00",46.09,38.81,TRADE
SNOWY1,"2008/05/03 22:00:00",46.05,36.62,TRADE
SNOWY1,"2008/05/03 22:30:00",50.36,46.34,TRADE
SNOWY1,"2008/05/03 23:00:00",53.94,39.97,TRADE
SNOWY1,"2008/05/03 23:30:00",49.45,44.66,TRADE
SNOWY1,"2008/05/04 00:00:00",49.35,45.1,TRADE
SNOWY1,"2008/05/04 00:30:00",44.83,39.21,TRADE
SNOWY1,"2008/05/04 01:00:00",44.95,34.04,TRADE
SNOWY1,"2008/05/04 01:30:00",51.26,32.38,TRADE
SNOWY1,"2008/05/04 02:00:00",49.02,31.09,TRADE
SNOWY1,"2008/05/04 02:30:00",47.1,30.09,TRADE
SNOWY1,"2008/05/04 03:00:00",84.88,30.57,TRADE
SNOWY1,"2008/05/04 03:30:00",122.08,29.9,TRADE
SNOWY1,"2008/05/04 04:00:00",123.1,29.39,TRADE
SNOWY1,"2008/05/04 04:30:00",117.95,29.55,TRADE
SNOWY1,"2008/05/04 05:00:00",117.32,29.78,TRADE
SNOWY1,"2008/05/04 05:30:00",113.53,28.44,TRADE
SNOWY1,"2008/05/04 06:00:00",115.05,28.86,TRADE
SNOWY1,"2008/05/04 06:30:00",108.98,28.8,TRADE
SNOWY1,"2008/05/04 07:00:00",76.02,29.51,TRADE
SNOWY1,"2008/05/04 07:30:00",78.86,29.23,TRADE
SNOWY1,"2008/05/04 08:00:00",86.21,31.57,TRADE
SNOWY1,"2008/05/04 08:30:00",51.77,33.63,TRADE
SNOWY1,"2008/05/04 09:00:00",54.17,35.5,TRADE
SNOWY1,"2008/05/04 09:30:00",51.84,37.06,TRADE
SNOWY1,"2008/05/04 10:00:00",53.68,37.38,TRADE
SNOWY1,"2008/05/04 10:30:00",55.51,37.45,TRADE
SNOWY1,"2008/05/04 11:00:00",58.56,35.74,TRADE
SNOWY1,"2008/05/04 11:30:00",65.45,33.59,TRADE
SNOWY1,"2008/05/04 12:00:00",56.06,33.08,TRADE
SNOWY1,"2008/05/04 12:30:00",58.07,32.6,TRADE
SNOWY1,"2008/05/04 13:00:00",59.75,32.13,TRADE
SNOWY1,"2008/05/04 13:30:00",55.34,31.33,TRADE
SNOWY1,"2008/05/04 14:00:00",64.63,30.59,TRADE
SNOWY1,"2008/05/04 14:30:00",62.16,30.51,TRADE
SNOWY1,"2008/05/04 15:00:00",85.45,30.16,TRADE
SNOWY1,"2008/05/04 15:30:00",94.37,30.47,TRADE
SNOWY1,"2008/05/04 16:00:00",78.35,28.56,TRADE
SNOWY1,"2008/05/04 16:30:00",81.26,29.69,TRADE
SNOWY1,"2008/05/04 17:00:00",42.42,34.26,TRADE
SNOWY1,"2008/05/04 17:30:00",47.05,39.59,TRADE
SNOWY1,"2008/05/04 18:00:00",34.38,67.89,TRADE
SNOWY1,"2008/05/04 18:30:00",49.47,90.69,TRADE
SNOWY1,"2008/05/04 19:00:00",47.13,83.02,TRADE
SNOWY1,"2008/05/04 19:30:00",40.23,57.85,TRADE
SNOWY1,"2008/05/04 20:00:00",41.78,70.86,TRADE
SNOWY1,"2008/05/04 20:30:00",39.69,56.59,TRADE
SNOWY1,"2008/05/04 21:00:00",43.26,45.92,TRADE
SNOWY1,"2008/05/04 21:30:00",43.35,42.62,TRADE
SNOWY1,"2008/05/04 22:00:00",38.01,35.96,TRADE
SNOWY1,"2008/05/04 22:30:00",40.97,42.16,TRADE
SNOWY1,"2008/05/04 23:00:00",36.59,35.86,TRADE
SNOWY1,"2008/05/04 23:30:00",37.86,40.13,TRADE
SNOWY1,"2008/05/05 00:00:00",43.08,35.67,TRADE
SNOWY1,"2008/05/05 00:30:00",47.2,31.5,TRADE
SNOWY1,"2008/05/05 01:00:00",51.99,30.63,TRADE
SNOWY1,"2008/05/05 01:30:00",50.41,36.52,TRADE
SNOWY1,"2008/05/05 02:00:00",48.75,31.33,TRADE
SNOWY1,"2008/05/05 02:30:00",47.22,30.28,TRADE
SNOWY1,"2008/05/05 03:00:00",46.07,29.68,TRADE
SNOWY1,"2008/05/05 03:30:00",54.88,30.05,TRADE
SNOWY1,"2008/05/05 04:00:00",75.3,28.74,TRADE
SNOWY1,"2008/05/05 04:30:00",102.56,25.26,TRADE
SNOWY1,"2008/05/05 05:00:00",110.16,26.44,TRADE
SNOWY1,"2008/05/05 05:30:00",74.98,29.43,TRADE
SNOWY1,"2008/05/05 06:00:00",44.95,28.65,TRADE
SNOWY1,"2008/05/05 06:30:00",42.78,35.94,TRADE
SNOWY1,"2008/05/05 07:00:00",47.23,57.64,TRADE
SNOWY1,"2008/05/05 07:30:00",38.95,39.49,TRADE
SNOWY1,"2008/05/05 08:00:00",45.03,37.68,TRADE
SNOWY1,"2008/05/05 08:30:00",47.31,36.74,TRADE
SNOWY1,"2008/05/05 09:00:00",45.48,36.5,TRADE
SNOWY1,"2008/05/05 09:30:00",42.82,36.5,TRADE
SNOWY1,"2008/05/05 10:00:00",53.62,36.5,TRADE
SNOWY1,"2008/05/05 10:30:00",46.55,36.48,TRADE
SNOWY1,"2008/05/05 11:00:00",39.92,36.47,TRADE
SNOWY1,"2008/05/05 11:30:00",47.31,36.5,TRADE
SNOWY1,"2008/05/05 12:00:00",36.68,36.19,TRADE
SNOWY1,"2008/05/05 12:30:00",47.28,35.33,TRADE
SNOWY1,"2008/05/05 13:00:00",38.55,34.79,TRADE
SNOWY1,"2008/05/05 13:30:00",35.97,34.51,TRADE
SNOWY1,"2008/05/05 14:00:00",32.47,34.14,TRADE
SNOWY1,"2008/05/05 14:30:00",43.51,34.55,TRADE
SNOWY1,"2008/05/05 15:00:00",33.85,34.54,TRADE
SNOWY1,"2008/05/05 15:30:00",38.33,34.65,TRADE
SNOWY1,"2008/05/05 16:00:00",32.54,34.65,TRADE
SNOWY1,"2008/05/05 16:30:00",33.28,34.65,TRADE
SNOWY1,"2008/05/05 17:00:00",38.1,34.65,TRADE
SNOWY1,"2008/05/05 17:30:00",40.8,43.71,TRADE
SNOWY1,"2008/05/05 18:00:00",40.02,82.48,TRADE
SNOWY1,"2008/05/05 18:30:00",49.22,87.44,TRADE
SNOWY1,"2008/05/05 19:00:00",54.32,70.7,TRADE
SNOWY1,"2008/05/05 19:30:00",35.36,52.5,TRADE
SNOWY1,"2008/05/05 20:00:00",28.81,63.41,TRADE
SNOWY1,"2008/05/05 20:30:00",34.23,48.93,TRADE
SNOWY1,"2008/05/05 21:00:00",43.36,45.14,TRADE
SNOWY1,"2008/05/05 21:30:00",43.92,50.04,TRADE
SNOWY1,"2008/05/05 22:00:00",38.08,41.19,TRADE
SNOWY1,"2008/05/05 22:30:00",41.75,51.42,TRADE
SNOWY1,"2008/05/05 23:00:00",47.64,42.88,TRADE
SNOWY1,"2008/05/05 23:30:00",39.4,49.9,TRADE
SNOWY1,"2008/05/06 00:00:00",36.08,42.52,TRADE
SNOWY1,"2008/05/06 00:30:00",38.92,37.4,TRADE
SNOWY1,"2008/05/06 01:00:00",39.99,33.52,TRADE
SNOWY1,"2008/05/06 01:30:00",37.49,33.39,TRADE
SNOWY1,"2008/05/06 02:00:00",50.8,33.41,TRADE
SNOWY1,"2008/05/06 02:30:00",44.52,30.06,TRADE
SNOWY1,"2008/05/06 03:00:00",38.13,30.3,TRADE
SNOWY1,"2008/05/06 03:30:00",77.39,27.87,TRADE
SNOWY1,"2008/05/06 04:00:00",103.61,28.9,TRADE
SNOWY1,"2008/05/06 04:30:00",110.09,28.61,TRADE
SNOWY1,"2008/05/06 05:00:00",105.21,29.73,TRADE
SNOWY1,"2008/05/06 05:30:00",66.15,30.68,TRADE
SNOWY1,"2008/05/06 06:00:00",31.03,32.93,TRADE
SNOWY1,"2008/05/06 06:30:00",33.33,48.83,TRADE
SNOWY1,"2008/05/06 07:00:00",39.96,67.8,TRADE
SNOWY1,"2008/05/06 07:30:00",44.12,42.91,TRADE
SNOWY1,"2008/05/06 08:00:00",48.19,45,TRADE
SNOWY1,"2008/05/06 08:30:00",40.99,44.57,TRADE
SNOWY1,"2008/05/06 09:00:00",31.7,43.72,TRADE
SNOWY1,"2008/05/06 09:30:00",36.51,45,TRADE
SNOWY1,"2008/05/06 10:00:00",32.13,45,TRADE
SNOWY1,"2008/05/06 10:30:00",37.39,44.68,TRADE
SNOWY1,"2008/05/06 11:00:00",35.09,45,TRADE
SNOWY1,"2008/05/06 11:30:00",38.87,42.11,TRADE
SNOWY1,"2008/05/06 12:00:00",30.44,39.39,TRADE
SNOWY1,"2008/05/06 12:30:00",39.79,36.5,TRADE
SNOWY1,"2008/05/06 13:00:00",35.38,36.29,TRADE
SNOWY1,"2008/05/06 13:30:00",27.07,36.37,TRADE
SNOWY1,"2008/05/06 14:00:00",40.08,36.19,TRADE
SNOWY1,"2008/05/06 14:30:00",37.78,36.4,TRADE
SNOWY1,"2008/05/06 15:00:00",34.8,36.47,TRADE
SNOWY1,"2008/05/06 15:30:00",37.33,36.45,TRADE
SNOWY1,"2008/05/06 16:00:00",44.1,36.5,TRADE
SNOWY1,"2008/05/06 16:30:00",38.46,35.74,TRADE
SNOWY1,"2008/05/06 17:00:00",35.42,37.56,TRADE
SNOWY1,"2008/05/06 17:30:00",40.74,52.78,TRADE
SNOWY1,"2008/05/06 18:00:00",41.25,88.12,TRADE
SNOWY1,"2008/05/06 18:30:00",51.6,80.68,TRADE
SNOWY1,"2008/05/06 19:00:00",42.92,67.82,TRADE
SNOWY1,"2008/05/06 19:30:00",37.82,47.46,TRADE
SNOWY1,"2008/05/06 20:00:00",38.42,45,TRADE
SNOWY1,"2008/05/06 20:30:00",36.89,46.7,TRADE
SNOWY1,"2008/05/06 21:00:00",44.77,44.78,TRADE
SNOWY1,"2008/05/06 21:30:00",44.92,44.82,TRADE
SNOWY1,"2008/05/06 22:00:00",37.52,40.28,TRADE
SNOWY1,"2008/05/06 22:30:00",43.59,50.8,TRADE
SNOWY1,"2008/05/06 23:00:00",42.9,45.46,TRADE
SNOWY1,"2008/05/06 23:30:00",40.42,52.31,TRADE
SNOWY1,"2008/05/07 00:00:00",47.71,42.85,TRADE
SNOWY1,"2008/05/07 00:30:00",48.63,37.93,TRADE
SNOWY1,"2008/05/07 01:00:00",44.66,37.01,TRADE
SNOWY1,"2008/05/07 01:30:00",43.58,34.3,TRADE
SNOWY1,"2008/05/07 02:00:00",48.48,30.77,TRADE
SNOWY1,"2008/05/07 02:30:00",110.98,29.52,TRADE
SNOWY1,"2008/05/07 03:00:00",106.85,29.16,TRADE
SNOWY1,"2008/05/07 03:30:00",108.95,29.34,TRADE
SNOWY1,"2008/05/07 04:00:00",106.73,29.78,TRADE
SNOWY1,"2008/05/07 04:30:00",117.74,29.43,TRADE
SNOWY1,"2008/05/07 05:00:00",114.17,29.45,TRADE
SNOWY1,"2008/05/07 05:30:00",113.14,29.6,TRADE
SNOWY1,"2008/05/07 06:00:00",85.37,31.27,TRADE
SNOWY1,"2008/05/07 06:30:00",44.72,39.54,TRADE
SNOWY1,"2008/05/07 07:00:00",42.41,57.05,TRADE
SNOWY1,"2008/05/07 07:30:00",45.68,39.46,TRADE
SNOWY1,"2008/05/07 08:00:00",41,36.04,TRADE
SNOWY1,"2008/05/07 08:30:00",46.96,35.09,TRADE
SNOWY1,"2008/05/07 09:00:00",42.76,34.65,TRADE
SNOWY1,"2008/05/07 09:30:00",37.4,34.65,TRADE
SNOWY1,"2008/05/07 10:00:00",39.12,35.29,TRADE
SNOWY1,"2008/05/07 10:30:00",43.42,36.19,TRADE
SNOWY1,"2008/05/07 11:00:00",41.37,34.66,TRADE
SNOWY1,"2008/05/07 11:30:00",44.23,34.67,TRADE
SNOWY1,"2008/05/07 12:00:00",41.82,35.66,TRADE
SNOWY1,"2008/05/07 12:30:00",36.34,36.5,TRADE
SNOWY1,"2008/05/07 13:00:00",43.58,36.5,TRADE
SNOWY1,"2008/05/07 13:30:00",48.19,36.5,TRADE
SNOWY1,"2008/05/07 14:00:00",43.99,35.61,TRADE
SNOWY1,"2008/05/07 14:30:00",34.57,36.25,TRADE
SNOWY1,"2008/05/07 15:00:00",46.92,35.73,TRADE
SNOWY1,"2008/05/07 15:30:00",48.45,36.48,TRADE
SNOWY1,"2008/05/07 16:00:00",51.84,36.48,TRADE
SNOWY1,"2008/05/07 16:30:00",60.73,36.5,TRADE
SNOWY1,"2008/05/07 17:00:00",44.16,34.92,TRADE
SNOWY1,"2008/05/07 17:30:00",58.92,37.59,TRADE
SNOWY1,"2008/05/07 18:00:00",56.5,49.95,TRADE
SNOWY1,"2008/05/07 18:30:00",55.67,64.94,TRADE
SNOWY1,"2008/05/07 19:00:00",65.89,60.95,TRADE
SNOWY1,"2008/05/07 19:30:00",48.3,48,TRADE
SNOWY1,"2008/05/07 20:00:00",37.06,47.55,TRADE
SNOWY1,"2008/05/07 20:30:00",37.93,50.8,TRADE
SNOWY1,"2008/05/07 21:00:00",32.33,41.61,TRADE
SNOWY1,"2008/05/07 21:30:00",42.28,43.42,TRADE
SNOWY1,"2008/05/07 22:00:00",47.71,36.74,TRADE
SNOWY1,"2008/05/07 22:30:00",50.07,61.14,TRADE
SNOWY1,"2008/05/07 23:00:00",41.89,49.43,TRADE
SNOWY1,"2008/05/07 23:30:00",35.4,52.87,TRADE
SNOWY1,"2008/05/08 00:00:00",44.88,40.95,TRADE
SNOWY1,"2008/05/08 00:30:00",39.59,38.08,TRADE
SNOWY1,"2008/05/08 01:00:00",54.25,35.4,TRADE
SNOWY1,"2008/05/08 01:30:00",63.28,32.82,TRADE
SNOWY1,"2008/05/08 02:00:00",59.31,30.98,TRADE
SNOWY1,"2008/05/08 02:30:00",46.48,29.98,TRADE
SNOWY1,"2008/05/08 03:00:00",94.93,30.7,TRADE
SNOWY1,"2008/05/08 03:30:00",105.36,29.5,TRADE
SNOWY1,"2008/05/08 04:00:00",110.18,29.6,TRADE
SNOWY1,"2008/05/08 04:30:00",109.4,29.38,TRADE
SNOWY1,"2008/05/08 05:00:00",114.92,29.72,TRADE
SNOWY1,"2008/05/08 05:30:00",86.06,31.72,TRADE
SNOWY1,"2008/05/08 06:00:00",46.85,36.53,TRADE
SNOWY1,"2008/05/08 06:30:00",46.97,51.09,TRADE
SNOWY1,"2008/05/08 07:00:00",40.17,84.54,TRADE
SNOWY1,"2008/05/08 07:30:00",50.23,67.99,TRADE
SNOWY1,"2008/05/08 08:00:00",65.21,78.11,TRADE
SNOWY1,"2008/05/08 08:30:00",48.58,64.94,TRADE
SNOWY1,"2008/05/08 09:00:00",48.78,53.07,TRADE
SNOWY1,"2008/05/08 09:30:00",31.91,54.27,TRADE
SNOWY1,"2008/05/08 10:00:00",32.02,45,TRADE
SNOWY1,"2008/05/08 10:30:00",25.86,49.96,TRADE
SNOWY1,"2008/05/08 11:00:00",30.09,46.53,TRADE
SNOWY1,"2008/05/08 11:30:00",40.42,44.35,TRADE
SNOWY1,"2008/05/08 12:00:00",33.27,44.55,TRADE
SNOWY1,"2008/05/08 12:30:00",39.53,45,TRADE
SNOWY1,"2008/05/08 13:00:00",47.7,45,TRADE
SNOWY1,"2008/05/08 13:30:00",47.7,45,TRADE
SNOWY1,"2008/05/08 14:00:00",38.94,45,TRADE
SNOWY1,"2008/05/08 14:30:00",42.39,45,TRADE
SNOWY1,"2008/05/08 15:00:00",44.83,45,TRADE
SNOWY1,"2008/05/08 15:30:00",41.45,45,TRADE
SNOWY1,"2008/05/08 16:00:00",47.1,45,TRADE
SNOWY1,"2008/05/08 16:30:00",43.59,44.61,TRADE
SNOWY1,"2008/05/08 17:00:00",34.38,43.39,TRADE
SNOWY1,"2008/05/08 17:30:00",28.94,51.92,TRADE
SNOWY1,"2008/05/08 18:00:00",34.66,77.48,TRADE
SNOWY1,"2008/05/08 18:30:00",49.73,89.5,TRADE
SNOWY1,"2008/05/08 19:00:00",58.41,88.42,TRADE
SNOWY1,"2008/05/08 19:30:00",60.83,73.55,TRADE
SNOWY1,"2008/05/08 20:00:00",44.14,86.33,TRADE
SNOWY1,"2008/05/08 20:30:00",28.32,86.88,TRADE
SNOWY1,"2008/05/08 21:00:00",29.36,74.81,TRADE
SNOWY1,"2008/05/08 21:30:00",36.7,69.42,TRADE
SNOWY1,"2008/05/08 22:00:00",30.48,62.73,TRADE
SNOWY1,"2008/05/08 22:30:00",33.21,90,TRADE
SNOWY1,"2008/05/08 23:00:00",42.76,77.54,TRADE
SNOWY1,"2008/05/08 23:30:00",40.59,87.8,TRADE
SNOWY1,"2008/05/09 00:00:00",36.69,74.58,TRADE
SNOWY1,"2008/05/09 00:30:00",34.38,57.52,TRADE
SNOWY1,"2008/05/09 01:00:00",39.15,49.19,TRADE
SNOWY1,"2008/05/09 01:30:00",37.46,42.84,TRADE
SNOWY1,"2008/05/09 02:00:00",48.71,38.9,TRADE
SNOWY1,"2008/05/09 02:30:00",80.3,37.75,TRADE
SNOWY1,"2008/05/09 03:00:00",146.77,40.52,TRADE
SNOWY1,"2008/05/09 03:30:00",131.35,27.25,TRADE
SNOWY1,"2008/05/09 04:00:00",114.54,31.59,TRADE
SNOWY1,"2008/05/09 04:30:00",120.46,28.07,TRADE
SNOWY1,"2008/05/09 05:00:00",119.3,27.99,TRADE
SNOWY1,"2008/05/09 05:30:00",126.6,29.38,TRADE
SNOWY1,"2008/05/09 06:00:00",111.68,36.65,TRADE
SNOWY1,"2008/05/09 06:30:00",56.52,47.86,TRADE
SNOWY1,"2008/05/09 07:00:00",44.77,84.04,TRADE
SNOWY1,"2008/05/09 07:30:00",47.9,64.83,TRADE
SNOWY1,"2008/05/09 08:00:00",50.7,64.99,TRADE
SNOWY1,"2008/05/09 08:30:00",51.41,64.94,TRADE
SNOWY1,"2008/05/09 09:00:00",48.68,55.9,TRADE
SNOWY1,"2008/05/09 09:30:00",37.87,57.06,TRADE
SNOWY1,"2008/05/09 10:00:00",48.26,47.39,TRADE
SNOWY1,"2008/05/09 10:30:00",38.93,50.48,TRADE
SNOWY1,"2008/05/09 11:00:00",41.24,44.89,TRADE
SNOWY1,"2008/05/09 11:30:00",37.62,45,TRADE
SNOWY1,"2008/05/09 12:00:00",46.93,45,TRADE
SNOWY1,"2008/05/09 12:30:00",46.28,43.73,TRADE
SNOWY1,"2008/05/09 13:00:00",50.93,43.76,TRADE
SNOWY1,"2008/05/09 13:30:00",45.03,42.37,TRADE
SNOWY1,"2008/05/09 14:00:00",42.88,40.66,TRADE
SNOWY1,"2008/05/09 14:30:00",35.79,38.62,TRADE
SNOWY1,"2008/05/09 15:00:00",43.23,37.19,TRADE
SNOWY1,"2008/05/09 15:30:00",43.08,38.89,TRADE
SNOWY1,"2008/05/09 16:00:00",36.87,40.49,TRADE
SNOWY1,"2008/05/09 16:30:00",47.01,40.95,TRADE
SNOWY1,"2008/05/09 17:00:00",36.64,43.48,TRADE
SNOWY1,"2008/05/09 17:30:00",42.39,47.48,TRADE
SNOWY1,"2008/05/09 18:00:00",30.68,61.97,TRADE
SNOWY1,"2008/05/09 18:30:00",53.92,54.33,TRADE
SNOWY1,"2008/05/09 19:00:00",60.64,48.93,TRADE
SNOWY1,"2008/05/09 19:30:00",41.25,45.85,TRADE
SNOWY1,"2008/05/09 20:00:00",28.56,45,TRADE
SNOWY1,"2008/05/09 20:30:00",48.39,50.16,TRADE
SNOWY1,"2008/05/09 21:00:00",35.11,45,TRADE
SNOWY1,"2008/05/09 21:30:00",32.64,57.78,TRADE
SNOWY1,"2008/05/09 22:00:00",43.11,44.37,TRADE
SNOWY1,"2008/05/09 22:30:00",40.09,78.43,TRADE
SNOWY1,"2008/05/09 23:00:00",49.87,61.34,TRADE
SNOWY1,"2008/05/09 23:30:00",59.89,82.02,TRADE
SNOWY1,"2008/05/10 00:00:00",61.58,70.25,TRADE
SNOWY1,"2008/05/10 00:30:00",46.19,54.81,TRADE
SNOWY1,"2008/05/10 01:00:00",40.13,41.61,TRADE
SNOWY1,"2008/05/10 01:30:00",49.21,41.12,TRADE
SNOWY1,"2008/05/10 02:00:00",50.94,37.17,TRADE
SNOWY1,"2008/05/10 02:30:00",64.51,36.3,TRADE
SNOWY1,"2008/05/10 03:00:00",99.64,38.16,TRADE
SNOWY1,"2008/05/10 03:30:00",89.84,29.78,TRADE
SNOWY1,"2008/05/10 04:00:00",90.87,33.64,TRADE
SNOWY1,"2008/05/10 04:30:00",114.94,33.44,TRADE
SNOWY1,"2008/05/10 05:00:00",110.84,28.68,TRADE
SNOWY1,"2008/05/10 05:30:00",115.83,30.43,TRADE
SNOWY1,"2008/05/10 06:00:00",117.12,30.62,TRADE
SNOWY1,"2008/05/10 06:30:00",93.68,31.75,TRADE
SNOWY1,"2008/05/10 07:00:00",81.49,32.49,TRADE
SNOWY1,"2008/05/10 07:30:00",50.73,33.81,TRADE
SNOWY1,"2008/05/10 08:00:00",42.09,41.48,TRADE
SNOWY1,"2008/05/10 08:30:00",58.47,54.67,TRADE
SNOWY1,"2008/05/10 09:00:00",40.97,60.38,TRADE
SNOWY1,"2008/05/10 09:30:00",45.07,77.6,TRADE
SNOWY1,"2008/05/10 10:00:00",49.36,66.46,TRADE
SNOWY1,"2008/05/10 10:30:00",37.56,75.05,TRADE
SNOWY1,"2008/05/10 11:00:00",41.9,54.9,TRADE
SNOWY1,"2008/05/10 11:30:00",43.36,46.59,TRADE
SNOWY1,"2008/05/10 12:00:00",42.11,45.19,TRADE
SNOWY1,"2008/05/10 12:30:00",41.63,44.26,TRADE
SNOWY1,"2008/05/10 13:00:00",39.39,41.25,TRADE
SNOWY1,"2008/05/10 13:30:00",46.17,43.45,TRADE
SNOWY1,"2008/05/10 14:00:00",41.39,41.59,TRADE
SNOWY1,"2008/05/10 14:30:00",42.11,36.92,TRADE
SNOWY1,"2008/05/10 15:00:00",37.32,34.62,TRADE
SNOWY1,"2008/05/10 15:30:00",32.52,34.71,TRADE
SNOWY1,"2008/05/10 16:00:00",42.14,35.07,TRADE
SNOWY1,"2008/05/10 16:30:00",37.33,37.32,TRADE
SNOWY1,"2008/05/10 17:00:00",46.07,43.48,TRADE
SNOWY1,"2008/05/10 17:30:00",40.18,52.02,TRADE
SNOWY1,"2008/05/10 18:00:00",38.65,101.88,TRADE
SNOWY1,"2008/05/10 18:30:00",53.19,90.23,TRADE
SNOWY1,"2008/05/10 19:00:00",44.36,81.92,TRADE
SNOWY1,"2008/05/10 19:30:00",43.46,57.07,TRADE
SNOWY1,"2008/05/10 20:00:00",40.63,59.48,TRADE
SNOWY1,"2008/05/10 20:30:00",44.08,52.01,TRADE
SNOWY1,"2008/05/10 21:00:00",38.65,47.82,TRADE
SNOWY1,"2008/05/10 21:30:00",44.57,44.89,TRADE
SNOWY1,"2008/05/10 22:00:00",37.37,43.08,TRADE
SNOWY1,"2008/05/10 22:30:00",33.96,55.89,TRADE
SNOWY1,"2008/05/10 23:00:00",36.47,50.88,TRADE
SNOWY1,"2008/05/10 23:30:00",37.54,61.71,TRADE
SNOWY1,"2008/05/11 00:00:00",38.55,50.3,TRADE
SNOWY1,"2008/05/11 00:30:00",45.39,42.19,TRADE
SNOWY1,"2008/05/11 01:00:00",45.98,36.59,TRADE
SNOWY1,"2008/05/11 01:30:00",46.89,32.76,TRADE
SNOWY1,"2008/05/11 02:00:00",47.36,30.19,TRADE
SNOWY1,"2008/05/11 02:30:00",41.97,24.9,TRADE
SNOWY1,"2008/05/11 03:00:00",94.56,28.07,TRADE
SNOWY1,"2008/05/11 03:30:00",121.73,37.62,TRADE
SNOWY1,"2008/05/11 04:00:00",128.13,20.52,TRADE
SNOWY1,"2008/05/11 04:30:00",125.16,29.81,TRADE
SNOWY1,"2008/05/11 05:00:00",114.7,30.07,TRADE
SNOWY1,"2008/05/11 05:30:00",120.03,29.27,TRADE
SNOWY1,"2008/05/11 06:00:00",120.36,29.09,TRADE
SNOWY1,"2008/05/11 06:30:00",120.86,30.39,TRADE
SNOWY1,"2008/05/11 07:00:00",113.8,30.86,TRADE
SNOWY1,"2008/05/11 07:30:00",91.84,31.25,TRADE
SNOWY1,"2008/05/11 08:00:00",33.85,31.16,TRADE
SNOWY1,"2008/05/11 08:30:00",45.44,37.02,TRADE
SNOWY1,"2008/05/11 09:00:00",46.53,42.31,TRADE
SNOWY1,"2008/05/11 09:30:00",41.64,48.35,TRADE
SNOWY1,"2008/05/11 10:00:00",39.21,55.55,TRADE
SNOWY1,"2008/05/11 10:30:00",27.68,62.46,TRADE
SNOWY1,"2008/05/11 11:00:00",34.8,56.97,TRADE
SNOWY1,"2008/05/11 11:30:00",39.29,52.22,TRADE
SNOWY1,"2008/05/11 12:00:00",35.61,50.96,TRADE
SNOWY1,"2008/05/11 12:30:00",32.14,46.56,TRADE
SNOWY1,"2008/05/11 13:00:00",30.47,44.29,TRADE
SNOWY1,"2008/05/11 13:30:00",35.65,40.02,TRADE
SNOWY1,"2008/05/11 14:00:00",33,37.41,TRADE
SNOWY1,"2008/05/11 14:30:00",30.22,35.43,TRADE
SNOWY1,"2008/05/11 15:00:00",34.71,35.07,TRADE
SNOWY1,"2008/05/11 15:30:00",41.97,35.41,TRADE
SNOWY1,"2008/05/11 16:00:00",46.41,35.16,TRADE
SNOWY1,"2008/05/11 16:30:00",43.92,35.56,TRADE
SNOWY1,"2008/05/11 17:00:00",37.98,43.12,TRADE
SNOWY1,"2008/05/11 17:30:00",37.08,44.68,TRADE
SNOWY1,"2008/05/11 18:00:00",32,64.72,TRADE
SNOWY1,"2008/05/11 18:30:00",47.67,71.34,TRADE
SNOWY1,"2008/05/11 19:00:00",41.35,61.86,TRADE
SNOWY1,"2008/05/11 19:30:00",38.31,57.93,TRADE
SNOWY1,"2008/05/11 20:00:00",38.74,64.25,TRADE
SNOWY1,"2008/05/11 20:30:00",33.24,55.31,TRADE
SNOWY1,"2008/05/11 21:00:00",28.01,50.23,TRADE
SNOWY1,"2008/05/11 21:30:00",33.13,44.75,TRADE
SNOWY1,"2008/05/11 22:00:00",35.27,39.45,TRADE
SNOWY1,"2008/05/11 22:30:00",39.81,43.34,TRADE
SNOWY1,"2008/05/11 23:00:00",37.09,39.87,TRADE
SNOWY1,"2008/05/11 23:30:00",40.71,49.67,TRADE
SNOWY1,"2008/05/12 00:00:00",45.5,41.66,TRADE
SNOWY1,"2008/05/12 00:30:00",39.48,35.48,TRADE
SNOWY1,"2008/05/12 01:00:00",35.62,31.13,TRADE
SNOWY1,"2008/05/12 01:30:00",39.97,34.38,TRADE
SNOWY1,"2008/05/12 02:00:00",38,36.91,TRADE
SNOWY1,"2008/05/12 02:30:00",57.8,32.34,TRADE
SNOWY1,"2008/05/12 03:00:00",70.49,26,TRADE
SNOWY1,"2008/05/12 03:30:00",102.74,27.3,TRADE
SNOWY1,"2008/05/12 04:00:00",121.15,26.26,TRADE
SNOWY1,"2008/05/12 04:30:00",113.8,22.91,TRADE
SNOWY1,"2008/05/12 05:00:00",106.17,24.08,TRADE
SNOWY1,"2008/05/12 05:30:00",65.62,31.74,TRADE
SNOWY1,"2008/05/12 06:00:00",43.74,32.49,TRADE
SNOWY1,"2008/05/12 06:30:00",48.59,47.42,TRADE
SNOWY1,"2008/05/12 07:00:00",59.57,74.46,TRADE
SNOWY1,"2008/05/12 07:30:00",57.75,53.64,TRADE
SNOWY1,"2008/05/12 08:00:00",61.11,64.16,TRADE
SNOWY1,"2008/05/12 08:30:00",53.21,66.08,TRADE
SNOWY1,"2008/05/12 09:00:00",46.59,65,TRADE
SNOWY1,"2008/05/12 09:30:00",35.05,65,TRADE
SNOWY1,"2008/05/12 10:00:00",50.7,65,TRADE
SNOWY1,"2008/05/12 10:30:00",48.57,63.99,TRADE
SNOWY1,"2008/05/12 11:00:00",44.12,62.75,TRADE
SNOWY1,"2008/05/12 11:30:00",38.66,50.35,TRADE
SNOWY1,"2008/05/12 12:00:00",37.81,56.23,TRADE
SNOWY1,"2008/05/12 12:30:00",39.92,55.96,TRADE
SNOWY1,"2008/05/12 13:00:00",32.39,56.85,TRADE
SNOWY1,"2008/05/12 13:30:00",40.71,50.48,TRADE
SNOWY1,"2008/05/12 14:00:00",36.21,50.58,TRADE
SNOWY1,"2008/05/12 14:30:00",32.05,49.59,TRADE
SNOWY1,"2008/05/12 15:00:00",38.95,45.7,TRADE
SNOWY1,"2008/05/12 15:30:00",33.79,45,TRADE
SNOWY1,"2008/05/12 16:00:00",41.41,45,TRADE
SNOWY1,"2008/05/12 16:30:00",37.35,46.16,TRADE
SNOWY1,"2008/05/12 17:00:00",37.46,58.33,TRADE
SNOWY1,"2008/05/12 17:30:00",46.19,72.92,TRADE
SNOWY1,"2008/05/12 18:00:00",40.67,91.28,TRADE
SNOWY1,"2008/05/12 18:30:00",63.34,87.2,TRADE
SNOWY1,"2008/05/12 19:00:00",54.75,73.61,TRADE
SNOWY1,"2008/05/12 19:30:00",43.9,76.49,TRADE
SNOWY1,"2008/05/12 20:00:00",47.62,65,TRADE
SNOWY1,"2008/05/12 20:30:00",37.36,84.57,TRADE
SNOWY1,"2008/05/12 21:00:00",42.44,68.49,TRADE
SNOWY1,"2008/05/12 21:30:00",39.36,57.56,TRADE
SNOWY1,"2008/05/12 22:00:00",40.26,50.88,TRADE
SNOWY1,"2008/05/12 22:30:00",43.62,68.21,TRADE
SNOWY1,"2008/05/12 23:00:00",44.97,50.47,TRADE
SNOWY1,"2008/05/12 23:30:00",41.76,58.09,TRADE
SNOWY1,"2008/05/13 00:00:00",35.93,56.62,TRADE
SNOWY1,"2008/05/13 00:30:00",42.19,47.69,TRADE
SNOWY1,"2008/05/13 01:00:00",38.93,42.89,TRADE
SNOWY1,"2008/05/13 01:30:00",37.65,35.57,TRADE
SNOWY1,"2008/05/13 02:00:00",44.76,30.45,TRADE
SNOWY1,"2008/05/13 02:30:00",45.89,29.92,TRADE
SNOWY1,"2008/05/13 03:00:00",74.28,30.78,TRADE
SNOWY1,"2008/05/13 03:30:00",111.53,20.47,TRADE
SNOWY1,"2008/05/13 04:00:00",120.46,36.49,TRADE
SNOWY1,"2008/05/13 04:30:00",121.52,29.95,TRADE
SNOWY1,"2008/05/13 05:00:00",123.31,32.06,TRADE
SNOWY1,"2008/05/13 05:30:00",117.62,32.74,TRADE
SNOWY1,"2008/05/13 06:00:00",69.52,35.08,TRADE
SNOWY1,"2008/05/13 06:30:00",46.27,52.97,TRADE
SNOWY1,"2008/05/13 07:00:00",53.35,83.25,TRADE
SNOWY1,"2008/05/13 07:30:00",53.5,56.52,TRADE
SNOWY1,"2008/05/13 08:00:00",61.57,74.07,TRADE
SNOWY1,"2008/05/13 08:30:00",61.69,76.64,TRADE
SNOWY1,"2008/05/13 09:00:00",60.57,85.54,TRADE
SNOWY1,"2008/05/13 09:30:00",52.87,89.27,TRADE
SNOWY1,"2008/05/13 10:00:00",50.44,73.04,TRADE
SNOWY1,"2008/05/13 10:30:00",51.13,67.29,TRADE
SNOWY1,"2008/05/13 11:00:00",31.88,69.4,TRADE
SNOWY1,"2008/05/13 11:30:00",43.56,67.55,TRADE
SNOWY1,"2008/05/13 12:00:00",39.78,66.77,TRADE
SNOWY1,"2008/05/13 12:30:00",46.43,65,TRADE
SNOWY1,"2008/05/13 13:00:00",37.54,63.14,TRADE
SNOWY1,"2008/05/13 13:30:00",31.48,63.16,TRADE
SNOWY1,"2008/05/13 14:00:00",29.77,55.3,TRADE
SNOWY1,"2008/05/13 14:30:00",36.81,52.44,TRADE
SNOWY1,"2008/05/13 15:00:00",28.97,48.74,TRADE
SNOWY1,"2008/05/13 15:30:00",32.45,53.65,TRADE
SNOWY1,"2008/05/13 16:00:00",40.23,66.44,TRADE
SNOWY1,"2008/05/13 16:30:00",48.02,67.13,TRADE
SNOWY1,"2008/05/13 17:00:00",45.97,74.18,TRADE
SNOWY1,"2008/05/13 17:30:00",40.05,72.03,TRADE
SNOWY1,"2008/05/13 18:00:00",56,109.81,TRADE
SNOWY1,"2008/05/13 18:30:00",59.36,130.17,TRADE
SNOWY1,"2008/05/13 19:00:00",54.23,125.58,TRADE
SNOWY1,"2008/05/13 19:30:00",46.99,110.1,TRADE
SNOWY1,"2008/05/13 20:00:00",44.55,107.46,TRADE
SNOWY1,"2008/05/13 20:30:00",40.97,117.14,TRADE
SNOWY1,"2008/05/13 21:00:00",32.01,92.23,TRADE
SNOWY1,"2008/05/13 21:30:00",38.49,88.04,TRADE
SNOWY1,"2008/05/13 22:00:00",42.49,77.05,TRADE
SNOWY1,"2008/05/13 22:30:00",44.36,103.08,TRADE
SNOWY1,"2008/05/13 23:00:00",44.66,82.84,TRADE
SNOWY1,"2008/05/13 23:30:00",42.49,83.71,TRADE
SNOWY1,"2008/05/14 00:00:00",47.71,71.97,TRADE
SNOWY1,"2008/05/14 00:30:00",32.38,59.93,TRADE
SNOWY1,"2008/05/14 01:00:00",28.84,53.07,TRADE
SNOWY1,"2008/05/14 01:30:00",35.5,50.69,TRADE
SNOWY1,"2008/05/14 02:00:00",43.84,43.81,TRADE
SNOWY1,"2008/05/14 02:30:00",37.97,30.32,TRADE
SNOWY1,"2008/05/14 03:00:00",35.83,28.64,TRADE
SNOWY1,"2008/05/14 03:30:00",66.63,31.46,TRADE
SNOWY1,"2008/05/14 04:00:00",67.4,30.11,TRADE
SNOWY1,"2008/05/14 04:30:00",68.72,31.13,TRADE
SNOWY1,"2008/05/14 05:00:00",69.96,30.6,TRADE
SNOWY1,"2008/05/14 05:30:00",68.43,25.77,TRADE
SNOWY1,"2008/05/14 06:00:00",74.24,31.53,TRADE
SNOWY1,"2008/05/14 06:30:00",43.65,48.9,TRADE
SNOWY1,"2008/05/14 07:00:00",36.14,80.47,TRADE
SNOWY1,"2008/05/14 07:30:00",33.65,64.44,TRADE
SNOWY1,"2008/05/14 08:00:00",51.58,84.17,TRADE
SNOWY1,"2008/05/14 08:30:00",45.16,62.83,TRADE
SNOWY1,"2008/05/14 09:00:00",52.78,42.15,TRADE
SNOWY1,"2008/05/14 09:30:00",44.43,40.5,TRADE
SNOWY1,"2008/05/14 10:00:00",41.86,41.9,TRADE
SNOWY1,"2008/05/14 10:30:00",42.65,43.17,TRADE
SNOWY1,"2008/05/14 11:00:00",50.56,40.95,TRADE
SNOWY1,"2008/05/14 11:30:00",40.19,42.28,TRADE
SNOWY1,"2008/05/14 12:00:00",45.18,42.49,TRADE
SNOWY1,"2008/05/14 12:30:00",36.84,39.97,TRADE
SNOWY1,"2008/05/14 13:00:00",32.79,40.17,TRADE
SNOWY1,"2008/05/14 13:30:00",33.46,39.86,TRADE
SNOWY1,"2008/05/14 14:00:00",38.94,38.46,TRADE
SNOWY1,"2008/05/14 14:30:00",41.98,41.44,TRADE
SNOWY1,"2008/05/14 15:00:00",49.68,41.52,TRADE
SNOWY1,"2008/05/14 15:30:00",43.72,38.15,TRADE
SNOWY1,"2008/05/14 16:00:00",39.88,42.26,TRADE
SNOWY1,"2008/05/14 16:30:00",44.41,42.22,TRADE
SNOWY1,"2008/05/14 17:00:00",40.36,41.31,TRADE
SNOWY1,"2008/05/14 17:30:00",44.01,55.93,TRADE
SNOWY1,"2008/05/14 18:00:00",44.29,88.28,TRADE
SNOWY1,"2008/05/14 18:30:00",48.06,82.86,TRADE
SNOWY1,"2008/05/14 19:00:00",51.16,58.03,TRADE
SNOWY1,"2008/05/14 19:30:00",52.24,45.93,TRADE
SNOWY1,"2008/05/14 20:00:00",32.89,43.48,TRADE
SNOWY1,"2008/05/14 20:30:00",39.72,44,TRADE
SNOWY1,"2008/05/14 21:00:00",46.45,40.16,TRADE
SNOWY1,"2008/05/14 21:30:00",45.67,41.54,TRADE
SNOWY1,"2008/05/14 22:00:00",43.02,36.59,TRADE
SNOWY1,"2008/05/14 22:30:00",40.09,45.76,TRADE
SNOWY1,"2008/05/14 23:00:00",41.15,40.36,TRADE
SNOWY1,"2008/05/14 23:30:00",36.89,43.55,TRADE
SNOWY1,"2008/05/15 00:00:00",36.66,39.51,TRADE
SNOWY1,"2008/05/15 00:30:00",29.82,36.18,TRADE
SNOWY1,"2008/05/15 01:00:00",42.12,31.2,TRADE
SNOWY1,"2008/05/15 01:30:00",42.29,32.78,TRADE
SNOWY1,"2008/05/15 02:00:00",72.77,31.8,TRADE
SNOWY1,"2008/05/15 02:30:00",76.42,32.17,TRADE
SNOWY1,"2008/05/15 03:00:00",82.19,31.43,TRADE
SNOWY1,"2008/05/15 03:30:00",84.16,22.8,TRADE
SNOWY1,"2008/05/15 04:00:00",110.43,21.49,TRADE
SNOWY1,"2008/05/15 04:30:00",121.2,21.1,TRADE
SNOWY1,"2008/05/15 05:00:00",116.58,22.87,TRADE
SNOWY1,"2008/05/15 05:30:00",111.09,29.27,TRADE
SNOWY1,"2008/05/15 06:00:00",67.06,29.25,TRADE
SNOWY1,"2008/05/15 06:30:00",35.74,39.65,TRADE
SNOWY1,"2008/05/15 07:00:00",40.14,57.93,TRADE
SNOWY1,"2008/05/15 07:30:00",46.05,44.39,TRADE
SNOWY1,"2008/05/15 08:00:00",51.64,58.86,TRADE
SNOWY1,"2008/05/15 08:30:00",52.35,52.63,TRADE
SNOWY1,"2008/05/15 09:00:00",38.26,44.45,TRADE
SNOWY1,"2008/05/15 09:30:00",42.63,44.01,TRADE
SNOWY1,"2008/05/15 10:00:00",32.53,41.29,TRADE
SNOWY1,"2008/05/15 10:30:00",30.49,41.38,TRADE
SNOWY1,"2008/05/15 11:00:00",36.13,42.85,TRADE
SNOWY1,"2008/05/15 11:30:00",40.5,40.23,TRADE
SNOWY1,"2008/05/15 12:00:00",35.22,39,TRADE
SNOWY1,"2008/05/15 12:30:00",32.53,39.81,TRADE
SNOWY1,"2008/05/15 13:00:00",42.18,38.82,TRADE
SNOWY1,"2008/05/15 13:30:00",88.97,41.77,TRADE
SNOWY1,"2008/05/15 14:00:00",63.46,38.65,TRADE
SNOWY1,"2008/05/15 14:30:00",40.5,36.68,TRADE
SNOWY1,"2008/05/15 15:00:00",36.12,36.5,TRADE
SNOWY1,"2008/05/15 15:30:00",40.65,36.5,TRADE
SNOWY1,"2008/05/15 16:00:00",39.6,36.5,TRADE
SNOWY1,"2008/05/15 16:30:00",47.6,36.5,TRADE
SNOWY1,"2008/05/15 17:00:00",40.33,37,TRADE
SNOWY1,"2008/05/15 17:30:00",40.36,49.33,TRADE
SNOWY1,"2008/05/15 18:00:00",41.37,82.68,TRADE
SNOWY1,"2008/05/15 18:30:00",60.89,86.65,TRADE
SNOWY1,"2008/05/15 19:00:00",62.53,64.07,TRADE
SNOWY1,"2008/05/15 19:30:00",60.91,55.09,TRADE
SNOWY1,"2008/05/15 20:00:00",49.4,43.84,TRADE
SNOWY1,"2008/05/15 20:30:00",38.04,44.83,TRADE
SNOWY1,"2008/05/15 21:00:00",36.23,46.27,TRADE
SNOWY1,"2008/05/15 21:30:00",39.3,45.49,TRADE
SNOWY1,"2008/05/15 22:00:00",46.18,37.94,TRADE
SNOWY1,"2008/05/15 22:30:00",45.34,46.9,TRADE
SNOWY1,"2008/05/15 23:00:00",39.35,42.53,TRADE
SNOWY1,"2008/05/15 23:30:00",39.34,53.38,TRADE
SNOWY1,"2008/05/16 00:00:00",38.29,42.92,TRADE
SNOWY1,"2008/05/16 00:30:00",42.99,41.75,TRADE
SNOWY1,"2008/05/16 01:00:00",38.06,35.15,TRADE
SNOWY1,"2008/05/16 01:30:00",39.16,33.6,TRADE
SNOWY1,"2008/05/16 02:00:00",41.76,33.64,TRADE
SNOWY1,"2008/05/16 02:30:00",43.04,33.03,TRADE
SNOWY1,"2008/05/16 03:00:00",41.69,30.54,TRADE
SNOWY1,"2008/05/16 03:30:00",53.81,21.37,TRADE
SNOWY1,"2008/05/16 04:00:00",48.23,19.31,TRADE
SNOWY1,"2008/05/16 04:30:00",49.61,19.09,TRADE
SNOWY1,"2008/05/16 05:00:00",51.33,21.12,TRADE
SNOWY1,"2008/05/16 05:30:00",44.97,24.22,TRADE
SNOWY1,"2008/05/16 06:00:00",42.05,26.63,TRADE
SNOWY1,"2008/05/16 06:30:00",55.69,38.38,TRADE
SNOWY1,"2008/05/16 07:00:00",51.01,69.98,TRADE
SNOWY1,"2008/05/16 07:30:00",44.11,44.58,TRADE
SNOWY1,"2008/05/16 08:00:00",49.28,63.1,TRADE
SNOWY1,"2008/05/16 08:30:00",50.64,63.63,TRADE
SNOWY1,"2008/05/16 09:00:00",54.51,60.9,TRADE
SNOWY1,"2008/05/16 09:30:00",41.16,58.57,TRADE
SNOWY1,"2008/05/16 10:00:00",41.54,61.86,TRADE
SNOWY1,"2008/05/16 10:30:00",41.87,61.26,TRADE
SNOWY1,"2008/05/16 11:00:00",41.62,59.48,TRADE
SNOWY1,"2008/05/16 11:30:00",41.09,48.88,TRADE
SNOWY1,"2008/05/16 12:00:00",34.14,52.94,TRADE
SNOWY1,"2008/05/16 12:30:00",30.02,48.77,TRADE
SNOWY1,"2008/05/16 13:00:00",31.15,46.61,TRADE
SNOWY1,"2008/05/16 13:30:00",37.95,44.46,TRADE
SNOWY1,"2008/05/16 14:00:00",42.77,45.02,TRADE
SNOWY1,"2008/05/16 14:30:00",32.6,44.44,TRADE
SNOWY1,"2008/05/16 15:00:00",38.9,44.13,TRADE
SNOWY1,"2008/05/16 15:30:00",47.53,44.08,TRADE
SNOWY1,"2008/05/16 16:00:00",41.21,43.86,TRADE
SNOWY1,"2008/05/16 16:30:00",40.69,44.34,TRADE
SNOWY1,"2008/05/16 17:00:00",59.09,44.5,TRADE
SNOWY1,"2008/05/16 17:30:00",41.92,48.98,TRADE
SNOWY1,"2008/05/16 18:00:00",37.96,71.66,TRADE
SNOWY1,"2008/05/16 18:30:00",58.83,69.13,TRADE
SNOWY1,"2008/05/16 19:00:00",69.63,57.82,TRADE
SNOWY1,"2008/05/16 19:30:00",50.9,45.65,TRADE
SNOWY1,"2008/05/16 20:00:00",38.79,40.99,TRADE
SNOWY1,"2008/05/16 20:30:00",41.96,37.51,TRADE
SNOWY1,"2008/05/16 21:00:00",41.91,30.5,TRADE
SNOWY1,"2008/05/16 21:30:00",40.69,34.41,TRADE
SNOWY1,"2008/05/16 22:00:00",39.37,30.32,TRADE
SNOWY1,"2008/05/16 22:30:00",45.98,55.8,TRADE
SNOWY1,"2008/05/16 23:00:00",46.96,43.95,TRADE
SNOWY1,"2008/05/16 23:30:00",49.94,74.54,TRADE
SNOWY1,"2008/05/17 00:00:00",55.89,58.03,TRADE
SNOWY1,"2008/05/17 00:30:00",42.7,52.16,TRADE
SNOWY1,"2008/05/17 01:00:00",35.41,49.37,TRADE
SNOWY1,"2008/05/17 01:30:00",47.52,53.87,TRADE
SNOWY1,"2008/05/17 02:00:00",44.98,49.32,TRADE
SNOWY1,"2008/05/17 02:30:00",40.18,35.05,TRADE
SNOWY1,"2008/05/17 03:00:00",37.94,44.54,TRADE
SNOWY1,"2008/05/17 03:30:00",48.76,47.28,TRADE
SNOWY1,"2008/05/17 04:00:00",42.43,42.19,TRADE
SNOWY1,"2008/05/17 04:30:00",36.35,42.76,TRADE
SNOWY1,"2008/05/17 05:00:00",36.66,39.21,TRADE
SNOWY1,"2008/05/17 05:30:00",41.19,42.62,TRADE
SNOWY1,"2008/05/17 06:00:00",34.04,36.77,TRADE
SNOWY1,"2008/05/17 06:30:00",39.86,33.13,TRADE
SNOWY1,"2008/05/17 07:00:00",45.03,32.61,TRADE
SNOWY1,"2008/05/17 07:30:00",47.73,28.41,TRADE
SNOWY1,"2008/05/17 08:00:00",44.13,33.61,TRADE
SNOWY1,"2008/05/17 08:30:00",49.1,43.57,TRADE
SNOWY1,"2008/05/17 09:00:00",54.8,63.98,TRADE
SNOWY1,"2008/05/17 09:30:00",61.04,86.28,TRADE
SNOWY1,"2008/05/17 10:00:00",71.15,86.45,TRADE
SNOWY1,"2008/05/17 10:30:00",59.55,86.77,TRADE
SNOWY1,"2008/05/17 11:00:00",53.69,72.18,TRADE
SNOWY1,"2008/05/17 11:30:00",54.22,68.62,TRADE
SNOWY1,"2008/05/17 12:00:00",50.33,51.12,TRADE
SNOWY1,"2008/05/17 12:30:00",54.46,39.57,TRADE
SNOWY1,"2008/05/17 13:00:00",57.95,37.88,TRADE
SNOWY1,"2008/05/17 13:30:00",56.39,37.66,TRADE
SNOWY1,"2008/05/17 14:00:00",48.39,36.93,TRADE
SNOWY1,"2008/05/17 14:30:00",51.96,36.92,TRADE
SNOWY1,"2008/05/17 15:00:00",51.51,36.37,TRADE
SNOWY1,"2008/05/17 15:30:00",43.13,42.83,TRADE
SNOWY1,"2008/05/17 16:00:00",40.01,52.4,TRADE
SNOWY1,"2008/05/17 16:30:00",45.09,59.11,TRADE
SNOWY1,"2008/05/17 17:00:00",39.41,74.69,TRADE
SNOWY1,"2008/05/17 17:30:00",51.97,86.16,TRADE
SNOWY1,"2008/05/17 18:00:00",50.31,112.07,TRADE
SNOWY1,"2008/05/17 18:30:00",54.24,90,TRADE
SNOWY1,"2008/05/17 19:00:00",44.64,80.36,TRADE
SNOWY1,"2008/05/17 19:30:00",52.02,62.13,TRADE
SNOWY1,"2008/05/17 20:00:00",46.57,59.12,TRADE
SNOWY1,"2008/05/17 20:30:00",46.84,64.67,TRADE
SNOWY1,"2008/05/17 21:00:00",46.85,63.14,TRADE
SNOWY1,"2008/05/17 21:30:00",45.64,40.31,TRADE
SNOWY1,"2008/05/17 22:00:00",51.15,40.42,TRADE
SNOWY1,"2008/05/17 22:30:00",40.77,59.27,TRADE
SNOWY1,"2008/05/17 23:00:00",44.97,47.55,TRADE
SNOWY1,"2008/05/17 23:30:00",43.54,58.22,TRADE
SNOWY1,"2008/05/18 00:00:00",47.66,46.95,TRADE
SNOWY1,"2008/05/18 00:30:00",54.06,42.24,TRADE
SNOWY1,"2008/05/18 01:00:00",54.37,40.86,TRADE
SNOWY1,"2008/05/18 01:30:00",83.29,49.45,TRADE
SNOWY1,"2008/05/18 02:00:00",84.81,56.33,TRADE
SNOWY1,"2008/05/18 02:30:00",91.63,47.69,TRADE
SNOWY1,"2008/05/18 03:00:00",119.71,39.57,TRADE
SNOWY1,"2008/05/18 03:30:00",110.87,28.07,TRADE
SNOWY1,"2008/05/18 04:00:00",112.06,32,TRADE
SNOWY1,"2008/05/18 04:30:00",110.42,34.24,TRADE
SNOWY1,"2008/05/18 05:00:00",109.35,34.32,TRADE
SNOWY1,"2008/05/18 05:30:00",106.02,23.28,TRADE
SNOWY1,"2008/05/18 06:00:00",110.08,23.61,TRADE
SNOWY1,"2008/05/18 06:30:00",106.75,30.11,TRADE
SNOWY1,"2008/05/18 07:00:00",107.5,30.22,TRADE
SNOWY1,"2008/05/18 07:30:00",48.85,25.31,TRADE
SNOWY1,"2008/05/18 08:00:00",42.23,30.64,TRADE
SNOWY1,"2008/05/18 08:30:00",58.77,31.01,TRADE
SNOWY1,"2008/05/18 09:00:00",36.71,34.91,TRADE
SNOWY1,"2008/05/18 09:30:00",42.1,37.02,TRADE
SNOWY1,"2008/05/18 10:00:00",42.49,36.41,TRADE
SNOWY1,"2008/05/18 10:30:00",36.04,35.78,TRADE
SNOWY1,"2008/05/18 11:00:00",38.58,32.28,TRADE
SNOWY1,"2008/05/18 11:30:00",44.55,30.8,TRADE
SNOWY1,"2008/05/18 12:00:00",36.06,30.61,TRADE
SNOWY1,"2008/05/18 12:30:00",43.13,30.39,TRADE
SNOWY1,"2008/05/18 13:00:00",38.38,30.16,TRADE
SNOWY1,"2008/05/18 13:30:00",43.12,29.59,TRADE
SNOWY1,"2008/05/18 14:00:00",45.47,30.82,TRADE
SNOWY1,"2008/05/18 14:30:00",46.32,30.5,TRADE
SNOWY1,"2008/05/18 15:00:00",54.1,30.32,TRADE
SNOWY1,"2008/05/18 15:30:00",50.1,30.5,TRADE
SNOWY1,"2008/05/18 16:00:00",49.28,31.13,TRADE
SNOWY1,"2008/05/18 16:30:00",64.56,33.9,TRADE
SNOWY1,"2008/05/18 17:00:00",66.02,38.66,TRADE
SNOWY1,"2008/05/18 17:30:00",52.93,69.97,TRADE
SNOWY1,"2008/05/18 18:00:00",52.73,134.49,TRADE
SNOWY1,"2008/05/18 18:30:00",54.25,141.73,TRADE
SNOWY1,"2008/05/18 19:00:00",53.53,98.38,TRADE
SNOWY1,"2008/05/18 19:30:00",38.36,74.99,TRADE
SNOWY1,"2008/05/18 20:00:00",38.11,67.36,TRADE
SNOWY1,"2008/05/18 20:30:00",54.63,65,TRADE
SNOWY1,"2008/05/18 21:00:00",40.82,55.76,TRADE
SNOWY1,"2008/05/18 21:30:00",43.18,42.74,TRADE
SNOWY1,"2008/05/18 22:00:00",38.43,37.84,TRADE
SNOWY1,"2008/05/18 22:30:00",52.91,47.41,TRADE
SNOWY1,"2008/05/18 23:00:00",42.4,41.03,TRADE
SNOWY1,"2008/05/18 23:30:00",41.95,46.08,TRADE
SNOWY1,"2008/05/19 00:00:00",50.16,38.73,TRADE
SNOWY1,"2008/05/19 00:30:00",42.06,54.66,TRADE
SNOWY1,"2008/05/19 01:00:00",48.39,55.32,TRADE
SNOWY1,"2008/05/19 01:30:00",100.09,58.96,TRADE
SNOWY1,"2008/05/19 02:00:00",110.72,47.95,TRADE
SNOWY1,"2008/05/19 02:30:00",119.38,44.59,TRADE
SNOWY1,"2008/05/19 03:00:00",114.04,36.1,TRADE
SNOWY1,"2008/05/19 03:30:00",103.77,33.87,TRADE
SNOWY1,"2008/05/19 04:00:00",108.37,33.44,TRADE
SNOWY1,"2008/05/19 04:30:00",103.97,22.59,TRADE
SNOWY1,"2008/05/19 05:00:00",105.66,23.5,TRADE
SNOWY1,"2008/05/19 05:30:00",104.07,30.64,TRADE
SNOWY1,"2008/05/19 06:00:00",78.29,29.84,TRADE
SNOWY1,"2008/05/19 06:30:00",45.88,40.82,TRADE
SNOWY1,"2008/05/19 07:00:00",46.76,55.02,TRADE
SNOWY1,"2008/05/19 07:30:00",47.63,42.17,TRADE
SNOWY1,"2008/05/19 08:00:00",41.02,62.52,TRADE
SNOWY1,"2008/05/19 08:30:00",55.02,65,TRADE
SNOWY1,"2008/05/19 09:00:00",48.69,48.08,TRADE
SNOWY1,"2008/05/19 09:30:00",39.38,46.18,TRADE
SNOWY1,"2008/05/19 10:00:00",29.95,45,TRADE
SNOWY1,"2008/05/19 10:30:00",37.34,45,TRADE
SNOWY1,"2008/05/19 11:00:00",32.18,44.98,TRADE
SNOWY1,"2008/05/19 11:30:00",48.58,38.16,TRADE
SNOWY1,"2008/05/19 12:00:00",38.24,38.65,TRADE
SNOWY1,"2008/05/19 12:30:00",41.71,38.07,TRADE
SNOWY1,"2008/05/19 13:00:00",42.19,36.58,TRADE
SNOWY1,"2008/05/19 13:30:00",42.89,36.21,TRADE
SNOWY1,"2008/05/19 14:00:00",39.56,35.84,TRADE
SNOWY1,"2008/05/19 14:30:00",46.08,36.68,TRADE
SNOWY1,"2008/05/19 15:00:00",35.84,35.76,TRADE
SNOWY1,"2008/05/19 15:30:00",41.77,35.11,TRADE
SNOWY1,"2008/05/19 16:00:00",40.39,35.47,TRADE
SNOWY1,"2008/05/19 16:30:00",38.14,36.04,TRADE
SNOWY1,"2008/05/19 17:00:00",41.56,40.48,TRADE
SNOWY1,"2008/05/19 17:30:00",43.33,66.96,TRADE
SNOWY1,"2008/05/19 18:00:00",36.87,97.86,TRADE
SNOWY1,"2008/05/19 18:30:00",51.96,96.27,TRADE
SNOWY1,"2008/05/19 19:00:00",56.83,81.54,TRADE
SNOWY1,"2008/05/19 19:30:00",62.19,58.81,TRADE
SNOWY1,"2008/05/19 20:00:00",39.71,57.17,TRADE
SNOWY1,"2008/05/19 20:30:00",32.78,47.31,TRADE
SNOWY1,"2008/05/19 21:00:00",33.18,44.73,TRADE
SNOWY1,"2008/05/19 21:30:00",42.89,41.46,TRADE
SNOWY1,"2008/05/19 22:00:00",45.3,35.8,TRADE
SNOWY1,"2008/05/19 22:30:00",45.85,43.45,TRADE
SNOWY1,"2008/05/19 23:00:00",37.35,42.03,TRADE
SNOWY1,"2008/05/19 23:30:00",40.05,42.37,TRADE
SNOWY1,"2008/05/20 00:00:00",45.82,40.93,TRADE
SNOWY1,"2008/05/20 00:30:00",28.93,38.27,TRADE
SNOWY1,"2008/05/20 01:00:00",35.76,34.29,TRADE
SNOWY1,"2008/05/20 01:30:00",49.47,33.64,TRADE
SNOWY1,"2008/05/20 02:00:00",90.41,33.58,TRADE
SNOWY1,"2008/05/20 02:30:00",105.8,33.85,TRADE
SNOWY1,"2008/05/20 03:00:00",110.11,31.28,TRADE
SNOWY1,"2008/05/20 03:30:00",100.85,26.25,TRADE
SNOWY1,"2008/05/20 04:00:00",110.39,21.68,TRADE
SNOWY1,"2008/05/20 04:30:00",105.92,22.89,TRADE
SNOWY1,"2008/05/20 05:00:00",101.58,28.2,TRADE
SNOWY1,"2008/05/20 05:30:00",108.65,30.45,TRADE
SNOWY1,"2008/05/20 06:00:00",99.49,28.41,TRADE
SNOWY1,"2008/05/20 06:30:00",49.76,36.25,TRADE
SNOWY1,"2008/05/20 07:00:00",29.88,52.35,TRADE
SNOWY1,"2008/05/20 07:30:00",39.35,42.86,TRADE
SNOWY1,"2008/05/20 08:00:00",53.26,56.11,TRADE
SNOWY1,"2008/05/20 08:30:00",34.52,53.31,TRADE
SNOWY1,"2008/05/20 09:00:00",49.64,45,TRADE
SNOWY1,"2008/05/20 09:30:00",28.28,45,TRADE
SNOWY1,"2008/05/20 10:00:00",43.53,44.89,TRADE
SNOWY1,"2008/05/20 10:30:00",36.53,44.81,TRADE
SNOWY1,"2008/05/20 11:00:00",43.35,43.56,TRADE
SNOWY1,"2008/05/20 11:30:00",34.69,40.84,TRADE
SNOWY1,"2008/05/20 12:00:00",40.27,44.44,TRADE
SNOWY1,"2008/05/20 12:30:00",41.89,40.27,TRADE
SNOWY1,"2008/05/20 13:00:00",43.06,38.5,TRADE
SNOWY1,"2008/05/20 13:30:00",39.03,35.94,TRADE
SNOWY1,"2008/05/20 14:00:00",46.49,37.59,TRADE
SNOWY1,"2008/05/20 14:30:00",32.56,36.67,TRADE
SNOWY1,"2008/05/20 15:00:00",43.95,35.43,TRADE
SNOWY1,"2008/05/20 15:30:00",43.92,36.63,TRADE
SNOWY1,"2008/05/20 16:00:00",52.32,40.98,TRADE
SNOWY1,"2008/05/20 16:30:00",45.8,43.85,TRADE
SNOWY1,"2008/05/20 17:00:00",42.88,39.29,TRADE
SNOWY1,"2008/05/20 17:30:00",43.17,50.23,TRADE
SNOWY1,"2008/05/20 18:00:00",48.6,86.61,TRADE
SNOWY1,"2008/05/20 18:30:00",66.99,81.71,TRADE
SNOWY1,"2008/05/20 19:00:00",55.81,65.98,TRADE
SNOWY1,"2008/05/20 19:30:00",41.65,47.85,TRADE
SNOWY1,"2008/05/20 20:00:00",30.79,55.59,TRADE
SNOWY1,"2008/05/20 20:30:00",36.22,47.15,TRADE
SNOWY1,"2008/05/20 21:00:00",32.96,43.14,TRADE
SNOWY1,"2008/05/20 21:30:00",35.14,42.24,TRADE
SNOWY1,"2008/05/20 22:00:00",38.69,37.53,TRADE
SNOWY1,"2008/05/20 22:30:00",35.26,44.34,TRADE
SNOWY1,"2008/05/20 23:00:00",37.08,40.67,TRADE
SNOWY1,"2008/05/20 23:30:00",40.27,42.92,TRADE
SNOWY1,"2008/05/21 00:00:00",26.98,41.34,TRADE
SNOWY1,"2008/05/21 00:30:00",31.13,37.23,TRADE
SNOWY1,"2008/05/21 01:00:00",32.26,32.49,TRADE
SNOWY1,"2008/05/21 01:30:00",44.12,31.81,TRADE
SNOWY1,"2008/05/21 02:00:00",87.51,31,TRADE
SNOWY1,"2008/05/21 02:30:00",115.72,29.86,TRADE
SNOWY1,"2008/05/21 03:00:00",103.38,29.21,TRADE
SNOWY1,"2008/05/21 03:30:00",104.05,22.75,TRADE
SNOWY1,"2008/05/21 04:00:00",100.53,20.54,TRADE
SNOWY1,"2008/05/21 04:30:00",104.37,20.57,TRADE
SNOWY1,"2008/05/21 05:00:00",101.73,22.13,TRADE
SNOWY1,"2008/05/21 05:30:00",103.44,25.14,TRADE
SNOWY1,"2008/05/21 06:00:00",103.95,25.84,TRADE
SNOWY1,"2008/05/21 06:30:00",75.19,34.74,TRADE
SNOWY1,"2008/05/21 07:00:00",41.15,45.15,TRADE
SNOWY1,"2008/05/21 07:30:00",41.28,40.83,TRADE
SNOWY1,"2008/05/21 08:00:00",44.19,45.68,TRADE
SNOWY1,"2008/05/21 08:30:00",41.54,45,TRADE
SNOWY1,"2008/05/21 09:00:00",40.21,44.78,TRADE
SNOWY1,"2008/05/21 09:30:00",50.12,44.91,TRADE
SNOWY1,"2008/05/21 10:00:00",44.37,40.48,TRADE
SNOWY1,"2008/05/21 10:30:00",42.46,40.4,TRADE
SNOWY1,"2008/05/21 11:00:00",35.91,41.36,TRADE
SNOWY1,"2008/05/21 11:30:00",35.36,43.64,TRADE
SNOWY1,"2008/05/21 12:00:00",29.76,43.89,TRADE
SNOWY1,"2008/05/21 12:30:00",43.4,43.04,TRADE
SNOWY1,"2008/05/21 13:00:00",46.28,39.08,TRADE
SNOWY1,"2008/05/21 13:30:00",47.97,43.69,TRADE
SNOWY1,"2008/05/21 14:00:00",48.31,40.66,TRADE
SNOWY1,"2008/05/21 14:30:00",42.21,43.79,TRADE
SNOWY1,"2008/05/21 15:00:00",38.82,38.74,TRADE
SNOWY1,"2008/05/21 15:30:00",38.27,37.34,TRADE
SNOWY1,"2008/05/21 16:00:00",50.25,37.2,TRADE
SNOWY1,"2008/05/21 16:30:00",47.54,39.02,TRADE
SNOWY1,"2008/05/21 17:00:00",52.76,44.87,TRADE
SNOWY1,"2008/05/21 17:30:00",44.07,61.77,TRADE
SNOWY1,"2008/05/21 18:00:00",37.45,99.54,TRADE
SNOWY1,"2008/05/21 18:30:00",60.86,92.41,TRADE
SNOWY1,"2008/05/21 19:00:00",58.97,81.04,TRADE
SNOWY1,"2008/05/21 19:30:00",42.96,52.98,TRADE
SNOWY1,"2008/05/21 20:00:00",28.7,48.8,TRADE
SNOWY1,"2008/05/21 20:30:00",28.79,45,TRADE
SNOWY1,"2008/05/21 21:00:00",39.1,40.29,TRADE
SNOWY1,"2008/05/21 21:30:00",40.55,44.02,TRADE
SNOWY1,"2008/05/21 22:00:00",43.74,37.2,TRADE
SNOWY1,"2008/05/21 22:30:00",36.59,48.07,TRADE
SNOWY1,"2008/05/21 23:00:00",35.79,43.11,TRADE
SNOWY1,"2008/05/21 23:30:00",35.64,45.76,TRADE
SNOWY1,"2008/05/22 00:00:00",31.87,41.2,TRADE
SNOWY1,"2008/05/22 00:30:00",24.01,35.79,TRADE
SNOWY1,"2008/05/22 01:00:00",59.45,32.33,TRADE
SNOWY1,"2008/05/22 01:30:00",95.66,32.32,TRADE
SNOWY1,"2008/05/22 02:00:00",109.35,30.71,TRADE
SNOWY1,"2008/05/22 02:30:00",112.22,30.05,TRADE
SNOWY1,"2008/05/22 03:00:00",106.38,30.23,TRADE
SNOWY1,"2008/05/22 03:30:00",100.23,29.33,TRADE
SNOWY1,"2008/05/22 04:00:00",96.76,29.04,TRADE
SNOWY1,"2008/05/22 04:30:00",96.25,28.32,TRADE
SNOWY1,"2008/05/22 05:00:00",98.93,28.93,TRADE
SNOWY1,"2008/05/22 05:30:00",99.45,31.15,TRADE
SNOWY1,"2008/05/22 06:00:00",81.84,29.44,TRADE
SNOWY1,"2008/05/22 06:30:00",20.98,42.25,TRADE
SNOWY1,"2008/05/22 07:00:00",31.33,60.53,TRADE
SNOWY1,"2008/05/22 07:30:00",37.78,49.49,TRADE
SNOWY1,"2008/05/22 08:00:00",34.54,67.49,TRADE
SNOWY1,"2008/05/22 08:30:00",38.52,67.33,TRADE
SNOWY1,"2008/05/22 09:00:00",29.05,65,TRADE
SNOWY1,"2008/05/22 09:30:00",32.31,65,TRADE
SNOWY1,"2008/05/22 10:00:00",34.14,65,TRADE
SNOWY1,"2008/05/22 10:30:00",28.86,64.76,TRADE
SNOWY1,"2008/05/22 11:00:00",37.87,55.62,TRADE
SNOWY1,"2008/05/22 11:30:00",28.78,46.58,TRADE
SNOWY1,"2008/05/22 12:00:00",30.08,45,TRADE
SNOWY1,"2008/05/22 12:30:00",31.94,44.53,TRADE
SNOWY1,"2008/05/22 13:00:00",35.78,43.33,TRADE
SNOWY1,"2008/05/22 13:30:00",27.7,44.33,TRADE
SNOWY1,"2008/05/22 14:00:00",32,42.45,TRADE
SNOWY1,"2008/05/22 14:30:00",23.05,42.29,TRADE
SNOWY1,"2008/05/22 15:00:00",29.58,42.22,TRADE
SNOWY1,"2008/05/22 15:30:00",30.51,42.15,TRADE
SNOWY1,"2008/05/22 16:00:00",32,42.06,TRADE
SNOWY1,"2008/05/22 16:30:00",28.79,43.46,TRADE
SNOWY1,"2008/05/22 17:00:00",29.92,52.51,TRADE
SNOWY1,"2008/05/22 17:30:00",33.9,70.32,TRADE
SNOWY1,"2008/05/22 18:00:00",45.12,93.3,TRADE
SNOWY1,"2008/05/22 18:30:00",57.94,91.15,TRADE
SNOWY1,"2008/05/22 19:00:00",59.07,91,TRADE
SNOWY1,"2008/05/22 19:30:00",42.25,70,TRADE
SNOWY1,"2008/05/22 20:00:00",34.61,71.21,TRADE
SNOWY1,"2008/05/22 20:30:00",41.98,70.57,TRADE
SNOWY1,"2008/05/22 21:00:00",32.16,60.57,TRADE
SNOWY1,"2008/05/22 21:30:00",30.59,47.96,TRADE
SNOWY1,"2008/05/22 22:00:00",31.01,42.62,TRADE
SNOWY1,"2008/05/22 22:30:00",31.74,63.77,TRADE
SNOWY1,"2008/05/22 23:00:00",30.68,50.57,TRADE
SNOWY1,"2008/05/22 23:30:00",30.23,51.41,TRADE
SNOWY1,"2008/05/23 00:00:00",33.68,45.01,TRADE
SNOWY1,"2008/05/23 00:30:00",26.31,43.55,TRADE
SNOWY1,"2008/05/23 01:00:00",38.98,40.23,TRADE
SNOWY1,"2008/05/23 01:30:00",32.98,41.03,TRADE
SNOWY1,"2008/05/23 02:00:00",29.4,33.23,TRADE
SNOWY1,"2008/05/23 02:30:00",86.78,30.05,TRADE
SNOWY1,"2008/05/23 03:00:00",105.83,29.97,TRADE
SNOWY1,"2008/05/23 03:30:00",99.57,29.14,TRADE
SNOWY1,"2008/05/23 04:00:00",95.95,24.16,TRADE
SNOWY1,"2008/05/23 04:30:00",99.34,21.82,TRADE
SNOWY1,"2008/05/23 05:00:00",96.2,24.39,TRADE
SNOWY1,"2008/05/23 05:30:00",93.4,29.8,TRADE
SNOWY1,"2008/05/23 06:00:00",88.03,30.87,TRADE
SNOWY1,"2008/05/23 06:30:00",36.8,41.13,TRADE
SNOWY1,"2008/05/23 07:00:00",34.96,66.82,TRADE
SNOWY1,"2008/05/23 07:30:00",42.67,47.2,TRADE
SNOWY1,"2008/05/23 08:00:00",46.59,65,TRADE
SNOWY1,"2008/05/23 08:30:00",44.21,65.27,TRADE
SNOWY1,"2008/05/23 09:00:00",47.53,65.24,TRADE
SNOWY1,"2008/05/23 09:30:00",42.65,65.83,TRADE
SNOWY1,"2008/05/23 10:00:00",44.45,69.54,TRADE
SNOWY1,"2008/05/23 10:30:00",43.19,64.12,TRADE
SNOWY1,"2008/05/23 11:00:00",53.76,56.87,TRADE
SNOWY1,"2008/05/23 11:30:00",33.22,47.64,TRADE
SNOWY1,"2008/05/23 12:00:00",27.74,45,TRADE
SNOWY1,"2008/05/23 12:30:00",41.18,45,TRADE
SNOWY1,"2008/05/23 13:00:00",25.58,44.02,TRADE
SNOWY1,"2008/05/23 13:30:00",38.73,44.34,TRADE
SNOWY1,"2008/05/23 14:00:00",37.32,43.31,TRADE
SNOWY1,"2008/05/23 14:30:00",36.64,42.63,TRADE
SNOWY1,"2008/05/23 15:00:00",39.17,41.19,TRADE
SNOWY1,"2008/05/23 15:30:00",31.92,36.01,TRADE
SNOWY1,"2008/05/23 16:00:00",32.18,38.45,TRADE
SNOWY1,"2008/05/23 16:30:00",33.39,41.74,TRADE
SNOWY1,"2008/05/23 17:00:00",34.2,44.5,TRADE
SNOWY1,"2008/05/23 17:30:00",37.9,52.68,TRADE
SNOWY1,"2008/05/23 18:00:00",41.13,82.36,TRADE
SNOWY1,"2008/05/23 18:30:00",57.91,73.22,TRADE
SNOWY1,"2008/05/23 19:00:00",44.26,66.31,TRADE
SNOWY1,"2008/05/23 19:30:00",40.25,52.24,TRADE
SNOWY1,"2008/05/23 20:00:00",35.87,49.83,TRADE
SNOWY1,"2008/05/23 20:30:00",51.44,48.85,TRADE
SNOWY1,"2008/05/23 21:00:00",42.67,45.91,TRADE
SNOWY1,"2008/05/23 21:30:00",38.11,45,TRADE
SNOWY1,"2008/05/23 22:00:00",44.26,44.01,TRADE
SNOWY1,"2008/05/23 22:30:00",38.29,68.31,TRADE
SNOWY1,"2008/05/23 23:00:00",42.05,58.93,TRADE
SNOWY1,"2008/05/23 23:30:00",37.67,72.09,TRADE
SNOWY1,"2008/05/24 00:00:00",37.02,64.35,TRADE
SNOWY1,"2008/05/24 00:30:00",35.87,58.03,TRADE
SNOWY1,"2008/05/24 01:00:00",33.89,44.27,TRADE
SNOWY1,"2008/05/24 01:30:00",29.1,43.52,TRADE
SNOWY1,"2008/05/24 02:00:00",30.07,33.95,TRADE
SNOWY1,"2008/05/24 02:30:00",40.82,30.17,TRADE
SNOWY1,"2008/05/24 03:00:00",82.32,30.09,TRADE
SNOWY1,"2008/05/24 03:30:00",110.36,29.37,TRADE
SNOWY1,"2008/05/24 04:00:00",104.57,29.4,TRADE
SNOWY1,"2008/05/24 04:30:00",102.88,29.35,TRADE
SNOWY1,"2008/05/24 05:00:00",101.25,29.27,TRADE
SNOWY1,"2008/05/24 05:30:00",101.69,31.32,TRADE
SNOWY1,"2008/05/24 06:00:00",100.98,32.4,TRADE
SNOWY1,"2008/05/24 06:30:00",92.65,31.87,TRADE
SNOWY1,"2008/05/24 07:00:00",99.68,33.25,TRADE
SNOWY1,"2008/05/24 07:30:00",69.06,34.08,TRADE
SNOWY1,"2008/05/24 08:00:00",30.75,43.21,TRADE
SNOWY1,"2008/05/24 08:30:00",34.29,58.24,TRADE
SNOWY1,"2008/05/24 09:00:00",41.37,64.82,TRADE
SNOWY1,"2008/05/24 09:30:00",42.77,66.28,TRADE
SNOWY1,"2008/05/24 10:00:00",35.12,54.04,TRADE
SNOWY1,"2008/05/24 10:30:00",31.8,52.75,TRADE
SNOWY1,"2008/05/24 11:00:00",31.93,46.45,TRADE
SNOWY1,"2008/05/24 11:30:00",24.96,45.29,TRADE
SNOWY1,"2008/05/24 12:00:00",31.47,43.64,TRADE
SNOWY1,"2008/05/24 12:30:00",29.69,37.98,TRADE
SNOWY1,"2008/05/24 13:00:00",29.83,36.41,TRADE
SNOWY1,"2008/05/24 13:30:00",34.69,36.36,TRADE
SNOWY1,"2008/05/24 14:00:00",34.78,36.24,TRADE
SNOWY1,"2008/05/24 14:30:00",28.4,35.16,TRADE
SNOWY1,"2008/05/24 15:00:00",31.59,31.33,TRADE
SNOWY1,"2008/05/24 15:30:00",33.59,31.33,TRADE
SNOWY1,"2008/05/24 16:00:00",31.48,31.55,TRADE
SNOWY1,"2008/05/24 16:30:00",37.63,35.96,TRADE
SNOWY1,"2008/05/24 17:00:00",34.02,40.24,TRADE
SNOWY1,"2008/05/24 17:30:00",31.15,52.2,TRADE
SNOWY1,"2008/05/24 18:00:00",36.29,79.16,TRADE
SNOWY1,"2008/05/24 18:30:00",51.56,81.39,TRADE
SNOWY1,"2008/05/24 19:00:00",46.16,65.7,TRADE
SNOWY1,"2008/05/24 19:30:00",35.16,55.09,TRADE
SNOWY1,"2008/05/24 20:00:00",35.48,60.1,TRADE
SNOWY1,"2008/05/24 20:30:00",29.61,47.97,TRADE
SNOWY1,"2008/05/24 21:00:00",35.03,47.05,TRADE
SNOWY1,"2008/05/24 21:30:00",35.39,45.29,TRADE
SNOWY1,"2008/05/24 22:00:00",35.96,43.95,TRADE
SNOWY1,"2008/05/24 22:30:00",32.19,75.39,TRADE
SNOWY1,"2008/05/24 23:00:00",35.85,61.12,TRADE
SNOWY1,"2008/05/24 23:30:00",35.58,65.07,TRADE
SNOWY1,"2008/05/25 00:00:00",40.93,49.86,TRADE
SNOWY1,"2008/05/25 00:30:00",39.65,41.5,TRADE
SNOWY1,"2008/05/25 01:00:00",34.51,32.37,TRADE
SNOWY1,"2008/05/25 01:30:00",34.59,30.86,TRADE
SNOWY1,"2008/05/25 02:00:00",48.71,29.85,TRADE
SNOWY1,"2008/05/25 02:30:00",78.51,29.35,TRADE
SNOWY1,"2008/05/25 03:00:00",91.61,29.64,TRADE
SNOWY1,"2008/05/25 03:30:00",105.63,28.89,TRADE
SNOWY1,"2008/05/25 04:00:00",104.7,28.92,TRADE
SNOWY1,"2008/05/25 04:30:00",97.6,25.95,TRADE
SNOWY1,"2008/05/25 05:00:00",103.06,24.79,TRADE
SNOWY1,"2008/05/25 05:30:00",97.61,27.94,TRADE
SNOWY1,"2008/05/25 06:00:00",101.95,28.15,TRADE
SNOWY1,"2008/05/25 06:30:00",96.44,31.25,TRADE
SNOWY1,"2008/05/25 07:00:00",98.66,29.28,TRADE
SNOWY1,"2008/05/25 07:30:00",107.18,28.34,TRADE
SNOWY1,"2008/05/25 08:00:00",56.64,33.54,TRADE
SNOWY1,"2008/05/25 08:30:00",34.44,38.29,TRADE
SNOWY1,"2008/05/25 09:00:00",41.16,43.72,TRADE
SNOWY1,"2008/05/25 09:30:00",46.48,44.89,TRADE
SNOWY1,"2008/05/25 10:00:00",48.51,44.37,TRADE
SNOWY1,"2008/05/25 10:30:00",48.3,44.2,TRADE
SNOWY1,"2008/05/25 11:00:00",42.7,43.61,TRADE
SNOWY1,"2008/05/25 11:30:00",46.4,44.03,TRADE
SNOWY1,"2008/05/25 12:00:00",47.14,43.66,TRADE
SNOWY1,"2008/05/25 12:30:00",47.59,43.11,TRADE
SNOWY1,"2008/05/25 13:00:00",40.84,40.41,TRADE
SNOWY1,"2008/05/25 13:30:00",49.08,40.19,TRADE
SNOWY1,"2008/05/25 14:00:00",41.1,37.25,TRADE
SNOWY1,"2008/05/25 14:30:00",43.67,36.66,TRADE
SNOWY1,"2008/05/25 15:00:00",42.69,36.35,TRADE
SNOWY1,"2008/05/25 15:30:00",46.53,37.34,TRADE
SNOWY1,"2008/05/25 16:00:00",48.75,40.67,TRADE
SNOWY1,"2008/05/25 16:30:00",48.36,44.19,TRADE
SNOWY1,"2008/05/25 17:00:00",68.86,55.18,TRADE
SNOWY1,"2008/05/25 17:30:00",49.9,81.18,TRADE
SNOWY1,"2008/05/25 18:00:00",42.66,134.7,TRADE
SNOWY1,"2008/05/25 18:30:00",54.62,126.89,TRADE
SNOWY1,"2008/05/25 19:00:00",52.13,108.37,TRADE
SNOWY1,"2008/05/25 19:30:00",45.6,82.45,TRADE
SNOWY1,"2008/05/25 20:00:00",35.68,71.78,TRADE
SNOWY1,"2008/05/25 20:30:00",42.89,67.03,TRADE
SNOWY1,"2008/05/25 21:00:00",46.88,60.72,TRADE
SNOWY1,"2008/05/25 21:30:00",40.23,52.09,TRADE
SNOWY1,"2008/05/25 22:00:00",38.9,45.34,TRADE
SNOWY1,"2008/05/25 22:30:00",50.38,74.43,TRADE
SNOWY1,"2008/05/25 23:00:00",35.84,64.82,TRADE
SNOWY1,"2008/05/25 23:30:00",35.77,63.03,TRADE
SNOWY1,"2008/05/26 00:00:00",40.51,55.12,TRADE
SNOWY1,"2008/05/26 00:30:00",35.2,52.36,TRADE
SNOWY1,"2008/05/26 01:00:00",36.36,45.11,TRADE
SNOWY1,"2008/05/26 01:30:00",40.23,56.42,TRADE
SNOWY1,"2008/05/26 02:00:00",34.97,49.27,TRADE
SNOWY1,"2008/05/26 02:30:00",40.67,36.8,TRADE
SNOWY1,"2008/05/26 03:00:00",77.99,33.67,TRADE
SNOWY1,"2008/05/26 03:30:00",76.68,30.39,TRADE
SNOWY1,"2008/05/26 04:00:00",91.51,30.3,TRADE
SNOWY1,"2008/05/26 04:30:00",109.54,30.28,TRADE
SNOWY1,"2008/05/26 05:00:00",108.1,31.24,TRADE
SNOWY1,"2008/05/26 05:30:00",51.65,36.85,TRADE
SNOWY1,"2008/05/26 06:00:00",33.83,43.07,TRADE
SNOWY1,"2008/05/26 06:30:00",42.88,50.67,TRADE
SNOWY1,"2008/05/26 07:00:00",47.36,64.6,TRADE
SNOWY1,"2008/05/26 07:30:00",68.55,61.49,TRADE
SNOWY1,"2008/05/26 08:00:00",69.28,79.81,TRADE
SNOWY1,"2008/05/26 08:30:00",63.52,79.65,TRADE
SNOWY1,"2008/05/26 09:00:00",59.98,65,TRADE
SNOWY1,"2008/05/26 09:30:00",59.51,65,TRADE
SNOWY1,"2008/05/26 10:00:00",66.02,60.74,TRADE
SNOWY1,"2008/05/26 10:30:00",71.18,56.01,TRADE
SNOWY1,"2008/05/26 11:00:00",61.27,52.35,TRADE
SNOWY1,"2008/05/26 11:30:00",64.78,44.72,TRADE
SNOWY1,"2008/05/26 12:00:00",56.82,44.76,TRADE
SNOWY1,"2008/05/26 12:30:00",61.26,44.73,TRADE
SNOWY1,"2008/05/26 13:00:00",70.79,43.94,TRADE
SNOWY1,"2008/05/26 13:30:00",67.17,44.09,TRADE
SNOWY1,"2008/05/26 14:00:00",72.22,42.98,TRADE
SNOWY1,"2008/05/26 14:30:00",58.2,43.04,TRADE
SNOWY1,"2008/05/26 15:00:00",68.36,42.8,TRADE
SNOWY1,"2008/05/26 15:30:00",63.27,36.99,TRADE
SNOWY1,"2008/05/26 16:00:00",53.05,36.83,TRADE
SNOWY1,"2008/05/26 16:30:00",43.22,39.49,TRADE
SNOWY1,"2008/05/26 17:00:00",31.66,42.39,TRADE
SNOWY1,"2008/05/26 17:30:00",54.49,66.92,TRADE
SNOWY1,"2008/05/26 18:00:00",68.04,97.34,TRADE
SNOWY1,"2008/05/26 18:30:00",71.47,89.54,TRADE
SNOWY1,"2008/05/26 19:00:00",57.62,70.78,TRADE
SNOWY1,"2008/05/26 19:30:00",36.08,50.03,TRADE
SNOWY1,"2008/05/26 20:00:00",38.25,45,TRADE
SNOWY1,"2008/05/26 20:30:00",42.21,45,TRADE
SNOWY1,"2008/05/26 21:00:00",42.83,43.87,TRADE
SNOWY1,"2008/05/26 21:30:00",45.52,41.16,TRADE
SNOWY1,"2008/05/26 22:00:00",36.27,35.31,TRADE
SNOWY1,"2008/05/26 22:30:00",35.77,44.66,TRADE
SNOWY1,"2008/05/26 23:00:00",40.09,42.76,TRADE
SNOWY1,"2008/05/26 23:30:00",41,43.72,TRADE
SNOWY1,"2008/05/27 00:00:00",42.79,40.78,TRADE
SNOWY1,"2008/05/27 00:30:00",32.6,39.22,TRADE
SNOWY1,"2008/05/27 01:00:00",35.25,34.99,TRADE
SNOWY1,"2008/05/27 01:30:00",33.38,34.55,TRADE
SNOWY1,"2008/05/27 02:00:00",28.13,32.78,TRADE
SNOWY1,"2008/05/27 02:30:00",94.45,30,TRADE
SNOWY1,"2008/05/27 03:00:00",99.32,30.34,TRADE
SNOWY1,"2008/05/27 03:30:00",99.73,29.43,TRADE
SNOWY1,"2008/05/27 04:00:00",100.77,29.69,TRADE
SNOWY1,"2008/05/27 04:30:00",103.32,28.58,TRADE
SNOWY1,"2008/05/27 05:00:00",97.23,30.53,TRADE
SNOWY1,"2008/05/27 05:30:00",96.41,33.51,TRADE
SNOWY1,"2008/05/27 06:00:00",91.14,32.72,TRADE
SNOWY1,"2008/05/27 06:30:00",28.37,50.24,TRADE
SNOWY1,"2008/05/27 07:00:00",46.65,67.33,TRADE
SNOWY1,"2008/05/27 07:30:00",57.03,61.13,TRADE
SNOWY1,"2008/05/27 08:00:00",51.41,79.87,TRADE
SNOWY1,"2008/05/27 08:30:00",44.9,71.28,TRADE
SNOWY1,"2008/05/27 09:00:00",30.01,60.49,TRADE
SNOWY1,"2008/05/27 09:30:00",32.84,64.8,TRADE
SNOWY1,"2008/05/27 10:00:00",43.32,62.9,TRADE
SNOWY1,"2008/05/27 10:30:00",40.32,54.66,TRADE
SNOWY1,"2008/05/27 11:00:00",32.15,48.7,TRADE
SNOWY1,"2008/05/27 11:30:00",32.95,45.02,TRADE
SNOWY1,"2008/05/27 12:00:00",28.19,45,TRADE
SNOWY1,"2008/05/27 12:30:00",32.77,45,TRADE
SNOWY1,"2008/05/27 13:00:00",41.07,45,TRADE
SNOWY1,"2008/05/27 13:30:00",40.34,45,TRADE
SNOWY1,"2008/05/27 14:00:00",33.8,45,TRADE
SNOWY1,"2008/05/27 14:30:00",28.92,45,TRADE
SNOWY1,"2008/05/27 15:00:00",42.14,44.82,TRADE
SNOWY1,"2008/05/27 15:30:00",37.9,44.83,TRADE
SNOWY1,"2008/05/27 16:00:00",33.4,45.13,TRADE
SNOWY1,"2008/05/27 16:30:00",43.67,47.06,TRADE
SNOWY1,"2008/05/27 17:00:00",37.44,51.41,TRADE
SNOWY1,"2008/05/27 17:30:00",44.54,79.65,TRADE
SNOWY1,"2008/05/27 18:00:00",60.1,97.62,TRADE
SNOWY1,"2008/05/27 18:30:00",45.46,90.92,TRADE
SNOWY1,"2008/05/27 19:00:00",29.87,84.37,TRADE
SNOWY1,"2008/05/27 19:30:00",40.23,58.92,TRADE
SNOWY1,"2008/05/27 20:00:00",40.94,61.63,TRADE
SNOWY1,"2008/05/27 20:30:00",39.37,62.48,TRADE
SNOWY1,"2008/05/27 21:00:00",30.25,50.93,TRADE
SNOWY1,"2008/05/27 21:30:00",28.39,52.44,TRADE
SNOWY1,"2008/05/27 22:00:00",43.39,44.15,TRADE
SNOWY1,"2008/05/27 22:30:00",33.1,68.56,TRADE
SNOWY1,"2008/05/27 23:00:00",33.68,48.98,TRADE
SNOWY1,"2008/05/27 23:30:00",39.77,54.04,TRADE
SNOWY1,"2008/05/28 00:00:00",45.59,55.54,TRADE
SNOWY1,"2008/05/28 00:30:00",32.11,44.33,TRADE
SNOWY1,"2008/05/28 01:00:00",32.13,43.85,TRADE
SNOWY1,"2008/05/28 01:30:00",44.95,45.17,TRADE
SNOWY1,"2008/05/28 02:00:00",38.93,41.17,TRADE
SNOWY1,"2008/05/28 02:30:00",33.77,33.02,TRADE
SNOWY1,"2008/05/28 03:00:00",72.67,30.47,TRADE
SNOWY1,"2008/05/28 03:30:00",97.2,30.44,TRADE
SNOWY1,"2008/05/28 04:00:00",108.46,31.76,TRADE
SNOWY1,"2008/05/28 04:30:00",97.53,30.51,TRADE
SNOWY1,"2008/05/28 05:00:00",100.86,31.41,TRADE
SNOWY1,"2008/05/28 05:30:00",101.57,32.34,TRADE
SNOWY1,"2008/05/28 06:00:00",76.53,34.44,TRADE
SNOWY1,"2008/05/28 06:30:00",31.42,52.14,TRADE
SNOWY1,"2008/05/28 07:00:00",39.2,72.67,TRADE
SNOWY1,"2008/05/28 07:30:00",38.8,63.35,TRADE
SNOWY1,"2008/05/28 08:00:00",47.9,87.62,TRADE
SNOWY1,"2008/05/28 08:30:00",43.16,91,TRADE
SNOWY1,"2008/05/28 09:00:00",52.21,81.44,TRADE
SNOWY1,"2008/05/28 09:30:00",43.42,77.93,TRADE
SNOWY1,"2008/05/28 10:00:00",50.85,76.24,TRADE
SNOWY1,"2008/05/28 10:30:00",50.5,68.33,TRADE
SNOWY1,"2008/05/28 11:00:00",28.48,65,TRADE
SNOWY1,"2008/05/28 11:30:00",39.47,65,TRADE
SNOWY1,"2008/05/28 12:00:00",37.27,61.4,TRADE
SNOWY1,"2008/05/28 12:30:00",37.37,54.44,TRADE
SNOWY1,"2008/05/28 13:00:00",41.63,57.34,TRADE
SNOWY1,"2008/05/28 13:30:00",33.5,61.15,TRADE
SNOWY1,"2008/05/28 14:00:00",39.57,57.58,TRADE
SNOWY1,"2008/05/28 14:30:00",40.15,52.31,TRADE
SNOWY1,"2008/05/28 15:00:00",34.75,46.92,TRADE
SNOWY1,"2008/05/28 15:30:00",37.26,47.41,TRADE
SNOWY1,"2008/05/28 16:00:00",38.97,50.14,TRADE
SNOWY1,"2008/05/28 16:30:00",29.03,59.66,TRADE
SNOWY1,"2008/05/28 17:00:00",34.79,64.71,TRADE
SNOWY1,"2008/05/28 17:30:00",46.05,105.05,TRADE
SNOWY1,"2008/05/28 18:00:00",76.57,167.45,TRADE
SNOWY1,"2008/05/28 18:30:00",41.19,133.3,TRADE
SNOWY1,"2008/05/28 19:00:00",46.05,111.44,TRADE
SNOWY1,"2008/05/28 19:30:00",39.28,90.51,TRADE
SNOWY1,"2008/05/28 20:00:00",30.49,91,TRADE
SNOWY1,"2008/05/28 20:30:00",38.84,92.76,TRADE
SNOWY1,"2008/05/28 21:00:00",39.02,77.32,TRADE
SNOWY1,"2008/05/28 21:30:00",35.65,72.02,TRADE
SNOWY1,"2008/05/28 22:00:00",38.17,53.54,TRADE
SNOWY1,"2008/05/28 22:30:00",33.18,92.68,TRADE
SNOWY1,"2008/05/28 23:00:00",32.48,73.83,TRADE
SNOWY1,"2008/05/28 23:30:00",28.24,81.58,TRADE
SNOWY1,"2008/05/29 00:00:00",34.12,75.48,TRADE
SNOWY1,"2008/05/29 00:30:00",34.58,63.77,TRADE
SNOWY1,"2008/05/29 01:00:00",35.99,51.66,TRADE
SNOWY1,"2008/05/29 01:30:00",32.11,49.55,TRADE
SNOWY1,"2008/05/29 02:00:00",40.91,40.25,TRADE
SNOWY1,"2008/05/29 02:30:00",62.53,29.19,TRADE
SNOWY1,"2008/05/29 03:00:00",102.62,31.32,TRADE
SNOWY1,"2008/05/29 03:30:00",110.99,29.34,TRADE
SNOWY1,"2008/05/29 04:00:00",88.49,27.66,TRADE
SNOWY1,"2008/05/29 04:30:00",93.11,28.04,TRADE
SNOWY1,"2008/05/29 05:00:00",105.59,29.34,TRADE
SNOWY1,"2008/05/29 05:30:00",96.78,32.22,TRADE
SNOWY1,"2008/05/29 06:00:00",99.98,33.44,TRADE
SNOWY1,"2008/05/29 06:30:00",31.93,59.58,TRADE
SNOWY1,"2008/05/29 07:00:00",43.87,80.49,TRADE
SNOWY1,"2008/05/29 07:30:00",51.71,61.26,TRADE
SNOWY1,"2008/05/29 08:00:00",48.5,81.83,TRADE
SNOWY1,"2008/05/29 08:30:00",52.05,80.54,TRADE
SNOWY1,"2008/05/29 09:00:00",30.44,65.92,TRADE
SNOWY1,"2008/05/29 09:30:00",38.32,69.47,TRADE
SNOWY1,"2008/05/29 10:00:00",39.85,72.72,TRADE
SNOWY1,"2008/05/29 10:30:00",40.31,65,TRADE
SNOWY1,"2008/05/29 11:00:00",28.36,63.86,TRADE
SNOWY1,"2008/05/29 11:30:00",35.42,59.33,TRADE
SNOWY1,"2008/05/29 12:00:00",36.96,48.89,TRADE
SNOWY1,"2008/05/29 12:30:00",36.15,54.53,TRADE
SNOWY1,"2008/05/29 13:00:00",37.74,47.8,TRADE
SNOWY1,"2008/05/29 13:30:00",33.65,46.1,TRADE
SNOWY1,"2008/05/29 14:00:00",39.32,45,TRADE
SNOWY1,"2008/05/29 14:30:00",37.88,45.36,TRADE
SNOWY1,"2008/05/29 15:00:00",37.16,44.74,TRADE
SNOWY1,"2008/05/29 15:30:00",35.67,42.29,TRADE
SNOWY1,"2008/05/29 16:00:00",39.34,43.95,TRADE
SNOWY1,"2008/05/29 16:30:00",50.68,44.85,TRADE
SNOWY1,"2008/05/29 17:00:00",53.08,50.2,TRADE
SNOWY1,"2008/05/29 17:30:00",51.69,70.75,TRADE
SNOWY1,"2008/05/29 18:00:00",65.04,95.1,TRADE
SNOWY1,"2008/05/29 18:30:00",53.89,94.6,TRADE
SNOWY1,"2008/05/29 19:00:00",59.13,92.42,TRADE
SNOWY1,"2008/05/29 19:30:00",36.78,85.47,TRADE
SNOWY1,"2008/05/29 20:00:00",37.07,84.54,TRADE
SNOWY1,"2008/05/29 20:30:00",35.34,80.07,TRADE
SNOWY1,"2008/05/29 21:00:00",34.58,67.45,TRADE
SNOWY1,"2008/05/29 21:30:00",34.41,57.37,TRADE
SNOWY1,"2008/05/29 22:00:00",32.31,44.15,TRADE
SNOWY1,"2008/05/29 22:30:00",31.05,78.65,TRADE
SNOWY1,"2008/05/29 23:00:00",33.98,61.49,TRADE
SNOWY1,"2008/05/29 23:30:00",34.26,68.55,TRADE
SNOWY1,"2008/05/30 00:00:00",32.71,57.54,TRADE
SNOWY1,"2008/05/30 00:30:00",25.59,46.35,TRADE
SNOWY1,"2008/05/30 01:00:00",29.23,40.12,TRADE
SNOWY1,"2008/05/30 01:30:00",23.87,39.81,TRADE
SNOWY1,"2008/05/30 02:00:00",78.14,30.81,TRADE
SNOWY1,"2008/05/30 02:30:00",103.03,28.79,TRADE
SNOWY1,"2008/05/30 03:00:00",106.86,28.44,TRADE
SNOWY1,"2008/05/30 03:30:00",101.99,28.17,TRADE
SNOWY1,"2008/05/30 04:00:00",98.48,24.03,TRADE
SNOWY1,"2008/05/30 04:30:00",102.94,25.53,TRADE
SNOWY1,"2008/05/30 05:00:00",97.7,26.9,TRADE
SNOWY1,"2008/05/30 05:30:00",97.17,29.65,TRADE
SNOWY1,"2008/05/30 06:00:00",98.4,31.99,TRADE
SNOWY1,"2008/05/30 06:30:00",54.88,46.58,TRADE
SNOWY1,"2008/05/30 07:00:00",41,62.68,TRADE
SNOWY1,"2008/05/30 07:30:00",38.69,52.58,TRADE
SNOWY1,"2008/05/30 08:00:00",53.38,67.19,TRADE
SNOWY1,"2008/05/30 08:30:00",49.83,70.32,TRADE
SNOWY1,"2008/05/30 09:00:00",41.88,64.59,TRADE
SNOWY1,"2008/05/30 09:30:00",45.75,63.74,TRADE
SNOWY1,"2008/05/30 10:00:00",36.17,62.9,TRADE
SNOWY1,"2008/05/30 10:30:00",31.77,55.11,TRADE
SNOWY1,"2008/05/30 11:00:00",34.08,49.94,TRADE
SNOWY1,"2008/05/30 11:30:00",45.31,48.55,TRADE
SNOWY1,"2008/05/30 12:00:00",42.88,45.35,TRADE
SNOWY1,"2008/05/30 12:30:00",39.82,45.19,TRADE
SNOWY1,"2008/05/30 13:00:00",39.45,45.47,TRADE
SNOWY1,"2008/05/30 13:30:00",40.03,44.4,TRADE
SNOWY1,"2008/05/30 14:00:00",39.94,43.56,TRADE
SNOWY1,"2008/05/30 14:30:00",44.95,42.87,TRADE
SNOWY1,"2008/05/30 15:00:00",35.29,41.07,TRADE
SNOWY1,"2008/05/30 15:30:00",38.2,36.5,TRADE
SNOWY1,"2008/05/30 16:00:00",35.42,38.29,TRADE
SNOWY1,"2008/05/30 16:30:00",34.56,41.57,TRADE
SNOWY1,"2008/05/30 17:00:00",40.88,44.53,TRADE
SNOWY1,"2008/05/30 17:30:00",36.59,54.03,TRADE
SNOWY1,"2008/05/30 18:00:00",41.99,78.64,TRADE
SNOWY1,"2008/05/30 18:30:00",47.32,68.11,TRADE
SNOWY1,"2008/05/30 19:00:00",53.79,59.6,TRADE
SNOWY1,"2008/05/30 19:30:00",50.45,47.72,TRADE
SNOWY1,"2008/05/30 20:00:00",35.1,49.46,TRADE
SNOWY1,"2008/05/30 20:30:00",42.73,50.7,TRADE
SNOWY1,"2008/05/30 21:00:00",37.63,45.32,TRADE
SNOWY1,"2008/05/30 21:30:00",37.86,46.35,TRADE
SNOWY1,"2008/05/30 22:00:00",33.05,39.7,TRADE
SNOWY1,"2008/05/30 22:30:00",38.18,63.36,TRADE
SNOWY1,"2008/05/30 23:00:00",38.99,50.57,TRADE
SNOWY1,"2008/05/30 23:30:00",41.55,65.44,TRADE
SNOWY1,"2008/05/31 00:00:00",40.19,60.71,TRADE
SNOWY1,"2008/05/31 00:30:00",39.83,52.77,TRADE
SNOWY1,"2008/05/31 01:00:00",39.84,40.71,TRADE
SNOWY1,"2008/05/31 01:30:00",37.14,40.14,TRADE
SNOWY1,"2008/05/31 02:00:00",54.55,33.64,TRADE
SNOWY1,"2008/05/31 02:30:00",113.36,30.76,TRADE
SNOWY1,"2008/05/31 03:00:00",118.86,30.54,TRADE
SNOWY1,"2008/05/31 03:30:00",122.41,29.98,TRADE
SNOWY1,"2008/05/31 04:00:00",117.97,25.4,TRADE
SNOWY1,"2008/05/31 04:30:00",120.67,21.35,TRADE
SNOWY1,"2008/05/31 05:00:00",118.87,21.05,TRADE
SNOWY1,"2008/05/31 05:30:00",122.61,20.52,TRADE
SNOWY1,"2008/05/31 06:00:00",118.71,21.6,TRADE
SNOWY1,"2008/05/31 06:30:00",118,30.4,TRADE
SNOWY1,"2008/05/31 07:00:00",106.78,30.61,TRADE
SNOWY1,"2008/05/31 07:30:00",107.02,31.32,TRADE
SNOWY1,"2008/05/31 08:00:00",116.52,38.98,TRADE
SNOWY1,"2008/05/31 08:30:00",123.44,49.17,TRADE
SNOWY1,"2008/05/31 09:00:00",108.24,60.46,TRADE
SNOWY1,"2008/05/31 09:30:00",53.13,64.55,TRADE
SNOWY1,"2008/05/31 10:00:00",56.01,63.28,TRADE
SNOWY1,"2008/05/31 10:30:00",55.05,55.68,TRADE
SNOWY1,"2008/05/31 11:00:00",52.65,45.99,TRADE
SNOWY1,"2008/05/31 11:30:00",40.69,44.44,TRADE
SNOWY1,"2008/05/31 12:00:00",45.63,43.72,TRADE
SNOWY1,"2008/05/31 12:30:00",50.26,43.64,TRADE
SNOWY1,"2008/05/31 13:00:00",53.57,42.73,TRADE
SNOWY1,"2008/05/31 13:30:00",56.54,40.64,TRADE
SNOWY1,"2008/05/31 14:00:00",49.63,37.8,TRADE
SNOWY1,"2008/05/31 14:30:00",57.02,36.74,TRADE
SNOWY1,"2008/05/31 15:00:00",61.37,35.23,TRADE
SNOWY1,"2008/05/31 15:30:00",53.68,34.36,TRADE
SNOWY1,"2008/05/31 16:00:00",52.73,37.23,TRADE
SNOWY1,"2008/05/31 16:30:00",61.13,38.01,TRADE
SNOWY1,"2008/05/31 17:00:00",60.08,44.82,TRADE
SNOWY1,"2008/05/31 17:30:00",62.39,64.65,TRADE
SNOWY1,"2008/05/31 18:00:00",66.64,86.46,TRADE
SNOWY1,"2008/05/31 18:30:00",69.96,82.94,TRADE
SNOWY1,"2008/05/31 19:00:00",54.18,64.41,TRADE
SNOWY1,"2008/05/31 19:30:00",47.45,53.45,TRADE
SNOWY1,"2008/05/31 20:00:00",41.23,52.48,TRADE
SNOWY1,"2008/05/31 20:30:00",50.98,45.85,TRADE
SNOWY1,"2008/05/31 21:00:00",51.96,45.07,TRADE
SNOWY1,"2008/05/31 21:30:00",39.85,44.98,TRADE
SNOWY1,"2008/05/31 22:00:00",47.09,42.65,TRADE
SNOWY1,"2008/05/31 22:30:00",44.39,46.02,TRADE
SNOWY1,"2008/05/31 23:00:00",58.24,45.75,TRADE
SNOWY1,"2008/05/31 23:30:00",55.71,49.52,TRADE
SNOWY1,"2008/06/01 00:00:00",47.06,46.67,TRADE
