REGION,SETTLEMENTDATE,TOTALDEMAND,RRP,PERIODTYPE
QLD1,"2004/10/01 00:30:00",4770.65667,28.63,TRADE
QLD1,"2004/10/01 01:00:00",4626.50833,24.16,TRADE
QLD1,"2004/10/01 01:30:00",4427.96,25.64,TRADE
QLD1,"2004/10/01 02:00:00",4297.51833,23.36,TRADE
QLD1,"2004/10/01 02:30:00",4183.46667,21.59,TRADE
QLD1,"2004/10/01 03:00:00",4115.805,20.51,TRADE
QLD1,"2004/10/01 03:30:00",4070.51833,19,TRADE
QLD1,"2004/10/01 04:00:00",4093.30333,19.02,TRADE
QLD1,"2004/10/01 04:30:00",4119.175,18.9,TRADE
QLD1,"2004/10/01 05:00:00",4187.44,18.61,TRADE
QLD1,"2004/10/01 05:30:00",4394.665,19.34,TRADE
QLD1,"2004/10/01 06:00:00",4563.35,19.17,TRADE
QLD1,"2004/10/01 06:30:00",4901.27333,19.79,TRADE
QLD1,"2004/10/01 07:00:00",5268.42167,21.5,TRADE
QLD1,"2004/10/01 07:30:00",5557.57167,18.7,TRADE
QLD1,"2004/10/01 08:00:00",5776.87333,24.02,TRADE
QLD1,"2004/10/01 08:30:00",5994.27,25.96,TRADE
QLD1,"2004/10/01 09:00:00",6107.55333,29.91,TRADE
QLD1,"2004/10/01 09:30:00",6151.245,30.91,TRADE
QLD1,"2004/10/01 10:00:00",6106.94833,30.55,TRADE
QLD1,"2004/10/01 10:30:00",6090.06833,30.51,TRADE
QLD1,"2004/10/01 11:00:00",6083.29833,31,TRADE
QLD1,"2004/10/01 11:30:00",6074.69,34.74,TRADE
QLD1,"2004/10/01 12:00:00",6089.89667,36.07,TRADE
QLD1,"2004/10/01 12:30:00",6067.89833,36.58,TRADE
QLD1,"2004/10/01 13:00:00",6055.855,35.57,TRADE
QLD1,"2004/10/01 13:30:00",6061.66833,41.22,TRADE
QLD1,"2004/10/01 14:00:00",5975.42667,43.74,TRADE
QLD1,"2004/10/01 14:30:00",5966.64833,39.81,TRADE
QLD1,"2004/10/01 15:00:00",5976.21167,37.39,TRADE
QLD1,"2004/10/01 15:30:00",5980.405,31.49,TRADE
QLD1,"2004/10/01 16:00:00",5942.81833,25.88,TRADE
QLD1,"2004/10/01 16:30:00",5947.22,25.1,TRADE
QLD1,"2004/10/01 17:00:00",5993.45833,25.1,TRADE
QLD1,"2004/10/01 17:30:00",5983.34,24.13,TRADE
QLD1,"2004/10/01 18:00:00",6037.61333,30.77,TRADE
QLD1,"2004/10/01 18:30:00",6173.55333,36.41,TRADE
QLD1,"2004/10/01 19:00:00",6133.56333,35.18,TRADE
QLD1,"2004/10/01 19:30:00",6016.02167,36.8,TRADE
QLD1,"2004/10/01 20:00:00",5838.71833,30.05,TRADE
QLD1,"2004/10/01 20:30:00",5704.215,29.93,TRADE
QLD1,"2004/10/01 21:00:00",5608.80333,28.32,TRADE
QLD1,"2004/10/01 21:30:00",5489.92833,25.41,TRADE
QLD1,"2004/10/01 22:00:00",5343.52167,23.25,TRADE
QLD1,"2004/10/01 22:30:00",5282.50333,33.68,TRADE
QLD1,"2004/10/01 23:00:00",5229.42667,32.36,TRADE
QLD1,"2004/10/01 23:30:00",5186.11167,38.72,TRADE
QLD1,"2004/10/02 00:00:00",5039.75333,32.45,TRADE
QLD1,"2004/10/02 00:30:00",4829.945,25.74,TRADE
QLD1,"2004/10/02 01:00:00",4661.655,23.83,TRADE
QLD1,"2004/10/02 01:30:00",4439.65833,23.34,TRADE
QLD1,"2004/10/02 02:00:00",4299.42833,22.32,TRADE
QLD1,"2004/10/02 02:30:00",4123.295,21.43,TRADE
QLD1,"2004/10/02 03:00:00",4081.435,20.87,TRADE
QLD1,"2004/10/02 03:30:00",4027.88,19.1,TRADE
QLD1,"2004/10/02 04:00:00",4034.62333,19.14,TRADE
QLD1,"2004/10/02 04:30:00",4070.06167,19.42,TRADE
QLD1,"2004/10/02 05:00:00",4084.09167,18.15,TRADE
QLD1,"2004/10/02 05:30:00",4125.46833,20.22,TRADE
QLD1,"2004/10/02 06:00:00",4161.915,18.06,TRADE
QLD1,"2004/10/02 06:30:00",4343.31,18.59,TRADE
QLD1,"2004/10/02 07:00:00",4555.85833,18.65,TRADE
QLD1,"2004/10/02 07:30:00",4870.46667,18.27,TRADE
QLD1,"2004/10/02 08:00:00",5124.30333,21.29,TRADE
QLD1,"2004/10/02 08:30:00",5277.77,24.48,TRADE
QLD1,"2004/10/02 09:00:00",5394.38,26.37,TRADE
QLD1,"2004/10/02 09:30:00",5514.81,34.72,TRADE
QLD1,"2004/10/02 10:00:00",5481.00833,32.4,TRADE
QLD1,"2004/10/02 10:30:00",5492.51667,35.52,TRADE
QLD1,"2004/10/02 11:00:00",5471,31.62,TRADE
QLD1,"2004/10/02 11:30:00",5434.48,28.69,TRADE
QLD1,"2004/10/02 12:00:00",5415.46667,30.98,TRADE
QLD1,"2004/10/02 12:30:00",5326.73667,28.65,TRADE
QLD1,"2004/10/02 13:00:00",5324.07833,25.51,TRADE
QLD1,"2004/10/02 13:30:00",5282.725,25.39,TRADE
QLD1,"2004/10/02 14:00:00",5294.78167,24.82,TRADE
QLD1,"2004/10/02 14:30:00",5246.335,23.85,TRADE
QLD1,"2004/10/02 15:00:00",5233.39833,22.91,TRADE
QLD1,"2004/10/02 15:30:00",5232.16833,21.49,TRADE
QLD1,"2004/10/02 16:00:00",5224.91333,21.39,TRADE
QLD1,"2004/10/02 16:30:00",5228.23333,21.89,TRADE
QLD1,"2004/10/02 17:00:00",5303.965,23.04,TRADE
QLD1,"2004/10/02 17:30:00",5388.42,23.05,TRADE
QLD1,"2004/10/02 18:00:00",5527.80167,24.25,TRADE
QLD1,"2004/10/02 18:30:00",5796.28667,31.22,TRADE
QLD1,"2004/10/02 19:00:00",5823.78667,37.08,TRADE
QLD1,"2004/10/02 19:30:00",5667.05167,35.09,TRADE
QLD1,"2004/10/02 20:00:00",5560.33667,29.92,TRADE
QLD1,"2004/10/02 20:30:00",5335.71333,25.32,TRADE
QLD1,"2004/10/02 21:00:00",5225.32667,23.65,TRADE
QLD1,"2004/10/02 21:30:00",5113.72833,20.42,TRADE
QLD1,"2004/10/02 22:00:00",4990.235,18.06,TRADE
QLD1,"2004/10/02 22:30:00",4979.01333,22,TRADE
QLD1,"2004/10/02 23:00:00",4933.44333,21.34,TRADE
QLD1,"2004/10/02 23:30:00",4964.49833,23.95,TRADE
QLD1,"2004/10/03 00:00:00",4804.38667,22.46,TRADE
QLD1,"2004/10/03 00:30:00",4584.98333,20.27,TRADE
QLD1,"2004/10/03 01:00:00",4454.58667,19.33,TRADE
QLD1,"2004/10/03 01:30:00",4283.78667,19.73,TRADE
QLD1,"2004/10/03 02:00:00",4172.27167,19.79,TRADE
QLD1,"2004/10/03 02:30:00",4060.84333,18.15,TRADE
QLD1,"2004/10/03 03:00:00",3993.015,18.98,TRADE
QLD1,"2004/10/03 03:30:00",3962.93167,18.36,TRADE
QLD1,"2004/10/03 04:00:00",3928.24167,17.52,TRADE
QLD1,"2004/10/03 04:30:00",3909.15167,17.14,TRADE
QLD1,"2004/10/03 05:00:00",3948.12333,18.17,TRADE
QLD1,"2004/10/03 05:30:00",3965.04833,19.38,TRADE
QLD1,"2004/10/03 06:00:00",3966.74833,17.97,TRADE
QLD1,"2004/10/03 06:30:00",4083.16,18.29,TRADE
QLD1,"2004/10/03 07:00:00",4244.39167,18.63,TRADE
QLD1,"2004/10/03 07:30:00",4460.295,16.49,TRADE
QLD1,"2004/10/03 08:00:00",4679.34333,19.17,TRADE
QLD1,"2004/10/03 08:30:00",4880.80667,20.29,TRADE
QLD1,"2004/10/03 09:00:00",4999.72667,20.32,TRADE
QLD1,"2004/10/03 09:30:00",5115.69667,22.13,TRADE
QLD1,"2004/10/03 10:00:00",5159.58167,23.01,TRADE
QLD1,"2004/10/03 10:30:00",5184.19833,23.25,TRADE
QLD1,"2004/10/03 11:00:00",5121.43167,20.78,TRADE
QLD1,"2004/10/03 11:30:00",5120.23667,19.86,TRADE
QLD1,"2004/10/03 12:00:00",5131.95667,19.86,TRADE
QLD1,"2004/10/03 12:30:00",5114.55167,19.61,TRADE
QLD1,"2004/10/03 13:00:00",5107.05833,19.37,TRADE
QLD1,"2004/10/03 13:30:00",5092.89833,19.22,TRADE
QLD1,"2004/10/03 14:00:00",5055.00333,18.95,TRADE
QLD1,"2004/10/03 14:30:00",5057.92167,19.05,TRADE
QLD1,"2004/10/03 15:00:00",5029.12167,18.41,TRADE
QLD1,"2004/10/03 15:30:00",5012.69167,18.56,TRADE
QLD1,"2004/10/03 16:00:00",5124.90833,18.93,TRADE
QLD1,"2004/10/03 16:30:00",5094.38667,19.32,TRADE
QLD1,"2004/10/03 17:00:00",5179.42833,19.52,TRADE
QLD1,"2004/10/03 17:30:00",5274.40333,20.81,TRADE
QLD1,"2004/10/03 18:00:00",5533.18667,23.95,TRADE
QLD1,"2004/10/03 18:30:00",5900.495,34.35,TRADE
QLD1,"2004/10/03 19:00:00",5964.14167,36.27,TRADE
QLD1,"2004/10/03 19:30:00",5792.57833,29.66,TRADE
QLD1,"2004/10/03 20:00:00",5552.40833,26.19,TRADE
QLD1,"2004/10/03 20:30:00",5432.57667,25.08,TRADE
QLD1,"2004/10/03 21:00:00",5278.34333,23.42,TRADE
QLD1,"2004/10/03 21:30:00",5206.4,22.26,TRADE
QLD1,"2004/10/03 22:00:00",5077.82667,18.5,TRADE
QLD1,"2004/10/03 22:30:00",5063.94833,23.6,TRADE
QLD1,"2004/10/03 23:00:00",4972.54667,20.38,TRADE
QLD1,"2004/10/03 23:30:00",4952.40833,24.27,TRADE
QLD1,"2004/10/04 00:00:00",4755.425,22.06,TRADE
QLD1,"2004/10/04 00:30:00",4544.02,19.7,TRADE
QLD1,"2004/10/04 01:00:00",4438.08167,18.71,TRADE
QLD1,"2004/10/04 01:30:00",4290.54833,18.94,TRADE
QLD1,"2004/10/04 02:00:00",4144.33167,17.73,TRADE
QLD1,"2004/10/04 02:30:00",4104.42667,18.49,TRADE
QLD1,"2004/10/04 03:00:00",4010.4,17.96,TRADE
QLD1,"2004/10/04 03:30:00",4008.08333,16.62,TRADE
QLD1,"2004/10/04 04:00:00",3986.165,17.43,TRADE
QLD1,"2004/10/04 04:30:00",4054.27833,17.98,TRADE
QLD1,"2004/10/04 05:00:00",4091.92667,18.71,TRADE
QLD1,"2004/10/04 05:30:00",4288.32667,19.62,TRADE
QLD1,"2004/10/04 06:00:00",4467.9,19.26,TRADE
QLD1,"2004/10/04 06:30:00",4852.675,19.38,TRADE
QLD1,"2004/10/04 07:00:00",5267.34333,22.03,TRADE
QLD1,"2004/10/04 07:30:00",5694.26667,22.17,TRADE
QLD1,"2004/10/04 08:00:00",5891.48833,24.58,TRADE
QLD1,"2004/10/04 08:30:00",6000.11167,25.11,TRADE
QLD1,"2004/10/04 09:00:00",5965.02,25.66,TRADE
QLD1,"2004/10/04 09:30:00",6009.68667,26.11,TRADE
QLD1,"2004/10/04 10:00:00",6000.45667,26.65,TRADE
QLD1,"2004/10/04 10:30:00",6029.54833,29.99,TRADE
QLD1,"2004/10/04 11:00:00",6053.8,30.44,TRADE
QLD1,"2004/10/04 11:30:00",6079.63333,36.84,TRADE
QLD1,"2004/10/04 12:00:00",6100.00333,34.95,TRADE
QLD1,"2004/10/04 12:30:00",6099.62,34.07,TRADE
QLD1,"2004/10/04 13:00:00",6087.56833,34.55,TRADE
QLD1,"2004/10/04 13:30:00",6086.56333,35.02,TRADE
QLD1,"2004/10/04 14:00:00",6077.83,34.04,TRADE
QLD1,"2004/10/04 14:30:00",6108.98,35.02,TRADE
QLD1,"2004/10/04 15:00:00",6110.5,32.47,TRADE
QLD1,"2004/10/04 15:30:00",6118.38,27.54,TRADE
QLD1,"2004/10/04 16:00:00",6088.48333,27.08,TRADE
QLD1,"2004/10/04 16:30:00",6116.62333,27.49,TRADE
QLD1,"2004/10/04 17:00:00",6106.12333,28.31,TRADE
QLD1,"2004/10/04 17:30:00",6088.69,29.95,TRADE
QLD1,"2004/10/04 18:00:00",6227.86,36.03,TRADE
QLD1,"2004/10/04 18:30:00",6426.67833,54.31,TRADE
QLD1,"2004/10/04 19:00:00",6479.99167,65.45,TRADE
QLD1,"2004/10/04 19:30:00",6200.80833,38.66,TRADE
QLD1,"2004/10/04 20:00:00",6022.92833,33.14,TRADE
QLD1,"2004/10/04 20:30:00",5768.275,29.85,TRADE
QLD1,"2004/10/04 21:00:00",5666.82833,31.3,TRADE
QLD1,"2004/10/04 21:30:00",5576.98,28.28,TRADE
QLD1,"2004/10/04 22:00:00",5457.29333,28.4,TRADE
QLD1,"2004/10/04 22:30:00",5341.41167,30.15,TRADE
QLD1,"2004/10/04 23:00:00",5209.38667,31.35,TRADE
QLD1,"2004/10/04 23:30:00",5173.82333,48.56,TRADE
QLD1,"2004/10/05 00:00:00",4970.97833,49.06,TRADE
QLD1,"2004/10/05 00:30:00",4757.67833,31.9,TRADE
QLD1,"2004/10/05 01:00:00",4635.20333,31.68,TRADE
QLD1,"2004/10/05 01:30:00",4472.77333,32.61,TRADE
QLD1,"2004/10/05 02:00:00",4318.69333,27.93,TRADE
QLD1,"2004/10/05 02:30:00",4198.04833,24.82,TRADE
QLD1,"2004/10/05 03:00:00",4144.145,24.13,TRADE
QLD1,"2004/10/05 03:30:00",4107.38833,22.92,TRADE
QLD1,"2004/10/05 04:00:00",4089.915,22.88,TRADE
QLD1,"2004/10/05 04:30:00",4141.94667,20.27,TRADE
QLD1,"2004/10/05 05:00:00",4174.29167,20.51,TRADE
QLD1,"2004/10/05 05:30:00",4337.64333,22.04,TRADE
QLD1,"2004/10/05 06:00:00",4584.025,23.38,TRADE
QLD1,"2004/10/05 06:30:00",4930.70167,24.88,TRADE
QLD1,"2004/10/05 07:00:00",5348.23333,27.24,TRADE
QLD1,"2004/10/05 07:30:00",5724.1,51.52,TRADE
QLD1,"2004/10/05 08:00:00",5901.74333,25.89,TRADE
QLD1,"2004/10/05 08:30:00",6028.665,26.9,TRADE
QLD1,"2004/10/05 09:00:00",6031.30167,27.27,TRADE
QLD1,"2004/10/05 09:30:00",6054.79333,26.66,TRADE
QLD1,"2004/10/05 10:00:00",6089.145,28.63,TRADE
QLD1,"2004/10/05 10:30:00",6074.99167,32.68,TRADE
QLD1,"2004/10/05 11:00:00",6089.33833,35.15,TRADE
QLD1,"2004/10/05 11:30:00",6083.93833,38.59,TRADE
QLD1,"2004/10/05 12:00:00",6081.46333,42.67,TRADE
QLD1,"2004/10/05 12:30:00",6128.73,45.87,TRADE
QLD1,"2004/10/05 13:00:00",6134.60333,49.98,TRADE
QLD1,"2004/10/05 13:30:00",6126.885,46.73,TRADE
QLD1,"2004/10/05 14:00:00",6095.62667,42.56,TRADE
QLD1,"2004/10/05 14:30:00",6120.24667,41.76,TRADE
QLD1,"2004/10/05 15:00:00",6117.90833,41.16,TRADE
QLD1,"2004/10/05 15:30:00",6089.91,35.18,TRADE
QLD1,"2004/10/05 16:00:00",6133.99667,34.4,TRADE
QLD1,"2004/10/05 16:30:00",6133.00833,28.27,TRADE
QLD1,"2004/10/05 17:00:00",6162.94833,28.34,TRADE
QLD1,"2004/10/05 17:30:00",6162.80833,27.5,TRADE
QLD1,"2004/10/05 18:00:00",6260.98167,32.12,TRADE
QLD1,"2004/10/05 18:30:00",6425.31,35.9,TRADE
QLD1,"2004/10/05 19:00:00",6417.47667,35.39,TRADE
QLD1,"2004/10/05 19:30:00",6213.10333,34.01,TRADE
QLD1,"2004/10/05 20:00:00",6010.535,31.05,TRADE
QLD1,"2004/10/05 20:30:00",5836.81833,29.77,TRADE
QLD1,"2004/10/05 21:00:00",5704.47667,32.09,TRADE
QLD1,"2004/10/05 21:30:00",5535.27167,27.06,TRADE
QLD1,"2004/10/05 22:00:00",5453.49333,24.29,TRADE
QLD1,"2004/10/05 22:30:00",5333.81667,31.76,TRADE
QLD1,"2004/10/05 23:00:00",5247.33333,29.17,TRADE
QLD1,"2004/10/05 23:30:00",5211.44167,33.88,TRADE
QLD1,"2004/10/06 00:00:00",4985.18333,28.68,TRADE
QLD1,"2004/10/06 00:30:00",4790.97167,26.98,TRADE
QLD1,"2004/10/06 01:00:00",4623.25,24.48,TRADE
QLD1,"2004/10/06 01:30:00",4473.70833,25.77,TRADE
QLD1,"2004/10/06 02:00:00",4316.23167,22.85,TRADE
QLD1,"2004/10/06 02:30:00",4197.995,21.63,TRADE
QLD1,"2004/10/06 03:00:00",4133.09667,20.88,TRADE
QLD1,"2004/10/06 03:30:00",4145.36333,19.64,TRADE
QLD1,"2004/10/06 04:00:00",4133.52667,19.37,TRADE
QLD1,"2004/10/06 04:30:00",4136.25167,17.67,TRADE
QLD1,"2004/10/06 05:00:00",4227.43833,18.48,TRADE
QLD1,"2004/10/06 05:30:00",4350.02,19,TRADE
QLD1,"2004/10/06 06:00:00",4558.18333,19.77,TRADE
QLD1,"2004/10/06 06:30:00",4970.755,21.18,TRADE
QLD1,"2004/10/06 07:00:00",5320.64667,21.91,TRADE
QLD1,"2004/10/06 07:30:00",5677.44,19.28,TRADE
QLD1,"2004/10/06 08:00:00",5963.18833,24.14,TRADE
QLD1,"2004/10/06 08:30:00",6042.66,26.55,TRADE
QLD1,"2004/10/06 09:00:00",6057.41833,27.02,TRADE
QLD1,"2004/10/06 09:30:00",6114.65,29.42,TRADE
QLD1,"2004/10/06 10:00:00",6098.67167,29.87,TRADE
QLD1,"2004/10/06 10:30:00",6102.75667,32.96,TRADE
QLD1,"2004/10/06 11:00:00",6092.02333,33.72,TRADE
QLD1,"2004/10/06 11:30:00",6098.31333,32.94,TRADE
QLD1,"2004/10/06 12:00:00",6106.715,32.68,TRADE
QLD1,"2004/10/06 12:30:00",6178.70333,26.92,TRADE
QLD1,"2004/10/06 13:00:00",6162.31667,29.29,TRADE
QLD1,"2004/10/06 13:30:00",6187.195,38.39,TRADE
QLD1,"2004/10/06 14:00:00",6202.93667,39.96,TRADE
QLD1,"2004/10/06 14:30:00",6239.01,39.64,TRADE
QLD1,"2004/10/06 15:00:00",6203.44333,41.65,TRADE
QLD1,"2004/10/06 15:30:00",6183.42333,42.46,TRADE
QLD1,"2004/10/06 16:00:00",6140.67167,47.68,TRADE
QLD1,"2004/10/06 16:30:00",6091.83333,46.03,TRADE
QLD1,"2004/10/06 17:00:00",6107.50167,46.27,TRADE
QLD1,"2004/10/06 17:30:00",6039.60333,40.7,TRADE
QLD1,"2004/10/06 18:00:00",5947.51667,32.52,TRADE
QLD1,"2004/10/06 18:30:00",6031.115,42.17,TRADE
QLD1,"2004/10/06 19:00:00",6050.45,47.23,TRADE
QLD1,"2004/10/06 19:30:00",5951.59667,39.76,TRADE
QLD1,"2004/10/06 20:00:00",5911.58167,35.83,TRADE
QLD1,"2004/10/06 20:30:00",5902.42667,35.25,TRADE
QLD1,"2004/10/06 21:00:00",5881.08333,46.79,TRADE
QLD1,"2004/10/06 21:30:00",5709.305,33.76,TRADE
QLD1,"2004/10/06 22:00:00",5522.16167,29.24,TRADE
QLD1,"2004/10/06 22:30:00",5371.28833,36.46,TRADE
QLD1,"2004/10/06 23:00:00",5220.72167,36.45,TRADE
QLD1,"2004/10/06 23:30:00",5177.8,39.98,TRADE
QLD1,"2004/10/07 00:00:00",4938.08333,33.15,TRADE
QLD1,"2004/10/07 00:30:00",4727.905,33.07,TRADE
QLD1,"2004/10/07 01:00:00",4574.89667,27.5,TRADE
QLD1,"2004/10/07 01:30:00",4400.85333,26.38,TRADE
QLD1,"2004/10/07 02:00:00",4309.89167,24.15,TRADE
QLD1,"2004/10/07 02:30:00",4189.85833,23.01,TRADE
QLD1,"2004/10/07 03:00:00",4119.81333,22.09,TRADE
QLD1,"2004/10/07 03:30:00",4138.69667,19.74,TRADE
QLD1,"2004/10/07 04:00:00",4085.84833,19.62,TRADE
QLD1,"2004/10/07 04:30:00",4096.99833,19.34,TRADE
QLD1,"2004/10/07 05:00:00",4178.08167,19.39,TRADE
QLD1,"2004/10/07 05:30:00",4315.09667,20.16,TRADE
QLD1,"2004/10/07 06:00:00",4514.81,22.35,TRADE
QLD1,"2004/10/07 06:30:00",4890.63833,24.29,TRADE
QLD1,"2004/10/07 07:00:00",5270.51167,70.72,TRADE
QLD1,"2004/10/07 07:30:00",5361.93667,18.35,TRADE
QLD1,"2004/10/07 08:00:00",5699.815,25.43,TRADE
QLD1,"2004/10/07 08:30:00",5926.375,82.55,TRADE
QLD1,"2004/10/07 09:00:00",6072.42333,216.52,TRADE
QLD1,"2004/10/07 09:30:00",6174.75333,299.64,TRADE
QLD1,"2004/10/07 10:00:00",6107.765,160.34,TRADE
QLD1,"2004/10/07 10:30:00",6046.72333,86.35,TRADE
QLD1,"2004/10/07 11:00:00",6055.28667,69.35,TRADE
QLD1,"2004/10/07 11:30:00",6068.615,93.01,TRADE
QLD1,"2004/10/07 12:00:00",6073.25333,93.01,TRADE
QLD1,"2004/10/07 12:30:00",6062.56167,93.01,TRADE
QLD1,"2004/10/07 13:00:00",6081.32667,74.75,TRADE
QLD1,"2004/10/07 13:30:00",6069.23333,48.5,TRADE
QLD1,"2004/10/07 14:00:00",6107.47833,46.97,TRADE
QLD1,"2004/10/07 14:30:00",6107.48,35.12,TRADE
QLD1,"2004/10/07 15:00:00",6114.21667,29.51,TRADE
QLD1,"2004/10/07 15:30:00",6081.995,31.34,TRADE
QLD1,"2004/10/07 16:00:00",6062.63833,31.4,TRADE
QLD1,"2004/10/07 16:30:00",6078.7,30.07,TRADE
QLD1,"2004/10/07 17:00:00",6081.46,31.15,TRADE
QLD1,"2004/10/07 17:30:00",6049.745,32.18,TRADE
QLD1,"2004/10/07 18:00:00",6221.565,33.01,TRADE
QLD1,"2004/10/07 18:30:00",6371.50333,41.2,TRADE
QLD1,"2004/10/07 19:00:00",6452.335,50.28,TRADE
QLD1,"2004/10/07 19:30:00",6290.47833,39.06,TRADE
QLD1,"2004/10/07 20:00:00",6082.12667,31.63,TRADE
QLD1,"2004/10/07 20:30:00",5949.27,30.36,TRADE
QLD1,"2004/10/07 21:00:00",5809.81167,30.3,TRADE
QLD1,"2004/10/07 21:30:00",5650.63833,30.71,TRADE
QLD1,"2004/10/07 22:00:00",5493.65833,26.95,TRADE
QLD1,"2004/10/07 22:30:00",5402.77667,30.98,TRADE
QLD1,"2004/10/07 23:00:00",5290.95167,29.28,TRADE
QLD1,"2004/10/07 23:30:00",5279.21333,37.35,TRADE
QLD1,"2004/10/08 00:00:00",5038.80167,29.85,TRADE
QLD1,"2004/10/08 00:30:00",4770.65667,26.97,TRADE
QLD1,"2004/10/08 01:00:00",4648.52333,26.68,TRADE
QLD1,"2004/10/08 01:30:00",4457.85667,25.06,TRADE
QLD1,"2004/10/08 02:00:00",4309.31333,23.83,TRADE
QLD1,"2004/10/08 02:30:00",4243.14667,22.14,TRADE
QLD1,"2004/10/08 03:00:00",4182.01833,21.34,TRADE
QLD1,"2004/10/08 03:30:00",4172.605,18.64,TRADE
QLD1,"2004/10/08 04:00:00",4158.535,19.26,TRADE
QLD1,"2004/10/08 04:30:00",4207.30833,18.79,TRADE
QLD1,"2004/10/08 05:00:00",4295.575,18.42,TRADE
QLD1,"2004/10/08 05:30:00",4438.40833,19.57,TRADE
QLD1,"2004/10/08 06:00:00",4598.49167,17.87,TRADE
QLD1,"2004/10/08 06:30:00",4990.365,21.2,TRADE
QLD1,"2004/10/08 07:00:00",5397.02,24.11,TRADE
QLD1,"2004/10/08 07:30:00",5767.135,21.49,TRADE
QLD1,"2004/10/08 08:00:00",6058.26,25.34,TRADE
QLD1,"2004/10/08 08:30:00",6187.22167,29.84,TRADE
QLD1,"2004/10/08 09:00:00",6237.61167,30.75,TRADE
QLD1,"2004/10/08 09:30:00",6271.47333,34.84,TRADE
QLD1,"2004/10/08 10:00:00",6262.22833,36.84,TRADE
QLD1,"2004/10/08 10:30:00",6298.29,35.66,TRADE
QLD1,"2004/10/08 11:00:00",6305.16167,33.73,TRADE
QLD1,"2004/10/08 11:30:00",6331.43333,35.98,TRADE
QLD1,"2004/10/08 12:00:00",6358.11,35.18,TRADE
QLD1,"2004/10/08 12:30:00",6434.30167,35.02,TRADE
QLD1,"2004/10/08 13:00:00",6484.58833,35.77,TRADE
QLD1,"2004/10/08 13:30:00",6520.31,38,TRADE
QLD1,"2004/10/08 14:00:00",6536.765,38.24,TRADE
QLD1,"2004/10/08 14:30:00",6548.79167,38.93,TRADE
QLD1,"2004/10/08 15:00:00",6580.88833,34.41,TRADE
QLD1,"2004/10/08 15:30:00",6505.87667,35.59,TRADE
QLD1,"2004/10/08 16:00:00",6464.81167,37.09,TRADE
QLD1,"2004/10/08 16:30:00",6429.06167,35.2,TRADE
QLD1,"2004/10/08 17:00:00",6320.55833,30.58,TRADE
QLD1,"2004/10/08 17:30:00",6250.72,29.29,TRADE
QLD1,"2004/10/08 18:00:00",6255.59167,30.82,TRADE
QLD1,"2004/10/08 18:30:00",6269.20167,35.72,TRADE
QLD1,"2004/10/08 19:00:00",6330.84667,36.68,TRADE
QLD1,"2004/10/08 19:30:00",6155.15833,35.06,TRADE
QLD1,"2004/10/08 20:00:00",5983.70333,34.42,TRADE
QLD1,"2004/10/08 20:30:00",5810.59833,33.02,TRADE
QLD1,"2004/10/08 21:00:00",5612.43167,26.65,TRADE
QLD1,"2004/10/08 21:30:00",5546.245,25.23,TRADE
QLD1,"2004/10/08 22:00:00",5383.55,23.25,TRADE
QLD1,"2004/10/08 22:30:00",5399.07833,25.06,TRADE
QLD1,"2004/10/08 23:00:00",5297.705,28.33,TRADE
QLD1,"2004/10/08 23:30:00",5256.355,34.42,TRADE
QLD1,"2004/10/09 00:00:00",5033.60833,34.4,TRADE
QLD1,"2004/10/09 00:30:00",4816.32333,30.94,TRADE
QLD1,"2004/10/09 01:00:00",4591.115,23.37,TRADE
QLD1,"2004/10/09 01:30:00",4416.96667,22.94,TRADE
QLD1,"2004/10/09 02:00:00",4297.95667,21.71,TRADE
QLD1,"2004/10/09 02:30:00",4177.11667,19.26,TRADE
QLD1,"2004/10/09 03:00:00",4160.77833,18.75,TRADE
QLD1,"2004/10/09 03:30:00",4139.02833,18.71,TRADE
QLD1,"2004/10/09 04:00:00",4096.715,18.83,TRADE
QLD1,"2004/10/09 04:30:00",4090.54167,19.15,TRADE
QLD1,"2004/10/09 05:00:00",4135.395,18.56,TRADE
QLD1,"2004/10/09 05:30:00",4191.43833,19.03,TRADE
QLD1,"2004/10/09 06:00:00",4246.775,18.98,TRADE
QLD1,"2004/10/09 06:30:00",4445.76167,19.22,TRADE
QLD1,"2004/10/09 07:00:00",4626.605,18.84,TRADE
QLD1,"2004/10/09 07:30:00",4858.56333,18.35,TRADE
QLD1,"2004/10/09 08:00:00",5121.13167,22.62,TRADE
QLD1,"2004/10/09 08:30:00",5310.92167,26.22,TRADE
QLD1,"2004/10/09 09:00:00",5437.05,32.46,TRADE
QLD1,"2004/10/09 09:30:00",5496.18167,37.65,TRADE
QLD1,"2004/10/09 10:00:00",5538.30333,38.66,TRADE
QLD1,"2004/10/09 10:30:00",5523.80167,42,TRADE
QLD1,"2004/10/09 11:00:00",5502.25167,44.09,TRADE
QLD1,"2004/10/09 11:30:00",5474.53333,40.39,TRADE
QLD1,"2004/10/09 12:00:00",5459.48667,40.97,TRADE
QLD1,"2004/10/09 12:30:00",5388.31333,38.27,TRADE
QLD1,"2004/10/09 13:00:00",5383.20333,37.68,TRADE
QLD1,"2004/10/09 13:30:00",5315.70333,36.41,TRADE
QLD1,"2004/10/09 14:00:00",5319.56,30.5,TRADE
QLD1,"2004/10/09 14:30:00",5343.37667,29.07,TRADE
QLD1,"2004/10/09 15:00:00",5352.81333,27.92,TRADE
QLD1,"2004/10/09 15:30:00",5331.51,24.08,TRADE
QLD1,"2004/10/09 16:00:00",5331.89833,23.93,TRADE
QLD1,"2004/10/09 16:30:00",5317.42833,24.54,TRADE
QLD1,"2004/10/09 17:00:00",5349.585,26.61,TRADE
QLD1,"2004/10/09 17:30:00",5429.535,25.85,TRADE
QLD1,"2004/10/09 18:00:00",5553.285,31.42,TRADE
QLD1,"2004/10/09 18:30:00",5757.37167,38.44,TRADE
QLD1,"2004/10/09 19:00:00",5806.32333,45.46,TRADE
QLD1,"2004/10/09 19:30:00",5689.58833,36.06,TRADE
QLD1,"2004/10/09 20:00:00",5568.20333,35.82,TRADE
QLD1,"2004/10/09 20:30:00",5374.49333,28.7,TRADE
QLD1,"2004/10/09 21:00:00",5289.77833,24.72,TRADE
QLD1,"2004/10/09 21:30:00",5175.92,22.96,TRADE
QLD1,"2004/10/09 22:00:00",5039.26833,20.16,TRADE
QLD1,"2004/10/09 22:30:00",5035.55,23.15,TRADE
QLD1,"2004/10/09 23:00:00",5020.21333,22.7,TRADE
QLD1,"2004/10/09 23:30:00",5005.44,26.27,TRADE
QLD1,"2004/10/10 00:00:00",4870.43333,23.61,TRADE
QLD1,"2004/10/10 00:30:00",4650.44333,20.84,TRADE
QLD1,"2004/10/10 01:00:00",4470.92,19.09,TRADE
QLD1,"2004/10/10 01:30:00",4323.46167,19.67,TRADE
QLD1,"2004/10/10 02:00:00",4209.84,18.45,TRADE
QLD1,"2004/10/10 02:30:00",4093.76333,17.32,TRADE
QLD1,"2004/10/10 03:00:00",4050.715,17.68,TRADE
QLD1,"2004/10/10 03:30:00",4036.11833,17.51,TRADE
QLD1,"2004/10/10 04:00:00",3992.92,17.43,TRADE
QLD1,"2004/10/10 04:30:00",3981.45833,17.56,TRADE
QLD1,"2004/10/10 05:00:00",4043.23167,17.63,TRADE
QLD1,"2004/10/10 05:30:00",4099.77167,17.82,TRADE
QLD1,"2004/10/10 06:00:00",4101.69667,17.74,TRADE
QLD1,"2004/10/10 06:30:00",4205.68833,17.44,TRADE
QLD1,"2004/10/10 07:00:00",4361.07667,16.85,TRADE
QLD1,"2004/10/10 07:30:00",4562.11167,16.08,TRADE
QLD1,"2004/10/10 08:00:00",4792.985,18.06,TRADE
QLD1,"2004/10/10 08:30:00",4995.51333,19.18,TRADE
QLD1,"2004/10/10 09:00:00",5148.755,20,TRADE
QLD1,"2004/10/10 09:30:00",5259.195,19.52,TRADE
QLD1,"2004/10/10 10:00:00",5290.80667,20.48,TRADE
QLD1,"2004/10/10 10:30:00",5286.71667,21.38,TRADE
QLD1,"2004/10/10 11:00:00",5262.33167,20.63,TRADE
QLD1,"2004/10/10 11:30:00",5275.04833,23.02,TRADE
QLD1,"2004/10/10 12:00:00",5231.85333,22.87,TRADE
QLD1,"2004/10/10 12:30:00",5235.40833,22.24,TRADE
QLD1,"2004/10/10 13:00:00",5214.50667,20.87,TRADE
QLD1,"2004/10/10 13:30:00",5162.425,20.48,TRADE
QLD1,"2004/10/10 14:00:00",5117.19333,19.52,TRADE
QLD1,"2004/10/10 14:30:00",5117.73833,19.52,TRADE
QLD1,"2004/10/10 15:00:00",5114.89833,19.52,TRADE
QLD1,"2004/10/10 15:30:00",5133.775,19.52,TRADE
QLD1,"2004/10/10 16:00:00",5129.39,19.52,TRADE
QLD1,"2004/10/10 16:30:00",5117.53,19.52,TRADE
QLD1,"2004/10/10 17:00:00",5166.71833,19.52,TRADE
QLD1,"2004/10/10 17:30:00",5354.805,20.43,TRADE
QLD1,"2004/10/10 18:00:00",5597.95667,23.74,TRADE
QLD1,"2004/10/10 18:30:00",5901.48333,35.2,TRADE
QLD1,"2004/10/10 19:00:00",5973.43167,37.42,TRADE
QLD1,"2004/10/10 19:30:00",5820.25167,35.32,TRADE
QLD1,"2004/10/10 20:00:00",5619.32833,30.97,TRADE
QLD1,"2004/10/10 20:30:00",5450.93667,25.75,TRADE
QLD1,"2004/10/10 21:00:00",5273.78833,23.51,TRADE
QLD1,"2004/10/10 21:30:00",5235.32667,23.51,TRADE
QLD1,"2004/10/10 22:00:00",5030.785,20.84,TRADE
QLD1,"2004/10/10 22:30:00",4953.41833,21.51,TRADE
QLD1,"2004/10/10 23:00:00",4912.62833,21.92,TRADE
QLD1,"2004/10/10 23:30:00",4947.48,25.34,TRADE
QLD1,"2004/10/11 00:00:00",4809.52667,23.09,TRADE
QLD1,"2004/10/11 00:30:00",4594.38167,19.48,TRADE
QLD1,"2004/10/11 01:00:00",4461.925,19.4,TRADE
QLD1,"2004/10/11 01:30:00",4332.56667,19.56,TRADE
QLD1,"2004/10/11 02:00:00",4226.515,18.78,TRADE
QLD1,"2004/10/11 02:30:00",4110.68,18.44,TRADE
QLD1,"2004/10/11 03:00:00",4047.92167,17.82,TRADE
QLD1,"2004/10/11 03:30:00",4013.555,17.82,TRADE
QLD1,"2004/10/11 04:00:00",4037.58,18.12,TRADE
QLD1,"2004/10/11 04:30:00",4045.29833,17.33,TRADE
QLD1,"2004/10/11 05:00:00",4079.82,17.57,TRADE
QLD1,"2004/10/11 05:30:00",4253.54833,19,TRADE
QLD1,"2004/10/11 06:00:00",4442.24833,19.33,TRADE
QLD1,"2004/10/11 06:30:00",4858.77333,23.25,TRADE
QLD1,"2004/10/11 07:00:00",5289.93,26.9,TRADE
QLD1,"2004/10/11 07:30:00",5690.60667,27.63,TRADE
QLD1,"2004/10/11 08:00:00",5916.19833,36.4,TRADE
QLD1,"2004/10/11 08:30:00",6015.41667,36.72,TRADE
QLD1,"2004/10/11 09:00:00",5996.66333,35.15,TRADE
QLD1,"2004/10/11 09:30:00",6035.32167,37.22,TRADE
QLD1,"2004/10/11 10:00:00",6020.27833,45,TRADE
QLD1,"2004/10/11 10:30:00",5991.05167,47.67,TRADE
QLD1,"2004/10/11 11:00:00",5997.095,66.73,TRADE
QLD1,"2004/10/11 11:30:00",6002.56833,53.24,TRADE
QLD1,"2004/10/11 12:00:00",6028.81833,64.47,TRADE
QLD1,"2004/10/11 12:30:00",6054.51667,70.7,TRADE
QLD1,"2004/10/11 13:00:00",6042.07333,70.59,TRADE
QLD1,"2004/10/11 13:30:00",6030.545,69.9,TRADE
QLD1,"2004/10/11 14:00:00",6032.69167,71.3,TRADE
QLD1,"2004/10/11 14:30:00",6058.51333,70.97,TRADE
QLD1,"2004/10/11 15:00:00",6044.48,69.65,TRADE
QLD1,"2004/10/11 15:30:00",6028.05667,66.9,TRADE
QLD1,"2004/10/11 16:00:00",6004.75167,56.2,TRADE
QLD1,"2004/10/11 16:30:00",6003.98333,58.13,TRADE
QLD1,"2004/10/11 17:00:00",6008.63333,61.56,TRADE
QLD1,"2004/10/11 17:30:00",5991.29333,47.82,TRADE
QLD1,"2004/10/11 18:00:00",6107.375,44.03,TRADE
QLD1,"2004/10/11 18:30:00",6239.025,53.48,TRADE
QLD1,"2004/10/11 19:00:00",6287.43333,70.01,TRADE
QLD1,"2004/10/11 19:30:00",6116.60667,41.12,TRADE
QLD1,"2004/10/11 20:00:00",5983.51667,37.55,TRADE
QLD1,"2004/10/11 20:30:00",5785.87833,34.82,TRADE
QLD1,"2004/10/11 21:00:00",5602.73167,29.38,TRADE
QLD1,"2004/10/11 21:30:00",5553.43833,28.2,TRADE
QLD1,"2004/10/11 22:00:00",5405.505,25.49,TRADE
QLD1,"2004/10/11 22:30:00",5302.24,32.3,TRADE
QLD1,"2004/10/11 23:00:00",5194.62833,34.42,TRADE
QLD1,"2004/10/11 23:30:00",5147.28833,43.57,TRADE
QLD1,"2004/10/12 00:00:00",4943.91167,36.49,TRADE
QLD1,"2004/10/12 00:30:00",4744.06,32.65,TRADE
QLD1,"2004/10/12 01:00:00",4570.93833,27.47,TRADE
QLD1,"2004/10/12 01:30:00",4393.76667,25.83,TRADE
QLD1,"2004/10/12 02:00:00",4283.44833,23.81,TRADE
QLD1,"2004/10/12 02:30:00",4187.99167,23.2,TRADE
QLD1,"2004/10/12 03:00:00",4142.735,19.17,TRADE
QLD1,"2004/10/12 03:30:00",4094.16333,19.2,TRADE
QLD1,"2004/10/12 04:00:00",4076.79,19.45,TRADE
QLD1,"2004/10/12 04:30:00",4119.215,19.17,TRADE
QLD1,"2004/10/12 05:00:00",4180.20833,19.08,TRADE
QLD1,"2004/10/12 05:30:00",4332.04833,19.77,TRADE
QLD1,"2004/10/12 06:00:00",4544.865,20.78,TRADE
QLD1,"2004/10/12 06:30:00",4986.59667,25.63,TRADE
QLD1,"2004/10/12 07:00:00",5394.095,33.08,TRADE
QLD1,"2004/10/12 07:30:00",5728.105,29.59,TRADE
QLD1,"2004/10/12 08:00:00",5967.61833,37.38,TRADE
QLD1,"2004/10/12 08:30:00",6072.33167,41.51,TRADE
QLD1,"2004/10/12 09:00:00",6047.57667,41.33,TRADE
QLD1,"2004/10/12 09:30:00",6043.05167,59.55,TRADE
QLD1,"2004/10/12 10:00:00",6048.585,69.64,TRADE
QLD1,"2004/10/12 10:30:00",6082.63167,80.9,TRADE
QLD1,"2004/10/12 11:00:00",6081.15667,73.01,TRADE
QLD1,"2004/10/12 11:30:00",6091.995,216.13,TRADE
QLD1,"2004/10/12 12:00:00",6115.98667,71.41,TRADE
QLD1,"2004/10/12 12:30:00",6099.71333,261.1,TRADE
QLD1,"2004/10/12 13:00:00",6111.22833,234.88,TRADE
QLD1,"2004/10/12 13:30:00",6077.975,241.27,TRADE
QLD1,"2004/10/12 14:00:00",6121.75833,284.81,TRADE
QLD1,"2004/10/12 14:30:00",6157.71,285.3,TRADE
QLD1,"2004/10/12 15:00:00",6108.41167,281.96,TRADE
QLD1,"2004/10/12 15:30:00",6078.59333,282.33,TRADE
QLD1,"2004/10/12 16:00:00",6042.56,285.6,TRADE
QLD1,"2004/10/12 16:30:00",6012.62,279.37,TRADE
QLD1,"2004/10/12 17:00:00",6075.51667,288.58,TRADE
QLD1,"2004/10/12 17:30:00",6072.97833,283.4,TRADE
QLD1,"2004/10/12 18:00:00",6085.69333,277.39,TRADE
QLD1,"2004/10/12 18:30:00",6268.70833,223.66,TRADE
QLD1,"2004/10/12 19:00:00",6312.21833,285.99,TRADE
QLD1,"2004/10/12 19:30:00",6159.07333,74.44,TRADE
QLD1,"2004/10/12 20:00:00",5991.61833,60.67,TRADE
QLD1,"2004/10/12 20:30:00",5803.52833,47.2,TRADE
QLD1,"2004/10/12 21:00:00",5649.44,38.44,TRADE
QLD1,"2004/10/12 21:30:00",5527.78667,39.85,TRADE
QLD1,"2004/10/12 22:00:00",5442.79,36.22,TRADE
QLD1,"2004/10/12 22:30:00",5315.18167,42.4,TRADE
QLD1,"2004/10/12 23:00:00",5209.33,36.75,TRADE
QLD1,"2004/10/12 23:30:00",5159.76833,46.8,TRADE
QLD1,"2004/10/13 00:00:00",4975.09,43.35,TRADE
QLD1,"2004/10/13 00:30:00",4771.06,40.21,TRADE
QLD1,"2004/10/13 01:00:00",4601.09333,34.57,TRADE
QLD1,"2004/10/13 01:30:00",4458.54167,35.83,TRADE
QLD1,"2004/10/13 02:00:00",4324.82667,29.73,TRADE
QLD1,"2004/10/13 02:30:00",4251.29667,24.72,TRADE
QLD1,"2004/10/13 03:00:00",4172.58,23.14,TRADE
QLD1,"2004/10/13 03:30:00",4191.105,21.39,TRADE
QLD1,"2004/10/13 04:00:00",4132.82333,22.16,TRADE
QLD1,"2004/10/13 04:30:00",4166.72667,20.65,TRADE
QLD1,"2004/10/13 05:00:00",4218.15,19.56,TRADE
QLD1,"2004/10/13 05:30:00",4392.54,22.54,TRADE
QLD1,"2004/10/13 06:00:00",4577.43,24.41,TRADE
QLD1,"2004/10/13 06:30:00",4989.58167,30.26,TRADE
QLD1,"2004/10/13 07:00:00",5391.37833,41.21,TRADE
QLD1,"2004/10/13 07:30:00",5734.28167,37.76,TRADE
QLD1,"2004/10/13 08:00:00",5944.46,67.66,TRADE
QLD1,"2004/10/13 08:30:00",5992.20667,69.25,TRADE
QLD1,"2004/10/13 09:00:00",5982.41333,75.89,TRADE
QLD1,"2004/10/13 09:30:00",6009.9,77.98,TRADE
QLD1,"2004/10/13 10:00:00",5987.235,83.57,TRADE
QLD1,"2004/10/13 10:30:00",6018.855,134.11,TRADE
QLD1,"2004/10/13 11:00:00",6002.28667,126.75,TRADE
QLD1,"2004/10/13 11:30:00",6079.86167,179,TRADE
QLD1,"2004/10/13 12:00:00",6123.35833,275.33,TRADE
QLD1,"2004/10/13 12:30:00",6079.69667,251.02,TRADE
QLD1,"2004/10/13 13:00:00",6067.60833,192.58,TRADE
QLD1,"2004/10/13 13:30:00",6080.95667,208.36,TRADE
QLD1,"2004/10/13 14:00:00",6144.965,1060.48,TRADE
QLD1,"2004/10/13 14:30:00",6123.73667,993.89,TRADE
QLD1,"2004/10/13 15:00:00",6106.10667,325.22,TRADE
QLD1,"2004/10/13 15:30:00",6154.31333,2370.48,TRADE
QLD1,"2004/10/13 16:00:00",6054.235,163.15,TRADE
QLD1,"2004/10/13 16:30:00",6137.255,2151.01,TRADE
QLD1,"2004/10/13 17:00:00",6138.8,4230.62,TRADE
QLD1,"2004/10/13 17:30:00",6103.37333,4031.43,TRADE
QLD1,"2004/10/13 18:00:00",6017.62167,581.22,TRADE
QLD1,"2004/10/13 18:30:00",6120.32833,247.54,TRADE
QLD1,"2004/10/13 19:00:00",6197.175,158.49,TRADE
QLD1,"2004/10/13 19:30:00",6165.66667,71.62,TRADE
QLD1,"2004/10/13 20:00:00",6103.19,50.57,TRADE
QLD1,"2004/10/13 20:30:00",6093.36833,51.7,TRADE
QLD1,"2004/10/13 21:00:00",5968.66333,44.19,TRADE
QLD1,"2004/10/13 21:30:00",5717.23333,38.82,TRADE
QLD1,"2004/10/13 22:00:00",5540.27,29.47,TRADE
QLD1,"2004/10/13 22:30:00",5446.07167,38.24,TRADE
QLD1,"2004/10/13 23:00:00",5304.10167,33.79,TRADE
QLD1,"2004/10/13 23:30:00",5261.35167,42.48,TRADE
QLD1,"2004/10/14 00:00:00",5041.25333,32.19,TRADE
QLD1,"2004/10/14 00:30:00",4827.29333,28.48,TRADE
QLD1,"2004/10/14 01:00:00",4682.72333,26.15,TRADE
QLD1,"2004/10/14 01:30:00",4505.47167,24.59,TRADE
QLD1,"2004/10/14 02:00:00",4378.84167,23.25,TRADE
QLD1,"2004/10/14 02:30:00",4247.80167,21.04,TRADE
QLD1,"2004/10/14 03:00:00",4220.74667,19.52,TRADE
QLD1,"2004/10/14 03:30:00",4191.23167,19.43,TRADE
QLD1,"2004/10/14 04:00:00",4142.855,19.44,TRADE
QLD1,"2004/10/14 04:30:00",4182.13833,19.47,TRADE
QLD1,"2004/10/14 05:00:00",4260.17,19.53,TRADE
QLD1,"2004/10/14 05:30:00",4435.73333,20.13,TRADE
QLD1,"2004/10/14 06:00:00",4663.60333,22.13,TRADE
QLD1,"2004/10/14 06:30:00",5044.195,27.14,TRADE
QLD1,"2004/10/14 07:00:00",5460.84,29.25,TRADE
QLD1,"2004/10/14 07:30:00",5831.32,30.02,TRADE
QLD1,"2004/10/14 08:00:00",6095.66333,37.35,TRADE
QLD1,"2004/10/14 08:30:00",6141.63167,38.91,TRADE
QLD1,"2004/10/14 09:00:00",6072.56833,35.65,TRADE
QLD1,"2004/10/14 09:30:00",6096.17333,44.52,TRADE
QLD1,"2004/10/14 10:00:00",6057.97167,61.62,TRADE
QLD1,"2004/10/14 10:30:00",6089.30333,69.45,TRADE
QLD1,"2004/10/14 11:00:00",6139.67167,72.38,TRADE
QLD1,"2004/10/14 11:30:00",6138.88833,74.34,TRADE
QLD1,"2004/10/14 12:00:00",6181.90667,97.9,TRADE
QLD1,"2004/10/14 12:30:00",6237.225,259.72,TRADE
QLD1,"2004/10/14 13:00:00",6201.23333,196.3,TRADE
QLD1,"2004/10/14 13:30:00",6204.99,262.78,TRADE
QLD1,"2004/10/14 14:00:00",6265.82833,212.98,TRADE
QLD1,"2004/10/14 14:30:00",6228.78,146.5,TRADE
QLD1,"2004/10/14 15:00:00",6242.15,135.21,TRADE
QLD1,"2004/10/14 15:30:00",6231.57333,69.18,TRADE
QLD1,"2004/10/14 16:00:00",6290.59167,70.22,TRADE
QLD1,"2004/10/14 16:30:00",6277.435,57.86,TRADE
QLD1,"2004/10/14 17:00:00",6236.78667,48.14,TRADE
QLD1,"2004/10/14 17:30:00",6215.185,58.72,TRADE
QLD1,"2004/10/14 18:00:00",6316.135,45.01,TRADE
QLD1,"2004/10/14 18:30:00",6506.35167,58.35,TRADE
QLD1,"2004/10/14 19:00:00",6536.05667,69.15,TRADE
QLD1,"2004/10/14 19:30:00",6369.70167,42.51,TRADE
QLD1,"2004/10/14 20:00:00",6158.06,37.51,TRADE
QLD1,"2004/10/14 20:30:00",6033.34667,39.73,TRADE
QLD1,"2004/10/14 21:00:00",5919.78167,30.91,TRADE
QLD1,"2004/10/14 21:30:00",5702.41667,25.98,TRADE
QLD1,"2004/10/14 22:00:00",5589.915,23.9,TRADE
QLD1,"2004/10/14 22:30:00",5518.39333,29.07,TRADE
QLD1,"2004/10/14 23:00:00",5419.08,25.72,TRADE
QLD1,"2004/10/14 23:30:00",5346.995,32.64,TRADE
QLD1,"2004/10/15 00:00:00",5142.135,31.27,TRADE
QLD1,"2004/10/15 00:30:00",4906,29.02,TRADE
QLD1,"2004/10/15 01:00:00",4742.605,25.55,TRADE
QLD1,"2004/10/15 01:30:00",4548.265,26.08,TRADE
QLD1,"2004/10/15 02:00:00",4434.44167,24.12,TRADE
QLD1,"2004/10/15 02:30:00",4307.98167,21.53,TRADE
QLD1,"2004/10/15 03:00:00",4227.86333,19.37,TRADE
QLD1,"2004/10/15 03:30:00",4240.54167,19.45,TRADE
QLD1,"2004/10/15 04:00:00",4270.545,19.42,TRADE
QLD1,"2004/10/15 04:30:00",4305.56167,19.88,TRADE
QLD1,"2004/10/15 05:00:00",4353.21667,19.52,TRADE
QLD1,"2004/10/15 05:30:00",4462.61167,19.63,TRADE
QLD1,"2004/10/15 06:00:00",4698.54167,20.59,TRADE
QLD1,"2004/10/15 06:30:00",5138.60167,26.24,TRADE
QLD1,"2004/10/15 07:00:00",5554.44333,30.42,TRADE
QLD1,"2004/10/15 07:30:00",5871.80833,29.16,TRADE
QLD1,"2004/10/15 08:00:00",6156.61333,38.21,TRADE
QLD1,"2004/10/15 08:30:00",6200.57833,38.12,TRADE
QLD1,"2004/10/15 09:00:00",6208.04,33.67,TRADE
QLD1,"2004/10/15 09:30:00",6231.04,42.86,TRADE
QLD1,"2004/10/15 10:00:00",6280.63333,44.85,TRADE
QLD1,"2004/10/15 10:30:00",6277.48,58.93,TRADE
QLD1,"2004/10/15 11:00:00",6333.72167,50.71,TRADE
QLD1,"2004/10/15 11:30:00",6410.48833,52.95,TRADE
QLD1,"2004/10/15 12:00:00",6444.545,50.18,TRADE
QLD1,"2004/10/15 12:30:00",6442.45,62.27,TRADE
QLD1,"2004/10/15 13:00:00",6441.92167,73.18,TRADE
QLD1,"2004/10/15 13:30:00",6458.39833,73.42,TRADE
QLD1,"2004/10/15 14:00:00",6442.62667,47.85,TRADE
QLD1,"2004/10/15 14:30:00",6480.42333,43.77,TRADE
QLD1,"2004/10/15 15:00:00",6428.73833,42.15,TRADE
QLD1,"2004/10/15 15:30:00",6365.12,36.45,TRADE
QLD1,"2004/10/15 16:00:00",6395.11667,29.9,TRADE
QLD1,"2004/10/15 16:30:00",6366.92333,32.07,TRADE
QLD1,"2004/10/15 17:00:00",6334.58667,30.3,TRADE
QLD1,"2004/10/15 17:30:00",6252.58167,30.86,TRADE
QLD1,"2004/10/15 18:00:00",6280.53333,29.66,TRADE
QLD1,"2004/10/15 18:30:00",6288.02,31.22,TRADE
QLD1,"2004/10/15 19:00:00",6337.215,37.53,TRADE
QLD1,"2004/10/15 19:30:00",6133.03333,28.55,TRADE
QLD1,"2004/10/15 20:00:00",6034.78833,30.42,TRADE
QLD1,"2004/10/15 20:30:00",5890.92167,35.05,TRADE
QLD1,"2004/10/15 21:00:00",5775.71833,29.09,TRADE
QLD1,"2004/10/15 21:30:00",5641.175,26.65,TRADE
QLD1,"2004/10/15 22:00:00",5501.415,24.44,TRADE
QLD1,"2004/10/15 22:30:00",5480.21,32.08,TRADE
QLD1,"2004/10/15 23:00:00",5383.80167,31.33,TRADE
QLD1,"2004/10/15 23:30:00",5407.635,44.06,TRADE
QLD1,"2004/10/16 00:00:00",5168.9,36.74,TRADE
QLD1,"2004/10/16 00:30:00",4896.60667,29.06,TRADE
QLD1,"2004/10/16 01:00:00",4720.78,24.82,TRADE
QLD1,"2004/10/16 01:30:00",4550.60667,26.12,TRADE
QLD1,"2004/10/16 02:00:00",4424.19667,23.19,TRADE
QLD1,"2004/10/16 02:30:00",4327.94167,24.91,TRADE
QLD1,"2004/10/16 03:00:00",4278.42667,24.7,TRADE
QLD1,"2004/10/16 03:30:00",4224.65333,22.78,TRADE
QLD1,"2004/10/16 04:00:00",4223.09667,23.3,TRADE
QLD1,"2004/10/16 04:30:00",4269.09,21.34,TRADE
QLD1,"2004/10/16 05:00:00",4262.20333,20.78,TRADE
QLD1,"2004/10/16 05:30:00",4308.84333,21.99,TRADE
QLD1,"2004/10/16 06:00:00",4384.07,22.55,TRADE
QLD1,"2004/10/16 06:30:00",4567.39333,20.87,TRADE
QLD1,"2004/10/16 07:00:00",4779.25,23.19,TRADE
QLD1,"2004/10/16 07:30:00",5035.575,21.37,TRADE
QLD1,"2004/10/16 08:00:00",5250.96,24.53,TRADE
QLD1,"2004/10/16 08:30:00",5486.73,31.42,TRADE
QLD1,"2004/10/16 09:00:00",5623.31667,38.86,TRADE
QLD1,"2004/10/16 09:30:00",5716.11167,41.52,TRADE
QLD1,"2004/10/16 10:00:00",5722.225,42.11,TRADE
QLD1,"2004/10/16 10:30:00",5664.415,41.03,TRADE
QLD1,"2004/10/16 11:00:00",5662.57667,39.93,TRADE
QLD1,"2004/10/16 11:30:00",5621.49667,33.17,TRADE
QLD1,"2004/10/16 12:00:00",5626.76333,32.01,TRADE
QLD1,"2004/10/16 12:30:00",5561.71333,32.63,TRADE
QLD1,"2004/10/16 13:00:00",5549.42333,31.14,TRADE
QLD1,"2004/10/16 13:30:00",5484.08833,27.55,TRADE
QLD1,"2004/10/16 14:00:00",5475.06333,26.94,TRADE
QLD1,"2004/10/16 14:30:00",5440.12,24.6,TRADE
QLD1,"2004/10/16 15:00:00",5448.89833,24.7,TRADE
QLD1,"2004/10/16 15:30:00",5426.27333,23.5,TRADE
QLD1,"2004/10/16 16:00:00",5418.20333,23.61,TRADE
QLD1,"2004/10/16 16:30:00",5437.55167,23.5,TRADE
QLD1,"2004/10/16 17:00:00",5477.37,23.69,TRADE
QLD1,"2004/10/16 17:30:00",5596.43,26,TRADE
QLD1,"2004/10/16 18:00:00",5728.695,28.84,TRADE
QLD1,"2004/10/16 18:30:00",5918.32333,36,TRADE
QLD1,"2004/10/16 19:00:00",5979.41667,37.65,TRADE
QLD1,"2004/10/16 19:30:00",5752.77,35.26,TRADE
QLD1,"2004/10/16 20:00:00",5644,35.02,TRADE
QLD1,"2004/10/16 20:30:00",5437.48833,32.05,TRADE
QLD1,"2004/10/16 21:00:00",5311.075,28.54,TRADE
QLD1,"2004/10/16 21:30:00",5183.87167,23.46,TRADE
QLD1,"2004/10/16 22:00:00",5104.82833,23.33,TRADE
QLD1,"2004/10/16 22:30:00",5112.61167,26.11,TRADE
QLD1,"2004/10/16 23:00:00",5099.35333,24.67,TRADE
QLD1,"2004/10/16 23:30:00",5124.63833,31.97,TRADE
QLD1,"2004/10/17 00:00:00",4929.85333,25.76,TRADE
QLD1,"2004/10/17 00:30:00",4745.985,23.5,TRADE
QLD1,"2004/10/17 01:00:00",4608.005,23.19,TRADE
QLD1,"2004/10/17 01:30:00",4482.64,23.65,TRADE
QLD1,"2004/10/17 02:00:00",4345.20167,21.6,TRADE
QLD1,"2004/10/17 02:30:00",4214.91667,22.65,TRADE
QLD1,"2004/10/17 03:00:00",4146.225,21.6,TRADE
QLD1,"2004/10/17 03:30:00",4121.16,20.39,TRADE
QLD1,"2004/10/17 04:00:00",4114.94833,21.93,TRADE
QLD1,"2004/10/17 04:30:00",4095.12333,19.17,TRADE
QLD1,"2004/10/17 05:00:00",4105.45333,18.99,TRADE
QLD1,"2004/10/17 05:30:00",4152.15,19.41,TRADE
QLD1,"2004/10/17 06:00:00",4131.23,17.05,TRADE
QLD1,"2004/10/17 06:30:00",4219.41167,16.93,TRADE
QLD1,"2004/10/17 07:00:00",4405.60333,17.57,TRADE
QLD1,"2004/10/17 07:30:00",4599.97,16.41,TRADE
QLD1,"2004/10/17 08:00:00",4842.42333,18.58,TRADE
QLD1,"2004/10/17 08:30:00",5052.79833,21.86,TRADE
QLD1,"2004/10/17 09:00:00",5211.27,23.18,TRADE
QLD1,"2004/10/17 09:30:00",5252.25833,23.5,TRADE
QLD1,"2004/10/17 10:00:00",5311.07,23.5,TRADE
QLD1,"2004/10/17 10:30:00",5316.74333,24.91,TRADE
QLD1,"2004/10/17 11:00:00",5271.49667,23.5,TRADE
QLD1,"2004/10/17 11:30:00",5282.75167,23.5,TRADE
QLD1,"2004/10/17 12:00:00",5275.655,23.5,TRADE
QLD1,"2004/10/17 12:30:00",5255.895,23.5,TRADE
QLD1,"2004/10/17 13:00:00",5194.5,23.5,TRADE
QLD1,"2004/10/17 13:30:00",5156.73667,23.5,TRADE
QLD1,"2004/10/17 14:00:00",5144.47667,23.06,TRADE
QLD1,"2004/10/17 14:30:00",5096.66667,23.08,TRADE
QLD1,"2004/10/17 15:00:00",5127.39333,23.23,TRADE
QLD1,"2004/10/17 15:30:00",5119.31333,23.5,TRADE
QLD1,"2004/10/17 16:00:00",5149.21833,23.5,TRADE
QLD1,"2004/10/17 16:30:00",5248.52667,24.01,TRADE
QLD1,"2004/10/17 17:00:00",5389.33667,25.1,TRADE
QLD1,"2004/10/17 17:30:00",5594.38667,29.83,TRADE
QLD1,"2004/10/17 18:00:00",5828.83,35.19,TRADE
QLD1,"2004/10/17 18:30:00",5968.91833,37.17,TRADE
QLD1,"2004/10/17 19:00:00",5900.25833,36.78,TRADE
QLD1,"2004/10/17 19:30:00",5714.85833,36.55,TRADE
QLD1,"2004/10/17 20:00:00",5560.03333,35.69,TRADE
QLD1,"2004/10/17 20:30:00",5456.66167,33.85,TRADE
QLD1,"2004/10/17 21:00:00",5314.79333,30.72,TRADE
QLD1,"2004/10/17 21:30:00",5212.25333,27.35,TRADE
QLD1,"2004/10/17 22:00:00",5010.22667,23.28,TRADE
QLD1,"2004/10/17 22:30:00",4979.65333,23.64,TRADE
QLD1,"2004/10/17 23:00:00",4943.685,24.26,TRADE
QLD1,"2004/10/17 23:30:00",4958.48333,30.08,TRADE
QLD1,"2004/10/18 00:00:00",4805.96333,24.68,TRADE
QLD1,"2004/10/18 00:30:00",4622.00333,23.5,TRADE
QLD1,"2004/10/18 01:00:00",4480.16333,21.79,TRADE
QLD1,"2004/10/18 01:30:00",4349.835,22.72,TRADE
QLD1,"2004/10/18 02:00:00",4271.36333,21.03,TRADE
QLD1,"2004/10/18 02:30:00",4169.86,20.15,TRADE
QLD1,"2004/10/18 03:00:00",4056.00167,22.66,TRADE
QLD1,"2004/10/18 03:30:00",4077.70333,22.46,TRADE
QLD1,"2004/10/18 04:00:00",4104.465,21.76,TRADE
QLD1,"2004/10/18 04:30:00",4101.615,19.65,TRADE
QLD1,"2004/10/18 05:00:00",4195.03333,19.68,TRADE
QLD1,"2004/10/18 05:30:00",4360.20833,22.58,TRADE
QLD1,"2004/10/18 06:00:00",4507.42333,19.95,TRADE
QLD1,"2004/10/18 06:30:00",4904.695,24.8,TRADE
QLD1,"2004/10/18 07:00:00",5330.07667,27.73,TRADE
QLD1,"2004/10/18 07:30:00",5685.04667,29.33,TRADE
QLD1,"2004/10/18 08:00:00",5958.65333,43.53,TRADE
QLD1,"2004/10/18 08:30:00",6071.62833,41.26,TRADE
QLD1,"2004/10/18 09:00:00",6140.85167,41.45,TRADE
QLD1,"2004/10/18 09:30:00",6136.99,42.71,TRADE
QLD1,"2004/10/18 10:00:00",6114.57667,41.95,TRADE
QLD1,"2004/10/18 10:30:00",6083.15167,42.09,TRADE
QLD1,"2004/10/18 11:00:00",6039.28833,50.45,TRADE
QLD1,"2004/10/18 11:30:00",6079.105,61.57,TRADE
QLD1,"2004/10/18 12:00:00",6129.17167,51.46,TRADE
QLD1,"2004/10/18 12:30:00",6011.125,63.73,TRADE
QLD1,"2004/10/18 13:00:00",5996.46,46.9,TRADE
QLD1,"2004/10/18 13:30:00",6010.50667,58.11,TRADE
QLD1,"2004/10/18 14:00:00",6004.335,59.51,TRADE
QLD1,"2004/10/18 14:30:00",6014.25833,58.75,TRADE
QLD1,"2004/10/18 15:00:00",6000.33833,67.28,TRADE
QLD1,"2004/10/18 15:30:00",6000.82333,54.46,TRADE
QLD1,"2004/10/18 16:00:00",6003.605,68.27,TRADE
QLD1,"2004/10/18 16:30:00",6017.06667,69.8,TRADE
QLD1,"2004/10/18 17:00:00",6140.845,70.9,TRADE
QLD1,"2004/10/18 17:30:00",6222.875,69.71,TRADE
QLD1,"2004/10/18 18:00:00",6324.25333,83.45,TRADE
QLD1,"2004/10/18 18:30:00",6461.365,82.57,TRADE
QLD1,"2004/10/18 19:00:00",6381.90833,76.2,TRADE
QLD1,"2004/10/18 19:30:00",6215.585,51.62,TRADE
QLD1,"2004/10/18 20:00:00",6034.45,37.3,TRADE
QLD1,"2004/10/18 20:30:00",5835.245,36.52,TRADE
QLD1,"2004/10/18 21:00:00",5753.17167,36.97,TRADE
QLD1,"2004/10/18 21:30:00",5594.32,35.8,TRADE
QLD1,"2004/10/18 22:00:00",5424.89667,31.7,TRADE
QLD1,"2004/10/18 22:30:00",5338.845,35.65,TRADE
QLD1,"2004/10/18 23:00:00",5232.88667,30.8,TRADE
QLD1,"2004/10/18 23:30:00",5204.26,36.27,TRADE
QLD1,"2004/10/19 00:00:00",5020.84667,33.35,TRADE
QLD1,"2004/10/19 00:30:00",4788.54833,30.97,TRADE
QLD1,"2004/10/19 01:00:00",4660.77667,31.02,TRADE
QLD1,"2004/10/19 01:30:00",4521.33833,33.19,TRADE
QLD1,"2004/10/19 02:00:00",4391.22833,27.67,TRADE
QLD1,"2004/10/19 02:30:00",4268.74,24.4,TRADE
QLD1,"2004/10/19 03:00:00",4169.72667,23.79,TRADE
QLD1,"2004/10/19 03:30:00",4129.99667,23.32,TRADE
QLD1,"2004/10/19 04:00:00",4127.11333,23.23,TRADE
QLD1,"2004/10/19 04:30:00",4177.105,23.39,TRADE
QLD1,"2004/10/19 05:00:00",4239.74833,22.91,TRADE
QLD1,"2004/10/19 05:30:00",4406.285,23.71,TRADE
QLD1,"2004/10/19 06:00:00",4649.395,25.07,TRADE
QLD1,"2004/10/19 06:30:00",5101.875,36.6,TRADE
QLD1,"2004/10/19 07:00:00",5517.09,46.29,TRADE
QLD1,"2004/10/19 07:30:00",5905.69167,40.11,TRADE
QLD1,"2004/10/19 08:00:00",6098.88667,46.48,TRADE
QLD1,"2004/10/19 08:30:00",6141.61333,66.2,TRADE
QLD1,"2004/10/19 09:00:00",6129.58167,66.61,TRADE
QLD1,"2004/10/19 09:30:00",6144.37333,67.71,TRADE
QLD1,"2004/10/19 10:00:00",6111.29333,62.12,TRADE
QLD1,"2004/10/19 10:30:00",6126.97167,53.03,TRADE
QLD1,"2004/10/19 11:00:00",6106.45833,47.27,TRADE
QLD1,"2004/10/19 11:30:00",6131.87833,47.97,TRADE
QLD1,"2004/10/19 12:00:00",6130.82833,46.35,TRADE
QLD1,"2004/10/19 12:30:00",6120.23,60.96,TRADE
QLD1,"2004/10/19 13:00:00",6086.63,44.14,TRADE
QLD1,"2004/10/19 13:30:00",6107.40333,48.73,TRADE
QLD1,"2004/10/19 14:00:00",6120.29833,45.13,TRADE
QLD1,"2004/10/19 14:30:00",6102.65167,43.33,TRADE
QLD1,"2004/10/19 15:00:00",6020.65,51.55,TRADE
QLD1,"2004/10/19 15:30:00",6016.08167,43.09,TRADE
QLD1,"2004/10/19 16:00:00",5968.31667,54.9,TRADE
QLD1,"2004/10/19 16:30:00",6018.475,65.43,TRADE
QLD1,"2004/10/19 17:00:00",6103.57333,62.79,TRADE
QLD1,"2004/10/19 17:30:00",6176.195,69.82,TRADE
QLD1,"2004/10/19 18:00:00",6269.84667,72.8,TRADE
QLD1,"2004/10/19 18:30:00",6371.67667,80.93,TRADE
QLD1,"2004/10/19 19:00:00",6295.88667,84.83,TRADE
QLD1,"2004/10/19 19:30:00",6055.675,51.68,TRADE
QLD1,"2004/10/19 20:00:00",5878.46167,45.29,TRADE
QLD1,"2004/10/19 20:30:00",5647.98,55.85,TRADE
QLD1,"2004/10/19 21:00:00",5533.30167,44.92,TRADE
QLD1,"2004/10/19 21:30:00",5406.665,41.46,TRADE
QLD1,"2004/10/19 22:00:00",5289.305,39.42,TRADE
QLD1,"2004/10/19 22:30:00",5243.49333,45.14,TRADE
QLD1,"2004/10/19 23:00:00",5104.86667,55.18,TRADE
QLD1,"2004/10/19 23:30:00",5062.72833,77.88,TRADE
QLD1,"2004/10/20 00:00:00",4883.12333,78.54,TRADE
QLD1,"2004/10/20 00:30:00",4636.71667,75.33,TRADE
QLD1,"2004/10/20 01:00:00",4517.1,68.79,TRADE
QLD1,"2004/10/20 01:30:00",4344.93833,68.82,TRADE
QLD1,"2004/10/20 02:00:00",4218.81667,48.57,TRADE
QLD1,"2004/10/20 02:30:00",4113.24167,35.39,TRADE
QLD1,"2004/10/20 03:00:00",4061.41833,28.98,TRADE
QLD1,"2004/10/20 03:30:00",4060.415,29.38,TRADE
QLD1,"2004/10/20 04:00:00",4083.465,23.79,TRADE
QLD1,"2004/10/20 04:30:00",4094.79,23.29,TRADE
QLD1,"2004/10/20 05:00:00",4141.57667,23.11,TRADE
QLD1,"2004/10/20 05:30:00",4314.27833,24.41,TRADE
QLD1,"2004/10/20 06:00:00",4549.23333,28.3,TRADE
QLD1,"2004/10/20 06:30:00",4940.09,48.81,TRADE
QLD1,"2004/10/20 07:00:00",5339.03833,42.9,TRADE
QLD1,"2004/10/20 07:30:00",5704.29833,39.89,TRADE
QLD1,"2004/10/20 08:00:00",5946.66167,45.17,TRADE
QLD1,"2004/10/20 08:30:00",6046.845,45.16,TRADE
QLD1,"2004/10/20 09:00:00",6054.38167,45.97,TRADE
QLD1,"2004/10/20 09:30:00",6033.59,48.75,TRADE
QLD1,"2004/10/20 10:00:00",5978.98833,47.56,TRADE
QLD1,"2004/10/20 10:30:00",5972.13333,47.65,TRADE
QLD1,"2004/10/20 11:00:00",5958.97167,48.06,TRADE
QLD1,"2004/10/20 11:30:00",5971.40333,46.34,TRADE
QLD1,"2004/10/20 12:00:00",5991.08167,47.5,TRADE
QLD1,"2004/10/20 12:30:00",5945.245,64.14,TRADE
QLD1,"2004/10/20 13:00:00",5888.575,64.43,TRADE
QLD1,"2004/10/20 13:30:00",5920.58833,61.36,TRADE
QLD1,"2004/10/20 14:00:00",5877.885,61.84,TRADE
QLD1,"2004/10/20 14:30:00",5892.95667,60.9,TRADE
QLD1,"2004/10/20 15:00:00",5835.80333,60.93,TRADE
QLD1,"2004/10/20 15:30:00",5853.06333,57.71,TRADE
QLD1,"2004/10/20 16:00:00",5878.21667,56.28,TRADE
QLD1,"2004/10/20 16:30:00",5954.26167,64.95,TRADE
QLD1,"2004/10/20 17:00:00",6013.175,65.91,TRADE
QLD1,"2004/10/20 17:30:00",6043.765,63.96,TRADE
QLD1,"2004/10/20 18:00:00",6157.44333,68.34,TRADE
QLD1,"2004/10/20 18:30:00",6299.66667,59.99,TRADE
QLD1,"2004/10/20 19:00:00",6298.04333,66.75,TRADE
QLD1,"2004/10/20 19:30:00",6148.32667,46.77,TRADE
QLD1,"2004/10/20 20:00:00",5998.13333,40.47,TRADE
QLD1,"2004/10/20 20:30:00",5814.74667,41.16,TRADE
QLD1,"2004/10/20 21:00:00",5644.83833,38.92,TRADE
QLD1,"2004/10/20 21:30:00",5513.225,35.19,TRADE
QLD1,"2004/10/20 22:00:00",5449.66833,32.32,TRADE
QLD1,"2004/10/20 22:30:00",5320.785,34.22,TRADE
QLD1,"2004/10/20 23:00:00",5217.215,33.78,TRADE
QLD1,"2004/10/20 23:30:00",5183.93667,42.82,TRADE
QLD1,"2004/10/21 00:00:00",5017.85167,45.52,TRADE
QLD1,"2004/10/21 00:30:00",4821.565,53.31,TRADE
QLD1,"2004/10/21 01:00:00",4650.43167,38.72,TRADE
QLD1,"2004/10/21 01:30:00",4490.705,51.4,TRADE
QLD1,"2004/10/21 02:00:00",4369.98667,33.27,TRADE
QLD1,"2004/10/21 02:30:00",4271.75667,25.74,TRADE
QLD1,"2004/10/21 03:00:00",4200.55833,24.7,TRADE
QLD1,"2004/10/21 03:30:00",4194.86333,23.83,TRADE
QLD1,"2004/10/21 04:00:00",4202.03833,23.46,TRADE
QLD1,"2004/10/21 04:30:00",4192.525,21,TRADE
QLD1,"2004/10/21 05:00:00",4317.89667,21.48,TRADE
QLD1,"2004/10/21 05:30:00",4470.17333,24.09,TRADE
QLD1,"2004/10/21 06:00:00",4667.95333,27.14,TRADE
QLD1,"2004/10/21 06:30:00",5134.39667,37.31,TRADE
QLD1,"2004/10/21 07:00:00",5505.04333,46.32,TRADE
QLD1,"2004/10/21 07:30:00",5906.34667,42.3,TRADE
QLD1,"2004/10/21 08:00:00",6073.77333,47.98,TRADE
QLD1,"2004/10/21 08:30:00",6106.06167,51.95,TRADE
QLD1,"2004/10/21 09:00:00",6083.92167,52.49,TRADE
QLD1,"2004/10/21 09:30:00",6072.195,68.92,TRADE
QLD1,"2004/10/21 10:00:00",6070.135,57.8,TRADE
QLD1,"2004/10/21 10:30:00",6064.78833,53.6,TRADE
QLD1,"2004/10/21 11:00:00",6070.18167,53.5,TRADE
QLD1,"2004/10/21 11:30:00",6063.695,57.65,TRADE
QLD1,"2004/10/21 12:00:00",6057.33,65.28,TRADE
QLD1,"2004/10/21 12:30:00",6019.91167,66.99,TRADE
QLD1,"2004/10/21 13:00:00",6011.98,66.15,TRADE
QLD1,"2004/10/21 13:30:00",6002.175,66.09,TRADE
QLD1,"2004/10/21 14:00:00",6041.98167,66.48,TRADE
QLD1,"2004/10/21 14:30:00",6058.38333,65.63,TRADE
QLD1,"2004/10/21 15:00:00",5994.65667,58.7,TRADE
QLD1,"2004/10/21 15:30:00",5930.955,43.6,TRADE
QLD1,"2004/10/21 16:00:00",5884.80833,48.07,TRADE
QLD1,"2004/10/21 16:30:00",5913.81833,52.25,TRADE
QLD1,"2004/10/21 17:00:00",6015.675,58.58,TRADE
QLD1,"2004/10/21 17:30:00",6047.40833,59.09,TRADE
QLD1,"2004/10/21 18:00:00",6166.315,64.38,TRADE
QLD1,"2004/10/21 18:30:00",6339.51,59.73,TRADE
QLD1,"2004/10/21 19:00:00",6351.48333,64.39,TRADE
QLD1,"2004/10/21 19:30:00",6220.08333,54.69,TRADE
QLD1,"2004/10/21 20:00:00",6089.06333,46.5,TRADE
QLD1,"2004/10/21 20:30:00",5937.46333,50.01,TRADE
QLD1,"2004/10/21 21:00:00",5780.95667,43.43,TRADE
QLD1,"2004/10/21 21:30:00",5633.70667,38.06,TRADE
QLD1,"2004/10/21 22:00:00",5503.16333,36.17,TRADE
QLD1,"2004/10/21 22:30:00",5460.495,39.63,TRADE
QLD1,"2004/10/21 23:00:00",5318.76833,39.7,TRADE
QLD1,"2004/10/21 23:30:00",5273.26333,61.45,TRADE
QLD1,"2004/10/22 00:00:00",5089.95,53.2,TRADE
QLD1,"2004/10/22 00:30:00",4875.23167,42.99,TRADE
QLD1,"2004/10/22 01:00:00",4695.595,39.02,TRADE
QLD1,"2004/10/22 01:30:00",4549.63,43.47,TRADE
QLD1,"2004/10/22 02:00:00",4446.58333,34.03,TRADE
QLD1,"2004/10/22 02:30:00",4324.37333,29.56,TRADE
QLD1,"2004/10/22 03:00:00",4253.36667,28.07,TRADE
QLD1,"2004/10/22 03:30:00",4208.52667,23.5,TRADE
QLD1,"2004/10/22 04:00:00",4183.43667,23.49,TRADE
QLD1,"2004/10/22 04:30:00",4225.66833,22.34,TRADE
QLD1,"2004/10/22 05:00:00",4291.975,22.48,TRADE
QLD1,"2004/10/22 05:30:00",4420.95167,24.31,TRADE
QLD1,"2004/10/22 06:00:00",4664.01667,27.95,TRADE
QLD1,"2004/10/22 06:30:00",5100.26167,50.78,TRADE
QLD1,"2004/10/22 07:00:00",5501.415,51.72,TRADE
QLD1,"2004/10/22 07:30:00",5836.84333,42.3,TRADE
QLD1,"2004/10/22 08:00:00",6062.1,61.68,TRADE
QLD1,"2004/10/22 08:30:00",6133.95833,57.2,TRADE
QLD1,"2004/10/22 09:00:00",6180.45333,53.98,TRADE
QLD1,"2004/10/22 09:30:00",6212.815,66.96,TRADE
QLD1,"2004/10/22 10:00:00",6220.92,68.46,TRADE
QLD1,"2004/10/22 10:30:00",6239.89333,70.51,TRADE
QLD1,"2004/10/22 11:00:00",6266.38,70.47,TRADE
QLD1,"2004/10/22 11:30:00",6277.32833,70.2,TRADE
QLD1,"2004/10/22 12:00:00",6292.65833,70.48,TRADE
QLD1,"2004/10/22 12:30:00",6315.05167,73.52,TRADE
QLD1,"2004/10/22 13:00:00",6349.165,73.27,TRADE
QLD1,"2004/10/22 13:30:00",6325.815,70.01,TRADE
QLD1,"2004/10/22 14:00:00",6360.205,69.7,TRADE
QLD1,"2004/10/22 14:30:00",6336.98167,68.66,TRADE
QLD1,"2004/10/22 15:00:00",6342.70333,67.69,TRADE
QLD1,"2004/10/22 15:30:00",6310.89,69.36,TRADE
QLD1,"2004/10/22 16:00:00",6324.56,68.67,TRADE
QLD1,"2004/10/22 16:30:00",6315.46833,72.2,TRADE
QLD1,"2004/10/22 17:00:00",6270.41333,70.26,TRADE
QLD1,"2004/10/22 17:30:00",6209.21,70.62,TRADE
QLD1,"2004/10/22 18:00:00",6107.33333,56.22,TRADE
QLD1,"2004/10/22 18:30:00",6186.91667,50.42,TRADE
QLD1,"2004/10/22 19:00:00",6256.01833,61.12,TRADE
QLD1,"2004/10/22 19:30:00",6116.51667,52.31,TRADE
QLD1,"2004/10/22 20:00:00",6007.325,47.28,TRADE
QLD1,"2004/10/22 20:30:00",5878.20167,43.44,TRADE
QLD1,"2004/10/22 21:00:00",5772.56333,40.69,TRADE
QLD1,"2004/10/22 21:30:00",5653.66167,36.49,TRADE
QLD1,"2004/10/22 22:00:00",5535.83833,32.62,TRADE
QLD1,"2004/10/22 22:30:00",5465.34833,43.1,TRADE
QLD1,"2004/10/22 23:00:00",5384.165,51.85,TRADE
QLD1,"2004/10/22 23:30:00",5354.98833,68.02,TRADE
QLD1,"2004/10/23 00:00:00",5171.615,59.07,TRADE
QLD1,"2004/10/23 00:30:00",4941.46,54.54,TRADE
QLD1,"2004/10/23 01:00:00",4748.22167,39.16,TRADE
QLD1,"2004/10/23 01:30:00",4589.05167,43.09,TRADE
QLD1,"2004/10/23 02:00:00",4435.66333,33.22,TRADE
QLD1,"2004/10/23 02:30:00",4319.355,32.89,TRADE
QLD1,"2004/10/23 03:00:00",4235.19167,33.32,TRADE
QLD1,"2004/10/23 03:30:00",4198.31,28.75,TRADE
QLD1,"2004/10/23 04:00:00",4205.21167,27.02,TRADE
QLD1,"2004/10/23 04:30:00",4221.38,24.12,TRADE
QLD1,"2004/10/23 05:00:00",4229.655,23.97,TRADE
QLD1,"2004/10/23 05:30:00",4264.71333,24.72,TRADE
QLD1,"2004/10/23 06:00:00",4342.39333,24.52,TRADE
QLD1,"2004/10/23 06:30:00",4552.53833,28.22,TRADE
QLD1,"2004/10/23 07:00:00",4781.61333,23.47,TRADE
QLD1,"2004/10/23 07:30:00",5057.71667,22.69,TRADE
QLD1,"2004/10/23 08:00:00",5317.24667,27.93,TRADE
QLD1,"2004/10/23 08:30:00",5565.29833,35.51,TRADE
QLD1,"2004/10/23 09:00:00",5776.96167,40.87,TRADE
QLD1,"2004/10/23 09:30:00",5901.03667,70.14,TRADE
QLD1,"2004/10/23 10:00:00",5943.51167,73.75,TRADE
QLD1,"2004/10/23 10:30:00",5949.74667,73.84,TRADE
QLD1,"2004/10/23 11:00:00",6002.92167,74.74,TRADE
QLD1,"2004/10/23 11:30:00",6044.76333,75.82,TRADE
QLD1,"2004/10/23 12:00:00",6071.46,53.22,TRADE
QLD1,"2004/10/23 12:30:00",6047.41833,45.62,TRADE
QLD1,"2004/10/23 13:00:00",6131.94667,47.97,TRADE
QLD1,"2004/10/23 13:30:00",6113.61667,45.93,TRADE
QLD1,"2004/10/23 14:00:00",6151.85167,46.32,TRADE
QLD1,"2004/10/23 14:30:00",6113.96833,45.41,TRADE
QLD1,"2004/10/23 15:00:00",6147.97667,45.04,TRADE
QLD1,"2004/10/23 15:30:00",6125.89833,43.92,TRADE
QLD1,"2004/10/23 16:00:00",6132.75833,42.87,TRADE
QLD1,"2004/10/23 16:30:00",6109.05167,41.74,TRADE
QLD1,"2004/10/23 17:00:00",6137.59833,45.25,TRADE
QLD1,"2004/10/23 17:30:00",6120.49833,42.13,TRADE
QLD1,"2004/10/23 18:00:00",6178.16333,43.74,TRADE
QLD1,"2004/10/23 18:30:00",6270.475,44.91,TRADE
QLD1,"2004/10/23 19:00:00",6373.63667,47.51,TRADE
QLD1,"2004/10/23 19:30:00",6262.885,47.75,TRADE
QLD1,"2004/10/23 20:00:00",6129.76333,43.93,TRADE
QLD1,"2004/10/23 20:30:00",5863.21333,38.62,TRADE
QLD1,"2004/10/23 21:00:00",5706.28333,38.19,TRADE
QLD1,"2004/10/23 21:30:00",5607.80833,36.53,TRADE
QLD1,"2004/10/23 22:00:00",5419.83833,31.4,TRADE
QLD1,"2004/10/23 22:30:00",5423.91667,36.55,TRADE
QLD1,"2004/10/23 23:00:00",5354.05833,35.37,TRADE
QLD1,"2004/10/23 23:30:00",5323.52667,40.85,TRADE
QLD1,"2004/10/24 00:00:00",5133.62333,37.29,TRADE
QLD1,"2004/10/24 00:30:00",4885.24333,31.42,TRADE
QLD1,"2004/10/24 01:00:00",4719.56167,25.94,TRADE
QLD1,"2004/10/24 01:30:00",4594.48167,25.12,TRADE
QLD1,"2004/10/24 02:00:00",4420.11167,20.19,TRADE
QLD1,"2004/10/24 02:30:00",4277.67833,17.99,TRADE
QLD1,"2004/10/24 03:00:00",4219.69167,21.35,TRADE
QLD1,"2004/10/24 03:30:00",4196.805,19.45,TRADE
QLD1,"2004/10/24 04:00:00",4190.045,20.33,TRADE
QLD1,"2004/10/24 04:30:00",4192.915,18.88,TRADE
QLD1,"2004/10/24 05:00:00",4202.33667,17.81,TRADE
QLD1,"2004/10/24 05:30:00",4202.23167,17.82,TRADE
QLD1,"2004/10/24 06:00:00",4223.88833,17.82,TRADE
QLD1,"2004/10/24 06:30:00",4352.82167,17.82,TRADE
QLD1,"2004/10/24 07:00:00",4530.21333,18.56,TRADE
QLD1,"2004/10/24 07:30:00",4712.99667,17.66,TRADE
QLD1,"2004/10/24 08:00:00",4981.26167,21.34,TRADE
QLD1,"2004/10/24 08:30:00",5223.38333,24.41,TRADE
QLD1,"2004/10/24 09:00:00",5407.96333,27.73,TRADE
QLD1,"2004/10/24 09:30:00",5531.77,31.39,TRADE
QLD1,"2004/10/24 10:00:00",5676.19333,40.36,TRADE
QLD1,"2004/10/24 10:30:00",5763.74833,41.46,TRADE
QLD1,"2004/10/24 11:00:00",5827.165,42.54,TRADE
QLD1,"2004/10/24 11:30:00",5874.845,43.26,TRADE
QLD1,"2004/10/24 12:00:00",5912.66833,43.52,TRADE
QLD1,"2004/10/24 12:30:00",5951.15333,50.39,TRADE
QLD1,"2004/10/24 13:00:00",5942.27,48.93,TRADE
QLD1,"2004/10/24 13:30:00",5978.44,47.99,TRADE
QLD1,"2004/10/24 14:00:00",5969.06667,46.33,TRADE
QLD1,"2004/10/24 14:30:00",5946.18167,46.24,TRADE
QLD1,"2004/10/24 15:00:00",5947.535,45.5,TRADE
QLD1,"2004/10/24 15:30:00",5940.04667,46.81,TRADE
QLD1,"2004/10/24 16:00:00",5937.90333,47.09,TRADE
QLD1,"2004/10/24 16:30:00",5875.92167,46.4,TRADE
QLD1,"2004/10/24 17:00:00",5885.85167,50.71,TRADE
QLD1,"2004/10/24 17:30:00",6005.41167,50.94,TRADE
QLD1,"2004/10/24 18:00:00",6088.39667,48.67,TRADE
QLD1,"2004/10/24 18:30:00",6276.03,50.62,TRADE
QLD1,"2004/10/24 19:00:00",6305.215,59.3,TRADE
QLD1,"2004/10/24 19:30:00",6125.34833,65.44,TRADE
QLD1,"2004/10/24 20:00:00",5998.12833,48.28,TRADE
QLD1,"2004/10/24 20:30:00",5776.10167,44.52,TRADE
QLD1,"2004/10/24 21:00:00",5673.69167,41.24,TRADE
QLD1,"2004/10/24 21:30:00",5572.49167,39.72,TRADE
QLD1,"2004/10/24 22:00:00",5393.78,33.75,TRADE
QLD1,"2004/10/24 22:30:00",5283.21167,34.64,TRADE
QLD1,"2004/10/24 23:00:00",5202.18167,29.56,TRADE
QLD1,"2004/10/24 23:30:00",5192.58333,39.07,TRADE
QLD1,"2004/10/25 00:00:00",4972.41333,34.67,TRADE
QLD1,"2004/10/25 00:30:00",4755.88833,29.75,TRADE
QLD1,"2004/10/25 01:00:00",4605.90333,28.85,TRADE
QLD1,"2004/10/25 01:30:00",4511.735,29.96,TRADE
QLD1,"2004/10/25 02:00:00",4404.99167,28.32,TRADE
QLD1,"2004/10/25 02:30:00",4306.42833,24.42,TRADE
QLD1,"2004/10/25 03:00:00",4255.3,23.63,TRADE
QLD1,"2004/10/25 03:30:00",4248.83833,23.99,TRADE
QLD1,"2004/10/25 04:00:00",4248.22667,25.33,TRADE
QLD1,"2004/10/25 04:30:00",4304.11833,24.79,TRADE
QLD1,"2004/10/25 05:00:00",4320.46333,22.55,TRADE
QLD1,"2004/10/25 05:30:00",4512.22333,24.4,TRADE
QLD1,"2004/10/25 06:00:00",4696.475,25.81,TRADE
QLD1,"2004/10/25 06:30:00",5149.35167,34.42,TRADE
QLD1,"2004/10/25 07:00:00",5595.94833,37.43,TRADE
QLD1,"2004/10/25 07:30:00",6030.085,37.83,TRADE
QLD1,"2004/10/25 08:00:00",6265.88167,45.26,TRADE
QLD1,"2004/10/25 08:30:00",6447.96,50.2,TRADE
QLD1,"2004/10/25 09:00:00",6519.94333,49.67,TRADE
QLD1,"2004/10/25 09:30:00",6589.68333,64.09,TRADE
QLD1,"2004/10/25 10:00:00",6598.125,67.14,TRADE
QLD1,"2004/10/25 10:30:00",6617.15667,61.79,TRADE
QLD1,"2004/10/25 11:00:00",6638.59167,70.52,TRADE
QLD1,"2004/10/25 11:30:00",6705.36667,58.93,TRADE
QLD1,"2004/10/25 12:00:00",6751.215,52.21,TRADE
QLD1,"2004/10/25 12:30:00",6705.16833,80.67,TRADE
QLD1,"2004/10/25 13:00:00",6729.48167,85.15,TRADE
QLD1,"2004/10/25 13:30:00",6766.99667,90.37,TRADE
QLD1,"2004/10/25 14:00:00",6739.93167,87.72,TRADE
QLD1,"2004/10/25 14:30:00",6806.46167,87.49,TRADE
QLD1,"2004/10/25 15:00:00",6726.135,82.93,TRADE
QLD1,"2004/10/25 15:30:00",6687.09333,58.84,TRADE
QLD1,"2004/10/25 16:00:00",6677.275,59.31,TRADE
QLD1,"2004/10/25 16:30:00",6631.80667,47.64,TRADE
QLD1,"2004/10/25 17:00:00",6655.465,47.81,TRADE
QLD1,"2004/10/25 17:30:00",6597.07167,57.65,TRADE
QLD1,"2004/10/25 18:00:00",6531.95167,47.68,TRADE
QLD1,"2004/10/25 18:30:00",6617.42667,45.78,TRADE
QLD1,"2004/10/25 19:00:00",6651.06,47.92,TRADE
QLD1,"2004/10/25 19:30:00",6475.53667,45.6,TRADE
QLD1,"2004/10/25 20:00:00",6350.24833,46.39,TRADE
QLD1,"2004/10/25 20:30:00",6148.00167,48.62,TRADE
QLD1,"2004/10/25 21:00:00",6031.42167,47.65,TRADE
QLD1,"2004/10/25 21:30:00",5909.115,45.02,TRADE
QLD1,"2004/10/25 22:00:00",5714.51833,37.89,TRADE
QLD1,"2004/10/25 22:30:00",5555.73167,43.84,TRADE
QLD1,"2004/10/25 23:00:00",5435.35833,41.5,TRADE
QLD1,"2004/10/25 23:30:00",5339.59667,59.77,TRADE
QLD1,"2004/10/26 00:00:00",5094.49333,47.47,TRADE
QLD1,"2004/10/26 00:30:00",4861.22167,50.59,TRADE
QLD1,"2004/10/26 01:00:00",4732.65,42.41,TRADE
QLD1,"2004/10/26 01:30:00",4585.91167,50.97,TRADE
QLD1,"2004/10/26 02:00:00",4494.91333,36.46,TRADE
QLD1,"2004/10/26 02:30:00",4398.80167,29.97,TRADE
QLD1,"2004/10/26 03:00:00",4319.87667,28.13,TRADE
QLD1,"2004/10/26 03:30:00",4312.39667,25.66,TRADE
QLD1,"2004/10/26 04:00:00",4293.68,23.19,TRADE
QLD1,"2004/10/26 04:30:00",4332.335,21.49,TRADE
QLD1,"2004/10/26 05:00:00",4433.17333,21.86,TRADE
QLD1,"2004/10/26 05:30:00",4553.405,20.51,TRADE
QLD1,"2004/10/26 06:00:00",4798.69167,21.01,TRADE
QLD1,"2004/10/26 06:30:00",5246.765,31.32,TRADE
QLD1,"2004/10/26 07:00:00",5662.18167,40.21,TRADE
QLD1,"2004/10/26 07:30:00",6000.88,37.93,TRADE
QLD1,"2004/10/26 08:00:00",6256.62333,45.54,TRADE
QLD1,"2004/10/26 08:30:00",6365.42,46.45,TRADE
QLD1,"2004/10/26 09:00:00",6385.37,50.81,TRADE
QLD1,"2004/10/26 09:30:00",6474.51,58.98,TRADE
QLD1,"2004/10/26 10:00:00",6502.90167,55.35,TRADE
QLD1,"2004/10/26 10:30:00",6485.33,57.84,TRADE
QLD1,"2004/10/26 11:00:00",6514.57,59.91,TRADE
QLD1,"2004/10/26 11:30:00",6534.07,61.68,TRADE
QLD1,"2004/10/26 12:00:00",6575.03667,67.83,TRADE
QLD1,"2004/10/26 12:30:00",6586.075,78.86,TRADE
QLD1,"2004/10/26 13:00:00",6569.38333,80.28,TRADE
QLD1,"2004/10/26 13:30:00",6597.33333,97.04,TRADE
QLD1,"2004/10/26 14:00:00",6630.38,101.4,TRADE
QLD1,"2004/10/26 14:30:00",6668.27,125.79,TRADE
QLD1,"2004/10/26 15:00:00",6651.97,94.52,TRADE
QLD1,"2004/10/26 15:30:00",6657.67167,81.81,TRADE
QLD1,"2004/10/26 16:00:00",6688.94333,80.21,TRADE
QLD1,"2004/10/26 16:30:00",6662.99333,80.28,TRADE
QLD1,"2004/10/26 17:00:00",6644.87333,80.47,TRADE
QLD1,"2004/10/26 17:30:00",6585.52667,79.31,TRADE
QLD1,"2004/10/26 18:00:00",6567.96,78.05,TRADE
QLD1,"2004/10/26 18:30:00",6624.005,73.95,TRADE
QLD1,"2004/10/26 19:00:00",6683.45833,80.27,TRADE
QLD1,"2004/10/26 19:30:00",6437.755,59.98,TRADE
QLD1,"2004/10/26 20:00:00",6324.69667,40.82,TRADE
QLD1,"2004/10/26 20:30:00",6137.23,46.99,TRADE
QLD1,"2004/10/26 21:00:00",5973.53,40.41,TRADE
QLD1,"2004/10/26 21:30:00",5877.245,38.78,TRADE
QLD1,"2004/10/26 22:00:00",5750.71667,32.95,TRADE
QLD1,"2004/10/26 22:30:00",5650.77667,38.44,TRADE
QLD1,"2004/10/26 23:00:00",5477.57167,34.05,TRADE
QLD1,"2004/10/26 23:30:00",5406.23333,38.78,TRADE
QLD1,"2004/10/27 00:00:00",5142.31667,31.35,TRADE
QLD1,"2004/10/27 00:30:00",4933.245,27.4,TRADE
QLD1,"2004/10/27 01:00:00",4794.12,21.98,TRADE
QLD1,"2004/10/27 01:30:00",4590.78167,20.81,TRADE
QLD1,"2004/10/27 02:00:00",4472.275,20.14,TRADE
QLD1,"2004/10/27 02:30:00",4367.72167,19.2,TRADE
QLD1,"2004/10/27 03:00:00",4334.94,18.36,TRADE
QLD1,"2004/10/27 03:30:00",4340.36167,17.88,TRADE
QLD1,"2004/10/27 04:00:00",4341.945,19.21,TRADE
QLD1,"2004/10/27 04:30:00",4363.34333,18.42,TRADE
QLD1,"2004/10/27 05:00:00",4399.92833,18.28,TRADE
QLD1,"2004/10/27 05:30:00",4548.24167,19.11,TRADE
QLD1,"2004/10/27 06:00:00",4776.92333,20.11,TRADE
QLD1,"2004/10/27 06:30:00",5243.01,26.08,TRADE
QLD1,"2004/10/27 07:00:00",5712.94667,39.58,TRADE
QLD1,"2004/10/27 07:30:00",6101.13333,36.67,TRADE
QLD1,"2004/10/27 08:00:00",6333.375,41.15,TRADE
QLD1,"2004/10/27 08:30:00",6436.03833,45.66,TRADE
QLD1,"2004/10/27 09:00:00",6450.68,45.32,TRADE
QLD1,"2004/10/27 09:30:00",6521.29667,45.14,TRADE
QLD1,"2004/10/27 10:00:00",6562.18833,45.55,TRADE
QLD1,"2004/10/27 10:30:00",6576.57,54.18,TRADE
QLD1,"2004/10/27 11:00:00",6571.01167,60.26,TRADE
QLD1,"2004/10/27 11:30:00",6630.40667,79.84,TRADE
QLD1,"2004/10/27 12:00:00",6636.23167,80.6,TRADE
QLD1,"2004/10/27 12:30:00",6615.2,81.11,TRADE
QLD1,"2004/10/27 13:00:00",6698.82,81.89,TRADE
QLD1,"2004/10/27 13:30:00",6704.49333,81.31,TRADE
QLD1,"2004/10/27 14:00:00",6768.62333,82.3,TRADE
QLD1,"2004/10/27 14:30:00",6817.56667,92.7,TRADE
QLD1,"2004/10/27 15:00:00",6825.82667,87.42,TRADE
QLD1,"2004/10/27 15:30:00",6763.36667,84.53,TRADE
QLD1,"2004/10/27 16:00:00",6784.865,84.47,TRADE
QLD1,"2004/10/27 16:30:00",6770.4,81.8,TRADE
QLD1,"2004/10/27 17:00:00",6770.86833,81.61,TRADE
QLD1,"2004/10/27 17:30:00",6718.17667,80.9,TRADE
QLD1,"2004/10/27 18:00:00",6647.635,74.16,TRADE
QLD1,"2004/10/27 18:30:00",6726.95667,69.46,TRADE
QLD1,"2004/10/27 19:00:00",6817.88667,81.92,TRADE
QLD1,"2004/10/27 19:30:00",6690.505,79.36,TRADE
QLD1,"2004/10/27 20:00:00",6524.47167,62.74,TRADE
QLD1,"2004/10/27 20:30:00",6359.48167,72.58,TRADE
QLD1,"2004/10/27 21:00:00",6175.285,46.77,TRADE
QLD1,"2004/10/27 21:30:00",6027.08667,45.18,TRADE
QLD1,"2004/10/27 22:00:00",5910.39,39.99,TRADE
QLD1,"2004/10/27 22:30:00",5740.96667,42.14,TRADE
QLD1,"2004/10/27 23:00:00",5624.17167,39.25,TRADE
QLD1,"2004/10/27 23:30:00",5528.47167,49.23,TRADE
QLD1,"2004/10/28 00:00:00",5282.09167,36.47,TRADE
QLD1,"2004/10/28 00:30:00",4998.62333,33.28,TRADE
QLD1,"2004/10/28 01:00:00",4867.465,36.1,TRADE
QLD1,"2004/10/28 01:30:00",4742.45833,38.62,TRADE
QLD1,"2004/10/28 02:00:00",4585.34833,28.87,TRADE
QLD1,"2004/10/28 02:30:00",4514.40667,25.78,TRADE
QLD1,"2004/10/28 03:00:00",4438.55,27.76,TRADE
QLD1,"2004/10/28 03:30:00",4461.16667,23.1,TRADE
QLD1,"2004/10/28 04:00:00",4406.85167,23.16,TRADE
QLD1,"2004/10/28 04:30:00",4429.17167,21.01,TRADE
QLD1,"2004/10/28 05:00:00",4518.21833,21.05,TRADE
QLD1,"2004/10/28 05:30:00",4616.44,21.17,TRADE
QLD1,"2004/10/28 06:00:00",4864.26,22.2,TRADE
QLD1,"2004/10/28 06:30:00",5273.78,29.36,TRADE
QLD1,"2004/10/28 07:00:00",5722.245,41.55,TRADE
QLD1,"2004/10/28 07:30:00",6045.14,36.73,TRADE
QLD1,"2004/10/28 08:00:00",6311.09667,42.96,TRADE
QLD1,"2004/10/28 08:30:00",6381.95333,45.04,TRADE
QLD1,"2004/10/28 09:00:00",6316.95333,43.87,TRADE
QLD1,"2004/10/28 09:30:00",6409.90667,48.17,TRADE
QLD1,"2004/10/28 10:00:00",6421.61333,45.63,TRADE
QLD1,"2004/10/28 10:30:00",6463.535,48.85,TRADE
QLD1,"2004/10/28 11:00:00",6478.665,48.63,TRADE
QLD1,"2004/10/28 11:30:00",6533.05167,48.56,TRADE
QLD1,"2004/10/28 12:00:00",6542.045,45.73,TRADE
QLD1,"2004/10/28 12:30:00",6551.33833,44.44,TRADE
QLD1,"2004/10/28 13:00:00",6577.255,44.98,TRADE
QLD1,"2004/10/28 13:30:00",6605.09167,45.35,TRADE
QLD1,"2004/10/28 14:00:00",6641.13333,45.18,TRADE
QLD1,"2004/10/28 14:30:00",6653.70833,45.3,TRADE
QLD1,"2004/10/28 15:00:00",6675.73667,44.81,TRADE
QLD1,"2004/10/28 15:30:00",6637.815,39.21,TRADE
QLD1,"2004/10/28 16:00:00",6621.28,41.95,TRADE
QLD1,"2004/10/28 16:30:00",6652.06333,44.55,TRADE
QLD1,"2004/10/28 17:00:00",6558.17833,41.44,TRADE
QLD1,"2004/10/28 17:30:00",6454.73667,43.12,TRADE
QLD1,"2004/10/28 18:00:00",6466.87833,43.97,TRADE
QLD1,"2004/10/28 18:30:00",6544.93167,46.87,TRADE
QLD1,"2004/10/28 19:00:00",6625.9,67.7,TRADE
QLD1,"2004/10/28 19:30:00",6458.66833,56.94,TRADE
QLD1,"2004/10/28 20:00:00",6284.57833,44.85,TRADE
QLD1,"2004/10/28 20:30:00",6141.46,50.16,TRADE
QLD1,"2004/10/28 21:00:00",5924.72167,39.24,TRADE
QLD1,"2004/10/28 21:30:00",5798.365,37.36,TRADE
QLD1,"2004/10/28 22:00:00",5666.29167,33.57,TRADE
QLD1,"2004/10/28 22:30:00",5547.345,38.39,TRADE
QLD1,"2004/10/28 23:00:00",5445.73167,37.8,TRADE
QLD1,"2004/10/28 23:30:00",5310.56333,44.23,TRADE
QLD1,"2004/10/29 00:00:00",5117.15333,35.7,TRADE
QLD1,"2004/10/29 00:30:00",4851.81667,32.07,TRADE
QLD1,"2004/10/29 01:00:00",4709.33667,34.95,TRADE
QLD1,"2004/10/29 01:30:00",4576.575,33.76,TRADE
QLD1,"2004/10/29 02:00:00",4400.21833,28.06,TRADE
QLD1,"2004/10/29 02:30:00",4315.775,25.7,TRADE
QLD1,"2004/10/29 03:00:00",4230.29167,23.78,TRADE
QLD1,"2004/10/29 03:30:00",4220.57,24,TRADE
QLD1,"2004/10/29 04:00:00",4211.55167,23.18,TRADE
QLD1,"2004/10/29 04:30:00",4264.76667,23.49,TRADE
QLD1,"2004/10/29 05:00:00",4329.77333,23.31,TRADE
QLD1,"2004/10/29 05:30:00",4463.68833,22.58,TRADE
QLD1,"2004/10/29 06:00:00",4717.30667,22.81,TRADE
QLD1,"2004/10/29 06:30:00",5106.245,29.32,TRADE
QLD1,"2004/10/29 07:00:00",5544.82,35.74,TRADE
QLD1,"2004/10/29 07:30:00",5843.69833,31.03,TRADE
QLD1,"2004/10/29 08:00:00",6050.40333,36.92,TRADE
QLD1,"2004/10/29 08:30:00",6150.35333,41.84,TRADE
QLD1,"2004/10/29 09:00:00",6184.93667,38.94,TRADE
QLD1,"2004/10/29 09:30:00",6195.26833,41.55,TRADE
QLD1,"2004/10/29 10:00:00",6221.215,40.66,TRADE
QLD1,"2004/10/29 10:30:00",6208.31833,38.58,TRADE
QLD1,"2004/10/29 11:00:00",6178.61333,38.4,TRADE
QLD1,"2004/10/29 11:30:00",6189.57333,38.85,TRADE
QLD1,"2004/10/29 12:00:00",6174.51,38.66,TRADE
QLD1,"2004/10/29 12:30:00",6191.48333,39.25,TRADE
QLD1,"2004/10/29 13:00:00",6129.35,36.96,TRADE
QLD1,"2004/10/29 13:30:00",6096.32833,35.17,TRADE
QLD1,"2004/10/29 14:00:00",6092.68667,35.05,TRADE
QLD1,"2004/10/29 14:30:00",6074.44667,32.13,TRADE
QLD1,"2004/10/29 15:00:00",6031.22667,28.51,TRADE
QLD1,"2004/10/29 15:30:00",6017.255,28.91,TRADE
QLD1,"2004/10/29 16:00:00",5980.72667,29.64,TRADE
QLD1,"2004/10/29 16:30:00",5990.70833,29.99,TRADE
QLD1,"2004/10/29 17:00:00",5992.64,29.79,TRADE
QLD1,"2004/10/29 17:30:00",5969.77,29.99,TRADE
QLD1,"2004/10/29 18:00:00",5970.95333,29.92,TRADE
QLD1,"2004/10/29 18:30:00",6038.00667,30.37,TRADE
QLD1,"2004/10/29 19:00:00",6086.645,34.22,TRADE
QLD1,"2004/10/29 19:30:00",5978.90667,34.68,TRADE
QLD1,"2004/10/29 20:00:00",5838.495,33.66,TRADE
QLD1,"2004/10/29 20:30:00",5703.73667,34.77,TRADE
QLD1,"2004/10/29 21:00:00",5554.07333,28.95,TRADE
QLD1,"2004/10/29 21:30:00",5422.56833,26.81,TRADE
QLD1,"2004/10/29 22:00:00",5335.40333,24.27,TRADE
QLD1,"2004/10/29 22:30:00",5287.255,33.18,TRADE
QLD1,"2004/10/29 23:00:00",5247.94167,32.29,TRADE
QLD1,"2004/10/29 23:30:00",5219.19667,52.05,TRADE
QLD1,"2004/10/30 00:00:00",4961.58167,46.24,TRADE
QLD1,"2004/10/30 00:30:00",4762.89667,39.57,TRADE
QLD1,"2004/10/30 01:00:00",4548.10833,44.29,TRADE
QLD1,"2004/10/30 01:30:00",4374.11833,44.33,TRADE
QLD1,"2004/10/30 02:00:00",4262.545,27.69,TRADE
QLD1,"2004/10/30 02:30:00",4145.91,27.01,TRADE
QLD1,"2004/10/30 03:00:00",4098.14833,26.95,TRADE
QLD1,"2004/10/30 03:30:00",4077.28667,24.98,TRADE
QLD1,"2004/10/30 04:00:00",4033.72,25.16,TRADE
QLD1,"2004/10/30 04:30:00",4043.705,23.08,TRADE
QLD1,"2004/10/30 05:00:00",4084.41667,22.53,TRADE
QLD1,"2004/10/30 05:30:00",4131.27,23.04,TRADE
QLD1,"2004/10/30 06:00:00",4231.17,23.15,TRADE
QLD1,"2004/10/30 06:30:00",4424.995,23.09,TRADE
QLD1,"2004/10/30 07:00:00",4626.21333,24.26,TRADE
QLD1,"2004/10/30 07:30:00",4873.78167,23.62,TRADE
QLD1,"2004/10/30 08:00:00",5098.27167,28.75,TRADE
QLD1,"2004/10/30 08:30:00",5332.975,34.41,TRADE
QLD1,"2004/10/30 09:00:00",5454.35667,42.46,TRADE
QLD1,"2004/10/30 09:30:00",5519.71667,44.53,TRADE
QLD1,"2004/10/30 10:00:00",5534.075,44.65,TRADE
QLD1,"2004/10/30 10:30:00",5506.08833,44.11,TRADE
QLD1,"2004/10/30 11:00:00",5496.99333,42.64,TRADE
QLD1,"2004/10/30 11:30:00",5434.12167,38.42,TRADE
QLD1,"2004/10/30 12:00:00",5445.77667,37.35,TRADE
QLD1,"2004/10/30 12:30:00",5355.04333,34.45,TRADE
QLD1,"2004/10/30 13:00:00",5349.16667,31.57,TRADE
QLD1,"2004/10/30 13:30:00",5301.85833,29.47,TRADE
QLD1,"2004/10/30 14:00:00",5254.91167,26.58,TRADE
QLD1,"2004/10/30 14:30:00",5221.685,26.29,TRADE
QLD1,"2004/10/30 15:00:00",5206.07,25.09,TRADE
QLD1,"2004/10/30 15:30:00",5181.47833,25.57,TRADE
QLD1,"2004/10/30 16:00:00",5165.495,26.06,TRADE
QLD1,"2004/10/30 16:30:00",5191.71667,25.77,TRADE
QLD1,"2004/10/30 17:00:00",5254.98333,27.53,TRADE
QLD1,"2004/10/30 17:30:00",5318.03,27.26,TRADE
QLD1,"2004/10/30 18:00:00",5435.28167,29.14,TRADE
QLD1,"2004/10/30 18:30:00",5630.95,32.96,TRADE
QLD1,"2004/10/30 19:00:00",5703.935,38.44,TRADE
QLD1,"2004/10/30 19:30:00",5602.37167,39.54,TRADE
QLD1,"2004/10/30 20:00:00",5493.935,34.47,TRADE
QLD1,"2004/10/30 20:30:00",5278.05167,29.17,TRADE
QLD1,"2004/10/30 21:00:00",5138.90833,26.19,TRADE
QLD1,"2004/10/30 21:30:00",5045.06333,24.9,TRADE
QLD1,"2004/10/30 22:00:00",4944.22833,24.34,TRADE
QLD1,"2004/10/30 22:30:00",4939.98833,25.3,TRADE
QLD1,"2004/10/30 23:00:00",4957.77,26.93,TRADE
QLD1,"2004/10/30 23:30:00",4960.225,33.44,TRADE
QLD1,"2004/10/31 00:00:00",4794.42833,26.07,TRADE
QLD1,"2004/10/31 00:30:00",4566.25833,22.14,TRADE
QLD1,"2004/10/31 01:00:00",4408.87,19.26,TRADE
QLD1,"2004/10/31 01:30:00",4332.95167,20.43,TRADE
QLD1,"2004/10/31 02:00:00",4157.82833,18.01,TRADE
QLD1,"2004/10/31 02:30:00",4052.20667,17.6,TRADE
QLD1,"2004/10/31 03:00:00",3992.96,17.05,TRADE
QLD1,"2004/10/31 03:30:00",3939.18333,16.71,TRADE
QLD1,"2004/10/31 04:00:00",3947.40667,16.98,TRADE
QLD1,"2004/10/31 04:30:00",3936.43833,16.87,TRADE
QLD1,"2004/10/31 05:00:00",3945.74,16.78,TRADE
QLD1,"2004/10/31 05:30:00",3977.03833,17.47,TRADE
QLD1,"2004/10/31 06:00:00",4021.21167,17.67,TRADE
QLD1,"2004/10/31 06:30:00",4198.01167,18.23,TRADE
QLD1,"2004/10/31 07:00:00",4335.15333,18.11,TRADE
QLD1,"2004/10/31 07:30:00",4510,16.87,TRADE
QLD1,"2004/10/31 08:00:00",4739.83333,18.76,TRADE
QLD1,"2004/10/31 08:30:00",4953.88833,23.24,TRADE
QLD1,"2004/10/31 09:00:00",5089.35667,28.64,TRADE
QLD1,"2004/10/31 09:30:00",5217.30167,28.55,TRADE
QLD1,"2004/10/31 10:00:00",5272.89667,26.71,TRADE
QLD1,"2004/10/31 10:30:00",5294.15167,30.78,TRADE
QLD1,"2004/10/31 11:00:00",5246.49167,25.7,TRADE
QLD1,"2004/10/31 11:30:00",5241.16,23.8,TRADE
QLD1,"2004/10/31 12:00:00",5242.84833,23.54,TRADE
QLD1,"2004/10/31 12:30:00",5176.96333,23.5,TRADE
QLD1,"2004/10/31 13:00:00",5158.15,23.24,TRADE
QLD1,"2004/10/31 13:30:00",5112.16667,22.46,TRADE
QLD1,"2004/10/31 14:00:00",5086.47167,22.92,TRADE
QLD1,"2004/10/31 14:30:00",5099.15333,23.4,TRADE
QLD1,"2004/10/31 15:00:00",5067.07833,23.47,TRADE
QLD1,"2004/10/31 15:30:00",5057.02667,23.35,TRADE
QLD1,"2004/10/31 16:00:00",5098.78833,23.5,TRADE
QLD1,"2004/10/31 16:30:00",5086.44667,23.17,TRADE
QLD1,"2004/10/31 17:00:00",5154.53,23.5,TRADE
QLD1,"2004/10/31 17:30:00",5266.09667,25.83,TRADE
QLD1,"2004/10/31 18:00:00",5380.63,25.9,TRADE
QLD1,"2004/10/31 18:30:00",5619.51167,27.16,TRADE
QLD1,"2004/10/31 19:00:00",5821.77167,37.35,TRADE
QLD1,"2004/10/31 19:30:00",5765.49,41.4,TRADE
QLD1,"2004/10/31 20:00:00",5643.47333,33.67,TRADE
QLD1,"2004/10/31 20:30:00",5414.45,26.22,TRADE
QLD1,"2004/10/31 21:00:00",5323.27333,23.25,TRADE
QLD1,"2004/10/31 21:30:00",5211.29833,23.11,TRADE
QLD1,"2004/10/31 22:00:00",5022.05667,21.37,TRADE
QLD1,"2004/10/31 22:30:00",4963.34667,21.35,TRADE
QLD1,"2004/10/31 23:00:00",4882.13667,21.63,TRADE
QLD1,"2004/10/31 23:30:00",4902.81,23.78,TRADE
QLD1,"2004/11/01 00:00:00",4747.955,22.07,TRADE
