REGION,SETTLEMENTDATE,TOTALDEMAND,RRP,PERIODTYPE
QLD1,"2009/01/01 00:30:00",5611.54,17.63,TRADE
QLD1,"2009/01/01 01:00:00",5457.34,18.73,TRADE
QLD1,"2009/01/01 01:30:00",5294.12,15.43,TRADE
QLD1,"2009/01/01 02:00:00",5153.47,13.25,TRADE
QLD1,"2009/01/01 02:30:00",5060.33,12.97,TRADE
QLD1,"2009/01/01 03:00:00",4983.49,12.35,TRADE
QLD1,"2009/01/01 03:30:00",4899.56,10.69,TRADE
QLD1,"2009/01/01 04:00:00",4819.52,10.41,TRADE
QLD1,"2009/01/01 04:30:00",4825.31,11.84,TRADE
QLD1,"2009/01/01 05:00:00",4804.69,11.69,TRADE
QLD1,"2009/01/01 05:30:00",4779.16,11.83,TRADE
QLD1,"2009/01/01 06:00:00",4805.6,11.66,TRADE
QLD1,"2009/01/01 06:30:00",4939.64,13.23,TRADE
QLD1,"2009/01/01 07:00:00",5112.59,15.39,TRADE
QLD1,"2009/01/01 07:30:00",5384.87,17.54,TRADE
QLD1,"2009/01/01 08:00:00",5614.19,19.14,TRADE
QLD1,"2009/01/01 08:30:00",5908.48,21.65,TRADE
QLD1,"2009/01/01 09:00:00",6156.83,21.84,TRADE
QLD1,"2009/01/01 09:30:00",6441.89,23.28,TRADE
QLD1,"2009/01/01 10:00:00",6712.97,24.23,TRADE
QLD1,"2009/01/01 10:30:00",6937.07,26.41,TRADE
QLD1,"2009/01/01 11:00:00",7122.29,29.62,TRADE
QLD1,"2009/01/01 11:30:00",7209.98,37.04,TRADE
QLD1,"2009/01/01 12:00:00",7342.12,40.55,TRADE
QLD1,"2009/01/01 12:30:00",7425.06,49.29,TRADE
QLD1,"2009/01/01 13:00:00",7528.04,68.91,TRADE
QLD1,"2009/01/01 13:30:00",7597.42,98.73,TRADE
QLD1,"2009/01/01 14:00:00",7615.02,142.79,TRADE
QLD1,"2009/01/01 14:30:00",7606.94,95.49,TRADE
QLD1,"2009/01/01 15:00:00",7605.56,62.22,TRADE
QLD1,"2009/01/01 15:30:00",7636.32,60.11,TRADE
QLD1,"2009/01/01 16:00:00",7606,44.06,TRADE
QLD1,"2009/01/01 16:30:00",7577.35,33.66,TRADE
QLD1,"2009/01/01 17:00:00",7533.54,34.04,TRADE
QLD1,"2009/01/01 17:30:00",7528.39,32.59,TRADE
QLD1,"2009/01/01 18:00:00",7470.04,32.82,TRADE
QLD1,"2009/01/01 18:30:00",7340.86,31.44,TRADE
QLD1,"2009/01/01 19:00:00",7341.39,31.24,TRADE
QLD1,"2009/01/01 19:30:00",7421.15,31.7,TRADE
QLD1,"2009/01/01 20:00:00",7359.89,31.17,TRADE
QLD1,"2009/01/01 20:30:00",7225.92,29.52,TRADE
QLD1,"2009/01/01 21:00:00",7017.67,24.8,TRADE
QLD1,"2009/01/01 21:30:00",6921.43,23.15,TRADE
QLD1,"2009/01/01 22:00:00",6596.84,21.46,TRADE
QLD1,"2009/01/01 22:30:00",6298.5,22.6,TRADE
QLD1,"2009/01/01 23:00:00",6097.28,21.8,TRADE
QLD1,"2009/01/01 23:30:00",5913.97,21.52,TRADE
QLD1,"2009/01/02 00:00:00",5610.26,20.4,TRADE
QLD1,"2009/01/02 00:30:00",5392.44,16.5,TRADE
QLD1,"2009/01/02 01:00:00",5165.04,13.65,TRADE
QLD1,"2009/01/02 01:30:00",4998.78,13.09,TRADE
QLD1,"2009/01/02 02:00:00",4900.92,11.09,TRADE
QLD1,"2009/01/02 02:30:00",4834.6,10.26,TRADE
QLD1,"2009/01/02 03:00:00",4786.36,9.4,TRADE
QLD1,"2009/01/02 03:30:00",4797.62,5.94,TRADE
QLD1,"2009/01/02 04:00:00",4782.42,5.03,TRADE
QLD1,"2009/01/02 04:30:00",4793.17,8.2,TRADE
QLD1,"2009/01/02 05:00:00",4826.79,9.69,TRADE
QLD1,"2009/01/02 05:30:00",4845.08,12.26,TRADE
QLD1,"2009/01/02 06:00:00",4955,15.34,TRADE
QLD1,"2009/01/02 06:30:00",5192.69,17.45,TRADE
QLD1,"2009/01/02 07:00:00",5420.57,18.39,TRADE
QLD1,"2009/01/02 07:30:00",5715.37,19.91,TRADE
QLD1,"2009/01/02 08:00:00",5913.68,20.89,TRADE
QLD1,"2009/01/02 08:30:00",6211.04,21.59,TRADE
QLD1,"2009/01/02 09:00:00",6332.87,21.53,TRADE
QLD1,"2009/01/02 09:30:00",6485.69,21.64,TRADE
QLD1,"2009/01/02 10:00:00",6547.36,21.74,TRADE
QLD1,"2009/01/02 10:30:00",6597.29,21.77,TRADE
QLD1,"2009/01/02 11:00:00",6621.56,21.66,TRADE
QLD1,"2009/01/02 11:30:00",6656.63,21.72,TRADE
QLD1,"2009/01/02 12:00:00",6706.12,21.66,TRADE
QLD1,"2009/01/02 12:30:00",6764.98,21.75,TRADE
QLD1,"2009/01/02 13:00:00",6810.56,21.9,TRADE
QLD1,"2009/01/02 13:30:00",6883.74,21.96,TRADE
QLD1,"2009/01/02 14:00:00",6914.19,22.02,TRADE
QLD1,"2009/01/02 14:30:00",6933.78,22.07,TRADE
QLD1,"2009/01/02 15:00:00",6955.72,22.04,TRADE
QLD1,"2009/01/02 15:30:00",6906.05,21.93,TRADE
QLD1,"2009/01/02 16:00:00",6897.97,22,TRADE
QLD1,"2009/01/02 16:30:00",6894.98,21.94,TRADE
QLD1,"2009/01/02 17:00:00",6883.43,21.99,TRADE
QLD1,"2009/01/02 17:30:00",6887.14,22.04,TRADE
QLD1,"2009/01/02 18:00:00",6822.42,21.89,TRADE
QLD1,"2009/01/02 18:30:00",6692.83,21.72,TRADE
QLD1,"2009/01/02 19:00:00",6651.72,21.68,TRADE
QLD1,"2009/01/02 19:30:00",6662.55,21.85,TRADE
QLD1,"2009/01/02 20:00:00",6593.24,21.86,TRADE
QLD1,"2009/01/02 20:30:00",6485.84,21.47,TRADE
QLD1,"2009/01/02 21:00:00",6360.53,21.25,TRADE
QLD1,"2009/01/02 21:30:00",6318.08,21.4,TRADE
QLD1,"2009/01/02 22:00:00",6133.85,20.49,TRADE
QLD1,"2009/01/02 22:30:00",5946.62,23.93,TRADE
QLD1,"2009/01/02 23:00:00",5823.29,20.98,TRADE
QLD1,"2009/01/02 23:30:00",5739.64,21.07,TRADE
QLD1,"2009/01/03 00:00:00",5541.23,20.47,TRADE
QLD1,"2009/01/03 00:30:00",5283.89,18.67,TRADE
QLD1,"2009/01/03 01:00:00",5127.98,15.95,TRADE
QLD1,"2009/01/03 01:30:00",4959.31,14.92,TRADE
QLD1,"2009/01/03 02:00:00",4814.41,11.45,TRADE
QLD1,"2009/01/03 02:30:00",4727.45,10.64,TRADE
QLD1,"2009/01/03 03:00:00",4688.96,10.1,TRADE
QLD1,"2009/01/03 03:30:00",4661.28,9.04,TRADE
QLD1,"2009/01/03 04:00:00",4648.63,8.89,TRADE
QLD1,"2009/01/03 04:30:00",4659.13,10.32,TRADE
QLD1,"2009/01/03 05:00:00",4698.23,9.32,TRADE
QLD1,"2009/01/03 05:30:00",4675.93,9.69,TRADE
QLD1,"2009/01/03 06:00:00",4642.05,10.8,TRADE
QLD1,"2009/01/03 06:30:00",4692.5,13.85,TRADE
QLD1,"2009/01/03 07:00:00",4903.03,14.95,TRADE
QLD1,"2009/01/03 07:30:00",5139.64,17,TRADE
QLD1,"2009/01/03 08:00:00",5397.98,19.46,TRADE
QLD1,"2009/01/03 08:30:00",5627.67,20.49,TRADE
QLD1,"2009/01/03 09:00:00",5872,20.68,TRADE
QLD1,"2009/01/03 09:30:00",6044.27,20.77,TRADE
QLD1,"2009/01/03 10:00:00",6143.39,20.9,TRADE
QLD1,"2009/01/03 10:30:00",6182.98,21.27,TRADE
QLD1,"2009/01/03 11:00:00",6182.96,21.31,TRADE
QLD1,"2009/01/03 11:30:00",6125.34,21.14,TRADE
QLD1,"2009/01/03 12:00:00",6164.49,21.35,TRADE
QLD1,"2009/01/03 12:30:00",6131.83,21.3,TRADE
QLD1,"2009/01/03 13:00:00",6110.56,21.21,TRADE
QLD1,"2009/01/03 13:30:00",6063.97,21.12,TRADE
QLD1,"2009/01/03 14:00:00",6054.02,21.11,TRADE
QLD1,"2009/01/03 14:30:00",6029.49,21.06,TRADE
QLD1,"2009/01/03 15:00:00",6031.83,20.86,TRADE
QLD1,"2009/01/03 15:30:00",6036.37,21.01,TRADE
QLD1,"2009/01/03 16:00:00",6077.17,21.18,TRADE
QLD1,"2009/01/03 16:30:00",6082.56,21.11,TRADE
QLD1,"2009/01/03 17:00:00",6126.36,21.02,TRADE
QLD1,"2009/01/03 17:30:00",6207.28,21.16,TRADE
QLD1,"2009/01/03 18:00:00",6193.96,21.23,TRADE
QLD1,"2009/01/03 18:30:00",6115.21,21.33,TRADE
QLD1,"2009/01/03 19:00:00",6151.18,21.52,TRADE
QLD1,"2009/01/03 19:30:00",6171.73,21.39,TRADE
QLD1,"2009/01/03 20:00:00",6146.3,21.43,TRADE
QLD1,"2009/01/03 20:30:00",6021.04,21,TRADE
QLD1,"2009/01/03 21:00:00",5927.04,21.37,TRADE
QLD1,"2009/01/03 21:30:00",5977.22,21.46,TRADE
QLD1,"2009/01/03 22:00:00",5760.68,20.14,TRADE
QLD1,"2009/01/03 22:30:00",5645.75,21.19,TRADE
QLD1,"2009/01/03 23:00:00",5563.06,21.12,TRADE
QLD1,"2009/01/03 23:30:00",5499.05,19.99,TRADE
QLD1,"2009/01/04 00:00:00",5318.07,18.64,TRADE
QLD1,"2009/01/04 00:30:00",5113.58,14.97,TRADE
QLD1,"2009/01/04 01:00:00",4929,13.08,TRADE
QLD1,"2009/01/04 01:30:00",4790.61,12.55,TRADE
QLD1,"2009/01/04 02:00:00",4676.21,11.01,TRADE
QLD1,"2009/01/04 02:30:00",4554.06,10.02,TRADE
QLD1,"2009/01/04 03:00:00",4558.68,9.24,TRADE
QLD1,"2009/01/04 03:30:00",4540.51,3.04,TRADE
QLD1,"2009/01/04 04:00:00",4517.22,5.79,TRADE
QLD1,"2009/01/04 04:30:00",4501.66,3.7,TRADE
QLD1,"2009/01/04 05:00:00",4499.81,5.92,TRADE
QLD1,"2009/01/04 05:30:00",4509.09,6.64,TRADE
QLD1,"2009/01/04 06:00:00",4551.09,10.11,TRADE
QLD1,"2009/01/04 06:30:00",4628.23,11.69,TRADE
QLD1,"2009/01/04 07:00:00",4813.23,14.64,TRADE
QLD1,"2009/01/04 07:30:00",5068.32,16.74,TRADE
QLD1,"2009/01/04 08:00:00",5246.44,17.92,TRADE
QLD1,"2009/01/04 08:30:00",5479.44,19.92,TRADE
QLD1,"2009/01/04 09:00:00",5597.7,19.63,TRADE
QLD1,"2009/01/04 09:30:00",5763.45,19.91,TRADE
QLD1,"2009/01/04 10:00:00",5817.68,17.52,TRADE
QLD1,"2009/01/04 10:30:00",5909.28,18.42,TRADE
QLD1,"2009/01/04 11:00:00",5933.89,18.98,TRADE
QLD1,"2009/01/04 11:30:00",5940.21,18.94,TRADE
QLD1,"2009/01/04 12:00:00",5933.53,18.72,TRADE
QLD1,"2009/01/04 12:30:00",5955.62,19.04,TRADE
QLD1,"2009/01/04 13:00:00",5986,19.75,TRADE
QLD1,"2009/01/04 13:30:00",6002.62,20.31,TRADE
QLD1,"2009/01/04 14:00:00",5984.27,21,TRADE
QLD1,"2009/01/04 14:30:00",6003.72,21.28,TRADE
QLD1,"2009/01/04 15:00:00",6024.81,23.32,TRADE
QLD1,"2009/01/04 15:30:00",6031.42,23.53,TRADE
QLD1,"2009/01/04 16:00:00",6034.65,23.1,TRADE
QLD1,"2009/01/04 16:30:00",6034.69,21.68,TRADE
QLD1,"2009/01/04 17:00:00",6042.95,23.11,TRADE
QLD1,"2009/01/04 17:30:00",6112.61,22.7,TRADE
QLD1,"2009/01/04 18:00:00",6168.04,22.82,TRADE
QLD1,"2009/01/04 18:30:00",6111.29,21.41,TRADE
QLD1,"2009/01/04 19:00:00",6124.47,21.02,TRADE
QLD1,"2009/01/04 19:30:00",6183.48,21.04,TRADE
QLD1,"2009/01/04 20:00:00",6149.79,20.78,TRADE
QLD1,"2009/01/04 20:30:00",6072.93,20.51,TRADE
QLD1,"2009/01/04 21:00:00",6020.09,20.31,TRADE
QLD1,"2009/01/04 21:30:00",6025.59,20.53,TRADE
QLD1,"2009/01/04 22:00:00",5789.04,19.19,TRADE
QLD1,"2009/01/04 22:30:00",5625.03,21.28,TRADE
QLD1,"2009/01/04 23:00:00",5501.14,18.74,TRADE
QLD1,"2009/01/04 23:30:00",5454.71,18.94,TRADE
QLD1,"2009/01/05 00:00:00",5273.01,16.7,TRADE
QLD1,"2009/01/05 00:30:00",5074.73,14.45,TRADE
QLD1,"2009/01/05 01:00:00",4919.8,13.09,TRADE
QLD1,"2009/01/05 01:30:00",4755.15,12.25,TRADE
QLD1,"2009/01/05 02:00:00",4658.92,10.33,TRADE
QLD1,"2009/01/05 02:30:00",4601.41,9.9,TRADE
QLD1,"2009/01/05 03:00:00",4586.38,9.17,TRADE
QLD1,"2009/01/05 03:30:00",4554.91,8.45,TRADE
QLD1,"2009/01/05 04:00:00",4524.87,8.93,TRADE
QLD1,"2009/01/05 04:30:00",4563.33,10.79,TRADE
QLD1,"2009/01/05 05:00:00",4589.7,12.8,TRADE
QLD1,"2009/01/05 05:30:00",4723.19,15.39,TRADE
QLD1,"2009/01/05 06:00:00",4874.99,16.99,TRADE
QLD1,"2009/01/05 06:30:00",5231.34,20.68,TRADE
QLD1,"2009/01/05 07:00:00",5583.36,20.45,TRADE
QLD1,"2009/01/05 07:30:00",5950.2,21.01,TRADE
QLD1,"2009/01/05 08:00:00",6241.28,23.05,TRADE
QLD1,"2009/01/05 08:30:00",6548.26,24.49,TRADE
QLD1,"2009/01/05 09:00:00",6755.36,27.83,TRADE
QLD1,"2009/01/05 09:30:00",6896.06,30.49,TRADE
QLD1,"2009/01/05 10:00:00",6982.85,32.79,TRADE
QLD1,"2009/01/05 10:30:00",7031.52,34.46,TRADE
QLD1,"2009/01/05 11:00:00",7054.8,34.84,TRADE
QLD1,"2009/01/05 11:30:00",7071.62,34.9,TRADE
QLD1,"2009/01/05 12:00:00",7125.13,39.25,TRADE
QLD1,"2009/01/05 12:30:00",7142.07,45.26,TRADE
QLD1,"2009/01/05 13:00:00",7211.67,53.18,TRADE
QLD1,"2009/01/05 13:30:00",7236.46,53.71,TRADE
QLD1,"2009/01/05 14:00:00",7244.44,53.31,TRADE
QLD1,"2009/01/05 14:30:00",7267.6,52.92,TRADE
QLD1,"2009/01/05 15:00:00",7268.97,52.92,TRADE
QLD1,"2009/01/05 15:30:00",7286.28,53.88,TRADE
QLD1,"2009/01/05 16:00:00",7204.2,73.95,TRADE
QLD1,"2009/01/05 16:30:00",7220.21,56.87,TRADE
QLD1,"2009/01/05 17:00:00",7160.97,42.6,TRADE
QLD1,"2009/01/05 17:30:00",7051.48,40.65,TRADE
QLD1,"2009/01/05 18:00:00",6898.62,34.85,TRADE
QLD1,"2009/01/05 18:30:00",6689.4,31.59,TRADE
QLD1,"2009/01/05 19:00:00",6730.28,33.24,TRADE
QLD1,"2009/01/05 19:30:00",6745.83,35.05,TRADE
QLD1,"2009/01/05 20:00:00",6687.05,35.52,TRADE
QLD1,"2009/01/05 20:30:00",6530.56,34.77,TRADE
QLD1,"2009/01/05 21:00:00",6450.17,35.17,TRADE
QLD1,"2009/01/05 21:30:00",6447.64,34.28,TRADE
QLD1,"2009/01/05 22:00:00",6165.49,26.82,TRADE
QLD1,"2009/01/05 22:30:00",5905.86,28.89,TRADE
QLD1,"2009/01/05 23:00:00",5785.25,25.53,TRADE
QLD1,"2009/01/05 23:30:00",5641.76,25.99,TRADE
QLD1,"2009/01/06 00:00:00",5465.81,22.36,TRADE
QLD1,"2009/01/06 00:30:00",5230.55,19.61,TRADE
QLD1,"2009/01/06 01:00:00",5088.29,19.44,TRADE
QLD1,"2009/01/06 01:30:00",4914.44,19.79,TRADE
QLD1,"2009/01/06 02:00:00",4833.21,18.5,TRADE
QLD1,"2009/01/06 02:30:00",4759.57,16.26,TRADE
QLD1,"2009/01/06 03:00:00",4714.66,18.79,TRADE
QLD1,"2009/01/06 03:30:00",4685.64,17.35,TRADE
QLD1,"2009/01/06 04:00:00",4711.21,17.03,TRADE
QLD1,"2009/01/06 04:30:00",4739,18.77,TRADE
QLD1,"2009/01/06 05:00:00",4776.86,18.24,TRADE
QLD1,"2009/01/06 05:30:00",4870.53,20.14,TRADE
QLD1,"2009/01/06 06:00:00",5045.76,22.05,TRADE
QLD1,"2009/01/06 06:30:00",5395.78,23.5,TRADE
QLD1,"2009/01/06 07:00:00",5775.35,27.16,TRADE
QLD1,"2009/01/06 07:30:00",6183.18,29.25,TRADE
QLD1,"2009/01/06 08:00:00",6522.72,31.51,TRADE
QLD1,"2009/01/06 08:30:00",6817.17,36.54,TRADE
QLD1,"2009/01/06 09:00:00",6989.24,36.8,TRADE
QLD1,"2009/01/06 09:30:00",7111.7,40.1,TRADE
QLD1,"2009/01/06 10:00:00",7199.21,43.11,TRADE
QLD1,"2009/01/06 10:30:00",7250.16,47.42,TRADE
QLD1,"2009/01/06 11:00:00",7336.4,54.18,TRADE
QLD1,"2009/01/06 11:30:00",7394.73,62.86,TRADE
QLD1,"2009/01/06 12:00:00",7345.37,67.45,TRADE
QLD1,"2009/01/06 12:30:00",7428.44,91.26,TRADE
QLD1,"2009/01/06 13:00:00",7465.65,95.23,TRADE
QLD1,"2009/01/06 13:30:00",7522.54,83.47,TRADE
QLD1,"2009/01/06 14:00:00",7596.75,102.13,TRADE
QLD1,"2009/01/06 14:30:00",7627.25,111.76,TRADE
QLD1,"2009/01/06 15:00:00",7605.58,103.47,TRADE
QLD1,"2009/01/06 15:30:00",7611.6,133.75,TRADE
QLD1,"2009/01/06 16:00:00",7568.48,213.1,TRADE
QLD1,"2009/01/06 16:30:00",7521.82,92.66,TRADE
QLD1,"2009/01/06 17:00:00",7534.09,104.15,TRADE
QLD1,"2009/01/06 17:30:00",7428.27,80.54,TRADE
QLD1,"2009/01/06 18:00:00",7280.33,48.83,TRADE
QLD1,"2009/01/06 18:30:00",7086.39,35.8,TRADE
QLD1,"2009/01/06 19:00:00",7049.01,41.08,TRADE
QLD1,"2009/01/06 19:30:00",7105.81,41.95,TRADE
QLD1,"2009/01/06 20:00:00",7061.25,38.89,TRADE
QLD1,"2009/01/06 20:30:00",6900.33,39.77,TRADE
QLD1,"2009/01/06 21:00:00",6769.64,35.32,TRADE
QLD1,"2009/01/06 21:30:00",6728.11,38.27,TRADE
QLD1,"2009/01/06 22:00:00",6449.85,30.71,TRADE
QLD1,"2009/01/06 22:30:00",6191.49,30.82,TRADE
QLD1,"2009/01/06 23:00:00",5970.19,26.48,TRADE
QLD1,"2009/01/06 23:30:00",5870.93,27.69,TRADE
QLD1,"2009/01/07 00:00:00",5635.98,22.47,TRADE
QLD1,"2009/01/07 00:30:00",5381.19,21.23,TRADE
QLD1,"2009/01/07 01:00:00",5202.32,20.13,TRADE
QLD1,"2009/01/07 01:30:00",5059.07,21.31,TRADE
QLD1,"2009/01/07 02:00:00",4933.91,19.98,TRADE
QLD1,"2009/01/07 02:30:00",4888.77,20.57,TRADE
QLD1,"2009/01/07 03:00:00",4854.63,19.76,TRADE
QLD1,"2009/01/07 03:30:00",4852.79,19.79,TRADE
QLD1,"2009/01/07 04:00:00",4808.64,19.52,TRADE
QLD1,"2009/01/07 04:30:00",4821.39,19.05,TRADE
QLD1,"2009/01/07 05:00:00",4857.73,19.81,TRADE
QLD1,"2009/01/07 05:30:00",4951.35,22.25,TRADE
QLD1,"2009/01/07 06:00:00",5101.26,21.73,TRADE
QLD1,"2009/01/07 06:30:00",5445.34,26.36,TRADE
QLD1,"2009/01/07 07:00:00",5835.24,31.9,TRADE
QLD1,"2009/01/07 07:30:00",6262.57,30.98,TRADE
QLD1,"2009/01/07 08:00:00",6591.67,35.36,TRADE
QLD1,"2009/01/07 08:30:00",6893.69,42.94,TRADE
QLD1,"2009/01/07 09:00:00",7094.94,43.66,TRADE
QLD1,"2009/01/07 09:30:00",7233.09,46.34,TRADE
QLD1,"2009/01/07 10:00:00",7301.12,49.78,TRADE
QLD1,"2009/01/07 10:30:00",7360.39,54.12,TRADE
QLD1,"2009/01/07 11:00:00",7471.44,57.36,TRADE
QLD1,"2009/01/07 11:30:00",7507.38,57.83,TRADE
QLD1,"2009/01/07 12:00:00",7591.19,58.62,TRADE
QLD1,"2009/01/07 12:30:00",7608.06,109.46,TRADE
QLD1,"2009/01/07 13:00:00",7530.42,98.02,TRADE
QLD1,"2009/01/07 13:30:00",7529.82,100.53,TRADE
QLD1,"2009/01/07 14:00:00",7578.33,102.78,TRADE
QLD1,"2009/01/07 14:30:00",7583.26,121.56,TRADE
QLD1,"2009/01/07 15:00:00",7545.55,124.37,TRADE
QLD1,"2009/01/07 15:30:00",7602.74,123.25,TRADE
QLD1,"2009/01/07 16:00:00",7635.27,110.29,TRADE
QLD1,"2009/01/07 16:30:00",7651.72,72.63,TRADE
QLD1,"2009/01/07 17:00:00",7673.99,58.99,TRADE
QLD1,"2009/01/07 17:30:00",7561.04,57.37,TRADE
QLD1,"2009/01/07 18:00:00",7384.13,56.01,TRADE
QLD1,"2009/01/07 18:30:00",7145.18,42.51,TRADE
QLD1,"2009/01/07 19:00:00",7120.02,37.63,TRADE
QLD1,"2009/01/07 19:30:00",7224.31,41.39,TRADE
QLD1,"2009/01/07 20:00:00",7161.21,43.61,TRADE
QLD1,"2009/01/07 20:30:00",7038.74,55.38,TRADE
QLD1,"2009/01/07 21:00:00",6890.62,46.07,TRADE
QLD1,"2009/01/07 21:30:00",6877.59,46.03,TRADE
QLD1,"2009/01/07 22:00:00",6589.09,33.69,TRADE
QLD1,"2009/01/07 22:30:00",6358.32,39.05,TRADE
QLD1,"2009/01/07 23:00:00",6148.26,32.46,TRADE
QLD1,"2009/01/07 23:30:00",5984.9,32.06,TRADE
QLD1,"2009/01/08 00:00:00",5720.39,24.09,TRADE
QLD1,"2009/01/08 00:30:00",5484.84,22.3,TRADE
QLD1,"2009/01/08 01:00:00",5316.24,21.76,TRADE
QLD1,"2009/01/08 01:30:00",5167.71,22.66,TRADE
QLD1,"2009/01/08 02:00:00",5021.65,21.34,TRADE
QLD1,"2009/01/08 02:30:00",4943.86,20.61,TRADE
QLD1,"2009/01/08 03:00:00",4924.42,19.88,TRADE
QLD1,"2009/01/08 03:30:00",4944.69,19.61,TRADE
QLD1,"2009/01/08 04:00:00",4929.66,20.73,TRADE
QLD1,"2009/01/08 04:30:00",4982.32,20.08,TRADE
QLD1,"2009/01/08 05:00:00",5023.68,21.52,TRADE
QLD1,"2009/01/08 05:30:00",5080.39,23.92,TRADE
QLD1,"2009/01/08 06:00:00",5257.82,23.67,TRADE
QLD1,"2009/01/08 06:30:00",5586.23,23.61,TRADE
QLD1,"2009/01/08 07:00:00",5933.61,27.71,TRADE
QLD1,"2009/01/08 07:30:00",6311.89,25.91,TRADE
QLD1,"2009/01/08 08:00:00",6595.33,30.33,TRADE
QLD1,"2009/01/08 08:30:00",6857.35,34.6,TRADE
QLD1,"2009/01/08 09:00:00",7057.04,33.48,TRADE
QLD1,"2009/01/08 09:30:00",7178.68,33.29,TRADE
QLD1,"2009/01/08 10:00:00",7230.32,33.62,TRADE
QLD1,"2009/01/08 10:30:00",7259.26,36.87,TRADE
QLD1,"2009/01/08 11:00:00",7292.15,38.83,TRADE
QLD1,"2009/01/08 11:30:00",7353.55,36.41,TRADE
QLD1,"2009/01/08 12:00:00",7415.42,33.88,TRADE
QLD1,"2009/01/08 12:30:00",7448.83,36.73,TRADE
QLD1,"2009/01/08 13:00:00",7530.98,33.41,TRADE
QLD1,"2009/01/08 13:30:00",7576.1,29.87,TRADE
QLD1,"2009/01/08 14:00:00",7571.28,29.11,TRADE
QLD1,"2009/01/08 14:30:00",7602.15,29.91,TRADE
QLD1,"2009/01/08 15:00:00",7600,30.42,TRADE
QLD1,"2009/01/08 15:30:00",7571.21,28.18,TRADE
QLD1,"2009/01/08 16:00:00",7563.08,30.24,TRADE
QLD1,"2009/01/08 16:30:00",7499.11,27.43,TRADE
QLD1,"2009/01/08 17:00:00",7452.72,27.19,TRADE
QLD1,"2009/01/08 17:30:00",7350.01,26.99,TRADE
QLD1,"2009/01/08 18:00:00",7320.9,26.66,TRADE
QLD1,"2009/01/08 18:30:00",7211.41,24.53,TRADE
QLD1,"2009/01/08 19:00:00",7246.68,24.83,TRADE
QLD1,"2009/01/08 19:30:00",7285.04,26.93,TRADE
QLD1,"2009/01/08 20:00:00",7223.61,27.93,TRADE
QLD1,"2009/01/08 20:30:00",7096.46,24.89,TRADE
QLD1,"2009/01/08 21:00:00",6954.35,26.71,TRADE
QLD1,"2009/01/08 21:30:00",6843.15,24.21,TRADE
QLD1,"2009/01/08 22:00:00",6588.82,22.89,TRADE
QLD1,"2009/01/08 22:30:00",6297.83,25.8,TRADE
QLD1,"2009/01/08 23:00:00",6053.95,27.57,TRADE
QLD1,"2009/01/08 23:30:00",5898.12,26.33,TRADE
QLD1,"2009/01/09 00:00:00",5674.6,24.9,TRADE
QLD1,"2009/01/09 00:30:00",5459.29,23.87,TRADE
QLD1,"2009/01/09 01:00:00",5268.43,23.63,TRADE
QLD1,"2009/01/09 01:30:00",5141.24,23.57,TRADE
QLD1,"2009/01/09 02:00:00",5022.06,21.97,TRADE
QLD1,"2009/01/09 02:30:00",4950.13,18.15,TRADE
QLD1,"2009/01/09 03:00:00",4902.75,20.49,TRADE
QLD1,"2009/01/09 03:30:00",4869.93,19.9,TRADE
QLD1,"2009/01/09 04:00:00",4869.58,19.35,TRADE
QLD1,"2009/01/09 04:30:00",4893.61,21.58,TRADE
QLD1,"2009/01/09 05:00:00",4979.78,22.28,TRADE
QLD1,"2009/01/09 05:30:00",5087.62,23.21,TRADE
QLD1,"2009/01/09 06:00:00",5223.53,23.85,TRADE
QLD1,"2009/01/09 06:30:00",5550.04,26.72,TRADE
QLD1,"2009/01/09 07:00:00",5876.19,26.72,TRADE
QLD1,"2009/01/09 07:30:00",6224.14,26.4,TRADE
QLD1,"2009/01/09 08:00:00",6511.15,27.83,TRADE
QLD1,"2009/01/09 08:30:00",6739.91,28.33,TRADE
QLD1,"2009/01/09 09:00:00",6936.04,28.69,TRADE
QLD1,"2009/01/09 09:30:00",7032.46,31.82,TRADE
QLD1,"2009/01/09 10:00:00",7035.97,32.27,TRADE
QLD1,"2009/01/09 10:30:00",7059.11,29.91,TRADE
QLD1,"2009/01/09 11:00:00",7091.82,27.61,TRADE
QLD1,"2009/01/09 11:30:00",7153.78,31.27,TRADE
QLD1,"2009/01/09 12:00:00",7142.57,28.08,TRADE
QLD1,"2009/01/09 12:30:00",7167.07,27.95,TRADE
QLD1,"2009/01/09 13:00:00",7194.69,27.92,TRADE
QLD1,"2009/01/09 13:30:00",7240.12,26.69,TRADE
QLD1,"2009/01/09 14:00:00",7200.02,26.68,TRADE
QLD1,"2009/01/09 14:30:00",7184.3,27.15,TRADE
QLD1,"2009/01/09 15:00:00",7222.9,30.26,TRADE
QLD1,"2009/01/09 15:30:00",7194.05,29.56,TRADE
QLD1,"2009/01/09 16:00:00",7173.3,32.72,TRADE
QLD1,"2009/01/09 16:30:00",7127.23,27.7,TRADE
QLD1,"2009/01/09 17:00:00",7093.14,26.27,TRADE
QLD1,"2009/01/09 17:30:00",6980.57,24.52,TRADE
QLD1,"2009/01/09 18:00:00",6838.1,22.36,TRADE
QLD1,"2009/01/09 18:30:00",6595.69,21.6,TRADE
QLD1,"2009/01/09 19:00:00",6527.85,21.87,TRADE
QLD1,"2009/01/09 19:30:00",6552.57,21.89,TRADE
QLD1,"2009/01/09 20:00:00",6549.49,21.89,TRADE
QLD1,"2009/01/09 20:30:00",6383.86,21.57,TRADE
QLD1,"2009/01/09 21:00:00",6248.38,21.55,TRADE
QLD1,"2009/01/09 21:30:00",6269.85,22.7,TRADE
QLD1,"2009/01/09 22:00:00",6060.12,21.73,TRADE
QLD1,"2009/01/09 22:30:00",5877.03,24.14,TRADE
QLD1,"2009/01/09 23:00:00",5760.28,23.07,TRADE
QLD1,"2009/01/09 23:30:00",5668.92,25.18,TRADE
QLD1,"2009/01/10 00:00:00",5465.13,22.76,TRADE
QLD1,"2009/01/10 00:30:00",5218.61,22.08,TRADE
QLD1,"2009/01/10 01:00:00",5058.19,21.44,TRADE
QLD1,"2009/01/10 01:30:00",4897.96,20.77,TRADE
QLD1,"2009/01/10 02:00:00",4749.05,15.38,TRADE
QLD1,"2009/01/10 02:30:00",4672.92,13.2,TRADE
QLD1,"2009/01/10 03:00:00",4604.94,12.61,TRADE
QLD1,"2009/01/10 03:30:00",4594.59,13.1,TRADE
QLD1,"2009/01/10 04:00:00",4587.3,12.89,TRADE
QLD1,"2009/01/10 04:30:00",4593.12,14.77,TRADE
QLD1,"2009/01/10 05:00:00",4594.35,14.32,TRADE
QLD1,"2009/01/10 05:30:00",4624.19,15.7,TRADE
QLD1,"2009/01/10 06:00:00",4668.76,18.57,TRADE
QLD1,"2009/01/10 06:30:00",4786.5,20.97,TRADE
QLD1,"2009/01/10 07:00:00",5016.08,21.5,TRADE
QLD1,"2009/01/10 07:30:00",5285.46,21.62,TRADE
QLD1,"2009/01/10 08:00:00",5523.13,21.68,TRADE
QLD1,"2009/01/10 08:30:00",5787.64,23.39,TRADE
QLD1,"2009/01/10 09:00:00",6007.02,24.72,TRADE
QLD1,"2009/01/10 09:30:00",6134.97,25.96,TRADE
QLD1,"2009/01/10 10:00:00",6169.6,27.18,TRADE
QLD1,"2009/01/10 10:30:00",6223.9,26.68,TRADE
QLD1,"2009/01/10 11:00:00",6206.71,25.08,TRADE
QLD1,"2009/01/10 11:30:00",6225.77,25.15,TRADE
QLD1,"2009/01/10 12:00:00",6253.23,25.2,TRADE
QLD1,"2009/01/10 12:30:00",6230.48,25.96,TRADE
QLD1,"2009/01/10 13:00:00",6235.33,25.81,TRADE
QLD1,"2009/01/10 13:30:00",6267.42,25.52,TRADE
QLD1,"2009/01/10 14:00:00",6257.92,25.64,TRADE
QLD1,"2009/01/10 14:30:00",6231.47,25.18,TRADE
QLD1,"2009/01/10 15:00:00",6252.06,25.77,TRADE
QLD1,"2009/01/10 15:30:00",6253.19,25.16,TRADE
QLD1,"2009/01/10 16:00:00",6245.65,25.81,TRADE
QLD1,"2009/01/10 16:30:00",6219.16,24.53,TRADE
QLD1,"2009/01/10 17:00:00",6227.38,25.46,TRADE
QLD1,"2009/01/10 17:30:00",6195.07,24.03,TRADE
QLD1,"2009/01/10 18:00:00",6152.98,23.39,TRADE
QLD1,"2009/01/10 18:30:00",6066.39,22.56,TRADE
QLD1,"2009/01/10 19:00:00",6078.18,22.86,TRADE
QLD1,"2009/01/10 19:30:00",6101.12,23.01,TRADE
QLD1,"2009/01/10 20:00:00",6089.67,23.17,TRADE
QLD1,"2009/01/10 20:30:00",6013.94,23.14,TRADE
QLD1,"2009/01/10 21:00:00",5922.06,22.87,TRADE
QLD1,"2009/01/10 21:30:00",5974.83,23.52,TRADE
QLD1,"2009/01/10 22:00:00",5789.79,22.88,TRADE
QLD1,"2009/01/10 22:30:00",5653.57,23.3,TRADE
QLD1,"2009/01/10 23:00:00",5605.18,23.21,TRADE
QLD1,"2009/01/10 23:30:00",5544.27,23.83,TRADE
QLD1,"2009/01/11 00:00:00",5334.27,22.38,TRADE
QLD1,"2009/01/11 00:30:00",5148.55,21.99,TRADE
QLD1,"2009/01/11 01:00:00",5002.63,20.51,TRADE
QLD1,"2009/01/11 01:30:00",4835.83,19.66,TRADE
QLD1,"2009/01/11 02:00:00",4711.37,15.38,TRADE
QLD1,"2009/01/11 02:30:00",4610.63,13.45,TRADE
QLD1,"2009/01/11 03:00:00",4559.78,12.75,TRADE
QLD1,"2009/01/11 03:30:00",4539.85,13.84,TRADE
QLD1,"2009/01/11 04:00:00",4508.46,12.74,TRADE
QLD1,"2009/01/11 04:30:00",4520.6,13.4,TRADE
QLD1,"2009/01/11 05:00:00",4519.88,13.82,TRADE
QLD1,"2009/01/11 05:30:00",4508.69,13.61,TRADE
QLD1,"2009/01/11 06:00:00",4537.99,14.54,TRADE
QLD1,"2009/01/11 06:30:00",4639.35,16.07,TRADE
QLD1,"2009/01/11 07:00:00",4826.59,16.8,TRADE
QLD1,"2009/01/11 07:30:00",5040.3,18.48,TRADE
QLD1,"2009/01/11 08:00:00",5231.57,21.79,TRADE
QLD1,"2009/01/11 08:30:00",5455.36,21.94,TRADE
QLD1,"2009/01/11 09:00:00",5654.13,21.98,TRADE
QLD1,"2009/01/11 09:30:00",5820.8,23.98,TRADE
QLD1,"2009/01/11 10:00:00",5918.83,24.97,TRADE
QLD1,"2009/01/11 10:30:00",5957.68,24.97,TRADE
QLD1,"2009/01/11 11:00:00",6004.87,25.02,TRADE
QLD1,"2009/01/11 11:30:00",6046.83,25,TRADE
QLD1,"2009/01/11 12:00:00",6050.21,25.1,TRADE
QLD1,"2009/01/11 12:30:00",6093.05,25.49,TRADE
QLD1,"2009/01/11 13:00:00",6104.28,25.58,TRADE
QLD1,"2009/01/11 13:30:00",6120.11,25.66,TRADE
QLD1,"2009/01/11 14:00:00",6136.27,25.77,TRADE
QLD1,"2009/01/11 14:30:00",6179.46,25.95,TRADE
QLD1,"2009/01/11 15:00:00",6164.71,25.94,TRADE
QLD1,"2009/01/11 15:30:00",6194.71,29.1,TRADE
QLD1,"2009/01/11 16:00:00",6233.25,29.17,TRADE
QLD1,"2009/01/11 16:30:00",6201.42,27.32,TRADE
QLD1,"2009/01/11 17:00:00",6219.85,26.67,TRADE
QLD1,"2009/01/11 17:30:00",6233.61,26.42,TRADE
QLD1,"2009/01/11 18:00:00",6256.15,26.36,TRADE
QLD1,"2009/01/11 18:30:00",6194.66,25.1,TRADE
QLD1,"2009/01/11 19:00:00",6223.31,24.97,TRADE
QLD1,"2009/01/11 19:30:00",6294.15,25.09,TRADE
QLD1,"2009/01/11 20:00:00",6250.06,24.56,TRADE
QLD1,"2009/01/11 20:30:00",6165.1,23.56,TRADE
QLD1,"2009/01/11 21:00:00",6070.41,22.34,TRADE
QLD1,"2009/01/11 21:30:00",6131.97,23,TRADE
QLD1,"2009/01/11 22:00:00",5844.47,21.61,TRADE
QLD1,"2009/01/11 22:30:00",5654.67,25.75,TRADE
QLD1,"2009/01/11 23:00:00",5557.96,23.33,TRADE
QLD1,"2009/01/11 23:30:00",5473.8,23.08,TRADE
QLD1,"2009/01/12 00:00:00",5249.38,20.35,TRADE
QLD1,"2009/01/12 00:30:00",5058.45,20.01,TRADE
QLD1,"2009/01/12 01:00:00",4924.68,20.8,TRADE
QLD1,"2009/01/12 01:30:00",4810.76,22.28,TRADE
QLD1,"2009/01/12 02:00:00",4693.08,20.03,TRADE
QLD1,"2009/01/12 02:30:00",4623.45,16.07,TRADE
QLD1,"2009/01/12 03:00:00",4592.69,15.1,TRADE
QLD1,"2009/01/12 03:30:00",4548.45,16.94,TRADE
QLD1,"2009/01/12 04:00:00",4567.45,17.46,TRADE
QLD1,"2009/01/12 04:30:00",4603,18.6,TRADE
QLD1,"2009/01/12 05:00:00",4681.68,20.5,TRADE
QLD1,"2009/01/12 05:30:00",4822.99,21.64,TRADE
QLD1,"2009/01/12 06:00:00",4951.22,21.78,TRADE
QLD1,"2009/01/12 06:30:00",5371.44,26.45,TRADE
QLD1,"2009/01/12 07:00:00",5711.18,28.25,TRADE
QLD1,"2009/01/12 07:30:00",6068.51,25.94,TRADE
QLD1,"2009/01/12 08:00:00",6396.06,29.77,TRADE
QLD1,"2009/01/12 08:30:00",6689.16,31.34,TRADE
QLD1,"2009/01/12 09:00:00",6870.6,30.94,TRADE
QLD1,"2009/01/12 09:30:00",6994.05,30.09,TRADE
QLD1,"2009/01/12 10:00:00",6980.91,30.28,TRADE
QLD1,"2009/01/12 10:30:00",6989.3,32.31,TRADE
QLD1,"2009/01/12 11:00:00",7116.13,31.62,TRADE
QLD1,"2009/01/12 11:30:00",7160.9,33.3,TRADE
QLD1,"2009/01/12 12:00:00",7190.15,32.51,TRADE
QLD1,"2009/01/12 12:30:00",7220.66,32.62,TRADE
QLD1,"2009/01/12 13:00:00",7248.54,36.72,TRADE
QLD1,"2009/01/12 13:30:00",7240.51,36.97,TRADE
QLD1,"2009/01/12 14:00:00",7261.92,34.04,TRADE
QLD1,"2009/01/12 14:30:00",7267.02,32.65,TRADE
QLD1,"2009/01/12 15:00:00",7246.79,31.65,TRADE
QLD1,"2009/01/12 15:30:00",7235.89,33.13,TRADE
QLD1,"2009/01/12 16:00:00",7191.13,33.13,TRADE
QLD1,"2009/01/12 16:30:00",7174.84,28.28,TRADE
QLD1,"2009/01/12 17:00:00",7136.61,29.17,TRADE
QLD1,"2009/01/12 17:30:00",6994.2,25.03,TRADE
QLD1,"2009/01/12 18:00:00",6866.24,24.83,TRADE
QLD1,"2009/01/12 18:30:00",6698.69,24.95,TRADE
QLD1,"2009/01/12 19:00:00",6676.32,24.16,TRADE
QLD1,"2009/01/12 19:30:00",6690.93,23.16,TRADE
QLD1,"2009/01/12 20:00:00",6595.07,21.99,TRADE
QLD1,"2009/01/12 20:30:00",6396.7,21.89,TRADE
QLD1,"2009/01/12 21:00:00",6307.57,21.86,TRADE
QLD1,"2009/01/12 21:30:00",6288.59,22.16,TRADE
QLD1,"2009/01/12 22:00:00",6036.07,20.59,TRADE
QLD1,"2009/01/12 22:30:00",5817.27,22.49,TRADE
QLD1,"2009/01/12 23:00:00",5650.63,21.48,TRADE
QLD1,"2009/01/12 23:30:00",5521.75,21.86,TRADE
QLD1,"2009/01/13 00:00:00",5301.63,20.97,TRADE
QLD1,"2009/01/13 00:30:00",5068.97,18.69,TRADE
QLD1,"2009/01/13 01:00:00",4925.91,14.92,TRADE
QLD1,"2009/01/13 01:30:00",4803.26,15.76,TRADE
QLD1,"2009/01/13 02:00:00",4691.09,12.95,TRADE
QLD1,"2009/01/13 02:30:00",4661.14,12.56,TRADE
QLD1,"2009/01/13 03:00:00",4609.02,11.85,TRADE
QLD1,"2009/01/13 03:30:00",4623.77,14.31,TRADE
QLD1,"2009/01/13 04:00:00",4654.63,13,TRADE
QLD1,"2009/01/13 04:30:00",4675.36,14.62,TRADE
QLD1,"2009/01/13 05:00:00",4750.04,16,TRADE
QLD1,"2009/01/13 05:30:00",4858.34,19.95,TRADE
QLD1,"2009/01/13 06:00:00",5035.96,20.16,TRADE
QLD1,"2009/01/13 06:30:00",5390.87,24.8,TRADE
QLD1,"2009/01/13 07:00:00",5793.73,25.59,TRADE
QLD1,"2009/01/13 07:30:00",6188.16,23.26,TRADE
QLD1,"2009/01/13 08:00:00",6395.46,23.66,TRADE
QLD1,"2009/01/13 08:30:00",6647.44,24.57,TRADE
QLD1,"2009/01/13 09:00:00",6808.14,24.61,TRADE
QLD1,"2009/01/13 09:30:00",6908.02,24.64,TRADE
QLD1,"2009/01/13 10:00:00",6967.14,24.92,TRADE
QLD1,"2009/01/13 10:30:00",7012.13,27.65,TRADE
QLD1,"2009/01/13 11:00:00",7052.4,29.1,TRADE
QLD1,"2009/01/13 11:30:00",7071.47,29.2,TRADE
QLD1,"2009/01/13 12:00:00",7095.05,31.67,TRADE
QLD1,"2009/01/13 12:30:00",7121.37,34.85,TRADE
QLD1,"2009/01/13 13:00:00",7148.58,30.37,TRADE
QLD1,"2009/01/13 13:30:00",7165.41,36.87,TRADE
QLD1,"2009/01/13 14:00:00",7180.45,36.91,TRADE
QLD1,"2009/01/13 14:30:00",7209,39.48,TRADE
QLD1,"2009/01/13 15:00:00",7182.5,44.91,TRADE
QLD1,"2009/01/13 15:30:00",7188.67,81.4,TRADE
QLD1,"2009/01/13 16:00:00",7193.87,81.45,TRADE
QLD1,"2009/01/13 16:30:00",7102.74,49.44,TRADE
QLD1,"2009/01/13 17:00:00",7014.86,37.68,TRADE
QLD1,"2009/01/13 17:30:00",6929.33,32.65,TRADE
QLD1,"2009/01/13 18:00:00",6775.88,29.06,TRADE
QLD1,"2009/01/13 18:30:00",6550.99,27.04,TRADE
QLD1,"2009/01/13 19:00:00",6535.26,25.47,TRADE
QLD1,"2009/01/13 19:30:00",6593.88,31,TRADE
QLD1,"2009/01/13 20:00:00",6526.41,29.34,TRADE
QLD1,"2009/01/13 20:30:00",6439.93,27.75,TRADE
QLD1,"2009/01/13 21:00:00",6347.34,23.42,TRADE
QLD1,"2009/01/13 21:30:00",6367.57,28.78,TRADE
QLD1,"2009/01/13 22:00:00",6144.24,29.04,TRADE
QLD1,"2009/01/13 22:30:00",5933.61,26.74,TRADE
QLD1,"2009/01/13 23:00:00",5699.76,24.83,TRADE
QLD1,"2009/01/13 23:30:00",5510.57,29.67,TRADE
QLD1,"2009/01/14 00:00:00",5279.31,22.62,TRADE
QLD1,"2009/01/14 00:30:00",5068.69,21.47,TRADE
QLD1,"2009/01/14 01:00:00",4945.52,21.08,TRADE
QLD1,"2009/01/14 01:30:00",4777.79,19.83,TRADE
QLD1,"2009/01/14 02:00:00",4687.92,17.66,TRADE
QLD1,"2009/01/14 02:30:00",4638.77,18.39,TRADE
QLD1,"2009/01/14 03:00:00",4590.96,17.72,TRADE
QLD1,"2009/01/14 03:30:00",4558.02,17.11,TRADE
QLD1,"2009/01/14 04:00:00",4601.88,18.46,TRADE
QLD1,"2009/01/14 04:30:00",4691.11,19.4,TRADE
QLD1,"2009/01/14 05:00:00",4750.8,21,TRADE
QLD1,"2009/01/14 05:30:00",4852.3,21.79,TRADE
QLD1,"2009/01/14 06:00:00",5028.93,21.48,TRADE
QLD1,"2009/01/14 06:30:00",5376.08,27.26,TRADE
QLD1,"2009/01/14 07:00:00",5770.39,33.07,TRADE
QLD1,"2009/01/14 07:30:00",6176.51,32.64,TRADE
QLD1,"2009/01/14 08:00:00",6497.56,37.06,TRADE
QLD1,"2009/01/14 08:30:00",6777.44,45.5,TRADE
QLD1,"2009/01/14 09:00:00",6928.77,50.62,TRADE
QLD1,"2009/01/14 09:30:00",6970.83,46.53,TRADE
QLD1,"2009/01/14 10:00:00",7025.05,42.23,TRADE
QLD1,"2009/01/14 10:30:00",7035.33,49.15,TRADE
QLD1,"2009/01/14 11:00:00",7114.69,60.06,TRADE
QLD1,"2009/01/14 11:30:00",7126.35,73.41,TRADE
QLD1,"2009/01/14 12:00:00",7136.81,71.81,TRADE
QLD1,"2009/01/14 12:30:00",7162.98,82.89,TRADE
QLD1,"2009/01/14 13:00:00",7167.59,83.5,TRADE
QLD1,"2009/01/14 13:30:00",7192.69,79.48,TRADE
QLD1,"2009/01/14 14:00:00",7234.37,65.07,TRADE
QLD1,"2009/01/14 14:30:00",7265.54,83.1,TRADE
QLD1,"2009/01/14 15:00:00",7207.32,85.41,TRADE
QLD1,"2009/01/14 15:30:00",7199.9,102.96,TRADE
QLD1,"2009/01/14 16:00:00",7221.84,109.57,TRADE
QLD1,"2009/01/14 16:30:00",7181.75,101.77,TRADE
QLD1,"2009/01/14 17:00:00",7143.55,93.58,TRADE
QLD1,"2009/01/14 17:30:00",7085.62,61.29,TRADE
QLD1,"2009/01/14 18:00:00",6951.54,39.61,TRADE
QLD1,"2009/01/14 18:30:00",6722.63,38.02,TRADE
QLD1,"2009/01/14 19:00:00",6726.76,42,TRADE
QLD1,"2009/01/14 19:30:00",6774.14,41.26,TRADE
QLD1,"2009/01/14 20:00:00",6734.83,40.18,TRADE
QLD1,"2009/01/14 20:30:00",6593.41,34.92,TRADE
QLD1,"2009/01/14 21:00:00",6491.1,33.42,TRADE
QLD1,"2009/01/14 21:30:00",6337.99,33.48,TRADE
QLD1,"2009/01/14 22:00:00",5539.43,22.85,TRADE
QLD1,"2009/01/14 22:30:00",5792.77,48.15,TRADE
QLD1,"2009/01/14 23:00:00",5707.65,39.25,TRADE
QLD1,"2009/01/14 23:30:00",5641.09,33.93,TRADE
QLD1,"2009/01/15 00:00:00",5472.28,25.96,TRADE
QLD1,"2009/01/15 00:30:00",5283.48,29.1,TRADE
QLD1,"2009/01/15 01:00:00",5114.73,21.4,TRADE
QLD1,"2009/01/15 01:30:00",4962.21,20.54,TRADE
QLD1,"2009/01/15 02:00:00",4853.51,18.89,TRADE
QLD1,"2009/01/15 02:30:00",4772.77,18.81,TRADE
QLD1,"2009/01/15 03:00:00",4747.48,19.44,TRADE
QLD1,"2009/01/15 03:30:00",4726.34,19.21,TRADE
QLD1,"2009/01/15 04:00:00",4682.59,19.18,TRADE
QLD1,"2009/01/15 04:30:00",4742.18,19.96,TRADE
QLD1,"2009/01/15 05:00:00",4778.85,20.35,TRADE
QLD1,"2009/01/15 05:30:00",4926.54,21.98,TRADE
QLD1,"2009/01/15 06:00:00",5063.08,26.62,TRADE
QLD1,"2009/01/15 06:30:00",5425.25,35.42,TRADE
QLD1,"2009/01/15 07:00:00",5799.53,39.46,TRADE
QLD1,"2009/01/15 07:30:00",6156.31,36.93,TRADE
QLD1,"2009/01/15 08:00:00",6474.19,42.25,TRADE
QLD1,"2009/01/15 08:30:00",6745.2,53.74,TRADE
QLD1,"2009/01/15 09:00:00",6927.89,60.26,TRADE
QLD1,"2009/01/15 09:30:00",7080.88,78.27,TRADE
QLD1,"2009/01/15 10:00:00",7162.26,99.64,TRADE
QLD1,"2009/01/15 10:30:00",7183.12,104.87,TRADE
QLD1,"2009/01/15 11:00:00",7232.3,112.15,TRADE
QLD1,"2009/01/15 11:30:00",7226.97,111.88,TRADE
QLD1,"2009/01/15 12:00:00",7275.35,199.2,TRADE
QLD1,"2009/01/15 12:30:00",7316.92,129.55,TRADE
QLD1,"2009/01/15 13:00:00",7381.63,82.2,TRADE
QLD1,"2009/01/15 13:30:00",7472.51,156.61,TRADE
QLD1,"2009/01/15 14:00:00",7515.16,1878.26,TRADE
QLD1,"2009/01/15 14:30:00",7493.8,2374.54,TRADE
QLD1,"2009/01/15 15:00:00",7520.43,234.93,TRADE
QLD1,"2009/01/15 15:30:00",7536.7,112.2,TRADE
QLD1,"2009/01/15 16:00:00",7546.79,121.73,TRADE
QLD1,"2009/01/15 16:30:00",7590.71,52.76,TRADE
QLD1,"2009/01/15 17:00:00",7577.71,66.92,TRADE
QLD1,"2009/01/15 17:30:00",7489.23,58.74,TRADE
QLD1,"2009/01/15 18:00:00",7415.39,47.21,TRADE
QLD1,"2009/01/15 18:30:00",7223.91,40.58,TRADE
QLD1,"2009/01/15 19:00:00",7223.79,39.58,TRADE
QLD1,"2009/01/15 19:30:00",7227.77,36.01,TRADE
QLD1,"2009/01/15 20:00:00",7162.26,32.2,TRADE
QLD1,"2009/01/15 20:30:00",7028.04,27.66,TRADE
QLD1,"2009/01/15 21:00:00",6859.53,24.79,TRADE
QLD1,"2009/01/15 21:30:00",6731.9,22.74,TRADE
QLD1,"2009/01/15 22:00:00",6425.72,21.63,TRADE
QLD1,"2009/01/15 22:30:00",6172.5,27.97,TRADE
QLD1,"2009/01/15 23:00:00",5956.38,22.74,TRADE
QLD1,"2009/01/15 23:30:00",5790.79,21.9,TRADE
QLD1,"2009/01/16 00:00:00",5568.12,21.46,TRADE
QLD1,"2009/01/16 00:30:00",5319.81,21.49,TRADE
QLD1,"2009/01/16 01:00:00",5153.73,21.02,TRADE
QLD1,"2009/01/16 01:30:00",4980.12,20.46,TRADE
QLD1,"2009/01/16 02:00:00",4909.97,17.09,TRADE
QLD1,"2009/01/16 02:30:00",4864.19,16.57,TRADE
QLD1,"2009/01/16 03:00:00",4847.93,15.98,TRADE
QLD1,"2009/01/16 03:30:00",4813.5,15.45,TRADE
QLD1,"2009/01/16 04:00:00",4785.38,16.19,TRADE
QLD1,"2009/01/16 04:30:00",4814.99,19.93,TRADE
QLD1,"2009/01/16 05:00:00",4877.66,21.14,TRADE
QLD1,"2009/01/16 05:30:00",4973.74,21.56,TRADE
QLD1,"2009/01/16 06:00:00",5120.19,21.39,TRADE
QLD1,"2009/01/16 06:30:00",5524.49,25.91,TRADE
QLD1,"2009/01/16 07:00:00",5899.75,29.3,TRADE
QLD1,"2009/01/16 07:30:00",6298.37,24.55,TRADE
QLD1,"2009/01/16 08:00:00",6664.05,28.59,TRADE
QLD1,"2009/01/16 08:30:00",6948.6,32.85,TRADE
QLD1,"2009/01/16 09:00:00",7174.73,35.88,TRADE
QLD1,"2009/01/16 09:30:00",7389.69,40.12,TRADE
QLD1,"2009/01/16 10:00:00",7487.65,40.4,TRADE
QLD1,"2009/01/16 10:30:00",7592.84,44.41,TRADE
QLD1,"2009/01/16 11:00:00",7736.84,50.8,TRADE
QLD1,"2009/01/16 11:30:00",7831.32,56.17,TRADE
QLD1,"2009/01/16 12:00:00",7933.92,61.08,TRADE
QLD1,"2009/01/16 12:30:00",7986.25,67.11,TRADE
QLD1,"2009/01/16 13:00:00",8113.68,91.5,TRADE
QLD1,"2009/01/16 13:30:00",8136.53,67.64,TRADE
QLD1,"2009/01/16 14:00:00",8201.04,69.12,TRADE
QLD1,"2009/01/16 14:30:00",8241.01,72.87,TRADE
QLD1,"2009/01/16 15:00:00",8234.09,80.74,TRADE
QLD1,"2009/01/16 15:30:00",8225.51,65.92,TRADE
QLD1,"2009/01/16 16:00:00",8214.94,71.26,TRADE
QLD1,"2009/01/16 16:30:00",8196.14,61.6,TRADE
QLD1,"2009/01/16 17:00:00",8109.92,49.64,TRADE
QLD1,"2009/01/16 17:30:00",7976.43,44.89,TRADE
QLD1,"2009/01/16 18:00:00",7783.39,29.35,TRADE
QLD1,"2009/01/16 18:30:00",7461.33,28.48,TRADE
QLD1,"2009/01/16 19:00:00",7409.6,27.81,TRADE
QLD1,"2009/01/16 19:30:00",7400.8,27.42,TRADE
QLD1,"2009/01/16 20:00:00",7334.18,25.85,TRADE
QLD1,"2009/01/16 20:30:00",7218.71,24.72,TRADE
QLD1,"2009/01/16 21:00:00",7070.01,22.87,TRADE
QLD1,"2009/01/16 21:30:00",7024.1,23.87,TRADE
QLD1,"2009/01/16 22:00:00",6740.09,21.95,TRADE
QLD1,"2009/01/16 22:30:00",6543.39,24.24,TRADE
QLD1,"2009/01/16 23:00:00",6331.3,22.59,TRADE
QLD1,"2009/01/16 23:30:00",6188.97,23.74,TRADE
QLD1,"2009/01/17 00:00:00",5931.54,22.09,TRADE
QLD1,"2009/01/17 00:30:00",5686.27,21.56,TRADE
QLD1,"2009/01/17 01:00:00",5526.09,21.57,TRADE
QLD1,"2009/01/17 01:30:00",5368.03,21.36,TRADE
QLD1,"2009/01/17 02:00:00",5217.88,20.59,TRADE
QLD1,"2009/01/17 02:30:00",5092.87,20.51,TRADE
QLD1,"2009/01/17 03:00:00",5064.14,19.88,TRADE
QLD1,"2009/01/17 03:30:00",5058.88,20.72,TRADE
QLD1,"2009/01/17 04:00:00",5031.7,19.98,TRADE
QLD1,"2009/01/17 04:30:00",5014.04,16.52,TRADE
QLD1,"2009/01/17 05:00:00",4995.18,17.39,TRADE
QLD1,"2009/01/17 05:30:00",5046.69,12.73,TRADE
QLD1,"2009/01/17 06:00:00",5101.38,16.87,TRADE
QLD1,"2009/01/17 06:30:00",5283.19,20.49,TRADE
QLD1,"2009/01/17 07:00:00",5486.32,20.84,TRADE
QLD1,"2009/01/17 07:30:00",5793.1,21.42,TRADE
QLD1,"2009/01/17 08:00:00",6095.46,21.86,TRADE
QLD1,"2009/01/17 08:30:00",6382.23,22.5,TRADE
QLD1,"2009/01/17 09:00:00",6621.51,26.4,TRADE
QLD1,"2009/01/17 09:30:00",6806.07,27.95,TRADE
QLD1,"2009/01/17 10:00:00",6938.85,28.16,TRADE
QLD1,"2009/01/17 10:30:00",6969.04,29.41,TRADE
QLD1,"2009/01/17 11:00:00",7036.4,29.73,TRADE
QLD1,"2009/01/17 11:30:00",7068,29.86,TRADE
QLD1,"2009/01/17 12:00:00",7085.3,28.27,TRADE
QLD1,"2009/01/17 12:30:00",7103.21,28.57,TRADE
QLD1,"2009/01/17 13:00:00",7126.67,30.55,TRADE
QLD1,"2009/01/17 13:30:00",7120.99,29.91,TRADE
QLD1,"2009/01/17 14:00:00",7071.94,29.6,TRADE
QLD1,"2009/01/17 14:30:00",7051.18,28.35,TRADE
QLD1,"2009/01/17 15:00:00",6953.58,25.48,TRADE
QLD1,"2009/01/17 15:30:00",6884.98,25.22,TRADE
QLD1,"2009/01/17 16:00:00",6842.84,25.04,TRADE
QLD1,"2009/01/17 16:30:00",6793.07,24.99,TRADE
QLD1,"2009/01/17 17:00:00",6756.07,25.01,TRADE
QLD1,"2009/01/17 17:30:00",6743.31,24.96,TRADE
QLD1,"2009/01/17 18:00:00",6681.33,22.43,TRADE
QLD1,"2009/01/17 18:30:00",6505.32,21.47,TRADE
QLD1,"2009/01/17 19:00:00",6474.08,21.14,TRADE
QLD1,"2009/01/17 19:30:00",6494.33,20.9,TRADE
QLD1,"2009/01/17 20:00:00",6402.46,20.25,TRADE
QLD1,"2009/01/17 20:30:00",6278.34,19.9,TRADE
QLD1,"2009/01/17 21:00:00",6157.78,18.85,TRADE
QLD1,"2009/01/17 21:30:00",6186.25,20.41,TRADE
QLD1,"2009/01/17 22:00:00",5947.83,19.24,TRADE
QLD1,"2009/01/17 22:30:00",5835.42,20.13,TRADE
QLD1,"2009/01/17 23:00:00",5753,19.25,TRADE
QLD1,"2009/01/17 23:30:00",5696.99,20.45,TRADE
QLD1,"2009/01/18 00:00:00",5479.4,18.54,TRADE
QLD1,"2009/01/18 00:30:00",5267.17,18.51,TRADE
QLD1,"2009/01/18 01:00:00",5144.02,16.42,TRADE
QLD1,"2009/01/18 01:30:00",4967.16,15.08,TRADE
QLD1,"2009/01/18 02:00:00",4827.98,12.37,TRADE
QLD1,"2009/01/18 02:30:00",4781.41,11.91,TRADE
QLD1,"2009/01/18 03:00:00",4718.6,14.29,TRADE
QLD1,"2009/01/18 03:30:00",4679.9,13.2,TRADE
QLD1,"2009/01/18 04:00:00",4654.97,10.9,TRADE
QLD1,"2009/01/18 04:30:00",4696.83,12.62,TRADE
QLD1,"2009/01/18 05:00:00",4694.23,8.92,TRADE
QLD1,"2009/01/18 05:30:00",4648.75,-149,TRADE
QLD1,"2009/01/18 06:00:00",4683.07,3.6,TRADE
QLD1,"2009/01/18 06:30:00",4791.3,12.84,TRADE
QLD1,"2009/01/18 07:00:00",4971.82,14.91,TRADE
QLD1,"2009/01/18 07:30:00",5203.38,15.96,TRADE
QLD1,"2009/01/18 08:00:00",5425.41,18.35,TRADE
QLD1,"2009/01/18 08:30:00",5687.17,20.17,TRADE
QLD1,"2009/01/18 09:00:00",5841.83,20.13,TRADE
QLD1,"2009/01/18 09:30:00",5991.69,21.98,TRADE
QLD1,"2009/01/18 10:00:00",6054.22,22.07,TRADE
QLD1,"2009/01/18 10:30:00",6120.41,22.47,TRADE
QLD1,"2009/01/18 11:00:00",6153.04,23.34,TRADE
QLD1,"2009/01/18 11:30:00",6153.01,23.09,TRADE
QLD1,"2009/01/18 12:00:00",6165.98,23.15,TRADE
QLD1,"2009/01/18 12:30:00",6201.51,23.2,TRADE
QLD1,"2009/01/18 13:00:00",6186.49,23.44,TRADE
QLD1,"2009/01/18 13:30:00",6193.29,23.49,TRADE
QLD1,"2009/01/18 14:00:00",6195.98,23.69,TRADE
QLD1,"2009/01/18 14:30:00",6153.32,23.44,TRADE
QLD1,"2009/01/18 15:00:00",6173.8,23.62,TRADE
QLD1,"2009/01/18 15:30:00",6167.75,23.59,TRADE
QLD1,"2009/01/18 16:00:00",6169.59,23.9,TRADE
QLD1,"2009/01/18 16:30:00",6165.68,23.64,TRADE
QLD1,"2009/01/18 17:00:00",6161.48,23.55,TRADE
QLD1,"2009/01/18 17:30:00",6258.42,23.87,TRADE
QLD1,"2009/01/18 18:00:00",6322.9,24.13,TRADE
QLD1,"2009/01/18 18:30:00",6255.43,23.25,TRADE
QLD1,"2009/01/18 19:00:00",6287.91,21.71,TRADE
QLD1,"2009/01/18 19:30:00",6388.89,21.27,TRADE
QLD1,"2009/01/18 20:00:00",6350.29,22.29,TRADE
QLD1,"2009/01/18 20:30:00",6221.08,20.46,TRADE
QLD1,"2009/01/18 21:00:00",6163.08,20.07,TRADE
QLD1,"2009/01/18 21:30:00",6177.94,20.3,TRADE
QLD1,"2009/01/18 22:00:00",5945.16,19.94,TRADE
QLD1,"2009/01/18 22:30:00",5721.06,19.39,TRADE
QLD1,"2009/01/18 23:00:00",5627.99,18.26,TRADE
QLD1,"2009/01/18 23:30:00",5537.6,18.15,TRADE
QLD1,"2009/01/19 00:00:00",5336.11,16.27,TRADE
QLD1,"2009/01/19 00:30:00",5120.81,14.07,TRADE
QLD1,"2009/01/19 01:00:00",5018.57,12.78,TRADE
QLD1,"2009/01/19 01:30:00",4833.78,8.68,TRADE
QLD1,"2009/01/19 02:00:00",4704.33,7.87,TRADE
QLD1,"2009/01/19 02:30:00",4612.39,5.96,TRADE
QLD1,"2009/01/19 03:00:00",4576.4,3.54,TRADE
QLD1,"2009/01/19 03:30:00",4592.8,8.48,TRADE
QLD1,"2009/01/19 04:00:00",4610.04,9.43,TRADE
QLD1,"2009/01/19 04:30:00",4642.85,10.13,TRADE
QLD1,"2009/01/19 05:00:00",4726.36,14.05,TRADE
QLD1,"2009/01/19 05:30:00",4914.3,16.05,TRADE
QLD1,"2009/01/19 06:00:00",5092.44,15.93,TRADE
QLD1,"2009/01/19 06:30:00",5469.15,20.61,TRADE
QLD1,"2009/01/19 07:00:00",5849.1,21.66,TRADE
QLD1,"2009/01/19 07:30:00",6250.56,21.62,TRADE
QLD1,"2009/01/19 08:00:00",6536.91,24.02,TRADE
QLD1,"2009/01/19 08:30:00",6814.49,25.61,TRADE
QLD1,"2009/01/19 09:00:00",6968.03,27.97,TRADE
QLD1,"2009/01/19 09:30:00",7020.6,26.69,TRADE
QLD1,"2009/01/19 10:00:00",7054.31,28,TRADE
QLD1,"2009/01/19 10:30:00",7088.45,24.76,TRADE
QLD1,"2009/01/19 11:00:00",7160.65,25.42,TRADE
QLD1,"2009/01/19 11:30:00",7200.69,28.26,TRADE
QLD1,"2009/01/19 12:00:00",7231.61,29.14,TRADE
QLD1,"2009/01/19 12:30:00",7251.13,29.65,TRADE
QLD1,"2009/01/19 13:00:00",7289.82,29.65,TRADE
QLD1,"2009/01/19 13:30:00",7302.81,32.2,TRADE
QLD1,"2009/01/19 14:00:00",7350.06,34.13,TRADE
QLD1,"2009/01/19 14:30:00",7349.8,33.87,TRADE
QLD1,"2009/01/19 15:00:00",7332.99,29.73,TRADE
QLD1,"2009/01/19 15:30:00",7307.89,25.93,TRADE
QLD1,"2009/01/19 16:00:00",7229.84,28.87,TRADE
QLD1,"2009/01/19 16:30:00",7210.13,29.63,TRADE
QLD1,"2009/01/19 17:00:00",7145.59,26.99,TRADE
QLD1,"2009/01/19 17:30:00",7036.46,21.89,TRADE
QLD1,"2009/01/19 18:00:00",6927.54,20.96,TRADE
QLD1,"2009/01/19 18:30:00",6790.38,21.63,TRADE
QLD1,"2009/01/19 19:00:00",6755.51,21.04,TRADE
QLD1,"2009/01/19 19:30:00",6820.28,23.16,TRADE
QLD1,"2009/01/19 20:00:00",6743.6,23.99,TRADE
QLD1,"2009/01/19 20:30:00",6643.6,23.82,TRADE
QLD1,"2009/01/19 21:00:00",6518.22,23.15,TRADE
QLD1,"2009/01/19 21:30:00",6518.78,23.24,TRADE
QLD1,"2009/01/19 22:00:00",6230.35,21.23,TRADE
QLD1,"2009/01/19 22:30:00",6035.07,22.45,TRADE
QLD1,"2009/01/19 23:00:00",5835.02,21.13,TRADE
QLD1,"2009/01/19 23:30:00",5693.28,20.77,TRADE
QLD1,"2009/01/20 00:00:00",5513.12,19.87,TRADE
QLD1,"2009/01/20 00:30:00",5320.65,20.4,TRADE
QLD1,"2009/01/20 01:00:00",5165.49,18.64,TRADE
QLD1,"2009/01/20 01:30:00",5002.38,18.77,TRADE
QLD1,"2009/01/20 02:00:00",4892.26,12.71,TRADE
QLD1,"2009/01/20 02:30:00",4825.3,9.15,TRADE
QLD1,"2009/01/20 03:00:00",4761.42,9.77,TRADE
QLD1,"2009/01/20 03:30:00",4737.6,8.5,TRADE
QLD1,"2009/01/20 04:00:00",4720.61,9.88,TRADE
QLD1,"2009/01/20 04:30:00",4772.13,13.82,TRADE
QLD1,"2009/01/20 05:00:00",4859.07,19.03,TRADE
QLD1,"2009/01/20 05:30:00",4962.23,19.97,TRADE
QLD1,"2009/01/20 06:00:00",5107.17,21.18,TRADE
QLD1,"2009/01/20 06:30:00",5520.47,25.35,TRADE
QLD1,"2009/01/20 07:00:00",5888.83,28.93,TRADE
QLD1,"2009/01/20 07:30:00",6260.72,23.77,TRADE
QLD1,"2009/01/20 08:00:00",6537.85,23.71,TRADE
QLD1,"2009/01/20 08:30:00",6870.84,31.95,TRADE
QLD1,"2009/01/20 09:00:00",7048.82,30.79,TRADE
QLD1,"2009/01/20 09:30:00",7152.81,33.77,TRADE
QLD1,"2009/01/20 10:00:00",7223.84,32.65,TRADE
QLD1,"2009/01/20 10:30:00",7281.58,34.57,TRADE
QLD1,"2009/01/20 11:00:00",7327.78,36.43,TRADE
QLD1,"2009/01/20 11:30:00",7360.87,36.16,TRADE
QLD1,"2009/01/20 12:00:00",7443.42,50.78,TRADE
QLD1,"2009/01/20 12:30:00",7451.69,66.76,TRADE
QLD1,"2009/01/20 13:00:00",7465.2,75.05,TRADE
QLD1,"2009/01/20 13:30:00",7534.57,84.17,TRADE
QLD1,"2009/01/20 14:00:00",7564.85,85.81,TRADE
QLD1,"2009/01/20 14:30:00",7544.86,104.14,TRADE
QLD1,"2009/01/20 15:00:00",7523.32,95.14,TRADE
QLD1,"2009/01/20 15:30:00",7559.41,85.7,TRADE
QLD1,"2009/01/20 16:00:00",7615.37,85.68,TRADE
QLD1,"2009/01/20 16:30:00",7616.94,62.98,TRADE
QLD1,"2009/01/20 17:00:00",7592.47,51.89,TRADE
QLD1,"2009/01/20 17:30:00",7486.1,34.4,TRADE
QLD1,"2009/01/20 18:00:00",7313.18,31.89,TRADE
QLD1,"2009/01/20 18:30:00",7029.02,26.85,TRADE
QLD1,"2009/01/20 19:00:00",6977.34,26.16,TRADE
QLD1,"2009/01/20 19:30:00",7051.23,26.89,TRADE
QLD1,"2009/01/20 20:00:00",7038.76,34.21,TRADE
QLD1,"2009/01/20 20:30:00",6941.45,33.53,TRADE
QLD1,"2009/01/20 21:00:00",6779.16,28.42,TRADE
QLD1,"2009/01/20 21:30:00",6784.46,29.76,TRADE
QLD1,"2009/01/20 22:00:00",6494.47,25.8,TRADE
QLD1,"2009/01/20 22:30:00",6265.29,31.44,TRADE
QLD1,"2009/01/20 23:00:00",6053.32,25.99,TRADE
QLD1,"2009/01/20 23:30:00",5936.68,23.5,TRADE
QLD1,"2009/01/21 00:00:00",5659.44,22.12,TRADE
QLD1,"2009/01/21 00:30:00",5422.64,21.27,TRADE
QLD1,"2009/01/21 01:00:00",5239.94,19.8,TRADE
QLD1,"2009/01/21 01:30:00",5113.61,20.11,TRADE
QLD1,"2009/01/21 02:00:00",5008.17,17.97,TRADE
QLD1,"2009/01/21 02:30:00",4933.85,14.98,TRADE
QLD1,"2009/01/21 03:00:00",4923.61,15.01,TRADE
QLD1,"2009/01/21 03:30:00",4901.33,15,TRADE
QLD1,"2009/01/21 04:00:00",4898.81,16.23,TRADE
QLD1,"2009/01/21 04:30:00",4949.6,18.83,TRADE
QLD1,"2009/01/21 05:00:00",5004.98,19.01,TRADE
QLD1,"2009/01/21 05:30:00",5121.32,21.6,TRADE
QLD1,"2009/01/21 06:00:00",5301.28,22.74,TRADE
QLD1,"2009/01/21 06:30:00",5694.26,30.61,TRADE
QLD1,"2009/01/21 07:00:00",6125.83,34.04,TRADE
QLD1,"2009/01/21 07:30:00",6520.05,28.97,TRADE
QLD1,"2009/01/21 08:00:00",6746.26,32.83,TRADE
QLD1,"2009/01/21 08:30:00",7023.97,36.47,TRADE
QLD1,"2009/01/21 09:00:00",7240.28,42.92,TRADE
QLD1,"2009/01/21 09:30:00",7443.88,44.98,TRADE
QLD1,"2009/01/21 10:00:00",7532.31,47.57,TRADE
QLD1,"2009/01/21 10:30:00",7608.93,45.56,TRADE
QLD1,"2009/01/21 11:00:00",7715.98,54.26,TRADE
QLD1,"2009/01/21 11:30:00",7806.31,49.99,TRADE
QLD1,"2009/01/21 12:00:00",7850.11,57.12,TRADE
QLD1,"2009/01/21 12:30:00",7922.18,59.33,TRADE
QLD1,"2009/01/21 13:00:00",7980.03,70.39,TRADE
QLD1,"2009/01/21 13:30:00",8060.85,81.71,TRADE
QLD1,"2009/01/21 14:00:00",8117.94,70.23,TRADE
QLD1,"2009/01/21 14:30:00",8121.12,87.96,TRADE
QLD1,"2009/01/21 15:00:00",8119.1,84.41,TRADE
QLD1,"2009/01/21 15:30:00",8180.97,81.94,TRADE
QLD1,"2009/01/21 16:00:00",8155.98,67.16,TRADE
QLD1,"2009/01/21 16:30:00",8075.12,55.96,TRADE
QLD1,"2009/01/21 17:00:00",8075.93,43.65,TRADE
QLD1,"2009/01/21 17:30:00",7925.64,34.45,TRADE
QLD1,"2009/01/21 18:00:00",7780.73,31.71,TRADE
QLD1,"2009/01/21 18:30:00",7538.96,25.78,TRADE
QLD1,"2009/01/21 19:00:00",7505.23,26.85,TRADE
QLD1,"2009/01/21 19:30:00",7555.64,26.61,TRADE
QLD1,"2009/01/21 20:00:00",7500.55,27.81,TRADE
QLD1,"2009/01/21 20:30:00",7341.97,27.57,TRADE
QLD1,"2009/01/21 21:00:00",7197.41,26.09,TRADE
QLD1,"2009/01/21 21:30:00",7147.1,26.71,TRADE
QLD1,"2009/01/21 22:00:00",6844.3,24.39,TRADE
QLD1,"2009/01/21 22:30:00",6581.66,25.47,TRADE
QLD1,"2009/01/21 23:00:00",6355.18,23.11,TRADE
QLD1,"2009/01/21 23:30:00",6198.14,22.8,TRADE
QLD1,"2009/01/22 00:00:00",5904.17,20.87,TRADE
QLD1,"2009/01/22 00:30:00",5677.72,20.97,TRADE
QLD1,"2009/01/22 01:00:00",5504.25,20.73,TRADE
QLD1,"2009/01/22 01:30:00",5322.94,20.32,TRADE
QLD1,"2009/01/22 02:00:00",5202.14,15.84,TRADE
QLD1,"2009/01/22 02:30:00",5107.97,13.43,TRADE
QLD1,"2009/01/22 03:00:00",5035.37,13.64,TRADE
QLD1,"2009/01/22 03:30:00",5007.4,15.15,TRADE
QLD1,"2009/01/22 04:00:00",5020.13,15.03,TRADE
QLD1,"2009/01/22 04:30:00",5038.32,17.24,TRADE
QLD1,"2009/01/22 05:00:00",5095.18,20.44,TRADE
QLD1,"2009/01/22 05:30:00",5300.21,21.12,TRADE
QLD1,"2009/01/22 06:00:00",5504.24,21.73,TRADE
QLD1,"2009/01/22 06:30:00",5900.7,24.85,TRADE
QLD1,"2009/01/22 07:00:00",6316.04,30,TRADE
QLD1,"2009/01/22 07:30:00",6775.77,26.91,TRADE
QLD1,"2009/01/22 08:00:00",7132.18,33.3,TRADE
QLD1,"2009/01/22 08:30:00",7453.61,39.26,TRADE
QLD1,"2009/01/22 09:00:00",7718.73,40.26,TRADE
QLD1,"2009/01/22 09:30:00",7799.82,39.43,TRADE
QLD1,"2009/01/22 10:00:00",7912.97,46.54,TRADE
QLD1,"2009/01/22 10:30:00",8024.09,48.15,TRADE
QLD1,"2009/01/22 11:00:00",8116.82,49.61,TRADE
QLD1,"2009/01/22 11:30:00",8185.77,43.09,TRADE
QLD1,"2009/01/22 12:00:00",8261.92,50.77,TRADE
QLD1,"2009/01/22 12:30:00",8279.14,56.5,TRADE
QLD1,"2009/01/22 13:00:00",8317.04,63.12,TRADE
QLD1,"2009/01/22 13:30:00",8385.36,78.28,TRADE
QLD1,"2009/01/22 14:00:00",8407.9,91.6,TRADE
QLD1,"2009/01/22 14:30:00",8376.53,131.61,TRADE
QLD1,"2009/01/22 15:00:00",8375.97,238.06,TRADE
QLD1,"2009/01/22 15:30:00",8329.87,110.87,TRADE
QLD1,"2009/01/22 16:00:00",8292.62,92.36,TRADE
QLD1,"2009/01/22 16:30:00",8241.14,64.14,TRADE
QLD1,"2009/01/22 17:00:00",8169.74,60.31,TRADE
QLD1,"2009/01/22 17:30:00",8019.74,43.83,TRADE
QLD1,"2009/01/22 18:00:00",7344.11,33.91,TRADE
QLD1,"2009/01/22 18:30:00",7090.28,30.2,TRADE
QLD1,"2009/01/22 19:00:00",7285.25,34.35,TRADE
QLD1,"2009/01/22 19:30:00",7401.88,33.1,TRADE
QLD1,"2009/01/22 20:00:00",7624.11,39.48,TRADE
QLD1,"2009/01/22 20:30:00",7613.25,35.43,TRADE
QLD1,"2009/01/22 21:00:00",7444.11,32.16,TRADE
QLD1,"2009/01/22 21:30:00",7382.33,39.94,TRADE
QLD1,"2009/01/22 22:00:00",7012.85,33.12,TRADE
QLD1,"2009/01/22 22:30:00",6699.74,45.78,TRADE
QLD1,"2009/01/22 23:00:00",6489.18,36.31,TRADE
QLD1,"2009/01/22 23:30:00",6283.08,33.68,TRADE
QLD1,"2009/01/23 00:00:00",6018.92,25.14,TRADE
QLD1,"2009/01/23 00:30:00",5821.91,26.69,TRADE
QLD1,"2009/01/23 01:00:00",5642.59,22.89,TRADE
QLD1,"2009/01/23 01:30:00",5490.22,22.56,TRADE
QLD1,"2009/01/23 02:00:00",5328.44,21.05,TRADE
QLD1,"2009/01/23 02:30:00",5273.49,21.17,TRADE
QLD1,"2009/01/23 03:00:00",5249.55,21.17,TRADE
QLD1,"2009/01/23 03:30:00",5227.42,20.39,TRADE
QLD1,"2009/01/23 04:00:00",5233.35,21.16,TRADE
QLD1,"2009/01/23 04:30:00",5278.36,21.5,TRADE
QLD1,"2009/01/23 05:00:00",5272.77,21.9,TRADE
QLD1,"2009/01/23 05:30:00",5471.92,26.15,TRADE
QLD1,"2009/01/23 06:00:00",5645.03,31.97,TRADE
QLD1,"2009/01/23 06:30:00",6023.23,36.62,TRADE
QLD1,"2009/01/23 07:00:00",6415.56,41.47,TRADE
QLD1,"2009/01/23 07:30:00",6796.58,39.9,TRADE
QLD1,"2009/01/23 08:00:00",7065.29,45.66,TRADE
QLD1,"2009/01/23 08:30:00",7343.74,55.82,TRADE
QLD1,"2009/01/23 09:00:00",7552.01,57.07,TRADE
QLD1,"2009/01/23 09:30:00",7698.01,57.22,TRADE
QLD1,"2009/01/23 10:00:00",7826.66,57.12,TRADE
QLD1,"2009/01/23 10:30:00",7854.19,46.6,TRADE
QLD1,"2009/01/23 11:00:00",7919.18,48.69,TRADE
QLD1,"2009/01/23 11:30:00",7970.29,50.67,TRADE
QLD1,"2009/01/23 12:00:00",8017.48,54.22,TRADE
QLD1,"2009/01/23 12:30:00",8053.75,65.68,TRADE
QLD1,"2009/01/23 13:00:00",8083.07,55.33,TRADE
QLD1,"2009/01/23 13:30:00",8092.25,73.45,TRADE
QLD1,"2009/01/23 14:00:00",8136.73,94.34,TRADE
QLD1,"2009/01/23 14:30:00",8168.63,91.71,TRADE
QLD1,"2009/01/23 15:00:00",8123.5,88.59,TRADE
QLD1,"2009/01/23 15:30:00",8124.66,87.61,TRADE
QLD1,"2009/01/23 16:00:00",8113.62,89.58,TRADE
QLD1,"2009/01/23 16:30:00",8086.97,53.6,TRADE
QLD1,"2009/01/23 17:00:00",8032.84,55.95,TRADE
QLD1,"2009/01/23 17:30:00",7912.06,48.64,TRADE
QLD1,"2009/01/23 18:00:00",7742.58,44.09,TRADE
QLD1,"2009/01/23 18:30:00",7521.4,34.14,TRADE
QLD1,"2009/01/23 19:00:00",7459.87,34.09,TRADE
QLD1,"2009/01/23 19:30:00",7421.77,32.73,TRADE
QLD1,"2009/01/23 20:00:00",7324.23,35.05,TRADE
QLD1,"2009/01/23 20:30:00",7212.76,33.91,TRADE
QLD1,"2009/01/23 21:00:00",7064.34,29.17,TRADE
QLD1,"2009/01/23 21:30:00",7058.14,32.12,TRADE
QLD1,"2009/01/23 22:00:00",6762.13,28.42,TRADE
QLD1,"2009/01/23 22:30:00",6539.21,30.15,TRADE
QLD1,"2009/01/23 23:00:00",6329.15,26.81,TRADE
QLD1,"2009/01/23 23:30:00",6168.45,25.17,TRADE
QLD1,"2009/01/24 00:00:00",5921.14,22.08,TRADE
QLD1,"2009/01/24 00:30:00",5666.14,22.99,TRADE
QLD1,"2009/01/24 01:00:00",5531.67,22.88,TRADE
QLD1,"2009/01/24 01:30:00",5350.66,22.38,TRADE
QLD1,"2009/01/24 02:00:00",5181.55,21.88,TRADE
QLD1,"2009/01/24 02:30:00",5150.27,21.91,TRADE
QLD1,"2009/01/24 03:00:00",5118.39,21.94,TRADE
QLD1,"2009/01/24 03:30:00",5062.98,21.93,TRADE
QLD1,"2009/01/24 04:00:00",5041.68,21.81,TRADE
QLD1,"2009/01/24 04:30:00",5061.12,21.98,TRADE
QLD1,"2009/01/24 05:00:00",5054.23,21.98,TRADE
QLD1,"2009/01/24 05:30:00",5114.75,22.06,TRADE
QLD1,"2009/01/24 06:00:00",5168.93,21.75,TRADE
QLD1,"2009/01/24 06:30:00",5303.07,21.76,TRADE
QLD1,"2009/01/24 07:00:00",5531.61,22.49,TRADE
QLD1,"2009/01/24 07:30:00",5875.51,24.03,TRADE
QLD1,"2009/01/24 08:00:00",6148.84,27.34,TRADE
QLD1,"2009/01/24 08:30:00",6501.66,38.25,TRADE
QLD1,"2009/01/24 09:00:00",6792.79,59,TRADE
QLD1,"2009/01/24 09:30:00",6981.31,107.15,TRADE
QLD1,"2009/01/24 10:00:00",7097.57,122.93,TRADE
QLD1,"2009/01/24 10:30:00",7174.31,68.9,TRADE
QLD1,"2009/01/24 11:00:00",7338.55,65.65,TRADE
QLD1,"2009/01/24 11:30:00",7423.28,76.66,TRADE
QLD1,"2009/01/24 12:00:00",7426.35,100.95,TRADE
QLD1,"2009/01/24 12:30:00",7405.52,165.41,TRADE
QLD1,"2009/01/24 13:00:00",7477.89,293.35,TRADE
QLD1,"2009/01/24 13:30:00",7532.85,299.88,TRADE
QLD1,"2009/01/24 14:00:00",7547.23,311.07,TRADE
QLD1,"2009/01/24 14:30:00",7547.77,304.69,TRADE
QLD1,"2009/01/24 15:00:00",7550.59,303.6,TRADE
QLD1,"2009/01/24 15:30:00",7546.34,300.79,TRADE
QLD1,"2009/01/24 16:00:00",7517.15,220.48,TRADE
QLD1,"2009/01/24 16:30:00",7473.53,137.8,TRADE
QLD1,"2009/01/24 17:00:00",7431.52,231.37,TRADE
QLD1,"2009/01/24 17:30:00",7356.12,81.09,TRADE
QLD1,"2009/01/24 18:00:00",7347.09,69.44,TRADE
QLD1,"2009/01/24 18:30:00",7235.26,44.56,TRADE
QLD1,"2009/01/24 19:00:00",7220.46,49.34,TRADE
QLD1,"2009/01/24 19:30:00",7215.71,102.75,TRADE
QLD1,"2009/01/24 20:00:00",7149.96,37.07,TRADE
QLD1,"2009/01/24 20:30:00",7025.7,39.22,TRADE
QLD1,"2009/01/24 21:00:00",6920.98,33.44,TRADE
QLD1,"2009/01/24 21:30:00",6863.83,39.31,TRADE
QLD1,"2009/01/24 22:00:00",6604.12,33.66,TRADE
QLD1,"2009/01/24 22:30:00",6405.75,38.47,TRADE
QLD1,"2009/01/24 23:00:00",6322,33.2,TRADE
QLD1,"2009/01/24 23:30:00",6184.96,30.46,TRADE
QLD1,"2009/01/25 00:00:00",5938.3,27.36,TRADE
QLD1,"2009/01/25 00:30:00",5694.28,23.62,TRADE
QLD1,"2009/01/25 01:00:00",5534.11,22.75,TRADE
QLD1,"2009/01/25 01:30:00",5372.09,21.88,TRADE
QLD1,"2009/01/25 02:00:00",5268.1,17.23,TRADE
QLD1,"2009/01/25 02:30:00",5211.16,17.23,TRADE
QLD1,"2009/01/25 03:00:00",5142.17,16.4,TRADE
QLD1,"2009/01/25 03:30:00",5104.9,16.29,TRADE
QLD1,"2009/01/25 04:00:00",5098.97,15.83,TRADE
QLD1,"2009/01/25 04:30:00",5091.2,17.41,TRADE
QLD1,"2009/01/25 05:00:00",5069.16,17.17,TRADE
QLD1,"2009/01/25 05:30:00",5131.6,17.27,TRADE
QLD1,"2009/01/25 06:00:00",5112.54,17.01,TRADE
QLD1,"2009/01/25 06:30:00",5222.98,19.65,TRADE
QLD1,"2009/01/25 07:00:00",5390.59,21.85,TRADE
QLD1,"2009/01/25 07:30:00",5645.01,22.49,TRADE
QLD1,"2009/01/25 08:00:00",5861.1,24.35,TRADE
QLD1,"2009/01/25 08:30:00",6121.35,26.83,TRADE
QLD1,"2009/01/25 09:00:00",6380.16,31.49,TRADE
QLD1,"2009/01/25 09:30:00",6601.12,34.38,TRADE
QLD1,"2009/01/25 10:00:00",6766.3,47.77,TRADE
QLD1,"2009/01/25 10:30:00",6889.72,57.87,TRADE
QLD1,"2009/01/25 11:00:00",6981.91,58,TRADE
QLD1,"2009/01/25 11:30:00",7061.57,56.1,TRADE
QLD1,"2009/01/25 12:00:00",7131.11,105.28,TRADE
QLD1,"2009/01/25 12:30:00",7118.04,132.34,TRADE
QLD1,"2009/01/25 13:00:00",7171.09,48.86,TRADE
QLD1,"2009/01/25 13:30:00",7175.68,51.87,TRADE
QLD1,"2009/01/25 14:00:00",7199.61,54.41,TRADE
QLD1,"2009/01/25 14:30:00",7186.99,54.4,TRADE
QLD1,"2009/01/25 15:00:00",7127.51,41.96,TRADE
QLD1,"2009/01/25 15:30:00",7134.93,42.22,TRADE
QLD1,"2009/01/25 16:00:00",7073.01,41.53,TRADE
QLD1,"2009/01/25 16:30:00",7010.19,39.72,TRADE
QLD1,"2009/01/25 17:00:00",7010.79,40,TRADE
QLD1,"2009/01/25 17:30:00",7025.27,41.62,TRADE
QLD1,"2009/01/25 18:00:00",7010.06,40.22,TRADE
QLD1,"2009/01/25 18:30:00",6935.41,36.74,TRADE
QLD1,"2009/01/25 19:00:00",7019.28,41.01,TRADE
QLD1,"2009/01/25 19:30:00",7008.78,38.91,TRADE
QLD1,"2009/01/25 20:00:00",6941.47,36.43,TRADE
QLD1,"2009/01/25 20:30:00",6824.83,34.41,TRADE
QLD1,"2009/01/25 21:00:00",6691.67,31.28,TRADE
QLD1,"2009/01/25 21:30:00",6715.09,31.64,TRADE
QLD1,"2009/01/25 22:00:00",6442.28,27.29,TRADE
QLD1,"2009/01/25 22:30:00",6267.93,28.45,TRADE
QLD1,"2009/01/25 23:00:00",6151.82,26.5,TRADE
QLD1,"2009/01/25 23:30:00",6067.83,27.31,TRADE
QLD1,"2009/01/26 00:00:00",5785.11,23.77,TRADE
QLD1,"2009/01/26 00:30:00",5572.88,22.35,TRADE
QLD1,"2009/01/26 01:00:00",5455.42,22.01,TRADE
QLD1,"2009/01/26 01:30:00",5287.29,21.54,TRADE
QLD1,"2009/01/26 02:00:00",5150.6,17.39,TRADE
QLD1,"2009/01/26 02:30:00",5068.74,15.1,TRADE
QLD1,"2009/01/26 03:00:00",5000.93,14.7,TRADE
QLD1,"2009/01/26 03:30:00",4979.51,15.16,TRADE
QLD1,"2009/01/26 04:00:00",4968.15,13.71,TRADE
QLD1,"2009/01/26 04:30:00",4973.33,15.25,TRADE
QLD1,"2009/01/26 05:00:00",4965.03,17.43,TRADE
QLD1,"2009/01/26 05:30:00",5004.64,16.84,TRADE
QLD1,"2009/01/26 06:00:00",5026.19,18.87,TRADE
QLD1,"2009/01/26 06:30:00",5193.51,21.6,TRADE
QLD1,"2009/01/26 07:00:00",5372.35,21.98,TRADE
QLD1,"2009/01/26 07:30:00",5628.41,22.33,TRADE
QLD1,"2009/01/26 08:00:00",5857.2,23.37,TRADE
QLD1,"2009/01/26 08:30:00",6125.48,26.41,TRADE
QLD1,"2009/01/26 09:00:00",6357.31,28.68,TRADE
QLD1,"2009/01/26 09:30:00",6538.46,31.61,TRADE
QLD1,"2009/01/26 10:00:00",6677.73,35.65,TRADE
QLD1,"2009/01/26 10:30:00",6749.4,38.05,TRADE
QLD1,"2009/01/26 11:00:00",6830.99,40.24,TRADE
QLD1,"2009/01/26 11:30:00",6832.97,40.31,TRADE
QLD1,"2009/01/26 12:00:00",6830.91,41.05,TRADE
QLD1,"2009/01/26 12:30:00",6871.06,40.25,TRADE
QLD1,"2009/01/26 13:00:00",6896.96,42.9,TRADE
QLD1,"2009/01/26 13:30:00",6935.5,45.4,TRADE
QLD1,"2009/01/26 14:00:00",6908.64,43.04,TRADE
QLD1,"2009/01/26 14:30:00",6884.95,42.88,TRADE
QLD1,"2009/01/26 15:00:00",6888.85,42.54,TRADE
QLD1,"2009/01/26 15:30:00",6884.25,42.4,TRADE
QLD1,"2009/01/26 16:00:00",6888.48,42.25,TRADE
QLD1,"2009/01/26 16:30:00",6875.77,40.67,TRADE
QLD1,"2009/01/26 17:00:00",6895.16,40.59,TRADE
QLD1,"2009/01/26 17:30:00",6919.01,39.39,TRADE
QLD1,"2009/01/26 18:00:00",6936.44,38.24,TRADE
QLD1,"2009/01/26 18:30:00",6755.17,36.83,TRADE
QLD1,"2009/01/26 19:00:00",6684.34,35.38,TRADE
QLD1,"2009/01/26 19:30:00",6755.37,35.61,TRADE
QLD1,"2009/01/26 20:00:00",6742.98,34.35,TRADE
QLD1,"2009/01/26 20:30:00",6656.13,32.21,TRADE
QLD1,"2009/01/26 21:00:00",6541.6,28.04,TRADE
QLD1,"2009/01/26 21:30:00",6500.67,29.86,TRADE
QLD1,"2009/01/26 22:00:00",6187.39,25.56,TRADE
QLD1,"2009/01/26 22:30:00",5989.42,24.43,TRADE
QLD1,"2009/01/26 23:00:00",5833.4,22.13,TRADE
QLD1,"2009/01/26 23:30:00",5739.42,21.94,TRADE
QLD1,"2009/01/27 00:00:00",5465.07,21.17,TRADE
QLD1,"2009/01/27 00:30:00",5255.35,18.98,TRADE
QLD1,"2009/01/27 01:00:00",5123.91,16,TRADE
QLD1,"2009/01/27 01:30:00",5005.14,16.1,TRADE
QLD1,"2009/01/27 02:00:00",4861.46,12,TRADE
QLD1,"2009/01/27 02:30:00",4801.15,11.44,TRADE
QLD1,"2009/01/27 03:00:00",4748.23,11.11,TRADE
QLD1,"2009/01/27 03:30:00",4753.7,10.6,TRADE
QLD1,"2009/01/27 04:00:00",4741.37,11.42,TRADE
QLD1,"2009/01/27 04:30:00",4786.84,14.62,TRADE
QLD1,"2009/01/27 05:00:00",4850.66,18.03,TRADE
QLD1,"2009/01/27 05:30:00",5046.05,20.44,TRADE
QLD1,"2009/01/27 06:00:00",5213.5,22.1,TRADE
QLD1,"2009/01/27 06:30:00",5648.67,27.44,TRADE
QLD1,"2009/01/27 07:00:00",6103.5,31.26,TRADE
QLD1,"2009/01/27 07:30:00",6588.29,33.74,TRADE
QLD1,"2009/01/27 08:00:00",6860.84,36.82,TRADE
QLD1,"2009/01/27 08:30:00",7058.78,39.17,TRADE
QLD1,"2009/01/27 09:00:00",7166.89,38.35,TRADE
QLD1,"2009/01/27 09:30:00",7265.17,38.96,TRADE
QLD1,"2009/01/27 10:00:00",7314.03,39.86,TRADE
QLD1,"2009/01/27 10:30:00",7423.37,39.68,TRADE
QLD1,"2009/01/27 11:00:00",7477.98,35.72,TRADE
QLD1,"2009/01/27 11:30:00",7534.3,35.19,TRADE
QLD1,"2009/01/27 12:00:00",7552.42,45.36,TRADE
QLD1,"2009/01/27 12:30:00",7600.71,54.8,TRADE
QLD1,"2009/01/27 13:00:00",7659.69,55.6,TRADE
QLD1,"2009/01/27 13:30:00",7686.33,60.39,TRADE
QLD1,"2009/01/27 14:00:00",7736.58,52.08,TRADE
QLD1,"2009/01/27 14:30:00",7793.56,55.31,TRADE
QLD1,"2009/01/27 15:00:00",7751.2,58.25,TRADE
QLD1,"2009/01/27 15:30:00",7745.75,49.82,TRADE
QLD1,"2009/01/27 16:00:00",7745.24,61.59,TRADE
QLD1,"2009/01/27 16:30:00",7725.46,49.96,TRADE
QLD1,"2009/01/27 17:00:00",7702.68,48.05,TRADE
QLD1,"2009/01/27 17:30:00",7585.56,45.05,TRADE
QLD1,"2009/01/27 18:00:00",7496.19,41.86,TRADE
QLD1,"2009/01/27 18:30:00",7218.52,33.37,TRADE
QLD1,"2009/01/27 19:00:00",7193.18,33.47,TRADE
QLD1,"2009/01/27 19:30:00",7195.24,37.34,TRADE
QLD1,"2009/01/27 20:00:00",7126.86,41.03,TRADE
QLD1,"2009/01/27 20:30:00",7007.53,38.52,TRADE
QLD1,"2009/01/27 21:00:00",6842.21,33.72,TRADE
QLD1,"2009/01/27 21:30:00",6788.87,44.59,TRADE
QLD1,"2009/01/27 22:00:00",6526.35,31.96,TRADE
QLD1,"2009/01/27 22:30:00",6275.41,38.91,TRADE
QLD1,"2009/01/27 23:00:00",6065.32,33.94,TRADE
QLD1,"2009/01/27 23:30:00",5845.25,29.37,TRADE
QLD1,"2009/01/28 00:00:00",5623.98,25.48,TRADE
QLD1,"2009/01/28 00:30:00",5387.11,26.64,TRADE
QLD1,"2009/01/28 01:00:00",5256.92,21.94,TRADE
QLD1,"2009/01/28 01:30:00",5076.33,20.72,TRADE
QLD1,"2009/01/28 02:00:00",4948.49,16.9,TRADE
QLD1,"2009/01/28 02:30:00",4903.7,11.28,TRADE
QLD1,"2009/01/28 03:00:00",4825.83,12.81,TRADE
QLD1,"2009/01/28 03:30:00",4770.75,14.13,TRADE
QLD1,"2009/01/28 04:00:00",4758.88,15,TRADE
QLD1,"2009/01/28 04:30:00",4798.11,18.02,TRADE
QLD1,"2009/01/28 05:00:00",4884.8,20.19,TRADE
QLD1,"2009/01/28 05:30:00",5034.35,21.72,TRADE
QLD1,"2009/01/28 06:00:00",5215.13,23.65,TRADE
QLD1,"2009/01/28 06:30:00",5684.33,32.34,TRADE
QLD1,"2009/01/28 07:00:00",6181.22,34.12,TRADE
QLD1,"2009/01/28 07:30:00",6607.05,32.96,TRADE
QLD1,"2009/01/28 08:00:00",6733.71,31.1,TRADE
QLD1,"2009/01/28 08:30:00",6839.04,33.81,TRADE
QLD1,"2009/01/28 09:00:00",7165.7,35.38,TRADE
QLD1,"2009/01/28 09:30:00",7285.39,38.8,TRADE
QLD1,"2009/01/28 10:00:00",7392.63,38.44,TRADE
QLD1,"2009/01/28 10:30:00",7411.08,40.59,TRADE
QLD1,"2009/01/28 11:00:00",7437.73,41.65,TRADE
QLD1,"2009/01/28 11:30:00",7495.91,52.78,TRADE
QLD1,"2009/01/28 12:00:00",7466.92,52.17,TRADE
QLD1,"2009/01/28 12:30:00",7562.5,115.32,TRADE
QLD1,"2009/01/28 13:00:00",7563.34,139.38,TRADE
QLD1,"2009/01/28 13:30:00",7556.18,126.78,TRADE
QLD1,"2009/01/28 14:00:00",7581.5,138.23,TRADE
QLD1,"2009/01/28 14:30:00",7609.48,140.67,TRADE
QLD1,"2009/01/28 15:00:00",7565.8,148.5,TRADE
QLD1,"2009/01/28 15:30:00",7542.26,222.63,TRADE
QLD1,"2009/01/28 16:00:00",7542.18,237.6,TRADE
QLD1,"2009/01/28 16:30:00",7542.5,122.04,TRADE
QLD1,"2009/01/28 17:00:00",7556.03,94.76,TRADE
QLD1,"2009/01/28 17:30:00",7455.48,67.51,TRADE
QLD1,"2009/01/28 18:00:00",7329.23,47.79,TRADE
QLD1,"2009/01/28 18:30:00",7121.62,31.86,TRADE
QLD1,"2009/01/28 19:00:00",7129.56,28.3,TRADE
QLD1,"2009/01/28 19:30:00",7125.62,32.65,TRADE
QLD1,"2009/01/28 20:00:00",7064.8,34.87,TRADE
QLD1,"2009/01/28 20:30:00",6949.6,33.35,TRADE
QLD1,"2009/01/28 21:00:00",6788.48,30.72,TRADE
QLD1,"2009/01/28 21:30:00",6780.37,39.01,TRADE
QLD1,"2009/01/28 22:00:00",6447.35,30.13,TRADE
QLD1,"2009/01/28 22:30:00",6214.37,43.69,TRADE
QLD1,"2009/01/28 23:00:00",6041.61,35.22,TRADE
QLD1,"2009/01/28 23:30:00",5893.43,32.01,TRADE
QLD1,"2009/01/29 00:00:00",5658.85,27.16,TRADE
QLD1,"2009/01/29 00:30:00",5403.27,29.42,TRADE
QLD1,"2009/01/29 01:00:00",5259.74,25.35,TRADE
QLD1,"2009/01/29 01:30:00",5092.25,22.81,TRADE
QLD1,"2009/01/29 02:00:00",5000.57,21.77,TRADE
QLD1,"2009/01/29 02:30:00",4924.91,21.75,TRADE
QLD1,"2009/01/29 03:00:00",4898.88,21.76,TRADE
QLD1,"2009/01/29 03:30:00",4866.93,21.62,TRADE
QLD1,"2009/01/29 04:00:00",4863.38,21.66,TRADE
QLD1,"2009/01/29 04:30:00",4902.4,22.65,TRADE
QLD1,"2009/01/29 05:00:00",4937.91,23.52,TRADE
QLD1,"2009/01/29 05:30:00",5034.29,23.46,TRADE
QLD1,"2009/01/29 06:00:00",5252.89,28.89,TRADE
QLD1,"2009/01/29 06:30:00",5652.5,34.47,TRADE
QLD1,"2009/01/29 07:00:00",6107.39,36.98,TRADE
QLD1,"2009/01/29 07:30:00",6602.68,38.3,TRADE
QLD1,"2009/01/29 08:00:00",6862.28,31.2,TRADE
QLD1,"2009/01/29 08:30:00",7004.99,29.58,TRADE
QLD1,"2009/01/29 09:00:00",7160.61,36.72,TRADE
QLD1,"2009/01/29 09:30:00",7327,37.83,TRADE
QLD1,"2009/01/29 10:00:00",7364.11,43.78,TRADE
QLD1,"2009/01/29 10:30:00",7450.56,52.5,TRADE
QLD1,"2009/01/29 11:00:00",7499.19,57.15,TRADE
QLD1,"2009/01/29 11:30:00",7488.09,80.26,TRADE
QLD1,"2009/01/29 12:00:00",7481.42,86.2,TRADE
QLD1,"2009/01/29 12:30:00",7437.65,121.81,TRADE
QLD1,"2009/01/29 13:00:00",7471.06,134.67,TRADE
QLD1,"2009/01/29 13:30:00",7533.02,143.44,TRADE
QLD1,"2009/01/29 14:00:00",7551.62,221.75,TRADE
QLD1,"2009/01/29 14:30:00",7517.27,253.99,TRADE
QLD1,"2009/01/29 15:00:00",7452.88,274.85,TRADE
QLD1,"2009/01/29 15:30:00",7428.73,279.92,TRADE
QLD1,"2009/01/29 16:00:00",7446.4,1134.99,TRADE
QLD1,"2009/01/29 16:30:00",7450.98,267.46,TRADE
QLD1,"2009/01/29 17:00:00",7418.37,248.2,TRADE
QLD1,"2009/01/29 17:30:00",7275.46,116.39,TRADE
QLD1,"2009/01/29 18:00:00",7278.4,71.6,TRADE
QLD1,"2009/01/29 18:30:00",7183.46,54.78,TRADE
QLD1,"2009/01/29 19:00:00",7229.73,82.83,TRADE
QLD1,"2009/01/29 19:30:00",7262,56.46,TRADE
QLD1,"2009/01/29 20:00:00",7194.11,63.85,TRADE
QLD1,"2009/01/29 20:30:00",7113.62,45.27,TRADE
QLD1,"2009/01/29 21:00:00",6920.72,33.49,TRADE
QLD1,"2009/01/29 21:30:00",6809.98,37.74,TRADE
QLD1,"2009/01/29 22:00:00",6483.95,25.57,TRADE
QLD1,"2009/01/29 22:30:00",6238.61,40.93,TRADE
QLD1,"2009/01/29 23:00:00",6066.9,33.57,TRADE
QLD1,"2009/01/29 23:30:00",5913.65,28.68,TRADE
QLD1,"2009/01/30 00:00:00",5652.31,24.81,TRADE
QLD1,"2009/01/30 00:30:00",5431.85,23.98,TRADE
QLD1,"2009/01/30 01:00:00",5316.19,24.05,TRADE
QLD1,"2009/01/30 01:30:00",5178.01,24.31,TRADE
QLD1,"2009/01/30 02:00:00",5032.86,22.02,TRADE
QLD1,"2009/01/30 02:30:00",4959.78,22.35,TRADE
QLD1,"2009/01/30 03:00:00",4953.69,22.06,TRADE
QLD1,"2009/01/30 03:30:00",4945.76,22.08,TRADE
QLD1,"2009/01/30 04:00:00",4920.44,21.99,TRADE
QLD1,"2009/01/30 04:30:00",4943.39,22.03,TRADE
QLD1,"2009/01/30 05:00:00",5024.19,23.42,TRADE
QLD1,"2009/01/30 05:30:00",5226.26,24.89,TRADE
QLD1,"2009/01/30 06:00:00",5393.89,27.05,TRADE
QLD1,"2009/01/30 06:30:00",5779.75,38.12,TRADE
QLD1,"2009/01/30 07:00:00",6217.59,40.83,TRADE
QLD1,"2009/01/30 07:30:00",6728.56,43.58,TRADE
QLD1,"2009/01/30 08:00:00",6982.65,50.31,TRADE
QLD1,"2009/01/30 08:30:00",7183.05,55.64,TRADE
QLD1,"2009/01/30 09:00:00",7257.15,43.5,TRADE
QLD1,"2009/01/30 09:30:00",7410.47,64.9,TRADE
QLD1,"2009/01/30 10:00:00",7454.84,132.07,TRADE
QLD1,"2009/01/30 10:30:00",7410.06,77.85,TRADE
QLD1,"2009/01/30 11:00:00",7486.45,121.82,TRADE
QLD1,"2009/01/30 11:30:00",7500.89,64.34,TRADE
QLD1,"2009/01/30 12:00:00",7523.18,162.42,TRADE
QLD1,"2009/01/30 12:30:00",7509.26,108.34,TRADE
QLD1,"2009/01/30 13:00:00",7498.99,179.65,TRADE
QLD1,"2009/01/30 13:30:00",7495.66,157.63,TRADE
QLD1,"2009/01/30 14:00:00",7529.16,186.7,TRADE
QLD1,"2009/01/30 14:30:00",7507.75,169.47,TRADE
QLD1,"2009/01/30 15:00:00",7464.48,125.92,TRADE
QLD1,"2009/01/30 15:30:00",7449.61,113.95,TRADE
QLD1,"2009/01/30 16:00:00",7446.62,50.75,TRADE
QLD1,"2009/01/30 16:30:00",7466.53,48.71,TRADE
QLD1,"2009/01/30 17:00:00",7427,88.84,TRADE
QLD1,"2009/01/30 17:30:00",7347.72,73.51,TRADE
QLD1,"2009/01/30 18:00:00",7191.24,76.36,TRADE
QLD1,"2009/01/30 18:30:00",7019.78,42.05,TRADE
QLD1,"2009/01/30 19:00:00",6995.93,43.48,TRADE
QLD1,"2009/01/30 19:30:00",7024.11,45.16,TRADE
QLD1,"2009/01/30 20:00:00",6938.29,37.88,TRADE
QLD1,"2009/01/30 20:30:00",6806.07,35.58,TRADE
QLD1,"2009/01/30 21:00:00",6686.17,34.76,TRADE
QLD1,"2009/01/30 21:30:00",6688.83,34.85,TRADE
QLD1,"2009/01/30 22:00:00",6444.42,24.25,TRADE
QLD1,"2009/01/30 22:30:00",6223.12,32.77,TRADE
QLD1,"2009/01/30 23:00:00",6086.36,34.46,TRADE
QLD1,"2009/01/30 23:30:00",5997.77,29.64,TRADE
QLD1,"2009/01/31 00:00:00",5726.47,26.35,TRADE
QLD1,"2009/01/31 00:30:00",5472.28,24.63,TRADE
QLD1,"2009/01/31 01:00:00",5311.15,22.8,TRADE
QLD1,"2009/01/31 01:30:00",5162.71,21.71,TRADE
QLD1,"2009/01/31 02:00:00",5045.63,21.69,TRADE
QLD1,"2009/01/31 02:30:00",4937.32,21.24,TRADE
QLD1,"2009/01/31 03:00:00",4879.76,20.3,TRADE
QLD1,"2009/01/31 03:30:00",4875.87,20.61,TRADE
QLD1,"2009/01/31 04:00:00",4878.3,21.07,TRADE
QLD1,"2009/01/31 04:30:00",4856.59,21.6,TRADE
QLD1,"2009/01/31 05:00:00",4893.41,21.85,TRADE
QLD1,"2009/01/31 05:30:00",4919.59,20.83,TRADE
QLD1,"2009/01/31 06:00:00",4920.75,20.67,TRADE
QLD1,"2009/01/31 06:30:00",5073.5,21.24,TRADE
QLD1,"2009/01/31 07:00:00",5301.11,22.57,TRADE
QLD1,"2009/01/31 07:30:00",5626.82,23.02,TRADE
QLD1,"2009/01/31 08:00:00",5920.77,27.14,TRADE
QLD1,"2009/01/31 08:30:00",6205.83,37.1,TRADE
QLD1,"2009/01/31 09:00:00",6389.31,35.15,TRADE
QLD1,"2009/01/31 09:30:00",6540.57,37.95,TRADE
QLD1,"2009/01/31 10:00:00",6630.02,38.97,TRADE
QLD1,"2009/01/31 10:30:00",6674.16,36.11,TRADE
QLD1,"2009/01/31 11:00:00",6748.08,44.37,TRADE
QLD1,"2009/01/31 11:30:00",6723.05,39.35,TRADE
QLD1,"2009/01/31 12:00:00",6664.69,34.59,TRADE
QLD1,"2009/01/31 12:30:00",6658.96,38.63,TRADE
QLD1,"2009/01/31 13:00:00",6658.49,35.81,TRADE
QLD1,"2009/01/31 13:30:00",6637.23,31.96,TRADE
QLD1,"2009/01/31 14:00:00",6593.42,25.43,TRADE
QLD1,"2009/01/31 14:30:00",6609.89,23.49,TRADE
QLD1,"2009/01/31 15:00:00",6595.96,18.92,TRADE
QLD1,"2009/01/31 15:30:00",6598.66,7.5,TRADE
QLD1,"2009/01/31 16:00:00",6675.81,46.65,TRADE
QLD1,"2009/01/31 16:30:00",6656.25,34.4,TRADE
QLD1,"2009/01/31 17:00:00",6675.46,31.83,TRADE
QLD1,"2009/01/31 17:30:00",6645.25,31.25,TRADE
QLD1,"2009/01/31 18:00:00",6647.02,35.07,TRADE
QLD1,"2009/01/31 18:30:00",6554.92,31.47,TRADE
QLD1,"2009/01/31 19:00:00",6576.48,30.5,TRADE
QLD1,"2009/01/31 19:30:00",6649.56,32.97,TRADE
QLD1,"2009/01/31 20:00:00",6564.98,34.72,TRADE
QLD1,"2009/01/31 20:30:00",6458.01,35.25,TRADE
QLD1,"2009/01/31 21:00:00",6358.95,31.77,TRADE
QLD1,"2009/01/31 21:30:00",6397.77,30.41,TRADE
QLD1,"2009/01/31 22:00:00",6138.18,23.26,TRADE
QLD1,"2009/01/31 22:30:00",5973.81,25.12,TRADE
QLD1,"2009/01/31 23:00:00",5924.14,23.06,TRADE
QLD1,"2009/01/31 23:30:00",5864.49,23.26,TRADE
QLD1,"2009/02/01 00:00:00",5677.67,20.54,TRADE
