REGION,SETTLEMENTDATE,TOTALDEMAND,RRP,PERIODTYPE
QLD1,"2002/03/01 00:30",4839.425,23.83,TRADE
QLD1,"2002/03/01 01:00",4737.005,21.27,TRADE
QLD1,"2002/03/01 01:30",4620.01833,20.42,TRADE
QLD1,"2002/03/01 02:00",4453.61,17.58,TRADE
QLD1,"2002/03/01 02:30",4351.13667,16.01,TRADE
QLD1,"2002/03/01 03:00",4315.89167,14.1,TRADE
QLD1,"2002/03/01 03:30",4292.30333,14,TRADE
QLD1,"2002/03/01 04:00",4340.57667,15.54,TRADE
QLD1,"2002/03/01 04:30",4347.88833,16.6,TRADE
QLD1,"2002/03/01 05:00",4408.85167,18.23,TRADE
QLD1,"2002/03/01 05:30",4603.47,22.77,TRADE
QLD1,"2002/03/01 06:00",4730.95833,28.2,TRADE
QLD1,"2002/03/01 06:30",5140.28833,33.3,TRADE
QLD1,"2002/03/01 07:00",5536.05333,42.51,TRADE
QLD1,"2002/03/01 07:30",5834.345,33.47,TRADE
QLD1,"2002/03/01 08:00",5987.48167,28.62,TRADE
QLD1,"2002/03/01 08:30",6071.94667,33.51,TRADE
QLD1,"2002/03/01 09:00",6135.23667,30.32,TRADE
QLD1,"2002/03/01 09:30",6179.79667,26.31,TRADE
QLD1,"2002/03/01 10:00",6217.06167,26.61,TRADE
QLD1,"2002/03/01 10:30",6220.23667,26.82,TRADE
QLD1,"2002/03/01 11:00",6248.13,28.34,TRADE
QLD1,"2002/03/01 11:30",6336.38833,27.53,TRADE
QLD1,"2002/03/01 12:00",6369.52167,29.81,TRADE
QLD1,"2002/03/01 12:30",6418.25833,37.14,TRADE
QLD1,"2002/03/01 13:00",6377.32667,34.09,TRADE
QLD1,"2002/03/01 13:30",6480.715,34.94,TRADE
QLD1,"2002/03/01 14:00",6506.16333,34.83,TRADE
QLD1,"2002/03/01 14:30",6519.91333,34.86,TRADE
QLD1,"2002/03/01 15:00",6516.77,34.95,TRADE
QLD1,"2002/03/01 15:30",6499.655,34.75,TRADE
QLD1,"2002/03/01 16:00",6556.15667,33.13,TRADE
QLD1,"2002/03/01 16:30",6507.14,27.71,TRADE
QLD1,"2002/03/01 17:00",6455.10167,26.56,TRADE
QLD1,"2002/03/01 17:30",6329.635,21.03,TRADE
QLD1,"2002/03/01 18:00",6195.23,19.55,TRADE
QLD1,"2002/03/01 18:30",6056.73,19.33,TRADE
QLD1,"2002/03/01 19:00",6140.48667,22.27,TRADE
QLD1,"2002/03/01 19:30",6052.24833,22.69,TRADE
QLD1,"2002/03/01 20:00",5915.935,20.16,TRADE
QLD1,"2002/03/01 20:30",5784.28333,19.54,TRADE
QLD1,"2002/03/01 21:00",5692.265,18.16,TRADE
QLD1,"2002/03/01 21:30",5680.39167,21.53,TRADE
QLD1,"2002/03/01 22:00",5565.90167,20.34,TRADE
QLD1,"2002/03/01 22:30",5484.39333,29.82,TRADE
QLD1,"2002/03/01 23:00",5393.46,28.56,TRADE
QLD1,"2002/03/01 23:30",5321.66167,33.27,TRADE
QLD1,"2002/03/02 00:00",5098.59833,27.26,TRADE
QLD1,"2002/03/02 00:30",4820.695,23.66,TRADE
QLD1,"2002/03/02 01:00",4673.13167,20.69,TRADE
QLD1,"2002/03/02 01:30",4518.13167,20.59,TRADE
QLD1,"2002/03/02 02:00",4370.855,17.97,TRADE
QLD1,"2002/03/02 02:30",4215.92,15.57,TRADE
QLD1,"2002/03/02 03:00",4265.89167,14.74,TRADE
QLD1,"2002/03/02 03:30",4191.65167,12.94,TRADE
QLD1,"2002/03/02 04:00",4217.31667,14.2,TRADE
QLD1,"2002/03/02 04:30",4193.70833,14.04,TRADE
QLD1,"2002/03/02 05:00",4243.01333,14.27,TRADE
QLD1,"2002/03/02 05:30",4289.27,15.36,TRADE
QLD1,"2002/03/02 06:00",4341.515,16.59,TRADE
QLD1,"2002/03/02 06:30",4465.26167,18.19,TRADE
QLD1,"2002/03/02 07:00",4625.58,19.42,TRADE
QLD1,"2002/03/02 07:30",4896.56,20.55,TRADE
QLD1,"2002/03/02 08:00",5133.16667,22.98,TRADE
QLD1,"2002/03/02 08:30",5345.25667,27.97,TRADE
QLD1,"2002/03/02 09:00",5430.14667,27.53,TRADE
QLD1,"2002/03/02 09:30",5543.26,29.41,TRADE
QLD1,"2002/03/02 10:00",5557.77333,29.27,TRADE
QLD1,"2002/03/02 10:30",5536.615,28.49,TRADE
QLD1,"2002/03/02 11:00",5478.94833,26.91,TRADE
QLD1,"2002/03/02 11:30",5455.37,25.26,TRADE
QLD1,"2002/03/02 12:00",5412.88833,24.84,TRADE
QLD1,"2002/03/02 12:30",5416.755,23.9,TRADE
QLD1,"2002/03/02 13:00",5324.81667,21.92,TRADE
QLD1,"2002/03/02 13:30",5305.93333,22.02,TRADE
QLD1,"2002/03/02 14:00",5295.51,21.75,TRADE
QLD1,"2002/03/02 14:30",5263.645,21.61,TRADE
QLD1,"2002/03/02 15:00",5277.41333,21.79,TRADE
QLD1,"2002/03/02 15:30",5257.85167,22.31,TRADE
QLD1,"2002/03/02 16:00",5320.26,22.45,TRADE
QLD1,"2002/03/02 16:30",5312.16833,21.99,TRADE
QLD1,"2002/03/02 17:00",5405.855,23.52,TRADE
QLD1,"2002/03/02 17:30",5456.79833,24.64,TRADE
QLD1,"2002/03/02 18:00",5525.41167,24.69,TRADE
QLD1,"2002/03/02 18:30",5552.2,23.14,TRADE
QLD1,"2002/03/02 19:00",5567.25833,25.08,TRADE
QLD1,"2002/03/02 19:30",5470.88833,24.96,TRADE
QLD1,"2002/03/02 20:00",5364.65333,23.76,TRADE
QLD1,"2002/03/02 20:30",5191.98,21.11,TRADE
QLD1,"2002/03/02 21:00",5030.45167,19.28,TRADE
QLD1,"2002/03/02 21:30",5004.74167,19.44,TRADE
QLD1,"2002/03/02 22:00",4906.25667,18.25,TRADE
QLD1,"2002/03/02 22:30",4901.79167,19.59,TRADE
QLD1,"2002/03/02 23:00",4890.09333,18.62,TRADE
QLD1,"2002/03/02 23:30",4894.67333,20.4,TRADE
QLD1,"2002/03/03 00:00",4701.53667,19.23,TRADE
QLD1,"2002/03/03 00:30",4470.515,17.91,TRADE
QLD1,"2002/03/03 01:00",4322.58,17.31,TRADE
QLD1,"2002/03/03 01:30",4186.93333,17.01,TRADE
QLD1,"2002/03/03 02:00",4055.445,14.04,TRADE
QLD1,"2002/03/03 02:30",3964.14,11.97,TRADE
QLD1,"2002/03/03 03:00",3921.57333,10.67,TRADE
QLD1,"2002/03/03 03:30",3891.28833,11.41,TRADE
QLD1,"2002/03/03 04:00",3880.79333,11.03,TRADE
QLD1,"2002/03/03 04:30",3851.62667,11.04,TRADE
QLD1,"2002/03/03 05:00",3853.88333,11.24,TRADE
QLD1,"2002/03/03 05:30",3883.29833,12.31,TRADE
QLD1,"2002/03/03 06:00",3948.73667,13.08,TRADE
QLD1,"2002/03/03 06:30",4001.86667,13.01,TRADE
QLD1,"2002/03/03 07:00",4147.265,14.34,TRADE
QLD1,"2002/03/03 07:30",4289.475,15.01,TRADE
QLD1,"2002/03/03 08:00",4511.07667,16.87,TRADE
QLD1,"2002/03/03 08:30",4730.78167,18.63,TRADE
QLD1,"2002/03/03 09:00",4861.95,20.29,TRADE
QLD1,"2002/03/03 09:30",4956.75667,20.5,TRADE
QLD1,"2002/03/03 10:00",5047.36167,22.04,TRADE
QLD1,"2002/03/03 10:30",5057.17333,22.62,TRADE
QLD1,"2002/03/03 11:00",5099.79,23.11,TRADE
QLD1,"2002/03/03 11:30",5057.51833,22.17,TRADE
QLD1,"2002/03/03 12:00",5079.42333,21.87,TRADE
QLD1,"2002/03/03 12:30",5113.845,22.3,TRADE
QLD1,"2002/03/03 13:00",5067.53167,20.61,TRADE
QLD1,"2002/03/03 13:30",4987.13833,20.22,TRADE
QLD1,"2002/03/03 14:00",4968.76833,20.5,TRADE
QLD1,"2002/03/03 14:30",4964.095,20.5,TRADE
QLD1,"2002/03/03 15:00",4938.30333,20.5,TRADE
QLD1,"2002/03/03 15:30",4959.08667,20.5,TRADE
QLD1,"2002/03/03 16:00",4949.29167,20.5,TRADE
QLD1,"2002/03/03 16:30",4980.77833,20.71,TRADE
QLD1,"2002/03/03 17:00",5054.00167,21.88,TRADE
QLD1,"2002/03/03 17:30",5116.84833,23.12,TRADE
QLD1,"2002/03/03 18:00",5261.53667,24.76,TRADE
QLD1,"2002/03/03 18:30",5367.02833,25.02,TRADE
QLD1,"2002/03/03 19:00",5575.38667,30.74,TRADE
QLD1,"2002/03/03 19:30",5565.37667,30.24,TRADE
QLD1,"2002/03/03 20:00",5479.415,28.37,TRADE
QLD1,"2002/03/03 20:30",5349.01167,24.66,TRADE
QLD1,"2002/03/03 21:00",5220.90333,21.92,TRADE
QLD1,"2002/03/03 21:30",5157.20833,21.43,TRADE
QLD1,"2002/03/03 22:00",4939.85333,18.85,TRADE
QLD1,"2002/03/03 22:30",4913.82833,19.45,TRADE
QLD1,"2002/03/03 23:00",4840.55,17.81,TRADE
QLD1,"2002/03/03 23:30",4884.53333,20.77,TRADE
QLD1,"2002/03/04 00:00",4697.97833,19.47,TRADE
QLD1,"2002/03/04 00:30",4495.71,17.91,TRADE
QLD1,"2002/03/04 01:00",4352.92167,17.34,TRADE
QLD1,"2002/03/04 01:30",4273.27667,17.72,TRADE
QLD1,"2002/03/04 02:00",4147.06167,14.69,TRADE
QLD1,"2002/03/04 02:30",4067.00167,12.71,TRADE
QLD1,"2002/03/04 03:00",4027.29667,11.3,TRADE
QLD1,"2002/03/04 03:30",3986.04333,11.13,TRADE
QLD1,"2002/03/04 04:00",3988.605,11.39,TRADE
QLD1,"2002/03/04 04:30",4020.105,11.46,TRADE
QLD1,"2002/03/04 05:00",4079.34833,13.51,TRADE
QLD1,"2002/03/04 05:30",4302.33,16.58,TRADE
QLD1,"2002/03/04 06:00",4464.66333,19.25,TRADE
QLD1,"2002/03/04 06:30",4903.195,21.45,TRADE
QLD1,"2002/03/04 07:00",5280.99333,25.07,TRADE
QLD1,"2002/03/04 07:30",5687.27833,22.49,TRADE
QLD1,"2002/03/04 08:00",5890.07667,23.19,TRADE
QLD1,"2002/03/04 08:30",6013.69167,24.49,TRADE
QLD1,"2002/03/04 09:00",6070.04333,24.97,TRADE
QLD1,"2002/03/04 09:30",6119.715,25.01,TRADE
QLD1,"2002/03/04 10:00",6102.75833,25,TRADE
QLD1,"2002/03/04 10:30",6093.635,23.83,TRADE
QLD1,"2002/03/04 11:00",6136.315,24.81,TRADE
QLD1,"2002/03/04 11:30",6111.29,25.1,TRADE
QLD1,"2002/03/04 12:00",6127.07167,25.43,TRADE
QLD1,"2002/03/04 12:30",6133.83,25.94,TRADE
QLD1,"2002/03/04 13:00",6156.01,26.35,TRADE
QLD1,"2002/03/04 13:30",6161.19833,27.12,TRADE
QLD1,"2002/03/04 14:00",6174.31833,28.72,TRADE
QLD1,"2002/03/04 14:30",6165.845,27.83,TRADE
QLD1,"2002/03/04 15:00",6119.22333,30.41,TRADE
QLD1,"2002/03/04 15:30",6106.42667,30.11,TRADE
QLD1,"2002/03/04 16:00",6112.62167,27.96,TRADE
QLD1,"2002/03/04 16:30",6100.21333,24.68,TRADE
QLD1,"2002/03/04 17:00",6105.97,22.58,TRADE
QLD1,"2002/03/04 17:30",6078.27833,21.59,TRADE
QLD1,"2002/03/04 18:00",6044.77167,19.97,TRADE
QLD1,"2002/03/04 18:30",5962.065,21.11,TRADE
QLD1,"2002/03/04 19:00",6126.77,25.94,TRADE
QLD1,"2002/03/04 19:30",6023.975,25.06,TRADE
QLD1,"2002/03/04 20:00",5807.865,22.43,TRADE
QLD1,"2002/03/04 20:30",5708.62,21.16,TRADE
QLD1,"2002/03/04 21:00",5561.65167,18.4,TRADE
QLD1,"2002/03/04 21:30",5527.80667,20.53,TRADE
QLD1,"2002/03/04 22:00",5356.435,18.56,TRADE
QLD1,"2002/03/04 22:30",5257.82667,24.87,TRADE
QLD1,"2002/03/04 23:00",5143.71667,20.5,TRADE
QLD1,"2002/03/04 23:30",5135.99333,23.29,TRADE
QLD1,"2002/03/05 00:00",4919.47667,21.94,TRADE
QLD1,"2002/03/05 00:30",4666.18667,21.17,TRADE
QLD1,"2002/03/05 01:00",4524.845,17.63,TRADE
QLD1,"2002/03/05 01:30",4375.79167,18.02,TRADE
QLD1,"2002/03/05 02:00",4257.83833,15.1,TRADE
QLD1,"2002/03/05 02:30",4147.12167,13.56,TRADE
QLD1,"2002/03/05 03:00",4091.29,12.45,TRADE
QLD1,"2002/03/05 03:30",4054.295,11.81,TRADE
QLD1,"2002/03/05 04:00",4048.02833,11.37,TRADE
QLD1,"2002/03/05 04:30",4091.55333,14.25,TRADE
QLD1,"2002/03/05 05:00",4172.59167,15.06,TRADE
QLD1,"2002/03/05 05:30",4374.99,18.52,TRADE
QLD1,"2002/03/05 06:00",4571.57667,20.2,TRADE
QLD1,"2002/03/05 06:30",4910.05667,22.44,TRADE
QLD1,"2002/03/05 07:00",5290.45167,26.58,TRADE
QLD1,"2002/03/05 07:30",5638.81667,22.99,TRADE
QLD1,"2002/03/05 08:00",5824.73833,23.8,TRADE
QLD1,"2002/03/05 08:30",5932.67667,24.47,TRADE
QLD1,"2002/03/05 09:00",6006.87833,27.59,TRADE
QLD1,"2002/03/05 09:30",6040.11,25.11,TRADE
QLD1,"2002/03/05 10:00",6085.42,25.98,TRADE
QLD1,"2002/03/05 10:30",6055.635,28.52,TRADE
QLD1,"2002/03/05 11:00",6024.825,28.08,TRADE
QLD1,"2002/03/05 11:30",6039.48,25.86,TRADE
QLD1,"2002/03/05 12:00",6092.51333,31.16,TRADE
QLD1,"2002/03/05 12:30",6034.445,31.42,TRADE
QLD1,"2002/03/05 13:00",6042.82667,32.92,TRADE
QLD1,"2002/03/05 13:30",6051.615,33.65,TRADE
QLD1,"2002/03/05 14:00",6083.235,33.61,TRADE
QLD1,"2002/03/05 14:30",6077.345,28.04,TRADE
QLD1,"2002/03/05 15:00",6067.255,34.09,TRADE
QLD1,"2002/03/05 15:30",6063.10667,35.66,TRADE
QLD1,"2002/03/05 16:00",6067.51167,35.82,TRADE
QLD1,"2002/03/05 16:30",6078.9,29.68,TRADE
QLD1,"2002/03/05 17:00",6031.10167,26.65,TRADE
QLD1,"2002/03/05 17:30",5964.865,22.13,TRADE
QLD1,"2002/03/05 18:00",5948.75167,21.78,TRADE
QLD1,"2002/03/05 18:30",5922.08,22.44,TRADE
QLD1,"2002/03/05 19:00",6088.55333,26.01,TRADE
QLD1,"2002/03/05 19:30",5991.94833,26.19,TRADE
QLD1,"2002/03/05 20:00",5869.055,23.94,TRADE
QLD1,"2002/03/05 20:30",5713.89,21.32,TRADE
QLD1,"2002/03/05 21:00",5562.79333,20.34,TRADE
QLD1,"2002/03/05 21:30",5483.28167,20.98,TRADE
QLD1,"2002/03/05 22:00",5373.43667,19.58,TRADE
QLD1,"2002/03/05 22:30",5269.75833,24.53,TRADE
QLD1,"2002/03/05 23:00",5150.85833,21.44,TRADE
QLD1,"2002/03/05 23:30",5135.42333,24.18,TRADE
QLD1,"2002/03/06 00:00",4907.84333,21.12,TRADE
QLD1,"2002/03/06 00:30",4636.565,19.67,TRADE
QLD1,"2002/03/06 01:00",4511.66,17.99,TRADE
QLD1,"2002/03/06 01:30",4382.655,17.81,TRADE
QLD1,"2002/03/06 02:00",4244.86667,14.83,TRADE
QLD1,"2002/03/06 02:30",4140.96667,11.94,TRADE
QLD1,"2002/03/06 03:00",4062.10667,11.09,TRADE
QLD1,"2002/03/06 03:30",4046.77333,11.05,TRADE
QLD1,"2002/03/06 04:00",4064.68667,11.02,TRADE
QLD1,"2002/03/06 04:30",4068.255,12.58,TRADE
QLD1,"2002/03/06 05:00",4147.92333,15.21,TRADE
QLD1,"2002/03/06 05:30",4320.055,18.35,TRADE
QLD1,"2002/03/06 06:00",4505.85667,19.89,TRADE
QLD1,"2002/03/06 06:30",4880.32833,19.57,TRADE
QLD1,"2002/03/06 07:00",5289.96833,22.69,TRADE
QLD1,"2002/03/06 07:30",5646.55667,21.14,TRADE
QLD1,"2002/03/06 08:00",5855.17167,21.48,TRADE
QLD1,"2002/03/06 08:30",5937.65667,22.42,TRADE
QLD1,"2002/03/06 09:00",5995.81333,23.35,TRADE
QLD1,"2002/03/06 09:30",6036.80167,24.13,TRADE
QLD1,"2002/03/06 10:00",6047.52333,25.61,TRADE
QLD1,"2002/03/06 10:30",5996.71833,26.31,TRADE
QLD1,"2002/03/06 11:00",5999.37667,28.25,TRADE
QLD1,"2002/03/06 11:30",5998.80167,30.26,TRADE
QLD1,"2002/03/06 12:00",6013.67333,34.61,TRADE
QLD1,"2002/03/06 12:30",5996.02,37.19,TRADE
QLD1,"2002/03/06 13:00",5979.95167,33.61,TRADE
QLD1,"2002/03/06 13:30",6016.00833,32.81,TRADE
QLD1,"2002/03/06 14:00",6013.88333,31.73,TRADE
QLD1,"2002/03/06 14:30",6030.62667,33.53,TRADE
QLD1,"2002/03/06 15:00",6004.10333,37.06,TRADE
QLD1,"2002/03/06 15:30",6011.665,37.71,TRADE
QLD1,"2002/03/06 16:00",6013.01667,35.19,TRADE
QLD1,"2002/03/06 16:30",6010.71167,30.8,TRADE
QLD1,"2002/03/06 17:00",5978.57333,26.66,TRADE
QLD1,"2002/03/06 17:30",5941.01,23.05,TRADE
QLD1,"2002/03/06 18:00",5878.39167,21.26,TRADE
QLD1,"2002/03/06 18:30",5886.05333,21.62,TRADE
QLD1,"2002/03/06 19:00",6029.545,25.43,TRADE
QLD1,"2002/03/06 19:30",5938.62,25.13,TRADE
QLD1,"2002/03/06 20:00",5821.135,24.01,TRADE
QLD1,"2002/03/06 20:30",5626.35,22.53,TRADE
QLD1,"2002/03/06 21:00",5498.93167,21.33,TRADE
QLD1,"2002/03/06 21:30",5472.39667,23.26,TRADE
QLD1,"2002/03/06 22:00",5273.50167,21.3,TRADE
QLD1,"2002/03/06 22:30",5192.59,28.26,TRADE
QLD1,"2002/03/06 23:00",5075.33667,23.12,TRADE
QLD1,"2002/03/06 23:30",5067.855,31.07,TRADE
QLD1,"2002/03/07 00:00",4861.85667,24.04,TRADE
QLD1,"2002/03/07 00:30",4594.05333,21.61,TRADE
QLD1,"2002/03/07 01:00",4458.55667,20.23,TRADE
QLD1,"2002/03/07 01:30",4316.15667,19.15,TRADE
QLD1,"2002/03/07 02:00",4159.00667,16.3,TRADE
QLD1,"2002/03/07 02:30",4077.44333,14.61,TRADE
QLD1,"2002/03/07 03:00",4015.86,12.8,TRADE
QLD1,"2002/03/07 03:30",3991.495,12.19,TRADE
QLD1,"2002/03/07 04:00",3987.61,12.21,TRADE
QLD1,"2002/03/07 04:30",4049.93167,13.82,TRADE
QLD1,"2002/03/07 05:00",4137.60333,16.23,TRADE
QLD1,"2002/03/07 05:30",4313.70333,19.91,TRADE
QLD1,"2002/03/07 06:00",4470.71333,23.34,TRADE
QLD1,"2002/03/07 06:30",4855.065,23.47,TRADE
QLD1,"2002/03/07 07:00",5241.17833,30.38,TRADE
QLD1,"2002/03/07 07:30",5576.71,22.83,TRADE
QLD1,"2002/03/07 08:00",5812.32167,24.2,TRADE
QLD1,"2002/03/07 08:30",5913.255,24.19,TRADE
QLD1,"2002/03/07 09:00",5979.115,24.82,TRADE
QLD1,"2002/03/07 09:30",6008.12,24.91,TRADE
QLD1,"2002/03/07 10:00",6062.34167,25.27,TRADE
QLD1,"2002/03/07 10:30",6023.31,24.88,TRADE
QLD1,"2002/03/07 11:00",6065.97667,29.8,TRADE
QLD1,"2002/03/07 11:30",6100.50833,29.4,TRADE
QLD1,"2002/03/07 12:00",6135.31833,32.21,TRADE
QLD1,"2002/03/07 12:30",6165.985,37.03,TRADE
QLD1,"2002/03/07 13:00",6151.06333,36.26,TRADE
QLD1,"2002/03/07 13:30",6209.74833,35.22,TRADE
QLD1,"2002/03/07 14:00",6195.03,37.61,TRADE
QLD1,"2002/03/07 14:30",6212.19,40.04,TRADE
QLD1,"2002/03/07 15:00",6173.65,35.69,TRADE
QLD1,"2002/03/07 15:30",6163.54833,35.18,TRADE
QLD1,"2002/03/07 16:00",6162.00667,35.35,TRADE
QLD1,"2002/03/07 16:30",6144.61333,29.31,TRADE
QLD1,"2002/03/07 17:00",6139.50333,28.93,TRADE
QLD1,"2002/03/07 17:30",6064.67833,23.58,TRADE
QLD1,"2002/03/07 18:00",6091.76667,23.11,TRADE
QLD1,"2002/03/07 18:30",6046.42333,22.65,TRADE
QLD1,"2002/03/07 19:00",6231.15333,25.44,TRADE
QLD1,"2002/03/07 19:30",6186.46667,27.44,TRADE
QLD1,"2002/03/07 20:00",6088.42,25.49,TRADE
QLD1,"2002/03/07 20:30",5930.13333,23.45,TRADE
QLD1,"2002/03/07 21:00",5714.34167,21.88,TRADE
QLD1,"2002/03/07 21:30",5610.25333,23.92,TRADE
QLD1,"2002/03/07 22:00",5437.66667,22.91,TRADE
QLD1,"2002/03/07 22:30",5315.675,31.87,TRADE
QLD1,"2002/03/07 23:00",5204.715,26.9,TRADE
QLD1,"2002/03/07 23:30",5145.34,31.61,TRADE
QLD1,"2002/03/08 00:00",4932.23,28.2,TRADE
QLD1,"2002/03/08 00:30",4691.89667,24.05,TRADE
QLD1,"2002/03/08 01:00",4545.83,21.31,TRADE
QLD1,"2002/03/08 01:30",4394.51333,20.31,TRADE
QLD1,"2002/03/08 02:00",4246.32333,17.43,TRADE
QLD1,"2002/03/08 02:30",4143.50833,16.5,TRADE
QLD1,"2002/03/08 03:00",4104.345,14.9,TRADE
QLD1,"2002/03/08 03:30",4079.74667,13.93,TRADE
QLD1,"2002/03/08 04:00",4091.16333,14.25,TRADE
QLD1,"2002/03/08 04:30",4117.025,15.36,TRADE
QLD1,"2002/03/08 05:00",4193.47833,17.92,TRADE
QLD1,"2002/03/08 05:30",4378.385,20.46,TRADE
QLD1,"2002/03/08 06:00",4541.06,23.84,TRADE
QLD1,"2002/03/08 06:30",4928.035,28.89,TRADE
QLD1,"2002/03/08 07:00",5268.865,36.8,TRADE
QLD1,"2002/03/08 07:30",5621.17333,25.51,TRADE
QLD1,"2002/03/08 08:00",5829.345,25.28,TRADE
QLD1,"2002/03/08 08:30",5966.48,28.25,TRADE
QLD1,"2002/03/08 09:00",5998.83,26.24,TRADE
QLD1,"2002/03/08 09:30",6104.82667,26.69,TRADE
QLD1,"2002/03/08 10:00",6155.09667,34.27,TRADE
QLD1,"2002/03/08 10:30",6179.86333,29.03,TRADE
QLD1,"2002/03/08 11:00",6157.59167,34.18,TRADE
QLD1,"2002/03/08 11:30",6185.65333,30.46,TRADE
QLD1,"2002/03/08 12:00",6266.775,34.61,TRADE
QLD1,"2002/03/08 12:30",6276.15167,29.06,TRADE
QLD1,"2002/03/08 13:00",6229.96,24.97,TRADE
QLD1,"2002/03/08 13:30",6255.15667,26.65,TRADE
QLD1,"2002/03/08 14:00",6312.75,25.79,TRADE
QLD1,"2002/03/08 14:30",6316.76833,24.62,TRADE
QLD1,"2002/03/08 15:00",6303.62333,25.11,TRADE
QLD1,"2002/03/08 15:30",6249.51167,24.42,TRADE
QLD1,"2002/03/08 16:00",6243.88333,24.43,TRADE
QLD1,"2002/03/08 16:30",6172.155,22.84,TRADE
QLD1,"2002/03/08 17:00",6161.225,22.72,TRADE
QLD1,"2002/03/08 17:30",6061.79667,20.9,TRADE
QLD1,"2002/03/08 18:00",5969.84333,21.33,TRADE
QLD1,"2002/03/08 18:30",5880.405,21.7,TRADE
QLD1,"2002/03/08 19:00",6028.115,24.66,TRADE
QLD1,"2002/03/08 19:30",5931.88333,24.17,TRADE
QLD1,"2002/03/08 20:00",5830.89167,24.27,TRADE
QLD1,"2002/03/08 20:30",5657.31167,22.4,TRADE
QLD1,"2002/03/08 21:00",5527.39333,20.94,TRADE
QLD1,"2002/03/08 21:30",5494.76833,22.86,TRADE
QLD1,"2002/03/08 22:00",5362.76167,21.77,TRADE
QLD1,"2002/03/08 22:30",5315.07,32.48,TRADE
QLD1,"2002/03/08 23:00",5186.21833,27.2,TRADE
QLD1,"2002/03/08 23:30",5195.29667,34.98,TRADE
QLD1,"2002/03/09 00:00",4965.97833,30.92,TRADE
QLD1,"2002/03/09 00:30",4699.83667,24.97,TRADE
QLD1,"2002/03/09 01:00",4528.37333,20.5,TRADE
QLD1,"2002/03/09 01:30",4401.735,21.02,TRADE
QLD1,"2002/03/09 02:00",4242.005,18.53,TRADE
QLD1,"2002/03/09 02:30",4112.91,15.89,TRADE
QLD1,"2002/03/09 03:00",4048.89667,15.07,TRADE
QLD1,"2002/03/09 03:30",4033.655,14.36,TRADE
QLD1,"2002/03/09 04:00",4013.76667,14.23,TRADE
QLD1,"2002/03/09 04:30",4014.275,14.42,TRADE
QLD1,"2002/03/09 05:00",4095.69,14.92,TRADE
QLD1,"2002/03/09 05:30",4123.48667,17.34,TRADE
QLD1,"2002/03/09 06:00",4202.51,17.61,TRADE
QLD1,"2002/03/09 06:30",4335.045,18.65,TRADE
QLD1,"2002/03/09 07:00",4550.60167,20.09,TRADE
QLD1,"2002/03/09 07:30",4809.665,22.02,TRADE
QLD1,"2002/03/09 08:00",5017.25167,28.17,TRADE
QLD1,"2002/03/09 08:30",5242.04833,34.56,TRADE
QLD1,"2002/03/09 09:00",5379.03167,35.87,TRADE
QLD1,"2002/03/09 09:30",5496.405,37.1,TRADE
QLD1,"2002/03/09 10:00",5482.99167,34.46,TRADE
QLD1,"2002/03/09 10:30",5478.79167,34.4,TRADE
QLD1,"2002/03/09 11:00",5416.66833,30.72,TRADE
QLD1,"2002/03/09 11:30",5398.79333,29.81,TRADE
QLD1,"2002/03/09 12:00",5469.83333,32.96,TRADE
QLD1,"2002/03/09 12:30",5389.48333,29.89,TRADE
QLD1,"2002/03/09 13:00",5394.51333,29.17,TRADE
QLD1,"2002/03/09 13:30",5334.515,28.84,TRADE
QLD1,"2002/03/09 14:00",5323.75,25.9,TRADE
QLD1,"2002/03/09 14:30",5289.16333,27.29,TRADE
QLD1,"2002/03/09 15:00",5239.615,28.27,TRADE
QLD1,"2002/03/09 15:30",5254.43667,28.99,TRADE
QLD1,"2002/03/09 16:00",5221.17167,30.37,TRADE
QLD1,"2002/03/09 16:30",5237.78,31.35,TRADE
QLD1,"2002/03/09 17:00",5257.46333,34.5,TRADE
QLD1,"2002/03/09 17:30",5282.065,34.3,TRADE
QLD1,"2002/03/09 18:00",5293.09833,32.57,TRADE
QLD1,"2002/03/09 18:30",5401.655,33.36,TRADE
QLD1,"2002/03/09 19:00",5543.48,36.89,TRADE
QLD1,"2002/03/09 19:30",5438.91667,33.07,TRADE
QLD1,"2002/03/09 20:00",5347.98333,29.74,TRADE
QLD1,"2002/03/09 20:30",5127.165,25.42,TRADE
QLD1,"2002/03/09 21:00",5036.92333,22.87,TRADE
QLD1,"2002/03/09 21:30",4984.45667,22.41,TRADE
QLD1,"2002/03/09 22:00",4897.715,21.52,TRADE
QLD1,"2002/03/09 22:30",4847.16667,22.08,TRADE
QLD1,"2002/03/09 23:00",4830.43667,21.54,TRADE
QLD1,"2002/03/09 23:30",4842.715,23.64,TRADE
QLD1,"2002/03/10 00:00",4691.99,21.52,TRADE
QLD1,"2002/03/10 00:30",4445.88667,20.54,TRADE
QLD1,"2002/03/10 01:00",4318.72333,19.06,TRADE
QLD1,"2002/03/10 01:30",4199.97167,19.33,TRADE
QLD1,"2002/03/10 02:00",4056.38,17.63,TRADE
QLD1,"2002/03/10 02:30",3916.93667,16.03,TRADE
QLD1,"2002/03/10 03:00",3901.50667,15.78,TRADE
QLD1,"2002/03/10 03:30",3851.97333,14.27,TRADE
QLD1,"2002/03/10 04:00",3831.52667,16.1,TRADE
QLD1,"2002/03/10 04:30",3834.935,16.45,TRADE
QLD1,"2002/03/10 05:00",3837.17667,17.2,TRADE
QLD1,"2002/03/10 05:30",3867.09167,14.6,TRADE
QLD1,"2002/03/10 06:00",3901.02667,15.09,TRADE
QLD1,"2002/03/10 06:30",3931.255,15.13,TRADE
QLD1,"2002/03/10 07:00",4063.96833,16.26,TRADE
QLD1,"2002/03/10 07:30",4243.77167,17.08,TRADE
QLD1,"2002/03/10 08:00",4436.30333,17.84,TRADE
QLD1,"2002/03/10 08:30",4669.26333,20.45,TRADE
QLD1,"2002/03/10 09:00",4777.645,23.31,TRADE
QLD1,"2002/03/10 09:30",4850.26667,24.97,TRADE
QLD1,"2002/03/10 10:00",4903.255,24.79,TRADE
QLD1,"2002/03/10 10:30",4931.41,25.18,TRADE
QLD1,"2002/03/10 11:00",4912.53667,25.14,TRADE
QLD1,"2002/03/10 11:30",4898.625,24.69,TRADE
QLD1,"2002/03/10 12:00",4939.50333,25.46,TRADE
QLD1,"2002/03/10 12:30",4933.45333,23.88,TRADE
QLD1,"2002/03/10 13:00",4922.42667,22.82,TRADE
QLD1,"2002/03/10 13:30",4890.68667,21.65,TRADE
QLD1,"2002/03/10 14:00",4909.51833,22.53,TRADE
QLD1,"2002/03/10 14:30",4886.95167,23.49,TRADE
QLD1,"2002/03/10 15:00",4887.79333,25.25,TRADE
QLD1,"2002/03/10 15:30",4924.995,27.36,TRADE
QLD1,"2002/03/10 16:00",4963.35,28.61,TRADE
QLD1,"2002/03/10 16:30",4998.66667,28.53,TRADE
QLD1,"2002/03/10 17:00",5052.52333,28.17,TRADE
QLD1,"2002/03/10 17:30",5145.97,28.22,TRADE
QLD1,"2002/03/10 18:00",5260.53167,27.05,TRADE
QLD1,"2002/03/10 18:30",5405.28667,29.18,TRADE
QLD1,"2002/03/10 19:00",5667.8,35.91,TRADE
QLD1,"2002/03/10 19:30",5610.73167,38.79,TRADE
QLD1,"2002/03/10 20:00",5548.93333,38.41,TRADE
QLD1,"2002/03/10 20:30",5336.12167,28.63,TRADE
QLD1,"2002/03/10 21:00",5193.42833,23.77,TRADE
QLD1,"2002/03/10 21:30",5113.60667,23.43,TRADE
QLD1,"2002/03/10 22:00",4955.71833,21.74,TRADE
QLD1,"2002/03/10 22:30",4901.00667,24.5,TRADE
QLD1,"2002/03/10 23:00",4859.41667,21.47,TRADE
QLD1,"2002/03/10 23:30",4873.83,24.27,TRADE
QLD1,"2002/03/11 00:00",4690.22667,23.79,TRADE
QLD1,"2002/03/11 00:30",4494.655,21.94,TRADE
QLD1,"2002/03/11 01:00",4359.05667,19.25,TRADE
QLD1,"2002/03/11 01:30",4280.52667,20.31,TRADE
QLD1,"2002/03/11 02:00",4135.46667,18.26,TRADE
QLD1,"2002/03/11 02:30",4064.00167,17.69,TRADE
QLD1,"2002/03/11 03:00",4020.28333,16.08,TRADE
QLD1,"2002/03/11 03:30",4022.145,17.19,TRADE
QLD1,"2002/03/11 04:00",4030.385,18.33,TRADE
QLD1,"2002/03/11 04:30",4058.11833,17.82,TRADE
QLD1,"2002/03/11 05:00",4106.83167,18.09,TRADE
QLD1,"2002/03/11 05:30",4253.65,18.61,TRADE
QLD1,"2002/03/11 06:00",4446.51167,20.27,TRADE
QLD1,"2002/03/11 06:30",4771.70833,20.92,TRADE
QLD1,"2002/03/11 07:00",5205.35,22.92,TRADE
QLD1,"2002/03/11 07:30",5568.71167,22.57,TRADE
QLD1,"2002/03/11 08:00",5796.06333,23.54,TRADE
QLD1,"2002/03/11 08:30",5917.47667,22.76,TRADE
QLD1,"2002/03/11 09:00",5985.96167,24.19,TRADE
QLD1,"2002/03/11 09:30",6012.61,22.93,TRADE
QLD1,"2002/03/11 10:00",6049.695,24.51,TRADE
QLD1,"2002/03/11 10:30",6055.06,24.91,TRADE
QLD1,"2002/03/11 11:00",6057.305,24.96,TRADE
QLD1,"2002/03/11 11:30",6050.625,24.58,TRADE
QLD1,"2002/03/11 12:00",6081.72,26.56,TRADE
QLD1,"2002/03/11 12:30",6111.905,29.75,TRADE
QLD1,"2002/03/11 13:00",6115.75,30.27,TRADE
QLD1,"2002/03/11 13:30",6154.315,31.08,TRADE
QLD1,"2002/03/11 14:00",6178.24333,36.23,TRADE
QLD1,"2002/03/11 14:30",6171.36,38.14,TRADE
QLD1,"2002/03/11 15:00",6165.635,32.82,TRADE
QLD1,"2002/03/11 15:30",6148.72333,30.05,TRADE
QLD1,"2002/03/11 16:00",6176.405,38.28,TRADE
QLD1,"2002/03/11 16:30",6181.16167,28.76,TRADE
QLD1,"2002/03/11 17:00",6150.23333,28.4,TRADE
QLD1,"2002/03/11 17:30",6121.645,26.84,TRADE
QLD1,"2002/03/11 18:00",6085.47,24.46,TRADE
QLD1,"2002/03/11 18:30",6123.18333,26.15,TRADE
QLD1,"2002/03/11 19:00",6240.73167,39.03,TRADE
QLD1,"2002/03/11 19:30",6096.42667,32.05,TRADE
QLD1,"2002/03/11 20:00",5956.41833,28.81,TRADE
QLD1,"2002/03/11 20:30",5838.35333,24.04,TRADE
QLD1,"2002/03/11 21:00",5625.77667,21.77,TRADE
QLD1,"2002/03/11 21:30",5576.64,22.11,TRADE
QLD1,"2002/03/11 22:00",5431.90167,21.62,TRADE
QLD1,"2002/03/11 22:30",5333.97,34.1,TRADE
QLD1,"2002/03/11 23:00",5190.68667,28.33,TRADE
QLD1,"2002/03/11 23:30",5155.61667,38.8,TRADE
QLD1,"2002/03/12 00:00",4931.04333,31.21,TRADE
QLD1,"2002/03/12 00:30",4709.91667,25.82,TRADE
QLD1,"2002/03/12 01:00",4548.68667,23.98,TRADE
QLD1,"2002/03/12 01:30",4407.23,22.7,TRADE
QLD1,"2002/03/12 02:00",4305.15833,19.31,TRADE
QLD1,"2002/03/12 02:30",4203.16167,17.92,TRADE
QLD1,"2002/03/12 03:00",4146.665,18.16,TRADE
QLD1,"2002/03/12 03:30",4156.07833,17.86,TRADE
QLD1,"2002/03/12 04:00",4125.71,17.6,TRADE
QLD1,"2002/03/12 04:30",4195.14,17.64,TRADE
QLD1,"2002/03/12 05:00",4246.90833,18.84,TRADE
QLD1,"2002/03/12 05:30",4439.71667,25.05,TRADE
QLD1,"2002/03/12 06:00",4570.7,31.67,TRADE
QLD1,"2002/03/12 06:30",4959.42,36.33,TRADE
QLD1,"2002/03/12 07:00",5324.825,48.35,TRADE
QLD1,"2002/03/12 07:30",5674.33167,34.03,TRADE
QLD1,"2002/03/12 08:00",5874.39,29.51,TRADE
QLD1,"2002/03/12 08:30",5991.95833,36.46,TRADE
QLD1,"2002/03/12 09:00",6057.41,39.64,TRADE
QLD1,"2002/03/12 09:30",6045.30667,39.88,TRADE
QLD1,"2002/03/12 10:00",6039.545,41.47,TRADE
QLD1,"2002/03/12 10:30",6076.66167,45.93,TRADE
QLD1,"2002/03/12 11:00",6093.07667,47.74,TRADE
QLD1,"2002/03/12 11:30",6163.095,41.56,TRADE
QLD1,"2002/03/12 12:00",6166.00333,40.75,TRADE
QLD1,"2002/03/12 12:30",6161.24333,39.85,TRADE
QLD1,"2002/03/12 13:00",6180.23833,38.8,TRADE
QLD1,"2002/03/12 13:30",6272.96667,41.82,TRADE
QLD1,"2002/03/12 14:00",6255.845,44.43,TRADE
QLD1,"2002/03/12 14:30",6278.70333,45.02,TRADE
QLD1,"2002/03/12 15:00",6335.06333,43.97,TRADE
QLD1,"2002/03/12 15:30",6306.175,42.16,TRADE
QLD1,"2002/03/12 16:00",6335.58833,42.71,TRADE
QLD1,"2002/03/12 16:30",6318.27167,35.01,TRADE
QLD1,"2002/03/12 17:00",6295.695,33.72,TRADE
QLD1,"2002/03/12 17:30",6227.46667,28.27,TRADE
QLD1,"2002/03/12 18:00",6202.61667,25.98,TRADE
QLD1,"2002/03/12 18:30",6182.95667,28.83,TRADE
QLD1,"2002/03/12 19:00",6358.455,43.97,TRADE
QLD1,"2002/03/12 19:30",6200.34167,38.17,TRADE
QLD1,"2002/03/12 20:00",6068.64833,30.36,TRADE
QLD1,"2002/03/12 20:30",5899.05167,25,TRADE
QLD1,"2002/03/12 21:00",5770.45333,22.8,TRADE
QLD1,"2002/03/12 21:30",5666.47167,23.87,TRADE
QLD1,"2002/03/12 22:00",5575.25833,23.37,TRADE
QLD1,"2002/03/12 22:30",5483.26167,35.26,TRADE
QLD1,"2002/03/12 23:00",5329.98833,29.73,TRADE
QLD1,"2002/03/12 23:30",5276.895,35.77,TRADE
QLD1,"2002/03/13 00:00",5068.20167,31.36,TRADE
QLD1,"2002/03/13 00:30",4782.12667,26.07,TRADE
QLD1,"2002/03/13 01:00",4662.58833,22.06,TRADE
QLD1,"2002/03/13 01:30",4477.26,21.15,TRADE
QLD1,"2002/03/13 02:00",4360.62333,20.85,TRADE
QLD1,"2002/03/13 02:30",4297.88333,19.14,TRADE
QLD1,"2002/03/13 03:00",4176.45,17.43,TRADE
QLD1,"2002/03/13 03:30",4164.98167,16.71,TRADE
QLD1,"2002/03/13 04:00",4178.14833,16.37,TRADE
QLD1,"2002/03/13 04:30",4179.53333,17.31,TRADE
QLD1,"2002/03/13 05:00",4288.66167,18.75,TRADE
QLD1,"2002/03/13 05:30",4444.465,22,TRADE
QLD1,"2002/03/13 06:00",4618.26667,24.97,TRADE
QLD1,"2002/03/13 06:30",4943.43,31.63,TRADE
QLD1,"2002/03/13 07:00",5313.85333,37.08,TRADE
QLD1,"2002/03/13 07:30",5625.96,29.8,TRADE
QLD1,"2002/03/13 08:00",5853.71167,29.42,TRADE
QLD1,"2002/03/13 08:30",5996.21,35.3,TRADE
QLD1,"2002/03/13 09:00",6059.95833,31.59,TRADE
QLD1,"2002/03/13 09:30",6102.26167,37.26,TRADE
QLD1,"2002/03/13 10:00",6095.00833,33.3,TRADE
QLD1,"2002/03/13 10:30",6146.21,26.36,TRADE
QLD1,"2002/03/13 11:00",6176.11333,24.05,TRADE
QLD1,"2002/03/13 11:30",6208.76,24.18,TRADE
QLD1,"2002/03/13 12:00",6234.78167,26.25,TRADE
QLD1,"2002/03/13 12:30",6228.665,29.93,TRADE
QLD1,"2002/03/13 13:00",6219.14167,29,TRADE
QLD1,"2002/03/13 13:30",6259.76167,29.07,TRADE
QLD1,"2002/03/13 14:00",6264.295,29.6,TRADE
QLD1,"2002/03/13 14:30",6288.685,34.12,TRADE
QLD1,"2002/03/13 15:00",6239.67833,33.26,TRADE
QLD1,"2002/03/13 15:30",6239.58333,34.78,TRADE
QLD1,"2002/03/13 16:00",6276.15833,33.35,TRADE
QLD1,"2002/03/13 16:30",6232.84833,27.03,TRADE
QLD1,"2002/03/13 17:00",6220.75167,24.78,TRADE
QLD1,"2002/03/13 17:30",6156.55833,23.26,TRADE
QLD1,"2002/03/13 18:00",6122.075,21.8,TRADE
QLD1,"2002/03/13 18:30",6101.41333,22.88,TRADE
QLD1,"2002/03/13 19:00",6262.305,35.68,TRADE
QLD1,"2002/03/13 19:30",6114.13167,32.41,TRADE
QLD1,"2002/03/13 20:00",5969.04,27.84,TRADE
QLD1,"2002/03/13 20:30",5778.69333,24.65,TRADE
QLD1,"2002/03/13 21:00",5673.03833,23.37,TRADE
QLD1,"2002/03/13 21:30",5587.70333,24.38,TRADE
QLD1,"2002/03/13 22:00",5470.695,22.59,TRADE
QLD1,"2002/03/13 22:30",5426.345,35.44,TRADE
QLD1,"2002/03/13 23:00",5279.24,26.78,TRADE
QLD1,"2002/03/13 23:30",5252.41667,35.98,TRADE
QLD1,"2002/03/14 00:00",5028.105,29.48,TRADE
QLD1,"2002/03/14 00:30",4763.82,24.25,TRADE
QLD1,"2002/03/14 01:00",4619.50333,21.64,TRADE
QLD1,"2002/03/14 01:30",4486.18667,20.92,TRADE
QLD1,"2002/03/14 02:00",4334.5,18.61,TRADE
QLD1,"2002/03/14 02:30",4229.70333,17.38,TRADE
QLD1,"2002/03/14 03:00",4204.73667,17.87,TRADE
QLD1,"2002/03/14 03:30",4190.14333,16.68,TRADE
QLD1,"2002/03/14 04:00",4178.03667,16.3,TRADE
QLD1,"2002/03/14 04:30",4227.79,17.75,TRADE
QLD1,"2002/03/14 05:00",4264.18167,17.84,TRADE
QLD1,"2002/03/14 05:30",4437.54167,20.86,TRADE
QLD1,"2002/03/14 06:00",4633.16167,25.88,TRADE
QLD1,"2002/03/14 06:30",5000.185,31.9,TRADE
QLD1,"2002/03/14 07:00",5370.01167,43.45,TRADE
QLD1,"2002/03/14 07:30",5721.89833,32.35,TRADE
QLD1,"2002/03/14 08:00",5897.42,26.15,TRADE
QLD1,"2002/03/14 08:30",6052.70333,28.76,TRADE
QLD1,"2002/03/14 09:00",6062.64833,29.8,TRADE
QLD1,"2002/03/14 09:30",6091.14333,30.17,TRADE
QLD1,"2002/03/14 10:00",6083.25667,27.71,TRADE
QLD1,"2002/03/14 10:30",6080.785,26.6,TRADE
QLD1,"2002/03/14 11:00",6092.85833,28.65,TRADE
QLD1,"2002/03/14 11:30",6101.48,25.71,TRADE
QLD1,"2002/03/14 12:00",6099.21167,28.9,TRADE
QLD1,"2002/03/14 12:30",6090.72833,29.57,TRADE
QLD1,"2002/03/14 13:00",6093.61667,31.59,TRADE
QLD1,"2002/03/14 13:30",6081.98667,29.8,TRADE
QLD1,"2002/03/14 14:00",6057.955,30.39,TRADE
QLD1,"2002/03/14 14:30",6076.36,36.63,TRADE
QLD1,"2002/03/14 15:00",6025.87667,30.08,TRADE
QLD1,"2002/03/14 15:30",6054.04,31.24,TRADE
QLD1,"2002/03/14 16:00",6042.35833,28.41,TRADE
QLD1,"2002/03/14 16:30",5983.32167,23.95,TRADE
QLD1,"2002/03/14 17:00",5966.62167,24.2,TRADE
QLD1,"2002/03/14 17:30",5925.015,23.41,TRADE
QLD1,"2002/03/14 18:00",6017.21833,23.4,TRADE
QLD1,"2002/03/14 18:30",6100.30167,25.05,TRADE
QLD1,"2002/03/14 19:00",6224.55333,30.13,TRADE
QLD1,"2002/03/14 19:30",6103.69,27.78,TRADE
QLD1,"2002/03/14 20:00",6021.11167,25.72,TRADE
QLD1,"2002/03/14 20:30",5837.43,24.2,TRADE
QLD1,"2002/03/14 21:00",5705.385,21.39,TRADE
QLD1,"2002/03/14 21:30",5566.04833,21.68,TRADE
QLD1,"2002/03/14 22:00",5414.105,20.99,TRADE
QLD1,"2002/03/14 22:30",5360.595,24.71,TRADE
QLD1,"2002/03/14 23:00",5261.23667,23.01,TRADE
QLD1,"2002/03/14 23:30",5217.215,27.6,TRADE
QLD1,"2002/03/15 00:00",5008.945,25,TRADE
QLD1,"2002/03/15 00:30",4745.81667,22.43,TRADE
QLD1,"2002/03/15 01:00",4633.32333,20.57,TRADE
QLD1,"2002/03/15 01:30",4458.34667,19.5,TRADE
QLD1,"2002/03/15 02:00",4307.53833,17.79,TRADE
QLD1,"2002/03/15 02:30",4245.27,16.06,TRADE
QLD1,"2002/03/15 03:00",4155.59333,15.83,TRADE
QLD1,"2002/03/15 03:30",4181.265,14.85,TRADE
QLD1,"2002/03/15 04:00",4144.23,14.44,TRADE
QLD1,"2002/03/15 04:30",4168.19,16.22,TRADE
QLD1,"2002/03/15 05:00",4271.93167,17.67,TRADE
QLD1,"2002/03/15 05:30",4425.95,20.05,TRADE
QLD1,"2002/03/15 06:00",4596.95167,24.27,TRADE
QLD1,"2002/03/15 06:30",4985.14667,27.6,TRADE
QLD1,"2002/03/15 07:00",5301.17667,38.32,TRADE
QLD1,"2002/03/15 07:30",5629.22333,25.1,TRADE
QLD1,"2002/03/15 08:00",5817.70833,23.12,TRADE
QLD1,"2002/03/15 08:30",5914.805,24.87,TRADE
QLD1,"2002/03/15 09:00",5980.74,25.37,TRADE
QLD1,"2002/03/15 09:30",6055.72,28.51,TRADE
QLD1,"2002/03/15 10:00",6062.33,30.2,TRADE
QLD1,"2002/03/15 10:30",6039.36167,28.76,TRADE
QLD1,"2002/03/15 11:00",6048.74667,29.76,TRADE
QLD1,"2002/03/15 11:30",6053.73333,25.87,TRADE
QLD1,"2002/03/15 12:00",6106.075,29.62,TRADE
QLD1,"2002/03/15 12:30",6056.27333,27.36,TRADE
QLD1,"2002/03/15 13:00",6043.11667,26.19,TRADE
QLD1,"2002/03/15 13:30",6060.81833,25.24,TRADE
QLD1,"2002/03/15 14:00",6033.09667,25.71,TRADE
QLD1,"2002/03/15 14:30",5994.99667,25.14,TRADE
QLD1,"2002/03/15 15:00",6002.94,23.98,TRADE
QLD1,"2002/03/15 15:30",5966.76667,24.77,TRADE
QLD1,"2002/03/15 16:00",5955.105,24.56,TRADE
QLD1,"2002/03/15 16:30",5936.66,23.18,TRADE
QLD1,"2002/03/15 17:00",5945.85333,23.67,TRADE
QLD1,"2002/03/15 17:30",5858.29333,21.01,TRADE
QLD1,"2002/03/15 18:00",5789.385,19.96,TRADE
QLD1,"2002/03/15 18:30",5808.7,22.96,TRADE
QLD1,"2002/03/15 19:00",5937.24667,25.09,TRADE
QLD1,"2002/03/15 19:30",5899.765,28.57,TRADE
QLD1,"2002/03/15 20:00",5774.98167,25.38,TRADE
QLD1,"2002/03/15 20:30",5601.02667,23.24,TRADE
QLD1,"2002/03/15 21:00",5494.62667,21.93,TRADE
QLD1,"2002/03/15 21:30",5437.10333,23.15,TRADE
QLD1,"2002/03/15 22:00",5382.205,22.98,TRADE
QLD1,"2002/03/15 22:30",5354.76,41.33,TRADE
QLD1,"2002/03/15 23:00",5235.875,38.47,TRADE
QLD1,"2002/03/15 23:30",5240.82,49.23,TRADE
QLD1,"2002/03/16 00:00",4993.425,35.51,TRADE
QLD1,"2002/03/16 00:30",4701.67333,26.01,TRADE
QLD1,"2002/03/16 01:00",4570.195,22.7,TRADE
QLD1,"2002/03/16 01:30",4406.425,22.76,TRADE
QLD1,"2002/03/16 02:00",4268.03667,19.44,TRADE
QLD1,"2002/03/16 02:30",4125.53,17.59,TRADE
QLD1,"2002/03/16 03:00",4048.29,16.67,TRADE
QLD1,"2002/03/16 03:30",4041.49833,16.04,TRADE
QLD1,"2002/03/16 04:00",4011.93833,15.95,TRADE
QLD1,"2002/03/16 04:30",4001.21,16.69,TRADE
QLD1,"2002/03/16 05:00",4052.33,18,TRADE
QLD1,"2002/03/16 05:30",4076.00833,18.08,TRADE
QLD1,"2002/03/16 06:00",4181.48,18.96,TRADE
QLD1,"2002/03/16 06:30",4337.91667,20.25,TRADE
QLD1,"2002/03/16 07:00",4498.56333,22.11,TRADE
QLD1,"2002/03/16 07:30",4800.87,25.82,TRADE
QLD1,"2002/03/16 08:00",5017.51333,36.03,TRADE
QLD1,"2002/03/16 08:30",5237.755,39.11,TRADE
QLD1,"2002/03/16 09:00",5395.56,38.95,TRADE
QLD1,"2002/03/16 09:30",5484.11,39.22,TRADE
QLD1,"2002/03/16 10:00",5506.87833,39.07,TRADE
QLD1,"2002/03/16 10:30",5525.31333,38.29,TRADE
QLD1,"2002/03/16 11:00",5480.01167,36.79,TRADE
QLD1,"2002/03/16 11:30",5479.055,35.92,TRADE
QLD1,"2002/03/16 12:00",5487.01833,36.32,TRADE
QLD1,"2002/03/16 12:30",5420.32667,36.39,TRADE
QLD1,"2002/03/16 13:00",5407.83833,37.83,TRADE
QLD1,"2002/03/16 13:30",5360.775,33.92,TRADE
QLD1,"2002/03/16 14:00",5382.82333,36.72,TRADE
QLD1,"2002/03/16 14:30",5366.575,37.63,TRADE
QLD1,"2002/03/16 15:00",5350.03,36.89,TRADE
QLD1,"2002/03/16 15:30",5323.22833,37.09,TRADE
QLD1,"2002/03/16 16:00",5360.66833,40.93,TRADE
QLD1,"2002/03/16 16:30",5313.45667,37.42,TRADE
QLD1,"2002/03/16 17:00",5347.60333,39.27,TRADE
QLD1,"2002/03/16 17:30",5384.90167,39.2,TRADE
QLD1,"2002/03/16 18:00",5460.31333,39.84,TRADE
QLD1,"2002/03/16 18:30",5577.40167,41.41,TRADE
QLD1,"2002/03/16 19:00",5734.285,44.64,TRADE
QLD1,"2002/03/16 19:30",5618.68667,41.11,TRADE
QLD1,"2002/03/16 20:00",5504.46,34.62,TRADE
QLD1,"2002/03/16 20:30",5295.46833,28.61,TRADE
QLD1,"2002/03/16 21:00",5187.47667,25.58,TRADE
QLD1,"2002/03/16 21:30",5109.565,25.05,TRADE
QLD1,"2002/03/16 22:00",5044.26,23.26,TRADE
QLD1,"2002/03/16 22:30",4995.32167,23.49,TRADE
QLD1,"2002/03/16 23:00",4960.02167,21.99,TRADE
QLD1,"2002/03/16 23:30",4976.48333,25.07,TRADE
QLD1,"2002/03/17 00:00",4794.72167,22.73,TRADE
QLD1,"2002/03/17 00:30",4588.03167,20.73,TRADE
QLD1,"2002/03/17 01:00",4450.78333,19.8,TRADE
QLD1,"2002/03/17 01:30",4312.575,19.73,TRADE
QLD1,"2002/03/17 02:00",4151.82,18.1,TRADE
QLD1,"2002/03/17 02:30",4022.86,16.14,TRADE
QLD1,"2002/03/17 03:00",3988.03667,16.36,TRADE
QLD1,"2002/03/17 03:30",3949.54,14,TRADE
QLD1,"2002/03/17 04:00",3901.445,13.79,TRADE
QLD1,"2002/03/17 04:30",3886.07167,13.99,TRADE
QLD1,"2002/03/17 05:00",3929.225,14.65,TRADE
QLD1,"2002/03/17 05:30",3937.55167,16.95,TRADE
QLD1,"2002/03/17 06:00",3978.26,17.48,TRADE
QLD1,"2002/03/17 06:30",4042.45,17.6,TRADE
QLD1,"2002/03/17 07:00",4162.425,17.97,TRADE
QLD1,"2002/03/17 07:30",4338.92833,18.53,TRADE
QLD1,"2002/03/17 08:00",4581.20667,20.55,TRADE
QLD1,"2002/03/17 08:30",4775.89,22.22,TRADE
QLD1,"2002/03/17 09:00",4894.77833,24.99,TRADE
QLD1,"2002/03/17 09:30",5021.34667,28.02,TRADE
QLD1,"2002/03/17 10:00",5086.66333,33.34,TRADE
QLD1,"2002/03/17 10:30",5116.22167,33.73,TRADE
QLD1,"2002/03/17 11:00",5138.60833,29.51,TRADE
QLD1,"2002/03/17 11:30",5181.405,29.11,TRADE
QLD1,"2002/03/17 12:00",5250.30667,31.52,TRADE
QLD1,"2002/03/17 12:30",5270.35833,38.23,TRADE
QLD1,"2002/03/17 13:00",5283.06333,35.79,TRADE
QLD1,"2002/03/17 13:30",5285.01833,37.89,TRADE
QLD1,"2002/03/17 14:00",5293.11167,39.77,TRADE
QLD1,"2002/03/17 14:30",5295.81,39.89,TRADE
QLD1,"2002/03/17 15:00",5346.56333,41.06,TRADE
QLD1,"2002/03/17 15:30",5364.00333,49.26,TRADE
QLD1,"2002/03/17 16:00",5378.95333,45.1,TRADE
QLD1,"2002/03/17 16:30",5407.34167,43.51,TRADE
QLD1,"2002/03/17 17:00",5444.055,50.2,TRADE
QLD1,"2002/03/17 17:30",5544.25,62.86,TRADE
QLD1,"2002/03/17 18:00",5603.12,68.27,TRADE
QLD1,"2002/03/17 18:30",5779.62667,68.4,TRADE
QLD1,"2002/03/17 19:00",6029.60833,95.65,TRADE
QLD1,"2002/03/17 19:30",5940.07667,79.82,TRADE
QLD1,"2002/03/17 20:00",5868.76,63.05,TRADE
QLD1,"2002/03/17 20:30",5654.345,41.32,TRADE
QLD1,"2002/03/17 21:00",5527.31333,35.6,TRADE
QLD1,"2002/03/17 21:30",5406.09833,31.07,TRADE
QLD1,"2002/03/17 22:00",5180.59833,24.02,TRADE
QLD1,"2002/03/17 22:30",5134.75667,23.79,TRADE
QLD1,"2002/03/17 23:00",5062.66,22.01,TRADE
QLD1,"2002/03/17 23:30",5046.735,23.75,TRADE
QLD1,"2002/03/18 00:00",4860.26333,22.08,TRADE
QLD1,"2002/03/18 00:30",4650.555,22.14,TRADE
QLD1,"2002/03/18 01:00",4560.71167,22.15,TRADE
QLD1,"2002/03/18 01:30",4426.81,21.74,TRADE
QLD1,"2002/03/18 02:00",4263.675,20.85,TRADE
QLD1,"2002/03/18 02:30",4164.31333,19.73,TRADE
QLD1,"2002/03/18 03:00",4160.045,20,TRADE
QLD1,"2002/03/18 03:30",4162.04333,19.07,TRADE
QLD1,"2002/03/18 04:00",4139.375,19.05,TRADE
QLD1,"2002/03/18 04:30",4179.92667,19.03,TRADE
QLD1,"2002/03/18 05:00",4225.045,20.69,TRADE
QLD1,"2002/03/18 05:30",4388.92833,24.76,TRADE
QLD1,"2002/03/18 06:00",4590.45167,31.97,TRADE
QLD1,"2002/03/18 06:30",4969.85667,27.7,TRADE
QLD1,"2002/03/18 07:00",5353.105,33.1,TRADE
QLD1,"2002/03/18 07:30",5771.315,39.45,TRADE
QLD1,"2002/03/18 08:00",6007.40167,47.38,TRADE
QLD1,"2002/03/18 08:30",6185.93,45.53,TRADE
QLD1,"2002/03/18 09:00",6272.13167,46.07,TRADE
QLD1,"2002/03/18 09:30",6399.37333,47.11,TRADE
QLD1,"2002/03/18 10:00",6422.70333,47.13,TRADE
QLD1,"2002/03/18 10:30",6479.96333,46.81,TRADE
QLD1,"2002/03/18 11:00",6530.61833,44.63,TRADE
QLD1,"2002/03/18 11:30",6578.875,45.67,TRADE
QLD1,"2002/03/18 12:00",6606.95,46.26,TRADE
QLD1,"2002/03/18 12:30",6642.05333,48,TRADE
QLD1,"2002/03/18 13:00",6639.38833,52.98,TRADE
QLD1,"2002/03/18 13:30",6706.53833,76.8,TRADE
QLD1,"2002/03/18 14:00",6714.645,180.81,TRADE
QLD1,"2002/03/18 14:30",6644.52667,176.33,TRADE
QLD1,"2002/03/18 15:00",6676.235,101.87,TRADE
QLD1,"2002/03/18 15:30",6693.14333,108.21,TRADE
QLD1,"2002/03/18 16:00",6702.74167,108.66,TRADE
QLD1,"2002/03/18 16:30",6712.17833,298.06,TRADE
QLD1,"2002/03/18 17:00",6704.305,76.77,TRADE
QLD1,"2002/03/18 17:30",6558.06333,46.95,TRADE
QLD1,"2002/03/18 18:00",6540.555,37.84,TRADE
QLD1,"2002/03/18 18:30",6582.30333,40.55,TRADE
QLD1,"2002/03/18 19:00",6727.52667,402.33,TRADE
QLD1,"2002/03/18 19:30",6511.73667,71.63,TRADE
QLD1,"2002/03/18 20:00",6442.83833,42.43,TRADE
QLD1,"2002/03/18 20:30",6258.19667,34.3,TRADE
QLD1,"2002/03/18 21:00",6119.275,28.16,TRADE
QLD1,"2002/03/18 21:30",6000.67333,28.01,TRADE
QLD1,"2002/03/18 22:00",5837.34167,21.22,TRADE
QLD1,"2002/03/18 22:30",5750.825,34.98,TRADE
QLD1,"2002/03/18 23:00",5515.40833,22.71,TRADE
QLD1,"2002/03/18 23:30",5426.23667,27.95,TRADE
QLD1,"2002/03/19 00:00",5169.60833,24.37,TRADE
QLD1,"2002/03/19 00:30",4930.23833,22.82,TRADE
QLD1,"2002/03/19 01:00",4773.59,23.13,TRADE
QLD1,"2002/03/19 01:30",4634.56333,20.77,TRADE
QLD1,"2002/03/19 02:00",4498.235,17.59,TRADE
QLD1,"2002/03/19 02:30",4408.70167,17.9,TRADE
QLD1,"2002/03/19 03:00",4382.52333,18,TRADE
QLD1,"2002/03/19 03:30",4370.77667,17.64,TRADE
QLD1,"2002/03/19 04:00",4341.98,17.93,TRADE
QLD1,"2002/03/19 04:30",4382.76667,18.15,TRADE
QLD1,"2002/03/19 05:00",4485.53,19.38,TRADE
QLD1,"2002/03/19 05:30",4636.64167,20.86,TRADE
QLD1,"2002/03/19 06:00",4810.26333,24.28,TRADE
QLD1,"2002/03/19 06:30",5182.05,23.52,TRADE
QLD1,"2002/03/19 07:00",5544.94,29.42,TRADE
QLD1,"2002/03/19 07:30",5914.075,28.06,TRADE
QLD1,"2002/03/19 08:00",6130.11333,30.96,TRADE
QLD1,"2002/03/19 08:30",6252.84167,29.69,TRADE
QLD1,"2002/03/19 09:00",6322.34333,29.83,TRADE
QLD1,"2002/03/19 09:30",6399.89167,38.07,TRADE
QLD1,"2002/03/19 10:00",6400.995,38.62,TRADE
QLD1,"2002/03/19 10:30",6427.245,40.25,TRADE
QLD1,"2002/03/19 11:00",6484.77,42.06,TRADE
QLD1,"2002/03/19 11:30",6531.59,44.21,TRADE
QLD1,"2002/03/19 12:00",6587.755,46.67,TRADE
QLD1,"2002/03/19 12:30",6628.8,48.86,TRADE
QLD1,"2002/03/19 13:00",6681.26333,50.57,TRADE
QLD1,"2002/03/19 13:30",6746.495,55.05,TRADE
QLD1,"2002/03/19 14:00",6698.98167,49.85,TRADE
QLD1,"2002/03/19 14:30",6756.43833,53.37,TRADE
QLD1,"2002/03/19 15:00",6743.79,50.67,TRADE
QLD1,"2002/03/19 15:30",6730.08833,43.4,TRADE
QLD1,"2002/03/19 16:00",6707.47667,53.26,TRADE
QLD1,"2002/03/19 16:30",6712.72167,97.95,TRADE
QLD1,"2002/03/19 17:00",6676.66,45.92,TRADE
QLD1,"2002/03/19 17:30",6564.18167,28.68,TRADE
QLD1,"2002/03/19 18:00",6546.86833,26.18,TRADE
QLD1,"2002/03/19 18:30",6565.31,34.13,TRADE
QLD1,"2002/03/19 19:00",6665.78167,209.24,TRADE
QLD1,"2002/03/19 19:30",6485.28833,66.98,TRADE
QLD1,"2002/03/19 20:00",6369.19833,29.56,TRADE
QLD1,"2002/03/19 20:30",6143.37667,23.67,TRADE
QLD1,"2002/03/19 21:00",6019.74333,21.83,TRADE
QLD1,"2002/03/19 21:30",5878.845,22.06,TRADE
QLD1,"2002/03/19 22:00",5731.64333,20.74,TRADE
QLD1,"2002/03/19 22:30",5628.08167,29.15,TRADE
QLD1,"2002/03/19 23:00",5467.65833,25.66,TRADE
QLD1,"2002/03/19 23:30",5444.535,28.42,TRADE
QLD1,"2002/03/20 00:00",5155.79167,23.32,TRADE
QLD1,"2002/03/20 00:30",4883.87167,20.88,TRADE
QLD1,"2002/03/20 01:00",4722.87,19.14,TRADE
QLD1,"2002/03/20 01:30",4569.67333,18.22,TRADE
QLD1,"2002/03/20 02:00",4424.89,17.12,TRADE
QLD1,"2002/03/20 02:30",4348.06833,15.96,TRADE
QLD1,"2002/03/20 03:00",4284.08667,16.16,TRADE
QLD1,"2002/03/20 03:30",4276.455,15.65,TRADE
QLD1,"2002/03/20 04:00",4279.765,16.37,TRADE
QLD1,"2002/03/20 04:30",4277.44667,16.94,TRADE
QLD1,"2002/03/20 05:00",4346.47,17.1,TRADE
QLD1,"2002/03/20 05:30",4521.73833,19.09,TRADE
QLD1,"2002/03/20 06:00",4678.07667,19.85,TRADE
QLD1,"2002/03/20 06:30",5040.64333,20.44,TRADE
QLD1,"2002/03/20 07:00",5448.45333,26.99,TRADE
QLD1,"2002/03/20 07:30",5809.42,26.36,TRADE
QLD1,"2002/03/20 08:00",6063.27,29.87,TRADE
QLD1,"2002/03/20 08:30",6189.96667,32.56,TRADE
QLD1,"2002/03/20 09:00",6251.205,27.57,TRADE
QLD1,"2002/03/20 09:30",6339.515,31.26,TRADE
QLD1,"2002/03/20 10:00",6384.455,37.78,TRADE
QLD1,"2002/03/20 10:30",6377.05333,35.23,TRADE
QLD1,"2002/03/20 11:00",6443.17667,37.19,TRADE
QLD1,"2002/03/20 11:30",6541.18833,39.69,TRADE
QLD1,"2002/03/20 12:00",6563.855,44.25,TRADE
QLD1,"2002/03/20 12:30",6544.585,39.11,TRADE
QLD1,"2002/03/20 13:00",6568.11667,42.81,TRADE
QLD1,"2002/03/20 13:30",6648.23,48.26,TRADE
QLD1,"2002/03/20 14:00",6650.385,56.98,TRADE
QLD1,"2002/03/20 14:30",6720.225,52.67,TRADE
QLD1,"2002/03/20 15:00",6642.925,51.99,TRADE
QLD1,"2002/03/20 15:30",6650.98167,63.8,TRADE
QLD1,"2002/03/20 16:00",6640.28167,107.24,TRADE
QLD1,"2002/03/20 16:30",6633.69,56.78,TRADE
QLD1,"2002/03/20 17:00",6648.22167,47.32,TRADE
QLD1,"2002/03/20 17:30",6565.21333,39.8,TRADE
QLD1,"2002/03/20 18:00",6477.72667,32.12,TRADE
QLD1,"2002/03/20 18:30",6523.025,32.05,TRADE
QLD1,"2002/03/20 19:00",6634.90833,37.94,TRADE
QLD1,"2002/03/20 19:30",6466.90667,39.74,TRADE
QLD1,"2002/03/20 20:00",6307.74333,32.11,TRADE
QLD1,"2002/03/20 20:30",6087.075,24.1,TRADE
QLD1,"2002/03/20 21:00",5951.99667,21.39,TRADE
QLD1,"2002/03/20 21:30",5915.65667,24.87,TRADE
QLD1,"2002/03/20 22:00",5761.035,20.53,TRADE
QLD1,"2002/03/20 22:30",5625.35167,25,TRADE
QLD1,"2002/03/20 23:00",5495.01667,21.31,TRADE
QLD1,"2002/03/20 23:30",5424.55167,24.74,TRADE
QLD1,"2002/03/21 00:00",5144.225,21.16,TRADE
QLD1,"2002/03/21 00:30",4887.08333,19.85,TRADE
QLD1,"2002/03/21 01:00",4742.27667,18.23,TRADE
QLD1,"2002/03/21 01:30",4555.19833,18.18,TRADE
QLD1,"2002/03/21 02:00",4448.28667,15.99,TRADE
QLD1,"2002/03/21 02:30",4374.99167,15.69,TRADE
QLD1,"2002/03/21 03:00",4371.44833,16.21,TRADE
QLD1,"2002/03/21 03:30",4342.41,15.15,TRADE
QLD1,"2002/03/21 04:00",4328.765,15.46,TRADE
QLD1,"2002/03/21 04:30",4313.83,14.24,TRADE
QLD1,"2002/03/21 05:00",4364.24,16.48,TRADE
QLD1,"2002/03/21 05:30",4539.87667,17.98,TRADE
QLD1,"2002/03/21 06:00",4726.535,19.88,TRADE
QLD1,"2002/03/21 06:30",5091.67167,20.46,TRADE
QLD1,"2002/03/21 07:00",5465.475,22.32,TRADE
QLD1,"2002/03/21 07:30",5873.045,24,TRADE
QLD1,"2002/03/21 08:00",6063.89667,24.1,TRADE
QLD1,"2002/03/21 08:30",6203.79167,24.68,TRADE
QLD1,"2002/03/21 09:00",6272.60667,24.92,TRADE
QLD1,"2002/03/21 09:30",6399.71167,25.37,TRADE
QLD1,"2002/03/21 10:00",6395.22167,25.44,TRADE
QLD1,"2002/03/21 10:30",6402.68167,25.72,TRADE
QLD1,"2002/03/21 11:00",6468.19167,30.51,TRADE
QLD1,"2002/03/21 11:30",6513.27833,32.28,TRADE
QLD1,"2002/03/21 12:00",6542.57167,33.64,TRADE
QLD1,"2002/03/21 12:30",6565.66833,37.9,TRADE
QLD1,"2002/03/21 13:00",6581.875,39.24,TRADE
QLD1,"2002/03/21 13:30",6629.745,36.16,TRADE
QLD1,"2002/03/21 14:00",6661.625,33.34,TRADE
QLD1,"2002/03/21 14:30",6694.32667,33.01,TRADE
QLD1,"2002/03/21 15:00",6675.74,31.1,TRADE
QLD1,"2002/03/21 15:30",6682.44667,32.32,TRADE
QLD1,"2002/03/21 16:00",6657.695,33.94,TRADE
QLD1,"2002/03/21 16:30",6618.11167,26.88,TRADE
QLD1,"2002/03/21 17:00",6599.85,26.9,TRADE
QLD1,"2002/03/21 17:30",6540.62,25.61,TRADE
QLD1,"2002/03/21 18:00",6557.785,25.72,TRADE
QLD1,"2002/03/21 18:30",6617.405,27.83,TRADE
QLD1,"2002/03/21 19:00",6714.87667,32.67,TRADE
QLD1,"2002/03/21 19:30",6575.27833,30.61,TRADE
QLD1,"2002/03/21 20:00",6467.91,27.35,TRADE
QLD1,"2002/03/21 20:30",6260.27333,21.6,TRADE
QLD1,"2002/03/21 21:00",6107.09667,19.64,TRADE
QLD1,"2002/03/21 21:30",5936.21167,20.5,TRADE
QLD1,"2002/03/21 22:00",5790.17,20.16,TRADE
QLD1,"2002/03/21 22:30",5707.48333,23.68,TRADE
QLD1,"2002/03/21 23:00",5550.50667,20.68,TRADE
QLD1,"2002/03/21 23:30",5502.14667,24.44,TRADE
QLD1,"2002/03/22 00:00",5246.47333,21.93,TRADE
QLD1,"2002/03/22 00:30",4975.09167,20.51,TRADE
QLD1,"2002/03/22 01:00",4827.64,18.98,TRADE
QLD1,"2002/03/22 01:30",4623.21,17.94,TRADE
QLD1,"2002/03/22 02:00",4470.14,15.35,TRADE
QLD1,"2002/03/22 02:30",4390.96333,13.15,TRADE
QLD1,"2002/03/22 03:00",4384.58167,13.94,TRADE
QLD1,"2002/03/22 03:30",4372.32167,14.12,TRADE
QLD1,"2002/03/22 04:00",4365.17667,13.88,TRADE
QLD1,"2002/03/22 04:30",4374.185,14.46,TRADE
QLD1,"2002/03/22 05:00",4477.02833,16.62,TRADE
QLD1,"2002/03/22 05:30",4656.86167,18.17,TRADE
QLD1,"2002/03/22 06:00",4817.53833,20.23,TRADE
QLD1,"2002/03/22 06:30",5115.68667,20.68,TRADE
QLD1,"2002/03/22 07:00",5491.66333,24.4,TRADE
QLD1,"2002/03/22 07:30",5841.48667,26.22,TRADE
QLD1,"2002/03/22 08:00",6051.36,25.8,TRADE
QLD1,"2002/03/22 08:30",6184.45333,25.94,TRADE
QLD1,"2002/03/22 09:00",6220.33,25.01,TRADE
QLD1,"2002/03/22 09:30",6296.43833,25.3,TRADE
QLD1,"2002/03/22 10:00",6305.13833,25.55,TRADE
QLD1,"2002/03/22 10:30",6287.52167,25.24,TRADE
QLD1,"2002/03/22 11:00",6262.235,25.11,TRADE
QLD1,"2002/03/22 11:30",6269.85333,25.08,TRADE
QLD1,"2002/03/22 12:00",6307.87,25.86,TRADE
QLD1,"2002/03/22 12:30",6254.7,28.91,TRADE
QLD1,"2002/03/22 13:00",6238.25833,26.28,TRADE
QLD1,"2002/03/22 13:30",6209.065,25.74,TRADE
QLD1,"2002/03/22 14:00",6219.93667,25.58,TRADE
QLD1,"2002/03/22 14:30",6171.56833,23.16,TRADE
QLD1,"2002/03/22 15:00",6121.55,22.89,TRADE
QLD1,"2002/03/22 15:30",6051.93667,22.12,TRADE
QLD1,"2002/03/22 16:00",6072.20833,22.17,TRADE
QLD1,"2002/03/22 16:30",6043.565,21.67,TRADE
QLD1,"2002/03/22 17:00",6066.96833,20.81,TRADE
QLD1,"2002/03/22 17:30",6015.03333,20.22,TRADE
QLD1,"2002/03/22 18:00",5922.38667,19.11,TRADE
QLD1,"2002/03/22 18:30",5957.18167,19.82,TRADE
QLD1,"2002/03/22 19:00",6009.88333,20.7,TRADE
QLD1,"2002/03/22 19:30",5886.05,20.83,TRADE
QLD1,"2002/03/22 20:00",5768.45667,19.15,TRADE
QLD1,"2002/03/22 20:30",5607.02167,17.69,TRADE
QLD1,"2002/03/22 21:00",5508.34,16.62,TRADE
QLD1,"2002/03/22 21:30",5484.84333,18.92,TRADE
QLD1,"2002/03/22 22:00",5428.085,18.99,TRADE
QLD1,"2002/03/22 22:30",5369.78667,23.98,TRADE
QLD1,"2002/03/22 23:00",5306.01833,22.53,TRADE
QLD1,"2002/03/22 23:30",5316.68333,25.1,TRADE
QLD1,"2002/03/23 00:00",5067.54333,22.36,TRADE
QLD1,"2002/03/23 00:30",4813.73333,24.29,TRADE
QLD1,"2002/03/23 01:00",4628.37,22.23,TRADE
QLD1,"2002/03/23 01:30",4485.75,21.17,TRADE
QLD1,"2002/03/23 02:00",4321.78833,18.23,TRADE
QLD1,"2002/03/23 02:30",4198.89833,16.55,TRADE
QLD1,"2002/03/23 03:00",4185.74,15.77,TRADE
QLD1,"2002/03/23 03:30",4125.99833,13.98,TRADE
QLD1,"2002/03/23 04:00",4068.68,12.82,TRADE
QLD1,"2002/03/23 04:30",4117.24,12.58,TRADE
QLD1,"2002/03/23 05:00",4126.275,12.93,TRADE
QLD1,"2002/03/23 05:30",4200.48167,14.46,TRADE
QLD1,"2002/03/23 06:00",4281.405,16.33,TRADE
QLD1,"2002/03/23 06:30",4414.06,17.79,TRADE
QLD1,"2002/03/23 07:00",4585.74,19.52,TRADE
QLD1,"2002/03/23 07:30",4884.10333,20.25,TRADE
QLD1,"2002/03/23 08:00",5098.015,20.5,TRADE
QLD1,"2002/03/23 08:30",5322.74,22.92,TRADE
QLD1,"2002/03/23 09:00",5472.27333,26.85,TRADE
QLD1,"2002/03/23 09:30",5543.895,29.94,TRADE
QLD1,"2002/03/23 10:00",5554.985,26.87,TRADE
QLD1,"2002/03/23 10:30",5486.33833,27.01,TRADE
QLD1,"2002/03/23 11:00",5508.65333,30.34,TRADE
QLD1,"2002/03/23 11:30",5475.15,27.55,TRADE
QLD1,"2002/03/23 12:00",5439.325,24.39,TRADE
QLD1,"2002/03/23 12:30",5423.47833,25.05,TRADE
QLD1,"2002/03/23 13:00",5397.01833,22.43,TRADE
QLD1,"2002/03/23 13:30",5330.70667,20.83,TRADE
QLD1,"2002/03/23 14:00",5322.12667,20.67,TRADE
QLD1,"2002/03/23 14:30",5276.315,20.5,TRADE
QLD1,"2002/03/23 15:00",5235.23167,20.58,TRADE
QLD1,"2002/03/23 15:30",5227.835,24.92,TRADE
QLD1,"2002/03/23 16:00",5231.54667,29.04,TRADE
QLD1,"2002/03/23 16:30",5219.32667,23.34,TRADE
QLD1,"2002/03/23 17:00",5265.69167,28.38,TRADE
QLD1,"2002/03/23 17:30",5323.04167,29.98,TRADE
QLD1,"2002/03/23 18:00",5412.48833,29.51,TRADE
QLD1,"2002/03/23 18:30",5640.695,31.35,TRADE
QLD1,"2002/03/23 19:00",5727.13167,35.54,TRADE
QLD1,"2002/03/23 19:30",5573.63,30.94,TRADE
QLD1,"2002/03/23 20:00",5410.85833,28.36,TRADE
QLD1,"2002/03/23 20:30",5231.46167,23.91,TRADE
QLD1,"2002/03/23 21:00",5114.63833,21.62,TRADE
QLD1,"2002/03/23 21:30",5075.99333,22.07,TRADE
QLD1,"2002/03/23 22:00",4954.57,20.4,TRADE
QLD1,"2002/03/23 22:30",4931.155,20,TRADE
QLD1,"2002/03/23 23:00",4903.795,19.06,TRADE
QLD1,"2002/03/23 23:30",4950.08667,20.11,TRADE
QLD1,"2002/03/24 00:00",4753.60667,18.78,TRADE
QLD1,"2002/03/24 00:30",4456.53833,16.7,TRADE
QLD1,"2002/03/24 01:00",4363.41167,15.33,TRADE
QLD1,"2002/03/24 01:30",4210.305,16.38,TRADE
QLD1,"2002/03/24 02:00",4098.75833,13.49,TRADE
QLD1,"2002/03/24 02:30",4001.18833,12.42,TRADE
QLD1,"2002/03/24 03:00",3902.33167,10.76,TRADE
QLD1,"2002/03/24 03:30",3884.155,10.25,TRADE
QLD1,"2002/03/24 04:00",3864.96,10.87,TRADE
QLD1,"2002/03/24 04:30",3840.335,8.64,TRADE
QLD1,"2002/03/24 05:00",3880.59,10.76,TRADE
QLD1,"2002/03/24 05:30",3901.65167,12.09,TRADE
QLD1,"2002/03/24 06:00",3942.92,12.13,TRADE
QLD1,"2002/03/24 06:30",3986.63,12.68,TRADE
QLD1,"2002/03/24 07:00",4192.41833,14.49,TRADE
QLD1,"2002/03/24 07:30",4389.03833,15.48,TRADE
QLD1,"2002/03/24 08:00",4654.22167,18.02,TRADE
QLD1,"2002/03/24 08:30",4820.42833,19.58,TRADE
QLD1,"2002/03/24 09:00",4927.26667,20.5,TRADE
QLD1,"2002/03/24 09:30",5001.85667,20.5,TRADE
QLD1,"2002/03/24 10:00",5069.055,20.5,TRADE
QLD1,"2002/03/24 10:30",5079.92667,20.5,TRADE
QLD1,"2002/03/24 11:00",5062.035,20.5,TRADE
QLD1,"2002/03/24 11:30",5075.71667,20.5,TRADE
QLD1,"2002/03/24 12:00",5062.42833,20.53,TRADE
QLD1,"2002/03/24 12:30",5073.28333,22.77,TRADE
QLD1,"2002/03/24 13:00",5058.695,23.3,TRADE
QLD1,"2002/03/24 13:30",5043.02,28.01,TRADE
QLD1,"2002/03/24 14:00",5017.06333,26.97,TRADE
QLD1,"2002/03/24 14:30",4989.675,25.47,TRADE
QLD1,"2002/03/24 15:00",5015.54,26.9,TRADE
QLD1,"2002/03/24 15:30",5012.67,28.59,TRADE
QLD1,"2002/03/24 16:00",5036.50167,29.54,TRADE
QLD1,"2002/03/24 16:30",5052.455,29.04,TRADE
QLD1,"2002/03/24 17:00",5086.195,30.45,TRADE
QLD1,"2002/03/24 17:30",5214.21167,30.5,TRADE
QLD1,"2002/03/24 18:00",5414.03333,30.5,TRADE
QLD1,"2002/03/24 18:30",5668.45167,37.5,TRADE
QLD1,"2002/03/24 19:00",5812.985,41.51,TRADE
QLD1,"2002/03/24 19:30",5620.99167,36.43,TRADE
QLD1,"2002/03/24 20:00",5582.68333,31.07,TRADE
QLD1,"2002/03/24 20:30",5376.475,24.6,TRADE
QLD1,"2002/03/24 21:00",5254.37333,21.7,TRADE
QLD1,"2002/03/24 21:30",5171.65333,20.97,TRADE
QLD1,"2002/03/24 22:00",5015.85667,18.72,TRADE
QLD1,"2002/03/24 22:30",5018.27333,19.95,TRADE
QLD1,"2002/03/24 23:00",4927.46333,18.58,TRADE
QLD1,"2002/03/24 23:30",4975.23667,20.25,TRADE
QLD1,"2002/03/25 00:00",4788.47,19.61,TRADE
QLD1,"2002/03/25 00:30",4575.09833,16.87,TRADE
QLD1,"2002/03/25 01:00",4441.47167,17.43,TRADE
QLD1,"2002/03/25 01:30",4335.955,17.29,TRADE
QLD1,"2002/03/25 02:00",4211.37833,14.32,TRADE
QLD1,"2002/03/25 02:30",4130.9,12.97,TRADE
QLD1,"2002/03/25 03:00",4104.05,13.48,TRADE
QLD1,"2002/03/25 03:30",4099.14,12.86,TRADE
QLD1,"2002/03/25 04:00",4063.95,12.73,TRADE
QLD1,"2002/03/25 04:30",4091.78333,13.69,TRADE
QLD1,"2002/03/25 05:00",4143.12,14.39,TRADE
QLD1,"2002/03/25 05:30",4306.04167,17.54,TRADE
QLD1,"2002/03/25 06:00",4535.52,19.3,TRADE
QLD1,"2002/03/25 06:30",4900.06833,20.24,TRADE
QLD1,"2002/03/25 07:00",5336.21167,20.58,TRADE
QLD1,"2002/03/25 07:30",5740.87333,25.78,TRADE
QLD1,"2002/03/25 08:00",5953.32,27.21,TRADE
QLD1,"2002/03/25 08:30",6050.96833,26.41,TRADE
QLD1,"2002/03/25 09:00",6111.64667,25.72,TRADE
QLD1,"2002/03/25 09:30",6160.95833,28.52,TRADE
QLD1,"2002/03/25 10:00",6181.00667,34.88,TRADE
QLD1,"2002/03/25 10:30",6167.29167,33.28,TRADE
QLD1,"2002/03/25 11:00",6102.68333,30.77,TRADE
QLD1,"2002/03/25 11:30",6106.29667,33.01,TRADE
QLD1,"2002/03/25 12:00",6107.20167,38.78,TRADE
QLD1,"2002/03/25 12:30",6084.25333,33.73,TRADE
QLD1,"2002/03/25 13:00",6132.61,36.83,TRADE
QLD1,"2002/03/25 13:30",6144.575,38.5,TRADE
QLD1,"2002/03/25 14:00",6146.54833,39.97,TRADE
QLD1,"2002/03/25 14:30",6196.94333,39.14,TRADE
QLD1,"2002/03/25 15:00",6196.43333,36.65,TRADE
QLD1,"2002/03/25 15:30",6182.22167,32.7,TRADE
QLD1,"2002/03/25 16:00",6162.09333,29.17,TRADE
QLD1,"2002/03/25 16:30",6175.215,24.63,TRADE
QLD1,"2002/03/25 17:00",6176.55167,26.59,TRADE
QLD1,"2002/03/25 17:30",6135.285,23.78,TRADE
QLD1,"2002/03/25 18:00",6145.64167,22.83,TRADE
QLD1,"2002/03/25 18:30",6219.03,25.78,TRADE
QLD1,"2002/03/25 19:00",6281.97833,30.27,TRADE
QLD1,"2002/03/25 19:30",6119.72,26.41,TRADE
QLD1,"2002/03/25 20:00",6001.40333,22.76,TRADE
QLD1,"2002/03/25 20:30",5774.49167,18.97,TRADE
QLD1,"2002/03/25 21:00",5645.33167,18.16,TRADE
QLD1,"2002/03/25 21:30",5616.27667,19.55,TRADE
QLD1,"2002/03/25 22:00",5483.26167,20.03,TRADE
QLD1,"2002/03/25 22:30",5418.36333,25.16,TRADE
QLD1,"2002/03/25 23:00",5307.02167,24.06,TRADE
QLD1,"2002/03/25 23:30",5283.33,25.1,TRADE
QLD1,"2002/03/26 00:00",5100.585,24.04,TRADE
QLD1,"2002/03/26 00:30",4844.02833,20.61,TRADE
QLD1,"2002/03/26 01:00",4686.28,19.54,TRADE
QLD1,"2002/03/26 01:30",4537.05833,19.18,TRADE
QLD1,"2002/03/26 02:00",4317.78833,15.29,TRADE
QLD1,"2002/03/26 02:30",4277.26333,15.4,TRADE
QLD1,"2002/03/26 03:00",4263.33,14.79,TRADE
QLD1,"2002/03/26 03:30",4214.16333,14.22,TRADE
QLD1,"2002/03/26 04:00",4220.67667,14.2,TRADE
QLD1,"2002/03/26 04:30",4264.52667,15.1,TRADE
QLD1,"2002/03/26 05:00",4314.145,17.39,TRADE
QLD1,"2002/03/26 05:30",4504.69167,19.65,TRADE
QLD1,"2002/03/26 06:00",4719.845,19.98,TRADE
QLD1,"2002/03/26 06:30",5024.43,20.5,TRADE
QLD1,"2002/03/26 07:00",5415.285,20.58,TRADE
QLD1,"2002/03/26 07:30",5780.06167,26.13,TRADE
QLD1,"2002/03/26 08:00",6020.22833,32.41,TRADE
QLD1,"2002/03/26 08:30",6143.675,34.12,TRADE
QLD1,"2002/03/26 09:00",6242.90167,36.1,TRADE
QLD1,"2002/03/26 09:30",6257.21,32.68,TRADE
QLD1,"2002/03/26 10:00",6302.225,37.5,TRADE
QLD1,"2002/03/26 10:30",6289.4,34.86,TRADE
QLD1,"2002/03/26 11:00",6319.36,37.92,TRADE
QLD1,"2002/03/26 11:30",6341.61667,38.41,TRADE
QLD1,"2002/03/26 12:00",6361.06,38.96,TRADE
QLD1,"2002/03/26 12:30",6400.29667,38.18,TRADE
QLD1,"2002/03/26 13:00",6411.34667,34.23,TRADE
QLD1,"2002/03/26 13:30",6239.45333,29.2,TRADE
QLD1,"2002/03/26 14:00",6095.17333,29.35,TRADE
QLD1,"2002/03/26 14:30",6101.90333,30.22,TRADE
QLD1,"2002/03/26 15:00",6367.96667,30.8,TRADE
QLD1,"2002/03/26 15:30",6399.57667,32.01,TRADE
QLD1,"2002/03/26 16:00",6389.19833,34.27,TRADE
QLD1,"2002/03/26 16:30",6358.25,30.14,TRADE
QLD1,"2002/03/26 17:00",6354.75667,31.23,TRADE
QLD1,"2002/03/26 17:30",6302.44,25.28,TRADE
QLD1,"2002/03/26 18:00",6316.395,25.53,TRADE
QLD1,"2002/03/26 18:30",6409.62833,30.31,TRADE
QLD1,"2002/03/26 19:00",6446.89167,32.12,TRADE
QLD1,"2002/03/26 19:30",6226.47167,28.5,TRADE
QLD1,"2002/03/26 20:00",6152.09,23.81,TRADE
QLD1,"2002/03/26 20:30",5941.26333,19.4,TRADE
QLD1,"2002/03/26 21:00",5782.86333,17.91,TRADE
QLD1,"2002/03/26 21:30",5678.75333,18.65,TRADE
QLD1,"2002/03/26 22:00",5592.80333,17.66,TRADE
QLD1,"2002/03/26 22:30",5524.82167,23.17,TRADE
QLD1,"2002/03/26 23:00",5400.40167,20.61,TRADE
QLD1,"2002/03/26 23:30",5372.69667,22.71,TRADE
QLD1,"2002/03/27 00:00",5124.50833,20.7,TRADE
QLD1,"2002/03/27 00:30",4851.88333,19.83,TRADE
QLD1,"2002/03/27 01:00",4696.28667,18.91,TRADE
QLD1,"2002/03/27 01:30",4556.36333,18.97,TRADE
QLD1,"2002/03/27 02:00",4429.28833,14.91,TRADE
QLD1,"2002/03/27 02:30",4333.60833,14.72,TRADE
QLD1,"2002/03/27 03:00",4280.425,14.07,TRADE
QLD1,"2002/03/27 03:30",4298.84333,13.13,TRADE
QLD1,"2002/03/27 04:00",4274.47333,13.08,TRADE
QLD1,"2002/03/27 04:30",4270.23167,14.33,TRADE
QLD1,"2002/03/27 05:00",4327.82,16.08,TRADE
QLD1,"2002/03/27 05:30",4486.76,17.23,TRADE
QLD1,"2002/03/27 06:00",4691.585,19.4,TRADE
QLD1,"2002/03/27 06:30",5066.425,21.19,TRADE
QLD1,"2002/03/27 07:00",5483.18667,24.97,TRADE
QLD1,"2002/03/27 07:30",5837.91667,24.33,TRADE
QLD1,"2002/03/27 08:00",5999.20667,23.56,TRADE
QLD1,"2002/03/27 08:30",6119,24.18,TRADE
QLD1,"2002/03/27 09:00",6218.42667,24.63,TRADE
QLD1,"2002/03/27 09:30",6290.51,24.94,TRADE
QLD1,"2002/03/27 10:00",6281.745,24.88,TRADE
QLD1,"2002/03/27 10:30",6275.285,24.87,TRADE
QLD1,"2002/03/27 11:00",6316.50333,25.27,TRADE
QLD1,"2002/03/27 11:30",6346.225,25.12,TRADE
QLD1,"2002/03/27 12:00",6340.65,25.71,TRADE
QLD1,"2002/03/27 12:30",6311.01,25.78,TRADE
QLD1,"2002/03/27 13:00",6339.71333,26.58,TRADE
QLD1,"2002/03/27 13:30",6355.85833,26.59,TRADE
QLD1,"2002/03/27 14:00",6341.29,26.13,TRADE
QLD1,"2002/03/27 14:30",6377.46,26.02,TRADE
QLD1,"2002/03/27 15:00",6332.265,25.47,TRADE
QLD1,"2002/03/27 15:30",6321.345,25.48,TRADE
QLD1,"2002/03/27 16:00",6306.48833,25.17,TRADE
QLD1,"2002/03/27 16:30",6270.52167,24.22,TRADE
QLD1,"2002/03/27 17:00",6259.67333,23.02,TRADE
QLD1,"2002/03/27 17:30",6225.68833,21.72,TRADE
QLD1,"2002/03/27 18:00",6330.91833,22.7,TRADE
QLD1,"2002/03/27 18:30",6422.32333,24.53,TRADE
QLD1,"2002/03/27 19:00",6337.74667,25.89,TRADE
QLD1,"2002/03/27 19:30",6206.03667,24.04,TRADE
QLD1,"2002/03/27 20:00",6054.21167,22.37,TRADE
QLD1,"2002/03/27 20:30",5869.03167,20.27,TRADE
QLD1,"2002/03/27 21:00",5744.55,18.58,TRADE
QLD1,"2002/03/27 21:30",5715.685,19.87,TRADE
QLD1,"2002/03/27 22:00",5591.61333,18.29,TRADE
QLD1,"2002/03/27 22:30",5515.075,21.33,TRADE
QLD1,"2002/03/27 23:00",5382.49,20.5,TRADE
QLD1,"2002/03/27 23:30",5340.705,23.03,TRADE
QLD1,"2002/03/28 00:00",5112.24667,20.58,TRADE
QLD1,"2002/03/28 00:30",4833.75833,18.5,TRADE
QLD1,"2002/03/28 01:00",4645.535,16.01,TRADE
QLD1,"2002/03/28 01:30",4524.78167,16.94,TRADE
QLD1,"2002/03/28 02:00",4373.90667,14.72,TRADE
QLD1,"2002/03/28 02:30",4266.25,12.49,TRADE
QLD1,"2002/03/28 03:00",4259.11667,12.33,TRADE
QLD1,"2002/03/28 03:30",4242.06667,12.16,TRADE
QLD1,"2002/03/28 04:00",4204.83667,12.01,TRADE
QLD1,"2002/03/28 04:30",4251.22667,13.42,TRADE
QLD1,"2002/03/28 05:00",4336.055,14.34,TRADE
QLD1,"2002/03/28 05:30",4533.40833,17.44,TRADE
QLD1,"2002/03/28 06:00",4720.515,19.57,TRADE
QLD1,"2002/03/28 06:30",5054.895,21.46,TRADE
QLD1,"2002/03/28 07:00",5417.25667,24.08,TRADE
QLD1,"2002/03/28 07:30",5794.90167,23.28,TRADE
QLD1,"2002/03/28 08:00",6009.465,23.13,TRADE
QLD1,"2002/03/28 08:30",6095.005,23.78,TRADE
QLD1,"2002/03/28 09:00",6169.21833,24.18,TRADE
QLD1,"2002/03/28 09:30",6200.41,24.63,TRADE
QLD1,"2002/03/28 10:00",6189.48333,24.41,TRADE
QLD1,"2002/03/28 10:30",6218.56,22.69,TRADE
QLD1,"2002/03/28 11:00",6238.54333,23.68,TRADE
QLD1,"2002/03/28 11:30",6238.97333,23.92,TRADE
QLD1,"2002/03/28 12:00",6247.03833,24.97,TRADE
QLD1,"2002/03/28 12:30",6198.06833,24.75,TRADE
QLD1,"2002/03/28 13:00",6218.21667,24.62,TRADE
QLD1,"2002/03/28 13:30",6172.78333,24.58,TRADE
QLD1,"2002/03/28 14:00",6151.56833,24.14,TRADE
QLD1,"2002/03/28 14:30",6113.70833,23.58,TRADE
QLD1,"2002/03/28 15:00",6067.35,23.4,TRADE
QLD1,"2002/03/28 15:30",6029.4,22.14,TRADE
QLD1,"2002/03/28 16:00",6007.57833,21.19,TRADE
QLD1,"2002/03/28 16:30",5999.79333,20.9,TRADE
QLD1,"2002/03/28 17:00",5962.88,21.54,TRADE
QLD1,"2002/03/28 17:30",5950.85333,21.11,TRADE
QLD1,"2002/03/28 18:00",6023.475,21.21,TRADE
QLD1,"2002/03/28 18:30",6062.23,21.77,TRADE
QLD1,"2002/03/28 19:00",6073.20833,23.63,TRADE
QLD1,"2002/03/28 19:30",5911.97333,22.27,TRADE
QLD1,"2002/03/28 20:00",5778.72667,18.97,TRADE
QLD1,"2002/03/28 20:30",5610.47167,17.56,TRADE
QLD1,"2002/03/28 21:00",5478.55333,16.04,TRADE
QLD1,"2002/03/28 21:30",5478.595,18.01,TRADE
QLD1,"2002/03/28 22:00",5355.36167,17.52,TRADE
QLD1,"2002/03/28 22:30",5287.93167,21.12,TRADE
QLD1,"2002/03/28 23:00",5195.88,20.58,TRADE
QLD1,"2002/03/28 23:30",5147.1,24.97,TRADE
QLD1,"2002/03/29 00:00",4906.39167,22.98,TRADE
QLD1,"2002/03/29 00:30",4636.51167,21.12,TRADE
QLD1,"2002/03/29 01:00",4437.305,18.05,TRADE
QLD1,"2002/03/29 01:30",4311.38667,18.18,TRADE
QLD1,"2002/03/29 02:00",4148.085,14.75,TRADE
QLD1,"2002/03/29 02:30",4086.99667,12.55,TRADE
QLD1,"2002/03/29 03:00",4050.67667,12.22,TRADE
QLD1,"2002/03/29 03:30",3997.24167,12.8,TRADE
QLD1,"2002/03/29 04:00",3984.715,12.13,TRADE
QLD1,"2002/03/29 04:30",3979.535,13.14,TRADE
QLD1,"2002/03/29 05:00",4021.56833,13.43,TRADE
QLD1,"2002/03/29 05:30",4051.435,14.48,TRADE
QLD1,"2002/03/29 06:00",4091.49167,13.26,TRADE
QLD1,"2002/03/29 06:30",4162.245,14.17,TRADE
QLD1,"2002/03/29 07:00",4270.905,16.05,TRADE
QLD1,"2002/03/29 07:30",4449.71,16.39,TRADE
QLD1,"2002/03/29 08:00",4647.75833,17.5,TRADE
QLD1,"2002/03/29 08:30",4775.30833,17.91,TRADE
QLD1,"2002/03/29 09:00",4874.165,18.33,TRADE
QLD1,"2002/03/29 09:30",5033.85833,18.46,TRADE
QLD1,"2002/03/29 10:00",5047.045,18.42,TRADE
QLD1,"2002/03/29 10:30",5010.11667,18.01,TRADE
QLD1,"2002/03/29 11:00",4933.14167,18.01,TRADE
QLD1,"2002/03/29 11:30",4882.235,17.82,TRADE
QLD1,"2002/03/29 12:00",4854.07333,17.99,TRADE
QLD1,"2002/03/29 12:30",4839.06833,17.6,TRADE
QLD1,"2002/03/29 13:00",4834.985,17.31,TRADE
QLD1,"2002/03/29 13:30",4756.70833,17.25,TRADE
QLD1,"2002/03/29 14:00",4760.82,17.47,TRADE
QLD1,"2002/03/29 14:30",4714.745,16.81,TRADE
QLD1,"2002/03/29 15:00",4687.21833,17.08,TRADE
QLD1,"2002/03/29 15:30",4706.04167,17.24,TRADE
QLD1,"2002/03/29 16:00",4728.54167,17.58,TRADE
QLD1,"2002/03/29 16:30",4802.155,17.76,TRADE
QLD1,"2002/03/29 17:00",4843.96,17.94,TRADE
QLD1,"2002/03/29 17:30",4976.015,18.01,TRADE
QLD1,"2002/03/29 18:00",5125.35167,18.96,TRADE
QLD1,"2002/03/29 18:30",5303.06,20.84,TRADE
QLD1,"2002/03/29 19:00",5299.24,20.1,TRADE
QLD1,"2002/03/29 19:30",5128.67,18.92,TRADE
QLD1,"2002/03/29 20:00",5009.34833,17.81,TRADE
QLD1,"2002/03/29 20:30",4855.58,17.3,TRADE
QLD1,"2002/03/29 21:00",4777.955,17.39,TRADE
QLD1,"2002/03/29 21:30",4796.43,17.93,TRADE
QLD1,"2002/03/29 22:00",4722.605,17.35,TRADE
QLD1,"2002/03/29 22:30",4738.355,17.93,TRADE
QLD1,"2002/03/29 23:00",4681.70667,17.45,TRADE
QLD1,"2002/03/29 23:30",4733.17667,18.63,TRADE
QLD1,"2002/03/30 00:00",4508.34167,18,TRADE
QLD1,"2002/03/30 00:30",4285.07833,17.36,TRADE
QLD1,"2002/03/30 01:00",4176.71833,16.45,TRADE
QLD1,"2002/03/30 01:30",4074.37333,16.92,TRADE
QLD1,"2002/03/30 02:00",3941.95667,13.85,TRADE
QLD1,"2002/03/30 02:30",3881.58833,12.05,TRADE
QLD1,"2002/03/30 03:00",3817.82667,10.48,TRADE
QLD1,"2002/03/30 03:30",3763.28167,11.56,TRADE
QLD1,"2002/03/30 04:00",3770.365,11.16,TRADE
QLD1,"2002/03/30 04:30",3727.62667,10.33,TRADE
QLD1,"2002/03/30 05:00",3711.17333,10.95,TRADE
QLD1,"2002/03/30 05:30",3797.37667,10.58,TRADE
QLD1,"2002/03/30 06:00",3872.38667,12.16,TRADE
QLD1,"2002/03/30 06:30",3941.36,12.8,TRADE
QLD1,"2002/03/30 07:00",4112.225,15.33,TRADE
QLD1,"2002/03/30 07:30",4351.05667,16.28,TRADE
QLD1,"2002/03/30 08:00",4580.00833,17.85,TRADE
QLD1,"2002/03/30 08:30",4825.00333,18.6,TRADE
QLD1,"2002/03/30 09:00",4925.23333,18.72,TRADE
QLD1,"2002/03/30 09:30",5025.90167,20.15,TRADE
QLD1,"2002/03/30 10:00",5050.89167,18.89,TRADE
QLD1,"2002/03/30 10:30",4985.29667,18.3,TRADE
QLD1,"2002/03/30 11:00",4984.14167,18.08,TRADE
QLD1,"2002/03/30 11:30",4919.03333,17.86,TRADE
QLD1,"2002/03/30 12:00",4893.41,18,TRADE
QLD1,"2002/03/30 12:30",4888.625,17.85,TRADE
QLD1,"2002/03/30 13:00",4863.25667,17.63,TRADE
QLD1,"2002/03/30 13:30",4867.26667,17.49,TRADE
QLD1,"2002/03/30 14:00",4843.33667,17.96,TRADE
QLD1,"2002/03/30 14:30",4795.565,17.78,TRADE
QLD1,"2002/03/30 15:00",4795.92333,17.85,TRADE
QLD1,"2002/03/30 15:30",4769.84333,17.65,TRADE
QLD1,"2002/03/30 16:00",4831.615,17.85,TRADE
QLD1,"2002/03/30 16:30",4873.97667,18,TRADE
QLD1,"2002/03/30 17:00",4978.67167,18,TRADE
QLD1,"2002/03/30 17:30",5034.12333,17.73,TRADE
QLD1,"2002/03/30 18:00",5214.675,18.76,TRADE
QLD1,"2002/03/30 18:30",5363.77167,21.04,TRADE
QLD1,"2002/03/30 19:00",5392.74667,21.08,TRADE
QLD1,"2002/03/30 19:30",5222.22167,18.73,TRADE
QLD1,"2002/03/30 20:00",5132.63,18.11,TRADE
QLD1,"2002/03/30 20:30",4959.83667,17.78,TRADE
QLD1,"2002/03/30 21:00",4850.23,17.69,TRADE
QLD1,"2002/03/30 21:30",4809.70167,17.89,TRADE
QLD1,"2002/03/30 22:00",4706.15333,17.08,TRADE
QLD1,"2002/03/30 22:30",4673.18667,17.89,TRADE
QLD1,"2002/03/30 23:00",4644.15833,17.79,TRADE
QLD1,"2002/03/30 23:30",4680.47667,18.4,TRADE
QLD1,"2002/03/31 00:00",4480.79667,17.1,TRADE
QLD1,"2002/03/31 00:30",4238.245,16.44,TRADE
QLD1,"2002/03/31 01:00",4123.52167,15.28,TRADE
QLD1,"2002/03/31 01:30",4001.29167,15.25,TRADE
QLD1,"2002/03/31 02:00",3900.6,11.99,TRADE
QLD1,"2002/03/31 02:30",3795.92,11.33,TRADE
QLD1,"2002/03/31 03:00",3719.58833,8.84,TRADE
QLD1,"2002/03/31 03:30",3662.66833,5.4,TRADE
QLD1,"2002/03/31 04:00",3663.50667,5.14,TRADE
QLD1,"2002/03/31 04:30",3667.50667,6.08,TRADE
QLD1,"2002/03/31 05:00",3688.68,6.74,TRADE
QLD1,"2002/03/31 05:30",3701.42833,8.33,TRADE
QLD1,"2002/03/31 06:00",3722.28833,5.55,TRADE
QLD1,"2002/03/31 06:30",3799.34167,11.23,TRADE
QLD1,"2002/03/31 07:00",3987.19833,14.07,TRADE
QLD1,"2002/03/31 07:30",4213.24833,15.01,TRADE
QLD1,"2002/03/31 08:00",4361.18,16.3,TRADE
QLD1,"2002/03/31 08:30",4573.22667,17.54,TRADE
QLD1,"2002/03/31 09:00",4661.06167,17.98,TRADE
QLD1,"2002/03/31 09:30",4732.16333,18.01,TRADE
QLD1,"2002/03/31 10:00",4746.79833,18,TRADE
QLD1,"2002/03/31 10:30",4708.82,17.73,TRADE
QLD1,"2002/03/31 11:00",4735.415,17.41,TRADE
QLD1,"2002/03/31 11:30",4721.76333,17.45,TRADE
QLD1,"2002/03/31 12:00",4716.15333,17.49,TRADE
QLD1,"2002/03/31 12:30",4680.27833,17.48,TRADE
QLD1,"2002/03/31 13:00",4689.615,17.33,TRADE
QLD1,"2002/03/31 13:30",4652.40833,16.34,TRADE
QLD1,"2002/03/31 14:00",4596.92667,15.86,TRADE
QLD1,"2002/03/31 14:30",4561.135,15.77,TRADE
QLD1,"2002/03/31 15:00",4567.31167,15.81,TRADE
QLD1,"2002/03/31 15:30",4590.04333,15.87,TRADE
QLD1,"2002/03/31 16:00",4617.37,15.98,TRADE
QLD1,"2002/03/31 16:30",4644.76333,16.05,TRADE
QLD1,"2002/03/31 17:00",4686.16667,16.36,TRADE
QLD1,"2002/03/31 17:30",4784.9,17.29,TRADE
QLD1,"2002/03/31 18:00",4954.045,17.93,TRADE
QLD1,"2002/03/31 18:30",5169.80167,20.21,TRADE
QLD1,"2002/03/31 19:00",5244.58667,23.47,TRADE
QLD1,"2002/03/31 19:30",5118.315,20.44,TRADE
QLD1,"2002/03/31 20:00",5012.27667,18.18,TRADE
QLD1,"2002/03/31 20:30",4831.665,17.2,TRADE
QLD1,"2002/03/31 21:00",4779.75833,17.64,TRADE
QLD1,"2002/03/31 21:30",4753.03833,17.03,TRADE
QLD1,"2002/03/31 22:00",4659.05167,15.95,TRADE
QLD1,"2002/03/31 22:30",4668.79167,17.65,TRADE
QLD1,"2002/03/31 23:00",4632.24167,17.51,TRADE
QLD1,"2002/03/31 23:30",4715.76,21.24,TRADE
QLD1,"2002/04/01 00:00",4486.99833,18.99,TRADE
