REGION,SETTLEMENTDATE,TOTALDEMAND,RRP,PERIODTYPE
QLD1,"2012/12/01 00:30:00",5497.54,52.06,TRADE
QLD1,"2012/12/01 01:00:00",5326.68,50.7,TRADE
QLD1,"2012/12/01 01:30:00",5130.83,49.55,TRADE
QLD1,"2012/12/01 02:00:00",5011.78,48.58,TRADE
QLD1,"2012/12/01 02:30:00",4952.3,46.05,TRADE
QLD1,"2012/12/01 03:00:00",4917.4,43.42,TRADE
QLD1,"2012/12/01 03:30:00",4917.21,42.8,TRADE
QLD1,"2012/12/01 04:00:00",4907.16,44.32,TRADE
QLD1,"2012/12/01 04:30:00",4900.29,43.75,TRADE
QLD1,"2012/12/01 05:00:00",4900.38,44.76,TRADE
QLD1,"2012/12/01 05:30:00",4894.76,43.19,TRADE
QLD1,"2012/12/01 06:00:00",4968.59,44.14,TRADE
QLD1,"2012/12/01 06:30:00",5149.43,44.58,TRADE
QLD1,"2012/12/01 07:00:00",5347.16,46.43,TRADE
QLD1,"2012/12/01 07:30:00",5589.61,45.79,TRADE
QLD1,"2012/12/01 08:00:00",5767.99,46.88,TRADE
QLD1,"2012/12/01 08:30:00",5939.25,47.91,TRADE
QLD1,"2012/12/01 09:00:00",6114.19,49.12,TRADE
QLD1,"2012/12/01 09:30:00",6230.57,49.69,TRADE
QLD1,"2012/12/01 10:00:00",6247.01,49.62,TRADE
QLD1,"2012/12/01 10:30:00",6254.36,49.65,TRADE
QLD1,"2012/12/01 11:00:00",6306.25,53.37,TRADE
QLD1,"2012/12/01 11:30:00",6312.1,50.48,TRADE
QLD1,"2012/12/01 12:00:00",6390.39,50.62,TRADE
QLD1,"2012/12/01 12:30:00",6458.12,52.4,TRADE
QLD1,"2012/12/01 13:00:00",6511.54,51.14,TRADE
QLD1,"2012/12/01 13:30:00",6601.1,54.38,TRADE
QLD1,"2012/12/01 14:00:00",6638.43,54.7,TRADE
QLD1,"2012/12/01 14:30:00",6666.26,57.34,TRADE
QLD1,"2012/12/01 15:00:00",6695.1,53.83,TRADE
QLD1,"2012/12/01 15:30:00",6792.78,54.03,TRADE
QLD1,"2012/12/01 16:00:00",6829.97,54.42,TRADE
QLD1,"2012/12/01 16:30:00",6863.04,54.71,TRADE
QLD1,"2012/12/01 17:00:00",6880.84,56.52,TRADE
QLD1,"2012/12/01 17:30:00",6862.25,54.58,TRADE
QLD1,"2012/12/01 18:00:00",6773.92,53.49,TRADE
QLD1,"2012/12/01 18:30:00",6634.41,52.59,TRADE
QLD1,"2012/12/01 19:00:00",6691.49,52.86,TRADE
QLD1,"2012/12/01 19:30:00",6708.72,53.63,TRADE
QLD1,"2012/12/01 20:00:00",6615.09,52.88,TRADE
QLD1,"2012/12/01 20:30:00",6521.48,51.81,TRADE
QLD1,"2012/12/01 21:00:00",6388.6,51.81,TRADE
QLD1,"2012/12/01 21:30:00",6405.41,51.9,TRADE
QLD1,"2012/12/01 22:00:00",6223.18,50.57,TRADE
QLD1,"2012/12/01 22:30:00",6021.47,52.17,TRADE
QLD1,"2012/12/01 23:00:00",5907.79,51.34,TRADE
QLD1,"2012/12/01 23:30:00",5801.32,50.04,TRADE
QLD1,"2012/12/02 00:00:00",5622.83,50.08,TRADE
QLD1,"2012/12/02 00:30:00",5473.24,49.39,TRADE
QLD1,"2012/12/02 01:00:00",5315.19,47.82,TRADE
QLD1,"2012/12/02 01:30:00",5151.49,46.38,TRADE
QLD1,"2012/12/02 02:00:00",5016.02,45.59,TRADE
QLD1,"2012/12/02 02:30:00",4932.93,45.2,TRADE
QLD1,"2012/12/02 03:00:00",4904.09,44.95,TRADE
QLD1,"2012/12/02 03:30:00",4863.63,44.52,TRADE
QLD1,"2012/12/02 04:00:00",4851.82,44.47,TRADE
QLD1,"2012/12/02 04:30:00",4844.48,45.25,TRADE
QLD1,"2012/12/02 05:00:00",4804.47,44.83,TRADE
QLD1,"2012/12/02 05:30:00",4784.02,44.14,TRADE
QLD1,"2012/12/02 06:00:00",4835.3,44.77,TRADE
QLD1,"2012/12/02 06:30:00",4893.32,44.17,TRADE
QLD1,"2012/12/02 07:00:00",5054.83,45.48,TRADE
QLD1,"2012/12/02 07:30:00",5291.12,45.47,TRADE
QLD1,"2012/12/02 08:00:00",5445.89,45.32,TRADE
QLD1,"2012/12/02 08:30:00",5606.28,46.12,TRADE
QLD1,"2012/12/02 09:00:00",5722.87,46.28,TRADE
QLD1,"2012/12/02 09:30:00",5808.23,47.95,TRADE
QLD1,"2012/12/02 10:00:00",5894.26,49,TRADE
QLD1,"2012/12/02 10:30:00",5964.85,49.54,TRADE
QLD1,"2012/12/02 11:00:00",6047.94,49.6,TRADE
QLD1,"2012/12/02 11:30:00",6097.74,49.72,TRADE
QLD1,"2012/12/02 12:00:00",6146.66,50.81,TRADE
QLD1,"2012/12/02 12:30:00",6205.34,50.64,TRADE
QLD1,"2012/12/02 13:00:00",6268.98,50.38,TRADE
QLD1,"2012/12/02 13:30:00",6358.41,48.81,TRADE
QLD1,"2012/12/02 14:00:00",6425.48,48.11,TRADE
QLD1,"2012/12/02 14:30:00",6485.95,50.71,TRADE
QLD1,"2012/12/02 15:00:00",6532.12,52.19,TRADE
QLD1,"2012/12/02 15:30:00",6674.45,51.27,TRADE
QLD1,"2012/12/02 16:00:00",6727.34,57.28,TRADE
QLD1,"2012/12/02 16:30:00",6789.54,52.53,TRADE
QLD1,"2012/12/02 17:00:00",6853.48,53.18,TRADE
QLD1,"2012/12/02 17:30:00",6802.5,52.4,TRADE
QLD1,"2012/12/02 18:00:00",6804.3,53.03,TRADE
QLD1,"2012/12/02 18:30:00",6739.82,52.44,TRADE
QLD1,"2012/12/02 19:00:00",6793.05,53.26,TRADE
QLD1,"2012/12/02 19:30:00",6790.4,53.48,TRADE
QLD1,"2012/12/02 20:00:00",6668.62,52.34,TRADE
QLD1,"2012/12/02 20:30:00",6578.03,50.59,TRADE
QLD1,"2012/12/02 21:00:00",6518.8,48.84,TRADE
QLD1,"2012/12/02 21:30:00",6488.55,50.27,TRADE
QLD1,"2012/12/02 22:00:00",6265.08,51.78,TRADE
QLD1,"2012/12/02 22:30:00",5973.2,53.47,TRADE
QLD1,"2012/12/02 23:00:00",5839.59,51.89,TRADE
QLD1,"2012/12/02 23:30:00",5658.04,50.31,TRADE
QLD1,"2012/12/03 00:00:00",5489.69,50.24,TRADE
QLD1,"2012/12/03 00:30:00",5346.7,48.24,TRADE
QLD1,"2012/12/03 01:00:00",5228.37,47.15,TRADE
QLD1,"2012/12/03 01:30:00",5050.14,45.67,TRADE
QLD1,"2012/12/03 02:00:00",4979.54,45.37,TRADE
QLD1,"2012/12/03 02:30:00",4922.82,45.45,TRADE
QLD1,"2012/12/03 03:00:00",4899.14,45.21,TRADE
QLD1,"2012/12/03 03:30:00",4879.7,45.44,TRADE
QLD1,"2012/12/03 04:00:00",4837.72,45.39,TRADE
QLD1,"2012/12/03 04:30:00",4883.33,44.44,TRADE
QLD1,"2012/12/03 05:00:00",4960.62,45.93,TRADE
QLD1,"2012/12/03 05:30:00",5087.84,48.46,TRADE
QLD1,"2012/12/03 06:00:00",5280.87,48.69,TRADE
QLD1,"2012/12/03 06:30:00",5673.37,50.16,TRADE
QLD1,"2012/12/03 07:00:00",6040.32,53.5,TRADE
QLD1,"2012/12/03 07:30:00",6409.28,50.2,TRADE
QLD1,"2012/12/03 08:00:00",6635.8,51.55,TRADE
QLD1,"2012/12/03 08:30:00",6825.93,52.27,TRADE
QLD1,"2012/12/03 09:00:00",6830.39,662.05,TRADE
QLD1,"2012/12/03 09:30:00",6937.79,49.15,TRADE
QLD1,"2012/12/03 10:00:00",7057.23,55.12,TRADE
QLD1,"2012/12/03 10:30:00",7141.4,62.47,TRADE
QLD1,"2012/12/03 11:00:00",7233.55,56.11,TRADE
QLD1,"2012/12/03 11:30:00",7299.07,60.03,TRADE
QLD1,"2012/12/03 12:00:00",7351.44,59.74,TRADE
QLD1,"2012/12/03 12:30:00",7419.27,56.51,TRADE
QLD1,"2012/12/03 13:00:00",7512.3,73.36,TRADE
QLD1,"2012/12/03 13:30:00",7579,70.12,TRADE
QLD1,"2012/12/03 14:00:00",7718.29,81.27,TRADE
QLD1,"2012/12/03 14:30:00",7692.89,436.22,TRADE
QLD1,"2012/12/03 15:00:00",7693.12,70.73,TRADE
QLD1,"2012/12/03 15:30:00",7759.67,60.18,TRADE
QLD1,"2012/12/03 16:00:00",7935.1,65.38,TRADE
QLD1,"2012/12/03 16:30:00",7931.35,64.54,TRADE
QLD1,"2012/12/03 17:00:00",7886.91,60.59,TRADE
QLD1,"2012/12/03 17:30:00",7801.07,61.67,TRADE
QLD1,"2012/12/03 18:00:00",7681.74,76.35,TRADE
QLD1,"2012/12/03 18:30:00",7521.27,56.52,TRADE
QLD1,"2012/12/03 19:00:00",7657.79,80.79,TRADE
QLD1,"2012/12/03 19:30:00",7569.2,69.53,TRADE
QLD1,"2012/12/03 20:00:00",7415.65,55.41,TRADE
QLD1,"2012/12/03 20:30:00",7324.7,55.9,TRADE
QLD1,"2012/12/03 21:00:00",7089.32,53.59,TRADE
QLD1,"2012/12/03 21:30:00",7017.89,53.27,TRADE
QLD1,"2012/12/03 22:00:00",6742.02,50.25,TRADE
QLD1,"2012/12/03 22:30:00",6408.7,50.4,TRADE
QLD1,"2012/12/03 23:00:00",6204.32,49.18,TRADE
QLD1,"2012/12/03 23:30:00",6081.73,49.35,TRADE
QLD1,"2012/12/04 00:00:00",5834.13,47.66,TRADE
QLD1,"2012/12/04 00:30:00",5663.29,46.81,TRADE
QLD1,"2012/12/04 01:00:00",5493.15,45.28,TRADE
QLD1,"2012/12/04 01:30:00",5342.51,44.71,TRADE
QLD1,"2012/12/04 02:00:00",5203.42,41.71,TRADE
QLD1,"2012/12/04 02:30:00",5149.18,42.89,TRADE
QLD1,"2012/12/04 03:00:00",5101.58,42.06,TRADE
QLD1,"2012/12/04 03:30:00",5065.51,40.98,TRADE
QLD1,"2012/12/04 04:00:00",5090.42,41.56,TRADE
QLD1,"2012/12/04 04:30:00",5127.32,39.92,TRADE
QLD1,"2012/12/04 05:00:00",5181.87,41.87,TRADE
QLD1,"2012/12/04 05:30:00",5341.48,44.28,TRADE
QLD1,"2012/12/04 06:00:00",5548.96,45.37,TRADE
QLD1,"2012/12/04 06:30:00",5930.33,47.48,TRADE
QLD1,"2012/12/04 07:00:00",6299.02,50.73,TRADE
QLD1,"2012/12/04 07:30:00",6665.55,48.35,TRADE
QLD1,"2012/12/04 08:00:00",6860.32,50.25,TRADE
QLD1,"2012/12/04 08:30:00",7065.54,49.89,TRADE
QLD1,"2012/12/04 09:00:00",7315.67,51.68,TRADE
QLD1,"2012/12/04 09:30:00",7392.43,52.6,TRADE
QLD1,"2012/12/04 10:00:00",7476.53,54.23,TRADE
QLD1,"2012/12/04 10:30:00",7603.36,53.59,TRADE
QLD1,"2012/12/04 11:00:00",7740.18,56.63,TRADE
QLD1,"2012/12/04 11:30:00",7804.12,58.95,TRADE
QLD1,"2012/12/04 12:00:00",7920.22,80.78,TRADE
QLD1,"2012/12/04 12:30:00",8062.46,158.38,TRADE
QLD1,"2012/12/04 13:00:00",8174.22,99.9,TRADE
QLD1,"2012/12/04 13:30:00",8282.06,244.32,TRADE
QLD1,"2012/12/04 14:00:00",8273.54,188.92,TRADE
QLD1,"2012/12/04 14:30:00",8295.45,221.07,TRADE
QLD1,"2012/12/04 15:00:00",8352.68,213.02,TRADE
QLD1,"2012/12/04 15:30:00",8400.61,163.2,TRADE
QLD1,"2012/12/04 16:00:00",8441.01,230.23,TRADE
QLD1,"2012/12/04 16:30:00",8441.7,116.8,TRADE
QLD1,"2012/12/04 17:00:00",8453.11,577.85,TRADE
QLD1,"2012/12/04 17:30:00",8389.63,53.97,TRADE
QLD1,"2012/12/04 18:00:00",8275.93,58.51,TRADE
QLD1,"2012/12/04 18:30:00",8091.84,58.31,TRADE
QLD1,"2012/12/04 19:00:00",8100.63,67.12,TRADE
QLD1,"2012/12/04 19:30:00",8097.34,69.52,TRADE
QLD1,"2012/12/04 20:00:00",7896.67,56.35,TRADE
QLD1,"2012/12/04 20:30:00",7700.22,57.62,TRADE
QLD1,"2012/12/04 21:00:00",7482.69,55.83,TRADE
QLD1,"2012/12/04 21:30:00",7366.33,56.43,TRADE
QLD1,"2012/12/04 22:00:00",6997.7,52.34,TRADE
QLD1,"2012/12/04 22:30:00",6668.15,53.67,TRADE
QLD1,"2012/12/04 23:00:00",6409.58,53.76,TRADE
QLD1,"2012/12/04 23:30:00",6179.65,52.11,TRADE
QLD1,"2012/12/05 00:00:00",5912.47,54.75,TRADE
QLD1,"2012/12/05 00:30:00",5697.45,51.37,TRADE
QLD1,"2012/12/05 01:00:00",5571.15,49.97,TRADE
QLD1,"2012/12/05 01:30:00",5344.45,47.59,TRADE
QLD1,"2012/12/05 02:00:00",5207.1,45.88,TRADE
QLD1,"2012/12/05 02:30:00",5109.36,44.3,TRADE
QLD1,"2012/12/05 03:00:00",5091.15,44.85,TRADE
QLD1,"2012/12/05 03:30:00",5068.54,44.67,TRADE
QLD1,"2012/12/05 04:00:00",5045.63,44.86,TRADE
QLD1,"2012/12/05 04:30:00",5056.01,42.45,TRADE
QLD1,"2012/12/05 05:00:00",5053.51,44.56,TRADE
QLD1,"2012/12/05 05:30:00",5163.58,45.29,TRADE
QLD1,"2012/12/05 06:00:00",5330.06,46.12,TRADE
QLD1,"2012/12/05 06:30:00",5691.56,48.13,TRADE
QLD1,"2012/12/05 07:00:00",6008.17,49.91,TRADE
QLD1,"2012/12/05 07:30:00",6350.82,48.6,TRADE
QLD1,"2012/12/05 08:00:00",6537.14,48.12,TRADE
QLD1,"2012/12/05 08:30:00",6685.31,73.32,TRADE
QLD1,"2012/12/05 09:00:00",6697.27,129.33,TRADE
QLD1,"2012/12/05 09:30:00",6736.63,177.24,TRADE
QLD1,"2012/12/05 10:00:00",6751.63,133.5,TRADE
QLD1,"2012/12/05 10:30:00",6819.88,51.68,TRADE
QLD1,"2012/12/05 11:00:00",6900.43,48.58,TRADE
QLD1,"2012/12/05 11:30:00",6983.54,92.54,TRADE
QLD1,"2012/12/05 12:00:00",6981.47,368.27,TRADE
QLD1,"2012/12/05 12:30:00",7067.22,44.41,TRADE
QLD1,"2012/12/05 13:00:00",7289.27,42.56,TRADE
QLD1,"2012/12/05 13:30:00",7424.04,55.37,TRADE
QLD1,"2012/12/05 14:00:00",7462.44,84.57,TRADE
QLD1,"2012/12/05 14:30:00",7487.59,254.21,TRADE
QLD1,"2012/12/05 15:00:00",7542.45,-38.37,TRADE
QLD1,"2012/12/05 15:30:00",7633.87,44.74,TRADE
QLD1,"2012/12/05 16:00:00",7749.07,87.1,TRADE
QLD1,"2012/12/05 16:30:00",7794.77,80.93,TRADE
QLD1,"2012/12/05 17:00:00",7769.04,79.77,TRADE
QLD1,"2012/12/05 17:30:00",7720.86,115.7,TRADE
QLD1,"2012/12/05 18:00:00",7590.85,76.72,TRADE
QLD1,"2012/12/05 18:30:00",7380.05,67.23,TRADE
QLD1,"2012/12/05 19:00:00",7317.73,100.15,TRADE
QLD1,"2012/12/05 19:30:00",7366.28,71.34,TRADE
QLD1,"2012/12/05 20:00:00",7272.1,90.14,TRADE
QLD1,"2012/12/05 20:30:00",7104.64,64.44,TRADE
QLD1,"2012/12/05 21:00:00",7035.85,54.56,TRADE
QLD1,"2012/12/05 21:30:00",6959.79,54.56,TRADE
QLD1,"2012/12/05 22:00:00",6695.9,52.74,TRADE
QLD1,"2012/12/05 22:30:00",6319.53,50.84,TRADE
QLD1,"2012/12/05 23:00:00",6120.28,49.68,TRADE
QLD1,"2012/12/05 23:30:00",5898.6,48.66,TRADE
QLD1,"2012/12/06 00:00:00",5663.24,47.58,TRADE
QLD1,"2012/12/06 00:30:00",5437.89,46.97,TRADE
QLD1,"2012/12/06 01:00:00",5256.97,47.88,TRADE
QLD1,"2012/12/06 01:30:00",5086.8,46.54,TRADE
QLD1,"2012/12/06 02:00:00",4990.82,45.45,TRADE
QLD1,"2012/12/06 02:30:00",4914.64,44.77,TRADE
QLD1,"2012/12/06 03:00:00",4852.2,43.75,TRADE
QLD1,"2012/12/06 03:30:00",4823.96,44.71,TRADE
QLD1,"2012/12/06 04:00:00",4813.68,44.89,TRADE
QLD1,"2012/12/06 04:30:00",4886.11,44.57,TRADE
QLD1,"2012/12/06 05:00:00",4934.5,44.54,TRADE
QLD1,"2012/12/06 05:30:00",5076.77,46.07,TRADE
QLD1,"2012/12/06 06:00:00",5275.6,45.75,TRADE
QLD1,"2012/12/06 06:30:00",5602.71,47.53,TRADE
QLD1,"2012/12/06 07:00:00",5960.98,49.79,TRADE
QLD1,"2012/12/06 07:30:00",6270.88,46.8,TRADE
QLD1,"2012/12/06 08:00:00",6463.23,49.71,TRADE
QLD1,"2012/12/06 08:30:00",6597.04,114.72,TRADE
QLD1,"2012/12/06 09:00:00",6660.62,71.8,TRADE
QLD1,"2012/12/06 09:30:00",6791.68,50.27,TRADE
QLD1,"2012/12/06 10:00:00",6833.92,49.9,TRADE
QLD1,"2012/12/06 10:30:00",6894.03,56.93,TRADE
QLD1,"2012/12/06 11:00:00",6955.54,99.1,TRADE
QLD1,"2012/12/06 11:30:00",7017.74,72.94,TRADE
QLD1,"2012/12/06 12:00:00",7066.3,73.39,TRADE
QLD1,"2012/12/06 12:30:00",7137.87,95.87,TRADE
QLD1,"2012/12/06 13:00:00",7178.03,93.59,TRADE
QLD1,"2012/12/06 13:30:00",7285.82,55.56,TRADE
QLD1,"2012/12/06 14:00:00",7394.41,53.1,TRADE
QLD1,"2012/12/06 14:30:00",7382.41,114.49,TRADE
QLD1,"2012/12/06 15:00:00",7393.69,80.54,TRADE
QLD1,"2012/12/06 15:30:00",7399.61,63.43,TRADE
QLD1,"2012/12/06 16:00:00",7468.42,71.08,TRADE
QLD1,"2012/12/06 16:30:00",7538.36,59.85,TRADE
QLD1,"2012/12/06 17:00:00",7573.63,58.02,TRADE
QLD1,"2012/12/06 17:30:00",7441.76,55.68,TRADE
QLD1,"2012/12/06 18:00:00",7392.14,53.95,TRADE
QLD1,"2012/12/06 18:30:00",7268.82,53.29,TRADE
QLD1,"2012/12/06 19:00:00",7333.19,55.05,TRADE
QLD1,"2012/12/06 19:30:00",7369.5,55.65,TRADE
QLD1,"2012/12/06 20:00:00",7265.93,55.3,TRADE
QLD1,"2012/12/06 20:30:00",7154.21,53.88,TRADE
QLD1,"2012/12/06 21:00:00",7049.14,52.79,TRADE
QLD1,"2012/12/06 21:30:00",6957.01,53.09,TRADE
QLD1,"2012/12/06 22:00:00",6705.07,51.14,TRADE
QLD1,"2012/12/06 22:30:00",6384.24,52.43,TRADE
QLD1,"2012/12/06 23:00:00",6219.22,53.19,TRADE
QLD1,"2012/12/06 23:30:00",6036.79,51.81,TRADE
QLD1,"2012/12/07 00:00:00",5740.17,50.4,TRADE
QLD1,"2012/12/07 00:30:00",5562.54,48.78,TRADE
QLD1,"2012/12/07 01:00:00",5413.69,48.29,TRADE
QLD1,"2012/12/07 01:30:00",5263.91,46.97,TRADE
QLD1,"2012/12/07 02:00:00",5157.14,45.83,TRADE
QLD1,"2012/12/07 02:30:00",5076.96,45.34,TRADE
QLD1,"2012/12/07 03:00:00",5076.5,45.01,TRADE
QLD1,"2012/12/07 03:30:00",5093.79,44.68,TRADE
QLD1,"2012/12/07 04:00:00",5107.32,44.9,TRADE
QLD1,"2012/12/07 04:30:00",5136.32,45.16,TRADE
QLD1,"2012/12/07 05:00:00",5179.51,45.42,TRADE
QLD1,"2012/12/07 05:30:00",5326.39,47.66,TRADE
QLD1,"2012/12/07 06:00:00",5552.79,49.41,TRADE
QLD1,"2012/12/07 06:30:00",5910.84,50.65,TRADE
QLD1,"2012/12/07 07:00:00",6276.34,53.13,TRADE
QLD1,"2012/12/07 07:30:00",6608.22,51.61,TRADE
QLD1,"2012/12/07 08:00:00",6804.39,52.22,TRADE
QLD1,"2012/12/07 08:30:00",6956.71,52.7,TRADE
QLD1,"2012/12/07 09:00:00",7043.99,54.05,TRADE
QLD1,"2012/12/07 09:30:00",7113.72,53.95,TRADE
QLD1,"2012/12/07 10:00:00",7117.69,53.12,TRADE
QLD1,"2012/12/07 10:30:00",7130.1,53.35,TRADE
QLD1,"2012/12/07 11:00:00",7147.26,52.97,TRADE
QLD1,"2012/12/07 11:30:00",7154.96,52.99,TRADE
QLD1,"2012/12/07 12:00:00",7089.42,53.28,TRADE
QLD1,"2012/12/07 12:30:00",7100.58,53.25,TRADE
QLD1,"2012/12/07 13:00:00",7092.64,53.05,TRADE
QLD1,"2012/12/07 13:30:00",7166.6,53.46,TRADE
QLD1,"2012/12/07 14:00:00",7156.3,64.7,TRADE
QLD1,"2012/12/07 14:30:00",7150.3,58.73,TRADE
QLD1,"2012/12/07 15:00:00",7175.41,56.29,TRADE
QLD1,"2012/12/07 15:30:00",7189.86,55.31,TRADE
QLD1,"2012/12/07 16:00:00",7248.22,55.58,TRADE
QLD1,"2012/12/07 16:30:00",7297.63,56.9,TRADE
QLD1,"2012/12/07 17:00:00",7320.44,56.36,TRADE
QLD1,"2012/12/07 17:30:00",7185.17,54.49,TRADE
QLD1,"2012/12/07 18:00:00",7063.95,52.51,TRADE
QLD1,"2012/12/07 18:30:00",6852.4,51.32,TRADE
QLD1,"2012/12/07 19:00:00",6860.97,51.8,TRADE
QLD1,"2012/12/07 19:30:00",6878.44,51.94,TRADE
QLD1,"2012/12/07 20:00:00",6777.83,51.54,TRADE
QLD1,"2012/12/07 20:30:00",6691.16,50.93,TRADE
QLD1,"2012/12/07 21:00:00",6609.16,50.35,TRADE
QLD1,"2012/12/07 21:30:00",6660.4,51.43,TRADE
QLD1,"2012/12/07 22:00:00",6462.25,49.7,TRADE
QLD1,"2012/12/07 22:30:00",6243.77,52.17,TRADE
QLD1,"2012/12/07 23:00:00",6060.2,51.58,TRADE
QLD1,"2012/12/07 23:30:00",5905.89,51.28,TRADE
QLD1,"2012/12/08 00:00:00",5714.03,51.15,TRADE
QLD1,"2012/12/08 00:30:00",5489.05,49.27,TRADE
QLD1,"2012/12/08 01:00:00",5340.95,47.94,TRADE
QLD1,"2012/12/08 01:30:00",5201.78,47.21,TRADE
QLD1,"2012/12/08 02:00:00",5069.13,45.56,TRADE
QLD1,"2012/12/08 02:30:00",5003.91,45.27,TRADE
QLD1,"2012/12/08 03:00:00",5014.52,44.68,TRADE
QLD1,"2012/12/08 03:30:00",4948.54,44.35,TRADE
QLD1,"2012/12/08 04:00:00",4919.91,44.41,TRADE
QLD1,"2012/12/08 04:30:00",4930.25,44.58,TRADE
QLD1,"2012/12/08 05:00:00",4948.58,44.72,TRADE
QLD1,"2012/12/08 05:30:00",4993.14,44.75,TRADE
QLD1,"2012/12/08 06:00:00",5024.66,45.32,TRADE
QLD1,"2012/12/08 06:30:00",5190.63,45.66,TRADE
QLD1,"2012/12/08 07:00:00",5347.5,47.06,TRADE
QLD1,"2012/12/08 07:30:00",5611.33,47.7,TRADE
QLD1,"2012/12/08 08:00:00",5822.28,48.41,TRADE
QLD1,"2012/12/08 08:30:00",5960.35,48.79,TRADE
QLD1,"2012/12/08 09:00:00",6118.15,50.61,TRADE
QLD1,"2012/12/08 09:30:00",6167.93,50.77,TRADE
QLD1,"2012/12/08 10:00:00",6137.06,49.21,TRADE
QLD1,"2012/12/08 10:30:00",6148.26,50.79,TRADE
QLD1,"2012/12/08 11:00:00",6138.35,50.28,TRADE
QLD1,"2012/12/08 11:30:00",6110.71,50.13,TRADE
QLD1,"2012/12/08 12:00:00",6171.77,50.81,TRADE
QLD1,"2012/12/08 12:30:00",6151.82,50.55,TRADE
QLD1,"2012/12/08 13:00:00",6214.57,51.13,TRADE
QLD1,"2012/12/08 13:30:00",6277.95,51.98,TRADE
QLD1,"2012/12/08 14:00:00",6303.06,51.81,TRADE
QLD1,"2012/12/08 14:30:00",6315.15,52,TRADE
QLD1,"2012/12/08 15:00:00",6335.2,52.05,TRADE
QLD1,"2012/12/08 15:30:00",6400.01,51.79,TRADE
QLD1,"2012/12/08 16:00:00",6469.55,52.15,TRADE
QLD1,"2012/12/08 16:30:00",6560.05,51.62,TRADE
QLD1,"2012/12/08 17:00:00",6667.96,51.72,TRADE
QLD1,"2012/12/08 17:30:00",6614.33,51.56,TRADE
QLD1,"2012/12/08 18:00:00",6558.01,51.61,TRADE
QLD1,"2012/12/08 18:30:00",6458.61,51.51,TRADE
QLD1,"2012/12/08 19:00:00",6499,52.1,TRADE
QLD1,"2012/12/08 19:30:00",6486.97,51.94,TRADE
QLD1,"2012/12/08 20:00:00",6395.08,51.7,TRADE
QLD1,"2012/12/08 20:30:00",6373.28,51.62,TRADE
QLD1,"2012/12/08 21:00:00",6295.26,51.13,TRADE
QLD1,"2012/12/08 21:30:00",6310.55,50.65,TRADE
QLD1,"2012/12/08 22:00:00",6182,49.33,TRADE
QLD1,"2012/12/08 22:30:00",5952.1,51.18,TRADE
QLD1,"2012/12/08 23:00:00",5861.26,50.4,TRADE
QLD1,"2012/12/08 23:30:00",5738.55,49.18,TRADE
QLD1,"2012/12/09 00:00:00",5583.54,46.61,TRADE
QLD1,"2012/12/09 00:30:00",5409.07,46.73,TRADE
QLD1,"2012/12/09 01:00:00",5299.72,46.24,TRADE
QLD1,"2012/12/09 01:30:00",5128.4,45.3,TRADE
QLD1,"2012/12/09 02:00:00",5003.16,44.85,TRADE
QLD1,"2012/12/09 02:30:00",4931.77,43.17,TRADE
QLD1,"2012/12/09 03:00:00",4932.92,43.62,TRADE
QLD1,"2012/12/09 03:30:00",4880.56,41.35,TRADE
QLD1,"2012/12/09 04:00:00",4881.49,42.19,TRADE
QLD1,"2012/12/09 04:30:00",4888.52,42.99,TRADE
QLD1,"2012/12/09 05:00:00",4851.12,42.92,TRADE
QLD1,"2012/12/09 05:30:00",4815.34,41.65,TRADE
QLD1,"2012/12/09 06:00:00",4865.08,42.82,TRADE
QLD1,"2012/12/09 06:30:00",4969.89,42.63,TRADE
QLD1,"2012/12/09 07:00:00",5091.33,44.24,TRADE
QLD1,"2012/12/09 07:30:00",5317.05,44.71,TRADE
QLD1,"2012/12/09 08:00:00",5488.27,45.24,TRADE
QLD1,"2012/12/09 08:30:00",5616.66,46.55,TRADE
QLD1,"2012/12/09 09:00:00",5772.75,47.56,TRADE
QLD1,"2012/12/09 09:30:00",5831.08,55.13,TRADE
QLD1,"2012/12/09 10:00:00",5842.75,46.89,TRADE
QLD1,"2012/12/09 10:30:00",5925.23,47.6,TRADE
QLD1,"2012/12/09 11:00:00",5950.35,47.94,TRADE
QLD1,"2012/12/09 11:30:00",5905.3,47.86,TRADE
QLD1,"2012/12/09 12:00:00",5994.02,48.06,TRADE
QLD1,"2012/12/09 12:30:00",6039.85,47.31,TRADE
QLD1,"2012/12/09 13:00:00",6036.28,46.25,TRADE
QLD1,"2012/12/09 13:30:00",6103.74,44.94,TRADE
QLD1,"2012/12/09 14:00:00",6079.82,68.26,TRADE
QLD1,"2012/12/09 14:30:00",6072.57,66.2,TRADE
QLD1,"2012/12/09 15:00:00",6163.85,55.41,TRADE
QLD1,"2012/12/09 15:30:00",6230.3,73.04,TRADE
QLD1,"2012/12/09 16:00:00",6243.14,73.29,TRADE
QLD1,"2012/12/09 16:30:00",6385.78,62.59,TRADE
QLD1,"2012/12/09 17:00:00",6442.94,73.27,TRADE
QLD1,"2012/12/09 17:30:00",6524.17,75.66,TRADE
QLD1,"2012/12/09 18:00:00",6545.93,72.56,TRADE
QLD1,"2012/12/09 18:30:00",6557.71,70.76,TRADE
QLD1,"2012/12/09 19:00:00",6634.54,62.44,TRADE
QLD1,"2012/12/09 19:30:00",6769.89,50.99,TRADE
QLD1,"2012/12/09 20:00:00",6677.54,49.6,TRADE
QLD1,"2012/12/09 20:30:00",6599.26,49.14,TRADE
QLD1,"2012/12/09 21:00:00",6495.84,46.88,TRADE
QLD1,"2012/12/09 21:30:00",6485.26,48.69,TRADE
QLD1,"2012/12/09 22:00:00",6303.04,47.88,TRADE
QLD1,"2012/12/09 22:30:00",6092.12,49.36,TRADE
QLD1,"2012/12/09 23:00:00",5929.67,46.81,TRADE
QLD1,"2012/12/09 23:30:00",5808.4,46.49,TRADE
QLD1,"2012/12/10 00:00:00",5610.37,45.41,TRADE
QLD1,"2012/12/10 00:30:00",5429.81,44.31,TRADE
QLD1,"2012/12/10 01:00:00",5270.58,41.79,TRADE
QLD1,"2012/12/10 01:30:00",5142.35,42.11,TRADE
QLD1,"2012/12/10 02:00:00",5041.66,42.39,TRADE
QLD1,"2012/12/10 02:30:00",4961.56,41,TRADE
QLD1,"2012/12/10 03:00:00",4931.74,41.68,TRADE
QLD1,"2012/12/10 03:30:00",4903.02,43.54,TRADE
QLD1,"2012/12/10 04:00:00",4912.43,44.65,TRADE
QLD1,"2012/12/10 04:30:00",5006.88,45.32,TRADE
QLD1,"2012/12/10 05:00:00",5042.34,46.32,TRADE
QLD1,"2012/12/10 05:30:00",5176.6,47.36,TRADE
QLD1,"2012/12/10 06:00:00",5390.39,48.82,TRADE
QLD1,"2012/12/10 06:30:00",5794.87,49.46,TRADE
QLD1,"2012/12/10 07:00:00",6123,51.45,TRADE
QLD1,"2012/12/10 07:30:00",6342.14,48,TRADE
QLD1,"2012/12/10 08:00:00",6570.44,49.03,TRADE
QLD1,"2012/12/10 08:30:00",6722.45,50.57,TRADE
QLD1,"2012/12/10 09:00:00",6803.47,51.56,TRADE
QLD1,"2012/12/10 09:30:00",6963.71,52.65,TRADE
QLD1,"2012/12/10 10:00:00",6960.18,51.83,TRADE
QLD1,"2012/12/10 10:30:00",6893.83,52.28,TRADE
QLD1,"2012/12/10 11:00:00",7010.44,52.71,TRADE
QLD1,"2012/12/10 11:30:00",6970,51.96,TRADE
QLD1,"2012/12/10 12:00:00",6993.68,51.92,TRADE
QLD1,"2012/12/10 12:30:00",6960.3,52.43,TRADE
QLD1,"2012/12/10 13:00:00",6949.1,51.81,TRADE
QLD1,"2012/12/10 13:30:00",6974.38,51.89,TRADE
QLD1,"2012/12/10 14:00:00",6998.05,53.32,TRADE
QLD1,"2012/12/10 14:30:00",7027.12,54.82,TRADE
QLD1,"2012/12/10 15:00:00",7054.02,55.72,TRADE
QLD1,"2012/12/10 15:30:00",7094.31,55.4,TRADE
QLD1,"2012/12/10 16:00:00",7040.3,55.28,TRADE
QLD1,"2012/12/10 16:30:00",7067,53.25,TRADE
QLD1,"2012/12/10 17:00:00",7064.95,51.81,TRADE
QLD1,"2012/12/10 17:30:00",6988.3,51.7,TRADE
QLD1,"2012/12/10 18:00:00",6940.79,51.49,TRADE
QLD1,"2012/12/10 18:30:00",6834.79,49.38,TRADE
QLD1,"2012/12/10 19:00:00",6884.16,51.25,TRADE
QLD1,"2012/12/10 19:30:00",6773.27,49.93,TRADE
QLD1,"2012/12/10 20:00:00",6528.98,49.1,TRADE
QLD1,"2012/12/10 20:30:00",6585.82,49.21,TRADE
QLD1,"2012/12/10 21:00:00",6571.51,48.75,TRADE
QLD1,"2012/12/10 21:30:00",6573.95,50.5,TRADE
QLD1,"2012/12/10 22:00:00",6411.57,47.95,TRADE
QLD1,"2012/12/10 22:30:00",6143.36,50.08,TRADE
QLD1,"2012/12/10 23:00:00",5993.8,50.33,TRADE
QLD1,"2012/12/10 23:30:00",5839.52,49.32,TRADE
QLD1,"2012/12/11 00:00:00",5633.44,48.05,TRADE
QLD1,"2012/12/11 00:30:00",5425.56,45.96,TRADE
QLD1,"2012/12/11 01:00:00",5315.91,44.72,TRADE
QLD1,"2012/12/11 01:30:00",5129.53,43,TRADE
QLD1,"2012/12/11 02:00:00",5033.53,41.75,TRADE
QLD1,"2012/12/11 02:30:00",4939.66,38.32,TRADE
QLD1,"2012/12/11 03:00:00",4928.74,38.36,TRADE
QLD1,"2012/12/11 03:30:00",4916.35,39.92,TRADE
QLD1,"2012/12/11 04:00:00",4909.96,40.84,TRADE
QLD1,"2012/12/11 04:30:00",4934.45,41.44,TRADE
QLD1,"2012/12/11 05:00:00",4999.64,42.93,TRADE
QLD1,"2012/12/11 05:30:00",5173.26,45.28,TRADE
QLD1,"2012/12/11 06:00:00",5381.2,46.48,TRADE
QLD1,"2012/12/11 06:30:00",5693.95,47.47,TRADE
QLD1,"2012/12/11 07:00:00",6023.42,46.96,TRADE
QLD1,"2012/12/11 07:30:00",6335.15,45.46,TRADE
QLD1,"2012/12/11 08:00:00",6486.92,47.46,TRADE
QLD1,"2012/12/11 08:30:00",6594.9,51.15,TRADE
QLD1,"2012/12/11 09:00:00",6633.7,51.51,TRADE
QLD1,"2012/12/11 09:30:00",6650.67,51.71,TRADE
QLD1,"2012/12/11 10:00:00",6698.09,52.35,TRADE
QLD1,"2012/12/11 10:30:00",6702.72,52.07,TRADE
QLD1,"2012/12/11 11:00:00",6723.83,51.92,TRADE
QLD1,"2012/12/11 11:30:00",6735.38,52.12,TRADE
QLD1,"2012/12/11 12:00:00",6777.68,52.42,TRADE
QLD1,"2012/12/11 12:30:00",6805.11,52.88,TRADE
QLD1,"2012/12/11 13:00:00",6829.68,53.85,TRADE
QLD1,"2012/12/11 13:30:00",6898.23,54.14,TRADE
QLD1,"2012/12/11 14:00:00",6874.01,53.89,TRADE
QLD1,"2012/12/11 14:30:00",6835.59,52.86,TRADE
QLD1,"2012/12/11 15:00:00",6833.53,52.88,TRADE
QLD1,"2012/12/11 15:30:00",6821.24,52.87,TRADE
QLD1,"2012/12/11 16:00:00",6843.46,52.99,TRADE
QLD1,"2012/12/11 16:30:00",6887.69,53.21,TRADE
QLD1,"2012/12/11 17:00:00",6907.89,53.25,TRADE
QLD1,"2012/12/11 17:30:00",6876.72,52.57,TRADE
QLD1,"2012/12/11 18:00:00",6802.04,52.07,TRADE
QLD1,"2012/12/11 18:30:00",6713.55,51.75,TRADE
QLD1,"2012/12/11 19:00:00",6746.99,51.7,TRADE
QLD1,"2012/12/11 19:30:00",6784.84,51.55,TRADE
QLD1,"2012/12/11 20:00:00",6669.34,51.2,TRADE
QLD1,"2012/12/11 20:30:00",6588.32,49.6,TRADE
QLD1,"2012/12/11 21:00:00",6530.51,47.85,TRADE
QLD1,"2012/12/11 21:30:00",6498.29,49.15,TRADE
QLD1,"2012/12/11 22:00:00",6361.1,46.65,TRADE
QLD1,"2012/12/11 22:30:00",6069.21,48.31,TRADE
QLD1,"2012/12/11 23:00:00",5918.34,47.89,TRADE
QLD1,"2012/12/11 23:30:00",5768.74,48,TRADE
QLD1,"2012/12/12 00:00:00",5597.59,45.64,TRADE
QLD1,"2012/12/12 00:30:00",5425.97,45.58,TRADE
QLD1,"2012/12/12 01:00:00",5256.52,43.78,TRADE
QLD1,"2012/12/12 01:30:00",5076.37,41.86,TRADE
QLD1,"2012/12/12 02:00:00",4985.61,41.5,TRADE
QLD1,"2012/12/12 02:30:00",4901.06,41.23,TRADE
QLD1,"2012/12/12 03:00:00",4868.67,40.48,TRADE
QLD1,"2012/12/12 03:30:00",4879.51,40.48,TRADE
QLD1,"2012/12/12 04:00:00",4849.78,40.25,TRADE
QLD1,"2012/12/12 04:30:00",4828.44,40.32,TRADE
QLD1,"2012/12/12 05:00:00",4906.27,42.6,TRADE
QLD1,"2012/12/12 05:30:00",5018.49,43.62,TRADE
QLD1,"2012/12/12 06:00:00",5244.2,45.27,TRADE
QLD1,"2012/12/12 06:30:00",5575.8,47.45,TRADE
QLD1,"2012/12/12 07:00:00",5903.85,48.35,TRADE
QLD1,"2012/12/12 07:30:00",6206.96,47.5,TRADE
QLD1,"2012/12/12 08:00:00",6350.2,48.73,TRADE
QLD1,"2012/12/12 08:30:00",6432.52,49.22,TRADE
QLD1,"2012/12/12 09:00:00",6485.62,48.95,TRADE
QLD1,"2012/12/12 09:30:00",6548.03,50.21,TRADE
QLD1,"2012/12/12 10:00:00",6489.54,49.75,TRADE
QLD1,"2012/12/12 10:30:00",6539.8,51.41,TRADE
QLD1,"2012/12/12 11:00:00",6555.21,51.72,TRADE
QLD1,"2012/12/12 11:30:00",6562.01,51.22,TRADE
QLD1,"2012/12/12 12:00:00",6593.38,50.72,TRADE
QLD1,"2012/12/12 12:30:00",6564.66,49.58,TRADE
QLD1,"2012/12/12 13:00:00",6602.06,50.24,TRADE
QLD1,"2012/12/12 13:30:00",6669.76,49.75,TRADE
QLD1,"2012/12/12 14:00:00",6658.52,50.59,TRADE
QLD1,"2012/12/12 14:30:00",6699.83,58.61,TRADE
QLD1,"2012/12/12 15:00:00",6710.99,51.41,TRADE
QLD1,"2012/12/12 15:30:00",6743.64,51.1,TRADE
QLD1,"2012/12/12 16:00:00",6825.36,53.46,TRADE
QLD1,"2012/12/12 16:30:00",6837.71,52.3,TRADE
QLD1,"2012/12/12 17:00:00",6885.66,52.15,TRADE
QLD1,"2012/12/12 17:30:00",6871.96,51.84,TRADE
QLD1,"2012/12/12 18:00:00",6787.65,51.52,TRADE
QLD1,"2012/12/12 18:30:00",6693.04,53.58,TRADE
QLD1,"2012/12/12 19:00:00",6722.66,51.22,TRADE
QLD1,"2012/12/12 19:30:00",6788.57,52.73,TRADE
QLD1,"2012/12/12 20:00:00",6708.37,52.84,TRADE
QLD1,"2012/12/12 20:30:00",6602.28,51.32,TRADE
QLD1,"2012/12/12 21:00:00",6460.09,49.21,TRADE
QLD1,"2012/12/12 21:30:00",6510.49,49.88,TRADE
QLD1,"2012/12/12 22:00:00",6328.34,48.29,TRADE
QLD1,"2012/12/12 22:30:00",6076.71,48.81,TRADE
QLD1,"2012/12/12 23:00:00",5947.71,49.49,TRADE
QLD1,"2012/12/12 23:30:00",5812.57,48.86,TRADE
QLD1,"2012/12/13 00:00:00",5607.63,47.89,TRADE
QLD1,"2012/12/13 00:30:00",5423.79,45.2,TRADE
QLD1,"2012/12/13 01:00:00",5320.62,44.56,TRADE
QLD1,"2012/12/13 01:30:00",5123.4,42.47,TRADE
QLD1,"2012/12/13 02:00:00",4999.26,39.76,TRADE
QLD1,"2012/12/13 02:30:00",4959.8,41.13,TRADE
QLD1,"2012/12/13 03:00:00",4908,40.7,TRADE
QLD1,"2012/12/13 03:30:00",4883.99,40.3,TRADE
QLD1,"2012/12/13 04:00:00",4895.37,40.78,TRADE
QLD1,"2012/12/13 04:30:00",4955.34,41.23,TRADE
QLD1,"2012/12/13 05:00:00",4997.54,42.67,TRADE
QLD1,"2012/12/13 05:30:00",5176.44,44.17,TRADE
QLD1,"2012/12/13 06:00:00",5341.31,45.21,TRADE
QLD1,"2012/12/13 06:30:00",5615.38,47.49,TRADE
QLD1,"2012/12/13 07:00:00",5928.47,49.96,TRADE
QLD1,"2012/12/13 07:30:00",6213.73,49.54,TRADE
QLD1,"2012/12/13 08:00:00",6365.04,50.87,TRADE
QLD1,"2012/12/13 08:30:00",6498.49,51.45,TRADE
QLD1,"2012/12/13 09:00:00",6529.88,51.59,TRADE
QLD1,"2012/12/13 09:30:00",6519.03,50.94,TRADE
QLD1,"2012/12/13 10:00:00",6485.62,50.24,TRADE
QLD1,"2012/12/13 10:30:00",6521.45,51.04,TRADE
QLD1,"2012/12/13 11:00:00",6522.22,50.41,TRADE
QLD1,"2012/12/13 11:30:00",6532.01,51.64,TRADE
QLD1,"2012/12/13 12:00:00",6589.53,51.45,TRADE
QLD1,"2012/12/13 12:30:00",6592.24,51.97,TRADE
QLD1,"2012/12/13 13:00:00",6585.45,51.83,TRADE
QLD1,"2012/12/13 13:30:00",6547.69,59.55,TRADE
QLD1,"2012/12/13 14:00:00",6573.9,82.85,TRADE
QLD1,"2012/12/13 14:30:00",6613.21,106.07,TRADE
QLD1,"2012/12/13 15:00:00",6593.24,42.92,TRADE
QLD1,"2012/12/13 15:30:00",6676.08,56.91,TRADE
QLD1,"2012/12/13 16:00:00",6743.86,55.82,TRADE
QLD1,"2012/12/13 16:30:00",6841.55,56.28,TRADE
QLD1,"2012/12/13 17:00:00",6883.29,53.53,TRADE
QLD1,"2012/12/13 17:30:00",6832.43,50.85,TRADE
QLD1,"2012/12/13 18:00:00",6808.57,50.48,TRADE
QLD1,"2012/12/13 18:30:00",6697.06,51.19,TRADE
QLD1,"2012/12/13 19:00:00",6787.26,51.81,TRADE
QLD1,"2012/12/13 19:30:00",6857.49,51.83,TRADE
QLD1,"2012/12/13 20:00:00",6801.83,51.68,TRADE
QLD1,"2012/12/13 20:30:00",6688.4,51.12,TRADE
QLD1,"2012/12/13 21:00:00",6613.98,50.01,TRADE
QLD1,"2012/12/13 21:30:00",6551.43,50.36,TRADE
QLD1,"2012/12/13 22:00:00",6345.67,47.11,TRADE
QLD1,"2012/12/13 22:30:00",6110.18,49.42,TRADE
QLD1,"2012/12/13 23:00:00",5987.67,50.6,TRADE
QLD1,"2012/12/13 23:30:00",5863.52,50.2,TRADE
QLD1,"2012/12/14 00:00:00",5665.29,49.4,TRADE
QLD1,"2012/12/14 00:30:00",5427.45,48.44,TRADE
QLD1,"2012/12/14 01:00:00",5286.66,47.18,TRADE
QLD1,"2012/12/14 01:30:00",5118.84,45.88,TRADE
QLD1,"2012/12/14 02:00:00",5040.18,44.59,TRADE
QLD1,"2012/12/14 02:30:00",4949.22,43.59,TRADE
QLD1,"2012/12/14 03:00:00",4940.43,46.88,TRADE
QLD1,"2012/12/14 03:30:00",4932.23,46.73,TRADE
QLD1,"2012/12/14 04:00:00",4928.05,46.54,TRADE
QLD1,"2012/12/14 04:30:00",4982.84,46.32,TRADE
QLD1,"2012/12/14 05:00:00",5055.71,46.5,TRADE
QLD1,"2012/12/14 05:30:00",5182.53,45.49,TRADE
QLD1,"2012/12/14 06:00:00",5374.22,46.61,TRADE
QLD1,"2012/12/14 06:30:00",5691.15,49.67,TRADE
QLD1,"2012/12/14 07:00:00",5931.69,51.57,TRADE
QLD1,"2012/12/14 07:30:00",6202.07,50.57,TRADE
QLD1,"2012/12/14 08:00:00",6293.03,50.81,TRADE
QLD1,"2012/12/14 08:30:00",6433.08,51.11,TRADE
QLD1,"2012/12/14 09:00:00",6520,50.91,TRADE
QLD1,"2012/12/14 09:30:00",6521.13,51.72,TRADE
QLD1,"2012/12/14 10:00:00",6519.27,52.34,TRADE
QLD1,"2012/12/14 10:30:00",6521.1,52.01,TRADE
QLD1,"2012/12/14 11:00:00",6591.18,52.13,TRADE
QLD1,"2012/12/14 11:30:00",6617.09,51.68,TRADE
QLD1,"2012/12/14 12:00:00",6657.67,51.75,TRADE
QLD1,"2012/12/14 12:30:00",6652.1,50.79,TRADE
QLD1,"2012/12/14 13:00:00",6700.38,49.34,TRADE
QLD1,"2012/12/14 13:30:00",6688.17,48.67,TRADE
QLD1,"2012/12/14 14:00:00",6731.82,49.67,TRADE
QLD1,"2012/12/14 14:30:00",6797.2,49.94,TRADE
QLD1,"2012/12/14 15:00:00",6809.66,50.68,TRADE
QLD1,"2012/12/14 15:30:00",6846.7,55.13,TRADE
QLD1,"2012/12/14 16:00:00",6904.92,59.71,TRADE
QLD1,"2012/12/14 16:30:00",6942.45,59.75,TRADE
QLD1,"2012/12/14 17:00:00",6976.69,61.52,TRADE
QLD1,"2012/12/14 17:30:00",6896.34,54.14,TRADE
QLD1,"2012/12/14 18:00:00",6818.52,52.44,TRADE
QLD1,"2012/12/14 18:30:00",6613.21,50.88,TRADE
QLD1,"2012/12/14 19:00:00",6577.9,50.97,TRADE
QLD1,"2012/12/14 19:30:00",6622.87,51.89,TRADE
QLD1,"2012/12/14 20:00:00",6563.99,51.19,TRADE
QLD1,"2012/12/14 20:30:00",6446.73,49.85,TRADE
QLD1,"2012/12/14 21:00:00",6354.38,49.85,TRADE
QLD1,"2012/12/14 21:30:00",6426.52,51.62,TRADE
QLD1,"2012/12/14 22:00:00",6288.21,49.96,TRADE
QLD1,"2012/12/14 22:30:00",6039.88,54.34,TRADE
QLD1,"2012/12/14 23:00:00",5877.78,52.2,TRADE
QLD1,"2012/12/14 23:30:00",5786.47,51.77,TRADE
QLD1,"2012/12/15 00:00:00",5546.38,49.56,TRADE
QLD1,"2012/12/15 00:30:00",5365.9,48.51,TRADE
QLD1,"2012/12/15 01:00:00",5212.87,48.39,TRADE
QLD1,"2012/12/15 01:30:00",5059.75,46.53,TRADE
QLD1,"2012/12/15 02:00:00",4929.37,45.18,TRADE
QLD1,"2012/12/15 02:30:00",4872.95,44.56,TRADE
QLD1,"2012/12/15 03:00:00",4840.85,45.07,TRADE
QLD1,"2012/12/15 03:30:00",4851.94,44.65,TRADE
QLD1,"2012/12/15 04:00:00",4848.55,46.09,TRADE
QLD1,"2012/12/15 04:30:00",4838.06,43.7,TRADE
QLD1,"2012/12/15 05:00:00",4860.91,44.95,TRADE
QLD1,"2012/12/15 05:30:00",4919.83,45.39,TRADE
QLD1,"2012/12/15 06:00:00",4954.46,45.53,TRADE
QLD1,"2012/12/15 06:30:00",5103.87,46.06,TRADE
QLD1,"2012/12/15 07:00:00",5226.61,46.82,TRADE
QLD1,"2012/12/15 07:30:00",5436.81,47.45,TRADE
QLD1,"2012/12/15 08:00:00",5601.63,48.06,TRADE
QLD1,"2012/12/15 08:30:00",5812.58,48.33,TRADE
QLD1,"2012/12/15 09:00:00",5935.7,48.96,TRADE
QLD1,"2012/12/15 09:30:00",5969.85,49.64,TRADE
QLD1,"2012/12/15 10:00:00",5966.21,48.44,TRADE
QLD1,"2012/12/15 10:30:00",6008.93,48.88,TRADE
QLD1,"2012/12/15 11:00:00",6033.06,49.14,TRADE
QLD1,"2012/12/15 11:30:00",6027.66,49.05,TRADE
QLD1,"2012/12/15 12:00:00",6050.85,49.28,TRADE
QLD1,"2012/12/15 12:30:00",6056.58,49.01,TRADE
QLD1,"2012/12/15 13:00:00",6102.12,47.97,TRADE
QLD1,"2012/12/15 13:30:00",6156.57,48.71,TRADE
QLD1,"2012/12/15 14:00:00",6228.73,48.36,TRADE
QLD1,"2012/12/15 14:30:00",6287.76,47.94,TRADE
QLD1,"2012/12/15 15:00:00",6303.17,47.61,TRADE
QLD1,"2012/12/15 15:30:00",6421.19,48.84,TRADE
QLD1,"2012/12/15 16:00:00",6519.9,50.34,TRADE
QLD1,"2012/12/15 16:30:00",6585.59,50.91,TRADE
QLD1,"2012/12/15 17:00:00",6678.41,51.32,TRADE
QLD1,"2012/12/15 17:30:00",6698.59,51.4,TRADE
QLD1,"2012/12/15 18:00:00",6643.85,50.64,TRADE
QLD1,"2012/12/15 18:30:00",6528.39,50.62,TRADE
QLD1,"2012/12/15 19:00:00",6544.31,50.85,TRADE
QLD1,"2012/12/15 19:30:00",6568.9,51.77,TRADE
QLD1,"2012/12/15 20:00:00",6467.89,51.8,TRADE
QLD1,"2012/12/15 20:30:00",6406.94,51.69,TRADE
QLD1,"2012/12/15 21:00:00",6348.57,50.87,TRADE
QLD1,"2012/12/15 21:30:00",6379.58,51.35,TRADE
QLD1,"2012/12/15 22:00:00",6252.57,51.06,TRADE
QLD1,"2012/12/15 22:30:00",6054.36,51.17,TRADE
QLD1,"2012/12/15 23:00:00",5927.65,51.62,TRADE
QLD1,"2012/12/15 23:30:00",5821.95,50.62,TRADE
QLD1,"2012/12/16 00:00:00",5651.37,48.86,TRADE
QLD1,"2012/12/16 00:30:00",5459.89,49.7,TRADE
QLD1,"2012/12/16 01:00:00",5317.48,49.1,TRADE
QLD1,"2012/12/16 01:30:00",5179.2,46.87,TRADE
QLD1,"2012/12/16 02:00:00",5067.85,45.4,TRADE
QLD1,"2012/12/16 02:30:00",4971.1,43.32,TRADE
QLD1,"2012/12/16 03:00:00",4957.76,43.96,TRADE
QLD1,"2012/12/16 03:30:00",4914.96,44.39,TRADE
QLD1,"2012/12/16 04:00:00",4926.36,44.69,TRADE
QLD1,"2012/12/16 04:30:00",4922.3,45.16,TRADE
QLD1,"2012/12/16 05:00:00",4931.22,45.33,TRADE
QLD1,"2012/12/16 05:30:00",4910.04,45.26,TRADE
QLD1,"2012/12/16 06:00:00",4909.38,45.25,TRADE
QLD1,"2012/12/16 06:30:00",4989.54,45.3,TRADE
QLD1,"2012/12/16 07:00:00",5100.51,45.16,TRADE
QLD1,"2012/12/16 07:30:00",5280.17,46.73,TRADE
QLD1,"2012/12/16 08:00:00",5426.81,48.56,TRADE
QLD1,"2012/12/16 08:30:00",5607.02,49.41,TRADE
QLD1,"2012/12/16 09:00:00",5677.8,49.69,TRADE
QLD1,"2012/12/16 09:30:00",5779.72,48.52,TRADE
QLD1,"2012/12/16 10:00:00",5851.93,49.35,TRADE
QLD1,"2012/12/16 10:30:00",5912.67,49.98,TRADE
QLD1,"2012/12/16 11:00:00",5985.03,50.84,TRADE
QLD1,"2012/12/16 11:30:00",6061.38,51.37,TRADE
QLD1,"2012/12/16 12:00:00",6141.81,51.76,TRADE
QLD1,"2012/12/16 12:30:00",6239.56,51.81,TRADE
QLD1,"2012/12/16 13:00:00",6321.33,51.54,TRADE
QLD1,"2012/12/16 13:30:00",6402.85,51.81,TRADE
QLD1,"2012/12/16 14:00:00",6516.57,51.75,TRADE
QLD1,"2012/12/16 14:30:00",6552.11,51.63,TRADE
QLD1,"2012/12/16 15:00:00",6671.74,51.94,TRADE
QLD1,"2012/12/16 15:30:00",6765.19,52.27,TRADE
QLD1,"2012/12/16 16:00:00",6827.79,52.73,TRADE
QLD1,"2012/12/16 16:30:00",6879.54,53.19,TRADE
QLD1,"2012/12/16 17:00:00",6898.06,54.02,TRADE
QLD1,"2012/12/16 17:30:00",6943.08,54.58,TRADE
QLD1,"2012/12/16 18:00:00",6953.01,54.45,TRADE
QLD1,"2012/12/16 18:30:00",6891.82,53.55,TRADE
QLD1,"2012/12/16 19:00:00",6932.29,54.7,TRADE
QLD1,"2012/12/16 19:30:00",6914.9,175.39,TRADE
QLD1,"2012/12/16 20:00:00",6817.28,184.92,TRADE
QLD1,"2012/12/16 20:30:00",6739.65,95.83,TRADE
QLD1,"2012/12/16 21:00:00",6709.16,54.19,TRADE
QLD1,"2012/12/16 21:30:00",6735.39,52.62,TRADE
QLD1,"2012/12/16 22:00:00",6541.27,52.08,TRADE
QLD1,"2012/12/16 22:30:00",6305.78,53.23,TRADE
QLD1,"2012/12/16 23:00:00",6061.05,51.66,TRADE
QLD1,"2012/12/16 23:30:00",5932.18,51.68,TRADE
QLD1,"2012/12/17 00:00:00",5729.44,50.52,TRADE
QLD1,"2012/12/17 00:30:00",5588.13,50.27,TRADE
QLD1,"2012/12/17 01:00:00",5409.28,48.51,TRADE
QLD1,"2012/12/17 01:30:00",5243.67,46.36,TRADE
QLD1,"2012/12/17 02:00:00",5117.54,45.29,TRADE
QLD1,"2012/12/17 02:30:00",5078.37,45.4,TRADE
QLD1,"2012/12/17 03:00:00",5085.64,45.42,TRADE
QLD1,"2012/12/17 03:30:00",5028.32,45.98,TRADE
QLD1,"2012/12/17 04:00:00",5039.75,46.98,TRADE
QLD1,"2012/12/17 04:30:00",5081.88,49.18,TRADE
QLD1,"2012/12/17 05:00:00",5139.62,49.42,TRADE
QLD1,"2012/12/17 05:30:00",5259.26,51.62,TRADE
QLD1,"2012/12/17 06:00:00",5445.04,51.55,TRADE
QLD1,"2012/12/17 06:30:00",5795.95,51.31,TRADE
QLD1,"2012/12/17 07:00:00",6139.47,52.64,TRADE
QLD1,"2012/12/17 07:30:00",6514.17,53.99,TRADE
QLD1,"2012/12/17 08:00:00",6721.68,54.6,TRADE
QLD1,"2012/12/17 08:30:00",6923.61,54.65,TRADE
QLD1,"2012/12/17 09:00:00",7110.53,56.36,TRADE
QLD1,"2012/12/17 09:30:00",7198.03,63.64,TRADE
QLD1,"2012/12/17 10:00:00",7280.13,60.21,TRADE
QLD1,"2012/12/17 10:30:00",7362.78,64.15,TRADE
QLD1,"2012/12/17 11:00:00",7514.62,77.08,TRADE
QLD1,"2012/12/17 11:30:00",7562.85,142.25,TRADE
QLD1,"2012/12/17 12:00:00",7696.6,172.52,TRADE
QLD1,"2012/12/17 12:30:00",7821.44,199.52,TRADE
QLD1,"2012/12/17 13:00:00",7987.57,242.89,TRADE
QLD1,"2012/12/17 13:30:00",8077.31,101.67,TRADE
QLD1,"2012/12/17 14:00:00",8176.56,115.55,TRADE
QLD1,"2012/12/17 14:30:00",8234.35,186.26,TRADE
QLD1,"2012/12/17 15:00:00",8274.18,202.57,TRADE
QLD1,"2012/12/17 15:30:00",8363.33,103.34,TRADE
QLD1,"2012/12/17 16:00:00",8387.09,151.66,TRADE
QLD1,"2012/12/17 16:30:00",8355.28,97.61,TRADE
QLD1,"2012/12/17 17:00:00",8356.01,102.22,TRADE
QLD1,"2012/12/17 17:30:00",8220.95,68.22,TRADE
QLD1,"2012/12/17 18:00:00",8150.57,80.57,TRADE
QLD1,"2012/12/17 18:30:00",7973.89,65.1,TRADE
QLD1,"2012/12/17 19:00:00",8011.51,86.21,TRADE
QLD1,"2012/12/17 19:30:00",7988.11,95.77,TRADE
QLD1,"2012/12/17 20:00:00",7814.54,67.65,TRADE
QLD1,"2012/12/17 20:30:00",7711.63,69.6,TRADE
QLD1,"2012/12/17 21:00:00",7558.08,61.37,TRADE
QLD1,"2012/12/17 21:30:00",7429.42,57.4,TRADE
QLD1,"2012/12/17 22:00:00",7142.12,54.83,TRADE
QLD1,"2012/12/17 22:30:00",6797.99,56.2,TRADE
QLD1,"2012/12/17 23:00:00",6600.94,54.78,TRADE
QLD1,"2012/12/17 23:30:00",6413.81,52.73,TRADE
QLD1,"2012/12/18 00:00:00",6142.97,50.94,TRADE
QLD1,"2012/12/18 00:30:00",5959.04,51.66,TRADE
QLD1,"2012/12/18 01:00:00",5820.66,51.1,TRADE
QLD1,"2012/12/18 01:30:00",5632.87,49.64,TRADE
QLD1,"2012/12/18 02:00:00",5501.42,47.09,TRADE
QLD1,"2012/12/18 02:30:00",5433.21,48.18,TRADE
QLD1,"2012/12/18 03:00:00",5406.44,47.6,TRADE
QLD1,"2012/12/18 03:30:00",5360.62,47.17,TRADE
QLD1,"2012/12/18 04:00:00",5333.81,47.69,TRADE
QLD1,"2012/12/18 04:30:00",5378.4,48.32,TRADE
QLD1,"2012/12/18 05:00:00",5400.53,48.7,TRADE
QLD1,"2012/12/18 05:30:00",5516.42,49.03,TRADE
QLD1,"2012/12/18 06:00:00",5656.07,49.81,TRADE
QLD1,"2012/12/18 06:30:00",6024.19,51.12,TRADE
QLD1,"2012/12/18 07:00:00",6391.82,53.32,TRADE
QLD1,"2012/12/18 07:30:00",6744.11,54.25,TRADE
QLD1,"2012/12/18 08:00:00",6964.74,55.96,TRADE
QLD1,"2012/12/18 08:30:00",7172.95,58.99,TRADE
QLD1,"2012/12/18 09:00:00",7334.42,65.17,TRADE
QLD1,"2012/12/18 09:30:00",7412.83,63.08,TRADE
QLD1,"2012/12/18 10:00:00",7498.33,78.02,TRADE
QLD1,"2012/12/18 10:30:00",7553.95,65.21,TRADE
QLD1,"2012/12/18 11:00:00",7712.75,176.51,TRADE
QLD1,"2012/12/18 11:30:00",7723.69,84.52,TRADE
QLD1,"2012/12/18 12:00:00",7858.39,172.42,TRADE
QLD1,"2012/12/18 12:30:00",7924.1,60.62,TRADE
QLD1,"2012/12/18 13:00:00",8053.92,110.6,TRADE
QLD1,"2012/12/18 13:30:00",8202.37,289.75,TRADE
QLD1,"2012/12/18 14:00:00",8242.49,261.27,TRADE
QLD1,"2012/12/18 14:30:00",8261.39,178.73,TRADE
QLD1,"2012/12/18 15:00:00",8325.07,289,TRADE
QLD1,"2012/12/18 15:30:00",8346.77,257,TRADE
QLD1,"2012/12/18 16:00:00",8321.13,93.01,TRADE
QLD1,"2012/12/18 16:30:00",8279.99,180.24,TRADE
QLD1,"2012/12/18 17:00:00",8167.5,72.86,TRADE
QLD1,"2012/12/18 17:30:00",8057.58,86.26,TRADE
QLD1,"2012/12/18 18:00:00",7978.75,109.77,TRADE
QLD1,"2012/12/18 18:30:00",7817.87,72.59,TRADE
QLD1,"2012/12/18 19:00:00",7787.54,88.92,TRADE
QLD1,"2012/12/18 19:30:00",7767.37,90.54,TRADE
QLD1,"2012/12/18 20:00:00",7688.95,68.18,TRADE
QLD1,"2012/12/18 20:30:00",7479.49,56.78,TRADE
QLD1,"2012/12/18 21:00:00",7343.43,59.37,TRADE
QLD1,"2012/12/18 21:30:00",7245.06,75.58,TRADE
QLD1,"2012/12/18 22:00:00",6999.6,113.07,TRADE
QLD1,"2012/12/18 22:30:00",6650.1,76.88,TRADE
QLD1,"2012/12/18 23:00:00",6425.36,55.43,TRADE
QLD1,"2012/12/18 23:30:00",6272.92,54.24,TRADE
QLD1,"2012/12/19 00:00:00",6050.75,52,TRADE
QLD1,"2012/12/19 00:30:00",5863.95,51.58,TRADE
QLD1,"2012/12/19 01:00:00",5714.01,51.38,TRADE
QLD1,"2012/12/19 01:30:00",5552.42,48.73,TRADE
QLD1,"2012/12/19 02:00:00",5388.87,45.45,TRADE
QLD1,"2012/12/19 02:30:00",5343.88,47.55,TRADE
QLD1,"2012/12/19 03:00:00",5296.74,47.2,TRADE
QLD1,"2012/12/19 03:30:00",5276.76,47.43,TRADE
QLD1,"2012/12/19 04:00:00",5274.74,48.28,TRADE
QLD1,"2012/12/19 04:30:00",5345.82,48.68,TRADE
QLD1,"2012/12/19 05:00:00",5368.23,48.87,TRADE
QLD1,"2012/12/19 05:30:00",5475,50.19,TRADE
QLD1,"2012/12/19 06:00:00",5656.1,50.82,TRADE
QLD1,"2012/12/19 06:30:00",6010.06,51.85,TRADE
QLD1,"2012/12/19 07:00:00",6355.69,53.95,TRADE
QLD1,"2012/12/19 07:30:00",6685.26,53.7,TRADE
QLD1,"2012/12/19 08:00:00",6911.73,188.45,TRADE
QLD1,"2012/12/19 08:30:00",7052.93,289,TRADE
QLD1,"2012/12/19 09:00:00",7250.32,76.67,TRADE
QLD1,"2012/12/19 09:30:00",7346.64,71.55,TRADE
QLD1,"2012/12/19 10:00:00",7409.36,71.02,TRADE
QLD1,"2012/12/19 10:30:00",7395.63,58.88,TRADE
QLD1,"2012/12/19 11:00:00",7489.53,58.45,TRADE
QLD1,"2012/12/19 11:30:00",7554.16,58.73,TRADE
QLD1,"2012/12/19 12:00:00",7560.22,188.48,TRADE
QLD1,"2012/12/19 12:30:00",7627.91,56.61,TRADE
QLD1,"2012/12/19 13:00:00",7692.6,77.42,TRADE
QLD1,"2012/12/19 13:30:00",7703.16,180.06,TRADE
QLD1,"2012/12/19 14:00:00",7764.16,200.43,TRADE
QLD1,"2012/12/19 14:30:00",7798.9,89.34,TRADE
QLD1,"2012/12/19 15:00:00",7768.21,60.5,TRADE
QLD1,"2012/12/19 15:30:00",7865.48,62.33,TRADE
QLD1,"2012/12/19 16:00:00",7928.31,76.47,TRADE
QLD1,"2012/12/19 16:30:00",7924.72,81.08,TRADE
QLD1,"2012/12/19 17:00:00",7909.19,133.38,TRADE
QLD1,"2012/12/19 17:30:00",7757.15,220.09,TRADE
QLD1,"2012/12/19 18:00:00",7607.43,102.49,TRADE
QLD1,"2012/12/19 18:30:00",7527.78,53.91,TRADE
QLD1,"2012/12/19 19:00:00",7545.81,62.45,TRADE
QLD1,"2012/12/19 19:30:00",7560.91,146.02,TRADE
QLD1,"2012/12/19 20:00:00",7489.32,103.87,TRADE
QLD1,"2012/12/19 20:30:00",7374.35,58.31,TRADE
QLD1,"2012/12/19 21:00:00",7254.85,55.11,TRADE
QLD1,"2012/12/19 21:30:00",7160.33,55.73,TRADE
QLD1,"2012/12/19 22:00:00",6935.61,51.4,TRADE
QLD1,"2012/12/19 22:30:00",6632.13,53.87,TRADE
QLD1,"2012/12/19 23:00:00",6433.76,53.59,TRADE
QLD1,"2012/12/19 23:30:00",6250.39,51.54,TRADE
QLD1,"2012/12/20 00:00:00",6010.86,51.47,TRADE
QLD1,"2012/12/20 00:30:00",5830.25,50.9,TRADE
QLD1,"2012/12/20 01:00:00",5646.71,50.73,TRADE
QLD1,"2012/12/20 01:30:00",5475.59,49.5,TRADE
QLD1,"2012/12/20 02:00:00",5355.63,48.47,TRADE
QLD1,"2012/12/20 02:30:00",5329.82,49.37,TRADE
QLD1,"2012/12/20 03:00:00",5296.72,48.94,TRADE
QLD1,"2012/12/20 03:30:00",5318.86,49.13,TRADE
QLD1,"2012/12/20 04:00:00",5283.1,49.09,TRADE
QLD1,"2012/12/20 04:30:00",5316.66,49.47,TRADE
QLD1,"2012/12/20 05:00:00",5348.12,48.47,TRADE
QLD1,"2012/12/20 05:30:00",5469.35,49.52,TRADE
QLD1,"2012/12/20 06:00:00",5645.21,51.2,TRADE
QLD1,"2012/12/20 06:30:00",5913.56,51.74,TRADE
QLD1,"2012/12/20 07:00:00",6189.07,53.72,TRADE
QLD1,"2012/12/20 07:30:00",6580.1,52.77,TRADE
QLD1,"2012/12/20 08:00:00",6726.35,53.33,TRADE
QLD1,"2012/12/20 08:30:00",6947.49,53.82,TRADE
QLD1,"2012/12/20 09:00:00",7081.92,55.34,TRADE
QLD1,"2012/12/20 09:30:00",7169.89,55.09,TRADE
QLD1,"2012/12/20 10:00:00",7212.73,60.78,TRADE
QLD1,"2012/12/20 10:30:00",7275.87,75.36,TRADE
QLD1,"2012/12/20 11:00:00",7390.93,55.92,TRADE
QLD1,"2012/12/20 11:30:00",7477.22,54.36,TRADE
QLD1,"2012/12/20 12:00:00",7543.79,54.37,TRADE
QLD1,"2012/12/20 12:30:00",7605.59,56.24,TRADE
QLD1,"2012/12/20 13:00:00",7666.91,107.61,TRADE
QLD1,"2012/12/20 13:30:00",7682.85,99.63,TRADE
QLD1,"2012/12/20 14:00:00",7732.04,99.59,TRADE
QLD1,"2012/12/20 14:30:00",7690.13,54.95,TRADE
QLD1,"2012/12/20 15:00:00",7693.79,2234.4,TRADE
QLD1,"2012/12/20 15:30:00",7582.29,62.08,TRADE
QLD1,"2012/12/20 16:00:00",7565.03,53.3,TRADE
QLD1,"2012/12/20 16:30:00",7557.26,53.81,TRADE
QLD1,"2012/12/20 17:00:00",7525.97,54.24,TRADE
QLD1,"2012/12/20 17:30:00",7555.85,94.43,TRADE
QLD1,"2012/12/20 18:00:00",7522.54,70.22,TRADE
QLD1,"2012/12/20 18:30:00",7436.13,55.8,TRADE
QLD1,"2012/12/20 19:00:00",7473.89,2130.53,TRADE
QLD1,"2012/12/20 19:30:00",7438.92,63.7,TRADE
QLD1,"2012/12/20 20:00:00",7460.15,75.68,TRADE
QLD1,"2012/12/20 20:30:00",7335.09,53.9,TRADE
QLD1,"2012/12/20 21:00:00",7219.1,54.25,TRADE
QLD1,"2012/12/20 21:30:00",7219.12,54.95,TRADE
QLD1,"2012/12/20 22:00:00",7010.61,53.42,TRADE
QLD1,"2012/12/20 22:30:00",6679.51,110.56,TRADE
QLD1,"2012/12/20 23:00:00",6509.2,119.25,TRADE
QLD1,"2012/12/20 23:30:00",6324.57,73.59,TRADE
QLD1,"2012/12/21 00:00:00",6140.34,57.75,TRADE
QLD1,"2012/12/21 00:30:00",5970.15,54.25,TRADE
QLD1,"2012/12/21 01:00:00",5752.56,52,TRADE
QLD1,"2012/12/21 01:30:00",5548.02,50.7,TRADE
QLD1,"2012/12/21 02:00:00",5385.89,48.49,TRADE
QLD1,"2012/12/21 02:30:00",5295.36,48.85,TRADE
QLD1,"2012/12/21 03:00:00",5303.94,48.99,TRADE
QLD1,"2012/12/21 03:30:00",5285.91,49.06,TRADE
QLD1,"2012/12/21 04:00:00",5253.98,48.94,TRADE
QLD1,"2012/12/21 04:30:00",5299.53,49.17,TRADE
QLD1,"2012/12/21 05:00:00",5336.19,49.66,TRADE
QLD1,"2012/12/21 05:30:00",5495.49,51.25,TRADE
QLD1,"2012/12/21 06:00:00",5655.08,52.13,TRADE
QLD1,"2012/12/21 06:30:00",6003.27,53.48,TRADE
QLD1,"2012/12/21 07:00:00",6242.86,56.06,TRADE
QLD1,"2012/12/21 07:30:00",6488.45,53.32,TRADE
QLD1,"2012/12/21 08:00:00",6672.22,53.18,TRADE
QLD1,"2012/12/21 08:30:00",6882.78,95.95,TRADE
QLD1,"2012/12/21 09:00:00",6937.31,56.8,TRADE
QLD1,"2012/12/21 09:30:00",7050.46,53.07,TRADE
QLD1,"2012/12/21 10:00:00",7101.9,52.9,TRADE
QLD1,"2012/12/21 10:30:00",7094.17,52.92,TRADE
QLD1,"2012/12/21 11:00:00",7175.64,53.16,TRADE
QLD1,"2012/12/21 11:30:00",7210.22,53.24,TRADE
QLD1,"2012/12/21 12:00:00",7257.95,53.16,TRADE
QLD1,"2012/12/21 12:30:00",7236.65,52.97,TRADE
QLD1,"2012/12/21 13:00:00",7275.46,53.14,TRADE
QLD1,"2012/12/21 13:30:00",7316.42,53.34,TRADE
QLD1,"2012/12/21 14:00:00",7331.01,53.55,TRADE
QLD1,"2012/12/21 14:30:00",7366.79,53.77,TRADE
QLD1,"2012/12/21 15:00:00",7331.33,53.43,TRADE
QLD1,"2012/12/21 15:30:00",7277.29,52.97,TRADE
QLD1,"2012/12/21 16:00:00",7288.27,52.85,TRADE
QLD1,"2012/12/21 16:30:00",7263.84,51.52,TRADE
QLD1,"2012/12/21 17:00:00",7253.97,52.41,TRADE
QLD1,"2012/12/21 17:30:00",7147.23,51.61,TRADE
QLD1,"2012/12/21 18:00:00",7110.63,50.93,TRADE
QLD1,"2012/12/21 18:30:00",6973.89,50.97,TRADE
QLD1,"2012/12/21 19:00:00",6976.53,51.64,TRADE
QLD1,"2012/12/21 19:30:00",7045,53.33,TRADE
QLD1,"2012/12/21 20:00:00",6970.8,53.27,TRADE
QLD1,"2012/12/21 20:30:00",6883.29,53.99,TRADE
QLD1,"2012/12/21 21:00:00",6857.92,54.85,TRADE
QLD1,"2012/12/21 21:30:00",6821.72,54.27,TRADE
QLD1,"2012/12/21 22:00:00",6627.29,52.8,TRADE
QLD1,"2012/12/21 22:30:00",6380.93,53.67,TRADE
QLD1,"2012/12/21 23:00:00",6258.86,52.95,TRADE
QLD1,"2012/12/21 23:30:00",6101.65,53.95,TRADE
QLD1,"2012/12/22 00:00:00",5878.34,53.59,TRADE
QLD1,"2012/12/22 00:30:00",5681.9,52.93,TRADE
QLD1,"2012/12/22 01:00:00",5508.82,52.43,TRADE
QLD1,"2012/12/22 01:30:00",5349.89,51.1,TRADE
QLD1,"2012/12/22 02:00:00",5219.99,47.88,TRADE
QLD1,"2012/12/22 02:30:00",5134.48,48.63,TRADE
QLD1,"2012/12/22 03:00:00",5127.82,51.15,TRADE
QLD1,"2012/12/22 03:30:00",5085.08,50.38,TRADE
QLD1,"2012/12/22 04:00:00",5049.01,50.47,TRADE
QLD1,"2012/12/22 04:30:00",5097.62,47.26,TRADE
QLD1,"2012/12/22 05:00:00",5104.98,47.86,TRADE
QLD1,"2012/12/22 05:30:00",5103.85,48.42,TRADE
QLD1,"2012/12/22 06:00:00",5150.97,49.09,TRADE
QLD1,"2012/12/22 06:30:00",5296.88,49.21,TRADE
QLD1,"2012/12/22 07:00:00",5428.56,51.28,TRADE
QLD1,"2012/12/22 07:30:00",5651.07,50.56,TRADE
QLD1,"2012/12/22 08:00:00",5799.53,50.88,TRADE
QLD1,"2012/12/22 08:30:00",6016.58,51.71,TRADE
QLD1,"2012/12/22 09:00:00",6159.99,51.62,TRADE
QLD1,"2012/12/22 09:30:00",6230.08,51.88,TRADE
QLD1,"2012/12/22 10:00:00",6242.9,51.83,TRADE
QLD1,"2012/12/22 10:30:00",6270.08,52.11,TRADE
QLD1,"2012/12/22 11:00:00",6282.78,52.49,TRADE
QLD1,"2012/12/22 11:30:00",6292.59,52.62,TRADE
QLD1,"2012/12/22 12:00:00",6268.83,52.36,TRADE
QLD1,"2012/12/22 12:30:00",6283.16,52.37,TRADE
QLD1,"2012/12/22 13:00:00",6286.16,52.43,TRADE
QLD1,"2012/12/22 13:30:00",6300.38,52.51,TRADE
QLD1,"2012/12/22 14:00:00",6338.85,52.8,TRADE
QLD1,"2012/12/22 14:30:00",6348.31,53.31,TRADE
QLD1,"2012/12/22 15:00:00",6401.49,53.39,TRADE
QLD1,"2012/12/22 15:30:00",6453.7,54.03,TRADE
QLD1,"2012/12/22 16:00:00",6516.02,55.19,TRADE
QLD1,"2012/12/22 16:30:00",6545.33,56.41,TRADE
QLD1,"2012/12/22 17:00:00",6557.38,56.15,TRADE
QLD1,"2012/12/22 17:30:00",6590.3,56.11,TRADE
QLD1,"2012/12/22 18:00:00",6596.09,62.54,TRADE
QLD1,"2012/12/22 18:30:00",6509.71,54.73,TRADE
QLD1,"2012/12/22 19:00:00",6484.65,53.89,TRADE
QLD1,"2012/12/22 19:30:00",6597.75,54.55,TRADE
QLD1,"2012/12/22 20:00:00",6517.88,53.83,TRADE
QLD1,"2012/12/22 20:30:00",6465.5,53.36,TRADE
QLD1,"2012/12/22 21:00:00",6396.28,52.98,TRADE
QLD1,"2012/12/22 21:30:00",6473.52,53.53,TRADE
QLD1,"2012/12/22 22:00:00",6358.98,52.7,TRADE
QLD1,"2012/12/22 22:30:00",6138.74,54.27,TRADE
QLD1,"2012/12/22 23:00:00",6054.89,52.61,TRADE
QLD1,"2012/12/22 23:30:00",5930.22,52.07,TRADE
QLD1,"2012/12/23 00:00:00",5716.33,50.77,TRADE
QLD1,"2012/12/23 00:30:00",5542.57,50.32,TRADE
QLD1,"2012/12/23 01:00:00",5431.54,49.59,TRADE
QLD1,"2012/12/23 01:30:00",5201.46,45.99,TRADE
QLD1,"2012/12/23 02:00:00",5092.46,45.33,TRADE
QLD1,"2012/12/23 02:30:00",5062.08,45.48,TRADE
QLD1,"2012/12/23 03:00:00",5030.29,45.48,TRADE
QLD1,"2012/12/23 03:30:00",4986.21,46.64,TRADE
QLD1,"2012/12/23 04:00:00",4956.39,46.88,TRADE
QLD1,"2012/12/23 04:30:00",4969.06,47.39,TRADE
QLD1,"2012/12/23 05:00:00",4964.58,45.41,TRADE
QLD1,"2012/12/23 05:30:00",4941.45,45.46,TRADE
QLD1,"2012/12/23 06:00:00",4957.32,46.59,TRADE
QLD1,"2012/12/23 06:30:00",5094.82,46.32,TRADE
QLD1,"2012/12/23 07:00:00",5230.82,47.93,TRADE
QLD1,"2012/12/23 07:30:00",5428.54,45.77,TRADE
QLD1,"2012/12/23 08:00:00",5535.36,47.92,TRADE
QLD1,"2012/12/23 08:30:00",5684.75,49.22,TRADE
QLD1,"2012/12/23 09:00:00",5844.46,49.99,TRADE
QLD1,"2012/12/23 09:30:00",5920.12,50.09,TRADE
QLD1,"2012/12/23 10:00:00",5916.51,49.52,TRADE
QLD1,"2012/12/23 10:30:00",6006.29,49.99,TRADE
QLD1,"2012/12/23 11:00:00",6052.87,50.71,TRADE
QLD1,"2012/12/23 11:30:00",6067.45,50.55,TRADE
QLD1,"2012/12/23 12:00:00",6098.85,50.34,TRADE
QLD1,"2012/12/23 12:30:00",6158.02,50.7,TRADE
QLD1,"2012/12/23 13:00:00",6188.12,51.23,TRADE
QLD1,"2012/12/23 13:30:00",6229.92,51.59,TRADE
QLD1,"2012/12/23 14:00:00",6272.77,51.59,TRADE
QLD1,"2012/12/23 14:30:00",6328.19,51.17,TRADE
QLD1,"2012/12/23 15:00:00",6355.75,50.37,TRADE
QLD1,"2012/12/23 15:30:00",6365.13,50.6,TRADE
QLD1,"2012/12/23 16:00:00",6437.89,51.02,TRADE
QLD1,"2012/12/23 16:30:00",6516.21,51.42,TRADE
QLD1,"2012/12/23 17:00:00",6553.54,52.97,TRADE
QLD1,"2012/12/23 17:30:00",6575.66,52.18,TRADE
QLD1,"2012/12/23 18:00:00",6565.38,52.03,TRADE
QLD1,"2012/12/23 18:30:00",6480.75,51.17,TRADE
QLD1,"2012/12/23 19:00:00",6503.21,52.14,TRADE
QLD1,"2012/12/23 19:30:00",6564.07,55.42,TRADE
QLD1,"2012/12/23 20:00:00",6527.21,54.14,TRADE
QLD1,"2012/12/23 20:30:00",6409.96,52.86,TRADE
QLD1,"2012/12/23 21:00:00",6363.84,51.34,TRADE
QLD1,"2012/12/23 21:30:00",6347.16,52.01,TRADE
QLD1,"2012/12/23 22:00:00",6161.43,51.37,TRADE
QLD1,"2012/12/23 22:30:00",5972.28,53.96,TRADE
QLD1,"2012/12/23 23:00:00",5837.29,51.55,TRADE
QLD1,"2012/12/23 23:30:00",5724.09,51.46,TRADE
QLD1,"2012/12/24 00:00:00",5530.18,51.46,TRADE
QLD1,"2012/12/24 00:30:00",5350.18,49.32,TRADE
QLD1,"2012/12/24 01:00:00",5190.22,48.5,TRADE
QLD1,"2012/12/24 01:30:00",5015.6,46.02,TRADE
QLD1,"2012/12/24 02:00:00",4912.59,45.28,TRADE
QLD1,"2012/12/24 02:30:00",4904.01,45.6,TRADE
QLD1,"2012/12/24 03:00:00",4879.79,45.4,TRADE
QLD1,"2012/12/24 03:30:00",4859.11,45.44,TRADE
QLD1,"2012/12/24 04:00:00",4846.84,45.31,TRADE
QLD1,"2012/12/24 04:30:00",4871.77,45.38,TRADE
QLD1,"2012/12/24 05:00:00",4874.72,45.4,TRADE
QLD1,"2012/12/24 05:30:00",4957,48.18,TRADE
QLD1,"2012/12/24 06:00:00",5066.97,48.47,TRADE
QLD1,"2012/12/24 06:30:00",5287.52,48.39,TRADE
QLD1,"2012/12/24 07:00:00",5502.06,50.74,TRADE
QLD1,"2012/12/24 07:30:00",5744.92,49.61,TRADE
QLD1,"2012/12/24 08:00:00",5900.27,51.19,TRADE
QLD1,"2012/12/24 08:30:00",6129.32,51.96,TRADE
QLD1,"2012/12/24 09:00:00",6210.8,51.67,TRADE
QLD1,"2012/12/24 09:30:00",6262.49,51.67,TRADE
QLD1,"2012/12/24 10:00:00",6299.11,52.01,TRADE
QLD1,"2012/12/24 10:30:00",6290.54,51.84,TRADE
QLD1,"2012/12/24 11:00:00",6263.22,51.73,TRADE
QLD1,"2012/12/24 11:30:00",6219.86,51.57,TRADE
QLD1,"2012/12/24 12:00:00",6245.55,51.54,TRADE
QLD1,"2012/12/24 12:30:00",6269.34,51.76,TRADE
QLD1,"2012/12/24 13:00:00",6283.44,51.38,TRADE
QLD1,"2012/12/24 13:30:00",6260.54,51.07,TRADE
QLD1,"2012/12/24 14:00:00",6278.82,51.1,TRADE
QLD1,"2012/12/24 14:30:00",6281.83,51.3,TRADE
QLD1,"2012/12/24 15:00:00",6299.89,51.37,TRADE
QLD1,"2012/12/24 15:30:00",6273.44,51.29,TRADE
QLD1,"2012/12/24 16:00:00",6269.13,51.13,TRADE
QLD1,"2012/12/24 16:30:00",6244.44,50.78,TRADE
QLD1,"2012/12/24 17:00:00",6283.77,50.66,TRADE
QLD1,"2012/12/24 17:30:00",6218.46,48.95,TRADE
QLD1,"2012/12/24 18:00:00",6149.99,48.88,TRADE
QLD1,"2012/12/24 18:30:00",5971.21,48.14,TRADE
QLD1,"2012/12/24 19:00:00",5926.96,48.43,TRADE
QLD1,"2012/12/24 19:30:00",5958.21,48.64,TRADE
QLD1,"2012/12/24 20:00:00",5911.79,48.07,TRADE
QLD1,"2012/12/24 20:30:00",5844.04,47.45,TRADE
QLD1,"2012/12/24 21:00:00",5773.55,46.12,TRADE
QLD1,"2012/12/24 21:30:00",5852.47,47.72,TRADE
QLD1,"2012/12/24 22:00:00",5711.51,46.08,TRADE
QLD1,"2012/12/24 22:30:00",5460.41,48.59,TRADE
QLD1,"2012/12/24 23:00:00",5395.27,47.84,TRADE
QLD1,"2012/12/24 23:30:00",5254.57,46.89,TRADE
QLD1,"2012/12/25 00:00:00",5073.71,45.3,TRADE
QLD1,"2012/12/25 00:30:00",4852.1,44.44,TRADE
QLD1,"2012/12/25 01:00:00",4632.08,43.26,TRADE
QLD1,"2012/12/25 01:30:00",4446.06,41.47,TRADE
QLD1,"2012/12/25 02:00:00",4295.86,36.95,TRADE
QLD1,"2012/12/25 02:30:00",4194.15,37.46,TRADE
QLD1,"2012/12/25 03:00:00",4123.52,36.76,TRADE
QLD1,"2012/12/25 03:30:00",4125.85,38.74,TRADE
QLD1,"2012/12/25 04:00:00",4109.84,24.55,TRADE
QLD1,"2012/12/25 04:30:00",4099.08,28.2,TRADE
QLD1,"2012/12/25 05:00:00",4095.09,29.59,TRADE
QLD1,"2012/12/25 05:30:00",4120.6,39.59,TRADE
QLD1,"2012/12/25 06:00:00",4196.96,40.75,TRADE
QLD1,"2012/12/25 06:30:00",4344.74,39.57,TRADE
QLD1,"2012/12/25 07:00:00",4508.16,41.67,TRADE
QLD1,"2012/12/25 07:30:00",4699.32,42.38,TRADE
QLD1,"2012/12/25 08:00:00",4853.23,42.72,TRADE
QLD1,"2012/12/25 08:30:00",4945.76,42.76,TRADE
QLD1,"2012/12/25 09:00:00",5006.02,43.03,TRADE
QLD1,"2012/12/25 09:30:00",5028.78,43.12,TRADE
QLD1,"2012/12/25 10:00:00",5075.45,43.6,TRADE
QLD1,"2012/12/25 10:30:00",5108.74,43.71,TRADE
QLD1,"2012/12/25 11:00:00",5159.19,44.12,TRADE
QLD1,"2012/12/25 11:30:00",5193.83,44.52,TRADE
QLD1,"2012/12/25 12:00:00",5255.84,44.72,TRADE
QLD1,"2012/12/25 12:30:00",5250.31,44.35,TRADE
QLD1,"2012/12/25 13:00:00",5243.32,44.07,TRADE
QLD1,"2012/12/25 13:30:00",5258.27,44.22,TRADE
QLD1,"2012/12/25 14:00:00",5264.96,44.3,TRADE
QLD1,"2012/12/25 14:30:00",5305.54,43.08,TRADE
QLD1,"2012/12/25 15:00:00",5349,43.42,TRADE
QLD1,"2012/12/25 15:30:00",5426.64,45.05,TRADE
QLD1,"2012/12/25 16:00:00",5503.96,45.27,TRADE
QLD1,"2012/12/25 16:30:00",5592.8,45.4,TRADE
QLD1,"2012/12/25 17:00:00",5655.39,45.4,TRADE
QLD1,"2012/12/25 17:30:00",5635.57,45.37,TRADE
QLD1,"2012/12/25 18:00:00",5579.86,44.95,TRADE
QLD1,"2012/12/25 18:30:00",5437.26,44.74,TRADE
QLD1,"2012/12/25 19:00:00",5429.31,45.35,TRADE
QLD1,"2012/12/25 19:30:00",5520.84,45.42,TRADE
QLD1,"2012/12/25 20:00:00",5557.18,45.43,TRADE
QLD1,"2012/12/25 20:30:00",5531.39,45.3,TRADE
QLD1,"2012/12/25 21:00:00",5492.62,45.97,TRADE
QLD1,"2012/12/25 21:30:00",5582.43,47,TRADE
QLD1,"2012/12/25 22:00:00",5479.69,45.78,TRADE
QLD1,"2012/12/25 22:30:00",5326.79,47.83,TRADE
QLD1,"2012/12/25 23:00:00",5241.28,46.62,TRADE
QLD1,"2012/12/25 23:30:00",5137.99,45.94,TRADE
QLD1,"2012/12/26 00:00:00",4980.18,45.18,TRADE
QLD1,"2012/12/26 00:30:00",4776.49,42.7,TRADE
QLD1,"2012/12/26 01:00:00",4626.13,43.11,TRADE
QLD1,"2012/12/26 01:30:00",4481.72,42.27,TRADE
QLD1,"2012/12/26 02:00:00",4369.48,39.52,TRADE
QLD1,"2012/12/26 02:30:00",4295.81,36.76,TRADE
QLD1,"2012/12/26 03:00:00",4258.83,35.33,TRADE
QLD1,"2012/12/26 03:30:00",4213.95,27.17,TRADE
QLD1,"2012/12/26 04:00:00",4181.93,26.15,TRADE
QLD1,"2012/12/26 04:30:00",4246.03,39.64,TRADE
QLD1,"2012/12/26 05:00:00",4266.28,38.48,TRADE
QLD1,"2012/12/26 05:30:00",4289.62,38.62,TRADE
QLD1,"2012/12/26 06:00:00",4319.56,38.86,TRADE
QLD1,"2012/12/26 06:30:00",4407.23,41.56,TRADE
QLD1,"2012/12/26 07:00:00",4529.53,42.8,TRADE
QLD1,"2012/12/26 07:30:00",4736.53,41.02,TRADE
QLD1,"2012/12/26 08:00:00",4886.06,44.67,TRADE
QLD1,"2012/12/26 08:30:00",5045.16,44.97,TRADE
QLD1,"2012/12/26 09:00:00",5140.67,45.14,TRADE
QLD1,"2012/12/26 09:30:00",5182.8,44.9,TRADE
QLD1,"2012/12/26 10:00:00",5203.5,44.39,TRADE
QLD1,"2012/12/26 10:30:00",5232.97,44.54,TRADE
QLD1,"2012/12/26 11:00:00",5248.09,45.04,TRADE
QLD1,"2012/12/26 11:30:00",5240.44,45,TRADE
QLD1,"2012/12/26 12:00:00",5206.3,45,TRADE
QLD1,"2012/12/26 12:30:00",5190.21,44.89,TRADE
QLD1,"2012/12/26 13:00:00",5210.4,44.97,TRADE
QLD1,"2012/12/26 13:30:00",5253.58,45.03,TRADE
QLD1,"2012/12/26 14:00:00",5280.25,45.05,TRADE
QLD1,"2012/12/26 14:30:00",5322.81,45.21,TRADE
QLD1,"2012/12/26 15:00:00",5355.22,45.18,TRADE
QLD1,"2012/12/26 15:30:00",5357.97,45.26,TRADE
QLD1,"2012/12/26 16:00:00",5402.5,45.36,TRADE
QLD1,"2012/12/26 16:30:00",5471.01,45.42,TRADE
QLD1,"2012/12/26 17:00:00",5600.07,45.54,TRADE
QLD1,"2012/12/26 17:30:00",5691.37,45.69,TRADE
QLD1,"2012/12/26 18:00:00",5732.97,46.08,TRADE
QLD1,"2012/12/26 18:30:00",5646.36,45.61,TRADE
QLD1,"2012/12/26 19:00:00",5684.18,45.95,TRADE
QLD1,"2012/12/26 19:30:00",5812.46,46.87,TRADE
QLD1,"2012/12/26 20:00:00",5811.62,46.81,TRADE
QLD1,"2012/12/26 20:30:00",5762.8,46.36,TRADE
QLD1,"2012/12/26 21:00:00",5713.24,46.09,TRADE
QLD1,"2012/12/26 21:30:00",5771.66,47.01,TRADE
QLD1,"2012/12/26 22:00:00",5658.26,45.9,TRADE
QLD1,"2012/12/26 22:30:00",5511.67,47.41,TRADE
QLD1,"2012/12/26 23:00:00",5421.25,46.24,TRADE
QLD1,"2012/12/26 23:30:00",5305.02,45.41,TRADE
QLD1,"2012/12/27 00:00:00",5124.5,44.91,TRADE
QLD1,"2012/12/27 00:30:00",4982.76,44.47,TRADE
QLD1,"2012/12/27 01:00:00",4811.62,43.53,TRADE
QLD1,"2012/12/27 01:30:00",4651.88,42.71,TRADE
QLD1,"2012/12/27 02:00:00",4559.54,42.27,TRADE
QLD1,"2012/12/27 02:30:00",4529.05,42.01,TRADE
QLD1,"2012/12/27 03:00:00",4477.01,41.36,TRADE
QLD1,"2012/12/27 03:30:00",4483.64,41.25,TRADE
QLD1,"2012/12/27 04:00:00",4471.75,41.18,TRADE
QLD1,"2012/12/27 04:30:00",4498.87,41.64,TRADE
QLD1,"2012/12/27 05:00:00",4542.83,42.01,TRADE
QLD1,"2012/12/27 05:30:00",4615.02,42.58,TRADE
QLD1,"2012/12/27 06:00:00",4698.9,43.57,TRADE
QLD1,"2012/12/27 06:30:00",4881.39,44.53,TRADE
QLD1,"2012/12/27 07:00:00",5096.05,45.38,TRADE
QLD1,"2012/12/27 07:30:00",5363.48,45.17,TRADE
QLD1,"2012/12/27 08:00:00",5525.31,45.76,TRADE
QLD1,"2012/12/27 08:30:00",5720.09,46.71,TRADE
QLD1,"2012/12/27 09:00:00",5846.53,48.01,TRADE
QLD1,"2012/12/27 09:30:00",5989.31,47.5,TRADE
QLD1,"2012/12/27 10:00:00",6012.99,47.21,TRADE
QLD1,"2012/12/27 10:30:00",6021.91,45.81,TRADE
QLD1,"2012/12/27 11:00:00",6053.57,45.75,TRADE
QLD1,"2012/12/27 11:30:00",6093.71,46.04,TRADE
QLD1,"2012/12/27 12:00:00",6156.89,47.28,TRADE
QLD1,"2012/12/27 12:30:00",6199.02,46.85,TRADE
QLD1,"2012/12/27 13:00:00",6235.88,47.27,TRADE
QLD1,"2012/12/27 13:30:00",6290.35,48.5,TRADE
QLD1,"2012/12/27 14:00:00",6354.8,48.72,TRADE
QLD1,"2012/12/27 14:30:00",6351.63,48.95,TRADE
QLD1,"2012/12/27 15:00:00",6375.29,49,TRADE
QLD1,"2012/12/27 15:30:00",6476.36,49.87,TRADE
QLD1,"2012/12/27 16:00:00",6502.77,50.46,TRADE
QLD1,"2012/12/27 16:30:00",6587.97,51.29,TRADE
QLD1,"2012/12/27 17:00:00",6672.38,51.77,TRADE
QLD1,"2012/12/27 17:30:00",6636.26,50.61,TRADE
QLD1,"2012/12/27 18:00:00",6654.94,51.29,TRADE
QLD1,"2012/12/27 18:30:00",6509.71,49.03,TRADE
QLD1,"2012/12/27 19:00:00",6560.87,49.91,TRADE
QLD1,"2012/12/27 19:30:00",6620.22,51.2,TRADE
QLD1,"2012/12/27 20:00:00",6583.67,51,TRADE
QLD1,"2012/12/27 20:30:00",6416.89,48.84,TRADE
QLD1,"2012/12/27 21:00:00",6341.76,48.59,TRADE
QLD1,"2012/12/27 21:30:00",6298.17,50.12,TRADE
QLD1,"2012/12/27 22:00:00",6136.19,48.14,TRADE
QLD1,"2012/12/27 22:30:00",5914.96,50.83,TRADE
QLD1,"2012/12/27 23:00:00",5771.52,51.71,TRADE
QLD1,"2012/12/27 23:30:00",5723.65,51.61,TRADE
QLD1,"2012/12/28 00:00:00",5510.18,50.72,TRADE
QLD1,"2012/12/28 00:30:00",5305.17,47.59,TRADE
QLD1,"2012/12/28 01:00:00",5134.5,46.44,TRADE
QLD1,"2012/12/28 01:30:00",4995.23,45.76,TRADE
QLD1,"2012/12/28 02:00:00",4905.91,45.16,TRADE
QLD1,"2012/12/28 02:30:00",4828.09,45.13,TRADE
QLD1,"2012/12/28 03:00:00",4758.9,44.9,TRADE
QLD1,"2012/12/28 03:30:00",4739.99,44.85,TRADE
QLD1,"2012/12/28 04:00:00",4778.82,45.01,TRADE
QLD1,"2012/12/28 04:30:00",4759.86,45.06,TRADE
QLD1,"2012/12/28 05:00:00",4796.74,45.19,TRADE
QLD1,"2012/12/28 05:30:00",4860.11,45.42,TRADE
QLD1,"2012/12/28 06:00:00",4922.49,45.64,TRADE
QLD1,"2012/12/28 06:30:00",5114.96,46.22,TRADE
QLD1,"2012/12/28 07:00:00",5331.48,48.12,TRADE
QLD1,"2012/12/28 07:30:00",5597.26,46.71,TRADE
QLD1,"2012/12/28 08:00:00",5792.16,48.86,TRADE
QLD1,"2012/12/28 08:30:00",6022.06,50.03,TRADE
QLD1,"2012/12/28 09:00:00",6151.26,50.42,TRADE
QLD1,"2012/12/28 09:30:00",6270.26,51.06,TRADE
QLD1,"2012/12/28 10:00:00",6284.53,51.83,TRADE
QLD1,"2012/12/28 10:30:00",6293.08,51.33,TRADE
QLD1,"2012/12/28 11:00:00",6326.66,52,TRADE
QLD1,"2012/12/28 11:30:00",6357.71,51.71,TRADE
QLD1,"2012/12/28 12:00:00",6377.09,51.82,TRADE
QLD1,"2012/12/28 12:30:00",6463.63,52.13,TRADE
QLD1,"2012/12/28 13:00:00",6558.79,52.52,TRADE
QLD1,"2012/12/28 13:30:00",6640.41,52.99,TRADE
QLD1,"2012/12/28 14:00:00",6680.28,52.99,TRADE
QLD1,"2012/12/28 14:30:00",6744.06,53.3,TRADE
QLD1,"2012/12/28 15:00:00",6773.54,53.37,TRADE
QLD1,"2012/12/28 15:30:00",6802.65,53.39,TRADE
QLD1,"2012/12/28 16:00:00",6799.87,53.15,TRADE
QLD1,"2012/12/28 16:30:00",6727.94,52.72,TRADE
QLD1,"2012/12/28 17:00:00",6651.88,52.32,TRADE
QLD1,"2012/12/28 17:30:00",6639.97,51.54,TRADE
QLD1,"2012/12/28 18:00:00",6605.39,50.74,TRADE
QLD1,"2012/12/28 18:30:00",6410.37,48.49,TRADE
QLD1,"2012/12/28 19:00:00",6344.3,48.87,TRADE
QLD1,"2012/12/28 19:30:00",6362.19,49.69,TRADE
QLD1,"2012/12/28 20:00:00",6305.02,49.03,TRADE
QLD1,"2012/12/28 20:30:00",6204.4,48.41,TRADE
QLD1,"2012/12/28 21:00:00",6081.84,46.89,TRADE
QLD1,"2012/12/28 21:30:00",6116.68,47.58,TRADE
QLD1,"2012/12/28 22:00:00",6011.72,46.67,TRADE
QLD1,"2012/12/28 22:30:00",5818.37,49.26,TRADE
QLD1,"2012/12/28 23:00:00",5713.78,50.23,TRADE
QLD1,"2012/12/28 23:30:00",5598.16,49.61,TRADE
QLD1,"2012/12/29 00:00:00",5425.34,50.39,TRADE
QLD1,"2012/12/29 00:30:00",5244.8,46.81,TRADE
QLD1,"2012/12/29 01:00:00",5095.82,45.24,TRADE
QLD1,"2012/12/29 01:30:00",4953.15,44.91,TRADE
QLD1,"2012/12/29 02:00:00",4861.44,44.39,TRADE
QLD1,"2012/12/29 02:30:00",4773.88,43.95,TRADE
QLD1,"2012/12/29 03:00:00",4747.28,43.73,TRADE
QLD1,"2012/12/29 03:30:00",4743.92,44.05,TRADE
QLD1,"2012/12/29 04:00:00",4710.34,43.81,TRADE
QLD1,"2012/12/29 04:30:00",4738.09,43.91,TRADE
QLD1,"2012/12/29 05:00:00",4721.41,43.45,TRADE
QLD1,"2012/12/29 05:30:00",4695.2,43.45,TRADE
QLD1,"2012/12/29 06:00:00",4727.12,43.24,TRADE
QLD1,"2012/12/29 06:30:00",4825.16,44.26,TRADE
QLD1,"2012/12/29 07:00:00",5004.42,45.03,TRADE
QLD1,"2012/12/29 07:30:00",5187,46.1,TRADE
QLD1,"2012/12/29 08:00:00",5301.13,43.91,TRADE
QLD1,"2012/12/29 08:30:00",5561.44,44.63,TRADE
QLD1,"2012/12/29 09:00:00",5698.43,45.12,TRADE
QLD1,"2012/12/29 09:30:00",5717.75,92.39,TRADE
QLD1,"2012/12/29 10:00:00",5830.06,46.53,TRADE
QLD1,"2012/12/29 10:30:00",5883.89,45.17,TRADE
QLD1,"2012/12/29 11:00:00",5968.02,45.54,TRADE
QLD1,"2012/12/29 11:30:00",6025.35,46.28,TRADE
QLD1,"2012/12/29 12:00:00",6100.31,47.38,TRADE
QLD1,"2012/12/29 12:30:00",6146.24,47.23,TRADE
QLD1,"2012/12/29 13:00:00",6170.85,48.15,TRADE
QLD1,"2012/12/29 13:30:00",6215.51,48.9,TRADE
QLD1,"2012/12/29 14:00:00",6299.66,50.34,TRADE
QLD1,"2012/12/29 14:30:00",6338.61,50.47,TRADE
QLD1,"2012/12/29 15:00:00",6372.93,50.87,TRADE
QLD1,"2012/12/29 15:30:00",6417.42,54.89,TRADE
QLD1,"2012/12/29 16:00:00",6461.83,55.48,TRADE
QLD1,"2012/12/29 16:30:00",6539.39,55.43,TRADE
QLD1,"2012/12/29 17:00:00",6603.9,57.64,TRADE
QLD1,"2012/12/29 17:30:00",6581.15,51.82,TRADE
QLD1,"2012/12/29 18:00:00",6505.75,51.81,TRADE
QLD1,"2012/12/29 18:30:00",6457.61,51.31,TRADE
QLD1,"2012/12/29 19:00:00",6398.13,51.26,TRADE
QLD1,"2012/12/29 19:30:00",6469.21,51.8,TRADE
QLD1,"2012/12/29 20:00:00",6437.79,51.94,TRADE
QLD1,"2012/12/29 20:30:00",6353.49,51.33,TRADE
QLD1,"2012/12/29 21:00:00",6270.37,50.52,TRADE
QLD1,"2012/12/29 21:30:00",6308.68,51.94,TRADE
QLD1,"2012/12/29 22:00:00",6168.13,50.24,TRADE
QLD1,"2012/12/29 22:30:00",5976.23,52.36,TRADE
QLD1,"2012/12/29 23:00:00",5830.73,51.33,TRADE
QLD1,"2012/12/29 23:30:00",5730.93,51.28,TRADE
QLD1,"2012/12/30 00:00:00",5523.24,49.24,TRADE
QLD1,"2012/12/30 00:30:00",5324.33,45.74,TRADE
QLD1,"2012/12/30 01:00:00",5187.42,45.37,TRADE
QLD1,"2012/12/30 01:30:00",5019.99,44.86,TRADE
QLD1,"2012/12/30 02:00:00",4920.31,44.64,TRADE
QLD1,"2012/12/30 02:30:00",4836.41,44.32,TRADE
QLD1,"2012/12/30 03:00:00",4823.34,44.45,TRADE
QLD1,"2012/12/30 03:30:00",4746.1,43.58,TRADE
QLD1,"2012/12/30 04:00:00",4735.99,43.76,TRADE
QLD1,"2012/12/30 04:30:00",4744.8,44.15,TRADE
QLD1,"2012/12/30 05:00:00",4724.56,44.31,TRADE
QLD1,"2012/12/30 05:30:00",4737.34,44.75,TRADE
QLD1,"2012/12/30 06:00:00",4745.94,44.37,TRADE
QLD1,"2012/12/30 06:30:00",4834.51,44.83,TRADE
QLD1,"2012/12/30 07:00:00",4964.26,45.06,TRADE
QLD1,"2012/12/30 07:30:00",5180.28,44.93,TRADE
QLD1,"2012/12/30 08:00:00",5274.45,44.71,TRADE
QLD1,"2012/12/30 08:30:00",5404.41,45.05,TRADE
QLD1,"2012/12/30 09:00:00",5590.53,45.29,TRADE
QLD1,"2012/12/30 09:30:00",5608.68,45.07,TRADE
QLD1,"2012/12/30 10:00:00",5625.77,45.11,TRADE
QLD1,"2012/12/30 10:30:00",5644.76,44.87,TRADE
QLD1,"2012/12/30 11:00:00",5660.11,45.07,TRADE
QLD1,"2012/12/30 11:30:00",5655.01,45.45,TRADE
QLD1,"2012/12/30 12:00:00",5683.16,45.59,TRADE
QLD1,"2012/12/30 12:30:00",5741.55,45.63,TRADE
QLD1,"2012/12/30 13:00:00",5774.16,46.58,TRADE
QLD1,"2012/12/30 13:30:00",5740.59,45.8,TRADE
QLD1,"2012/12/30 14:00:00",5817.12,49.15,TRADE
QLD1,"2012/12/30 14:30:00",5839.59,49.35,TRADE
QLD1,"2012/12/30 15:00:00",5883.2,50.21,TRADE
QLD1,"2012/12/30 15:30:00",5967.72,47.81,TRADE
QLD1,"2012/12/30 16:00:00",6013.18,48.65,TRADE
QLD1,"2012/12/30 16:30:00",6059.24,48.65,TRADE
QLD1,"2012/12/30 17:00:00",6104.7,48.79,TRADE
QLD1,"2012/12/30 17:30:00",6172.74,48.59,TRADE
QLD1,"2012/12/30 18:00:00",6203.22,48.14,TRADE
QLD1,"2012/12/30 18:30:00",6193.98,47.84,TRADE
QLD1,"2012/12/30 19:00:00",6198.56,48.66,TRADE
QLD1,"2012/12/30 19:30:00",6225.61,50.67,TRADE
QLD1,"2012/12/30 20:00:00",6190.21,49.96,TRADE
QLD1,"2012/12/30 20:30:00",6087.46,48.83,TRADE
QLD1,"2012/12/30 21:00:00",6004.2,47.94,TRADE
QLD1,"2012/12/30 21:30:00",6033.95,48.58,TRADE
QLD1,"2012/12/30 22:00:00",5904.85,47.25,TRADE
QLD1,"2012/12/30 22:30:00",5736.42,49.11,TRADE
QLD1,"2012/12/30 23:00:00",5644.28,48.3,TRADE
QLD1,"2012/12/30 23:30:00",5490.13,46.83,TRADE
QLD1,"2012/12/31 00:00:00",5339.06,45.69,TRADE
QLD1,"2012/12/31 00:30:00",5138.8,44.95,TRADE
QLD1,"2012/12/31 01:00:00",4980.96,44.33,TRADE
QLD1,"2012/12/31 01:30:00",4818.17,43.47,TRADE
QLD1,"2012/12/31 02:00:00",4753.66,43.13,TRADE
QLD1,"2012/12/31 02:30:00",4665.79,42.33,TRADE
QLD1,"2012/12/31 03:00:00",4651.54,42.49,TRADE
QLD1,"2012/12/31 03:30:00",4653.54,42.43,TRADE
QLD1,"2012/12/31 04:00:00",4652.96,42.54,TRADE
QLD1,"2012/12/31 04:30:00",4692.92,42.67,TRADE
QLD1,"2012/12/31 05:00:00",4697.3,42.84,TRADE
QLD1,"2012/12/31 05:30:00",4713.45,42.96,TRADE
QLD1,"2012/12/31 06:00:00",4845.86,44.14,TRADE
QLD1,"2012/12/31 06:30:00",5015.12,44.71,TRADE
QLD1,"2012/12/31 07:00:00",5209.3,45.16,TRADE
QLD1,"2012/12/31 07:30:00",5466.08,45.1,TRADE
QLD1,"2012/12/31 08:00:00",5598.22,45.5,TRADE
QLD1,"2012/12/31 08:30:00",5786.41,46.13,TRADE
QLD1,"2012/12/31 09:00:00",5911.21,46.03,TRADE
QLD1,"2012/12/31 09:30:00",5978.95,46.01,TRADE
QLD1,"2012/12/31 10:00:00",5978.49,45.85,TRADE
QLD1,"2012/12/31 10:30:00",6010.16,46.41,TRADE
QLD1,"2012/12/31 11:00:00",5993.95,46.14,TRADE
QLD1,"2012/12/31 11:30:00",5989.61,46.27,TRADE
QLD1,"2012/12/31 12:00:00",6021.92,46.35,TRADE
QLD1,"2012/12/31 12:30:00",6038.31,46.69,TRADE
QLD1,"2012/12/31 13:00:00",6080.56,47.06,TRADE
QLD1,"2012/12/31 13:30:00",6108.91,47.45,TRADE
QLD1,"2012/12/31 14:00:00",6104.96,48.62,TRADE
QLD1,"2012/12/31 14:30:00",6154.45,48.67,TRADE
QLD1,"2012/12/31 15:00:00",6183.81,48.53,TRADE
QLD1,"2012/12/31 15:30:00",6227.2,48.41,TRADE
QLD1,"2012/12/31 16:00:00",6274.89,48.6,TRADE
QLD1,"2012/12/31 16:30:00",6347.45,48.75,TRADE
QLD1,"2012/12/31 17:00:00",6395.27,48.86,TRADE
QLD1,"2012/12/31 17:30:00",6388.74,48.33,TRADE
QLD1,"2012/12/31 18:00:00",6340.83,48.07,TRADE
QLD1,"2012/12/31 18:30:00",6124.33,45.38,TRADE
QLD1,"2012/12/31 19:00:00",6019.75,45.27,TRADE
QLD1,"2012/12/31 19:30:00",6038.27,45.53,TRADE
QLD1,"2012/12/31 20:00:00",5915.5,45.15,TRADE
QLD1,"2012/12/31 20:30:00",5843.21,44.87,TRADE
QLD1,"2012/12/31 21:00:00",5784.83,44.59,TRADE
QLD1,"2012/12/31 21:30:00",5796.95,45.54,TRADE
QLD1,"2012/12/31 22:00:00",5727.8,44.7,TRADE
QLD1,"2012/12/31 22:30:00",5605.46,47.26,TRADE
QLD1,"2012/12/31 23:00:00",5598.4,48.17,TRADE
QLD1,"2012/12/31 23:30:00",5566.28,48.61,TRADE
QLD1,"2013/01/01 00:00:00",5387.27,46.8,TRADE
