REGION,SETTLEMENTDATE,TOTALDEMAND,RRP,PERIODTYPE
VIC1,"2014/02/01 00:30:00",5194.2,42.96,TRADE
VIC1,"2014/02/01 01:00:00",4886.93,39.1,TRADE
VIC1,"2014/02/01 01:30:00",4734.5,38.31,TRADE
VIC1,"2014/02/01 02:00:00",4655.13,38.23,TRADE
VIC1,"2014/02/01 02:30:00",4547.63,38.13,TRADE
VIC1,"2014/02/01 03:00:00",4535.28,38.17,TRADE
VIC1,"2014/02/01 03:30:00",4532.66,38.2,TRADE
VIC1,"2014/02/01 04:00:00",4519.66,38.17,TRADE
VIC1,"2014/02/01 04:30:00",4562.56,38.17,TRADE
VIC1,"2014/02/01 05:00:00",4625.72,38.2,TRADE
VIC1,"2014/02/01 05:30:00",4734.4,38.21,TRADE
VIC1,"2014/02/01 06:00:00",4834.66,38.19,TRADE
VIC1,"2014/02/01 06:30:00",4990.99,40.32,TRADE
VIC1,"2014/02/01 07:00:00",5211.25,41.98,TRADE
VIC1,"2014/02/01 07:30:00",5298.32,42.09,TRADE
VIC1,"2014/02/01 08:00:00",5422.22,43.54,TRADE
VIC1,"2014/02/01 08:30:00",5612.36,44.97,TRADE
VIC1,"2014/02/01 09:00:00",5704.08,46.3,TRADE
VIC1,"2014/02/01 09:30:00",5781.97,48.09,TRADE
VIC1,"2014/02/01 10:00:00",5917.89,52.74,TRADE
VIC1,"2014/02/01 10:30:00",6011.82,52.76,TRADE
VIC1,"2014/02/01 11:00:00",6160.17,48.53,TRADE
VIC1,"2014/02/01 11:30:00",6294.73,45.99,TRADE
VIC1,"2014/02/01 12:00:00",6411.66,42.9,TRADE
VIC1,"2014/02/01 12:30:00",6551.65,40.39,TRADE
VIC1,"2014/02/01 13:00:00",6583.2,36.86,TRADE
VIC1,"2014/02/01 13:30:00",6758.57,38.83,TRADE
VIC1,"2014/02/01 14:00:00",6929.85,40.69,TRADE
VIC1,"2014/02/01 14:30:00",7029.17,57.96,TRADE
VIC1,"2014/02/01 15:00:00",7187.48,43.38,TRADE
VIC1,"2014/02/01 15:30:00",7313.43,44.31,TRADE
VIC1,"2014/02/01 16:00:00",7409.28,36.01,TRADE
VIC1,"2014/02/01 16:30:00",7502.51,41.22,TRADE
VIC1,"2014/02/01 17:00:00",7575.3,48.24,TRADE
VIC1,"2014/02/01 17:30:00",7546.01,48.23,TRADE
VIC1,"2014/02/01 18:00:00",7471.91,55.74,TRADE
VIC1,"2014/02/01 18:30:00",7312.39,54.75,TRADE
VIC1,"2014/02/01 19:00:00",7062.73,68.23,TRADE
VIC1,"2014/02/01 19:30:00",6800.89,67.53,TRADE
VIC1,"2014/02/01 20:00:00",6623.75,57.17,TRADE
VIC1,"2014/02/01 20:30:00",6547.79,56.83,TRADE
VIC1,"2014/02/01 21:00:00",6339.16,56.53,TRADE
VIC1,"2014/02/01 21:30:00",6056.92,56.94,TRADE
VIC1,"2014/02/01 22:00:00",5781.98,53.72,TRADE
VIC1,"2014/02/01 22:30:00",5601.06,55.1,TRADE
VIC1,"2014/02/01 23:00:00",5544.23,52.29,TRADE
VIC1,"2014/02/01 23:30:00",5781,52.34,TRADE
VIC1,"2014/02/02 00:00:00",5652.46,53.76,TRADE
VIC1,"2014/02/02 00:30:00",5270.64,44.18,TRADE
VIC1,"2014/02/02 01:00:00",4971.4,40.76,TRADE
VIC1,"2014/02/02 01:30:00",4796.91,39.96,TRADE
VIC1,"2014/02/02 02:00:00",4682.73,39.41,TRADE
VIC1,"2014/02/02 02:30:00",4591.1,39.15,TRADE
VIC1,"2014/02/02 03:00:00",4544.83,38.49,TRADE
VIC1,"2014/02/02 03:30:00",4481.37,38.18,TRADE
VIC1,"2014/02/02 04:00:00",4431.65,38.19,TRADE
VIC1,"2014/02/02 04:30:00",4398.49,38.2,TRADE
VIC1,"2014/02/02 05:00:00",4371.94,38.21,TRADE
VIC1,"2014/02/02 05:30:00",4437.98,38.19,TRADE
VIC1,"2014/02/02 06:00:00",4411.44,38.17,TRADE
VIC1,"2014/02/02 06:30:00",4490.53,38.2,TRADE
VIC1,"2014/02/02 07:00:00",4698.63,39.71,TRADE
VIC1,"2014/02/02 07:30:00",4831.8,40.86,TRADE
VIC1,"2014/02/02 08:00:00",4994.48,43.1,TRADE
VIC1,"2014/02/02 08:30:00",5267.82,45.51,TRADE
VIC1,"2014/02/02 09:00:00",5449.02,45.99,TRADE
VIC1,"2014/02/02 09:30:00",5702.94,41.42,TRADE
VIC1,"2014/02/02 10:00:00",5862.32,41.36,TRADE
VIC1,"2014/02/02 10:30:00",6143.15,42.57,TRADE
VIC1,"2014/02/02 11:00:00",6357.45,42.09,TRADE
VIC1,"2014/02/02 11:30:00",6559.33,38.78,TRADE
VIC1,"2014/02/02 12:00:00",6798.58,-64.27,TRADE
VIC1,"2014/02/02 12:30:00",7020.51,55.66,TRADE
VIC1,"2014/02/02 13:00:00",7258.36,59.82,TRADE
VIC1,"2014/02/02 13:30:00",7497.76,-46.95,TRADE
VIC1,"2014/02/02 14:00:00",7662.42,48.94,TRADE
VIC1,"2014/02/02 14:30:00",7805.46,81.23,TRADE
VIC1,"2014/02/02 15:00:00",8031.55,83.97,TRADE
VIC1,"2014/02/02 15:30:00",8272.99,71.15,TRADE
VIC1,"2014/02/02 16:00:00",8482.33,157.53,TRADE
VIC1,"2014/02/02 16:30:00",8552.38,221.2,TRADE
VIC1,"2014/02/02 17:00:00",8734.79,283.65,TRADE
VIC1,"2014/02/02 17:30:00",8783.78,293.21,TRADE
VIC1,"2014/02/02 18:00:00",8740.65,539.57,TRADE
VIC1,"2014/02/02 18:30:00",8608.78,75.09,TRADE
VIC1,"2014/02/02 19:00:00",8488.64,93.42,TRADE
VIC1,"2014/02/02 19:30:00",8358.91,75.65,TRADE
VIC1,"2014/02/02 20:00:00",8187.62,66.63,TRADE
VIC1,"2014/02/02 20:30:00",8133.24,78.3,TRADE
VIC1,"2014/02/02 21:00:00",7806.41,57.34,TRADE
VIC1,"2014/02/02 21:30:00",7407.01,56.08,TRADE
VIC1,"2014/02/02 22:00:00",6962.32,54.7,TRADE
VIC1,"2014/02/02 22:30:00",6614.05,54.55,TRADE
VIC1,"2014/02/02 23:00:00",6384.74,55.96,TRADE
VIC1,"2014/02/02 23:30:00",6580.54,52.91,TRADE
VIC1,"2014/02/03 00:00:00",6375.16,56.21,TRADE
VIC1,"2014/02/03 00:30:00",5907.56,51.51,TRADE
VIC1,"2014/02/03 01:00:00",5629.18,45.33,TRADE
VIC1,"2014/02/03 01:30:00",5415.97,40.91,TRADE
VIC1,"2014/02/03 02:00:00",5315.92,40.92,TRADE
VIC1,"2014/02/03 02:30:00",5252.2,41.88,TRADE
VIC1,"2014/02/03 03:00:00",5141.2,41.81,TRADE
VIC1,"2014/02/03 03:30:00",5139.56,41.05,TRADE
VIC1,"2014/02/03 04:00:00",5172.29,40.94,TRADE
VIC1,"2014/02/03 04:30:00",5257.64,42,TRADE
VIC1,"2014/02/03 05:00:00",5454.96,47.56,TRADE
VIC1,"2014/02/03 05:30:00",5815.38,52.93,TRADE
VIC1,"2014/02/03 06:00:00",6128.99,52.35,TRADE
VIC1,"2014/02/03 06:30:00",6600.42,54.44,TRADE
VIC1,"2014/02/03 07:00:00",6999.07,56.76,TRADE
VIC1,"2014/02/03 07:30:00",7086.57,49.73,TRADE
VIC1,"2014/02/03 08:00:00",7279.36,53.51,TRADE
VIC1,"2014/02/03 08:30:00",7497.41,54.02,TRADE
VIC1,"2014/02/03 09:00:00",7733.87,56.12,TRADE
VIC1,"2014/02/03 09:30:00",7822.69,56.79,TRADE
VIC1,"2014/02/03 10:00:00",7909.74,56.24,TRADE
VIC1,"2014/02/03 10:30:00",8021.07,57.06,TRADE
VIC1,"2014/02/03 11:00:00",7960.32,55.29,TRADE
VIC1,"2014/02/03 11:30:00",7969.45,47.21,TRADE
VIC1,"2014/02/03 12:00:00",7844.31,50.1,TRADE
VIC1,"2014/02/03 12:30:00",7703.32,40.58,TRADE
VIC1,"2014/02/03 13:00:00",7504.97,47.79,TRADE
VIC1,"2014/02/03 13:30:00",7460.6,47.49,TRADE
VIC1,"2014/02/03 14:00:00",7342.33,51.41,TRADE
VIC1,"2014/02/03 14:30:00",7276.09,52.47,TRADE
VIC1,"2014/02/03 15:00:00",7080.23,50.87,TRADE
VIC1,"2014/02/03 15:30:00",7003.89,49.23,TRADE
VIC1,"2014/02/03 16:00:00",6895.75,46.35,TRADE
VIC1,"2014/02/03 16:30:00",6796.93,48.33,TRADE
VIC1,"2014/02/03 17:00:00",6607.77,45.08,TRADE
VIC1,"2014/02/03 17:30:00",6322.97,43.17,TRADE
VIC1,"2014/02/03 18:00:00",6135.85,45.56,TRADE
VIC1,"2014/02/03 18:30:00",5925.43,44.95,TRADE
VIC1,"2014/02/03 19:00:00",5838.35,44.77,TRADE
VIC1,"2014/02/03 19:30:00",5668.86,42.69,TRADE
VIC1,"2014/02/03 20:00:00",5607.93,44.8,TRADE
VIC1,"2014/02/03 20:30:00",5556.83,44.97,TRADE
VIC1,"2014/02/03 21:00:00",5389.2,43.19,TRADE
VIC1,"2014/02/03 21:30:00",5138.98,41.42,TRADE
VIC1,"2014/02/03 22:00:00",4837.39,38.82,TRADE
VIC1,"2014/02/03 22:30:00",4760.03,40.12,TRADE
VIC1,"2014/02/03 23:00:00",4769.39,39.85,TRADE
VIC1,"2014/02/03 23:30:00",5077.81,41.66,TRADE
VIC1,"2014/02/04 00:00:00",5116.5,41.58,TRADE
VIC1,"2014/02/04 00:30:00",4696.45,37.86,TRADE
VIC1,"2014/02/04 01:00:00",4420.6,37.57,TRADE
VIC1,"2014/02/04 01:30:00",4273.93,37.4,TRADE
VIC1,"2014/02/04 02:00:00",4182.47,36.24,TRADE
VIC1,"2014/02/04 02:30:00",4090.48,34.74,TRADE
VIC1,"2014/02/04 03:00:00",4043.87,34.36,TRADE
VIC1,"2014/02/04 03:30:00",4062.71,35.84,TRADE
VIC1,"2014/02/04 04:00:00",4088.49,36.38,TRADE
VIC1,"2014/02/04 04:30:00",4256.48,37.41,TRADE
VIC1,"2014/02/04 05:00:00",4426.61,38.74,TRADE
VIC1,"2014/02/04 05:30:00",4891.84,41.51,TRADE
VIC1,"2014/02/04 06:00:00",5176.11,42.01,TRADE
VIC1,"2014/02/04 06:30:00",5557.08,43.06,TRADE
VIC1,"2014/02/04 07:00:00",5814.4,46.85,TRADE
VIC1,"2014/02/04 07:30:00",5750.17,43.44,TRADE
VIC1,"2014/02/04 08:00:00",5708.86,42.28,TRADE
VIC1,"2014/02/04 08:30:00",5758.01,42.76,TRADE
VIC1,"2014/02/04 09:00:00",5748.05,42.78,TRADE
VIC1,"2014/02/04 09:30:00",5815.75,42.66,TRADE
VIC1,"2014/02/04 10:00:00",5816.31,43.45,TRADE
VIC1,"2014/02/04 10:30:00",5850.89,45.15,TRADE
VIC1,"2014/02/04 11:00:00",5842.43,44.12,TRADE
VIC1,"2014/02/04 11:30:00",5834.99,44.8,TRADE
VIC1,"2014/02/04 12:00:00",5882.56,42.63,TRADE
VIC1,"2014/02/04 12:30:00",5915.56,42.8,TRADE
VIC1,"2014/02/04 13:00:00",5986.02,44.61,TRADE
VIC1,"2014/02/04 13:30:00",5964.16,42.79,TRADE
VIC1,"2014/02/04 14:00:00",6023.71,42.87,TRADE
VIC1,"2014/02/04 14:30:00",5976.03,43.07,TRADE
VIC1,"2014/02/04 15:00:00",5987.84,45.78,TRADE
VIC1,"2014/02/04 15:30:00",6024.9,46.22,TRADE
VIC1,"2014/02/04 16:00:00",6099.13,47.19,TRADE
VIC1,"2014/02/04 16:30:00",6116.47,45.83,TRADE
VIC1,"2014/02/04 17:00:00",6062.41,45.31,TRADE
VIC1,"2014/02/04 17:30:00",5928.36,43.2,TRADE
VIC1,"2014/02/04 18:00:00",5818.7,42.33,TRADE
VIC1,"2014/02/04 18:30:00",5633.08,41.36,TRADE
VIC1,"2014/02/04 19:00:00",5519.3,41.71,TRADE
VIC1,"2014/02/04 19:30:00",5412.74,41.13,TRADE
VIC1,"2014/02/04 20:00:00",5456.13,41.93,TRADE
VIC1,"2014/02/04 20:30:00",5466.01,43.43,TRADE
VIC1,"2014/02/04 21:00:00",5337.42,40.01,TRADE
VIC1,"2014/02/04 21:30:00",5105.69,39.84,TRADE
VIC1,"2014/02/04 22:00:00",4865.2,38.1,TRADE
VIC1,"2014/02/04 22:30:00",4747.42,39.27,TRADE
VIC1,"2014/02/04 23:00:00",4720.78,38.85,TRADE
VIC1,"2014/02/04 23:30:00",4990.43,42.1,TRADE
VIC1,"2014/02/05 00:00:00",5033.32,42.57,TRADE
VIC1,"2014/02/05 00:30:00",4659.3,37.59,TRADE
VIC1,"2014/02/05 01:00:00",4426.26,34.67,TRADE
VIC1,"2014/02/05 01:30:00",4302.5,29.93,TRADE
VIC1,"2014/02/05 02:00:00",4203.91,33.25,TRADE
VIC1,"2014/02/05 02:30:00",4113.4,28.56,TRADE
VIC1,"2014/02/05 03:00:00",4074.39,33.59,TRADE
VIC1,"2014/02/05 03:30:00",4110.54,36.03,TRADE
VIC1,"2014/02/05 04:00:00",4181.96,36.97,TRADE
VIC1,"2014/02/05 04:30:00",4323.73,37.72,TRADE
VIC1,"2014/02/05 05:00:00",4537.6,38.56,TRADE
VIC1,"2014/02/05 05:30:00",4950.27,41.16,TRADE
VIC1,"2014/02/05 06:00:00",5252.66,43.33,TRADE
VIC1,"2014/02/05 06:30:00",5647.7,44.06,TRADE
VIC1,"2014/02/05 07:00:00",5907.5,46.3,TRADE
VIC1,"2014/02/05 07:30:00",5808.08,44.5,TRADE
VIC1,"2014/02/05 08:00:00",5804.69,43.44,TRADE
VIC1,"2014/02/05 08:30:00",5840.04,45.54,TRADE
VIC1,"2014/02/05 09:00:00",5841.54,46.67,TRADE
VIC1,"2014/02/05 09:30:00",5876.66,48.46,TRADE
VIC1,"2014/02/05 10:00:00",5958.92,47.95,TRADE
VIC1,"2014/02/05 10:30:00",6080.19,48.65,TRADE
VIC1,"2014/02/05 11:00:00",6150.89,49.02,TRADE
VIC1,"2014/02/05 11:30:00",6227.16,49.07,TRADE
VIC1,"2014/02/05 12:00:00",6338.71,48.75,TRADE
VIC1,"2014/02/05 12:30:00",6414.17,48.71,TRADE
VIC1,"2014/02/05 13:00:00",6506.92,49.67,TRADE
VIC1,"2014/02/05 13:30:00",6562.44,52.55,TRADE
VIC1,"2014/02/05 14:00:00",6649.62,51.89,TRADE
VIC1,"2014/02/05 14:30:00",6731.6,52.24,TRADE
VIC1,"2014/02/05 15:00:00",6787.99,52.48,TRADE
VIC1,"2014/02/05 15:30:00",6971.43,55.26,TRADE
VIC1,"2014/02/05 16:00:00",7100.26,55.61,TRADE
VIC1,"2014/02/05 16:30:00",7129.9,52.86,TRADE
VIC1,"2014/02/05 17:00:00",7132.1,48.94,TRADE
VIC1,"2014/02/05 17:30:00",6978.75,44.39,TRADE
VIC1,"2014/02/05 18:00:00",6835.51,42.9,TRADE
VIC1,"2014/02/05 18:30:00",6665.89,44.33,TRADE
VIC1,"2014/02/05 19:00:00",6505.96,43.56,TRADE
VIC1,"2014/02/05 19:30:00",6284.46,44.82,TRADE
VIC1,"2014/02/05 20:00:00",6191.16,47.64,TRADE
VIC1,"2014/02/05 20:30:00",6138.5,47.55,TRADE
VIC1,"2014/02/05 21:00:00",5947.67,42.78,TRADE
VIC1,"2014/02/05 21:30:00",5624.47,42.92,TRADE
VIC1,"2014/02/05 22:00:00",5340.13,40.37,TRADE
VIC1,"2014/02/05 22:30:00",5179.08,40.91,TRADE
VIC1,"2014/02/05 23:00:00",5139.54,40.82,TRADE
VIC1,"2014/02/05 23:30:00",5508.23,41.23,TRADE
VIC1,"2014/02/06 00:00:00",5509.05,42.02,TRADE
VIC1,"2014/02/06 00:30:00",5057.95,40.19,TRADE
VIC1,"2014/02/06 01:00:00",4801.63,40.26,TRADE
VIC1,"2014/02/06 01:30:00",4712.76,39.37,TRADE
VIC1,"2014/02/06 02:00:00",4599.54,38.1,TRADE
VIC1,"2014/02/06 02:30:00",4518.26,38.2,TRADE
VIC1,"2014/02/06 03:00:00",4475.06,38.17,TRADE
VIC1,"2014/02/06 03:30:00",4485.28,39.59,TRADE
VIC1,"2014/02/06 04:00:00",4526.15,40.09,TRADE
VIC1,"2014/02/06 04:30:00",4668.05,40.5,TRADE
VIC1,"2014/02/06 05:00:00",4881.04,40.92,TRADE
VIC1,"2014/02/06 05:30:00",5241.8,43.56,TRADE
VIC1,"2014/02/06 06:00:00",5458.67,46.13,TRADE
VIC1,"2014/02/06 06:30:00",5811.23,50.37,TRADE
VIC1,"2014/02/06 07:00:00",6129.9,54.34,TRADE
VIC1,"2014/02/06 07:30:00",6083.9,49.14,TRADE
VIC1,"2014/02/06 08:00:00",6186.95,49.81,TRADE
VIC1,"2014/02/06 08:30:00",6295.16,53.22,TRADE
VIC1,"2014/02/06 09:00:00",6379.45,50.04,TRADE
VIC1,"2014/02/06 09:30:00",6487.81,50.97,TRADE
VIC1,"2014/02/06 10:00:00",6607.14,51.78,TRADE
VIC1,"2014/02/06 10:30:00",6637.5,50.75,TRADE
VIC1,"2014/02/06 11:00:00",6812.55,56.12,TRADE
VIC1,"2014/02/06 11:30:00",6996.48,55.4,TRADE
VIC1,"2014/02/06 12:00:00",7128.23,53.35,TRADE
VIC1,"2014/02/06 12:30:00",7264.69,54.09,TRADE
VIC1,"2014/02/06 13:00:00",7458.7,55.65,TRADE
VIC1,"2014/02/06 13:30:00",7642.58,59.48,TRADE
VIC1,"2014/02/06 14:00:00",7823.4,65.13,TRADE
VIC1,"2014/02/06 14:30:00",7993.05,64.35,TRADE
VIC1,"2014/02/06 15:00:00",8173.89,68.25,TRADE
VIC1,"2014/02/06 15:30:00",8447.83,88.47,TRADE
VIC1,"2014/02/06 16:00:00",8601.99,174,TRADE
VIC1,"2014/02/06 16:30:00",8680.69,80.91,TRADE
VIC1,"2014/02/06 17:00:00",8775.25,70.27,TRADE
VIC1,"2014/02/06 17:30:00",8674.92,74.73,TRADE
VIC1,"2014/02/06 18:00:00",8619.41,76.91,TRADE
VIC1,"2014/02/06 18:30:00",8441.54,70.07,TRADE
VIC1,"2014/02/06 19:00:00",8252.11,63.47,TRADE
VIC1,"2014/02/06 19:30:00",7988.89,62.07,TRADE
VIC1,"2014/02/06 20:00:00",7888.09,73.93,TRADE
VIC1,"2014/02/06 20:30:00",7681.39,76.24,TRADE
VIC1,"2014/02/06 21:00:00",7362.79,65.13,TRADE
VIC1,"2014/02/06 21:30:00",6857.08,57.57,TRADE
VIC1,"2014/02/06 22:00:00",6385.06,54.14,TRADE
VIC1,"2014/02/06 22:30:00",6114.63,53.57,TRADE
VIC1,"2014/02/06 23:00:00",5958.37,52.86,TRADE
VIC1,"2014/02/06 23:30:00",6166.95,52.86,TRADE
VIC1,"2014/02/07 00:00:00",6013.5,53.9,TRADE
VIC1,"2014/02/07 00:30:00",5556.07,47.18,TRADE
VIC1,"2014/02/07 01:00:00",5284.42,43.71,TRADE
VIC1,"2014/02/07 01:30:00",5142.95,40.81,TRADE
VIC1,"2014/02/07 02:00:00",4956.07,40.69,TRADE
VIC1,"2014/02/07 02:30:00",4862.56,40.31,TRADE
VIC1,"2014/02/07 03:00:00",4847.43,40.72,TRADE
VIC1,"2014/02/07 03:30:00",4867.83,40.86,TRADE
VIC1,"2014/02/07 04:00:00",4908.95,41.33,TRADE
VIC1,"2014/02/07 04:30:00",5058.68,43.78,TRADE
VIC1,"2014/02/07 05:00:00",5220.74,46.11,TRADE
VIC1,"2014/02/07 05:30:00",5539.61,51.04,TRADE
VIC1,"2014/02/07 06:00:00",5826.64,53.42,TRADE
VIC1,"2014/02/07 06:30:00",6263.32,57.23,TRADE
VIC1,"2014/02/07 07:00:00",6656,58.71,TRADE
VIC1,"2014/02/07 07:30:00",6747.34,53.31,TRADE
VIC1,"2014/02/07 08:00:00",6953.34,52.36,TRADE
VIC1,"2014/02/07 08:30:00",7143.2,56.33,TRADE
VIC1,"2014/02/07 09:00:00",7182.08,56.04,TRADE
VIC1,"2014/02/07 09:30:00",7385.9,59.6,TRADE
VIC1,"2014/02/07 10:00:00",7549.08,62.39,TRADE
VIC1,"2014/02/07 10:30:00",7873.4,85.41,TRADE
VIC1,"2014/02/07 11:00:00",8032.81,79.42,TRADE
VIC1,"2014/02/07 11:30:00",8176.71,76.55,TRADE
VIC1,"2014/02/07 12:00:00",8337.43,72.97,TRADE
VIC1,"2014/02/07 12:30:00",8513.21,71.05,TRADE
VIC1,"2014/02/07 13:00:00",8644.29,93.92,TRADE
VIC1,"2014/02/07 13:30:00",8596.04,84.99,TRADE
VIC1,"2014/02/07 14:00:00",8618.21,69.46,TRADE
VIC1,"2014/02/07 14:30:00",8535.49,65.85,TRADE
VIC1,"2014/02/07 15:00:00",8495.39,73.39,TRADE
VIC1,"2014/02/07 15:30:00",8536.09,72.79,TRADE
VIC1,"2014/02/07 16:00:00",8564.28,84.87,TRADE
VIC1,"2014/02/07 16:30:00",8508.78,78.09,TRADE
VIC1,"2014/02/07 17:00:00",8350.98,70.49,TRADE
VIC1,"2014/02/07 17:30:00",8082,61.97,TRADE
VIC1,"2014/02/07 18:00:00",7741.32,57.08,TRADE
VIC1,"2014/02/07 18:30:00",7377.84,57.8,TRADE
VIC1,"2014/02/07 19:00:00",7099.2,58.22,TRADE
VIC1,"2014/02/07 19:30:00",6872.92,57.29,TRADE
VIC1,"2014/02/07 20:00:00",6744.52,56.56,TRADE
VIC1,"2014/02/07 20:30:00",6586.78,54.59,TRADE
VIC1,"2014/02/07 21:00:00",6337.9,53.41,TRADE
VIC1,"2014/02/07 21:30:00",6002.89,51.16,TRADE
VIC1,"2014/02/07 22:00:00",5797.23,48.78,TRADE
VIC1,"2014/02/07 22:30:00",5633.51,48.9,TRADE
VIC1,"2014/02/07 23:00:00",5521.64,46.69,TRADE
VIC1,"2014/02/07 23:30:00",5815.1,45.79,TRADE
VIC1,"2014/02/08 00:00:00",5744.17,46.38,TRADE
VIC1,"2014/02/08 00:30:00",5326.21,41.08,TRADE
VIC1,"2014/02/08 01:00:00",4998.79,39.35,TRADE
VIC1,"2014/02/08 01:30:00",4855.85,37.94,TRADE
VIC1,"2014/02/08 02:00:00",4784.37,38.24,TRADE
VIC1,"2014/02/08 02:30:00",4678.02,38.07,TRADE
VIC1,"2014/02/08 03:00:00",4646.43,38.2,TRADE
VIC1,"2014/02/08 03:30:00",4563.26,38.07,TRADE
VIC1,"2014/02/08 04:00:00",4560.5,38.08,TRADE
VIC1,"2014/02/08 04:30:00",4593.06,38,TRADE
VIC1,"2014/02/08 05:00:00",4650.8,38.07,TRADE
VIC1,"2014/02/08 05:30:00",4780.2,38.34,TRADE
VIC1,"2014/02/08 06:00:00",4837.46,38.38,TRADE
VIC1,"2014/02/08 06:30:00",5039.91,39.27,TRADE
VIC1,"2014/02/08 07:00:00",5335.26,41.25,TRADE
VIC1,"2014/02/08 07:30:00",5415.92,41.57,TRADE
VIC1,"2014/02/08 08:00:00",5641.29,43.66,TRADE
VIC1,"2014/02/08 08:30:00",5900.07,45.79,TRADE
VIC1,"2014/02/08 09:00:00",6006.5,46.88,TRADE
VIC1,"2014/02/08 09:30:00",6152.63,49.89,TRADE
VIC1,"2014/02/08 10:00:00",6295.1,49.32,TRADE
VIC1,"2014/02/08 10:30:00",6494.12,50.5,TRADE
VIC1,"2014/02/08 11:00:00",6690.43,53.32,TRADE
VIC1,"2014/02/08 11:30:00",6892.11,54.77,TRADE
VIC1,"2014/02/08 12:00:00",7120.27,52.45,TRADE
VIC1,"2014/02/08 12:30:00",7348.65,54.7,TRADE
VIC1,"2014/02/08 13:00:00",7558.58,52.68,TRADE
VIC1,"2014/02/08 13:30:00",7775.45,50.39,TRADE
VIC1,"2014/02/08 14:00:00",7959.81,55.04,TRADE
VIC1,"2014/02/08 14:30:00",8136.44,60.38,TRADE
VIC1,"2014/02/08 15:00:00",8318.11,68.76,TRADE
VIC1,"2014/02/08 15:30:00",8461.83,100.92,TRADE
VIC1,"2014/02/08 16:00:00",8616.78,91.47,TRADE
VIC1,"2014/02/08 16:30:00",8729.15,96.26,TRADE
VIC1,"2014/02/08 17:00:00",8732.93,113.34,TRADE
VIC1,"2014/02/08 17:30:00",8690.44,131.37,TRADE
VIC1,"2014/02/08 18:00:00",8623.96,110.95,TRADE
VIC1,"2014/02/08 18:30:00",8480.93,58.8,TRADE
VIC1,"2014/02/08 19:00:00",8272.22,55.7,TRADE
VIC1,"2014/02/08 19:30:00",8064.93,56.1,TRADE
VIC1,"2014/02/08 20:00:00",7923.24,57.84,TRADE
VIC1,"2014/02/08 20:30:00",7820.31,56.31,TRADE
VIC1,"2014/02/08 21:00:00",7552.04,56.3,TRADE
VIC1,"2014/02/08 21:30:00",7224.87,56.16,TRADE
VIC1,"2014/02/08 22:00:00",6784.19,53.19,TRADE
VIC1,"2014/02/08 22:30:00",6534.85,51.85,TRADE
VIC1,"2014/02/08 23:00:00",6381.33,51.62,TRADE
VIC1,"2014/02/08 23:30:00",6533.54,54.4,TRADE
VIC1,"2014/02/09 00:00:00",6322.14,52.47,TRADE
VIC1,"2014/02/09 00:30:00",5733.23,46.17,TRADE
VIC1,"2014/02/09 01:00:00",5497.63,44.27,TRADE
VIC1,"2014/02/09 01:30:00",5318.81,40.91,TRADE
VIC1,"2014/02/09 02:00:00",5188.71,39.94,TRADE
VIC1,"2014/02/09 02:30:00",5055,38.57,TRADE
VIC1,"2014/02/09 03:00:00",4973.17,38.17,TRADE
VIC1,"2014/02/09 03:30:00",4951.33,38.25,TRADE
VIC1,"2014/02/09 04:00:00",4913.39,38.19,TRADE
VIC1,"2014/02/09 04:30:00",4954.47,38.17,TRADE
VIC1,"2014/02/09 05:00:00",4966.75,38.23,TRADE
VIC1,"2014/02/09 05:30:00",5044.98,38.76,TRADE
VIC1,"2014/02/09 06:00:00",5051.94,38.17,TRADE
VIC1,"2014/02/09 06:30:00",5174.39,40.14,TRADE
VIC1,"2014/02/09 07:00:00",5426.86,41,TRADE
VIC1,"2014/02/09 07:30:00",5623.7,41.44,TRADE
VIC1,"2014/02/09 08:00:00",5937.72,44.59,TRADE
VIC1,"2014/02/09 08:30:00",6267,46.11,TRADE
VIC1,"2014/02/09 09:00:00",6527.93,49.51,TRADE
VIC1,"2014/02/09 09:30:00",6823.34,52,TRADE
VIC1,"2014/02/09 10:00:00",7087.13,52.46,TRADE
VIC1,"2014/02/09 10:30:00",7353.2,51.27,TRADE
VIC1,"2014/02/09 11:00:00",7523.85,53.71,TRADE
VIC1,"2014/02/09 11:30:00",7505.69,51.62,TRADE
VIC1,"2014/02/09 12:00:00",7281.15,49.77,TRADE
VIC1,"2014/02/09 12:30:00",7075.3,42.34,TRADE
VIC1,"2014/02/09 13:00:00",6932.65,45.16,TRADE
VIC1,"2014/02/09 13:30:00",6873.12,51.13,TRADE
VIC1,"2014/02/09 14:00:00",6754.85,51.51,TRADE
VIC1,"2014/02/09 14:30:00",6684.72,50.37,TRADE
VIC1,"2014/02/09 15:00:00",6628.11,48.82,TRADE
VIC1,"2014/02/09 15:30:00",6585.15,47.78,TRADE
VIC1,"2014/02/09 16:00:00",6608.39,49.54,TRADE
VIC1,"2014/02/09 16:30:00",6504.8,50.19,TRADE
VIC1,"2014/02/09 17:00:00",6388.88,49.68,TRADE
VIC1,"2014/02/09 17:30:00",6283.35,46.19,TRADE
VIC1,"2014/02/09 18:00:00",6157.03,52.26,TRADE
VIC1,"2014/02/09 18:30:00",5836.77,56.74,TRADE
VIC1,"2014/02/09 19:00:00",5582.8,57.91,TRADE
VIC1,"2014/02/09 19:30:00",5380.39,54.8,TRADE
VIC1,"2014/02/09 20:00:00",5352.04,55.32,TRADE
VIC1,"2014/02/09 20:30:00",5290.1,55.26,TRADE
VIC1,"2014/02/09 21:00:00",5092.29,53.06,TRADE
VIC1,"2014/02/09 21:30:00",4893.35,49.99,TRADE
VIC1,"2014/02/09 22:00:00",4734.97,48.9,TRADE
VIC1,"2014/02/09 22:30:00",4652.75,49.61,TRADE
VIC1,"2014/02/09 23:00:00",4652.68,50.69,TRADE
VIC1,"2014/02/09 23:30:00",4892.41,53.72,TRADE
VIC1,"2014/02/10 00:00:00",4954.13,86.75,TRADE
VIC1,"2014/02/10 00:30:00",4649.95,56.9,TRADE
VIC1,"2014/02/10 01:00:00",4424.45,50.37,TRADE
VIC1,"2014/02/10 01:30:00",4299.73,47.54,TRADE
VIC1,"2014/02/10 02:00:00",4219.06,47.37,TRADE
VIC1,"2014/02/10 02:30:00",4171.64,48.61,TRADE
VIC1,"2014/02/10 03:00:00",4114.03,47.97,TRADE
VIC1,"2014/02/10 03:30:00",4115.66,49.28,TRADE
VIC1,"2014/02/10 04:00:00",4140.57,49.25,TRADE
VIC1,"2014/02/10 04:30:00",4260.93,53.51,TRADE
VIC1,"2014/02/10 05:00:00",4364.42,58.12,TRADE
VIC1,"2014/02/10 05:30:00",4725.46,56.7,TRADE
VIC1,"2014/02/10 06:00:00",5029.98,56.79,TRADE
VIC1,"2014/02/10 06:30:00",5511.17,58.98,TRADE
VIC1,"2014/02/10 07:00:00",5814.07,58.03,TRADE
VIC1,"2014/02/10 07:30:00",5794.18,54.82,TRADE
VIC1,"2014/02/10 08:00:00",5845.25,56.34,TRADE
VIC1,"2014/02/10 08:30:00",5946.11,53.51,TRADE
VIC1,"2014/02/10 09:00:00",6007.03,49.94,TRADE
VIC1,"2014/02/10 09:30:00",6046.26,53.5,TRADE
VIC1,"2014/02/10 10:00:00",6065.73,53.25,TRADE
VIC1,"2014/02/10 10:30:00",6109.27,53.03,TRADE
VIC1,"2014/02/10 11:00:00",6109.45,53.4,TRADE
VIC1,"2014/02/10 11:30:00",6175.13,53.35,TRADE
VIC1,"2014/02/10 12:00:00",6188.77,53.86,TRADE
VIC1,"2014/02/10 12:30:00",6228.08,52.27,TRADE
VIC1,"2014/02/10 13:00:00",6211.91,52.7,TRADE
VIC1,"2014/02/10 13:30:00",6280.5,55.43,TRADE
VIC1,"2014/02/10 14:00:00",6286.07,56.05,TRADE
VIC1,"2014/02/10 14:30:00",6300.02,55.87,TRADE
VIC1,"2014/02/10 15:00:00",6368.36,55.78,TRADE
VIC1,"2014/02/10 15:30:00",6443.56,56.02,TRADE
VIC1,"2014/02/10 16:00:00",6473.01,56.22,TRADE
VIC1,"2014/02/10 16:30:00",6424,58.02,TRADE
VIC1,"2014/02/10 17:00:00",6348.47,54.92,TRADE
VIC1,"2014/02/10 17:30:00",6190.3,49.66,TRADE
VIC1,"2014/02/10 18:00:00",6104.74,43.94,TRADE
VIC1,"2014/02/10 18:30:00",5916.61,50.48,TRADE
VIC1,"2014/02/10 19:00:00",5781.24,49.69,TRADE
VIC1,"2014/02/10 19:30:00",5656.25,48.79,TRADE
VIC1,"2014/02/10 20:00:00",5711.89,49.03,TRADE
VIC1,"2014/02/10 20:30:00",5652.01,48.22,TRADE
VIC1,"2014/02/10 21:00:00",5483.34,48.76,TRADE
VIC1,"2014/02/10 21:30:00",5198.78,46.33,TRADE
VIC1,"2014/02/10 22:00:00",4967.9,45.36,TRADE
VIC1,"2014/02/10 22:30:00",4914.48,45.17,TRADE
VIC1,"2014/02/10 23:00:00",4906.81,43.77,TRADE
VIC1,"2014/02/10 23:30:00",5258.67,45.58,TRADE
VIC1,"2014/02/11 00:00:00",5233.33,47.9,TRADE
VIC1,"2014/02/11 00:30:00",4923.93,42.99,TRADE
VIC1,"2014/02/11 01:00:00",4620.42,38.95,TRADE
VIC1,"2014/02/11 01:30:00",4470.24,38.12,TRADE
VIC1,"2014/02/11 02:00:00",4371.95,37.99,TRADE
VIC1,"2014/02/11 02:30:00",4320.14,38.81,TRADE
VIC1,"2014/02/11 03:00:00",4305.97,38.17,TRADE
VIC1,"2014/02/11 03:30:00",4299.9,38.18,TRADE
VIC1,"2014/02/11 04:00:00",4421.92,38.24,TRADE
VIC1,"2014/02/11 04:30:00",4578.8,39.83,TRADE
VIC1,"2014/02/11 05:00:00",4798.66,43.12,TRADE
VIC1,"2014/02/11 05:30:00",5129.55,47.83,TRADE
VIC1,"2014/02/11 06:00:00",5411.58,50.66,TRADE
VIC1,"2014/02/11 06:30:00",5760.51,58.06,TRADE
VIC1,"2014/02/11 07:00:00",6002.98,54.85,TRADE
VIC1,"2014/02/11 07:30:00",5941.55,47.45,TRADE
VIC1,"2014/02/11 08:00:00",6003.81,49.23,TRADE
VIC1,"2014/02/11 08:30:00",6129.08,51.18,TRADE
VIC1,"2014/02/11 09:00:00",6106.59,53.01,TRADE
VIC1,"2014/02/11 09:30:00",6177.56,54.27,TRADE
VIC1,"2014/02/11 10:00:00",6270.48,52.8,TRADE
VIC1,"2014/02/11 10:30:00",6345.81,53.58,TRADE
VIC1,"2014/02/11 11:00:00",6390.82,54.81,TRADE
VIC1,"2014/02/11 11:30:00",6410.54,54.97,TRADE
VIC1,"2014/02/11 12:00:00",6480.52,56.02,TRADE
VIC1,"2014/02/11 12:30:00",6590.55,56.02,TRADE
VIC1,"2014/02/11 13:00:00",6623.7,54.98,TRADE
VIC1,"2014/02/11 13:30:00",6714.21,54.76,TRADE
VIC1,"2014/02/11 14:00:00",6773.15,55.87,TRADE
VIC1,"2014/02/11 14:30:00",6825.23,56.02,TRADE
VIC1,"2014/02/11 15:00:00",6922.94,56.02,TRADE
VIC1,"2014/02/11 15:30:00",7027.66,56.02,TRADE
VIC1,"2014/02/11 16:00:00",7155.68,56.93,TRADE
VIC1,"2014/02/11 16:30:00",7157.01,58.43,TRADE
VIC1,"2014/02/11 17:00:00",7063.5,56.78,TRADE
VIC1,"2014/02/11 17:30:00",6896.45,54.61,TRADE
VIC1,"2014/02/11 18:00:00",6782.87,53.9,TRADE
VIC1,"2014/02/11 18:30:00",6577.43,50.63,TRADE
VIC1,"2014/02/11 19:00:00",6441.49,50.49,TRADE
VIC1,"2014/02/11 19:30:00",6283.97,49.28,TRADE
VIC1,"2014/02/11 20:00:00",6345.09,50.36,TRADE
VIC1,"2014/02/11 20:30:00",6171.82,51.66,TRADE
VIC1,"2014/02/11 21:00:00",6020.37,50.49,TRADE
VIC1,"2014/02/11 21:30:00",5699.86,48.01,TRADE
VIC1,"2014/02/11 22:00:00",5446.54,46.91,TRADE
VIC1,"2014/02/11 22:30:00",5335.95,46.16,TRADE
VIC1,"2014/02/11 23:00:00",5339.37,45.77,TRADE
VIC1,"2014/02/11 23:30:00",5642.03,47.21,TRADE
VIC1,"2014/02/12 00:00:00",5504.06,47.59,TRADE
VIC1,"2014/02/12 00:30:00",5207.27,42.21,TRADE
VIC1,"2014/02/12 01:00:00",4948.73,40.05,TRADE
VIC1,"2014/02/12 01:30:00",4799.37,38.06,TRADE
VIC1,"2014/02/12 02:00:00",4709.73,38.68,TRADE
VIC1,"2014/02/12 02:30:00",4573.24,36.77,TRADE
VIC1,"2014/02/12 03:00:00",4477.45,38,TRADE
VIC1,"2014/02/12 03:30:00",4479.6,38.13,TRADE
VIC1,"2014/02/12 04:00:00",4552.4,38.72,TRADE
VIC1,"2014/02/12 04:30:00",4664.71,39.95,TRADE
VIC1,"2014/02/12 05:00:00",4898.88,40.99,TRADE
VIC1,"2014/02/12 05:30:00",5341.66,45.76,TRADE
VIC1,"2014/02/12 06:00:00",5577.11,47.77,TRADE
VIC1,"2014/02/12 06:30:00",5979.06,52.41,TRADE
VIC1,"2014/02/12 07:00:00",6264.79,55.02,TRADE
VIC1,"2014/02/12 07:30:00",6188.74,52.11,TRADE
VIC1,"2014/02/12 08:00:00",6248.46,53.2,TRADE
VIC1,"2014/02/12 08:30:00",6337.12,54.58,TRADE
VIC1,"2014/02/12 09:00:00",6423.73,54.62,TRADE
VIC1,"2014/02/12 09:30:00",6511.01,56.02,TRADE
VIC1,"2014/02/12 10:00:00",6579.17,55.7,TRADE
VIC1,"2014/02/12 10:30:00",6656.63,56.02,TRADE
VIC1,"2014/02/12 11:00:00",6747.08,57.5,TRADE
VIC1,"2014/02/12 11:30:00",6791.15,59.18,TRADE
VIC1,"2014/02/12 12:00:00",6875.05,57.06,TRADE
VIC1,"2014/02/12 12:30:00",6961.59,57.27,TRADE
VIC1,"2014/02/12 13:00:00",7083.96,54.2,TRADE
VIC1,"2014/02/12 13:30:00",7206.7,59.93,TRADE
VIC1,"2014/02/12 14:00:00",7244.19,70.06,TRADE
VIC1,"2014/02/12 14:30:00",7308.01,56.64,TRADE
VIC1,"2014/02/12 15:00:00",7308.77,59.15,TRADE
VIC1,"2014/02/12 15:30:00",7402.86,57.3,TRADE
VIC1,"2014/02/12 16:00:00",7466.28,52.66,TRADE
VIC1,"2014/02/12 16:30:00",7447.66,47.21,TRADE
VIC1,"2014/02/12 17:00:00",7345.59,55.94,TRADE
VIC1,"2014/02/12 17:30:00",7108.48,49.84,TRADE
VIC1,"2014/02/12 18:00:00",6960.28,50.88,TRADE
VIC1,"2014/02/12 18:30:00",6803.84,55.6,TRADE
VIC1,"2014/02/12 19:00:00",6678.48,54.14,TRADE
VIC1,"2014/02/12 19:30:00",6534.64,51.13,TRADE
VIC1,"2014/02/12 20:00:00",6600.15,50.57,TRADE
VIC1,"2014/02/12 20:30:00",6474.17,52.96,TRADE
VIC1,"2014/02/12 21:00:00",6211.33,49.2,TRADE
VIC1,"2014/02/12 21:30:00",5848.18,48.67,TRADE
VIC1,"2014/02/12 22:00:00",5513.93,46.56,TRADE
VIC1,"2014/02/12 22:30:00",5379.73,46.02,TRADE
VIC1,"2014/02/12 23:00:00",5340.5,45.45,TRADE
VIC1,"2014/02/12 23:30:00",5661.09,46.82,TRADE
VIC1,"2014/02/13 00:00:00",5594.89,48.59,TRADE
VIC1,"2014/02/13 00:30:00",5196.22,46.52,TRADE
VIC1,"2014/02/13 01:00:00",4983.12,44.87,TRADE
VIC1,"2014/02/13 01:30:00",4887.64,42.75,TRADE
VIC1,"2014/02/13 02:00:00",4840.05,40.91,TRADE
VIC1,"2014/02/13 02:30:00",4778.5,40.87,TRADE
VIC1,"2014/02/13 03:00:00",4740.89,40.91,TRADE
VIC1,"2014/02/13 03:30:00",4757.89,40.91,TRADE
VIC1,"2014/02/13 04:00:00",4846.15,40.98,TRADE
VIC1,"2014/02/13 04:30:00",4973.95,43.56,TRADE
VIC1,"2014/02/13 05:00:00",5143.57,46.52,TRADE
VIC1,"2014/02/13 05:30:00",5494.85,52.91,TRADE
VIC1,"2014/02/13 06:00:00",5819.29,55,TRADE
VIC1,"2014/02/13 06:30:00",6182.17,57.79,TRADE
VIC1,"2014/02/13 07:00:00",6455.08,58.98,TRADE
VIC1,"2014/02/13 07:30:00",6380.46,52.31,TRADE
VIC1,"2014/02/13 08:00:00",6427.37,54.6,TRADE
VIC1,"2014/02/13 08:30:00",6570.63,55.92,TRADE
VIC1,"2014/02/13 09:00:00",6654.37,55.35,TRADE
VIC1,"2014/02/13 09:30:00",6752.42,64.62,TRADE
VIC1,"2014/02/13 10:00:00",6789.26,62.51,TRADE
VIC1,"2014/02/13 10:30:00",6790.3,58.75,TRADE
VIC1,"2014/02/13 11:00:00",6871.3,56.02,TRADE
VIC1,"2014/02/13 11:30:00",6894.82,55.31,TRADE
VIC1,"2014/02/13 12:00:00",6895.62,52.96,TRADE
VIC1,"2014/02/13 12:30:00",6984.29,54.7,TRADE
VIC1,"2014/02/13 13:00:00",7031.13,55.33,TRADE
VIC1,"2014/02/13 13:30:00",7099.35,55.86,TRADE
VIC1,"2014/02/13 14:00:00",7139.64,55.58,TRADE
VIC1,"2014/02/13 14:30:00",7121.23,57.26,TRADE
VIC1,"2014/02/13 15:00:00",7134.38,56.25,TRADE
VIC1,"2014/02/13 15:30:00",7140.02,61.33,TRADE
VIC1,"2014/02/13 16:00:00",7092.41,56.02,TRADE
VIC1,"2014/02/13 16:30:00",7050.42,56.02,TRADE
VIC1,"2014/02/13 17:00:00",6979.23,54.72,TRADE
VIC1,"2014/02/13 17:30:00",6798.21,51.46,TRADE
VIC1,"2014/02/13 18:00:00",6670.29,48.04,TRADE
VIC1,"2014/02/13 18:30:00",6534.41,53.15,TRADE
VIC1,"2014/02/13 19:00:00",6429.81,55.39,TRADE
VIC1,"2014/02/13 19:30:00",6414.61,55.35,TRADE
VIC1,"2014/02/13 20:00:00",6432.82,55.8,TRADE
VIC1,"2014/02/13 20:30:00",6295.17,54.22,TRADE
VIC1,"2014/02/13 21:00:00",6110.43,50.16,TRADE
VIC1,"2014/02/13 21:30:00",5846.07,53.53,TRADE
VIC1,"2014/02/13 22:00:00",5588.2,48.32,TRADE
VIC1,"2014/02/13 22:30:00",5478.19,49.66,TRADE
VIC1,"2014/02/13 23:00:00",5459.2,48.06,TRADE
VIC1,"2014/02/13 23:30:00",5716.36,48.39,TRADE
VIC1,"2014/02/14 00:00:00",5681.38,51.37,TRADE
VIC1,"2014/02/14 00:30:00",5291.19,49.9,TRADE
VIC1,"2014/02/14 01:00:00",5065.1,44.04,TRADE
VIC1,"2014/02/14 01:30:00",4954.17,41.89,TRADE
VIC1,"2014/02/14 02:00:00",4810.32,40.86,TRADE
VIC1,"2014/02/14 02:30:00",4724.58,41.14,TRADE
VIC1,"2014/02/14 03:00:00",4666.29,40.91,TRADE
VIC1,"2014/02/14 03:30:00",4653.16,40.91,TRADE
VIC1,"2014/02/14 04:00:00",4688.23,40.92,TRADE
VIC1,"2014/02/14 04:30:00",4837.51,42.49,TRADE
VIC1,"2014/02/14 05:00:00",4868.63,40.86,TRADE
VIC1,"2014/02/14 05:30:00",5231.86,48.61,TRADE
VIC1,"2014/02/14 06:00:00",5599.34,52.06,TRADE
VIC1,"2014/02/14 06:30:00",6012.88,56.07,TRADE
VIC1,"2014/02/14 07:00:00",6305.93,59.14,TRADE
VIC1,"2014/02/14 07:30:00",6276.19,53.94,TRADE
VIC1,"2014/02/14 08:00:00",6391.32,54.97,TRADE
VIC1,"2014/02/14 08:30:00",6537.21,56.34,TRADE
VIC1,"2014/02/14 09:00:00",6582.41,56.54,TRADE
VIC1,"2014/02/14 09:30:00",6683.17,57.02,TRADE
VIC1,"2014/02/14 10:00:00",6728.98,55.97,TRADE
VIC1,"2014/02/14 10:30:00",6766.6,55.84,TRADE
VIC1,"2014/02/14 11:00:00",6766.39,55.41,TRADE
VIC1,"2014/02/14 11:30:00",6800.31,55.7,TRADE
VIC1,"2014/02/14 12:00:00",6821.94,55.54,TRADE
VIC1,"2014/02/14 12:30:00",6815.37,56.37,TRADE
VIC1,"2014/02/14 13:00:00",6840.12,56.53,TRADE
VIC1,"2014/02/14 13:30:00",6833.73,56.74,TRADE
VIC1,"2014/02/14 14:00:00",6863.83,56.79,TRADE
VIC1,"2014/02/14 14:30:00",6837.17,55.24,TRADE
VIC1,"2014/02/14 15:00:00",6856.43,55.56,TRADE
VIC1,"2014/02/14 15:30:00",6887.29,55.36,TRADE
VIC1,"2014/02/14 16:00:00",6905.79,56.88,TRADE
VIC1,"2014/02/14 16:30:00",6798.4,57,TRADE
VIC1,"2014/02/14 17:00:00",6764.47,54.45,TRADE
VIC1,"2014/02/14 17:30:00",6516.65,49.92,TRADE
VIC1,"2014/02/14 18:00:00",6415.61,48.41,TRADE
VIC1,"2014/02/14 18:30:00",6241.37,49.06,TRADE
VIC1,"2014/02/14 19:00:00",6171.6,54.49,TRADE
VIC1,"2014/02/14 19:30:00",6048.96,54.53,TRADE
VIC1,"2014/02/14 20:00:00",6130.31,55.68,TRADE
VIC1,"2014/02/14 20:30:00",6055.54,54.32,TRADE
VIC1,"2014/02/14 21:00:00",5830.9,50.43,TRADE
VIC1,"2014/02/14 21:30:00",5603.73,50.22,TRADE
VIC1,"2014/02/14 22:00:00",5447.35,49.34,TRADE
VIC1,"2014/02/14 22:30:00",5355.24,50.66,TRADE
VIC1,"2014/02/14 23:00:00",5316.51,49.21,TRADE
VIC1,"2014/02/14 23:30:00",5597.11,50.55,TRADE
VIC1,"2014/02/15 00:00:00",5556.96,53.12,TRADE
VIC1,"2014/02/15 00:30:00",5141.59,51.71,TRADE
VIC1,"2014/02/15 01:00:00",4865.83,48.47,TRADE
VIC1,"2014/02/15 01:30:00",4714.93,45.02,TRADE
VIC1,"2014/02/15 02:00:00",4614.23,42.73,TRADE
VIC1,"2014/02/15 02:30:00",4573.86,41.27,TRADE
VIC1,"2014/02/15 03:00:00",4454.16,40.86,TRADE
VIC1,"2014/02/15 03:30:00",4455.46,40.51,TRADE
VIC1,"2014/02/15 04:00:00",4426.63,40.55,TRADE
VIC1,"2014/02/15 04:30:00",4515.46,40.91,TRADE
VIC1,"2014/02/15 05:00:00",4605.39,41.14,TRADE
VIC1,"2014/02/15 05:30:00",4763.54,44.58,TRADE
VIC1,"2014/02/15 06:00:00",4836.41,43.88,TRADE
VIC1,"2014/02/15 06:30:00",4959.64,46.5,TRADE
VIC1,"2014/02/15 07:00:00",5162.04,50.18,TRADE
VIC1,"2014/02/15 07:30:00",5202.57,48.5,TRADE
VIC1,"2014/02/15 08:00:00",5342.02,53.52,TRADE
VIC1,"2014/02/15 08:30:00",5526.21,55.04,TRADE
VIC1,"2014/02/15 09:00:00",5624.14,54.64,TRADE
VIC1,"2014/02/15 09:30:00",5722.47,53.54,TRADE
VIC1,"2014/02/15 10:00:00",5833.93,53.93,TRADE
VIC1,"2014/02/15 10:30:00",5923.29,52.17,TRADE
VIC1,"2014/02/15 11:00:00",6031.96,50.48,TRADE
VIC1,"2014/02/15 11:30:00",6087.21,54.61,TRADE
VIC1,"2014/02/15 12:00:00",6100.33,55.3,TRADE
VIC1,"2014/02/15 12:30:00",6101.28,55.63,TRADE
VIC1,"2014/02/15 13:00:00",6062.94,53.97,TRADE
VIC1,"2014/02/15 13:30:00",6055.82,52.88,TRADE
VIC1,"2014/02/15 14:00:00",6118.25,51.52,TRADE
VIC1,"2014/02/15 14:30:00",6186.92,51.28,TRADE
VIC1,"2014/02/15 15:00:00",6230.48,53.56,TRADE
VIC1,"2014/02/15 15:30:00",6238.53,52.87,TRADE
VIC1,"2014/02/15 16:00:00",6209.77,52.81,TRADE
VIC1,"2014/02/15 16:30:00",6201.56,53.98,TRADE
VIC1,"2014/02/15 17:00:00",6118.98,53.11,TRADE
VIC1,"2014/02/15 17:30:00",6072.49,48.9,TRADE
VIC1,"2014/02/15 18:00:00",5972.8,48.1,TRADE
VIC1,"2014/02/15 18:30:00",5759.7,46.12,TRADE
VIC1,"2014/02/15 19:00:00",5614.54,45.58,TRADE
VIC1,"2014/02/15 19:30:00",5477.82,45.28,TRADE
VIC1,"2014/02/15 20:00:00",5472.13,44.95,TRADE
VIC1,"2014/02/15 20:30:00",5398.53,44.13,TRADE
VIC1,"2014/02/15 21:00:00",5199.55,42.72,TRADE
VIC1,"2014/02/15 21:30:00",5043.02,42.04,TRADE
VIC1,"2014/02/15 22:00:00",4846.59,44,TRADE
VIC1,"2014/02/15 22:30:00",4657.75,46.3,TRADE
VIC1,"2014/02/15 23:00:00",4683.71,46.39,TRADE
VIC1,"2014/02/15 23:30:00",4981.82,49.66,TRADE
VIC1,"2014/02/16 00:00:00",4981.52,54.18,TRADE
VIC1,"2014/02/16 00:30:00",4648.76,47.74,TRADE
VIC1,"2014/02/16 01:00:00",4378.55,42.87,TRADE
VIC1,"2014/02/16 01:30:00",4238.32,40.14,TRADE
VIC1,"2014/02/16 02:00:00",4079.54,39.52,TRADE
VIC1,"2014/02/16 02:30:00",4003.18,39.1,TRADE
VIC1,"2014/02/16 03:00:00",3869.82,38.91,TRADE
VIC1,"2014/02/16 03:30:00",3845.2,38.3,TRADE
VIC1,"2014/02/16 04:00:00",3828.02,38.68,TRADE
VIC1,"2014/02/16 04:30:00",3859.16,39.02,TRADE
VIC1,"2014/02/16 05:00:00",3891.02,39.65,TRADE
VIC1,"2014/02/16 05:30:00",3967.67,41.02,TRADE
VIC1,"2014/02/16 06:00:00",4006.88,41.59,TRADE
VIC1,"2014/02/16 06:30:00",4106.62,46.04,TRADE
VIC1,"2014/02/16 07:00:00",4275.3,51.2,TRADE
VIC1,"2014/02/16 07:30:00",4261.35,51.12,TRADE
VIC1,"2014/02/16 08:00:00",4360.1,50.3,TRADE
VIC1,"2014/02/16 08:30:00",4462.48,55.47,TRADE
VIC1,"2014/02/16 09:00:00",4467.63,55.78,TRADE
VIC1,"2014/02/16 09:30:00",4583.78,54.06,TRADE
VIC1,"2014/02/16 10:00:00",4614.96,47.91,TRADE
VIC1,"2014/02/16 10:30:00",4634.29,51.27,TRADE
VIC1,"2014/02/16 11:00:00",4604.09,48.81,TRADE
VIC1,"2014/02/16 11:30:00",4593.35,48.02,TRADE
VIC1,"2014/02/16 12:00:00",4564.22,47.95,TRADE
VIC1,"2014/02/16 12:30:00",4487.19,48.41,TRADE
VIC1,"2014/02/16 13:00:00",4485.51,48.39,TRADE
VIC1,"2014/02/16 13:30:00",4488.48,47.25,TRADE
VIC1,"2014/02/16 14:00:00",4520.98,46.6,TRADE
VIC1,"2014/02/16 14:30:00",4556.58,46.87,TRADE
VIC1,"2014/02/16 15:00:00",4573.81,47.07,TRADE
VIC1,"2014/02/16 15:30:00",4666.29,48.27,TRADE
VIC1,"2014/02/16 16:00:00",4751.53,54.8,TRADE
VIC1,"2014/02/16 16:30:00",4817.85,48.66,TRADE
VIC1,"2014/02/16 17:00:00",4931.73,50.71,TRADE
VIC1,"2014/02/16 17:30:00",4962.78,52.51,TRADE
VIC1,"2014/02/16 18:00:00",4946.62,51.14,TRADE
VIC1,"2014/02/16 18:30:00",4898.95,50.9,TRADE
VIC1,"2014/02/16 19:00:00",4824.42,50.96,TRADE
VIC1,"2014/02/16 19:30:00",4855.86,50.94,TRADE
VIC1,"2014/02/16 20:00:00",4982.24,52.03,TRADE
VIC1,"2014/02/16 20:30:00",4963.38,50.95,TRADE
VIC1,"2014/02/16 21:00:00",4838.45,51.08,TRADE
VIC1,"2014/02/16 21:30:00",4693.28,49.12,TRADE
VIC1,"2014/02/16 22:00:00",4555.85,47.26,TRADE
VIC1,"2014/02/16 22:30:00",4451.64,52.62,TRADE
VIC1,"2014/02/16 23:00:00",4485.81,51.36,TRADE
VIC1,"2014/02/16 23:30:00",4855.56,55.53,TRADE
VIC1,"2014/02/17 00:00:00",4916.53,81.22,TRADE
VIC1,"2014/02/17 00:30:00",4617.47,53.14,TRADE
VIC1,"2014/02/17 01:00:00",4375.1,51.29,TRADE
VIC1,"2014/02/17 01:30:00",4231.82,46.99,TRADE
VIC1,"2014/02/17 02:00:00",4150.49,44.47,TRADE
VIC1,"2014/02/17 02:30:00",4095.23,44.24,TRADE
VIC1,"2014/02/17 03:00:00",4041.91,45.84,TRADE
VIC1,"2014/02/17 03:30:00",4047.52,45.83,TRADE
VIC1,"2014/02/17 04:00:00",4071.52,47.31,TRADE
VIC1,"2014/02/17 04:30:00",4231.26,48.39,TRADE
VIC1,"2014/02/17 05:00:00",4418.03,49.33,TRADE
VIC1,"2014/02/17 05:30:00",4799.45,63.9,TRADE
VIC1,"2014/02/17 06:00:00",5160.87,69.33,TRADE
VIC1,"2014/02/17 06:30:00",5549.06,53.18,TRADE
VIC1,"2014/02/17 07:00:00",5864.35,54.19,TRADE
VIC1,"2014/02/17 07:30:00",5794.79,51.28,TRADE
VIC1,"2014/02/17 08:00:00",5831.12,50.08,TRADE
VIC1,"2014/02/17 08:30:00",5911.17,50.58,TRADE
VIC1,"2014/02/17 09:00:00",5953.9,51.96,TRADE
VIC1,"2014/02/17 09:30:00",5981.6,52.72,TRADE
VIC1,"2014/02/17 10:00:00",5999.9,53.22,TRADE
VIC1,"2014/02/17 10:30:00",6040.07,51.98,TRADE
VIC1,"2014/02/17 11:00:00",6076.37,52.58,TRADE
VIC1,"2014/02/17 11:30:00",6099.04,51.84,TRADE
VIC1,"2014/02/17 12:00:00",6112.76,51.12,TRADE
VIC1,"2014/02/17 12:30:00",6177.98,51.02,TRADE
VIC1,"2014/02/17 13:00:00",6232.97,50.68,TRADE
VIC1,"2014/02/17 13:30:00",6282.69,51.22,TRADE
VIC1,"2014/02/17 14:00:00",6259.81,49.68,TRADE
VIC1,"2014/02/17 14:30:00",6257.69,49.98,TRADE
VIC1,"2014/02/17 15:00:00",6273.59,50,TRADE
VIC1,"2014/02/17 15:30:00",6317.31,50.49,TRADE
VIC1,"2014/02/17 16:00:00",6407.86,52.59,TRADE
VIC1,"2014/02/17 16:30:00",6389.05,50.55,TRADE
VIC1,"2014/02/17 17:00:00",6335.97,49.69,TRADE
VIC1,"2014/02/17 17:30:00",6228,49.33,TRADE
VIC1,"2014/02/17 18:00:00",6158.85,49.34,TRADE
VIC1,"2014/02/17 18:30:00",5996.5,50.92,TRADE
VIC1,"2014/02/17 19:00:00",5786.15,52.73,TRADE
VIC1,"2014/02/17 19:30:00",5664.76,55.56,TRADE
VIC1,"2014/02/17 20:00:00",5596.05,54.08,TRADE
VIC1,"2014/02/17 20:30:00",5514.12,55.19,TRADE
VIC1,"2014/02/17 21:00:00",5339.24,50.88,TRADE
VIC1,"2014/02/17 21:30:00",5099.28,50.14,TRADE
VIC1,"2014/02/17 22:00:00",4938.18,50.03,TRADE
VIC1,"2014/02/17 22:30:00",4804.23,49.85,TRADE
VIC1,"2014/02/17 23:00:00",4845.88,50.3,TRADE
VIC1,"2014/02/17 23:30:00",5239.01,50.79,TRADE
VIC1,"2014/02/18 00:00:00",5263.99,53.69,TRADE
VIC1,"2014/02/18 00:30:00",4923.25,49.62,TRADE
VIC1,"2014/02/18 01:00:00",4726.35,47.22,TRADE
VIC1,"2014/02/18 01:30:00",4585.64,43.37,TRADE
VIC1,"2014/02/18 02:00:00",4465.06,40.88,TRADE
VIC1,"2014/02/18 02:30:00",4368.81,41.33,TRADE
VIC1,"2014/02/18 03:00:00",4366.16,42.15,TRADE
VIC1,"2014/02/18 03:30:00",4369.81,42.7,TRADE
VIC1,"2014/02/18 04:00:00",4405.72,42.95,TRADE
VIC1,"2014/02/18 04:30:00",4533.37,44.93,TRADE
VIC1,"2014/02/18 05:00:00",4697.75,45.66,TRADE
VIC1,"2014/02/18 05:30:00",5050.25,52.22,TRADE
VIC1,"2014/02/18 06:00:00",5393.29,53.55,TRADE
VIC1,"2014/02/18 06:30:00",5779.02,53.9,TRADE
VIC1,"2014/02/18 07:00:00",6023.28,53.85,TRADE
VIC1,"2014/02/18 07:30:00",5899,50.18,TRADE
VIC1,"2014/02/18 08:00:00",5910.15,52.38,TRADE
VIC1,"2014/02/18 08:30:00",5978.25,54.04,TRADE
VIC1,"2014/02/18 09:00:00",6006.8,49.55,TRADE
VIC1,"2014/02/18 09:30:00",6084.86,50.69,TRADE
VIC1,"2014/02/18 10:00:00",6142.17,50.46,TRADE
VIC1,"2014/02/18 10:30:00",6195.1,47.8,TRADE
VIC1,"2014/02/18 11:00:00",6237.31,51.87,TRADE
VIC1,"2014/02/18 11:30:00",6278.39,51.79,TRADE
VIC1,"2014/02/18 12:00:00",6317.45,54.28,TRADE
VIC1,"2014/02/18 12:30:00",6361.49,55.15,TRADE
VIC1,"2014/02/18 13:00:00",6451.51,55.29,TRADE
VIC1,"2014/02/18 13:30:00",6565.39,54.68,TRADE
VIC1,"2014/02/18 14:00:00",6626.59,56.13,TRADE
VIC1,"2014/02/18 14:30:00",6671.03,51.54,TRADE
VIC1,"2014/02/18 15:00:00",6774.66,55.78,TRADE
VIC1,"2014/02/18 15:30:00",6882.24,56.21,TRADE
VIC1,"2014/02/18 16:00:00",6996.44,56.43,TRADE
VIC1,"2014/02/18 16:30:00",7034.16,56.52,TRADE
VIC1,"2014/02/18 17:00:00",7015.03,56.73,TRADE
VIC1,"2014/02/18 17:30:00",6849.23,54.2,TRADE
VIC1,"2014/02/18 18:00:00",6742.79,54.93,TRADE
VIC1,"2014/02/18 18:30:00",6551.92,51,TRADE
VIC1,"2014/02/18 19:00:00",6369.01,55.4,TRADE
VIC1,"2014/02/18 19:30:00",6200.06,54.9,TRADE
VIC1,"2014/02/18 20:00:00",6239.33,55.05,TRADE
VIC1,"2014/02/18 20:30:00",6086.16,53.36,TRADE
VIC1,"2014/02/18 21:00:00",5848.78,53.74,TRADE
VIC1,"2014/02/18 21:30:00",5563.85,51.98,TRADE
VIC1,"2014/02/18 22:00:00",5309.08,48.14,TRADE
VIC1,"2014/02/18 22:30:00",5167.13,46.66,TRADE
VIC1,"2014/02/18 23:00:00",5096.5,45.59,TRADE
VIC1,"2014/02/18 23:30:00",5397.46,46.78,TRADE
VIC1,"2014/02/19 00:00:00",5391.14,47.14,TRADE
VIC1,"2014/02/19 00:30:00",5088.64,46.14,TRADE
VIC1,"2014/02/19 01:00:00",4827.79,43.2,TRADE
VIC1,"2014/02/19 01:30:00",4737.34,40.51,TRADE
VIC1,"2014/02/19 02:00:00",4582.27,39.59,TRADE
VIC1,"2014/02/19 02:30:00",4492.91,38.16,TRADE
VIC1,"2014/02/19 03:00:00",4409.94,38.1,TRADE
VIC1,"2014/02/19 03:30:00",4448.99,38.32,TRADE
VIC1,"2014/02/19 04:00:00",4467.66,38.74,TRADE
VIC1,"2014/02/19 04:30:00",4582.39,40.36,TRADE
VIC1,"2014/02/19 05:00:00",4734.66,42.01,TRADE
VIC1,"2014/02/19 05:30:00",5118.96,43.99,TRADE
VIC1,"2014/02/19 06:00:00",5390.13,45.96,TRADE
VIC1,"2014/02/19 06:30:00",5774.87,52.01,TRADE
VIC1,"2014/02/19 07:00:00",6092.44,48.64,TRADE
VIC1,"2014/02/19 07:30:00",6006.4,44.9,TRADE
VIC1,"2014/02/19 08:00:00",6022.68,48.69,TRADE
VIC1,"2014/02/19 08:30:00",6098.31,48.07,TRADE
VIC1,"2014/02/19 09:00:00",6133.36,47.56,TRADE
VIC1,"2014/02/19 09:30:00",6126.27,52.95,TRADE
VIC1,"2014/02/19 10:00:00",6128.25,48.23,TRADE
VIC1,"2014/02/19 10:30:00",6192.3,45.46,TRADE
VIC1,"2014/02/19 11:00:00",6230.18,51.8,TRADE
VIC1,"2014/02/19 11:30:00",6193.03,55.85,TRADE
VIC1,"2014/02/19 12:00:00",6204.7,51.45,TRADE
VIC1,"2014/02/19 12:30:00",6169.45,47.39,TRADE
VIC1,"2014/02/19 13:00:00",6153.63,47.42,TRADE
VIC1,"2014/02/19 13:30:00",6149.62,50.23,TRADE
VIC1,"2014/02/19 14:00:00",6238.81,51.34,TRADE
VIC1,"2014/02/19 14:30:00",6102.48,49.09,TRADE
VIC1,"2014/02/19 15:00:00",6067.84,50.61,TRADE
VIC1,"2014/02/19 15:30:00",6060,49.79,TRADE
VIC1,"2014/02/19 16:00:00",6027.27,46,TRADE
VIC1,"2014/02/19 16:30:00",5873.63,43.58,TRADE
VIC1,"2014/02/19 17:00:00",5816.99,42.83,TRADE
VIC1,"2014/02/19 17:30:00",5703.43,45.04,TRADE
VIC1,"2014/02/19 18:00:00",5593.97,46.91,TRADE
VIC1,"2014/02/19 18:30:00",5482.45,49.03,TRADE
VIC1,"2014/02/19 19:00:00",5437.66,46.62,TRADE
VIC1,"2014/02/19 19:30:00",5442.71,44.51,TRADE
VIC1,"2014/02/19 20:00:00",5403.62,45.74,TRADE
VIC1,"2014/02/19 20:30:00",5242.98,42.85,TRADE
VIC1,"2014/02/19 21:00:00",5080.4,44.21,TRADE
VIC1,"2014/02/19 21:30:00",4857.29,43.83,TRADE
VIC1,"2014/02/19 22:00:00",4657.27,42.09,TRADE
VIC1,"2014/02/19 22:30:00",4552.04,41.59,TRADE
VIC1,"2014/02/19 23:00:00",4596.75,42.57,TRADE
VIC1,"2014/02/19 23:30:00",4972.98,42.23,TRADE
VIC1,"2014/02/20 00:00:00",5064.84,43.52,TRADE
VIC1,"2014/02/20 00:30:00",4711.53,42.42,TRADE
VIC1,"2014/02/20 01:00:00",4438.75,43.16,TRADE
VIC1,"2014/02/20 01:30:00",4283.69,41.15,TRADE
VIC1,"2014/02/20 02:00:00",4134.38,41.57,TRADE
VIC1,"2014/02/20 02:30:00",3981.95,39.2,TRADE
VIC1,"2014/02/20 03:00:00",3968.62,40.27,TRADE
VIC1,"2014/02/20 03:30:00",4030.71,42.84,TRADE
VIC1,"2014/02/20 04:00:00",4067.01,43.25,TRADE
VIC1,"2014/02/20 04:30:00",4183.86,44.24,TRADE
VIC1,"2014/02/20 05:00:00",4348.27,46.74,TRADE
VIC1,"2014/02/20 05:30:00",4711.85,52.67,TRADE
VIC1,"2014/02/20 06:00:00",5026.16,51.94,TRADE
VIC1,"2014/02/20 06:30:00",5383.82,55.67,TRADE
VIC1,"2014/02/20 07:00:00",5611.19,62.82,TRADE
VIC1,"2014/02/20 07:30:00",5501.04,57.02,TRADE
VIC1,"2014/02/20 08:00:00",5471.72,53.64,TRADE
VIC1,"2014/02/20 08:30:00",5495.9,55.16,TRADE
VIC1,"2014/02/20 09:00:00",5469.13,56.1,TRADE
VIC1,"2014/02/20 09:30:00",5495.09,54.29,TRADE
VIC1,"2014/02/20 10:00:00",5493.7,47.5,TRADE
VIC1,"2014/02/20 10:30:00",5548.85,46.45,TRADE
VIC1,"2014/02/20 11:00:00",5647.72,47.44,TRADE
VIC1,"2014/02/20 11:30:00",5619.59,47.79,TRADE
VIC1,"2014/02/20 12:00:00",5632,45.55,TRADE
VIC1,"2014/02/20 12:30:00",5695.07,51.3,TRADE
VIC1,"2014/02/20 13:00:00",5632.3,47.44,TRADE
VIC1,"2014/02/20 13:30:00",5626.59,50.59,TRADE
VIC1,"2014/02/20 14:00:00",5601.52,46.56,TRADE
VIC1,"2014/02/20 14:30:00",5582.64,44.49,TRADE
VIC1,"2014/02/20 15:00:00",5497.91,43.64,TRADE
VIC1,"2014/02/20 15:30:00",5593.81,45.15,TRADE
VIC1,"2014/02/20 16:00:00",5648.42,47.8,TRADE
VIC1,"2014/02/20 16:30:00",5648.35,43.1,TRADE
VIC1,"2014/02/20 17:00:00",5626.53,44,TRADE
VIC1,"2014/02/20 17:30:00",5535.54,42.24,TRADE
VIC1,"2014/02/20 18:00:00",5463.32,41.63,TRADE
VIC1,"2014/02/20 18:30:00",5372.97,42.94,TRADE
VIC1,"2014/02/20 19:00:00",5357.39,43.01,TRADE
VIC1,"2014/02/20 19:30:00",5398.45,42.42,TRADE
VIC1,"2014/02/20 20:00:00",5563.51,45.51,TRADE
VIC1,"2014/02/20 20:30:00",5416.09,43.24,TRADE
VIC1,"2014/02/20 21:00:00",5213.19,41.7,TRADE
VIC1,"2014/02/20 21:30:00",4993.16,41.4,TRADE
VIC1,"2014/02/20 22:00:00",4765.04,39.08,TRADE
VIC1,"2014/02/20 22:30:00",4667.06,40.29,TRADE
VIC1,"2014/02/20 23:00:00",4682.06,38.86,TRADE
VIC1,"2014/02/20 23:30:00",5031.7,40.51,TRADE
VIC1,"2014/02/21 00:00:00",5123.37,41.3,TRADE
VIC1,"2014/02/21 00:30:00",4767.25,40.21,TRADE
VIC1,"2014/02/21 01:00:00",4494.77,38.61,TRADE
VIC1,"2014/02/21 01:30:00",4336.15,37.82,TRADE
VIC1,"2014/02/21 02:00:00",4215.75,35.64,TRADE
VIC1,"2014/02/21 02:30:00",4183.45,38.07,TRADE
VIC1,"2014/02/21 03:00:00",4122.74,38.17,TRADE
VIC1,"2014/02/21 03:30:00",4074.07,37.9,TRADE
VIC1,"2014/02/21 04:00:00",4120.42,38.46,TRADE
VIC1,"2014/02/21 04:30:00",4311.94,39.83,TRADE
VIC1,"2014/02/21 05:00:00",4524.24,40.81,TRADE
VIC1,"2014/02/21 05:30:00",4934.76,41.85,TRADE
VIC1,"2014/02/21 06:00:00",5292.34,43.67,TRADE
VIC1,"2014/02/21 06:30:00",5681.79,45.54,TRADE
VIC1,"2014/02/21 07:00:00",6014.25,63.6,TRADE
VIC1,"2014/02/21 07:30:00",5941.67,50.37,TRADE
VIC1,"2014/02/21 08:00:00",5911.99,47,TRADE
VIC1,"2014/02/21 08:30:00",5951.58,47.66,TRADE
VIC1,"2014/02/21 09:00:00",5858.57,46.38,TRADE
VIC1,"2014/02/21 09:30:00",5791.91,44.55,TRADE
VIC1,"2014/02/21 10:00:00",5787.19,42.63,TRADE
VIC1,"2014/02/21 10:30:00",5854.25,44.89,TRADE
VIC1,"2014/02/21 11:00:00",5853.43,47.47,TRADE
VIC1,"2014/02/21 11:30:00",5879.27,46.81,TRADE
VIC1,"2014/02/21 12:00:00",5844.9,49.35,TRADE
VIC1,"2014/02/21 12:30:00",5808.24,43.7,TRADE
VIC1,"2014/02/21 13:00:00",5779.97,47.83,TRADE
VIC1,"2014/02/21 13:30:00",5713.9,43.49,TRADE
VIC1,"2014/02/21 14:00:00",5687.18,46.61,TRADE
VIC1,"2014/02/21 14:30:00",5564.38,42.6,TRADE
VIC1,"2014/02/21 15:00:00",5479.7,41.05,TRADE
VIC1,"2014/02/21 15:30:00",5509.38,43.27,TRADE
VIC1,"2014/02/21 16:00:00",5558.31,45.47,TRADE
VIC1,"2014/02/21 16:30:00",5535.06,42.25,TRADE
VIC1,"2014/02/21 17:00:00",5531.9,41.71,TRADE
VIC1,"2014/02/21 17:30:00",5430.18,39.54,TRADE
VIC1,"2014/02/21 18:00:00",5358.73,38.51,TRADE
VIC1,"2014/02/21 18:30:00",5330.75,38.61,TRADE
VIC1,"2014/02/21 19:00:00",5268.82,40.71,TRADE
VIC1,"2014/02/21 19:30:00",5306.66,45.17,TRADE
VIC1,"2014/02/21 20:00:00",5438.54,46.54,TRADE
VIC1,"2014/02/21 20:30:00",5339.93,45.25,TRADE
VIC1,"2014/02/21 21:00:00",5182.13,44.22,TRADE
VIC1,"2014/02/21 21:30:00",4981.97,43.44,TRADE
VIC1,"2014/02/21 22:00:00",4785.18,41.62,TRADE
VIC1,"2014/02/21 22:30:00",4689.75,42.78,TRADE
VIC1,"2014/02/21 23:00:00",4712.15,42.27,TRADE
VIC1,"2014/02/21 23:30:00",5014.36,43.95,TRADE
VIC1,"2014/02/22 00:00:00",5049.02,45.12,TRADE
VIC1,"2014/02/22 00:30:00",4718.66,44.41,TRADE
VIC1,"2014/02/22 01:00:00",4468.35,42.94,TRADE
VIC1,"2014/02/22 01:30:00",4314.19,39.78,TRADE
VIC1,"2014/02/22 02:00:00",4160.67,36.98,TRADE
VIC1,"2014/02/22 02:30:00",4055.47,35.36,TRADE
VIC1,"2014/02/22 03:00:00",4018.29,35.32,TRADE
VIC1,"2014/02/22 03:30:00",4013.82,34.16,TRADE
VIC1,"2014/02/22 04:00:00",3988.71,31.71,TRADE
VIC1,"2014/02/22 04:30:00",4041.15,37.79,TRADE
VIC1,"2014/02/22 05:00:00",4118.57,38.82,TRADE
VIC1,"2014/02/22 05:30:00",4208.02,40.42,TRADE
VIC1,"2014/02/22 06:00:00",4326.86,35.29,TRADE
VIC1,"2014/02/22 06:30:00",4542.64,39.1,TRADE
VIC1,"2014/02/22 07:00:00",4713.21,41.87,TRADE
VIC1,"2014/02/22 07:30:00",4790.3,41.5,TRADE
VIC1,"2014/02/22 08:00:00",4972.43,42.4,TRADE
VIC1,"2014/02/22 08:30:00",5017.23,42.35,TRADE
VIC1,"2014/02/22 09:00:00",5023.86,40.78,TRADE
VIC1,"2014/02/22 09:30:00",5049.79,41.04,TRADE
VIC1,"2014/02/22 10:00:00",5069.47,42.68,TRADE
VIC1,"2014/02/22 10:30:00",5064.86,43.39,TRADE
VIC1,"2014/02/22 11:00:00",5026.75,42.27,TRADE
VIC1,"2014/02/22 11:30:00",5040.89,41.96,TRADE
VIC1,"2014/02/22 12:00:00",4993.58,41.89,TRADE
VIC1,"2014/02/22 12:30:00",4873.86,41.32,TRADE
VIC1,"2014/02/22 13:00:00",4829.56,41.04,TRADE
VIC1,"2014/02/22 13:30:00",4823.39,41.6,TRADE
VIC1,"2014/02/22 14:00:00",4805.92,41.44,TRADE
VIC1,"2014/02/22 14:30:00",4763.65,41.05,TRADE
VIC1,"2014/02/22 15:00:00",4779.02,40.05,TRADE
VIC1,"2014/02/22 15:30:00",4747.72,39.34,TRADE
VIC1,"2014/02/22 16:00:00",4828.24,41.07,TRADE
VIC1,"2014/02/22 16:30:00",4884.19,41.52,TRADE
VIC1,"2014/02/22 17:00:00",4909.54,42.16,TRADE
VIC1,"2014/02/22 17:30:00",4924.08,42.81,TRADE
VIC1,"2014/02/22 18:00:00",4902.31,42.95,TRADE
VIC1,"2014/02/22 18:30:00",4838.67,41.8,TRADE
VIC1,"2014/02/22 19:00:00",4829.47,41.81,TRADE
VIC1,"2014/02/22 19:30:00",4832.54,42.09,TRADE
VIC1,"2014/02/22 20:00:00",4948.05,43.89,TRADE
VIC1,"2014/02/22 20:30:00",4848.36,44.42,TRADE
VIC1,"2014/02/22 21:00:00",4764.67,43.65,TRADE
VIC1,"2014/02/22 21:30:00",4612.31,43.2,TRADE
VIC1,"2014/02/22 22:00:00",4482.11,42.66,TRADE
VIC1,"2014/02/22 22:30:00",4451.57,42.68,TRADE
VIC1,"2014/02/22 23:00:00",4510.71,42.89,TRADE
VIC1,"2014/02/22 23:30:00",4878.62,44.47,TRADE
VIC1,"2014/02/23 00:00:00",4944.13,46.7,TRADE
VIC1,"2014/02/23 00:30:00",4635.78,43.99,TRADE
VIC1,"2014/02/23 01:00:00",4338.87,39.92,TRADE
VIC1,"2014/02/23 01:30:00",4173.63,37.59,TRADE
VIC1,"2014/02/23 02:00:00",4106.14,38.78,TRADE
VIC1,"2014/02/23 02:30:00",3982.17,35.42,TRADE
VIC1,"2014/02/23 03:00:00",3921.71,36.84,TRADE
VIC1,"2014/02/23 03:30:00",3864.55,36.21,TRADE
VIC1,"2014/02/23 04:00:00",3823.97,35.89,TRADE
VIC1,"2014/02/23 04:30:00",3840.33,35.78,TRADE
VIC1,"2014/02/23 05:00:00",3836.19,35.73,TRADE
VIC1,"2014/02/23 05:30:00",3960.3,38.14,TRADE
VIC1,"2014/02/23 06:00:00",3997.48,37.51,TRADE
VIC1,"2014/02/23 06:30:00",4077.81,37.84,TRADE
VIC1,"2014/02/23 07:00:00",4205.36,40.2,TRADE
VIC1,"2014/02/23 07:30:00",4275.4,39.39,TRADE
VIC1,"2014/02/23 08:00:00",4399.07,44.4,TRADE
VIC1,"2014/02/23 08:30:00",4514.63,43.88,TRADE
VIC1,"2014/02/23 09:00:00",4597.82,44.39,TRADE
VIC1,"2014/02/23 09:30:00",4664.63,45.28,TRADE
VIC1,"2014/02/23 10:00:00",4667.47,45.62,TRADE
VIC1,"2014/02/23 10:30:00",4659.76,45.65,TRADE
VIC1,"2014/02/23 11:00:00",4600.54,45.22,TRADE
VIC1,"2014/02/23 11:30:00",4688.48,45.83,TRADE
VIC1,"2014/02/23 12:00:00",4699.67,45.83,TRADE
VIC1,"2014/02/23 12:30:00",4665.73,45.86,TRADE
VIC1,"2014/02/23 13:00:00",4694.56,45.61,TRADE
VIC1,"2014/02/23 13:30:00",4711.21,45.28,TRADE
VIC1,"2014/02/23 14:00:00",4761.53,44.64,TRADE
VIC1,"2014/02/23 14:30:00",4829.53,45.5,TRADE
VIC1,"2014/02/23 15:00:00",4860.85,45.72,TRADE
VIC1,"2014/02/23 15:30:00",4957.88,46.28,TRADE
VIC1,"2014/02/23 16:00:00",5080.17,47.9,TRADE
VIC1,"2014/02/23 16:30:00",5141.9,49.55,TRADE
VIC1,"2014/02/23 17:00:00",5277.1,53.14,TRADE
VIC1,"2014/02/23 17:30:00",5281.86,51.66,TRADE
VIC1,"2014/02/23 18:00:00",5277.58,51.58,TRADE
VIC1,"2014/02/23 18:30:00",5209.44,49.28,TRADE
VIC1,"2014/02/23 19:00:00",5118.9,50.3,TRADE
VIC1,"2014/02/23 19:30:00",5148.56,52.26,TRADE
VIC1,"2014/02/23 20:00:00",5225.16,52.01,TRADE
VIC1,"2014/02/23 20:30:00",5129.02,49.96,TRADE
VIC1,"2014/02/23 21:00:00",4978.7,48.38,TRADE
VIC1,"2014/02/23 21:30:00",4806.93,46.96,TRADE
VIC1,"2014/02/23 22:00:00",4663.72,44.43,TRADE
VIC1,"2014/02/23 22:30:00",4584.67,44.11,TRADE
VIC1,"2014/02/23 23:00:00",4599.28,43.71,TRADE
VIC1,"2014/02/23 23:30:00",4983.25,45.17,TRADE
VIC1,"2014/02/24 00:00:00",5029.16,47.89,TRADE
VIC1,"2014/02/24 00:30:00",4746.58,44.49,TRADE
VIC1,"2014/02/24 01:00:00",4485.18,40.76,TRADE
VIC1,"2014/02/24 01:30:00",4387.11,37.55,TRADE
VIC1,"2014/02/24 02:00:00",4270.37,40.55,TRADE
VIC1,"2014/02/24 02:30:00",4163.49,39,TRADE
VIC1,"2014/02/24 03:00:00",4140.11,41.63,TRADE
VIC1,"2014/02/24 03:30:00",4141.47,41.56,TRADE
VIC1,"2014/02/24 04:00:00",4179.08,41.43,TRADE
VIC1,"2014/02/24 04:30:00",4295.25,43.43,TRADE
VIC1,"2014/02/24 05:00:00",4457.66,46.28,TRADE
VIC1,"2014/02/24 05:30:00",4831.19,55.33,TRADE
VIC1,"2014/02/24 06:00:00",5209.13,52.98,TRADE
VIC1,"2014/02/24 06:30:00",5590.62,63.5,TRADE
VIC1,"2014/02/24 07:00:00",5893.23,80.53,TRADE
VIC1,"2014/02/24 07:30:00",5810.05,57.74,TRADE
VIC1,"2014/02/24 08:00:00",5811.03,56.11,TRADE
VIC1,"2014/02/24 08:30:00",5925.02,53.31,TRADE
VIC1,"2014/02/24 09:00:00",5869.76,50.67,TRADE
VIC1,"2014/02/24 09:30:00",5935.91,53.84,TRADE
VIC1,"2014/02/24 10:00:00",5908.57,54.46,TRADE
VIC1,"2014/02/24 10:30:00",5950.19,55.19,TRADE
VIC1,"2014/02/24 11:00:00",5984.35,55.09,TRADE
VIC1,"2014/02/24 11:30:00",6015.01,52.72,TRADE
VIC1,"2014/02/24 12:00:00",6084.12,52.48,TRADE
VIC1,"2014/02/24 12:30:00",6137.01,51.6,TRADE
VIC1,"2014/02/24 13:00:00",6213.76,51.52,TRADE
VIC1,"2014/02/24 13:30:00",6289.49,53.11,TRADE
VIC1,"2014/02/24 14:00:00",6396.79,51.37,TRADE
VIC1,"2014/02/24 14:30:00",6382.12,49.64,TRADE
VIC1,"2014/02/24 15:00:00",6437.14,52.03,TRADE
VIC1,"2014/02/24 15:30:00",6535.26,53.34,TRADE
VIC1,"2014/02/24 16:00:00",6553.86,53.86,TRADE
VIC1,"2014/02/24 16:30:00",6563.75,54.43,TRADE
VIC1,"2014/02/24 17:00:00",6546.73,54.36,TRADE
VIC1,"2014/02/24 17:30:00",6406.15,51.18,TRADE
VIC1,"2014/02/24 18:00:00",6226.26,50.2,TRADE
VIC1,"2014/02/24 18:30:00",6009.99,47.54,TRADE
VIC1,"2014/02/24 19:00:00",5916.91,49.97,TRADE
VIC1,"2014/02/24 19:30:00",5919.82,49.58,TRADE
VIC1,"2014/02/24 20:00:00",5877.54,50.67,TRADE
VIC1,"2014/02/24 20:30:00",5829.87,52.55,TRADE
VIC1,"2014/02/24 21:00:00",5604.05,48.62,TRADE
VIC1,"2014/02/24 21:30:00",5417.11,47.21,TRADE
VIC1,"2014/02/24 22:00:00",5182.52,44.92,TRADE
VIC1,"2014/02/24 22:30:00",5062.84,44.16,TRADE
VIC1,"2014/02/24 23:00:00",5065.09,44.11,TRADE
VIC1,"2014/02/24 23:30:00",5412.08,45.52,TRADE
VIC1,"2014/02/25 00:00:00",5412.99,47.24,TRADE
VIC1,"2014/02/25 00:30:00",5053.71,43.73,TRADE
VIC1,"2014/02/25 01:00:00",4871.3,41.7,TRADE
VIC1,"2014/02/25 01:30:00",4678.98,40.09,TRADE
VIC1,"2014/02/25 02:00:00",4552.92,39.45,TRADE
VIC1,"2014/02/25 02:30:00",4433.05,38.41,TRADE
VIC1,"2014/02/25 03:00:00",4379.64,38.58,TRADE
VIC1,"2014/02/25 03:30:00",4378.96,38.69,TRADE
VIC1,"2014/02/25 04:00:00",4396.58,39.49,TRADE
VIC1,"2014/02/25 04:30:00",4546.27,40.91,TRADE
VIC1,"2014/02/25 05:00:00",4700.81,43.12,TRADE
VIC1,"2014/02/25 05:30:00",5099.27,47.88,TRADE
VIC1,"2014/02/25 06:00:00",5459.19,50.31,TRADE
VIC1,"2014/02/25 06:30:00",5832.65,51.57,TRADE
VIC1,"2014/02/25 07:00:00",6090.23,57.29,TRADE
VIC1,"2014/02/25 07:30:00",5985.06,52.48,TRADE
VIC1,"2014/02/25 08:00:00",6058.77,52.32,TRADE
VIC1,"2014/02/25 08:30:00",6171.7,54.29,TRADE
VIC1,"2014/02/25 09:00:00",6235.6,55.29,TRADE
VIC1,"2014/02/25 09:30:00",6337.9,55.22,TRADE
VIC1,"2014/02/25 10:00:00",6453.51,54.88,TRADE
VIC1,"2014/02/25 10:30:00",6531.27,55.47,TRADE
VIC1,"2014/02/25 11:00:00",6657.21,56.92,TRADE
VIC1,"2014/02/25 11:30:00",6653.05,56.39,TRADE
VIC1,"2014/02/25 12:00:00",6736.18,56.37,TRADE
VIC1,"2014/02/25 12:30:00",6797.72,56.26,TRADE
VIC1,"2014/02/25 13:00:00",6918,56.13,TRADE
VIC1,"2014/02/25 13:30:00",7036.56,55.78,TRADE
VIC1,"2014/02/25 14:00:00",7083.74,54.79,TRADE
VIC1,"2014/02/25 14:30:00",7028.92,52.95,TRADE
VIC1,"2014/02/25 15:00:00",7034.97,51.78,TRADE
VIC1,"2014/02/25 15:30:00",7077.68,51.59,TRADE
VIC1,"2014/02/25 16:00:00",7002.68,53.59,TRADE
VIC1,"2014/02/25 16:30:00",6891.96,51.96,TRADE
VIC1,"2014/02/25 17:00:00",6677.73,52.13,TRADE
VIC1,"2014/02/25 17:30:00",6365.07,49.36,TRADE
VIC1,"2014/02/25 18:00:00",6132.84,48.48,TRADE
VIC1,"2014/02/25 18:30:00",5902.92,45.53,TRADE
VIC1,"2014/02/25 19:00:00",5821.79,50.85,TRADE
VIC1,"2014/02/25 19:30:00",5783.07,54.7,TRADE
VIC1,"2014/02/25 20:00:00",5785.09,54.02,TRADE
VIC1,"2014/02/25 20:30:00",5639.55,50.78,TRADE
VIC1,"2014/02/25 21:00:00",5452.49,49.09,TRADE
VIC1,"2014/02/25 21:30:00",5266.45,47.19,TRADE
VIC1,"2014/02/25 22:00:00",5044.14,44.86,TRADE
VIC1,"2014/02/25 22:30:00",4973.39,44.1,TRADE
VIC1,"2014/02/25 23:00:00",5021.99,43.18,TRADE
VIC1,"2014/02/25 23:30:00",5375.67,45.1,TRADE
VIC1,"2014/02/26 00:00:00",5337.25,45.17,TRADE
VIC1,"2014/02/26 00:30:00",4925.39,40.22,TRADE
VIC1,"2014/02/26 01:00:00",4681.07,39.71,TRADE
VIC1,"2014/02/26 01:30:00",4523.44,38.27,TRADE
VIC1,"2014/02/26 02:00:00",4432.49,38.19,TRADE
VIC1,"2014/02/26 02:30:00",4341.48,38.17,TRADE
VIC1,"2014/02/26 03:00:00",4257.12,38.2,TRADE
VIC1,"2014/02/26 03:30:00",4294.48,38.2,TRADE
VIC1,"2014/02/26 04:00:00",4360.77,38.2,TRADE
VIC1,"2014/02/26 04:30:00",4516.1,39.22,TRADE
VIC1,"2014/02/26 05:00:00",4761.96,41.96,TRADE
VIC1,"2014/02/26 05:30:00",5137.23,46.02,TRADE
VIC1,"2014/02/26 06:00:00",5411.32,47.92,TRADE
VIC1,"2014/02/26 06:30:00",5743.55,51.44,TRADE
VIC1,"2014/02/26 07:00:00",5993.96,56.94,TRADE
VIC1,"2014/02/26 07:30:00",5911.11,53.89,TRADE
VIC1,"2014/02/26 08:00:00",5954.02,53.54,TRADE
VIC1,"2014/02/26 08:30:00",6016.71,53.67,TRADE
VIC1,"2014/02/26 09:00:00",5986.22,49.89,TRADE
VIC1,"2014/02/26 09:30:00",5965.61,49.38,TRADE
VIC1,"2014/02/26 10:00:00",5976.51,52.48,TRADE
VIC1,"2014/02/26 10:30:00",6003.06,52.54,TRADE
VIC1,"2014/02/26 11:00:00",6008.65,49.33,TRADE
VIC1,"2014/02/26 11:30:00",5992.54,46.12,TRADE
VIC1,"2014/02/26 12:00:00",6011.25,43.86,TRADE
VIC1,"2014/02/26 12:30:00",6030.02,45.75,TRADE
VIC1,"2014/02/26 13:00:00",5993.35,46.23,TRADE
VIC1,"2014/02/26 13:30:00",6003.65,44.99,TRADE
VIC1,"2014/02/26 14:00:00",6000.87,43.96,TRADE
VIC1,"2014/02/26 14:30:00",5895.77,45.65,TRADE
VIC1,"2014/02/26 15:00:00",5927.81,48.06,TRADE
VIC1,"2014/02/26 15:30:00",5959.5,48.35,TRADE
VIC1,"2014/02/26 16:00:00",5958.81,48.35,TRADE
VIC1,"2014/02/26 16:30:00",5952.6,45.27,TRADE
VIC1,"2014/02/26 17:00:00",5966.59,47.01,TRADE
VIC1,"2014/02/26 17:30:00",5787.88,44.6,TRADE
VIC1,"2014/02/26 18:00:00",5687.08,44.13,TRADE
VIC1,"2014/02/26 18:30:00",5598.8,44.63,TRADE
VIC1,"2014/02/26 19:00:00",5554.69,48.45,TRADE
VIC1,"2014/02/26 19:30:00",5600.85,50.39,TRADE
VIC1,"2014/02/26 20:00:00",5599.93,48.16,TRADE
VIC1,"2014/02/26 20:30:00",5498.56,48.68,TRADE
VIC1,"2014/02/26 21:00:00",5365.38,44.91,TRADE
VIC1,"2014/02/26 21:30:00",5129.27,43.75,TRADE
VIC1,"2014/02/26 22:00:00",4939.69,42.01,TRADE
VIC1,"2014/02/26 22:30:00",4827.6,41.43,TRADE
VIC1,"2014/02/26 23:00:00",4814.43,43.07,TRADE
VIC1,"2014/02/26 23:30:00",5190.94,45.15,TRADE
VIC1,"2014/02/27 00:00:00",5219.36,45.66,TRADE
VIC1,"2014/02/27 00:30:00",4851.26,40.71,TRADE
VIC1,"2014/02/27 01:00:00",4544.71,38.04,TRADE
VIC1,"2014/02/27 01:30:00",4396.08,38.03,TRADE
VIC1,"2014/02/27 02:00:00",4306.22,38.02,TRADE
VIC1,"2014/02/27 02:30:00",4249.38,38,TRADE
VIC1,"2014/02/27 03:00:00",4215.94,38.01,TRADE
VIC1,"2014/02/27 03:30:00",4195.44,38,TRADE
VIC1,"2014/02/27 04:00:00",4242.49,38.05,TRADE
VIC1,"2014/02/27 04:30:00",4354.46,38.2,TRADE
VIC1,"2014/02/27 05:00:00",4569.75,40,TRADE
VIC1,"2014/02/27 05:30:00",5006.24,43.92,TRADE
VIC1,"2014/02/27 06:00:00",5334.23,45.05,TRADE
VIC1,"2014/02/27 06:30:00",5735.73,48.64,TRADE
VIC1,"2014/02/27 07:00:00",6030.52,56.17,TRADE
VIC1,"2014/02/27 07:30:00",5871.07,46.42,TRADE
VIC1,"2014/02/27 08:00:00",5866.17,46.41,TRADE
VIC1,"2014/02/27 08:30:00",5849.38,47.15,TRADE
VIC1,"2014/02/27 09:00:00",5817.2,44.08,TRADE
VIC1,"2014/02/27 09:30:00",5807.39,44.5,TRADE
VIC1,"2014/02/27 10:00:00",5788.59,44.31,TRADE
VIC1,"2014/02/27 10:30:00",5833.96,43.5,TRADE
VIC1,"2014/02/27 11:00:00",5840.93,45.58,TRADE
VIC1,"2014/02/27 11:30:00",5852.02,45.9,TRADE
VIC1,"2014/02/27 12:00:00",5874.76,45.34,TRADE
VIC1,"2014/02/27 12:30:00",5818.46,45.81,TRADE
VIC1,"2014/02/27 13:00:00",5817.46,45.75,TRADE
VIC1,"2014/02/27 13:30:00",5856.44,47.02,TRADE
VIC1,"2014/02/27 14:00:00",5841.61,48.93,TRADE
VIC1,"2014/02/27 14:30:00",5812.99,48.81,TRADE
VIC1,"2014/02/27 15:00:00",5806.25,48.37,TRADE
VIC1,"2014/02/27 15:30:00",5815.82,49.02,TRADE
VIC1,"2014/02/27 16:00:00",5814.52,45.21,TRADE
VIC1,"2014/02/27 16:30:00",5829.51,46.18,TRADE
VIC1,"2014/02/27 17:00:00",5791.93,45.18,TRADE
VIC1,"2014/02/27 17:30:00",5692.02,44.68,TRADE
VIC1,"2014/02/27 18:00:00",5613.56,43.7,TRADE
VIC1,"2014/02/27 18:30:00",5543.4,42.77,TRADE
VIC1,"2014/02/27 19:00:00",5496,42.87,TRADE
VIC1,"2014/02/27 19:30:00",5558.61,44.34,TRADE
VIC1,"2014/02/27 20:00:00",5621.29,46.45,TRADE
VIC1,"2014/02/27 20:30:00",5442.97,44.42,TRADE
VIC1,"2014/02/27 21:00:00",5265.89,42.4,TRADE
VIC1,"2014/02/27 21:30:00",5001.44,41,TRADE
VIC1,"2014/02/27 22:00:00",4759.83,38.71,TRADE
VIC1,"2014/02/27 22:30:00",4658.17,38.86,TRADE
VIC1,"2014/02/27 23:00:00",4669.54,38.99,TRADE
VIC1,"2014/02/27 23:30:00",5066.72,43.25,TRADE
VIC1,"2014/02/28 00:00:00",5097.27,45,TRADE
VIC1,"2014/02/28 00:30:00",4737.08,41.12,TRADE
VIC1,"2014/02/28 01:00:00",4481.09,38.46,TRADE
VIC1,"2014/02/28 01:30:00",4339.87,36.42,TRADE
VIC1,"2014/02/28 02:00:00",4200.26,36.75,TRADE
VIC1,"2014/02/28 02:30:00",4098.94,36.89,TRADE
VIC1,"2014/02/28 03:00:00",4037.47,36.24,TRADE
VIC1,"2014/02/28 03:30:00",4048.77,36.67,TRADE
VIC1,"2014/02/28 04:00:00",4076.21,37.15,TRADE
VIC1,"2014/02/28 04:30:00",4238.78,38.17,TRADE
VIC1,"2014/02/28 05:00:00",4447,39.41,TRADE
VIC1,"2014/02/28 05:30:00",4839.41,40.93,TRADE
VIC1,"2014/02/28 06:00:00",5220.51,42.07,TRADE
VIC1,"2014/02/28 06:30:00",5589.65,44.15,TRADE
VIC1,"2014/02/28 07:00:00",5901.54,47.61,TRADE
VIC1,"2014/02/28 07:30:00",5769.51,45.19,TRADE
VIC1,"2014/02/28 08:00:00",5728.43,44.58,TRADE
VIC1,"2014/02/28 08:30:00",5788.17,44.78,TRADE
VIC1,"2014/02/28 09:00:00",5731.62,44.4,TRADE
VIC1,"2014/02/28 09:30:00",5710.14,42.73,TRADE
VIC1,"2014/02/28 10:00:00",5697.46,43.66,TRADE
VIC1,"2014/02/28 10:30:00",5777.44,44.82,TRADE
VIC1,"2014/02/28 11:00:00",5813.97,45.37,TRADE
VIC1,"2014/02/28 11:30:00",5803.24,45.29,TRADE
VIC1,"2014/02/28 12:00:00",5839.59,45.88,TRADE
VIC1,"2014/02/28 12:30:00",5860.07,46.13,TRADE
VIC1,"2014/02/28 13:00:00",5879.59,45.72,TRADE
VIC1,"2014/02/28 13:30:00",5889.69,45.58,TRADE
VIC1,"2014/02/28 14:00:00",5873.58,43.92,TRADE
VIC1,"2014/02/28 14:30:00",5847.85,43.77,TRADE
VIC1,"2014/02/28 15:00:00",5845.12,43.64,TRADE
VIC1,"2014/02/28 15:30:00",5879.59,44.09,TRADE
VIC1,"2014/02/28 16:00:00",5904.34,43.64,TRADE
VIC1,"2014/02/28 16:30:00",5874.29,42.3,TRADE
VIC1,"2014/02/28 17:00:00",5848.09,42.24,TRADE
VIC1,"2014/02/28 17:30:00",5711.87,42.03,TRADE
VIC1,"2014/02/28 18:00:00",5606.08,41.87,TRADE
VIC1,"2014/02/28 18:30:00",5510.65,41.71,TRADE
VIC1,"2014/02/28 19:00:00",5451.94,42.22,TRADE
VIC1,"2014/02/28 19:30:00",5478.92,42.59,TRADE
VIC1,"2014/02/28 20:00:00",5521.98,43.29,TRADE
VIC1,"2014/02/28 20:30:00",5364.16,41.61,TRADE
VIC1,"2014/02/28 21:00:00",5183.25,41.05,TRADE
VIC1,"2014/02/28 21:30:00",4963.01,40.46,TRADE
VIC1,"2014/02/28 22:00:00",4826.61,38.71,TRADE
VIC1,"2014/02/28 22:30:00",4757.86,41.09,TRADE
VIC1,"2014/02/28 23:00:00",4809.58,41.36,TRADE
VIC1,"2014/02/28 23:30:00",5132.35,42.46,TRADE
VIC1,"2014/03/01 00:00:00",5195.91,43.06,TRADE
