REGION,SETTLEMENTDATE,TOTALDEMAND,RRP,PERIODTYPE
VIC1,"2007/03/01 00:30:00",5246.72,36.81,TRADE
VIC1,"2007/03/01 01:00:00",5095.51,33.88,TRADE
VIC1,"2007/03/01 01:30:00",5485.07,38.47,TRADE
VIC1,"2007/03/01 02:00:00",5281.56,29.44,TRADE
VIC1,"2007/03/01 02:30:00",5030.82,23.11,TRADE
VIC1,"2007/03/01 03:00:00",4913.54,22.89,TRADE
VIC1,"2007/03/01 03:30:00",4842.03,23.83,TRADE
VIC1,"2007/03/01 04:00:00",4854.95,23.85,TRADE
VIC1,"2007/03/01 04:30:00",4921.09,24.97,TRADE
VIC1,"2007/03/01 05:00:00",5098.53,30.4,TRADE
VIC1,"2007/03/01 05:30:00",5475.51,44.98,TRADE
VIC1,"2007/03/01 06:00:00",5840.83,49.67,TRADE
VIC1,"2007/03/01 06:30:00",6262.26,55.56,TRADE
VIC1,"2007/03/01 07:00:00",6534.84,58.8,TRADE
VIC1,"2007/03/01 07:30:00",6486.03,54.21,TRADE
VIC1,"2007/03/01 08:00:00",6546.63,54.76,TRADE
VIC1,"2007/03/01 08:30:00",6701.22,55.82,TRADE
VIC1,"2007/03/01 09:00:00",6788.24,57.56,TRADE
VIC1,"2007/03/01 09:30:00",6872.8,56.82,TRADE
VIC1,"2007/03/01 10:00:00",6957.2,57.97,TRADE
VIC1,"2007/03/01 10:30:00",6973.51,59.03,TRADE
VIC1,"2007/03/01 11:00:00",7091.11,64.79,TRADE
VIC1,"2007/03/01 11:30:00",7101.43,63.79,TRADE
VIC1,"2007/03/01 12:00:00",7144.53,66.86,TRADE
VIC1,"2007/03/01 12:30:00",7182.98,68.36,TRADE
VIC1,"2007/03/01 13:00:00",7203.43,68.84,TRADE
VIC1,"2007/03/01 13:30:00",7131.34,64.04,TRADE
VIC1,"2007/03/01 14:00:00",7347.29,66.46,TRADE
VIC1,"2007/03/01 14:30:00",7372.3,69.48,TRADE
VIC1,"2007/03/01 15:00:00",7320.16,74.84,TRADE
VIC1,"2007/03/01 15:30:00",7345.59,69.93,TRADE
VIC1,"2007/03/01 16:00:00",7334.63,67.58,TRADE
VIC1,"2007/03/01 16:30:00",7278.91,63.4,TRADE
VIC1,"2007/03/01 17:00:00",7130.95,60.78,TRADE
VIC1,"2007/03/01 17:30:00",6911.38,55.48,TRADE
VIC1,"2007/03/01 18:00:00",6703.11,56.1,TRADE
VIC1,"2007/03/01 18:30:00",6463.55,56.27,TRADE
VIC1,"2007/03/01 19:00:00",6319.39,54.34,TRADE
VIC1,"2007/03/01 19:30:00",6366.95,54.59,TRADE
VIC1,"2007/03/01 20:00:00",6431.18,63.19,TRADE
VIC1,"2007/03/01 20:30:00",6197.65,53.34,TRADE
VIC1,"2007/03/01 21:00:00",6024.67,39.82,TRADE
VIC1,"2007/03/01 21:30:00",5754.2,46.95,TRADE
VIC1,"2007/03/01 22:00:00",5546.84,37.76,TRADE
VIC1,"2007/03/01 22:30:00",5360.94,34.68,TRADE
VIC1,"2007/03/01 23:00:00",5254.74,34.91,TRADE
VIC1,"2007/03/01 23:30:00",5585.12,50.18,TRADE
VIC1,"2007/03/02 00:00:00",5433.6,46.7,TRADE
VIC1,"2007/03/02 00:30:00",5206.64,40.86,TRADE
VIC1,"2007/03/02 01:00:00",5034.42,36.7,TRADE
VIC1,"2007/03/02 01:30:00",5444.46,38.01,TRADE
VIC1,"2007/03/02 02:00:00",5255.09,33.92,TRADE
VIC1,"2007/03/02 02:30:00",5028.72,28.7,TRADE
VIC1,"2007/03/02 03:00:00",4891.82,26.59,TRADE
VIC1,"2007/03/02 03:30:00",4822.81,25,TRADE
VIC1,"2007/03/02 04:00:00",4821.85,26.32,TRADE
VIC1,"2007/03/02 04:30:00",4899.5,27.54,TRADE
VIC1,"2007/03/02 05:00:00",5070.9,29.73,TRADE
VIC1,"2007/03/02 05:30:00",5381.58,43.37,TRADE
VIC1,"2007/03/02 06:00:00",5784.82,47.99,TRADE
VIC1,"2007/03/02 06:30:00",6211.64,53.03,TRADE
VIC1,"2007/03/02 07:00:00",6540.68,54.97,TRADE
VIC1,"2007/03/02 07:30:00",6470.76,49.77,TRADE
VIC1,"2007/03/02 08:00:00",6525.83,52.17,TRADE
VIC1,"2007/03/02 08:30:00",6665.83,59.33,TRADE
VIC1,"2007/03/02 09:00:00",6697.47,70.83,TRADE
VIC1,"2007/03/02 09:30:00",6825.76,64.95,TRADE
VIC1,"2007/03/02 10:00:00",6919.33,68.37,TRADE
VIC1,"2007/03/02 10:30:00",7029.74,65.93,TRADE
VIC1,"2007/03/02 11:00:00",7154.28,98.25,TRADE
VIC1,"2007/03/02 11:30:00",7230.57,100.61,TRADE
VIC1,"2007/03/02 12:00:00",7325.56,100.8,TRADE
VIC1,"2007/03/02 12:30:00",7377.38,124.83,TRADE
VIC1,"2007/03/02 13:00:00",7441.93,152.64,TRADE
VIC1,"2007/03/02 13:30:00",7547.15,182.15,TRADE
VIC1,"2007/03/02 14:00:00",7498.05,161,TRADE
VIC1,"2007/03/02 14:30:00",7589.4,158.95,TRADE
VIC1,"2007/03/02 15:00:00",7595.83,170.7,TRADE
VIC1,"2007/03/02 15:30:00",7664.92,171.14,TRADE
VIC1,"2007/03/02 16:00:00",7659.58,161.68,TRADE
VIC1,"2007/03/02 16:30:00",7592.92,161.91,TRADE
VIC1,"2007/03/02 17:00:00",7515.26,139.77,TRADE
VIC1,"2007/03/02 17:30:00",7282.6,97.12,TRADE
VIC1,"2007/03/02 18:00:00",7085.2,78.47,TRADE
VIC1,"2007/03/02 18:30:00",6858.25,75.36,TRADE
VIC1,"2007/03/02 19:00:00",6690.06,71.05,TRADE
VIC1,"2007/03/02 19:30:00",6772.64,72.73,TRADE
VIC1,"2007/03/02 20:00:00",6769.72,70.03,TRADE
VIC1,"2007/03/02 20:30:00",6605.76,60.71,TRADE
VIC1,"2007/03/02 21:00:00",6360.38,50.69,TRADE
VIC1,"2007/03/02 21:30:00",6128.72,67.31,TRADE
VIC1,"2007/03/02 22:00:00",5854.13,52.98,TRADE
VIC1,"2007/03/02 22:30:00",5647.07,42.56,TRADE
VIC1,"2007/03/02 23:00:00",5538.26,38.11,TRADE
VIC1,"2007/03/02 23:30:00",5772.64,46.45,TRADE
VIC1,"2007/03/03 00:00:00",5630.64,42.92,TRADE
VIC1,"2007/03/03 00:30:00",5331.54,34.11,TRADE
VIC1,"2007/03/03 01:00:00",5174.42,35.09,TRADE
VIC1,"2007/03/03 01:30:00",5512.22,39.27,TRADE
VIC1,"2007/03/03 02:00:00",5279.13,33.62,TRADE
VIC1,"2007/03/03 02:30:00",5026.03,27.71,TRADE
VIC1,"2007/03/03 03:00:00",4820.13,21.37,TRADE
VIC1,"2007/03/03 03:30:00",4750.78,17.81,TRADE
VIC1,"2007/03/03 04:00:00",4725.14,17.77,TRADE
VIC1,"2007/03/03 04:30:00",4730.92,18.54,TRADE
VIC1,"2007/03/03 05:00:00",4798.2,17.46,TRADE
VIC1,"2007/03/03 05:30:00",4904.09,18.69,TRADE
VIC1,"2007/03/03 06:00:00",5023.22,18.58,TRADE
VIC1,"2007/03/03 06:30:00",5140.86,23.01,TRADE
VIC1,"2007/03/03 07:00:00",5330.88,30.39,TRADE
VIC1,"2007/03/03 07:30:00",5410.62,30.57,TRADE
VIC1,"2007/03/03 08:00:00",5630.43,39.24,TRADE
VIC1,"2007/03/03 08:30:00",5842.99,45.62,TRADE
VIC1,"2007/03/03 09:00:00",6023.13,51.72,TRADE
VIC1,"2007/03/03 09:30:00",6209.07,63.76,TRADE
VIC1,"2007/03/03 10:00:00",6325.44,63.58,TRADE
VIC1,"2007/03/03 10:30:00",6299.65,73.04,TRADE
VIC1,"2007/03/03 11:00:00",6368.11,70.74,TRADE
VIC1,"2007/03/03 11:30:00",6558.47,77.21,TRADE
VIC1,"2007/03/03 12:00:00",6668.45,86.1,TRADE
VIC1,"2007/03/03 12:30:00",6744.86,112.02,TRADE
VIC1,"2007/03/03 13:00:00",6887.18,113.86,TRADE
VIC1,"2007/03/03 13:30:00",6957.25,115.42,TRADE
VIC1,"2007/03/03 14:00:00",6973.06,107.87,TRADE
VIC1,"2007/03/03 14:30:00",6828.64,114.38,TRADE
VIC1,"2007/03/03 15:00:00",6693.31,1483.18,TRADE
VIC1,"2007/03/03 15:30:00",6593.36,131.04,TRADE
VIC1,"2007/03/03 16:00:00",6614.41,94.37,TRADE
VIC1,"2007/03/03 16:30:00",6489.7,82.52,TRADE
VIC1,"2007/03/03 17:00:00",6357.82,66.15,TRADE
VIC1,"2007/03/03 17:30:00",6156.16,59.26,TRADE
VIC1,"2007/03/03 18:00:00",6036.42,60.21,TRADE
VIC1,"2007/03/03 18:30:00",5849.85,59.82,TRADE
VIC1,"2007/03/03 19:00:00",5785.66,59.46,TRADE
VIC1,"2007/03/03 19:30:00",5799.4,61.54,TRADE
VIC1,"2007/03/03 20:00:00",5832.56,56.79,TRADE
VIC1,"2007/03/03 20:30:00",5727.91,52.77,TRADE
VIC1,"2007/03/03 21:00:00",5608.38,46.07,TRADE
VIC1,"2007/03/03 21:30:00",5478.77,40.09,TRADE
VIC1,"2007/03/03 22:00:00",5340.91,34.93,TRADE
VIC1,"2007/03/03 22:30:00",5192.46,35.84,TRADE
VIC1,"2007/03/03 23:00:00",5130.86,38.48,TRADE
VIC1,"2007/03/03 23:30:00",5362.26,37.44,TRADE
VIC1,"2007/03/04 00:00:00",5238.94,34.85,TRADE
VIC1,"2007/03/04 00:30:00",5020.31,34.86,TRADE
VIC1,"2007/03/04 01:00:00",4846.54,33.32,TRADE
VIC1,"2007/03/04 01:30:00",5224.57,39.77,TRADE
VIC1,"2007/03/04 02:00:00",5030.94,29.57,TRADE
VIC1,"2007/03/04 02:30:00",4759.02,20.6,TRADE
VIC1,"2007/03/04 03:00:00",4605.61,17.41,TRADE
VIC1,"2007/03/04 03:30:00",4519.95,19.75,TRADE
VIC1,"2007/03/04 04:00:00",4449.44,16.97,TRADE
VIC1,"2007/03/04 04:30:00",4459.74,16.4,TRADE
VIC1,"2007/03/04 05:00:00",4485.34,16.39,TRADE
VIC1,"2007/03/04 05:30:00",4529.08,16.64,TRADE
VIC1,"2007/03/04 06:00:00",4601.02,16.8,TRADE
VIC1,"2007/03/04 06:30:00",4635.69,16.88,TRADE
VIC1,"2007/03/04 07:00:00",4731.77,17.68,TRADE
VIC1,"2007/03/04 07:30:00",4763.11,18.46,TRADE
VIC1,"2007/03/04 08:00:00",4897.63,24.51,TRADE
VIC1,"2007/03/04 08:30:00",5053.56,23.37,TRADE
VIC1,"2007/03/04 09:00:00",5146.83,29.99,TRADE
VIC1,"2007/03/04 09:30:00",5260.4,37.26,TRADE
VIC1,"2007/03/04 10:00:00",5318.82,39.24,TRADE
VIC1,"2007/03/04 10:30:00",5377.85,40.51,TRADE
VIC1,"2007/03/04 11:00:00",5417.71,49.37,TRADE
VIC1,"2007/03/04 11:30:00",5413.17,50.6,TRADE
VIC1,"2007/03/04 12:00:00",5423.6,58.14,TRADE
VIC1,"2007/03/04 12:30:00",5425.34,67,TRADE
VIC1,"2007/03/04 13:00:00",5390.76,66.38,TRADE
VIC1,"2007/03/04 13:30:00",5452.46,54.34,TRADE
VIC1,"2007/03/04 14:00:00",5450.52,51.27,TRADE
VIC1,"2007/03/04 14:30:00",5474.39,74.96,TRADE
VIC1,"2007/03/04 15:00:00",5512.72,71.7,TRADE
VIC1,"2007/03/04 15:30:00",5528.41,36.62,TRADE
VIC1,"2007/03/04 16:00:00",5625.8,30.75,TRADE
VIC1,"2007/03/04 16:30:00",5594.19,72.94,TRADE
VIC1,"2007/03/04 17:00:00",5599.17,68.58,TRADE
VIC1,"2007/03/04 17:30:00",5560.98,56.06,TRADE
VIC1,"2007/03/04 18:00:00",5501.88,53.58,TRADE
VIC1,"2007/03/04 18:30:00",5414.95,65.7,TRADE
VIC1,"2007/03/04 19:00:00",5424.45,62.29,TRADE
VIC1,"2007/03/04 19:30:00",5521.21,56.94,TRADE
VIC1,"2007/03/04 20:00:00",5610.81,50.33,TRADE
VIC1,"2007/03/04 20:30:00",5501.09,56.44,TRADE
VIC1,"2007/03/04 21:00:00",5356.53,50.41,TRADE
VIC1,"2007/03/04 21:30:00",5196.99,37.81,TRADE
VIC1,"2007/03/04 22:00:00",5023.44,25.63,TRADE
VIC1,"2007/03/04 22:30:00",4886.92,31.12,TRADE
VIC1,"2007/03/04 23:00:00",4830.37,31.56,TRADE
VIC1,"2007/03/04 23:30:00",5111.71,35.41,TRADE
VIC1,"2007/03/05 00:00:00",5053.65,38.89,TRADE
VIC1,"2007/03/05 00:30:00",4884.52,35.26,TRADE
VIC1,"2007/03/05 01:00:00",4778.41,35.28,TRADE
VIC1,"2007/03/05 01:30:00",5155.33,33.99,TRADE
VIC1,"2007/03/05 02:00:00",5001.22,27.86,TRADE
VIC1,"2007/03/05 02:30:00",4754.41,22.05,TRADE
VIC1,"2007/03/05 03:00:00",4616.04,16.25,TRADE
VIC1,"2007/03/05 03:30:00",4577.03,16.18,TRADE
VIC1,"2007/03/05 04:00:00",4552.46,15.99,TRADE
VIC1,"2007/03/05 04:30:00",4616.93,18.61,TRADE
VIC1,"2007/03/05 05:00:00",4779.84,22.99,TRADE
VIC1,"2007/03/05 05:30:00",5163.03,35.44,TRADE
VIC1,"2007/03/05 06:00:00",5509.89,35.58,TRADE
VIC1,"2007/03/05 06:30:00",6044.43,38.44,TRADE
VIC1,"2007/03/05 07:00:00",6293.08,43.56,TRADE
VIC1,"2007/03/05 07:30:00",6269.7,50.97,TRADE
VIC1,"2007/03/05 08:00:00",6266.81,52.32,TRADE
VIC1,"2007/03/05 08:30:00",6343.93,52.54,TRADE
VIC1,"2007/03/05 09:00:00",6399.45,52.84,TRADE
VIC1,"2007/03/05 09:30:00",6417.92,53.3,TRADE
VIC1,"2007/03/05 10:00:00",6473.37,57.29,TRADE
VIC1,"2007/03/05 10:30:00",6502.39,62.07,TRADE
VIC1,"2007/03/05 11:00:00",6516.7,73.11,TRADE
VIC1,"2007/03/05 11:30:00",6528.22,61.12,TRADE
VIC1,"2007/03/05 12:00:00",6546.58,55.79,TRADE
VIC1,"2007/03/05 12:30:00",6548.77,58.16,TRADE
VIC1,"2007/03/05 13:00:00",6590.74,59.61,TRADE
VIC1,"2007/03/05 13:30:00",6591.99,63.53,TRADE
VIC1,"2007/03/05 14:00:00",6587.58,57.95,TRADE
VIC1,"2007/03/05 14:30:00",6544.35,55.39,TRADE
VIC1,"2007/03/05 15:00:00",6523.43,52.89,TRADE
VIC1,"2007/03/05 15:30:00",6536.75,52.43,TRADE
VIC1,"2007/03/05 16:00:00",6516.19,52.5,TRADE
VIC1,"2007/03/05 16:30:00",6469.5,52.91,TRADE
VIC1,"2007/03/05 17:00:00",6353.94,51.78,TRADE
VIC1,"2007/03/05 17:30:00",6151.78,46.84,TRADE
VIC1,"2007/03/05 18:00:00",5955.5,39.95,TRADE
VIC1,"2007/03/05 18:30:00",5787.25,36.25,TRADE
VIC1,"2007/03/05 19:00:00",5756.56,38.99,TRADE
VIC1,"2007/03/05 19:30:00",5884.29,38.39,TRADE
VIC1,"2007/03/05 20:00:00",5869.97,36.2,TRADE
VIC1,"2007/03/05 20:30:00",5754.7,31.82,TRADE
VIC1,"2007/03/05 21:00:00",5650.14,26.21,TRADE
VIC1,"2007/03/05 21:30:00",5438.67,27.57,TRADE
VIC1,"2007/03/05 22:00:00",5203.87,26.11,TRADE
VIC1,"2007/03/05 22:30:00",5082.14,29.75,TRADE
VIC1,"2007/03/05 23:00:00",5001.95,33.94,TRADE
VIC1,"2007/03/05 23:30:00",5375.86,40.07,TRADE
VIC1,"2007/03/06 00:00:00",5243.91,35.01,TRADE
VIC1,"2007/03/06 00:30:00",5077.34,32.23,TRADE
VIC1,"2007/03/06 01:00:00",4912.79,28.61,TRADE
VIC1,"2007/03/06 01:30:00",5284.96,32.12,TRADE
VIC1,"2007/03/06 02:00:00",5135.19,25.95,TRADE
VIC1,"2007/03/06 02:30:00",4885,18.99,TRADE
VIC1,"2007/03/06 03:00:00",4744,16.8,TRADE
VIC1,"2007/03/06 03:30:00",4659.23,16.08,TRADE
VIC1,"2007/03/06 04:00:00",4682.21,16.57,TRADE
VIC1,"2007/03/06 04:30:00",4731.21,17.34,TRADE
VIC1,"2007/03/06 05:00:00",4922.49,22.36,TRADE
VIC1,"2007/03/06 05:30:00",5274.2,43.49,TRADE
VIC1,"2007/03/06 06:00:00",5602.9,38.63,TRADE
VIC1,"2007/03/06 06:30:00",6064.3,44.42,TRADE
VIC1,"2007/03/06 07:00:00",6328.78,49.66,TRADE
VIC1,"2007/03/06 07:30:00",6256.5,51.46,TRADE
VIC1,"2007/03/06 08:00:00",6199.63,40.45,TRADE
VIC1,"2007/03/06 08:30:00",6302.58,40.3,TRADE
VIC1,"2007/03/06 09:00:00",6346.64,40.31,TRADE
VIC1,"2007/03/06 09:30:00",6368.78,40.76,TRADE
VIC1,"2007/03/06 10:00:00",6397.05,41.04,TRADE
VIC1,"2007/03/06 10:30:00",6490.91,52.34,TRADE
VIC1,"2007/03/06 11:00:00",6537.9,52.6,TRADE
VIC1,"2007/03/06 11:30:00",6570.18,52.99,TRADE
VIC1,"2007/03/06 12:00:00",6579.33,52.5,TRADE
VIC1,"2007/03/06 12:30:00",6633.01,52.16,TRADE
VIC1,"2007/03/06 13:00:00",6688.55,52.94,TRADE
VIC1,"2007/03/06 13:30:00",6721.89,49.61,TRADE
VIC1,"2007/03/06 14:00:00",6731.99,46.83,TRADE
VIC1,"2007/03/06 14:30:00",6756.28,48.7,TRADE
VIC1,"2007/03/06 15:00:00",6615.74,44.41,TRADE
VIC1,"2007/03/06 15:30:00",6775.55,51.79,TRADE
VIC1,"2007/03/06 16:00:00",6793.86,52.7,TRADE
VIC1,"2007/03/06 16:30:00",6705.81,52.18,TRADE
VIC1,"2007/03/06 17:00:00",6611.36,42.03,TRADE
VIC1,"2007/03/06 17:30:00",6374.09,36.37,TRADE
VIC1,"2007/03/06 18:00:00",6182.11,33.3,TRADE
VIC1,"2007/03/06 18:30:00",6009.62,30.06,TRADE
VIC1,"2007/03/06 19:00:00",5920.12,32.08,TRADE
VIC1,"2007/03/06 19:30:00",6007.69,34.28,TRADE
VIC1,"2007/03/06 20:00:00",6019.96,31.96,TRADE
VIC1,"2007/03/06 20:30:00",5865.87,30.38,TRADE
VIC1,"2007/03/06 21:00:00",5757.92,25.77,TRADE
VIC1,"2007/03/06 21:30:00",5534.15,20.95,TRADE
VIC1,"2007/03/06 22:00:00",5302.98,18.89,TRADE
VIC1,"2007/03/06 22:30:00",5150.13,27.91,TRADE
VIC1,"2007/03/06 23:00:00",5098.15,28.44,TRADE
VIC1,"2007/03/06 23:30:00",5402.4,37.09,TRADE
VIC1,"2007/03/07 00:00:00",5315.47,36.48,TRADE
VIC1,"2007/03/07 00:30:00",5129.57,33.22,TRADE
VIC1,"2007/03/07 01:00:00",4986.94,29.43,TRADE
VIC1,"2007/03/07 01:30:00",5370.71,29.74,TRADE
VIC1,"2007/03/07 02:00:00",5188.78,21.51,TRADE
VIC1,"2007/03/07 02:30:00",4955.27,17.54,TRADE
VIC1,"2007/03/07 03:00:00",4765.3,16.62,TRADE
VIC1,"2007/03/07 03:30:00",4754.34,16.55,TRADE
VIC1,"2007/03/07 04:00:00",4747.91,16.45,TRADE
VIC1,"2007/03/07 04:30:00",4823.16,17.2,TRADE
VIC1,"2007/03/07 05:00:00",4969.5,18.34,TRADE
VIC1,"2007/03/07 05:30:00",5366.42,30.55,TRADE
VIC1,"2007/03/07 06:00:00",5755.76,35.6,TRADE
VIC1,"2007/03/07 06:30:00",6199.84,33.01,TRADE
VIC1,"2007/03/07 07:00:00",6422.59,35.31,TRADE
VIC1,"2007/03/07 07:30:00",6373.46,28.03,TRADE
VIC1,"2007/03/07 08:00:00",6423.7,27.16,TRADE
VIC1,"2007/03/07 08:30:00",6526.17,29.02,TRADE
VIC1,"2007/03/07 09:00:00",6613.24,31.37,TRADE
VIC1,"2007/03/07 09:30:00",6673.65,31.49,TRADE
VIC1,"2007/03/07 10:00:00",6753.16,37.57,TRADE
VIC1,"2007/03/07 10:30:00",6834.31,43.93,TRADE
VIC1,"2007/03/07 11:00:00",6917.7,51.47,TRADE
VIC1,"2007/03/07 11:30:00",7019.9,55.08,TRADE
VIC1,"2007/03/07 12:00:00",6996.25,52.4,TRADE
VIC1,"2007/03/07 12:30:00",6999.13,45.96,TRADE
VIC1,"2007/03/07 13:00:00",7182.04,52.74,TRADE
VIC1,"2007/03/07 13:30:00",7174.26,54.43,TRADE
VIC1,"2007/03/07 14:00:00",7264.4,52.74,TRADE
VIC1,"2007/03/07 14:30:00",7296.94,50.88,TRADE
VIC1,"2007/03/07 15:00:00",7382.13,55.32,TRADE
VIC1,"2007/03/07 15:30:00",7483.44,56.87,TRADE
VIC1,"2007/03/07 16:00:00",7477.83,56.81,TRADE
VIC1,"2007/03/07 16:30:00",7395.01,56.18,TRADE
VIC1,"2007/03/07 17:00:00",7229.92,49.11,TRADE
VIC1,"2007/03/07 17:30:00",6886.09,39.77,TRADE
VIC1,"2007/03/07 18:00:00",6632.63,36.09,TRADE
VIC1,"2007/03/07 18:30:00",6355.62,30.65,TRADE
VIC1,"2007/03/07 19:00:00",6298,31.3,TRADE
VIC1,"2007/03/07 19:30:00",6350.61,31.42,TRADE
VIC1,"2007/03/07 20:00:00",6317.99,27.57,TRADE
VIC1,"2007/03/07 20:30:00",6127.91,24.98,TRADE
VIC1,"2007/03/07 21:00:00",5940.2,24.48,TRADE
VIC1,"2007/03/07 21:30:00",5708.13,23.15,TRADE
VIC1,"2007/03/07 22:00:00",5522.11,21.06,TRADE
VIC1,"2007/03/07 22:30:00",5338.66,28.76,TRADE
VIC1,"2007/03/07 23:00:00",5263.48,29.78,TRADE
VIC1,"2007/03/07 23:30:00",5560.65,36.32,TRADE
VIC1,"2007/03/08 00:00:00",5439.24,34.26,TRADE
VIC1,"2007/03/08 00:30:00",5242.4,32.22,TRADE
VIC1,"2007/03/08 01:00:00",5065.96,26.37,TRADE
VIC1,"2007/03/08 01:30:00",5458.43,28.27,TRADE
VIC1,"2007/03/08 02:00:00",5197.84,22.24,TRADE
VIC1,"2007/03/08 02:30:00",4947.66,17.11,TRADE
VIC1,"2007/03/08 03:00:00",4829.42,16.7,TRADE
VIC1,"2007/03/08 03:30:00",4758.87,16.42,TRADE
VIC1,"2007/03/08 04:00:00",4770.5,16.5,TRADE
VIC1,"2007/03/08 04:30:00",4831.61,17.24,TRADE
VIC1,"2007/03/08 05:00:00",4995.96,20.48,TRADE
VIC1,"2007/03/08 05:30:00",5351.81,33.9,TRADE
VIC1,"2007/03/08 06:00:00",5764.15,41.68,TRADE
VIC1,"2007/03/08 06:30:00",6250.84,40.19,TRADE
VIC1,"2007/03/08 07:00:00",6477.3,36.68,TRADE
VIC1,"2007/03/08 07:30:00",6381.22,36.47,TRADE
VIC1,"2007/03/08 08:00:00",6391.95,38.35,TRADE
VIC1,"2007/03/08 08:30:00",6478.67,41.41,TRADE
VIC1,"2007/03/08 09:00:00",6497.58,41.24,TRADE
VIC1,"2007/03/08 09:30:00",6516.5,48.52,TRADE
VIC1,"2007/03/08 10:00:00",6555.26,49.86,TRADE
VIC1,"2007/03/08 10:30:00",6563.75,51.42,TRADE
VIC1,"2007/03/08 11:00:00",6548.05,53.09,TRADE
VIC1,"2007/03/08 11:30:00",6517.2,53.41,TRADE
VIC1,"2007/03/08 12:00:00",6507.7,52.97,TRADE
VIC1,"2007/03/08 12:30:00",6534.9,53.02,TRADE
VIC1,"2007/03/08 13:00:00",6562.53,54.65,TRADE
VIC1,"2007/03/08 13:30:00",6562.79,54.76,TRADE
VIC1,"2007/03/08 14:00:00",6556.1,51.68,TRADE
VIC1,"2007/03/08 14:30:00",6498.92,50.89,TRADE
VIC1,"2007/03/08 15:00:00",6485.75,50.68,TRADE
VIC1,"2007/03/08 15:30:00",6503.71,51.22,TRADE
VIC1,"2007/03/08 16:00:00",6442.04,50.71,TRADE
VIC1,"2007/03/08 16:30:00",6426.85,49.16,TRADE
VIC1,"2007/03/08 17:00:00",6323.66,39.51,TRADE
VIC1,"2007/03/08 17:30:00",6161.08,38.88,TRADE
VIC1,"2007/03/08 18:00:00",5961.27,33.09,TRADE
VIC1,"2007/03/08 18:30:00",5883.35,27.06,TRADE
VIC1,"2007/03/08 19:00:00",5876.66,29.93,TRADE
VIC1,"2007/03/08 19:30:00",6032.9,39.18,TRADE
VIC1,"2007/03/08 20:00:00",5967.82,34.36,TRADE
VIC1,"2007/03/08 20:30:00",5798.09,25.32,TRADE
VIC1,"2007/03/08 21:00:00",5655.22,21.66,TRADE
VIC1,"2007/03/08 21:30:00",5453.5,19.24,TRADE
VIC1,"2007/03/08 22:00:00",5264.28,17.84,TRADE
VIC1,"2007/03/08 22:30:00",5122.91,23.48,TRADE
VIC1,"2007/03/08 23:00:00",5027.29,24.65,TRADE
VIC1,"2007/03/08 23:30:00",5380.96,31.27,TRADE
VIC1,"2007/03/09 00:00:00",5301.8,31.49,TRADE
VIC1,"2007/03/09 00:30:00",5092.96,26.84,TRADE
VIC1,"2007/03/09 01:00:00",4949.22,21.32,TRADE
VIC1,"2007/03/09 01:30:00",5350.99,22,TRADE
VIC1,"2007/03/09 02:00:00",5154.57,17.62,TRADE
VIC1,"2007/03/09 02:30:00",4921.91,16.93,TRADE
VIC1,"2007/03/09 03:00:00",4766.24,16.05,TRADE
VIC1,"2007/03/09 03:30:00",4684.72,16.02,TRADE
VIC1,"2007/03/09 04:00:00",4697.81,16.09,TRADE
VIC1,"2007/03/09 04:30:00",4765.97,16.28,TRADE
VIC1,"2007/03/09 05:00:00",4937.88,17.66,TRADE
VIC1,"2007/03/09 05:30:00",5317.26,25.67,TRADE
VIC1,"2007/03/09 06:00:00",5685.7,30.36,TRADE
VIC1,"2007/03/09 06:30:00",6135.1,37.96,TRADE
VIC1,"2007/03/09 07:00:00",6354.27,36.66,TRADE
VIC1,"2007/03/09 07:30:00",6279.81,39.65,TRADE
VIC1,"2007/03/09 08:00:00",6258.84,38.51,TRADE
VIC1,"2007/03/09 08:30:00",6393.76,40.14,TRADE
VIC1,"2007/03/09 09:00:00",6409.58,40.21,TRADE
VIC1,"2007/03/09 09:30:00",6468.54,40.21,TRADE
VIC1,"2007/03/09 10:00:00",6537.37,40.42,TRADE
VIC1,"2007/03/09 10:30:00",6551.89,40.74,TRADE
VIC1,"2007/03/09 11:00:00",6588.39,42.55,TRADE
VIC1,"2007/03/09 11:30:00",6603.68,43.45,TRADE
VIC1,"2007/03/09 12:00:00",6637.66,43.88,TRADE
VIC1,"2007/03/09 12:30:00",6638.79,43.88,TRADE
VIC1,"2007/03/09 13:00:00",6668.15,50.84,TRADE
VIC1,"2007/03/09 13:30:00",6682.27,43.4,TRADE
VIC1,"2007/03/09 14:00:00",6684.19,41,TRADE
VIC1,"2007/03/09 14:30:00",6592.85,38.58,TRADE
VIC1,"2007/03/09 15:00:00",6568.1,39.63,TRADE
VIC1,"2007/03/09 15:30:00",6564.49,39.78,TRADE
VIC1,"2007/03/09 16:00:00",6548.92,39.82,TRADE
VIC1,"2007/03/09 16:30:00",6520.33,38.44,TRADE
VIC1,"2007/03/09 17:00:00",6416.64,35.29,TRADE
VIC1,"2007/03/09 17:30:00",6249.93,28.98,TRADE
VIC1,"2007/03/09 18:00:00",6065.23,25.55,TRADE
VIC1,"2007/03/09 18:30:00",5875.6,20.16,TRADE
VIC1,"2007/03/09 19:00:00",5840.45,25.41,TRADE
VIC1,"2007/03/09 19:30:00",6006.02,28.61,TRADE
VIC1,"2007/03/09 20:00:00",5998.35,26.78,TRADE
VIC1,"2007/03/09 20:30:00",5815.74,23.31,TRADE
VIC1,"2007/03/09 21:00:00",5676.74,21.64,TRADE
VIC1,"2007/03/09 21:30:00",5457.85,23.87,TRADE
VIC1,"2007/03/09 22:00:00",5302.3,21.29,TRADE
VIC1,"2007/03/09 22:30:00",5173.59,27.19,TRADE
VIC1,"2007/03/09 23:00:00",5084.05,27.09,TRADE
VIC1,"2007/03/09 23:30:00",5431.77,34.88,TRADE
VIC1,"2007/03/10 00:00:00",5339.55,30.86,TRADE
VIC1,"2007/03/10 00:30:00",5100.26,26.15,TRADE
VIC1,"2007/03/10 01:00:00",4957.89,19.83,TRADE
VIC1,"2007/03/10 01:30:00",5294.17,20.86,TRADE
VIC1,"2007/03/10 02:00:00",5103.28,17.4,TRADE
VIC1,"2007/03/10 02:30:00",4865.59,15.88,TRADE
VIC1,"2007/03/10 03:00:00",4695.63,14.38,TRADE
VIC1,"2007/03/10 03:30:00",4603.5,12.6,TRADE
VIC1,"2007/03/10 04:00:00",4549.25,13.94,TRADE
VIC1,"2007/03/10 04:30:00",4556.36,15.28,TRADE
VIC1,"2007/03/10 05:00:00",4585.94,15.56,TRADE
VIC1,"2007/03/10 05:30:00",4720.89,16.68,TRADE
VIC1,"2007/03/10 06:00:00",4824.13,16.51,TRADE
VIC1,"2007/03/10 06:30:00",4941.82,18.3,TRADE
VIC1,"2007/03/10 07:00:00",5089.27,24.89,TRADE
VIC1,"2007/03/10 07:30:00",5176.01,25.99,TRADE
VIC1,"2007/03/10 08:00:00",5311.24,27.59,TRADE
VIC1,"2007/03/10 08:30:00",5454.87,31.21,TRADE
VIC1,"2007/03/10 09:00:00",5510.78,30.78,TRADE
VIC1,"2007/03/10 09:30:00",5596.93,30.48,TRADE
VIC1,"2007/03/10 10:00:00",5620.62,30.7,TRADE
VIC1,"2007/03/10 10:30:00",5666.37,30.38,TRADE
VIC1,"2007/03/10 11:00:00",5738.66,30.65,TRADE
VIC1,"2007/03/10 11:30:00",5753.14,31.25,TRADE
VIC1,"2007/03/10 12:00:00",5798.88,30.75,TRADE
VIC1,"2007/03/10 12:30:00",5784.88,24.62,TRADE
VIC1,"2007/03/10 13:00:00",5826.98,30.15,TRADE
VIC1,"2007/03/10 13:30:00",5818.03,31.84,TRADE
VIC1,"2007/03/10 14:00:00",5864.51,31.03,TRADE
VIC1,"2007/03/10 14:30:00",5880.3,31.34,TRADE
VIC1,"2007/03/10 15:00:00",5957.76,31.33,TRADE
VIC1,"2007/03/10 15:30:00",6005.62,32.38,TRADE
VIC1,"2007/03/10 16:00:00",6102.88,34.22,TRADE
VIC1,"2007/03/10 16:30:00",6099.05,34.3,TRADE
VIC1,"2007/03/10 17:00:00",6139.11,33.27,TRADE
VIC1,"2007/03/10 17:30:00",6129.56,33.92,TRADE
VIC1,"2007/03/10 18:00:00",5966.02,34.25,TRADE
VIC1,"2007/03/10 18:30:00",5847.57,32.2,TRADE
VIC1,"2007/03/10 19:00:00",5792.58,32.99,TRADE
VIC1,"2007/03/10 19:30:00",5857.92,34.42,TRADE
VIC1,"2007/03/10 20:00:00",5839.44,32.57,TRADE
VIC1,"2007/03/10 20:30:00",5645.07,30.69,TRADE
VIC1,"2007/03/10 21:00:00",5514.49,29.49,TRADE
VIC1,"2007/03/10 21:30:00",5376.97,26.54,TRADE
VIC1,"2007/03/10 22:00:00",5224.04,21.58,TRADE
VIC1,"2007/03/10 22:30:00",5090.98,24.44,TRADE
VIC1,"2007/03/10 23:00:00",4998.01,23.71,TRADE
VIC1,"2007/03/10 23:30:00",5250.14,30.91,TRADE
VIC1,"2007/03/11 00:00:00",5098.17,26.12,TRADE
VIC1,"2007/03/11 00:30:00",4884.58,20.05,TRADE
VIC1,"2007/03/11 01:00:00",4726.56,18.44,TRADE
VIC1,"2007/03/11 01:30:00",5081.81,21.15,TRADE
VIC1,"2007/03/11 02:00:00",4896.3,17.79,TRADE
VIC1,"2007/03/11 02:30:00",4676.49,17.37,TRADE
VIC1,"2007/03/11 03:00:00",4490.69,14.72,TRADE
VIC1,"2007/03/11 03:30:00",4385.29,13.86,TRADE
VIC1,"2007/03/11 04:00:00",4331.33,13.46,TRADE
VIC1,"2007/03/11 04:30:00",4311,15.75,TRADE
VIC1,"2007/03/11 05:00:00",4327.76,16.59,TRADE
VIC1,"2007/03/11 05:30:00",4381.48,16.67,TRADE
VIC1,"2007/03/11 06:00:00",4455.49,16.34,TRADE
VIC1,"2007/03/11 06:30:00",4499.95,16.53,TRADE
VIC1,"2007/03/11 07:00:00",4595.2,17.18,TRADE
VIC1,"2007/03/11 07:30:00",4660.59,18.63,TRADE
VIC1,"2007/03/11 08:00:00",4803.2,22.13,TRADE
VIC1,"2007/03/11 08:30:00",4940.03,30.89,TRADE
VIC1,"2007/03/11 09:00:00",5003.86,30.17,TRADE
VIC1,"2007/03/11 09:30:00",5102.26,30.69,TRADE
VIC1,"2007/03/11 10:00:00",5153.53,31.06,TRADE
VIC1,"2007/03/11 10:30:00",5229.95,30.8,TRADE
VIC1,"2007/03/11 11:00:00",5249.08,32.37,TRADE
VIC1,"2007/03/11 11:30:00",5296.96,32.69,TRADE
VIC1,"2007/03/11 12:00:00",5282.31,32.41,TRADE
VIC1,"2007/03/11 12:30:00",5279.24,36.95,TRADE
VIC1,"2007/03/11 13:00:00",5269.6,38.92,TRADE
VIC1,"2007/03/11 13:30:00",5216.81,35.95,TRADE
VIC1,"2007/03/11 14:00:00",5256.16,38.42,TRADE
VIC1,"2007/03/11 14:30:00",5210.52,36.96,TRADE
VIC1,"2007/03/11 15:00:00",5293.79,38.68,TRADE
VIC1,"2007/03/11 15:30:00",5290.78,40.66,TRADE
VIC1,"2007/03/11 16:00:00",5340.15,42.69,TRADE
VIC1,"2007/03/11 16:30:00",5317.37,42.99,TRADE
VIC1,"2007/03/11 17:00:00",5319.51,42.99,TRADE
VIC1,"2007/03/11 17:30:00",5294.54,43.03,TRADE
VIC1,"2007/03/11 18:00:00",5254.22,42.09,TRADE
VIC1,"2007/03/11 18:30:00",5195.78,39.76,TRADE
VIC1,"2007/03/11 19:00:00",5249.29,41.42,TRADE
VIC1,"2007/03/11 19:30:00",5322.18,42.07,TRADE
VIC1,"2007/03/11 20:00:00",5326.32,36.24,TRADE
VIC1,"2007/03/11 20:30:00",5227.31,34.1,TRADE
VIC1,"2007/03/11 21:00:00",5133.81,31.32,TRADE
VIC1,"2007/03/11 21:30:00",5026.04,28.54,TRADE
VIC1,"2007/03/11 22:00:00",4841.71,26.85,TRADE
VIC1,"2007/03/11 22:30:00",4781.1,31.22,TRADE
VIC1,"2007/03/11 23:00:00",4727.96,30.14,TRADE
VIC1,"2007/03/11 23:30:00",5014.37,32.33,TRADE
VIC1,"2007/03/12 00:00:00",4932.79,31.52,TRADE
VIC1,"2007/03/12 00:30:00",4691.8,28.67,TRADE
VIC1,"2007/03/12 01:00:00",4550.03,23.71,TRADE
VIC1,"2007/03/12 01:30:00",4923.73,23.92,TRADE
VIC1,"2007/03/12 02:00:00",4776.47,18.73,TRADE
VIC1,"2007/03/12 02:30:00",4532.57,18,TRADE
VIC1,"2007/03/12 03:00:00",4383.92,17.47,TRADE
VIC1,"2007/03/12 03:30:00",4275.31,17.1,TRADE
VIC1,"2007/03/12 04:00:00",4247.1,16.99,TRADE
VIC1,"2007/03/12 04:30:00",4209.35,16.92,TRADE
VIC1,"2007/03/12 05:00:00",4242.98,17,TRADE
VIC1,"2007/03/12 05:30:00",4343.04,25.21,TRADE
VIC1,"2007/03/12 06:00:00",4485.47,24.14,TRADE
VIC1,"2007/03/12 06:30:00",4617.09,30.55,TRADE
VIC1,"2007/03/12 07:00:00",4712.76,27.9,TRADE
VIC1,"2007/03/12 07:30:00",4718.03,22.67,TRADE
VIC1,"2007/03/12 08:00:00",4803.35,24.61,TRADE
VIC1,"2007/03/12 08:30:00",4924.67,26.89,TRADE
VIC1,"2007/03/12 09:00:00",5002.12,29.71,TRADE
VIC1,"2007/03/12 09:30:00",5092.35,34.94,TRADE
VIC1,"2007/03/12 10:00:00",5121.14,35.59,TRADE
VIC1,"2007/03/12 10:30:00",5153.02,35.1,TRADE
VIC1,"2007/03/12 11:00:00",5196,35.65,TRADE
VIC1,"2007/03/12 11:30:00",5224.91,36.63,TRADE
VIC1,"2007/03/12 12:00:00",5221.15,36.54,TRADE
VIC1,"2007/03/12 12:30:00",5202.37,35.18,TRADE
VIC1,"2007/03/12 13:00:00",5190.05,36.57,TRADE
VIC1,"2007/03/12 13:30:00",5148.93,37.1,TRADE
VIC1,"2007/03/12 14:00:00",5167.27,38.32,TRADE
VIC1,"2007/03/12 14:30:00",5150.34,36.98,TRADE
VIC1,"2007/03/12 15:00:00",5205.99,37.93,TRADE
VIC1,"2007/03/12 15:30:00",5243.53,35.62,TRADE
VIC1,"2007/03/12 16:00:00",5285.98,37.62,TRADE
VIC1,"2007/03/12 16:30:00",5321.81,36.23,TRADE
VIC1,"2007/03/12 17:00:00",5317.22,37.83,TRADE
VIC1,"2007/03/12 17:30:00",5270.05,35.56,TRADE
VIC1,"2007/03/12 18:00:00",5223.73,30.36,TRADE
VIC1,"2007/03/12 18:30:00",5175.01,31.07,TRADE
VIC1,"2007/03/12 19:00:00",5263.3,34.88,TRADE
VIC1,"2007/03/12 19:30:00",5370.84,35.31,TRADE
VIC1,"2007/03/12 20:00:00",5369.97,30.82,TRADE
VIC1,"2007/03/12 20:30:00",5242.83,27.55,TRADE
VIC1,"2007/03/12 21:00:00",5127.54,24.6,TRADE
VIC1,"2007/03/12 21:30:00",4954.56,28.13,TRADE
VIC1,"2007/03/12 22:00:00",4782.6,24.02,TRADE
VIC1,"2007/03/12 22:30:00",4676.71,29.24,TRADE
VIC1,"2007/03/12 23:00:00",4625.68,28.35,TRADE
VIC1,"2007/03/12 23:30:00",5011.49,34.15,TRADE
VIC1,"2007/03/13 00:00:00",4984.12,34.52,TRADE
VIC1,"2007/03/13 00:30:00",4825.52,31.08,TRADE
VIC1,"2007/03/13 01:00:00",4726.05,28.64,TRADE
VIC1,"2007/03/13 01:30:00",5084.53,29.15,TRADE
VIC1,"2007/03/13 02:00:00",4957.23,25.67,TRADE
VIC1,"2007/03/13 02:30:00",4748.56,17.84,TRADE
VIC1,"2007/03/13 03:00:00",4577,16.94,TRADE
VIC1,"2007/03/13 03:30:00",4479.49,16.67,TRADE
VIC1,"2007/03/13 04:00:00",4483.38,16.88,TRADE
VIC1,"2007/03/13 04:30:00",4563.32,17.47,TRADE
VIC1,"2007/03/13 05:00:00",4714.26,18.96,TRADE
VIC1,"2007/03/13 05:30:00",5072.82,33.81,TRADE
VIC1,"2007/03/13 06:00:00",5493.64,37.78,TRADE
VIC1,"2007/03/13 06:30:00",5984.87,45.51,TRADE
VIC1,"2007/03/13 07:00:00",6265.07,47.61,TRADE
VIC1,"2007/03/13 07:30:00",6114.79,35.87,TRADE
VIC1,"2007/03/13 08:00:00",6146.14,37.66,TRADE
VIC1,"2007/03/13 08:30:00",6228.97,37.97,TRADE
VIC1,"2007/03/13 09:00:00",6275.54,38.1,TRADE
VIC1,"2007/03/13 09:30:00",6293.74,39.75,TRADE
VIC1,"2007/03/13 10:00:00",6354.98,38.49,TRADE
VIC1,"2007/03/13 10:30:00",6324.4,44.58,TRADE
VIC1,"2007/03/13 11:00:00",6393.27,49.49,TRADE
VIC1,"2007/03/13 11:30:00",6449.85,51.34,TRADE
VIC1,"2007/03/13 12:00:00",6429.27,47.57,TRADE
VIC1,"2007/03/13 12:30:00",6477.35,47.97,TRADE
VIC1,"2007/03/13 13:00:00",6518.24,46.77,TRADE
VIC1,"2007/03/13 13:30:00",6581.08,45.38,TRADE
VIC1,"2007/03/13 14:00:00",6564.77,42.06,TRADE
VIC1,"2007/03/13 14:30:00",6558.39,41.22,TRADE
VIC1,"2007/03/13 15:00:00",6572.55,40.52,TRADE
VIC1,"2007/03/13 15:30:00",6540.63,39.08,TRADE
VIC1,"2007/03/13 16:00:00",6502.56,39.31,TRADE
VIC1,"2007/03/13 16:30:00",6431.07,38.71,TRADE
VIC1,"2007/03/13 17:00:00",6388.34,38.15,TRADE
VIC1,"2007/03/13 17:30:00",6163.59,30.74,TRADE
VIC1,"2007/03/13 18:00:00",5997.85,31.32,TRADE
VIC1,"2007/03/13 18:30:00",5862.23,29.97,TRADE
VIC1,"2007/03/13 19:00:00",5851.19,31.02,TRADE
VIC1,"2007/03/13 19:30:00",6041.36,35.59,TRADE
VIC1,"2007/03/13 20:00:00",6000.42,32.77,TRADE
VIC1,"2007/03/13 20:30:00",5878.41,27.92,TRADE
VIC1,"2007/03/13 21:00:00",5703.08,25.13,TRADE
VIC1,"2007/03/13 21:30:00",5453.36,28.92,TRADE
VIC1,"2007/03/13 22:00:00",5213.63,20.73,TRADE
VIC1,"2007/03/13 22:30:00",5099.75,28.18,TRADE
VIC1,"2007/03/13 23:00:00",5051.18,26.97,TRADE
VIC1,"2007/03/13 23:30:00",5398.37,35.44,TRADE
VIC1,"2007/03/14 00:00:00",5280.56,32.95,TRADE
VIC1,"2007/03/14 00:30:00",5074.33,29.05,TRADE
VIC1,"2007/03/14 01:00:00",4933.48,25.2,TRADE
VIC1,"2007/03/14 01:30:00",5313.39,22.98,TRADE
VIC1,"2007/03/14 02:00:00",5148.24,18.69,TRADE
VIC1,"2007/03/14 02:30:00",4889.18,16.28,TRADE
VIC1,"2007/03/14 03:00:00",4744.07,15.63,TRADE
VIC1,"2007/03/14 03:30:00",4672.14,16.45,TRADE
VIC1,"2007/03/14 04:00:00",4708.4,16.79,TRADE
VIC1,"2007/03/14 04:30:00",4774.55,17.04,TRADE
VIC1,"2007/03/14 05:00:00",4952.47,17.87,TRADE
VIC1,"2007/03/14 05:30:00",5303.53,38.98,TRADE
VIC1,"2007/03/14 06:00:00",5677.28,47.19,TRADE
VIC1,"2007/03/14 06:30:00",6185.35,50.93,TRADE
VIC1,"2007/03/14 07:00:00",6435.35,45.42,TRADE
VIC1,"2007/03/14 07:30:00",6328.32,37.12,TRADE
VIC1,"2007/03/14 08:00:00",6297.94,36.66,TRADE
VIC1,"2007/03/14 08:30:00",6374.16,39.38,TRADE
VIC1,"2007/03/14 09:00:00",6405.25,41.31,TRADE
VIC1,"2007/03/14 09:30:00",6487.02,41.85,TRADE
VIC1,"2007/03/14 10:00:00",6553.52,41.31,TRADE
VIC1,"2007/03/14 10:30:00",6577.81,47.64,TRADE
VIC1,"2007/03/14 11:00:00",6630.89,54.36,TRADE
VIC1,"2007/03/14 11:30:00",6676.06,54.94,TRADE
VIC1,"2007/03/14 12:00:00",6671.91,55,TRADE
VIC1,"2007/03/14 12:30:00",6746.86,54.72,TRADE
VIC1,"2007/03/14 13:00:00",6849.73,55.89,TRADE
VIC1,"2007/03/14 13:30:00",6723.55,50.87,TRADE
VIC1,"2007/03/14 14:00:00",6944.82,55.02,TRADE
VIC1,"2007/03/14 14:30:00",6931.14,55.37,TRADE
VIC1,"2007/03/14 15:00:00",6951.72,56.61,TRADE
VIC1,"2007/03/14 15:30:00",7028.18,57.37,TRADE
VIC1,"2007/03/14 16:00:00",7011.27,56.69,TRADE
VIC1,"2007/03/14 16:30:00",7024.08,53.05,TRADE
VIC1,"2007/03/14 17:00:00",6926.71,53.72,TRADE
VIC1,"2007/03/14 17:30:00",6713.87,50.5,TRADE
VIC1,"2007/03/14 18:00:00",6506.17,43.6,TRADE
VIC1,"2007/03/14 18:30:00",6313.05,50.96,TRADE
VIC1,"2007/03/14 19:00:00",6225.28,51.45,TRADE
VIC1,"2007/03/14 19:30:00",6347.86,52.89,TRADE
VIC1,"2007/03/14 20:00:00",6294.97,52.63,TRADE
VIC1,"2007/03/14 20:30:00",6104.61,43.29,TRADE
VIC1,"2007/03/14 21:00:00",5935.82,32.32,TRADE
VIC1,"2007/03/14 21:30:00",5672.1,38.8,TRADE
VIC1,"2007/03/14 22:00:00",5449.98,40.08,TRADE
VIC1,"2007/03/14 22:30:00",5275.72,41.07,TRADE
VIC1,"2007/03/14 23:00:00",5148.98,40.21,TRADE
VIC1,"2007/03/14 23:30:00",5472.48,50.03,TRADE
VIC1,"2007/03/15 00:00:00",5334.93,41.71,TRADE
VIC1,"2007/03/15 00:30:00",5132.83,37.45,TRADE
VIC1,"2007/03/15 01:00:00",5015.85,34.17,TRADE
VIC1,"2007/03/15 01:30:00",5391.02,36.54,TRADE
VIC1,"2007/03/15 02:00:00",5179.23,29.11,TRADE
VIC1,"2007/03/15 02:30:00",4962.98,20.91,TRADE
VIC1,"2007/03/15 03:00:00",4824.49,18.15,TRADE
VIC1,"2007/03/15 03:30:00",4725.01,17.79,TRADE
VIC1,"2007/03/15 04:00:00",4729.36,18.03,TRADE
VIC1,"2007/03/15 04:30:00",4777.61,19.13,TRADE
VIC1,"2007/03/15 05:00:00",4928.33,19.82,TRADE
VIC1,"2007/03/15 05:30:00",5293.63,34.45,TRADE
VIC1,"2007/03/15 06:00:00",5677.89,38.9,TRADE
VIC1,"2007/03/15 06:30:00",6149.06,46.96,TRADE
VIC1,"2007/03/15 07:00:00",6389.05,50.87,TRADE
VIC1,"2007/03/15 07:30:00",6349.36,40.94,TRADE
VIC1,"2007/03/15 08:00:00",6351.75,42.17,TRADE
VIC1,"2007/03/15 08:30:00",6488.61,54.46,TRADE
VIC1,"2007/03/15 09:00:00",6622.02,61.3,TRADE
VIC1,"2007/03/15 09:30:00",6713.11,59.42,TRADE
VIC1,"2007/03/15 10:00:00",6875.25,64.45,TRADE
VIC1,"2007/03/15 10:30:00",7036.95,78.84,TRADE
VIC1,"2007/03/15 11:00:00",7175.34,81.14,TRADE
VIC1,"2007/03/15 11:30:00",7283.31,119.9,TRADE
VIC1,"2007/03/15 12:00:00",7427.26,1784.82,TRADE
VIC1,"2007/03/15 12:30:00",7485.24,114.29,TRADE
VIC1,"2007/03/15 13:00:00",7586.92,1490.58,TRADE
VIC1,"2007/03/15 13:30:00",7347.89,1071.64,TRADE
VIC1,"2007/03/15 14:00:00",7655.59,2702.5,TRADE
VIC1,"2007/03/15 14:30:00",7603.93,814.55,TRADE
VIC1,"2007/03/15 15:00:00",7720.68,38.29,TRADE
VIC1,"2007/03/15 15:30:00",7975.52,131.08,TRADE
VIC1,"2007/03/15 16:00:00",7926.5,128.36,TRADE
VIC1,"2007/03/15 16:30:00",7854.55,79.53,TRADE
VIC1,"2007/03/15 17:00:00",7604.85,51.44,TRADE
VIC1,"2007/03/15 17:30:00",7359.29,74.12,TRADE
VIC1,"2007/03/15 18:00:00",7145.4,55.85,TRADE
VIC1,"2007/03/15 18:30:00",6964.86,67.53,TRADE
VIC1,"2007/03/15 19:00:00",6911.75,73.1,TRADE
VIC1,"2007/03/15 19:30:00",6927.83,73.96,TRADE
VIC1,"2007/03/15 20:00:00",6809.55,55.89,TRADE
VIC1,"2007/03/15 20:30:00",6582.51,54.61,TRADE
VIC1,"2007/03/15 21:00:00",6338.64,49.06,TRADE
VIC1,"2007/03/15 21:30:00",6062.27,51.33,TRADE
VIC1,"2007/03/15 22:00:00",5766.87,35.45,TRADE
VIC1,"2007/03/15 22:30:00",5588.77,40.49,TRADE
VIC1,"2007/03/15 23:00:00",5464.71,35.21,TRADE
VIC1,"2007/03/15 23:30:00",5771.03,44.09,TRADE
VIC1,"2007/03/16 00:00:00",5621.09,42.87,TRADE
VIC1,"2007/03/16 00:30:00",5421.82,34.53,TRADE
VIC1,"2007/03/16 01:00:00",5279.51,32.6,TRADE
VIC1,"2007/03/16 01:30:00",5687.79,43.88,TRADE
VIC1,"2007/03/16 02:00:00",5472.16,36.13,TRADE
VIC1,"2007/03/16 02:30:00",5206.18,30.99,TRADE
VIC1,"2007/03/16 03:00:00",5144.04,28.6,TRADE
VIC1,"2007/03/16 03:30:00",5055.79,26.49,TRADE
VIC1,"2007/03/16 04:00:00",5091.47,27.34,TRADE
VIC1,"2007/03/16 04:30:00",5140.83,31.97,TRADE
VIC1,"2007/03/16 05:00:00",5274.65,33.05,TRADE
VIC1,"2007/03/16 05:30:00",5610.69,45.3,TRADE
VIC1,"2007/03/16 06:00:00",5996.79,58.75,TRADE
VIC1,"2007/03/16 06:30:00",6524.9,53.6,TRADE
VIC1,"2007/03/16 07:00:00",6876.42,57.78,TRADE
VIC1,"2007/03/16 07:30:00",6763.19,55.89,TRADE
VIC1,"2007/03/16 08:00:00",6814.9,77.59,TRADE
VIC1,"2007/03/16 08:30:00",6957.26,86.73,TRADE
VIC1,"2007/03/16 09:00:00",6959.92,45.69,TRADE
VIC1,"2007/03/16 09:30:00",6999.99,52.93,TRADE
VIC1,"2007/03/16 10:00:00",7002.86,52.81,TRADE
VIC1,"2007/03/16 10:30:00",7040.18,56.34,TRADE
VIC1,"2007/03/16 11:00:00",7059.63,74.03,TRADE
VIC1,"2007/03/16 11:30:00",7072,73,TRADE
VIC1,"2007/03/16 12:00:00",7043.05,72.87,TRADE
VIC1,"2007/03/16 12:30:00",7014.07,72.97,TRADE
VIC1,"2007/03/16 13:00:00",6988.11,72.84,TRADE
VIC1,"2007/03/16 13:30:00",6900.28,63.64,TRADE
VIC1,"2007/03/16 14:00:00",6876.12,57.72,TRADE
VIC1,"2007/03/16 14:30:00",6763.77,55.1,TRADE
VIC1,"2007/03/16 15:00:00",6738.27,54.27,TRADE
VIC1,"2007/03/16 15:30:00",6701.94,55.69,TRADE
VIC1,"2007/03/16 16:00:00",6677.23,55.6,TRADE
VIC1,"2007/03/16 16:30:00",6610.42,55.06,TRADE
VIC1,"2007/03/16 17:00:00",6516.33,54.46,TRADE
VIC1,"2007/03/16 17:30:00",6329.93,49.86,TRADE
VIC1,"2007/03/16 18:00:00",6166.41,43.84,TRADE
VIC1,"2007/03/16 18:30:00",6014.76,48.16,TRADE
VIC1,"2007/03/16 19:00:00",6076.23,50.43,TRADE
VIC1,"2007/03/16 19:30:00",6135.82,50.95,TRADE
VIC1,"2007/03/16 20:00:00",6041.13,49.9,TRADE
VIC1,"2007/03/16 20:30:00",5845.79,49.08,TRADE
VIC1,"2007/03/16 21:00:00",5698.24,46.12,TRADE
VIC1,"2007/03/16 21:30:00",5499.28,49.54,TRADE
VIC1,"2007/03/16 22:00:00",5325.45,37.44,TRADE
VIC1,"2007/03/16 22:30:00",5223.98,35.64,TRADE
VIC1,"2007/03/16 23:00:00",5122.89,31.77,TRADE
VIC1,"2007/03/16 23:30:00",5446.64,41.99,TRADE
VIC1,"2007/03/17 00:00:00",5328.3,38.42,TRADE
VIC1,"2007/03/17 00:30:00",5102.39,34.49,TRADE
VIC1,"2007/03/17 01:00:00",4962.96,30.52,TRADE
VIC1,"2007/03/17 01:30:00",5297.19,38.47,TRADE
VIC1,"2007/03/17 02:00:00",5119.04,34.16,TRADE
VIC1,"2007/03/17 02:30:00",4841.32,30.9,TRADE
VIC1,"2007/03/17 03:00:00",4689.62,29.6,TRADE
VIC1,"2007/03/17 03:30:00",4614.29,27.67,TRADE
VIC1,"2007/03/17 04:00:00",4544.71,25.96,TRADE
VIC1,"2007/03/17 04:30:00",4571.63,31.33,TRADE
VIC1,"2007/03/17 05:00:00",4579.25,30.37,TRADE
VIC1,"2007/03/17 05:30:00",4722.89,33.85,TRADE
VIC1,"2007/03/17 06:00:00",4884.44,35.6,TRADE
VIC1,"2007/03/17 06:30:00",5012.32,35.8,TRADE
VIC1,"2007/03/17 07:00:00",5117.59,38.37,TRADE
VIC1,"2007/03/17 07:30:00",5229.09,38.05,TRADE
VIC1,"2007/03/17 08:00:00",5344.59,37.72,TRADE
VIC1,"2007/03/17 08:30:00",5523.12,48.59,TRADE
VIC1,"2007/03/17 09:00:00",5562.42,53.86,TRADE
VIC1,"2007/03/17 09:30:00",5604.17,57.27,TRADE
VIC1,"2007/03/17 10:00:00",5610.56,61.01,TRADE
VIC1,"2007/03/17 10:30:00",5619.8,64.89,TRADE
VIC1,"2007/03/17 11:00:00",5590.41,64.36,TRADE
VIC1,"2007/03/17 11:30:00",5572.12,66.1,TRADE
VIC1,"2007/03/17 12:00:00",5561.67,55.3,TRADE
VIC1,"2007/03/17 12:30:00",5512.51,57.07,TRADE
VIC1,"2007/03/17 13:00:00",5487.41,56.26,TRADE
VIC1,"2007/03/17 13:30:00",5429.43,58.23,TRADE
VIC1,"2007/03/17 14:00:00",5430.57,54.52,TRADE
VIC1,"2007/03/17 14:30:00",5387.02,48.57,TRADE
VIC1,"2007/03/17 15:00:00",5395.38,46.77,TRADE
VIC1,"2007/03/17 15:30:00",5411.93,45.8,TRADE
VIC1,"2007/03/17 16:00:00",5417.01,44.77,TRADE
VIC1,"2007/03/17 16:30:00",5404.88,45.2,TRADE
VIC1,"2007/03/17 17:00:00",5399.72,41.88,TRADE
VIC1,"2007/03/17 17:30:00",5357.7,39.18,TRADE
VIC1,"2007/03/17 18:00:00",5297.21,38.32,TRADE
VIC1,"2007/03/17 18:30:00",5238.55,35.76,TRADE
VIC1,"2007/03/17 19:00:00",5306.48,40.33,TRADE
VIC1,"2007/03/17 19:30:00",5442.56,36.29,TRADE
VIC1,"2007/03/17 20:00:00",5409.61,32.69,TRADE
VIC1,"2007/03/17 20:30:00",5352.46,32.81,TRADE
VIC1,"2007/03/17 21:00:00",5244.26,34.29,TRADE
VIC1,"2007/03/17 21:30:00",5149.56,35.59,TRADE
VIC1,"2007/03/17 22:00:00",5027.88,35.99,TRADE
VIC1,"2007/03/17 22:30:00",4942.79,36.83,TRADE
VIC1,"2007/03/17 23:00:00",4928.84,35.86,TRADE
VIC1,"2007/03/17 23:30:00",5197.46,39.27,TRADE
VIC1,"2007/03/18 00:00:00",5108.26,37.74,TRADE
VIC1,"2007/03/18 00:30:00",4923.61,35.17,TRADE
VIC1,"2007/03/18 01:00:00",4760.46,28.72,TRADE
VIC1,"2007/03/18 01:30:00",5120.14,31.97,TRADE
VIC1,"2007/03/18 02:00:00",4959.37,27.19,TRADE
VIC1,"2007/03/18 02:30:00",4718.32,26.06,TRADE
VIC1,"2007/03/18 03:00:00",4608.12,25.92,TRADE
VIC1,"2007/03/18 03:30:00",4473.79,22.56,TRADE
VIC1,"2007/03/18 04:00:00",4414.8,19.46,TRADE
VIC1,"2007/03/18 04:30:00",4398.66,19.58,TRADE
VIC1,"2007/03/18 05:00:00",4392.12,22.99,TRADE
VIC1,"2007/03/18 05:30:00",4472.11,24.95,TRADE
VIC1,"2007/03/18 06:00:00",4509.09,23.44,TRADE
VIC1,"2007/03/18 06:30:00",4605.05,21.86,TRADE
VIC1,"2007/03/18 07:00:00",4624.14,25.35,TRADE
VIC1,"2007/03/18 07:30:00",4669.35,27.3,TRADE
VIC1,"2007/03/18 08:00:00",4767.5,30.49,TRADE
VIC1,"2007/03/18 08:30:00",4888.56,33.49,TRADE
VIC1,"2007/03/18 09:00:00",4991.91,31.49,TRADE
VIC1,"2007/03/18 09:30:00",5085.2,32.15,TRADE
VIC1,"2007/03/18 10:00:00",5125.37,31.56,TRADE
VIC1,"2007/03/18 10:30:00",5154.15,30.87,TRADE
VIC1,"2007/03/18 11:00:00",5185.71,30.56,TRADE
VIC1,"2007/03/18 11:30:00",5205.89,30.72,TRADE
VIC1,"2007/03/18 12:00:00",5182.16,30.94,TRADE
VIC1,"2007/03/18 12:30:00",5183.32,30.9,TRADE
VIC1,"2007/03/18 13:00:00",5169.68,30.93,TRADE
VIC1,"2007/03/18 13:30:00",5135.72,30.71,TRADE
VIC1,"2007/03/18 14:00:00",5148.79,30.89,TRADE
VIC1,"2007/03/18 14:30:00",5164.19,30.45,TRADE
VIC1,"2007/03/18 15:00:00",5203.58,30.94,TRADE
VIC1,"2007/03/18 15:30:00",5240.35,31.72,TRADE
VIC1,"2007/03/18 16:00:00",5300.5,34.28,TRADE
VIC1,"2007/03/18 16:30:00",5343.93,35.62,TRADE
VIC1,"2007/03/18 17:00:00",5359.8,36.31,TRADE
VIC1,"2007/03/18 17:30:00",5363.43,39.77,TRADE
VIC1,"2007/03/18 18:00:00",5337.76,38.09,TRADE
VIC1,"2007/03/18 18:30:00",5280.85,39.09,TRADE
VIC1,"2007/03/18 19:00:00",5444.34,46.28,TRADE
VIC1,"2007/03/18 19:30:00",5580.94,46.37,TRADE
VIC1,"2007/03/18 20:00:00",5507.39,39.31,TRADE
VIC1,"2007/03/18 20:30:00",5418.1,33.75,TRADE
VIC1,"2007/03/18 21:00:00",5306.14,31.9,TRADE
VIC1,"2007/03/18 21:30:00",5133.53,33.07,TRADE
VIC1,"2007/03/18 22:00:00",4966.1,29.45,TRADE
VIC1,"2007/03/18 22:30:00",4857.12,29.98,TRADE
VIC1,"2007/03/18 23:00:00",4830.97,28.06,TRADE
VIC1,"2007/03/18 23:30:00",5082.72,30.9,TRADE
VIC1,"2007/03/19 00:00:00",5007.98,28.91,TRADE
VIC1,"2007/03/19 00:30:00",4838.76,26.03,TRADE
VIC1,"2007/03/19 01:00:00",4754.21,25.99,TRADE
VIC1,"2007/03/19 01:30:00",5154.24,28.3,TRADE
VIC1,"2007/03/19 02:00:00",4988.5,26.87,TRADE
VIC1,"2007/03/19 02:30:00",4822.23,25.92,TRADE
VIC1,"2007/03/19 03:00:00",4655.2,23.07,TRADE
VIC1,"2007/03/19 03:30:00",4600.31,22.86,TRADE
VIC1,"2007/03/19 04:00:00",4581.8,24.95,TRADE
VIC1,"2007/03/19 04:30:00",4687.74,26.77,TRADE
VIC1,"2007/03/19 05:00:00",4832.9,32.09,TRADE
VIC1,"2007/03/19 05:30:00",5180.16,40.72,TRADE
VIC1,"2007/03/19 06:00:00",5595.5,53.26,TRADE
VIC1,"2007/03/19 06:30:00",6106.14,51.17,TRADE
VIC1,"2007/03/19 07:00:00",6442.2,53.65,TRADE
VIC1,"2007/03/19 07:30:00",6310.88,51.79,TRADE
VIC1,"2007/03/19 08:00:00",6297.74,52.1,TRADE
VIC1,"2007/03/19 08:30:00",6369.11,52.46,TRADE
VIC1,"2007/03/19 09:00:00",6388.7,52.7,TRADE
VIC1,"2007/03/19 09:30:00",6407.39,55.18,TRADE
VIC1,"2007/03/19 10:00:00",6487.07,55.62,TRADE
VIC1,"2007/03/19 10:30:00",6542.94,55.98,TRADE
VIC1,"2007/03/19 11:00:00",6637.12,57.24,TRADE
VIC1,"2007/03/19 11:30:00",6640.38,57.83,TRADE
VIC1,"2007/03/19 12:00:00",6670.03,61.7,TRADE
VIC1,"2007/03/19 12:30:00",6692.28,61.99,TRADE
VIC1,"2007/03/19 13:00:00",6721.79,59.24,TRADE
VIC1,"2007/03/19 13:30:00",6762.8,67.25,TRADE
VIC1,"2007/03/19 14:00:00",6772.93,60.2,TRADE
VIC1,"2007/03/19 14:30:00",6726.36,55.42,TRADE
VIC1,"2007/03/19 15:00:00",6656.57,54.66,TRADE
VIC1,"2007/03/19 15:30:00",6787.65,56.84,TRADE
VIC1,"2007/03/19 16:00:00",6780.45,57.16,TRADE
VIC1,"2007/03/19 16:30:00",6735.72,56.35,TRADE
VIC1,"2007/03/19 17:00:00",6618.88,54.22,TRADE
VIC1,"2007/03/19 17:30:00",6399.34,52.69,TRADE
VIC1,"2007/03/19 18:00:00",6211.19,51.65,TRADE
VIC1,"2007/03/19 18:30:00",6047.62,51.13,TRADE
VIC1,"2007/03/19 19:00:00",6065.42,50.13,TRADE
VIC1,"2007/03/19 19:30:00",6192.52,51.01,TRADE
VIC1,"2007/03/19 20:00:00",6061.8,45.65,TRADE
VIC1,"2007/03/19 20:30:00",5932.68,43.46,TRADE
VIC1,"2007/03/19 21:00:00",5751.74,41.9,TRADE
VIC1,"2007/03/19 21:30:00",5515.12,38.81,TRADE
VIC1,"2007/03/19 22:00:00",5311.57,37.57,TRADE
VIC1,"2007/03/19 22:30:00",5156.32,36.71,TRADE
VIC1,"2007/03/19 23:00:00",5059.73,34.12,TRADE
VIC1,"2007/03/19 23:30:00",5431.33,41.73,TRADE
VIC1,"2007/03/20 00:00:00",5326.59,41.09,TRADE
VIC1,"2007/03/20 00:30:00",5161.42,34.5,TRADE
VIC1,"2007/03/20 01:00:00",4983.49,33.39,TRADE
VIC1,"2007/03/20 01:30:00",5393.13,39.08,TRADE
VIC1,"2007/03/20 02:00:00",5221.82,39.12,TRADE
VIC1,"2007/03/20 02:30:00",5016.27,38.41,TRADE
VIC1,"2007/03/20 03:00:00",4830.84,34.63,TRADE
VIC1,"2007/03/20 03:30:00",4766.28,31.18,TRADE
VIC1,"2007/03/20 04:00:00",4767.86,32.88,TRADE
VIC1,"2007/03/20 04:30:00",4852.14,33.62,TRADE
VIC1,"2007/03/20 05:00:00",5015,33.92,TRADE
VIC1,"2007/03/20 05:30:00",5369.13,44.45,TRADE
VIC1,"2007/03/20 06:00:00",5793.4,71.71,TRADE
VIC1,"2007/03/20 06:30:00",6297.52,54.67,TRADE
VIC1,"2007/03/20 07:00:00",6683.94,68.57,TRADE
VIC1,"2007/03/20 07:30:00",6563.37,55.08,TRADE
VIC1,"2007/03/20 08:00:00",6543.15,54.34,TRADE
VIC1,"2007/03/20 08:30:00",6647.32,56.26,TRADE
VIC1,"2007/03/20 09:00:00",6646.66,66.3,TRADE
VIC1,"2007/03/20 09:30:00",6677,72.82,TRADE
VIC1,"2007/03/20 10:00:00",6681.4,57.66,TRADE
VIC1,"2007/03/20 10:30:00",6695.61,53.47,TRADE
VIC1,"2007/03/20 11:00:00",6756.7,61.7,TRADE
VIC1,"2007/03/20 11:30:00",6736.33,71,TRADE
VIC1,"2007/03/20 12:00:00",6644.78,72.6,TRADE
VIC1,"2007/03/20 12:30:00",6721.4,72.03,TRADE
VIC1,"2007/03/20 13:00:00",6742.19,73.93,TRADE
VIC1,"2007/03/20 13:30:00",6765.34,75.09,TRADE
VIC1,"2007/03/20 14:00:00",6776.04,72.64,TRADE
VIC1,"2007/03/20 14:30:00",6744.03,71.25,TRADE
VIC1,"2007/03/20 15:00:00",6691.39,64.65,TRADE
VIC1,"2007/03/20 15:30:00",6716.36,68.09,TRADE
VIC1,"2007/03/20 16:00:00",6721.46,75.98,TRADE
VIC1,"2007/03/20 16:30:00",6752.58,72.59,TRADE
VIC1,"2007/03/20 17:00:00",6692.29,63.86,TRADE
VIC1,"2007/03/20 17:30:00",6485.42,57.14,TRADE
VIC1,"2007/03/20 18:00:00",6304.98,53.09,TRADE
VIC1,"2007/03/20 18:30:00",6182.34,52.17,TRADE
VIC1,"2007/03/20 19:00:00",6229.19,51.86,TRADE
VIC1,"2007/03/20 19:30:00",6269.91,51.67,TRADE
VIC1,"2007/03/20 20:00:00",6150.04,49.05,TRADE
VIC1,"2007/03/20 20:30:00",5991.16,42.93,TRADE
VIC1,"2007/03/20 21:00:00",5852.38,46.96,TRADE
VIC1,"2007/03/20 21:30:00",5581.24,46.34,TRADE
VIC1,"2007/03/20 22:00:00",5346.49,38.13,TRADE
VIC1,"2007/03/20 22:30:00",5201.53,39,TRADE
VIC1,"2007/03/20 23:00:00",5109.03,36.64,TRADE
VIC1,"2007/03/20 23:30:00",5459.85,39.6,TRADE
VIC1,"2007/03/21 00:00:00",5330.14,38.62,TRADE
VIC1,"2007/03/21 00:30:00",5132.6,36.73,TRADE
VIC1,"2007/03/21 01:00:00",5010.09,35.71,TRADE
VIC1,"2007/03/21 01:30:00",5394.13,37.49,TRADE
VIC1,"2007/03/21 02:00:00",5222.79,36.81,TRADE
VIC1,"2007/03/21 02:30:00",4992.7,35.11,TRADE
VIC1,"2007/03/21 03:00:00",4865.81,32.37,TRADE
VIC1,"2007/03/21 03:30:00",4774.11,29.18,TRADE
VIC1,"2007/03/21 04:00:00",4750.04,30.86,TRADE
VIC1,"2007/03/21 04:30:00",4815.16,36.03,TRADE
VIC1,"2007/03/21 05:00:00",4989.48,37.65,TRADE
VIC1,"2007/03/21 05:30:00",5332.19,46.26,TRADE
VIC1,"2007/03/21 06:00:00",5736.47,55.76,TRADE
VIC1,"2007/03/21 06:30:00",6260.06,53.99,TRADE
VIC1,"2007/03/21 07:00:00",6542.16,70.37,TRADE
VIC1,"2007/03/21 07:30:00",6470.63,54.56,TRADE
VIC1,"2007/03/21 08:00:00",6450.23,54.96,TRADE
VIC1,"2007/03/21 08:30:00",6556.29,68.94,TRADE
VIC1,"2007/03/21 09:00:00",6626.02,69.48,TRADE
VIC1,"2007/03/21 09:30:00",6688.99,71.04,TRADE
VIC1,"2007/03/21 10:00:00",6773.28,79.6,TRADE
VIC1,"2007/03/21 10:30:00",6814.9,85.48,TRADE
VIC1,"2007/03/21 11:00:00",6890.72,113.73,TRADE
VIC1,"2007/03/21 11:30:00",6895.49,107.91,TRADE
VIC1,"2007/03/21 12:00:00",6963.71,85.38,TRADE
VIC1,"2007/03/21 12:30:00",7042.01,59.88,TRADE
VIC1,"2007/03/21 13:00:00",7123.35,62.51,TRADE
VIC1,"2007/03/21 13:30:00",7174.98,64.78,TRADE
VIC1,"2007/03/21 14:00:00",7189.5,63.48,TRADE
VIC1,"2007/03/21 14:30:00",7191.41,105.27,TRADE
VIC1,"2007/03/21 15:00:00",7196.67,133.88,TRADE
VIC1,"2007/03/21 15:30:00",7278.28,151.45,TRADE
VIC1,"2007/03/21 16:00:00",7293.34,151,TRADE
VIC1,"2007/03/21 16:30:00",7236.51,134.87,TRADE
VIC1,"2007/03/21 17:00:00",7090.8,93.78,TRADE
VIC1,"2007/03/21 17:30:00",6819.19,69.25,TRADE
VIC1,"2007/03/21 18:00:00",6629.56,58.14,TRADE
VIC1,"2007/03/21 18:30:00",6442.44,64.16,TRADE
VIC1,"2007/03/21 19:00:00",6456.38,61.26,TRADE
VIC1,"2007/03/21 19:30:00",6528.4,56.86,TRADE
VIC1,"2007/03/21 20:00:00",6415.01,54.57,TRADE
VIC1,"2007/03/21 20:30:00",6243.34,52.64,TRADE
VIC1,"2007/03/21 21:00:00",6058.33,52.21,TRADE
VIC1,"2007/03/21 21:30:00",5838.1,52.26,TRADE
VIC1,"2007/03/21 22:00:00",5564.96,49.4,TRADE
VIC1,"2007/03/21 22:30:00",5362.92,43.72,TRADE
VIC1,"2007/03/21 23:00:00",5203.69,41.01,TRADE
VIC1,"2007/03/21 23:30:00",5550.5,49.74,TRADE
VIC1,"2007/03/22 00:00:00",5430.6,43.3,TRADE
VIC1,"2007/03/22 00:30:00",5228.75,37.5,TRADE
VIC1,"2007/03/22 01:00:00",5093.74,36.79,TRADE
VIC1,"2007/03/22 01:30:00",5444.17,37.28,TRADE
VIC1,"2007/03/22 02:00:00",5263.95,35.6,TRADE
VIC1,"2007/03/22 02:30:00",5040.55,27.88,TRADE
VIC1,"2007/03/22 03:00:00",4895.48,26.72,TRADE
VIC1,"2007/03/22 03:30:00",4810.12,26.66,TRADE
VIC1,"2007/03/22 04:00:00",4774.87,35.06,TRADE
VIC1,"2007/03/22 04:30:00",4771.5,37.37,TRADE
VIC1,"2007/03/22 05:00:00",4938.1,40.57,TRADE
VIC1,"2007/03/22 05:30:00",5329.25,59.35,TRADE
VIC1,"2007/03/22 06:00:00",5703.37,69.27,TRADE
VIC1,"2007/03/22 06:30:00",6252.22,65.47,TRADE
VIC1,"2007/03/22 07:00:00",6485.92,75.09,TRADE
VIC1,"2007/03/22 07:30:00",6367.47,66.41,TRADE
VIC1,"2007/03/22 08:00:00",6316.49,75.15,TRADE
VIC1,"2007/03/22 08:30:00",6468.66,79.12,TRADE
VIC1,"2007/03/22 09:00:00",6582.81,91.17,TRADE
VIC1,"2007/03/22 09:30:00",6701.28,85.11,TRADE
VIC1,"2007/03/22 10:00:00",6815.82,93.04,TRADE
VIC1,"2007/03/22 10:30:00",6934.77,108.84,TRADE
VIC1,"2007/03/22 11:00:00",7159.31,87.77,TRADE
VIC1,"2007/03/22 11:30:00",7308.67,99.99,TRADE
VIC1,"2007/03/22 12:00:00",7396.86,153.74,TRADE
VIC1,"2007/03/22 12:30:00",7498.76,154.27,TRADE
VIC1,"2007/03/22 13:00:00",7618.38,153.93,TRADE
VIC1,"2007/03/22 13:30:00",7686.94,154.05,TRADE
VIC1,"2007/03/22 14:00:00",7864.17,156.06,TRADE
VIC1,"2007/03/22 14:30:00",7857.77,176.98,TRADE
VIC1,"2007/03/22 15:00:00",7933.13,352.58,TRADE
VIC1,"2007/03/22 15:30:00",7985.54,428.18,TRADE
VIC1,"2007/03/22 16:00:00",8018.19,395.41,TRADE
VIC1,"2007/03/22 16:30:00",7994.52,235.28,TRADE
VIC1,"2007/03/22 17:00:00",7948.86,293.23,TRADE
VIC1,"2007/03/22 17:30:00",7765.73,153.93,TRADE
VIC1,"2007/03/22 18:00:00",7601.88,128.3,TRADE
VIC1,"2007/03/22 18:30:00",7369.92,98.91,TRADE
VIC1,"2007/03/22 19:00:00",7426.16,83.91,TRADE
VIC1,"2007/03/22 19:30:00",7448.33,97.61,TRADE
VIC1,"2007/03/22 20:00:00",7273.95,77.99,TRADE
VIC1,"2007/03/22 20:30:00",6998.56,70.39,TRADE
VIC1,"2007/03/22 21:00:00",6768.86,69.29,TRADE
VIC1,"2007/03/22 21:30:00",6439.11,59.13,TRADE
VIC1,"2007/03/22 22:00:00",6119.54,58.21,TRADE
VIC1,"2007/03/22 22:30:00",5849.42,55.78,TRADE
VIC1,"2007/03/22 23:00:00",5653.73,45.09,TRADE
VIC1,"2007/03/22 23:30:00",5949.99,53.06,TRADE
VIC1,"2007/03/23 00:00:00",5759.51,49.68,TRADE
VIC1,"2007/03/23 00:30:00",5489.19,43.07,TRADE
VIC1,"2007/03/23 01:00:00",5344.61,38.99,TRADE
VIC1,"2007/03/23 01:30:00",5670.44,42.44,TRADE
VIC1,"2007/03/23 02:00:00",5480.27,36.86,TRADE
VIC1,"2007/03/23 02:30:00",5231.73,34.32,TRADE
VIC1,"2007/03/23 03:00:00",5087.96,32.69,TRADE
VIC1,"2007/03/23 03:30:00",5017.47,31.64,TRADE
VIC1,"2007/03/23 04:00:00",5062.98,32.91,TRADE
VIC1,"2007/03/23 04:30:00",5131.81,34.27,TRADE
VIC1,"2007/03/23 05:00:00",5278.08,29.76,TRADE
VIC1,"2007/03/23 05:30:00",5649.16,44.87,TRADE
VIC1,"2007/03/23 06:00:00",6072.76,73.08,TRADE
VIC1,"2007/03/23 06:30:00",6611.91,59.28,TRADE
VIC1,"2007/03/23 07:00:00",6937.59,71.92,TRADE
VIC1,"2007/03/23 07:30:00",6950.07,67.41,TRADE
VIC1,"2007/03/23 08:00:00",7147.4,66.78,TRADE
VIC1,"2007/03/23 08:30:00",7374.3,78.05,TRADE
VIC1,"2007/03/23 09:00:00",7580.81,84.94,TRADE
VIC1,"2007/03/23 09:30:00",7774.06,98.46,TRADE
VIC1,"2007/03/23 10:00:00",7929.21,142.94,TRADE
VIC1,"2007/03/23 10:30:00",8091.94,196.94,TRADE
VIC1,"2007/03/23 11:00:00",8245.96,159.79,TRADE
VIC1,"2007/03/23 11:30:00",8375.22,165.21,TRADE
VIC1,"2007/03/23 12:00:00",8432.42,199,TRADE
VIC1,"2007/03/23 12:30:00",8550.67,367.84,TRADE
VIC1,"2007/03/23 13:00:00",8628.84,376.39,TRADE
VIC1,"2007/03/23 13:30:00",8698.13,322.25,TRADE
VIC1,"2007/03/23 14:00:00",8691.32,338.44,TRADE
VIC1,"2007/03/23 14:30:00",8688.33,351.57,TRADE
VIC1,"2007/03/23 15:00:00",8696.91,458.02,TRADE
VIC1,"2007/03/23 15:30:00",8747.58,509.25,TRADE
VIC1,"2007/03/23 16:00:00",8796.24,487.6,TRADE
VIC1,"2007/03/23 16:30:00",8644.67,222.85,TRADE
VIC1,"2007/03/23 17:00:00",8512.98,146.86,TRADE
VIC1,"2007/03/23 17:30:00",8177.56,91.87,TRADE
VIC1,"2007/03/23 18:00:00",7808.35,72.75,TRADE
VIC1,"2007/03/23 18:30:00",7417.94,64.96,TRADE
VIC1,"2007/03/23 19:00:00",7272.29,72.11,TRADE
VIC1,"2007/03/23 19:30:00",7112.82,65.02,TRADE
VIC1,"2007/03/23 20:00:00",6896.34,53.41,TRADE
VIC1,"2007/03/23 20:30:00",6620.17,49.7,TRADE
VIC1,"2007/03/23 21:00:00",6423.34,47.67,TRADE
VIC1,"2007/03/23 21:30:00",6164.16,46.81,TRADE
VIC1,"2007/03/23 22:00:00",5868.44,41.13,TRADE
VIC1,"2007/03/23 22:30:00",5665.98,49.12,TRADE
VIC1,"2007/03/23 23:00:00",5527.74,45.35,TRADE
VIC1,"2007/03/23 23:30:00",5793.92,51.49,TRADE
VIC1,"2007/03/24 00:00:00",5564.54,43.2,TRADE
VIC1,"2007/03/24 00:30:00",5275.39,32.47,TRADE
VIC1,"2007/03/24 01:00:00",5057.69,31.19,TRADE
VIC1,"2007/03/24 01:30:00",5457.6,34.56,TRADE
VIC1,"2007/03/24 02:00:00",5171.71,28.76,TRADE
VIC1,"2007/03/24 02:30:00",4878.17,26.62,TRADE
VIC1,"2007/03/24 03:00:00",4721.8,24.53,TRADE
VIC1,"2007/03/24 03:30:00",4657.23,22.8,TRADE
VIC1,"2007/03/24 04:00:00",4577.84,21.87,TRADE
VIC1,"2007/03/24 04:30:00",4592.85,19.51,TRADE
VIC1,"2007/03/24 05:00:00",4644.04,24,TRADE
VIC1,"2007/03/24 05:30:00",4755.26,25.95,TRADE
VIC1,"2007/03/24 06:00:00",4870.66,26.72,TRADE
VIC1,"2007/03/24 06:30:00",5049.12,32.28,TRADE
VIC1,"2007/03/24 07:00:00",5201.42,34.61,TRADE
VIC1,"2007/03/24 07:30:00",5290.49,36.41,TRADE
VIC1,"2007/03/24 08:00:00",5394.94,41.31,TRADE
VIC1,"2007/03/24 08:30:00",5523.34,51.78,TRADE
VIC1,"2007/03/24 09:00:00",5510.37,43.92,TRADE
VIC1,"2007/03/24 09:30:00",5508.97,44.33,TRADE
VIC1,"2007/03/24 10:00:00",5550.68,45.33,TRADE
VIC1,"2007/03/24 10:30:00",5559.24,44.9,TRADE
VIC1,"2007/03/24 11:00:00",5519.77,45.21,TRADE
VIC1,"2007/03/24 11:30:00",5494.12,45.64,TRADE
VIC1,"2007/03/24 12:00:00",5474.8,49.74,TRADE
VIC1,"2007/03/24 12:30:00",5401.19,50.99,TRADE
VIC1,"2007/03/24 13:00:00",5354.77,51.55,TRADE
VIC1,"2007/03/24 13:30:00",5282.24,45.8,TRADE
VIC1,"2007/03/24 14:00:00",5286.12,42.01,TRADE
VIC1,"2007/03/24 14:30:00",5225.23,44.23,TRADE
VIC1,"2007/03/24 15:00:00",5248.64,50.77,TRADE
VIC1,"2007/03/24 15:30:00",5229.31,50.95,TRADE
VIC1,"2007/03/24 16:00:00",5229.49,44.64,TRADE
VIC1,"2007/03/24 16:30:00",5276.95,34.96,TRADE
VIC1,"2007/03/24 17:00:00",5236.14,32.91,TRADE
VIC1,"2007/03/24 17:30:00",5239.54,36.35,TRADE
VIC1,"2007/03/24 18:00:00",5203.51,32.68,TRADE
VIC1,"2007/03/24 18:30:00",5191.3,32.05,TRADE
VIC1,"2007/03/24 19:00:00",5340.3,34.36,TRADE
VIC1,"2007/03/24 19:30:00",5433.24,44.89,TRADE
VIC1,"2007/03/24 20:00:00",5360.68,38.1,TRADE
VIC1,"2007/03/24 20:30:00",5273.3,35.76,TRADE
VIC1,"2007/03/24 21:00:00",5209.87,35.33,TRADE
VIC1,"2007/03/24 21:30:00",5101.52,35.17,TRADE
VIC1,"2007/03/24 22:00:00",4945.51,29.77,TRADE
VIC1,"2007/03/24 22:30:00",4876.63,34.03,TRADE
VIC1,"2007/03/24 23:00:00",4832.94,33.25,TRADE
VIC1,"2007/03/24 23:30:00",5125.05,35.72,TRADE
VIC1,"2007/03/25 00:00:00",5030.54,34.55,TRADE
VIC1,"2007/03/25 00:30:00",4849.53,31.9,TRADE
VIC1,"2007/03/25 01:00:00",4677.02,27.62,TRADE
VIC1,"2007/03/25 01:30:00",5051.63,28.63,TRADE
VIC1,"2007/03/25 02:00:00",4865.33,27.46,TRADE
VIC1,"2007/03/25 02:30:00",4648.9,22.02,TRADE
VIC1,"2007/03/25 03:00:00",4520.22,18.15,TRADE
VIC1,"2007/03/25 03:30:00",4375.33,15.56,TRADE
VIC1,"2007/03/25 04:00:00",4307.56,16.47,TRADE
VIC1,"2007/03/25 04:30:00",4225.51,10.29,TRADE
VIC1,"2007/03/25 05:00:00",4228.24,10.25,TRADE
VIC1,"2007/03/25 05:30:00",4218.36,8.94,TRADE
VIC1,"2007/03/25 06:00:00",4288.99,13.09,TRADE
VIC1,"2007/03/25 06:30:00",4407.35,15.89,TRADE
VIC1,"2007/03/25 07:00:00",4480.1,16.88,TRADE
VIC1,"2007/03/25 07:30:00",4555.76,21.95,TRADE
VIC1,"2007/03/25 08:00:00",4697.08,22.96,TRADE
VIC1,"2007/03/25 08:30:00",4856.11,26.52,TRADE
VIC1,"2007/03/25 09:00:00",4920.3,28.73,TRADE
VIC1,"2007/03/25 09:30:00",5036.04,30.06,TRADE
VIC1,"2007/03/25 10:00:00",5070.57,28.26,TRADE
VIC1,"2007/03/25 10:30:00",5088.7,28.57,TRADE
VIC1,"2007/03/25 11:00:00",5086.32,29.34,TRADE
VIC1,"2007/03/25 11:30:00",5141.12,29.09,TRADE
VIC1,"2007/03/25 12:00:00",5134.39,28.49,TRADE
VIC1,"2007/03/25 12:30:00",5137.78,29.96,TRADE
VIC1,"2007/03/25 13:00:00",5137.33,30.34,TRADE
VIC1,"2007/03/25 13:30:00",5093.99,30.39,TRADE
VIC1,"2007/03/25 14:00:00",5068.09,26.73,TRADE
VIC1,"2007/03/25 14:30:00",5040.39,26.55,TRADE
VIC1,"2007/03/25 15:00:00",5062.2,26.58,TRADE
VIC1,"2007/03/25 15:30:00",5057.45,27.1,TRADE
VIC1,"2007/03/25 16:00:00",5057.69,27.9,TRADE
VIC1,"2007/03/25 16:30:00",5080.43,28.68,TRADE
VIC1,"2007/03/25 17:00:00",5114.32,29.2,TRADE
VIC1,"2007/03/25 17:30:00",5184.7,31.91,TRADE
VIC1,"2007/03/25 18:00:00",5267.03,35.74,TRADE
VIC1,"2007/03/25 18:30:00",5370.55,36.79,TRADE
VIC1,"2007/03/25 19:00:00",5605.07,37.67,TRADE
VIC1,"2007/03/25 19:30:00",5671.22,37.41,TRADE
VIC1,"2007/03/25 20:00:00",5621.84,35.96,TRADE
VIC1,"2007/03/25 20:30:00",5541.69,34.61,TRADE
VIC1,"2007/03/25 21:00:00",5455.01,34.2,TRADE
VIC1,"2007/03/25 21:30:00",5341,30.58,TRADE
VIC1,"2007/03/25 22:00:00",5135.93,24.71,TRADE
VIC1,"2007/03/25 22:30:00",5036.98,27.13,TRADE
VIC1,"2007/03/25 23:00:00",4935.89,29.39,TRADE
VIC1,"2007/03/25 23:30:00",5170.66,36.12,TRADE
VIC1,"2007/03/26 00:00:00",5092.02,30.83,TRADE
VIC1,"2007/03/26 00:30:00",4905.35,27.54,TRADE
VIC1,"2007/03/26 01:00:00",4775.17,25.26,TRADE
VIC1,"2007/03/26 01:30:00",5129.73,28.24,TRADE
VIC1,"2007/03/26 02:00:00",4951.86,23.51,TRADE
VIC1,"2007/03/26 02:30:00",4765.15,17.91,TRADE
VIC1,"2007/03/26 03:00:00",4602.65,16.84,TRADE
VIC1,"2007/03/26 03:30:00",4496.94,16.46,TRADE
VIC1,"2007/03/26 04:00:00",4454.56,16.31,TRADE
VIC1,"2007/03/26 04:30:00",4415.93,17.65,TRADE
VIC1,"2007/03/26 05:00:00",4457.58,17.02,TRADE
VIC1,"2007/03/26 05:30:00",4626.34,24.94,TRADE
VIC1,"2007/03/26 06:00:00",4835.02,26.98,TRADE
VIC1,"2007/03/26 06:30:00",5237.06,35.81,TRADE
VIC1,"2007/03/26 07:00:00",5503.7,36.63,TRADE
VIC1,"2007/03/26 07:30:00",5758.02,41.18,TRADE
VIC1,"2007/03/26 08:00:00",5983.22,43.33,TRADE
VIC1,"2007/03/26 08:30:00",6144.77,45.56,TRADE
VIC1,"2007/03/26 09:00:00",6161.01,47.1,TRADE
VIC1,"2007/03/26 09:30:00",6192.43,50.27,TRADE
VIC1,"2007/03/26 10:00:00",6220.35,51.29,TRADE
VIC1,"2007/03/26 10:30:00",6251.27,52.05,TRADE
VIC1,"2007/03/26 11:00:00",6344.56,53.91,TRADE
VIC1,"2007/03/26 11:30:00",6354.61,58.39,TRADE
VIC1,"2007/03/26 12:00:00",6377.89,58.98,TRADE
VIC1,"2007/03/26 12:30:00",6419.94,69.72,TRADE
VIC1,"2007/03/26 13:00:00",6488.48,60.91,TRADE
VIC1,"2007/03/26 13:30:00",6532.52,57.85,TRADE
VIC1,"2007/03/26 14:00:00",6539.3,63.41,TRADE
VIC1,"2007/03/26 14:30:00",6554.5,54.51,TRADE
VIC1,"2007/03/26 15:00:00",6622.37,56.87,TRADE
VIC1,"2007/03/26 15:30:00",6569.61,55.61,TRADE
VIC1,"2007/03/26 16:00:00",6567,54.42,TRADE
VIC1,"2007/03/26 16:30:00",6569.06,53.65,TRADE
VIC1,"2007/03/26 17:00:00",6528.08,52.84,TRADE
VIC1,"2007/03/26 17:30:00",6474.77,52.96,TRADE
VIC1,"2007/03/26 18:00:00",6386.75,48.97,TRADE
VIC1,"2007/03/26 18:30:00",6323.67,54.24,TRADE
VIC1,"2007/03/26 19:00:00",6403.13,54.67,TRADE
VIC1,"2007/03/26 19:30:00",6379,50.83,TRADE
VIC1,"2007/03/26 20:00:00",6217.69,43.34,TRADE
VIC1,"2007/03/26 20:30:00",6072.9,41.48,TRADE
VIC1,"2007/03/26 21:00:00",5907.77,38.37,TRADE
VIC1,"2007/03/26 21:30:00",5753.92,40.19,TRADE
VIC1,"2007/03/26 22:00:00",5586.69,34.76,TRADE
VIC1,"2007/03/26 22:30:00",5426.89,36.75,TRADE
VIC1,"2007/03/26 23:00:00",5300.4,34.35,TRADE
VIC1,"2007/03/26 23:30:00",5620.91,42.73,TRADE
VIC1,"2007/03/27 00:00:00",5430.73,34.65,TRADE
VIC1,"2007/03/27 00:30:00",5215.44,31.39,TRADE
VIC1,"2007/03/27 01:00:00",5043.56,29.74,TRADE
VIC1,"2007/03/27 01:30:00",5408.15,35.88,TRADE
VIC1,"2007/03/27 02:00:00",5192.32,31.65,TRADE
VIC1,"2007/03/27 02:30:00",4971.49,26.32,TRADE
VIC1,"2007/03/27 03:00:00",4783.81,21.76,TRADE
VIC1,"2007/03/27 03:30:00",4657.55,18.08,TRADE
VIC1,"2007/03/27 04:00:00",4584.61,16.74,TRADE
VIC1,"2007/03/27 04:30:00",4555.15,16.97,TRADE
VIC1,"2007/03/27 05:00:00",4563.37,16.57,TRADE
VIC1,"2007/03/27 05:30:00",4713.45,24.35,TRADE
VIC1,"2007/03/27 06:00:00",4904.23,22.98,TRADE
VIC1,"2007/03/27 06:30:00",5284.17,34.1,TRADE
VIC1,"2007/03/27 07:00:00",5594,36.83,TRADE
VIC1,"2007/03/27 07:30:00",5801.85,39.1,TRADE
VIC1,"2007/03/27 08:00:00",6043.63,40.15,TRADE
VIC1,"2007/03/27 08:30:00",6191.78,41.98,TRADE
VIC1,"2007/03/27 09:00:00",6254.31,42.35,TRADE
VIC1,"2007/03/27 09:30:00",6331.65,47.37,TRADE
VIC1,"2007/03/27 10:00:00",6413.68,52.05,TRADE
VIC1,"2007/03/27 10:30:00",6484.32,52.09,TRADE
VIC1,"2007/03/27 11:00:00",6571.9,52.64,TRADE
VIC1,"2007/03/27 11:30:00",6595.14,53.69,TRADE
VIC1,"2007/03/27 12:00:00",6599.92,53.99,TRADE
VIC1,"2007/03/27 12:30:00",6648.51,53.99,TRADE
VIC1,"2007/03/27 13:00:00",6699.86,54.32,TRADE
VIC1,"2007/03/27 13:30:00",6725.99,54.7,TRADE
VIC1,"2007/03/27 14:00:00",6807,55.32,TRADE
VIC1,"2007/03/27 14:30:00",6807.56,54.63,TRADE
VIC1,"2007/03/27 15:00:00",6821.48,54.42,TRADE
VIC1,"2007/03/27 15:30:00",6799.42,54.32,TRADE
VIC1,"2007/03/27 16:00:00",6789.5,54.15,TRADE
VIC1,"2007/03/27 16:30:00",6802.59,53.64,TRADE
VIC1,"2007/03/27 17:00:00",6713.94,52.81,TRADE
VIC1,"2007/03/27 17:30:00",6591.33,51.58,TRADE
VIC1,"2007/03/27 18:00:00",6485.89,51.88,TRADE
VIC1,"2007/03/27 18:30:00",6387.07,52,TRADE
VIC1,"2007/03/27 19:00:00",6541.64,56.2,TRADE
VIC1,"2007/03/27 19:30:00",6435.16,53.92,TRADE
VIC1,"2007/03/27 20:00:00",6276.3,51.28,TRADE
VIC1,"2007/03/27 20:30:00",6095.67,49.5,TRADE
VIC1,"2007/03/27 21:00:00",5954.64,44.05,TRADE
VIC1,"2007/03/27 21:30:00",5766.33,50.16,TRADE
VIC1,"2007/03/27 22:00:00",5635.11,41.14,TRADE
VIC1,"2007/03/27 22:30:00",5425.1,42.3,TRADE
VIC1,"2007/03/27 23:00:00",5270.03,36.96,TRADE
VIC1,"2007/03/27 23:30:00",5601.37,48.36,TRADE
VIC1,"2007/03/28 00:00:00",5450.81,42.99,TRADE
VIC1,"2007/03/28 00:30:00",5195.93,37.46,TRADE
VIC1,"2007/03/28 01:00:00",5018.77,34.93,TRADE
VIC1,"2007/03/28 01:30:00",5331.06,41.12,TRADE
VIC1,"2007/03/28 02:00:00",5137.5,37.95,TRADE
VIC1,"2007/03/28 02:30:00",4912,28.17,TRADE
VIC1,"2007/03/28 03:00:00",4772.71,27.29,TRADE
VIC1,"2007/03/28 03:30:00",4672.25,23.26,TRADE
VIC1,"2007/03/28 04:00:00",4577.89,18.1,TRADE
VIC1,"2007/03/28 04:30:00",4639.89,24.57,TRADE
VIC1,"2007/03/28 05:00:00",4631.85,25.96,TRADE
VIC1,"2007/03/28 05:30:00",4756.06,26.79,TRADE
VIC1,"2007/03/28 06:00:00",4935.03,27.67,TRADE
VIC1,"2007/03/28 06:30:00",5301.86,37.26,TRADE
VIC1,"2007/03/28 07:00:00",5614.56,40.8,TRADE
VIC1,"2007/03/28 07:30:00",5905.61,39.62,TRADE
VIC1,"2007/03/28 08:00:00",6163.5,50.1,TRADE
VIC1,"2007/03/28 08:30:00",6309.91,52.44,TRADE
VIC1,"2007/03/28 09:00:00",6357.66,46.51,TRADE
VIC1,"2007/03/28 09:30:00",6478.97,48.78,TRADE
VIC1,"2007/03/28 10:00:00",6517.38,50.21,TRADE
VIC1,"2007/03/28 10:30:00",6588.53,52.79,TRADE
VIC1,"2007/03/28 11:00:00",6581.81,54.05,TRADE
VIC1,"2007/03/28 11:30:00",6605.48,54.91,TRADE
VIC1,"2007/03/28 12:00:00",6637.86,55.33,TRADE
VIC1,"2007/03/28 12:30:00",6598.81,55.11,TRADE
VIC1,"2007/03/28 13:00:00",6597.37,55.05,TRADE
VIC1,"2007/03/28 13:30:00",6629.93,54.91,TRADE
VIC1,"2007/03/28 14:00:00",6641.34,55.01,TRADE
VIC1,"2007/03/28 14:30:00",6627.12,54.26,TRADE
VIC1,"2007/03/28 15:00:00",6657.46,53.08,TRADE
VIC1,"2007/03/28 15:30:00",6667.82,53.62,TRADE
VIC1,"2007/03/28 16:00:00",6617.65,53.39,TRADE
VIC1,"2007/03/28 16:30:00",6627.32,53.7,TRADE
VIC1,"2007/03/28 17:00:00",6628.3,53.61,TRADE
VIC1,"2007/03/28 17:30:00",6653.83,52.08,TRADE
VIC1,"2007/03/28 18:00:00",6622.62,54.06,TRADE
VIC1,"2007/03/28 18:30:00",6611.74,56.05,TRADE
VIC1,"2007/03/28 19:00:00",6583.23,55.32,TRADE
VIC1,"2007/03/28 19:30:00",6444.2,52.6,TRADE
VIC1,"2007/03/28 20:00:00",6275.33,52.99,TRADE
VIC1,"2007/03/28 20:30:00",6146.92,48.02,TRADE
VIC1,"2007/03/28 21:00:00",6032.49,43.2,TRADE
VIC1,"2007/03/28 21:30:00",5834.54,43.24,TRADE
VIC1,"2007/03/28 22:00:00",5662.96,39.18,TRADE
VIC1,"2007/03/28 22:30:00",5481.99,41.62,TRADE
VIC1,"2007/03/28 23:00:00",5304.99,32.82,TRADE
VIC1,"2007/03/28 23:30:00",5616.96,42.64,TRADE
VIC1,"2007/03/29 00:00:00",5482.78,41.5,TRADE
VIC1,"2007/03/29 00:30:00",5227.53,37.84,TRADE
VIC1,"2007/03/29 01:00:00",5050.92,34.39,TRADE
VIC1,"2007/03/29 01:30:00",5383.71,34.56,TRADE
VIC1,"2007/03/29 02:00:00",5232.22,35,TRADE
VIC1,"2007/03/29 02:30:00",5010.57,27.29,TRADE
VIC1,"2007/03/29 03:00:00",4788.19,19.42,TRADE
VIC1,"2007/03/29 03:30:00",4680.27,18.21,TRADE
VIC1,"2007/03/29 04:00:00",4610.1,16.98,TRADE
VIC1,"2007/03/29 04:30:00",4577.83,16.88,TRADE
VIC1,"2007/03/29 05:00:00",4602.55,21.08,TRADE
VIC1,"2007/03/29 05:30:00",4752.75,26.36,TRADE
VIC1,"2007/03/29 06:00:00",4873.94,26.75,TRADE
VIC1,"2007/03/29 06:30:00",5238.3,38,TRADE
VIC1,"2007/03/29 07:00:00",5541.41,40.67,TRADE
VIC1,"2007/03/29 07:30:00",5782.12,41.33,TRADE
VIC1,"2007/03/29 08:00:00",6004.14,42.7,TRADE
VIC1,"2007/03/29 08:30:00",6106.18,42.95,TRADE
VIC1,"2007/03/29 09:00:00",6132.85,43.17,TRADE
VIC1,"2007/03/29 09:30:00",6190.6,47.75,TRADE
VIC1,"2007/03/29 10:00:00",6215.82,50.81,TRADE
VIC1,"2007/03/29 10:30:00",6265.61,51.63,TRADE
VIC1,"2007/03/29 11:00:00",6270.82,51.87,TRADE
VIC1,"2007/03/29 11:30:00",6300.94,53.09,TRADE
VIC1,"2007/03/29 12:00:00",6312.5,53.05,TRADE
VIC1,"2007/03/29 12:30:00",6313.05,52.96,TRADE
VIC1,"2007/03/29 13:00:00",6253.12,52.92,TRADE
VIC1,"2007/03/29 13:30:00",6264.41,52.83,TRADE
VIC1,"2007/03/29 14:00:00",6252.05,52.95,TRADE
VIC1,"2007/03/29 14:30:00",6219.98,51.61,TRADE
VIC1,"2007/03/29 15:00:00",6210.91,50.09,TRADE
VIC1,"2007/03/29 15:30:00",6165.71,47.55,TRADE
VIC1,"2007/03/29 16:00:00",6160.55,48.77,TRADE
VIC1,"2007/03/29 16:30:00",6186.54,51.15,TRADE
VIC1,"2007/03/29 17:00:00",6249.58,51.36,TRADE
VIC1,"2007/03/29 17:30:00",6246.77,49.75,TRADE
VIC1,"2007/03/29 18:00:00",6292.89,51.57,TRADE
VIC1,"2007/03/29 18:30:00",6315.2,52.4,TRADE
VIC1,"2007/03/29 19:00:00",6369.87,54.61,TRADE
VIC1,"2007/03/29 19:30:00",6289.52,51.7,TRADE
VIC1,"2007/03/29 20:00:00",6223.4,51.28,TRADE
VIC1,"2007/03/29 20:30:00",6119.12,47.9,TRADE
VIC1,"2007/03/29 21:00:00",6023.81,44.51,TRADE
VIC1,"2007/03/29 21:30:00",5833.26,41.47,TRADE
VIC1,"2007/03/29 22:00:00",5637.5,36.16,TRADE
VIC1,"2007/03/29 22:30:00",5438.44,38.41,TRADE
VIC1,"2007/03/29 23:00:00",5336.81,38.21,TRADE
VIC1,"2007/03/29 23:30:00",5609.94,49.16,TRADE
VIC1,"2007/03/30 00:00:00",5449.97,45.58,TRADE
VIC1,"2007/03/30 00:30:00",5206.28,37.68,TRADE
VIC1,"2007/03/30 01:00:00",5020.38,33.39,TRADE
VIC1,"2007/03/30 01:30:00",5348.71,37.13,TRADE
VIC1,"2007/03/30 02:00:00",5178.89,35.5,TRADE
VIC1,"2007/03/30 02:30:00",4970.02,26.97,TRADE
VIC1,"2007/03/30 03:00:00",4761.48,22.93,TRADE
VIC1,"2007/03/30 03:30:00",4634.55,20.22,TRADE
VIC1,"2007/03/30 04:00:00",4545.49,18.12,TRADE
VIC1,"2007/03/30 04:30:00",4507.83,19.92,TRADE
VIC1,"2007/03/30 05:00:00",4550.77,21.96,TRADE
VIC1,"2007/03/30 05:30:00",4659.85,26.05,TRADE
VIC1,"2007/03/30 06:00:00",4810.4,26.41,TRADE
VIC1,"2007/03/30 06:30:00",5197.51,35.85,TRADE
VIC1,"2007/03/30 07:00:00",5540.11,39.95,TRADE
VIC1,"2007/03/30 07:30:00",5782.17,41.61,TRADE
VIC1,"2007/03/30 08:00:00",6028.24,46.3,TRADE
VIC1,"2007/03/30 08:30:00",6150.79,51.1,TRADE
VIC1,"2007/03/30 09:00:00",6175.29,47.99,TRADE
VIC1,"2007/03/30 09:30:00",6255.1,48.98,TRADE
VIC1,"2007/03/30 10:00:00",6235.95,51.16,TRADE
VIC1,"2007/03/30 10:30:00",6232.77,51.63,TRADE
VIC1,"2007/03/30 11:00:00",6254.96,52.14,TRADE
VIC1,"2007/03/30 11:30:00",6252.34,53.24,TRADE
VIC1,"2007/03/30 12:00:00",6274.54,53.19,TRADE
VIC1,"2007/03/30 12:30:00",6290.67,53.65,TRADE
VIC1,"2007/03/30 13:00:00",6229.19,53.24,TRADE
VIC1,"2007/03/30 13:30:00",6237.16,52.93,TRADE
VIC1,"2007/03/30 14:00:00",6231.59,53.09,TRADE
VIC1,"2007/03/30 14:30:00",6204,52.1,TRADE
VIC1,"2007/03/30 15:00:00",6135.18,51.02,TRADE
VIC1,"2007/03/30 15:30:00",6130.71,50.88,TRADE
VIC1,"2007/03/30 16:00:00",6034.35,50.52,TRADE
VIC1,"2007/03/30 16:30:00",6107.4,50.67,TRADE
VIC1,"2007/03/30 17:00:00",6092.61,50.5,TRADE
VIC1,"2007/03/30 17:30:00",6134.28,43.84,TRADE
VIC1,"2007/03/30 18:00:00",6197.88,43.18,TRADE
VIC1,"2007/03/30 18:30:00",6280.72,50.97,TRADE
VIC1,"2007/03/30 19:00:00",6392.75,51.7,TRADE
VIC1,"2007/03/30 19:30:00",6321.93,47.65,TRADE
VIC1,"2007/03/30 20:00:00",6180.31,42.78,TRADE
VIC1,"2007/03/30 20:30:00",6094.71,42.86,TRADE
VIC1,"2007/03/30 21:00:00",5966.4,43.56,TRADE
VIC1,"2007/03/30 21:30:00",5812.54,43.36,TRADE
VIC1,"2007/03/30 22:00:00",5614.22,37.62,TRADE
VIC1,"2007/03/30 22:30:00",5473.48,39.2,TRADE
VIC1,"2007/03/30 23:00:00",5376.52,33.57,TRADE
VIC1,"2007/03/30 23:30:00",5723.19,46.35,TRADE
VIC1,"2007/03/31 00:00:00",5536.41,42.85,TRADE
VIC1,"2007/03/31 00:30:00",5271.04,35.1,TRADE
VIC1,"2007/03/31 01:00:00",5083.12,33.63,TRADE
VIC1,"2007/03/31 01:30:00",5404.53,35.82,TRADE
VIC1,"2007/03/31 02:00:00",5245.57,33.26,TRADE
VIC1,"2007/03/31 02:30:00",5000.06,27.65,TRADE
VIC1,"2007/03/31 03:00:00",4798.25,27.36,TRADE
VIC1,"2007/03/31 03:30:00",4649.21,26.76,TRADE
VIC1,"2007/03/31 04:00:00",4567.4,26.75,TRADE
VIC1,"2007/03/31 04:30:00",4528.65,27.27,TRADE
VIC1,"2007/03/31 05:00:00",4465.7,26.74,TRADE
VIC1,"2007/03/31 05:30:00",4541.83,29.48,TRADE
VIC1,"2007/03/31 06:00:00",4568.05,26.8,TRADE
VIC1,"2007/03/31 06:30:00",4730.52,29.5,TRADE
VIC1,"2007/03/31 07:00:00",4832.61,32.76,TRADE
VIC1,"2007/03/31 07:30:00",4908.84,31.15,TRADE
VIC1,"2007/03/31 08:00:00",5107.88,33.74,TRADE
VIC1,"2007/03/31 08:30:00",5279.7,36.39,TRADE
VIC1,"2007/03/31 09:00:00",5400.59,44.26,TRADE
VIC1,"2007/03/31 09:30:00",5507.81,55.12,TRADE
VIC1,"2007/03/31 10:00:00",5552.64,61.73,TRADE
VIC1,"2007/03/31 10:30:00",5578.54,62.43,TRADE
VIC1,"2007/03/31 11:00:00",5562.82,57.6,TRADE
VIC1,"2007/03/31 11:30:00",5545.04,53.36,TRADE
VIC1,"2007/03/31 12:00:00",5540.4,49.37,TRADE
VIC1,"2007/03/31 12:30:00",5490.51,49.42,TRADE
VIC1,"2007/03/31 13:00:00",5447.49,49.26,TRADE
VIC1,"2007/03/31 13:30:00",5434.94,44.83,TRADE
VIC1,"2007/03/31 14:00:00",5361.73,41.41,TRADE
VIC1,"2007/03/31 14:30:00",5297.21,39.91,TRADE
VIC1,"2007/03/31 15:00:00",5295.86,43.6,TRADE
VIC1,"2007/03/31 15:30:00",5218.76,39.78,TRADE
VIC1,"2007/03/31 16:00:00",5247.49,39.44,TRADE
VIC1,"2007/03/31 16:30:00",5241.89,37.13,TRADE
VIC1,"2007/03/31 17:00:00",5283.8,38.68,TRADE
VIC1,"2007/03/31 17:30:00",5348.52,35.55,TRADE
VIC1,"2007/03/31 18:00:00",5385.91,40.14,TRADE
VIC1,"2007/03/31 18:30:00",5495.21,55.78,TRADE
VIC1,"2007/03/31 19:00:00",5757.91,65.58,TRADE
VIC1,"2007/03/31 19:30:00",5737.4,47.94,TRADE
VIC1,"2007/03/31 20:00:00",5637.82,34.88,TRADE
VIC1,"2007/03/31 20:30:00",5541.21,32.03,TRADE
VIC1,"2007/03/31 21:00:00",5491.76,39.29,TRADE
VIC1,"2007/03/31 21:30:00",5361.7,39.48,TRADE
VIC1,"2007/03/31 22:00:00",5316.42,35.9,TRADE
VIC1,"2007/03/31 22:30:00",5198.27,39.79,TRADE
VIC1,"2007/03/31 23:00:00",5148.6,38.42,TRADE
VIC1,"2007/03/31 23:30:00",5433.53,49.92,TRADE
VIC1,"2007/04/01 00:00:00",5289.81,47.05,TRADE
