REGION,SETTLEMENTDATE,TOTALDEMAND,RRP,PERIODTYPE
QLD1,"2013/06/01 00:30:00",5118.23,56,TRADE
QLD1,"2013/06/01 01:00:00",5012.03,52.02,TRADE
QLD1,"2013/06/01 01:30:00",4846.52,50.66,TRADE
QLD1,"2013/06/01 02:00:00",4705.81,49.09,TRADE
QLD1,"2013/06/01 02:30:00",4543.32,44.52,TRADE
QLD1,"2013/06/01 03:00:00",4513.33,43.81,TRADE
QLD1,"2013/06/01 03:30:00",4461.08,42.75,TRADE
QLD1,"2013/06/01 04:00:00",4473.08,42.96,TRADE
QLD1,"2013/06/01 04:30:00",4518.55,44.63,TRADE
QLD1,"2013/06/01 05:00:00",4567.06,44.68,TRADE
QLD1,"2013/06/01 05:30:00",4667.19,45.16,TRADE
QLD1,"2013/06/01 06:00:00",4764.67,46.02,TRADE
QLD1,"2013/06/01 06:30:00",4888.89,46.36,TRADE
QLD1,"2013/06/01 07:00:00",5057.56,48.29,TRADE
QLD1,"2013/06/01 07:30:00",5301.59,51.61,TRADE
QLD1,"2013/06/01 08:00:00",5456.79,52.17,TRADE
QLD1,"2013/06/01 08:30:00",5641.56,52.21,TRADE
QLD1,"2013/06/01 09:00:00",5719.34,58.57,TRADE
QLD1,"2013/06/01 09:30:00",5738.44,60.04,TRADE
QLD1,"2013/06/01 10:00:00",5698.88,56.6,TRADE
QLD1,"2013/06/01 10:30:00",5654.07,53.99,TRADE
QLD1,"2013/06/01 11:00:00",5573.01,52.24,TRADE
QLD1,"2013/06/01 11:30:00",5480.08,51.99,TRADE
QLD1,"2013/06/01 12:00:00",5425.91,51.89,TRADE
QLD1,"2013/06/01 12:30:00",5412.46,52.8,TRADE
QLD1,"2013/06/01 13:00:00",5439.22,53.09,TRADE
QLD1,"2013/06/01 13:30:00",5411.24,52.06,TRADE
QLD1,"2013/06/01 14:00:00",5419.68,52.02,TRADE
QLD1,"2013/06/01 14:30:00",5438.94,51.98,TRADE
QLD1,"2013/06/01 15:00:00",5443.91,52,TRADE
QLD1,"2013/06/01 15:30:00",5526.99,52.18,TRADE
QLD1,"2013/06/01 16:00:00",5621.01,55.83,TRADE
QLD1,"2013/06/01 16:30:00",5764.22,52.06,TRADE
QLD1,"2013/06/01 17:00:00",6014.94,54.6,TRADE
QLD1,"2013/06/01 17:30:00",6232.69,55.95,TRADE
QLD1,"2013/06/01 18:00:00",6278.42,54.29,TRADE
QLD1,"2013/06/01 18:30:00",6178.96,52.79,TRADE
QLD1,"2013/06/01 19:00:00",6128.9,52.38,TRADE
QLD1,"2013/06/01 19:30:00",5993.46,52.36,TRADE
QLD1,"2013/06/01 20:00:00",5950.94,52.7,TRADE
QLD1,"2013/06/01 20:30:00",5936.86,53.07,TRADE
QLD1,"2013/06/01 21:00:00",5857.87,52.05,TRADE
QLD1,"2013/06/01 21:30:00",5753.62,51.88,TRADE
QLD1,"2013/06/01 22:00:00",5615.21,51.49,TRADE
QLD1,"2013/06/01 22:30:00",5507.91,57.18,TRADE
QLD1,"2013/06/01 23:00:00",5460.28,56.98,TRADE
QLD1,"2013/06/01 23:30:00",5367.57,53.69,TRADE
QLD1,"2013/06/02 00:00:00",5208.07,51.94,TRADE
QLD1,"2013/06/02 00:30:00",5045.31,51.22,TRADE
QLD1,"2013/06/02 01:00:00",4885.3,48.27,TRADE
QLD1,"2013/06/02 01:30:00",4787.19,46.33,TRADE
QLD1,"2013/06/02 02:00:00",4631.63,44.86,TRADE
QLD1,"2013/06/02 02:30:00",4531.71,43.35,TRADE
QLD1,"2013/06/02 03:00:00",4464.05,42.89,TRADE
QLD1,"2013/06/02 03:30:00",4451.14,42.9,TRADE
QLD1,"2013/06/02 04:00:00",4440.41,41.87,TRADE
QLD1,"2013/06/02 04:30:00",4422.62,41.1,TRADE
QLD1,"2013/06/02 05:00:00",4488.24,42.4,TRADE
QLD1,"2013/06/02 05:30:00",4518.85,41.63,TRADE
QLD1,"2013/06/02 06:00:00",4588.31,43.67,TRADE
QLD1,"2013/06/02 06:30:00",4647.02,44.36,TRADE
QLD1,"2013/06/02 07:00:00",4793.7,45.11,TRADE
QLD1,"2013/06/02 07:30:00",4978.85,46.13,TRADE
QLD1,"2013/06/02 08:00:00",5114.49,48.93,TRADE
QLD1,"2013/06/02 08:30:00",5256.86,51.05,TRADE
QLD1,"2013/06/02 09:00:00",5364.26,52,TRADE
QLD1,"2013/06/02 09:30:00",5401.08,52,TRADE
QLD1,"2013/06/02 10:00:00",5410.26,52.1,TRADE
QLD1,"2013/06/02 10:30:00",5386.48,51.91,TRADE
QLD1,"2013/06/02 11:00:00",5342.76,53.05,TRADE
QLD1,"2013/06/02 11:30:00",5258.4,51.9,TRADE
QLD1,"2013/06/02 12:00:00",5254.66,52,TRADE
QLD1,"2013/06/02 12:30:00",5298.38,53.35,TRADE
QLD1,"2013/06/02 13:00:00",5317.12,53.56,TRADE
QLD1,"2013/06/02 13:30:00",5349.83,52.82,TRADE
QLD1,"2013/06/02 14:00:00",5425.82,54.6,TRADE
QLD1,"2013/06/02 14:30:00",5466.25,52.54,TRADE
QLD1,"2013/06/02 15:00:00",5496.97,52.87,TRADE
QLD1,"2013/06/02 15:30:00",5629.45,55.31,TRADE
QLD1,"2013/06/02 16:00:00",5694.16,55.74,TRADE
QLD1,"2013/06/02 16:30:00",5858.96,52.37,TRADE
QLD1,"2013/06/02 17:00:00",6054.09,60.17,TRADE
QLD1,"2013/06/02 17:30:00",6319.53,59.65,TRADE
QLD1,"2013/06/02 18:00:00",6434.74,72.23,TRADE
QLD1,"2013/06/02 18:30:00",6355.32,57.33,TRADE
QLD1,"2013/06/02 19:00:00",6304.66,57.86,TRADE
QLD1,"2013/06/02 19:30:00",6189.81,59.71,TRADE
QLD1,"2013/06/02 20:00:00",6148.15,57.29,TRADE
QLD1,"2013/06/02 20:30:00",6145.01,57.99,TRADE
QLD1,"2013/06/02 21:00:00",6030.07,56.18,TRADE
QLD1,"2013/06/02 21:30:00",5862.26,53.52,TRADE
QLD1,"2013/06/02 22:00:00",5650.21,51.59,TRADE
QLD1,"2013/06/02 22:30:00",5530.65,55.86,TRADE
QLD1,"2013/06/02 23:00:00",5436.36,52.28,TRADE
QLD1,"2013/06/02 23:30:00",5331.12,54.45,TRADE
QLD1,"2013/06/03 00:00:00",5192.53,51.77,TRADE
QLD1,"2013/06/03 00:30:00",5035.96,51.53,TRADE
QLD1,"2013/06/03 01:00:00",4918.36,49.41,TRADE
QLD1,"2013/06/03 01:30:00",4753.85,47.66,TRADE
QLD1,"2013/06/03 02:00:00",4636.65,45.32,TRADE
QLD1,"2013/06/03 02:30:00",4585.93,44.85,TRADE
QLD1,"2013/06/03 03:00:00",4508.87,44.45,TRADE
QLD1,"2013/06/03 03:30:00",4486.68,44.02,TRADE
QLD1,"2013/06/03 04:00:00",4488.13,43.37,TRADE
QLD1,"2013/06/03 04:30:00",4564.85,44.63,TRADE
QLD1,"2013/06/03 05:00:00",4695.82,45.73,TRADE
QLD1,"2013/06/03 05:30:00",4932.27,48.18,TRADE
QLD1,"2013/06/03 06:00:00",5177.18,48.56,TRADE
QLD1,"2013/06/03 06:30:00",5600.28,54.55,TRADE
QLD1,"2013/06/03 07:00:00",6004.32,64.6,TRADE
QLD1,"2013/06/03 07:30:00",6401.16,59.99,TRADE
QLD1,"2013/06/03 08:00:00",6362.56,60.8,TRADE
QLD1,"2013/06/03 08:30:00",6205.48,60.78,TRADE
QLD1,"2013/06/03 09:00:00",6045.12,57.3,TRADE
QLD1,"2013/06/03 09:30:00",5953.86,56.67,TRADE
QLD1,"2013/06/03 10:00:00",5860.26,55.29,TRADE
QLD1,"2013/06/03 10:30:00",5745.43,54.41,TRADE
QLD1,"2013/06/03 11:00:00",5781.06,53.72,TRADE
QLD1,"2013/06/03 11:30:00",5719.21,52.36,TRADE
QLD1,"2013/06/03 12:00:00",5706.28,53.11,TRADE
QLD1,"2013/06/03 12:30:00",5695.23,52.23,TRADE
QLD1,"2013/06/03 13:00:00",5684.21,51.53,TRADE
QLD1,"2013/06/03 13:30:00",5719.56,51.51,TRADE
QLD1,"2013/06/03 14:00:00",5756.46,52.07,TRADE
QLD1,"2013/06/03 14:30:00",5805.8,51.99,TRADE
QLD1,"2013/06/03 15:00:00",5876.91,52.15,TRADE
QLD1,"2013/06/03 15:30:00",5898.17,52.96,TRADE
QLD1,"2013/06/03 16:00:00",6039.33,56.34,TRADE
QLD1,"2013/06/03 16:30:00",6180.09,55.77,TRADE
QLD1,"2013/06/03 17:00:00",6410.8,58.27,TRADE
QLD1,"2013/06/03 17:30:00",6717.13,76.86,TRADE
QLD1,"2013/06/03 18:00:00",6847.78,64.38,TRADE
QLD1,"2013/06/03 18:30:00",6838.5,60.5,TRADE
QLD1,"2013/06/03 19:00:00",6787.29,66.93,TRADE
QLD1,"2013/06/03 19:30:00",6630.93,62.19,TRADE
QLD1,"2013/06/03 20:00:00",6589.32,61.47,TRADE
QLD1,"2013/06/03 20:30:00",6590.39,66.67,TRADE
QLD1,"2013/06/03 21:00:00",6435.04,60.41,TRADE
QLD1,"2013/06/03 21:30:00",6277.21,58.53,TRADE
QLD1,"2013/06/03 22:00:00",6105.52,54.79,TRADE
QLD1,"2013/06/03 22:30:00",5860.65,61.5,TRADE
QLD1,"2013/06/03 23:00:00",5687.51,59.32,TRADE
QLD1,"2013/06/03 23:30:00",5576.98,59.27,TRADE
QLD1,"2013/06/04 00:00:00",5396.75,57.36,TRADE
QLD1,"2013/06/04 00:30:00",5282.78,55.63,TRADE
QLD1,"2013/06/04 01:00:00",5161.35,53.23,TRADE
QLD1,"2013/06/04 01:30:00",4943.13,51.25,TRADE
QLD1,"2013/06/04 02:00:00",4807.66,50.15,TRADE
QLD1,"2013/06/04 02:30:00",4729.11,47.15,TRADE
QLD1,"2013/06/04 03:00:00",4647.83,45.1,TRADE
QLD1,"2013/06/04 03:30:00",4637.49,44.82,TRADE
QLD1,"2013/06/04 04:00:00",4610.23,44.09,TRADE
QLD1,"2013/06/04 04:30:00",4681.05,44.17,TRADE
QLD1,"2013/06/04 05:00:00",4777.8,44.71,TRADE
QLD1,"2013/06/04 05:30:00",5043.21,48.18,TRADE
QLD1,"2013/06/04 06:00:00",5343.42,52.97,TRADE
QLD1,"2013/06/04 06:30:00",5737.93,54.65,TRADE
QLD1,"2013/06/04 07:00:00",6127.39,64.11,TRADE
QLD1,"2013/06/04 07:30:00",6488.3,61.5,TRADE
QLD1,"2013/06/04 08:00:00",6470.53,59.38,TRADE
QLD1,"2013/06/04 08:30:00",6346.66,57.04,TRADE
QLD1,"2013/06/04 09:00:00",6174.71,55.65,TRADE
QLD1,"2013/06/04 09:30:00",5968.36,55.26,TRADE
QLD1,"2013/06/04 10:00:00",5837.67,52.83,TRADE
QLD1,"2013/06/04 10:30:00",5724.04,50.47,TRADE
QLD1,"2013/06/04 11:00:00",5658.19,50.8,TRADE
QLD1,"2013/06/04 11:30:00",5610.76,53.13,TRADE
QLD1,"2013/06/04 12:00:00",5591.31,51.2,TRADE
QLD1,"2013/06/04 12:30:00",5599.74,49.09,TRADE
QLD1,"2013/06/04 13:00:00",5587.38,50.58,TRADE
QLD1,"2013/06/04 13:30:00",5603,49.17,TRADE
QLD1,"2013/06/04 14:00:00",5607.52,47.64,TRADE
QLD1,"2013/06/04 14:30:00",5670.04,49.52,TRADE
QLD1,"2013/06/04 15:00:00",5682.24,52.25,TRADE
QLD1,"2013/06/04 15:30:00",5748.78,52.61,TRADE
QLD1,"2013/06/04 16:00:00",5850.92,53.93,TRADE
QLD1,"2013/06/04 16:30:00",6008.05,52.2,TRADE
QLD1,"2013/06/04 17:00:00",6195.03,56,TRADE
QLD1,"2013/06/04 17:30:00",6552.84,70.69,TRADE
QLD1,"2013/06/04 18:00:00",6741.94,57.12,TRADE
QLD1,"2013/06/04 18:30:00",6702.31,57.67,TRADE
QLD1,"2013/06/04 19:00:00",6625.77,57.83,TRADE
QLD1,"2013/06/04 19:30:00",6518.56,58.97,TRADE
QLD1,"2013/06/04 20:00:00",6525.36,61.65,TRADE
QLD1,"2013/06/04 20:30:00",6568.65,60.42,TRADE
QLD1,"2013/06/04 21:00:00",6422.24,57.23,TRADE
QLD1,"2013/06/04 21:30:00",6241.05,52.3,TRADE
QLD1,"2013/06/04 22:00:00",6015.52,51.89,TRADE
QLD1,"2013/06/04 22:30:00",5778.24,68.18,TRADE
QLD1,"2013/06/04 23:00:00",5637.86,59.88,TRADE
QLD1,"2013/06/04 23:30:00",5530.54,59.67,TRADE
QLD1,"2013/06/05 00:00:00",5361.12,55.65,TRADE
QLD1,"2013/06/05 00:30:00",5178.78,55.46,TRADE
QLD1,"2013/06/05 01:00:00",5031.5,48.34,TRADE
QLD1,"2013/06/05 01:30:00",4889.69,49.61,TRADE
QLD1,"2013/06/05 02:00:00",4740.37,45.45,TRADE
QLD1,"2013/06/05 02:30:00",4624.68,42.93,TRADE
QLD1,"2013/06/05 03:00:00",4552.9,43.33,TRADE
QLD1,"2013/06/05 03:30:00",4520.53,43,TRADE
QLD1,"2013/06/05 04:00:00",4556.93,42.68,TRADE
QLD1,"2013/06/05 04:30:00",4619.33,43.51,TRADE
QLD1,"2013/06/05 05:00:00",4722.82,44.29,TRADE
QLD1,"2013/06/05 05:30:00",4946.54,45.81,TRADE
QLD1,"2013/06/05 06:00:00",5214.46,48.84,TRADE
QLD1,"2013/06/05 06:30:00",5671.93,61.98,TRADE
QLD1,"2013/06/05 07:00:00",6044.28,59.54,TRADE
QLD1,"2013/06/05 07:30:00",6443.24,59.44,TRADE
QLD1,"2013/06/05 08:00:00",6533.08,62.57,TRADE
QLD1,"2013/06/05 08:30:00",6385.96,59.82,TRADE
QLD1,"2013/06/05 09:00:00",6272.13,58.38,TRADE
QLD1,"2013/06/05 09:30:00",6203.5,59.71,TRADE
QLD1,"2013/06/05 10:00:00",6163.18,58.64,TRADE
QLD1,"2013/06/05 10:30:00",6022.28,58.24,TRADE
QLD1,"2013/06/05 11:00:00",6015.06,56.32,TRADE
QLD1,"2013/06/05 11:30:00",5939.89,55.18,TRADE
QLD1,"2013/06/05 12:00:00",5963.28,56.05,TRADE
QLD1,"2013/06/05 12:30:00",5986.6,56.5,TRADE
QLD1,"2013/06/05 13:00:00",5969.79,55.58,TRADE
QLD1,"2013/06/05 13:30:00",5982.14,52.43,TRADE
QLD1,"2013/06/05 14:00:00",5963.87,52.13,TRADE
QLD1,"2013/06/05 14:30:00",5993,52.43,TRADE
QLD1,"2013/06/05 15:00:00",6014.19,52.26,TRADE
QLD1,"2013/06/05 15:30:00",6019.71,51.97,TRADE
QLD1,"2013/06/05 16:00:00",6101.67,52.16,TRADE
QLD1,"2013/06/05 16:30:00",6248.12,54.4,TRADE
QLD1,"2013/06/05 17:00:00",6449.33,59.09,TRADE
QLD1,"2013/06/05 17:30:00",6650.99,59.82,TRADE
QLD1,"2013/06/05 18:00:00",6776.52,61.68,TRADE
QLD1,"2013/06/05 18:30:00",6728.31,59.99,TRADE
QLD1,"2013/06/05 19:00:00",6703.98,56.96,TRADE
QLD1,"2013/06/05 19:30:00",6567.24,56.04,TRADE
QLD1,"2013/06/05 20:00:00",6484.21,58.16,TRADE
QLD1,"2013/06/05 20:30:00",6478.41,58.79,TRADE
QLD1,"2013/06/05 21:00:00",6269.57,55.47,TRADE
QLD1,"2013/06/05 21:30:00",6146.96,53.67,TRADE
QLD1,"2013/06/05 22:00:00",5957.66,50.5,TRADE
QLD1,"2013/06/05 22:30:00",5727.02,54.2,TRADE
QLD1,"2013/06/05 23:00:00",5698.83,57.45,TRADE
QLD1,"2013/06/05 23:30:00",5572.96,57.05,TRADE
QLD1,"2013/06/06 00:00:00",5348.39,53.86,TRADE
QLD1,"2013/06/06 00:30:00",5177.76,51.35,TRADE
QLD1,"2013/06/06 01:00:00",5041.19,49.27,TRADE
QLD1,"2013/06/06 01:30:00",4872.05,45.59,TRADE
QLD1,"2013/06/06 02:00:00",4756.17,44.12,TRADE
QLD1,"2013/06/06 02:30:00",4683.48,43.58,TRADE
QLD1,"2013/06/06 03:00:00",4640.5,42.38,TRADE
QLD1,"2013/06/06 03:30:00",4563.85,40.94,TRADE
QLD1,"2013/06/06 04:00:00",4556,41.65,TRADE
QLD1,"2013/06/06 04:30:00",4609.14,42.15,TRADE
QLD1,"2013/06/06 05:00:00",4708.75,43.34,TRADE
QLD1,"2013/06/06 05:30:00",4982.14,46.31,TRADE
QLD1,"2013/06/06 06:00:00",5221.56,47.54,TRADE
QLD1,"2013/06/06 06:30:00",5576.8,49.72,TRADE
QLD1,"2013/06/06 07:00:00",5932.05,52.73,TRADE
QLD1,"2013/06/06 07:30:00",6340.38,56.48,TRADE
QLD1,"2013/06/06 08:00:00",6393,58.08,TRADE
QLD1,"2013/06/06 08:30:00",6293.79,57.03,TRADE
QLD1,"2013/06/06 09:00:00",6194.87,56.63,TRADE
QLD1,"2013/06/06 09:30:00",6142.41,55.9,TRADE
QLD1,"2013/06/06 10:00:00",6059.56,54.2,TRADE
QLD1,"2013/06/06 10:30:00",6026.25,52.23,TRADE
QLD1,"2013/06/06 11:00:00",5954.32,50.1,TRADE
QLD1,"2013/06/06 11:30:00",5908.23,50.23,TRADE
QLD1,"2013/06/06 12:00:00",5932.9,51.42,TRADE
QLD1,"2013/06/06 12:30:00",5921.37,51.58,TRADE
QLD1,"2013/06/06 13:00:00",5957.04,51.72,TRADE
QLD1,"2013/06/06 13:30:00",5988.29,51.71,TRADE
QLD1,"2013/06/06 14:00:00",5947.63,51.78,TRADE
QLD1,"2013/06/06 14:30:00",5959.81,51.75,TRADE
QLD1,"2013/06/06 15:00:00",5927.27,52.04,TRADE
QLD1,"2013/06/06 15:30:00",5945.78,52.89,TRADE
QLD1,"2013/06/06 16:00:00",6034.38,53.26,TRADE
QLD1,"2013/06/06 16:30:00",6155.35,53.64,TRADE
QLD1,"2013/06/06 17:00:00",6372.42,56.2,TRADE
QLD1,"2013/06/06 17:30:00",6604.19,56.7,TRADE
QLD1,"2013/06/06 18:00:00",6745.73,58.11,TRADE
QLD1,"2013/06/06 18:30:00",6704.61,55.05,TRADE
QLD1,"2013/06/06 19:00:00",6647.37,57.23,TRADE
QLD1,"2013/06/06 19:30:00",6565.71,57.72,TRADE
QLD1,"2013/06/06 20:00:00",6506.22,58.45,TRADE
QLD1,"2013/06/06 20:30:00",6508.13,59.52,TRADE
QLD1,"2013/06/06 21:00:00",6345.08,56.5,TRADE
QLD1,"2013/06/06 21:30:00",6147.51,53.02,TRADE
QLD1,"2013/06/06 22:00:00",5990.23,50.87,TRADE
QLD1,"2013/06/06 22:30:00",5785.91,54.25,TRADE
QLD1,"2013/06/06 23:00:00",5668.31,56,TRADE
QLD1,"2013/06/06 23:30:00",5538.24,56.31,TRADE
QLD1,"2013/06/07 00:00:00",5374.44,54.63,TRADE
QLD1,"2013/06/07 00:30:00",5182,52.38,TRADE
QLD1,"2013/06/07 01:00:00",5012.09,49.69,TRADE
QLD1,"2013/06/07 01:30:00",4848.89,47.27,TRADE
QLD1,"2013/06/07 02:00:00",4711.34,43.53,TRADE
QLD1,"2013/06/07 02:30:00",4637.01,42.85,TRADE
QLD1,"2013/06/07 03:00:00",4593.87,36.34,TRADE
QLD1,"2013/06/07 03:30:00",4567,41.68,TRADE
QLD1,"2013/06/07 04:00:00",4581.79,41.38,TRADE
QLD1,"2013/06/07 04:30:00",4610.38,41.83,TRADE
QLD1,"2013/06/07 05:00:00",4688.63,43.39,TRADE
QLD1,"2013/06/07 05:30:00",4928.56,45.68,TRADE
QLD1,"2013/06/07 06:00:00",5182.83,47.28,TRADE
QLD1,"2013/06/07 06:30:00",5526.61,49.61,TRADE
QLD1,"2013/06/07 07:00:00",5906.61,59.58,TRADE
QLD1,"2013/06/07 07:30:00",6270.99,53.87,TRADE
QLD1,"2013/06/07 08:00:00",6395.24,55.79,TRADE
QLD1,"2013/06/07 08:30:00",6262.31,56.04,TRADE
QLD1,"2013/06/07 09:00:00",6238.37,54.09,TRADE
QLD1,"2013/06/07 09:30:00",6184.64,56.56,TRADE
QLD1,"2013/06/07 10:00:00",6126.34,54.55,TRADE
QLD1,"2013/06/07 10:30:00",6043.92,53.66,TRADE
QLD1,"2013/06/07 11:00:00",5978.23,53.82,TRADE
QLD1,"2013/06/07 11:30:00",5975.18,52.72,TRADE
QLD1,"2013/06/07 12:00:00",5907.02,52.31,TRADE
QLD1,"2013/06/07 12:30:00",5896.38,51.83,TRADE
QLD1,"2013/06/07 13:00:00",5880.26,51.69,TRADE
QLD1,"2013/06/07 13:30:00",5830.48,51.16,TRADE
QLD1,"2013/06/07 14:00:00",5822.24,51.44,TRADE
QLD1,"2013/06/07 14:30:00",5852.2,51.51,TRADE
QLD1,"2013/06/07 15:00:00",5876.81,51.87,TRADE
QLD1,"2013/06/07 15:30:00",5879.5,51.67,TRADE
QLD1,"2013/06/07 16:00:00",5939.78,52.01,TRADE
QLD1,"2013/06/07 16:30:00",6070.19,51.69,TRADE
QLD1,"2013/06/07 17:00:00",6197.02,52.42,TRADE
QLD1,"2013/06/07 17:30:00",6400.67,57.15,TRADE
QLD1,"2013/06/07 18:00:00",6451.4,55.77,TRADE
QLD1,"2013/06/07 18:30:00",6410.07,55.17,TRADE
QLD1,"2013/06/07 19:00:00",6340.02,54.01,TRADE
QLD1,"2013/06/07 19:30:00",6238.63,55.84,TRADE
QLD1,"2013/06/07 20:00:00",6222.11,53.57,TRADE
QLD1,"2013/06/07 20:30:00",6170.67,53.41,TRADE
QLD1,"2013/06/07 21:00:00",6094.9,52.48,TRADE
QLD1,"2013/06/07 21:30:00",5956.39,51.73,TRADE
QLD1,"2013/06/07 22:00:00",5800.65,48.48,TRADE
QLD1,"2013/06/07 22:30:00",5655.65,52.88,TRADE
QLD1,"2013/06/07 23:00:00",5587.24,55.95,TRADE
QLD1,"2013/06/07 23:30:00",5522.08,58.97,TRADE
QLD1,"2013/06/08 00:00:00",5350.41,57.67,TRADE
QLD1,"2013/06/08 00:30:00",5170.57,57.52,TRADE
QLD1,"2013/06/08 01:00:00",5018.41,54.26,TRADE
QLD1,"2013/06/08 01:30:00",4833.1,52.22,TRADE
QLD1,"2013/06/08 02:00:00",4684.44,49.66,TRADE
QLD1,"2013/06/08 02:30:00",4600,46.83,TRADE
QLD1,"2013/06/08 03:00:00",4555.13,44.98,TRADE
QLD1,"2013/06/08 03:30:00",4511.34,44.28,TRADE
QLD1,"2013/06/08 04:00:00",4473.92,43.86,TRADE
QLD1,"2013/06/08 04:30:00",4487.2,43.66,TRADE
QLD1,"2013/06/08 05:00:00",4556.03,44.52,TRADE
QLD1,"2013/06/08 05:30:00",4632.81,44.61,TRADE
QLD1,"2013/06/08 06:00:00",4718.68,45.49,TRADE
QLD1,"2013/06/08 06:30:00",4897.24,46.78,TRADE
QLD1,"2013/06/08 07:00:00",5031.92,46.8,TRADE
QLD1,"2013/06/08 07:30:00",5284.21,50.43,TRADE
QLD1,"2013/06/08 08:00:00",5428.58,52.8,TRADE
QLD1,"2013/06/08 08:30:00",5517.83,54.71,TRADE
QLD1,"2013/06/08 09:00:00",5646.79,57.07,TRADE
QLD1,"2013/06/08 09:30:00",5682.18,56.19,TRADE
QLD1,"2013/06/08 10:00:00",5602.38,52.99,TRADE
QLD1,"2013/06/08 10:30:00",5587.7,53.16,TRADE
QLD1,"2013/06/08 11:00:00",5535.59,51.98,TRADE
QLD1,"2013/06/08 11:30:00",5463.22,50.41,TRADE
QLD1,"2013/06/08 12:00:00",5446.44,51.36,TRADE
QLD1,"2013/06/08 12:30:00",5395.28,50.08,TRADE
QLD1,"2013/06/08 13:00:00",5435.09,51.32,TRADE
QLD1,"2013/06/08 13:30:00",5432.88,51.2,TRADE
QLD1,"2013/06/08 14:00:00",5431.52,51.2,TRADE
QLD1,"2013/06/08 14:30:00",5430.25,50.53,TRADE
QLD1,"2013/06/08 15:00:00",5446.16,51.51,TRADE
QLD1,"2013/06/08 15:30:00",5524.67,51.94,TRADE
QLD1,"2013/06/08 16:00:00",5600.04,53.48,TRADE
QLD1,"2013/06/08 16:30:00",5732.06,52.8,TRADE
QLD1,"2013/06/08 17:00:00",5925.47,52.9,TRADE
QLD1,"2013/06/08 17:30:00",6160.37,56.41,TRADE
QLD1,"2013/06/08 18:00:00",6191.03,54.81,TRADE
QLD1,"2013/06/08 18:30:00",6074.34,53.71,TRADE
QLD1,"2013/06/08 19:00:00",6031.75,52.48,TRADE
QLD1,"2013/06/08 19:30:00",5908.8,51.99,TRADE
QLD1,"2013/06/08 20:00:00",5875.3,52.18,TRADE
QLD1,"2013/06/08 20:30:00",5898.39,52.13,TRADE
QLD1,"2013/06/08 21:00:00",5747.36,51.88,TRADE
QLD1,"2013/06/08 21:30:00",5651.97,51.56,TRADE
QLD1,"2013/06/08 22:00:00",5555.12,50.21,TRADE
QLD1,"2013/06/08 22:30:00",5470.51,52.41,TRADE
QLD1,"2013/06/08 23:00:00",5413,55.53,TRADE
QLD1,"2013/06/08 23:30:00",5343.54,53.5,TRADE
QLD1,"2013/06/09 00:00:00",5193.09,51.54,TRADE
QLD1,"2013/06/09 00:30:00",5016.79,49.96,TRADE
QLD1,"2013/06/09 01:00:00",4915.48,50.12,TRADE
QLD1,"2013/06/09 01:30:00",4774.3,47.23,TRADE
QLD1,"2013/06/09 02:00:00",4591.14,44.07,TRADE
QLD1,"2013/06/09 02:30:00",4539.45,43.61,TRADE
QLD1,"2013/06/09 03:00:00",4524.45,42.48,TRADE
QLD1,"2013/06/09 03:30:00",4434.81,40.58,TRADE
QLD1,"2013/06/09 04:00:00",4412.33,41.4,TRADE
QLD1,"2013/06/09 04:30:00",4411.06,44.54,TRADE
QLD1,"2013/06/09 05:00:00",4430.69,44.94,TRADE
QLD1,"2013/06/09 05:30:00",4477.84,42.12,TRADE
QLD1,"2013/06/09 06:00:00",4510.94,42.38,TRADE
QLD1,"2013/06/09 06:30:00",4645.34,43.62,TRADE
QLD1,"2013/06/09 07:00:00",4717,43.82,TRADE
QLD1,"2013/06/09 07:30:00",4938.04,45.65,TRADE
QLD1,"2013/06/09 08:00:00",5125.72,48.47,TRADE
QLD1,"2013/06/09 08:30:00",5286.62,51.21,TRADE
QLD1,"2013/06/09 09:00:00",5466.7,53.14,TRADE
QLD1,"2013/06/09 09:30:00",5497.65,53.22,TRADE
QLD1,"2013/06/09 10:00:00",5545,52.87,TRADE
QLD1,"2013/06/09 10:30:00",5488.52,53,TRADE
QLD1,"2013/06/09 11:00:00",5457.46,52.33,TRADE
QLD1,"2013/06/09 11:30:00",5412.59,50.66,TRADE
QLD1,"2013/06/09 12:00:00",5385.08,50.15,TRADE
QLD1,"2013/06/09 12:30:00",5291.67,48.95,TRADE
QLD1,"2013/06/09 13:00:00",5270.37,47.66,TRADE
QLD1,"2013/06/09 13:30:00",5254.4,48.8,TRADE
QLD1,"2013/06/09 14:00:00",5219.62,47.75,TRADE
QLD1,"2013/06/09 14:30:00",5251.05,47.3,TRADE
QLD1,"2013/06/09 15:00:00",5291.72,46.42,TRADE
QLD1,"2013/06/09 15:30:00",5380.28,49.19,TRADE
QLD1,"2013/06/09 16:00:00",5422.5,51.09,TRADE
QLD1,"2013/06/09 16:30:00",5567.74,50.52,TRADE
QLD1,"2013/06/09 17:00:00",5797.19,55.04,TRADE
QLD1,"2013/06/09 17:30:00",6031.57,58.31,TRADE
QLD1,"2013/06/09 18:00:00",6142.7,57.95,TRADE
QLD1,"2013/06/09 18:30:00",6107.53,55.9,TRADE
QLD1,"2013/06/09 19:00:00",6038.55,55.44,TRADE
QLD1,"2013/06/09 19:30:00",5923.4,53.57,TRADE
QLD1,"2013/06/09 20:00:00",5882.79,52.56,TRADE
QLD1,"2013/06/09 20:30:00",5914.85,53.53,TRADE
QLD1,"2013/06/09 21:00:00",5762.4,51.98,TRADE
QLD1,"2013/06/09 21:30:00",5643.54,51.71,TRADE
QLD1,"2013/06/09 22:00:00",5513.68,48.15,TRADE
QLD1,"2013/06/09 22:30:00",5428.57,51.65,TRADE
QLD1,"2013/06/09 23:00:00",5340.4,51.73,TRADE
QLD1,"2013/06/09 23:30:00",5241.2,51.93,TRADE
QLD1,"2013/06/10 00:00:00",5090.06,50.97,TRADE
QLD1,"2013/06/10 00:30:00",4971.63,48.84,TRADE
QLD1,"2013/06/10 01:00:00",4817.62,46.59,TRADE
QLD1,"2013/06/10 01:30:00",4620.55,43.54,TRADE
QLD1,"2013/06/10 02:00:00",4534.39,43.58,TRADE
QLD1,"2013/06/10 02:30:00",4476.77,43.15,TRADE
QLD1,"2013/06/10 03:00:00",4396.32,41.3,TRADE
QLD1,"2013/06/10 03:30:00",4365.98,43.07,TRADE
QLD1,"2013/06/10 04:00:00",4361.68,42.56,TRADE
QLD1,"2013/06/10 04:30:00",4349.15,37.16,TRADE
QLD1,"2013/06/10 05:00:00",4371.84,40.28,TRADE
QLD1,"2013/06/10 05:30:00",4486.66,42.65,TRADE
QLD1,"2013/06/10 06:00:00",4545.25,43.3,TRADE
QLD1,"2013/06/10 06:30:00",4715.1,44.7,TRADE
QLD1,"2013/06/10 07:00:00",4765.48,44.29,TRADE
QLD1,"2013/06/10 07:30:00",4990.24,44.95,TRADE
QLD1,"2013/06/10 08:00:00",5206.66,46.52,TRADE
QLD1,"2013/06/10 08:30:00",5346.5,50.56,TRADE
QLD1,"2013/06/10 09:00:00",5522.6,52,TRADE
QLD1,"2013/06/10 09:30:00",5656.65,52.36,TRADE
QLD1,"2013/06/10 10:00:00",5730.56,53.16,TRADE
QLD1,"2013/06/10 10:30:00",5791.89,55.62,TRADE
QLD1,"2013/06/10 11:00:00",5764.67,55.25,TRADE
QLD1,"2013/06/10 11:30:00",5714.9,52.87,TRADE
QLD1,"2013/06/10 12:00:00",5685.01,52.51,TRADE
QLD1,"2013/06/10 12:30:00",5701.89,52.37,TRADE
QLD1,"2013/06/10 13:00:00",5762.98,52.7,TRADE
QLD1,"2013/06/10 13:30:00",5690.84,52.32,TRADE
QLD1,"2013/06/10 14:00:00",5673.51,52.32,TRADE
QLD1,"2013/06/10 14:30:00",5662.52,52.31,TRADE
QLD1,"2013/06/10 15:00:00",5696.58,52.24,TRADE
QLD1,"2013/06/10 15:30:00",5773.33,52.73,TRADE
QLD1,"2013/06/10 16:00:00",5857.68,53.59,TRADE
QLD1,"2013/06/10 16:30:00",5995.43,52.76,TRADE
QLD1,"2013/06/10 17:00:00",6300.18,57.77,TRADE
QLD1,"2013/06/10 17:30:00",6537.42,64.58,TRADE
QLD1,"2013/06/10 18:00:00",6616.58,68.47,TRADE
QLD1,"2013/06/10 18:30:00",6518.77,58.46,TRADE
QLD1,"2013/06/10 19:00:00",6377.39,57.06,TRADE
QLD1,"2013/06/10 19:30:00",6241.31,55.22,TRADE
QLD1,"2013/06/10 20:00:00",6166.04,54.39,TRADE
QLD1,"2013/06/10 20:30:00",6121.87,54.85,TRADE
QLD1,"2013/06/10 21:00:00",5955.81,52.4,TRADE
QLD1,"2013/06/10 21:30:00",5889.66,52.31,TRADE
QLD1,"2013/06/10 22:00:00",5731.11,50.84,TRADE
QLD1,"2013/06/10 22:30:00",5585.21,52.06,TRADE
QLD1,"2013/06/10 23:00:00",5490.95,53.47,TRADE
QLD1,"2013/06/10 23:30:00",5343.39,53.71,TRADE
QLD1,"2013/06/11 00:00:00",5198.14,52.92,TRADE
QLD1,"2013/06/11 00:30:00",5057.11,51.69,TRADE
QLD1,"2013/06/11 01:00:00",4916.11,50.84,TRADE
QLD1,"2013/06/11 01:30:00",4757.45,48.9,TRADE
QLD1,"2013/06/11 02:00:00",4627.59,46.57,TRADE
QLD1,"2013/06/11 02:30:00",4574.41,43.91,TRADE
QLD1,"2013/06/11 03:00:00",4482.44,43.21,TRADE
QLD1,"2013/06/11 03:30:00",4468.97,43.09,TRADE
QLD1,"2013/06/11 04:00:00",4452.82,42.21,TRADE
QLD1,"2013/06/11 04:30:00",4501.56,42.52,TRADE
QLD1,"2013/06/11 05:00:00",4593.02,44.18,TRADE
QLD1,"2013/06/11 05:30:00",4805.71,47.92,TRADE
QLD1,"2013/06/11 06:00:00",5058.95,47.67,TRADE
QLD1,"2013/06/11 06:30:00",5455.26,53.84,TRADE
QLD1,"2013/06/11 07:00:00",5799.69,61.01,TRADE
QLD1,"2013/06/11 07:30:00",6216.5,57.84,TRADE
QLD1,"2013/06/11 08:00:00",6272.2,60.61,TRADE
QLD1,"2013/06/11 08:30:00",6156.82,62.07,TRADE
QLD1,"2013/06/11 09:00:00",6086.38,59.24,TRADE
QLD1,"2013/06/11 09:30:00",6037.16,59.31,TRADE
QLD1,"2013/06/11 10:00:00",6056.97,59.5,TRADE
QLD1,"2013/06/11 10:30:00",6006.54,59.83,TRADE
QLD1,"2013/06/11 11:00:00",5993.26,60.04,TRADE
QLD1,"2013/06/11 11:30:00",5950.83,57.95,TRADE
QLD1,"2013/06/11 12:00:00",5949.24,57.53,TRADE
QLD1,"2013/06/11 12:30:00",5898.45,54.53,TRADE
QLD1,"2013/06/11 13:00:00",5917.76,53.71,TRADE
QLD1,"2013/06/11 13:30:00",5906.73,54.05,TRADE
QLD1,"2013/06/11 14:00:00",5942.66,54.18,TRADE
QLD1,"2013/06/11 14:30:00",5966.94,54.72,TRADE
QLD1,"2013/06/11 15:00:00",5976.02,54,TRADE
QLD1,"2013/06/11 15:30:00",5994.9,53.94,TRADE
QLD1,"2013/06/11 16:00:00",6061.92,56.11,TRADE
QLD1,"2013/06/11 16:30:00",6178.21,57.1,TRADE
QLD1,"2013/06/11 17:00:00",6416.24,55.6,TRADE
QLD1,"2013/06/11 17:30:00",6687.78,60.86,TRADE
QLD1,"2013/06/11 18:00:00",6715.27,71.6,TRADE
QLD1,"2013/06/11 18:30:00",6660.46,60.64,TRADE
QLD1,"2013/06/11 19:00:00",6580.42,58.25,TRADE
QLD1,"2013/06/11 19:30:00",6432.94,57.81,TRADE
QLD1,"2013/06/11 20:00:00",6407.95,56.95,TRADE
QLD1,"2013/06/11 20:30:00",6371.28,61.19,TRADE
QLD1,"2013/06/11 21:00:00",6234.87,58.58,TRADE
QLD1,"2013/06/11 21:30:00",6046.56,53.01,TRADE
QLD1,"2013/06/11 22:00:00",5860.12,51.58,TRADE
QLD1,"2013/06/11 22:30:00",5681.41,55.65,TRADE
QLD1,"2013/06/11 23:00:00",5590.43,55.44,TRADE
QLD1,"2013/06/11 23:30:00",5446.04,54.7,TRADE
QLD1,"2013/06/12 00:00:00",5261.59,54.87,TRADE
QLD1,"2013/06/12 00:30:00",5093.45,53.7,TRADE
QLD1,"2013/06/12 01:00:00",4949.94,51.45,TRADE
QLD1,"2013/06/12 01:30:00",4798.83,48.34,TRADE
QLD1,"2013/06/12 02:00:00",4661.46,45.83,TRADE
QLD1,"2013/06/12 02:30:00",4575.74,43.32,TRADE
QLD1,"2013/06/12 03:00:00",4510.19,42.44,TRADE
QLD1,"2013/06/12 03:30:00",4496.26,42.04,TRADE
QLD1,"2013/06/12 04:00:00",4525.51,42.74,TRADE
QLD1,"2013/06/12 04:30:00",4571.52,42.9,TRADE
QLD1,"2013/06/12 05:00:00",4637.12,43.48,TRADE
QLD1,"2013/06/12 05:30:00",4831.28,45.77,TRADE
QLD1,"2013/06/12 06:00:00",5057.19,48.81,TRADE
QLD1,"2013/06/12 06:30:00",5464.08,54.94,TRADE
QLD1,"2013/06/12 07:00:00",5841.22,57.68,TRADE
QLD1,"2013/06/12 07:30:00",6215.14,57.05,TRADE
QLD1,"2013/06/12 08:00:00",6286.15,60.55,TRADE
QLD1,"2013/06/12 08:30:00",6281.26,60.79,TRADE
QLD1,"2013/06/12 09:00:00",6231.5,59.92,TRADE
QLD1,"2013/06/12 09:30:00",6214.52,60.66,TRADE
QLD1,"2013/06/12 10:00:00",6193.96,61.26,TRADE
QLD1,"2013/06/12 10:30:00",6147.3,58.98,TRADE
QLD1,"2013/06/12 11:00:00",6144.98,61.87,TRADE
QLD1,"2013/06/12 11:30:00",6126.61,61.24,TRADE
QLD1,"2013/06/12 12:00:00",6133.84,59.95,TRADE
QLD1,"2013/06/12 12:30:00",6099.11,59.94,TRADE
QLD1,"2013/06/12 13:00:00",6065.24,59.91,TRADE
QLD1,"2013/06/12 13:30:00",6073.03,59.8,TRADE
QLD1,"2013/06/12 14:00:00",6110.17,59.88,TRADE
QLD1,"2013/06/12 14:30:00",6100.12,59.82,TRADE
QLD1,"2013/06/12 15:00:00",6123.52,57.94,TRADE
QLD1,"2013/06/12 15:30:00",6121.86,58.58,TRADE
QLD1,"2013/06/12 16:00:00",6224.82,60.11,TRADE
QLD1,"2013/06/12 16:30:00",6340.77,59.24,TRADE
QLD1,"2013/06/12 17:00:00",6507.24,58.72,TRADE
QLD1,"2013/06/12 17:30:00",6739.62,67.01,TRADE
QLD1,"2013/06/12 18:00:00",6768.46,90.31,TRADE
QLD1,"2013/06/12 18:30:00",6693.14,71,TRADE
QLD1,"2013/06/12 19:00:00",6638.21,65.43,TRADE
QLD1,"2013/06/12 19:30:00",6515.7,60.11,TRADE
QLD1,"2013/06/12 20:00:00",6427.01,58.19,TRADE
QLD1,"2013/06/12 20:30:00",6464.29,58.82,TRADE
QLD1,"2013/06/12 21:00:00",6235.85,58.29,TRADE
QLD1,"2013/06/12 21:30:00",6086.59,56.89,TRADE
QLD1,"2013/06/12 22:00:00",5911.62,52.99,TRADE
QLD1,"2013/06/12 22:30:00",5773.8,63.89,TRADE
QLD1,"2013/06/12 23:00:00",5599.08,59.12,TRADE
QLD1,"2013/06/12 23:30:00",5482.22,56.86,TRADE
QLD1,"2013/06/13 00:00:00",5304.36,55.86,TRADE
QLD1,"2013/06/13 00:30:00",5152.21,52.68,TRADE
QLD1,"2013/06/13 01:00:00",4932.52,49.35,TRADE
QLD1,"2013/06/13 01:30:00",4769.22,47.13,TRADE
QLD1,"2013/06/13 02:00:00",4625.09,44.02,TRADE
QLD1,"2013/06/13 02:30:00",4578.76,41.89,TRADE
QLD1,"2013/06/13 03:00:00",4529.29,41.9,TRADE
QLD1,"2013/06/13 03:30:00",4527.61,42.51,TRADE
QLD1,"2013/06/13 04:00:00",4495.89,42.25,TRADE
QLD1,"2013/06/13 04:30:00",4546.11,43.56,TRADE
QLD1,"2013/06/13 05:00:00",4592.78,44.54,TRADE
QLD1,"2013/06/13 05:30:00",4828.46,47.66,TRADE
QLD1,"2013/06/13 06:00:00",5060.09,49.01,TRADE
QLD1,"2013/06/13 06:30:00",5440.2,52.93,TRADE
QLD1,"2013/06/13 07:00:00",5831.85,67.77,TRADE
QLD1,"2013/06/13 07:30:00",6177.44,59.3,TRADE
QLD1,"2013/06/13 08:00:00",6269.23,60.41,TRADE
QLD1,"2013/06/13 08:30:00",6208.16,60.75,TRADE
QLD1,"2013/06/13 09:00:00",6077.35,59.99,TRADE
QLD1,"2013/06/13 09:30:00",6047.43,59.65,TRADE
QLD1,"2013/06/13 10:00:00",6014.17,58.61,TRADE
QLD1,"2013/06/13 10:30:00",6003.41,59.33,TRADE
QLD1,"2013/06/13 11:00:00",6018.62,59.92,TRADE
QLD1,"2013/06/13 11:30:00",5996.73,59.99,TRADE
QLD1,"2013/06/13 12:00:00",5980.59,59.55,TRADE
QLD1,"2013/06/13 12:30:00",5979.21,58.92,TRADE
QLD1,"2013/06/13 13:00:00",5981.49,58.39,TRADE
QLD1,"2013/06/13 13:30:00",6044.33,59.21,TRADE
QLD1,"2013/06/13 14:00:00",6053.01,59.46,TRADE
QLD1,"2013/06/13 14:30:00",6062.92,59.72,TRADE
QLD1,"2013/06/13 15:00:00",6070.16,59.45,TRADE
QLD1,"2013/06/13 15:30:00",6084.17,59.98,TRADE
QLD1,"2013/06/13 16:00:00",6121.29,59.99,TRADE
QLD1,"2013/06/13 16:30:00",6232.14,54.29,TRADE
QLD1,"2013/06/13 17:00:00",6391.28,56.26,TRADE
QLD1,"2013/06/13 17:30:00",6575.03,58.89,TRADE
QLD1,"2013/06/13 18:00:00",6671.6,65.23,TRADE
QLD1,"2013/06/13 18:30:00",6681.29,61.82,TRADE
QLD1,"2013/06/13 19:00:00",6632.31,59.59,TRADE
QLD1,"2013/06/13 19:30:00",6521.21,59.19,TRADE
QLD1,"2013/06/13 20:00:00",6448.94,57.71,TRADE
QLD1,"2013/06/13 20:30:00",6471.71,58.62,TRADE
QLD1,"2013/06/13 21:00:00",6302.27,55.38,TRADE
QLD1,"2013/06/13 21:30:00",6115.28,53.99,TRADE
QLD1,"2013/06/13 22:00:00",5931.41,52.31,TRADE
QLD1,"2013/06/13 22:30:00",5696,60.15,TRADE
QLD1,"2013/06/13 23:00:00",5568.35,58.67,TRADE
QLD1,"2013/06/13 23:30:00",5468.07,58.58,TRADE
QLD1,"2013/06/14 00:00:00",5310.22,54.58,TRADE
QLD1,"2013/06/14 00:30:00",5099.65,51.12,TRADE
QLD1,"2013/06/14 01:00:00",4948.12,49.61,TRADE
QLD1,"2013/06/14 01:30:00",4744.42,46.94,TRADE
QLD1,"2013/06/14 02:00:00",4671.71,44.88,TRADE
QLD1,"2013/06/14 02:30:00",4591.64,43.1,TRADE
QLD1,"2013/06/14 03:00:00",4518.14,43.12,TRADE
QLD1,"2013/06/14 03:30:00",4522.03,43.36,TRADE
QLD1,"2013/06/14 04:00:00",4510.97,42.98,TRADE
QLD1,"2013/06/14 04:30:00",4617.45,43.91,TRADE
QLD1,"2013/06/14 05:00:00",4697.65,44.65,TRADE
QLD1,"2013/06/14 05:30:00",4902.4,47.16,TRADE
QLD1,"2013/06/14 06:00:00",5162.27,48.62,TRADE
QLD1,"2013/06/14 06:30:00",5532.35,54.05,TRADE
QLD1,"2013/06/14 07:00:00",5905.18,82.69,TRADE
QLD1,"2013/06/14 07:30:00",6282.72,57.78,TRADE
QLD1,"2013/06/14 08:00:00",6305.52,59.99,TRADE
QLD1,"2013/06/14 08:30:00",6140.37,59.45,TRADE
QLD1,"2013/06/14 09:00:00",6043.2,55.62,TRADE
QLD1,"2013/06/14 09:30:00",5978.95,56.24,TRADE
QLD1,"2013/06/14 10:00:00",5855.99,55.02,TRADE
QLD1,"2013/06/14 10:30:00",5801.55,55.74,TRADE
QLD1,"2013/06/14 11:00:00",5730.41,54.15,TRADE
QLD1,"2013/06/14 11:30:00",5682.4,54.1,TRADE
QLD1,"2013/06/14 12:00:00",5650.02,52.2,TRADE
QLD1,"2013/06/14 12:30:00",5627.63,51.96,TRADE
QLD1,"2013/06/14 13:00:00",5620.47,51.56,TRADE
QLD1,"2013/06/14 13:30:00",5666.19,51.83,TRADE
QLD1,"2013/06/14 14:00:00",5688.32,52.09,TRADE
QLD1,"2013/06/14 14:30:00",5723.04,52.48,TRADE
QLD1,"2013/06/14 15:00:00",5729.34,52.7,TRADE
QLD1,"2013/06/14 15:30:00",5805.62,51.17,TRADE
QLD1,"2013/06/14 16:00:00",5861.48,50.09,TRADE
QLD1,"2013/06/14 16:30:00",6021.79,51.55,TRADE
QLD1,"2013/06/14 17:00:00",6190.85,51.87,TRADE
QLD1,"2013/06/14 17:30:00",6387,52.51,TRADE
QLD1,"2013/06/14 18:00:00",6522,52.16,TRADE
QLD1,"2013/06/14 18:30:00",6478.69,52.75,TRADE
QLD1,"2013/06/14 19:00:00",6422.78,52.6,TRADE
QLD1,"2013/06/14 19:30:00",6343.6,54.39,TRADE
QLD1,"2013/06/14 20:00:00",6386.87,56.06,TRADE
QLD1,"2013/06/14 20:30:00",6380.54,55.67,TRADE
QLD1,"2013/06/14 21:00:00",6252.08,55.89,TRADE
QLD1,"2013/06/14 21:30:00",6130.06,52.58,TRADE
QLD1,"2013/06/14 22:00:00",6019.53,50.95,TRADE
QLD1,"2013/06/14 22:30:00",5843.99,59.44,TRADE
QLD1,"2013/06/14 23:00:00",5731.49,60.11,TRADE
QLD1,"2013/06/14 23:30:00",5620.98,60.45,TRADE
QLD1,"2013/06/15 00:00:00",5439.22,60.09,TRADE
QLD1,"2013/06/15 00:30:00",5234.38,56.54,TRADE
QLD1,"2013/06/15 01:00:00",5043.77,53.38,TRADE
QLD1,"2013/06/15 01:30:00",4830.9,52.89,TRADE
QLD1,"2013/06/15 02:00:00",4699.63,52.26,TRADE
QLD1,"2013/06/15 02:30:00",4569.7,51.45,TRADE
QLD1,"2013/06/15 03:00:00",4511.06,50.84,TRADE
QLD1,"2013/06/15 03:30:00",4482.64,49.72,TRADE
QLD1,"2013/06/15 04:00:00",4475.4,47.13,TRADE
QLD1,"2013/06/15 04:30:00",4513.19,47.01,TRADE
QLD1,"2013/06/15 05:00:00",4569.87,47.09,TRADE
QLD1,"2013/06/15 05:30:00",4641.4,48.3,TRADE
QLD1,"2013/06/15 06:00:00",4735.72,48.77,TRADE
QLD1,"2013/06/15 06:30:00",4913.28,48.74,TRADE
QLD1,"2013/06/15 07:00:00",5077.25,51.08,TRADE
QLD1,"2013/06/15 07:30:00",5326.67,56.29,TRADE
QLD1,"2013/06/15 08:00:00",5483.37,55.08,TRADE
QLD1,"2013/06/15 08:30:00",5605.8,56.51,TRADE
QLD1,"2013/06/15 09:00:00",5616.82,58.24,TRADE
QLD1,"2013/06/15 09:30:00",5648.86,59.13,TRADE
QLD1,"2013/06/15 10:00:00",5500.16,55.09,TRADE
QLD1,"2013/06/15 10:30:00",5404.92,53.11,TRADE
QLD1,"2013/06/15 11:00:00",5293.26,52.97,TRADE
QLD1,"2013/06/15 11:30:00",5228.54,52.93,TRADE
QLD1,"2013/06/15 12:00:00",5166.58,52.96,TRADE
QLD1,"2013/06/15 12:30:00",5097.44,52.92,TRADE
QLD1,"2013/06/15 13:00:00",5063.39,52.69,TRADE
QLD1,"2013/06/15 13:30:00",5056.73,52.77,TRADE
QLD1,"2013/06/15 14:00:00",5037.69,52.93,TRADE
QLD1,"2013/06/15 14:30:00",5074.15,52.95,TRADE
QLD1,"2013/06/15 15:00:00",5090.55,52.95,TRADE
QLD1,"2013/06/15 15:30:00",5195.25,54.53,TRADE
QLD1,"2013/06/15 16:00:00",5334.5,54.18,TRADE
QLD1,"2013/06/15 16:30:00",5536.73,51.93,TRADE
QLD1,"2013/06/15 17:00:00",5817.71,54.64,TRADE
QLD1,"2013/06/15 17:30:00",6139.02,59.79,TRADE
QLD1,"2013/06/15 18:00:00",6276.43,67.76,TRADE
QLD1,"2013/06/15 18:30:00",6275.28,63.29,TRADE
QLD1,"2013/06/15 19:00:00",6263.54,60.02,TRADE
QLD1,"2013/06/15 19:30:00",6210.42,58.51,TRADE
QLD1,"2013/06/15 20:00:00",6164.23,59.93,TRADE
QLD1,"2013/06/15 20:30:00",6193.32,60.32,TRADE
QLD1,"2013/06/15 21:00:00",6090.34,59.41,TRADE
QLD1,"2013/06/15 21:30:00",5962.94,55.67,TRADE
QLD1,"2013/06/15 22:00:00",5818.86,57.19,TRADE
QLD1,"2013/06/15 22:30:00",5646.9,60.03,TRADE
QLD1,"2013/06/15 23:00:00",5599.53,59.96,TRADE
QLD1,"2013/06/15 23:30:00",5506.64,59.68,TRADE
QLD1,"2013/06/16 00:00:00",5302.62,58.33,TRADE
QLD1,"2013/06/16 00:30:00",5163.56,53.79,TRADE
QLD1,"2013/06/16 01:00:00",5038.73,52.84,TRADE
QLD1,"2013/06/16 01:30:00",4799.27,52.36,TRADE
QLD1,"2013/06/16 02:00:00",4685.67,51.92,TRADE
QLD1,"2013/06/16 02:30:00",4541.46,50.71,TRADE
QLD1,"2013/06/16 03:00:00",4469.16,50.42,TRADE
QLD1,"2013/06/16 03:30:00",4439.38,48.81,TRADE
QLD1,"2013/06/16 04:00:00",4408,49.17,TRADE
QLD1,"2013/06/16 04:30:00",4452.02,50.41,TRADE
QLD1,"2013/06/16 05:00:00",4505.28,50.76,TRADE
QLD1,"2013/06/16 05:30:00",4567.04,48.49,TRADE
QLD1,"2013/06/16 06:00:00",4662.32,49.16,TRADE
QLD1,"2013/06/16 06:30:00",4754.47,48.33,TRADE
QLD1,"2013/06/16 07:00:00",4832.16,48,TRADE
QLD1,"2013/06/16 07:30:00",5053.44,50.42,TRADE
QLD1,"2013/06/16 08:00:00",5209.13,54.38,TRADE
QLD1,"2013/06/16 08:30:00",5346,54.77,TRADE
QLD1,"2013/06/16 09:00:00",5389.45,57.23,TRADE
QLD1,"2013/06/16 09:30:00",5373.87,56.19,TRADE
QLD1,"2013/06/16 10:00:00",5301.33,53.12,TRADE
QLD1,"2013/06/16 10:30:00",5241.64,52.93,TRADE
QLD1,"2013/06/16 11:00:00",5093.44,52.8,TRADE
QLD1,"2013/06/16 11:30:00",5027.87,52.5,TRADE
QLD1,"2013/06/16 12:00:00",5028.73,52.66,TRADE
QLD1,"2013/06/16 12:30:00",4977.89,51.92,TRADE
QLD1,"2013/06/16 13:00:00",4938.48,50.66,TRADE
QLD1,"2013/06/16 13:30:00",4899.99,48.38,TRADE
QLD1,"2013/06/16 14:00:00",4889.56,49.21,TRADE
QLD1,"2013/06/16 14:30:00",4982.67,51.67,TRADE
QLD1,"2013/06/16 15:00:00",5004.51,51.89,TRADE
QLD1,"2013/06/16 15:30:00",5119.22,52.63,TRADE
QLD1,"2013/06/16 16:00:00",5219.55,52.84,TRADE
QLD1,"2013/06/16 16:30:00",5449.06,52.87,TRADE
QLD1,"2013/06/16 17:00:00",5796.04,58,TRADE
QLD1,"2013/06/16 17:30:00",6125.64,68.55,TRADE
QLD1,"2013/06/16 18:00:00",6325.25,98.63,TRADE
QLD1,"2013/06/16 18:30:00",6356.51,85.73,TRADE
QLD1,"2013/06/16 19:00:00",6321.73,72.35,TRADE
QLD1,"2013/06/16 19:30:00",6240.74,68.35,TRADE
QLD1,"2013/06/16 20:00:00",6274.42,61.53,TRADE
QLD1,"2013/06/16 20:30:00",6304.8,75.08,TRADE
QLD1,"2013/06/16 21:00:00",6173.16,63.69,TRADE
QLD1,"2013/06/16 21:30:00",6053.23,56.13,TRADE
QLD1,"2013/06/16 22:00:00",5849.64,55.5,TRADE
QLD1,"2013/06/16 22:30:00",5621.59,61.62,TRADE
QLD1,"2013/06/16 23:00:00",5464.04,57.45,TRADE
QLD1,"2013/06/16 23:30:00",5339.51,56.35,TRADE
QLD1,"2013/06/17 00:00:00",5195.39,55.41,TRADE
QLD1,"2013/06/17 00:30:00",5080.13,54.83,TRADE
QLD1,"2013/06/17 01:00:00",4960.04,53.51,TRADE
QLD1,"2013/06/17 01:30:00",4813.87,52.67,TRADE
QLD1,"2013/06/17 02:00:00",4702.57,52.33,TRADE
QLD1,"2013/06/17 02:30:00",4612.97,50.38,TRADE
QLD1,"2013/06/17 03:00:00",4519.45,50.4,TRADE
QLD1,"2013/06/17 03:30:00",4493.47,52.18,TRADE
QLD1,"2013/06/17 04:00:00",4532.65,52.07,TRADE
QLD1,"2013/06/17 04:30:00",4581.07,52.75,TRADE
QLD1,"2013/06/17 05:00:00",4702.85,50.65,TRADE
QLD1,"2013/06/17 05:30:00",4963.62,55.01,TRADE
QLD1,"2013/06/17 06:00:00",5299.43,53.69,TRADE
QLD1,"2013/06/17 06:30:00",5776.4,59.6,TRADE
QLD1,"2013/06/17 07:00:00",6228.78,72.21,TRADE
QLD1,"2013/06/17 07:30:00",6627.58,4334.62,TRADE
QLD1,"2013/06/17 08:00:00",6607.82,73.22,TRADE
QLD1,"2013/06/17 08:30:00",6484.86,59.9,TRADE
QLD1,"2013/06/17 09:00:00",6365.59,60.73,TRADE
QLD1,"2013/06/17 09:30:00",6224.86,61.63,TRADE
QLD1,"2013/06/17 10:00:00",6031.42,61.03,TRADE
QLD1,"2013/06/17 10:30:00",5920.58,59.98,TRADE
QLD1,"2013/06/17 11:00:00",5870.9,60.01,TRADE
QLD1,"2013/06/17 11:30:00",5788.47,59.8,TRADE
QLD1,"2013/06/17 12:00:00",5745.73,59.45,TRADE
QLD1,"2013/06/17 12:30:00",5701.5,59.04,TRADE
QLD1,"2013/06/17 13:00:00",5636.73,53.21,TRADE
QLD1,"2013/06/17 13:30:00",5666.25,57.47,TRADE
QLD1,"2013/06/17 14:00:00",5725.21,59.46,TRADE
QLD1,"2013/06/17 14:30:00",5746.82,59.66,TRADE
QLD1,"2013/06/17 15:00:00",5747.86,55.12,TRADE
QLD1,"2013/06/17 15:30:00",5773.89,57.09,TRADE
QLD1,"2013/06/17 16:00:00",5904.77,60.03,TRADE
QLD1,"2013/06/17 16:30:00",6078.12,55.59,TRADE
QLD1,"2013/06/17 17:00:00",6425.09,67.28,TRADE
QLD1,"2013/06/17 17:30:00",6811.14,2222.33,TRADE
QLD1,"2013/06/17 18:00:00",6909.09,80,TRADE
QLD1,"2013/06/17 18:30:00",6895.31,73.73,TRADE
QLD1,"2013/06/17 19:00:00",6859.8,78.52,TRADE
QLD1,"2013/06/17 19:30:00",6788.56,63.56,TRADE
QLD1,"2013/06/17 20:00:00",6777.66,70.74,TRADE
QLD1,"2013/06/17 20:30:00",6758.99,66.39,TRADE
QLD1,"2013/06/17 21:00:00",6584.75,70.79,TRADE
QLD1,"2013/06/17 21:30:00",6473.27,70.96,TRADE
QLD1,"2013/06/17 22:00:00",6231.74,58.69,TRADE
QLD1,"2013/06/17 22:30:00",5991.5,82.24,TRADE
QLD1,"2013/06/17 23:00:00",5801.84,73.77,TRADE
QLD1,"2013/06/17 23:30:00",5668.07,63.36,TRADE
QLD1,"2013/06/18 00:00:00",5477.45,59.13,TRADE
QLD1,"2013/06/18 00:30:00",5335.26,61.57,TRADE
QLD1,"2013/06/18 01:00:00",5196.27,59.74,TRADE
QLD1,"2013/06/18 01:30:00",4989.22,56.23,TRADE
QLD1,"2013/06/18 02:00:00",4853.37,53.6,TRADE
QLD1,"2013/06/18 02:30:00",4720.42,52.86,TRADE
QLD1,"2013/06/18 03:00:00",4674.43,52.82,TRADE
QLD1,"2013/06/18 03:30:00",4623.15,52.86,TRADE
QLD1,"2013/06/18 04:00:00",4649.93,52.97,TRADE
QLD1,"2013/06/18 04:30:00",4723.2,52.88,TRADE
QLD1,"2013/06/18 05:00:00",4820.43,53.18,TRADE
QLD1,"2013/06/18 05:30:00",5128.25,56.29,TRADE
QLD1,"2013/06/18 06:00:00",5446.57,57.02,TRADE
QLD1,"2013/06/18 06:30:00",5960.62,57.9,TRADE
QLD1,"2013/06/18 07:00:00",6410.94,77.35,TRADE
QLD1,"2013/06/18 07:30:00",6804.21,95.52,TRADE
QLD1,"2013/06/18 08:00:00",6788.45,60.11,TRADE
QLD1,"2013/06/18 08:30:00",6545.71,58.49,TRADE
QLD1,"2013/06/18 09:00:00",6386.43,56.18,TRADE
QLD1,"2013/06/18 09:30:00",6267.68,58.01,TRADE
QLD1,"2013/06/18 10:00:00",6067,58.69,TRADE
QLD1,"2013/06/18 10:30:00",5920.32,61.26,TRADE
QLD1,"2013/06/18 11:00:00",5820.87,58.24,TRADE
QLD1,"2013/06/18 11:30:00",5733.76,59.06,TRADE
QLD1,"2013/06/18 12:00:00",5663.92,57.78,TRADE
QLD1,"2013/06/18 12:30:00",5629.11,57.66,TRADE
QLD1,"2013/06/18 13:00:00",5615.14,57.3,TRADE
QLD1,"2013/06/18 13:30:00",5614.57,57.66,TRADE
QLD1,"2013/06/18 14:00:00",5643.45,57.84,TRADE
QLD1,"2013/06/18 14:30:00",5641.72,57.44,TRADE
QLD1,"2013/06/18 15:00:00",5722.19,57.06,TRADE
QLD1,"2013/06/18 15:30:00",5769.8,56.52,TRADE
QLD1,"2013/06/18 16:00:00",5893.45,59.38,TRADE
QLD1,"2013/06/18 16:30:00",6089.45,58.2,TRADE
QLD1,"2013/06/18 17:00:00",6485.08,56.23,TRADE
QLD1,"2013/06/18 17:30:00",6803.07,66.82,TRADE
QLD1,"2013/06/18 18:00:00",7051.46,60.67,TRADE
QLD1,"2013/06/18 18:30:00",7053.2,60.6,TRADE
QLD1,"2013/06/18 19:00:00",7052.97,59.08,TRADE
QLD1,"2013/06/18 19:30:00",6951.26,60.39,TRADE
QLD1,"2013/06/18 20:00:00",6949.42,62.14,TRADE
QLD1,"2013/06/18 20:30:00",6935.66,66.67,TRADE
QLD1,"2013/06/18 21:00:00",6790.25,63.9,TRADE
QLD1,"2013/06/18 21:30:00",6601.04,61.34,TRADE
QLD1,"2013/06/18 22:00:00",6343.88,60.17,TRADE
QLD1,"2013/06/18 22:30:00",6073.65,90.58,TRADE
QLD1,"2013/06/18 23:00:00",5876.77,63.09,TRADE
QLD1,"2013/06/18 23:30:00",5668.39,62.01,TRADE
QLD1,"2013/06/19 00:00:00",5425.17,58.33,TRADE
QLD1,"2013/06/19 00:30:00",5241.05,58.56,TRADE
QLD1,"2013/06/19 01:00:00",5113.75,58.29,TRADE
QLD1,"2013/06/19 01:30:00",4935.06,55.49,TRADE
QLD1,"2013/06/19 02:00:00",4796.34,52.77,TRADE
QLD1,"2013/06/19 02:30:00",4724.86,52.85,TRADE
QLD1,"2013/06/19 03:00:00",4681,51.91,TRADE
QLD1,"2013/06/19 03:30:00",4644.64,49.83,TRADE
QLD1,"2013/06/19 04:00:00",4629.77,49.07,TRADE
QLD1,"2013/06/19 04:30:00",4706.35,52.55,TRADE
QLD1,"2013/06/19 05:00:00",4800.63,53.03,TRADE
QLD1,"2013/06/19 05:30:00",5106.44,56.64,TRADE
QLD1,"2013/06/19 06:00:00",5444.3,53.37,TRADE
QLD1,"2013/06/19 06:30:00",5989.41,58.22,TRADE
QLD1,"2013/06/19 07:00:00",6428.24,60.27,TRADE
QLD1,"2013/06/19 07:30:00",6781.47,86.91,TRADE
QLD1,"2013/06/19 08:00:00",6789.66,89.38,TRADE
QLD1,"2013/06/19 08:30:00",6566.97,60.28,TRADE
QLD1,"2013/06/19 09:00:00",6388.24,62.53,TRADE
QLD1,"2013/06/19 09:30:00",6231.15,59.04,TRADE
QLD1,"2013/06/19 10:00:00",6033.64,55.55,TRADE
QLD1,"2013/06/19 10:30:00",5857.67,54.99,TRADE
QLD1,"2013/06/19 11:00:00",5772.33,54.79,TRADE
QLD1,"2013/06/19 11:30:00",5688.23,55.32,TRADE
QLD1,"2013/06/19 12:00:00",5649.8,53.65,TRADE
QLD1,"2013/06/19 12:30:00",5615.42,52.98,TRADE
QLD1,"2013/06/19 13:00:00",5583.12,52.99,TRADE
QLD1,"2013/06/19 13:30:00",5583.95,53.16,TRADE
QLD1,"2013/06/19 14:00:00",5628.82,55.9,TRADE
QLD1,"2013/06/19 14:30:00",5681.73,58.9,TRADE
QLD1,"2013/06/19 15:00:00",5705.67,53.63,TRADE
QLD1,"2013/06/19 15:30:00",5786.24,57.34,TRADE
QLD1,"2013/06/19 16:00:00",5908.54,59.53,TRADE
QLD1,"2013/06/19 16:30:00",6101.8,53.49,TRADE
QLD1,"2013/06/19 17:00:00",6444.87,67.15,TRADE
QLD1,"2013/06/19 17:30:00",6823.62,65.66,TRADE
QLD1,"2013/06/19 18:00:00",7030.44,96.38,TRADE
QLD1,"2013/06/19 18:30:00",7013.39,74.99,TRADE
QLD1,"2013/06/19 19:00:00",7043.98,66.65,TRADE
QLD1,"2013/06/19 19:30:00",6968.88,57.91,TRADE
QLD1,"2013/06/19 20:00:00",6925.62,59.93,TRADE
QLD1,"2013/06/19 20:30:00",6924.21,83.9,TRADE
QLD1,"2013/06/19 21:00:00",6727.85,62.88,TRADE
QLD1,"2013/06/19 21:30:00",6526.04,59.77,TRADE
QLD1,"2013/06/19 22:00:00",6266.91,56.84,TRADE
QLD1,"2013/06/19 22:30:00",6042.46,78.02,TRADE
QLD1,"2013/06/19 23:00:00",5799.26,60.35,TRADE
QLD1,"2013/06/19 23:30:00",5664.54,62.61,TRADE
QLD1,"2013/06/20 00:00:00",5383.07,57.71,TRADE
QLD1,"2013/06/20 00:30:00",5238.62,58.91,TRADE
QLD1,"2013/06/20 01:00:00",5121.83,59.07,TRADE
QLD1,"2013/06/20 01:30:00",4890.82,55.04,TRADE
QLD1,"2013/06/20 02:00:00",4771.9,53.15,TRADE
QLD1,"2013/06/20 02:30:00",4660.72,52.9,TRADE
QLD1,"2013/06/20 03:00:00",4595.09,52.28,TRADE
QLD1,"2013/06/20 03:30:00",4531.17,50.14,TRADE
QLD1,"2013/06/20 04:00:00",4537.42,50.68,TRADE
QLD1,"2013/06/20 04:30:00",4584.19,52.92,TRADE
QLD1,"2013/06/20 05:00:00",4745.66,53.05,TRADE
QLD1,"2013/06/20 05:30:00",4934.63,52.39,TRADE
QLD1,"2013/06/20 06:00:00",5270.46,56.73,TRADE
QLD1,"2013/06/20 06:30:00",5818.02,66.73,TRADE
QLD1,"2013/06/20 07:00:00",6190.08,89.89,TRADE
QLD1,"2013/06/20 07:30:00",6562.97,1916.41,TRADE
QLD1,"2013/06/20 08:00:00",6581.65,1658.51,TRADE
QLD1,"2013/06/20 08:30:00",6406.37,89.98,TRADE
QLD1,"2013/06/20 09:00:00",6324.87,81.09,TRADE
QLD1,"2013/06/20 09:30:00",6278.51,73.49,TRADE
QLD1,"2013/06/20 10:00:00",6153.95,64.36,TRADE
QLD1,"2013/06/20 10:30:00",6047.49,74.29,TRADE
QLD1,"2013/06/20 11:00:00",5932.55,71.06,TRADE
QLD1,"2013/06/20 11:30:00",5838.23,62.62,TRADE
QLD1,"2013/06/20 12:00:00",5771.57,54.91,TRADE
QLD1,"2013/06/20 12:30:00",5800.91,58.34,TRADE
QLD1,"2013/06/20 13:00:00",5823.2,57.68,TRADE
QLD1,"2013/06/20 13:30:00",5842.03,58.93,TRADE
QLD1,"2013/06/20 14:00:00",5885.87,57.07,TRADE
QLD1,"2013/06/20 14:30:00",5879.39,54.46,TRADE
QLD1,"2013/06/20 15:00:00",5852.13,55.24,TRADE
QLD1,"2013/06/20 15:30:00",5915.5,56.73,TRADE
QLD1,"2013/06/20 16:00:00",6054.5,56.3,TRADE
QLD1,"2013/06/20 16:30:00",6259.15,59.52,TRADE
QLD1,"2013/06/20 17:00:00",6547.07,63.82,TRADE
QLD1,"2013/06/20 17:30:00",6864.88,20.24,TRADE
QLD1,"2013/06/20 18:00:00",6977.54,99.56,TRADE
QLD1,"2013/06/20 18:30:00",6960.58,51.86,TRADE
QLD1,"2013/06/20 19:00:00",6966.19,-9.68,TRADE
QLD1,"2013/06/20 19:30:00",6893.99,59.76,TRADE
QLD1,"2013/06/20 20:00:00",6839.77,59.87,TRADE
QLD1,"2013/06/20 20:30:00",6840.22,73.02,TRADE
QLD1,"2013/06/20 21:00:00",6728.13,67.58,TRADE
QLD1,"2013/06/20 21:30:00",6440.84,59.42,TRADE
QLD1,"2013/06/20 22:00:00",6209.82,57.7,TRADE
QLD1,"2013/06/20 22:30:00",5984.44,78.38,TRADE
QLD1,"2013/06/20 23:00:00",5746.13,60.39,TRADE
QLD1,"2013/06/20 23:30:00",5614.96,59.66,TRADE
QLD1,"2013/06/21 00:00:00",5426.71,57.35,TRADE
QLD1,"2013/06/21 00:30:00",5236.26,56.64,TRADE
QLD1,"2013/06/21 01:00:00",5112.14,55.2,TRADE
QLD1,"2013/06/21 01:30:00",4901,52.25,TRADE
QLD1,"2013/06/21 02:00:00",4761.39,51.62,TRADE
QLD1,"2013/06/21 02:30:00",4686.81,51.57,TRADE
QLD1,"2013/06/21 03:00:00",4615.83,49.42,TRADE
QLD1,"2013/06/21 03:30:00",4592.89,47.37,TRADE
QLD1,"2013/06/21 04:00:00",4584.08,45.11,TRADE
QLD1,"2013/06/21 04:30:00",4626.63,45.37,TRADE
QLD1,"2013/06/21 05:00:00",4724.28,49.29,TRADE
QLD1,"2013/06/21 05:30:00",4955.85,52.82,TRADE
QLD1,"2013/06/21 06:00:00",5249.91,53.41,TRADE
QLD1,"2013/06/21 06:30:00",5710.93,52.56,TRADE
QLD1,"2013/06/21 07:00:00",6137.23,52.83,TRADE
QLD1,"2013/06/21 07:30:00",6594.36,51.76,TRADE
QLD1,"2013/06/21 08:00:00",6735.51,60.68,TRADE
QLD1,"2013/06/21 08:30:00",6722.56,68.99,TRADE
QLD1,"2013/06/21 09:00:00",6696.02,60.37,TRADE
QLD1,"2013/06/21 09:30:00",6681.89,72.24,TRADE
QLD1,"2013/06/21 10:00:00",6637.27,61.04,TRADE
QLD1,"2013/06/21 10:30:00",6594.66,60.91,TRADE
QLD1,"2013/06/21 11:00:00",6573.58,63.75,TRADE
QLD1,"2013/06/21 11:30:00",6549.97,66.1,TRADE
QLD1,"2013/06/21 12:00:00",6569.17,63.02,TRADE
QLD1,"2013/06/21 12:30:00",6576.19,72.56,TRADE
QLD1,"2013/06/21 13:00:00",6574.84,68.84,TRADE
QLD1,"2013/06/21 13:30:00",6543.38,66,TRADE
QLD1,"2013/06/21 14:00:00",6470.03,65.39,TRADE
QLD1,"2013/06/21 14:30:00",6407.21,59.11,TRADE
QLD1,"2013/06/21 15:00:00",6398.89,58.79,TRADE
QLD1,"2013/06/21 15:30:00",6383.98,58.98,TRADE
QLD1,"2013/06/21 16:00:00",6462.33,61.84,TRADE
QLD1,"2013/06/21 16:30:00",6667.73,63.63,TRADE
QLD1,"2013/06/21 17:00:00",6903.05,80.59,TRADE
QLD1,"2013/06/21 17:30:00",7082.25,71.98,TRADE
QLD1,"2013/06/21 18:00:00",7137.97,94.64,TRADE
QLD1,"2013/06/21 18:30:00",7057.06,93.34,TRADE
QLD1,"2013/06/21 19:00:00",7057.83,64.22,TRADE
QLD1,"2013/06/21 19:30:00",6948.03,63.08,TRADE
QLD1,"2013/06/21 20:00:00",6936.56,60.24,TRADE
QLD1,"2013/06/21 20:30:00",6938.36,63.89,TRADE
QLD1,"2013/06/21 21:00:00",6759.78,64.65,TRADE
QLD1,"2013/06/21 21:30:00",6630.86,61.51,TRADE
QLD1,"2013/06/21 22:00:00",6410.01,58.67,TRADE
QLD1,"2013/06/21 22:30:00",6093.03,84.15,TRADE
QLD1,"2013/06/21 23:00:00",5877.19,74.5,TRADE
QLD1,"2013/06/21 23:30:00",5758.9,82.18,TRADE
QLD1,"2013/06/22 00:00:00",5562.52,86.95,TRADE
QLD1,"2013/06/22 00:30:00",5379.43,62.69,TRADE
QLD1,"2013/06/22 01:00:00",5223.12,61.38,TRADE
QLD1,"2013/06/22 01:30:00",4986.97,56.87,TRADE
QLD1,"2013/06/22 02:00:00",4840.54,55.17,TRADE
QLD1,"2013/06/22 02:30:00",4675.3,52.71,TRADE
QLD1,"2013/06/22 03:00:00",4618.34,52.58,TRADE
QLD1,"2013/06/22 03:30:00",4611.43,52.41,TRADE
QLD1,"2013/06/22 04:00:00",4572.52,51.62,TRADE
QLD1,"2013/06/22 04:30:00",4609.13,52.79,TRADE
QLD1,"2013/06/22 05:00:00",4658.55,52.92,TRADE
QLD1,"2013/06/22 05:30:00",4738.37,52.94,TRADE
QLD1,"2013/06/22 06:00:00",4873.64,52.95,TRADE
QLD1,"2013/06/22 06:30:00",5034.36,53.33,TRADE
QLD1,"2013/06/22 07:00:00",5257.67,54.9,TRADE
QLD1,"2013/06/22 07:30:00",5537.47,60.44,TRADE
QLD1,"2013/06/22 08:00:00",5727.45,81.17,TRADE
QLD1,"2013/06/22 08:30:00",5864.09,89.63,TRADE
QLD1,"2013/06/22 09:00:00",5893.27,91.77,TRADE
QLD1,"2013/06/22 09:30:00",5847.64,95.15,TRADE
QLD1,"2013/06/22 10:00:00",5700.03,78.89,TRADE
QLD1,"2013/06/22 10:30:00",5563.16,71.53,TRADE
QLD1,"2013/06/22 11:00:00",5449.72,62.39,TRADE
QLD1,"2013/06/22 11:30:00",5280.22,60.95,TRADE
QLD1,"2013/06/22 12:00:00",5240.65,62.46,TRADE
QLD1,"2013/06/22 12:30:00",5165.06,57.32,TRADE
QLD1,"2013/06/22 13:00:00",5115.94,57.27,TRADE
QLD1,"2013/06/22 13:30:00",5058.55,59.89,TRADE
QLD1,"2013/06/22 14:00:00",5064.84,60.04,TRADE
QLD1,"2013/06/22 14:30:00",5119.45,58.45,TRADE
QLD1,"2013/06/22 15:00:00",5139.5,59.4,TRADE
QLD1,"2013/06/22 15:30:00",5245.95,58.86,TRADE
QLD1,"2013/06/22 16:00:00",5385.77,70.69,TRADE
QLD1,"2013/06/22 16:30:00",5565.11,78.33,TRADE
QLD1,"2013/06/22 17:00:00",5858.27,89.74,TRADE
QLD1,"2013/06/22 17:30:00",6247.21,92.79,TRADE
QLD1,"2013/06/22 18:00:00",6407.64,170.51,TRADE
QLD1,"2013/06/22 18:30:00",6327.2,106.71,TRADE
QLD1,"2013/06/22 19:00:00",6344.06,97.88,TRADE
QLD1,"2013/06/22 19:30:00",6314.07,85.61,TRADE
QLD1,"2013/06/22 20:00:00",6319.15,81.53,TRADE
QLD1,"2013/06/22 20:30:00",6322.97,98.4,TRADE
QLD1,"2013/06/22 21:00:00",6212.56,88,TRADE
QLD1,"2013/06/22 21:30:00",6117.15,72.65,TRADE
QLD1,"2013/06/22 22:00:00",5987.15,68.94,TRADE
QLD1,"2013/06/22 22:30:00",5818.1,86.47,TRADE
QLD1,"2013/06/22 23:00:00",5736.19,88.97,TRADE
QLD1,"2013/06/22 23:30:00",5619.57,70.73,TRADE
QLD1,"2013/06/23 00:00:00",5425.18,58.69,TRADE
QLD1,"2013/06/23 00:30:00",5278.98,60.51,TRADE
QLD1,"2013/06/23 01:00:00",5154.56,61.38,TRADE
QLD1,"2013/06/23 01:30:00",4981.32,59.86,TRADE
QLD1,"2013/06/23 02:00:00",4821.24,53.72,TRADE
QLD1,"2013/06/23 02:30:00",4704.7,53.4,TRADE
QLD1,"2013/06/23 03:00:00",4614.89,53.72,TRADE
QLD1,"2013/06/23 03:30:00",4554.41,52.91,TRADE
QLD1,"2013/06/23 04:00:00",4518.15,52.58,TRADE
QLD1,"2013/06/23 04:30:00",4552.96,52.8,TRADE
QLD1,"2013/06/23 05:00:00",4554.45,52.83,TRADE
QLD1,"2013/06/23 05:30:00",4632.74,53.33,TRADE
QLD1,"2013/06/23 06:00:00",4688.58,52.59,TRADE
QLD1,"2013/06/23 06:30:00",4832.56,52.83,TRADE
QLD1,"2013/06/23 07:00:00",4978.61,53.96,TRADE
QLD1,"2013/06/23 07:30:00",5203.51,49.84,TRADE
QLD1,"2013/06/23 08:00:00",5330.58,54.73,TRADE
QLD1,"2013/06/23 08:30:00",5491.49,60.43,TRADE
QLD1,"2013/06/23 09:00:00",5519.17,68.27,TRADE
QLD1,"2013/06/23 09:30:00",5509.46,56.98,TRADE
QLD1,"2013/06/23 10:00:00",5443.13,77.79,TRADE
QLD1,"2013/06/23 10:30:00",5340.91,69.37,TRADE
QLD1,"2013/06/23 11:00:00",5262.16,58.96,TRADE
QLD1,"2013/06/23 11:30:00",5151.6,56.92,TRADE
QLD1,"2013/06/23 12:00:00",5079.78,55.56,TRADE
QLD1,"2013/06/23 12:30:00",5025.11,52.95,TRADE
QLD1,"2013/06/23 13:00:00",5016.14,52.98,TRADE
QLD1,"2013/06/23 13:30:00",4995.75,52.93,TRADE
QLD1,"2013/06/23 14:00:00",4968.23,52.92,TRADE
QLD1,"2013/06/23 14:30:00",4985.49,52.96,TRADE
QLD1,"2013/06/23 15:00:00",5046.93,53.61,TRADE
QLD1,"2013/06/23 15:30:00",5139.93,54.75,TRADE
QLD1,"2013/06/23 16:00:00",5283.86,67.53,TRADE
QLD1,"2013/06/23 16:30:00",5520.19,64.88,TRADE
QLD1,"2013/06/23 17:00:00",5873.06,94.52,TRADE
QLD1,"2013/06/23 17:30:00",6182.39,96.73,TRADE
QLD1,"2013/06/23 18:00:00",6400.98,107.35,TRADE
QLD1,"2013/06/23 18:30:00",6423.64,111.16,TRADE
QLD1,"2013/06/23 19:00:00",6343.8,85.67,TRADE
QLD1,"2013/06/23 19:30:00",6282.39,68.76,TRADE
QLD1,"2013/06/23 20:00:00",6283.77,74.38,TRADE
QLD1,"2013/06/23 20:30:00",6308.24,86.54,TRADE
QLD1,"2013/06/23 21:00:00",6114.97,64.63,TRADE
QLD1,"2013/06/23 21:30:00",5968.33,64,TRADE
QLD1,"2013/06/23 22:00:00",5781.97,60.57,TRADE
QLD1,"2013/06/23 22:30:00",5604.86,70.95,TRADE
QLD1,"2013/06/23 23:00:00",5534,60.48,TRADE
QLD1,"2013/06/23 23:30:00",5415.34,61.9,TRADE
QLD1,"2013/06/24 00:00:00",5245.14,60.54,TRADE
QLD1,"2013/06/24 00:30:00",5060.88,54.57,TRADE
QLD1,"2013/06/24 01:00:00",4968.35,53.92,TRADE
QLD1,"2013/06/24 01:30:00",4818.03,53.07,TRADE
QLD1,"2013/06/24 02:00:00",4709.64,52.56,TRADE
QLD1,"2013/06/24 02:30:00",4628.8,51.56,TRADE
QLD1,"2013/06/24 03:00:00",4541.39,51.19,TRADE
QLD1,"2013/06/24 03:30:00",4514.07,50.92,TRADE
QLD1,"2013/06/24 04:00:00",4531.19,50.93,TRADE
QLD1,"2013/06/24 04:30:00",4522.21,53.52,TRADE
QLD1,"2013/06/24 05:00:00",4704.36,54.95,TRADE
QLD1,"2013/06/24 05:30:00",4960.2,56.33,TRADE
QLD1,"2013/06/24 06:00:00",5240.33,63.8,TRADE
QLD1,"2013/06/24 06:30:00",5658.93,68.54,TRADE
QLD1,"2013/06/24 07:00:00",5932.64,105.68,TRADE
QLD1,"2013/06/24 07:30:00",6283.59,88.07,TRADE
QLD1,"2013/06/24 08:00:00",6360.58,128.34,TRADE
QLD1,"2013/06/24 08:30:00",6322.85,126.33,TRADE
QLD1,"2013/06/24 09:00:00",6231.05,112.59,TRADE
QLD1,"2013/06/24 09:30:00",6098.3,95.57,TRADE
QLD1,"2013/06/24 10:00:00",5916.49,73.78,TRADE
QLD1,"2013/06/24 10:30:00",5803.04,81.87,TRADE
QLD1,"2013/06/24 11:00:00",5712.2,76.14,TRADE
QLD1,"2013/06/24 11:30:00",5631.1,95.96,TRADE
QLD1,"2013/06/24 12:00:00",5612.43,84.85,TRADE
QLD1,"2013/06/24 12:30:00",5561.4,89.95,TRADE
QLD1,"2013/06/24 13:00:00",5589.87,72.55,TRADE
QLD1,"2013/06/24 13:30:00",5602.79,68.49,TRADE
QLD1,"2013/06/24 14:00:00",5593.42,66.13,TRADE
QLD1,"2013/06/24 14:30:00",5639.34,75.07,TRADE
QLD1,"2013/06/24 15:00:00",5680.5,74.82,TRADE
QLD1,"2013/06/24 15:30:00",5743.9,75.18,TRADE
QLD1,"2013/06/24 16:00:00",5837.29,80.16,TRADE
QLD1,"2013/06/24 16:30:00",5967,91.04,TRADE
QLD1,"2013/06/24 17:00:00",6278.95,99.93,TRADE
QLD1,"2013/06/24 17:30:00",6639.98,112.15,TRADE
QLD1,"2013/06/24 18:00:00",6850.8,116.02,TRADE
QLD1,"2013/06/24 18:30:00",6872.02,110.25,TRADE
QLD1,"2013/06/24 19:00:00",6875.83,90,TRADE
QLD1,"2013/06/24 19:30:00",6772.58,77.68,TRADE
QLD1,"2013/06/24 20:00:00",6800.71,75.14,TRADE
QLD1,"2013/06/24 20:30:00",6786.5,75.36,TRADE
QLD1,"2013/06/24 21:00:00",6646.23,65.4,TRADE
QLD1,"2013/06/24 21:30:00",6464.06,62.27,TRADE
QLD1,"2013/06/24 22:00:00",6256.1,58.66,TRADE
QLD1,"2013/06/24 22:30:00",6013.65,79.4,TRADE
QLD1,"2013/06/24 23:00:00",5808.12,71.92,TRADE
QLD1,"2013/06/24 23:30:00",5662.42,70.44,TRADE
QLD1,"2013/06/25 00:00:00",5474.22,61.18,TRADE
QLD1,"2013/06/25 00:30:00",5319.94,60.08,TRADE
QLD1,"2013/06/25 01:00:00",5164.53,59.37,TRADE
QLD1,"2013/06/25 01:30:00",4983.47,57.75,TRADE
QLD1,"2013/06/25 02:00:00",4858.18,56.7,TRADE
QLD1,"2013/06/25 02:30:00",4761.18,54.34,TRADE
QLD1,"2013/06/25 03:00:00",4681.63,52.54,TRADE
QLD1,"2013/06/25 03:30:00",4657.05,52.58,TRADE
QLD1,"2013/06/25 04:00:00",4666.14,51.82,TRADE
QLD1,"2013/06/25 04:30:00",4723.76,52.3,TRADE
QLD1,"2013/06/25 05:00:00",4857.18,53.5,TRADE
QLD1,"2013/06/25 05:30:00",5117.41,58.23,TRADE
QLD1,"2013/06/25 06:00:00",5439.38,56.45,TRADE
QLD1,"2013/06/25 06:30:00",5882.97,77.17,TRADE
QLD1,"2013/06/25 07:00:00",6281.25,75.04,TRADE
QLD1,"2013/06/25 07:30:00",6673.56,124.8,TRADE
QLD1,"2013/06/25 08:00:00",6739.96,113.88,TRADE
QLD1,"2013/06/25 08:30:00",6608.99,78.01,TRADE
QLD1,"2013/06/25 09:00:00",6453.46,68.6,TRADE
QLD1,"2013/06/25 09:30:00",6296.91,80.61,TRADE
QLD1,"2013/06/25 10:00:00",6142.09,69.07,TRADE
QLD1,"2013/06/25 10:30:00",6019.86,60.07,TRADE
QLD1,"2013/06/25 11:00:00",5921.85,61.44,TRADE
QLD1,"2013/06/25 11:30:00",5834.01,61.71,TRADE
QLD1,"2013/06/25 12:00:00",5752.09,60.95,TRADE
QLD1,"2013/06/25 12:30:00",5734,58.74,TRADE
QLD1,"2013/06/25 13:00:00",5691.88,58.33,TRADE
QLD1,"2013/06/25 13:30:00",5697.67,57.15,TRADE
QLD1,"2013/06/25 14:00:00",5736.42,57.84,TRADE
QLD1,"2013/06/25 14:30:00",5795.75,56.51,TRADE
QLD1,"2013/06/25 15:00:00",5860.24,55.81,TRADE
QLD1,"2013/06/25 15:30:00",5971.77,55.46,TRADE
QLD1,"2013/06/25 16:00:00",6106.88,58.21,TRADE
QLD1,"2013/06/25 16:30:00",6324.24,59.54,TRADE
QLD1,"2013/06/25 17:00:00",6667.5,64.5,TRADE
QLD1,"2013/06/25 17:30:00",6937.94,92.05,TRADE
QLD1,"2013/06/25 18:00:00",7115.61,114.9,TRADE
QLD1,"2013/06/25 18:30:00",7116.14,86.21,TRADE
QLD1,"2013/06/25 19:00:00",7131.47,75.67,TRADE
QLD1,"2013/06/25 19:30:00",7022.13,65.95,TRADE
QLD1,"2013/06/25 20:00:00",7033.2,60.31,TRADE
QLD1,"2013/06/25 20:30:00",7031.81,71.57,TRADE
QLD1,"2013/06/25 21:00:00",6826.63,62.69,TRADE
QLD1,"2013/06/25 21:30:00",6619.07,60.15,TRADE
QLD1,"2013/06/25 22:00:00",6385.89,59.27,TRADE
QLD1,"2013/06/25 22:30:00",6107.7,67.47,TRADE
QLD1,"2013/06/25 23:00:00",5871.54,63.56,TRADE
QLD1,"2013/06/25 23:30:00",5726.78,66.69,TRADE
QLD1,"2013/06/26 00:00:00",5557,60.16,TRADE
QLD1,"2013/06/26 00:30:00",5347.37,60.21,TRADE
QLD1,"2013/06/26 01:00:00",5166.9,59.19,TRADE
QLD1,"2013/06/26 01:30:00",4991.89,57.78,TRADE
QLD1,"2013/06/26 02:00:00",4873.47,56.05,TRADE
QLD1,"2013/06/26 02:30:00",4773.36,53.61,TRADE
QLD1,"2013/06/26 03:00:00",4716.8,52.56,TRADE
QLD1,"2013/06/26 03:30:00",4652.99,51.02,TRADE
QLD1,"2013/06/26 04:00:00",4641.38,50.27,TRADE
QLD1,"2013/06/26 04:30:00",4705.29,50.84,TRADE
QLD1,"2013/06/26 05:00:00",4838.94,51.9,TRADE
QLD1,"2013/06/26 05:30:00",5067.68,53.51,TRADE
QLD1,"2013/06/26 06:00:00",5405.69,52.62,TRADE
QLD1,"2013/06/26 06:30:00",5859,74.39,TRADE
QLD1,"2013/06/26 07:00:00",6187.66,69.99,TRADE
QLD1,"2013/06/26 07:30:00",6577.3,59.38,TRADE
QLD1,"2013/06/26 08:00:00",6646.58,74.25,TRADE
QLD1,"2013/06/26 08:30:00",6584.65,81.9,TRADE
QLD1,"2013/06/26 09:00:00",6400.48,69.36,TRADE
QLD1,"2013/06/26 09:30:00",6264.61,79.34,TRADE
QLD1,"2013/06/26 10:00:00",6034.67,60,TRADE
QLD1,"2013/06/26 10:30:00",5951.63,60,TRADE
QLD1,"2013/06/26 11:00:00",5834.71,57.67,TRADE
QLD1,"2013/06/26 11:30:00",5786.43,59.56,TRADE
QLD1,"2013/06/26 12:00:00",5682.55,57.96,TRADE
QLD1,"2013/06/26 12:30:00",5596.6,54.53,TRADE
QLD1,"2013/06/26 13:00:00",5630.29,55.06,TRADE
QLD1,"2013/06/26 13:30:00",5607.44,54.35,TRADE
QLD1,"2013/06/26 14:00:00",5646.76,55.69,TRADE
QLD1,"2013/06/26 14:30:00",5639.9,54.14,TRADE
QLD1,"2013/06/26 15:00:00",5714.88,52.76,TRADE
QLD1,"2013/06/26 15:30:00",5787.53,46.94,TRADE
QLD1,"2013/06/26 16:00:00",5902.42,47.92,TRADE
QLD1,"2013/06/26 16:30:00",6056.86,50.62,TRADE
QLD1,"2013/06/26 17:00:00",6377.16,57.26,TRADE
QLD1,"2013/06/26 17:30:00",6700.22,65.96,TRADE
QLD1,"2013/06/26 18:00:00",6926.72,84.2,TRADE
QLD1,"2013/06/26 18:30:00",6947.88,66.92,TRADE
QLD1,"2013/06/26 19:00:00",6972.74,66.12,TRADE
QLD1,"2013/06/26 19:30:00",6887.63,61.03,TRADE
QLD1,"2013/06/26 20:00:00",6870.05,60.76,TRADE
QLD1,"2013/06/26 20:30:00",6845.09,60.18,TRADE
QLD1,"2013/06/26 21:00:00",6613.51,58.37,TRADE
QLD1,"2013/06/26 21:30:00",6476.27,58.16,TRADE
QLD1,"2013/06/26 22:00:00",6291.14,54.54,TRADE
QLD1,"2013/06/26 22:30:00",6066.59,60.13,TRADE
QLD1,"2013/06/26 23:00:00",5898.06,64.74,TRADE
QLD1,"2013/06/26 23:30:00",5744.26,64.8,TRADE
QLD1,"2013/06/27 00:00:00",5512.61,60.08,TRADE
QLD1,"2013/06/27 00:30:00",5279.44,59.5,TRADE
QLD1,"2013/06/27 01:00:00",5141.26,58.63,TRADE
QLD1,"2013/06/27 01:30:00",4916.87,56.85,TRADE
QLD1,"2013/06/27 02:00:00",4789.66,54.6,TRADE
QLD1,"2013/06/27 02:30:00",4698.29,52.09,TRADE
QLD1,"2013/06/27 03:00:00",4597.82,50.54,TRADE
QLD1,"2013/06/27 03:30:00",4567.54,50.39,TRADE
QLD1,"2013/06/27 04:00:00",4576.87,50.42,TRADE
QLD1,"2013/06/27 04:30:00",4614.38,51.08,TRADE
QLD1,"2013/06/27 05:00:00",4723.17,52.12,TRADE
QLD1,"2013/06/27 05:30:00",4969.25,54.07,TRADE
QLD1,"2013/06/27 06:00:00",5227.43,52.5,TRADE
QLD1,"2013/06/27 06:30:00",5621.75,57.29,TRADE
QLD1,"2013/06/27 07:00:00",5944.57,61.12,TRADE
QLD1,"2013/06/27 07:30:00",6264.78,60.02,TRADE
QLD1,"2013/06/27 08:00:00",6379.2,66.95,TRADE
QLD1,"2013/06/27 08:30:00",6387.2,69.93,TRADE
QLD1,"2013/06/27 09:00:00",6351.31,60.98,TRADE
QLD1,"2013/06/27 09:30:00",6256.61,59.99,TRADE
QLD1,"2013/06/27 10:00:00",6176.5,60.19,TRADE
QLD1,"2013/06/27 10:30:00",6124.15,61.8,TRADE
QLD1,"2013/06/27 11:00:00",6076.33,60,TRADE
QLD1,"2013/06/27 11:30:00",6024.94,60.56,TRADE
QLD1,"2013/06/27 12:00:00",6050.77,60.37,TRADE
QLD1,"2013/06/27 12:30:00",6113.93,61.28,TRADE
QLD1,"2013/06/27 13:00:00",6090.96,63.85,TRADE
QLD1,"2013/06/27 13:30:00",6081.18,65.85,TRADE
QLD1,"2013/06/27 14:00:00",6118.29,64.96,TRADE
QLD1,"2013/06/27 14:30:00",6146.6,63.26,TRADE
QLD1,"2013/06/27 15:00:00",6129.13,59.96,TRADE
QLD1,"2013/06/27 15:30:00",6170.21,57.37,TRADE
QLD1,"2013/06/27 16:00:00",6271.07,58.24,TRADE
QLD1,"2013/06/27 16:30:00",6378.79,58.36,TRADE
QLD1,"2013/06/27 17:00:00",6623.29,56.97,TRADE
QLD1,"2013/06/27 17:30:00",6863.83,61.43,TRADE
QLD1,"2013/06/27 18:00:00",6992.94,68.38,TRADE
QLD1,"2013/06/27 18:30:00",7005.74,63.46,TRADE
QLD1,"2013/06/27 19:00:00",7013.7,63.5,TRADE
QLD1,"2013/06/27 19:30:00",6890.94,59.63,TRADE
QLD1,"2013/06/27 20:00:00",6800.43,59.59,TRADE
QLD1,"2013/06/27 20:30:00",6799.2,62.94,TRADE
QLD1,"2013/06/27 21:00:00",6653.99,60.9,TRADE
QLD1,"2013/06/27 21:30:00",6395.53,59.56,TRADE
QLD1,"2013/06/27 22:00:00",6170.5,55.94,TRADE
QLD1,"2013/06/27 22:30:00",5919.21,64.35,TRADE
QLD1,"2013/06/27 23:00:00",5758.49,66.17,TRADE
QLD1,"2013/06/27 23:30:00",5612.94,65.37,TRADE
QLD1,"2013/06/28 00:00:00",5421.83,62.14,TRADE
QLD1,"2013/06/28 00:30:00",5212.26,59.67,TRADE
QLD1,"2013/06/28 01:00:00",5085.04,59.49,TRADE
QLD1,"2013/06/28 01:30:00",4883.33,57.81,TRADE
QLD1,"2013/06/28 02:00:00",4736.3,55.05,TRADE
QLD1,"2013/06/28 02:30:00",4682.5,53.93,TRADE
QLD1,"2013/06/28 03:00:00",4581.98,52.98,TRADE
QLD1,"2013/06/28 03:30:00",4550.27,52.88,TRADE
QLD1,"2013/06/28 04:00:00",4561.17,51.3,TRADE
QLD1,"2013/06/28 04:30:00",4600.26,51.82,TRADE
QLD1,"2013/06/28 05:00:00",4674.99,54.04,TRADE
QLD1,"2013/06/28 05:30:00",4863.72,57.58,TRADE
QLD1,"2013/06/28 06:00:00",5143.69,52.96,TRADE
QLD1,"2013/06/28 06:30:00",5496.85,54.61,TRADE
QLD1,"2013/06/28 07:00:00",5825.3,60.04,TRADE
QLD1,"2013/06/28 07:30:00",6143.35,63.02,TRADE
QLD1,"2013/06/28 08:00:00",6233.37,75.93,TRADE
QLD1,"2013/06/28 08:30:00",6227.41,84.63,TRADE
QLD1,"2013/06/28 09:00:00",6177.77,62.73,TRADE
QLD1,"2013/06/28 09:30:00",6090.64,61.81,TRADE
QLD1,"2013/06/28 10:00:00",6037.66,65.68,TRADE
QLD1,"2013/06/28 10:30:00",5945.82,77.78,TRADE
QLD1,"2013/06/28 11:00:00",5833.78,65.62,TRADE
QLD1,"2013/06/28 11:30:00",5781.67,61.08,TRADE
QLD1,"2013/06/28 12:00:00",5749.4,60.08,TRADE
QLD1,"2013/06/28 12:30:00",5771.24,60.14,TRADE
QLD1,"2013/06/28 13:00:00",5755.41,60.13,TRADE
QLD1,"2013/06/28 13:30:00",5716.86,59.78,TRADE
QLD1,"2013/06/28 14:00:00",5639.32,57.99,TRADE
QLD1,"2013/06/28 14:30:00",5688.33,59.6,TRADE
QLD1,"2013/06/28 15:00:00",5709.31,53.35,TRADE
QLD1,"2013/06/28 15:30:00",5753.96,53.45,TRADE
QLD1,"2013/06/28 16:00:00",5840.13,56.79,TRADE
QLD1,"2013/06/28 16:30:00",5932.74,57.47,TRADE
QLD1,"2013/06/28 17:00:00",6165.51,57.87,TRADE
QLD1,"2013/06/28 17:30:00",6334.87,66.87,TRADE
QLD1,"2013/06/28 18:00:00",6507.06,78.24,TRADE
QLD1,"2013/06/28 18:30:00",6445.76,63.42,TRADE
QLD1,"2013/06/28 19:00:00",6398.94,63.36,TRADE
QLD1,"2013/06/28 19:30:00",6317.32,60.39,TRADE
QLD1,"2013/06/28 20:00:00",6306.2,59.63,TRADE
QLD1,"2013/06/28 20:30:00",6276.98,59.44,TRADE
QLD1,"2013/06/28 21:00:00",6101.11,57.15,TRADE
QLD1,"2013/06/28 21:30:00",6004.74,55.83,TRADE
QLD1,"2013/06/28 22:00:00",5848.26,52.71,TRADE
QLD1,"2013/06/28 22:30:00",5688.8,93.98,TRADE
QLD1,"2013/06/28 23:00:00",5605.36,71.74,TRADE
QLD1,"2013/06/28 23:30:00",5494.75,65.34,TRADE
QLD1,"2013/06/29 00:00:00",5336.42,64.37,TRADE
QLD1,"2013/06/29 00:30:00",5223.33,59.44,TRADE
QLD1,"2013/06/29 01:00:00",5026.27,55.96,TRADE
QLD1,"2013/06/29 01:30:00",4828.17,55.66,TRADE
QLD1,"2013/06/29 02:00:00",4683.19,54.57,TRADE
QLD1,"2013/06/29 02:30:00",4616.64,52.57,TRADE
QLD1,"2013/06/29 03:00:00",4526.33,51.41,TRADE
QLD1,"2013/06/29 03:30:00",4444.54,50.04,TRADE
QLD1,"2013/06/29 04:00:00",4439.66,49.35,TRADE
QLD1,"2013/06/29 04:30:00",4481.26,50.26,TRADE
QLD1,"2013/06/29 05:00:00",4524.93,50.84,TRADE
QLD1,"2013/06/29 05:30:00",4594.94,51.3,TRADE
QLD1,"2013/06/29 06:00:00",4689.48,49.63,TRADE
QLD1,"2013/06/29 06:30:00",4776.9,50.53,TRADE
QLD1,"2013/06/29 07:00:00",4983.79,51.82,TRADE
QLD1,"2013/06/29 07:30:00",5167.99,51.98,TRADE
QLD1,"2013/06/29 08:00:00",5357.06,62.83,TRADE
QLD1,"2013/06/29 08:30:00",5536.86,65.52,TRADE
QLD1,"2013/06/29 09:00:00",5632.49,77.47,TRADE
QLD1,"2013/06/29 09:30:00",5630.46,71.76,TRADE
QLD1,"2013/06/29 10:00:00",5585.06,61.62,TRADE
QLD1,"2013/06/29 10:30:00",5562.05,60.35,TRADE
QLD1,"2013/06/29 11:00:00",5509.57,59.05,TRADE
QLD1,"2013/06/29 11:30:00",5451.52,56.11,TRADE
QLD1,"2013/06/29 12:00:00",5454.1,55.59,TRADE
QLD1,"2013/06/29 12:30:00",5384.41,54.7,TRADE
QLD1,"2013/06/29 13:00:00",5333.69,53.99,TRADE
QLD1,"2013/06/29 13:30:00",5307.76,53.71,TRADE
QLD1,"2013/06/29 14:00:00",5303.5,53.58,TRADE
QLD1,"2013/06/29 14:30:00",5347.63,53.2,TRADE
QLD1,"2013/06/29 15:00:00",5416.79,52.95,TRADE
QLD1,"2013/06/29 15:30:00",5410.6,52.8,TRADE
QLD1,"2013/06/29 16:00:00",5481.75,53.75,TRADE
QLD1,"2013/06/29 16:30:00",5661.04,53.21,TRADE
QLD1,"2013/06/29 17:00:00",5906.22,59.87,TRADE
QLD1,"2013/06/29 17:30:00",6137.81,69.09,TRADE
QLD1,"2013/06/29 18:00:00",6232.67,72.82,TRADE
QLD1,"2013/06/29 18:30:00",6163.43,63.54,TRADE
QLD1,"2013/06/29 19:00:00",6136.47,59.11,TRADE
QLD1,"2013/06/29 19:30:00",6061.62,57.53,TRADE
QLD1,"2013/06/29 20:00:00",6068.1,58.46,TRADE
QLD1,"2013/06/29 20:30:00",6026.85,59.74,TRADE
QLD1,"2013/06/29 21:00:00",5897.25,58.27,TRADE
QLD1,"2013/06/29 21:30:00",5832.62,55.5,TRADE
QLD1,"2013/06/29 22:00:00",5691.47,55.21,TRADE
QLD1,"2013/06/29 22:30:00",5535.46,60.01,TRADE
QLD1,"2013/06/29 23:00:00",5466.86,63.66,TRADE
QLD1,"2013/06/29 23:30:00",5411.92,61.3,TRADE
QLD1,"2013/06/30 00:00:00",5230.62,58.66,TRADE
QLD1,"2013/06/30 00:30:00",5045.53,56.29,TRADE
QLD1,"2013/06/30 01:00:00",4907.59,55.99,TRADE
QLD1,"2013/06/30 01:30:00",4717.32,53.71,TRADE
QLD1,"2013/06/30 02:00:00",4554.82,50.91,TRADE
QLD1,"2013/06/30 02:30:00",4455.56,48.79,TRADE
QLD1,"2013/06/30 03:00:00",4358.37,46.74,TRADE
QLD1,"2013/06/30 03:30:00",4321.17,47.21,TRADE
QLD1,"2013/06/30 04:00:00",4344.07,46.5,TRADE
QLD1,"2013/06/30 04:30:00",4333.07,45.87,TRADE
QLD1,"2013/06/30 05:00:00",4330.53,45.42,TRADE
QLD1,"2013/06/30 05:30:00",4385.91,47.82,TRADE
QLD1,"2013/06/30 06:00:00",4462.81,45.46,TRADE
QLD1,"2013/06/30 06:30:00",4560.31,46.46,TRADE
QLD1,"2013/06/30 07:00:00",4678.35,47.94,TRADE
QLD1,"2013/06/30 07:30:00",4876.08,47.66,TRADE
QLD1,"2013/06/30 08:00:00",5007.94,49.77,TRADE
QLD1,"2013/06/30 08:30:00",5223.13,52.38,TRADE
QLD1,"2013/06/30 09:00:00",5347.57,52.99,TRADE
QLD1,"2013/06/30 09:30:00",5459.47,54.87,TRADE
QLD1,"2013/06/30 10:00:00",5521.41,56.35,TRADE
QLD1,"2013/06/30 10:30:00",5539.73,56.72,TRADE
QLD1,"2013/06/30 11:00:00",5539.47,56.84,TRADE
QLD1,"2013/06/30 11:30:00",5492.26,54.88,TRADE
QLD1,"2013/06/30 12:00:00",5480.2,53.45,TRADE
QLD1,"2013/06/30 12:30:00",5435.17,52.92,TRADE
QLD1,"2013/06/30 13:00:00",5418.05,52.91,TRADE
QLD1,"2013/06/30 13:30:00",5386.55,52.47,TRADE
QLD1,"2013/06/30 14:00:00",5361,51.76,TRADE
QLD1,"2013/06/30 14:30:00",5421.08,52.03,TRADE
QLD1,"2013/06/30 15:00:00",5459.05,51.95,TRADE
QLD1,"2013/06/30 15:30:00",5532.59,51.03,TRADE
QLD1,"2013/06/30 16:00:00",5690.08,53.49,TRADE
QLD1,"2013/06/30 16:30:00",5871.45,52.84,TRADE
QLD1,"2013/06/30 17:00:00",6202.36,55.31,TRADE
QLD1,"2013/06/30 17:30:00",6439.26,60.81,TRADE
QLD1,"2013/06/30 18:00:00",6634.92,71.42,TRADE
QLD1,"2013/06/30 18:30:00",6590.85,69.12,TRADE
QLD1,"2013/06/30 19:00:00",6580.38,64.04,TRADE
QLD1,"2013/06/30 19:30:00",6463.39,59.98,TRADE
QLD1,"2013/06/30 20:00:00",6445.46,60,TRADE
QLD1,"2013/06/30 20:30:00",6483.19,62.75,TRADE
QLD1,"2013/06/30 21:00:00",6312.6,60.5,TRADE
QLD1,"2013/06/30 21:30:00",6138.8,55.92,TRADE
QLD1,"2013/06/30 22:00:00",5941.91,52.59,TRADE
QLD1,"2013/06/30 22:30:00",5752.57,58.96,TRADE
QLD1,"2013/06/30 23:00:00",5570.95,56.73,TRADE
QLD1,"2013/06/30 23:30:00",5433.43,56.42,TRADE
QLD1,"2013/07/01 00:00:00",5270.85,54.3,TRADE
