REGION,SETTLEMENTDATE,TOTALDEMAND,RRP,PERIODTYPE
TAS1,"2013/08/01 00:30:00",1132.48,47.8,TRADE
TAS1,"2013/08/01 01:00:00",1127.75,47.8,TRADE
TAS1,"2013/08/01 01:30:00",1114.62,47.67,TRADE
TAS1,"2013/08/01 02:00:00",1107.23,47.21,TRADE
TAS1,"2013/08/01 02:30:00",1098.15,44.79,TRADE
TAS1,"2013/08/01 03:00:00",1095.84,42.67,TRADE
TAS1,"2013/08/01 03:30:00",1105.31,43.1,TRADE
TAS1,"2013/08/01 04:00:00",1114.92,43.24,TRADE
TAS1,"2013/08/01 04:30:00",1129.89,44.71,TRADE
TAS1,"2013/08/01 05:00:00",1138.83,44.72,TRADE
TAS1,"2013/08/01 05:30:00",1165.92,47.11,TRADE
TAS1,"2013/08/01 06:00:00",1207.04,47.52,TRADE
TAS1,"2013/08/01 06:30:00",1282.45,48.05,TRADE
TAS1,"2013/08/01 07:00:00",1385.85,54.28,TRADE
TAS1,"2013/08/01 07:30:00",1490.73,54.63,TRADE
TAS1,"2013/08/01 08:00:00",1563.44,56.8,TRADE
TAS1,"2013/08/01 08:30:00",1559.98,54.85,TRADE
TAS1,"2013/08/01 09:00:00",1520.53,49.6,TRADE
TAS1,"2013/08/01 09:30:00",1466.73,47.84,TRADE
TAS1,"2013/08/01 10:00:00",1448.54,47.82,TRADE
TAS1,"2013/08/01 10:30:00",1406.05,47.81,TRADE
TAS1,"2013/08/01 11:00:00",1364.36,47.8,TRADE
TAS1,"2013/08/01 11:30:00",1341.3,39.33,TRADE
TAS1,"2013/08/01 12:00:00",1317.57,47.9,TRADE
TAS1,"2013/08/01 12:30:00",1277.22,47.83,TRADE
TAS1,"2013/08/01 13:00:00",1264.89,47.81,TRADE
TAS1,"2013/08/01 13:30:00",1266.6,47.82,TRADE
TAS1,"2013/08/01 14:00:00",1275.34,47.83,TRADE
TAS1,"2013/08/01 14:30:00",1294.87,47.83,TRADE
TAS1,"2013/08/01 15:00:00",1282.73,47.83,TRADE
TAS1,"2013/08/01 15:30:00",1267.04,47.82,TRADE
TAS1,"2013/08/01 16:00:00",1268.61,47.83,TRADE
TAS1,"2013/08/01 16:30:00",1288.95,47.84,TRADE
TAS1,"2013/08/01 17:00:00",1343.79,47.99,TRADE
TAS1,"2013/08/01 17:30:00",1407.53,50.52,TRADE
TAS1,"2013/08/01 18:00:00",1458.56,56.28,TRADE
TAS1,"2013/08/01 18:30:00",1486.73,61.33,TRADE
TAS1,"2013/08/01 19:00:00",1491.86,56.86,TRADE
TAS1,"2013/08/01 19:30:00",1466.94,52.74,TRADE
TAS1,"2013/08/01 20:00:00",1443.94,49.82,TRADE
TAS1,"2013/08/01 20:30:00",1433.61,48.64,TRADE
TAS1,"2013/08/01 21:00:00",1405.48,48.1,TRADE
TAS1,"2013/08/01 21:30:00",1323.26,47.54,TRADE
TAS1,"2013/08/01 22:00:00",1294.41,44.16,TRADE
TAS1,"2013/08/01 22:30:00",1256.64,45.75,TRADE
TAS1,"2013/08/01 23:00:00",1187.51,41.57,TRADE
TAS1,"2013/08/01 23:30:00",1143.18,43.94,TRADE
TAS1,"2013/08/02 00:00:00",1102.84,41.41,TRADE
TAS1,"2013/08/02 00:30:00",1066.42,29.26,TRADE
TAS1,"2013/08/02 01:00:00",1043.02,27.22,TRADE
TAS1,"2013/08/02 01:30:00",1040.3,29.23,TRADE
TAS1,"2013/08/02 02:00:00",1028.47,38.1,TRADE
TAS1,"2013/08/02 02:30:00",1016.92,36.19,TRADE
TAS1,"2013/08/02 03:00:00",1002.01,29.23,TRADE
TAS1,"2013/08/02 03:30:00",1003.82,39.13,TRADE
TAS1,"2013/08/02 04:00:00",997.45,35.56,TRADE
TAS1,"2013/08/02 04:30:00",999.88,39.24,TRADE
TAS1,"2013/08/02 05:00:00",1020.26,38.88,TRADE
TAS1,"2013/08/02 05:30:00",1059.27,37.86,TRADE
TAS1,"2013/08/02 06:00:00",1098.23,39.27,TRADE
TAS1,"2013/08/02 06:30:00",1159.6,40.94,TRADE
TAS1,"2013/08/02 07:00:00",1247.04,45.02,TRADE
TAS1,"2013/08/02 07:30:00",1350.1,45.28,TRADE
TAS1,"2013/08/02 08:00:00",1410.41,47.74,TRADE
TAS1,"2013/08/02 08:30:00",1434.29,47.76,TRADE
TAS1,"2013/08/02 09:00:00",1413.17,47.64,TRADE
TAS1,"2013/08/02 09:30:00",1425.92,47.74,TRADE
TAS1,"2013/08/02 10:00:00",1415.18,47.73,TRADE
TAS1,"2013/08/02 10:30:00",1331.58,44.14,TRADE
TAS1,"2013/08/02 11:00:00",1286.35,38.76,TRADE
TAS1,"2013/08/02 11:30:00",1296.18,41.69,TRADE
TAS1,"2013/08/02 12:00:00",1297.51,41.71,TRADE
TAS1,"2013/08/02 12:30:00",1301.72,47.82,TRADE
TAS1,"2013/08/02 13:00:00",1267.55,47.82,TRADE
TAS1,"2013/08/02 13:30:00",1257.17,47.82,TRADE
TAS1,"2013/08/02 14:00:00",1252.43,47.82,TRADE
TAS1,"2013/08/02 14:30:00",1278.32,47.82,TRADE
TAS1,"2013/08/02 15:00:00",1267.21,47.2,TRADE
TAS1,"2013/08/02 15:30:00",1288.99,46.83,TRADE
TAS1,"2013/08/02 16:00:00",1304.48,46.93,TRADE
TAS1,"2013/08/02 16:30:00",1312.36,47.01,TRADE
TAS1,"2013/08/02 17:00:00",1346.28,42.29,TRADE
TAS1,"2013/08/02 17:30:00",1378.54,48.09,TRADE
TAS1,"2013/08/02 18:00:00",1424.09,51.91,TRADE
TAS1,"2013/08/02 18:30:00",1417.6,49.34,TRADE
TAS1,"2013/08/02 19:00:00",1408.86,50.13,TRADE
TAS1,"2013/08/02 19:30:00",1375.91,47.84,TRADE
TAS1,"2013/08/02 20:00:00",1347.65,47.84,TRADE
TAS1,"2013/08/02 20:30:00",1338.47,47.84,TRADE
TAS1,"2013/08/02 21:00:00",1322.94,47.84,TRADE
TAS1,"2013/08/02 21:30:00",1314.96,47.83,TRADE
TAS1,"2013/08/02 22:00:00",1262.53,47.82,TRADE
TAS1,"2013/08/02 22:30:00",1225.27,47.81,TRADE
TAS1,"2013/08/02 23:00:00",1190.65,47.81,TRADE
TAS1,"2013/08/02 23:30:00",1137.52,47.8,TRADE
TAS1,"2013/08/03 00:00:00",1107.14,47.81,TRADE
TAS1,"2013/08/03 00:30:00",1099.84,47.82,TRADE
TAS1,"2013/08/03 01:00:00",1078.55,47.81,TRADE
TAS1,"2013/08/03 01:30:00",1058.3,37.51,TRADE
TAS1,"2013/08/03 02:00:00",1094.5,35.96,TRADE
TAS1,"2013/08/03 02:30:00",1107.7,41.24,TRADE
TAS1,"2013/08/03 03:00:00",1030.76,32.78,TRADE
TAS1,"2013/08/03 03:30:00",1026.46,32.32,TRADE
TAS1,"2013/08/03 04:00:00",1028.2,32.86,TRADE
TAS1,"2013/08/03 04:30:00",1033.6,37.31,TRADE
TAS1,"2013/08/03 05:00:00",1039.4,38.17,TRADE
TAS1,"2013/08/03 05:30:00",1055.37,37.47,TRADE
TAS1,"2013/08/03 06:00:00",1085.02,36.91,TRADE
TAS1,"2013/08/03 06:30:00",1116.15,37.41,TRADE
TAS1,"2013/08/03 07:00:00",1149.39,38.34,TRADE
TAS1,"2013/08/03 07:30:00",1201.45,31.13,TRADE
TAS1,"2013/08/03 08:00:00",1245.27,40.42,TRADE
TAS1,"2013/08/03 08:30:00",1292.7,44.01,TRADE
TAS1,"2013/08/03 09:00:00",1325.39,44.24,TRADE
TAS1,"2013/08/03 09:30:00",1330.22,44.3,TRADE
TAS1,"2013/08/03 10:00:00",1308.45,44.22,TRADE
TAS1,"2013/08/03 10:30:00",1313,43.99,TRADE
TAS1,"2013/08/03 11:00:00",1280.32,40.08,TRADE
TAS1,"2013/08/03 11:30:00",1259.92,37.21,TRADE
TAS1,"2013/08/03 12:00:00",1228.35,27.23,TRADE
TAS1,"2013/08/03 12:30:00",1216.68,39.55,TRADE
TAS1,"2013/08/03 13:00:00",1223.97,44.56,TRADE
TAS1,"2013/08/03 13:30:00",1245.42,46.45,TRADE
TAS1,"2013/08/03 14:00:00",1232.89,46.69,TRADE
TAS1,"2013/08/03 14:30:00",1242.57,46.59,TRADE
TAS1,"2013/08/03 15:00:00",1270.93,47.11,TRADE
TAS1,"2013/08/03 15:30:00",1289.66,47.32,TRADE
TAS1,"2013/08/03 16:00:00",1299.56,47.61,TRADE
TAS1,"2013/08/03 16:30:00",1294.85,47.32,TRADE
TAS1,"2013/08/03 17:00:00",1321.12,50.82,TRADE
TAS1,"2013/08/03 17:30:00",1370.23,49,TRADE
TAS1,"2013/08/03 18:00:00",1417.17,52.66,TRADE
TAS1,"2013/08/03 18:30:00",1416.3,51.34,TRADE
TAS1,"2013/08/03 19:00:00",1400.86,49.25,TRADE
TAS1,"2013/08/03 19:30:00",1354.1,47.34,TRADE
TAS1,"2013/08/03 20:00:00",1333.47,47.34,TRADE
TAS1,"2013/08/03 20:30:00",1330.48,47.34,TRADE
TAS1,"2013/08/03 21:00:00",1302.02,47.34,TRADE
TAS1,"2013/08/03 21:30:00",1270.91,47.96,TRADE
TAS1,"2013/08/03 22:00:00",1240.38,47.32,TRADE
TAS1,"2013/08/03 22:30:00",1215.14,48.01,TRADE
TAS1,"2013/08/03 23:00:00",1194.88,47.3,TRADE
TAS1,"2013/08/03 23:30:00",1162.98,44.8,TRADE
TAS1,"2013/08/04 00:00:00",1113.76,40.55,TRADE
TAS1,"2013/08/04 00:30:00",1101.5,34.9,TRADE
TAS1,"2013/08/04 01:00:00",1069.28,27.24,TRADE
TAS1,"2013/08/04 01:30:00",1054.12,31.24,TRADE
TAS1,"2013/08/04 02:00:00",1050.16,39.28,TRADE
TAS1,"2013/08/04 02:30:00",1038.6,39.23,TRADE
TAS1,"2013/08/04 03:00:00",1035.75,39.28,TRADE
TAS1,"2013/08/04 03:30:00",1039.6,39.28,TRADE
TAS1,"2013/08/04 04:00:00",1036.27,39.24,TRADE
TAS1,"2013/08/04 04:30:00",1011.52,37.24,TRADE
TAS1,"2013/08/04 05:00:00",1018.21,37.45,TRADE
TAS1,"2013/08/04 05:30:00",1024.85,39.1,TRADE
TAS1,"2013/08/04 06:00:00",1042.62,39.01,TRADE
TAS1,"2013/08/04 06:30:00",1057.21,37.2,TRADE
TAS1,"2013/08/04 07:00:00",1055.22,29.2,TRADE
TAS1,"2013/08/04 07:30:00",1091.77,39.28,TRADE
TAS1,"2013/08/04 08:00:00",1139.62,39.28,TRADE
TAS1,"2013/08/04 08:30:00",1180.45,38.81,TRADE
TAS1,"2013/08/04 09:00:00",1220.35,43.01,TRADE
TAS1,"2013/08/04 09:30:00",1241.68,45.01,TRADE
TAS1,"2013/08/04 10:00:00",1228.24,41.97,TRADE
TAS1,"2013/08/04 10:30:00",1220.49,29.25,TRADE
TAS1,"2013/08/04 11:00:00",1187.63,27.22,TRADE
TAS1,"2013/08/04 11:30:00",1180.42,27.23,TRADE
TAS1,"2013/08/04 12:00:00",1158.66,27.22,TRADE
TAS1,"2013/08/04 12:30:00",1150.41,27.23,TRADE
TAS1,"2013/08/04 13:00:00",1141.94,44.32,TRADE
TAS1,"2013/08/04 13:30:00",1130.52,43.81,TRADE
TAS1,"2013/08/04 14:00:00",1087.85,47.48,TRADE
TAS1,"2013/08/04 14:30:00",1144.49,49.1,TRADE
TAS1,"2013/08/04 15:00:00",1152.74,49.24,TRADE
TAS1,"2013/08/04 15:30:00",1168.93,50.66,TRADE
TAS1,"2013/08/04 16:00:00",1187.21,52.76,TRADE
TAS1,"2013/08/04 16:30:00",1245.32,52.17,TRADE
TAS1,"2013/08/04 17:00:00",1323.09,55.2,TRADE
TAS1,"2013/08/04 17:30:00",1417.59,51.67,TRADE
TAS1,"2013/08/04 18:00:00",1481.43,61.42,TRADE
TAS1,"2013/08/04 18:30:00",1495.26,64.77,TRADE
TAS1,"2013/08/04 19:00:00",1499.75,60.05,TRADE
TAS1,"2013/08/04 19:30:00",1485.77,54,TRADE
TAS1,"2013/08/04 20:00:00",1468.7,53.35,TRADE
TAS1,"2013/08/04 20:30:00",1466.54,55.02,TRADE
TAS1,"2013/08/04 21:00:00",1435.73,53.57,TRADE
TAS1,"2013/08/04 21:30:00",1396.51,52.78,TRADE
TAS1,"2013/08/04 22:00:00",1359.22,48.18,TRADE
TAS1,"2013/08/04 22:30:00",1299.25,48.42,TRADE
TAS1,"2013/08/04 23:00:00",1247.67,47.4,TRADE
TAS1,"2013/08/04 23:30:00",1205.55,49.29,TRADE
TAS1,"2013/08/05 00:00:00",1172.45,50.11,TRADE
TAS1,"2013/08/05 00:30:00",1154.92,49.17,TRADE
TAS1,"2013/08/05 01:00:00",1128.42,47.74,TRADE
TAS1,"2013/08/05 01:30:00",1129.29,46.44,TRADE
TAS1,"2013/08/05 02:00:00",1120.76,44.5,TRADE
TAS1,"2013/08/05 02:30:00",1117.94,39.65,TRADE
TAS1,"2013/08/05 03:00:00",1125.92,39.41,TRADE
TAS1,"2013/08/05 03:30:00",1128.84,39.43,TRADE
TAS1,"2013/08/05 04:00:00",1139.21,37.75,TRADE
TAS1,"2013/08/05 04:30:00",1135.97,40.26,TRADE
TAS1,"2013/08/05 05:00:00",1151.77,40.51,TRADE
TAS1,"2013/08/05 05:30:00",1188.97,43.69,TRADE
TAS1,"2013/08/05 06:00:00",1229.88,45.61,TRADE
TAS1,"2013/08/05 06:30:00",1303.72,48.78,TRADE
TAS1,"2013/08/05 07:00:00",1422.36,51.48,TRADE
TAS1,"2013/08/05 07:30:00",1544.59,52.01,TRADE
TAS1,"2013/08/05 08:00:00",1620.75,56.58,TRADE
TAS1,"2013/08/05 08:30:00",1615.29,56.69,TRADE
TAS1,"2013/08/05 09:00:00",1584.63,54.71,TRADE
TAS1,"2013/08/05 09:30:00",1582.45,49.67,TRADE
TAS1,"2013/08/05 10:00:00",1538.44,49.42,TRADE
TAS1,"2013/08/05 10:30:00",1468.48,49.6,TRADE
TAS1,"2013/08/05 11:00:00",1399.13,49.25,TRADE
TAS1,"2013/08/05 11:30:00",1341.58,49.34,TRADE
TAS1,"2013/08/05 12:00:00",1319.59,49.34,TRADE
TAS1,"2013/08/05 12:30:00",1296.41,49.34,TRADE
TAS1,"2013/08/05 13:00:00",1271.87,49.5,TRADE
TAS1,"2013/08/05 13:30:00",1255.73,49.34,TRADE
TAS1,"2013/08/05 14:00:00",1205.77,49.09,TRADE
TAS1,"2013/08/05 14:30:00",1230.2,49.08,TRADE
TAS1,"2013/08/05 15:00:00",1207.11,48.99,TRADE
TAS1,"2013/08/05 15:30:00",1231.09,49.23,TRADE
TAS1,"2013/08/05 16:00:00",1270.42,49.34,TRADE
TAS1,"2013/08/05 16:30:00",1316.95,49.27,TRADE
TAS1,"2013/08/05 17:00:00",1328.07,49.42,TRADE
TAS1,"2013/08/05 17:30:00",1390.09,49.38,TRADE
TAS1,"2013/08/05 18:00:00",1431.45,56.73,TRADE
TAS1,"2013/08/05 18:30:00",1454.18,58.12,TRADE
TAS1,"2013/08/05 19:00:00",1444.51,56.2,TRADE
TAS1,"2013/08/05 19:30:00",1408.79,51.19,TRADE
TAS1,"2013/08/05 20:00:00",1403.79,49.48,TRADE
TAS1,"2013/08/05 20:30:00",1362.49,48.75,TRADE
TAS1,"2013/08/05 21:00:00",1339.79,48.98,TRADE
TAS1,"2013/08/05 21:30:00",1303.87,46.81,TRADE
TAS1,"2013/08/05 22:00:00",1250.97,41.57,TRADE
TAS1,"2013/08/05 22:30:00",1208.81,42.45,TRADE
TAS1,"2013/08/05 23:00:00",1205.89,42.77,TRADE
TAS1,"2013/08/05 23:30:00",1148.08,32.41,TRADE
TAS1,"2013/08/06 00:00:00",1072.65,27.16,TRADE
TAS1,"2013/08/06 00:30:00",1073.61,35.26,TRADE
TAS1,"2013/08/06 01:00:00",1036.59,33.24,TRADE
TAS1,"2013/08/06 01:30:00",1031.53,35.27,TRADE
TAS1,"2013/08/06 02:00:00",1021.02,38.1,TRADE
TAS1,"2013/08/06 02:30:00",1003.16,34.76,TRADE
TAS1,"2013/08/06 03:00:00",1006.65,33.8,TRADE
TAS1,"2013/08/06 03:30:00",998.11,38.46,TRADE
TAS1,"2013/08/06 04:00:00",1007.32,36.53,TRADE
TAS1,"2013/08/06 04:30:00",992.54,33.35,TRADE
TAS1,"2013/08/06 05:00:00",998.91,38.65,TRADE
TAS1,"2013/08/06 05:30:00",1033.35,38.84,TRADE
TAS1,"2013/08/06 06:00:00",1086.26,39.24,TRADE
TAS1,"2013/08/06 06:30:00",1139.63,34.35,TRADE
TAS1,"2013/08/06 07:00:00",1265.88,44.19,TRADE
TAS1,"2013/08/06 07:30:00",1354.1,48.12,TRADE
TAS1,"2013/08/06 08:00:00",1424.41,49.34,TRADE
TAS1,"2013/08/06 08:30:00",1412.17,49.13,TRADE
TAS1,"2013/08/06 09:00:00",1377.08,39.99,TRADE
TAS1,"2013/08/06 09:30:00",1343.99,38.83,TRADE
TAS1,"2013/08/06 10:00:00",1295.57,33.41,TRADE
TAS1,"2013/08/06 10:30:00",1262.23,37.32,TRADE
TAS1,"2013/08/06 11:00:00",1256.93,47.27,TRADE
TAS1,"2013/08/06 11:30:00",1235.07,47.29,TRADE
TAS1,"2013/08/06 12:00:00",1245.38,39.34,TRADE
TAS1,"2013/08/06 12:30:00",1243.08,39.34,TRADE
TAS1,"2013/08/06 13:00:00",1247.99,39.99,TRADE
TAS1,"2013/08/06 13:30:00",1216.47,39.33,TRADE
TAS1,"2013/08/06 14:00:00",1211.52,39.33,TRADE
TAS1,"2013/08/06 14:30:00",1217.98,42,TRADE
TAS1,"2013/08/06 15:00:00",1228.92,44.34,TRADE
TAS1,"2013/08/06 15:30:00",1238.76,48.14,TRADE
TAS1,"2013/08/06 16:00:00",1249.6,46.35,TRADE
TAS1,"2013/08/06 16:30:00",1280.51,47.3,TRADE
TAS1,"2013/08/06 17:00:00",1314.1,47.71,TRADE
TAS1,"2013/08/06 17:30:00",1395.37,51.91,TRADE
TAS1,"2013/08/06 18:00:00",1447.26,68.37,TRADE
TAS1,"2013/08/06 18:30:00",1460.19,64.95,TRADE
TAS1,"2013/08/06 19:00:00",1442.19,53.46,TRADE
TAS1,"2013/08/06 19:30:00",1444.6,51.66,TRADE
TAS1,"2013/08/06 20:00:00",1425.85,53.91,TRADE
TAS1,"2013/08/06 20:30:00",1397.62,54.09,TRADE
TAS1,"2013/08/06 21:00:00",1355.42,44.53,TRADE
TAS1,"2013/08/06 21:30:00",1326.86,45.49,TRADE
TAS1,"2013/08/06 22:00:00",1280.69,43.64,TRADE
TAS1,"2013/08/06 22:30:00",1203.02,37.31,TRADE
TAS1,"2013/08/06 23:00:00",1159.46,28.85,TRADE
TAS1,"2013/08/06 23:30:00",1135.59,29.28,TRADE
TAS1,"2013/08/07 00:00:00",1104.32,27.59,TRADE
TAS1,"2013/08/07 00:30:00",1115.96,39.26,TRADE
TAS1,"2013/08/07 01:00:00",1106.9,39.26,TRADE
TAS1,"2013/08/07 01:30:00",1118.74,39.26,TRADE
TAS1,"2013/08/07 02:00:00",1081.49,34.98,TRADE
TAS1,"2013/08/07 02:30:00",1079.36,34.2,TRADE
TAS1,"2013/08/07 03:00:00",1073.11,35.72,TRADE
TAS1,"2013/08/07 03:30:00",1101.08,39.26,TRADE
TAS1,"2013/08/07 04:00:00",1096.92,39.27,TRADE
TAS1,"2013/08/07 04:30:00",1110.07,39.27,TRADE
TAS1,"2013/08/07 05:00:00",1129.21,39.27,TRADE
TAS1,"2013/08/07 05:30:00",1160.25,39.28,TRADE
TAS1,"2013/08/07 06:00:00",1209.42,40.23,TRADE
TAS1,"2013/08/07 06:30:00",1307.09,45.29,TRADE
TAS1,"2013/08/07 07:00:00",1402,50.71,TRADE
TAS1,"2013/08/07 07:30:00",1502.52,50.04,TRADE
TAS1,"2013/08/07 08:00:00",1580.68,55.84,TRADE
TAS1,"2013/08/07 08:30:00",1552.11,55.82,TRADE
TAS1,"2013/08/07 09:00:00",1514.15,54.47,TRADE
TAS1,"2013/08/07 09:30:00",1484.31,52.07,TRADE
TAS1,"2013/08/07 10:00:00",1445.01,50.39,TRADE
TAS1,"2013/08/07 10:30:00",1384.38,52.37,TRADE
TAS1,"2013/08/07 11:00:00",1339.68,50.99,TRADE
TAS1,"2013/08/07 11:30:00",1311.4,74.75,TRADE
TAS1,"2013/08/07 12:00:00",1316.75,54.49,TRADE
TAS1,"2013/08/07 12:30:00",1284.8,49.6,TRADE
TAS1,"2013/08/07 13:00:00",1281.13,48.31,TRADE
TAS1,"2013/08/07 13:30:00",1296.8,55.29,TRADE
TAS1,"2013/08/07 14:00:00",1283.71,58.26,TRADE
TAS1,"2013/08/07 14:30:00",1307.96,50.07,TRADE
TAS1,"2013/08/07 15:00:00",1295.14,48.62,TRADE
TAS1,"2013/08/07 15:30:00",1311.07,49.73,TRADE
TAS1,"2013/08/07 16:00:00",1338.32,51.68,TRADE
TAS1,"2013/08/07 16:30:00",1371.11,54.32,TRADE
TAS1,"2013/08/07 17:00:00",1412.11,54.69,TRADE
TAS1,"2013/08/07 17:30:00",1478.4,51.33,TRADE
TAS1,"2013/08/07 18:00:00",1543.89,61.22,TRADE
TAS1,"2013/08/07 18:30:00",1555.8,55.92,TRADE
TAS1,"2013/08/07 19:00:00",1538.17,54.55,TRADE
TAS1,"2013/08/07 19:30:00",1521.06,49.44,TRADE
TAS1,"2013/08/07 20:00:00",1481.25,49.96,TRADE
TAS1,"2013/08/07 20:30:00",1445.19,55.36,TRADE
TAS1,"2013/08/07 21:00:00",1439.41,49.19,TRADE
TAS1,"2013/08/07 21:30:00",1381.5,47.55,TRADE
TAS1,"2013/08/07 22:00:00",1338.47,45.31,TRADE
TAS1,"2013/08/07 22:30:00",1302.25,44.65,TRADE
TAS1,"2013/08/07 23:00:00",1243.42,44.59,TRADE
TAS1,"2013/08/07 23:30:00",1200.28,44.7,TRADE
TAS1,"2013/08/08 00:00:00",1163.99,43.02,TRADE
TAS1,"2013/08/08 00:30:00",1140.76,42.5,TRADE
TAS1,"2013/08/08 01:00:00",1131.15,42.11,TRADE
TAS1,"2013/08/08 01:30:00",1091.54,39.57,TRADE
TAS1,"2013/08/08 02:00:00",1091.96,39.26,TRADE
TAS1,"2013/08/08 02:30:00",1093.99,38.93,TRADE
TAS1,"2013/08/08 03:00:00",1105.4,37.02,TRADE
TAS1,"2013/08/08 03:30:00",1105.48,32.82,TRADE
TAS1,"2013/08/08 04:00:00",1106.15,33.44,TRADE
TAS1,"2013/08/08 04:30:00",1115.76,38.07,TRADE
TAS1,"2013/08/08 05:00:00",1127.99,39.27,TRADE
TAS1,"2013/08/08 05:30:00",1149.79,39.28,TRADE
TAS1,"2013/08/08 06:00:00",1196.51,42.53,TRADE
TAS1,"2013/08/08 06:30:00",1282.43,45.29,TRADE
TAS1,"2013/08/08 07:00:00",1402.8,50.17,TRADE
TAS1,"2013/08/08 07:30:00",1525.78,48.37,TRADE
TAS1,"2013/08/08 08:00:00",1606.55,49.09,TRADE
TAS1,"2013/08/08 08:30:00",1586.12,48.34,TRADE
TAS1,"2013/08/08 09:00:00",1534.08,47.82,TRADE
TAS1,"2013/08/08 09:30:00",1493.21,47.29,TRADE
TAS1,"2013/08/08 10:00:00",1450.99,45.31,TRADE
TAS1,"2013/08/08 10:30:00",1383.89,45.3,TRADE
TAS1,"2013/08/08 11:00:00",1349.68,45.3,TRADE
TAS1,"2013/08/08 11:30:00",1333.53,44.81,TRADE
TAS1,"2013/08/08 12:00:00",1336.59,48.41,TRADE
TAS1,"2013/08/08 12:30:00",1305.42,47.03,TRADE
TAS1,"2013/08/08 13:00:00",1260.86,45.54,TRADE
TAS1,"2013/08/08 13:30:00",1246.19,45.34,TRADE
TAS1,"2013/08/08 14:00:00",1246.58,45.34,TRADE
TAS1,"2013/08/08 14:30:00",1269.12,45.34,TRADE
TAS1,"2013/08/08 15:00:00",1260.3,45.34,TRADE
TAS1,"2013/08/08 15:30:00",1262.27,45.34,TRADE
TAS1,"2013/08/08 16:00:00",1270.94,45.34,TRADE
TAS1,"2013/08/08 16:30:00",1282.7,45.34,TRADE
TAS1,"2013/08/08 17:00:00",1312.58,46.23,TRADE
TAS1,"2013/08/08 17:30:00",1397.07,47.81,TRADE
TAS1,"2013/08/08 18:00:00",1496.68,58.1,TRADE
TAS1,"2013/08/08 18:30:00",1513.46,57.28,TRADE
TAS1,"2013/08/08 19:00:00",1516.49,50.5,TRADE
TAS1,"2013/08/08 19:30:00",1505.49,48.35,TRADE
TAS1,"2013/08/08 20:00:00",1485.43,46.62,TRADE
TAS1,"2013/08/08 20:30:00",1471.8,46.86,TRADE
TAS1,"2013/08/08 21:00:00",1445.78,46.39,TRADE
TAS1,"2013/08/08 21:30:00",1411.03,45.86,TRADE
TAS1,"2013/08/08 22:00:00",1335.33,44.75,TRADE
TAS1,"2013/08/08 22:30:00",1298.66,45.29,TRADE
TAS1,"2013/08/08 23:00:00",1229.35,42.25,TRADE
TAS1,"2013/08/08 23:30:00",1157.79,34.97,TRADE
TAS1,"2013/08/09 00:00:00",1118.45,34.8,TRADE
TAS1,"2013/08/09 00:30:00",1087.05,28.79,TRADE
TAS1,"2013/08/09 01:00:00",1066.8,27.27,TRADE
TAS1,"2013/08/09 01:30:00",1056.91,35.83,TRADE
TAS1,"2013/08/09 02:00:00",1040.35,30.33,TRADE
TAS1,"2013/08/09 02:30:00",1016.95,37.17,TRADE
TAS1,"2013/08/09 03:00:00",1008.67,37.97,TRADE
TAS1,"2013/08/09 03:30:00",1033.85,38.07,TRADE
TAS1,"2013/08/09 04:00:00",1034.34,37.8,TRADE
TAS1,"2013/08/09 04:30:00",1054.37,37.64,TRADE
TAS1,"2013/08/09 05:00:00",1059.75,38.25,TRADE
TAS1,"2013/08/09 05:30:00",1110.87,39.27,TRADE
TAS1,"2013/08/09 06:00:00",1150.04,39.19,TRADE
TAS1,"2013/08/09 06:30:00",1221.93,39.36,TRADE
TAS1,"2013/08/09 07:00:00",1311.45,43.88,TRADE
TAS1,"2013/08/09 07:30:00",1411.14,44.6,TRADE
TAS1,"2013/08/09 08:00:00",1474.9,47.74,TRADE
TAS1,"2013/08/09 08:30:00",1501.43,47.79,TRADE
TAS1,"2013/08/09 09:00:00",1493.37,47.29,TRADE
TAS1,"2013/08/09 09:30:00",1459.08,45.74,TRADE
TAS1,"2013/08/09 10:00:00",1416.27,45.32,TRADE
TAS1,"2013/08/09 10:30:00",1403.04,45.32,TRADE
TAS1,"2013/08/09 11:00:00",1389.47,45.32,TRADE
TAS1,"2013/08/09 11:30:00",1367.99,45.32,TRADE
TAS1,"2013/08/09 12:00:00",1362.97,43.56,TRADE
TAS1,"2013/08/09 12:30:00",1324.67,48.29,TRADE
TAS1,"2013/08/09 13:00:00",1317.11,47.68,TRADE
TAS1,"2013/08/09 13:30:00",1313.03,48.04,TRADE
TAS1,"2013/08/09 14:00:00",1318.1,48.14,TRADE
TAS1,"2013/08/09 14:30:00",1360.97,48.05,TRADE
TAS1,"2013/08/09 15:00:00",1385.96,48.89,TRADE
TAS1,"2013/08/09 15:30:00",1390.84,48.93,TRADE
TAS1,"2013/08/09 16:00:00",1353.68,48.1,TRADE
TAS1,"2013/08/09 16:30:00",1321.77,45.86,TRADE
TAS1,"2013/08/09 17:00:00",1347.28,46.42,TRADE
TAS1,"2013/08/09 17:30:00",1422.59,46.62,TRADE
TAS1,"2013/08/09 18:00:00",1435.63,49.33,TRADE
TAS1,"2013/08/09 18:30:00",1403.23,49.14,TRADE
TAS1,"2013/08/09 19:00:00",1410.43,48.56,TRADE
TAS1,"2013/08/09 19:30:00",1391.64,47.28,TRADE
TAS1,"2013/08/09 20:00:00",1344.19,45.55,TRADE
TAS1,"2013/08/09 20:30:00",1314.99,45.32,TRADE
TAS1,"2013/08/09 21:00:00",1311.33,45.83,TRADE
TAS1,"2013/08/09 21:30:00",1264.2,45.3,TRADE
TAS1,"2013/08/09 22:00:00",1238.37,45.31,TRADE
TAS1,"2013/08/09 22:30:00",1180.93,42.96,TRADE
TAS1,"2013/08/09 23:00:00",1133.46,42.49,TRADE
TAS1,"2013/08/09 23:30:00",1069.27,39.26,TRADE
TAS1,"2013/08/10 00:00:00",1083.99,41.42,TRADE
TAS1,"2013/08/10 00:30:00",1032.52,39.26,TRADE
TAS1,"2013/08/10 01:00:00",1059.07,41.42,TRADE
TAS1,"2013/08/10 01:30:00",1048.93,41.42,TRADE
TAS1,"2013/08/10 02:00:00",1025.51,39.26,TRADE
TAS1,"2013/08/10 02:30:00",976.98,34.27,TRADE
TAS1,"2013/08/10 03:00:00",1002.07,38.43,TRADE
TAS1,"2013/08/10 03:30:00",1015.81,38.94,TRADE
TAS1,"2013/08/10 04:00:00",1021.78,38.36,TRADE
TAS1,"2013/08/10 04:30:00",1047.81,34.83,TRADE
TAS1,"2013/08/10 05:00:00",1024.64,37.23,TRADE
TAS1,"2013/08/10 05:30:00",1059.26,40.64,TRADE
TAS1,"2013/08/10 06:00:00",1070.78,39.2,TRADE
TAS1,"2013/08/10 06:30:00",1078.87,42.76,TRADE
TAS1,"2013/08/10 07:00:00",1098.79,27.31,TRADE
TAS1,"2013/08/10 07:30:00",1140.21,33.13,TRADE
TAS1,"2013/08/10 08:00:00",1176.15,39.19,TRADE
TAS1,"2013/08/10 08:30:00",1218.94,41.98,TRADE
TAS1,"2013/08/10 09:00:00",1288.7,44.83,TRADE
TAS1,"2013/08/10 09:30:00",1309.31,45.32,TRADE
TAS1,"2013/08/10 10:00:00",1292.18,45.3,TRADE
TAS1,"2013/08/10 10:30:00",1266.09,44.85,TRADE
TAS1,"2013/08/10 11:00:00",1242.36,44.07,TRADE
TAS1,"2013/08/10 11:30:00",1233.7,42.32,TRADE
TAS1,"2013/08/10 12:00:00",1229.02,35.06,TRADE
TAS1,"2013/08/10 12:30:00",1242.66,42.65,TRADE
TAS1,"2013/08/10 13:00:00",1197.54,42.31,TRADE
TAS1,"2013/08/10 13:30:00",1168.27,41.67,TRADE
TAS1,"2013/08/10 14:00:00",1150.01,41.4,TRADE
TAS1,"2013/08/10 14:30:00",1159.05,41.82,TRADE
TAS1,"2013/08/10 15:00:00",1145.03,41.96,TRADE
TAS1,"2013/08/10 15:30:00",1146.23,42.2,TRADE
TAS1,"2013/08/10 16:00:00",1149.56,43.25,TRADE
TAS1,"2013/08/10 16:30:00",1175.72,45.21,TRADE
TAS1,"2013/08/10 17:00:00",1218.93,45.27,TRADE
TAS1,"2013/08/10 17:30:00",1263.9,46.87,TRADE
TAS1,"2013/08/10 18:00:00",1323.65,52.19,TRADE
TAS1,"2013/08/10 18:30:00",1352.3,53.5,TRADE
TAS1,"2013/08/10 19:00:00",1345.25,52.48,TRADE
TAS1,"2013/08/10 19:30:00",1328.1,50.93,TRADE
TAS1,"2013/08/10 20:00:00",1294.78,46.19,TRADE
TAS1,"2013/08/10 20:30:00",1287.42,45.32,TRADE
TAS1,"2013/08/10 21:00:00",1269.67,45.32,TRADE
TAS1,"2013/08/10 21:30:00",1243.73,52.35,TRADE
TAS1,"2013/08/10 22:00:00",1217.63,51.65,TRADE
TAS1,"2013/08/10 22:30:00",1182.12,51.15,TRADE
TAS1,"2013/08/10 23:00:00",1146.18,50.65,TRADE
TAS1,"2013/08/10 23:30:00",1127.18,53.62,TRADE
TAS1,"2013/08/11 00:00:00",1102.67,59.13,TRADE
TAS1,"2013/08/11 00:30:00",1066.24,50.94,TRADE
TAS1,"2013/08/11 01:00:00",1053.66,48.45,TRADE
TAS1,"2013/08/11 01:30:00",1019.62,48.37,TRADE
TAS1,"2013/08/11 02:00:00",1010.94,47.01,TRADE
TAS1,"2013/08/11 02:30:00",1026.34,43.6,TRADE
TAS1,"2013/08/11 03:00:00",1013.71,42.19,TRADE
TAS1,"2013/08/11 03:30:00",1008.96,42.17,TRADE
TAS1,"2013/08/11 04:00:00",1015.9,40.8,TRADE
TAS1,"2013/08/11 04:30:00",1008.2,39.37,TRADE
TAS1,"2013/08/11 05:00:00",1016.68,40.05,TRADE
TAS1,"2013/08/11 05:30:00",1034.19,40.81,TRADE
TAS1,"2013/08/11 06:00:00",1034.54,40.54,TRADE
TAS1,"2013/08/11 06:30:00",1046.69,40.62,TRADE
TAS1,"2013/08/11 07:00:00",1065.24,41.74,TRADE
TAS1,"2013/08/11 07:30:00",1110.24,43.55,TRADE
TAS1,"2013/08/11 08:00:00",1171.75,45.27,TRADE
TAS1,"2013/08/11 08:30:00",1222.42,45.08,TRADE
TAS1,"2013/08/11 09:00:00",1243.45,45.34,TRADE
TAS1,"2013/08/11 09:30:00",1232.07,34.63,TRADE
TAS1,"2013/08/11 10:00:00",1221.41,44.91,TRADE
TAS1,"2013/08/11 10:30:00",1209,44.88,TRADE
TAS1,"2013/08/11 11:00:00",1195.95,43.96,TRADE
TAS1,"2013/08/11 11:30:00",1181.97,41.93,TRADE
TAS1,"2013/08/11 12:00:00",1170.74,41.07,TRADE
TAS1,"2013/08/11 12:30:00",1148.42,38.93,TRADE
TAS1,"2013/08/11 13:00:00",1163.69,39.08,TRADE
TAS1,"2013/08/11 13:30:00",1143,37.3,TRADE
TAS1,"2013/08/11 14:00:00",1139.18,35.28,TRADE
TAS1,"2013/08/11 14:30:00",1137.69,38.94,TRADE
TAS1,"2013/08/11 15:00:00",1131.14,38.4,TRADE
TAS1,"2013/08/11 15:30:00",1136.55,40.35,TRADE
TAS1,"2013/08/11 16:00:00",1148.31,41.12,TRADE
TAS1,"2013/08/11 16:30:00",1174.32,42.12,TRADE
TAS1,"2013/08/11 17:00:00",1217.45,44.85,TRADE
TAS1,"2013/08/11 17:30:00",1286.17,45.34,TRADE
TAS1,"2013/08/11 18:00:00",1348.52,50.21,TRADE
TAS1,"2013/08/11 18:30:00",1356,52.26,TRADE
TAS1,"2013/08/11 19:00:00",1350.19,49.36,TRADE
TAS1,"2013/08/11 19:30:00",1328.02,46.37,TRADE
TAS1,"2013/08/11 20:00:00",1287.95,31.48,TRADE
TAS1,"2013/08/11 20:30:00",1258.52,25.26,TRADE
TAS1,"2013/08/11 21:00:00",1253.65,27.6,TRADE
TAS1,"2013/08/11 21:30:00",1204.07,33.48,TRADE
TAS1,"2013/08/11 22:00:00",1178.03,32.23,TRADE
TAS1,"2013/08/11 22:30:00",1120.5,24.84,TRADE
TAS1,"2013/08/11 23:00:00",1075.86,20.18,TRADE
TAS1,"2013/08/11 23:30:00",1037.78,16.18,TRADE
TAS1,"2013/08/12 00:00:00",1017.32,24.99,TRADE
TAS1,"2013/08/12 00:30:00",1013.35,25.21,TRADE
TAS1,"2013/08/12 01:00:00",1000.43,32.49,TRADE
TAS1,"2013/08/12 01:30:00",968.85,38.07,TRADE
TAS1,"2013/08/12 02:00:00",957.48,36.16,TRADE
TAS1,"2013/08/12 02:30:00",940.26,35.35,TRADE
TAS1,"2013/08/12 03:00:00",938.13,33.98,TRADE
TAS1,"2013/08/12 03:30:00",947.23,36.15,TRADE
TAS1,"2013/08/12 04:00:00",952.72,34.11,TRADE
TAS1,"2013/08/12 04:30:00",957.25,39.28,TRADE
TAS1,"2013/08/12 05:00:00",966.56,39.28,TRADE
TAS1,"2013/08/12 05:30:00",1007.16,38.9,TRADE
TAS1,"2013/08/12 06:00:00",1054.69,34.81,TRADE
TAS1,"2013/08/12 06:30:00",1109.04,44.49,TRADE
TAS1,"2013/08/12 07:00:00",1235.65,52.64,TRADE
TAS1,"2013/08/12 07:30:00",1325.19,52.53,TRADE
TAS1,"2013/08/12 08:00:00",1379.04,45.34,TRADE
TAS1,"2013/08/12 08:30:00",1396.51,45.34,TRADE
TAS1,"2013/08/12 09:00:00",1391.37,45.34,TRADE
TAS1,"2013/08/12 09:30:00",1385.03,45.34,TRADE
TAS1,"2013/08/12 10:00:00",1373.07,34.66,TRADE
TAS1,"2013/08/12 10:30:00",1353.99,46.03,TRADE
TAS1,"2013/08/12 11:00:00",1331.97,46.91,TRADE
TAS1,"2013/08/12 11:30:00",1269.38,46.41,TRADE
TAS1,"2013/08/12 12:00:00",1290.39,45.31,TRADE
TAS1,"2013/08/12 12:30:00",1288.01,44.72,TRADE
TAS1,"2013/08/12 13:00:00",1293.03,45.32,TRADE
TAS1,"2013/08/12 13:30:00",1294.33,45.15,TRADE
TAS1,"2013/08/12 14:00:00",1275.64,44.79,TRADE
TAS1,"2013/08/12 14:30:00",1238.23,43.84,TRADE
TAS1,"2013/08/12 15:00:00",1216.94,43.06,TRADE
TAS1,"2013/08/12 15:30:00",1233,43.83,TRADE
TAS1,"2013/08/12 16:00:00",1253.88,44.78,TRADE
TAS1,"2013/08/12 16:30:00",1283.72,44.72,TRADE
TAS1,"2013/08/12 17:00:00",1321.45,45.32,TRADE
TAS1,"2013/08/12 17:30:00",1386.02,46.09,TRADE
TAS1,"2013/08/12 18:00:00",1454.92,53.87,TRADE
TAS1,"2013/08/12 18:30:00",1468.02,51.59,TRADE
TAS1,"2013/08/12 19:00:00",1467.25,49.34,TRADE
TAS1,"2013/08/12 19:30:00",1459.14,49.31,TRADE
TAS1,"2013/08/12 20:00:00",1428.88,45.35,TRADE
TAS1,"2013/08/12 20:30:00",1425.83,26.33,TRADE
TAS1,"2013/08/12 21:00:00",1400.56,25.3,TRADE
TAS1,"2013/08/12 21:30:00",1396.74,25.3,TRADE
TAS1,"2013/08/12 22:00:00",1336.77,25.3,TRADE
TAS1,"2013/08/12 22:30:00",1254.31,25.26,TRADE
TAS1,"2013/08/12 23:00:00",1218.75,25.26,TRADE
TAS1,"2013/08/12 23:30:00",1183.09,34.6,TRADE
TAS1,"2013/08/13 00:00:00",1160.55,35.36,TRADE
TAS1,"2013/08/13 00:30:00",1126.9,27.84,TRADE
TAS1,"2013/08/13 01:00:00",1121.26,27.56,TRADE
TAS1,"2013/08/13 01:30:00",1121.05,27.55,TRADE
TAS1,"2013/08/13 02:00:00",1106.21,27.42,TRADE
TAS1,"2013/08/13 02:30:00",1083.76,26.68,TRADE
TAS1,"2013/08/13 03:00:00",1108.08,33.18,TRADE
TAS1,"2013/08/13 03:30:00",1117.69,31.34,TRADE
TAS1,"2013/08/13 04:00:00",1078.54,40.97,TRADE
TAS1,"2013/08/13 04:30:00",1108.12,38.23,TRADE
TAS1,"2013/08/13 05:00:00",1102.28,40.03,TRADE
TAS1,"2013/08/13 05:30:00",1118.64,42.21,TRADE
TAS1,"2013/08/13 06:00:00",1144.44,41.88,TRADE
TAS1,"2013/08/13 06:30:00",1229.68,43.65,TRADE
TAS1,"2013/08/13 07:00:00",1303.55,47.28,TRADE
TAS1,"2013/08/13 07:30:00",1424.65,53.2,TRADE
TAS1,"2013/08/13 08:00:00",1495.43,60.09,TRADE
TAS1,"2013/08/13 08:30:00",1478.24,48.01,TRADE
TAS1,"2013/08/13 09:00:00",1429.43,48.01,TRADE
TAS1,"2013/08/13 09:30:00",1391.76,49.83,TRADE
TAS1,"2013/08/13 10:00:00",1336.71,39.36,TRADE
TAS1,"2013/08/13 10:30:00",1314.62,45.34,TRADE
TAS1,"2013/08/13 11:00:00",1264.72,45.32,TRADE
TAS1,"2013/08/13 11:30:00",1256.51,44.21,TRADE
TAS1,"2013/08/13 12:00:00",1257.91,43.83,TRADE
TAS1,"2013/08/13 12:30:00",1255.34,41.87,TRADE
TAS1,"2013/08/13 13:00:00",1248.26,41.84,TRADE
TAS1,"2013/08/13 13:30:00",1232.62,41.86,TRADE
TAS1,"2013/08/13 14:00:00",1211.87,41.85,TRADE
TAS1,"2013/08/13 14:30:00",1237.72,42.5,TRADE
TAS1,"2013/08/13 15:00:00",1239.82,43.08,TRADE
TAS1,"2013/08/13 15:30:00",1237.14,43.31,TRADE
TAS1,"2013/08/13 16:00:00",1266.88,43.7,TRADE
TAS1,"2013/08/13 16:30:00",1312.29,43.66,TRADE
TAS1,"2013/08/13 17:00:00",1387.09,44.27,TRADE
TAS1,"2013/08/13 17:30:00",1439.9,45.63,TRADE
TAS1,"2013/08/13 18:00:00",1481.46,48.42,TRADE
TAS1,"2013/08/13 18:30:00",1495.12,50.1,TRADE
TAS1,"2013/08/13 19:00:00",1457.35,48.61,TRADE
TAS1,"2013/08/13 19:30:00",1442.75,47.27,TRADE
TAS1,"2013/08/13 20:00:00",1407.31,46.41,TRADE
TAS1,"2013/08/13 20:30:00",1362.95,45.43,TRADE
TAS1,"2013/08/13 21:00:00",1317.16,209.59,TRADE
TAS1,"2013/08/13 21:30:00",1261.73,58.21,TRADE
TAS1,"2013/08/13 22:00:00",1232.84,51.75,TRADE
TAS1,"2013/08/13 22:30:00",1239.06,25.24,TRADE
TAS1,"2013/08/13 23:00:00",1176.82,25.23,TRADE
TAS1,"2013/08/13 23:30:00",1036.3,854.16,TRADE
TAS1,"2013/08/14 00:00:00",1008.79,57.72,TRADE
TAS1,"2013/08/14 00:30:00",985.77,56.5,TRADE
TAS1,"2013/08/14 01:00:00",981.21,44.14,TRADE
TAS1,"2013/08/14 01:30:00",960.07,30.42,TRADE
TAS1,"2013/08/14 02:00:00",965.37,3.53,TRADE
TAS1,"2013/08/14 02:30:00",982.38,3.27,TRADE
TAS1,"2013/08/14 03:00:00",973.8,25.23,TRADE
TAS1,"2013/08/14 03:30:00",996.69,25.71,TRADE
TAS1,"2013/08/14 04:00:00",986.52,25.24,TRADE
TAS1,"2013/08/14 04:30:00",972.93,25.05,TRADE
TAS1,"2013/08/14 05:00:00",980.38,25.43,TRADE
TAS1,"2013/08/14 05:30:00",1036.33,27.44,TRADE
TAS1,"2013/08/14 06:00:00",1055.71,28.38,TRADE
TAS1,"2013/08/14 06:30:00",1163.25,39.3,TRADE
TAS1,"2013/08/14 07:00:00",1265.73,41.02,TRADE
TAS1,"2013/08/14 07:30:00",1386.1,44.12,TRADE
TAS1,"2013/08/14 08:00:00",1461.49,44.34,TRADE
TAS1,"2013/08/14 08:30:00",1455.39,44.34,TRADE
TAS1,"2013/08/14 09:00:00",1432.11,44.34,TRADE
TAS1,"2013/08/14 09:30:00",1457.7,44.34,TRADE
TAS1,"2013/08/14 10:00:00",1408.28,44.34,TRADE
TAS1,"2013/08/14 10:30:00",1385.02,44.34,TRADE
TAS1,"2013/08/14 11:00:00",1383.71,45.33,TRADE
TAS1,"2013/08/14 11:30:00",1368.31,46.64,TRADE
TAS1,"2013/08/14 12:00:00",1345.88,42.54,TRADE
TAS1,"2013/08/14 12:30:00",1273.48,41,TRADE
TAS1,"2013/08/14 13:00:00",1260.11,39.34,TRADE
TAS1,"2013/08/14 13:30:00",1242.53,40.95,TRADE
TAS1,"2013/08/14 14:00:00",1218,39.34,TRADE
TAS1,"2013/08/14 14:30:00",1238.88,39.34,TRADE
TAS1,"2013/08/14 15:00:00",1236.04,39.34,TRADE
TAS1,"2013/08/14 15:30:00",1252.75,40.88,TRADE
TAS1,"2013/08/14 16:00:00",1319.74,42.65,TRADE
TAS1,"2013/08/14 16:30:00",1327.08,39.34,TRADE
TAS1,"2013/08/14 17:00:00",1372.15,42.65,TRADE
TAS1,"2013/08/14 17:30:00",1447.71,45.42,TRADE
TAS1,"2013/08/14 18:00:00",1506.28,44.34,TRADE
TAS1,"2013/08/14 18:30:00",1478.68,51,TRADE
TAS1,"2013/08/14 19:00:00",1457.31,51.45,TRADE
TAS1,"2013/08/14 19:30:00",1440.61,49.28,TRADE
TAS1,"2013/08/14 20:00:00",1416.96,47.56,TRADE
TAS1,"2013/08/14 20:30:00",1397.5,47.54,TRADE
TAS1,"2013/08/14 21:00:00",1362.96,48.18,TRADE
TAS1,"2013/08/14 21:30:00",1305.3,39.34,TRADE
TAS1,"2013/08/14 22:00:00",1261,38.83,TRADE
TAS1,"2013/08/14 22:30:00",1220.26,35.01,TRADE
TAS1,"2013/08/14 23:00:00",1145.18,34.82,TRADE
TAS1,"2013/08/14 23:30:00",1107.97,33.22,TRADE
TAS1,"2013/08/15 00:00:00",1077.6,34.14,TRADE
TAS1,"2013/08/15 00:30:00",1059.2,38.84,TRADE
TAS1,"2013/08/15 01:00:00",1045.15,36.94,TRADE
TAS1,"2013/08/15 01:30:00",1031.55,36.52,TRADE
TAS1,"2013/08/15 02:00:00",1019.64,32.84,TRADE
TAS1,"2013/08/15 02:30:00",1015.6,36.32,TRADE
TAS1,"2013/08/15 03:00:00",1003.34,26.73,TRADE
TAS1,"2013/08/15 03:30:00",1021.23,27.35,TRADE
TAS1,"2013/08/15 04:00:00",1019.15,27.31,TRADE
TAS1,"2013/08/15 04:30:00",1029.98,27.43,TRADE
TAS1,"2013/08/15 05:00:00",1035.38,28.58,TRADE
TAS1,"2013/08/15 05:30:00",1024.68,31.54,TRADE
TAS1,"2013/08/15 06:00:00",1048.75,35.26,TRADE
TAS1,"2013/08/15 06:30:00",1120.37,39.3,TRADE
TAS1,"2013/08/15 07:00:00",1228.26,39.3,TRADE
TAS1,"2013/08/15 07:30:00",1352.51,43.81,TRADE
TAS1,"2013/08/15 08:00:00",1409.24,44.34,TRADE
TAS1,"2013/08/15 08:30:00",1405.26,44.34,TRADE
TAS1,"2013/08/15 09:00:00",1349.06,44.34,TRADE
TAS1,"2013/08/15 09:30:00",1306.38,43.81,TRADE
TAS1,"2013/08/15 10:00:00",1259.09,25.27,TRADE
TAS1,"2013/08/15 10:30:00",1228.57,25.24,TRADE
TAS1,"2013/08/15 11:00:00",1212.43,25.25,TRADE
TAS1,"2013/08/15 11:30:00",1176.41,40.99,TRADE
TAS1,"2013/08/15 12:00:00",1084.98,26.1,TRADE
TAS1,"2013/08/15 12:30:00",1073.15,34.68,TRADE
TAS1,"2013/08/15 13:00:00",1084.96,42.14,TRADE
TAS1,"2013/08/15 13:30:00",1065.21,42.75,TRADE
TAS1,"2013/08/15 14:00:00",1121.89,45.42,TRADE
TAS1,"2013/08/15 14:30:00",1125.25,41.29,TRADE
TAS1,"2013/08/15 15:00:00",1134.73,40.19,TRADE
TAS1,"2013/08/15 15:30:00",1168.33,35.97,TRADE
TAS1,"2013/08/15 16:00:00",1151.67,26.78,TRADE
TAS1,"2013/08/15 16:30:00",1167.69,29.77,TRADE
TAS1,"2013/08/15 17:00:00",1196.55,34.29,TRADE
TAS1,"2013/08/15 17:30:00",1285.47,38.49,TRADE
TAS1,"2013/08/15 18:00:00",1411.07,44.18,TRADE
TAS1,"2013/08/15 18:30:00",1395.46,41,TRADE
TAS1,"2013/08/15 19:00:00",1365.02,40.99,TRADE
TAS1,"2013/08/15 19:30:00",1356.72,40.17,TRADE
TAS1,"2013/08/15 20:00:00",1314.33,39.34,TRADE
TAS1,"2013/08/15 20:30:00",1304.94,39.34,TRADE
TAS1,"2013/08/15 21:00:00",1294.41,39.34,TRADE
TAS1,"2013/08/15 21:30:00",1264.64,39.34,TRADE
TAS1,"2013/08/15 22:00:00",1215.47,25.25,TRADE
TAS1,"2013/08/15 22:30:00",1169.22,34.89,TRADE
TAS1,"2013/08/15 23:00:00",1116.44,34.28,TRADE
TAS1,"2013/08/15 23:30:00",1060.1,31.98,TRADE
TAS1,"2013/08/16 00:00:00",1019.35,35.01,TRADE
TAS1,"2013/08/16 00:30:00",1005.43,34.63,TRADE
TAS1,"2013/08/16 01:00:00",996.74,39.87,TRADE
TAS1,"2013/08/16 01:30:00",987.9,37.8,TRADE
TAS1,"2013/08/16 02:00:00",984.34,33.7,TRADE
TAS1,"2013/08/16 02:30:00",982.72,28.14,TRADE
TAS1,"2013/08/16 03:00:00",970.25,25.23,TRADE
TAS1,"2013/08/16 03:30:00",978.99,25.36,TRADE
TAS1,"2013/08/16 04:00:00",978.05,25.35,TRADE
TAS1,"2013/08/16 04:30:00",982.86,25.24,TRADE
TAS1,"2013/08/16 05:00:00",1004.08,25.24,TRADE
TAS1,"2013/08/16 05:30:00",1034.62,28.63,TRADE
TAS1,"2013/08/16 06:00:00",1063.47,30.1,TRADE
TAS1,"2013/08/16 06:30:00",1135.32,39.2,TRADE
TAS1,"2013/08/16 07:00:00",1238.41,40.18,TRADE
TAS1,"2013/08/16 07:30:00",1332.63,40.07,TRADE
TAS1,"2013/08/16 08:00:00",1387.61,40.02,TRADE
TAS1,"2013/08/16 08:30:00",1355.02,35.88,TRADE
TAS1,"2013/08/16 09:00:00",1354.32,39.54,TRADE
TAS1,"2013/08/16 09:30:00",1342.95,40.06,TRADE
TAS1,"2013/08/16 10:00:00",1311.59,38.93,TRADE
TAS1,"2013/08/16 10:30:00",1281.67,40.02,TRADE
TAS1,"2013/08/16 11:00:00",1222.43,38.93,TRADE
TAS1,"2013/08/16 11:30:00",1198.9,38,TRADE
TAS1,"2013/08/16 12:00:00",1179.61,66.97,TRADE
TAS1,"2013/08/16 12:30:00",1180.29,38.29,TRADE
TAS1,"2013/08/16 13:00:00",1140.83,38.28,TRADE
TAS1,"2013/08/16 13:30:00",1128.59,38.29,TRADE
TAS1,"2013/08/16 14:00:00",1130.19,38.29,TRADE
TAS1,"2013/08/16 14:30:00",1135.95,38.29,TRADE
TAS1,"2013/08/16 15:00:00",1117.84,34.95,TRADE
TAS1,"2013/08/16 15:30:00",1128.31,37.61,TRADE
TAS1,"2013/08/16 16:00:00",1127.28,38.3,TRADE
TAS1,"2013/08/16 16:30:00",1141.08,38.3,TRADE
TAS1,"2013/08/16 17:00:00",1190.95,38.31,TRADE
TAS1,"2013/08/16 17:30:00",1244.2,38.34,TRADE
TAS1,"2013/08/16 18:00:00",1320.77,39.17,TRADE
TAS1,"2013/08/16 18:30:00",1345.81,42.31,TRADE
TAS1,"2013/08/16 19:00:00",1323.4,39.17,TRADE
TAS1,"2013/08/16 19:30:00",1255.41,38.34,TRADE
TAS1,"2013/08/16 20:00:00",1241.75,38.34,TRADE
TAS1,"2013/08/16 20:30:00",1235.57,38.34,TRADE
TAS1,"2013/08/16 21:00:00",1209.68,38.32,TRADE
TAS1,"2013/08/16 21:30:00",1166.12,38.29,TRADE
TAS1,"2013/08/16 22:00:00",1089.83,34.06,TRADE
TAS1,"2013/08/16 22:30:00",1046.81,33.35,TRADE
TAS1,"2013/08/16 23:00:00",1037.6,34.28,TRADE
TAS1,"2013/08/16 23:30:00",1008.39,34.28,TRADE
TAS1,"2013/08/17 00:00:00",996.67,34.28,TRADE
TAS1,"2013/08/17 00:30:00",975.41,34.28,TRADE
TAS1,"2013/08/17 01:00:00",948.15,34.28,TRADE
TAS1,"2013/08/17 01:30:00",941.08,34.28,TRADE
TAS1,"2013/08/17 02:00:00",947.2,34.28,TRADE
TAS1,"2013/08/17 02:30:00",885.93,32.25,TRADE
TAS1,"2013/08/17 03:00:00",945.08,34.24,TRADE
TAS1,"2013/08/17 03:30:00",938.66,25.24,TRADE
TAS1,"2013/08/17 04:00:00",890.35,10.42,TRADE
TAS1,"2013/08/17 04:30:00",868.79,5.53,TRADE
TAS1,"2013/08/17 05:00:00",877.65,17.93,TRADE
TAS1,"2013/08/17 05:30:00",885,22.67,TRADE
TAS1,"2013/08/17 06:00:00",914.35,25.13,TRADE
TAS1,"2013/08/17 06:30:00",948.39,25.16,TRADE
TAS1,"2013/08/17 07:00:00",978.94,27.34,TRADE
TAS1,"2013/08/17 07:30:00",1061.34,31.6,TRADE
TAS1,"2013/08/17 08:00:00",1094.73,33.8,TRADE
TAS1,"2013/08/17 08:30:00",1117.39,34.26,TRADE
TAS1,"2013/08/17 09:00:00",1149.52,34.26,TRADE
TAS1,"2013/08/17 09:30:00",1213.82,36.95,TRADE
TAS1,"2013/08/17 10:00:00",1240.01,35.61,TRADE
TAS1,"2013/08/17 10:30:00",1241.09,36.96,TRADE
TAS1,"2013/08/17 11:00:00",1203.4,34.94,TRADE
TAS1,"2013/08/17 11:30:00",1151.8,34.93,TRADE
TAS1,"2013/08/17 12:00:00",1214.74,37.63,TRADE
TAS1,"2013/08/17 12:30:00",1140.39,34.26,TRADE
TAS1,"2013/08/17 13:00:00",1134.5,34.26,TRADE
TAS1,"2013/08/17 13:30:00",1116.66,34.26,TRADE
TAS1,"2013/08/17 14:00:00",1141.83,34.26,TRADE
TAS1,"2013/08/17 14:30:00",1113.46,33.8,TRADE
TAS1,"2013/08/17 15:00:00",1046.1,28.14,TRADE
TAS1,"2013/08/17 15:30:00",1043.82,30.67,TRADE
TAS1,"2013/08/17 16:00:00",1067.05,32.87,TRADE
TAS1,"2013/08/17 16:30:00",1143.35,35.1,TRADE
TAS1,"2013/08/17 17:00:00",1223.29,38.02,TRADE
TAS1,"2013/08/17 17:30:00",1278.98,46.74,TRADE
TAS1,"2013/08/17 18:00:00",1339.01,50.88,TRADE
TAS1,"2013/08/17 18:30:00",1342.92,48.92,TRADE
TAS1,"2013/08/17 19:00:00",1365.16,49.14,TRADE
TAS1,"2013/08/17 19:30:00",1311.27,46.04,TRADE
TAS1,"2013/08/17 20:00:00",1320.54,45.35,TRADE
TAS1,"2013/08/17 20:30:00",1328.56,47.52,TRADE
TAS1,"2013/08/17 21:00:00",1312.12,82.33,TRADE
TAS1,"2013/08/17 21:30:00",1305.55,46.35,TRADE
TAS1,"2013/08/17 22:00:00",1263.66,45.79,TRADE
TAS1,"2013/08/17 22:30:00",1202.2,44.14,TRADE
TAS1,"2013/08/17 23:00:00",1116.07,90.77,TRADE
TAS1,"2013/08/17 23:30:00",1075.39,56.15,TRADE
TAS1,"2013/08/18 00:00:00",1023.45,69.65,TRADE
TAS1,"2013/08/18 00:30:00",998.46,45.59,TRADE
TAS1,"2013/08/18 01:00:00",987.21,44.23,TRADE
TAS1,"2013/08/18 01:30:00",993.56,42.57,TRADE
TAS1,"2013/08/18 02:00:00",997.36,40.46,TRADE
TAS1,"2013/08/18 02:30:00",973.62,37.13,TRADE
TAS1,"2013/08/18 03:00:00",975,35.4,TRADE
TAS1,"2013/08/18 03:30:00",970.98,34.69,TRADE
TAS1,"2013/08/18 04:00:00",977.04,34.47,TRADE
TAS1,"2013/08/18 04:30:00",985.74,36.04,TRADE
TAS1,"2013/08/18 05:00:00",987.3,36.58,TRADE
TAS1,"2013/08/18 05:30:00",998.06,36.87,TRADE
TAS1,"2013/08/18 06:00:00",999.5,50.5,TRADE
TAS1,"2013/08/18 06:30:00",1029.29,37.04,TRADE
TAS1,"2013/08/18 07:00:00",1052.26,51.82,TRADE
TAS1,"2013/08/18 07:30:00",1060.82,86.4,TRADE
TAS1,"2013/08/18 08:00:00",1110.44,125.65,TRADE
TAS1,"2013/08/18 08:30:00",1184.37,37.84,TRADE
TAS1,"2013/08/18 09:00:00",1244.48,38.32,TRADE
TAS1,"2013/08/18 09:30:00",1239.59,38.31,TRADE
TAS1,"2013/08/18 10:00:00",1243.68,38.97,TRADE
TAS1,"2013/08/18 10:30:00",1257.41,38.54,TRADE
TAS1,"2013/08/18 11:00:00",1252.97,38.35,TRADE
TAS1,"2013/08/18 11:30:00",1232.3,37.28,TRADE
TAS1,"2013/08/18 12:00:00",1209.01,413.43,TRADE
TAS1,"2013/08/18 12:30:00",1064.87,811.19,TRADE
TAS1,"2013/08/18 13:00:00",1238.31,26.29,TRADE
TAS1,"2013/08/18 13:30:00",1200.23,35.63,TRADE
TAS1,"2013/08/18 14:00:00",1215.15,37.32,TRADE
TAS1,"2013/08/18 14:30:00",1168.46,35.49,TRADE
TAS1,"2013/08/18 15:00:00",1194.73,36.97,TRADE
TAS1,"2013/08/18 15:30:00",1223.88,38.13,TRADE
TAS1,"2013/08/18 16:00:00",1248.02,38.34,TRADE
TAS1,"2013/08/18 16:30:00",1252.13,38.33,TRADE
TAS1,"2013/08/18 17:00:00",1351.55,38.43,TRADE
TAS1,"2013/08/18 17:30:00",1399.47,42.45,TRADE
TAS1,"2013/08/18 18:00:00",1462.87,48.09,TRADE
TAS1,"2013/08/18 18:30:00",1478.39,50.44,TRADE
TAS1,"2013/08/18 19:00:00",1481.9,37.66,TRADE
TAS1,"2013/08/18 19:30:00",1465.44,38.34,TRADE
TAS1,"2013/08/18 20:00:00",1415.72,38.34,TRADE
TAS1,"2013/08/18 20:30:00",1435.41,38.34,TRADE
TAS1,"2013/08/18 21:00:00",1392.91,48.69,TRADE
TAS1,"2013/08/18 21:30:00",1351.43,53.1,TRADE
TAS1,"2013/08/18 22:00:00",1327.72,38.65,TRADE
TAS1,"2013/08/18 22:30:00",1276.44,38.31,TRADE
TAS1,"2013/08/18 23:00:00",1225.61,38.3,TRADE
TAS1,"2013/08/18 23:30:00",1173.36,39.84,TRADE
TAS1,"2013/08/19 00:00:00",1143.92,38.34,TRADE
TAS1,"2013/08/19 00:30:00",1133.84,38.34,TRADE
TAS1,"2013/08/19 01:00:00",1118.59,37.93,TRADE
TAS1,"2013/08/19 01:30:00",1111.49,37.77,TRADE
TAS1,"2013/08/19 02:00:00",1102.18,39.78,TRADE
TAS1,"2013/08/19 02:30:00",1097.66,34.65,TRADE
TAS1,"2013/08/19 03:00:00",1092.5,37.69,TRADE
TAS1,"2013/08/19 03:30:00",1093.24,36.64,TRADE
TAS1,"2013/08/19 04:00:00",1097.09,34.27,TRADE
TAS1,"2013/08/19 04:30:00",1120.25,36.12,TRADE
TAS1,"2013/08/19 05:00:00",1124.12,38.98,TRADE
TAS1,"2013/08/19 05:30:00",1146.38,40.18,TRADE
TAS1,"2013/08/19 06:00:00",1101.35,40.19,TRADE
TAS1,"2013/08/19 06:30:00",1179.35,40.21,TRADE
TAS1,"2013/08/19 07:00:00",1277.38,40.3,TRADE
TAS1,"2013/08/19 07:30:00",1369.41,40.22,TRADE
TAS1,"2013/08/19 08:00:00",1471.25,41.8,TRADE
TAS1,"2013/08/19 08:30:00",1557.6,39.99,TRADE
TAS1,"2013/08/19 09:00:00",1511.32,55.99,TRADE
TAS1,"2013/08/19 09:30:00",1486.16,51.76,TRADE
TAS1,"2013/08/19 10:00:00",1441.56,47.75,TRADE
TAS1,"2013/08/19 10:30:00",1339.94,48.01,TRADE
TAS1,"2013/08/19 11:00:00",1294.73,39.99,TRADE
TAS1,"2013/08/19 11:30:00",1273.05,39.17,TRADE
TAS1,"2013/08/19 12:00:00",1254.58,41.65,TRADE
TAS1,"2013/08/19 12:30:00",1229.56,39.99,TRADE
TAS1,"2013/08/19 13:00:00",1219.77,39.99,TRADE
TAS1,"2013/08/19 13:30:00",1192.47,38.34,TRADE
TAS1,"2013/08/19 14:00:00",1167.37,38.34,TRADE
TAS1,"2013/08/19 14:30:00",1195.31,48.98,TRADE
TAS1,"2013/08/19 15:00:00",1190.35,49.25,TRADE
TAS1,"2013/08/19 15:30:00",1194.04,48.62,TRADE
TAS1,"2013/08/19 16:00:00",1205.17,46.87,TRADE
TAS1,"2013/08/19 16:30:00",1217.28,50.43,TRADE
TAS1,"2013/08/19 17:00:00",1260.36,54.04,TRADE
TAS1,"2013/08/19 17:30:00",1328.82,46.62,TRADE
TAS1,"2013/08/19 18:00:00",1386.38,61.11,TRADE
TAS1,"2013/08/19 18:30:00",1414.16,69.19,TRADE
TAS1,"2013/08/19 19:00:00",1399.38,58.2,TRADE
TAS1,"2013/08/19 19:30:00",1379.24,52.37,TRADE
TAS1,"2013/08/19 20:00:00",1340.09,36.12,TRADE
TAS1,"2013/08/19 20:30:00",1349.27,39.03,TRADE
TAS1,"2013/08/19 21:00:00",1329.22,39.86,TRADE
TAS1,"2013/08/19 21:30:00",1311.04,39.92,TRADE
TAS1,"2013/08/19 22:00:00",1251.91,37.06,TRADE
TAS1,"2013/08/19 22:30:00",1208.8,34.26,TRADE
TAS1,"2013/08/19 23:00:00",1155.37,40.19,TRADE
TAS1,"2013/08/19 23:30:00",1104.16,40.19,TRADE
TAS1,"2013/08/20 00:00:00",1062.37,39.94,TRADE
TAS1,"2013/08/20 00:30:00",1031.7,35.99,TRADE
TAS1,"2013/08/20 01:00:00",1030.65,38.4,TRADE
TAS1,"2013/08/20 01:30:00",1022.04,37.14,TRADE
TAS1,"2013/08/20 02:00:00",1019.39,36.15,TRADE
TAS1,"2013/08/20 02:30:00",1011.73,34.62,TRADE
TAS1,"2013/08/20 03:00:00",1013.07,36.02,TRADE
TAS1,"2013/08/20 03:30:00",1013.51,36.89,TRADE
TAS1,"2013/08/20 04:00:00",1012.23,36.24,TRADE
TAS1,"2013/08/20 04:30:00",1016.83,40.19,TRADE
TAS1,"2013/08/20 05:00:00",1044.61,40.19,TRADE
TAS1,"2013/08/20 05:30:00",1073.65,40.19,TRADE
TAS1,"2013/08/20 06:00:00",1116.34,40.19,TRADE
TAS1,"2013/08/20 06:30:00",1212.21,40.19,TRADE
TAS1,"2013/08/20 07:00:00",1309.19,40.27,TRADE
TAS1,"2013/08/20 07:30:00",1414.49,40.28,TRADE
TAS1,"2013/08/20 08:00:00",1473.14,43.91,TRADE
TAS1,"2013/08/20 08:30:00",1473.18,40.29,TRADE
TAS1,"2013/08/20 09:00:00",1406.92,40.3,TRADE
TAS1,"2013/08/20 09:30:00",1381.51,40.3,TRADE
TAS1,"2013/08/20 10:00:00",1357.95,45.52,TRADE
TAS1,"2013/08/20 10:30:00",1330.71,48.28,TRADE
TAS1,"2013/08/20 11:00:00",1300.52,47.33,TRADE
TAS1,"2013/08/20 11:30:00",1261.25,42.83,TRADE
TAS1,"2013/08/20 12:00:00",1242.8,42.83,TRADE
TAS1,"2013/08/20 12:30:00",1242.95,45.83,TRADE
TAS1,"2013/08/20 13:00:00",1235.51,47.33,TRADE
TAS1,"2013/08/20 13:30:00",1225.14,38.34,TRADE
TAS1,"2013/08/20 14:00:00",1243.8,41.34,TRADE
TAS1,"2013/08/20 14:30:00",1251.57,45.83,TRADE
TAS1,"2013/08/20 15:00:00",1251.84,45.83,TRADE
TAS1,"2013/08/20 15:30:00",1247.27,42.84,TRADE
TAS1,"2013/08/20 16:00:00",1255.44,47.33,TRADE
TAS1,"2013/08/20 16:30:00",1304.23,47.34,TRADE
TAS1,"2013/08/20 17:00:00",1327.72,61.61,TRADE
TAS1,"2013/08/20 17:30:00",1413.19,66.5,TRADE
TAS1,"2013/08/20 18:00:00",1472.27,111.71,TRADE
TAS1,"2013/08/20 18:30:00",1529.73,103.86,TRADE
TAS1,"2013/08/20 19:00:00",1491.09,132.6,TRADE
TAS1,"2013/08/20 19:30:00",1488.42,59.98,TRADE
TAS1,"2013/08/20 20:00:00",1490.79,62.25,TRADE
TAS1,"2013/08/20 20:30:00",1514.25,45.82,TRADE
TAS1,"2013/08/20 21:00:00",1502.75,41.33,TRADE
TAS1,"2013/08/20 21:30:00",1466.39,38.32,TRADE
TAS1,"2013/08/20 22:00:00",1434.12,38.33,TRADE
TAS1,"2013/08/20 22:30:00",1380.49,38.31,TRADE
TAS1,"2013/08/20 23:00:00",1314.98,37.2,TRADE
TAS1,"2013/08/20 23:30:00",1260.34,38.27,TRADE
TAS1,"2013/08/21 00:00:00",1200.98,37.09,TRADE
TAS1,"2013/08/21 00:30:00",1168,36.27,TRADE
TAS1,"2013/08/21 01:00:00",1170.61,35.9,TRADE
TAS1,"2013/08/21 01:30:00",1172.17,35.78,TRADE
TAS1,"2013/08/21 02:00:00",1169.56,35.9,TRADE
TAS1,"2013/08/21 02:30:00",1187.12,36.43,TRADE
TAS1,"2013/08/21 03:00:00",1196.61,36.75,TRADE
TAS1,"2013/08/21 03:30:00",1198.67,36.58,TRADE
TAS1,"2013/08/21 04:00:00",1202.22,35.83,TRADE
TAS1,"2013/08/21 04:30:00",1200.23,38.29,TRADE
TAS1,"2013/08/21 05:00:00",1218.54,38.29,TRADE
TAS1,"2013/08/21 05:30:00",1262.26,38.3,TRADE
TAS1,"2013/08/21 06:00:00",1305.59,38.3,TRADE
TAS1,"2013/08/21 06:30:00",1389.87,38.31,TRADE
TAS1,"2013/08/21 07:00:00",1505.91,49.52,TRADE
TAS1,"2013/08/21 07:30:00",1610.81,131.72,TRADE
TAS1,"2013/08/21 08:00:00",1650.34,66.74,TRADE
TAS1,"2013/08/21 08:30:00",1624.06,61.96,TRADE
TAS1,"2013/08/21 09:00:00",1608.32,58.98,TRADE
TAS1,"2013/08/21 09:30:00",1562.62,48.97,TRADE
TAS1,"2013/08/21 10:00:00",1533.51,41.31,TRADE
TAS1,"2013/08/21 10:30:00",1471.27,55.02,TRADE
TAS1,"2013/08/21 11:00:00",1427,57.22,TRADE
TAS1,"2013/08/21 11:30:00",1397.3,54.72,TRADE
TAS1,"2013/08/21 12:00:00",1368.04,54.81,TRADE
TAS1,"2013/08/21 12:30:00",1349.17,51.95,TRADE
TAS1,"2013/08/21 13:00:00",1306.88,47.35,TRADE
TAS1,"2013/08/21 13:30:00",1313.41,47.35,TRADE
TAS1,"2013/08/21 14:00:00",1261.28,42.83,TRADE
TAS1,"2013/08/21 14:30:00",1295.42,47.35,TRADE
TAS1,"2013/08/21 15:00:00",1296.6,47.37,TRADE
TAS1,"2013/08/21 15:30:00",1282.07,47.34,TRADE
TAS1,"2013/08/21 16:00:00",1344.11,47.43,TRADE
TAS1,"2013/08/21 16:30:00",1305.01,47.4,TRADE
TAS1,"2013/08/21 17:00:00",1374.16,53.42,TRADE
TAS1,"2013/08/21 17:30:00",1432.27,49.56,TRADE
TAS1,"2013/08/21 18:00:00",1491.99,63.48,TRADE
TAS1,"2013/08/21 18:30:00",1493.65,62.89,TRADE
TAS1,"2013/08/21 19:00:00",1466.01,57.34,TRADE
TAS1,"2013/08/21 19:30:00",1448.56,53.02,TRADE
TAS1,"2013/08/21 20:00:00",1431.64,50.71,TRADE
TAS1,"2013/08/21 20:30:00",1420.14,52.03,TRADE
TAS1,"2013/08/21 21:00:00",1343.28,36.76,TRADE
TAS1,"2013/08/21 21:30:00",1319.5,40.15,TRADE
TAS1,"2013/08/21 22:00:00",1270.59,39.96,TRADE
TAS1,"2013/08/21 22:30:00",1208.68,40.13,TRADE
TAS1,"2013/08/21 23:00:00",1148.9,39.92,TRADE
TAS1,"2013/08/21 23:30:00",1106.24,40.19,TRADE
TAS1,"2013/08/22 00:00:00",1067.35,38.93,TRADE
TAS1,"2013/08/22 00:30:00",1040.51,39.04,TRADE
TAS1,"2013/08/22 01:00:00",1000.71,34.26,TRADE
TAS1,"2013/08/22 01:30:00",994.14,34.26,TRADE
TAS1,"2013/08/22 02:00:00",992.87,34.26,TRADE
TAS1,"2013/08/22 02:30:00",979.26,33.8,TRADE
TAS1,"2013/08/22 03:00:00",979.15,33.91,TRADE
TAS1,"2013/08/22 03:30:00",968.55,33.41,TRADE
TAS1,"2013/08/22 04:00:00",967.48,33.19,TRADE
TAS1,"2013/08/22 04:30:00",975.31,33.8,TRADE
TAS1,"2013/08/22 05:00:00",994.63,34.07,TRADE
TAS1,"2013/08/22 05:30:00",1022.97,34.87,TRADE
TAS1,"2013/08/22 06:00:00",1064.58,40.13,TRADE
TAS1,"2013/08/22 06:30:00",1139.78,40.19,TRADE
TAS1,"2013/08/22 07:00:00",1244.78,40.24,TRADE
TAS1,"2013/08/22 07:30:00",1367.37,42.71,TRADE
TAS1,"2013/08/22 08:00:00",1416.48,41.11,TRADE
TAS1,"2013/08/22 08:30:00",1421.47,40.8,TRADE
TAS1,"2013/08/22 09:00:00",1421.88,41.54,TRADE
TAS1,"2013/08/22 09:30:00",1364.58,38.33,TRADE
TAS1,"2013/08/22 10:00:00",1335.85,38.31,TRADE
TAS1,"2013/08/22 10:30:00",1293.07,37.64,TRADE
TAS1,"2013/08/22 11:00:00",1282.39,38.34,TRADE
TAS1,"2013/08/22 11:30:00",1325,47.34,TRADE
TAS1,"2013/08/22 12:00:00",1279.5,47.33,TRADE
TAS1,"2013/08/22 12:30:00",1197.79,39.99,TRADE
TAS1,"2013/08/22 13:00:00",1183.76,39.15,TRADE
TAS1,"2013/08/22 13:30:00",1192.77,40.82,TRADE
TAS1,"2013/08/22 14:00:00",1194.8,41.65,TRADE
TAS1,"2013/08/22 14:30:00",1222.18,43.3,TRADE
TAS1,"2013/08/22 15:00:00",1226.08,40.82,TRADE
TAS1,"2013/08/22 15:30:00",1253.59,39.17,TRADE
TAS1,"2013/08/22 16:00:00",1306.68,40.82,TRADE
TAS1,"2013/08/22 16:30:00",1304.74,40.82,TRADE
TAS1,"2013/08/22 17:00:00",1339.45,43.97,TRADE
TAS1,"2013/08/22 17:30:00",1405.6,47.48,TRADE
TAS1,"2013/08/22 18:00:00",1449.68,52.11,TRADE
TAS1,"2013/08/22 18:30:00",1428.47,53.48,TRADE
TAS1,"2013/08/22 19:00:00",1425.22,49.46,TRADE
TAS1,"2013/08/22 19:30:00",1451.3,47.84,TRADE
TAS1,"2013/08/22 20:00:00",1433.4,47.34,TRADE
TAS1,"2013/08/22 20:30:00",1371.09,41.34,TRADE
TAS1,"2013/08/22 21:00:00",1321.24,38.34,TRADE
TAS1,"2013/08/22 21:30:00",1265.79,31.37,TRADE
TAS1,"2013/08/22 22:00:00",1196.02,34.17,TRADE
TAS1,"2013/08/22 22:30:00",1209.8,34.26,TRADE
TAS1,"2013/08/22 23:00:00",1172.12,30.16,TRADE
TAS1,"2013/08/22 23:30:00",1110.35,25.52,TRADE
TAS1,"2013/08/23 00:00:00",1072.94,26.34,TRADE
TAS1,"2013/08/23 00:30:00",1049.42,25.24,TRADE
TAS1,"2013/08/23 01:00:00",1042.16,25.24,TRADE
TAS1,"2013/08/23 01:30:00",1025.68,26.11,TRADE
TAS1,"2013/08/23 02:00:00",1016.19,27.55,TRADE
TAS1,"2013/08/23 02:30:00",1017.46,26.3,TRADE
TAS1,"2013/08/23 03:00:00",1020.72,28.52,TRADE
TAS1,"2013/08/23 03:30:00",1006.89,26.49,TRADE
TAS1,"2013/08/23 04:00:00",1009.86,27.48,TRADE
TAS1,"2013/08/23 04:30:00",1021.62,26.08,TRADE
TAS1,"2013/08/23 05:00:00",1047.3,26.71,TRADE
TAS1,"2013/08/23 05:30:00",1065.92,26.89,TRADE
TAS1,"2013/08/23 06:00:00",1087.21,29.77,TRADE
TAS1,"2013/08/23 06:30:00",1157.98,37.9,TRADE
TAS1,"2013/08/23 07:00:00",1267.81,40.19,TRADE
TAS1,"2013/08/23 07:30:00",1375.01,114.1,TRADE
TAS1,"2013/08/23 08:00:00",1347.52,1982.56,TRADE
TAS1,"2013/08/23 08:30:00",1385.03,38.3,TRADE
TAS1,"2013/08/23 09:00:00",1372.16,38.3,TRADE
TAS1,"2013/08/23 09:30:00",1322.99,38.3,TRADE
TAS1,"2013/08/23 10:00:00",1304.71,38.3,TRADE
TAS1,"2013/08/23 10:30:00",1281.8,38.88,TRADE
TAS1,"2013/08/23 11:00:00",1264.71,40.06,TRADE
TAS1,"2013/08/23 11:30:00",1238.81,38.3,TRADE
TAS1,"2013/08/23 12:00:00",1236.77,38.3,TRADE
TAS1,"2013/08/23 12:30:00",1206.85,38.3,TRADE
TAS1,"2013/08/23 13:00:00",1192.46,38.3,TRADE
TAS1,"2013/08/23 13:30:00",1156.75,38.29,TRADE
TAS1,"2013/08/23 14:00:00",1167.95,38.3,TRADE
TAS1,"2013/08/23 14:30:00",1166.79,38.3,TRADE
TAS1,"2013/08/23 15:00:00",1146.75,38.3,TRADE
TAS1,"2013/08/23 15:30:00",1176.35,38.3,TRADE
TAS1,"2013/08/23 16:00:00",1191.03,38.3,TRADE
TAS1,"2013/08/23 16:30:00",1219.14,38.3,TRADE
TAS1,"2013/08/23 17:00:00",1236.48,38.3,TRADE
TAS1,"2013/08/23 17:30:00",1265.67,41.63,TRADE
TAS1,"2013/08/23 18:00:00",1328.31,39.97,TRADE
TAS1,"2013/08/23 18:30:00",1346.18,38.3,TRADE
TAS1,"2013/08/23 19:00:00",1344.34,38.3,TRADE
TAS1,"2013/08/23 19:30:00",1345.75,40.8,TRADE
TAS1,"2013/08/23 20:00:00",1316.87,53.57,TRADE
TAS1,"2013/08/23 20:30:00",1307.43,56.69,TRADE
TAS1,"2013/08/23 21:00:00",1291.2,98.42,TRADE
TAS1,"2013/08/23 21:30:00",1273.83,66.62,TRADE
TAS1,"2013/08/23 22:00:00",1234.51,38.3,TRADE
TAS1,"2013/08/23 22:30:00",1209.25,38.3,TRADE
TAS1,"2013/08/23 23:00:00",1154.37,38.3,TRADE
TAS1,"2013/08/23 23:30:00",1111.63,38.3,TRADE
TAS1,"2013/08/24 00:00:00",1087.3,38.28,TRADE
TAS1,"2013/08/24 00:30:00",1055.93,36.26,TRADE
TAS1,"2013/08/24 01:00:00",1047.19,34.26,TRADE
TAS1,"2013/08/24 01:30:00",1041.73,36.26,TRADE
TAS1,"2013/08/24 02:00:00",1008.54,34.93,TRADE
TAS1,"2013/08/24 02:30:00",1003.24,36.95,TRADE
TAS1,"2013/08/24 03:00:00",994.52,34.39,TRADE
TAS1,"2013/08/24 03:30:00",1000.8,35.04,TRADE
TAS1,"2013/08/24 04:00:00",1003.23,34.94,TRADE
TAS1,"2013/08/24 04:30:00",994.63,43.9,TRADE
TAS1,"2013/08/24 05:00:00",1003.06,44.66,TRADE
TAS1,"2013/08/24 05:30:00",1013.89,45.81,TRADE
TAS1,"2013/08/24 06:00:00",1023.79,45.45,TRADE
TAS1,"2013/08/24 06:30:00",1043.63,48.01,TRADE
TAS1,"2013/08/24 07:00:00",1080.66,50.32,TRADE
TAS1,"2013/08/24 07:30:00",1134.87,51.06,TRADE
TAS1,"2013/08/24 08:00:00",1182.98,98.66,TRADE
TAS1,"2013/08/24 08:30:00",1217.81,102.37,TRADE
TAS1,"2013/08/24 09:00:00",1232.89,106.33,TRADE
TAS1,"2013/08/24 09:30:00",1231.66,95.43,TRADE
TAS1,"2013/08/24 10:00:00",1185.37,57.3,TRADE
TAS1,"2013/08/24 10:30:00",1196.18,56.93,TRADE
TAS1,"2013/08/24 11:00:00",1186.99,56.85,TRADE
TAS1,"2013/08/24 11:30:00",1155.95,55.14,TRADE
TAS1,"2013/08/24 12:00:00",1146.84,48.64,TRADE
TAS1,"2013/08/24 12:30:00",1125.79,38.3,TRADE
TAS1,"2013/08/24 13:00:00",1093.08,38.3,TRADE
TAS1,"2013/08/24 13:30:00",1088.79,38.3,TRADE
TAS1,"2013/08/24 14:00:00",1068.43,38.3,TRADE
TAS1,"2013/08/24 14:30:00",1077.51,38.3,TRADE
TAS1,"2013/08/24 15:00:00",1062.59,43.73,TRADE
TAS1,"2013/08/24 15:30:00",1072.14,49.33,TRADE
TAS1,"2013/08/24 16:00:00",1102.39,47.77,TRADE
TAS1,"2013/08/24 16:30:00",1127.28,43.87,TRADE
TAS1,"2013/08/24 17:00:00",1164.29,38.29,TRADE
TAS1,"2013/08/24 17:30:00",1238.22,43.3,TRADE
TAS1,"2013/08/24 18:00:00",1307.92,49.87,TRADE
TAS1,"2013/08/24 18:30:00",1319.69,50.3,TRADE
TAS1,"2013/08/24 19:00:00",1313.26,43.3,TRADE
TAS1,"2013/08/24 19:30:00",1287.56,39.95,TRADE
TAS1,"2013/08/24 20:00:00",1258.1,38.29,TRADE
TAS1,"2013/08/24 20:30:00",1265.6,39.97,TRADE
TAS1,"2013/08/24 21:00:00",1226.25,38.3,TRADE
TAS1,"2013/08/24 21:30:00",1191.83,38.3,TRADE
TAS1,"2013/08/24 22:00:00",1158.59,38.29,TRADE
TAS1,"2013/08/24 22:30:00",1111.48,39.97,TRADE
TAS1,"2013/08/24 23:00:00",1100.97,38.3,TRADE
TAS1,"2013/08/24 23:30:00",1065.05,38.29,TRADE
TAS1,"2013/08/25 00:00:00",994.37,27.37,TRADE
TAS1,"2013/08/25 00:30:00",977.84,-20.58,TRADE
TAS1,"2013/08/25 01:00:00",985.76,13.43,TRADE
TAS1,"2013/08/25 01:30:00",974.73,38.3,TRADE
TAS1,"2013/08/25 02:00:00",971.97,36.96,TRADE
TAS1,"2013/08/25 02:30:00",966.86,39.29,TRADE
TAS1,"2013/08/25 03:00:00",954.77,38.3,TRADE
TAS1,"2013/08/25 03:30:00",955.49,38.3,TRADE
TAS1,"2013/08/25 04:00:00",958.43,38.3,TRADE
TAS1,"2013/08/25 04:30:00",968.44,36.87,TRADE
TAS1,"2013/08/25 05:00:00",987.8,37.73,TRADE
TAS1,"2013/08/25 05:30:00",998.09,36.26,TRADE
TAS1,"2013/08/25 06:00:00",994.85,37.83,TRADE
TAS1,"2013/08/25 06:30:00",1005.82,38.32,TRADE
TAS1,"2013/08/25 07:00:00",1023.04,38.79,TRADE
TAS1,"2013/08/25 07:30:00",1057.51,38.53,TRADE
TAS1,"2013/08/25 08:00:00",1066.79,39.6,TRADE
TAS1,"2013/08/25 08:30:00",1148.63,39.61,TRADE
TAS1,"2013/08/25 09:00:00",1162.03,25.26,TRADE
TAS1,"2013/08/25 09:30:00",1169.81,38.28,TRADE
TAS1,"2013/08/25 10:00:00",1180.52,38.28,TRADE
TAS1,"2013/08/25 10:30:00",1160.11,38.27,TRADE
TAS1,"2013/08/25 11:00:00",1122.33,35.59,TRADE
TAS1,"2013/08/25 11:30:00",1116.61,38.27,TRADE
TAS1,"2013/08/25 12:00:00",1088.78,38.27,TRADE
TAS1,"2013/08/25 12:30:00",1104.62,38.26,TRADE
TAS1,"2013/08/25 13:00:00",1098.28,34.26,TRADE
TAS1,"2013/08/25 13:30:00",1078.89,34.16,TRADE
TAS1,"2013/08/25 14:00:00",1071.24,34.07,TRADE
TAS1,"2013/08/25 14:30:00",1083.95,38.31,TRADE
TAS1,"2013/08/25 15:00:00",1089,52.12,TRADE
TAS1,"2013/08/25 15:30:00",1083.63,38.28,TRADE
TAS1,"2013/08/25 16:00:00",1094.92,38.28,TRADE
TAS1,"2013/08/25 16:30:00",1114.16,40.22,TRADE
TAS1,"2013/08/25 17:00:00",1150.1,46.24,TRADE
TAS1,"2013/08/25 17:30:00",1204.08,45.15,TRADE
TAS1,"2013/08/25 18:00:00",1259.34,51.94,TRADE
TAS1,"2013/08/25 18:30:00",1280.31,56.01,TRADE
TAS1,"2013/08/25 19:00:00",1279.83,57.31,TRADE
TAS1,"2013/08/25 19:30:00",1262.05,61.74,TRADE
TAS1,"2013/08/25 20:00:00",1231.22,62.33,TRADE
TAS1,"2013/08/25 20:30:00",1226.43,53.87,TRADE
TAS1,"2013/08/25 21:00:00",1200.67,51.33,TRADE
TAS1,"2013/08/25 21:30:00",1174.81,50.08,TRADE
TAS1,"2013/08/25 22:00:00",1147.39,49.18,TRADE
TAS1,"2013/08/25 22:30:00",1098.74,49.72,TRADE
TAS1,"2013/08/25 23:00:00",1052.1,49.95,TRADE
TAS1,"2013/08/25 23:30:00",1011.73,43.77,TRADE
TAS1,"2013/08/26 00:00:00",972.38,44.19,TRADE
TAS1,"2013/08/26 00:30:00",971.58,49.36,TRADE
TAS1,"2013/08/26 01:00:00",958.27,48.16,TRADE
TAS1,"2013/08/26 01:30:00",954.53,47.51,TRADE
TAS1,"2013/08/26 02:00:00",939.54,45.66,TRADE
TAS1,"2013/08/26 02:30:00",907.12,40.8,TRADE
TAS1,"2013/08/26 03:00:00",964.03,42.42,TRADE
TAS1,"2013/08/26 03:30:00",989.73,41.24,TRADE
TAS1,"2013/08/26 04:00:00",995.14,40.44,TRADE
TAS1,"2013/08/26 04:30:00",1001.07,34.1,TRADE
TAS1,"2013/08/26 05:00:00",999.46,34.08,TRADE
TAS1,"2013/08/26 05:30:00",1021.87,38.51,TRADE
TAS1,"2013/08/26 06:00:00",1067.5,38.57,TRADE
TAS1,"2013/08/26 06:30:00",1159.74,43.55,TRADE
TAS1,"2013/08/26 07:00:00",1246.25,49.31,TRADE
TAS1,"2013/08/26 07:30:00",1359.85,50.92,TRADE
TAS1,"2013/08/26 08:00:00",1427.12,56.31,TRADE
TAS1,"2013/08/26 08:30:00",1431.56,51.21,TRADE
TAS1,"2013/08/26 09:00:00",1397.72,48.91,TRADE
TAS1,"2013/08/26 09:30:00",1358.74,38.34,TRADE
TAS1,"2013/08/26 10:00:00",1320.66,38.33,TRADE
TAS1,"2013/08/26 10:30:00",1278.14,38.32,TRADE
TAS1,"2013/08/26 11:00:00",1249.85,39.33,TRADE
TAS1,"2013/08/26 11:30:00",1268.17,41.18,TRADE
TAS1,"2013/08/26 12:00:00",1270.24,42.71,TRADE
TAS1,"2013/08/26 12:30:00",1191.74,41.4,TRADE
TAS1,"2013/08/26 13:00:00",1150.22,25.14,TRADE
TAS1,"2013/08/26 13:30:00",1146.22,26.66,TRADE
TAS1,"2013/08/26 14:00:00",1165.71,36.34,TRADE
TAS1,"2013/08/26 14:30:00",1156.06,36.34,TRADE
TAS1,"2013/08/26 15:00:00",1126.32,34.26,TRADE
TAS1,"2013/08/26 15:30:00",1142.92,34.93,TRADE
TAS1,"2013/08/26 16:00:00",1154.7,35.87,TRADE
TAS1,"2013/08/26 16:30:00",1175.2,36.54,TRADE
TAS1,"2013/08/26 17:00:00",1238.01,38.29,TRADE
TAS1,"2013/08/26 17:30:00",1263.93,38.3,TRADE
TAS1,"2013/08/26 18:00:00",1351.33,38.31,TRADE
TAS1,"2013/08/26 18:30:00",1387.17,38.31,TRADE
TAS1,"2013/08/26 19:00:00",1388.38,38.3,TRADE
TAS1,"2013/08/26 19:30:00",1386.9,38.3,TRADE
TAS1,"2013/08/26 20:00:00",1360.36,38.3,TRADE
TAS1,"2013/08/26 20:30:00",1353.68,38.3,TRADE
TAS1,"2013/08/26 21:00:00",1320.75,38.3,TRADE
TAS1,"2013/08/26 21:30:00",1291.89,38.29,TRADE
TAS1,"2013/08/26 22:00:00",1246.58,38.28,TRADE
TAS1,"2013/08/26 22:30:00",1193.34,35.93,TRADE
TAS1,"2013/08/26 23:00:00",1153.46,34.46,TRADE
TAS1,"2013/08/26 23:30:00",1119.99,34.88,TRADE
TAS1,"2013/08/27 00:00:00",1096.45,29.52,TRADE
TAS1,"2013/08/27 00:30:00",1083.7,26.84,TRADE
TAS1,"2013/08/27 01:00:00",1068.9,27.53,TRADE
TAS1,"2013/08/27 01:30:00",1053.47,5.67,TRADE
TAS1,"2013/08/27 02:00:00",1051.52,-0.89,TRADE
TAS1,"2013/08/27 02:30:00",1036.67,-6.98,TRADE
TAS1,"2013/08/27 03:00:00",1060.69,42.08,TRADE
TAS1,"2013/08/27 03:30:00",1068.65,41.37,TRADE
TAS1,"2013/08/27 04:00:00",1075.86,41.3,TRADE
TAS1,"2013/08/27 04:30:00",1091.86,40.82,TRADE
TAS1,"2013/08/27 05:00:00",1103.99,41.93,TRADE
TAS1,"2013/08/27 05:30:00",1126.98,44.13,TRADE
TAS1,"2013/08/27 06:00:00",1160.9,43.37,TRADE
TAS1,"2013/08/27 06:30:00",1220.36,44.86,TRADE
TAS1,"2013/08/27 07:00:00",1314.56,49.98,TRADE
TAS1,"2013/08/27 07:30:00",1435.51,48.41,TRADE
TAS1,"2013/08/27 08:00:00",1501.18,43.75,TRADE
TAS1,"2013/08/27 08:30:00",1467.52,38.34,TRADE
TAS1,"2013/08/27 09:00:00",1439,44.55,TRADE
TAS1,"2013/08/27 09:30:00",1412.77,45.96,TRADE
TAS1,"2013/08/27 10:00:00",1361.47,45.84,TRADE
TAS1,"2013/08/27 10:30:00",1348.87,41.86,TRADE
TAS1,"2013/08/27 11:00:00",1302.4,34.28,TRADE
TAS1,"2013/08/27 11:30:00",1284.04,34.28,TRADE
TAS1,"2013/08/27 12:00:00",1273.88,36.28,TRADE
TAS1,"2013/08/27 12:30:00",1245.95,35.61,TRADE
TAS1,"2013/08/27 13:00:00",1224.77,39.11,TRADE
TAS1,"2013/08/27 13:30:00",1193.31,47.96,TRADE
TAS1,"2013/08/27 14:00:00",1171.16,48.61,TRADE
TAS1,"2013/08/27 14:30:00",1191.16,48.93,TRADE
TAS1,"2013/08/27 15:00:00",1200.29,48.38,TRADE
TAS1,"2013/08/27 15:30:00",1212.96,49.39,TRADE
TAS1,"2013/08/27 16:00:00",1236.91,50.02,TRADE
TAS1,"2013/08/27 16:30:00",1253.58,51.39,TRADE
TAS1,"2013/08/27 17:00:00",1281.51,49.79,TRADE
TAS1,"2013/08/27 17:30:00",1326.98,48.78,TRADE
TAS1,"2013/08/27 18:00:00",1377.04,50.11,TRADE
TAS1,"2013/08/27 18:30:00",1401.64,55.91,TRADE
TAS1,"2013/08/27 19:00:00",1382.36,52.82,TRADE
TAS1,"2013/08/27 19:30:00",1346.32,50.34,TRADE
TAS1,"2013/08/27 20:00:00",1318.34,49.02,TRADE
TAS1,"2013/08/27 20:30:00",1305.18,49.03,TRADE
TAS1,"2013/08/27 21:00:00",1265.57,49.29,TRADE
TAS1,"2013/08/27 21:30:00",1236.12,48.52,TRADE
TAS1,"2013/08/27 22:00:00",1184.17,46.13,TRADE
TAS1,"2013/08/27 22:30:00",1131.53,49.77,TRADE
TAS1,"2013/08/27 23:00:00",1087.97,49.92,TRADE
TAS1,"2013/08/27 23:30:00",1057.81,58.05,TRADE
TAS1,"2013/08/28 00:00:00",1033.86,58.35,TRADE
TAS1,"2013/08/28 00:30:00",1048.76,52.25,TRADE
TAS1,"2013/08/28 01:00:00",1032.6,49.53,TRADE
TAS1,"2013/08/28 01:30:00",1017.09,49.39,TRADE
TAS1,"2013/08/28 02:00:00",1004.03,49.93,TRADE
TAS1,"2013/08/28 02:30:00",998.83,47.8,TRADE
TAS1,"2013/08/28 03:00:00",1000.04,45.38,TRADE
TAS1,"2013/08/28 03:30:00",1011.93,45.4,TRADE
TAS1,"2013/08/28 04:00:00",1021.16,44.08,TRADE
TAS1,"2013/08/28 04:30:00",1040.36,42.06,TRADE
TAS1,"2013/08/28 05:00:00",1058.63,42.15,TRADE
TAS1,"2013/08/28 05:30:00",1089.79,43.7,TRADE
TAS1,"2013/08/28 06:00:00",1137.95,42.79,TRADE
TAS1,"2013/08/28 06:30:00",1216.22,46.45,TRADE
TAS1,"2013/08/28 07:00:00",1295.57,46.2,TRADE
TAS1,"2013/08/28 07:30:00",1400.84,48.62,TRADE
TAS1,"2013/08/28 08:00:00",1465.25,38.3,TRADE
TAS1,"2013/08/28 08:30:00",1442.9,38.28,TRADE
TAS1,"2013/08/28 09:00:00",1410.89,34.95,TRADE
TAS1,"2013/08/28 09:30:00",1371.05,38.29,TRADE
TAS1,"2013/08/28 10:00:00",1308.12,34.28,TRADE
TAS1,"2013/08/28 10:30:00",1238.02,34.28,TRADE
TAS1,"2013/08/28 11:00:00",1172.92,34.27,TRADE
TAS1,"2013/08/28 11:30:00",1133.36,28.22,TRADE
TAS1,"2013/08/28 12:00:00",1119.01,31.08,TRADE
TAS1,"2013/08/28 12:30:00",1138.11,43.56,TRADE
TAS1,"2013/08/28 13:00:00",1091,38.3,TRADE
TAS1,"2013/08/28 13:30:00",1093.08,38.3,TRADE
TAS1,"2013/08/28 14:00:00",1088.17,39.13,TRADE
TAS1,"2013/08/28 14:30:00",1099.74,38.3,TRADE
TAS1,"2013/08/28 15:00:00",1110.38,38.3,TRADE
TAS1,"2013/08/28 15:30:00",1103.69,38.3,TRADE
TAS1,"2013/08/28 16:00:00",1133.49,41.91,TRADE
TAS1,"2013/08/28 16:30:00",1168.24,46.44,TRADE
TAS1,"2013/08/28 17:00:00",1191.12,45.68,TRADE
TAS1,"2013/08/28 17:30:00",1245.6,58.98,TRADE
TAS1,"2013/08/28 18:00:00",1296.87,47.57,TRADE
TAS1,"2013/08/28 18:30:00",1328.01,49.14,TRADE
TAS1,"2013/08/28 19:00:00",1340.53,71.27,TRADE
TAS1,"2013/08/28 19:30:00",1329.66,57.5,TRADE
TAS1,"2013/08/28 20:00:00",1307.94,44.13,TRADE
TAS1,"2013/08/28 20:30:00",1305.53,47.96,TRADE
TAS1,"2013/08/28 21:00:00",1286.45,49.15,TRADE
TAS1,"2013/08/28 21:30:00",1257.29,46.06,TRADE
TAS1,"2013/08/28 22:00:00",1214.03,67.34,TRADE
TAS1,"2013/08/28 22:30:00",1148.57,57.75,TRADE
TAS1,"2013/08/28 23:00:00",1086.06,50.25,TRADE
TAS1,"2013/08/28 23:30:00",1051.43,52.87,TRADE
TAS1,"2013/08/29 00:00:00",1017.08,54.09,TRADE
TAS1,"2013/08/29 00:30:00",993.93,51.92,TRADE
TAS1,"2013/08/29 01:00:00",969.03,49.28,TRADE
TAS1,"2013/08/29 01:30:00",963.82,46.87,TRADE
TAS1,"2013/08/29 02:00:00",964.06,44.4,TRADE
TAS1,"2013/08/29 02:30:00",959.56,42.59,TRADE
TAS1,"2013/08/29 03:00:00",945.96,41.87,TRADE
TAS1,"2013/08/29 03:30:00",946.94,41.87,TRADE
TAS1,"2013/08/29 04:00:00",947.68,40.36,TRADE
TAS1,"2013/08/29 04:30:00",963.12,42.23,TRADE
TAS1,"2013/08/29 05:00:00",994.32,42.43,TRADE
TAS1,"2013/08/29 05:30:00",1016.99,44.21,TRADE
TAS1,"2013/08/29 06:00:00",1063.09,96.5,TRADE
TAS1,"2013/08/29 06:30:00",1143.93,109.64,TRADE
TAS1,"2013/08/29 07:00:00",1252.83,88.05,TRADE
TAS1,"2013/08/29 07:30:00",1337.96,42.3,TRADE
TAS1,"2013/08/29 08:00:00",1376.6,42.3,TRADE
TAS1,"2013/08/29 08:30:00",1346.36,41.45,TRADE
TAS1,"2013/08/29 09:00:00",1313.3,42.28,TRADE
TAS1,"2013/08/29 09:30:00",1281.18,42.3,TRADE
TAS1,"2013/08/29 10:00:00",1228.98,44.8,TRADE
TAS1,"2013/08/29 10:30:00",1205.21,45.3,TRADE
TAS1,"2013/08/29 11:00:00",1196.32,51.07,TRADE
TAS1,"2013/08/29 11:30:00",1167.9,51.87,TRADE
TAS1,"2013/08/29 12:00:00",1153.69,50.17,TRADE
TAS1,"2013/08/29 12:30:00",1175.74,49.15,TRADE
TAS1,"2013/08/29 13:00:00",1189.2,49.44,TRADE
TAS1,"2013/08/29 13:30:00",1199.79,49.56,TRADE
TAS1,"2013/08/29 14:00:00",1186.63,48.5,TRADE
TAS1,"2013/08/29 14:30:00",1163.95,47.55,TRADE
TAS1,"2013/08/29 15:00:00",1142.64,45.3,TRADE
TAS1,"2013/08/29 15:30:00",1146.73,71.7,TRADE
TAS1,"2013/08/29 16:00:00",1138.95,49.24,TRADE
TAS1,"2013/08/29 16:30:00",1145.39,49.05,TRADE
TAS1,"2013/08/29 17:00:00",1164.87,48.6,TRADE
TAS1,"2013/08/29 17:30:00",1218.47,45.3,TRADE
TAS1,"2013/08/29 18:00:00",1280.03,45.3,TRADE
TAS1,"2013/08/29 18:30:00",1328.58,45.31,TRADE
TAS1,"2013/08/29 19:00:00",1279.83,45.3,TRADE
TAS1,"2013/08/29 19:30:00",1240.99,45.3,TRADE
TAS1,"2013/08/29 20:00:00",1222.73,45.3,TRADE
TAS1,"2013/08/29 20:30:00",1227.77,45.3,TRADE
TAS1,"2013/08/29 21:00:00",1202.49,45.3,TRADE
TAS1,"2013/08/29 21:30:00",1156.85,45.3,TRADE
TAS1,"2013/08/29 22:00:00",1136.35,45.68,TRADE
TAS1,"2013/08/29 22:30:00",1093.64,49.89,TRADE
TAS1,"2013/08/29 23:00:00",1061.17,49.96,TRADE
TAS1,"2013/08/29 23:30:00",1037.08,51.2,TRADE
TAS1,"2013/08/30 00:00:00",1023.41,49.95,TRADE
TAS1,"2013/08/30 00:30:00",994.85,47.82,TRADE
TAS1,"2013/08/30 01:00:00",981.97,47.35,TRADE
TAS1,"2013/08/30 01:30:00",977.22,43.53,TRADE
TAS1,"2013/08/30 02:00:00",976.61,41.22,TRADE
TAS1,"2013/08/30 02:30:00",983.85,39.55,TRADE
TAS1,"2013/08/30 03:00:00",994.86,39.75,TRADE
TAS1,"2013/08/30 03:30:00",1004.6,37.09,TRADE
TAS1,"2013/08/30 04:00:00",1008.97,35.35,TRADE
TAS1,"2013/08/30 04:30:00",991.74,35.19,TRADE
TAS1,"2013/08/30 05:00:00",1018.5,38.41,TRADE
TAS1,"2013/08/30 05:30:00",1008.94,41.47,TRADE
TAS1,"2013/08/30 06:00:00",1040.83,42.32,TRADE
TAS1,"2013/08/30 06:30:00",1103.49,42.53,TRADE
TAS1,"2013/08/30 07:00:00",1175.14,45.86,TRADE
TAS1,"2013/08/30 07:30:00",1248.5,57.88,TRADE
TAS1,"2013/08/30 08:00:00",1301.23,50.32,TRADE
TAS1,"2013/08/30 08:30:00",1287.86,50.52,TRADE
TAS1,"2013/08/30 09:00:00",1253.17,48.89,TRADE
TAS1,"2013/08/30 09:30:00",1201.13,47.21,TRADE
TAS1,"2013/08/30 10:00:00",1150.47,46.06,TRADE
TAS1,"2013/08/30 10:30:00",1109.64,45.1,TRADE
TAS1,"2013/08/30 11:00:00",1066.88,42.31,TRADE
TAS1,"2013/08/30 11:30:00",1042.42,42.3,TRADE
TAS1,"2013/08/30 12:00:00",1033.12,42.3,TRADE
TAS1,"2013/08/30 12:30:00",1047.95,42.3,TRADE
TAS1,"2013/08/30 13:00:00",1053.02,42.7,TRADE
TAS1,"2013/08/30 13:30:00",1054.61,43.34,TRADE
TAS1,"2013/08/30 14:00:00",1067.86,46.63,TRADE
TAS1,"2013/08/30 14:30:00",1087.33,44.72,TRADE
TAS1,"2013/08/30 15:00:00",1075.41,42.78,TRADE
TAS1,"2013/08/30 15:30:00",1086.67,44.71,TRADE
TAS1,"2013/08/30 16:00:00",1104.35,46.47,TRADE
TAS1,"2013/08/30 16:30:00",1111.11,46.82,TRADE
TAS1,"2013/08/30 17:00:00",1141.55,43.42,TRADE
TAS1,"2013/08/30 17:30:00",1164.17,42.92,TRADE
TAS1,"2013/08/30 18:00:00",1207.67,45.81,TRADE
TAS1,"2013/08/30 18:30:00",1231.29,42.34,TRADE
TAS1,"2013/08/30 19:00:00",1223.73,42.34,TRADE
TAS1,"2013/08/30 19:30:00",1206.74,42.32,TRADE
TAS1,"2013/08/30 20:00:00",1204.72,42.3,TRADE
TAS1,"2013/08/30 20:30:00",1210.5,42.3,TRADE
TAS1,"2013/08/30 21:00:00",1220.99,49.63,TRADE
TAS1,"2013/08/30 21:30:00",1216.96,48.03,TRADE
TAS1,"2013/08/30 22:00:00",1203.56,46.49,TRADE
TAS1,"2013/08/30 22:30:00",1191.84,50.72,TRADE
TAS1,"2013/08/30 23:00:00",1165.17,50.68,TRADE
TAS1,"2013/08/30 23:30:00",1120.49,49.67,TRADE
TAS1,"2013/08/31 00:00:00",1084.04,51.3,TRADE
TAS1,"2013/08/31 00:30:00",1051.57,49.34,TRADE
TAS1,"2013/08/31 01:00:00",1039,49.38,TRADE
TAS1,"2013/08/31 01:30:00",1025.75,48.09,TRADE
TAS1,"2013/08/31 02:00:00",1018.51,47.2,TRADE
TAS1,"2013/08/31 02:30:00",1010.46,47.67,TRADE
TAS1,"2013/08/31 03:00:00",1010.96,47.28,TRADE
TAS1,"2013/08/31 03:30:00",1014.19,46.57,TRADE
TAS1,"2013/08/31 04:00:00",1025.69,44.09,TRADE
TAS1,"2013/08/31 04:30:00",1023.48,44.08,TRADE
TAS1,"2013/08/31 05:00:00",1034.92,43.68,TRADE
TAS1,"2013/08/31 05:30:00",1040.1,43.97,TRADE
TAS1,"2013/08/31 06:00:00",1063.52,43.91,TRADE
TAS1,"2013/08/31 06:30:00",1088.46,45.01,TRADE
TAS1,"2013/08/31 07:00:00",1116.38,45.32,TRADE
TAS1,"2013/08/31 07:30:00",1153.39,104.12,TRADE
TAS1,"2013/08/31 08:00:00",1201.18,101.95,TRADE
TAS1,"2013/08/31 08:30:00",1208.88,70.49,TRADE
TAS1,"2013/08/31 09:00:00",1195.41,46.45,TRADE
TAS1,"2013/08/31 09:30:00",1160.46,45.76,TRADE
TAS1,"2013/08/31 10:00:00",1143.52,43.19,TRADE
TAS1,"2013/08/31 10:30:00",1120.49,42.39,TRADE
TAS1,"2013/08/31 11:00:00",1105.32,42.35,TRADE
TAS1,"2013/08/31 11:30:00",1065.82,42.3,TRADE
TAS1,"2013/08/31 12:00:00",1047.77,42.3,TRADE
TAS1,"2013/08/31 12:30:00",1027.66,42.28,TRADE
TAS1,"2013/08/31 13:00:00",1013.88,42.15,TRADE
TAS1,"2013/08/31 13:30:00",1002.72,42.02,TRADE
TAS1,"2013/08/31 14:00:00",999.72,42.25,TRADE
TAS1,"2013/08/31 14:30:00",1006.34,42.15,TRADE
TAS1,"2013/08/31 15:00:00",1007.52,42.32,TRADE
TAS1,"2013/08/31 15:30:00",1011.85,43.07,TRADE
TAS1,"2013/08/31 16:00:00",1014.95,45.34,TRADE
TAS1,"2013/08/31 16:30:00",1061.13,45.35,TRADE
TAS1,"2013/08/31 17:00:00",1124.83,46.76,TRADE
TAS1,"2013/08/31 17:30:00",1177.04,46.18,TRADE
TAS1,"2013/08/31 18:00:00",1248.59,49.14,TRADE
TAS1,"2013/08/31 18:30:00",1281.75,53.86,TRADE
TAS1,"2013/08/31 19:00:00",1284,53.58,TRADE
TAS1,"2013/08/31 19:30:00",1258.37,46.78,TRADE
TAS1,"2013/08/31 20:00:00",1245.62,46.11,TRADE
TAS1,"2013/08/31 20:30:00",1234.22,46.12,TRADE
TAS1,"2013/08/31 21:00:00",1207.6,44.78,TRADE
TAS1,"2013/08/31 21:30:00",1191.2,42.79,TRADE
TAS1,"2013/08/31 22:00:00",1162.1,42.33,TRADE
TAS1,"2013/08/31 22:30:00",1138.64,42.34,TRADE
TAS1,"2013/08/31 23:00:00",1102.3,42.33,TRADE
TAS1,"2013/08/31 23:30:00",1062.32,42.37,TRADE
TAS1,"2013/09/01 00:00:00",1035.12,43.66,TRADE
