REGION,SETTLEMENTDATE,TOTALDEMAND,RRP,PERIODTYPE
QLD1,"2007/12/01 00:30:00",5061.69,21.91,TRADE
QLD1,"2007/12/01 01:00:00",4925.99,20.6,TRADE
QLD1,"2007/12/01 01:30:00",4690.55,19.58,TRADE
QLD1,"2007/12/01 02:00:00",4567.55,17.59,TRADE
QLD1,"2007/12/01 02:30:00",4479.21,16.7,TRADE
QLD1,"2007/12/01 03:00:00",4479.94,16.8,TRADE
QLD1,"2007/12/01 03:30:00",4463.57,16.07,TRADE
QLD1,"2007/12/01 04:00:00",4461.79,16.15,TRADE
QLD1,"2007/12/01 04:30:00",4402.83,15.93,TRADE
QLD1,"2007/12/01 05:00:00",4404.04,15.69,TRADE
QLD1,"2007/12/01 05:30:00",4348.22,-2.27,TRADE
QLD1,"2007/12/01 06:00:00",4383.88,7.63,TRADE
QLD1,"2007/12/01 06:30:00",4653.36,14.89,TRADE
QLD1,"2007/12/01 07:00:00",4994.59,8.74,TRADE
QLD1,"2007/12/01 07:30:00",5384.17,19.38,TRADE
QLD1,"2007/12/01 08:00:00",5669.03,19.93,TRADE
QLD1,"2007/12/01 08:30:00",5931.41,23.62,TRADE
QLD1,"2007/12/01 09:00:00",6048.56,27.53,TRADE
QLD1,"2007/12/01 09:30:00",6141.89,29.22,TRADE
QLD1,"2007/12/01 10:00:00",6206.39,25.76,TRADE
QLD1,"2007/12/01 10:30:00",6236.58,32.85,TRADE
QLD1,"2007/12/01 11:00:00",6214.27,30.69,TRADE
QLD1,"2007/12/01 11:30:00",6218.65,28.59,TRADE
QLD1,"2007/12/01 12:00:00",6210.53,27.27,TRADE
QLD1,"2007/12/01 12:30:00",6162.34,21.47,TRADE
QLD1,"2007/12/01 13:00:00",6136.59,22.27,TRADE
QLD1,"2007/12/01 13:30:00",6103,20.5,TRADE
QLD1,"2007/12/01 14:00:00",6061.3,19.69,TRADE
QLD1,"2007/12/01 14:30:00",6099.39,20.9,TRADE
QLD1,"2007/12/01 15:00:00",6041.16,21.89,TRADE
QLD1,"2007/12/01 15:30:00",6044.94,26.9,TRADE
QLD1,"2007/12/01 16:00:00",6086.21,31.16,TRADE
QLD1,"2007/12/01 16:30:00",6049.97,26.08,TRADE
QLD1,"2007/12/01 17:00:00",6074.45,36.73,TRADE
QLD1,"2007/12/01 17:30:00",6089.7,35.07,TRADE
QLD1,"2007/12/01 18:00:00",6080.95,29.22,TRADE
QLD1,"2007/12/01 18:30:00",6010.27,27.11,TRADE
QLD1,"2007/12/01 19:00:00",6059.32,28.55,TRADE
QLD1,"2007/12/01 19:30:00",6063.11,29.15,TRADE
QLD1,"2007/12/01 20:00:00",5985.99,28.45,TRADE
QLD1,"2007/12/01 20:30:00",5836,23.29,TRADE
QLD1,"2007/12/01 21:00:00",5744.05,21.99,TRADE
QLD1,"2007/12/01 21:30:00",5814.01,23.33,TRADE
QLD1,"2007/12/01 22:00:00",5632.17,22.64,TRADE
QLD1,"2007/12/01 22:30:00",5533.9,28.39,TRADE
QLD1,"2007/12/01 23:00:00",5495.99,22.85,TRADE
QLD1,"2007/12/01 23:30:00",5378.85,25.39,TRADE
QLD1,"2007/12/02 00:00:00",5201.36,22.88,TRADE
QLD1,"2007/12/02 00:30:00",5023.69,19.83,TRADE
QLD1,"2007/12/02 01:00:00",4851.13,19.83,TRADE
QLD1,"2007/12/02 01:30:00",4680.83,19.29,TRADE
QLD1,"2007/12/02 02:00:00",4553.39,18.47,TRADE
QLD1,"2007/12/02 02:30:00",4480.13,18.22,TRADE
QLD1,"2007/12/02 03:00:00",4423.4,18.26,TRADE
QLD1,"2007/12/02 03:30:00",4397.42,18.35,TRADE
QLD1,"2007/12/02 04:00:00",4389.15,18.38,TRADE
QLD1,"2007/12/02 04:30:00",4415.74,18.18,TRADE
QLD1,"2007/12/02 05:00:00",4402.29,-491.89,TRADE
QLD1,"2007/12/02 05:30:00",4359.97,-660.29,TRADE
QLD1,"2007/12/02 06:00:00",4430.49,-2.74,TRADE
QLD1,"2007/12/02 06:30:00",4504.2,12.35,TRADE
QLD1,"2007/12/02 07:00:00",4727.4,6.28,TRADE
QLD1,"2007/12/02 07:30:00",4962.65,19.78,TRADE
QLD1,"2007/12/02 08:00:00",5139.2,6.2,TRADE
QLD1,"2007/12/02 08:30:00",5364.29,17.29,TRADE
QLD1,"2007/12/02 09:00:00",5553.19,19.82,TRADE
QLD1,"2007/12/02 09:30:00",5696.1,19.82,TRADE
QLD1,"2007/12/02 10:00:00",5755.49,19.79,TRADE
QLD1,"2007/12/02 10:30:00",5828.65,19.76,TRADE
QLD1,"2007/12/02 11:00:00",5862.57,20.51,TRADE
QLD1,"2007/12/02 11:30:00",5906.05,19.85,TRADE
QLD1,"2007/12/02 12:00:00",5881.07,19.75,TRADE
QLD1,"2007/12/02 12:30:00",5838.88,19.75,TRADE
QLD1,"2007/12/02 13:00:00",5832.45,20.02,TRADE
QLD1,"2007/12/02 13:30:00",5807.06,20.59,TRADE
QLD1,"2007/12/02 14:00:00",5845.88,21.18,TRADE
QLD1,"2007/12/02 14:30:00",5836.89,25.04,TRADE
QLD1,"2007/12/02 15:00:00",5851.03,28.63,TRADE
QLD1,"2007/12/02 15:30:00",5894.14,38.98,TRADE
QLD1,"2007/12/02 16:00:00",5886.76,42.52,TRADE
QLD1,"2007/12/02 16:30:00",5937.48,44.32,TRADE
QLD1,"2007/12/02 17:00:00",5963.63,44.34,TRADE
QLD1,"2007/12/02 17:30:00",5987.14,44.07,TRADE
QLD1,"2007/12/02 18:00:00",6022.51,43.51,TRADE
QLD1,"2007/12/02 18:30:00",6017.3,43.54,TRADE
QLD1,"2007/12/02 19:00:00",6171.39,46.17,TRADE
QLD1,"2007/12/02 19:30:00",6256.76,52.92,TRADE
QLD1,"2007/12/02 20:00:00",6133.23,51.32,TRADE
QLD1,"2007/12/02 20:30:00",6016.65,37.76,TRADE
QLD1,"2007/12/02 21:00:00",5937.72,31.11,TRADE
QLD1,"2007/12/02 21:30:00",5941.74,30.48,TRADE
QLD1,"2007/12/02 22:00:00",5664.92,23.16,TRADE
QLD1,"2007/12/02 22:30:00",5472.39,27.4,TRADE
QLD1,"2007/12/02 23:00:00",5428.27,24.19,TRADE
QLD1,"2007/12/02 23:30:00",5385.73,26.91,TRADE
QLD1,"2007/12/03 00:00:00",5163.34,24.31,TRADE
QLD1,"2007/12/03 00:30:00",4977.13,22.71,TRADE
QLD1,"2007/12/03 01:00:00",4843.97,22.37,TRADE
QLD1,"2007/12/03 01:30:00",4679.37,21.58,TRADE
QLD1,"2007/12/03 02:00:00",4577.25,19.82,TRADE
QLD1,"2007/12/03 02:30:00",4495.02,19.82,TRADE
QLD1,"2007/12/03 03:00:00",4474.32,19.83,TRADE
QLD1,"2007/12/03 03:30:00",4471.24,19.83,TRADE
QLD1,"2007/12/03 04:00:00",4437.29,20.27,TRADE
QLD1,"2007/12/03 04:30:00",4507.53,22.53,TRADE
QLD1,"2007/12/03 05:00:00",4580.21,22.44,TRADE
QLD1,"2007/12/03 05:30:00",4732.8,24.01,TRADE
QLD1,"2007/12/03 06:00:00",4982.9,29.5,TRADE
QLD1,"2007/12/03 06:30:00",5402.03,39.86,TRADE
QLD1,"2007/12/03 07:00:00",5842.99,49.67,TRADE
QLD1,"2007/12/03 07:30:00",6256.41,46.76,TRADE
QLD1,"2007/12/03 08:00:00",6500.88,52.95,TRADE
QLD1,"2007/12/03 08:30:00",6661.25,57.03,TRADE
QLD1,"2007/12/03 09:00:00",6790.05,62.74,TRADE
QLD1,"2007/12/03 09:30:00",6930.6,69.21,TRADE
QLD1,"2007/12/03 10:00:00",6926.01,69.23,TRADE
QLD1,"2007/12/03 10:30:00",6949.04,74.62,TRADE
QLD1,"2007/12/03 11:00:00",6974.76,84.92,TRADE
QLD1,"2007/12/03 11:30:00",7012.27,74.62,TRADE
QLD1,"2007/12/03 12:00:00",7050.8,69.53,TRADE
QLD1,"2007/12/03 12:30:00",7067.36,68.4,TRADE
QLD1,"2007/12/03 13:00:00",7075.19,66.48,TRADE
QLD1,"2007/12/03 13:30:00",7037.9,59.45,TRADE
QLD1,"2007/12/03 14:00:00",7117.38,55.82,TRADE
QLD1,"2007/12/03 14:30:00",7136.55,58.13,TRADE
QLD1,"2007/12/03 15:00:00",7092.01,51.96,TRADE
QLD1,"2007/12/03 15:30:00",7083.92,50.8,TRADE
QLD1,"2007/12/03 16:00:00",7121.66,51.87,TRADE
QLD1,"2007/12/03 16:30:00",7091.31,51.17,TRADE
QLD1,"2007/12/03 17:00:00",7033.6,47.48,TRADE
QLD1,"2007/12/03 17:30:00",6996.24,42.6,TRADE
QLD1,"2007/12/03 18:00:00",6949.87,39.58,TRADE
QLD1,"2007/12/03 18:30:00",6747,28.77,TRADE
QLD1,"2007/12/03 19:00:00",6800.45,29.99,TRADE
QLD1,"2007/12/03 19:30:00",6812.47,29.3,TRADE
QLD1,"2007/12/03 20:00:00",6685.65,23.44,TRADE
QLD1,"2007/12/03 20:30:00",6558.86,24.79,TRADE
QLD1,"2007/12/03 21:00:00",6377.73,22.35,TRADE
QLD1,"2007/12/03 21:30:00",6385.37,23.59,TRADE
QLD1,"2007/12/03 22:00:00",6118.23,21.3,TRADE
QLD1,"2007/12/03 22:30:00",5829.95,23.15,TRADE
QLD1,"2007/12/03 23:00:00",5700.92,22.25,TRADE
QLD1,"2007/12/03 23:30:00",5575.11,21.69,TRADE
QLD1,"2007/12/04 00:00:00",5327.32,20.73,TRADE
QLD1,"2007/12/04 00:30:00",5124.84,19.99,TRADE
QLD1,"2007/12/04 01:00:00",4952.16,19.83,TRADE
QLD1,"2007/12/04 01:30:00",4776.13,19.46,TRADE
QLD1,"2007/12/04 02:00:00",4645.58,18.68,TRADE
QLD1,"2007/12/04 02:30:00",4566.99,17.55,TRADE
QLD1,"2007/12/04 03:00:00",4563.92,19.75,TRADE
QLD1,"2007/12/04 03:30:00",4527.61,17.69,TRADE
QLD1,"2007/12/04 04:00:00",4515.26,18.87,TRADE
QLD1,"2007/12/04 04:30:00",4566.08,19.18,TRADE
QLD1,"2007/12/04 05:00:00",4628.58,18.37,TRADE
QLD1,"2007/12/04 05:30:00",4811.76,20.21,TRADE
QLD1,"2007/12/04 06:00:00",5094.84,19.87,TRADE
QLD1,"2007/12/04 06:30:00",5511.59,22.74,TRADE
QLD1,"2007/12/04 07:00:00",5958,23.63,TRADE
QLD1,"2007/12/04 07:30:00",6369.8,31.8,TRADE
QLD1,"2007/12/04 08:00:00",6676.76,38.59,TRADE
QLD1,"2007/12/04 08:30:00",6832.28,46.75,TRADE
QLD1,"2007/12/04 09:00:00",6943.15,50.24,TRADE
QLD1,"2007/12/04 09:30:00",7045.46,52.52,TRADE
QLD1,"2007/12/04 10:00:00",7077.51,54.74,TRADE
QLD1,"2007/12/04 10:30:00",7148.43,56.87,TRADE
QLD1,"2007/12/04 11:00:00",7173.14,55.24,TRADE
QLD1,"2007/12/04 11:30:00",7204.36,56.07,TRADE
QLD1,"2007/12/04 12:00:00",7308.14,59.44,TRADE
QLD1,"2007/12/04 12:30:00",7294.68,63.38,TRADE
QLD1,"2007/12/04 13:00:00",7290.72,65.91,TRADE
QLD1,"2007/12/04 13:30:00",7320.97,89.9,TRADE
QLD1,"2007/12/04 14:00:00",7418.46,105.85,TRADE
QLD1,"2007/12/04 14:30:00",7454.01,91.96,TRADE
QLD1,"2007/12/04 15:00:00",7430.23,98,TRADE
QLD1,"2007/12/04 15:30:00",7422.08,75.21,TRADE
QLD1,"2007/12/04 16:00:00",7438.86,73.42,TRADE
QLD1,"2007/12/04 16:30:00",7422.18,67.87,TRADE
QLD1,"2007/12/04 17:00:00",7383.43,59.05,TRADE
QLD1,"2007/12/04 17:30:00",7223.66,49.77,TRADE
QLD1,"2007/12/04 18:00:00",7136.38,49.13,TRADE
QLD1,"2007/12/04 18:30:00",6943.59,44.77,TRADE
QLD1,"2007/12/04 19:00:00",7011.73,47.7,TRADE
QLD1,"2007/12/04 19:30:00",7001.62,48.51,TRADE
QLD1,"2007/12/04 20:00:00",6834.63,46.76,TRADE
QLD1,"2007/12/04 20:30:00",6669.38,42.82,TRADE
QLD1,"2007/12/04 21:00:00",6536.01,39.78,TRADE
QLD1,"2007/12/04 21:30:00",6532.64,40.5,TRADE
QLD1,"2007/12/04 22:00:00",6245.22,28.64,TRADE
QLD1,"2007/12/04 22:30:00",6002.66,26.44,TRADE
QLD1,"2007/12/04 23:00:00",5854.05,24.34,TRADE
QLD1,"2007/12/04 23:30:00",5728.3,22,TRADE
QLD1,"2007/12/05 00:00:00",5501.19,20.97,TRADE
QLD1,"2007/12/05 00:30:00",5270.88,22.05,TRADE
QLD1,"2007/12/05 01:00:00",5072.99,20.8,TRADE
QLD1,"2007/12/05 01:30:00",4917.78,19.86,TRADE
QLD1,"2007/12/05 02:00:00",4747.41,18.52,TRADE
QLD1,"2007/12/05 02:30:00",4668.77,18.19,TRADE
QLD1,"2007/12/05 03:00:00",4646.31,18.19,TRADE
QLD1,"2007/12/05 03:30:00",4657.21,18.34,TRADE
QLD1,"2007/12/05 04:00:00",4654.22,19.31,TRADE
QLD1,"2007/12/05 04:30:00",4724.28,20.5,TRADE
QLD1,"2007/12/05 05:00:00",4791.77,20.29,TRADE
QLD1,"2007/12/05 05:30:00",4930.3,22.1,TRADE
QLD1,"2007/12/05 06:00:00",5195.5,30.48,TRADE
QLD1,"2007/12/05 06:30:00",5591.78,41.53,TRADE
QLD1,"2007/12/05 07:00:00",6032.68,55.21,TRADE
QLD1,"2007/12/05 07:30:00",6421.21,55.14,TRADE
QLD1,"2007/12/05 08:00:00",6712.37,64.97,TRADE
QLD1,"2007/12/05 08:30:00",6926.65,64.92,TRADE
QLD1,"2007/12/05 09:00:00",7048.37,66.37,TRADE
QLD1,"2007/12/05 09:30:00",7195.44,85.57,TRADE
QLD1,"2007/12/05 10:00:00",7234.72,93.86,TRADE
QLD1,"2007/12/05 10:30:00",7251.56,67.64,TRADE
QLD1,"2007/12/05 11:00:00",7315.11,68.91,TRADE
QLD1,"2007/12/05 11:30:00",7376.44,69.98,TRADE
QLD1,"2007/12/05 12:00:00",7438.96,69.65,TRADE
QLD1,"2007/12/05 12:30:00",7451.87,71.95,TRADE
QLD1,"2007/12/05 13:00:00",7509.39,70.57,TRADE
QLD1,"2007/12/05 13:30:00",7537.93,70.68,TRADE
QLD1,"2007/12/05 14:00:00",7526.46,73.18,TRADE
QLD1,"2007/12/05 14:30:00",7531.66,71.95,TRADE
QLD1,"2007/12/05 15:00:00",7447.09,71.82,TRADE
QLD1,"2007/12/05 15:30:00",7338.79,73.83,TRADE
QLD1,"2007/12/05 16:00:00",7281.22,65.42,TRADE
QLD1,"2007/12/05 16:30:00",7254.38,62.47,TRADE
QLD1,"2007/12/05 17:00:00",7211.56,62.81,TRADE
QLD1,"2007/12/05 17:30:00",7081.21,51.63,TRADE
QLD1,"2007/12/05 18:00:00",7019.34,45.44,TRADE
QLD1,"2007/12/05 18:30:00",6866.28,45.51,TRADE
QLD1,"2007/12/05 19:00:00",6959.71,46.43,TRADE
QLD1,"2007/12/05 19:30:00",6905.83,45.06,TRADE
QLD1,"2007/12/05 20:00:00",6791.92,45.21,TRADE
QLD1,"2007/12/05 20:30:00",6676.96,28.19,TRADE
QLD1,"2007/12/05 21:00:00",6566.88,23.58,TRADE
QLD1,"2007/12/05 21:30:00",6544.66,24.87,TRADE
QLD1,"2007/12/05 22:00:00",6303.24,19.69,TRADE
QLD1,"2007/12/05 22:30:00",6041.69,26.07,TRADE
QLD1,"2007/12/05 23:00:00",5871.87,23.94,TRADE
QLD1,"2007/12/05 23:30:00",5786.38,21.5,TRADE
QLD1,"2007/12/06 00:00:00",5554.71,17.91,TRADE
QLD1,"2007/12/06 00:30:00",5291.43,12.19,TRADE
QLD1,"2007/12/06 01:00:00",5139.71,11.53,TRADE
QLD1,"2007/12/06 01:30:00",4934.8,16.29,TRADE
QLD1,"2007/12/06 02:00:00",4825.27,19.5,TRADE
QLD1,"2007/12/06 02:30:00",4769.37,17.82,TRADE
QLD1,"2007/12/06 03:00:00",4753.08,17.2,TRADE
QLD1,"2007/12/06 03:30:00",4747.69,11.44,TRADE
QLD1,"2007/12/06 04:00:00",4747.64,14.9,TRADE
QLD1,"2007/12/06 04:30:00",4811.28,19.03,TRADE
QLD1,"2007/12/06 05:00:00",4872.67,18.24,TRADE
QLD1,"2007/12/06 05:30:00",5035.91,20.84,TRADE
QLD1,"2007/12/06 06:00:00",5246.93,22.84,TRADE
QLD1,"2007/12/06 06:30:00",5648.02,51.58,TRADE
QLD1,"2007/12/06 07:00:00",6052.25,61.21,TRADE
QLD1,"2007/12/06 07:30:00",6448.7,51.56,TRADE
QLD1,"2007/12/06 08:00:00",6696.81,60.28,TRADE
QLD1,"2007/12/06 08:30:00",6934.2,60.78,TRADE
QLD1,"2007/12/06 09:00:00",7074.43,58.76,TRADE
QLD1,"2007/12/06 09:30:00",7217.88,206.33,TRADE
QLD1,"2007/12/06 10:00:00",7273.08,171.14,TRADE
QLD1,"2007/12/06 10:30:00",7336.04,253.33,TRADE
QLD1,"2007/12/06 11:00:00",7380.03,291.42,TRADE
QLD1,"2007/12/06 11:30:00",7365.34,290,TRADE
QLD1,"2007/12/06 12:00:00",7364.57,255.43,TRADE
QLD1,"2007/12/06 12:30:00",7391.52,264.37,TRADE
QLD1,"2007/12/06 13:00:00",7389.58,289.6,TRADE
QLD1,"2007/12/06 13:30:00",7427.57,289.48,TRADE
QLD1,"2007/12/06 14:00:00",7426.4,288.78,TRADE
QLD1,"2007/12/06 14:30:00",7459.56,285.79,TRADE
QLD1,"2007/12/06 15:00:00",7435.38,286.39,TRADE
QLD1,"2007/12/06 15:30:00",7435.45,287.05,TRADE
QLD1,"2007/12/06 16:00:00",7407.75,325.56,TRADE
QLD1,"2007/12/06 16:30:00",7386.18,272.83,TRADE
QLD1,"2007/12/06 17:00:00",7348.3,122.81,TRADE
QLD1,"2007/12/06 17:30:00",7251.75,146.43,TRADE
QLD1,"2007/12/06 18:00:00",7167.75,209.55,TRADE
QLD1,"2007/12/06 18:30:00",7005.13,44.66,TRADE
QLD1,"2007/12/06 19:00:00",7185.55,80.9,TRADE
QLD1,"2007/12/06 19:30:00",7242.91,88.28,TRADE
QLD1,"2007/12/06 20:00:00",7126.92,111.71,TRADE
QLD1,"2007/12/06 20:30:00",6994.03,53.51,TRADE
QLD1,"2007/12/06 21:00:00",6834.49,47.25,TRADE
QLD1,"2007/12/06 21:30:00",6736,70.42,TRADE
QLD1,"2007/12/06 22:00:00",6415.98,48.43,TRADE
QLD1,"2007/12/06 22:30:00",6191.94,65.88,TRADE
QLD1,"2007/12/06 23:00:00",6019.51,58.01,TRADE
QLD1,"2007/12/06 23:30:00",5873.98,49.94,TRADE
QLD1,"2007/12/07 00:00:00",5615.66,36.07,TRADE
QLD1,"2007/12/07 00:30:00",5395.49,33.79,TRADE
QLD1,"2007/12/07 01:00:00",5211.2,24.13,TRADE
QLD1,"2007/12/07 01:30:00",5050,22.28,TRADE
QLD1,"2007/12/07 02:00:00",4897.73,21.91,TRADE
QLD1,"2007/12/07 02:30:00",4874.98,21.96,TRADE
QLD1,"2007/12/07 03:00:00",4792.88,21.94,TRADE
QLD1,"2007/12/07 03:30:00",4770.3,21.99,TRADE
QLD1,"2007/12/07 04:00:00",4772.64,22.07,TRADE
QLD1,"2007/12/07 04:30:00",4821.38,22.16,TRADE
QLD1,"2007/12/07 05:00:00",4921.65,21.88,TRADE
QLD1,"2007/12/07 05:30:00",5032.86,21.24,TRADE
QLD1,"2007/12/07 06:00:00",5348.02,22.94,TRADE
QLD1,"2007/12/07 06:30:00",5784.1,38.23,TRADE
QLD1,"2007/12/07 07:00:00",6205.54,55.82,TRADE
QLD1,"2007/12/07 07:30:00",6620.16,55.38,TRADE
QLD1,"2007/12/07 08:00:00",6884.8,59.78,TRADE
QLD1,"2007/12/07 08:30:00",7104.47,66.16,TRADE
QLD1,"2007/12/07 09:00:00",7231.9,67.49,TRADE
QLD1,"2007/12/07 09:30:00",7374.82,77.51,TRADE
QLD1,"2007/12/07 10:00:00",7452.22,91.43,TRADE
QLD1,"2007/12/07 10:30:00",7510.39,69.01,TRADE
QLD1,"2007/12/07 11:00:00",7541.92,74.11,TRADE
QLD1,"2007/12/07 11:30:00",7568.57,80.88,TRADE
QLD1,"2007/12/07 12:00:00",7556.89,101.02,TRADE
QLD1,"2007/12/07 12:30:00",7559.88,132.4,TRADE
QLD1,"2007/12/07 13:00:00",7616.65,163.01,TRADE
QLD1,"2007/12/07 13:30:00",7623.67,163.8,TRADE
QLD1,"2007/12/07 14:00:00",7634.47,289.73,TRADE
QLD1,"2007/12/07 14:30:00",7648.94,220.56,TRADE
QLD1,"2007/12/07 15:00:00",7613.8,107.07,TRADE
QLD1,"2007/12/07 15:30:00",7579.86,1760.79,TRADE
QLD1,"2007/12/07 16:00:00",7577.66,67.99,TRADE
QLD1,"2007/12/07 16:30:00",7617.74,66.95,TRADE
QLD1,"2007/12/07 17:00:00",7632.78,71.55,TRADE
QLD1,"2007/12/07 17:30:00",7491.4,55.52,TRADE
QLD1,"2007/12/07 18:00:00",7257.16,51.84,TRADE
QLD1,"2007/12/07 18:30:00",6977.03,46.01,TRADE
QLD1,"2007/12/07 19:00:00",6989.77,46.27,TRADE
QLD1,"2007/12/07 19:30:00",7014.83,52.33,TRADE
QLD1,"2007/12/07 20:00:00",6968.67,49.28,TRADE
QLD1,"2007/12/07 20:30:00",6850.48,44.63,TRADE
QLD1,"2007/12/07 21:00:00",6737.02,42.55,TRADE
QLD1,"2007/12/07 21:30:00",6711.42,38.39,TRADE
QLD1,"2007/12/07 22:00:00",6505.61,25.4,TRADE
QLD1,"2007/12/07 22:30:00",6282.25,26.59,TRADE
QLD1,"2007/12/07 23:00:00",6205.84,25.83,TRADE
QLD1,"2007/12/07 23:30:00",6075.18,33.32,TRADE
QLD1,"2007/12/08 00:00:00",5836.58,26.5,TRADE
QLD1,"2007/12/08 00:30:00",5586.52,23.81,TRADE
QLD1,"2007/12/08 01:00:00",5331.97,22.13,TRADE
QLD1,"2007/12/08 01:30:00",5173.94,-152.31,TRADE
QLD1,"2007/12/08 02:00:00",5058.23,8.16,TRADE
QLD1,"2007/12/08 02:30:00",5018.28,17.27,TRADE
QLD1,"2007/12/08 03:00:00",4971.86,19.2,TRADE
QLD1,"2007/12/08 03:30:00",4880.25,19.21,TRADE
QLD1,"2007/12/08 04:00:00",4857.57,20.16,TRADE
QLD1,"2007/12/08 04:30:00",4846.22,19.92,TRADE
QLD1,"2007/12/08 05:00:00",4839.07,20.25,TRADE
QLD1,"2007/12/08 05:30:00",4876.57,18.7,TRADE
QLD1,"2007/12/08 06:00:00",5015.11,15.95,TRADE
QLD1,"2007/12/08 06:30:00",5208.08,16.89,TRADE
QLD1,"2007/12/08 07:00:00",5454.53,27.99,TRADE
QLD1,"2007/12/08 07:30:00",5723.17,37.42,TRADE
QLD1,"2007/12/08 08:00:00",5898.42,40.05,TRADE
QLD1,"2007/12/08 08:30:00",6174.9,44.89,TRADE
QLD1,"2007/12/08 09:00:00",6334.14,43.57,TRADE
QLD1,"2007/12/08 09:30:00",6460.08,49.37,TRADE
QLD1,"2007/12/08 10:00:00",6481.23,49.71,TRADE
QLD1,"2007/12/08 10:30:00",6480.26,50.74,TRADE
QLD1,"2007/12/08 11:00:00",6457.78,46.39,TRADE
QLD1,"2007/12/08 11:30:00",6508.87,42.64,TRADE
QLD1,"2007/12/08 12:00:00",6570.47,42.45,TRADE
QLD1,"2007/12/08 12:30:00",6594.53,39.61,TRADE
QLD1,"2007/12/08 13:00:00",6611.91,40.63,TRADE
QLD1,"2007/12/08 13:30:00",6665.58,41.13,TRADE
QLD1,"2007/12/08 14:00:00",6745.72,42.02,TRADE
QLD1,"2007/12/08 14:30:00",6755.14,43.23,TRADE
QLD1,"2007/12/08 15:00:00",6766.87,43.51,TRADE
QLD1,"2007/12/08 15:30:00",6864.32,49.47,TRADE
QLD1,"2007/12/08 16:00:00",6874.5,54.04,TRADE
QLD1,"2007/12/08 16:30:00",6856.97,51.55,TRADE
QLD1,"2007/12/08 17:00:00",6879.89,51.66,TRADE
QLD1,"2007/12/08 17:30:00",6841.15,49.75,TRADE
QLD1,"2007/12/08 18:00:00",6735.97,46.54,TRADE
QLD1,"2007/12/08 18:30:00",6645.44,40.83,TRADE
QLD1,"2007/12/08 19:00:00",6684.93,34.95,TRADE
QLD1,"2007/12/08 19:30:00",6704.19,35.15,TRADE
QLD1,"2007/12/08 20:00:00",6579.58,30.86,TRADE
QLD1,"2007/12/08 20:30:00",6406.74,27.7,TRADE
QLD1,"2007/12/08 21:00:00",6314.05,27.58,TRADE
QLD1,"2007/12/08 21:30:00",6340.56,30.94,TRADE
QLD1,"2007/12/08 22:00:00",6151.09,26.61,TRADE
QLD1,"2007/12/08 22:30:00",6025.11,31.36,TRADE
QLD1,"2007/12/08 23:00:00",5938.61,27.83,TRADE
QLD1,"2007/12/08 23:30:00",5801.98,31.18,TRADE
QLD1,"2007/12/09 00:00:00",5573.12,25.82,TRADE
QLD1,"2007/12/09 00:30:00",5342.26,21.3,TRADE
QLD1,"2007/12/09 01:00:00",5169.48,21.39,TRADE
QLD1,"2007/12/09 01:30:00",4999.62,21.73,TRADE
QLD1,"2007/12/09 02:00:00",4888.96,19.42,TRADE
QLD1,"2007/12/09 02:30:00",4804.27,19.02,TRADE
QLD1,"2007/12/09 03:00:00",4779.16,19.05,TRADE
QLD1,"2007/12/09 03:30:00",4719.82,19.02,TRADE
QLD1,"2007/12/09 04:00:00",4684.53,18.72,TRADE
QLD1,"2007/12/09 04:30:00",4705.26,19.05,TRADE
QLD1,"2007/12/09 05:00:00",4692.02,18.95,TRADE
QLD1,"2007/12/09 05:30:00",4644.86,18.52,TRADE
QLD1,"2007/12/09 06:00:00",4726.84,17.41,TRADE
QLD1,"2007/12/09 06:30:00",4877.22,16.67,TRADE
QLD1,"2007/12/09 07:00:00",5085.11,19.09,TRADE
QLD1,"2007/12/09 07:30:00",5338.43,21.54,TRADE
QLD1,"2007/12/09 08:00:00",5579.99,21.81,TRADE
QLD1,"2007/12/09 08:30:00",5853.12,23.89,TRADE
QLD1,"2007/12/09 09:00:00",6056.16,26.04,TRADE
QLD1,"2007/12/09 09:30:00",6267.26,35,TRADE
QLD1,"2007/12/09 10:00:00",6430.04,37.64,TRADE
QLD1,"2007/12/09 10:30:00",6492,37.57,TRADE
QLD1,"2007/12/09 11:00:00",6614.8,42.21,TRADE
QLD1,"2007/12/09 11:30:00",6669.97,45.95,TRADE
QLD1,"2007/12/09 12:00:00",6743.84,52.05,TRADE
QLD1,"2007/12/09 12:30:00",6761.13,53.12,TRADE
QLD1,"2007/12/09 13:00:00",6824.78,54.24,TRADE
QLD1,"2007/12/09 13:30:00",6887.62,54.62,TRADE
QLD1,"2007/12/09 14:00:00",6915.34,54.67,TRADE
QLD1,"2007/12/09 14:30:00",6901.88,54.63,TRADE
QLD1,"2007/12/09 15:00:00",6905.72,54.61,TRADE
QLD1,"2007/12/09 15:30:00",6924.44,54.79,TRADE
QLD1,"2007/12/09 16:00:00",6950.36,54.78,TRADE
QLD1,"2007/12/09 16:30:00",6929.63,54.53,TRADE
QLD1,"2007/12/09 17:00:00",6919.98,50.83,TRADE
QLD1,"2007/12/09 17:30:00",6887.44,38.58,TRADE
QLD1,"2007/12/09 18:00:00",6857.8,37.2,TRADE
QLD1,"2007/12/09 18:30:00",6799.14,36.26,TRADE
QLD1,"2007/12/09 19:00:00",6862.35,42.71,TRADE
QLD1,"2007/12/09 19:30:00",6940.62,48.17,TRADE
QLD1,"2007/12/09 20:00:00",6833.39,32.58,TRADE
QLD1,"2007/12/09 20:30:00",6642.32,29.46,TRADE
QLD1,"2007/12/09 21:00:00",6526.78,27.08,TRADE
QLD1,"2007/12/09 21:30:00",6545.24,32.52,TRADE
QLD1,"2007/12/09 22:00:00",6239.34,23.4,TRADE
QLD1,"2007/12/09 22:30:00",6026.47,24.83,TRADE
QLD1,"2007/12/09 23:00:00",5925.11,30.11,TRADE
QLD1,"2007/12/09 23:30:00",5774.13,26.99,TRADE
QLD1,"2007/12/10 00:00:00",5553.76,23.75,TRADE
QLD1,"2007/12/10 00:30:00",5300.61,21.8,TRADE
QLD1,"2007/12/10 01:00:00",5169.27,22,TRADE
QLD1,"2007/12/10 01:30:00",5050.32,21.87,TRADE
QLD1,"2007/12/10 02:00:00",4936.46,21.57,TRADE
QLD1,"2007/12/10 02:30:00",4881.22,21.01,TRADE
QLD1,"2007/12/10 03:00:00",4834.94,19.8,TRADE
QLD1,"2007/12/10 03:30:00",4833.75,20.4,TRADE
QLD1,"2007/12/10 04:00:00",4793.64,20.56,TRADE
QLD1,"2007/12/10 04:30:00",4851.77,21.72,TRADE
QLD1,"2007/12/10 05:00:00",4907.02,21.48,TRADE
QLD1,"2007/12/10 05:30:00",5056.17,23.95,TRADE
QLD1,"2007/12/10 06:00:00",5319.1,10.16,TRADE
QLD1,"2007/12/10 06:30:00",5711.1,22.78,TRADE
QLD1,"2007/12/10 07:00:00",6147.69,29.13,TRADE
QLD1,"2007/12/10 07:30:00",6617.08,44.29,TRADE
QLD1,"2007/12/10 08:00:00",6908.78,54.1,TRADE
QLD1,"2007/12/10 08:30:00",7126.02,65.7,TRADE
QLD1,"2007/12/10 09:00:00",7330.28,73.92,TRADE
QLD1,"2007/12/10 09:30:00",7407.22,73.35,TRADE
QLD1,"2007/12/10 10:00:00",7424.57,68.53,TRADE
QLD1,"2007/12/10 10:30:00",7489.72,70.2,TRADE
QLD1,"2007/12/10 11:00:00",7505.3,86.86,TRADE
QLD1,"2007/12/10 11:30:00",7531.34,114.4,TRADE
QLD1,"2007/12/10 12:00:00",7581.09,100.07,TRADE
QLD1,"2007/12/10 12:30:00",7583.28,96.93,TRADE
QLD1,"2007/12/10 13:00:00",7627.98,100.39,TRADE
QLD1,"2007/12/10 13:30:00",7660.38,100.23,TRADE
QLD1,"2007/12/10 14:00:00",7672.8,100.86,TRADE
QLD1,"2007/12/10 14:30:00",7678.95,110.57,TRADE
QLD1,"2007/12/10 15:00:00",7618.85,147.44,TRADE
QLD1,"2007/12/10 15:30:00",7555.38,194.15,TRADE
QLD1,"2007/12/10 16:00:00",7501.4,147.07,TRADE
QLD1,"2007/12/10 16:30:00",7498.85,201.78,TRADE
QLD1,"2007/12/10 17:00:00",7525.21,74.74,TRADE
QLD1,"2007/12/10 17:30:00",7514.77,65.24,TRADE
QLD1,"2007/12/10 18:00:00",7472.73,68.91,TRADE
QLD1,"2007/12/10 18:30:00",7267.54,49.47,TRADE
QLD1,"2007/12/10 19:00:00",7350,50.37,TRADE
QLD1,"2007/12/10 19:30:00",7355.46,55.17,TRADE
QLD1,"2007/12/10 20:00:00",7172.08,54.92,TRADE
QLD1,"2007/12/10 20:30:00",7026.45,100.77,TRADE
QLD1,"2007/12/10 21:00:00",6873.71,45.89,TRADE
QLD1,"2007/12/10 21:30:00",6772.68,1756.66,TRADE
QLD1,"2007/12/10 22:00:00",6401.88,31.43,TRADE
QLD1,"2007/12/10 22:30:00",6142,31.49,TRADE
QLD1,"2007/12/10 23:00:00",6015.17,38.39,TRADE
QLD1,"2007/12/10 23:30:00",5928.22,50.83,TRADE
QLD1,"2007/12/11 00:00:00",5689.37,52.34,TRADE
QLD1,"2007/12/11 00:30:00",5456.21,35.58,TRADE
QLD1,"2007/12/11 01:00:00",5270.89,32.23,TRADE
QLD1,"2007/12/11 01:30:00",5106.5,31.22,TRADE
QLD1,"2007/12/11 02:00:00",4992.19,27.05,TRADE
QLD1,"2007/12/11 02:30:00",4940.61,23.22,TRADE
QLD1,"2007/12/11 03:00:00",4904.75,23.2,TRADE
QLD1,"2007/12/11 03:30:00",4863.06,23.39,TRADE
QLD1,"2007/12/11 04:00:00",4856.07,23.33,TRADE
QLD1,"2007/12/11 04:30:00",4950.92,23.72,TRADE
QLD1,"2007/12/11 05:00:00",5004.73,23.66,TRADE
QLD1,"2007/12/11 05:30:00",5151.69,27.27,TRADE
QLD1,"2007/12/11 06:00:00",5407.46,34.55,TRADE
QLD1,"2007/12/11 06:30:00",5852.77,44.33,TRADE
QLD1,"2007/12/11 07:00:00",6230.11,55.43,TRADE
QLD1,"2007/12/11 07:30:00",6633.16,56.94,TRADE
QLD1,"2007/12/11 08:00:00",6910.37,55.96,TRADE
QLD1,"2007/12/11 08:30:00",7075.28,477.86,TRADE
QLD1,"2007/12/11 09:00:00",7143.04,69.89,TRADE
QLD1,"2007/12/11 09:30:00",7318.93,894.19,TRADE
QLD1,"2007/12/11 10:00:00",7373.27,71.8,TRADE
QLD1,"2007/12/11 10:30:00",7477.59,80.21,TRADE
QLD1,"2007/12/11 11:00:00",7613.98,87.02,TRADE
QLD1,"2007/12/11 11:30:00",7633.6,83.63,TRADE
QLD1,"2007/12/11 12:00:00",7681.96,80.36,TRADE
QLD1,"2007/12/11 12:30:00",7688.5,73.58,TRADE
QLD1,"2007/12/11 13:00:00",7709.02,72.25,TRADE
QLD1,"2007/12/11 13:30:00",7771.82,73.19,TRADE
QLD1,"2007/12/11 14:00:00",7816.96,62.11,TRADE
QLD1,"2007/12/11 14:30:00",7834.56,71.5,TRADE
QLD1,"2007/12/11 15:00:00",7795.45,58.8,TRADE
QLD1,"2007/12/11 15:30:00",7705.74,47.93,TRADE
QLD1,"2007/12/11 16:00:00",7651.07,50.38,TRADE
QLD1,"2007/12/11 16:30:00",7684.57,78.36,TRADE
QLD1,"2007/12/11 17:00:00",7590.18,49.79,TRADE
QLD1,"2007/12/11 17:30:00",7499.21,45.58,TRADE
QLD1,"2007/12/11 18:00:00",7362.95,44.59,TRADE
QLD1,"2007/12/11 18:30:00",7177.4,41.27,TRADE
QLD1,"2007/12/11 19:00:00",7231.51,45,TRADE
QLD1,"2007/12/11 19:30:00",7218.51,44.79,TRADE
QLD1,"2007/12/11 20:00:00",7132.86,43.83,TRADE
QLD1,"2007/12/11 20:30:00",7008.96,42.45,TRADE
QLD1,"2007/12/11 21:00:00",6849.31,38.46,TRADE
QLD1,"2007/12/11 21:30:00",6765.47,38.55,TRADE
QLD1,"2007/12/11 22:00:00",6502.38,31.47,TRADE
QLD1,"2007/12/11 22:30:00",6215.04,31.98,TRADE
QLD1,"2007/12/11 23:00:00",6063.12,31.95,TRADE
QLD1,"2007/12/11 23:30:00",5897.51,36.09,TRADE
QLD1,"2007/12/12 00:00:00",5642.56,28.53,TRADE
QLD1,"2007/12/12 00:30:00",5431.82,25.05,TRADE
QLD1,"2007/12/12 01:00:00",5243.02,23.79,TRADE
QLD1,"2007/12/12 01:30:00",5044.89,22.02,TRADE
QLD1,"2007/12/12 02:00:00",4927.26,20.39,TRADE
QLD1,"2007/12/12 02:30:00",4865.25,19.81,TRADE
QLD1,"2007/12/12 03:00:00",4868.26,19.83,TRADE
QLD1,"2007/12/12 03:30:00",4841.62,19.82,TRADE
QLD1,"2007/12/12 04:00:00",4832.93,19.83,TRADE
QLD1,"2007/12/12 04:30:00",4902.79,19.86,TRADE
QLD1,"2007/12/12 05:00:00",4965.36,19.84,TRADE
QLD1,"2007/12/12 05:30:00",5121.63,21.28,TRADE
QLD1,"2007/12/12 06:00:00",5358.19,23.77,TRADE
QLD1,"2007/12/12 06:30:00",5743.4,31.43,TRADE
QLD1,"2007/12/12 07:00:00",6179.17,41.78,TRADE
QLD1,"2007/12/12 07:30:00",6597.42,42.56,TRADE
QLD1,"2007/12/12 08:00:00",6841.93,44.76,TRADE
QLD1,"2007/12/12 08:30:00",7045.68,49.17,TRADE
QLD1,"2007/12/12 09:00:00",7157.03,57.25,TRADE
QLD1,"2007/12/12 09:30:00",7233.35,50.76,TRADE
QLD1,"2007/12/12 10:00:00",7275.9,47.75,TRADE
QLD1,"2007/12/12 10:30:00",7349.74,50.2,TRADE
QLD1,"2007/12/12 11:00:00",7388.03,48,TRADE
QLD1,"2007/12/12 11:30:00",7443.47,52.48,TRADE
QLD1,"2007/12/12 12:00:00",7468.26,54.03,TRADE
QLD1,"2007/12/12 12:30:00",7542.64,80.25,TRADE
QLD1,"2007/12/12 13:00:00",7596.15,77.95,TRADE
QLD1,"2007/12/12 13:30:00",7601.07,73.39,TRADE
QLD1,"2007/12/12 14:00:00",7622,80.02,TRADE
QLD1,"2007/12/12 14:30:00",7614.93,43.66,TRADE
QLD1,"2007/12/12 15:00:00",7578.95,44,TRADE
QLD1,"2007/12/12 15:30:00",7535.84,44.34,TRADE
QLD1,"2007/12/12 16:00:00",7489.66,43.74,TRADE
QLD1,"2007/12/12 16:30:00",7385.11,42.62,TRADE
QLD1,"2007/12/12 17:00:00",7334.59,40.99,TRADE
QLD1,"2007/12/12 17:30:00",7241.9,36.97,TRADE
QLD1,"2007/12/12 18:00:00",7149.49,28.95,TRADE
QLD1,"2007/12/12 18:30:00",7008.85,25.9,TRADE
QLD1,"2007/12/12 19:00:00",7041.7,26.5,TRADE
QLD1,"2007/12/12 19:30:00",7000.68,27.4,TRADE
QLD1,"2007/12/12 20:00:00",6840.7,24.65,TRADE
QLD1,"2007/12/12 20:30:00",6686.48,24.19,TRADE
QLD1,"2007/12/12 21:00:00",6486.23,22.01,TRADE
QLD1,"2007/12/12 21:30:00",6451.75,22.46,TRADE
QLD1,"2007/12/12 22:00:00",6229.07,19.25,TRADE
QLD1,"2007/12/12 22:30:00",6005.56,22.28,TRADE
QLD1,"2007/12/12 23:00:00",5838.4,24.2,TRADE
QLD1,"2007/12/12 23:30:00",5700.62,23.07,TRADE
QLD1,"2007/12/13 00:00:00",5462.36,21.57,TRADE
QLD1,"2007/12/13 00:30:00",5189.04,18.91,TRADE
QLD1,"2007/12/13 01:00:00",5026.59,18.76,TRADE
QLD1,"2007/12/13 01:30:00",4863.06,18.65,TRADE
QLD1,"2007/12/13 02:00:00",4762.8,15.21,TRADE
QLD1,"2007/12/13 02:30:00",4705.93,14.57,TRADE
QLD1,"2007/12/13 03:00:00",4653.97,14.05,TRADE
QLD1,"2007/12/13 03:30:00",4663.08,14.06,TRADE
QLD1,"2007/12/13 04:00:00",4656.66,14.92,TRADE
QLD1,"2007/12/13 04:30:00",4706.08,18.05,TRADE
QLD1,"2007/12/13 05:00:00",4747.49,17.87,TRADE
QLD1,"2007/12/13 05:30:00",4926.08,18.18,TRADE
QLD1,"2007/12/13 06:00:00",5160.53,20.35,TRADE
QLD1,"2007/12/13 06:30:00",5589.8,24.84,TRADE
QLD1,"2007/12/13 07:00:00",6031.55,27.09,TRADE
QLD1,"2007/12/13 07:30:00",6381.33,29.39,TRADE
QLD1,"2007/12/13 08:00:00",6567.98,37.71,TRADE
QLD1,"2007/12/13 08:30:00",6772.85,42.71,TRADE
QLD1,"2007/12/13 09:00:00",6858.44,43.57,TRADE
QLD1,"2007/12/13 09:30:00",6914.06,43.78,TRADE
QLD1,"2007/12/13 10:00:00",6968.17,44.11,TRADE
QLD1,"2007/12/13 10:30:00",6941.88,43.25,TRADE
QLD1,"2007/12/13 11:00:00",6964.58,47.45,TRADE
QLD1,"2007/12/13 11:30:00",6949.43,44.94,TRADE
QLD1,"2007/12/13 12:00:00",6945.19,44.42,TRADE
QLD1,"2007/12/13 12:30:00",6931.88,43.71,TRADE
QLD1,"2007/12/13 13:00:00",6956.95,45.52,TRADE
QLD1,"2007/12/13 13:30:00",6957.45,52.37,TRADE
QLD1,"2007/12/13 14:00:00",6987.1,53.05,TRADE
QLD1,"2007/12/13 14:30:00",7030.75,53.43,TRADE
QLD1,"2007/12/13 15:00:00",7030.8,52.65,TRADE
QLD1,"2007/12/13 15:30:00",7024.32,51.14,TRADE
QLD1,"2007/12/13 16:00:00",6995.08,49.52,TRADE
QLD1,"2007/12/13 16:30:00",7000.38,50.23,TRADE
QLD1,"2007/12/13 17:00:00",7015.56,49.35,TRADE
QLD1,"2007/12/13 17:30:00",7027.64,44.33,TRADE
QLD1,"2007/12/13 18:00:00",6951.65,39.86,TRADE
QLD1,"2007/12/13 18:30:00",6750.01,35.5,TRADE
QLD1,"2007/12/13 19:00:00",6758.53,35.76,TRADE
QLD1,"2007/12/13 19:30:00",6802.94,36.27,TRADE
QLD1,"2007/12/13 20:00:00",6746.25,39.18,TRADE
QLD1,"2007/12/13 20:30:00",6614.42,33.33,TRADE
QLD1,"2007/12/13 21:00:00",6483.11,26.76,TRADE
QLD1,"2007/12/13 21:30:00",6461.08,30.67,TRADE
QLD1,"2007/12/13 22:00:00",6174.28,22.26,TRADE
QLD1,"2007/12/13 22:30:00",5972.01,23.94,TRADE
QLD1,"2007/12/13 23:00:00",5816.76,27.25,TRADE
QLD1,"2007/12/13 23:30:00",5725.11,26.59,TRADE
QLD1,"2007/12/14 00:00:00",5467.43,23.88,TRADE
QLD1,"2007/12/14 00:30:00",5214.01,21.6,TRADE
QLD1,"2007/12/14 01:00:00",5037.21,20.39,TRADE
QLD1,"2007/12/14 01:30:00",4853.79,20.55,TRADE
QLD1,"2007/12/14 02:00:00",4798.17,19.78,TRADE
QLD1,"2007/12/14 02:30:00",4767.51,18.8,TRADE
QLD1,"2007/12/14 03:00:00",4763.42,18.8,TRADE
QLD1,"2007/12/14 03:30:00",4746.54,17.67,TRADE
QLD1,"2007/12/14 04:00:00",4727.62,16.02,TRADE
QLD1,"2007/12/14 04:30:00",4735.64,19.35,TRADE
QLD1,"2007/12/14 05:00:00",4801.56,19.65,TRADE
QLD1,"2007/12/14 05:30:00",4913.51,21.14,TRADE
QLD1,"2007/12/14 06:00:00",5222.58,22.49,TRADE
QLD1,"2007/12/14 06:30:00",5637.2,32,TRADE
QLD1,"2007/12/14 07:00:00",6027.88,35.25,TRADE
QLD1,"2007/12/14 07:30:00",6381.88,36.84,TRADE
QLD1,"2007/12/14 08:00:00",6625.68,40.5,TRADE
QLD1,"2007/12/14 08:30:00",6872.68,45.48,TRADE
QLD1,"2007/12/14 09:00:00",6987.2,49.41,TRADE
QLD1,"2007/12/14 09:30:00",7054.7,51.17,TRADE
QLD1,"2007/12/14 10:00:00",7116.93,48.01,TRADE
QLD1,"2007/12/14 10:30:00",7128.98,44,TRADE
QLD1,"2007/12/14 11:00:00",7196.96,42.8,TRADE
QLD1,"2007/12/14 11:30:00",7235.51,41.85,TRADE
QLD1,"2007/12/14 12:00:00",7246.46,42.3,TRADE
QLD1,"2007/12/14 12:30:00",7268.41,41.51,TRADE
QLD1,"2007/12/14 13:00:00",7250.32,44.93,TRADE
QLD1,"2007/12/14 13:30:00",7265.31,43.7,TRADE
QLD1,"2007/12/14 14:00:00",7269.39,45.84,TRADE
QLD1,"2007/12/14 14:30:00",7288.34,53.79,TRADE
QLD1,"2007/12/14 15:00:00",7212.15,42.88,TRADE
QLD1,"2007/12/14 15:30:00",7161.88,49.29,TRADE
QLD1,"2007/12/14 16:00:00",7118.85,54.26,TRADE
QLD1,"2007/12/14 16:30:00",7066.84,51.27,TRADE
QLD1,"2007/12/14 17:00:00",7041.72,48.74,TRADE
QLD1,"2007/12/14 17:30:00",6910.83,41.72,TRADE
QLD1,"2007/12/14 18:00:00",6787.9,38.11,TRADE
QLD1,"2007/12/14 18:30:00",6560.23,31.83,TRADE
QLD1,"2007/12/14 19:00:00",6575.09,34.23,TRADE
QLD1,"2007/12/14 19:30:00",6620.26,36.76,TRADE
QLD1,"2007/12/14 20:00:00",6582.6,36.2,TRADE
QLD1,"2007/12/14 20:30:00",6491.77,33.1,TRADE
QLD1,"2007/12/14 21:00:00",6394.69,26.84,TRADE
QLD1,"2007/12/14 21:30:00",6423.08,33.65,TRADE
QLD1,"2007/12/14 22:00:00",6227.78,28.28,TRADE
QLD1,"2007/12/14 22:30:00",6041.99,26.25,TRADE
QLD1,"2007/12/14 23:00:00",5914.35,29,TRADE
QLD1,"2007/12/14 23:30:00",5790.85,34.58,TRADE
QLD1,"2007/12/15 00:00:00",5568.02,29.11,TRADE
QLD1,"2007/12/15 00:30:00",5337.32,23.89,TRADE
QLD1,"2007/12/15 01:00:00",5143.67,22.48,TRADE
QLD1,"2007/12/15 01:30:00",4996.9,22.1,TRADE
QLD1,"2007/12/15 02:00:00",4878.98,21.47,TRADE
QLD1,"2007/12/15 02:30:00",4782.78,19.65,TRADE
QLD1,"2007/12/15 03:00:00",4728.73,19.36,TRADE
QLD1,"2007/12/15 03:30:00",4734.45,19.6,TRADE
QLD1,"2007/12/15 04:00:00",4702.42,19.55,TRADE
QLD1,"2007/12/15 04:30:00",4708.21,19.48,TRADE
QLD1,"2007/12/15 05:00:00",4699.95,19.2,TRADE
QLD1,"2007/12/15 05:30:00",4731.69,19.3,TRADE
QLD1,"2007/12/15 06:00:00",4853.36,20.09,TRADE
QLD1,"2007/12/15 06:30:00",5123.92,21.26,TRADE
QLD1,"2007/12/15 07:00:00",5357.02,23.09,TRADE
QLD1,"2007/12/15 07:30:00",5665.7,22.74,TRADE
QLD1,"2007/12/15 08:00:00",5919.48,23.99,TRADE
QLD1,"2007/12/15 08:30:00",6198.52,30.5,TRADE
QLD1,"2007/12/15 09:00:00",6353.9,32.51,TRADE
QLD1,"2007/12/15 09:30:00",6500.15,34.29,TRADE
QLD1,"2007/12/15 10:00:00",6582.82,32.89,TRADE
QLD1,"2007/12/15 10:30:00",6561.25,32.67,TRADE
QLD1,"2007/12/15 11:00:00",6627.96,35.35,TRADE
QLD1,"2007/12/15 11:30:00",6657.5,33.55,TRADE
QLD1,"2007/12/15 12:00:00",6659.76,32.87,TRADE
QLD1,"2007/12/15 12:30:00",6658.12,31.92,TRADE
QLD1,"2007/12/15 13:00:00",6681.21,32.2,TRADE
QLD1,"2007/12/15 13:30:00",6682.31,32.21,TRADE
QLD1,"2007/12/15 14:00:00",6685.34,32.15,TRADE
QLD1,"2007/12/15 14:30:00",6663.82,32.07,TRADE
QLD1,"2007/12/15 15:00:00",6621.32,32.39,TRADE
QLD1,"2007/12/15 15:30:00",6669.45,35.08,TRADE
QLD1,"2007/12/15 16:00:00",6691.29,36.85,TRADE
QLD1,"2007/12/15 16:30:00",6698.04,33.97,TRADE
QLD1,"2007/12/15 17:00:00",6679.02,34.72,TRADE
QLD1,"2007/12/15 17:30:00",6618.62,31.24,TRADE
QLD1,"2007/12/15 18:00:00",6597.64,29.48,TRADE
QLD1,"2007/12/15 18:30:00",6473.12,27.2,TRADE
QLD1,"2007/12/15 19:00:00",6435.78,25.88,TRADE
QLD1,"2007/12/15 19:30:00",6491.59,28.2,TRADE
QLD1,"2007/12/15 20:00:00",6441.05,28.84,TRADE
QLD1,"2007/12/15 20:30:00",6324.82,28.77,TRADE
QLD1,"2007/12/15 21:00:00",6260.31,26.24,TRADE
QLD1,"2007/12/15 21:30:00",6286.45,27.58,TRADE
QLD1,"2007/12/15 22:00:00",6067.38,25.24,TRADE
QLD1,"2007/12/15 22:30:00",5936.85,24.59,TRADE
QLD1,"2007/12/15 23:00:00",5857.55,25.05,TRADE
QLD1,"2007/12/15 23:30:00",5738.21,29.1,TRADE
QLD1,"2007/12/16 00:00:00",5546.13,28.36,TRADE
QLD1,"2007/12/16 00:30:00",5306.38,24.43,TRADE
QLD1,"2007/12/16 01:00:00",5141.93,23.16,TRADE
QLD1,"2007/12/16 01:30:00",5000.28,22.6,TRADE
QLD1,"2007/12/16 02:00:00",4886.44,19.98,TRADE
QLD1,"2007/12/16 02:30:00",4785.97,18.99,TRADE
QLD1,"2007/12/16 03:00:00",4717.33,19.07,TRADE
QLD1,"2007/12/16 03:30:00",4703.19,18.37,TRADE
QLD1,"2007/12/16 04:00:00",4672.3,15.96,TRADE
QLD1,"2007/12/16 04:30:00",4731.99,15.37,TRADE
QLD1,"2007/12/16 05:00:00",4690.36,14.88,TRADE
QLD1,"2007/12/16 05:30:00",4664.3,15.11,TRADE
QLD1,"2007/12/16 06:00:00",4712.17,14.82,TRADE
QLD1,"2007/12/16 06:30:00",4855.19,17.25,TRADE
QLD1,"2007/12/16 07:00:00",5116.16,18.83,TRADE
QLD1,"2007/12/16 07:30:00",5426.11,19.18,TRADE
QLD1,"2007/12/16 08:00:00",5663.52,19.04,TRADE
QLD1,"2007/12/16 08:30:00",5902.89,20.69,TRADE
QLD1,"2007/12/16 09:00:00",6109.09,23.11,TRADE
QLD1,"2007/12/16 09:30:00",6301.98,24.65,TRADE
QLD1,"2007/12/16 10:00:00",6294.91,23.49,TRADE
QLD1,"2007/12/16 10:30:00",6414.68,25.04,TRADE
QLD1,"2007/12/16 11:00:00",6479.3,26.98,TRADE
QLD1,"2007/12/16 11:30:00",6547.29,29.71,TRADE
QLD1,"2007/12/16 12:00:00",6600.34,27.63,TRADE
QLD1,"2007/12/16 12:30:00",6668.53,23.98,TRADE
QLD1,"2007/12/16 13:00:00",6677.81,24.02,TRADE
QLD1,"2007/12/16 13:30:00",6753.83,24.19,TRADE
QLD1,"2007/12/16 14:00:00",6752.74,24.1,TRADE
QLD1,"2007/12/16 14:30:00",6728.58,24,TRADE
QLD1,"2007/12/16 15:00:00",6736.63,24.02,TRADE
QLD1,"2007/12/16 15:30:00",6744,24.13,TRADE
QLD1,"2007/12/16 16:00:00",6748.38,24.23,TRADE
QLD1,"2007/12/16 16:30:00",6723.2,24.26,TRADE
QLD1,"2007/12/16 17:00:00",6694.87,24.1,TRADE
QLD1,"2007/12/16 17:30:00",6686.76,24.07,TRADE
QLD1,"2007/12/16 18:00:00",6740.18,24.79,TRADE
QLD1,"2007/12/16 18:30:00",6662.94,24.04,TRADE
QLD1,"2007/12/16 19:00:00",6683.23,24.11,TRADE
QLD1,"2007/12/16 19:30:00",6748.09,24.2,TRADE
QLD1,"2007/12/16 20:00:00",6688.34,24.16,TRADE
QLD1,"2007/12/16 20:30:00",6552.58,23.7,TRADE
QLD1,"2007/12/16 21:00:00",6429.38,21.55,TRADE
QLD1,"2007/12/16 21:30:00",6439.45,23.06,TRADE
QLD1,"2007/12/16 22:00:00",6167.22,21.57,TRADE
QLD1,"2007/12/16 22:30:00",5956.88,20.94,TRADE
QLD1,"2007/12/16 23:00:00",5827.46,20.37,TRADE
QLD1,"2007/12/16 23:30:00",5731.01,22.83,TRADE
QLD1,"2007/12/17 00:00:00",5503.05,20.08,TRADE
QLD1,"2007/12/17 00:30:00",5278.77,19.8,TRADE
QLD1,"2007/12/17 01:00:00",5133.91,17.07,TRADE
QLD1,"2007/12/17 01:30:00",5002.94,18.62,TRADE
QLD1,"2007/12/17 02:00:00",4855.46,14.18,TRADE
QLD1,"2007/12/17 02:30:00",4740.44,11.97,TRADE
QLD1,"2007/12/17 03:00:00",4708.37,11.09,TRADE
QLD1,"2007/12/17 03:30:00",4720.22,9.83,TRADE
QLD1,"2007/12/17 04:00:00",4725.69,11.25,TRADE
QLD1,"2007/12/17 04:30:00",4780.35,16.81,TRADE
QLD1,"2007/12/17 05:00:00",4868.66,18.15,TRADE
QLD1,"2007/12/17 05:30:00",4993.14,21.13,TRADE
QLD1,"2007/12/17 06:00:00",5270.76,22.73,TRADE
QLD1,"2007/12/17 06:30:00",5666.75,28.86,TRADE
QLD1,"2007/12/17 07:00:00",6076.13,35.33,TRADE
QLD1,"2007/12/17 07:30:00",6456.96,35.7,TRADE
QLD1,"2007/12/17 08:00:00",6760.61,36.82,TRADE
QLD1,"2007/12/17 08:30:00",7003.47,39.57,TRADE
QLD1,"2007/12/17 09:00:00",7162.55,44.69,TRADE
QLD1,"2007/12/17 09:30:00",7215.99,48.7,TRADE
QLD1,"2007/12/17 10:00:00",7296.96,50.07,TRADE
QLD1,"2007/12/17 10:30:00",7367.94,53.63,TRADE
QLD1,"2007/12/17 11:00:00",7443.01,59.16,TRADE
QLD1,"2007/12/17 11:30:00",7510.7,57.73,TRADE
QLD1,"2007/12/17 12:00:00",7571.84,60.32,TRADE
QLD1,"2007/12/17 12:30:00",7683.86,68.58,TRADE
QLD1,"2007/12/17 13:00:00",7721.84,74.24,TRADE
QLD1,"2007/12/17 13:30:00",7794.98,76.16,TRADE
QLD1,"2007/12/17 14:00:00",7803.13,61.74,TRADE
QLD1,"2007/12/17 14:30:00",7824.42,52.4,TRADE
QLD1,"2007/12/17 15:00:00",7808.63,46.43,TRADE
QLD1,"2007/12/17 15:30:00",7760.9,47.28,TRADE
QLD1,"2007/12/17 16:00:00",7648.93,46.59,TRADE
QLD1,"2007/12/17 16:30:00",7542,47.66,TRADE
QLD1,"2007/12/17 17:00:00",7488.15,55.25,TRADE
QLD1,"2007/12/17 17:30:00",7421,49.22,TRADE
QLD1,"2007/12/17 18:00:00",7339.32,47.94,TRADE
QLD1,"2007/12/17 18:30:00",7176.58,42.89,TRADE
QLD1,"2007/12/17 19:00:00",7167.33,40.37,TRADE
QLD1,"2007/12/17 19:30:00",7120.98,40.55,TRADE
QLD1,"2007/12/17 20:00:00",6988.79,40.86,TRADE
QLD1,"2007/12/17 20:30:00",6830.11,34.68,TRADE
QLD1,"2007/12/17 21:00:00",6697.32,33.44,TRADE
QLD1,"2007/12/17 21:30:00",6666.51,35.08,TRADE
QLD1,"2007/12/17 22:00:00",6359.95,25.89,TRADE
QLD1,"2007/12/17 22:30:00",6104.41,23.63,TRADE
QLD1,"2007/12/17 23:00:00",5952.12,25.01,TRADE
QLD1,"2007/12/17 23:30:00",5787.77,23.33,TRADE
QLD1,"2007/12/18 00:00:00",5559.95,22.65,TRADE
QLD1,"2007/12/18 00:30:00",5327.42,22.07,TRADE
QLD1,"2007/12/18 01:00:00",5137.64,21.55,TRADE
QLD1,"2007/12/18 01:30:00",4995.61,19.01,TRADE
QLD1,"2007/12/18 02:00:00",4866.26,18.67,TRADE
QLD1,"2007/12/18 02:30:00",4793.23,18.51,TRADE
QLD1,"2007/12/18 03:00:00",4767.16,18.4,TRADE
QLD1,"2007/12/18 03:30:00",4740.81,15.33,TRADE
QLD1,"2007/12/18 04:00:00",4735.12,18.13,TRADE
QLD1,"2007/12/18 04:30:00",4785.67,18.67,TRADE
QLD1,"2007/12/18 05:00:00",4843.99,19.22,TRADE
QLD1,"2007/12/18 05:30:00",4982.8,20.85,TRADE
QLD1,"2007/12/18 06:00:00",5198.07,20.93,TRADE
QLD1,"2007/12/18 06:30:00",5633.93,27.55,TRADE
QLD1,"2007/12/18 07:00:00",6048.69,33.53,TRADE
QLD1,"2007/12/18 07:30:00",6452.15,34.89,TRADE
QLD1,"2007/12/18 08:00:00",6721.25,37.24,TRADE
QLD1,"2007/12/18 08:30:00",6982.28,42.88,TRADE
QLD1,"2007/12/18 09:00:00",7095.4,47.09,TRADE
QLD1,"2007/12/18 09:30:00",7120.54,42,TRADE
QLD1,"2007/12/18 10:00:00",7188.91,41.48,TRADE
QLD1,"2007/12/18 10:30:00",7212.44,40.22,TRADE
QLD1,"2007/12/18 11:00:00",7235.26,39.94,TRADE
QLD1,"2007/12/18 11:30:00",7243.19,40.13,TRADE
QLD1,"2007/12/18 12:00:00",7260.63,39.48,TRADE
QLD1,"2007/12/18 12:30:00",7308.1,39.65,TRADE
QLD1,"2007/12/18 13:00:00",7275.69,39.22,TRADE
QLD1,"2007/12/18 13:30:00",7277.84,39.24,TRADE
QLD1,"2007/12/18 14:00:00",7283.09,38.96,TRADE
QLD1,"2007/12/18 14:30:00",7236.61,38.44,TRADE
QLD1,"2007/12/18 15:00:00",7195.96,37.39,TRADE
QLD1,"2007/12/18 15:30:00",7169.52,37.7,TRADE
QLD1,"2007/12/18 16:00:00",7188.04,40.06,TRADE
QLD1,"2007/12/18 16:30:00",7117.23,36.64,TRADE
QLD1,"2007/12/18 17:00:00",7119.4,36.21,TRADE
QLD1,"2007/12/18 17:30:00",7045.46,33.38,TRADE
QLD1,"2007/12/18 18:00:00",6991.77,31.92,TRADE
QLD1,"2007/12/18 18:30:00",6820.8,28.23,TRADE
QLD1,"2007/12/18 19:00:00",6904.43,31.6,TRADE
QLD1,"2007/12/18 19:30:00",6912.02,33.32,TRADE
QLD1,"2007/12/18 20:00:00",6839.68,34.5,TRADE
QLD1,"2007/12/18 20:30:00",6732.57,31.83,TRADE
QLD1,"2007/12/18 21:00:00",6634.81,30.18,TRADE
QLD1,"2007/12/18 21:30:00",6627.21,31.48,TRADE
QLD1,"2007/12/18 22:00:00",6363.5,23.66,TRADE
QLD1,"2007/12/18 22:30:00",6139.48,23.91,TRADE
QLD1,"2007/12/18 23:00:00",5918.72,23.54,TRADE
QLD1,"2007/12/18 23:30:00",5851.28,23.46,TRADE
QLD1,"2007/12/19 00:00:00",5604.73,23.13,TRADE
QLD1,"2007/12/19 00:30:00",5374.05,22.32,TRADE
QLD1,"2007/12/19 01:00:00",5162.23,19.94,TRADE
QLD1,"2007/12/19 01:30:00",4979.36,19.71,TRADE
QLD1,"2007/12/19 02:00:00",4893.8,19.19,TRADE
QLD1,"2007/12/19 02:30:00",4828.59,19.05,TRADE
QLD1,"2007/12/19 03:00:00",4768.97,17.74,TRADE
QLD1,"2007/12/19 03:30:00",4769.07,17.17,TRADE
QLD1,"2007/12/19 04:00:00",4772.65,18.68,TRADE
QLD1,"2007/12/19 04:30:00",4787.61,18.86,TRADE
QLD1,"2007/12/19 05:00:00",4854.66,18.24,TRADE
QLD1,"2007/12/19 05:30:00",5000.58,19.98,TRADE
QLD1,"2007/12/19 06:00:00",5227.56,20.07,TRADE
QLD1,"2007/12/19 06:30:00",5601.19,22.79,TRADE
QLD1,"2007/12/19 07:00:00",6002.1,30.1,TRADE
QLD1,"2007/12/19 07:30:00",6374.12,30.28,TRADE
QLD1,"2007/12/19 08:00:00",6628.73,32.12,TRADE
QLD1,"2007/12/19 08:30:00",6886.69,36.66,TRADE
QLD1,"2007/12/19 09:00:00",7020.33,42.98,TRADE
QLD1,"2007/12/19 09:30:00",7060.89,44.24,TRADE
QLD1,"2007/12/19 10:00:00",7092.16,41.48,TRADE
QLD1,"2007/12/19 10:30:00",7089.64,39.55,TRADE
QLD1,"2007/12/19 11:00:00",7105,40.41,TRADE
QLD1,"2007/12/19 11:30:00",7151.26,52.34,TRADE
QLD1,"2007/12/19 12:00:00",7146.09,49.83,TRADE
QLD1,"2007/12/19 12:30:00",7187.31,45.59,TRADE
QLD1,"2007/12/19 13:00:00",7207.7,43.72,TRADE
QLD1,"2007/12/19 13:30:00",7207.42,44.87,TRADE
QLD1,"2007/12/19 14:00:00",7217.22,43.34,TRADE
QLD1,"2007/12/19 14:30:00",7180.26,39.47,TRADE
QLD1,"2007/12/19 15:00:00",7186.45,41.15,TRADE
QLD1,"2007/12/19 15:30:00",7205.12,43.96,TRADE
QLD1,"2007/12/19 16:00:00",7162,40.78,TRADE
QLD1,"2007/12/19 16:30:00",7128.37,42.25,TRADE
QLD1,"2007/12/19 17:00:00",7129.76,42.13,TRADE
QLD1,"2007/12/19 17:30:00",7061.4,37.68,TRADE
QLD1,"2007/12/19 18:00:00",7027.3,35.13,TRADE
QLD1,"2007/12/19 18:30:00",6831.66,34.14,TRADE
QLD1,"2007/12/19 19:00:00",6826.18,33.57,TRADE
QLD1,"2007/12/19 19:30:00",6920.77,35.39,TRADE
QLD1,"2007/12/19 20:00:00",6844.11,34.45,TRADE
QLD1,"2007/12/19 20:30:00",6788.62,30.6,TRADE
QLD1,"2007/12/19 21:00:00",6722.39,23.7,TRADE
QLD1,"2007/12/19 21:30:00",6716.9,24.04,TRADE
QLD1,"2007/12/19 22:00:00",6461.94,26.06,TRADE
QLD1,"2007/12/19 22:30:00",6204.63,30.96,TRADE
QLD1,"2007/12/19 23:00:00",6022.99,26.01,TRADE
QLD1,"2007/12/19 23:30:00",5904.71,24.21,TRADE
QLD1,"2007/12/20 00:00:00",5688.11,23.42,TRADE
QLD1,"2007/12/20 00:30:00",5431.91,21.36,TRADE
QLD1,"2007/12/20 01:00:00",5241.68,20.68,TRADE
QLD1,"2007/12/20 01:30:00",5056.86,18.81,TRADE
QLD1,"2007/12/20 02:00:00",4963.2,18.6,TRADE
QLD1,"2007/12/20 02:30:00",4910.06,16.28,TRADE
QLD1,"2007/12/20 03:00:00",4876.16,15.78,TRADE
QLD1,"2007/12/20 03:30:00",4863.62,15.06,TRADE
QLD1,"2007/12/20 04:00:00",4850.88,17.15,TRADE
QLD1,"2007/12/20 04:30:00",4914.4,18.85,TRADE
QLD1,"2007/12/20 05:00:00",4939.04,18.11,TRADE
QLD1,"2007/12/20 05:30:00",5060.62,18.74,TRADE
QLD1,"2007/12/20 06:00:00",5257.13,19.82,TRADE
QLD1,"2007/12/20 06:30:00",5643.56,21.77,TRADE
QLD1,"2007/12/20 07:00:00",6031.51,28.28,TRADE
QLD1,"2007/12/20 07:30:00",6292.96,31.61,TRADE
QLD1,"2007/12/20 08:00:00",6510.03,33.49,TRADE
QLD1,"2007/12/20 08:30:00",6768.03,37.81,TRADE
QLD1,"2007/12/20 09:00:00",6906.16,42.02,TRADE
QLD1,"2007/12/20 09:30:00",7039,44.43,TRADE
QLD1,"2007/12/20 10:00:00",7048.28,40.18,TRADE
QLD1,"2007/12/20 10:30:00",7050.53,38.93,TRADE
QLD1,"2007/12/20 11:00:00",7118.69,41.93,TRADE
QLD1,"2007/12/20 11:30:00",7082.98,38.65,TRADE
QLD1,"2007/12/20 12:00:00",7047.17,36.82,TRADE
QLD1,"2007/12/20 12:30:00",7037.01,38.45,TRADE
QLD1,"2007/12/20 13:00:00",7036.12,40.62,TRADE
QLD1,"2007/12/20 13:30:00",7126.04,43.15,TRADE
QLD1,"2007/12/20 14:00:00",7181.25,41.74,TRADE
QLD1,"2007/12/20 14:30:00",7166.12,39.57,TRADE
QLD1,"2007/12/20 15:00:00",7148.67,37.37,TRADE
QLD1,"2007/12/20 15:30:00",7132.19,37.32,TRADE
QLD1,"2007/12/20 16:00:00",7108.39,36.08,TRADE
QLD1,"2007/12/20 16:30:00",7074.48,36.62,TRADE
QLD1,"2007/12/20 17:00:00",7081.26,37.77,TRADE
QLD1,"2007/12/20 17:30:00",7054.33,37.07,TRADE
QLD1,"2007/12/20 18:00:00",7032.64,32.8,TRADE
QLD1,"2007/12/20 18:30:00",6880.28,31.28,TRADE
QLD1,"2007/12/20 19:00:00",6871.91,34.28,TRADE
QLD1,"2007/12/20 19:30:00",6906.02,36.01,TRADE
QLD1,"2007/12/20 20:00:00",6852.52,37.69,TRADE
QLD1,"2007/12/20 20:30:00",6751.07,30.53,TRADE
QLD1,"2007/12/20 21:00:00",6680.75,24.01,TRADE
QLD1,"2007/12/20 21:30:00",6684.24,25.76,TRADE
QLD1,"2007/12/20 22:00:00",6437.16,22.06,TRADE
QLD1,"2007/12/20 22:30:00",6258.62,30.7,TRADE
QLD1,"2007/12/20 23:00:00",6090.79,29.88,TRADE
QLD1,"2007/12/20 23:30:00",6016.13,30.59,TRADE
QLD1,"2007/12/21 00:00:00",5745.43,23.76,TRADE
QLD1,"2007/12/21 00:30:00",5485.15,22.02,TRADE
QLD1,"2007/12/21 01:00:00",5293.04,19.82,TRADE
QLD1,"2007/12/21 01:30:00",5092.78,21.81,TRADE
QLD1,"2007/12/21 02:00:00",4949.86,19.31,TRADE
QLD1,"2007/12/21 02:30:00",4836.6,13.98,TRADE
QLD1,"2007/12/21 03:00:00",4793.94,14.44,TRADE
QLD1,"2007/12/21 03:30:00",4792.47,14.53,TRADE
QLD1,"2007/12/21 04:00:00",4766.42,14.99,TRADE
QLD1,"2007/12/21 04:30:00",4789.55,17.64,TRADE
QLD1,"2007/12/21 05:00:00",4879.17,19.03,TRADE
QLD1,"2007/12/21 05:30:00",4982.64,19.99,TRADE
QLD1,"2007/12/21 06:00:00",5220.9,19.82,TRADE
QLD1,"2007/12/21 06:30:00",5617.72,21.31,TRADE
QLD1,"2007/12/21 07:00:00",5994.79,26.59,TRADE
QLD1,"2007/12/21 07:30:00",6353,30.33,TRADE
QLD1,"2007/12/21 08:00:00",6655.04,34.21,TRADE
QLD1,"2007/12/21 08:30:00",6913.77,42.34,TRADE
QLD1,"2007/12/21 09:00:00",6973.25,48.56,TRADE
QLD1,"2007/12/21 09:30:00",7112.91,51.5,TRADE
QLD1,"2007/12/21 10:00:00",7176,51.02,TRADE
QLD1,"2007/12/21 10:30:00",7182.38,50.09,TRADE
QLD1,"2007/12/21 11:00:00",7222.08,50.57,TRADE
QLD1,"2007/12/21 11:30:00",7204.64,51.7,TRADE
QLD1,"2007/12/21 12:00:00",7227.15,49.09,TRADE
QLD1,"2007/12/21 12:30:00",7245.24,46.87,TRADE
QLD1,"2007/12/21 13:00:00",7191.71,46,TRADE
QLD1,"2007/12/21 13:30:00",7224.86,48.33,TRADE
QLD1,"2007/12/21 14:00:00",7202.84,47.33,TRADE
QLD1,"2007/12/21 14:30:00",7204.87,50.04,TRADE
QLD1,"2007/12/21 15:00:00",7190.95,48.35,TRADE
QLD1,"2007/12/21 15:30:00",7222.71,51.19,TRADE
QLD1,"2007/12/21 16:00:00",7212.32,43.03,TRADE
QLD1,"2007/12/21 16:30:00",7138.69,42.49,TRADE
QLD1,"2007/12/21 17:00:00",7103.67,42.77,TRADE
QLD1,"2007/12/21 17:30:00",7011.7,40.21,TRADE
QLD1,"2007/12/21 18:00:00",6945.78,38.85,TRADE
QLD1,"2007/12/21 18:30:00",6733.28,35.89,TRADE
QLD1,"2007/12/21 19:00:00",6702.03,36.29,TRADE
QLD1,"2007/12/21 19:30:00",6796.39,37.27,TRADE
QLD1,"2007/12/21 20:00:00",6748.19,35.27,TRADE
QLD1,"2007/12/21 20:30:00",6667.96,31.67,TRADE
QLD1,"2007/12/21 21:00:00",6532.43,29.77,TRADE
QLD1,"2007/12/21 21:30:00",6548.83,30.95,TRADE
QLD1,"2007/12/21 22:00:00",6291.93,24.65,TRADE
QLD1,"2007/12/21 22:30:00",6147.32,24.5,TRADE
QLD1,"2007/12/21 23:00:00",5979.96,22.44,TRADE
QLD1,"2007/12/21 23:30:00",5852.11,23.6,TRADE
QLD1,"2007/12/22 00:00:00",5704.26,21.78,TRADE
QLD1,"2007/12/22 00:30:00",5446.05,20.85,TRADE
QLD1,"2007/12/22 01:00:00",5235.5,19.74,TRADE
QLD1,"2007/12/22 01:30:00",5087.91,21.22,TRADE
QLD1,"2007/12/22 02:00:00",4937.33,19.47,TRADE
QLD1,"2007/12/22 02:30:00",4868.79,19.05,TRADE
QLD1,"2007/12/22 03:00:00",4822.81,19.01,TRADE
QLD1,"2007/12/22 03:30:00",4774.15,18.91,TRADE
QLD1,"2007/12/22 04:00:00",4744.19,18.98,TRADE
QLD1,"2007/12/22 04:30:00",4755.23,19,TRADE
QLD1,"2007/12/22 05:00:00",4756.03,18.1,TRADE
QLD1,"2007/12/22 05:30:00",4784.97,18.44,TRADE
QLD1,"2007/12/22 06:00:00",4848.43,20.4,TRADE
QLD1,"2007/12/22 06:30:00",5040.49,20.95,TRADE
QLD1,"2007/12/22 07:00:00",5262.72,22.23,TRADE
QLD1,"2007/12/22 07:30:00",5533.19,25.34,TRADE
QLD1,"2007/12/22 08:00:00",5773.34,24.69,TRADE
QLD1,"2007/12/22 08:30:00",6083.1,28.54,TRADE
QLD1,"2007/12/22 09:00:00",6301.15,28.78,TRADE
QLD1,"2007/12/22 09:30:00",6419.61,35.82,TRADE
QLD1,"2007/12/22 10:00:00",6445.19,28.98,TRADE
QLD1,"2007/12/22 10:30:00",6507.23,26.25,TRADE
QLD1,"2007/12/22 11:00:00",6520.03,26.51,TRADE
QLD1,"2007/12/22 11:30:00",6538.94,24.09,TRADE
QLD1,"2007/12/22 12:00:00",6595.02,24.46,TRADE
QLD1,"2007/12/22 12:30:00",6579.78,23.98,TRADE
QLD1,"2007/12/22 13:00:00",6616.06,26.44,TRADE
QLD1,"2007/12/22 13:30:00",6645.87,26.14,TRADE
QLD1,"2007/12/22 14:00:00",6682.7,26.08,TRADE
QLD1,"2007/12/22 14:30:00",6699.16,26.35,TRADE
QLD1,"2007/12/22 15:00:00",6686.15,27.36,TRADE
QLD1,"2007/12/22 15:30:00",6741.5,29.69,TRADE
QLD1,"2007/12/22 16:00:00",6729.64,26.98,TRADE
QLD1,"2007/12/22 16:30:00",6705.8,24.12,TRADE
QLD1,"2007/12/22 17:00:00",6667.82,26.57,TRADE
QLD1,"2007/12/22 17:30:00",6636.89,23.3,TRADE
QLD1,"2007/12/22 18:00:00",6588.8,22.63,TRADE
QLD1,"2007/12/22 18:30:00",6479.68,22.45,TRADE
QLD1,"2007/12/22 19:00:00",6477.95,22.51,TRADE
QLD1,"2007/12/22 19:30:00",6618.44,23.52,TRADE
QLD1,"2007/12/22 20:00:00",6550.05,23.83,TRADE
QLD1,"2007/12/22 20:30:00",6459.21,23.52,TRADE
QLD1,"2007/12/22 21:00:00",6392.36,22.39,TRADE
QLD1,"2007/12/22 21:30:00",6411.36,23.11,TRADE
QLD1,"2007/12/22 22:00:00",6183.42,20.25,TRADE
QLD1,"2007/12/22 22:30:00",6031.96,22.34,TRADE
QLD1,"2007/12/22 23:00:00",5953.82,21,TRADE
QLD1,"2007/12/22 23:30:00",5866.41,23.38,TRADE
QLD1,"2007/12/23 00:00:00",5643.88,20.47,TRADE
QLD1,"2007/12/23 00:30:00",5404.91,19.82,TRADE
QLD1,"2007/12/23 01:00:00",5264.69,19.81,TRADE
QLD1,"2007/12/23 01:30:00",5048.47,18.2,TRADE
QLD1,"2007/12/23 02:00:00",4930.72,17.11,TRADE
QLD1,"2007/12/23 02:30:00",4839.29,15.6,TRADE
QLD1,"2007/12/23 03:00:00",4788.56,15.55,TRADE
QLD1,"2007/12/23 03:30:00",4768.21,15.33,TRADE
QLD1,"2007/12/23 04:00:00",4752.38,15.43,TRADE
QLD1,"2007/12/23 04:30:00",4736.78,14.98,TRADE
QLD1,"2007/12/23 05:00:00",4760.86,15.85,TRADE
QLD1,"2007/12/23 05:30:00",4723.7,16.18,TRADE
QLD1,"2007/12/23 06:00:00",4723.34,16.35,TRADE
QLD1,"2007/12/23 06:30:00",4932.78,19.05,TRADE
QLD1,"2007/12/23 07:00:00",5115.28,18.58,TRADE
QLD1,"2007/12/23 07:30:00",5372.8,19.74,TRADE
QLD1,"2007/12/23 08:00:00",5608.67,19.95,TRADE
QLD1,"2007/12/23 08:30:00",5837.18,20.33,TRADE
QLD1,"2007/12/23 09:00:00",6027.25,23.75,TRADE
QLD1,"2007/12/23 09:30:00",6225.6,24.01,TRADE
QLD1,"2007/12/23 10:00:00",6332.53,22.62,TRADE
QLD1,"2007/12/23 10:30:00",6377.22,19.98,TRADE
QLD1,"2007/12/23 11:00:00",6430.67,19.83,TRADE
QLD1,"2007/12/23 11:30:00",6407.49,19.9,TRADE
QLD1,"2007/12/23 12:00:00",6397.67,19.88,TRADE
QLD1,"2007/12/23 12:30:00",6360.77,19.85,TRADE
QLD1,"2007/12/23 13:00:00",6346.32,19.82,TRADE
QLD1,"2007/12/23 13:30:00",6307.22,19.84,TRADE
QLD1,"2007/12/23 14:00:00",6273.93,19.78,TRADE
QLD1,"2007/12/23 14:30:00",6205.54,19.87,TRADE
QLD1,"2007/12/23 15:00:00",6126.73,19.4,TRADE
QLD1,"2007/12/23 15:30:00",6109.94,20.45,TRADE
QLD1,"2007/12/23 16:00:00",6116.23,22.25,TRADE
QLD1,"2007/12/23 16:30:00",6139.1,22.42,TRADE
QLD1,"2007/12/23 17:00:00",6158.77,22.39,TRADE
QLD1,"2007/12/23 17:30:00",6217.44,22.68,TRADE
QLD1,"2007/12/23 18:00:00",6262.91,23.31,TRADE
QLD1,"2007/12/23 18:30:00",6209.77,20.78,TRADE
QLD1,"2007/12/23 19:00:00",6182.37,20.08,TRADE
QLD1,"2007/12/23 19:30:00",6263.21,23.79,TRADE
QLD1,"2007/12/23 20:00:00",6208.99,23.18,TRADE
QLD1,"2007/12/23 20:30:00",6092.22,22.54,TRADE
QLD1,"2007/12/23 21:00:00",5995.93,20.21,TRADE
QLD1,"2007/12/23 21:30:00",6038.85,23.72,TRADE
QLD1,"2007/12/23 22:00:00",5840.46,21.64,TRADE
QLD1,"2007/12/23 22:30:00",5679.58,19.86,TRADE
QLD1,"2007/12/23 23:00:00",5572.98,19.54,TRADE
QLD1,"2007/12/23 23:30:00",5465.05,19.51,TRADE
QLD1,"2007/12/24 00:00:00",5319.96,19.81,TRADE
QLD1,"2007/12/24 00:30:00",5113.51,19.96,TRADE
QLD1,"2007/12/24 01:00:00",4934.75,19.55,TRADE
QLD1,"2007/12/24 01:30:00",4791.12,20.16,TRADE
QLD1,"2007/12/24 02:00:00",4677.68,18.11,TRADE
QLD1,"2007/12/24 02:30:00",4621.03,18.11,TRADE
QLD1,"2007/12/24 03:00:00",4593.47,16.04,TRADE
QLD1,"2007/12/24 03:30:00",4574.88,15.75,TRADE
QLD1,"2007/12/24 04:00:00",4551.06,15.68,TRADE
QLD1,"2007/12/24 04:30:00",4598.56,15.78,TRADE
QLD1,"2007/12/24 05:00:00",4639.18,15.98,TRADE
QLD1,"2007/12/24 05:30:00",4729.3,19.01,TRADE
QLD1,"2007/12/24 06:00:00",4854.05,18.09,TRADE
QLD1,"2007/12/24 06:30:00",5128.26,19.54,TRADE
QLD1,"2007/12/24 07:00:00",5367.2,20.78,TRADE
QLD1,"2007/12/24 07:30:00",5724.13,22.41,TRADE
QLD1,"2007/12/24 08:00:00",5997.63,23.14,TRADE
QLD1,"2007/12/24 08:30:00",6266.93,25.15,TRADE
QLD1,"2007/12/24 09:00:00",6413.76,24.42,TRADE
QLD1,"2007/12/24 09:30:00",6468.93,24.27,TRADE
QLD1,"2007/12/24 10:00:00",6482.56,24.26,TRADE
QLD1,"2007/12/24 10:30:00",6467.67,24.05,TRADE
QLD1,"2007/12/24 11:00:00",6492.49,20.78,TRADE
QLD1,"2007/12/24 11:30:00",6509.93,20.74,TRADE
QLD1,"2007/12/24 12:00:00",6507.39,21.05,TRADE
QLD1,"2007/12/24 12:30:00",6490.1,20.61,TRADE
QLD1,"2007/12/24 13:00:00",6480.45,20.5,TRADE
QLD1,"2007/12/24 13:30:00",6520.52,20.64,TRADE
QLD1,"2007/12/24 14:00:00",6501.84,20.77,TRADE
QLD1,"2007/12/24 14:30:00",6478.34,20.86,TRADE
QLD1,"2007/12/24 15:00:00",6455.63,20.5,TRADE
QLD1,"2007/12/24 15:30:00",6464.45,20.5,TRADE
QLD1,"2007/12/24 16:00:00",6428.22,20.73,TRADE
QLD1,"2007/12/24 16:30:00",6398.22,21.3,TRADE
QLD1,"2007/12/24 17:00:00",6360.81,21.05,TRADE
QLD1,"2007/12/24 17:30:00",6274.08,20.24,TRADE
QLD1,"2007/12/24 18:00:00",6180.84,19.82,TRADE
QLD1,"2007/12/24 18:30:00",5950.11,18.69,TRADE
QLD1,"2007/12/24 19:00:00",5914.86,19.37,TRADE
QLD1,"2007/12/24 19:30:00",5984.56,19.84,TRADE
QLD1,"2007/12/24 20:00:00",5940.27,19.79,TRADE
QLD1,"2007/12/24 20:30:00",5836.85,20.03,TRADE
QLD1,"2007/12/24 21:00:00",5791.23,20.32,TRADE
QLD1,"2007/12/24 21:30:00",5829.39,24.16,TRADE
QLD1,"2007/12/24 22:00:00",5696.84,24.42,TRADE
QLD1,"2007/12/24 22:30:00",5612.55,24.08,TRADE
QLD1,"2007/12/24 23:00:00",5502.15,22.71,TRADE
QLD1,"2007/12/24 23:30:00",5412.5,22.26,TRADE
QLD1,"2007/12/25 00:00:00",5195.12,20.44,TRADE
QLD1,"2007/12/25 00:30:00",4890.29,19.83,TRADE
QLD1,"2007/12/25 01:00:00",4691.11,19.46,TRADE
QLD1,"2007/12/25 01:30:00",4509.2,18.62,TRADE
QLD1,"2007/12/25 02:00:00",4362.15,14.94,TRADE
QLD1,"2007/12/25 02:30:00",4245.81,14.58,TRADE
QLD1,"2007/12/25 03:00:00",4222.28,14.9,TRADE
QLD1,"2007/12/25 03:30:00",4184.86,14.54,TRADE
QLD1,"2007/12/25 04:00:00",4167.01,14.95,TRADE
QLD1,"2007/12/25 04:30:00",4158.98,14.87,TRADE
QLD1,"2007/12/25 05:00:00",4177.74,15.16,TRADE
QLD1,"2007/12/25 05:30:00",4187.73,14.06,TRADE
QLD1,"2007/12/25 06:00:00",4234.76,16.5,TRADE
QLD1,"2007/12/25 06:30:00",4421.37,14.51,TRADE
QLD1,"2007/12/25 07:00:00",4624.39,17.51,TRADE
QLD1,"2007/12/25 07:30:00",4877.65,18.89,TRADE
QLD1,"2007/12/25 08:00:00",5054.99,19.26,TRADE
QLD1,"2007/12/25 08:30:00",5222.26,19.72,TRADE
QLD1,"2007/12/25 09:00:00",5309.04,19.85,TRADE
QLD1,"2007/12/25 09:30:00",5327.08,20.19,TRADE
QLD1,"2007/12/25 10:00:00",5364.62,19.94,TRADE
QLD1,"2007/12/25 10:30:00",5351.42,19.82,TRADE
QLD1,"2007/12/25 11:00:00",5344.54,20.08,TRADE
QLD1,"2007/12/25 11:30:00",5335.46,20.22,TRADE
QLD1,"2007/12/25 12:00:00",5322.67,19.95,TRADE
QLD1,"2007/12/25 12:30:00",5287.03,17.45,TRADE
QLD1,"2007/12/25 13:00:00",5232.34,16.49,TRADE
QLD1,"2007/12/25 13:30:00",5152.58,14.85,TRADE
QLD1,"2007/12/25 14:00:00",5101.48,15.07,TRADE
QLD1,"2007/12/25 14:30:00",5077.54,14.84,TRADE
QLD1,"2007/12/25 15:00:00",5086.19,14.85,TRADE
QLD1,"2007/12/25 15:30:00",5089.88,15.14,TRADE
QLD1,"2007/12/25 16:00:00",5079.02,15.12,TRADE
QLD1,"2007/12/25 16:30:00",5081.84,15.63,TRADE
QLD1,"2007/12/25 17:00:00",5104.22,15.64,TRADE
QLD1,"2007/12/25 17:30:00",5105.28,15.47,TRADE
QLD1,"2007/12/25 18:00:00",5100.23,15.48,TRADE
QLD1,"2007/12/25 18:30:00",4976.45,14.79,TRADE
QLD1,"2007/12/25 19:00:00",5042.31,15.61,TRADE
QLD1,"2007/12/25 19:30:00",5156.52,16.2,TRADE
QLD1,"2007/12/25 20:00:00",5162.06,19.09,TRADE
QLD1,"2007/12/25 20:30:00",5148.56,19.54,TRADE
QLD1,"2007/12/25 21:00:00",5126.84,18.85,TRADE
QLD1,"2007/12/25 21:30:00",5222.85,19.86,TRADE
QLD1,"2007/12/25 22:00:00",5113.41,19.86,TRADE
QLD1,"2007/12/25 22:30:00",5044.63,20.87,TRADE
QLD1,"2007/12/25 23:00:00",5009.14,20.52,TRADE
QLD1,"2007/12/25 23:30:00",4953.9,20.79,TRADE
QLD1,"2007/12/26 00:00:00",4810.41,19.98,TRADE
QLD1,"2007/12/26 00:30:00",4580.79,19.56,TRADE
QLD1,"2007/12/26 01:00:00",4432.01,18.94,TRADE
QLD1,"2007/12/26 01:30:00",4280.99,17.38,TRADE
QLD1,"2007/12/26 02:00:00",4172.09,11.95,TRADE
QLD1,"2007/12/26 02:30:00",4096.88,14.49,TRADE
QLD1,"2007/12/26 03:00:00",4071.57,14.8,TRADE
QLD1,"2007/12/26 03:30:00",4045.1,12.87,TRADE
QLD1,"2007/12/26 04:00:00",4039.11,14.28,TRADE
QLD1,"2007/12/26 04:30:00",4037.19,14.28,TRADE
QLD1,"2007/12/26 05:00:00",4045.76,14.29,TRADE
QLD1,"2007/12/26 05:30:00",4045.21,14.66,TRADE
QLD1,"2007/12/26 06:00:00",4103.54,15.42,TRADE
QLD1,"2007/12/26 06:30:00",4241.81,15.01,TRADE
QLD1,"2007/12/26 07:00:00",4442.37,14,TRADE
QLD1,"2007/12/26 07:30:00",4669.3,16.43,TRADE
QLD1,"2007/12/26 08:00:00",4891.96,18.47,TRADE
QLD1,"2007/12/26 08:30:00",5107.69,19.52,TRADE
QLD1,"2007/12/26 09:00:00",5234.11,19.77,TRADE
QLD1,"2007/12/26 09:30:00",5353.5,20.62,TRADE
QLD1,"2007/12/26 10:00:00",5405.33,22.94,TRADE
QLD1,"2007/12/26 10:30:00",5415.77,23.33,TRADE
QLD1,"2007/12/26 11:00:00",5378.15,23.41,TRADE
QLD1,"2007/12/26 11:30:00",5346.88,23.33,TRADE
QLD1,"2007/12/26 12:00:00",5264.92,22.81,TRADE
QLD1,"2007/12/26 12:30:00",5215.31,21.57,TRADE
QLD1,"2007/12/26 13:00:00",5178.5,21.9,TRADE
QLD1,"2007/12/26 13:30:00",5132.08,21.41,TRADE
QLD1,"2007/12/26 14:00:00",5105.55,21.48,TRADE
QLD1,"2007/12/26 14:30:00",5087.42,22.24,TRADE
QLD1,"2007/12/26 15:00:00",5080.65,22.21,TRADE
QLD1,"2007/12/26 15:30:00",5096.55,22.29,TRADE
QLD1,"2007/12/26 16:00:00",5083.91,22.21,TRADE
QLD1,"2007/12/26 16:30:00",5146.84,22.59,TRADE
QLD1,"2007/12/26 17:00:00",5194.8,22.73,TRADE
QLD1,"2007/12/26 17:30:00",5280.93,23.16,TRADE
QLD1,"2007/12/26 18:00:00",5348.05,23.43,TRADE
QLD1,"2007/12/26 18:30:00",5258.67,21.74,TRADE
QLD1,"2007/12/26 19:00:00",5312.07,21.51,TRADE
QLD1,"2007/12/26 19:30:00",5415.9,23.41,TRADE
QLD1,"2007/12/26 20:00:00",5405.47,23.26,TRADE
QLD1,"2007/12/26 20:30:00",5383.91,23.09,TRADE
QLD1,"2007/12/26 21:00:00",5363.27,23.06,TRADE
QLD1,"2007/12/26 21:30:00",5442.35,23.44,TRADE
QLD1,"2007/12/26 22:00:00",5308.61,21.2,TRADE
QLD1,"2007/12/26 22:30:00",5192.41,21.74,TRADE
QLD1,"2007/12/26 23:00:00",5127.49,21.3,TRADE
QLD1,"2007/12/26 23:30:00",5087.52,22.67,TRADE
QLD1,"2007/12/27 00:00:00",4941.3,20.58,TRADE
QLD1,"2007/12/27 00:30:00",4736.05,19.61,TRADE
QLD1,"2007/12/27 01:00:00",4556.58,19.2,TRADE
QLD1,"2007/12/27 01:30:00",4438.79,20.04,TRADE
QLD1,"2007/12/27 02:00:00",4373.29,19.22,TRADE
QLD1,"2007/12/27 02:30:00",4312.82,19.77,TRADE
QLD1,"2007/12/27 03:00:00",4269.85,19.85,TRADE
QLD1,"2007/12/27 03:30:00",4248.06,17.74,TRADE
QLD1,"2007/12/27 04:00:00",4281.56,17.86,TRADE
QLD1,"2007/12/27 04:30:00",4262.55,18.36,TRADE
QLD1,"2007/12/27 05:00:00",4317.2,18.82,TRADE
QLD1,"2007/12/27 05:30:00",4397.58,21.21,TRADE
QLD1,"2007/12/27 06:00:00",4520.08,20.47,TRADE
QLD1,"2007/12/27 06:30:00",4757.81,21.51,TRADE
QLD1,"2007/12/27 07:00:00",5030.32,22.04,TRADE
QLD1,"2007/12/27 07:30:00",5294.61,21.56,TRADE
QLD1,"2007/12/27 08:00:00",5546.56,23.05,TRADE
QLD1,"2007/12/27 08:30:00",5748.58,25.6,TRADE
QLD1,"2007/12/27 09:00:00",5860.89,26.78,TRADE
QLD1,"2007/12/27 09:30:00",5972.35,27.67,TRADE
QLD1,"2007/12/27 10:00:00",6031.42,27.92,TRADE
QLD1,"2007/12/27 10:30:00",6019.88,28.14,TRADE
QLD1,"2007/12/27 11:00:00",6022.39,28.51,TRADE
QLD1,"2007/12/27 11:30:00",6017.93,28.76,TRADE
QLD1,"2007/12/27 12:00:00",6005.43,27.39,TRADE
QLD1,"2007/12/27 12:30:00",5995.71,24.43,TRADE
QLD1,"2007/12/27 13:00:00",6022.9,24.06,TRADE
QLD1,"2007/12/27 13:30:00",6001.58,23.63,TRADE
QLD1,"2007/12/27 14:00:00",5965.06,22.42,TRADE
QLD1,"2007/12/27 14:30:00",6006.16,24.26,TRADE
QLD1,"2007/12/27 15:00:00",5963.19,22.34,TRADE
QLD1,"2007/12/27 15:30:00",5967.54,22.94,TRADE
QLD1,"2007/12/27 16:00:00",5930.57,23.72,TRADE
QLD1,"2007/12/27 16:30:00",5982.16,24.58,TRADE
QLD1,"2007/12/27 17:00:00",6057.71,25.42,TRADE
QLD1,"2007/12/27 17:30:00",6144.81,24.26,TRADE
QLD1,"2007/12/27 18:00:00",6189.15,23.33,TRADE
QLD1,"2007/12/27 18:30:00",6100.08,22.67,TRADE
QLD1,"2007/12/27 19:00:00",6167.64,22.57,TRADE
QLD1,"2007/12/27 19:30:00",6183.66,28.35,TRADE
QLD1,"2007/12/27 20:00:00",6107.75,28.13,TRADE
QLD1,"2007/12/27 20:30:00",6030.18,24.12,TRADE
QLD1,"2007/12/27 21:00:00",5935.88,22.05,TRADE
QLD1,"2007/12/27 21:30:00",5895.87,23.7,TRADE
QLD1,"2007/12/27 22:00:00",5655.98,21.41,TRADE
QLD1,"2007/12/27 22:30:00",5496.2,22.28,TRADE
QLD1,"2007/12/27 23:00:00",5436.46,21.91,TRADE
QLD1,"2007/12/27 23:30:00",5367.57,23.35,TRADE
QLD1,"2007/12/28 00:00:00",5153.24,21.24,TRADE
QLD1,"2007/12/28 00:30:00",4946.55,20.79,TRADE
QLD1,"2007/12/28 01:00:00",4788.77,20.45,TRADE
QLD1,"2007/12/28 01:30:00",4629.72,18.92,TRADE
QLD1,"2007/12/28 02:00:00",4476.55,17.14,TRADE
QLD1,"2007/12/28 02:30:00",4393.61,15.96,TRADE
QLD1,"2007/12/28 03:00:00",4365.95,13.57,TRADE
QLD1,"2007/12/28 03:30:00",4352.08,13.47,TRADE
QLD1,"2007/12/28 04:00:00",4329.01,14.99,TRADE
QLD1,"2007/12/28 04:30:00",4363.6,15.78,TRADE
QLD1,"2007/12/28 05:00:00",4383.44,15.77,TRADE
QLD1,"2007/12/28 05:30:00",4464.73,19.53,TRADE
QLD1,"2007/12/28 06:00:00",4576.15,19.04,TRADE
QLD1,"2007/12/28 06:30:00",4774.66,19.95,TRADE
QLD1,"2007/12/28 07:00:00",5012.49,19.7,TRADE
QLD1,"2007/12/28 07:30:00",5278.68,19.82,TRADE
QLD1,"2007/12/28 08:00:00",5476.14,20.05,TRADE
QLD1,"2007/12/28 08:30:00",5747.42,21.59,TRADE
QLD1,"2007/12/28 09:00:00",5903.65,23.42,TRADE
QLD1,"2007/12/28 09:30:00",6057.22,24.99,TRADE
QLD1,"2007/12/28 10:00:00",6076.85,24.17,TRADE
QLD1,"2007/12/28 10:30:00",6049.74,25.92,TRADE
QLD1,"2007/12/28 11:00:00",6002.68,27.01,TRADE
QLD1,"2007/12/28 11:30:00",6021.67,27.72,TRADE
QLD1,"2007/12/28 12:00:00",6014.75,33.2,TRADE
QLD1,"2007/12/28 12:30:00",6001.69,31.05,TRADE
QLD1,"2007/12/28 13:00:00",5981.83,28.4,TRADE
QLD1,"2007/12/28 13:30:00",5927.76,23.53,TRADE
QLD1,"2007/12/28 14:00:00",5931.89,23.28,TRADE
QLD1,"2007/12/28 14:30:00",5936.1,23.97,TRADE
QLD1,"2007/12/28 15:00:00",5944.46,24.67,TRADE
QLD1,"2007/12/28 15:30:00",5946.14,25.81,TRADE
QLD1,"2007/12/28 16:00:00",5969.13,26.1,TRADE
QLD1,"2007/12/28 16:30:00",5993.94,31.69,TRADE
QLD1,"2007/12/28 17:00:00",6037.6,42.47,TRADE
QLD1,"2007/12/28 17:30:00",6045.35,44.99,TRADE
QLD1,"2007/12/28 18:00:00",6023.63,39.08,TRADE
QLD1,"2007/12/28 18:30:00",5893.6,29.87,TRADE
QLD1,"2007/12/28 19:00:00",5854.27,27.79,TRADE
QLD1,"2007/12/28 19:30:00",5910.98,34.67,TRADE
QLD1,"2007/12/28 20:00:00",5880.12,32.85,TRADE
QLD1,"2007/12/28 20:30:00",5770.65,26.19,TRADE
QLD1,"2007/12/28 21:00:00",5703.18,25.7,TRADE
QLD1,"2007/12/28 21:30:00",5733.47,28.97,TRADE
QLD1,"2007/12/28 22:00:00",5550.26,26.28,TRADE
QLD1,"2007/12/28 22:30:00",5422.51,26.58,TRADE
QLD1,"2007/12/28 23:00:00",5337.82,23.78,TRADE
QLD1,"2007/12/28 23:30:00",5279.75,24.73,TRADE
QLD1,"2007/12/29 00:00:00",5148.38,22.74,TRADE
QLD1,"2007/12/29 00:30:00",4915.7,21.44,TRADE
QLD1,"2007/12/29 01:00:00",4759.64,20.97,TRADE
QLD1,"2007/12/29 01:30:00",4617.44,21.76,TRADE
QLD1,"2007/12/29 02:00:00",4500.57,20.09,TRADE
QLD1,"2007/12/29 02:30:00",4369.15,17.85,TRADE
QLD1,"2007/12/29 03:00:00",4305.9,16.97,TRADE
QLD1,"2007/12/29 03:30:00",4322.53,17.69,TRADE
QLD1,"2007/12/29 04:00:00",4307.55,16.79,TRADE
QLD1,"2007/12/29 04:30:00",4319.64,17.76,TRADE
QLD1,"2007/12/29 05:00:00",4326.67,15.52,TRADE
QLD1,"2007/12/29 05:30:00",4318.84,6.5,TRADE
QLD1,"2007/12/29 06:00:00",4390.55,15.43,TRADE
QLD1,"2007/12/29 06:30:00",4523.54,15.36,TRADE
QLD1,"2007/12/29 07:00:00",4699.17,14.66,TRADE
QLD1,"2007/12/29 07:30:00",4948.58,16.59,TRADE
QLD1,"2007/12/29 08:00:00",5208.73,21.43,TRADE
QLD1,"2007/12/29 08:30:00",5479.66,24.67,TRADE
QLD1,"2007/12/29 09:00:00",5641.86,30.02,TRADE
QLD1,"2007/12/29 09:30:00",5768.59,35.79,TRADE
QLD1,"2007/12/29 10:00:00",5848.4,39.41,TRADE
QLD1,"2007/12/29 10:30:00",5865.55,39.7,TRADE
QLD1,"2007/12/29 11:00:00",5846.56,63.95,TRADE
QLD1,"2007/12/29 11:30:00",5884.34,76.19,TRADE
QLD1,"2007/12/29 12:00:00",5903.72,78.85,TRADE
QLD1,"2007/12/29 12:30:00",5834.32,57,TRADE
QLD1,"2007/12/29 13:00:00",5790.73,55.74,TRADE
QLD1,"2007/12/29 13:30:00",5819.23,59.06,TRADE
QLD1,"2007/12/29 14:00:00",5804.66,61.54,TRADE
QLD1,"2007/12/29 14:30:00",5834.85,69.94,TRADE
QLD1,"2007/12/29 15:00:00",5812.87,64.36,TRADE
QLD1,"2007/12/29 15:30:00",5835.62,95.92,TRADE
QLD1,"2007/12/29 16:00:00",5834.14,83.89,TRADE
QLD1,"2007/12/29 16:30:00",5877.51,75.13,TRADE
QLD1,"2007/12/29 17:00:00",5887.24,70.41,TRADE
QLD1,"2007/12/29 17:30:00",5915.16,57.41,TRADE
QLD1,"2007/12/29 18:00:00",5899,85.08,TRADE
QLD1,"2007/12/29 18:30:00",5747.53,55.37,TRADE
QLD1,"2007/12/29 19:00:00",5792.01,38.67,TRADE
QLD1,"2007/12/29 19:30:00",5822.29,38.06,TRADE
QLD1,"2007/12/29 20:00:00",5852.92,45.62,TRADE
QLD1,"2007/12/29 20:30:00",5767.02,35.03,TRADE
QLD1,"2007/12/29 21:00:00",5710.21,36.16,TRADE
QLD1,"2007/12/29 21:30:00",5735.21,46.19,TRADE
QLD1,"2007/12/29 22:00:00",5516.72,27.23,TRADE
QLD1,"2007/12/29 22:30:00",5411.4,26.79,TRADE
QLD1,"2007/12/29 23:00:00",5382.37,25.59,TRADE
QLD1,"2007/12/29 23:30:00",5328.57,26.42,TRADE
QLD1,"2007/12/30 00:00:00",5198.82,23.16,TRADE
QLD1,"2007/12/30 00:30:00",4984.49,22.4,TRADE
QLD1,"2007/12/30 01:00:00",4806.98,21.67,TRADE
QLD1,"2007/12/30 01:30:00",4659.71,22.43,TRADE
QLD1,"2007/12/30 02:00:00",4512.57,18.8,TRADE
QLD1,"2007/12/30 02:30:00",4417.84,18.43,TRADE
QLD1,"2007/12/30 03:00:00",4365.93,17.26,TRADE
QLD1,"2007/12/30 03:30:00",4345.33,17.11,TRADE
QLD1,"2007/12/30 04:00:00",4392.08,16.3,TRADE
QLD1,"2007/12/30 04:30:00",4352.5,13.42,TRADE
QLD1,"2007/12/30 05:00:00",4358.45,13.59,TRADE
QLD1,"2007/12/30 05:30:00",4331.83,13.45,TRADE
QLD1,"2007/12/30 06:00:00",4397.42,13.51,TRADE
QLD1,"2007/12/30 06:30:00",4496.29,14.39,TRADE
QLD1,"2007/12/30 07:00:00",4654.04,14.67,TRADE
QLD1,"2007/12/30 07:30:00",4847.89,16.45,TRADE
QLD1,"2007/12/30 08:00:00",5059.17,18.44,TRADE
QLD1,"2007/12/30 08:30:00",5297.23,21.01,TRADE
QLD1,"2007/12/30 09:00:00",5472.02,22.26,TRADE
QLD1,"2007/12/30 09:30:00",5585.67,23.1,TRADE
QLD1,"2007/12/30 10:00:00",5659.35,23.99,TRADE
QLD1,"2007/12/30 10:30:00",5714.72,23.79,TRADE
QLD1,"2007/12/30 11:00:00",5743.18,24.44,TRADE
QLD1,"2007/12/30 11:30:00",5778.17,25.25,TRADE
QLD1,"2007/12/30 12:00:00",5769.6,25.26,TRADE
QLD1,"2007/12/30 12:30:00",5734.24,24.78,TRADE
QLD1,"2007/12/30 13:00:00",5702.96,24.26,TRADE
QLD1,"2007/12/30 13:30:00",5671.19,24.93,TRADE
QLD1,"2007/12/30 14:00:00",5666.01,27.65,TRADE
QLD1,"2007/12/30 14:30:00",5674.13,25.95,TRADE
QLD1,"2007/12/30 15:00:00",5694.73,28.97,TRADE
QLD1,"2007/12/30 15:30:00",5712.21,28.99,TRADE
QLD1,"2007/12/30 16:00:00",5739.48,29.19,TRADE
QLD1,"2007/12/30 16:30:00",5736.86,28.98,TRADE
QLD1,"2007/12/30 17:00:00",5752.81,29.47,TRADE
QLD1,"2007/12/30 17:30:00",5824.7,29.5,TRADE
QLD1,"2007/12/30 18:00:00",5928,29.1,TRADE
QLD1,"2007/12/30 18:30:00",5888.1,25.81,TRADE
QLD1,"2007/12/30 19:00:00",5951.35,24.75,TRADE
QLD1,"2007/12/30 19:30:00",6019.89,24.75,TRADE
QLD1,"2007/12/30 20:00:00",6003.14,25.85,TRADE
QLD1,"2007/12/30 20:30:00",5877.44,24.3,TRADE
QLD1,"2007/12/30 21:00:00",5819.11,23.18,TRADE
QLD1,"2007/12/30 21:30:00",5813.6,23.91,TRADE
QLD1,"2007/12/30 22:00:00",5613.55,21.77,TRADE
QLD1,"2007/12/30 22:30:00",5458.15,22.47,TRADE
QLD1,"2007/12/30 23:00:00",5409.79,21.39,TRADE
QLD1,"2007/12/30 23:30:00",5373.91,22.29,TRADE
QLD1,"2007/12/31 00:00:00",5221.45,20.08,TRADE
QLD1,"2007/12/31 00:30:00",4993.56,19.56,TRADE
QLD1,"2007/12/31 01:00:00",4850.05,18.81,TRADE
QLD1,"2007/12/31 01:30:00",4683.59,18.77,TRADE
QLD1,"2007/12/31 02:00:00",4564.29,18.08,TRADE
QLD1,"2007/12/31 02:30:00",4482.32,16.17,TRADE
QLD1,"2007/12/31 03:00:00",4433.56,14.07,TRADE
QLD1,"2007/12/31 03:30:00",4456.79,13.43,TRADE
QLD1,"2007/12/31 04:00:00",4441.72,13.21,TRADE
QLD1,"2007/12/31 04:30:00",4482.71,15.51,TRADE
QLD1,"2007/12/31 05:00:00",4515.35,15.43,TRADE
QLD1,"2007/12/31 05:30:00",4523.05,15.39,TRADE
QLD1,"2007/12/31 06:00:00",4661.2,15.25,TRADE
QLD1,"2007/12/31 06:30:00",4899.37,16.22,TRADE
QLD1,"2007/12/31 07:00:00",5164.58,16.16,TRADE
QLD1,"2007/12/31 07:30:00",5393.69,18,TRADE
QLD1,"2007/12/31 08:00:00",5698.96,24.04,TRADE
QLD1,"2007/12/31 08:30:00",5965.2,28.39,TRADE
QLD1,"2007/12/31 09:00:00",6130.29,24.92,TRADE
QLD1,"2007/12/31 09:30:00",6257.08,27.4,TRADE
QLD1,"2007/12/31 10:00:00",6351.67,31.03,TRADE
QLD1,"2007/12/31 10:30:00",6331.2,31.41,TRADE
QLD1,"2007/12/31 11:00:00",6365.06,32.23,TRADE
QLD1,"2007/12/31 11:30:00",6359.29,31.81,TRADE
QLD1,"2007/12/31 12:00:00",6339.15,36.07,TRADE
QLD1,"2007/12/31 12:30:00",6325.16,36.65,TRADE
QLD1,"2007/12/31 13:00:00",6319.41,25.03,TRADE
QLD1,"2007/12/31 13:30:00",6278.55,23.53,TRADE
QLD1,"2007/12/31 14:00:00",6252.76,36.64,TRADE
QLD1,"2007/12/31 14:30:00",6244.79,33.39,TRADE
QLD1,"2007/12/31 15:00:00",6284.59,41.24,TRADE
QLD1,"2007/12/31 15:30:00",6285.51,46.91,TRADE
QLD1,"2007/12/31 16:00:00",6295.98,49.96,TRADE
QLD1,"2007/12/31 16:30:00",6349.58,50.98,TRADE
QLD1,"2007/12/31 17:00:00",6420.81,50.71,TRADE
QLD1,"2007/12/31 17:30:00",6410.25,29.2,TRADE
QLD1,"2007/12/31 18:00:00",6347.71,25.37,TRADE
QLD1,"2007/12/31 18:30:00",6087.27,21.73,TRADE
QLD1,"2007/12/31 19:00:00",6020.32,22.38,TRADE
QLD1,"2007/12/31 19:30:00",6018.02,23.4,TRADE
QLD1,"2007/12/31 20:00:00",5947.71,21.97,TRADE
QLD1,"2007/12/31 20:30:00",5817.07,21.44,TRADE
QLD1,"2007/12/31 21:00:00",5730.54,21.32,TRADE
QLD1,"2007/12/31 21:30:00",5803,23.24,TRADE
QLD1,"2007/12/31 22:00:00",5633.08,21.76,TRADE
QLD1,"2007/12/31 22:30:00",5538.12,24.31,TRADE
QLD1,"2007/12/31 23:00:00",5521.45,23.66,TRADE
QLD1,"2007/12/31 23:30:00",5523.72,22.89,TRADE
QLD1,"2008/01/01 00:00:00",5413.11,22.53,TRADE
