REGION,SETTLEMENTDATE,TOTALDEMAND,RRP,PERIODTYPE
SNOWY1,"2005/01/01 00:30:00",16.07,22.39,TRADE
SNOWY1,"2005/01/01 01:00:00",21.225,20.3,TRADE
SNOWY1,"2005/01/01 01:30:00",23.98833,18.32,TRADE
SNOWY1,"2005/01/01 02:00:00",62.94,17.51,TRADE
SNOWY1,"2005/01/01 02:30:00",94.53,17.1,TRADE
SNOWY1,"2005/01/01 03:00:00",93.42833,17.12,TRADE
SNOWY1,"2005/01/01 03:30:00",92.40667,15.53,TRADE
SNOWY1,"2005/01/01 04:00:00",89.04333,14.97,TRADE
SNOWY1,"2005/01/01 04:30:00",86.72,13.37,TRADE
SNOWY1,"2005/01/01 05:00:00",89.52333,12.86,TRADE
SNOWY1,"2005/01/01 05:30:00",87.035,12.28,TRADE
SNOWY1,"2005/01/01 06:00:00",95.53667,13,TRADE
SNOWY1,"2005/01/01 06:30:00",91,13.67,TRADE
SNOWY1,"2005/01/01 07:00:00",86.375,13.6,TRADE
SNOWY1,"2005/01/01 07:30:00",86.96167,13.78,TRADE
SNOWY1,"2005/01/01 08:00:00",89.31333,14.82,TRADE
SNOWY1,"2005/01/01 08:30:00",87.765,16.3,TRADE
SNOWY1,"2005/01/01 09:00:00",69.23333,17.75,TRADE
SNOWY1,"2005/01/01 09:30:00",20.23167,19.59,TRADE
SNOWY1,"2005/01/01 10:00:00",15.59,20.23,TRADE
SNOWY1,"2005/01/01 10:30:00",17.165,19.82,TRADE
SNOWY1,"2005/01/01 11:00:00",19.225,18.26,TRADE
SNOWY1,"2005/01/01 11:30:00",21.21,20.06,TRADE
SNOWY1,"2005/01/01 12:00:00",14.64833,20.45,TRADE
SNOWY1,"2005/01/01 12:30:00",21.93833,20.37,TRADE
SNOWY1,"2005/01/01 13:00:00",16.42333,20.52,TRADE
SNOWY1,"2005/01/01 13:30:00",21.67833,20.48,TRADE
SNOWY1,"2005/01/01 14:00:00",21.14833,20.83,TRADE
SNOWY1,"2005/01/01 14:30:00",17.865,20.8,TRADE
SNOWY1,"2005/01/01 15:00:00",25.09333,21.22,TRADE
SNOWY1,"2005/01/01 15:30:00",21.02,21.23,TRADE
SNOWY1,"2005/01/01 16:00:00",14.66833,21.19,TRADE
SNOWY1,"2005/01/01 16:30:00",16.97667,21.08,TRADE
SNOWY1,"2005/01/01 17:00:00",11.72333,21.25,TRADE
SNOWY1,"2005/01/01 17:30:00",15.505,21.25,TRADE
SNOWY1,"2005/01/01 18:00:00",21.04667,21.26,TRADE
SNOWY1,"2005/01/01 18:30:00",12.94167,20.78,TRADE
SNOWY1,"2005/01/01 19:00:00",15.175,19.45,TRADE
SNOWY1,"2005/01/01 19:30:00",16.05167,20.73,TRADE
SNOWY1,"2005/01/01 20:00:00",15.585,22.62,TRADE
SNOWY1,"2005/01/01 20:30:00",13.62,22.22,TRADE
SNOWY1,"2005/01/01 21:00:00",16.385,21.03,TRADE
SNOWY1,"2005/01/01 21:30:00",19.43667,21.2,TRADE
SNOWY1,"2005/01/01 22:00:00",18.06167,18.14,TRADE
SNOWY1,"2005/01/01 22:30:00",16.59333,21.48,TRADE
SNOWY1,"2005/01/01 23:00:00",13.84667,19.45,TRADE
SNOWY1,"2005/01/01 23:30:00",13.99667,19.23,TRADE
SNOWY1,"2005/01/02 00:00:00",20.28,19.92,TRADE
SNOWY1,"2005/01/02 00:30:00",25.55833,18.5,TRADE
SNOWY1,"2005/01/02 01:00:00",19.51,18.08,TRADE
SNOWY1,"2005/01/02 01:30:00",19.88833,18.91,TRADE
SNOWY1,"2005/01/02 02:00:00",72.77667,15.43,TRADE
SNOWY1,"2005/01/02 02:30:00",87.825,14.54,TRADE
SNOWY1,"2005/01/02 03:00:00",93.07833,14.34,TRADE
SNOWY1,"2005/01/02 03:30:00",84.96667,12.98,TRADE
SNOWY1,"2005/01/02 04:00:00",86.30167,12.42,TRADE
SNOWY1,"2005/01/02 04:30:00",89.88167,12.2,TRADE
SNOWY1,"2005/01/02 05:00:00",91.78,10.57,TRADE
SNOWY1,"2005/01/02 05:30:00",86.20167,11.59,TRADE
SNOWY1,"2005/01/02 06:00:00",88.61667,12.36,TRADE
SNOWY1,"2005/01/02 06:30:00",87.04167,14.58,TRADE
SNOWY1,"2005/01/02 07:00:00",82.3,15.67,TRADE
SNOWY1,"2005/01/02 07:30:00",32.425,15.11,TRADE
SNOWY1,"2005/01/02 08:00:00",24.31167,17.27,TRADE
SNOWY1,"2005/01/02 08:30:00",18.34667,19.53,TRADE
SNOWY1,"2005/01/02 09:00:00",20.58167,19.99,TRADE
SNOWY1,"2005/01/02 09:30:00",28.71667,19.26,TRADE
SNOWY1,"2005/01/02 10:00:00",27.38167,19.73,TRADE
SNOWY1,"2005/01/02 10:30:00",24.74333,19.33,TRADE
SNOWY1,"2005/01/02 11:00:00",20.875,19.64,TRADE
SNOWY1,"2005/01/02 11:30:00",22.61833,20.43,TRADE
SNOWY1,"2005/01/02 12:00:00",26.475,20.32,TRADE
SNOWY1,"2005/01/02 12:30:00",22.52667,20.51,TRADE
SNOWY1,"2005/01/02 13:00:00",18.82167,20.89,TRADE
SNOWY1,"2005/01/02 13:30:00",18.19333,20.68,TRADE
SNOWY1,"2005/01/02 14:00:00",16.96167,20.83,TRADE
SNOWY1,"2005/01/02 14:30:00",22.75667,21.24,TRADE
SNOWY1,"2005/01/02 15:00:00",25.83333,21.49,TRADE
SNOWY1,"2005/01/02 15:30:00",22.95333,21.5,TRADE
SNOWY1,"2005/01/02 16:00:00",26.365,21.54,TRADE
SNOWY1,"2005/01/02 16:30:00",17.505,21.44,TRADE
SNOWY1,"2005/01/02 17:00:00",23.26333,21.62,TRADE
SNOWY1,"2005/01/02 17:30:00",17.075,21.65,TRADE
SNOWY1,"2005/01/02 18:00:00",24.50333,21.58,TRADE
SNOWY1,"2005/01/02 18:30:00",21.15333,20.83,TRADE
SNOWY1,"2005/01/02 19:00:00",15.36833,20.69,TRADE
SNOWY1,"2005/01/02 19:30:00",24.47167,21.42,TRADE
SNOWY1,"2005/01/02 20:00:00",23.48833,21.65,TRADE
SNOWY1,"2005/01/02 20:30:00",19.135,21.55,TRADE
SNOWY1,"2005/01/02 21:00:00",22.07,21.03,TRADE
SNOWY1,"2005/01/02 21:30:00",30.495,21.43,TRADE
SNOWY1,"2005/01/02 22:00:00",28.93667,20.64,TRADE
SNOWY1,"2005/01/02 22:30:00",21.71833,21.38,TRADE
SNOWY1,"2005/01/02 23:00:00",20.30167,19.77,TRADE
SNOWY1,"2005/01/02 23:30:00",23.63,20.58,TRADE
SNOWY1,"2005/01/03 00:00:00",20.04833,20.03,TRADE
SNOWY1,"2005/01/03 00:30:00",18.75167,17.6,TRADE
SNOWY1,"2005/01/03 01:00:00",23.33167,16.97,TRADE
SNOWY1,"2005/01/03 01:30:00",22.45333,17.58,TRADE
SNOWY1,"2005/01/03 02:00:00",56.93167,15.79,TRADE
SNOWY1,"2005/01/03 02:30:00",98.55333,14.62,TRADE
SNOWY1,"2005/01/03 03:00:00",100.72,13.53,TRADE
SNOWY1,"2005/01/03 03:30:00",88.97667,13.76,TRADE
SNOWY1,"2005/01/03 04:00:00",96.53333,13.66,TRADE
SNOWY1,"2005/01/03 04:30:00",88.46667,13.04,TRADE
SNOWY1,"2005/01/03 05:00:00",84.605,12.64,TRADE
SNOWY1,"2005/01/03 05:30:00",90.05667,13.76,TRADE
SNOWY1,"2005/01/03 06:00:00",97.70833,14.72,TRADE
SNOWY1,"2005/01/03 06:30:00",75.60333,17.17,TRADE
SNOWY1,"2005/01/03 07:00:00",43.23,18.87,TRADE
SNOWY1,"2005/01/03 07:30:00",23.7,16.53,TRADE
SNOWY1,"2005/01/03 08:00:00",29.34167,19.31,TRADE
SNOWY1,"2005/01/03 08:30:00",21.03667,21.58,TRADE
SNOWY1,"2005/01/03 09:00:00",22.68333,21.69,TRADE
SNOWY1,"2005/01/03 09:30:00",24.77667,21.62,TRADE
SNOWY1,"2005/01/03 10:00:00",23.91667,21.75,TRADE
SNOWY1,"2005/01/03 10:30:00",28.625,21.55,TRADE
SNOWY1,"2005/01/03 11:00:00",31.425,21.99,TRADE
SNOWY1,"2005/01/03 11:30:00",24.44667,22.99,TRADE
SNOWY1,"2005/01/03 12:00:00",24.2,23.49,TRADE
SNOWY1,"2005/01/03 12:30:00",20.88833,23.18,TRADE
SNOWY1,"2005/01/03 13:00:00",20.49,23.44,TRADE
SNOWY1,"2005/01/03 13:30:00",21.05667,23.62,TRADE
SNOWY1,"2005/01/03 14:00:00",29.13833,24.84,TRADE
SNOWY1,"2005/01/03 14:30:00",22.61833,24.74,TRADE
SNOWY1,"2005/01/03 15:00:00",25.46,26.19,TRADE
SNOWY1,"2005/01/03 15:30:00",22.36833,26.61,TRADE
SNOWY1,"2005/01/03 16:00:00",23.50667,26.64,TRADE
SNOWY1,"2005/01/03 16:30:00",21.825,26.73,TRADE
SNOWY1,"2005/01/03 17:00:00",27.17167,26.72,TRADE
SNOWY1,"2005/01/03 17:30:00",21.37167,26.51,TRADE
SNOWY1,"2005/01/03 18:00:00",26.595,24.95,TRADE
SNOWY1,"2005/01/03 18:30:00",28.68333,22.16,TRADE
SNOWY1,"2005/01/03 19:00:00",16.9,21.35,TRADE
SNOWY1,"2005/01/03 19:30:00",24.535,22.8,TRADE
SNOWY1,"2005/01/03 20:00:00",27.12,23.6,TRADE
SNOWY1,"2005/01/03 20:30:00",24.01667,22.93,TRADE
SNOWY1,"2005/01/03 21:00:00",28.905,20.79,TRADE
SNOWY1,"2005/01/03 21:30:00",31.77167,22.79,TRADE
SNOWY1,"2005/01/03 22:00:00",30.78,21.31,TRADE
SNOWY1,"2005/01/03 22:30:00",30.035,23.45,TRADE
SNOWY1,"2005/01/03 23:00:00",10.51,22.53,TRADE
SNOWY1,"2005/01/03 23:30:00",11.92167,23.97,TRADE
SNOWY1,"2005/01/04 00:00:00",10.55333,23.05,TRADE
SNOWY1,"2005/01/04 00:30:00",17.02833,20.33,TRADE
SNOWY1,"2005/01/04 01:00:00",12.77,18.91,TRADE
SNOWY1,"2005/01/04 01:30:00",21.46833,19.72,TRADE
SNOWY1,"2005/01/04 02:00:00",27.54167,17.33,TRADE
SNOWY1,"2005/01/04 02:30:00",80.45667,17.05,TRADE
SNOWY1,"2005/01/04 03:00:00",91.87167,16.89,TRADE
SNOWY1,"2005/01/04 03:30:00",76.335,15.62,TRADE
SNOWY1,"2005/01/04 04:00:00",54.99167,17.77,TRADE
SNOWY1,"2005/01/04 04:30:00",24.455,18.65,TRADE
SNOWY1,"2005/01/04 05:00:00",12.645,19.04,TRADE
SNOWY1,"2005/01/04 05:30:00",11.70333,20.14,TRADE
SNOWY1,"2005/01/04 06:00:00",10.86333,20.49,TRADE
SNOWY1,"2005/01/04 06:30:00",11.12167,19.7,TRADE
SNOWY1,"2005/01/04 07:00:00",11.13,21.34,TRADE
SNOWY1,"2005/01/04 07:30:00",19.96,18.08,TRADE
SNOWY1,"2005/01/04 08:00:00",18.065,20.02,TRADE
SNOWY1,"2005/01/04 08:30:00",11.65333,22.61,TRADE
SNOWY1,"2005/01/04 09:00:00",19.97,25.47,TRADE
SNOWY1,"2005/01/04 09:30:00",20.05833,25.89,TRADE
SNOWY1,"2005/01/04 10:00:00",18.8,24,TRADE
SNOWY1,"2005/01/04 10:30:00",20.075,24.56,TRADE
SNOWY1,"2005/01/04 11:00:00",19.91167,25.47,TRADE
SNOWY1,"2005/01/04 11:30:00",17.79333,25.87,TRADE
SNOWY1,"2005/01/04 12:00:00",17.60167,26.52,TRADE
SNOWY1,"2005/01/04 12:30:00",22.48,28.21,TRADE
SNOWY1,"2005/01/04 13:00:00",11.00833,26.23,TRADE
SNOWY1,"2005/01/04 13:30:00",13.77167,26.7,TRADE
SNOWY1,"2005/01/04 14:00:00",15.71333,26.4,TRADE
SNOWY1,"2005/01/04 14:30:00",16,26.21,TRADE
SNOWY1,"2005/01/04 15:00:00",6.56667,29.45,TRADE
SNOWY1,"2005/01/04 15:30:00",20.99,29.53,TRADE
SNOWY1,"2005/01/04 16:00:00",24.79833,30.08,TRADE
SNOWY1,"2005/01/04 16:30:00",16.22833,30.03,TRADE
SNOWY1,"2005/01/04 17:00:00",16.48167,29.31,TRADE
SNOWY1,"2005/01/04 17:30:00",8.765,23.21,TRADE
SNOWY1,"2005/01/04 18:00:00",11.895,22.47,TRADE
SNOWY1,"2005/01/04 18:30:00",15.11167,21.21,TRADE
SNOWY1,"2005/01/04 19:00:00",14.89333,20.75,TRADE
SNOWY1,"2005/01/04 19:30:00",23.64,20.94,TRADE
SNOWY1,"2005/01/04 20:00:00",20.19167,20.68,TRADE
SNOWY1,"2005/01/04 20:30:00",19.40167,20.67,TRADE
SNOWY1,"2005/01/04 21:00:00",18.79167,18.73,TRADE
SNOWY1,"2005/01/04 21:30:00",15.74,18.83,TRADE
SNOWY1,"2005/01/04 22:00:00",23.78833,18.28,TRADE
SNOWY1,"2005/01/04 22:30:00",8.97333,26.44,TRADE
SNOWY1,"2005/01/04 23:00:00",11.565,23.55,TRADE
SNOWY1,"2005/01/04 23:30:00",17.59333,24.83,TRADE
SNOWY1,"2005/01/05 00:00:00",13.98,22.32,TRADE
SNOWY1,"2005/01/05 00:30:00",11.35167,20.84,TRADE
SNOWY1,"2005/01/05 01:00:00",10.78,19.63,TRADE
SNOWY1,"2005/01/05 01:30:00",67.96167,19.47,TRADE
SNOWY1,"2005/01/05 02:00:00",84.82167,18.42,TRADE
SNOWY1,"2005/01/05 02:30:00",79.23667,17.24,TRADE
SNOWY1,"2005/01/05 03:00:00",80.96333,17.98,TRADE
SNOWY1,"2005/01/05 03:30:00",81.215,17.51,TRADE
SNOWY1,"2005/01/05 04:00:00",81.86,17.71,TRADE
SNOWY1,"2005/01/05 04:30:00",78.87167,14.82,TRADE
SNOWY1,"2005/01/05 05:00:00",82.83,17.22,TRADE
SNOWY1,"2005/01/05 05:30:00",43.56833,20.41,TRADE
SNOWY1,"2005/01/05 06:00:00",20.47833,20.11,TRADE
SNOWY1,"2005/01/05 06:30:00",18.545,20.67,TRADE
SNOWY1,"2005/01/05 07:00:00",19.61333,22.58,TRADE
SNOWY1,"2005/01/05 07:30:00",26.17833,18.38,TRADE
SNOWY1,"2005/01/05 08:00:00",27.89333,20.46,TRADE
SNOWY1,"2005/01/05 08:30:00",23.37167,23.78,TRADE
SNOWY1,"2005/01/05 09:00:00",22.885,25.5,TRADE
SNOWY1,"2005/01/05 09:30:00",17.15667,27.62,TRADE
SNOWY1,"2005/01/05 10:00:00",19.555,26.88,TRADE
SNOWY1,"2005/01/05 10:30:00",21.48167,26.85,TRADE
SNOWY1,"2005/01/05 11:00:00",20.88333,28.23,TRADE
SNOWY1,"2005/01/05 11:30:00",33.725,29.78,TRADE
SNOWY1,"2005/01/05 12:00:00",17.45333,29.84,TRADE
SNOWY1,"2005/01/05 12:30:00",19.78333,29.79,TRADE
SNOWY1,"2005/01/05 13:00:00",21.47667,30.62,TRADE
SNOWY1,"2005/01/05 13:30:00",22.33,34.55,TRADE
SNOWY1,"2005/01/05 14:00:00",19.34667,35,TRADE
SNOWY1,"2005/01/05 14:30:00",15.33167,36.26,TRADE
SNOWY1,"2005/01/05 15:00:00",14.58833,35,TRADE
SNOWY1,"2005/01/05 15:30:00",25.50167,38.63,TRADE
SNOWY1,"2005/01/05 16:00:00",19.56667,35.31,TRADE
SNOWY1,"2005/01/05 16:30:00",18.515,39.58,TRADE
SNOWY1,"2005/01/05 17:00:00",12.76833,33.84,TRADE
SNOWY1,"2005/01/05 17:30:00",12.07333,27.61,TRADE
SNOWY1,"2005/01/05 18:00:00",13.07333,28.33,TRADE
SNOWY1,"2005/01/05 18:30:00",16.12667,25.82,TRADE
SNOWY1,"2005/01/05 19:00:00",11.7,23.47,TRADE
SNOWY1,"2005/01/05 19:30:00",15.13167,22.79,TRADE
SNOWY1,"2005/01/05 20:00:00",15.09167,25.41,TRADE
SNOWY1,"2005/01/05 20:30:00",13.01667,23.92,TRADE
SNOWY1,"2005/01/05 21:00:00",11.65,21.27,TRADE
SNOWY1,"2005/01/05 21:30:00",10.06667,21.43,TRADE
SNOWY1,"2005/01/05 22:00:00",17.97,19.91,TRADE
SNOWY1,"2005/01/05 22:30:00",7.595,24.5,TRADE
SNOWY1,"2005/01/05 23:00:00",19.07167,23.38,TRADE
SNOWY1,"2005/01/05 23:30:00",11.5,25.73,TRADE
SNOWY1,"2005/01/06 00:00:00",15.52167,23.23,TRADE
SNOWY1,"2005/01/06 00:30:00",14.54667,21.23,TRADE
SNOWY1,"2005/01/06 01:00:00",9.76,21.19,TRADE
SNOWY1,"2005/01/06 01:30:00",12.92667,21.88,TRADE
SNOWY1,"2005/01/06 02:00:00",17.32333,19.25,TRADE
SNOWY1,"2005/01/06 02:30:00",10.24333,19.25,TRADE
SNOWY1,"2005/01/06 03:00:00",8.78667,18.76,TRADE
SNOWY1,"2005/01/06 03:30:00",7.815,18.73,TRADE
SNOWY1,"2005/01/06 04:00:00",7.09833,18.58,TRADE
SNOWY1,"2005/01/06 04:30:00",3.95833,18.81,TRADE
SNOWY1,"2005/01/06 05:00:00",9.09167,18.89,TRADE
SNOWY1,"2005/01/06 05:30:00",5.515,21.01,TRADE
SNOWY1,"2005/01/06 06:00:00",10.40667,21.59,TRADE
SNOWY1,"2005/01/06 06:30:00",13.87667,24.13,TRADE
SNOWY1,"2005/01/06 07:00:00",18.07,26.73,TRADE
SNOWY1,"2005/01/06 07:30:00",23.9,20.1,TRADE
SNOWY1,"2005/01/06 08:00:00",16.55333,22.81,TRADE
SNOWY1,"2005/01/06 08:30:00",19.39167,26.48,TRADE
SNOWY1,"2005/01/06 09:00:00",16.32833,27.37,TRADE
SNOWY1,"2005/01/06 09:30:00",15.34833,29.48,TRADE
SNOWY1,"2005/01/06 10:00:00",24.22833,27.68,TRADE
SNOWY1,"2005/01/06 10:30:00",21.36833,26.52,TRADE
SNOWY1,"2005/01/06 11:00:00",12.225,26.42,TRADE
SNOWY1,"2005/01/06 11:30:00",16.005,25.78,TRADE
SNOWY1,"2005/01/06 12:00:00",21.18167,26.2,TRADE
SNOWY1,"2005/01/06 12:30:00",32.245,25.92,TRADE
SNOWY1,"2005/01/06 13:00:00",22.49333,25.95,TRADE
SNOWY1,"2005/01/06 13:30:00",25.51,26.03,TRADE
SNOWY1,"2005/01/06 14:00:00",19.575,26.01,TRADE
SNOWY1,"2005/01/06 14:30:00",18.38833,25.99,TRADE
SNOWY1,"2005/01/06 15:00:00",15.00833,25.93,TRADE
SNOWY1,"2005/01/06 15:30:00",21.12167,25.93,TRADE
SNOWY1,"2005/01/06 16:00:00",17.88333,25.99,TRADE
SNOWY1,"2005/01/06 16:30:00",16.30167,26.52,TRADE
SNOWY1,"2005/01/06 17:00:00",20.475,26.47,TRADE
SNOWY1,"2005/01/06 17:30:00",22.495,26.36,TRADE
SNOWY1,"2005/01/06 18:00:00",29.145,26.08,TRADE
SNOWY1,"2005/01/06 18:30:00",12.155,21.79,TRADE
SNOWY1,"2005/01/06 19:00:00",20.35167,20.65,TRADE
SNOWY1,"2005/01/06 19:30:00",22.00333,22.11,TRADE
SNOWY1,"2005/01/06 20:00:00",19.615,25.4,TRADE
SNOWY1,"2005/01/06 20:30:00",12.99667,26.16,TRADE
SNOWY1,"2005/01/06 21:00:00",15.98,23.46,TRADE
SNOWY1,"2005/01/06 21:30:00",24.37833,23.26,TRADE
SNOWY1,"2005/01/06 22:00:00",17.29167,19.94,TRADE
SNOWY1,"2005/01/06 22:30:00",17.26667,25.33,TRADE
SNOWY1,"2005/01/06 23:00:00",13.55833,26.12,TRADE
SNOWY1,"2005/01/06 23:30:00",16.84,30.89,TRADE
SNOWY1,"2005/01/07 00:00:00",18.38167,27.38,TRADE
SNOWY1,"2005/01/07 00:30:00",14.495,26.74,TRADE
SNOWY1,"2005/01/07 01:00:00",12.59167,24.67,TRADE
SNOWY1,"2005/01/07 01:30:00",14.93167,25.36,TRADE
SNOWY1,"2005/01/07 02:00:00",18.88333,21.09,TRADE
SNOWY1,"2005/01/07 02:30:00",18.375,20.07,TRADE
SNOWY1,"2005/01/07 03:00:00",15.06,19.75,TRADE
SNOWY1,"2005/01/07 03:30:00",22.43833,19.47,TRADE
SNOWY1,"2005/01/07 04:00:00",18.90833,19.46,TRADE
SNOWY1,"2005/01/07 04:30:00",16.19,19.66,TRADE
SNOWY1,"2005/01/07 05:00:00",20.64833,19.68,TRADE
SNOWY1,"2005/01/07 05:30:00",23.73667,22.67,TRADE
SNOWY1,"2005/01/07 06:00:00",21.795,25,TRADE
SNOWY1,"2005/01/07 06:30:00",23.185,27,TRADE
SNOWY1,"2005/01/07 07:00:00",26.99333,26.41,TRADE
SNOWY1,"2005/01/07 07:30:00",23.48,22.06,TRADE
SNOWY1,"2005/01/07 08:00:00",18.95167,24.03,TRADE
SNOWY1,"2005/01/07 08:30:00",27.02,27.39,TRADE
SNOWY1,"2005/01/07 09:00:00",21.81,30.77,TRADE
SNOWY1,"2005/01/07 09:30:00",22.24167,30.26,TRADE
SNOWY1,"2005/01/07 10:00:00",22.48,32.52,TRADE
SNOWY1,"2005/01/07 10:30:00",24.41333,29.47,TRADE
SNOWY1,"2005/01/07 11:00:00",22.28833,34.95,TRADE
SNOWY1,"2005/01/07 11:30:00",14.47833,34.92,TRADE
SNOWY1,"2005/01/07 12:00:00",29.26667,35.12,TRADE
SNOWY1,"2005/01/07 12:30:00",17.46,31.42,TRADE
SNOWY1,"2005/01/07 13:00:00",25.70167,29.58,TRADE
SNOWY1,"2005/01/07 13:30:00",19.025,30.63,TRADE
SNOWY1,"2005/01/07 14:00:00",14.45667,28.52,TRADE
SNOWY1,"2005/01/07 14:30:00",17.66333,27.81,TRADE
SNOWY1,"2005/01/07 15:00:00",15.96667,27.14,TRADE
SNOWY1,"2005/01/07 15:30:00",20.03833,27,TRADE
SNOWY1,"2005/01/07 16:00:00",28.015,26.93,TRADE
SNOWY1,"2005/01/07 16:30:00",13.6,26.91,TRADE
SNOWY1,"2005/01/07 17:00:00",14.98333,26.04,TRADE
SNOWY1,"2005/01/07 17:30:00",26.12333,21.74,TRADE
SNOWY1,"2005/01/07 18:00:00",20.27,19.84,TRADE
SNOWY1,"2005/01/07 18:30:00",13.42167,19.84,TRADE
SNOWY1,"2005/01/07 19:00:00",18.50167,19.77,TRADE
SNOWY1,"2005/01/07 19:30:00",24.925,20.78,TRADE
SNOWY1,"2005/01/07 20:00:00",18.11333,21.42,TRADE
SNOWY1,"2005/01/07 20:30:00",20.275,20.36,TRADE
SNOWY1,"2005/01/07 21:00:00",27.035,20.32,TRADE
SNOWY1,"2005/01/07 21:30:00",22.94833,20.81,TRADE
SNOWY1,"2005/01/07 22:00:00",24.4,19.96,TRADE
SNOWY1,"2005/01/07 22:30:00",21.23833,24.9,TRADE
SNOWY1,"2005/01/07 23:00:00",16.58333,27.08,TRADE
SNOWY1,"2005/01/07 23:30:00",28.865,36.11,TRADE
SNOWY1,"2005/01/08 00:00:00",17.865,27.76,TRADE
SNOWY1,"2005/01/08 00:30:00",22.365,25.69,TRADE
SNOWY1,"2005/01/08 01:00:00",25.44667,21.9,TRADE
SNOWY1,"2005/01/08 01:30:00",15.51167,23.6,TRADE
SNOWY1,"2005/01/08 02:00:00",21.98333,20.38,TRADE
SNOWY1,"2005/01/08 02:30:00",17.7,19.42,TRADE
SNOWY1,"2005/01/08 03:00:00",13.94667,19.32,TRADE
SNOWY1,"2005/01/08 03:30:00",25.00667,18.9,TRADE
SNOWY1,"2005/01/08 04:00:00",21.56667,18.46,TRADE
SNOWY1,"2005/01/08 04:30:00",20.98667,18.94,TRADE
SNOWY1,"2005/01/08 05:00:00",17.48667,19.35,TRADE
SNOWY1,"2005/01/08 05:30:00",18.27167,19.35,TRADE
SNOWY1,"2005/01/08 06:00:00",23.09,19.39,TRADE
SNOWY1,"2005/01/08 06:30:00",16.96,19.25,TRADE
SNOWY1,"2005/01/08 07:00:00",18.79667,20.02,TRADE
SNOWY1,"2005/01/08 07:30:00",24.28333,19,TRADE
SNOWY1,"2005/01/08 08:00:00",30.03,21.1,TRADE
SNOWY1,"2005/01/08 08:30:00",26.90333,21.67,TRADE
SNOWY1,"2005/01/08 09:00:00",26.17833,21.37,TRADE
SNOWY1,"2005/01/08 09:30:00",17.94,19.9,TRADE
SNOWY1,"2005/01/08 10:00:00",23.86833,20.79,TRADE
SNOWY1,"2005/01/08 10:30:00",22.19667,20.89,TRADE
SNOWY1,"2005/01/08 11:00:00",13.88333,20.58,TRADE
SNOWY1,"2005/01/08 11:30:00",21.37667,20.21,TRADE
SNOWY1,"2005/01/08 12:00:00",16.35833,19.93,TRADE
SNOWY1,"2005/01/08 12:30:00",16.09167,20,TRADE
SNOWY1,"2005/01/08 13:00:00",15.35333,19.95,TRADE
SNOWY1,"2005/01/08 13:30:00",13.53,19.93,TRADE
SNOWY1,"2005/01/08 14:00:00",16.18,19.89,TRADE
SNOWY1,"2005/01/08 14:30:00",15.945,19.68,TRADE
SNOWY1,"2005/01/08 15:00:00",17.61167,19.7,TRADE
SNOWY1,"2005/01/08 15:30:00",21.615,20.13,TRADE
SNOWY1,"2005/01/08 16:00:00",17.88167,20.08,TRADE
SNOWY1,"2005/01/08 16:30:00",18.83333,20,TRADE
SNOWY1,"2005/01/08 17:00:00",15.34833,20.13,TRADE
SNOWY1,"2005/01/08 17:30:00",18.95667,20.08,TRADE
SNOWY1,"2005/01/08 18:00:00",21.84667,19.89,TRADE
SNOWY1,"2005/01/08 18:30:00",15.47,20.01,TRADE
SNOWY1,"2005/01/08 19:00:00",18.30667,19.82,TRADE
SNOWY1,"2005/01/08 19:30:00",15.00833,20.74,TRADE
SNOWY1,"2005/01/08 20:00:00",18.77,19.78,TRADE
SNOWY1,"2005/01/08 20:30:00",22.20667,20.67,TRADE
SNOWY1,"2005/01/08 21:00:00",24.65833,20.32,TRADE
SNOWY1,"2005/01/08 21:30:00",16.21333,20.08,TRADE
SNOWY1,"2005/01/08 22:00:00",15.57167,19.35,TRADE
SNOWY1,"2005/01/08 22:30:00",9.30167,21.52,TRADE
SNOWY1,"2005/01/08 23:00:00",14.72167,21.73,TRADE
SNOWY1,"2005/01/08 23:30:00",12.05333,23.71,TRADE
SNOWY1,"2005/01/09 00:00:00",15.54833,22.48,TRADE
SNOWY1,"2005/01/09 00:30:00",22.71667,21.04,TRADE
SNOWY1,"2005/01/09 01:00:00",14.52667,19.89,TRADE
SNOWY1,"2005/01/09 01:30:00",14.85167,21.21,TRADE
SNOWY1,"2005/01/09 02:00:00",20.45333,18.5,TRADE
SNOWY1,"2005/01/09 02:30:00",27.31667,18.5,TRADE
SNOWY1,"2005/01/09 03:00:00",16.91833,19.22,TRADE
SNOWY1,"2005/01/09 03:30:00",17.28667,19,TRADE
SNOWY1,"2005/01/09 04:00:00",21.81333,18.45,TRADE
SNOWY1,"2005/01/09 04:30:00",24.305,17.32,TRADE
SNOWY1,"2005/01/09 05:00:00",19.26667,14.75,TRADE
SNOWY1,"2005/01/09 05:30:00",52.37167,15.28,TRADE
SNOWY1,"2005/01/09 06:00:00",57.685,15.57,TRADE
SNOWY1,"2005/01/09 06:30:00",56.68667,15.97,TRADE
SNOWY1,"2005/01/09 07:00:00",33.54333,16.6,TRADE
SNOWY1,"2005/01/09 07:30:00",17.51333,16.51,TRADE
SNOWY1,"2005/01/09 08:00:00",20.07833,18.47,TRADE
SNOWY1,"2005/01/09 08:30:00",15.24667,19.44,TRADE
SNOWY1,"2005/01/09 09:00:00",19.505,19.49,TRADE
SNOWY1,"2005/01/09 09:30:00",15.08667,19.45,TRADE
SNOWY1,"2005/01/09 10:00:00",15.43667,19.51,TRADE
SNOWY1,"2005/01/09 10:30:00",17.95833,19.53,TRADE
SNOWY1,"2005/01/09 11:00:00",12.03167,19.53,TRADE
SNOWY1,"2005/01/09 11:30:00",22.05833,19.65,TRADE
SNOWY1,"2005/01/09 12:00:00",22.47667,19.78,TRADE
SNOWY1,"2005/01/09 12:30:00",14.49,19.56,TRADE
SNOWY1,"2005/01/09 13:00:00",19.11833,19.92,TRADE
SNOWY1,"2005/01/09 13:30:00",27.14333,19.87,TRADE
SNOWY1,"2005/01/09 14:00:00",14.39,19.98,TRADE
SNOWY1,"2005/01/09 14:30:00",22.74667,19.92,TRADE
SNOWY1,"2005/01/09 15:00:00",21.82333,20.03,TRADE
SNOWY1,"2005/01/09 15:30:00",24.01,20.07,TRADE
SNOWY1,"2005/01/09 16:00:00",15.62333,20.15,TRADE
SNOWY1,"2005/01/09 16:30:00",18.76,20.22,TRADE
SNOWY1,"2005/01/09 17:00:00",19.48167,20.38,TRADE
SNOWY1,"2005/01/09 17:30:00",14.79667,20.81,TRADE
SNOWY1,"2005/01/09 18:00:00",19.82333,20.64,TRADE
SNOWY1,"2005/01/09 18:30:00",17.68,20.31,TRADE
SNOWY1,"2005/01/09 19:00:00",16.68667,19.93,TRADE
SNOWY1,"2005/01/09 19:30:00",21.22167,19.88,TRADE
SNOWY1,"2005/01/09 20:00:00",19.35333,20.94,TRADE
SNOWY1,"2005/01/09 20:30:00",16.22333,21.67,TRADE
SNOWY1,"2005/01/09 21:00:00",21.90833,20,TRADE
SNOWY1,"2005/01/09 21:30:00",15.10667,20.84,TRADE
SNOWY1,"2005/01/09 22:00:00",19.385,19.25,TRADE
SNOWY1,"2005/01/09 22:30:00",16.7,22.05,TRADE
SNOWY1,"2005/01/09 23:00:00",19.15167,21.84,TRADE
SNOWY1,"2005/01/09 23:30:00",18.11667,22.61,TRADE
SNOWY1,"2005/01/10 00:00:00",15.60833,21,TRADE
SNOWY1,"2005/01/10 00:30:00",23.295,18.35,TRADE
SNOWY1,"2005/01/10 01:00:00",14.21333,17.11,TRADE
SNOWY1,"2005/01/10 01:30:00",20.72833,19.51,TRADE
SNOWY1,"2005/01/10 02:00:00",17.91833,16.52,TRADE
SNOWY1,"2005/01/10 02:30:00",15.47667,15.39,TRADE
SNOWY1,"2005/01/10 03:00:00",14.71833,15.23,TRADE
SNOWY1,"2005/01/10 03:30:00",15.40667,13.36,TRADE
SNOWY1,"2005/01/10 04:00:00",15.74667,15.51,TRADE
SNOWY1,"2005/01/10 04:30:00",12.455,16.37,TRADE
SNOWY1,"2005/01/10 05:00:00",14.25333,16.37,TRADE
SNOWY1,"2005/01/10 05:30:00",14.22667,20.83,TRADE
SNOWY1,"2005/01/10 06:00:00",17.11167,21.06,TRADE
SNOWY1,"2005/01/10 06:30:00",22.97833,20.31,TRADE
SNOWY1,"2005/01/10 07:00:00",19.865,21.08,TRADE
SNOWY1,"2005/01/10 07:30:00",21.245,16.49,TRADE
SNOWY1,"2005/01/10 08:00:00",16.44667,20.4,TRADE
SNOWY1,"2005/01/10 08:30:00",26.12667,20.68,TRADE
SNOWY1,"2005/01/10 09:00:00",27.61667,21.11,TRADE
SNOWY1,"2005/01/10 09:30:00",25.14833,20.89,TRADE
SNOWY1,"2005/01/10 10:00:00",29.13,21.1,TRADE
SNOWY1,"2005/01/10 10:30:00",20.91833,21.75,TRADE
SNOWY1,"2005/01/10 11:00:00",26.41333,22.72,TRADE
SNOWY1,"2005/01/10 11:30:00",25.12833,23.02,TRADE
SNOWY1,"2005/01/10 12:00:00",20.97333,23.87,TRADE
SNOWY1,"2005/01/10 12:30:00",19.99833,23.35,TRADE
SNOWY1,"2005/01/10 13:00:00",22.81333,24.12,TRADE
SNOWY1,"2005/01/10 13:30:00",33.875,24.81,TRADE
SNOWY1,"2005/01/10 14:00:00",23.44,24.63,TRADE
SNOWY1,"2005/01/10 14:30:00",25.95167,38.61,TRADE
SNOWY1,"2005/01/10 15:00:00",32.54,42,TRADE
SNOWY1,"2005/01/10 15:30:00",31.44667,41.97,TRADE
SNOWY1,"2005/01/10 16:00:00",23.345,42,TRADE
SNOWY1,"2005/01/10 16:30:00",20.505,42,TRADE
SNOWY1,"2005/01/10 17:00:00",26.39,42,TRADE
SNOWY1,"2005/01/10 17:30:00",19.51,42,TRADE
SNOWY1,"2005/01/10 18:00:00",19.675,41.58,TRADE
SNOWY1,"2005/01/10 18:30:00",13.33833,26.15,TRADE
SNOWY1,"2005/01/10 19:00:00",21.48833,22.57,TRADE
SNOWY1,"2005/01/10 19:30:00",22.54833,21.24,TRADE
SNOWY1,"2005/01/10 20:00:00",33.64833,21.44,TRADE
SNOWY1,"2005/01/10 20:30:00",28.13667,23.82,TRADE
SNOWY1,"2005/01/10 21:00:00",19.55833,23.46,TRADE
SNOWY1,"2005/01/10 21:30:00",17.71833,23.02,TRADE
SNOWY1,"2005/01/10 22:00:00",14.68667,21.22,TRADE
SNOWY1,"2005/01/10 22:30:00",28.77,23.11,TRADE
SNOWY1,"2005/01/10 23:00:00",19.77167,22.87,TRADE
SNOWY1,"2005/01/10 23:30:00",25.97667,30.41,TRADE
SNOWY1,"2005/01/11 00:00:00",14.14833,24.8,TRADE
SNOWY1,"2005/01/11 00:30:00",13.33167,22.59,TRADE
SNOWY1,"2005/01/11 01:00:00",22.12833,21.77,TRADE
SNOWY1,"2005/01/11 01:30:00",14.33667,22.33,TRADE
SNOWY1,"2005/01/11 02:00:00",20.83667,18.24,TRADE
SNOWY1,"2005/01/11 02:30:00",13.26333,19.25,TRADE
SNOWY1,"2005/01/11 03:00:00",17.96167,17.83,TRADE
SNOWY1,"2005/01/11 03:30:00",37.68667,17.15,TRADE
SNOWY1,"2005/01/11 04:00:00",46.04833,16.78,TRADE
SNOWY1,"2005/01/11 04:30:00",16.65167,18.81,TRADE
SNOWY1,"2005/01/11 05:00:00",15.09,19.55,TRADE
SNOWY1,"2005/01/11 05:30:00",11.45833,20.72,TRADE
SNOWY1,"2005/01/11 06:00:00",19.7,21.8,TRADE
SNOWY1,"2005/01/11 06:30:00",20.695,24.33,TRADE
SNOWY1,"2005/01/11 07:00:00",14.88833,23.4,TRADE
SNOWY1,"2005/01/11 07:30:00",19.275,21.03,TRADE
SNOWY1,"2005/01/11 08:00:00",18.54333,23.64,TRADE
SNOWY1,"2005/01/11 08:30:00",30.85833,24.48,TRADE
SNOWY1,"2005/01/11 09:00:00",27.95667,26.28,TRADE
SNOWY1,"2005/01/11 09:30:00",22.785,29.3,TRADE
SNOWY1,"2005/01/11 10:00:00",24.59,34.58,TRADE
SNOWY1,"2005/01/11 10:30:00",28.87333,36.66,TRADE
SNOWY1,"2005/01/11 11:00:00",31.05667,40.01,TRADE
SNOWY1,"2005/01/11 11:30:00",50.72167,42.1,TRADE
SNOWY1,"2005/01/11 12:00:00",41.26,42.57,TRADE
SNOWY1,"2005/01/11 12:30:00",59.655,43.1,TRADE
SNOWY1,"2005/01/11 13:00:00",46.77,45.9,TRADE
SNOWY1,"2005/01/11 13:30:00",39.70333,48.48,TRADE
SNOWY1,"2005/01/11 14:00:00",30.23833,51.45,TRADE
SNOWY1,"2005/01/11 14:30:00",20.90667,75.7,TRADE
SNOWY1,"2005/01/11 15:00:00",27.86,63.63,TRADE
SNOWY1,"2005/01/11 15:30:00",26.96667,65.73,TRADE
SNOWY1,"2005/01/11 16:00:00",24.075,63.52,TRADE
SNOWY1,"2005/01/11 16:30:00",12.35667,62.1,TRADE
SNOWY1,"2005/01/11 17:00:00",15.95667,53.77,TRADE
SNOWY1,"2005/01/11 17:30:00",9.66833,41.16,TRADE
SNOWY1,"2005/01/11 18:00:00",25.92,37.66,TRADE
SNOWY1,"2005/01/11 18:30:00",18.40167,29.16,TRADE
SNOWY1,"2005/01/11 19:00:00",18.40667,27.43,TRADE
SNOWY1,"2005/01/11 19:30:00",34.76167,27.53,TRADE
SNOWY1,"2005/01/11 20:00:00",18.76333,26.29,TRADE
SNOWY1,"2005/01/11 20:30:00",18.475,28.33,TRADE
SNOWY1,"2005/01/11 21:00:00",17.42,25.75,TRADE
SNOWY1,"2005/01/11 21:30:00",23.84167,26.24,TRADE
SNOWY1,"2005/01/11 22:00:00",20.44833,24.36,TRADE
SNOWY1,"2005/01/11 22:30:00",19.63333,28.27,TRADE
SNOWY1,"2005/01/11 23:00:00",16.5,27.63,TRADE
SNOWY1,"2005/01/11 23:30:00",22.29,32.45,TRADE
SNOWY1,"2005/01/12 00:00:00",22.48667,28.15,TRADE
SNOWY1,"2005/01/12 00:30:00",15.21167,27.37,TRADE
SNOWY1,"2005/01/12 01:00:00",19.155,25.03,TRADE
SNOWY1,"2005/01/12 01:30:00",19.81,25.65,TRADE
SNOWY1,"2005/01/12 02:00:00",21.67833,21.38,TRADE
SNOWY1,"2005/01/12 02:30:00",17.83333,19.69,TRADE
SNOWY1,"2005/01/12 03:00:00",21.64,19.11,TRADE
SNOWY1,"2005/01/12 03:30:00",19.20833,18.61,TRADE
SNOWY1,"2005/01/12 04:00:00",20.04667,18.53,TRADE
SNOWY1,"2005/01/12 04:30:00",11.73,19.33,TRADE
SNOWY1,"2005/01/12 05:00:00",11.62,19.45,TRADE
SNOWY1,"2005/01/12 05:30:00",14.57333,21.74,TRADE
SNOWY1,"2005/01/12 06:00:00",16.64667,22.73,TRADE
SNOWY1,"2005/01/12 06:30:00",18.20167,25.77,TRADE
SNOWY1,"2005/01/12 07:00:00",22.15333,25.2,TRADE
SNOWY1,"2005/01/12 07:30:00",27.06,22.31,TRADE
SNOWY1,"2005/01/12 08:00:00",22.21,25.71,TRADE
SNOWY1,"2005/01/12 08:30:00",25.99833,24.8,TRADE
SNOWY1,"2005/01/12 09:00:00",24.05,25.79,TRADE
SNOWY1,"2005/01/12 09:30:00",18.93167,32.69,TRADE
SNOWY1,"2005/01/12 10:00:00",26.06833,29.35,TRADE
SNOWY1,"2005/01/12 10:30:00",27.57167,34.03,TRADE
SNOWY1,"2005/01/12 11:00:00",25.81667,36,TRADE
SNOWY1,"2005/01/12 11:30:00",26.47667,39.42,TRADE
SNOWY1,"2005/01/12 12:00:00",34.44833,27.77,TRADE
SNOWY1,"2005/01/12 12:30:00",17.79,39.6,TRADE
SNOWY1,"2005/01/12 13:00:00",27.85833,41.93,TRADE
SNOWY1,"2005/01/12 13:30:00",33.625,41.9,TRADE
SNOWY1,"2005/01/12 14:00:00",18.265,41.9,TRADE
SNOWY1,"2005/01/12 14:30:00",18.17667,42.16,TRADE
SNOWY1,"2005/01/12 15:00:00",15.99833,46.9,TRADE
SNOWY1,"2005/01/12 15:30:00",29.63,51.11,TRADE
SNOWY1,"2005/01/12 16:00:00",19.67833,50.93,TRADE
SNOWY1,"2005/01/12 16:30:00",28.06167,42.67,TRADE
SNOWY1,"2005/01/12 17:00:00",11.67333,41.82,TRADE
SNOWY1,"2005/01/12 17:30:00",18.59667,37.75,TRADE
SNOWY1,"2005/01/12 18:00:00",14.48,29.16,TRADE
SNOWY1,"2005/01/12 18:30:00",17.55167,22.91,TRADE
SNOWY1,"2005/01/12 19:00:00",18.89667,25.82,TRADE
SNOWY1,"2005/01/12 19:30:00",19.57167,24.96,TRADE
SNOWY1,"2005/01/12 20:00:00",21.99,25.84,TRADE
SNOWY1,"2005/01/12 20:30:00",17.49333,25.9,TRADE
SNOWY1,"2005/01/12 21:00:00",22.22,24.23,TRADE
SNOWY1,"2005/01/12 21:30:00",17.65,24.92,TRADE
SNOWY1,"2005/01/12 22:00:00",15.32333,24.03,TRADE
SNOWY1,"2005/01/12 22:30:00",21.385,32.46,TRADE
SNOWY1,"2005/01/12 23:00:00",13.96333,27.18,TRADE
SNOWY1,"2005/01/12 23:30:00",17.325,34.57,TRADE
SNOWY1,"2005/01/13 00:00:00",19.96,26.88,TRADE
SNOWY1,"2005/01/13 00:30:00",15.595,24.61,TRADE
SNOWY1,"2005/01/13 01:00:00",16.69667,22.85,TRADE
SNOWY1,"2005/01/13 01:30:00",16.80167,23.22,TRADE
SNOWY1,"2005/01/13 02:00:00",21.86167,20.23,TRADE
SNOWY1,"2005/01/13 02:30:00",18.61,19.51,TRADE
SNOWY1,"2005/01/13 03:00:00",21.64833,19.48,TRADE
SNOWY1,"2005/01/13 03:30:00",18.05167,19.31,TRADE
SNOWY1,"2005/01/13 04:00:00",14.68833,18.56,TRADE
SNOWY1,"2005/01/13 04:30:00",11.81333,19.25,TRADE
SNOWY1,"2005/01/13 05:00:00",13.68833,18.87,TRADE
SNOWY1,"2005/01/13 05:30:00",17.335,21.33,TRADE
SNOWY1,"2005/01/13 06:00:00",21.24,22.15,TRADE
SNOWY1,"2005/01/13 06:30:00",23.41167,27.8,TRADE
SNOWY1,"2005/01/13 07:00:00",28.35,24.79,TRADE
SNOWY1,"2005/01/13 07:30:00",33.36833,20.16,TRADE
SNOWY1,"2005/01/13 08:00:00",37.66833,23.81,TRADE
SNOWY1,"2005/01/13 08:30:00",32.24,23.13,TRADE
SNOWY1,"2005/01/13 09:00:00",209.835,26.97,TRADE
SNOWY1,"2005/01/13 09:30:00",13.77833,33.66,TRADE
SNOWY1,"2005/01/13 10:00:00",18.54333,31.37,TRADE
SNOWY1,"2005/01/13 10:30:00",29.94833,40.54,TRADE
SNOWY1,"2005/01/13 11:00:00",42.78667,41.02,TRADE
SNOWY1,"2005/01/13 11:30:00",40.02833,41.93,TRADE
SNOWY1,"2005/01/13 12:00:00",78.61833,39.95,TRADE
SNOWY1,"2005/01/13 12:30:00",31.79167,40.92,TRADE
SNOWY1,"2005/01/13 13:00:00",34.55333,58.34,TRADE
SNOWY1,"2005/01/13 13:30:00",31.64667,66.48,TRADE
SNOWY1,"2005/01/13 14:00:00",36.24833,78.53,TRADE
SNOWY1,"2005/01/13 14:30:00",29.96667,87.56,TRADE
SNOWY1,"2005/01/13 15:00:00",33.64167,94.29,TRADE
SNOWY1,"2005/01/13 15:30:00",28.78833,96.29,TRADE
SNOWY1,"2005/01/13 16:00:00",29.715,88.07,TRADE
SNOWY1,"2005/01/13 16:30:00",28.71667,87.61,TRADE
SNOWY1,"2005/01/13 17:00:00",36.17667,73.57,TRADE
SNOWY1,"2005/01/13 17:30:00",30.68167,46.61,TRADE
SNOWY1,"2005/01/13 18:00:00",45.34167,43.59,TRADE
SNOWY1,"2005/01/13 18:30:00",31.32833,41.9,TRADE
SNOWY1,"2005/01/13 19:00:00",14.585,41.77,TRADE
SNOWY1,"2005/01/13 19:30:00",25.26167,41.53,TRADE
SNOWY1,"2005/01/13 20:00:00",26.80167,42,TRADE
SNOWY1,"2005/01/13 20:30:00",14.39333,41.45,TRADE
SNOWY1,"2005/01/13 21:00:00",19.455,34.88,TRADE
SNOWY1,"2005/01/13 21:30:00",26.13667,31.82,TRADE
SNOWY1,"2005/01/13 22:00:00",27.52,23.01,TRADE
SNOWY1,"2005/01/13 22:30:00",22.95167,32.24,TRADE
SNOWY1,"2005/01/13 23:00:00",17.01333,26.61,TRADE
SNOWY1,"2005/01/13 23:30:00",20.82333,31.63,TRADE
SNOWY1,"2005/01/14 00:00:00",22.61167,25.07,TRADE
SNOWY1,"2005/01/14 00:30:00",22.065,23.46,TRADE
SNOWY1,"2005/01/14 01:00:00",21.63,22.35,TRADE
SNOWY1,"2005/01/14 01:30:00",23.925,22.15,TRADE
SNOWY1,"2005/01/14 02:00:00",18.35833,20.22,TRADE
SNOWY1,"2005/01/14 02:30:00",15.77667,19.4,TRADE
SNOWY1,"2005/01/14 03:00:00",18.97833,19.25,TRADE
SNOWY1,"2005/01/14 03:30:00",23.03667,19.2,TRADE
SNOWY1,"2005/01/14 04:00:00",16.59167,18.1,TRADE
SNOWY1,"2005/01/14 04:30:00",19.59833,18.97,TRADE
SNOWY1,"2005/01/14 05:00:00",21.18333,19.02,TRADE
SNOWY1,"2005/01/14 05:30:00",20.31333,20.03,TRADE
SNOWY1,"2005/01/14 06:00:00",23.62167,21.43,TRADE
SNOWY1,"2005/01/14 06:30:00",19.90167,25.9,TRADE
SNOWY1,"2005/01/14 07:00:00",33.34,23.5,TRADE
SNOWY1,"2005/01/14 07:30:00",42.29167,20.24,TRADE
SNOWY1,"2005/01/14 08:00:00",30.28667,22.95,TRADE
SNOWY1,"2005/01/14 08:30:00",41.725,23.98,TRADE
SNOWY1,"2005/01/14 09:00:00",25.78833,39.74,TRADE
SNOWY1,"2005/01/14 09:30:00",26.03333,39.43,TRADE
SNOWY1,"2005/01/14 10:00:00",40.045,42,TRADE
SNOWY1,"2005/01/14 10:30:00",44.015,45.12,TRADE
SNOWY1,"2005/01/14 11:00:00",35.115,60.24,TRADE
SNOWY1,"2005/01/14 11:30:00",34.91667,62,TRADE
SNOWY1,"2005/01/14 12:00:00",32.33,44.94,TRADE
SNOWY1,"2005/01/14 12:30:00",42.355,59.14,TRADE
SNOWY1,"2005/01/14 13:00:00",39.61,112.4,TRADE
SNOWY1,"2005/01/14 13:30:00",29.72167,280,TRADE
SNOWY1,"2005/01/14 14:00:00",35.415,382.52,TRADE
SNOWY1,"2005/01/14 14:30:00",7.36,236.72,TRADE
SNOWY1,"2005/01/14 15:00:00",17.435,2531.11,TRADE
SNOWY1,"2005/01/14 15:30:00",25.32167,2784.36,TRADE
SNOWY1,"2005/01/14 16:00:00",21.57667,3745.23,TRADE
SNOWY1,"2005/01/14 16:30:00",0,4.34,TRADE
SNOWY1,"2005/01/14 17:00:00",41.96167,52.58,TRADE
SNOWY1,"2005/01/14 17:30:00",66.24333,40.91,TRADE
SNOWY1,"2005/01/14 18:00:00",41.69167,30.75,TRADE
SNOWY1,"2005/01/14 18:30:00",36.78333,23.79,TRADE
SNOWY1,"2005/01/14 19:00:00",15.35833,32.76,TRADE
SNOWY1,"2005/01/14 19:30:00",20.11667,27.2,TRADE
SNOWY1,"2005/01/14 20:00:00",24.79333,29.24,TRADE
SNOWY1,"2005/01/14 20:30:00",17.08833,27.09,TRADE
SNOWY1,"2005/01/14 21:00:00",24.065,23.67,TRADE
SNOWY1,"2005/01/14 21:30:00",23.705,29.84,TRADE
SNOWY1,"2005/01/14 22:00:00",18.68333,25.46,TRADE
SNOWY1,"2005/01/14 22:30:00",19.78333,32.15,TRADE
SNOWY1,"2005/01/14 23:00:00",19.38167,29.33,TRADE
SNOWY1,"2005/01/14 23:30:00",11.995,29.88,TRADE
SNOWY1,"2005/01/15 00:00:00",26.315,26.83,TRADE
SNOWY1,"2005/01/15 00:30:00",18.78,26.8,TRADE
SNOWY1,"2005/01/15 01:00:00",28.62833,25.29,TRADE
SNOWY1,"2005/01/15 01:30:00",29.98333,24.89,TRADE
SNOWY1,"2005/01/15 02:00:00",21.065,21.74,TRADE
SNOWY1,"2005/01/15 02:30:00",20.78167,19.57,TRADE
SNOWY1,"2005/01/15 03:00:00",18.12833,18.21,TRADE
SNOWY1,"2005/01/15 03:30:00",22.21667,16.34,TRADE
SNOWY1,"2005/01/15 04:00:00",26.52167,16.45,TRADE
SNOWY1,"2005/01/15 04:30:00",61.09,18.05,TRADE
SNOWY1,"2005/01/15 05:00:00",56.28833,18.29,TRADE
SNOWY1,"2005/01/15 05:30:00",54.48833,19.31,TRADE
SNOWY1,"2005/01/15 06:00:00",29.49667,19.2,TRADE
SNOWY1,"2005/01/15 06:30:00",29.07,20.06,TRADE
SNOWY1,"2005/01/15 07:00:00",25.98667,21.18,TRADE
SNOWY1,"2005/01/15 07:30:00",24.955,19.35,TRADE
SNOWY1,"2005/01/15 08:00:00",36.47167,19.69,TRADE
SNOWY1,"2005/01/15 08:30:00",29.73833,21.64,TRADE
SNOWY1,"2005/01/15 09:00:00",32.55833,22.29,TRADE
SNOWY1,"2005/01/15 09:30:00",33.28833,22.7,TRADE
SNOWY1,"2005/01/15 10:00:00",25.05333,22.71,TRADE
SNOWY1,"2005/01/15 10:30:00",20.46,22.73,TRADE
SNOWY1,"2005/01/15 11:00:00",35.055,22.71,TRADE
SNOWY1,"2005/01/15 11:30:00",17.26833,22.56,TRADE
SNOWY1,"2005/01/15 12:00:00",23.15667,22.47,TRADE
SNOWY1,"2005/01/15 12:30:00",35.44667,13.4,TRADE
SNOWY1,"2005/01/15 13:00:00",20.405,13.57,TRADE
SNOWY1,"2005/01/15 13:30:00",22.83833,17.55,TRADE
SNOWY1,"2005/01/15 14:00:00",23.25833,23.08,TRADE
SNOWY1,"2005/01/15 14:30:00",14.44667,25.45,TRADE
SNOWY1,"2005/01/15 15:00:00",9.01333,25.28,TRADE
SNOWY1,"2005/01/15 15:30:00",21.19333,28.61,TRADE
SNOWY1,"2005/01/15 16:00:00",20.125,28.21,TRADE
SNOWY1,"2005/01/15 16:30:00",17.30833,24.76,TRADE
SNOWY1,"2005/01/15 17:00:00",8.72,24.1,TRADE
SNOWY1,"2005/01/15 17:30:00",17.97,23.79,TRADE
SNOWY1,"2005/01/15 18:00:00",16.31833,23.44,TRADE
SNOWY1,"2005/01/15 18:30:00",22.01833,23.2,TRADE
SNOWY1,"2005/01/15 19:00:00",10.45,22.11,TRADE
SNOWY1,"2005/01/15 19:30:00",9.74333,25.63,TRADE
SNOWY1,"2005/01/15 20:00:00",18.15833,27.27,TRADE
SNOWY1,"2005/01/15 20:30:00",21.82333,25.16,TRADE
SNOWY1,"2005/01/15 21:00:00",16.86667,24.34,TRADE
SNOWY1,"2005/01/15 21:30:00",20.17333,29.3,TRADE
SNOWY1,"2005/01/15 22:00:00",19.62667,26.83,TRADE
SNOWY1,"2005/01/15 22:30:00",23.38167,36.43,TRADE
SNOWY1,"2005/01/15 23:00:00",14.47,36.99,TRADE
SNOWY1,"2005/01/15 23:30:00",19.68333,34.2,TRADE
SNOWY1,"2005/01/16 00:00:00",11.895,29.46,TRADE
SNOWY1,"2005/01/16 00:30:00",10.825,29.1,TRADE
SNOWY1,"2005/01/16 01:00:00",21.87167,25.51,TRADE
SNOWY1,"2005/01/16 01:30:00",12.29667,27.01,TRADE
SNOWY1,"2005/01/16 02:00:00",16.79833,23.87,TRADE
SNOWY1,"2005/01/16 02:30:00",15.55667,21.06,TRADE
SNOWY1,"2005/01/16 03:00:00",12.75667,19.76,TRADE
SNOWY1,"2005/01/16 03:30:00",9.76,19.35,TRADE
SNOWY1,"2005/01/16 04:00:00",15.58333,19.12,TRADE
SNOWY1,"2005/01/16 04:30:00",12.45167,17.31,TRADE
SNOWY1,"2005/01/16 05:00:00",8.13833,17.73,TRADE
SNOWY1,"2005/01/16 05:30:00",9.74333,19.13,TRADE
SNOWY1,"2005/01/16 06:00:00",11.97833,17.13,TRADE
SNOWY1,"2005/01/16 06:30:00",20.015,18.66,TRADE
SNOWY1,"2005/01/16 07:00:00",13.705,17.51,TRADE
SNOWY1,"2005/01/16 07:30:00",17.245,18.55,TRADE
SNOWY1,"2005/01/16 08:00:00",16.90167,18.46,TRADE
SNOWY1,"2005/01/16 08:30:00",19.235,18.84,TRADE
SNOWY1,"2005/01/16 09:00:00",21.26333,21.55,TRADE
SNOWY1,"2005/01/16 09:30:00",14.71333,22.25,TRADE
SNOWY1,"2005/01/16 10:00:00",8.66333,23.29,TRADE
SNOWY1,"2005/01/16 10:30:00",10.85333,24.66,TRADE
SNOWY1,"2005/01/16 11:00:00",19.24333,25.3,TRADE
SNOWY1,"2005/01/16 11:30:00",11.51333,27.85,TRADE
SNOWY1,"2005/01/16 12:00:00",17.955,28,TRADE
SNOWY1,"2005/01/16 12:30:00",9.42,25.09,TRADE
SNOWY1,"2005/01/16 13:00:00",23.7,26.66,TRADE
SNOWY1,"2005/01/16 13:30:00",13.67167,26.95,TRADE
SNOWY1,"2005/01/16 14:00:00",15.1,26.38,TRADE
SNOWY1,"2005/01/16 14:30:00",7.50833,25.59,TRADE
SNOWY1,"2005/01/16 15:00:00",16.67167,25.99,TRADE
SNOWY1,"2005/01/16 15:30:00",14.48,25.63,TRADE
SNOWY1,"2005/01/16 16:00:00",11.77833,25.39,TRADE
SNOWY1,"2005/01/16 16:30:00",14.75167,23.21,TRADE
SNOWY1,"2005/01/16 17:00:00",23.585,22.84,TRADE
SNOWY1,"2005/01/16 17:30:00",16.27167,22.9,TRADE
SNOWY1,"2005/01/16 18:00:00",14.59,22.97,TRADE
SNOWY1,"2005/01/16 18:30:00",13.975,22.02,TRADE
SNOWY1,"2005/01/16 19:00:00",12.675,21.47,TRADE
SNOWY1,"2005/01/16 19:30:00",12.135,24.2,TRADE
SNOWY1,"2005/01/16 20:00:00",17.39333,27.05,TRADE
SNOWY1,"2005/01/16 20:30:00",15.91833,22.38,TRADE
SNOWY1,"2005/01/16 21:00:00",19.75833,20.99,TRADE
SNOWY1,"2005/01/16 21:30:00",16.63667,21.84,TRADE
SNOWY1,"2005/01/16 22:00:00",17.53333,20.14,TRADE
SNOWY1,"2005/01/16 22:30:00",14.73333,21.99,TRADE
SNOWY1,"2005/01/16 23:00:00",16.71,22.27,TRADE
SNOWY1,"2005/01/16 23:30:00",17.27167,22.89,TRADE
SNOWY1,"2005/01/17 00:00:00",13.93333,22.18,TRADE
SNOWY1,"2005/01/17 00:30:00",18.76,21.66,TRADE
SNOWY1,"2005/01/17 01:00:00",19.81333,20.98,TRADE
SNOWY1,"2005/01/17 01:30:00",17.62833,23.56,TRADE
SNOWY1,"2005/01/17 02:00:00",16.24167,20.29,TRADE
SNOWY1,"2005/01/17 02:30:00",14.34833,20.03,TRADE
SNOWY1,"2005/01/17 03:00:00",14.065,18.8,TRADE
SNOWY1,"2005/01/17 03:30:00",16.73167,18.15,TRADE
SNOWY1,"2005/01/17 04:00:00",14.56,18.81,TRADE
SNOWY1,"2005/01/17 04:30:00",12.215,18.29,TRADE
SNOWY1,"2005/01/17 05:00:00",16.40667,19.51,TRADE
SNOWY1,"2005/01/17 05:30:00",15.73333,21.7,TRADE
SNOWY1,"2005/01/17 06:00:00",17.47667,23.07,TRADE
SNOWY1,"2005/01/17 06:30:00",28.855,23.74,TRADE
SNOWY1,"2005/01/17 07:00:00",20.22333,22.98,TRADE
SNOWY1,"2005/01/17 07:30:00",26.87667,22.9,TRADE
SNOWY1,"2005/01/17 08:00:00",26.89667,22.52,TRADE
SNOWY1,"2005/01/17 08:30:00",31.06,23.13,TRADE
SNOWY1,"2005/01/17 09:00:00",26.44167,23.49,TRADE
SNOWY1,"2005/01/17 09:30:00",25.67333,23.45,TRADE
SNOWY1,"2005/01/17 10:00:00",21.51167,23.36,TRADE
SNOWY1,"2005/01/17 10:30:00",31.77167,23.34,TRADE
SNOWY1,"2005/01/17 11:00:00",16.63667,23.63,TRADE
SNOWY1,"2005/01/17 11:30:00",28.325,23.46,TRADE
SNOWY1,"2005/01/17 12:00:00",29.26,23.5,TRADE
SNOWY1,"2005/01/17 12:30:00",26.345,23.57,TRADE
SNOWY1,"2005/01/17 13:00:00",32.61667,23.66,TRADE
SNOWY1,"2005/01/17 13:30:00",20.06167,23.72,TRADE
SNOWY1,"2005/01/17 14:00:00",23.925,23.63,TRADE
SNOWY1,"2005/01/17 14:30:00",19.99167,23.73,TRADE
SNOWY1,"2005/01/17 15:00:00",24.31333,23.72,TRADE
SNOWY1,"2005/01/17 15:30:00",22.31333,23.67,TRADE
SNOWY1,"2005/01/17 16:00:00",20.52833,23.65,TRADE
SNOWY1,"2005/01/17 16:30:00",12.255,23.6,TRADE
SNOWY1,"2005/01/17 17:00:00",16.53833,23.31,TRADE
SNOWY1,"2005/01/17 17:30:00",23.38667,21.17,TRADE
SNOWY1,"2005/01/17 18:00:00",19.31,19.33,TRADE
SNOWY1,"2005/01/17 18:30:00",29.63167,18.76,TRADE
SNOWY1,"2005/01/17 19:00:00",19.87167,19.17,TRADE
SNOWY1,"2005/01/17 19:30:00",14.40833,19.43,TRADE
SNOWY1,"2005/01/17 20:00:00",16.49167,19.51,TRADE
SNOWY1,"2005/01/17 20:30:00",17.19,19.66,TRADE
SNOWY1,"2005/01/17 21:00:00",18.76833,20.1,TRADE
SNOWY1,"2005/01/17 21:30:00",28.56,21.92,TRADE
SNOWY1,"2005/01/17 22:00:00",23.89833,18.78,TRADE
SNOWY1,"2005/01/17 22:30:00",23.55333,22.14,TRADE
SNOWY1,"2005/01/17 23:00:00",19.28167,21.48,TRADE
SNOWY1,"2005/01/17 23:30:00",17.45,23.63,TRADE
SNOWY1,"2005/01/18 00:00:00",21.83,23.98,TRADE
SNOWY1,"2005/01/18 00:30:00",19.225,23.18,TRADE
SNOWY1,"2005/01/18 01:00:00",16.51833,21.28,TRADE
SNOWY1,"2005/01/18 01:30:00",19.08833,23.21,TRADE
SNOWY1,"2005/01/18 02:00:00",20.34833,19.95,TRADE
SNOWY1,"2005/01/18 02:30:00",18.36667,18.44,TRADE
SNOWY1,"2005/01/18 03:00:00",41.39667,16.81,TRADE
SNOWY1,"2005/01/18 03:30:00",53.46667,17.31,TRADE
SNOWY1,"2005/01/18 04:00:00",50.94833,17.4,TRADE
SNOWY1,"2005/01/18 04:30:00",49.895,18.17,TRADE
SNOWY1,"2005/01/18 05:00:00",11.665,19.31,TRADE
SNOWY1,"2005/01/18 05:30:00",14.27667,20.59,TRADE
SNOWY1,"2005/01/18 06:00:00",20.04167,21.61,TRADE
SNOWY1,"2005/01/18 06:30:00",20.78333,21.73,TRADE
SNOWY1,"2005/01/18 07:00:00",28.82333,20.23,TRADE
SNOWY1,"2005/01/18 07:30:00",24.89667,19.33,TRADE
SNOWY1,"2005/01/18 08:00:00",29.78333,19.91,TRADE
SNOWY1,"2005/01/18 08:30:00",27.75333,20.21,TRADE
SNOWY1,"2005/01/18 09:00:00",24.825,20.16,TRADE
SNOWY1,"2005/01/18 09:30:00",32.73167,20.18,TRADE
SNOWY1,"2005/01/18 10:00:00",26.75833,20.12,TRADE
SNOWY1,"2005/01/18 10:30:00",29.615,20.66,TRADE
SNOWY1,"2005/01/18 11:00:00",24.35667,20.44,TRADE
SNOWY1,"2005/01/18 11:30:00",29.56833,20.94,TRADE
SNOWY1,"2005/01/18 12:00:00",26.67667,22.2,TRADE
SNOWY1,"2005/01/18 12:30:00",25.87167,22.38,TRADE
SNOWY1,"2005/01/18 13:00:00",19.41333,22.32,TRADE
SNOWY1,"2005/01/18 13:30:00",20.12167,21.21,TRADE
SNOWY1,"2005/01/18 14:00:00",26.34,21.3,TRADE
SNOWY1,"2005/01/18 14:30:00",51.38667,23.99,TRADE
SNOWY1,"2005/01/18 15:00:00",25.61667,22.47,TRADE
SNOWY1,"2005/01/18 15:30:00",30.76833,21.69,TRADE
SNOWY1,"2005/01/18 16:00:00",23.715,20.85,TRADE
SNOWY1,"2005/01/18 16:30:00",28.24167,20.87,TRADE
SNOWY1,"2005/01/18 17:00:00",25.275,23.33,TRADE
SNOWY1,"2005/01/18 17:30:00",22.90667,20.29,TRADE
SNOWY1,"2005/01/18 18:00:00",21.645,19.58,TRADE
SNOWY1,"2005/01/18 18:30:00",21.79833,18.27,TRADE
SNOWY1,"2005/01/18 19:00:00",20.66833,18.83,TRADE
SNOWY1,"2005/01/18 19:30:00",24.51167,19.24,TRADE
SNOWY1,"2005/01/18 20:00:00",22.47167,19.51,TRADE
SNOWY1,"2005/01/18 20:30:00",20.105,19.65,TRADE
SNOWY1,"2005/01/18 21:00:00",15.38833,18.56,TRADE
SNOWY1,"2005/01/18 21:30:00",14.73833,21.17,TRADE
SNOWY1,"2005/01/18 22:00:00",16.12167,18.94,TRADE
SNOWY1,"2005/01/18 22:30:00",16.115,23.66,TRADE
SNOWY1,"2005/01/18 23:00:00",12.68333,22.25,TRADE
SNOWY1,"2005/01/18 23:30:00",17.92,23.71,TRADE
SNOWY1,"2005/01/19 00:00:00",13.595,22.22,TRADE
SNOWY1,"2005/01/19 00:30:00",18.48667,19.03,TRADE
SNOWY1,"2005/01/19 01:00:00",14.905,19.26,TRADE
SNOWY1,"2005/01/19 01:30:00",16.715,20.18,TRADE
SNOWY1,"2005/01/19 02:00:00",11.28667,18.02,TRADE
SNOWY1,"2005/01/19 02:30:00",18.91667,17.81,TRADE
SNOWY1,"2005/01/19 03:00:00",14.53833,17.73,TRADE
SNOWY1,"2005/01/19 03:30:00",10.89,18.13,TRADE
SNOWY1,"2005/01/19 04:00:00",9.75,18.24,TRADE
SNOWY1,"2005/01/19 04:30:00",14.02667,18.99,TRADE
SNOWY1,"2005/01/19 05:00:00",8.94333,19.26,TRADE
SNOWY1,"2005/01/19 05:30:00",10.58,20.7,TRADE
SNOWY1,"2005/01/19 06:00:00",16.37333,19.69,TRADE
SNOWY1,"2005/01/19 06:30:00",25.68,19.6,TRADE
SNOWY1,"2005/01/19 07:00:00",29.325,20.07,TRADE
SNOWY1,"2005/01/19 07:30:00",39.39167,19.62,TRADE
SNOWY1,"2005/01/19 08:00:00",32.63833,21.21,TRADE
SNOWY1,"2005/01/19 08:30:00",43.81167,21.47,TRADE
SNOWY1,"2005/01/19 09:00:00",27.42,23.24,TRADE
SNOWY1,"2005/01/19 09:30:00",37.275,24.07,TRADE
SNOWY1,"2005/01/19 10:00:00",30.67333,26.31,TRADE
SNOWY1,"2005/01/19 10:30:00",39.31,26.5,TRADE
SNOWY1,"2005/01/19 11:00:00",30.235,27.76,TRADE
SNOWY1,"2005/01/19 11:30:00",41.39333,37.38,TRADE
SNOWY1,"2005/01/19 12:00:00",70.95167,35,TRADE
SNOWY1,"2005/01/19 12:30:00",37.44333,35.03,TRADE
SNOWY1,"2005/01/19 13:00:00",37.95833,35.08,TRADE
SNOWY1,"2005/01/19 13:30:00",32.06167,35.07,TRADE
SNOWY1,"2005/01/19 14:00:00",29.46833,35,TRADE
SNOWY1,"2005/01/19 14:30:00",18.03333,33.75,TRADE
SNOWY1,"2005/01/19 15:00:00",28.19333,34.93,TRADE
SNOWY1,"2005/01/19 15:30:00",37.12167,35,TRADE
SNOWY1,"2005/01/19 16:00:00",34.98333,32.18,TRADE
SNOWY1,"2005/01/19 16:30:00",18.37833,29.34,TRADE
SNOWY1,"2005/01/19 17:00:00",29.55833,27.3,TRADE
SNOWY1,"2005/01/19 17:30:00",22.91,24.21,TRADE
SNOWY1,"2005/01/19 18:00:00",36.455,23.49,TRADE
SNOWY1,"2005/01/19 18:30:00",13.07167,21.5,TRADE
SNOWY1,"2005/01/19 19:00:00",27.145,22.88,TRADE
SNOWY1,"2005/01/19 19:30:00",34.815,21.98,TRADE
SNOWY1,"2005/01/19 20:00:00",22.335,22.22,TRADE
SNOWY1,"2005/01/19 20:30:00",19.81,22.5,TRADE
SNOWY1,"2005/01/19 21:00:00",13.905,20.27,TRADE
SNOWY1,"2005/01/19 21:30:00",18.76833,23.81,TRADE
SNOWY1,"2005/01/19 22:00:00",13.72667,22.21,TRADE
SNOWY1,"2005/01/19 22:30:00",25.02667,23,TRADE
SNOWY1,"2005/01/19 23:00:00",21.17,22.27,TRADE
SNOWY1,"2005/01/19 23:30:00",19.16667,23.55,TRADE
SNOWY1,"2005/01/20 00:00:00",24.98167,22.53,TRADE
SNOWY1,"2005/01/20 00:30:00",18.77667,21.96,TRADE
SNOWY1,"2005/01/20 01:00:00",15.96833,19.91,TRADE
SNOWY1,"2005/01/20 01:30:00",12.82833,20.19,TRADE
SNOWY1,"2005/01/20 02:00:00",48.84667,16.76,TRADE
SNOWY1,"2005/01/20 02:30:00",51.98833,15.03,TRADE
SNOWY1,"2005/01/20 03:00:00",89.34,14.27,TRADE
SNOWY1,"2005/01/20 03:30:00",84.65667,14.78,TRADE
SNOWY1,"2005/01/20 04:00:00",89.57833,14.36,TRADE
SNOWY1,"2005/01/20 04:30:00",88.67667,15.25,TRADE
SNOWY1,"2005/01/20 05:00:00",54.94333,17.14,TRADE
SNOWY1,"2005/01/20 05:30:00",14.21167,19.19,TRADE
SNOWY1,"2005/01/20 06:00:00",12.99,20.36,TRADE
SNOWY1,"2005/01/20 06:30:00",31.195,20.89,TRADE
SNOWY1,"2005/01/20 07:00:00",27.48833,21.94,TRADE
SNOWY1,"2005/01/20 07:30:00",19.315,20.01,TRADE
SNOWY1,"2005/01/20 08:00:00",34.76167,21.22,TRADE
SNOWY1,"2005/01/20 08:30:00",28.92833,21.28,TRADE
SNOWY1,"2005/01/20 09:00:00",21.40333,21.77,TRADE
SNOWY1,"2005/01/20 09:30:00",18.15833,23.26,TRADE
SNOWY1,"2005/01/20 10:00:00",20.54833,23.32,TRADE
SNOWY1,"2005/01/20 10:30:00",21.41833,23.34,TRADE
SNOWY1,"2005/01/20 11:00:00",19.65667,23.39,TRADE
SNOWY1,"2005/01/20 11:30:00",24.84667,23.3,TRADE
SNOWY1,"2005/01/20 12:00:00",19.18167,25.91,TRADE
SNOWY1,"2005/01/20 12:30:00",20.17167,26.5,TRADE
SNOWY1,"2005/01/20 13:00:00",16.78,26.68,TRADE
SNOWY1,"2005/01/20 13:30:00",18.27167,29.63,TRADE
SNOWY1,"2005/01/20 14:00:00",27.495,30.66,TRADE
SNOWY1,"2005/01/20 14:30:00",27.34,32.94,TRADE
SNOWY1,"2005/01/20 15:00:00",32.75333,34.61,TRADE
SNOWY1,"2005/01/20 15:30:00",18.02833,28.68,TRADE
SNOWY1,"2005/01/20 16:00:00",28.44333,26.58,TRADE
SNOWY1,"2005/01/20 16:30:00",19.755,27.06,TRADE
SNOWY1,"2005/01/20 17:00:00",25.63667,24.47,TRADE
SNOWY1,"2005/01/20 17:30:00",14.80167,22.38,TRADE
SNOWY1,"2005/01/20 18:00:00",26.79833,21.87,TRADE
SNOWY1,"2005/01/20 18:30:00",27.71167,19.88,TRADE
SNOWY1,"2005/01/20 19:00:00",18.24833,19.24,TRADE
SNOWY1,"2005/01/20 19:30:00",15.40833,18.99,TRADE
SNOWY1,"2005/01/20 20:00:00",26.545,19.03,TRADE
SNOWY1,"2005/01/20 20:30:00",32.14833,19.42,TRADE
SNOWY1,"2005/01/20 21:00:00",28.57833,18.89,TRADE
SNOWY1,"2005/01/20 21:30:00",20.82667,21.51,TRADE
SNOWY1,"2005/01/20 22:00:00",17.36333,18.46,TRADE
SNOWY1,"2005/01/20 22:30:00",17.98833,20.95,TRADE
SNOWY1,"2005/01/20 23:00:00",9.56833,20.62,TRADE
SNOWY1,"2005/01/20 23:30:00",20.26333,22.17,TRADE
SNOWY1,"2005/01/21 00:00:00",15.71333,20.09,TRADE
SNOWY1,"2005/01/21 00:30:00",14.11833,19.25,TRADE
SNOWY1,"2005/01/21 01:00:00",14.945,18.39,TRADE
SNOWY1,"2005/01/21 01:30:00",18.93,19.41,TRADE
SNOWY1,"2005/01/21 02:00:00",43.52833,15.99,TRADE
SNOWY1,"2005/01/21 02:30:00",79.42167,16,TRADE
SNOWY1,"2005/01/21 03:00:00",82.38833,15.01,TRADE
SNOWY1,"2005/01/21 03:30:00",80.02333,14.96,TRADE
SNOWY1,"2005/01/21 04:00:00",87.33667,14.83,TRADE
SNOWY1,"2005/01/21 04:30:00",81.545,15.51,TRADE
SNOWY1,"2005/01/21 05:00:00",71.84667,18.15,TRADE
SNOWY1,"2005/01/21 05:30:00",16.30667,18.73,TRADE
SNOWY1,"2005/01/21 06:00:00",19.31667,20.57,TRADE
SNOWY1,"2005/01/21 06:30:00",20.46333,18.37,TRADE
SNOWY1,"2005/01/21 07:00:00",24.24833,19.21,TRADE
SNOWY1,"2005/01/21 07:30:00",25.66667,18.84,TRADE
SNOWY1,"2005/01/21 08:00:00",19.6,19.45,TRADE
SNOWY1,"2005/01/21 08:30:00",33.06167,19.37,TRADE
SNOWY1,"2005/01/21 09:00:00",35.58333,21.72,TRADE
SNOWY1,"2005/01/21 09:30:00",22.68667,22.16,TRADE
SNOWY1,"2005/01/21 10:00:00",23.485,22.52,TRADE
SNOWY1,"2005/01/21 10:30:00",24.425,22.6,TRADE
SNOWY1,"2005/01/21 11:00:00",23.46333,22.6,TRADE
SNOWY1,"2005/01/21 11:30:00",16.37,22.59,TRADE
SNOWY1,"2005/01/21 12:00:00",22.415,22.78,TRADE
SNOWY1,"2005/01/21 12:30:00",22.93167,24.99,TRADE
SNOWY1,"2005/01/21 13:00:00",20.19667,24.51,TRADE
SNOWY1,"2005/01/21 13:30:00",21.45333,26.5,TRADE
SNOWY1,"2005/01/21 14:00:00",10.02167,26.5,TRADE
SNOWY1,"2005/01/21 14:30:00",20.3,30.55,TRADE
SNOWY1,"2005/01/21 15:00:00",25.64667,34.54,TRADE
SNOWY1,"2005/01/21 15:30:00",16.40333,28.05,TRADE
SNOWY1,"2005/01/21 16:00:00",17.86333,27.57,TRADE
SNOWY1,"2005/01/21 16:30:00",19.99167,26.43,TRADE
SNOWY1,"2005/01/21 17:00:00",27.37667,25.69,TRADE
SNOWY1,"2005/01/21 17:30:00",26.90167,23.06,TRADE
SNOWY1,"2005/01/21 18:00:00",14.62667,21.69,TRADE
SNOWY1,"2005/01/21 18:30:00",23.07,19.59,TRADE
SNOWY1,"2005/01/21 19:00:00",21.17333,18.8,TRADE
SNOWY1,"2005/01/21 19:30:00",24.71833,19.03,TRADE
SNOWY1,"2005/01/21 20:00:00",17.10333,19.23,TRADE
SNOWY1,"2005/01/21 20:30:00",14.40667,19.37,TRADE
SNOWY1,"2005/01/21 21:00:00",26.12,19.27,TRADE
SNOWY1,"2005/01/21 21:30:00",12.185,20.31,TRADE
SNOWY1,"2005/01/21 22:00:00",18.36833,17.99,TRADE
SNOWY1,"2005/01/21 22:30:00",17.35167,21.77,TRADE
SNOWY1,"2005/01/21 23:00:00",16.515,22.25,TRADE
SNOWY1,"2005/01/21 23:30:00",25.42667,24.2,TRADE
SNOWY1,"2005/01/22 00:00:00",23.19833,22.04,TRADE
SNOWY1,"2005/01/22 00:30:00",11.67667,19.67,TRADE
SNOWY1,"2005/01/22 01:00:00",15.47,19.28,TRADE
SNOWY1,"2005/01/22 01:30:00",20.96333,20.17,TRADE
SNOWY1,"2005/01/22 02:00:00",17.12833,17.77,TRADE
SNOWY1,"2005/01/22 02:30:00",37.47333,15.35,TRADE
SNOWY1,"2005/01/22 03:00:00",55.86167,15.22,TRADE
SNOWY1,"2005/01/22 03:30:00",84.685,13.14,TRADE
SNOWY1,"2005/01/22 04:00:00",78.40833,12.12,TRADE
SNOWY1,"2005/01/22 04:30:00",82.38333,12.63,TRADE
SNOWY1,"2005/01/22 05:00:00",79.58167,14.47,TRADE
SNOWY1,"2005/01/22 05:30:00",85.50333,14.26,TRADE
SNOWY1,"2005/01/22 06:00:00",81.25333,15.21,TRADE
SNOWY1,"2005/01/22 06:30:00",82.195,13.78,TRADE
SNOWY1,"2005/01/22 07:00:00",84.00333,15.18,TRADE
SNOWY1,"2005/01/22 07:30:00",92.03333,15.38,TRADE
SNOWY1,"2005/01/22 08:00:00",52.09667,16.57,TRADE
SNOWY1,"2005/01/22 08:30:00",37.47,19,TRADE
SNOWY1,"2005/01/22 09:00:00",18.27333,19.52,TRADE
SNOWY1,"2005/01/22 09:30:00",20.465,20.66,TRADE
SNOWY1,"2005/01/22 10:00:00",22.635,21.22,TRADE
SNOWY1,"2005/01/22 10:30:00",13.97167,22.22,TRADE
SNOWY1,"2005/01/22 11:00:00",22.37167,22.21,TRADE
SNOWY1,"2005/01/22 11:30:00",16.38833,22.23,TRADE
SNOWY1,"2005/01/22 12:00:00",14.50333,22.12,TRADE
SNOWY1,"2005/01/22 12:30:00",16.17,22.12,TRADE
SNOWY1,"2005/01/22 13:00:00",19.92833,22.05,TRADE
SNOWY1,"2005/01/22 13:30:00",10.91667,25.78,TRADE
SNOWY1,"2005/01/22 14:00:00",31.615,23.88,TRADE
SNOWY1,"2005/01/22 14:30:00",17.725,21.94,TRADE
SNOWY1,"2005/01/22 15:00:00",15.84,21.91,TRADE
SNOWY1,"2005/01/22 15:30:00",21.26,21.95,TRADE
SNOWY1,"2005/01/22 16:00:00",9.01333,22.02,TRADE
SNOWY1,"2005/01/22 16:30:00",24.55833,22.04,TRADE
SNOWY1,"2005/01/22 17:00:00",13.035,22.05,TRADE
SNOWY1,"2005/01/22 17:30:00",18.865,23.65,TRADE
SNOWY1,"2005/01/22 18:00:00",21.93667,25.14,TRADE
SNOWY1,"2005/01/22 18:30:00",16.56333,22.58,TRADE
SNOWY1,"2005/01/22 19:00:00",12.07333,21.49,TRADE
SNOWY1,"2005/01/22 19:30:00",6.505,21.42,TRADE
SNOWY1,"2005/01/22 20:00:00",22.69167,21.28,TRADE
SNOWY1,"2005/01/22 20:30:00",12.98167,21.39,TRADE
SNOWY1,"2005/01/22 21:00:00",21.39333,19.81,TRADE
SNOWY1,"2005/01/22 21:30:00",20.065,18.98,TRADE
SNOWY1,"2005/01/22 22:00:00",15.86667,19.46,TRADE
SNOWY1,"2005/01/22 22:30:00",9.39,22.13,TRADE
SNOWY1,"2005/01/22 23:00:00",13.20833,22.2,TRADE
SNOWY1,"2005/01/22 23:30:00",24.45,22.84,TRADE
SNOWY1,"2005/01/23 00:00:00",12.145,22.36,TRADE
SNOWY1,"2005/01/23 00:30:00",16.74167,21.17,TRADE
SNOWY1,"2005/01/23 01:00:00",11.20333,19.8,TRADE
SNOWY1,"2005/01/23 01:30:00",19.64667,21.94,TRADE
SNOWY1,"2005/01/23 02:00:00",14.85,19.7,TRADE
SNOWY1,"2005/01/23 02:30:00",25.825,16.27,TRADE
SNOWY1,"2005/01/23 03:00:00",83.50333,16.32,TRADE
SNOWY1,"2005/01/23 03:30:00",87.515,14.43,TRADE
SNOWY1,"2005/01/23 04:00:00",81.69,13.79,TRADE
SNOWY1,"2005/01/23 04:30:00",87.81833,14.65,TRADE
SNOWY1,"2005/01/23 05:00:00",83.10833,14.64,TRADE
SNOWY1,"2005/01/23 05:30:00",78.82667,14.73,TRADE
SNOWY1,"2005/01/23 06:00:00",81.675,13.32,TRADE
SNOWY1,"2005/01/23 06:30:00",94.70833,14.62,TRADE
SNOWY1,"2005/01/23 07:00:00",82.62333,14.21,TRADE
SNOWY1,"2005/01/23 07:30:00",80.65667,14.54,TRADE
SNOWY1,"2005/01/23 08:00:00",84.72,15.5,TRADE
SNOWY1,"2005/01/23 08:30:00",64.715,17.56,TRADE
SNOWY1,"2005/01/23 09:00:00",15.875,18.45,TRADE
SNOWY1,"2005/01/23 09:30:00",9.03167,19.02,TRADE
SNOWY1,"2005/01/23 10:00:00",14.22333,18.91,TRADE
SNOWY1,"2005/01/23 10:30:00",16.86167,19.4,TRADE
SNOWY1,"2005/01/23 11:00:00",20.90667,21.5,TRADE
SNOWY1,"2005/01/23 11:30:00",14.52833,21.39,TRADE
SNOWY1,"2005/01/23 12:00:00",19.25167,21.49,TRADE
SNOWY1,"2005/01/23 12:30:00",16.64167,21.62,TRADE
SNOWY1,"2005/01/23 13:00:00",22.15167,21.42,TRADE
SNOWY1,"2005/01/23 13:30:00",12.49167,21.66,TRADE
SNOWY1,"2005/01/23 14:00:00",20.745,20.68,TRADE
SNOWY1,"2005/01/23 14:30:00",14.05833,21.73,TRADE
SNOWY1,"2005/01/23 15:00:00",12.82333,22.15,TRADE
SNOWY1,"2005/01/23 15:30:00",41.46167,22.25,TRADE
SNOWY1,"2005/01/23 16:00:00",26.14167,22.44,TRADE
SNOWY1,"2005/01/23 16:30:00",18.08333,22.43,TRADE
SNOWY1,"2005/01/23 17:00:00",21.59333,22.41,TRADE
SNOWY1,"2005/01/23 17:30:00",21.815,22.48,TRADE
SNOWY1,"2005/01/23 18:00:00",29.44167,22.39,TRADE
SNOWY1,"2005/01/23 18:30:00",16.8,22.03,TRADE
SNOWY1,"2005/01/23 19:00:00",24.20833,21.68,TRADE
SNOWY1,"2005/01/23 19:30:00",23.41333,21.77,TRADE
SNOWY1,"2005/01/23 20:00:00",22.73333,21.81,TRADE
SNOWY1,"2005/01/23 20:30:00",31.77167,21.45,TRADE
SNOWY1,"2005/01/23 21:00:00",27.09,18.77,TRADE
SNOWY1,"2005/01/23 21:30:00",19.39833,18.45,TRADE
SNOWY1,"2005/01/23 22:00:00",17.84167,17.56,TRADE
SNOWY1,"2005/01/23 22:30:00",24,19.08,TRADE
SNOWY1,"2005/01/23 23:00:00",14.73667,19.3,TRADE
SNOWY1,"2005/01/23 23:30:00",12.21333,19.97,TRADE
SNOWY1,"2005/01/24 00:00:00",12.84833,18.46,TRADE
SNOWY1,"2005/01/24 00:30:00",28.28833,17.27,TRADE
SNOWY1,"2005/01/24 01:00:00",51.89167,17.02,TRADE
SNOWY1,"2005/01/24 01:30:00",57.72667,19.38,TRADE
SNOWY1,"2005/01/24 02:00:00",57.72833,16.29,TRADE
SNOWY1,"2005/01/24 02:30:00",91.98,16.13,TRADE
SNOWY1,"2005/01/24 03:00:00",90.005,15.23,TRADE
SNOWY1,"2005/01/24 03:30:00",81.45833,14.89,TRADE
SNOWY1,"2005/01/24 04:00:00",79.55667,14.8,TRADE
SNOWY1,"2005/01/24 04:30:00",84.01833,15.94,TRADE
SNOWY1,"2005/01/24 05:00:00",55.135,18.13,TRADE
SNOWY1,"2005/01/24 05:30:00",15.69667,20.3,TRADE
SNOWY1,"2005/01/24 06:00:00",20.755,21.9,TRADE
SNOWY1,"2005/01/24 06:30:00",19.72167,19.98,TRADE
SNOWY1,"2005/01/24 07:00:00",24.015,21.56,TRADE
SNOWY1,"2005/01/24 07:30:00",19.42667,21.47,TRADE
SNOWY1,"2005/01/24 08:00:00",11.36,23.4,TRADE
SNOWY1,"2005/01/24 08:30:00",27.72333,23.73,TRADE
SNOWY1,"2005/01/24 09:00:00",14.085,25.55,TRADE
SNOWY1,"2005/01/24 09:30:00",16.66167,26.68,TRADE
SNOWY1,"2005/01/24 10:00:00",12.49,26.6,TRADE
SNOWY1,"2005/01/24 10:30:00",7.80333,26.5,TRADE
SNOWY1,"2005/01/24 11:00:00",17.6,29.39,TRADE
SNOWY1,"2005/01/24 11:30:00",19.48833,30.97,TRADE
SNOWY1,"2005/01/24 12:00:00",14.51833,29.71,TRADE
SNOWY1,"2005/01/24 12:30:00",12.13,32.64,TRADE
SNOWY1,"2005/01/24 13:00:00",56.875,35.02,TRADE
SNOWY1,"2005/01/24 13:30:00",46.655,35.54,TRADE
SNOWY1,"2005/01/24 14:00:00",12.65833,34.92,TRADE
SNOWY1,"2005/01/24 14:30:00",14.395,34.95,TRADE
SNOWY1,"2005/01/24 15:00:00",24.17667,35.08,TRADE
SNOWY1,"2005/01/24 15:30:00",37.86333,35.23,TRADE
SNOWY1,"2005/01/24 16:00:00",26.43833,35.03,TRADE
SNOWY1,"2005/01/24 16:30:00",20.58,35,TRADE
SNOWY1,"2005/01/24 17:00:00",22.71,35,TRADE
SNOWY1,"2005/01/24 17:30:00",20.65,26.13,TRADE
SNOWY1,"2005/01/24 18:00:00",27.12167,24.15,TRADE
SNOWY1,"2005/01/24 18:30:00",23.75333,22.44,TRADE
SNOWY1,"2005/01/24 19:00:00",25.84167,21.65,TRADE
SNOWY1,"2005/01/24 19:30:00",13.3,21.81,TRADE
SNOWY1,"2005/01/24 20:00:00",33.50667,22.63,TRADE
SNOWY1,"2005/01/24 20:30:00",22.28167,23.67,TRADE
SNOWY1,"2005/01/24 21:00:00",31.35667,23.14,TRADE
SNOWY1,"2005/01/24 21:30:00",16.76333,23.57,TRADE
SNOWY1,"2005/01/24 22:00:00",24.11333,21.54,TRADE
SNOWY1,"2005/01/24 22:30:00",20.05,23.33,TRADE
SNOWY1,"2005/01/24 23:00:00",15.81,23.65,TRADE
SNOWY1,"2005/01/24 23:30:00",19.305,26.13,TRADE
SNOWY1,"2005/01/25 00:00:00",35.86333,23.68,TRADE
SNOWY1,"2005/01/25 00:30:00",50.055,22.71,TRADE
SNOWY1,"2005/01/25 01:00:00",17.83833,19.57,TRADE
SNOWY1,"2005/01/25 01:30:00",17.68833,20.73,TRADE
SNOWY1,"2005/01/25 02:00:00",42.98,18.03,TRADE
SNOWY1,"2005/01/25 02:30:00",67.295,15.4,TRADE
SNOWY1,"2005/01/25 03:00:00",91.19,14.69,TRADE
SNOWY1,"2005/01/25 03:30:00",79.97333,14.4,TRADE
SNOWY1,"2005/01/25 04:00:00",85.335,14.76,TRADE
SNOWY1,"2005/01/25 04:30:00",88.065,16.17,TRADE
SNOWY1,"2005/01/25 05:00:00",68.815,17.6,TRADE
SNOWY1,"2005/01/25 05:30:00",48.75333,20.46,TRADE
SNOWY1,"2005/01/25 06:00:00",22.35167,20.33,TRADE
SNOWY1,"2005/01/25 06:30:00",33.675,22.13,TRADE
SNOWY1,"2005/01/25 07:00:00",27.21167,23.23,TRADE
SNOWY1,"2005/01/25 07:30:00",31.555,23.04,TRADE
SNOWY1,"2005/01/25 08:00:00",34.40833,23.26,TRADE
SNOWY1,"2005/01/25 08:30:00",26.875,23.3,TRADE
SNOWY1,"2005/01/25 09:00:00",9.71667,24.16,TRADE
SNOWY1,"2005/01/25 09:30:00",17.85667,23.91,TRADE
SNOWY1,"2005/01/25 10:00:00",12.985,24.03,TRADE
SNOWY1,"2005/01/25 10:30:00",16.3,25.7,TRADE
SNOWY1,"2005/01/25 11:00:00",35.88167,28.66,TRADE
SNOWY1,"2005/01/25 11:30:00",21.89167,34.28,TRADE
SNOWY1,"2005/01/25 12:00:00",61.145,35.6,TRADE
SNOWY1,"2005/01/25 12:30:00",35.985,35.4,TRADE
SNOWY1,"2005/01/25 13:00:00",55.295,39.13,TRADE
SNOWY1,"2005/01/25 13:30:00",47.68333,41.9,TRADE
SNOWY1,"2005/01/25 14:00:00",54.26333,39.42,TRADE
SNOWY1,"2005/01/25 14:30:00",38.36333,35.1,TRADE
SNOWY1,"2005/01/25 15:00:00",64.87333,35.07,TRADE
SNOWY1,"2005/01/25 15:30:00",38.58667,34.97,TRADE
SNOWY1,"2005/01/25 16:00:00",58.58,34.94,TRADE
SNOWY1,"2005/01/25 16:30:00",67.05333,34.93,TRADE
SNOWY1,"2005/01/25 17:00:00",46.66667,30.02,TRADE
SNOWY1,"2005/01/25 17:30:00",48.74167,26.29,TRADE
SNOWY1,"2005/01/25 18:00:00",22.36833,25.51,TRADE
SNOWY1,"2005/01/25 18:30:00",30.445,24.75,TRADE
SNOWY1,"2005/01/25 19:00:00",13.90167,24.65,TRADE
SNOWY1,"2005/01/25 19:30:00",6.75333,25.56,TRADE
SNOWY1,"2005/01/25 20:00:00",16.84167,24.51,TRADE
SNOWY1,"2005/01/25 20:30:00",19.68667,25.17,TRADE
SNOWY1,"2005/01/25 21:00:00",16.98167,24.07,TRADE
SNOWY1,"2005/01/25 21:30:00",28.48,25.77,TRADE
SNOWY1,"2005/01/25 22:00:00",36.7,22.66,TRADE
SNOWY1,"2005/01/25 22:30:00",24.73167,23.84,TRADE
SNOWY1,"2005/01/25 23:00:00",17.64167,24.73,TRADE
SNOWY1,"2005/01/25 23:30:00",19.47,26.89,TRADE
SNOWY1,"2005/01/26 00:00:00",16.44667,24.27,TRADE
SNOWY1,"2005/01/26 00:30:00",24.27833,22.82,TRADE
SNOWY1,"2005/01/26 01:00:00",15.08333,20.43,TRADE
SNOWY1,"2005/01/26 01:30:00",13.79667,21.74,TRADE
SNOWY1,"2005/01/26 02:00:00",23.78667,19.09,TRADE
SNOWY1,"2005/01/26 02:30:00",52.81667,19.93,TRADE
SNOWY1,"2005/01/26 03:00:00",52.43,18.85,TRADE
SNOWY1,"2005/01/26 03:30:00",48.99,19.45,TRADE
SNOWY1,"2005/01/26 04:00:00",49.16167,18.92,TRADE
SNOWY1,"2005/01/26 04:30:00",50.05,16.99,TRADE
SNOWY1,"2005/01/26 05:00:00",44.70167,17.9,TRADE
SNOWY1,"2005/01/26 05:30:00",35.405,18.97,TRADE
SNOWY1,"2005/01/26 06:00:00",20.34333,17.5,TRADE
SNOWY1,"2005/01/26 06:30:00",24.2,17.71,TRADE
SNOWY1,"2005/01/26 07:00:00",19.24,17.6,TRADE
SNOWY1,"2005/01/26 07:30:00",24.985,18.42,TRADE
SNOWY1,"2005/01/26 08:00:00",18.79167,20.63,TRADE
SNOWY1,"2005/01/26 08:30:00",27.73833,21.65,TRADE
SNOWY1,"2005/01/26 09:00:00",18.53667,22.67,TRADE
SNOWY1,"2005/01/26 09:30:00",19.53167,23.7,TRADE
SNOWY1,"2005/01/26 10:00:00",25.43833,24.9,TRADE
SNOWY1,"2005/01/26 10:30:00",14.445,26.46,TRADE
SNOWY1,"2005/01/26 11:00:00",12.68,27.2,TRADE
SNOWY1,"2005/01/26 11:30:00",14.43,27.29,TRADE
SNOWY1,"2005/01/26 12:00:00",14.99167,27.86,TRADE
SNOWY1,"2005/01/26 12:30:00",18.74667,26.7,TRADE
SNOWY1,"2005/01/26 13:00:00",15.67833,26.5,TRADE
SNOWY1,"2005/01/26 13:30:00",29.15,26.37,TRADE
SNOWY1,"2005/01/26 14:00:00",21.45,27.44,TRADE
SNOWY1,"2005/01/26 14:30:00",26.12667,28.13,TRADE
SNOWY1,"2005/01/26 15:00:00",12.59333,26.72,TRADE
SNOWY1,"2005/01/26 15:30:00",25.825,26.5,TRADE
SNOWY1,"2005/01/26 16:00:00",23.63333,26.5,TRADE
SNOWY1,"2005/01/26 16:30:00",15.09,25.91,TRADE
SNOWY1,"2005/01/26 17:00:00",22.85,25.4,TRADE
SNOWY1,"2005/01/26 17:30:00",30.60833,24.72,TRADE
SNOWY1,"2005/01/26 18:00:00",27.435,24.74,TRADE
SNOWY1,"2005/01/26 18:30:00",26.725,24.53,TRADE
SNOWY1,"2005/01/26 19:00:00",20.60667,24.48,TRADE
SNOWY1,"2005/01/26 19:30:00",28.43833,24.62,TRADE
SNOWY1,"2005/01/26 20:00:00",20.665,24.35,TRADE
SNOWY1,"2005/01/26 20:30:00",28.53,25.36,TRADE
SNOWY1,"2005/01/26 21:00:00",33.86,23.35,TRADE
SNOWY1,"2005/01/26 21:30:00",24.505,22.43,TRADE
SNOWY1,"2005/01/26 22:00:00",19.68667,21.62,TRADE
SNOWY1,"2005/01/26 22:30:00",18.28833,23.83,TRADE
SNOWY1,"2005/01/26 23:00:00",29.20833,23.57,TRADE
SNOWY1,"2005/01/26 23:30:00",26.77667,25.47,TRADE
SNOWY1,"2005/01/27 00:00:00",26.755,23.21,TRADE
SNOWY1,"2005/01/27 00:30:00",24.33667,18.6,TRADE
SNOWY1,"2005/01/27 01:00:00",22.20667,17.67,TRADE
SNOWY1,"2005/01/27 01:30:00",22.89833,19.31,TRADE
SNOWY1,"2005/01/27 02:00:00",57.79667,17.52,TRADE
SNOWY1,"2005/01/27 02:30:00",68.39667,14.44,TRADE
SNOWY1,"2005/01/27 03:00:00",90.68667,14.75,TRADE
SNOWY1,"2005/01/27 03:30:00",88.37167,14.12,TRADE
SNOWY1,"2005/01/27 04:00:00",91.38167,14.25,TRADE
SNOWY1,"2005/01/27 04:30:00",64.59667,18.72,TRADE
SNOWY1,"2005/01/27 05:00:00",55.40833,16.66,TRADE
SNOWY1,"2005/01/27 05:30:00",35.725,20.77,TRADE
SNOWY1,"2005/01/27 06:00:00",32.845,21.25,TRADE
SNOWY1,"2005/01/27 06:30:00",14.46,21.37,TRADE
SNOWY1,"2005/01/27 07:00:00",18.24167,23.49,TRADE
SNOWY1,"2005/01/27 07:30:00",40.01,23.93,TRADE
SNOWY1,"2005/01/27 08:00:00",38.15,25.49,TRADE
SNOWY1,"2005/01/27 08:30:00",25.48167,25.64,TRADE
SNOWY1,"2005/01/27 09:00:00",51.89833,27.04,TRADE
SNOWY1,"2005/01/27 09:30:00",25.86333,27.27,TRADE
SNOWY1,"2005/01/27 10:00:00",22.24833,28.23,TRADE
SNOWY1,"2005/01/27 10:30:00",21.93333,29.99,TRADE
SNOWY1,"2005/01/27 11:00:00",19.785,28.33,TRADE
SNOWY1,"2005/01/27 11:30:00",37.96667,27.11,TRADE
SNOWY1,"2005/01/27 12:00:00",27.23,29.06,TRADE
SNOWY1,"2005/01/27 12:30:00",41.695,28.88,TRADE
SNOWY1,"2005/01/27 13:00:00",23.71833,29.21,TRADE
SNOWY1,"2005/01/27 13:30:00",18.40333,34.08,TRADE
SNOWY1,"2005/01/27 14:00:00",53.65167,35.1,TRADE
SNOWY1,"2005/01/27 14:30:00",22.57833,35.07,TRADE
SNOWY1,"2005/01/27 15:00:00",26.22167,34.9,TRADE
SNOWY1,"2005/01/27 15:30:00",14.42333,29.57,TRADE
SNOWY1,"2005/01/27 16:00:00",16.85167,29.75,TRADE
SNOWY1,"2005/01/27 16:30:00",8.165,29.42,TRADE
SNOWY1,"2005/01/27 17:00:00",23.05667,29.21,TRADE
SNOWY1,"2005/01/27 17:30:00",5.43833,28.44,TRADE
SNOWY1,"2005/01/27 18:00:00",13.585,26.29,TRADE
SNOWY1,"2005/01/27 18:30:00",19.42,24.27,TRADE
SNOWY1,"2005/01/27 19:00:00",8.95167,23.76,TRADE
SNOWY1,"2005/01/27 19:30:00",7.52667,26.5,TRADE
SNOWY1,"2005/01/27 20:00:00",13.88167,26.43,TRADE
SNOWY1,"2005/01/27 20:30:00",15.19667,25.81,TRADE
SNOWY1,"2005/01/27 21:00:00",6.00167,24.62,TRADE
SNOWY1,"2005/01/27 21:30:00",14.24,26.25,TRADE
SNOWY1,"2005/01/27 22:00:00",17.42833,23.15,TRADE
SNOWY1,"2005/01/27 22:30:00",18.39333,25.03,TRADE
SNOWY1,"2005/01/27 23:00:00",20.33667,24.67,TRADE
SNOWY1,"2005/01/27 23:30:00",25.09,26.82,TRADE
SNOWY1,"2005/01/28 00:00:00",26.24,25.17,TRADE
SNOWY1,"2005/01/28 00:30:00",20.57333,22.2,TRADE
SNOWY1,"2005/01/28 01:00:00",11.42833,20.46,TRADE
SNOWY1,"2005/01/28 01:30:00",63.08,20.93,TRADE
SNOWY1,"2005/01/28 02:00:00",49.48667,17.38,TRADE
SNOWY1,"2005/01/28 02:30:00",67.55833,17.09,TRADE
SNOWY1,"2005/01/28 03:00:00",84.53667,15.75,TRADE
SNOWY1,"2005/01/28 03:30:00",86.06333,14.73,TRADE
SNOWY1,"2005/01/28 04:00:00",85.91167,15.42,TRADE
SNOWY1,"2005/01/28 04:30:00",87.8,17.17,TRADE
SNOWY1,"2005/01/28 05:00:00",81.885,19.88,TRADE
SNOWY1,"2005/01/28 05:30:00",100.84167,22.57,TRADE
SNOWY1,"2005/01/28 06:00:00",93.24167,22.89,TRADE
SNOWY1,"2005/01/28 06:30:00",58.25333,24.62,TRADE
SNOWY1,"2005/01/28 07:00:00",30.03667,25.58,TRADE
SNOWY1,"2005/01/28 07:30:00",15.67333,25.12,TRADE
SNOWY1,"2005/01/28 08:00:00",37.06,28.24,TRADE
SNOWY1,"2005/01/28 08:30:00",46.775,29.61,TRADE
SNOWY1,"2005/01/28 09:00:00",30.31667,35.1,TRADE
SNOWY1,"2005/01/28 09:30:00",27.80333,35.1,TRADE
SNOWY1,"2005/01/28 10:00:00",25.45167,35.1,TRADE
SNOWY1,"2005/01/28 10:30:00",38.13833,35.1,TRADE
SNOWY1,"2005/01/28 11:00:00",35.78833,38.62,TRADE
SNOWY1,"2005/01/28 11:30:00",25.78167,38.4,TRADE
SNOWY1,"2005/01/28 12:00:00",33.81333,41.93,TRADE
SNOWY1,"2005/01/28 12:30:00",53.03333,42.1,TRADE
SNOWY1,"2005/01/28 13:00:00",29.38667,53.06,TRADE
SNOWY1,"2005/01/28 13:30:00",27.75,46.28,TRADE
SNOWY1,"2005/01/28 14:00:00",26.505,43.35,TRADE
SNOWY1,"2005/01/28 14:30:00",26.915,49.08,TRADE
SNOWY1,"2005/01/28 15:00:00",20.03,73.38,TRADE
SNOWY1,"2005/01/28 15:30:00",26.515,44.52,TRADE
SNOWY1,"2005/01/28 16:00:00",19.36333,43.26,TRADE
SNOWY1,"2005/01/28 16:30:00",23.77,40.22,TRADE
SNOWY1,"2005/01/28 17:00:00",20.525,39.22,TRADE
SNOWY1,"2005/01/28 17:30:00",7.27333,33.48,TRADE
SNOWY1,"2005/01/28 18:00:00",12.55,28.6,TRADE
SNOWY1,"2005/01/28 18:30:00",12.13167,23.38,TRADE
SNOWY1,"2005/01/28 19:00:00",21.01167,23.66,TRADE
SNOWY1,"2005/01/28 19:30:00",12.13667,23.67,TRADE
SNOWY1,"2005/01/28 20:00:00",15.12667,25.34,TRADE
SNOWY1,"2005/01/28 20:30:00",14.7,27.32,TRADE
SNOWY1,"2005/01/28 21:00:00",28.565,24.91,TRADE
SNOWY1,"2005/01/28 21:30:00",26.67333,26.62,TRADE
SNOWY1,"2005/01/28 22:00:00",10.85333,27.28,TRADE
SNOWY1,"2005/01/28 22:30:00",28.06,31.14,TRADE
SNOWY1,"2005/01/28 23:00:00",12.41833,30.03,TRADE
SNOWY1,"2005/01/28 23:30:00",16.575,33.19,TRADE
SNOWY1,"2005/01/29 00:00:00",23.51167,26.5,TRADE
SNOWY1,"2005/01/29 00:30:00",25.895,26.68,TRADE
SNOWY1,"2005/01/29 01:00:00",29.78833,25.02,TRADE
SNOWY1,"2005/01/29 01:30:00",42.60167,26.33,TRADE
SNOWY1,"2005/01/29 02:00:00",20.66333,25.02,TRADE
SNOWY1,"2005/01/29 02:30:00",24.205,24.61,TRADE
SNOWY1,"2005/01/29 03:00:00",22.13167,22.48,TRADE
SNOWY1,"2005/01/29 03:30:00",56.52333,21.48,TRADE
SNOWY1,"2005/01/29 04:00:00",23.79667,21.11,TRADE
SNOWY1,"2005/01/29 04:30:00",22.33667,20.75,TRADE
SNOWY1,"2005/01/29 05:00:00",23.435,23.03,TRADE
SNOWY1,"2005/01/29 05:30:00",23.93333,25.63,TRADE
SNOWY1,"2005/01/29 06:00:00",29.12,19.5,TRADE
SNOWY1,"2005/01/29 06:30:00",31.31,18.28,TRADE
SNOWY1,"2005/01/29 07:00:00",23.40833,20.43,TRADE
SNOWY1,"2005/01/29 07:30:00",39.90833,20.66,TRADE
SNOWY1,"2005/01/29 08:00:00",28.13333,22.22,TRADE
SNOWY1,"2005/01/29 08:30:00",22.69167,23.42,TRADE
SNOWY1,"2005/01/29 09:00:00",27.345,23.5,TRADE
SNOWY1,"2005/01/29 09:30:00",23.8,25.95,TRADE
SNOWY1,"2005/01/29 10:00:00",24.38667,27.06,TRADE
SNOWY1,"2005/01/29 10:30:00",25.06,27.2,TRADE
SNOWY1,"2005/01/29 11:00:00",22.65333,27.31,TRADE
SNOWY1,"2005/01/29 11:30:00",33.73667,26.76,TRADE
SNOWY1,"2005/01/29 12:00:00",27.94,26.7,TRADE
SNOWY1,"2005/01/29 12:30:00",23.00667,27.97,TRADE
SNOWY1,"2005/01/29 13:00:00",26.19667,30.27,TRADE
SNOWY1,"2005/01/29 13:30:00",16.95167,31.91,TRADE
SNOWY1,"2005/01/29 14:00:00",30.32833,34.7,TRADE
SNOWY1,"2005/01/29 14:30:00",25.96167,33.65,TRADE
SNOWY1,"2005/01/29 15:00:00",28.18333,34.39,TRADE
SNOWY1,"2005/01/29 15:30:00",30.15667,34.9,TRADE
SNOWY1,"2005/01/29 16:00:00",25.79333,34.9,TRADE
SNOWY1,"2005/01/29 16:30:00",13.40167,33.72,TRADE
SNOWY1,"2005/01/29 17:00:00",23.515,34.77,TRADE
SNOWY1,"2005/01/29 17:30:00",32.46833,31.97,TRADE
SNOWY1,"2005/01/29 18:00:00",28.67333,26.58,TRADE
SNOWY1,"2005/01/29 18:30:00",18.25,26.2,TRADE
SNOWY1,"2005/01/29 19:00:00",16.575,23.39,TRADE
SNOWY1,"2005/01/29 19:30:00",27.63667,26.4,TRADE
SNOWY1,"2005/01/29 20:00:00",25.035,25.84,TRADE
SNOWY1,"2005/01/29 20:30:00",20.33,24.2,TRADE
SNOWY1,"2005/01/29 21:00:00",24.42667,21.9,TRADE
SNOWY1,"2005/01/29 21:30:00",30.90667,22.08,TRADE
SNOWY1,"2005/01/29 22:00:00",22.29333,21.08,TRADE
SNOWY1,"2005/01/29 22:30:00",20.05333,24.11,TRADE
SNOWY1,"2005/01/29 23:00:00",19.98833,24.53,TRADE
SNOWY1,"2005/01/29 23:30:00",14.46333,24.07,TRADE
SNOWY1,"2005/01/30 00:00:00",19.06667,24.19,TRADE
SNOWY1,"2005/01/30 00:30:00",17.675,23.17,TRADE
SNOWY1,"2005/01/30 01:00:00",10.33167,20.75,TRADE
SNOWY1,"2005/01/30 01:30:00",24.38,22.32,TRADE
SNOWY1,"2005/01/30 02:00:00",16.94,19.46,TRADE
SNOWY1,"2005/01/30 02:30:00",17.99333,18.08,TRADE
SNOWY1,"2005/01/30 03:00:00",45.38167,16.2,TRADE
SNOWY1,"2005/01/30 03:30:00",49.64833,14.71,TRADE
SNOWY1,"2005/01/30 04:00:00",52.71667,13.66,TRADE
SNOWY1,"2005/01/30 04:30:00",54.725,13.46,TRADE
SNOWY1,"2005/01/30 05:00:00",48.27833,13.83,TRADE
SNOWY1,"2005/01/30 05:30:00",47.61,13.95,TRADE
SNOWY1,"2005/01/30 06:00:00",45.75,13.96,TRADE
SNOWY1,"2005/01/30 06:30:00",57.70167,13.28,TRADE
SNOWY1,"2005/01/30 07:00:00",58.46333,14.15,TRADE
SNOWY1,"2005/01/30 07:30:00",61.06833,14.64,TRADE
SNOWY1,"2005/01/30 08:00:00",57.99333,15.1,TRADE
SNOWY1,"2005/01/30 08:30:00",55.45,16.19,TRADE
SNOWY1,"2005/01/30 09:00:00",54.34833,17.09,TRADE
SNOWY1,"2005/01/30 09:30:00",20.42167,18.84,TRADE
SNOWY1,"2005/01/30 10:00:00",25.37833,19.43,TRADE
SNOWY1,"2005/01/30 10:30:00",25.145,19.68,TRADE
SNOWY1,"2005/01/30 11:00:00",17.13833,21.04,TRADE
SNOWY1,"2005/01/30 11:30:00",21.125,21.39,TRADE
SNOWY1,"2005/01/30 12:00:00",26.89,21.42,TRADE
SNOWY1,"2005/01/30 12:30:00",15.61,21.39,TRADE
SNOWY1,"2005/01/30 13:00:00",7.8,21.47,TRADE
SNOWY1,"2005/01/30 13:30:00",23.51333,21.39,TRADE
SNOWY1,"2005/01/30 14:00:00",18.865,21.39,TRADE
SNOWY1,"2005/01/30 14:30:00",27.12,21.41,TRADE
SNOWY1,"2005/01/30 15:00:00",32.745,21.57,TRADE
SNOWY1,"2005/01/30 15:30:00",25.83833,22.03,TRADE
SNOWY1,"2005/01/30 16:00:00",25.295,22.27,TRADE
SNOWY1,"2005/01/30 16:30:00",26.36833,22.38,TRADE
SNOWY1,"2005/01/30 17:00:00",26.275,22.83,TRADE
SNOWY1,"2005/01/30 17:30:00",17.70833,22.46,TRADE
SNOWY1,"2005/01/30 18:00:00",14,22.3,TRADE
SNOWY1,"2005/01/30 18:30:00",17.91333,22.3,TRADE
SNOWY1,"2005/01/30 19:00:00",20.37833,22.13,TRADE
SNOWY1,"2005/01/30 19:30:00",13.36167,22.01,TRADE
SNOWY1,"2005/01/30 20:00:00",30.10833,22.11,TRADE
SNOWY1,"2005/01/30 20:30:00",30.48833,22.05,TRADE
SNOWY1,"2005/01/30 21:00:00",19.13167,19.84,TRADE
SNOWY1,"2005/01/30 21:30:00",27.84,18.48,TRADE
SNOWY1,"2005/01/30 22:00:00",25.70167,17.97,TRADE
SNOWY1,"2005/01/30 22:30:00",20.07167,22.69,TRADE
SNOWY1,"2005/01/30 23:00:00",13.85667,22.12,TRADE
SNOWY1,"2005/01/30 23:30:00",17.36833,21.37,TRADE
SNOWY1,"2005/01/31 00:00:00",20.22167,18.76,TRADE
SNOWY1,"2005/01/31 00:30:00",25.245,17.3,TRADE
SNOWY1,"2005/01/31 01:00:00",49.19167,17.53,TRADE
SNOWY1,"2005/01/31 01:30:00",51.315,18.13,TRADE
SNOWY1,"2005/01/31 02:00:00",48.39667,14.84,TRADE
SNOWY1,"2005/01/31 02:30:00",51.40833,15.88,TRADE
SNOWY1,"2005/01/31 03:00:00",48.325,14.93,TRADE
SNOWY1,"2005/01/31 03:30:00",46.16667,15.12,TRADE
SNOWY1,"2005/01/31 04:00:00",41.15167,15.05,TRADE
SNOWY1,"2005/01/31 04:30:00",18.05,15.37,TRADE
SNOWY1,"2005/01/31 05:00:00",13.44667,17.78,TRADE
SNOWY1,"2005/01/31 05:30:00",22.34333,20.63,TRADE
SNOWY1,"2005/01/31 06:00:00",26.05333,20.18,TRADE
SNOWY1,"2005/01/31 06:30:00",29.86667,21.63,TRADE
SNOWY1,"2005/01/31 07:00:00",27.29833,22.31,TRADE
SNOWY1,"2005/01/31 07:30:00",23.60167,21.85,TRADE
SNOWY1,"2005/01/31 08:00:00",19.58167,22.39,TRADE
SNOWY1,"2005/01/31 08:30:00",39.92,22.3,TRADE
SNOWY1,"2005/01/31 09:00:00",24.56,22.9,TRADE
SNOWY1,"2005/01/31 09:30:00",26.95833,23.05,TRADE
SNOWY1,"2005/01/31 10:00:00",26.78,23.34,TRADE
SNOWY1,"2005/01/31 10:30:00",13.4,23.68,TRADE
SNOWY1,"2005/01/31 11:00:00",39.125,26.56,TRADE
SNOWY1,"2005/01/31 11:30:00",29.25,26.63,TRADE
SNOWY1,"2005/01/31 12:00:00",34.39167,29.46,TRADE
SNOWY1,"2005/01/31 12:30:00",27.22667,34.7,TRADE
SNOWY1,"2005/01/31 13:00:00",13.47167,35.1,TRADE
SNOWY1,"2005/01/31 13:30:00",21.24167,35.1,TRADE
SNOWY1,"2005/01/31 14:00:00",30.66,36.57,TRADE
SNOWY1,"2005/01/31 14:30:00",13.34333,35.53,TRADE
SNOWY1,"2005/01/31 15:00:00",4.97833,38.57,TRADE
SNOWY1,"2005/01/31 15:30:00",19.975,40.69,TRADE
SNOWY1,"2005/01/31 16:00:00",25.56667,42,TRADE
SNOWY1,"2005/01/31 16:30:00",11.91667,42,TRADE
SNOWY1,"2005/01/31 17:00:00",16.92833,41.4,TRADE
SNOWY1,"2005/01/31 17:30:00",14.71833,36.71,TRADE
SNOWY1,"2005/01/31 18:00:00",18.58167,35.05,TRADE
SNOWY1,"2005/01/31 18:30:00",12.16667,27.94,TRADE
SNOWY1,"2005/01/31 19:00:00",10.575,25.04,TRADE
SNOWY1,"2005/01/31 19:30:00",30.78333,24.2,TRADE
SNOWY1,"2005/01/31 20:00:00",24.63,23.23,TRADE
SNOWY1,"2005/01/31 20:30:00",23.03667,22.81,TRADE
SNOWY1,"2005/01/31 21:00:00",28.74833,21.79,TRADE
SNOWY1,"2005/01/31 21:30:00",22.82167,22.92,TRADE
SNOWY1,"2005/01/31 22:00:00",23.92167,21.29,TRADE
SNOWY1,"2005/01/31 22:30:00",23.74,22.43,TRADE
SNOWY1,"2005/01/31 23:00:00",13.65833,22.21,TRADE
SNOWY1,"2005/01/31 23:30:00",18.035,22.95,TRADE
SNOWY1,"2005/02/01 00:00:00",17.30333,21.74,TRADE
