REGION,SETTLEMENTDATE,TOTALDEMAND,RRP,PERIODTYPE
QLD1,"2012/05/01 00:30:00",5099.97,29.14,TRADE
QLD1,"2012/05/01 01:00:00",4959.76,26.11,TRADE
QLD1,"2012/05/01 01:30:00",4750.73,28.69,TRADE
QLD1,"2012/05/01 02:00:00",4633.58,26.57,TRADE
QLD1,"2012/05/01 02:30:00",4538.99,25.86,TRADE
QLD1,"2012/05/01 03:00:00",4525.66,23.3,TRADE
QLD1,"2012/05/01 03:30:00",4482.07,21.61,TRADE
QLD1,"2012/05/01 04:00:00",4510.02,23.28,TRADE
QLD1,"2012/05/01 04:30:00",4566.71,22.37,TRADE
QLD1,"2012/05/01 05:00:00",4634.06,25.42,TRADE
QLD1,"2012/05/01 05:30:00",4864.45,27.71,TRADE
QLD1,"2012/05/01 06:00:00",5101.02,26.35,TRADE
QLD1,"2012/05/01 06:30:00",5503.22,27.7,TRADE
QLD1,"2012/05/01 07:00:00",5845.12,29.74,TRADE
QLD1,"2012/05/01 07:30:00",6168.23,27.97,TRADE
QLD1,"2012/05/01 08:00:00",6269.84,32.27,TRADE
QLD1,"2012/05/01 08:30:00",6234.99,31.2,TRADE
QLD1,"2012/05/01 09:00:00",6180.84,29.59,TRADE
QLD1,"2012/05/01 09:30:00",6182.98,30,TRADE
QLD1,"2012/05/01 10:00:00",6170.92,29.7,TRADE
QLD1,"2012/05/01 10:30:00",6188.53,33.5,TRADE
QLD1,"2012/05/01 11:00:00",6194.18,35.21,TRADE
QLD1,"2012/05/01 11:30:00",6181.18,34.02,TRADE
QLD1,"2012/05/01 12:00:00",6233.29,32.77,TRADE
QLD1,"2012/05/01 12:30:00",6238.07,34.3,TRADE
QLD1,"2012/05/01 13:00:00",6221.57,35.74,TRADE
QLD1,"2012/05/01 13:30:00",6275.31,34.07,TRADE
QLD1,"2012/05/01 14:00:00",6263.91,33.13,TRADE
QLD1,"2012/05/01 14:30:00",6289.99,33.02,TRADE
QLD1,"2012/05/01 15:00:00",6276.65,33.26,TRADE
QLD1,"2012/05/01 15:30:00",6278.66,34.53,TRADE
QLD1,"2012/05/01 16:00:00",6292.34,33.49,TRADE
QLD1,"2012/05/01 16:30:00",6350.53,30.63,TRADE
QLD1,"2012/05/01 17:00:00",6449.71,30.08,TRADE
QLD1,"2012/05/01 17:30:00",6590.54,33.01,TRADE
QLD1,"2012/05/01 18:00:00",6863.08,45.12,TRADE
QLD1,"2012/05/01 18:30:00",6710.86,41.31,TRADE
QLD1,"2012/05/01 19:00:00",6621.19,36.45,TRADE
QLD1,"2012/05/01 19:30:00",6426.64,30.73,TRADE
QLD1,"2012/05/01 20:00:00",6276.23,27.78,TRADE
QLD1,"2012/05/01 20:30:00",6181,28.88,TRADE
QLD1,"2012/05/01 21:00:00",6108.95,31.52,TRADE
QLD1,"2012/05/01 21:30:00",6105.33,33.98,TRADE
QLD1,"2012/05/01 22:00:00",5970.04,29.83,TRADE
QLD1,"2012/05/01 22:30:00",5741.56,37.29,TRADE
QLD1,"2012/05/01 23:00:00",5601.02,33.37,TRADE
QLD1,"2012/05/01 23:30:00",5436.04,36.88,TRADE
QLD1,"2012/05/02 00:00:00",5249.41,33.75,TRADE
QLD1,"2012/05/02 00:30:00",5105.61,28.22,TRADE
QLD1,"2012/05/02 01:00:00",4941.23,27.4,TRADE
QLD1,"2012/05/02 01:30:00",4766.56,28.28,TRADE
QLD1,"2012/05/02 02:00:00",4605,26.97,TRADE
QLD1,"2012/05/02 02:30:00",4528.32,23.92,TRADE
QLD1,"2012/05/02 03:00:00",4494.9,22.7,TRADE
QLD1,"2012/05/02 03:30:00",4480.32,21.92,TRADE
QLD1,"2012/05/02 04:00:00",4480.17,21.92,TRADE
QLD1,"2012/05/02 04:30:00",4520.86,22.25,TRADE
QLD1,"2012/05/02 05:00:00",4631.65,23.05,TRADE
QLD1,"2012/05/02 05:30:00",4806.95,25.87,TRADE
QLD1,"2012/05/02 06:00:00",5049.24,27,TRADE
QLD1,"2012/05/02 06:30:00",5431.12,27.63,TRADE
QLD1,"2012/05/02 07:00:00",5802.92,28.87,TRADE
QLD1,"2012/05/02 07:30:00",6142.56,26.7,TRADE
QLD1,"2012/05/02 08:00:00",6312.02,28.07,TRADE
QLD1,"2012/05/02 08:30:00",6319.24,27.73,TRADE
QLD1,"2012/05/02 09:00:00",6320.3,27.36,TRADE
QLD1,"2012/05/02 09:30:00",6345.35,26.99,TRADE
QLD1,"2012/05/02 10:00:00",6321.4,26.42,TRADE
QLD1,"2012/05/02 10:30:00",6303.87,26.55,TRADE
QLD1,"2012/05/02 11:00:00",6266.55,26.34,TRADE
QLD1,"2012/05/02 11:30:00",6283.76,26.95,TRADE
QLD1,"2012/05/02 12:00:00",6302.04,27.24,TRADE
QLD1,"2012/05/02 12:30:00",6275.84,27.48,TRADE
QLD1,"2012/05/02 13:00:00",6251.84,27.14,TRADE
QLD1,"2012/05/02 13:30:00",6267.63,28.17,TRADE
QLD1,"2012/05/02 14:00:00",6238.36,27.87,TRADE
QLD1,"2012/05/02 14:30:00",6281.57,27.62,TRADE
QLD1,"2012/05/02 15:00:00",6257.46,27.55,TRADE
QLD1,"2012/05/02 15:30:00",6248.1,26.94,TRADE
QLD1,"2012/05/02 16:00:00",6302.89,28.23,TRADE
QLD1,"2012/05/02 16:30:00",6368.94,28.19,TRADE
QLD1,"2012/05/02 17:00:00",6418.55,27.66,TRADE
QLD1,"2012/05/02 17:30:00",6542.85,29.08,TRADE
QLD1,"2012/05/02 18:00:00",6810.2,36.64,TRADE
QLD1,"2012/05/02 18:30:00",6756.11,38.86,TRADE
QLD1,"2012/05/02 19:00:00",6522.32,30.3,TRADE
QLD1,"2012/05/02 19:30:00",6383.69,27.28,TRADE
QLD1,"2012/05/02 20:00:00",6268.8,27.08,TRADE
QLD1,"2012/05/02 20:30:00",6173.09,27.95,TRADE
QLD1,"2012/05/02 21:00:00",6117.9,27.17,TRADE
QLD1,"2012/05/02 21:30:00",6139.82,29.4,TRADE
QLD1,"2012/05/02 22:00:00",5964.58,29.72,TRADE
QLD1,"2012/05/02 22:30:00",5743.73,35.66,TRADE
QLD1,"2012/05/02 23:00:00",5581.97,29.87,TRADE
QLD1,"2012/05/02 23:30:00",5450.64,31.47,TRADE
QLD1,"2012/05/03 00:00:00",5266.95,28.03,TRADE
QLD1,"2012/05/03 00:30:00",5122.99,27.97,TRADE
QLD1,"2012/05/03 01:00:00",4927.12,27.53,TRADE
QLD1,"2012/05/03 01:30:00",4740.78,25.98,TRADE
QLD1,"2012/05/03 02:00:00",4625.35,25.14,TRADE
QLD1,"2012/05/03 02:30:00",4576.41,26.13,TRADE
QLD1,"2012/05/03 03:00:00",4517.49,22.94,TRADE
QLD1,"2012/05/03 03:30:00",4510.51,22.41,TRADE
QLD1,"2012/05/03 04:00:00",4535.03,22.5,TRADE
QLD1,"2012/05/03 04:30:00",4572.22,23.71,TRADE
QLD1,"2012/05/03 05:00:00",4644.66,25.74,TRADE
QLD1,"2012/05/03 05:30:00",4835.87,27.14,TRADE
QLD1,"2012/05/03 06:00:00",5052.94,26.76,TRADE
QLD1,"2012/05/03 06:30:00",5432.47,28.69,TRADE
QLD1,"2012/05/03 07:00:00",5794.32,28.04,TRADE
QLD1,"2012/05/03 07:30:00",6174.86,27.95,TRADE
QLD1,"2012/05/03 08:00:00",6268.12,28.74,TRADE
QLD1,"2012/05/03 08:30:00",6247.51,28.93,TRADE
QLD1,"2012/05/03 09:00:00",6246.27,28.46,TRADE
QLD1,"2012/05/03 09:30:00",6275.92,28.51,TRADE
QLD1,"2012/05/03 10:00:00",6237.33,28.08,TRADE
QLD1,"2012/05/03 10:30:00",6222.13,28.75,TRADE
QLD1,"2012/05/03 11:00:00",6268.92,29.89,TRADE
QLD1,"2012/05/03 11:30:00",6276.59,30.15,TRADE
QLD1,"2012/05/03 12:00:00",6280.72,29.23,TRADE
QLD1,"2012/05/03 12:30:00",6297.04,29.16,TRADE
QLD1,"2012/05/03 13:00:00",6302.37,29.23,TRADE
QLD1,"2012/05/03 13:30:00",6337.22,29.54,TRADE
QLD1,"2012/05/03 14:00:00",6368.61,29.75,TRADE
QLD1,"2012/05/03 14:30:00",6371.55,29.81,TRADE
QLD1,"2012/05/03 15:00:00",6352.76,29.66,TRADE
QLD1,"2012/05/03 15:30:00",6398.98,29.86,TRADE
QLD1,"2012/05/03 16:00:00",6431.7,29.96,TRADE
QLD1,"2012/05/03 16:30:00",6463.53,29.54,TRADE
QLD1,"2012/05/03 17:00:00",6536.07,29.88,TRADE
QLD1,"2012/05/03 17:30:00",6620.47,29.98,TRADE
QLD1,"2012/05/03 18:00:00",6876.84,41.05,TRADE
QLD1,"2012/05/03 18:30:00",6803.8,40.27,TRADE
QLD1,"2012/05/03 19:00:00",6673.09,35.12,TRADE
QLD1,"2012/05/03 19:30:00",6489.89,29.98,TRADE
QLD1,"2012/05/03 20:00:00",6323.93,27.96,TRADE
QLD1,"2012/05/03 20:30:00",6278.92,28.37,TRADE
QLD1,"2012/05/03 21:00:00",6255.68,28.67,TRADE
QLD1,"2012/05/03 21:30:00",6216.14,29.11,TRADE
QLD1,"2012/05/03 22:00:00",6038.86,28.76,TRADE
QLD1,"2012/05/03 22:30:00",5803.31,35,TRADE
QLD1,"2012/05/03 23:00:00",5630.38,29.23,TRADE
QLD1,"2012/05/03 23:30:00",5491.69,30.83,TRADE
QLD1,"2012/05/04 00:00:00",5286.38,30.59,TRADE
QLD1,"2012/05/04 00:30:00",5163.02,28.09,TRADE
QLD1,"2012/05/04 01:00:00",4973.27,25.35,TRADE
QLD1,"2012/05/04 01:30:00",4799.09,25.19,TRADE
QLD1,"2012/05/04 02:00:00",4695.69,25.18,TRADE
QLD1,"2012/05/04 02:30:00",4623.63,24.32,TRADE
QLD1,"2012/05/04 03:00:00",4540.76,24.31,TRADE
QLD1,"2012/05/04 03:30:00",4541.37,22.82,TRADE
QLD1,"2012/05/04 04:00:00",4538.78,22.4,TRADE
QLD1,"2012/05/04 04:30:00",4579.93,22.97,TRADE
QLD1,"2012/05/04 05:00:00",4669.25,25.55,TRADE
QLD1,"2012/05/04 05:30:00",4900.74,27.61,TRADE
QLD1,"2012/05/04 06:00:00",5104.43,27.87,TRADE
QLD1,"2012/05/04 06:30:00",5490.52,29.86,TRADE
QLD1,"2012/05/04 07:00:00",5832.51,30.22,TRADE
QLD1,"2012/05/04 07:30:00",6224.77,29.99,TRADE
QLD1,"2012/05/04 08:00:00",6332.09,31.52,TRADE
QLD1,"2012/05/04 08:30:00",6307.21,30.77,TRADE
QLD1,"2012/05/04 09:00:00",6303.34,29.46,TRADE
QLD1,"2012/05/04 09:30:00",6289,29.72,TRADE
QLD1,"2012/05/04 10:00:00",6317.88,29.93,TRADE
QLD1,"2012/05/04 10:30:00",6276.19,29.47,TRADE
QLD1,"2012/05/04 11:00:00",6268.77,29.34,TRADE
QLD1,"2012/05/04 11:30:00",6276.15,29.56,TRADE
QLD1,"2012/05/04 12:00:00",6294.19,29.38,TRADE
QLD1,"2012/05/04 12:30:00",6273.55,27.87,TRADE
QLD1,"2012/05/04 13:00:00",6332.75,28.62,TRADE
QLD1,"2012/05/04 13:30:00",6297.85,28.02,TRADE
QLD1,"2012/05/04 14:00:00",6304.04,28.17,TRADE
QLD1,"2012/05/04 14:30:00",6258.71,27.6,TRADE
QLD1,"2012/05/04 15:00:00",6215.75,27.05,TRADE
QLD1,"2012/05/04 15:30:00",6273.03,27.21,TRADE
QLD1,"2012/05/04 16:00:00",6310.19,27.41,TRADE
QLD1,"2012/05/04 16:30:00",6305.72,27.49,TRADE
QLD1,"2012/05/04 17:00:00",6377.82,28.55,TRADE
QLD1,"2012/05/04 17:30:00",6484.63,30.57,TRADE
QLD1,"2012/05/04 18:00:00",6587.61,30.65,TRADE
QLD1,"2012/05/04 18:30:00",6470.37,28.37,TRADE
QLD1,"2012/05/04 19:00:00",6300.19,26.7,TRADE
QLD1,"2012/05/04 19:30:00",6132.25,25.81,TRADE
QLD1,"2012/05/04 20:00:00",5968.7,24.24,TRADE
QLD1,"2012/05/04 20:30:00",5847.86,22.69,TRADE
QLD1,"2012/05/04 21:00:00",5865.28,25.09,TRADE
QLD1,"2012/05/04 21:30:00",5893.07,25.98,TRADE
QLD1,"2012/05/04 22:00:00",5786.17,24.57,TRADE
QLD1,"2012/05/04 22:30:00",5620.02,25.83,TRADE
QLD1,"2012/05/04 23:00:00",5539.31,28.09,TRADE
QLD1,"2012/05/04 23:30:00",5409.45,30.94,TRADE
QLD1,"2012/05/05 00:00:00",5245.09,29.02,TRADE
QLD1,"2012/05/05 00:30:00",5094.66,29.39,TRADE
QLD1,"2012/05/05 01:00:00",4947.17,27.36,TRADE
QLD1,"2012/05/05 01:30:00",4739.85,25.86,TRADE
QLD1,"2012/05/05 02:00:00",4592.26,23.91,TRADE
QLD1,"2012/05/05 02:30:00",4496.01,25.38,TRADE
QLD1,"2012/05/05 03:00:00",4460.74,24.12,TRADE
QLD1,"2012/05/05 03:30:00",4470.3,24.28,TRADE
QLD1,"2012/05/05 04:00:00",4455.24,23.03,TRADE
QLD1,"2012/05/05 04:30:00",4458.45,23.23,TRADE
QLD1,"2012/05/05 05:00:00",4494.74,23.4,TRADE
QLD1,"2012/05/05 05:30:00",4598.71,25.34,TRADE
QLD1,"2012/05/05 06:00:00",4659.34,24.75,TRADE
QLD1,"2012/05/05 06:30:00",4803.14,25.36,TRADE
QLD1,"2012/05/05 07:00:00",4956.57,25.33,TRADE
QLD1,"2012/05/05 07:30:00",5158.25,25.49,TRADE
QLD1,"2012/05/05 08:00:00",5385.4,25.76,TRADE
QLD1,"2012/05/05 08:30:00",5565.73,25.77,TRADE
QLD1,"2012/05/05 09:00:00",5685.45,26.26,TRADE
QLD1,"2012/05/05 09:30:00",5771.37,26.22,TRADE
QLD1,"2012/05/05 10:00:00",5728.44,25.77,TRADE
QLD1,"2012/05/05 10:30:00",5661.59,25.76,TRADE
QLD1,"2012/05/05 11:00:00",5627.96,25.76,TRADE
QLD1,"2012/05/05 11:30:00",5569.88,25.5,TRADE
QLD1,"2012/05/05 12:00:00",5564.92,25.54,TRADE
QLD1,"2012/05/05 12:30:00",5501.17,25.25,TRADE
QLD1,"2012/05/05 13:00:00",5535.53,25.48,TRADE
QLD1,"2012/05/05 13:30:00",5501.43,25.54,TRADE
QLD1,"2012/05/05 14:00:00",5484.02,25.43,TRADE
QLD1,"2012/05/05 14:30:00",5508.89,25.88,TRADE
QLD1,"2012/05/05 15:00:00",5509.32,25.98,TRADE
QLD1,"2012/05/05 15:30:00",5564.86,50.47,TRADE
QLD1,"2012/05/05 16:00:00",5533.71,33.98,TRADE
QLD1,"2012/05/05 16:30:00",5601.61,22.57,TRADE
QLD1,"2012/05/05 17:00:00",5700.41,25.33,TRADE
QLD1,"2012/05/05 17:30:00",5875.44,28.59,TRADE
QLD1,"2012/05/05 18:00:00",6165.34,34.75,TRADE
QLD1,"2012/05/05 18:30:00",6113.44,29.76,TRADE
QLD1,"2012/05/05 19:00:00",5905.64,26.98,TRADE
QLD1,"2012/05/05 19:30:00",5781.82,26.34,TRADE
QLD1,"2012/05/05 20:00:00",5653.11,25.79,TRADE
QLD1,"2012/05/05 20:30:00",5565.01,26.16,TRADE
QLD1,"2012/05/05 21:00:00",5541.29,25.84,TRADE
QLD1,"2012/05/05 21:30:00",5631.69,28.79,TRADE
QLD1,"2012/05/05 22:00:00",5540.32,26.37,TRADE
QLD1,"2012/05/05 22:30:00",5424.21,29.4,TRADE
QLD1,"2012/05/05 23:00:00",5302.23,28.08,TRADE
QLD1,"2012/05/05 23:30:00",5191,28.32,TRADE
QLD1,"2012/05/06 00:00:00",5054.53,26.31,TRADE
QLD1,"2012/05/06 00:30:00",4914.55,24.83,TRADE
QLD1,"2012/05/06 01:00:00",4766.96,25.45,TRADE
QLD1,"2012/05/06 01:30:00",4619.24,25.15,TRADE
QLD1,"2012/05/06 02:00:00",4477.56,23.59,TRADE
QLD1,"2012/05/06 02:30:00",4380.62,22.2,TRADE
QLD1,"2012/05/06 03:00:00",4383.29,22.22,TRADE
QLD1,"2012/05/06 03:30:00",4323.98,20.84,TRADE
QLD1,"2012/05/06 04:00:00",4329.98,20.07,TRADE
QLD1,"2012/05/06 04:30:00",4319.09,20.87,TRADE
QLD1,"2012/05/06 05:00:00",4363.81,19.18,TRADE
QLD1,"2012/05/06 05:30:00",4407.21,20.98,TRADE
QLD1,"2012/05/06 06:00:00",4465.59,21.04,TRADE
QLD1,"2012/05/06 06:30:00",4505.14,22.15,TRADE
QLD1,"2012/05/06 07:00:00",4627.96,22.6,TRADE
QLD1,"2012/05/06 07:30:00",4822.98,23.05,TRADE
QLD1,"2012/05/06 08:00:00",5001.26,24.19,TRADE
QLD1,"2012/05/06 08:30:00",5099.19,24.71,TRADE
QLD1,"2012/05/06 09:00:00",5226.65,25.53,TRADE
QLD1,"2012/05/06 09:30:00",5307.06,25.56,TRADE
QLD1,"2012/05/06 10:00:00",5261,25.29,TRADE
QLD1,"2012/05/06 10:30:00",5264.32,25.34,TRADE
QLD1,"2012/05/06 11:00:00",5217.56,25.58,TRADE
QLD1,"2012/05/06 11:30:00",5175.2,24.96,TRADE
QLD1,"2012/05/06 12:00:00",5180.82,24.35,TRADE
QLD1,"2012/05/06 12:30:00",5158.01,23.85,TRADE
QLD1,"2012/05/06 13:00:00",5112.12,23.27,TRADE
QLD1,"2012/05/06 13:30:00",5135.05,23.74,TRADE
QLD1,"2012/05/06 14:00:00",5100.95,23.34,TRADE
QLD1,"2012/05/06 14:30:00",5145.57,23.73,TRADE
QLD1,"2012/05/06 15:00:00",5165.86,23.78,TRADE
QLD1,"2012/05/06 15:30:00",5258.8,23.03,TRADE
QLD1,"2012/05/06 16:00:00",5339.82,22.59,TRADE
QLD1,"2012/05/06 16:30:00",5367.92,22.84,TRADE
QLD1,"2012/05/06 17:00:00",5529.44,24.53,TRADE
QLD1,"2012/05/06 17:30:00",5735.35,26.04,TRADE
QLD1,"2012/05/06 18:00:00",6053.05,32.9,TRADE
QLD1,"2012/05/06 18:30:00",5975.49,29.07,TRADE
QLD1,"2012/05/06 19:00:00",5806.29,25.5,TRADE
QLD1,"2012/05/06 19:30:00",5603.76,24.01,TRADE
QLD1,"2012/05/06 20:00:00",5474.75,25.99,TRADE
QLD1,"2012/05/06 20:30:00",5411.17,27.7,TRADE
QLD1,"2012/05/06 21:00:00",5390.56,27.68,TRADE
QLD1,"2012/05/06 21:30:00",5393.89,28.97,TRADE
QLD1,"2012/05/06 22:00:00",5277.4,27.52,TRADE
QLD1,"2012/05/06 22:30:00",5110.47,27.24,TRADE
QLD1,"2012/05/06 23:00:00",5070.01,26.46,TRADE
QLD1,"2012/05/06 23:30:00",4979.74,26.2,TRADE
QLD1,"2012/05/07 00:00:00",4856.11,26.67,TRADE
QLD1,"2012/05/07 00:30:00",4736.15,26.52,TRADE
QLD1,"2012/05/07 01:00:00",4576.14,22.75,TRADE
QLD1,"2012/05/07 01:30:00",4450.25,24.09,TRADE
QLD1,"2012/05/07 02:00:00",4334.48,21.69,TRADE
QLD1,"2012/05/07 02:30:00",4245.23,19.8,TRADE
QLD1,"2012/05/07 03:00:00",4195.45,20.13,TRADE
QLD1,"2012/05/07 03:30:00",4158.29,18.38,TRADE
QLD1,"2012/05/07 04:00:00",4155.72,15.94,TRADE
QLD1,"2012/05/07 04:30:00",4182.13,18.68,TRADE
QLD1,"2012/05/07 05:00:00",4229.29,18.21,TRADE
QLD1,"2012/05/07 05:30:00",4291.18,22,TRADE
QLD1,"2012/05/07 06:00:00",4337.02,23.22,TRADE
QLD1,"2012/05/07 06:30:00",4460.4,25.15,TRADE
QLD1,"2012/05/07 07:00:00",4605.38,25.22,TRADE
QLD1,"2012/05/07 07:30:00",4799.98,24.96,TRADE
QLD1,"2012/05/07 08:00:00",4941.56,25.76,TRADE
QLD1,"2012/05/07 08:30:00",5047.74,25.73,TRADE
QLD1,"2012/05/07 09:00:00",5198.42,26.19,TRADE
QLD1,"2012/05/07 09:30:00",5196.31,25.75,TRADE
QLD1,"2012/05/07 10:00:00",5162.88,25.6,TRADE
QLD1,"2012/05/07 10:30:00",5163.69,25.04,TRADE
QLD1,"2012/05/07 11:00:00",5165.77,25.44,TRADE
QLD1,"2012/05/07 11:30:00",5104.92,25.83,TRADE
QLD1,"2012/05/07 12:00:00",5083.8,25.81,TRADE
QLD1,"2012/05/07 12:30:00",5079.4,25.77,TRADE
QLD1,"2012/05/07 13:00:00",5037.25,25.53,TRADE
QLD1,"2012/05/07 13:30:00",4997.35,25.68,TRADE
QLD1,"2012/05/07 14:00:00",4986.61,25.66,TRADE
QLD1,"2012/05/07 14:30:00",5017.69,25.75,TRADE
QLD1,"2012/05/07 15:00:00",5054.42,25.62,TRADE
QLD1,"2012/05/07 15:30:00",5139.25,25.84,TRADE
QLD1,"2012/05/07 16:00:00",5211.85,25.84,TRADE
QLD1,"2012/05/07 16:30:00",5334.57,25.56,TRADE
QLD1,"2012/05/07 17:00:00",5524.15,25.65,TRADE
QLD1,"2012/05/07 17:30:00",5813.34,26.73,TRADE
QLD1,"2012/05/07 18:00:00",6252.06,30.82,TRADE
QLD1,"2012/05/07 18:30:00",6162.63,26.3,TRADE
QLD1,"2012/05/07 19:00:00",5982.73,24.8,TRADE
QLD1,"2012/05/07 19:30:00",5776,23.6,TRADE
QLD1,"2012/05/07 20:00:00",5633.84,22.53,TRADE
QLD1,"2012/05/07 20:30:00",5520.76,22.42,TRADE
QLD1,"2012/05/07 21:00:00",5483.27,24.07,TRADE
QLD1,"2012/05/07 21:30:00",5516.63,25.22,TRADE
QLD1,"2012/05/07 22:00:00",5405.82,24.9,TRADE
QLD1,"2012/05/07 22:30:00",5238.44,26.02,TRADE
QLD1,"2012/05/07 23:00:00",5163.03,27.12,TRADE
QLD1,"2012/05/07 23:30:00",5057.7,26.85,TRADE
QLD1,"2012/05/08 00:00:00",4855.29,23.56,TRADE
QLD1,"2012/05/08 00:30:00",4715.16,22.69,TRADE
QLD1,"2012/05/08 01:00:00",4610.04,22.76,TRADE
QLD1,"2012/05/08 01:30:00",4444.4,23.24,TRADE
QLD1,"2012/05/08 02:00:00",4305.04,21.89,TRADE
QLD1,"2012/05/08 02:30:00",4251.71,20.95,TRADE
QLD1,"2012/05/08 03:00:00",4249.91,20.08,TRADE
QLD1,"2012/05/08 03:30:00",4289.89,21.31,TRADE
QLD1,"2012/05/08 04:00:00",4266.22,20.34,TRADE
QLD1,"2012/05/08 04:30:00",4301.71,20.47,TRADE
QLD1,"2012/05/08 05:00:00",4432.53,22.49,TRADE
QLD1,"2012/05/08 05:30:00",4643.92,24.15,TRADE
QLD1,"2012/05/08 06:00:00",4891.84,25.3,TRADE
QLD1,"2012/05/08 06:30:00",5308.23,28.05,TRADE
QLD1,"2012/05/08 07:00:00",5759.83,28.63,TRADE
QLD1,"2012/05/08 07:30:00",6120.62,27.36,TRADE
QLD1,"2012/05/08 08:00:00",6166.94,27.53,TRADE
QLD1,"2012/05/08 08:30:00",6104.54,25.97,TRADE
QLD1,"2012/05/08 09:00:00",6030.38,25.31,TRADE
QLD1,"2012/05/08 09:30:00",5961.47,25.29,TRADE
QLD1,"2012/05/08 10:00:00",5940.22,25.4,TRADE
QLD1,"2012/05/08 10:30:00",5921.57,25.52,TRADE
QLD1,"2012/05/08 11:00:00",5889.86,25.75,TRADE
QLD1,"2012/05/08 11:30:00",5901.15,26.04,TRADE
QLD1,"2012/05/08 12:00:00",5903.34,25.8,TRADE
QLD1,"2012/05/08 12:30:00",5926.98,26.07,TRADE
QLD1,"2012/05/08 13:00:00",5976.7,25.48,TRADE
QLD1,"2012/05/08 13:30:00",6009.76,25.65,TRADE
QLD1,"2012/05/08 14:00:00",6062.7,25.76,TRADE
QLD1,"2012/05/08 14:30:00",6088.43,26.25,TRADE
QLD1,"2012/05/08 15:00:00",6109.57,25.99,TRADE
QLD1,"2012/05/08 15:30:00",6123.89,26.11,TRADE
QLD1,"2012/05/08 16:00:00",6191.92,26.48,TRADE
QLD1,"2012/05/08 16:30:00",6244.89,27.91,TRADE
QLD1,"2012/05/08 17:00:00",6350.13,31.14,TRADE
QLD1,"2012/05/08 17:30:00",6430.99,32.51,TRADE
QLD1,"2012/05/08 18:00:00",6744.05,38.54,TRADE
QLD1,"2012/05/08 18:30:00",6678.35,30.22,TRADE
QLD1,"2012/05/08 19:00:00",6525.79,27.17,TRADE
QLD1,"2012/05/08 19:30:00",6314.06,26.4,TRADE
QLD1,"2012/05/08 20:00:00",6174.42,25.13,TRADE
QLD1,"2012/05/08 20:30:00",6038.73,24.55,TRADE
QLD1,"2012/05/08 21:00:00",5936.09,24.06,TRADE
QLD1,"2012/05/08 21:30:00",5945.83,24.76,TRADE
QLD1,"2012/05/08 22:00:00",5786.72,24.44,TRADE
QLD1,"2012/05/08 22:30:00",5594.94,26.18,TRADE
QLD1,"2012/05/08 23:00:00",5472.03,26.24,TRADE
QLD1,"2012/05/08 23:30:00",5320.92,26.83,TRADE
QLD1,"2012/05/09 00:00:00",5133.34,24.37,TRADE
QLD1,"2012/05/09 00:30:00",4954.46,24.35,TRADE
QLD1,"2012/05/09 01:00:00",4829.46,24.05,TRADE
QLD1,"2012/05/09 01:30:00",4638.32,24.13,TRADE
QLD1,"2012/05/09 02:00:00",4481.22,22.62,TRADE
QLD1,"2012/05/09 02:30:00",4388.68,20.6,TRADE
QLD1,"2012/05/09 03:00:00",4349.3,18.85,TRADE
QLD1,"2012/05/09 03:30:00",4321.17,17.39,TRADE
QLD1,"2012/05/09 04:00:00",4339.7,19.53,TRADE
QLD1,"2012/05/09 04:30:00",4411.4,19.72,TRADE
QLD1,"2012/05/09 05:00:00",4503.19,19.87,TRADE
QLD1,"2012/05/09 05:30:00",4714.95,21.73,TRADE
QLD1,"2012/05/09 06:00:00",4969.02,24.78,TRADE
QLD1,"2012/05/09 06:30:00",5346.93,26.58,TRADE
QLD1,"2012/05/09 07:00:00",5767.24,27.26,TRADE
QLD1,"2012/05/09 07:30:00",6127.08,26.73,TRADE
QLD1,"2012/05/09 08:00:00",6189.5,28.03,TRADE
QLD1,"2012/05/09 08:30:00",6117.73,26.32,TRADE
QLD1,"2012/05/09 09:00:00",6067.71,27.06,TRADE
QLD1,"2012/05/09 09:30:00",6035.33,27.37,TRADE
QLD1,"2012/05/09 10:00:00",5934.32,26.03,TRADE
QLD1,"2012/05/09 10:30:00",5914.71,25.98,TRADE
QLD1,"2012/05/09 11:00:00",5885.29,25.49,TRADE
QLD1,"2012/05/09 11:30:00",5916.9,25.46,TRADE
QLD1,"2012/05/09 12:00:00",5909.15,25.47,TRADE
QLD1,"2012/05/09 12:30:00",5939.52,25.62,TRADE
QLD1,"2012/05/09 13:00:00",5966.22,25.76,TRADE
QLD1,"2012/05/09 13:30:00",5992.63,25.97,TRADE
QLD1,"2012/05/09 14:00:00",6030.19,25.77,TRADE
QLD1,"2012/05/09 14:30:00",6070.89,25.82,TRADE
QLD1,"2012/05/09 15:00:00",6096.91,25.77,TRADE
QLD1,"2012/05/09 15:30:00",6107.67,25.78,TRADE
QLD1,"2012/05/09 16:00:00",6151.69,25.79,TRADE
QLD1,"2012/05/09 16:30:00",6201.07,25.74,TRADE
QLD1,"2012/05/09 17:00:00",6277,26.19,TRADE
QLD1,"2012/05/09 17:30:00",6436.48,26.52,TRADE
QLD1,"2012/05/09 18:00:00",6705.76,29.82,TRADE
QLD1,"2012/05/09 18:30:00",6637.98,28.71,TRADE
QLD1,"2012/05/09 19:00:00",6471.76,27.06,TRADE
QLD1,"2012/05/09 19:30:00",6272.92,25.92,TRADE
QLD1,"2012/05/09 20:00:00",6112.44,25.29,TRADE
QLD1,"2012/05/09 20:30:00",6012.17,24.54,TRADE
QLD1,"2012/05/09 21:00:00",5960.03,25,TRADE
QLD1,"2012/05/09 21:30:00",5977.8,25.65,TRADE
QLD1,"2012/05/09 22:00:00",5826.37,23.39,TRADE
QLD1,"2012/05/09 22:30:00",5599.76,25.8,TRADE
QLD1,"2012/05/09 23:00:00",5460.7,26.24,TRADE
QLD1,"2012/05/09 23:30:00",5303.19,25.44,TRADE
QLD1,"2012/05/10 00:00:00",5150.63,23.46,TRADE
QLD1,"2012/05/10 00:30:00",4991.49,22.58,TRADE
QLD1,"2012/05/10 01:00:00",4807.12,21.26,TRADE
QLD1,"2012/05/10 01:30:00",4664.34,24.38,TRADE
QLD1,"2012/05/10 02:00:00",4559,23.96,TRADE
QLD1,"2012/05/10 02:30:00",4479.94,22.09,TRADE
QLD1,"2012/05/10 03:00:00",4454.32,19.93,TRADE
QLD1,"2012/05/10 03:30:00",4424.2,19.29,TRADE
QLD1,"2012/05/10 04:00:00",4447.22,19.45,TRADE
QLD1,"2012/05/10 04:30:00",4448.69,19.29,TRADE
QLD1,"2012/05/10 05:00:00",4523.37,19.64,TRADE
QLD1,"2012/05/10 05:30:00",4709.03,21.43,TRADE
QLD1,"2012/05/10 06:00:00",4980.64,25.35,TRADE
QLD1,"2012/05/10 06:30:00",5343.1,25.87,TRADE
QLD1,"2012/05/10 07:00:00",5730.99,27.46,TRADE
QLD1,"2012/05/10 07:30:00",6037.72,27.36,TRADE
QLD1,"2012/05/10 08:00:00",6105.68,29.27,TRADE
QLD1,"2012/05/10 08:30:00",6084.25,27.17,TRADE
QLD1,"2012/05/10 09:00:00",6017.42,28.24,TRADE
QLD1,"2012/05/10 09:30:00",6001.93,28.27,TRADE
QLD1,"2012/05/10 10:00:00",5956.92,27.68,TRADE
QLD1,"2012/05/10 10:30:00",5924.1,27.9,TRADE
QLD1,"2012/05/10 11:00:00",5931.07,26.44,TRADE
QLD1,"2012/05/10 11:30:00",5899.09,26.83,TRADE
QLD1,"2012/05/10 12:00:00",5903.83,25.89,TRADE
QLD1,"2012/05/10 12:30:00",5922.15,25.86,TRADE
QLD1,"2012/05/10 13:00:00",5943.16,25.77,TRADE
QLD1,"2012/05/10 13:30:00",5988.46,25.8,TRADE
QLD1,"2012/05/10 14:00:00",6031.78,26.11,TRADE
QLD1,"2012/05/10 14:30:00",6062.56,26.13,TRADE
QLD1,"2012/05/10 15:00:00",6042.3,26.11,TRADE
QLD1,"2012/05/10 15:30:00",6082.79,26.61,TRADE
QLD1,"2012/05/10 16:00:00",6135.52,26.18,TRADE
QLD1,"2012/05/10 16:30:00",6180.73,27.37,TRADE
QLD1,"2012/05/10 17:00:00",6244.59,27.28,TRADE
QLD1,"2012/05/10 17:30:00",6377.76,26.58,TRADE
QLD1,"2012/05/10 18:00:00",6599.15,29.04,TRADE
QLD1,"2012/05/10 18:30:00",6607.71,29.05,TRADE
QLD1,"2012/05/10 19:00:00",6592.42,27.61,TRADE
QLD1,"2012/05/10 19:30:00",6463.75,27.09,TRADE
QLD1,"2012/05/10 20:00:00",6402.78,26.89,TRADE
QLD1,"2012/05/10 20:30:00",6381.19,25.81,TRADE
QLD1,"2012/05/10 21:00:00",6267.16,25.97,TRADE
QLD1,"2012/05/10 21:30:00",6093.13,26.57,TRADE
QLD1,"2012/05/10 22:00:00",5823.52,26,TRADE
QLD1,"2012/05/10 22:30:00",5673.62,27.64,TRADE
QLD1,"2012/05/10 23:00:00",5528.79,28.13,TRADE
QLD1,"2012/05/10 23:30:00",5417.15,28.29,TRADE
QLD1,"2012/05/11 00:00:00",5236.46,26.65,TRADE
QLD1,"2012/05/11 00:30:00",5123.17,25.38,TRADE
QLD1,"2012/05/11 01:00:00",4954.74,23.51,TRADE
QLD1,"2012/05/11 01:30:00",4808.08,23.87,TRADE
QLD1,"2012/05/11 02:00:00",4659,22.59,TRADE
QLD1,"2012/05/11 02:30:00",4543.34,20.5,TRADE
QLD1,"2012/05/11 03:00:00",4494.89,15.72,TRADE
QLD1,"2012/05/11 03:30:00",4500.85,14.98,TRADE
QLD1,"2012/05/11 04:00:00",4518.78,13.95,TRADE
QLD1,"2012/05/11 04:30:00",4597.15,13.79,TRADE
QLD1,"2012/05/11 05:00:00",4689.76,17.31,TRADE
QLD1,"2012/05/11 05:30:00",4853,20.18,TRADE
QLD1,"2012/05/11 06:00:00",5113.46,23.2,TRADE
QLD1,"2012/05/11 06:30:00",5504.2,25.87,TRADE
QLD1,"2012/05/11 07:00:00",5906.08,26.27,TRADE
QLD1,"2012/05/11 07:30:00",6284.69,26.06,TRADE
QLD1,"2012/05/11 08:00:00",6345.16,27.78,TRADE
QLD1,"2012/05/11 08:30:00",6332.65,27.52,TRADE
QLD1,"2012/05/11 09:00:00",6276.97,26.81,TRADE
QLD1,"2012/05/11 09:30:00",6206.91,26.18,TRADE
QLD1,"2012/05/11 10:00:00",6163.56,25.81,TRADE
QLD1,"2012/05/11 10:30:00",6171,25.66,TRADE
QLD1,"2012/05/11 11:00:00",6145.88,25.64,TRADE
QLD1,"2012/05/11 11:30:00",6156.9,25.91,TRADE
QLD1,"2012/05/11 12:00:00",6179.64,25.8,TRADE
QLD1,"2012/05/11 12:30:00",6193.06,25.92,TRADE
QLD1,"2012/05/11 13:00:00",6172.54,25.62,TRADE
QLD1,"2012/05/11 13:30:00",6207.73,25.77,TRADE
QLD1,"2012/05/11 14:00:00",6184.56,25.77,TRADE
QLD1,"2012/05/11 14:30:00",6233.39,26.32,TRADE
QLD1,"2012/05/11 15:00:00",6215.07,25.77,TRADE
QLD1,"2012/05/11 15:30:00",6236.39,25.77,TRADE
QLD1,"2012/05/11 16:00:00",6242.78,25.74,TRADE
QLD1,"2012/05/11 16:30:00",6308.16,26.03,TRADE
QLD1,"2012/05/11 17:00:00",6378.56,25.77,TRADE
QLD1,"2012/05/11 17:30:00",6468.5,26.07,TRADE
QLD1,"2012/05/11 18:00:00",6504.07,28.09,TRADE
QLD1,"2012/05/11 18:30:00",6437.81,25.83,TRADE
QLD1,"2012/05/11 19:00:00",6392.37,25.76,TRADE
QLD1,"2012/05/11 19:30:00",6274.7,24.95,TRADE
QLD1,"2012/05/11 20:00:00",6199.28,24.59,TRADE
QLD1,"2012/05/11 20:30:00",6208.57,25.19,TRADE
QLD1,"2012/05/11 21:00:00",6046.51,24.44,TRADE
QLD1,"2012/05/11 21:30:00",5940.56,24.6,TRADE
QLD1,"2012/05/11 22:00:00",5802.74,22.93,TRADE
QLD1,"2012/05/11 22:30:00",5664.89,26.97,TRADE
QLD1,"2012/05/11 23:00:00",5551.61,27.91,TRADE
QLD1,"2012/05/11 23:30:00",5458.94,28.92,TRADE
QLD1,"2012/05/12 00:00:00",5276.38,28.55,TRADE
QLD1,"2012/05/12 00:30:00",5121.88,27.62,TRADE
QLD1,"2012/05/12 01:00:00",4967.99,24.96,TRADE
QLD1,"2012/05/12 01:30:00",4779.38,25.5,TRADE
QLD1,"2012/05/12 02:00:00",4657.01,22.09,TRADE
QLD1,"2012/05/12 02:30:00",4571.67,21.98,TRADE
QLD1,"2012/05/12 03:00:00",4540.1,21.2,TRADE
QLD1,"2012/05/12 03:30:00",4545.6,17.84,TRADE
QLD1,"2012/05/12 04:00:00",4522,17.37,TRADE
QLD1,"2012/05/12 04:30:00",4529.16,17.27,TRADE
QLD1,"2012/05/12 05:00:00",4569.78,19.05,TRADE
QLD1,"2012/05/12 05:30:00",4649.54,20.72,TRADE
QLD1,"2012/05/12 06:00:00",4707.35,22.8,TRADE
QLD1,"2012/05/12 06:30:00",4845.37,23.62,TRADE
QLD1,"2012/05/12 07:00:00",4987.43,23.68,TRADE
QLD1,"2012/05/12 07:30:00",5236.98,24.3,TRADE
QLD1,"2012/05/12 08:00:00",5408.11,25.87,TRADE
QLD1,"2012/05/12 08:30:00",5596.6,28.34,TRADE
QLD1,"2012/05/12 09:00:00",5698.5,27.96,TRADE
QLD1,"2012/05/12 09:30:00",5714.23,28.66,TRADE
QLD1,"2012/05/12 10:00:00",5679.36,27.22,TRADE
QLD1,"2012/05/12 10:30:00",5647.24,26.59,TRADE
QLD1,"2012/05/12 11:00:00",5604.76,25.53,TRADE
QLD1,"2012/05/12 11:30:00",5550.51,24.96,TRADE
QLD1,"2012/05/12 12:00:00",5551.17,25.04,TRADE
QLD1,"2012/05/12 12:30:00",5530.83,25.07,TRADE
QLD1,"2012/05/12 13:00:00",5513.56,25.21,TRADE
QLD1,"2012/05/12 13:30:00",5510.45,25.24,TRADE
QLD1,"2012/05/12 14:00:00",5525.08,25.16,TRADE
QLD1,"2012/05/12 14:30:00",5520.68,24.88,TRADE
QLD1,"2012/05/12 15:00:00",5523.55,25.18,TRADE
QLD1,"2012/05/12 15:30:00",5589.15,24.97,TRADE
QLD1,"2012/05/12 16:00:00",5663.77,25.1,TRADE
QLD1,"2012/05/12 16:30:00",5758.85,25.13,TRADE
QLD1,"2012/05/12 17:00:00",5924.16,26.35,TRADE
QLD1,"2012/05/12 17:30:00",6041.53,26.38,TRADE
QLD1,"2012/05/12 18:00:00",6174.02,30.35,TRADE
QLD1,"2012/05/12 18:30:00",6153.12,28.69,TRADE
QLD1,"2012/05/12 19:00:00",6106.95,26.89,TRADE
QLD1,"2012/05/12 19:30:00",6015.92,25.64,TRADE
QLD1,"2012/05/12 20:00:00",5962.69,25.19,TRADE
QLD1,"2012/05/12 20:30:00",5920.15,23.71,TRADE
QLD1,"2012/05/12 21:00:00",5801.21,23.4,TRADE
QLD1,"2012/05/12 21:30:00",5687.63,21.99,TRADE
QLD1,"2012/05/12 22:00:00",5530.91,21.65,TRADE
QLD1,"2012/05/12 22:30:00",5448.99,22.72,TRADE
QLD1,"2012/05/12 23:00:00",5375.45,23.93,TRADE
QLD1,"2012/05/12 23:30:00",5271.76,23.7,TRADE
QLD1,"2012/05/13 00:00:00",5155.63,22.4,TRADE
QLD1,"2012/05/13 00:30:00",5023.9,22.84,TRADE
QLD1,"2012/05/13 01:00:00",4899.47,22.38,TRADE
QLD1,"2012/05/13 01:30:00",4746.74,21.61,TRADE
QLD1,"2012/05/13 02:00:00",4603.75,21.75,TRADE
QLD1,"2012/05/13 02:30:00",4499.12,17.4,TRADE
QLD1,"2012/05/13 03:00:00",4457.98,13.26,TRADE
QLD1,"2012/05/13 03:30:00",4422.24,12.87,TRADE
QLD1,"2012/05/13 04:00:00",4390.56,12.55,TRADE
QLD1,"2012/05/13 04:30:00",4448.29,13.72,TRADE
QLD1,"2012/05/13 05:00:00",4468.75,13.7,TRADE
QLD1,"2012/05/13 05:30:00",4500.12,15.61,TRADE
QLD1,"2012/05/13 06:00:00",4532.09,13.93,TRADE
QLD1,"2012/05/13 06:30:00",4616.84,15.95,TRADE
QLD1,"2012/05/13 07:00:00",4758.11,18.62,TRADE
QLD1,"2012/05/13 07:30:00",4990.24,21.97,TRADE
QLD1,"2012/05/13 08:00:00",5149.58,23.81,TRADE
QLD1,"2012/05/13 08:30:00",5299.2,24.15,TRADE
QLD1,"2012/05/13 09:00:00",5418.65,24.84,TRADE
QLD1,"2012/05/13 09:30:00",5490.22,24.96,TRADE
QLD1,"2012/05/13 10:00:00",5471.64,24.84,TRADE
QLD1,"2012/05/13 10:30:00",5462.91,24.69,TRADE
QLD1,"2012/05/13 11:00:00",5399.74,24.06,TRADE
QLD1,"2012/05/13 11:30:00",5344.57,23.66,TRADE
QLD1,"2012/05/13 12:00:00",5322.7,23.52,TRADE
QLD1,"2012/05/13 12:30:00",5282.59,22.98,TRADE
QLD1,"2012/05/13 13:00:00",5250.42,22.87,TRADE
QLD1,"2012/05/13 13:30:00",5296.88,23.01,TRADE
QLD1,"2012/05/13 14:00:00",5324.2,23.2,TRADE
QLD1,"2012/05/13 14:30:00",5323.66,23.31,TRADE
QLD1,"2012/05/13 15:00:00",5358.53,23.42,TRADE
QLD1,"2012/05/13 15:30:00",5439.42,23.6,TRADE
QLD1,"2012/05/13 16:00:00",5512.51,23.39,TRADE
QLD1,"2012/05/13 16:30:00",5586.28,23.93,TRADE
QLD1,"2012/05/13 17:00:00",5721.27,23.65,TRADE
QLD1,"2012/05/13 17:30:00",5916.22,25.05,TRADE
QLD1,"2012/05/13 18:00:00",6148.46,29.4,TRADE
QLD1,"2012/05/13 18:30:00",6165.57,28.15,TRADE
QLD1,"2012/05/13 19:00:00",6136.48,26.67,TRADE
QLD1,"2012/05/13 19:30:00",6073.49,26.72,TRADE
QLD1,"2012/05/13 20:00:00",5999.71,25.73,TRADE
QLD1,"2012/05/13 20:30:00",6032.12,25.89,TRADE
QLD1,"2012/05/13 21:00:00",5935.02,25.56,TRADE
QLD1,"2012/05/13 21:30:00",5815.16,24.6,TRADE
QLD1,"2012/05/13 22:00:00",5586.31,22.97,TRADE
QLD1,"2012/05/13 22:30:00",5409.16,23.84,TRADE
QLD1,"2012/05/13 23:00:00",5338.49,23.54,TRADE
QLD1,"2012/05/13 23:30:00",5255.66,26.5,TRADE
QLD1,"2012/05/14 00:00:00",5058.9,25.51,TRADE
QLD1,"2012/05/14 00:30:00",4922.95,23.1,TRADE
QLD1,"2012/05/14 01:00:00",4803.06,21.55,TRADE
QLD1,"2012/05/14 01:30:00",4673.48,22.15,TRADE
QLD1,"2012/05/14 02:00:00",4533.95,22.3,TRADE
QLD1,"2012/05/14 02:30:00",4452.94,20.34,TRADE
QLD1,"2012/05/14 03:00:00",4417.67,19.73,TRADE
QLD1,"2012/05/14 03:30:00",4395.32,15.84,TRADE
QLD1,"2012/05/14 04:00:00",4410.19,17.67,TRADE
QLD1,"2012/05/14 04:30:00",4474.9,15.72,TRADE
QLD1,"2012/05/14 05:00:00",4586.51,19.96,TRADE
QLD1,"2012/05/14 05:30:00",4822.76,21.98,TRADE
QLD1,"2012/05/14 06:00:00",5057.34,24.87,TRADE
QLD1,"2012/05/14 06:30:00",5483.1,28.63,TRADE
QLD1,"2012/05/14 07:00:00",5932.48,31.87,TRADE
QLD1,"2012/05/14 07:30:00",6271.99,30.95,TRADE
QLD1,"2012/05/14 08:00:00",6344.09,30.25,TRADE
QLD1,"2012/05/14 08:30:00",6302.53,29.04,TRADE
QLD1,"2012/05/14 09:00:00",6224.17,28.35,TRADE
QLD1,"2012/05/14 09:30:00",6156.93,28.6,TRADE
QLD1,"2012/05/14 10:00:00",6093.48,28.43,TRADE
QLD1,"2012/05/14 10:30:00",6023.28,25.87,TRADE
QLD1,"2012/05/14 11:00:00",5998.18,25.68,TRADE
QLD1,"2012/05/14 11:30:00",5970.25,25.4,TRADE
QLD1,"2012/05/14 12:00:00",5996.37,25.34,TRADE
QLD1,"2012/05/14 12:30:00",5977.89,25.06,TRADE
QLD1,"2012/05/14 13:00:00",5988.6,25.57,TRADE
QLD1,"2012/05/14 13:30:00",5988.61,25.82,TRADE
QLD1,"2012/05/14 14:00:00",5989.87,25.89,TRADE
QLD1,"2012/05/14 14:30:00",6014.38,25.57,TRADE
QLD1,"2012/05/14 15:00:00",6025.57,25.36,TRADE
QLD1,"2012/05/14 15:30:00",6072.05,25.93,TRADE
QLD1,"2012/05/14 16:00:00",6138.84,25.64,TRADE
QLD1,"2012/05/14 16:30:00",6233.69,26.05,TRADE
QLD1,"2012/05/14 17:00:00",6415.88,27.22,TRADE
QLD1,"2012/05/14 17:30:00",6618.89,30.18,TRADE
QLD1,"2012/05/14 18:00:00",6826.89,39.44,TRADE
QLD1,"2012/05/14 18:30:00",6797.4,39.02,TRADE
QLD1,"2012/05/14 19:00:00",6734.75,33.59,TRADE
QLD1,"2012/05/14 19:30:00",6621.27,28.44,TRADE
QLD1,"2012/05/14 20:00:00",6573.77,28.65,TRADE
QLD1,"2012/05/14 20:30:00",6533.06,28.92,TRADE
QLD1,"2012/05/14 21:00:00",6394.52,26.85,TRADE
QLD1,"2012/05/14 21:30:00",6229.4,25.9,TRADE
QLD1,"2012/05/14 22:00:00",5956.91,23.64,TRADE
QLD1,"2012/05/14 22:30:00",5768.14,27.13,TRADE
QLD1,"2012/05/14 23:00:00",5598.02,27.57,TRADE
QLD1,"2012/05/14 23:30:00",5452.62,26.6,TRADE
QLD1,"2012/05/15 00:00:00",5299.56,26.04,TRADE
QLD1,"2012/05/15 00:30:00",5147.95,23.01,TRADE
QLD1,"2012/05/15 01:00:00",5021.58,23.92,TRADE
QLD1,"2012/05/15 01:30:00",4850.9,24.86,TRADE
QLD1,"2012/05/15 02:00:00",4720.57,25.47,TRADE
QLD1,"2012/05/15 02:30:00",4635.97,23.12,TRADE
QLD1,"2012/05/15 03:00:00",4601.38,22.58,TRADE
QLD1,"2012/05/15 03:30:00",4572.83,21.43,TRADE
QLD1,"2012/05/15 04:00:00",4538.21,19.77,TRADE
QLD1,"2012/05/15 04:30:00",4613.35,20.4,TRADE
QLD1,"2012/05/15 05:00:00",4719.52,20.73,TRADE
QLD1,"2012/05/15 05:30:00",4945.25,22.94,TRADE
QLD1,"2012/05/15 06:00:00",5238.08,25.48,TRADE
QLD1,"2012/05/15 06:30:00",5737.97,28.7,TRADE
QLD1,"2012/05/15 07:00:00",6178.86,30.91,TRADE
QLD1,"2012/05/15 07:30:00",6567.64,31.36,TRADE
QLD1,"2012/05/15 08:00:00",6630.62,32.62,TRADE
QLD1,"2012/05/15 08:30:00",6504.5,29.79,TRADE
QLD1,"2012/05/15 09:00:00",6345.36,28.24,TRADE
QLD1,"2012/05/15 09:30:00",6241.51,27.18,TRADE
QLD1,"2012/05/15 10:00:00",6139.97,25.84,TRADE
QLD1,"2012/05/15 10:30:00",6049.6,25.25,TRADE
QLD1,"2012/05/15 11:00:00",5992.34,24.37,TRADE
QLD1,"2012/05/15 11:30:00",5942.54,23.55,TRADE
QLD1,"2012/05/15 12:00:00",5942.35,23.69,TRADE
QLD1,"2012/05/15 12:30:00",5964.16,23.87,TRADE
QLD1,"2012/05/15 13:00:00",5952.34,23.82,TRADE
QLD1,"2012/05/15 13:30:00",5947.25,23.88,TRADE
QLD1,"2012/05/15 14:00:00",5982.55,23.9,TRADE
QLD1,"2012/05/15 14:30:00",6014.2,24.98,TRADE
QLD1,"2012/05/15 15:00:00",6006.42,25.43,TRADE
QLD1,"2012/05/15 15:30:00",6045.54,24.33,TRADE
QLD1,"2012/05/15 16:00:00",6135.52,24.29,TRADE
QLD1,"2012/05/15 16:30:00",6255.9,25.71,TRADE
QLD1,"2012/05/15 17:00:00",6383.29,26.26,TRADE
QLD1,"2012/05/15 17:30:00",6559.25,28.38,TRADE
QLD1,"2012/05/15 18:00:00",6733.17,32.69,TRADE
QLD1,"2012/05/15 18:30:00",6744.71,31.84,TRADE
QLD1,"2012/05/15 19:00:00",6703.97,27.98,TRADE
QLD1,"2012/05/15 19:30:00",6619.47,27.16,TRADE
QLD1,"2012/05/15 20:00:00",6533.84,26.41,TRADE
QLD1,"2012/05/15 20:30:00",6542.5,27.73,TRADE
QLD1,"2012/05/15 21:00:00",6398.78,25.84,TRADE
QLD1,"2012/05/15 21:30:00",6258.75,25.9,TRADE
QLD1,"2012/05/15 22:00:00",6041.79,23.49,TRADE
QLD1,"2012/05/15 22:30:00",5790.35,25.47,TRADE
QLD1,"2012/05/15 23:00:00",5631.76,24.7,TRADE
QLD1,"2012/05/15 23:30:00",5489.37,24.19,TRADE
QLD1,"2012/05/16 00:00:00",5340.79,23.71,TRADE
QLD1,"2012/05/16 00:30:00",5178.71,21.94,TRADE
QLD1,"2012/05/16 01:00:00",5042.8,22.94,TRADE
QLD1,"2012/05/16 01:30:00",4876.78,23.06,TRADE
QLD1,"2012/05/16 02:00:00",4741.3,23.02,TRADE
QLD1,"2012/05/16 02:30:00",4608.55,19.91,TRADE
QLD1,"2012/05/16 03:00:00",4619.32,16.52,TRADE
QLD1,"2012/05/16 03:30:00",4595.14,15.69,TRADE
QLD1,"2012/05/16 04:00:00",4575.43,13.87,TRADE
QLD1,"2012/05/16 04:30:00",4632.55,14.59,TRADE
QLD1,"2012/05/16 05:00:00",4738.5,19.48,TRADE
QLD1,"2012/05/16 05:30:00",4965.42,22.17,TRADE
QLD1,"2012/05/16 06:00:00",5208.13,24.51,TRADE
QLD1,"2012/05/16 06:30:00",5690.63,26.1,TRADE
QLD1,"2012/05/16 07:00:00",6116.54,28.87,TRADE
QLD1,"2012/05/16 07:30:00",6498.86,29.01,TRADE
QLD1,"2012/05/16 08:00:00",6512.57,30.1,TRADE
QLD1,"2012/05/16 08:30:00",6367.05,26.89,TRADE
QLD1,"2012/05/16 09:00:00",6222.91,25.77,TRADE
QLD1,"2012/05/16 09:30:00",6139.23,25.86,TRADE
QLD1,"2012/05/16 10:00:00",6006.78,25.66,TRADE
QLD1,"2012/05/16 10:30:00",5928.27,25.69,TRADE
QLD1,"2012/05/16 11:00:00",5886.43,25.59,TRADE
QLD1,"2012/05/16 11:30:00",5853.18,24.8,TRADE
QLD1,"2012/05/16 12:00:00",5828.13,24.87,TRADE
QLD1,"2012/05/16 12:30:00",5802.09,25.7,TRADE
QLD1,"2012/05/16 13:00:00",5792.64,25.63,TRADE
QLD1,"2012/05/16 13:30:00",5794.53,25.64,TRADE
QLD1,"2012/05/16 14:00:00",5853.52,25.58,TRADE
QLD1,"2012/05/16 14:30:00",5929.13,25.74,TRADE
QLD1,"2012/05/16 15:00:00",5946.73,25.72,TRADE
QLD1,"2012/05/16 15:30:00",5987.73,25.71,TRADE
QLD1,"2012/05/16 16:00:00",6036.6,25.53,TRADE
QLD1,"2012/05/16 16:30:00",6116.13,25.72,TRADE
QLD1,"2012/05/16 17:00:00",6256.76,26.58,TRADE
QLD1,"2012/05/16 17:30:00",6464.92,30.28,TRADE
QLD1,"2012/05/16 18:00:00",6635.09,38.92,TRADE
QLD1,"2012/05/16 18:30:00",6635.2,40.39,TRADE
QLD1,"2012/05/16 19:00:00",6613.56,39.9,TRADE
QLD1,"2012/05/16 19:30:00",6504.97,31.96,TRADE
QLD1,"2012/05/16 20:00:00",6434.29,29.07,TRADE
QLD1,"2012/05/16 20:30:00",6439.14,31.77,TRADE
QLD1,"2012/05/16 21:00:00",6305.73,30.36,TRADE
QLD1,"2012/05/16 21:30:00",6199.02,28.45,TRADE
QLD1,"2012/05/16 22:00:00",5988.09,25.97,TRADE
QLD1,"2012/05/16 22:30:00",5776.4,28.82,TRADE
QLD1,"2012/05/16 23:00:00",5635.66,26.25,TRADE
QLD1,"2012/05/16 23:30:00",5494.29,24.89,TRADE
QLD1,"2012/05/17 00:00:00",5317.02,22.8,TRADE
QLD1,"2012/05/17 00:30:00",5203.83,23.44,TRADE
QLD1,"2012/05/17 01:00:00",5108.29,23.5,TRADE
QLD1,"2012/05/17 01:30:00",4896.95,24.51,TRADE
QLD1,"2012/05/17 02:00:00",4715.15,22.01,TRADE
QLD1,"2012/05/17 02:30:00",4670.13,20.57,TRADE
QLD1,"2012/05/17 03:00:00",4587.02,19.88,TRADE
QLD1,"2012/05/17 03:30:00",4560.4,18.76,TRADE
QLD1,"2012/05/17 04:00:00",4556.97,20.03,TRADE
QLD1,"2012/05/17 04:30:00",4598.49,19.21,TRADE
QLD1,"2012/05/17 05:00:00",4702.63,19.42,TRADE
QLD1,"2012/05/17 05:30:00",4925.2,21.77,TRADE
QLD1,"2012/05/17 06:00:00",5208.56,25.17,TRADE
QLD1,"2012/05/17 06:30:00",5680.36,26.54,TRADE
QLD1,"2012/05/17 07:00:00",6116.36,28.4,TRADE
QLD1,"2012/05/17 07:30:00",6476.84,28.05,TRADE
QLD1,"2012/05/17 08:00:00",6527.2,30.47,TRADE
QLD1,"2012/05/17 08:30:00",6413.37,27.76,TRADE
QLD1,"2012/05/17 09:00:00",6275.03,25.75,TRADE
QLD1,"2012/05/17 09:30:00",6188.56,25.75,TRADE
QLD1,"2012/05/17 10:00:00",6060.09,25.23,TRADE
QLD1,"2012/05/17 10:30:00",6051.16,24.41,TRADE
QLD1,"2012/05/17 11:00:00",6035.74,24.84,TRADE
QLD1,"2012/05/17 11:30:00",6028.51,24.8,TRADE
QLD1,"2012/05/17 12:00:00",6037.71,24.37,TRADE
QLD1,"2012/05/17 12:30:00",6032.39,23.74,TRADE
QLD1,"2012/05/17 13:00:00",6076.41,24.33,TRADE
QLD1,"2012/05/17 13:30:00",6063.8,24.49,TRADE
QLD1,"2012/05/17 14:00:00",6073.68,24.51,TRADE
QLD1,"2012/05/17 14:30:00",6111.36,24.84,TRADE
QLD1,"2012/05/17 15:00:00",6104.71,24.8,TRADE
QLD1,"2012/05/17 15:30:00",6137.47,25.09,TRADE
QLD1,"2012/05/17 16:00:00",6159.95,24.67,TRADE
QLD1,"2012/05/17 16:30:00",6216.54,25.39,TRADE
QLD1,"2012/05/17 17:00:00",6329.51,25.72,TRADE
QLD1,"2012/05/17 17:30:00",6520.04,27.37,TRADE
QLD1,"2012/05/17 18:00:00",6704.97,34.21,TRADE
QLD1,"2012/05/17 18:30:00",6703.1,34.9,TRADE
QLD1,"2012/05/17 19:00:00",6689.23,29.56,TRADE
QLD1,"2012/05/17 19:30:00",6616.22,28.22,TRADE
QLD1,"2012/05/17 20:00:00",6563.32,27.68,TRADE
QLD1,"2012/05/17 20:30:00",6535.06,28.15,TRADE
QLD1,"2012/05/17 21:00:00",6388.82,26.29,TRADE
QLD1,"2012/05/17 21:30:00",6178.01,23.82,TRADE
QLD1,"2012/05/17 22:00:00",5975.87,21.06,TRADE
QLD1,"2012/05/17 22:30:00",5782.05,22.71,TRADE
QLD1,"2012/05/17 23:00:00",5646.97,22.84,TRADE
QLD1,"2012/05/17 23:30:00",5530.17,21.95,TRADE
QLD1,"2012/05/18 00:00:00",5305.45,19.02,TRADE
QLD1,"2012/05/18 00:30:00",5130.54,18.91,TRADE
QLD1,"2012/05/18 01:00:00",5058.51,21.06,TRADE
QLD1,"2012/05/18 01:30:00",4893.12,20.11,TRADE
QLD1,"2012/05/18 02:00:00",4714.8,21.65,TRADE
QLD1,"2012/05/18 02:30:00",4634.2,19.47,TRADE
QLD1,"2012/05/18 03:00:00",4583.83,15.48,TRADE
QLD1,"2012/05/18 03:30:00",4572.02,13.07,TRADE
QLD1,"2012/05/18 04:00:00",4554.14,12.83,TRADE
QLD1,"2012/05/18 04:30:00",4622.62,17.35,TRADE
QLD1,"2012/05/18 05:00:00",4716.46,17.25,TRADE
QLD1,"2012/05/18 05:30:00",4936.19,19.48,TRADE
QLD1,"2012/05/18 06:00:00",5171.75,19.44,TRADE
QLD1,"2012/05/18 06:30:00",5585.43,23.64,TRADE
QLD1,"2012/05/18 07:00:00",5991.14,25.46,TRADE
QLD1,"2012/05/18 07:30:00",6361.33,26.22,TRADE
QLD1,"2012/05/18 08:00:00",6395.81,27.16,TRADE
QLD1,"2012/05/18 08:30:00",6320.78,26.04,TRADE
QLD1,"2012/05/18 09:00:00",6268.86,26.5,TRADE
QLD1,"2012/05/18 09:30:00",6161.5,26.12,TRADE
QLD1,"2012/05/18 10:00:00",6054.05,25.73,TRADE
QLD1,"2012/05/18 10:30:00",5996.79,25.74,TRADE
QLD1,"2012/05/18 11:00:00",5981.85,25.75,TRADE
QLD1,"2012/05/18 11:30:00",5976.33,25.72,TRADE
QLD1,"2012/05/18 12:00:00",6003.6,25.74,TRADE
QLD1,"2012/05/18 12:30:00",5994.32,25.71,TRADE
QLD1,"2012/05/18 13:00:00",5983.56,25.1,TRADE
QLD1,"2012/05/18 13:30:00",6025.68,25.62,TRADE
QLD1,"2012/05/18 14:00:00",6029.69,25.77,TRADE
QLD1,"2012/05/18 14:30:00",6021.37,25.61,TRADE
QLD1,"2012/05/18 15:00:00",6005.51,24.69,TRADE
QLD1,"2012/05/18 15:30:00",5993.08,24.36,TRADE
QLD1,"2012/05/18 16:00:00",6070.11,24.32,TRADE
QLD1,"2012/05/18 16:30:00",6112.78,24.99,TRADE
QLD1,"2012/05/18 17:00:00",6214.99,24.12,TRADE
QLD1,"2012/05/18 17:30:00",6348.3,25,TRADE
QLD1,"2012/05/18 18:00:00",6507.38,28.17,TRADE
QLD1,"2012/05/18 18:30:00",6429.69,26.18,TRADE
QLD1,"2012/05/18 19:00:00",6353.08,24.96,TRADE
QLD1,"2012/05/18 19:30:00",6265.45,24.29,TRADE
QLD1,"2012/05/18 20:00:00",6220.17,24.8,TRADE
QLD1,"2012/05/18 20:30:00",6243.28,25.76,TRADE
QLD1,"2012/05/18 21:00:00",6097.76,25.2,TRADE
QLD1,"2012/05/18 21:30:00",5960.27,23.92,TRADE
QLD1,"2012/05/18 22:00:00",5840.26,22.66,TRADE
QLD1,"2012/05/18 22:30:00",5688.08,25.51,TRADE
QLD1,"2012/05/18 23:00:00",5561.17,25.63,TRADE
QLD1,"2012/05/18 23:30:00",5437.17,24.48,TRADE
QLD1,"2012/05/19 00:00:00",5305.73,23.89,TRADE
QLD1,"2012/05/19 00:30:00",5113.63,23.58,TRADE
QLD1,"2012/05/19 01:00:00",4962.26,23.86,TRADE
QLD1,"2012/05/19 01:30:00",4769.14,23.67,TRADE
QLD1,"2012/05/19 02:00:00",4630.47,22,TRADE
QLD1,"2012/05/19 02:30:00",4534.26,19.29,TRADE
QLD1,"2012/05/19 03:00:00",4524.79,15.41,TRADE
QLD1,"2012/05/19 03:30:00",4447.2,13.18,TRADE
QLD1,"2012/05/19 04:00:00",4423.26,16.82,TRADE
QLD1,"2012/05/19 04:30:00",4479.22,16.78,TRADE
QLD1,"2012/05/19 05:00:00",4533.4,14.54,TRADE
QLD1,"2012/05/19 05:30:00",4619.39,15.44,TRADE
QLD1,"2012/05/19 06:00:00",4695.2,18.37,TRADE
QLD1,"2012/05/19 06:30:00",4869.25,18.47,TRADE
QLD1,"2012/05/19 07:00:00",5050.93,18.68,TRADE
QLD1,"2012/05/19 07:30:00",5330.55,20.37,TRADE
QLD1,"2012/05/19 08:00:00",5480.64,22.17,TRADE
QLD1,"2012/05/19 08:30:00",5627.7,23.31,TRADE
QLD1,"2012/05/19 09:00:00",5673.29,23.17,TRADE
QLD1,"2012/05/19 09:30:00",5693.18,23.98,TRADE
QLD1,"2012/05/19 10:00:00",5645.49,23.03,TRADE
QLD1,"2012/05/19 10:30:00",5606.93,23.05,TRADE
QLD1,"2012/05/19 11:00:00",5532.39,22.51,TRADE
QLD1,"2012/05/19 11:30:00",5467.7,22.12,TRADE
QLD1,"2012/05/19 12:00:00",5449.81,22.85,TRADE
QLD1,"2012/05/19 12:30:00",5386.06,22.71,TRADE
QLD1,"2012/05/19 13:00:00",5360.22,22.43,TRADE
QLD1,"2012/05/19 13:30:00",5335.26,22.39,TRADE
QLD1,"2012/05/19 14:00:00",5357.9,22.78,TRADE
QLD1,"2012/05/19 14:30:00",5336.03,22.58,TRADE
QLD1,"2012/05/19 15:00:00",5377.79,22.83,TRADE
QLD1,"2012/05/19 15:30:00",5427.34,23.16,TRADE
QLD1,"2012/05/19 16:00:00",5468.26,23.89,TRADE
QLD1,"2012/05/19 16:30:00",5567.47,25.37,TRADE
QLD1,"2012/05/19 17:00:00",5756.04,26.42,TRADE
QLD1,"2012/05/19 17:30:00",5948.63,26.1,TRADE
QLD1,"2012/05/19 18:00:00",6110.35,25.79,TRADE
QLD1,"2012/05/19 18:30:00",6072.66,26.26,TRADE
QLD1,"2012/05/19 19:00:00",6002.22,25.54,TRADE
QLD1,"2012/05/19 19:30:00",5955.28,24.96,TRADE
QLD1,"2012/05/19 20:00:00",5886.08,24.78,TRADE
QLD1,"2012/05/19 20:30:00",5863.06,24.66,TRADE
QLD1,"2012/05/19 21:00:00",5797.31,23.22,TRADE
QLD1,"2012/05/19 21:30:00",5678.94,22.89,TRADE
QLD1,"2012/05/19 22:00:00",5537.1,22.55,TRADE
QLD1,"2012/05/19 22:30:00",5453.33,22.83,TRADE
QLD1,"2012/05/19 23:00:00",5402.8,23.09,TRADE
QLD1,"2012/05/19 23:30:00",5289.09,23.14,TRADE
QLD1,"2012/05/20 00:00:00",5158.25,22.12,TRADE
QLD1,"2012/05/20 00:30:00",5009.56,21.04,TRADE
QLD1,"2012/05/20 01:00:00",4889.6,20.07,TRADE
QLD1,"2012/05/20 01:30:00",4731.71,20.2,TRADE
QLD1,"2012/05/20 02:00:00",4563.18,21.07,TRADE
QLD1,"2012/05/20 02:30:00",4455.85,15.83,TRADE
QLD1,"2012/05/20 03:00:00",4406.41,13.78,TRADE
QLD1,"2012/05/20 03:30:00",4428.28,12.99,TRADE
QLD1,"2012/05/20 04:00:00",4407.92,16.9,TRADE
QLD1,"2012/05/20 04:30:00",4432.48,13.49,TRADE
QLD1,"2012/05/20 05:00:00",4459.96,13.8,TRADE
QLD1,"2012/05/20 05:30:00",4514.07,17.47,TRADE
QLD1,"2012/05/20 06:00:00",4533.83,14.05,TRADE
QLD1,"2012/05/20 06:30:00",4654.66,16.71,TRADE
QLD1,"2012/05/20 07:00:00",4826.21,19.75,TRADE
QLD1,"2012/05/20 07:30:00",5038.91,19.86,TRADE
QLD1,"2012/05/20 08:00:00",5195.68,20.33,TRADE
QLD1,"2012/05/20 08:30:00",5322.31,21.55,TRADE
QLD1,"2012/05/20 09:00:00",5433.79,22.65,TRADE
QLD1,"2012/05/20 09:30:00",5490.41,24.13,TRADE
QLD1,"2012/05/20 10:00:00",5470.72,24.06,TRADE
QLD1,"2012/05/20 10:30:00",5448.09,23.76,TRADE
QLD1,"2012/05/20 11:00:00",5390.62,23.24,TRADE
QLD1,"2012/05/20 11:30:00",5343.57,23.26,TRADE
QLD1,"2012/05/20 12:00:00",5315.03,23.58,TRADE
QLD1,"2012/05/20 12:30:00",5271.74,22.58,TRADE
QLD1,"2012/05/20 13:00:00",5209.22,22.5,TRADE
QLD1,"2012/05/20 13:30:00",5252.06,22.8,TRADE
QLD1,"2012/05/20 14:00:00",5222.2,22.77,TRADE
QLD1,"2012/05/20 14:30:00",5219.02,22.7,TRADE
QLD1,"2012/05/20 15:00:00",5224.21,22.62,TRADE
QLD1,"2012/05/20 15:30:00",5320.72,23.36,TRADE
QLD1,"2012/05/20 16:00:00",5439.34,23.7,TRADE
QLD1,"2012/05/20 16:30:00",5527.14,25.5,TRADE
QLD1,"2012/05/20 17:00:00",5712.67,25.91,TRADE
QLD1,"2012/05/20 17:30:00",6021.77,27.39,TRADE
QLD1,"2012/05/20 18:00:00",6266.27,33.05,TRADE
QLD1,"2012/05/20 18:30:00",6286.73,36.41,TRADE
QLD1,"2012/05/20 19:00:00",6206.8,32.22,TRADE
QLD1,"2012/05/20 19:30:00",6090.35,26.92,TRADE
QLD1,"2012/05/20 20:00:00",6035.31,31.02,TRADE
QLD1,"2012/05/20 20:30:00",6007.25,28.49,TRADE
QLD1,"2012/05/20 21:00:00",5944.94,25.45,TRADE
QLD1,"2012/05/20 21:30:00",5797.36,24.03,TRADE
QLD1,"2012/05/20 22:00:00",5596.99,22.86,TRADE
QLD1,"2012/05/20 22:30:00",5454.77,24.07,TRADE
QLD1,"2012/05/20 23:00:00",5344.73,23.32,TRADE
QLD1,"2012/05/20 23:30:00",5280.55,23.38,TRADE
QLD1,"2012/05/21 00:00:00",5112.46,21.4,TRADE
QLD1,"2012/05/21 00:30:00",4950.06,21.51,TRADE
QLD1,"2012/05/21 01:00:00",4846.47,19.7,TRADE
QLD1,"2012/05/21 01:30:00",4716.82,21.34,TRADE
QLD1,"2012/05/21 02:00:00",4625.37,21.19,TRADE
QLD1,"2012/05/21 02:30:00",4510.92,18.71,TRADE
QLD1,"2012/05/21 03:00:00",4454.67,16.44,TRADE
QLD1,"2012/05/21 03:30:00",4447.33,14.24,TRADE
QLD1,"2012/05/21 04:00:00",4472.83,16.41,TRADE
QLD1,"2012/05/21 04:30:00",4499.43,14.61,TRADE
QLD1,"2012/05/21 05:00:00",4605.02,15.59,TRADE
QLD1,"2012/05/21 05:30:00",4819.5,21.07,TRADE
QLD1,"2012/05/21 06:00:00",5089.49,23.54,TRADE
QLD1,"2012/05/21 06:30:00",5579.31,25.48,TRADE
QLD1,"2012/05/21 07:00:00",6039.81,25.99,TRADE
QLD1,"2012/05/21 07:30:00",6404.96,27.11,TRADE
QLD1,"2012/05/21 08:00:00",6490.01,30.96,TRADE
QLD1,"2012/05/21 08:30:00",6375.36,29.24,TRADE
QLD1,"2012/05/21 09:00:00",6283.82,26.02,TRADE
QLD1,"2012/05/21 09:30:00",6230.37,26.55,TRADE
QLD1,"2012/05/21 10:00:00",6157.43,25.69,TRADE
QLD1,"2012/05/21 10:30:00",6115.56,25.63,TRADE
QLD1,"2012/05/21 11:00:00",6118.72,25.66,TRADE
QLD1,"2012/05/21 11:30:00",6109.02,25.61,TRADE
QLD1,"2012/05/21 12:00:00",6102.28,25.48,TRADE
QLD1,"2012/05/21 12:30:00",6083.9,25.78,TRADE
QLD1,"2012/05/21 13:00:00",6064.62,25.59,TRADE
QLD1,"2012/05/21 13:30:00",6111.37,24.7,TRADE
QLD1,"2012/05/21 14:00:00",6168.13,25.28,TRADE
QLD1,"2012/05/21 14:30:00",6140.12,24.89,TRADE
QLD1,"2012/05/21 15:00:00",6137.96,24.14,TRADE
QLD1,"2012/05/21 15:30:00",6170.6,25.57,TRADE
QLD1,"2012/05/21 16:00:00",6222.74,25.78,TRADE
QLD1,"2012/05/21 16:30:00",6300.62,25.95,TRADE
QLD1,"2012/05/21 17:00:00",6489.35,26.17,TRADE
QLD1,"2012/05/21 17:30:00",6671.49,27.11,TRADE
QLD1,"2012/05/21 18:00:00",6890.33,32.29,TRADE
QLD1,"2012/05/21 18:30:00",6791.08,28.98,TRADE
QLD1,"2012/05/21 19:00:00",6672.13,26.93,TRADE
QLD1,"2012/05/21 19:30:00",6559.47,25.51,TRADE
QLD1,"2012/05/21 20:00:00",6515.96,25.73,TRADE
QLD1,"2012/05/21 20:30:00",6497.3,26.08,TRADE
QLD1,"2012/05/21 21:00:00",6363.76,25.35,TRADE
QLD1,"2012/05/21 21:30:00",6181.6,23.76,TRADE
QLD1,"2012/05/21 22:00:00",5977.86,22.37,TRADE
QLD1,"2012/05/21 22:30:00",5786.27,23.6,TRADE
QLD1,"2012/05/21 23:00:00",5631.48,22.96,TRADE
QLD1,"2012/05/21 23:30:00",5489.31,22.7,TRADE
QLD1,"2012/05/22 00:00:00",5278.93,20.75,TRADE
QLD1,"2012/05/22 00:30:00",5146.46,18.07,TRADE
QLD1,"2012/05/22 01:00:00",5019.39,17.88,TRADE
QLD1,"2012/05/22 01:30:00",4850.12,19.49,TRADE
QLD1,"2012/05/22 02:00:00",4713.31,18.54,TRADE
QLD1,"2012/05/22 02:30:00",4628.36,15.16,TRADE
QLD1,"2012/05/22 03:00:00",4571.28,14.17,TRADE
QLD1,"2012/05/22 03:30:00",4539.65,14.45,TRADE
QLD1,"2012/05/22 04:00:00",4542.91,13.16,TRADE
QLD1,"2012/05/22 04:30:00",4577.73,13.15,TRADE
QLD1,"2012/05/22 05:00:00",4664.09,13.26,TRADE
QLD1,"2012/05/22 05:30:00",4878.45,18.94,TRADE
QLD1,"2012/05/22 06:00:00",5172.17,23.58,TRADE
QLD1,"2012/05/22 06:30:00",5614.11,24.9,TRADE
QLD1,"2012/05/22 07:00:00",5989.86,24.47,TRADE
QLD1,"2012/05/22 07:30:00",6330.09,26.45,TRADE
QLD1,"2012/05/22 08:00:00",6378.33,26.1,TRADE
QLD1,"2012/05/22 08:30:00",6297.59,25.61,TRADE
QLD1,"2012/05/22 09:00:00",6166.1,25.74,TRADE
QLD1,"2012/05/22 09:30:00",6128.65,26.01,TRADE
QLD1,"2012/05/22 10:00:00",6090.18,25.71,TRADE
QLD1,"2012/05/22 10:30:00",6020.02,25.05,TRADE
QLD1,"2012/05/22 11:00:00",5986.63,24.91,TRADE
QLD1,"2012/05/22 11:30:00",5990.42,24.23,TRADE
QLD1,"2012/05/22 12:00:00",5997.22,23.78,TRADE
QLD1,"2012/05/22 12:30:00",6006.67,23.5,TRADE
QLD1,"2012/05/22 13:00:00",6007.14,23.36,TRADE
QLD1,"2012/05/22 13:30:00",6043.17,23.32,TRADE
QLD1,"2012/05/22 14:00:00",6039.44,23.67,TRADE
QLD1,"2012/05/22 14:30:00",6033.41,23.79,TRADE
QLD1,"2012/05/22 15:00:00",6059.66,23.93,TRADE
QLD1,"2012/05/22 15:30:00",6045.91,24.04,TRADE
QLD1,"2012/05/22 16:00:00",6126.75,25.72,TRADE
QLD1,"2012/05/22 16:30:00",6268.04,25.74,TRADE
QLD1,"2012/05/22 17:00:00",6389.41,25.4,TRADE
QLD1,"2012/05/22 17:30:00",6598.37,27.71,TRADE
QLD1,"2012/05/22 18:00:00",6756.49,31.91,TRADE
QLD1,"2012/05/22 18:30:00",6700.47,30.32,TRADE
QLD1,"2012/05/22 19:00:00",6631.67,27.87,TRADE
QLD1,"2012/05/22 19:30:00",6502.13,26.13,TRADE
QLD1,"2012/05/22 20:00:00",6451.16,26.4,TRADE
QLD1,"2012/05/22 20:30:00",6399.62,26.11,TRADE
QLD1,"2012/05/22 21:00:00",6228.59,27.08,TRADE
QLD1,"2012/05/22 21:30:00",6083.94,29.55,TRADE
QLD1,"2012/05/22 22:00:00",5863.5,26.46,TRADE
QLD1,"2012/05/22 22:30:00",5630.18,30.88,TRADE
QLD1,"2012/05/22 23:00:00",5533.69,30.2,TRADE
QLD1,"2012/05/22 23:30:00",5383.04,30.28,TRADE
QLD1,"2012/05/23 00:00:00",5203.46,29.11,TRADE
QLD1,"2012/05/23 00:30:00",5059.73,23.81,TRADE
QLD1,"2012/05/23 01:00:00",4919.12,23.27,TRADE
QLD1,"2012/05/23 01:30:00",4770.86,23.89,TRADE
QLD1,"2012/05/23 02:00:00",4629.71,23.08,TRADE
QLD1,"2012/05/23 02:30:00",4507.77,19.35,TRADE
QLD1,"2012/05/23 03:00:00",4497.26,16.01,TRADE
QLD1,"2012/05/23 03:30:00",4523.61,12.92,TRADE
QLD1,"2012/05/23 04:00:00",4534.58,13.56,TRADE
QLD1,"2012/05/23 04:30:00",4602.28,13.35,TRADE
QLD1,"2012/05/23 05:00:00",4695.44,18.96,TRADE
QLD1,"2012/05/23 05:30:00",4916.39,22.49,TRADE
QLD1,"2012/05/23 06:00:00",5139.84,25.75,TRADE
QLD1,"2012/05/23 06:30:00",5533.08,28.82,TRADE
QLD1,"2012/05/23 07:00:00",5937.76,35.27,TRADE
QLD1,"2012/05/23 07:30:00",6240.73,32.83,TRADE
QLD1,"2012/05/23 08:00:00",6369.1,32.09,TRADE
QLD1,"2012/05/23 08:30:00",6262.01,30.7,TRADE
QLD1,"2012/05/23 09:00:00",6154.25,30.19,TRADE
QLD1,"2012/05/23 09:30:00",6137.04,29.32,TRADE
QLD1,"2012/05/23 10:00:00",6032.76,27.2,TRADE
QLD1,"2012/05/23 10:30:00",5981.79,28.65,TRADE
QLD1,"2012/05/23 11:00:00",5969.15,26.77,TRADE
QLD1,"2012/05/23 11:30:00",5980.68,27.13,TRADE
QLD1,"2012/05/23 12:00:00",6024.41,28.21,TRADE
QLD1,"2012/05/23 12:30:00",6037.55,28.42,TRADE
QLD1,"2012/05/23 13:00:00",6037.26,30.3,TRADE
QLD1,"2012/05/23 13:30:00",6072.16,31.04,TRADE
QLD1,"2012/05/23 14:00:00",6042.63,28.87,TRADE
QLD1,"2012/05/23 14:30:00",6036.95,26.39,TRADE
QLD1,"2012/05/23 15:00:00",6033.76,26.2,TRADE
QLD1,"2012/05/23 15:30:00",6048.49,29.66,TRADE
QLD1,"2012/05/23 16:00:00",6100.41,28.28,TRADE
QLD1,"2012/05/23 16:30:00",6207.01,27.45,TRADE
QLD1,"2012/05/23 17:00:00",6373.21,27,TRADE
QLD1,"2012/05/23 17:30:00",6521.87,31.03,TRADE
QLD1,"2012/05/23 18:00:00",6665.21,33.17,TRADE
QLD1,"2012/05/23 18:30:00",6634.41,32.32,TRADE
QLD1,"2012/05/23 19:00:00",6574.8,32.22,TRADE
QLD1,"2012/05/23 19:30:00",6411.05,29.52,TRADE
QLD1,"2012/05/23 20:00:00",6334.58,29.92,TRADE
QLD1,"2012/05/23 20:30:00",6301.23,29.4,TRADE
QLD1,"2012/05/23 21:00:00",6126.9,28.03,TRADE
QLD1,"2012/05/23 21:30:00",6016.18,28.31,TRADE
QLD1,"2012/05/23 22:00:00",5834.42,25.97,TRADE
QLD1,"2012/05/23 22:30:00",5604.05,27.21,TRADE
QLD1,"2012/05/23 23:00:00",5523.3,27.26,TRADE
QLD1,"2012/05/23 23:30:00",5383.92,27.99,TRADE
QLD1,"2012/05/24 00:00:00",5211.62,27.39,TRADE
QLD1,"2012/05/24 00:30:00",5048.63,23.15,TRADE
QLD1,"2012/05/24 01:00:00",4899.43,22.21,TRADE
QLD1,"2012/05/24 01:30:00",4711.28,22.48,TRADE
QLD1,"2012/05/24 02:00:00",4591.64,18.61,TRADE
QLD1,"2012/05/24 02:30:00",4513.58,16.87,TRADE
QLD1,"2012/05/24 03:00:00",4436.31,13.46,TRADE
QLD1,"2012/05/24 03:30:00",4396.19,14.45,TRADE
QLD1,"2012/05/24 04:00:00",4429.82,12.86,TRADE
QLD1,"2012/05/24 04:30:00",4458.1,13.78,TRADE
QLD1,"2012/05/24 05:00:00",4577.34,14.95,TRADE
QLD1,"2012/05/24 05:30:00",4759.41,20.97,TRADE
QLD1,"2012/05/24 06:00:00",5007.45,24.06,TRADE
QLD1,"2012/05/24 06:30:00",5440.98,28.42,TRADE
QLD1,"2012/05/24 07:00:00",5834.14,30.31,TRADE
QLD1,"2012/05/24 07:30:00",6204.04,30.29,TRADE
QLD1,"2012/05/24 08:00:00",6365.61,30,TRADE
QLD1,"2012/05/24 08:30:00",6341.34,30.9,TRADE
QLD1,"2012/05/24 09:00:00",6261.38,28.91,TRADE
QLD1,"2012/05/24 09:30:00",6244.13,29.83,TRADE
QLD1,"2012/05/24 10:00:00",6196.25,30.06,TRADE
QLD1,"2012/05/24 10:30:00",6180.75,29.99,TRADE
QLD1,"2012/05/24 11:00:00",6142.79,29.86,TRADE
QLD1,"2012/05/24 11:30:00",6147.24,30.26,TRADE
QLD1,"2012/05/24 12:00:00",6142.45,30.39,TRADE
QLD1,"2012/05/24 12:30:00",6107.81,30,TRADE
QLD1,"2012/05/24 13:00:00",6118.59,31.14,TRADE
QLD1,"2012/05/24 13:30:00",6147.97,34.73,TRADE
QLD1,"2012/05/24 14:00:00",6142.57,35.06,TRADE
QLD1,"2012/05/24 14:30:00",6121.92,31.71,TRADE
QLD1,"2012/05/24 15:00:00",6130.33,33.06,TRADE
QLD1,"2012/05/24 15:30:00",6126.6,28.28,TRADE
QLD1,"2012/05/24 16:00:00",6151.43,28.67,TRADE
QLD1,"2012/05/24 16:30:00",6231.13,27,TRADE
QLD1,"2012/05/24 17:00:00",6387.1,32.23,TRADE
QLD1,"2012/05/24 17:30:00",6567.9,33.93,TRADE
QLD1,"2012/05/24 18:00:00",6680.46,35.4,TRADE
QLD1,"2012/05/24 18:30:00",6664.7,34.78,TRADE
QLD1,"2012/05/24 19:00:00",6584.85,32.55,TRADE
QLD1,"2012/05/24 19:30:00",6485.72,32.71,TRADE
QLD1,"2012/05/24 20:00:00",6473.38,30.73,TRADE
QLD1,"2012/05/24 20:30:00",6447.22,31.3,TRADE
QLD1,"2012/05/24 21:00:00",6330.58,28.57,TRADE
QLD1,"2012/05/24 21:30:00",6116.88,26.08,TRADE
QLD1,"2012/05/24 22:00:00",5901.55,24.74,TRADE
QLD1,"2012/05/24 22:30:00",5695.74,25.74,TRADE
QLD1,"2012/05/24 23:00:00",5565.59,23.76,TRADE
QLD1,"2012/05/24 23:30:00",5454.39,24.83,TRADE
QLD1,"2012/05/25 00:00:00",5288.74,23.78,TRADE
QLD1,"2012/05/25 00:30:00",5137.19,22.74,TRADE
QLD1,"2012/05/25 01:00:00",4993.21,22.38,TRADE
QLD1,"2012/05/25 01:30:00",4812.63,22.69,TRADE
QLD1,"2012/05/25 02:00:00",4654.34,20.42,TRADE
QLD1,"2012/05/25 02:30:00",4534.02,18.23,TRADE
QLD1,"2012/05/25 03:00:00",4482.22,16.4,TRADE
QLD1,"2012/05/25 03:30:00",4497.47,14.53,TRADE
QLD1,"2012/05/25 04:00:00",4489.09,13.43,TRADE
QLD1,"2012/05/25 04:30:00",4534.55,19.3,TRADE
QLD1,"2012/05/25 05:00:00",4625.27,20.17,TRADE
QLD1,"2012/05/25 05:30:00",4745.15,20.41,TRADE
QLD1,"2012/05/25 06:00:00",5007.81,22.13,TRADE
QLD1,"2012/05/25 06:30:00",5402.66,23.89,TRADE
QLD1,"2012/05/25 07:00:00",5836.07,25.41,TRADE
QLD1,"2012/05/25 07:30:00",6201.47,25.5,TRADE
QLD1,"2012/05/25 08:00:00",6335.39,27.61,TRADE
QLD1,"2012/05/25 08:30:00",6399.7,28.16,TRADE
QLD1,"2012/05/25 09:00:00",6402.4,27.72,TRADE
QLD1,"2012/05/25 09:30:00",6438.94,28.65,TRADE
QLD1,"2012/05/25 10:00:00",6427.93,28.41,TRADE
QLD1,"2012/05/25 10:30:00",6451.73,28.88,TRADE
QLD1,"2012/05/25 11:00:00",6415.63,29.79,TRADE
QLD1,"2012/05/25 11:30:00",6348.68,27.12,TRADE
QLD1,"2012/05/25 12:00:00",6320.2,27.23,TRADE
QLD1,"2012/05/25 12:30:00",6298.57,26.23,TRADE
QLD1,"2012/05/25 13:00:00",6285.63,26.17,TRADE
QLD1,"2012/05/25 13:30:00",6261.87,25.86,TRADE
QLD1,"2012/05/25 14:00:00",6235.28,25.91,TRADE
QLD1,"2012/05/25 14:30:00",6243.11,26.03,TRADE
QLD1,"2012/05/25 15:00:00",6167.61,25.76,TRADE
QLD1,"2012/05/25 15:30:00",6180.01,25.9,TRADE
QLD1,"2012/05/25 16:00:00",6265.23,26.35,TRADE
QLD1,"2012/05/25 16:30:00",6320.05,27.17,TRADE
QLD1,"2012/05/25 17:00:00",6527.24,29.08,TRADE
QLD1,"2012/05/25 17:30:00",6656.35,31.2,TRADE
QLD1,"2012/05/25 18:00:00",6659.15,37.82,TRADE
QLD1,"2012/05/25 18:30:00",6582.56,59.8,TRADE
QLD1,"2012/05/25 19:00:00",6460.24,43.26,TRADE
QLD1,"2012/05/25 19:30:00",6399.79,39.72,TRADE
QLD1,"2012/05/25 20:00:00",6334.58,33.73,TRADE
QLD1,"2012/05/25 20:30:00",6328.31,34.97,TRADE
QLD1,"2012/05/25 21:00:00",6183.85,29.38,TRADE
QLD1,"2012/05/25 21:30:00",6021.99,25.67,TRADE
QLD1,"2012/05/25 22:00:00",5874.41,26.37,TRADE
QLD1,"2012/05/25 22:30:00",5680.08,30.5,TRADE
QLD1,"2012/05/25 23:00:00",5552.1,28.27,TRADE
QLD1,"2012/05/25 23:30:00",5428.98,31.73,TRADE
QLD1,"2012/05/26 00:00:00",5215.1,28.51,TRADE
QLD1,"2012/05/26 00:30:00",5079.96,25.54,TRADE
QLD1,"2012/05/26 01:00:00",4937.21,21.8,TRADE
QLD1,"2012/05/26 01:30:00",4755.3,24.53,TRADE
QLD1,"2012/05/26 02:00:00",4580.33,24.43,TRADE
QLD1,"2012/05/26 02:30:00",4487.02,23.14,TRADE
QLD1,"2012/05/26 03:00:00",4414.52,21.97,TRADE
QLD1,"2012/05/26 03:30:00",4372.41,20.4,TRADE
QLD1,"2012/05/26 04:00:00",4382.41,19.74,TRADE
QLD1,"2012/05/26 04:30:00",4426.27,19.89,TRADE
QLD1,"2012/05/26 05:00:00",4452.83,19.41,TRADE
QLD1,"2012/05/26 05:30:00",4515.5,20.46,TRADE
QLD1,"2012/05/26 06:00:00",4585.43,21.6,TRADE
QLD1,"2012/05/26 06:30:00",4811.52,23.28,TRADE
QLD1,"2012/05/26 07:00:00",5029.09,23.47,TRADE
QLD1,"2012/05/26 07:30:00",5344.35,24.19,TRADE
QLD1,"2012/05/26 08:00:00",5591.98,28.46,TRADE
QLD1,"2012/05/26 08:30:00",5780.86,29.56,TRADE
QLD1,"2012/05/26 09:00:00",5932.02,34.1,TRADE
QLD1,"2012/05/26 09:30:00",5946.26,35.47,TRADE
QLD1,"2012/05/26 10:00:00",5833.86,35.32,TRADE
QLD1,"2012/05/26 10:30:00",5708.66,35.55,TRADE
QLD1,"2012/05/26 11:00:00",5614.68,30.9,TRADE
QLD1,"2012/05/26 11:30:00",5502.4,30.3,TRADE
QLD1,"2012/05/26 12:00:00",5437.84,30.1,TRADE
QLD1,"2012/05/26 12:30:00",5320.07,29.4,TRADE
QLD1,"2012/05/26 13:00:00",5267.06,28.93,TRADE
QLD1,"2012/05/26 13:30:00",5238.87,29.58,TRADE
QLD1,"2012/05/26 14:00:00",5224.94,29.46,TRADE
QLD1,"2012/05/26 14:30:00",5227.39,29.09,TRADE
QLD1,"2012/05/26 15:00:00",5242.38,28.44,TRADE
QLD1,"2012/05/26 15:30:00",5348.98,29.2,TRADE
QLD1,"2012/05/26 16:00:00",5442.39,29.92,TRADE
QLD1,"2012/05/26 16:30:00",5560.57,35.19,TRADE
QLD1,"2012/05/26 17:00:00",5813.34,38.27,TRADE
QLD1,"2012/05/26 17:30:00",6065,43.89,TRADE
QLD1,"2012/05/26 18:00:00",6246.22,69.04,TRADE
QLD1,"2012/05/26 18:30:00",6224.91,40.3,TRADE
QLD1,"2012/05/26 19:00:00",6275.74,37.03,TRADE
QLD1,"2012/05/26 19:30:00",6201.45,39.81,TRADE
QLD1,"2012/05/26 20:00:00",6216.06,35.71,TRADE
QLD1,"2012/05/26 20:30:00",6181.08,35.96,TRADE
QLD1,"2012/05/26 21:00:00",6060.78,34.27,TRADE
QLD1,"2012/05/26 21:30:00",5993.68,29.1,TRADE
QLD1,"2012/05/26 22:00:00",5843.44,27.15,TRADE
QLD1,"2012/05/26 22:30:00",5703.12,30.63,TRADE
QLD1,"2012/05/26 23:00:00",5586.26,34.04,TRADE
QLD1,"2012/05/26 23:30:00",5452.81,30.05,TRADE
QLD1,"2012/05/27 00:00:00",5252.62,28.65,TRADE
QLD1,"2012/05/27 00:30:00",5172.02,28.17,TRADE
QLD1,"2012/05/27 01:00:00",5007.44,26.4,TRADE
QLD1,"2012/05/27 01:30:00",4813.7,25.74,TRADE
QLD1,"2012/05/27 02:00:00",4673.14,24.03,TRADE
QLD1,"2012/05/27 02:30:00",4561.8,19.58,TRADE
QLD1,"2012/05/27 03:00:00",4501.69,20.12,TRADE
QLD1,"2012/05/27 03:30:00",4469.66,19.38,TRADE
QLD1,"2012/05/27 04:00:00",4447.88,19.52,TRADE
QLD1,"2012/05/27 04:30:00",4454.33,17.71,TRADE
QLD1,"2012/05/27 05:00:00",4504.39,19.85,TRADE
QLD1,"2012/05/27 05:30:00",4566.58,20.04,TRADE
QLD1,"2012/05/27 06:00:00",4645.5,20.13,TRADE
QLD1,"2012/05/27 06:30:00",4758.52,20.2,TRADE
QLD1,"2012/05/27 07:00:00",4929.99,20.41,TRADE
QLD1,"2012/05/27 07:30:00",5132.29,21.27,TRADE
QLD1,"2012/05/27 08:00:00",5333.62,22.8,TRADE
QLD1,"2012/05/27 08:30:00",5482.93,24.18,TRADE
QLD1,"2012/05/27 09:00:00",5580.81,23.63,TRADE
QLD1,"2012/05/27 09:30:00",5609.72,26.24,TRADE
QLD1,"2012/05/27 10:00:00",5581.92,26.28,TRADE
QLD1,"2012/05/27 10:30:00",5482.17,25.09,TRADE
QLD1,"2012/05/27 11:00:00",5368.25,24.02,TRADE
QLD1,"2012/05/27 11:30:00",5284.92,22.66,TRADE
QLD1,"2012/05/27 12:00:00",5246.35,22.47,TRADE
QLD1,"2012/05/27 12:30:00",5185.68,22.15,TRADE
QLD1,"2012/05/27 13:00:00",5155.39,21.77,TRADE
QLD1,"2012/05/27 13:30:00",5142.36,21.92,TRADE
QLD1,"2012/05/27 14:00:00",5132.68,22.43,TRADE
QLD1,"2012/05/27 14:30:00",5141.2,21.83,TRADE
QLD1,"2012/05/27 15:00:00",5178.6,22.23,TRADE
QLD1,"2012/05/27 15:30:00",5266.83,22.88,TRADE
QLD1,"2012/05/27 16:00:00",5349.91,23.77,TRADE
QLD1,"2012/05/27 16:30:00",5510.39,25.54,TRADE
QLD1,"2012/05/27 17:00:00",5771.65,28.07,TRADE
QLD1,"2012/05/27 17:30:00",6097.36,36.92,TRADE
QLD1,"2012/05/27 18:00:00",6364.76,41.16,TRADE
QLD1,"2012/05/27 18:30:00",6420.83,41.55,TRADE
QLD1,"2012/05/27 19:00:00",6398.13,39.37,TRADE
QLD1,"2012/05/27 19:30:00",6306.73,33.78,TRADE
QLD1,"2012/05/27 20:00:00",6267.86,31.23,TRADE
QLD1,"2012/05/27 20:30:00",6263.65,29.8,TRADE
QLD1,"2012/05/27 21:00:00",6129.74,26.92,TRADE
QLD1,"2012/05/27 21:30:00",5952.58,23.66,TRADE
QLD1,"2012/05/27 22:00:00",5729.99,22.63,TRADE
QLD1,"2012/05/27 22:30:00",5572.65,24.13,TRADE
QLD1,"2012/05/27 23:00:00",5415.48,22.74,TRADE
QLD1,"2012/05/27 23:30:00",5299.21,22.94,TRADE
QLD1,"2012/05/28 00:00:00",5114.89,21.23,TRADE
QLD1,"2012/05/28 00:30:00",4999.03,20.07,TRADE
QLD1,"2012/05/28 01:00:00",4860.77,18.69,TRADE
QLD1,"2012/05/28 01:30:00",4710.08,17.9,TRADE
QLD1,"2012/05/28 02:00:00",4614.89,17.6,TRADE
QLD1,"2012/05/28 02:30:00",4503.8,17.3,TRADE
QLD1,"2012/05/28 03:00:00",4447.84,17.45,TRADE
QLD1,"2012/05/28 03:30:00",4413.6,18.63,TRADE
QLD1,"2012/05/28 04:00:00",4431.71,16.44,TRADE
QLD1,"2012/05/28 04:30:00",4499.68,15.03,TRADE
QLD1,"2012/05/28 05:00:00",4598.27,19.16,TRADE
QLD1,"2012/05/28 05:30:00",4877.44,21.2,TRADE
QLD1,"2012/05/28 06:00:00",5148.49,24.23,TRADE
QLD1,"2012/05/28 06:30:00",5666.39,25.63,TRADE
QLD1,"2012/05/28 07:00:00",6172.82,27.1,TRADE
QLD1,"2012/05/28 07:30:00",6578.53,28.47,TRADE
QLD1,"2012/05/28 08:00:00",6641.19,30.25,TRADE
QLD1,"2012/05/28 08:30:00",6514.94,29.2,TRADE
QLD1,"2012/05/28 09:00:00",6332.53,28.53,TRADE
QLD1,"2012/05/28 09:30:00",6222.88,28.44,TRADE
QLD1,"2012/05/28 10:00:00",6099.49,27.66,TRADE
QLD1,"2012/05/28 10:30:00",5985.51,26.73,TRADE
QLD1,"2012/05/28 11:00:00",5887.3,25.94,TRADE
QLD1,"2012/05/28 11:30:00",5795.82,25.73,TRADE
QLD1,"2012/05/28 12:00:00",5775.2,25.22,TRADE
QLD1,"2012/05/28 12:30:00",5730.75,25.72,TRADE
QLD1,"2012/05/28 13:00:00",5759.38,25.32,TRADE
QLD1,"2012/05/28 13:30:00",5775.72,25.91,TRADE
QLD1,"2012/05/28 14:00:00",5797.12,26.32,TRADE
QLD1,"2012/05/28 14:30:00",5825.98,26.36,TRADE
QLD1,"2012/05/28 15:00:00",5822,26.22,TRADE
QLD1,"2012/05/28 15:30:00",5850.8,25.87,TRADE
QLD1,"2012/05/28 16:00:00",5936.33,26.58,TRADE
QLD1,"2012/05/28 16:30:00",6078.67,27.2,TRADE
QLD1,"2012/05/28 17:00:00",6340.7,28.26,TRADE
QLD1,"2012/05/28 17:30:00",6603.32,29.73,TRADE
QLD1,"2012/05/28 18:00:00",6835.49,34.22,TRADE
QLD1,"2012/05/28 18:30:00",6833.33,33.83,TRADE
QLD1,"2012/05/28 19:00:00",6760.36,29.75,TRADE
QLD1,"2012/05/28 19:30:00",6654.94,28.4,TRADE
QLD1,"2012/05/28 20:00:00",6593.56,27.27,TRADE
QLD1,"2012/05/28 20:30:00",6583.23,27.38,TRADE
QLD1,"2012/05/28 21:00:00",6420.28,26.48,TRADE
QLD1,"2012/05/28 21:30:00",6175.22,24.4,TRADE
QLD1,"2012/05/28 22:00:00",5968.02,22.98,TRADE
QLD1,"2012/05/28 22:30:00",5785.46,25.3,TRADE
QLD1,"2012/05/28 23:00:00",5613.58,25.14,TRADE
QLD1,"2012/05/28 23:30:00",5465.87,23.6,TRADE
QLD1,"2012/05/29 00:00:00",5204.09,22.47,TRADE
QLD1,"2012/05/29 00:30:00",5061.99,21.29,TRADE
QLD1,"2012/05/29 01:00:00",4938.73,18.65,TRADE
QLD1,"2012/05/29 01:30:00",4769.07,19.97,TRADE
QLD1,"2012/05/29 02:00:00",4623.44,17.34,TRADE
QLD1,"2012/05/29 02:30:00",4499.28,16.05,TRADE
QLD1,"2012/05/29 03:00:00",4431.69,15.04,TRADE
QLD1,"2012/05/29 03:30:00",4427.44,13.98,TRADE
QLD1,"2012/05/29 04:00:00",4401.96,13.2,TRADE
QLD1,"2012/05/29 04:30:00",4460.61,15.21,TRADE
QLD1,"2012/05/29 05:00:00",4585.25,16.85,TRADE
QLD1,"2012/05/29 05:30:00",4826.81,19.68,TRADE
QLD1,"2012/05/29 06:00:00",5106.38,24.04,TRADE
QLD1,"2012/05/29 06:30:00",5551.54,24.46,TRADE
QLD1,"2012/05/29 07:00:00",5988.66,24.68,TRADE
QLD1,"2012/05/29 07:30:00",6380.31,26.35,TRADE
QLD1,"2012/05/29 08:00:00",6427.53,27.68,TRADE
QLD1,"2012/05/29 08:30:00",6298.08,26.39,TRADE
QLD1,"2012/05/29 09:00:00",6159.32,26.09,TRADE
QLD1,"2012/05/29 09:30:00",6074.57,26.76,TRADE
QLD1,"2012/05/29 10:00:00",5962.27,26.13,TRADE
QLD1,"2012/05/29 10:30:00",5925.48,26.31,TRADE
QLD1,"2012/05/29 11:00:00",5943.39,27.09,TRADE
QLD1,"2012/05/29 11:30:00",5968.51,27.01,TRADE
QLD1,"2012/05/29 12:00:00",5967.77,26.3,TRADE
QLD1,"2012/05/29 12:30:00",5954.09,26.2,TRADE
QLD1,"2012/05/29 13:00:00",5932.14,25.67,TRADE
QLD1,"2012/05/29 13:30:00",5905.17,25.8,TRADE
QLD1,"2012/05/29 14:00:00",5890.03,25.93,TRADE
QLD1,"2012/05/29 14:30:00",5879.9,25.71,TRADE
QLD1,"2012/05/29 15:00:00",5900.72,25.76,TRADE
QLD1,"2012/05/29 15:30:00",5920.38,25.7,TRADE
QLD1,"2012/05/29 16:00:00",6017,26.73,TRADE
QLD1,"2012/05/29 16:30:00",6061.14,26.55,TRADE
QLD1,"2012/05/29 17:00:00",6222.91,27.28,TRADE
QLD1,"2012/05/29 17:30:00",6485.66,30.79,TRADE
QLD1,"2012/05/29 18:00:00",6696.94,34.24,TRADE
QLD1,"2012/05/29 18:30:00",6684.54,33.4,TRADE
QLD1,"2012/05/29 19:00:00",6643.64,31.07,TRADE
QLD1,"2012/05/29 19:30:00",6537.17,27.58,TRADE
QLD1,"2012/05/29 20:00:00",6488.75,26.45,TRADE
QLD1,"2012/05/29 20:30:00",6476.47,26.98,TRADE
QLD1,"2012/05/29 21:00:00",6306.8,26.78,TRADE
QLD1,"2012/05/29 21:30:00",6115.11,26.98,TRADE
QLD1,"2012/05/29 22:00:00",5877.2,24.97,TRADE
QLD1,"2012/05/29 22:30:00",5665.67,25.77,TRADE
QLD1,"2012/05/29 23:00:00",5530.9,25.41,TRADE
QLD1,"2012/05/29 23:30:00",5410.74,24.5,TRADE
QLD1,"2012/05/30 00:00:00",5199.92,22.53,TRADE
QLD1,"2012/05/30 00:30:00",5079.52,21.39,TRADE
QLD1,"2012/05/30 01:00:00",4923.43,19.21,TRADE
QLD1,"2012/05/30 01:30:00",4747.03,21.39,TRADE
QLD1,"2012/05/30 02:00:00",4607.06,20.19,TRADE
QLD1,"2012/05/30 02:30:00",4512.56,20.29,TRADE
QLD1,"2012/05/30 03:00:00",4446.16,18.24,TRADE
QLD1,"2012/05/30 03:30:00",4409.9,13.9,TRADE
QLD1,"2012/05/30 04:00:00",4423.61,14.1,TRADE
QLD1,"2012/05/30 04:30:00",4484.28,13.13,TRADE
QLD1,"2012/05/30 05:00:00",4581.77,17.43,TRADE
QLD1,"2012/05/30 05:30:00",4842.35,19.05,TRADE
QLD1,"2012/05/30 06:00:00",5076.13,22.24,TRADE
QLD1,"2012/05/30 06:30:00",5555.27,24.93,TRADE
QLD1,"2012/05/30 07:00:00",5987.07,27.02,TRADE
QLD1,"2012/05/30 07:30:00",6317.55,27.15,TRADE
QLD1,"2012/05/30 08:00:00",6431.28,33.51,TRADE
QLD1,"2012/05/30 08:30:00",6361.33,31.3,TRADE
QLD1,"2012/05/30 09:00:00",6248.12,28.31,TRADE
QLD1,"2012/05/30 09:30:00",6191.66,28.04,TRADE
QLD1,"2012/05/30 10:00:00",6096.34,28.56,TRADE
QLD1,"2012/05/30 10:30:00",6060.16,27.85,TRADE
QLD1,"2012/05/30 11:00:00",6046.88,27.71,TRADE
QLD1,"2012/05/30 11:30:00",6043.73,26.53,TRADE
QLD1,"2012/05/30 12:00:00",5982.89,25.77,TRADE
QLD1,"2012/05/30 12:30:00",5967.63,25.21,TRADE
QLD1,"2012/05/30 13:00:00",5960.46,25.16,TRADE
QLD1,"2012/05/30 13:30:00",5981.41,26.79,TRADE
QLD1,"2012/05/30 14:00:00",5965.6,26.7,TRADE
QLD1,"2012/05/30 14:30:00",5955.98,26.4,TRADE
QLD1,"2012/05/30 15:00:00",5940.35,26.24,TRADE
QLD1,"2012/05/30 15:30:00",5970.97,26.25,TRADE
QLD1,"2012/05/30 16:00:00",6048.35,27.06,TRADE
QLD1,"2012/05/30 16:30:00",6159.44,27.66,TRADE
QLD1,"2012/05/30 17:00:00",6314.67,27.12,TRADE
QLD1,"2012/05/30 17:30:00",6543.71,30.99,TRADE
QLD1,"2012/05/30 18:00:00",6719.69,37.7,TRADE
QLD1,"2012/05/30 18:30:00",6684.47,37.69,TRADE
QLD1,"2012/05/30 19:00:00",6651.55,38.05,TRADE
QLD1,"2012/05/30 19:30:00",6561.49,31.56,TRADE
QLD1,"2012/05/30 20:00:00",6521.01,31.06,TRADE
QLD1,"2012/05/30 20:30:00",6490,33.12,TRADE
QLD1,"2012/05/30 21:00:00",6344.72,34.73,TRADE
QLD1,"2012/05/30 21:30:00",6162.84,31.1,TRADE
QLD1,"2012/05/30 22:00:00",5928.84,26.41,TRADE
QLD1,"2012/05/30 22:30:00",5727.5,26.73,TRADE
QLD1,"2012/05/30 23:00:00",5553.55,26.7,TRADE
QLD1,"2012/05/30 23:30:00",5401.11,25.65,TRADE
QLD1,"2012/05/31 00:00:00",5235.92,23.41,TRADE
QLD1,"2012/05/31 00:30:00",5054.05,22.23,TRADE
QLD1,"2012/05/31 01:00:00",4918.41,22.38,TRADE
QLD1,"2012/05/31 01:30:00",4725.67,21.84,TRADE
QLD1,"2012/05/31 02:00:00",4573.85,21.36,TRADE
QLD1,"2012/05/31 02:30:00",4464.36,18.3,TRADE
QLD1,"2012/05/31 03:00:00",4421.94,17.83,TRADE
QLD1,"2012/05/31 03:30:00",4387.07,17.81,TRADE
QLD1,"2012/05/31 04:00:00",4404.45,18.27,TRADE
QLD1,"2012/05/31 04:30:00",4465.28,20.6,TRADE
QLD1,"2012/05/31 05:00:00",4543.45,20.94,TRADE
QLD1,"2012/05/31 05:30:00",4743.72,22.59,TRADE
QLD1,"2012/05/31 06:00:00",5013.47,25.72,TRADE
QLD1,"2012/05/31 06:30:00",5442.37,27.19,TRADE
QLD1,"2012/05/31 07:00:00",5901.28,29.62,TRADE
QLD1,"2012/05/31 07:30:00",6253.31,29.99,TRADE
QLD1,"2012/05/31 08:00:00",6402.07,34.88,TRADE
QLD1,"2012/05/31 08:30:00",6368.75,34.23,TRADE
QLD1,"2012/05/31 09:00:00",6282.07,29.65,TRADE
QLD1,"2012/05/31 09:30:00",6192.25,28.2,TRADE
QLD1,"2012/05/31 10:00:00",6135.08,28.97,TRADE
QLD1,"2012/05/31 10:30:00",6068.9,28.7,TRADE
QLD1,"2012/05/31 11:00:00",6048.2,28.26,TRADE
QLD1,"2012/05/31 11:30:00",6026.95,27.42,TRADE
QLD1,"2012/05/31 12:00:00",6050.81,26.6,TRADE
QLD1,"2012/05/31 12:30:00",6061.47,26.11,TRADE
QLD1,"2012/05/31 13:00:00",6055.77,26.19,TRADE
QLD1,"2012/05/31 13:30:00",6045.9,26.34,TRADE
QLD1,"2012/05/31 14:00:00",6060.59,26.21,TRADE
QLD1,"2012/05/31 14:30:00",6054.83,25.75,TRADE
QLD1,"2012/05/31 15:00:00",6022.28,25.56,TRADE
QLD1,"2012/05/31 15:30:00",6056.57,24.82,TRADE
QLD1,"2012/05/31 16:00:00",6101.01,24.83,TRADE
QLD1,"2012/05/31 16:30:00",6235.67,26.54,TRADE
QLD1,"2012/05/31 17:00:00",6482.08,27.98,TRADE
QLD1,"2012/05/31 17:30:00",6740.94,33.99,TRADE
QLD1,"2012/05/31 18:00:00",6834.6,38.51,TRADE
QLD1,"2012/05/31 18:30:00",6815.4,35.06,TRADE
QLD1,"2012/05/31 19:00:00",6779.3,32.49,TRADE
QLD1,"2012/05/31 19:30:00",6686.56,30.09,TRADE
QLD1,"2012/05/31 20:00:00",6676.5,30.89,TRADE
QLD1,"2012/05/31 20:30:00",6610.41,30.93,TRADE
QLD1,"2012/05/31 21:00:00",6446.56,28.11,TRADE
QLD1,"2012/05/31 21:30:00",6230.11,26.24,TRADE
QLD1,"2012/05/31 22:00:00",6020.88,23.76,TRADE
QLD1,"2012/05/31 22:30:00",5794.72,27.3,TRADE
QLD1,"2012/05/31 23:00:00",5628.63,27.88,TRADE
QLD1,"2012/05/31 23:30:00",5479.88,27.26,TRADE
QLD1,"2012/06/01 00:00:00",5268.72,26.35,TRADE
