REGION,SETTLEMENTDATE,TOTALDEMAND,RRP,PERIODTYPE
QLD1,"2010/07/01 00:30:00",5252.06,19.78,TRADE
QLD1,"2010/07/01 01:00:00",5081.84,17.78,TRADE
QLD1,"2010/07/01 01:30:00",4912.18,15.04,TRADE
QLD1,"2010/07/01 02:00:00",4747.99,13.69,TRADE
QLD1,"2010/07/01 02:30:00",4678.15,14.01,TRADE
QLD1,"2010/07/01 03:00:00",4601.33,13.93,TRADE
QLD1,"2010/07/01 03:30:00",4587.38,11.55,TRADE
QLD1,"2010/07/01 04:00:00",4563.57,13.34,TRADE
QLD1,"2010/07/01 04:30:00",4672.84,17.96,TRADE
QLD1,"2010/07/01 05:00:00",4714.13,17.5,TRADE
QLD1,"2010/07/01 05:30:00",4933.37,20.56,TRADE
QLD1,"2010/07/01 06:00:00",5220.97,21.69,TRADE
QLD1,"2010/07/01 06:30:00",5599.62,24.59,TRADE
QLD1,"2010/07/01 07:00:00",5974.68,26.84,TRADE
QLD1,"2010/07/01 07:30:00",6331.72,24.05,TRADE
QLD1,"2010/07/01 08:00:00",6557.6,30.37,TRADE
QLD1,"2010/07/01 08:30:00",6715.48,34.18,TRADE
QLD1,"2010/07/01 09:00:00",6745.36,30.45,TRADE
QLD1,"2010/07/01 09:30:00",6685.28,28.09,TRADE
QLD1,"2010/07/01 10:00:00",6538.39,23.93,TRADE
QLD1,"2010/07/01 10:30:00",6502.87,27.18,TRADE
QLD1,"2010/07/01 11:00:00",6480.94,24.75,TRADE
QLD1,"2010/07/01 11:30:00",6437.32,23.99,TRADE
QLD1,"2010/07/01 12:00:00",6370.19,22.08,TRADE
QLD1,"2010/07/01 12:30:00",6317.87,3.41,TRADE
QLD1,"2010/07/01 13:00:00",6239.98,22.91,TRADE
QLD1,"2010/07/01 13:30:00",6217.03,20.16,TRADE
QLD1,"2010/07/01 14:00:00",6205.87,20.61,TRADE
QLD1,"2010/07/01 14:30:00",6183.81,20.36,TRADE
QLD1,"2010/07/01 15:00:00",6218.46,20.87,TRADE
QLD1,"2010/07/01 15:30:00",6178.77,21.04,TRADE
QLD1,"2010/07/01 16:00:00",6222.25,22.04,TRADE
QLD1,"2010/07/01 16:30:00",6218.74,21.66,TRADE
QLD1,"2010/07/01 17:00:00",6398.37,18.11,TRADE
QLD1,"2010/07/01 17:30:00",6639.99,24.44,TRADE
QLD1,"2010/07/01 18:00:00",6982.38,48.13,TRADE
QLD1,"2010/07/01 18:30:00",7035.36,53.62,TRADE
QLD1,"2010/07/01 19:00:00",7021.64,38,TRADE
QLD1,"2010/07/01 19:30:00",6964.97,31.22,TRADE
QLD1,"2010/07/01 20:00:00",6972.67,30.44,TRADE
QLD1,"2010/07/01 20:30:00",7046.28,27.52,TRADE
QLD1,"2010/07/01 21:00:00",6874.45,24.84,TRADE
QLD1,"2010/07/01 21:30:00",6647.3,24.36,TRADE
QLD1,"2010/07/01 22:00:00",6364.67,20.96,TRADE
QLD1,"2010/07/01 22:30:00",6130.6,27.3,TRADE
QLD1,"2010/07/01 23:00:00",5931.51,26.17,TRADE
QLD1,"2010/07/01 23:30:00",5760.48,24.36,TRADE
QLD1,"2010/07/02 00:00:00",5552.06,22.27,TRADE
QLD1,"2010/07/02 00:30:00",5352.95,19.88,TRADE
QLD1,"2010/07/02 01:00:00",5205.74,19.6,TRADE
QLD1,"2010/07/02 01:30:00",5001.69,19.78,TRADE
QLD1,"2010/07/02 02:00:00",4862.81,16.54,TRADE
QLD1,"2010/07/02 02:30:00",4732.94,14.73,TRADE
QLD1,"2010/07/02 03:00:00",4678.44,14.62,TRADE
QLD1,"2010/07/02 03:30:00",4628.35,13.49,TRADE
QLD1,"2010/07/02 04:00:00",4610.37,13.32,TRADE
QLD1,"2010/07/02 04:30:00",4649.09,13.82,TRADE
QLD1,"2010/07/02 05:00:00",4766.82,14.34,TRADE
QLD1,"2010/07/02 05:30:00",4984.76,19.33,TRADE
QLD1,"2010/07/02 06:00:00",5219.12,20.62,TRADE
QLD1,"2010/07/02 06:30:00",5659.98,22.85,TRADE
QLD1,"2010/07/02 07:00:00",5985.59,21.12,TRADE
QLD1,"2010/07/02 07:30:00",6347.45,22.51,TRADE
QLD1,"2010/07/02 08:00:00",6582.95,27.61,TRADE
QLD1,"2010/07/02 08:30:00",6753.47,31.9,TRADE
QLD1,"2010/07/02 09:00:00",6824.84,32.41,TRADE
QLD1,"2010/07/02 09:30:00",6921.75,35.2,TRADE
QLD1,"2010/07/02 10:00:00",6887.46,32.72,TRADE
QLD1,"2010/07/02 10:30:00",6840.21,30.7,TRADE
QLD1,"2010/07/02 11:00:00",6805.48,26.29,TRADE
QLD1,"2010/07/02 11:30:00",6713.83,25.84,TRADE
QLD1,"2010/07/02 12:00:00",6680,26.91,TRADE
QLD1,"2010/07/02 12:30:00",6667.04,26.89,TRADE
QLD1,"2010/07/02 13:00:00",6617.06,26.85,TRADE
QLD1,"2010/07/02 13:30:00",6605.6,27.16,TRADE
QLD1,"2010/07/02 14:00:00",6569.34,26.86,TRADE
QLD1,"2010/07/02 14:30:00",6530.34,26.55,TRADE
QLD1,"2010/07/02 15:00:00",6503.9,25.97,TRADE
QLD1,"2010/07/02 15:30:00",6517.72,25.93,TRADE
QLD1,"2010/07/02 16:00:00",6572.9,26.62,TRADE
QLD1,"2010/07/02 16:30:00",6738.27,23.9,TRADE
QLD1,"2010/07/02 17:00:00",6866.25,21.2,TRADE
QLD1,"2010/07/02 17:30:00",7005.71,32.38,TRADE
QLD1,"2010/07/02 18:00:00",7046.64,36.54,TRADE
QLD1,"2010/07/02 18:30:00",7008.27,36.2,TRADE
QLD1,"2010/07/02 19:00:00",6945.42,33.02,TRADE
QLD1,"2010/07/02 19:30:00",6827.75,24.98,TRADE
QLD1,"2010/07/02 20:00:00",6825.76,22.75,TRADE
QLD1,"2010/07/02 20:30:00",6813.41,20.38,TRADE
QLD1,"2010/07/02 21:00:00",6635.55,20.32,TRADE
QLD1,"2010/07/02 21:30:00",6480.4,20.42,TRADE
QLD1,"2010/07/02 22:00:00",6250.48,18.32,TRADE
QLD1,"2010/07/02 22:30:00",6045.71,19,TRADE
QLD1,"2010/07/02 23:00:00",5921,25.77,TRADE
QLD1,"2010/07/02 23:30:00",5815.02,27.34,TRADE
QLD1,"2010/07/03 00:00:00",5576.53,23.41,TRADE
QLD1,"2010/07/03 00:30:00",5412.7,19.57,TRADE
QLD1,"2010/07/03 01:00:00",5252.71,19.78,TRADE
QLD1,"2010/07/03 01:30:00",5020.36,17.88,TRADE
QLD1,"2010/07/03 02:00:00",4847.69,16.59,TRADE
QLD1,"2010/07/03 02:30:00",4729.93,16.05,TRADE
QLD1,"2010/07/03 03:00:00",4634.86,14.14,TRADE
QLD1,"2010/07/03 03:30:00",4551.94,13.25,TRADE
QLD1,"2010/07/03 04:00:00",4522.11,13.29,TRADE
QLD1,"2010/07/03 04:30:00",4566.48,15.01,TRADE
QLD1,"2010/07/03 05:00:00",4617.26,13.57,TRADE
QLD1,"2010/07/03 05:30:00",4666.92,13.91,TRADE
QLD1,"2010/07/03 06:00:00",4797.23,16.61,TRADE
QLD1,"2010/07/03 06:30:00",4988.44,18.61,TRADE
QLD1,"2010/07/03 07:00:00",5157.44,18.55,TRADE
QLD1,"2010/07/03 07:30:00",5415.93,19.95,TRADE
QLD1,"2010/07/03 08:00:00",5701.44,21.01,TRADE
QLD1,"2010/07/03 08:30:00",5931.87,24.68,TRADE
QLD1,"2010/07/03 09:00:00",6128.02,26.42,TRADE
QLD1,"2010/07/03 09:30:00",6095.41,26.11,TRADE
QLD1,"2010/07/03 10:00:00",6244.82,27.48,TRADE
QLD1,"2010/07/03 10:30:00",6194.22,26.6,TRADE
QLD1,"2010/07/03 11:00:00",6091.98,24.77,TRADE
QLD1,"2010/07/03 11:30:00",5981.26,21.25,TRADE
QLD1,"2010/07/03 12:00:00",5938.22,24.27,TRADE
QLD1,"2010/07/03 12:30:00",5825.93,19.83,TRADE
QLD1,"2010/07/03 13:00:00",5751.27,19.87,TRADE
QLD1,"2010/07/03 13:30:00",5672.97,20.31,TRADE
QLD1,"2010/07/03 14:00:00",5630.7,19.98,TRADE
QLD1,"2010/07/03 14:30:00",5608.72,19.76,TRADE
QLD1,"2010/07/03 15:00:00",5574.57,19.62,TRADE
QLD1,"2010/07/03 15:30:00",5589.81,20.08,TRADE
QLD1,"2010/07/03 16:00:00",5657.76,19.22,TRADE
QLD1,"2010/07/03 16:30:00",5741.7,18.67,TRADE
QLD1,"2010/07/03 17:00:00",6004.06,20.63,TRADE
QLD1,"2010/07/03 17:30:00",6273.83,26.58,TRADE
QLD1,"2010/07/03 18:00:00",6497.77,38.54,TRADE
QLD1,"2010/07/03 18:30:00",6596.56,42.4,TRADE
QLD1,"2010/07/03 19:00:00",6613.8,35.31,TRADE
QLD1,"2010/07/03 19:30:00",6562.97,27.33,TRADE
QLD1,"2010/07/03 20:00:00",6639.99,27.38,TRADE
QLD1,"2010/07/03 20:30:00",6643.6,27.59,TRADE
QLD1,"2010/07/03 21:00:00",6522.77,25.54,TRADE
QLD1,"2010/07/03 21:30:00",6423.54,24.53,TRADE
QLD1,"2010/07/03 22:00:00",6237.68,23.41,TRADE
QLD1,"2010/07/03 22:30:00",6056.52,27.24,TRADE
QLD1,"2010/07/03 23:00:00",5980.09,27.93,TRADE
QLD1,"2010/07/03 23:30:00",5874.25,28.05,TRADE
QLD1,"2010/07/04 00:00:00",5621.25,26.65,TRADE
QLD1,"2010/07/04 00:30:00",5538.36,24.96,TRADE
QLD1,"2010/07/04 01:00:00",5303.39,22.74,TRADE
QLD1,"2010/07/04 01:30:00",5148.81,22.01,TRADE
QLD1,"2010/07/04 02:00:00",4960.17,20.26,TRADE
QLD1,"2010/07/04 02:30:00",4846.92,20.1,TRADE
QLD1,"2010/07/04 03:00:00",4764.22,20.02,TRADE
QLD1,"2010/07/04 03:30:00",4704.23,19.85,TRADE
QLD1,"2010/07/04 04:00:00",4669.58,18.74,TRADE
QLD1,"2010/07/04 04:30:00",4674.7,17.6,TRADE
QLD1,"2010/07/04 05:00:00",4734.79,18.11,TRADE
QLD1,"2010/07/04 05:30:00",4773.77,19.14,TRADE
QLD1,"2010/07/04 06:00:00",4843.35,20.09,TRADE
QLD1,"2010/07/04 06:30:00",4978.74,20.29,TRADE
QLD1,"2010/07/04 07:00:00",5107.99,19.8,TRADE
QLD1,"2010/07/04 07:30:00",5431.44,20.28,TRADE
QLD1,"2010/07/04 08:00:00",5653.09,24.23,TRADE
QLD1,"2010/07/04 08:30:00",5921.86,26.22,TRADE
QLD1,"2010/07/04 09:00:00",6099.52,29.8,TRADE
QLD1,"2010/07/04 09:30:00",6155.7,32.68,TRADE
QLD1,"2010/07/04 10:00:00",6135.66,31.58,TRADE
QLD1,"2010/07/04 10:30:00",6067.55,31.15,TRADE
QLD1,"2010/07/04 11:00:00",5940.39,29.22,TRADE
QLD1,"2010/07/04 11:30:00",5830.63,26.59,TRADE
QLD1,"2010/07/04 12:00:00",5756.85,23.82,TRADE
QLD1,"2010/07/04 12:30:00",5720.03,22.28,TRADE
QLD1,"2010/07/04 13:00:00",5638.25,20.47,TRADE
QLD1,"2010/07/04 13:30:00",5607.29,20.41,TRADE
QLD1,"2010/07/04 14:00:00",5574.22,20.31,TRADE
QLD1,"2010/07/04 14:30:00",5536.44,20.18,TRADE
QLD1,"2010/07/04 15:00:00",5516.63,20.27,TRADE
QLD1,"2010/07/04 15:30:00",5591.14,20.33,TRADE
QLD1,"2010/07/04 16:00:00",5674.4,22.33,TRADE
QLD1,"2010/07/04 16:30:00",5819.15,23.27,TRADE
QLD1,"2010/07/04 17:00:00",6091.77,23.05,TRADE
QLD1,"2010/07/04 17:30:00",6376.35,27.61,TRADE
QLD1,"2010/07/04 18:00:00",6644.71,49.53,TRADE
QLD1,"2010/07/04 18:30:00",6742.84,64.65,TRADE
QLD1,"2010/07/04 19:00:00",6698.6,47.84,TRADE
QLD1,"2010/07/04 19:30:00",6586.01,32.89,TRADE
QLD1,"2010/07/04 20:00:00",6634.51,31.58,TRADE
QLD1,"2010/07/04 20:30:00",6670.72,29.72,TRADE
QLD1,"2010/07/04 21:00:00",6505.41,26.35,TRADE
QLD1,"2010/07/04 21:30:00",6331.98,26.48,TRADE
QLD1,"2010/07/04 22:00:00",6130.63,23.25,TRADE
QLD1,"2010/07/04 22:30:00",5921.32,24.51,TRADE
QLD1,"2010/07/04 23:00:00",5784.35,24.25,TRADE
QLD1,"2010/07/04 23:30:00",5683.85,23.24,TRADE
QLD1,"2010/07/05 00:00:00",5462.12,21.92,TRADE
QLD1,"2010/07/05 00:30:00",5310.71,20.61,TRADE
QLD1,"2010/07/05 01:00:00",5169.55,20.12,TRADE
QLD1,"2010/07/05 01:30:00",4977.08,20.8,TRADE
QLD1,"2010/07/05 02:00:00",4831.85,19.03,TRADE
QLD1,"2010/07/05 02:30:00",4707.06,19.74,TRADE
QLD1,"2010/07/05 03:00:00",4643.99,19.38,TRADE
QLD1,"2010/07/05 03:30:00",4599.75,17.57,TRADE
QLD1,"2010/07/05 04:00:00",4577.71,14.46,TRADE
QLD1,"2010/07/05 04:30:00",4628.82,13.85,TRADE
QLD1,"2010/07/05 05:00:00",4723.25,14.45,TRADE
QLD1,"2010/07/05 05:30:00",4974.52,19.73,TRADE
QLD1,"2010/07/05 06:00:00",5205.41,20.27,TRADE
QLD1,"2010/07/05 06:30:00",5647.99,22.04,TRADE
QLD1,"2010/07/05 07:00:00",5992.04,21.78,TRADE
QLD1,"2010/07/05 07:30:00",6393.49,20.96,TRADE
QLD1,"2010/07/05 08:00:00",6602.19,22.04,TRADE
QLD1,"2010/07/05 08:30:00",6712.83,25.35,TRADE
QLD1,"2010/07/05 09:00:00",6694.31,26.17,TRADE
QLD1,"2010/07/05 09:30:00",6685.96,27.95,TRADE
QLD1,"2010/07/05 10:00:00",6607.87,26.56,TRADE
QLD1,"2010/07/05 10:30:00",6536.24,24.4,TRADE
QLD1,"2010/07/05 11:00:00",6466.05,24.95,TRADE
QLD1,"2010/07/05 11:30:00",6405.31,22.52,TRADE
QLD1,"2010/07/05 12:00:00",6348.81,20.59,TRADE
QLD1,"2010/07/05 12:30:00",6306.38,19.8,TRADE
QLD1,"2010/07/05 13:00:00",6289.38,20.07,TRADE
QLD1,"2010/07/05 13:30:00",6270.01,19.87,TRADE
QLD1,"2010/07/05 14:00:00",6239.82,19.82,TRADE
QLD1,"2010/07/05 14:30:00",6230.25,20.02,TRADE
QLD1,"2010/07/05 15:00:00",6215.57,20.31,TRADE
QLD1,"2010/07/05 15:30:00",6242.09,20.48,TRADE
QLD1,"2010/07/05 16:00:00",6231.12,20.61,TRADE
QLD1,"2010/07/05 16:30:00",6270.33,21.13,TRADE
QLD1,"2010/07/05 17:00:00",6450.08,20.5,TRADE
QLD1,"2010/07/05 17:30:00",6668.25,24.26,TRADE
QLD1,"2010/07/05 18:00:00",6907.48,38.88,TRADE
QLD1,"2010/07/05 18:30:00",6939.81,53.88,TRADE
QLD1,"2010/07/05 19:00:00",6853.72,34.36,TRADE
QLD1,"2010/07/05 19:30:00",6763.77,25.72,TRADE
QLD1,"2010/07/05 20:00:00",6806.13,26.61,TRADE
QLD1,"2010/07/05 20:30:00",6781.15,25.64,TRADE
QLD1,"2010/07/05 21:00:00",6596.46,24.9,TRADE
QLD1,"2010/07/05 21:30:00",6466.66,24.15,TRADE
QLD1,"2010/07/05 22:00:00",6192.63,21.85,TRADE
QLD1,"2010/07/05 22:30:00",5973.71,26.08,TRADE
QLD1,"2010/07/05 23:00:00",5819.95,24.57,TRADE
QLD1,"2010/07/05 23:30:00",5683.04,24.69,TRADE
QLD1,"2010/07/06 00:00:00",5434.95,22.34,TRADE
QLD1,"2010/07/06 00:30:00",5252.32,21.82,TRADE
QLD1,"2010/07/06 01:00:00",5113.08,21.57,TRADE
QLD1,"2010/07/06 01:30:00",4905.18,21.82,TRADE
QLD1,"2010/07/06 02:00:00",4749.74,18.23,TRADE
QLD1,"2010/07/06 02:30:00",4619.8,15.64,TRADE
QLD1,"2010/07/06 03:00:00",4561.4,12.72,TRADE
QLD1,"2010/07/06 03:30:00",4534.39,14.51,TRADE
QLD1,"2010/07/06 04:00:00",4529.94,13.06,TRADE
QLD1,"2010/07/06 04:30:00",4585.68,14.59,TRADE
QLD1,"2010/07/06 05:00:00",4682.36,18.5,TRADE
QLD1,"2010/07/06 05:30:00",4905.97,20.84,TRADE
QLD1,"2010/07/06 06:00:00",5160.42,21.99,TRADE
QLD1,"2010/07/06 06:30:00",5594.93,22.42,TRADE
QLD1,"2010/07/06 07:00:00",5922.78,20.84,TRADE
QLD1,"2010/07/06 07:30:00",6211.73,19.98,TRADE
QLD1,"2010/07/06 08:00:00",6445,21.73,TRADE
QLD1,"2010/07/06 08:30:00",6535.26,23.21,TRADE
QLD1,"2010/07/06 09:00:00",6582.16,24.15,TRADE
QLD1,"2010/07/06 09:30:00",6537.62,26.26,TRADE
QLD1,"2010/07/06 10:00:00",6502.04,26.86,TRADE
QLD1,"2010/07/06 10:30:00",6500.71,24.61,TRADE
QLD1,"2010/07/06 11:00:00",6423.41,21.67,TRADE
QLD1,"2010/07/06 11:30:00",6360.29,23.3,TRADE
QLD1,"2010/07/06 12:00:00",6381.71,22.81,TRADE
QLD1,"2010/07/06 12:30:00",6354.94,22.07,TRADE
QLD1,"2010/07/06 13:00:00",6353,21.91,TRADE
QLD1,"2010/07/06 13:30:00",6312.81,21.04,TRADE
QLD1,"2010/07/06 14:00:00",6318.78,20.61,TRADE
QLD1,"2010/07/06 14:30:00",6352.81,21.69,TRADE
QLD1,"2010/07/06 15:00:00",6308.68,21.84,TRADE
QLD1,"2010/07/06 15:30:00",6356.69,21.91,TRADE
QLD1,"2010/07/06 16:00:00",6389.42,22.01,TRADE
QLD1,"2010/07/06 16:30:00",6491.88,20.59,TRADE
QLD1,"2010/07/06 17:00:00",6714.65,21.41,TRADE
QLD1,"2010/07/06 17:30:00",6851.24,23.39,TRADE
QLD1,"2010/07/06 18:00:00",6961.84,27.23,TRADE
QLD1,"2010/07/06 18:30:00",6935.44,26.9,TRADE
QLD1,"2010/07/06 19:00:00",6834.61,24.6,TRADE
QLD1,"2010/07/06 19:30:00",6679.16,21.04,TRADE
QLD1,"2010/07/06 20:00:00",6677.19,21.39,TRADE
QLD1,"2010/07/06 20:30:00",6671.35,21.96,TRADE
QLD1,"2010/07/06 21:00:00",6503.21,19.64,TRADE
QLD1,"2010/07/06 21:30:00",6334.02,19.56,TRADE
QLD1,"2010/07/06 22:00:00",6122.79,17.12,TRADE
QLD1,"2010/07/06 22:30:00",5960.72,20.42,TRADE
QLD1,"2010/07/06 23:00:00",5812.22,18.99,TRADE
QLD1,"2010/07/06 23:30:00",5630.78,18.12,TRADE
QLD1,"2010/07/07 00:00:00",5452.89,19.88,TRADE
QLD1,"2010/07/07 00:30:00",5288.55,18.02,TRADE
QLD1,"2010/07/07 01:00:00",5111.03,15.57,TRADE
QLD1,"2010/07/07 01:30:00",4913.88,15.99,TRADE
QLD1,"2010/07/07 02:00:00",4761.1,13.99,TRADE
QLD1,"2010/07/07 02:30:00",4626.87,12.79,TRADE
QLD1,"2010/07/07 03:00:00",4604.04,13.59,TRADE
QLD1,"2010/07/07 03:30:00",4585.6,12.07,TRADE
QLD1,"2010/07/07 04:00:00",4583.08,11.87,TRADE
QLD1,"2010/07/07 04:30:00",4600.72,11.94,TRADE
QLD1,"2010/07/07 05:00:00",4706.03,14.35,TRADE
QLD1,"2010/07/07 05:30:00",4922.52,18.26,TRADE
QLD1,"2010/07/07 06:00:00",5179.48,20.41,TRADE
QLD1,"2010/07/07 06:30:00",5573.57,21.5,TRADE
QLD1,"2010/07/07 07:00:00",5932.64,21.77,TRADE
QLD1,"2010/07/07 07:30:00",6282.85,21.96,TRADE
QLD1,"2010/07/07 08:00:00",6503.83,24.33,TRADE
QLD1,"2010/07/07 08:30:00",6630.38,28.34,TRADE
QLD1,"2010/07/07 09:00:00",6718.43,29.5,TRADE
QLD1,"2010/07/07 09:30:00",6758.27,30.47,TRADE
QLD1,"2010/07/07 10:00:00",6695.98,29.25,TRADE
QLD1,"2010/07/07 10:30:00",6647.24,28.04,TRADE
QLD1,"2010/07/07 11:00:00",6609.9,26.79,TRADE
QLD1,"2010/07/07 11:30:00",6518.44,25.67,TRADE
QLD1,"2010/07/07 12:00:00",6493.76,25.03,TRADE
QLD1,"2010/07/07 12:30:00",6497.35,26.71,TRADE
QLD1,"2010/07/07 13:00:00",6469.21,26.93,TRADE
QLD1,"2010/07/07 13:30:00",6478.47,26.96,TRADE
QLD1,"2010/07/07 14:00:00",6468.9,26.51,TRADE
QLD1,"2010/07/07 14:30:00",6458.23,25.7,TRADE
QLD1,"2010/07/07 15:00:00",6430.99,24.35,TRADE
QLD1,"2010/07/07 15:30:00",6490.51,24.93,TRADE
QLD1,"2010/07/07 16:00:00",6592.42,26.92,TRADE
QLD1,"2010/07/07 16:30:00",6725.36,25.07,TRADE
QLD1,"2010/07/07 17:00:00",7008.23,26.7,TRADE
QLD1,"2010/07/07 17:30:00",7206.15,26.02,TRADE
QLD1,"2010/07/07 18:00:00",7293.49,34.02,TRADE
QLD1,"2010/07/07 18:30:00",7257.89,32.9,TRADE
QLD1,"2010/07/07 19:00:00",7210.81,29.88,TRADE
QLD1,"2010/07/07 19:30:00",7137.15,28.44,TRADE
QLD1,"2010/07/07 20:00:00",7157.53,27.75,TRADE
QLD1,"2010/07/07 20:30:00",7117.47,28.23,TRADE
QLD1,"2010/07/07 21:00:00",6896.32,25.01,TRADE
QLD1,"2010/07/07 21:30:00",6716.69,22.61,TRADE
QLD1,"2010/07/07 22:00:00",6480.56,18.34,TRADE
QLD1,"2010/07/07 22:30:00",6193.72,20.55,TRADE
QLD1,"2010/07/07 23:00:00",6045.9,22.51,TRADE
QLD1,"2010/07/07 23:30:00",5874.74,22.2,TRADE
QLD1,"2010/07/08 00:00:00",5618.05,20.59,TRADE
QLD1,"2010/07/08 00:30:00",5384.64,18.71,TRADE
QLD1,"2010/07/08 01:00:00",5209.8,16.45,TRADE
QLD1,"2010/07/08 01:30:00",4993.2,17.49,TRADE
QLD1,"2010/07/08 02:00:00",4846.78,14.98,TRADE
QLD1,"2010/07/08 02:30:00",4733.12,13.84,TRADE
QLD1,"2010/07/08 03:00:00",4653.16,13.74,TRADE
QLD1,"2010/07/08 03:30:00",4659.88,13.49,TRADE
QLD1,"2010/07/08 04:00:00",4625.72,11.76,TRADE
QLD1,"2010/07/08 04:30:00",4674.79,14.14,TRADE
QLD1,"2010/07/08 05:00:00",4788.53,14.69,TRADE
QLD1,"2010/07/08 05:30:00",4980.82,16.53,TRADE
QLD1,"2010/07/08 06:00:00",5259.97,19.85,TRADE
QLD1,"2010/07/08 06:30:00",5639.74,22.44,TRADE
QLD1,"2010/07/08 07:00:00",6034.68,21.76,TRADE
QLD1,"2010/07/08 07:30:00",6381.64,22.34,TRADE
QLD1,"2010/07/08 08:00:00",6607.42,24.9,TRADE
QLD1,"2010/07/08 08:30:00",6758.32,28.11,TRADE
QLD1,"2010/07/08 09:00:00",6839.27,28.4,TRADE
QLD1,"2010/07/08 09:30:00",6792.81,28.39,TRADE
QLD1,"2010/07/08 10:00:00",6737.02,30.08,TRADE
QLD1,"2010/07/08 10:30:00",6677.58,27.84,TRADE
QLD1,"2010/07/08 11:00:00",6643.55,26.53,TRADE
QLD1,"2010/07/08 11:30:00",6528.73,25.07,TRADE
QLD1,"2010/07/08 12:00:00",6467.67,24.04,TRADE
QLD1,"2010/07/08 12:30:00",6392.69,23.22,TRADE
QLD1,"2010/07/08 13:00:00",6361.9,24.57,TRADE
QLD1,"2010/07/08 13:30:00",6346.2,21.87,TRADE
QLD1,"2010/07/08 14:00:00",6337.85,20.84,TRADE
QLD1,"2010/07/08 14:30:00",6280.68,20.37,TRADE
QLD1,"2010/07/08 15:00:00",6298.25,20.66,TRADE
QLD1,"2010/07/08 15:30:00",6336.51,20.18,TRADE
QLD1,"2010/07/08 16:00:00",6332.37,19.16,TRADE
QLD1,"2010/07/08 16:30:00",6415.35,20.6,TRADE
QLD1,"2010/07/08 17:00:00",6574.56,21.68,TRADE
QLD1,"2010/07/08 17:30:00",6709.18,21.22,TRADE
QLD1,"2010/07/08 18:00:00",6945.59,28.08,TRADE
QLD1,"2010/07/08 18:30:00",6946.96,27.46,TRADE
QLD1,"2010/07/08 19:00:00",6928.33,25.81,TRADE
QLD1,"2010/07/08 19:30:00",6866.86,25.42,TRADE
QLD1,"2010/07/08 20:00:00",6908.05,27.06,TRADE
QLD1,"2010/07/08 20:30:00",6872.23,28.35,TRADE
QLD1,"2010/07/08 21:00:00",6706.25,23.88,TRADE
QLD1,"2010/07/08 21:30:00",6480.62,21.53,TRADE
QLD1,"2010/07/08 22:00:00",6184.72,19.24,TRADE
QLD1,"2010/07/08 22:30:00",5997.26,20.66,TRADE
QLD1,"2010/07/08 23:00:00",5856.62,21.9,TRADE
QLD1,"2010/07/08 23:30:00",5683.05,23.41,TRADE
QLD1,"2010/07/09 00:00:00",5428.1,18.45,TRADE
QLD1,"2010/07/09 00:30:00",5232,17.31,TRADE
QLD1,"2010/07/09 01:00:00",5112.42,15.71,TRADE
QLD1,"2010/07/09 01:30:00",4906.12,12.13,TRADE
QLD1,"2010/07/09 02:00:00",4712.55,11.69,TRADE
QLD1,"2010/07/09 02:30:00",4624.45,13.55,TRADE
QLD1,"2010/07/09 03:00:00",4545.03,11.81,TRADE
QLD1,"2010/07/09 03:30:00",4501.3,5.18,TRADE
QLD1,"2010/07/09 04:00:00",4478.92,12.28,TRADE
QLD1,"2010/07/09 04:30:00",4541.11,11.88,TRADE
QLD1,"2010/07/09 05:00:00",4643.11,13.79,TRADE
QLD1,"2010/07/09 05:30:00",4863.94,14.02,TRADE
QLD1,"2010/07/09 06:00:00",5106.72,20.33,TRADE
QLD1,"2010/07/09 06:30:00",5521.28,22.12,TRADE
QLD1,"2010/07/09 07:00:00",5857.91,19.95,TRADE
QLD1,"2010/07/09 07:30:00",6227.93,21.49,TRADE
QLD1,"2010/07/09 08:00:00",6421.21,22.31,TRADE
QLD1,"2010/07/09 08:30:00",6588.86,23.8,TRADE
QLD1,"2010/07/09 09:00:00",6588.61,25.65,TRADE
QLD1,"2010/07/09 09:30:00",6608.8,26.7,TRADE
QLD1,"2010/07/09 10:00:00",6516.21,24.97,TRADE
QLD1,"2010/07/09 10:30:00",6475.91,22.86,TRADE
QLD1,"2010/07/09 11:00:00",6443.16,22.37,TRADE
QLD1,"2010/07/09 11:30:00",6328.74,21.65,TRADE
QLD1,"2010/07/09 12:00:00",6345.53,21.95,TRADE
QLD1,"2010/07/09 12:30:00",6263.83,21.03,TRADE
QLD1,"2010/07/09 13:00:00",6246.42,20.85,TRADE
QLD1,"2010/07/09 13:30:00",6179.44,20.48,TRADE
QLD1,"2010/07/09 14:00:00",6157.07,20.6,TRADE
QLD1,"2010/07/09 14:30:00",6141.31,20.49,TRADE
QLD1,"2010/07/09 15:00:00",6101.02,20.22,TRADE
QLD1,"2010/07/09 15:30:00",6104.79,20.24,TRADE
QLD1,"2010/07/09 16:00:00",6124.22,20.17,TRADE
QLD1,"2010/07/09 16:30:00",6188.29,19.86,TRADE
QLD1,"2010/07/09 17:00:00",6349.27,20.39,TRADE
QLD1,"2010/07/09 17:30:00",6394.06,22.16,TRADE
QLD1,"2010/07/09 18:00:00",6553,25.44,TRADE
QLD1,"2010/07/09 18:30:00",6575.88,25.63,TRADE
QLD1,"2010/07/09 19:00:00",6536.95,24.62,TRADE
QLD1,"2010/07/09 19:30:00",6466.58,21.66,TRADE
QLD1,"2010/07/09 20:00:00",6532.18,20.46,TRADE
QLD1,"2010/07/09 20:30:00",6542.8,20.56,TRADE
QLD1,"2010/07/09 21:00:00",6414.22,19.77,TRADE
QLD1,"2010/07/09 21:30:00",6297.15,20.09,TRADE
QLD1,"2010/07/09 22:00:00",6130.87,19.59,TRADE
QLD1,"2010/07/09 22:30:00",5965.79,22.91,TRADE
QLD1,"2010/07/09 23:00:00",5826.89,21.43,TRADE
QLD1,"2010/07/09 23:30:00",5737.09,22.74,TRADE
QLD1,"2010/07/10 00:00:00",5502.43,20.73,TRADE
QLD1,"2010/07/10 00:30:00",5331.81,19.98,TRADE
QLD1,"2010/07/10 01:00:00",5153.77,19.64,TRADE
QLD1,"2010/07/10 01:30:00",4932.88,18.49,TRADE
QLD1,"2010/07/10 02:00:00",4735.82,15.89,TRADE
QLD1,"2010/07/10 02:30:00",4642.7,14.76,TRADE
QLD1,"2010/07/10 03:00:00",4554.67,11.94,TRADE
QLD1,"2010/07/10 03:30:00",4480.24,-157.26,TRADE
QLD1,"2010/07/10 04:00:00",4477.19,11.12,TRADE
QLD1,"2010/07/10 04:30:00",4452.84,10.28,TRADE
QLD1,"2010/07/10 05:00:00",4522.74,11.67,TRADE
QLD1,"2010/07/10 05:30:00",4613.62,13.66,TRADE
QLD1,"2010/07/10 06:00:00",4695.9,16.3,TRADE
QLD1,"2010/07/10 06:30:00",4856.2,14.86,TRADE
QLD1,"2010/07/10 07:00:00",5036.95,10.21,TRADE
QLD1,"2010/07/10 07:30:00",5322.57,16.53,TRADE
QLD1,"2010/07/10 08:00:00",5603.45,19.2,TRADE
QLD1,"2010/07/10 08:30:00",5853.26,20.16,TRADE
QLD1,"2010/07/10 09:00:00",6018.33,20.53,TRADE
QLD1,"2010/07/10 09:30:00",6087.13,20.47,TRADE
QLD1,"2010/07/10 10:00:00",6067.16,20.35,TRADE
QLD1,"2010/07/10 10:30:00",6027.55,19.85,TRADE
QLD1,"2010/07/10 11:00:00",5984.47,19.53,TRADE
QLD1,"2010/07/10 11:30:00",5885.7,18.32,TRADE
QLD1,"2010/07/10 12:00:00",5824.28,18.4,TRADE
QLD1,"2010/07/10 12:30:00",5730.6,17.47,TRADE
QLD1,"2010/07/10 13:00:00",5678.98,17.39,TRADE
QLD1,"2010/07/10 13:30:00",5641.45,15.8,TRADE
QLD1,"2010/07/10 14:00:00",5569.15,15.31,TRADE
QLD1,"2010/07/10 14:30:00",5541.56,14.23,TRADE
QLD1,"2010/07/10 15:00:00",5541.46,12.53,TRADE
QLD1,"2010/07/10 15:30:00",5530.09,13.73,TRADE
QLD1,"2010/07/10 16:00:00",5531.28,13.96,TRADE
QLD1,"2010/07/10 16:30:00",5673.36,17.11,TRADE
QLD1,"2010/07/10 17:00:00",5887.37,19.75,TRADE
QLD1,"2010/07/10 17:30:00",6045.73,22.2,TRADE
QLD1,"2010/07/10 18:00:00",6162.81,26.4,TRADE
QLD1,"2010/07/10 18:30:00",6249.92,26.58,TRADE
QLD1,"2010/07/10 19:00:00",6218.83,25.61,TRADE
QLD1,"2010/07/10 19:30:00",6125.98,21.88,TRADE
QLD1,"2010/07/10 20:00:00",6177.66,20.59,TRADE
QLD1,"2010/07/10 20:30:00",6189.63,20.52,TRADE
QLD1,"2010/07/10 21:00:00",6078.49,20.38,TRADE
QLD1,"2010/07/10 21:30:00",6004.49,19.88,TRADE
QLD1,"2010/07/10 22:00:00",5844.31,18.88,TRADE
QLD1,"2010/07/10 22:30:00",5749.75,20.33,TRADE
QLD1,"2010/07/10 23:00:00",5662.12,20.81,TRADE
QLD1,"2010/07/10 23:30:00",5552.18,20.62,TRADE
QLD1,"2010/07/11 00:00:00",5355.07,20.08,TRADE
QLD1,"2010/07/11 00:30:00",5186.7,20.19,TRADE
QLD1,"2010/07/11 01:00:00",5068.99,18.97,TRADE
QLD1,"2010/07/11 01:30:00",4944.22,18.97,TRADE
QLD1,"2010/07/11 02:00:00",4760.98,16.46,TRADE
QLD1,"2010/07/11 02:30:00",4621.28,15.54,TRADE
QLD1,"2010/07/11 03:00:00",4519,12.14,TRADE
QLD1,"2010/07/11 03:30:00",4477.29,12.85,TRADE
QLD1,"2010/07/11 04:00:00",4480.78,11.66,TRADE
QLD1,"2010/07/11 04:30:00",4463.26,10.69,TRADE
QLD1,"2010/07/11 05:00:00",4522.77,11.09,TRADE
QLD1,"2010/07/11 05:30:00",4549.9,12.33,TRADE
QLD1,"2010/07/11 06:00:00",4628.11,12.89,TRADE
QLD1,"2010/07/11 06:30:00",4701.83,11.96,TRADE
QLD1,"2010/07/11 07:00:00",4815.97,12.81,TRADE
QLD1,"2010/07/11 07:30:00",5072.81,13.31,TRADE
QLD1,"2010/07/11 08:00:00",5280.03,15.88,TRADE
QLD1,"2010/07/11 08:30:00",5517.02,18.47,TRADE
QLD1,"2010/07/11 09:00:00",5724.07,19.53,TRADE
QLD1,"2010/07/11 09:30:00",5848.9,20.07,TRADE
QLD1,"2010/07/11 10:00:00",5824.98,20,TRADE
QLD1,"2010/07/11 10:30:00",5834.65,20.24,TRADE
QLD1,"2010/07/11 11:00:00",5796.39,19.79,TRADE
QLD1,"2010/07/11 11:30:00",5731.25,19.36,TRADE
QLD1,"2010/07/11 12:00:00",5696.95,19.18,TRADE
QLD1,"2010/07/11 12:30:00",5662.06,18.97,TRADE
QLD1,"2010/07/11 13:00:00",5632.94,17.1,TRADE
QLD1,"2010/07/11 13:30:00",5560.18,17.2,TRADE
QLD1,"2010/07/11 14:00:00",5517.66,16.96,TRADE
QLD1,"2010/07/11 14:30:00",5517.41,17.56,TRADE
QLD1,"2010/07/11 15:00:00",5500.91,17.41,TRADE
QLD1,"2010/07/11 15:30:00",5530.99,17.76,TRADE
QLD1,"2010/07/11 16:00:00",5566.69,18.49,TRADE
QLD1,"2010/07/11 16:30:00",5673.59,18.8,TRADE
QLD1,"2010/07/11 17:00:00",5877.57,20.62,TRADE
QLD1,"2010/07/11 17:30:00",6004.97,22.76,TRADE
QLD1,"2010/07/11 18:00:00",6290.57,27.65,TRADE
QLD1,"2010/07/11 18:30:00",6358.97,30.38,TRADE
QLD1,"2010/07/11 19:00:00",6363.5,30.55,TRADE
QLD1,"2010/07/11 19:30:00",6265.58,24.89,TRADE
QLD1,"2010/07/11 20:00:00",6316.08,22.75,TRADE
QLD1,"2010/07/11 20:30:00",6318.99,22.35,TRADE
QLD1,"2010/07/11 21:00:00",6185.18,21.09,TRADE
QLD1,"2010/07/11 21:30:00",6054.25,20.44,TRADE
QLD1,"2010/07/11 22:00:00",5844.31,19.51,TRADE
QLD1,"2010/07/11 22:30:00",5694.68,20.33,TRADE
QLD1,"2010/07/11 23:00:00",5555.43,20.61,TRADE
QLD1,"2010/07/11 23:30:00",5387.33,20.32,TRADE
QLD1,"2010/07/12 00:00:00",5209.02,19.2,TRADE
QLD1,"2010/07/12 00:30:00",5029.13,17.4,TRADE
QLD1,"2010/07/12 01:00:00",4868.89,16.41,TRADE
QLD1,"2010/07/12 01:30:00",4688.42,17.93,TRADE
QLD1,"2010/07/12 02:00:00",4510.08,16.66,TRADE
QLD1,"2010/07/12 02:30:00",4487.79,16,TRADE
QLD1,"2010/07/12 03:00:00",4382.14,15.24,TRADE
QLD1,"2010/07/12 03:30:00",4362.32,11.98,TRADE
QLD1,"2010/07/12 04:00:00",4395.3,12.51,TRADE
QLD1,"2010/07/12 04:30:00",4462.65,15.18,TRADE
QLD1,"2010/07/12 05:00:00",4613.62,18.28,TRADE
QLD1,"2010/07/12 05:30:00",4817.46,19.64,TRADE
QLD1,"2010/07/12 06:00:00",5029.08,19.58,TRADE
QLD1,"2010/07/12 06:30:00",5466.04,18.73,TRADE
QLD1,"2010/07/12 07:00:00",5818.29,19.44,TRADE
QLD1,"2010/07/12 07:30:00",6179.75,20.77,TRADE
QLD1,"2010/07/12 08:00:00",6369,21.33,TRADE
QLD1,"2010/07/12 08:30:00",6383.22,20.43,TRADE
QLD1,"2010/07/12 09:00:00",6480.69,21.75,TRADE
QLD1,"2010/07/12 09:30:00",6526.5,20.65,TRADE
QLD1,"2010/07/12 10:00:00",6464.8,20.42,TRADE
QLD1,"2010/07/12 10:30:00",6417.24,20.25,TRADE
QLD1,"2010/07/12 11:00:00",6376.36,20.32,TRADE
QLD1,"2010/07/12 11:30:00",6345.82,20.31,TRADE
QLD1,"2010/07/12 12:00:00",6300.77,20.21,TRADE
QLD1,"2010/07/12 12:30:00",6315.67,20.29,TRADE
QLD1,"2010/07/12 13:00:00",6301.88,20.07,TRADE
QLD1,"2010/07/12 13:30:00",6233.24,20,TRADE
QLD1,"2010/07/12 14:00:00",6219.29,17.99,TRADE
QLD1,"2010/07/12 14:30:00",6169.78,16.45,TRADE
QLD1,"2010/07/12 15:00:00",6165.31,18.06,TRADE
QLD1,"2010/07/12 15:30:00",6203.22,19.07,TRADE
QLD1,"2010/07/12 16:00:00",6212.44,19,TRADE
QLD1,"2010/07/12 16:30:00",6242.17,20.21,TRADE
QLD1,"2010/07/12 17:00:00",6384.22,20.13,TRADE
QLD1,"2010/07/12 17:30:00",6473.18,20.96,TRADE
QLD1,"2010/07/12 18:00:00",6694.12,23.72,TRADE
QLD1,"2010/07/12 18:30:00",6742.81,25.13,TRADE
QLD1,"2010/07/12 19:00:00",6681.43,24.42,TRADE
QLD1,"2010/07/12 19:30:00",6546.03,19.67,TRADE
QLD1,"2010/07/12 20:00:00",6623.02,20.58,TRADE
QLD1,"2010/07/12 20:30:00",6603.05,20.3,TRADE
QLD1,"2010/07/12 21:00:00",6422.64,18.77,TRADE
QLD1,"2010/07/12 21:30:00",6268.53,18.41,TRADE
QLD1,"2010/07/12 22:00:00",6068.15,16.24,TRADE
QLD1,"2010/07/12 22:30:00",5864.04,17.79,TRADE
QLD1,"2010/07/12 23:00:00",5696.74,19.51,TRADE
QLD1,"2010/07/12 23:30:00",5592.76,19.42,TRADE
QLD1,"2010/07/13 00:00:00",5367.11,16.02,TRADE
QLD1,"2010/07/13 00:30:00",5213.37,15.06,TRADE
QLD1,"2010/07/13 01:00:00",5063.34,13.95,TRADE
QLD1,"2010/07/13 01:30:00",4880.3,15.92,TRADE
QLD1,"2010/07/13 02:00:00",4745.23,13.75,TRADE
QLD1,"2010/07/13 02:30:00",4611.17,13.27,TRADE
QLD1,"2010/07/13 03:00:00",4514.84,10.88,TRADE
QLD1,"2010/07/13 03:30:00",4481.3,10.67,TRADE
QLD1,"2010/07/13 04:00:00",4475.13,10.34,TRADE
QLD1,"2010/07/13 04:30:00",4503.35,10.32,TRADE
QLD1,"2010/07/13 05:00:00",4546.96,9.5,TRADE
QLD1,"2010/07/13 05:30:00",4742.13,14.36,TRADE
QLD1,"2010/07/13 06:00:00",5040.28,17.51,TRADE
QLD1,"2010/07/13 06:30:00",5529.37,20.09,TRADE
QLD1,"2010/07/13 07:00:00",5965.96,21.03,TRADE
QLD1,"2010/07/13 07:30:00",6394.12,22,TRADE
QLD1,"2010/07/13 08:00:00",6608.5,22.99,TRADE
QLD1,"2010/07/13 08:30:00",6644.23,23.07,TRADE
QLD1,"2010/07/13 09:00:00",6526.96,22.65,TRADE
QLD1,"2010/07/13 09:30:00",6462.96,21.81,TRADE
QLD1,"2010/07/13 10:00:00",6370.68,20.56,TRADE
QLD1,"2010/07/13 10:30:00",6332.55,20.41,TRADE
QLD1,"2010/07/13 11:00:00",6295.1,20.44,TRADE
QLD1,"2010/07/13 11:30:00",6250.68,20.37,TRADE
QLD1,"2010/07/13 12:00:00",6266.45,20.42,TRADE
QLD1,"2010/07/13 12:30:00",6206.74,20.2,TRADE
QLD1,"2010/07/13 13:00:00",6182.21,20.26,TRADE
QLD1,"2010/07/13 13:30:00",6146.2,18.51,TRADE
QLD1,"2010/07/13 14:00:00",6165.35,19.4,TRADE
QLD1,"2010/07/13 14:30:00",6193.66,19.37,TRADE
QLD1,"2010/07/13 15:00:00",6146.64,19.84,TRADE
QLD1,"2010/07/13 15:30:00",6124.77,19.72,TRADE
QLD1,"2010/07/13 16:00:00",6167.53,20.18,TRADE
QLD1,"2010/07/13 16:30:00",6219.55,18.62,TRADE
QLD1,"2010/07/13 17:00:00",6313.47,19.96,TRADE
QLD1,"2010/07/13 17:30:00",6452.65,21.1,TRADE
QLD1,"2010/07/13 18:00:00",6613.76,22.91,TRADE
QLD1,"2010/07/13 18:30:00",6704.45,23.34,TRADE
QLD1,"2010/07/13 19:00:00",6687.8,22.93,TRADE
QLD1,"2010/07/13 19:30:00",6576.17,20.41,TRADE
QLD1,"2010/07/13 20:00:00",6579.28,20.61,TRADE
QLD1,"2010/07/13 20:30:00",6580.65,20.59,TRADE
QLD1,"2010/07/13 21:00:00",6394.78,18.04,TRADE
QLD1,"2010/07/13 21:30:00",6240.77,17.79,TRADE
QLD1,"2010/07/13 22:00:00",6071.39,17.84,TRADE
QLD1,"2010/07/13 22:30:00",5855.4,20.1,TRADE
QLD1,"2010/07/13 23:00:00",5660.61,19.56,TRADE
QLD1,"2010/07/13 23:30:00",5528.61,19.73,TRADE
QLD1,"2010/07/14 00:00:00",5289.75,17.23,TRADE
QLD1,"2010/07/14 00:30:00",5100.56,16.2,TRADE
QLD1,"2010/07/14 01:00:00",4971.39,14.22,TRADE
QLD1,"2010/07/14 01:30:00",4790.4,17.79,TRADE
QLD1,"2010/07/14 02:00:00",4632.42,16.75,TRADE
QLD1,"2010/07/14 02:30:00",4535.46,15.38,TRADE
QLD1,"2010/07/14 03:00:00",4508.95,14.95,TRADE
QLD1,"2010/07/14 03:30:00",4434.72,13.41,TRADE
QLD1,"2010/07/14 04:00:00",4431.81,7.42,TRADE
QLD1,"2010/07/14 04:30:00",4478.42,8.23,TRADE
QLD1,"2010/07/14 05:00:00",4560.2,13.29,TRADE
QLD1,"2010/07/14 05:30:00",4765.32,15.38,TRADE
QLD1,"2010/07/14 06:00:00",5043.24,17.99,TRADE
QLD1,"2010/07/14 06:30:00",5482.08,19.85,TRADE
QLD1,"2010/07/14 07:00:00",5942.97,20.23,TRADE
QLD1,"2010/07/14 07:30:00",6333.12,20.74,TRADE
QLD1,"2010/07/14 08:00:00",6495.14,22.35,TRADE
QLD1,"2010/07/14 08:30:00",6443.6,21.87,TRADE
QLD1,"2010/07/14 09:00:00",6349.11,20.64,TRADE
QLD1,"2010/07/14 09:30:00",6315.81,20.46,TRADE
QLD1,"2010/07/14 10:00:00",6283.17,21.66,TRADE
QLD1,"2010/07/14 10:30:00",6239.72,20.73,TRADE
QLD1,"2010/07/14 11:00:00",6247.5,20.8,TRADE
QLD1,"2010/07/14 11:30:00",6224.19,20.5,TRADE
QLD1,"2010/07/14 12:00:00",6253.42,20.98,TRADE
QLD1,"2010/07/14 12:30:00",6241.93,20.4,TRADE
QLD1,"2010/07/14 13:00:00",6242.71,20.32,TRADE
QLD1,"2010/07/14 13:30:00",6228.17,20.38,TRADE
QLD1,"2010/07/14 14:00:00",6232.6,20.38,TRADE
QLD1,"2010/07/14 14:30:00",6254.22,20.09,TRADE
QLD1,"2010/07/14 15:00:00",6194,18.72,TRADE
QLD1,"2010/07/14 15:30:00",6176.86,19.43,TRADE
QLD1,"2010/07/14 16:00:00",6183.61,19.59,TRADE
QLD1,"2010/07/14 16:30:00",6248.33,18.82,TRADE
QLD1,"2010/07/14 17:00:00",6392.78,20.53,TRADE
QLD1,"2010/07/14 17:30:00",6501.07,23.17,TRADE
QLD1,"2010/07/14 18:00:00",6735.67,30.21,TRADE
QLD1,"2010/07/14 18:30:00",6773.84,25.97,TRADE
QLD1,"2010/07/14 19:00:00",6754.83,24.34,TRADE
QLD1,"2010/07/14 19:30:00",6689.71,21.6,TRADE
QLD1,"2010/07/14 20:00:00",6772.9,21.92,TRADE
QLD1,"2010/07/14 20:30:00",6754.34,21.58,TRADE
QLD1,"2010/07/14 21:00:00",6600.66,20.47,TRADE
QLD1,"2010/07/14 21:30:00",6480.53,19.59,TRADE
QLD1,"2010/07/14 22:00:00",6235.13,18.8,TRADE
QLD1,"2010/07/14 22:30:00",5963.1,21.49,TRADE
QLD1,"2010/07/14 23:00:00",5774.51,22.1,TRADE
QLD1,"2010/07/14 23:30:00",5621.82,22.15,TRADE
QLD1,"2010/07/15 00:00:00",5406.13,20.77,TRADE
QLD1,"2010/07/15 00:30:00",5200.53,18.52,TRADE
QLD1,"2010/07/15 01:00:00",5053.46,16.96,TRADE
QLD1,"2010/07/15 01:30:00",4847.7,19.26,TRADE
QLD1,"2010/07/15 02:00:00",4704.46,17.19,TRADE
QLD1,"2010/07/15 02:30:00",4581.67,17.89,TRADE
QLD1,"2010/07/15 03:00:00",4548.79,17.14,TRADE
QLD1,"2010/07/15 03:30:00",4530.23,16.33,TRADE
QLD1,"2010/07/15 04:00:00",4550.52,14.8,TRADE
QLD1,"2010/07/15 04:30:00",4554.85,14.24,TRADE
QLD1,"2010/07/15 05:00:00",4692.63,15.53,TRADE
QLD1,"2010/07/15 05:30:00",4922.07,17.1,TRADE
QLD1,"2010/07/15 06:00:00",5225.88,19.93,TRADE
QLD1,"2010/07/15 06:30:00",5753.03,23.21,TRADE
QLD1,"2010/07/15 07:00:00",6247.72,23.16,TRADE
QLD1,"2010/07/15 07:30:00",6723.79,22.87,TRADE
QLD1,"2010/07/15 08:00:00",6907.6,23.63,TRADE
QLD1,"2010/07/15 08:30:00",6840.29,23.46,TRADE
QLD1,"2010/07/15 09:00:00",6655.89,22.25,TRADE
QLD1,"2010/07/15 09:30:00",6592.22,20.3,TRADE
QLD1,"2010/07/15 10:00:00",6486.33,20.06,TRADE
QLD1,"2010/07/15 10:30:00",6397.63,18.09,TRADE
QLD1,"2010/07/15 11:00:00",6338.9,18.09,TRADE
QLD1,"2010/07/15 11:30:00",6285.56,18.07,TRADE
QLD1,"2010/07/15 12:00:00",6241.76,16.6,TRADE
QLD1,"2010/07/15 12:30:00",6157.75,14.55,TRADE
QLD1,"2010/07/15 13:00:00",6164.39,18.32,TRADE
QLD1,"2010/07/15 13:30:00",6163.5,17.91,TRADE
QLD1,"2010/07/15 14:00:00",6174.88,19.66,TRADE
QLD1,"2010/07/15 14:30:00",6177.25,20.3,TRADE
QLD1,"2010/07/15 15:00:00",6122.48,20.34,TRADE
QLD1,"2010/07/15 15:30:00",6100.46,20.34,TRADE
QLD1,"2010/07/15 16:00:00",6157.31,20.07,TRADE
QLD1,"2010/07/15 16:30:00",6224.4,17.6,TRADE
QLD1,"2010/07/15 17:00:00",6320.12,19.45,TRADE
QLD1,"2010/07/15 17:30:00",6430.48,23.25,TRADE
QLD1,"2010/07/15 18:00:00",6721.59,30.3,TRADE
QLD1,"2010/07/15 18:30:00",6834.24,34.91,TRADE
QLD1,"2010/07/15 19:00:00",6866.33,34.88,TRADE
QLD1,"2010/07/15 19:30:00",6790.3,25.92,TRADE
QLD1,"2010/07/15 20:00:00",6857.91,24.48,TRADE
QLD1,"2010/07/15 20:30:00",6921.6,25.39,TRADE
QLD1,"2010/07/15 21:00:00",6800.67,23.14,TRADE
QLD1,"2010/07/15 21:30:00",6576.57,21.54,TRADE
QLD1,"2010/07/15 22:00:00",6272.49,18.08,TRADE
QLD1,"2010/07/15 22:30:00",6025.16,21.96,TRADE
QLD1,"2010/07/15 23:00:00",5828.02,23.33,TRADE
QLD1,"2010/07/15 23:30:00",5703.94,22.7,TRADE
QLD1,"2010/07/16 00:00:00",5449.07,21.41,TRADE
QLD1,"2010/07/16 00:30:00",5278.12,20.12,TRADE
QLD1,"2010/07/16 01:00:00",5119.75,17.78,TRADE
QLD1,"2010/07/16 01:30:00",4906.7,20.8,TRADE
QLD1,"2010/07/16 02:00:00",4766.31,19.73,TRADE
QLD1,"2010/07/16 02:30:00",4667.8,18.68,TRADE
QLD1,"2010/07/16 03:00:00",4581.03,15.96,TRADE
QLD1,"2010/07/16 03:30:00",4566.69,15.39,TRADE
QLD1,"2010/07/16 04:00:00",4534.64,14.2,TRADE
QLD1,"2010/07/16 04:30:00",4611.42,15.63,TRADE
QLD1,"2010/07/16 05:00:00",4749.04,17.31,TRADE
QLD1,"2010/07/16 05:30:00",5020.09,18.6,TRADE
QLD1,"2010/07/16 06:00:00",5329.3,22.45,TRADE
QLD1,"2010/07/16 06:30:00",5857.08,23.94,TRADE
QLD1,"2010/07/16 07:00:00",6318.02,23.76,TRADE
QLD1,"2010/07/16 07:30:00",6755.38,23.78,TRADE
QLD1,"2010/07/16 08:00:00",6924.39,25,TRADE
QLD1,"2010/07/16 08:30:00",6879.62,25.17,TRADE
QLD1,"2010/07/16 09:00:00",6739.16,24.94,TRADE
QLD1,"2010/07/16 09:30:00",6631.42,22.81,TRADE
QLD1,"2010/07/16 10:00:00",6505.34,20.21,TRADE
QLD1,"2010/07/16 10:30:00",6408.17,18.73,TRADE
QLD1,"2010/07/16 11:00:00",6296.15,17.61,TRADE
QLD1,"2010/07/16 11:30:00",6219.36,17.18,TRADE
QLD1,"2010/07/16 12:00:00",6163.53,17.85,TRADE
QLD1,"2010/07/16 12:30:00",6086.2,17.05,TRADE
QLD1,"2010/07/16 13:00:00",6044.71,18.15,TRADE
QLD1,"2010/07/16 13:30:00",6038.5,18,TRADE
QLD1,"2010/07/16 14:00:00",6054.8,18.83,TRADE
QLD1,"2010/07/16 14:30:00",6026.44,18.52,TRADE
QLD1,"2010/07/16 15:00:00",5954.78,18.26,TRADE
QLD1,"2010/07/16 15:30:00",5963.23,18.72,TRADE
QLD1,"2010/07/16 16:00:00",6007.54,19.02,TRADE
QLD1,"2010/07/16 16:30:00",6082.97,19.4,TRADE
QLD1,"2010/07/16 17:00:00",6221.09,20.29,TRADE
QLD1,"2010/07/16 17:30:00",6370.74,22.12,TRADE
QLD1,"2010/07/16 18:00:00",6527.46,25.88,TRADE
QLD1,"2010/07/16 18:30:00",6590.54,26.89,TRADE
QLD1,"2010/07/16 19:00:00",6639.41,27.73,TRADE
QLD1,"2010/07/16 19:30:00",6611.29,25.52,TRADE
QLD1,"2010/07/16 20:00:00",6682.17,24.34,TRADE
QLD1,"2010/07/16 20:30:00",6682.53,24.89,TRADE
QLD1,"2010/07/16 21:00:00",6542.68,22.48,TRADE
QLD1,"2010/07/16 21:30:00",6397.93,20.69,TRADE
QLD1,"2010/07/16 22:00:00",6256.15,21.71,TRADE
QLD1,"2010/07/16 22:30:00",6068.02,24.23,TRADE
QLD1,"2010/07/16 23:00:00",5917.07,23.84,TRADE
QLD1,"2010/07/16 23:30:00",5785.53,23.65,TRADE
QLD1,"2010/07/17 00:00:00",5551.33,22.42,TRADE
QLD1,"2010/07/17 00:30:00",5336.12,21.06,TRADE
QLD1,"2010/07/17 01:00:00",5195.62,19.04,TRADE
QLD1,"2010/07/17 01:30:00",4977.14,21.02,TRADE
QLD1,"2010/07/17 02:00:00",4785.53,18.83,TRADE
QLD1,"2010/07/17 02:30:00",4679.13,17.4,TRADE
QLD1,"2010/07/17 03:00:00",4613.67,17.1,TRADE
QLD1,"2010/07/17 03:30:00",4557.53,15.36,TRADE
QLD1,"2010/07/17 04:00:00",4549.98,15.13,TRADE
QLD1,"2010/07/17 04:30:00",4579.04,14.18,TRADE
QLD1,"2010/07/17 05:00:00",4595.32,13.75,TRADE
QLD1,"2010/07/17 05:30:00",4716.32,15.22,TRADE
QLD1,"2010/07/17 06:00:00",4801.11,17.86,TRADE
QLD1,"2010/07/17 06:30:00",5035.01,20,TRADE
QLD1,"2010/07/17 07:00:00",5224.21,13.48,TRADE
QLD1,"2010/07/17 07:30:00",5586.32,18.92,TRADE
QLD1,"2010/07/17 08:00:00",5835.31,23.02,TRADE
QLD1,"2010/07/17 08:30:00",6069.4,25.79,TRADE
QLD1,"2010/07/17 09:00:00",6154.02,26.74,TRADE
QLD1,"2010/07/17 09:30:00",6140,26.71,TRADE
QLD1,"2010/07/17 10:00:00",6056.44,26.47,TRADE
QLD1,"2010/07/17 10:30:00",5967.67,22.76,TRADE
QLD1,"2010/07/17 11:00:00",5891.27,20.23,TRADE
QLD1,"2010/07/17 11:30:00",5769,17.69,TRADE
QLD1,"2010/07/17 12:00:00",5714.15,17.99,TRADE
QLD1,"2010/07/17 12:30:00",5639.29,17.14,TRADE
QLD1,"2010/07/17 13:00:00",5573.24,15.09,TRADE
QLD1,"2010/07/17 13:30:00",5515.29,19.63,TRADE
QLD1,"2010/07/17 14:00:00",5438.32,19.03,TRADE
QLD1,"2010/07/17 14:30:00",5402.73,19.12,TRADE
QLD1,"2010/07/17 15:00:00",5422.36,18.76,TRADE
QLD1,"2010/07/17 15:30:00",5393.21,19.21,TRADE
QLD1,"2010/07/17 16:00:00",5424.99,19.86,TRADE
QLD1,"2010/07/17 16:30:00",5550.54,20.72,TRADE
QLD1,"2010/07/17 17:00:00",5713.45,23.71,TRADE
QLD1,"2010/07/17 17:30:00",5922.29,26.32,TRADE
QLD1,"2010/07/17 18:00:00",6131.73,30.56,TRADE
QLD1,"2010/07/17 18:30:00",6239.12,30.88,TRADE
QLD1,"2010/07/17 19:00:00",6243.01,29.31,TRADE
QLD1,"2010/07/17 19:30:00",6179.71,26.33,TRADE
QLD1,"2010/07/17 20:00:00",6192.51,26.22,TRADE
QLD1,"2010/07/17 20:30:00",6166.5,24.96,TRADE
QLD1,"2010/07/17 21:00:00",6067.95,23.8,TRADE
QLD1,"2010/07/17 21:30:00",5986.3,23.48,TRADE
QLD1,"2010/07/17 22:00:00",5814.07,22.45,TRADE
QLD1,"2010/07/17 22:30:00",5687.35,23.07,TRADE
QLD1,"2010/07/17 23:00:00",5600,23.36,TRADE
QLD1,"2010/07/17 23:30:00",5515.09,23.16,TRADE
QLD1,"2010/07/18 00:00:00",5332.21,21.52,TRADE
QLD1,"2010/07/18 00:30:00",5164.32,19.45,TRADE
QLD1,"2010/07/18 01:00:00",5039.13,18.57,TRADE
QLD1,"2010/07/18 01:30:00",4848.27,16.68,TRADE
QLD1,"2010/07/18 02:00:00",4700.48,15.59,TRADE
QLD1,"2010/07/18 02:30:00",4595.59,16.49,TRADE
QLD1,"2010/07/18 03:00:00",4467.35,12.66,TRADE
QLD1,"2010/07/18 03:30:00",4415.1,12.7,TRADE
QLD1,"2010/07/18 04:00:00",4426.76,12,TRADE
QLD1,"2010/07/18 04:30:00",4427.76,13.02,TRADE
QLD1,"2010/07/18 05:00:00",4492.24,13.18,TRADE
QLD1,"2010/07/18 05:30:00",4528.48,12.6,TRADE
QLD1,"2010/07/18 06:00:00",4589,14.48,TRADE
QLD1,"2010/07/18 06:30:00",4714.17,14.44,TRADE
QLD1,"2010/07/18 07:00:00",4870.75,14.81,TRADE
QLD1,"2010/07/18 07:30:00",5138.6,16.6,TRADE
QLD1,"2010/07/18 08:00:00",5379.03,19.3,TRADE
QLD1,"2010/07/18 08:30:00",5594.73,20.13,TRADE
QLD1,"2010/07/18 09:00:00",5706.33,20.51,TRADE
QLD1,"2010/07/18 09:30:00",5770.83,20.3,TRADE
QLD1,"2010/07/18 10:00:00",5702.79,20.62,TRADE
QLD1,"2010/07/18 10:30:00",5718.17,21.17,TRADE
QLD1,"2010/07/18 11:00:00",5644.81,20.18,TRADE
QLD1,"2010/07/18 11:30:00",5586.05,20.41,TRADE
QLD1,"2010/07/18 12:00:00",5540.4,19.73,TRADE
QLD1,"2010/07/18 12:30:00",5474.01,20.32,TRADE
QLD1,"2010/07/18 13:00:00",5401.69,19.7,TRADE
QLD1,"2010/07/18 13:30:00",5363.93,19.61,TRADE
QLD1,"2010/07/18 14:00:00",5372.43,19.73,TRADE
QLD1,"2010/07/18 14:30:00",5299.28,19.81,TRADE
QLD1,"2010/07/18 15:00:00",5289.86,19.81,TRADE
QLD1,"2010/07/18 15:30:00",5365.82,19.12,TRADE
QLD1,"2010/07/18 16:00:00",5413.19,19.13,TRADE
QLD1,"2010/07/18 16:30:00",5554.17,21.28,TRADE
QLD1,"2010/07/18 17:00:00",5733.26,22.82,TRADE
QLD1,"2010/07/18 17:30:00",5969.46,26.25,TRADE
QLD1,"2010/07/18 18:00:00",6283.88,46.32,TRADE
QLD1,"2010/07/18 18:30:00",6433.24,85.53,TRADE
QLD1,"2010/07/18 19:00:00",6403.15,73.62,TRADE
QLD1,"2010/07/18 19:30:00",6336.24,32.36,TRADE
QLD1,"2010/07/18 20:00:00",6367.4,26.35,TRADE
QLD1,"2010/07/18 20:30:00",6357.19,25.76,TRADE
QLD1,"2010/07/18 21:00:00",6287.73,24.14,TRADE
QLD1,"2010/07/18 21:30:00",6112.06,21.87,TRADE
QLD1,"2010/07/18 22:00:00",5889.09,19.18,TRADE
QLD1,"2010/07/18 22:30:00",5724.8,23.26,TRADE
QLD1,"2010/07/18 23:00:00",5610.76,23.19,TRADE
QLD1,"2010/07/18 23:30:00",5462.27,22.03,TRADE
QLD1,"2010/07/19 00:00:00",5241,19.31,TRADE
QLD1,"2010/07/19 00:30:00",5140.18,17.65,TRADE
QLD1,"2010/07/19 01:00:00",4995.56,15.02,TRADE
QLD1,"2010/07/19 01:30:00",4844.67,16.01,TRADE
QLD1,"2010/07/19 02:00:00",4666.67,14.55,TRADE
QLD1,"2010/07/19 02:30:00",4580.56,15.38,TRADE
QLD1,"2010/07/19 03:00:00",4577.41,17.42,TRADE
QLD1,"2010/07/19 03:30:00",4548.2,16.9,TRADE
QLD1,"2010/07/19 04:00:00",4473.12,13.9,TRADE
QLD1,"2010/07/19 04:30:00",4523.66,13.67,TRADE
QLD1,"2010/07/19 05:00:00",4665.27,14.7,TRADE
QLD1,"2010/07/19 05:30:00",4889.8,17.5,TRADE
QLD1,"2010/07/19 06:00:00",5172.99,20.1,TRADE
QLD1,"2010/07/19 06:30:00",5690.94,22,TRADE
QLD1,"2010/07/19 07:00:00",6199.8,22.53,TRADE
QLD1,"2010/07/19 07:30:00",6648.61,23.59,TRADE
QLD1,"2010/07/19 08:00:00",6821.63,28.14,TRADE
QLD1,"2010/07/19 08:30:00",6772.34,29.24,TRADE
QLD1,"2010/07/19 09:00:00",6674.49,26.52,TRADE
QLD1,"2010/07/19 09:30:00",6611.87,26.55,TRADE
QLD1,"2010/07/19 10:00:00",6499.94,26.25,TRADE
QLD1,"2010/07/19 10:30:00",6453.45,25.17,TRADE
QLD1,"2010/07/19 11:00:00",6445.89,22.99,TRADE
QLD1,"2010/07/19 11:30:00",6448.94,23.76,TRADE
QLD1,"2010/07/19 12:00:00",6450.58,21.22,TRADE
QLD1,"2010/07/19 12:30:00",6441.74,19.96,TRADE
QLD1,"2010/07/19 13:00:00",6419.41,20.59,TRADE
QLD1,"2010/07/19 13:30:00",6430.1,21.86,TRADE
QLD1,"2010/07/19 14:00:00",6388.9,22.19,TRADE
QLD1,"2010/07/19 14:30:00",6384.16,21.7,TRADE
QLD1,"2010/07/19 15:00:00",6290.26,20.21,TRADE
QLD1,"2010/07/19 15:30:00",6301.14,19.81,TRADE
QLD1,"2010/07/19 16:00:00",6285.78,19.89,TRADE
QLD1,"2010/07/19 16:30:00",6331.47,20.12,TRADE
QLD1,"2010/07/19 17:00:00",6461.53,22.33,TRADE
QLD1,"2010/07/19 17:30:00",6580.46,24.21,TRADE
QLD1,"2010/07/19 18:00:00",6873.88,35.72,TRADE
QLD1,"2010/07/19 18:30:00",6911.96,46.41,TRADE
QLD1,"2010/07/19 19:00:00",6863.74,41.51,TRADE
QLD1,"2010/07/19 19:30:00",6737.92,29.26,TRADE
QLD1,"2010/07/19 20:00:00",6712.15,25.53,TRADE
QLD1,"2010/07/19 20:30:00",6632.86,22.86,TRADE
QLD1,"2010/07/19 21:00:00",6445.26,19.36,TRADE
QLD1,"2010/07/19 21:30:00",6207.31,19.07,TRADE
QLD1,"2010/07/19 22:00:00",5988.67,20.2,TRADE
QLD1,"2010/07/19 22:30:00",5729.6,19.82,TRADE
QLD1,"2010/07/19 23:00:00",5535.08,21.59,TRADE
QLD1,"2010/07/19 23:30:00",5391.58,21.64,TRADE
QLD1,"2010/07/20 00:00:00",5178.72,18.51,TRADE
QLD1,"2010/07/20 00:30:00",4991.88,17.77,TRADE
QLD1,"2010/07/20 01:00:00",4852.35,15.15,TRADE
QLD1,"2010/07/20 01:30:00",4654.86,14.29,TRADE
QLD1,"2010/07/20 02:00:00",4589.07,18.52,TRADE
QLD1,"2010/07/20 02:30:00",4557.1,20.35,TRADE
QLD1,"2010/07/20 03:00:00",4499.07,19.09,TRADE
QLD1,"2010/07/20 03:30:00",4467.86,17.35,TRADE
QLD1,"2010/07/20 04:00:00",4484.81,16.56,TRADE
QLD1,"2010/07/20 04:30:00",4498.48,16.79,TRADE
QLD1,"2010/07/20 05:00:00",4597.74,18.41,TRADE
QLD1,"2010/07/20 05:30:00",4845.69,20.26,TRADE
QLD1,"2010/07/20 06:00:00",5115.17,21.9,TRADE
QLD1,"2010/07/20 06:30:00",5619.24,25.57,TRADE
QLD1,"2010/07/20 07:00:00",6055.26,25.25,TRADE
QLD1,"2010/07/20 07:30:00",6491.68,26.81,TRADE
QLD1,"2010/07/20 08:00:00",6635.46,31.7,TRADE
QLD1,"2010/07/20 08:30:00",6568.78,28.03,TRADE
QLD1,"2010/07/20 09:00:00",6463.66,25.24,TRADE
QLD1,"2010/07/20 09:30:00",6404.7,21.71,TRADE
QLD1,"2010/07/20 10:00:00",6316.86,19.49,TRADE
QLD1,"2010/07/20 10:30:00",6283.68,21.38,TRADE
QLD1,"2010/07/20 11:00:00",6213.53,20.79,TRADE
QLD1,"2010/07/20 11:30:00",6205.56,20.38,TRADE
QLD1,"2010/07/20 12:00:00",6167.21,26.02,TRADE
QLD1,"2010/07/20 12:30:00",6125.63,22.88,TRADE
QLD1,"2010/07/20 13:00:00",6101.34,22.1,TRADE
QLD1,"2010/07/20 13:30:00",6042.43,21.67,TRADE
QLD1,"2010/07/20 14:00:00",6013.38,19.63,TRADE
QLD1,"2010/07/20 14:30:00",6032.11,20.36,TRADE
QLD1,"2010/07/20 15:00:00",5958.85,20.47,TRADE
QLD1,"2010/07/20 15:30:00",6004.1,21.14,TRADE
QLD1,"2010/07/20 16:00:00",6050.98,21.57,TRADE
QLD1,"2010/07/20 16:30:00",6092.25,18.75,TRADE
QLD1,"2010/07/20 17:00:00",6261.48,20.86,TRADE
QLD1,"2010/07/20 17:30:00",6532.66,27.68,TRADE
QLD1,"2010/07/20 18:00:00",6758.06,60.3,TRADE
QLD1,"2010/07/20 18:30:00",6790.33,58.31,TRADE
QLD1,"2010/07/20 19:00:00",6770.17,34.88,TRADE
QLD1,"2010/07/20 19:30:00",6678.36,26.94,TRADE
QLD1,"2010/07/20 20:00:00",6694.21,26.33,TRADE
QLD1,"2010/07/20 20:30:00",6711.63,28.67,TRADE
QLD1,"2010/07/20 21:00:00",6616.16,28.71,TRADE
QLD1,"2010/07/20 21:30:00",6400.73,22.7,TRADE
QLD1,"2010/07/20 22:00:00",6177.09,22.93,TRADE
QLD1,"2010/07/20 22:30:00",5940.37,26.97,TRADE
QLD1,"2010/07/20 23:00:00",5784.38,24.67,TRADE
QLD1,"2010/07/20 23:30:00",5602.71,23.66,TRADE
QLD1,"2010/07/21 00:00:00",5372.58,21.75,TRADE
QLD1,"2010/07/21 00:30:00",5209.29,20.26,TRADE
QLD1,"2010/07/21 01:00:00",5016.8,18.81,TRADE
QLD1,"2010/07/21 01:30:00",4828.8,20.11,TRADE
QLD1,"2010/07/21 02:00:00",4697.43,18.61,TRADE
QLD1,"2010/07/21 02:30:00",4570.16,17.51,TRADE
QLD1,"2010/07/21 03:00:00",4496.41,20.11,TRADE
QLD1,"2010/07/21 03:30:00",4495.87,18.61,TRADE
QLD1,"2010/07/21 04:00:00",4493.59,15.77,TRADE
QLD1,"2010/07/21 04:30:00",4537.12,15.99,TRADE
QLD1,"2010/07/21 05:00:00",4647.31,18.7,TRADE
QLD1,"2010/07/21 05:30:00",4902.89,18.9,TRADE
QLD1,"2010/07/21 06:00:00",5179.16,21.79,TRADE
QLD1,"2010/07/21 06:30:00",5707.37,28.37,TRADE
QLD1,"2010/07/21 07:00:00",6180.1,30.06,TRADE
QLD1,"2010/07/21 07:30:00",6630.02,31.08,TRADE
QLD1,"2010/07/21 08:00:00",6752.62,41.65,TRADE
QLD1,"2010/07/21 08:30:00",6679.48,38.58,TRADE
QLD1,"2010/07/21 09:00:00",6538.57,27.64,TRADE
QLD1,"2010/07/21 09:30:00",6476.46,26.1,TRADE
QLD1,"2010/07/21 10:00:00",6364.95,21.53,TRADE
QLD1,"2010/07/21 10:30:00",6275.27,19.13,TRADE
QLD1,"2010/07/21 11:00:00",6253.52,23.75,TRADE
QLD1,"2010/07/21 11:30:00",6216.11,21.44,TRADE
QLD1,"2010/07/21 12:00:00",6176.47,23.09,TRADE
QLD1,"2010/07/21 12:30:00",6180.48,22,TRADE
QLD1,"2010/07/21 13:00:00",6133.11,21.72,TRADE
QLD1,"2010/07/21 13:30:00",6110.75,22.56,TRADE
QLD1,"2010/07/21 14:00:00",6119.01,21.94,TRADE
QLD1,"2010/07/21 14:30:00",6093.06,21.85,TRADE
QLD1,"2010/07/21 15:00:00",6099.61,21.77,TRADE
QLD1,"2010/07/21 15:30:00",6112.7,22.02,TRADE
QLD1,"2010/07/21 16:00:00",6117.68,22.07,TRADE
QLD1,"2010/07/21 16:30:00",6235.46,22.5,TRADE
QLD1,"2010/07/21 17:00:00",6433.94,23.08,TRADE
QLD1,"2010/07/21 17:30:00",6681.44,31.38,TRADE
QLD1,"2010/07/21 18:00:00",6953.99,43.54,TRADE
QLD1,"2010/07/21 18:30:00",7033.21,35.83,TRADE
QLD1,"2010/07/21 19:00:00",7027.38,34.5,TRADE
QLD1,"2010/07/21 19:30:00",6947.17,27.32,TRADE
QLD1,"2010/07/21 20:00:00",6899.89,24.74,TRADE
QLD1,"2010/07/21 20:30:00",6860.65,34.67,TRADE
QLD1,"2010/07/21 21:00:00",6728.55,26.31,TRADE
QLD1,"2010/07/21 21:30:00",6562.67,24.85,TRADE
QLD1,"2010/07/21 22:00:00",6311.26,22.64,TRADE
QLD1,"2010/07/21 22:30:00",6030.79,22.97,TRADE
QLD1,"2010/07/21 23:00:00",5798.05,20.89,TRADE
QLD1,"2010/07/21 23:30:00",5644.59,20.84,TRADE
QLD1,"2010/07/22 00:00:00",5401.47,18.38,TRADE
QLD1,"2010/07/22 00:30:00",5237.33,18.3,TRADE
QLD1,"2010/07/22 01:00:00",5087.2,17.41,TRADE
QLD1,"2010/07/22 01:30:00",4879.47,15.15,TRADE
QLD1,"2010/07/22 02:00:00",4736.48,13.84,TRADE
QLD1,"2010/07/22 02:30:00",4629.51,14.29,TRADE
QLD1,"2010/07/22 03:00:00",4553.24,14.63,TRADE
QLD1,"2010/07/22 03:30:00",4523.37,13.77,TRADE
QLD1,"2010/07/22 04:00:00",4515,13.17,TRADE
QLD1,"2010/07/22 04:30:00",4570.73,13.59,TRADE
QLD1,"2010/07/22 05:00:00",4715.91,15.03,TRADE
QLD1,"2010/07/22 05:30:00",4940.44,19.05,TRADE
QLD1,"2010/07/22 06:00:00",5252.26,18.79,TRADE
QLD1,"2010/07/22 06:30:00",5807.32,24.64,TRADE
QLD1,"2010/07/22 07:00:00",6315.24,26.12,TRADE
QLD1,"2010/07/22 07:30:00",6777.93,31.52,TRADE
QLD1,"2010/07/22 08:00:00",6877.84,56.46,TRADE
QLD1,"2010/07/22 08:30:00",6813.57,40.68,TRADE
QLD1,"2010/07/22 09:00:00",6644.62,30.57,TRADE
QLD1,"2010/07/22 09:30:00",6528.12,29.01,TRADE
QLD1,"2010/07/22 10:00:00",6382.57,26.29,TRADE
QLD1,"2010/07/22 10:30:00",6301,23.51,TRADE
QLD1,"2010/07/22 11:00:00",6199.24,19.85,TRADE
QLD1,"2010/07/22 11:30:00",6125.32,21.61,TRADE
QLD1,"2010/07/22 12:00:00",6083.19,20.43,TRADE
QLD1,"2010/07/22 12:30:00",6109.04,20.68,TRADE
QLD1,"2010/07/22 13:00:00",5995.31,22.77,TRADE
QLD1,"2010/07/22 13:30:00",5988.14,23,TRADE
QLD1,"2010/07/22 14:00:00",5970.46,20.43,TRADE
QLD1,"2010/07/22 14:30:00",5985.69,21.85,TRADE
QLD1,"2010/07/22 15:00:00",5959.18,21.66,TRADE
QLD1,"2010/07/22 15:30:00",5989.66,24.33,TRADE
QLD1,"2010/07/22 16:00:00",6022.55,24.7,TRADE
QLD1,"2010/07/22 16:30:00",6083.15,23.78,TRADE
QLD1,"2010/07/22 17:00:00",6198.15,24.5,TRADE
QLD1,"2010/07/22 17:30:00",6415.09,31.22,TRADE
QLD1,"2010/07/22 18:00:00",6808.82,68.74,TRADE
QLD1,"2010/07/22 18:30:00",6956.28,43,TRADE
QLD1,"2010/07/22 19:00:00",6985.71,34.59,TRADE
QLD1,"2010/07/22 19:30:00",6961.33,31.46,TRADE
QLD1,"2010/07/22 20:00:00",6974.39,30.36,TRADE
QLD1,"2010/07/22 20:30:00",6951.07,31.53,TRADE
QLD1,"2010/07/22 21:00:00",6827.59,32.39,TRADE
QLD1,"2010/07/22 21:30:00",6594.34,30.67,TRADE
QLD1,"2010/07/22 22:00:00",6306.63,23,TRADE
QLD1,"2010/07/22 22:30:00",6080.86,28.92,TRADE
QLD1,"2010/07/22 23:00:00",5892.29,29.38,TRADE
QLD1,"2010/07/22 23:30:00",5740.5,26.29,TRADE
QLD1,"2010/07/23 00:00:00",5494.23,23.77,TRADE
QLD1,"2010/07/23 00:30:00",5316.2,22.09,TRADE
QLD1,"2010/07/23 01:00:00",5167.35,19.26,TRADE
QLD1,"2010/07/23 01:30:00",4951.45,20.41,TRADE
QLD1,"2010/07/23 02:00:00",4772.85,19.97,TRADE
QLD1,"2010/07/23 02:30:00",4649.49,20.14,TRADE
QLD1,"2010/07/23 03:00:00",4593.18,15.73,TRADE
QLD1,"2010/07/23 03:30:00",4543.89,15.01,TRADE
QLD1,"2010/07/23 04:00:00",4518.45,12.07,TRADE
QLD1,"2010/07/23 04:30:00",4615.94,13.84,TRADE
QLD1,"2010/07/23 05:00:00",4719.55,15.54,TRADE
QLD1,"2010/07/23 05:30:00",4975.72,18.08,TRADE
QLD1,"2010/07/23 06:00:00",5319.22,21.68,TRADE
QLD1,"2010/07/23 06:30:00",5850.47,25.49,TRADE
QLD1,"2010/07/23 07:00:00",6352.68,27.31,TRADE
QLD1,"2010/07/23 07:30:00",6886.52,32.69,TRADE
QLD1,"2010/07/23 08:00:00",6971.13,41.24,TRADE
QLD1,"2010/07/23 08:30:00",6869.55,42.86,TRADE
QLD1,"2010/07/23 09:00:00",6677.38,27.65,TRADE
QLD1,"2010/07/23 09:30:00",6526.24,18.46,TRADE
QLD1,"2010/07/23 10:00:00",6415.09,20.75,TRADE
QLD1,"2010/07/23 10:30:00",6293.44,19.55,TRADE
QLD1,"2010/07/23 11:00:00",6199.24,20.36,TRADE
QLD1,"2010/07/23 11:30:00",6152.17,19.44,TRADE
QLD1,"2010/07/23 12:00:00",6098.44,18.37,TRADE
QLD1,"2010/07/23 12:30:00",6079.4,20.08,TRADE
QLD1,"2010/07/23 13:00:00",6040.7,20.53,TRADE
QLD1,"2010/07/23 13:30:00",6036.69,22.4,TRADE
QLD1,"2010/07/23 14:00:00",6032.9,20.82,TRADE
QLD1,"2010/07/23 14:30:00",5983.93,20.37,TRADE
QLD1,"2010/07/23 15:00:00",5977.18,20.73,TRADE
QLD1,"2010/07/23 15:30:00",5965.96,20.94,TRADE
QLD1,"2010/07/23 16:00:00",6018.82,20.82,TRADE
QLD1,"2010/07/23 16:30:00",6110.3,21.37,TRADE
QLD1,"2010/07/23 17:00:00",6266.17,23.69,TRADE
QLD1,"2010/07/23 17:30:00",6472.54,28.43,TRADE
QLD1,"2010/07/23 18:00:00",6691.29,38.48,TRADE
QLD1,"2010/07/23 18:30:00",6730.62,34.98,TRADE
QLD1,"2010/07/23 19:00:00",6765.15,32.82,TRADE
QLD1,"2010/07/23 19:30:00",6640.98,25.93,TRADE
QLD1,"2010/07/23 20:00:00",6644.18,27.81,TRADE
QLD1,"2010/07/23 20:30:00",6627.04,27.94,TRADE
QLD1,"2010/07/23 21:00:00",6507.64,24.38,TRADE
QLD1,"2010/07/23 21:30:00",6366.91,23.73,TRADE
QLD1,"2010/07/23 22:00:00",6173.36,21.83,TRADE
QLD1,"2010/07/23 22:30:00",5931.65,18.88,TRADE
QLD1,"2010/07/23 23:00:00",5816.99,21.11,TRADE
QLD1,"2010/07/23 23:30:00",5716.44,20.97,TRADE
QLD1,"2010/07/24 00:00:00",5489.82,20.74,TRADE
QLD1,"2010/07/24 00:30:00",5231.07,20.11,TRADE
QLD1,"2010/07/24 01:00:00",5083.73,19.02,TRADE
QLD1,"2010/07/24 01:30:00",4882.42,20.1,TRADE
QLD1,"2010/07/24 02:00:00",4708.8,17.7,TRADE
QLD1,"2010/07/24 02:30:00",4584.68,16.35,TRADE
QLD1,"2010/07/24 03:00:00",4503,15.71,TRADE
QLD1,"2010/07/24 03:30:00",4446.9,13.54,TRADE
QLD1,"2010/07/24 04:00:00",4422.39,13.35,TRADE
QLD1,"2010/07/24 04:30:00",4418.98,13,TRADE
QLD1,"2010/07/24 05:00:00",4453.68,13.12,TRADE
QLD1,"2010/07/24 05:30:00",4564.63,14.86,TRADE
QLD1,"2010/07/24 06:00:00",4660.45,13.8,TRADE
QLD1,"2010/07/24 06:30:00",4864.81,16.55,TRADE
QLD1,"2010/07/24 07:00:00",5096.65,17.12,TRADE
QLD1,"2010/07/24 07:30:00",5414.92,20.2,TRADE
QLD1,"2010/07/24 08:00:00",5667.71,21.02,TRADE
QLD1,"2010/07/24 08:30:00",5893.53,23.85,TRADE
QLD1,"2010/07/24 09:00:00",6074.01,26.41,TRADE
QLD1,"2010/07/24 09:30:00",6102.2,25.89,TRADE
QLD1,"2010/07/24 10:00:00",6068.46,26.66,TRADE
QLD1,"2010/07/24 10:30:00",6015.74,23.99,TRADE
QLD1,"2010/07/24 11:00:00",5924.9,23.25,TRADE
QLD1,"2010/07/24 11:30:00",5787.32,20.27,TRADE
QLD1,"2010/07/24 12:00:00",5736.26,20.13,TRADE
QLD1,"2010/07/24 12:30:00",5683.9,20.35,TRADE
QLD1,"2010/07/24 13:00:00",5649.21,20.03,TRADE
QLD1,"2010/07/24 13:30:00",5616.35,20.28,TRADE
QLD1,"2010/07/24 14:00:00",5563.03,19.62,TRADE
QLD1,"2010/07/24 14:30:00",5472.6,19.38,TRADE
QLD1,"2010/07/24 15:00:00",5445.8,18.85,TRADE
QLD1,"2010/07/24 15:30:00",5463.34,19.5,TRADE
QLD1,"2010/07/24 16:00:00",5553.9,20.23,TRADE
QLD1,"2010/07/24 16:30:00",5625.17,19.92,TRADE
QLD1,"2010/07/24 17:00:00",5852.56,20.53,TRADE
QLD1,"2010/07/24 17:30:00",6139.5,24.22,TRADE
QLD1,"2010/07/24 18:00:00",6304.7,28.29,TRADE
QLD1,"2010/07/24 18:30:00",6315.74,29.06,TRADE
QLD1,"2010/07/24 19:00:00",6305.55,31.36,TRADE
QLD1,"2010/07/24 19:30:00",6186.86,24.06,TRADE
QLD1,"2010/07/24 20:00:00",6153.52,24.25,TRADE
QLD1,"2010/07/24 20:30:00",6101.41,23.09,TRADE
QLD1,"2010/07/24 21:00:00",6001.88,20.01,TRADE
QLD1,"2010/07/24 21:30:00",5909.94,21.35,TRADE
QLD1,"2010/07/24 22:00:00",5730.63,19.96,TRADE
QLD1,"2010/07/24 22:30:00",5603.84,21.24,TRADE
QLD1,"2010/07/24 23:00:00",5506.86,22.09,TRADE
QLD1,"2010/07/24 23:30:00",5430.35,22.54,TRADE
QLD1,"2010/07/25 00:00:00",5252.62,21.38,TRADE
QLD1,"2010/07/25 00:30:00",5116.36,21.52,TRADE
QLD1,"2010/07/25 01:00:00",4945.81,20.29,TRADE
QLD1,"2010/07/25 01:30:00",4744.19,17.7,TRADE
QLD1,"2010/07/25 02:00:00",4575.89,14.65,TRADE
QLD1,"2010/07/25 02:30:00",4493.13,14.29,TRADE
QLD1,"2010/07/25 03:00:00",4395.08,13.73,TRADE
QLD1,"2010/07/25 03:30:00",4375.43,12.18,TRADE
QLD1,"2010/07/25 04:00:00",4321.18,13.96,TRADE
QLD1,"2010/07/25 04:30:00",4316.89,11.08,TRADE
QLD1,"2010/07/25 05:00:00",4351.73,13.55,TRADE
QLD1,"2010/07/25 05:30:00",4389.37,13.49,TRADE
QLD1,"2010/07/25 06:00:00",4459.69,13.66,TRADE
QLD1,"2010/07/25 06:30:00",4572.93,13.69,TRADE
QLD1,"2010/07/25 07:00:00",4703.56,13.83,TRADE
QLD1,"2010/07/25 07:30:00",4921,14.89,TRADE
QLD1,"2010/07/25 08:00:00",5131.45,17.73,TRADE
QLD1,"2010/07/25 08:30:00",5361.77,19.88,TRADE
QLD1,"2010/07/25 09:00:00",5576.89,20.75,TRADE
QLD1,"2010/07/25 09:30:00",5699.9,21.31,TRADE
QLD1,"2010/07/25 10:00:00",5744.86,22.46,TRADE
QLD1,"2010/07/25 10:30:00",5733.96,22.64,TRADE
QLD1,"2010/07/25 11:00:00",5710.56,22.48,TRADE
QLD1,"2010/07/25 11:30:00",5652.91,22.2,TRADE
QLD1,"2010/07/25 12:00:00",5631.21,22.24,TRADE
QLD1,"2010/07/25 12:30:00",5557.48,21.87,TRADE
QLD1,"2010/07/25 13:00:00",5570.91,21.86,TRADE
QLD1,"2010/07/25 13:30:00",5511.57,21.75,TRADE
QLD1,"2010/07/25 14:00:00",5471.11,21.73,TRADE
QLD1,"2010/07/25 14:30:00",5427.61,20.43,TRADE
QLD1,"2010/07/25 15:00:00",5446,19.43,TRADE
QLD1,"2010/07/25 15:30:00",5484.29,20.03,TRADE
QLD1,"2010/07/25 16:00:00",5574.08,21.86,TRADE
QLD1,"2010/07/25 16:30:00",5712.32,22.01,TRADE
QLD1,"2010/07/25 17:00:00",5958.76,22.51,TRADE
QLD1,"2010/07/25 17:30:00",6258.53,27.38,TRADE
QLD1,"2010/07/25 18:00:00",6472.68,40.7,TRADE
QLD1,"2010/07/25 18:30:00",6523.89,76.42,TRADE
QLD1,"2010/07/25 19:00:00",6464.25,63.45,TRADE
QLD1,"2010/07/25 19:30:00",6328.61,24.64,TRADE
QLD1,"2010/07/25 20:00:00",6303.52,22.79,TRADE
QLD1,"2010/07/25 20:30:00",6299.98,23.37,TRADE
QLD1,"2010/07/25 21:00:00",6119.12,19.92,TRADE
QLD1,"2010/07/25 21:30:00",5961.1,20.9,TRADE
QLD1,"2010/07/25 22:00:00",5776.23,18.88,TRADE
QLD1,"2010/07/25 22:30:00",5658.99,20.14,TRADE
QLD1,"2010/07/25 23:00:00",5510.33,22.01,TRADE
QLD1,"2010/07/25 23:30:00",5371.9,20.45,TRADE
QLD1,"2010/07/26 00:00:00",5179.55,19.3,TRADE
QLD1,"2010/07/26 00:30:00",5010.22,19.68,TRADE
QLD1,"2010/07/26 01:00:00",4880.67,19.02,TRADE
QLD1,"2010/07/26 01:30:00",4709.72,17.69,TRADE
QLD1,"2010/07/26 02:00:00",4557.49,16.48,TRADE
QLD1,"2010/07/26 02:30:00",4484.54,18.56,TRADE
QLD1,"2010/07/26 03:00:00",4401.4,17.7,TRADE
QLD1,"2010/07/26 03:30:00",4350.64,11.66,TRADE
QLD1,"2010/07/26 04:00:00",4335.15,13.05,TRADE
QLD1,"2010/07/26 04:30:00",4413.72,16.87,TRADE
QLD1,"2010/07/26 05:00:00",4513.35,18.89,TRADE
QLD1,"2010/07/26 05:30:00",4711.19,12.2,TRADE
QLD1,"2010/07/26 06:00:00",5019.18,15.9,TRADE
QLD1,"2010/07/26 06:30:00",5496.67,18.2,TRADE
QLD1,"2010/07/26 07:00:00",5930.03,20.1,TRADE
QLD1,"2010/07/26 07:30:00",6448.26,28.15,TRADE
QLD1,"2010/07/26 08:00:00",6618.03,37.34,TRADE
QLD1,"2010/07/26 08:30:00",6631.61,38.31,TRADE
QLD1,"2010/07/26 09:00:00",6514,32.46,TRADE
QLD1,"2010/07/26 09:30:00",6497.76,27.57,TRADE
QLD1,"2010/07/26 10:00:00",6398,21.48,TRADE
QLD1,"2010/07/26 10:30:00",6329.5,19.17,TRADE
QLD1,"2010/07/26 11:00:00",6299.79,18.67,TRADE
QLD1,"2010/07/26 11:30:00",6280.39,19.73,TRADE
QLD1,"2010/07/26 12:00:00",6251.62,19.61,TRADE
QLD1,"2010/07/26 12:30:00",6232.09,18.79,TRADE
QLD1,"2010/07/26 13:00:00",6206.79,20.02,TRADE
QLD1,"2010/07/26 13:30:00",6199.05,20.32,TRADE
QLD1,"2010/07/26 14:00:00",6162.35,20.09,TRADE
QLD1,"2010/07/26 14:30:00",6187.88,20.39,TRADE
QLD1,"2010/07/26 15:00:00",6096.32,19.74,TRADE
QLD1,"2010/07/26 15:30:00",6095.99,20.28,TRADE
QLD1,"2010/07/26 16:00:00",6146.17,20.38,TRADE
QLD1,"2010/07/26 16:30:00",6224.09,19.7,TRADE
QLD1,"2010/07/26 17:00:00",6396.23,19.04,TRADE
QLD1,"2010/07/26 17:30:00",6571.93,24.51,TRADE
QLD1,"2010/07/26 18:00:00",6789.63,59.09,TRADE
QLD1,"2010/07/26 18:30:00",6809.78,93.97,TRADE
QLD1,"2010/07/26 19:00:00",6755.59,76.35,TRADE
QLD1,"2010/07/26 19:30:00",6661.07,22.63,TRADE
QLD1,"2010/07/26 20:00:00",6648.27,20.4,TRADE
QLD1,"2010/07/26 20:30:00",6640.45,19.32,TRADE
QLD1,"2010/07/26 21:00:00",6484.73,18.32,TRADE
QLD1,"2010/07/26 21:30:00",6313.29,19.27,TRADE
QLD1,"2010/07/26 22:00:00",6100.3,19.64,TRADE
QLD1,"2010/07/26 22:30:00",5864.99,19.95,TRADE
QLD1,"2010/07/26 23:00:00",5721.67,22.7,TRADE
QLD1,"2010/07/26 23:30:00",5560.21,21.4,TRADE
QLD1,"2010/07/27 00:00:00",5400.55,19.91,TRADE
QLD1,"2010/07/27 00:30:00",5216.62,19.31,TRADE
QLD1,"2010/07/27 01:00:00",5082.29,20.2,TRADE
QLD1,"2010/07/27 01:30:00",4848.65,19.31,TRADE
QLD1,"2010/07/27 02:00:00",4718.93,19.12,TRADE
QLD1,"2010/07/27 02:30:00",4615.58,19.02,TRADE
QLD1,"2010/07/27 03:00:00",4558.38,17.73,TRADE
QLD1,"2010/07/27 03:30:00",4511.46,14.2,TRADE
QLD1,"2010/07/27 04:00:00",4492.21,15.05,TRADE
QLD1,"2010/07/27 04:30:00",4547.46,14.79,TRADE
QLD1,"2010/07/27 05:00:00",4675.79,18.69,TRADE
QLD1,"2010/07/27 05:30:00",4870.26,19.25,TRADE
QLD1,"2010/07/27 06:00:00",5105.63,20.09,TRADE
QLD1,"2010/07/27 06:30:00",5593.18,22.4,TRADE
QLD1,"2010/07/27 07:00:00",6075.22,21.05,TRADE
QLD1,"2010/07/27 07:30:00",6485.96,24.76,TRADE
QLD1,"2010/07/27 08:00:00",6654.46,30.46,TRADE
QLD1,"2010/07/27 08:30:00",6640.27,28.63,TRADE
QLD1,"2010/07/27 09:00:00",6509.06,24.46,TRADE
QLD1,"2010/07/27 09:30:00",6472.08,22.36,TRADE
QLD1,"2010/07/27 10:00:00",6409.57,19.68,TRADE
QLD1,"2010/07/27 10:30:00",6357.95,22.61,TRADE
QLD1,"2010/07/27 11:00:00",6335.08,21.66,TRADE
QLD1,"2010/07/27 11:30:00",6310.11,21.91,TRADE
QLD1,"2010/07/27 12:00:00",6305.24,21.96,TRADE
QLD1,"2010/07/27 12:30:00",6255.46,22.14,TRADE
QLD1,"2010/07/27 13:00:00",6253.48,22.48,TRADE
QLD1,"2010/07/27 13:30:00",6261.53,22.75,TRADE
QLD1,"2010/07/27 14:00:00",6250.11,22.93,TRADE
QLD1,"2010/07/27 14:30:00",6241.43,22.85,TRADE
QLD1,"2010/07/27 15:00:00",6232.8,22.55,TRADE
QLD1,"2010/07/27 15:30:00",6176.48,21.03,TRADE
QLD1,"2010/07/27 16:00:00",6205.95,20.49,TRADE
QLD1,"2010/07/27 16:30:00",6337.72,22.57,TRADE
QLD1,"2010/07/27 17:00:00",6528.44,22.97,TRADE
QLD1,"2010/07/27 17:30:00",6694.56,25.2,TRADE
QLD1,"2010/07/27 18:00:00",6855.32,32.07,TRADE
QLD1,"2010/07/27 18:30:00",6881.3,39.94,TRADE
QLD1,"2010/07/27 19:00:00",6839.24,32.68,TRADE
QLD1,"2010/07/27 19:30:00",6762.53,22.11,TRADE
QLD1,"2010/07/27 20:00:00",6720.34,23.9,TRADE
QLD1,"2010/07/27 20:30:00",6695.34,21.18,TRADE
QLD1,"2010/07/27 21:00:00",6482.99,19.78,TRADE
QLD1,"2010/07/27 21:30:00",6282.57,18.28,TRADE
QLD1,"2010/07/27 22:00:00",6078.97,18.18,TRADE
QLD1,"2010/07/27 22:30:00",5844.09,19.79,TRADE
QLD1,"2010/07/27 23:00:00",5741.35,20.1,TRADE
QLD1,"2010/07/27 23:30:00",5600.3,19.58,TRADE
QLD1,"2010/07/28 00:00:00",5407.13,18.08,TRADE
QLD1,"2010/07/28 00:30:00",5216.82,16.61,TRADE
QLD1,"2010/07/28 01:00:00",5005.58,11.95,TRADE
QLD1,"2010/07/28 01:30:00",4759.46,6.81,TRADE
QLD1,"2010/07/28 02:00:00",4605.32,10.45,TRADE
QLD1,"2010/07/28 02:30:00",4490.39,3.26,TRADE
QLD1,"2010/07/28 03:00:00",4450.03,8.77,TRADE
QLD1,"2010/07/28 03:30:00",4490.92,-156.97,TRADE
QLD1,"2010/07/28 04:00:00",4487.69,11.67,TRADE
QLD1,"2010/07/28 04:30:00",4540.72,8.68,TRADE
QLD1,"2010/07/28 05:00:00",4631.88,13.1,TRADE
QLD1,"2010/07/28 05:30:00",4826.74,15.03,TRADE
QLD1,"2010/07/28 06:00:00",5104.64,19.41,TRADE
QLD1,"2010/07/28 06:30:00",5559.17,20.16,TRADE
QLD1,"2010/07/28 07:00:00",6001.35,18.39,TRADE
QLD1,"2010/07/28 07:30:00",6451.68,22.88,TRADE
QLD1,"2010/07/28 08:00:00",6588.31,25.81,TRADE
QLD1,"2010/07/28 08:30:00",6602.08,28.28,TRADE
QLD1,"2010/07/28 09:00:00",6486.59,26.15,TRADE
QLD1,"2010/07/28 09:30:00",6484.54,24.6,TRADE
QLD1,"2010/07/28 10:00:00",6407.57,23.48,TRADE
QLD1,"2010/07/28 10:30:00",6376.27,24.22,TRADE
QLD1,"2010/07/28 11:00:00",6390.94,23.96,TRADE
QLD1,"2010/07/28 11:30:00",6350.18,23.77,TRADE
QLD1,"2010/07/28 12:00:00",6355.91,23.22,TRADE
QLD1,"2010/07/28 12:30:00",6334.59,21.5,TRADE
QLD1,"2010/07/28 13:00:00",6283.18,18.62,TRADE
QLD1,"2010/07/28 13:30:00",6292.63,20.44,TRADE
QLD1,"2010/07/28 14:00:00",6308.98,20.39,TRADE
QLD1,"2010/07/28 14:30:00",6279.1,20.04,TRADE
QLD1,"2010/07/28 15:00:00",6221.91,20.34,TRADE
QLD1,"2010/07/28 15:30:00",6202.88,19.97,TRADE
QLD1,"2010/07/28 16:00:00",6252.28,23.02,TRADE
QLD1,"2010/07/28 16:30:00",6426.48,24.2,TRADE
QLD1,"2010/07/28 17:00:00",6613.18,26.33,TRADE
QLD1,"2010/07/28 17:30:00",6777.64,25.22,TRADE
QLD1,"2010/07/28 18:00:00",6870.26,24.89,TRADE
QLD1,"2010/07/28 18:30:00",6866.12,24.34,TRADE
QLD1,"2010/07/28 19:00:00",6803.91,23.88,TRADE
QLD1,"2010/07/28 19:30:00",6673.35,23.05,TRADE
QLD1,"2010/07/28 20:00:00",6635.15,20.88,TRADE
QLD1,"2010/07/28 20:30:00",6592.79,20.47,TRADE
QLD1,"2010/07/28 21:00:00",6423.48,20.35,TRADE
QLD1,"2010/07/28 21:30:00",6247.67,19.52,TRADE
QLD1,"2010/07/28 22:00:00",5983.38,18.71,TRADE
QLD1,"2010/07/28 22:30:00",5804.15,20.42,TRADE
QLD1,"2010/07/28 23:00:00",5661.61,19.58,TRADE
QLD1,"2010/07/28 23:30:00",5535.04,19.74,TRADE
QLD1,"2010/07/29 00:00:00",5350.05,16.46,TRADE
QLD1,"2010/07/29 00:30:00",5161.62,12.72,TRADE
QLD1,"2010/07/29 01:00:00",4992.92,9.53,TRADE
QLD1,"2010/07/29 01:30:00",4822.31,9.08,TRADE
QLD1,"2010/07/29 02:00:00",4683.64,10.45,TRADE
QLD1,"2010/07/29 02:30:00",4579.96,9.64,TRADE
QLD1,"2010/07/29 03:00:00",4488.55,9.23,TRADE
QLD1,"2010/07/29 03:30:00",4475.39,8.7,TRADE
QLD1,"2010/07/29 04:00:00",4432.13,5.42,TRADE
QLD1,"2010/07/29 04:30:00",4483.74,8.41,TRADE
QLD1,"2010/07/29 05:00:00",4614.27,13.3,TRADE
QLD1,"2010/07/29 05:30:00",4847.6,13.03,TRADE
QLD1,"2010/07/29 06:00:00",5116.88,15.99,TRADE
QLD1,"2010/07/29 06:30:00",5525.16,20.36,TRADE
QLD1,"2010/07/29 07:00:00",5940.18,19.01,TRADE
QLD1,"2010/07/29 07:30:00",6334.69,21.92,TRADE
QLD1,"2010/07/29 08:00:00",6518.75,22.86,TRADE
QLD1,"2010/07/29 08:30:00",6552.11,22.8,TRADE
QLD1,"2010/07/29 09:00:00",6492.68,22.42,TRADE
QLD1,"2010/07/29 09:30:00",6490.12,20.55,TRADE
QLD1,"2010/07/29 10:00:00",6430.49,20.44,TRADE
QLD1,"2010/07/29 10:30:00",6418.97,20.54,TRADE
QLD1,"2010/07/29 11:00:00",6409.8,21.87,TRADE
QLD1,"2010/07/29 11:30:00",6405.02,22,TRADE
QLD1,"2010/07/29 12:00:00",6376.46,21.17,TRADE
QLD1,"2010/07/29 12:30:00",6341.82,20.44,TRADE
QLD1,"2010/07/29 13:00:00",6387.74,21.23,TRADE
QLD1,"2010/07/29 13:30:00",6402.94,21.72,TRADE
QLD1,"2010/07/29 14:00:00",6392.64,21.5,TRADE
QLD1,"2010/07/29 14:30:00",6387.84,22.06,TRADE
QLD1,"2010/07/29 15:00:00",6301.48,20.6,TRADE
QLD1,"2010/07/29 15:30:00",6239.12,19.84,TRADE
QLD1,"2010/07/29 16:00:00",6261.87,20.85,TRADE
QLD1,"2010/07/29 16:30:00",6320.58,21.33,TRADE
QLD1,"2010/07/29 17:00:00",6422.2,22.3,TRADE
QLD1,"2010/07/29 17:30:00",6490.52,23.26,TRADE
QLD1,"2010/07/29 18:00:00",6745.63,26.62,TRADE
QLD1,"2010/07/29 18:30:00",6746.45,27.22,TRADE
QLD1,"2010/07/29 19:00:00",6746.49,27.03,TRADE
QLD1,"2010/07/29 19:30:00",6587.48,23.33,TRADE
QLD1,"2010/07/29 20:00:00",6534.86,21.19,TRADE
QLD1,"2010/07/29 20:30:00",6523.18,22.08,TRADE
QLD1,"2010/07/29 21:00:00",6339.95,19.45,TRADE
QLD1,"2010/07/29 21:30:00",6122.03,19.98,TRADE
QLD1,"2010/07/29 22:00:00",5878.23,19.37,TRADE
QLD1,"2010/07/29 22:30:00",5700.18,19.87,TRADE
QLD1,"2010/07/29 23:00:00",5664.79,21.28,TRADE
QLD1,"2010/07/29 23:30:00",5517.27,19.4,TRADE
QLD1,"2010/07/30 00:00:00",5307.37,16.44,TRADE
QLD1,"2010/07/30 00:30:00",5097.64,14.05,TRADE
QLD1,"2010/07/30 01:00:00",4975.44,12.98,TRADE
QLD1,"2010/07/30 01:30:00",4765.42,13.11,TRADE
QLD1,"2010/07/30 02:00:00",4649.44,12.92,TRADE
QLD1,"2010/07/30 02:30:00",4544.73,6.81,TRADE
QLD1,"2010/07/30 03:00:00",4493.94,9.95,TRADE
QLD1,"2010/07/30 03:30:00",4461.83,9.55,TRADE
QLD1,"2010/07/30 04:00:00",4478.1,-157.69,TRADE
QLD1,"2010/07/30 04:30:00",4564.27,-155.41,TRADE
QLD1,"2010/07/30 05:00:00",4623.12,11.88,TRADE
QLD1,"2010/07/30 05:30:00",4877.54,16.09,TRADE
QLD1,"2010/07/30 06:00:00",5113.31,18.69,TRADE
QLD1,"2010/07/30 06:30:00",5533.06,20.68,TRADE
QLD1,"2010/07/30 07:00:00",5924.61,16.92,TRADE
QLD1,"2010/07/30 07:30:00",6366.37,21.83,TRADE
QLD1,"2010/07/30 08:00:00",6516.18,23.6,TRADE
QLD1,"2010/07/30 08:30:00",6553.92,24.87,TRADE
QLD1,"2010/07/30 09:00:00",6520.08,24.22,TRADE
QLD1,"2010/07/30 09:30:00",6500.47,23.76,TRADE
QLD1,"2010/07/30 10:00:00",6498.63,24.33,TRADE
QLD1,"2010/07/30 10:30:00",6431.98,22.91,TRADE
QLD1,"2010/07/30 11:00:00",6400.58,22.41,TRADE
QLD1,"2010/07/30 11:30:00",6414.79,21.56,TRADE
QLD1,"2010/07/30 12:00:00",6405.63,22.13,TRADE
QLD1,"2010/07/30 12:30:00",6363.87,20.25,TRADE
QLD1,"2010/07/30 13:00:00",6355.34,20.75,TRADE
QLD1,"2010/07/30 13:30:00",6373.09,22.04,TRADE
QLD1,"2010/07/30 14:00:00",6380.29,22.76,TRADE
QLD1,"2010/07/30 14:30:00",6338.58,22.41,TRADE
QLD1,"2010/07/30 15:00:00",6328.54,22.43,TRADE
QLD1,"2010/07/30 15:30:00",6306.65,22.54,TRADE
QLD1,"2010/07/30 16:00:00",6266.86,22.6,TRADE
QLD1,"2010/07/30 16:30:00",6322.15,22.51,TRADE
QLD1,"2010/07/30 17:00:00",6323.08,22.01,TRADE
QLD1,"2010/07/30 17:30:00",6354.86,22.83,TRADE
QLD1,"2010/07/30 18:00:00",6408.44,24.58,TRADE
QLD1,"2010/07/30 18:30:00",6414.11,23,TRADE
QLD1,"2010/07/30 19:00:00",6407.6,23.55,TRADE
QLD1,"2010/07/30 19:30:00",6312.84,21.07,TRADE
QLD1,"2010/07/30 20:00:00",6205.03,21.13,TRADE
QLD1,"2010/07/30 20:30:00",6173.72,20.09,TRADE
QLD1,"2010/07/30 21:00:00",6057.96,20.23,TRADE
QLD1,"2010/07/30 21:30:00",5896.54,19.21,TRADE
QLD1,"2010/07/30 22:00:00",5750.63,19.66,TRADE
QLD1,"2010/07/30 22:30:00",5614.87,20.39,TRADE
QLD1,"2010/07/30 23:00:00",5503.73,19.45,TRADE
QLD1,"2010/07/30 23:30:00",5493.32,20.58,TRADE
QLD1,"2010/07/31 00:00:00",5275.62,19.57,TRADE
QLD1,"2010/07/31 00:30:00",5129.83,17.69,TRADE
QLD1,"2010/07/31 01:00:00",4961.73,12.97,TRADE
QLD1,"2010/07/31 01:30:00",4762.25,12.3,TRADE
QLD1,"2010/07/31 02:00:00",4665.02,-155.46,TRADE
QLD1,"2010/07/31 02:30:00",4543.65,15.3,TRADE
QLD1,"2010/07/31 03:00:00",4454.74,14.49,TRADE
QLD1,"2010/07/31 03:30:00",4398.01,14.01,TRADE
QLD1,"2010/07/31 04:00:00",4361.6,13.41,TRADE
QLD1,"2010/07/31 04:30:00",4384.23,10.48,TRADE
QLD1,"2010/07/31 05:00:00",4438.6,9.97,TRADE
QLD1,"2010/07/31 05:30:00",4517.25,10.77,TRADE
QLD1,"2010/07/31 06:00:00",4606.7,12.91,TRADE
QLD1,"2010/07/31 06:30:00",4729.79,14.5,TRADE
QLD1,"2010/07/31 07:00:00",4884.6,15.8,TRADE
QLD1,"2010/07/31 07:30:00",5192.67,17.36,TRADE
QLD1,"2010/07/31 08:00:00",5423.7,19.08,TRADE
QLD1,"2010/07/31 08:30:00",5650.13,20.28,TRADE
QLD1,"2010/07/31 09:00:00",5842.93,20.96,TRADE
QLD1,"2010/07/31 09:30:00",5921.4,20.76,TRADE
QLD1,"2010/07/31 10:00:00",5900.29,21.25,TRADE
QLD1,"2010/07/31 10:30:00",5936.59,22.25,TRADE
QLD1,"2010/07/31 11:00:00",5907.32,22.36,TRADE
QLD1,"2010/07/31 11:30:00",5868.58,21.52,TRADE
QLD1,"2010/07/31 12:00:00",5824.47,21.06,TRADE
QLD1,"2010/07/31 12:30:00",5773.65,20.44,TRADE
QLD1,"2010/07/31 13:00:00",5794.85,20.56,TRADE
QLD1,"2010/07/31 13:30:00",5780.06,20.62,TRADE
QLD1,"2010/07/31 14:00:00",5704.49,19.81,TRADE
QLD1,"2010/07/31 14:30:00",5668.88,20.21,TRADE
QLD1,"2010/07/31 15:00:00",5663.67,20.35,TRADE
QLD1,"2010/07/31 15:30:00",5682.23,20.09,TRADE
QLD1,"2010/07/31 16:00:00",5687.65,19.26,TRADE
QLD1,"2010/07/31 16:30:00",5703.52,19.52,TRADE
QLD1,"2010/07/31 17:00:00",5842.83,19.26,TRADE
QLD1,"2010/07/31 17:30:00",5870.44,20.75,TRADE
QLD1,"2010/07/31 18:00:00",5979.11,23.56,TRADE
QLD1,"2010/07/31 18:30:00",6013.08,23.47,TRADE
QLD1,"2010/07/31 19:00:00",5978.1,23.63,TRADE
QLD1,"2010/07/31 19:30:00",5875.9,21.93,TRADE
QLD1,"2010/07/31 20:00:00",5892.91,21.21,TRADE
QLD1,"2010/07/31 20:30:00",5865.94,20.41,TRADE
QLD1,"2010/07/31 21:00:00",5769.17,19.8,TRADE
QLD1,"2010/07/31 21:30:00",5688.88,19.19,TRADE
QLD1,"2010/07/31 22:00:00",5579.1,18.62,TRADE
QLD1,"2010/07/31 22:30:00",5425.27,20.18,TRADE
QLD1,"2010/07/31 23:00:00",5391.37,20.32,TRADE
QLD1,"2010/07/31 23:30:00",5326.94,20.2,TRADE
QLD1,"2010/08/01 00:00:00",5183.69,20.32,TRADE
