REGION,SETTLEMENTDATE,TOTALDEMAND,RRP,PERIODTYPE
SNOWY1,"2003/06/01 00:30",16.99167,16.62,TRADE
SNOWY1,"2003/06/01 01:00",20.47833,15.52,TRADE
SNOWY1,"2003/06/01 01:30",16.21,16.39,TRADE
SNOWY1,"2003/06/01 02:00",18.11167,15.56,TRADE
SNOWY1,"2003/06/01 02:30",14.32833,13.75,TRADE
SNOWY1,"2003/06/01 03:00",14.46667,11.88,TRADE
SNOWY1,"2003/06/01 03:30",17.50833,11.04,TRADE
SNOWY1,"2003/06/01 04:00",33.20667,9.04,TRADE
SNOWY1,"2003/06/01 04:30",46.46167,8.55,TRADE
SNOWY1,"2003/06/01 05:00",46.94,8.43,TRADE
SNOWY1,"2003/06/01 05:30",49.13833,8.46,TRADE
SNOWY1,"2003/06/01 06:00",73.37333,8.49,TRADE
SNOWY1,"2003/06/01 06:30",77.23333,7.92,TRADE
SNOWY1,"2003/06/01 07:00",82.20167,10.3,TRADE
SNOWY1,"2003/06/01 07:30",75.79167,9.69,TRADE
SNOWY1,"2003/06/01 08:00",79.12,11.24,TRADE
SNOWY1,"2003/06/01 08:30",34.27833,12.39,TRADE
SNOWY1,"2003/06/01 09:00",11.435,13.78,TRADE
SNOWY1,"2003/06/01 09:30",18.88167,14.02,TRADE
SNOWY1,"2003/06/01 10:00",13.64167,14.13,TRADE
SNOWY1,"2003/06/01 10:30",17.16833,14.26,TRADE
SNOWY1,"2003/06/01 11:00",13.09667,14.25,TRADE
SNOWY1,"2003/06/01 11:30",16.33167,14.07,TRADE
SNOWY1,"2003/06/01 12:00",14.76,14.18,TRADE
SNOWY1,"2003/06/01 12:30",9.33,13.77,TRADE
SNOWY1,"2003/06/01 13:00",7.3,13.49,TRADE
SNOWY1,"2003/06/01 13:30",11.70667,13.41,TRADE
SNOWY1,"2003/06/01 14:00",15.725,12.68,TRADE
SNOWY1,"2003/06/01 14:30",11.72167,11.91,TRADE
SNOWY1,"2003/06/01 15:00",17.5,11.91,TRADE
SNOWY1,"2003/06/01 15:30",12.78,12.25,TRADE
SNOWY1,"2003/06/01 16:00",10.925,13.26,TRADE
SNOWY1,"2003/06/01 16:30",7.60833,14.49,TRADE
SNOWY1,"2003/06/01 17:00",14.23667,15.91,TRADE
SNOWY1,"2003/06/01 17:30",38.65333,24.33,TRADE
SNOWY1,"2003/06/01 18:00",32.525,31.33,TRADE
SNOWY1,"2003/06/01 18:30",33.475,33.15,TRADE
SNOWY1,"2003/06/01 19:00",20.89667,26.82,TRADE
SNOWY1,"2003/06/01 19:30",5.98833,22,TRADE
SNOWY1,"2003/06/01 20:00",14.81667,20.62,TRADE
SNOWY1,"2003/06/01 20:30",8.64667,17.83,TRADE
SNOWY1,"2003/06/01 21:00",25.085,16.32,TRADE
SNOWY1,"2003/06/01 21:30",21.18,15.04,TRADE
SNOWY1,"2003/06/01 22:00",16.74,13.92,TRADE
SNOWY1,"2003/06/01 22:30",12.835,14.58,TRADE
SNOWY1,"2003/06/01 23:00",8.62667,14.49,TRADE
SNOWY1,"2003/06/01 23:30",13.76833,16.33,TRADE
SNOWY1,"2003/06/02 00:00",9.995,14.74,TRADE
SNOWY1,"2003/06/02 00:30",13.88333,14.59,TRADE
SNOWY1,"2003/06/02 01:00",8.22833,14.54,TRADE
SNOWY1,"2003/06/02 01:30",14.04,15.34,TRADE
SNOWY1,"2003/06/02 02:00",10.95,14.38,TRADE
SNOWY1,"2003/06/02 02:30",19.71167,12.19,TRADE
SNOWY1,"2003/06/02 03:00",8.01167,11.69,TRADE
SNOWY1,"2003/06/02 03:30",17.88667,11.32,TRADE
SNOWY1,"2003/06/02 04:00",10.03333,10.01,TRADE
SNOWY1,"2003/06/02 04:30",7.68833,10.29,TRADE
SNOWY1,"2003/06/02 05:00",19.74,10.86,TRADE
SNOWY1,"2003/06/02 05:30",12.82833,12.69,TRADE
SNOWY1,"2003/06/02 06:00",8.84333,13.31,TRADE
SNOWY1,"2003/06/02 06:30",11.78667,14.19,TRADE
SNOWY1,"2003/06/02 07:00",35.365,16.98,TRADE
SNOWY1,"2003/06/02 07:30",13.3,18.41,TRADE
SNOWY1,"2003/06/02 08:00",24.92167,19.96,TRADE
SNOWY1,"2003/06/02 08:30",21.8,19.27,TRADE
SNOWY1,"2003/06/02 09:00",16.57833,17.96,TRADE
SNOWY1,"2003/06/02 09:30",23.55167,17.61,TRADE
SNOWY1,"2003/06/02 10:00",28.62167,17.3,TRADE
SNOWY1,"2003/06/02 10:30",18.83333,15.1,TRADE
SNOWY1,"2003/06/02 11:00",33.525,14.96,TRADE
SNOWY1,"2003/06/02 11:30",29.34333,14.95,TRADE
SNOWY1,"2003/06/02 12:00",20.77667,14.97,TRADE
SNOWY1,"2003/06/02 12:30",22.72,14.88,TRADE
SNOWY1,"2003/06/02 13:00",24.38833,14.8,TRADE
SNOWY1,"2003/06/02 13:30",25.675,14.92,TRADE
SNOWY1,"2003/06/02 14:00",19.56,14.79,TRADE
SNOWY1,"2003/06/02 14:30",26.215,14.61,TRADE
SNOWY1,"2003/06/02 15:00",28.18,14.06,TRADE
SNOWY1,"2003/06/02 15:30",16.17333,12.34,TRADE
SNOWY1,"2003/06/02 16:00",18.33,14.71,TRADE
SNOWY1,"2003/06/02 16:30",14.17167,14.98,TRADE
SNOWY1,"2003/06/02 17:00",14.02167,17.99,TRADE
SNOWY1,"2003/06/02 17:30",22.12667,27.39,TRADE
SNOWY1,"2003/06/02 18:00",56.03167,43.96,TRADE
SNOWY1,"2003/06/02 18:30",36.75667,36.75,TRADE
SNOWY1,"2003/06/02 19:00",13.99833,29.58,TRADE
SNOWY1,"2003/06/02 19:30",9.07667,22.92,TRADE
SNOWY1,"2003/06/02 20:00",15.89833,21.13,TRADE
SNOWY1,"2003/06/02 20:30",21.38667,22.19,TRADE
SNOWY1,"2003/06/02 21:00",12.39167,22,TRADE
SNOWY1,"2003/06/02 21:30",5.74833,21.44,TRADE
SNOWY1,"2003/06/02 22:00",25.19167,17.5,TRADE
SNOWY1,"2003/06/02 22:30",13.5,17.57,TRADE
SNOWY1,"2003/06/02 23:00",17.735,17.04,TRADE
SNOWY1,"2003/06/02 23:30",12.94,21.54,TRADE
SNOWY1,"2003/06/03 00:00",12.705,20,TRADE
SNOWY1,"2003/06/03 00:30",12.92333,17.69,TRADE
SNOWY1,"2003/06/03 01:00",9.165,17.07,TRADE
SNOWY1,"2003/06/03 01:30",15.90333,18.64,TRADE
SNOWY1,"2003/06/03 02:00",15.19,16.04,TRADE
SNOWY1,"2003/06/03 02:30",15.26333,14.52,TRADE
SNOWY1,"2003/06/03 03:00",12.91333,14.35,TRADE
SNOWY1,"2003/06/03 03:30",16.6,13,TRADE
SNOWY1,"2003/06/03 04:00",5.455,11.94,TRADE
SNOWY1,"2003/06/03 04:30",11.36167,11.36,TRADE
SNOWY1,"2003/06/03 05:00",12.92667,11.15,TRADE
SNOWY1,"2003/06/03 05:30",16.94667,13.08,TRADE
SNOWY1,"2003/06/03 06:00",10.885,12.2,TRADE
SNOWY1,"2003/06/03 06:30",6.21833,15.62,TRADE
SNOWY1,"2003/06/03 07:00",10.92167,18.71,TRADE
SNOWY1,"2003/06/03 07:30",24.125,20.29,TRADE
SNOWY1,"2003/06/03 08:00",38.055,22,TRADE
SNOWY1,"2003/06/03 08:30",25.28667,20.56,TRADE
SNOWY1,"2003/06/03 09:00",22.54833,19.34,TRADE
SNOWY1,"2003/06/03 09:30",14.465,18.96,TRADE
SNOWY1,"2003/06/03 10:00",13.57333,17.56,TRADE
SNOWY1,"2003/06/03 10:30",14.53167,16.54,TRADE
SNOWY1,"2003/06/03 11:00",18.535,16.12,TRADE
SNOWY1,"2003/06/03 11:30",14.71667,15.37,TRADE
SNOWY1,"2003/06/03 12:00",21.78167,15.31,TRADE
SNOWY1,"2003/06/03 12:30",13.29,14.99,TRADE
SNOWY1,"2003/06/03 13:00",22.46833,15.02,TRADE
SNOWY1,"2003/06/03 13:30",19.11667,15.09,TRADE
SNOWY1,"2003/06/03 14:00",22.25667,15.05,TRADE
SNOWY1,"2003/06/03 14:30",24.28167,15.52,TRADE
SNOWY1,"2003/06/03 15:00",16.27333,14.28,TRADE
SNOWY1,"2003/06/03 15:30",15.28833,14.26,TRADE
SNOWY1,"2003/06/03 16:00",20.82,14.56,TRADE
SNOWY1,"2003/06/03 16:30",17.36167,14.91,TRADE
SNOWY1,"2003/06/03 17:00",17.50833,17.43,TRADE
SNOWY1,"2003/06/03 17:30",22.56167,25.66,TRADE
SNOWY1,"2003/06/03 18:00",22.835,31.78,TRADE
SNOWY1,"2003/06/03 18:30",22.65167,28.14,TRADE
SNOWY1,"2003/06/03 19:00",17.85167,26.31,TRADE
SNOWY1,"2003/06/03 19:30",14.19167,21.38,TRADE
SNOWY1,"2003/06/03 20:00",11.745,18.29,TRADE
SNOWY1,"2003/06/03 20:30",19.24,20.28,TRADE
SNOWY1,"2003/06/03 21:00",19.975,18.74,TRADE
SNOWY1,"2003/06/03 21:30",6.51167,17.41,TRADE
SNOWY1,"2003/06/03 22:00",16.03167,16.32,TRADE
SNOWY1,"2003/06/03 22:30",14.115,18.07,TRADE
SNOWY1,"2003/06/03 23:00",16.41,17.21,TRADE
SNOWY1,"2003/06/03 23:30",30.88,21.32,TRADE
SNOWY1,"2003/06/04 00:00",15.09,19.79,TRADE
SNOWY1,"2003/06/04 00:30",11.57333,18.03,TRADE
SNOWY1,"2003/06/04 01:00",11.70667,16.81,TRADE
SNOWY1,"2003/06/04 01:30",12.99333,18.01,TRADE
SNOWY1,"2003/06/04 02:00",13.25667,16.47,TRADE
SNOWY1,"2003/06/04 02:30",17.44167,14.51,TRADE
SNOWY1,"2003/06/04 03:00",14.62,13.62,TRADE
SNOWY1,"2003/06/04 03:30",11.35333,12.6,TRADE
SNOWY1,"2003/06/04 04:00",7.67167,10.73,TRADE
SNOWY1,"2003/06/04 04:30",38.18,10.49,TRADE
SNOWY1,"2003/06/04 05:00",44.16833,10.97,TRADE
SNOWY1,"2003/06/04 05:30",25.21333,12.66,TRADE
SNOWY1,"2003/06/04 06:00",5.76167,13.06,TRADE
SNOWY1,"2003/06/04 06:30",12.875,15.94,TRADE
SNOWY1,"2003/06/04 07:00",12.45,17.01,TRADE
SNOWY1,"2003/06/04 07:30",15.88,19.26,TRADE
SNOWY1,"2003/06/04 08:00",27.66,20.39,TRADE
SNOWY1,"2003/06/04 08:30",19.47833,19.41,TRADE
SNOWY1,"2003/06/04 09:00",18.92,17.5,TRADE
SNOWY1,"2003/06/04 09:30",26.87,15.24,TRADE
SNOWY1,"2003/06/04 10:00",26.085,14.89,TRADE
SNOWY1,"2003/06/04 10:30",14.85667,14.57,TRADE
SNOWY1,"2003/06/04 11:00",20.14167,14.87,TRADE
SNOWY1,"2003/06/04 11:30",27.25833,14.66,TRADE
SNOWY1,"2003/06/04 12:00",24.79333,14.4,TRADE
SNOWY1,"2003/06/04 12:30",17.045,14.1,TRADE
SNOWY1,"2003/06/04 13:00",15.97833,13.73,TRADE
SNOWY1,"2003/06/04 13:30",17.47667,14.09,TRADE
SNOWY1,"2003/06/04 14:00",12.52167,14.11,TRADE
SNOWY1,"2003/06/04 14:30",17.255,14.75,TRADE
SNOWY1,"2003/06/04 15:00",28.55,13.88,TRADE
SNOWY1,"2003/06/04 15:30",20.86667,13.49,TRADE
SNOWY1,"2003/06/04 16:00",18.96,13.59,TRADE
SNOWY1,"2003/06/04 16:30",14.21167,13.62,TRADE
SNOWY1,"2003/06/04 17:00",14.44833,15.62,TRADE
SNOWY1,"2003/06/04 17:30",21.87167,21.74,TRADE
SNOWY1,"2003/06/04 18:00",22.41667,27.2,TRADE
SNOWY1,"2003/06/04 18:30",23.48667,26.48,TRADE
SNOWY1,"2003/06/04 19:00",12.275,24.24,TRADE
SNOWY1,"2003/06/04 19:30",17.49667,19.66,TRADE
SNOWY1,"2003/06/04 20:00",21.80667,17.46,TRADE
SNOWY1,"2003/06/04 20:30",23.57667,20.7,TRADE
SNOWY1,"2003/06/04 21:00",26.96167,21.01,TRADE
SNOWY1,"2003/06/04 21:30",26.57167,20.69,TRADE
SNOWY1,"2003/06/04 22:00",17.41333,20.19,TRADE
SNOWY1,"2003/06/04 22:30",25.02833,21.86,TRADE
SNOWY1,"2003/06/04 23:00",17.31333,20.47,TRADE
SNOWY1,"2003/06/04 23:30",28.96,24.36,TRADE
SNOWY1,"2003/06/05 00:00",19.10833,22.94,TRADE
SNOWY1,"2003/06/05 00:30",11.38833,20.47,TRADE
SNOWY1,"2003/06/05 01:00",22.35,18.24,TRADE
SNOWY1,"2003/06/05 01:30",19.295,19.77,TRADE
SNOWY1,"2003/06/05 02:00",19.555,17.33,TRADE
SNOWY1,"2003/06/05 02:30",18.27167,15.72,TRADE
SNOWY1,"2003/06/05 03:00",15.47167,13.69,TRADE
SNOWY1,"2003/06/05 03:30",13.6,12.69,TRADE
SNOWY1,"2003/06/05 04:00",8.27333,11.28,TRADE
SNOWY1,"2003/06/05 04:30",10.39667,10.36,TRADE
SNOWY1,"2003/06/05 05:00",17.59667,11.94,TRADE
SNOWY1,"2003/06/05 05:30",29.1,14.11,TRADE
SNOWY1,"2003/06/05 06:00",14.19667,15.38,TRADE
SNOWY1,"2003/06/05 06:30",13.14833,17.48,TRADE
SNOWY1,"2003/06/05 07:00",19.43333,19.17,TRADE
SNOWY1,"2003/06/05 07:30",19.855,19.42,TRADE
SNOWY1,"2003/06/05 08:00",23.12333,21.18,TRADE
SNOWY1,"2003/06/05 08:30",27.255,19.44,TRADE
SNOWY1,"2003/06/05 09:00",22.12,18.09,TRADE
SNOWY1,"2003/06/05 09:30",19.65667,18.91,TRADE
SNOWY1,"2003/06/05 10:00",23.75,17.74,TRADE
SNOWY1,"2003/06/05 10:30",16.755,17.24,TRADE
SNOWY1,"2003/06/05 11:00",28.59667,16.72,TRADE
SNOWY1,"2003/06/05 11:30",23.085,16.66,TRADE
SNOWY1,"2003/06/05 12:00",19.28,16.09,TRADE
SNOWY1,"2003/06/05 12:30",21.47833,16.07,TRADE
SNOWY1,"2003/06/05 13:00",27.43333,16.3,TRADE
SNOWY1,"2003/06/05 13:30",21.44833,17.41,TRADE
SNOWY1,"2003/06/05 14:00",20.22833,18.01,TRADE
SNOWY1,"2003/06/05 14:30",26.08833,20.31,TRADE
SNOWY1,"2003/06/05 15:00",24.96167,19.87,TRADE
SNOWY1,"2003/06/05 15:30",17.79667,18.69,TRADE
SNOWY1,"2003/06/05 16:00",24.91,17.89,TRADE
SNOWY1,"2003/06/05 16:30",21.53833,17.6,TRADE
SNOWY1,"2003/06/05 17:00",19.13167,18.99,TRADE
SNOWY1,"2003/06/05 17:30",28.15167,26.55,TRADE
SNOWY1,"2003/06/05 18:00",47.515,38.74,TRADE
SNOWY1,"2003/06/05 18:30",17.58333,34.56,TRADE
SNOWY1,"2003/06/05 19:00",12.57833,31.32,TRADE
SNOWY1,"2003/06/05 19:30",23.315,25.96,TRADE
SNOWY1,"2003/06/05 20:00",22.51833,22.54,TRADE
SNOWY1,"2003/06/05 20:30",30.53667,26.5,TRADE
SNOWY1,"2003/06/05 21:00",17.24167,24.74,TRADE
SNOWY1,"2003/06/05 21:30",24.29667,23.46,TRADE
SNOWY1,"2003/06/05 22:00",12.31667,21.38,TRADE
SNOWY1,"2003/06/05 22:30",15.99667,23.12,TRADE
SNOWY1,"2003/06/05 23:00",11.36333,21.77,TRADE
SNOWY1,"2003/06/05 23:30",20.185,24.6,TRADE
SNOWY1,"2003/06/06 00:00",18.81,23.51,TRADE
SNOWY1,"2003/06/06 00:30",14.475,22,TRADE
SNOWY1,"2003/06/06 01:00",14.02333,20.49,TRADE
SNOWY1,"2003/06/06 01:30",16.04167,20.67,TRADE
SNOWY1,"2003/06/06 02:00",18.765,18.15,TRADE
SNOWY1,"2003/06/06 02:30",14.245,17.56,TRADE
SNOWY1,"2003/06/06 03:00",17.155,16.56,TRADE
SNOWY1,"2003/06/06 03:30",10.88167,16.73,TRADE
SNOWY1,"2003/06/06 04:00",21.83833,14.7,TRADE
SNOWY1,"2003/06/06 04:30",7.22,13.06,TRADE
SNOWY1,"2003/06/06 05:00",13.995,13.81,TRADE
SNOWY1,"2003/06/06 05:30",15.48667,14.47,TRADE
SNOWY1,"2003/06/06 06:00",19.97,14.77,TRADE
SNOWY1,"2003/06/06 06:30",13.03833,18.73,TRADE
SNOWY1,"2003/06/06 07:00",20.09,21.26,TRADE
SNOWY1,"2003/06/06 07:30",23.90167,22.21,TRADE
SNOWY1,"2003/06/06 08:00",20.27833,24.1,TRADE
SNOWY1,"2003/06/06 08:30",22.69667,22.15,TRADE
SNOWY1,"2003/06/06 09:00",21.24833,21.93,TRADE
SNOWY1,"2003/06/06 09:30",19.26333,21.89,TRADE
SNOWY1,"2003/06/06 10:00",21.14167,21.05,TRADE
SNOWY1,"2003/06/06 10:30",22.53667,19.63,TRADE
SNOWY1,"2003/06/06 11:00",12.005,18.76,TRADE
SNOWY1,"2003/06/06 11:30",17.79333,19.41,TRADE
SNOWY1,"2003/06/06 12:00",17.89333,17.74,TRADE
SNOWY1,"2003/06/06 12:30",28.04667,17.52,TRADE
SNOWY1,"2003/06/06 13:00",22.36167,17.04,TRADE
SNOWY1,"2003/06/06 13:30",15.89167,17.72,TRADE
SNOWY1,"2003/06/06 14:00",13.99833,15.48,TRADE
SNOWY1,"2003/06/06 14:30",18.325,16.07,TRADE
SNOWY1,"2003/06/06 15:00",15.4,15.26,TRADE
SNOWY1,"2003/06/06 15:30",22.68167,14.54,TRADE
SNOWY1,"2003/06/06 16:00",16.06167,14.9,TRADE
SNOWY1,"2003/06/06 16:30",24.06667,15.8,TRADE
SNOWY1,"2003/06/06 17:00",15.09667,19.99,TRADE
SNOWY1,"2003/06/06 17:30",34.83833,25.22,TRADE
SNOWY1,"2003/06/06 18:00",23.98167,30.59,TRADE
SNOWY1,"2003/06/06 18:30",11.06333,28.65,TRADE
SNOWY1,"2003/06/06 19:00",12.03167,27.5,TRADE
SNOWY1,"2003/06/06 19:30",12.34667,24.77,TRADE
SNOWY1,"2003/06/06 20:00",18.715,22.39,TRADE
SNOWY1,"2003/06/06 20:30",14.985,26.14,TRADE
SNOWY1,"2003/06/06 21:00",21.43,24.33,TRADE
SNOWY1,"2003/06/06 21:30",14.69333,23.92,TRADE
SNOWY1,"2003/06/06 22:00",7.71833,22.58,TRADE
SNOWY1,"2003/06/06 22:30",14.93833,25.94,TRADE
SNOWY1,"2003/06/06 23:00",11.58667,25.66,TRADE
SNOWY1,"2003/06/06 23:30",21.32,27.74,TRADE
SNOWY1,"2003/06/07 00:00",19.30667,27.06,TRADE
SNOWY1,"2003/06/07 00:30",20.485,25.81,TRADE
SNOWY1,"2003/06/07 01:00",12.96667,22.99,TRADE
SNOWY1,"2003/06/07 01:30",13.07,24.53,TRADE
SNOWY1,"2003/06/07 02:00",17.44167,21.98,TRADE
SNOWY1,"2003/06/07 02:30",19.89833,19.84,TRADE
SNOWY1,"2003/06/07 03:00",18.46833,17.59,TRADE
SNOWY1,"2003/06/07 03:30",20.15833,17.04,TRADE
SNOWY1,"2003/06/07 04:00",16.42333,16.85,TRADE
SNOWY1,"2003/06/07 04:30",13.38167,15.85,TRADE
SNOWY1,"2003/06/07 05:00",15.07667,15.46,TRADE
SNOWY1,"2003/06/07 05:30",13.91833,15.21,TRADE
SNOWY1,"2003/06/07 06:00",9.89167,15.88,TRADE
SNOWY1,"2003/06/07 06:30",14.12667,16.53,TRADE
SNOWY1,"2003/06/07 07:00",14.68667,16.82,TRADE
SNOWY1,"2003/06/07 07:30",11.65167,16.74,TRADE
SNOWY1,"2003/06/07 08:00",13.04167,19.18,TRADE
SNOWY1,"2003/06/07 08:30",16.13,21.75,TRADE
SNOWY1,"2003/06/07 09:00",17.91667,23.22,TRADE
SNOWY1,"2003/06/07 09:30",22.65167,25.61,TRADE
SNOWY1,"2003/06/07 10:00",23.60167,24.7,TRADE
SNOWY1,"2003/06/07 10:30",19.02167,24.26,TRADE
SNOWY1,"2003/06/07 11:00",20.25667,23.63,TRADE
SNOWY1,"2003/06/07 11:30",11.93333,22.29,TRADE
SNOWY1,"2003/06/07 12:00",15.98333,22.15,TRADE
SNOWY1,"2003/06/07 12:30",19.185,22.04,TRADE
SNOWY1,"2003/06/07 13:00",13.70833,22.01,TRADE
SNOWY1,"2003/06/07 13:30",7.995,21.94,TRADE
SNOWY1,"2003/06/07 14:00",19.50833,20.52,TRADE
SNOWY1,"2003/06/07 14:30",20.22167,18.71,TRADE
SNOWY1,"2003/06/07 15:00",13.17167,17.31,TRADE
SNOWY1,"2003/06/07 15:30",20.975,18.45,TRADE
SNOWY1,"2003/06/07 16:00",19.13167,19.55,TRADE
SNOWY1,"2003/06/07 16:30",15.48333,20,TRADE
SNOWY1,"2003/06/07 17:00",15.39833,23.13,TRADE
SNOWY1,"2003/06/07 17:30",34.64833,34.62,TRADE
SNOWY1,"2003/06/07 18:00",38.92167,71.11,TRADE
SNOWY1,"2003/06/07 18:30",23.63667,68.8,TRADE
SNOWY1,"2003/06/07 19:00",23.02,42.94,TRADE
SNOWY1,"2003/06/07 19:30",17.66667,37.66,TRADE
SNOWY1,"2003/06/07 20:00",17.375,29.44,TRADE
SNOWY1,"2003/06/07 20:30",23.49,30.33,TRADE
SNOWY1,"2003/06/07 21:00",25.59833,26.93,TRADE
SNOWY1,"2003/06/07 21:30",16.65333,26.42,TRADE
SNOWY1,"2003/06/07 22:00",22.36,24.3,TRADE
SNOWY1,"2003/06/07 22:30",22.36833,25.4,TRADE
SNOWY1,"2003/06/07 23:00",19.19333,24.31,TRADE
SNOWY1,"2003/06/07 23:30",24.63167,26.69,TRADE
SNOWY1,"2003/06/08 00:00",21.67667,24.7,TRADE
SNOWY1,"2003/06/08 00:30",22.585,22.46,TRADE
SNOWY1,"2003/06/08 01:00",16.395,21.82,TRADE
SNOWY1,"2003/06/08 01:30",28.16167,21.5,TRADE
SNOWY1,"2003/06/08 02:00",8.30167,18.97,TRADE
SNOWY1,"2003/06/08 02:30",17.425,17.22,TRADE
SNOWY1,"2003/06/08 03:00",3.905,16.16,TRADE
SNOWY1,"2003/06/08 03:30",10.37667,15.4,TRADE
SNOWY1,"2003/06/08 04:00",7.37333,13.95,TRADE
SNOWY1,"2003/06/08 04:30",11.82667,13.28,TRADE
SNOWY1,"2003/06/08 05:00",13.63,13.51,TRADE
SNOWY1,"2003/06/08 05:30",14.40333,14.14,TRADE
SNOWY1,"2003/06/08 06:00",14.115,14.96,TRADE
SNOWY1,"2003/06/08 06:30",11.84167,14.1,TRADE
SNOWY1,"2003/06/08 07:00",9.305,14.26,TRADE
SNOWY1,"2003/06/08 07:30",4.27667,13.95,TRADE
SNOWY1,"2003/06/08 08:00",13.75833,15.41,TRADE
SNOWY1,"2003/06/08 08:30",12.04,16.75,TRADE
SNOWY1,"2003/06/08 09:00",8.705,17.62,TRADE
SNOWY1,"2003/06/08 09:30",31.92667,21.04,TRADE
SNOWY1,"2003/06/08 10:00",32.36667,21.53,TRADE
SNOWY1,"2003/06/08 10:30",8.81667,19.08,TRADE
SNOWY1,"2003/06/08 11:00",18.365,17.04,TRADE
SNOWY1,"2003/06/08 11:30",12.63667,16.38,TRADE
SNOWY1,"2003/06/08 12:00",11.16667,16.45,TRADE
SNOWY1,"2003/06/08 12:30",14.07667,15.92,TRADE
SNOWY1,"2003/06/08 13:00",16.25,14.51,TRADE
SNOWY1,"2003/06/08 13:30",15.75667,14.16,TRADE
SNOWY1,"2003/06/08 14:00",10.63833,12.94,TRADE
SNOWY1,"2003/06/08 14:30",16.24667,12.76,TRADE
SNOWY1,"2003/06/08 15:00",15.5,13.39,TRADE
SNOWY1,"2003/06/08 15:30",13.865,14.23,TRADE
SNOWY1,"2003/06/08 16:00",11.28833,14.36,TRADE
SNOWY1,"2003/06/08 16:30",12.35167,15.5,TRADE
SNOWY1,"2003/06/08 17:00",14.27667,19.54,TRADE
SNOWY1,"2003/06/08 17:30",29.77,30.38,TRADE
SNOWY1,"2003/06/08 18:00",39.64167,38.18,TRADE
SNOWY1,"2003/06/08 18:30",34.07833,56.29,TRADE
SNOWY1,"2003/06/08 19:00",22.74167,41.45,TRADE
SNOWY1,"2003/06/08 19:30",23.41,38.78,TRADE
SNOWY1,"2003/06/08 20:00",30.38667,27.5,TRADE
SNOWY1,"2003/06/08 20:30",22.66167,26.63,TRADE
SNOWY1,"2003/06/08 21:00",22.72833,25,TRADE
SNOWY1,"2003/06/08 21:30",15.99667,23.46,TRADE
SNOWY1,"2003/06/08 22:00",13.44,22.12,TRADE
SNOWY1,"2003/06/08 22:30",23.17667,22.11,TRADE
SNOWY1,"2003/06/08 23:00",17.80833,22,TRADE
SNOWY1,"2003/06/08 23:30",28.9,23.72,TRADE
SNOWY1,"2003/06/09 00:00",14.88833,20.14,TRADE
SNOWY1,"2003/06/09 00:30",15.84833,17.81,TRADE
SNOWY1,"2003/06/09 01:00",12.51833,16.91,TRADE
SNOWY1,"2003/06/09 01:30",12.00833,17.83,TRADE
SNOWY1,"2003/06/09 02:00",19.10833,16.53,TRADE
SNOWY1,"2003/06/09 02:30",15.48667,15.36,TRADE
SNOWY1,"2003/06/09 03:00",14.845,14.19,TRADE
SNOWY1,"2003/06/09 03:30",14.58667,14.69,TRADE
SNOWY1,"2003/06/09 04:00",13.73667,14.61,TRADE
SNOWY1,"2003/06/09 04:30",7.19333,13.17,TRADE
SNOWY1,"2003/06/09 05:00",11.42,13.18,TRADE
SNOWY1,"2003/06/09 05:30",9.145,13.82,TRADE
SNOWY1,"2003/06/09 06:00",14.74,13.97,TRADE
SNOWY1,"2003/06/09 06:30",11.24833,15.7,TRADE
SNOWY1,"2003/06/09 07:00",15.88167,15.02,TRADE
SNOWY1,"2003/06/09 07:30",18.64667,13.73,TRADE
SNOWY1,"2003/06/09 08:00",12.835,14.49,TRADE
SNOWY1,"2003/06/09 08:30",24.345,17.24,TRADE
SNOWY1,"2003/06/09 09:00",16.76833,18.36,TRADE
SNOWY1,"2003/06/09 09:30",24.605,20.48,TRADE
SNOWY1,"2003/06/09 10:00",21.835,20.6,TRADE
SNOWY1,"2003/06/09 10:30",20.89333,20.98,TRADE
SNOWY1,"2003/06/09 11:00",14.24333,19.37,TRADE
SNOWY1,"2003/06/09 11:30",23.37,17.96,TRADE
SNOWY1,"2003/06/09 12:00",14.64333,17.11,TRADE
SNOWY1,"2003/06/09 12:30",19.495,16.88,TRADE
SNOWY1,"2003/06/09 13:00",25.90167,16.3,TRADE
SNOWY1,"2003/06/09 13:30",23.46167,15.53,TRADE
SNOWY1,"2003/06/09 14:00",23.66667,14.69,TRADE
SNOWY1,"2003/06/09 14:30",30.02333,14.49,TRADE
SNOWY1,"2003/06/09 15:00",23.45667,13.6,TRADE
SNOWY1,"2003/06/09 15:30",20.18167,13.67,TRADE
SNOWY1,"2003/06/09 16:00",21.69167,13.82,TRADE
SNOWY1,"2003/06/09 16:30",21.58,15.82,TRADE
SNOWY1,"2003/06/09 17:00",23.525,21.75,TRADE
SNOWY1,"2003/06/09 17:30",50.635,42.01,TRADE
SNOWY1,"2003/06/09 18:00",41.17333,109.47,TRADE
SNOWY1,"2003/06/09 18:30",35.44667,88.16,TRADE
SNOWY1,"2003/06/09 19:00",15.005,44.21,TRADE
SNOWY1,"2003/06/09 19:30",22.44667,33.15,TRADE
SNOWY1,"2003/06/09 20:00",18.11167,29.97,TRADE
SNOWY1,"2003/06/09 20:30",15.82667,28.13,TRADE
SNOWY1,"2003/06/09 21:00",23.99,27.3,TRADE
SNOWY1,"2003/06/09 21:30",41.97333,24.39,TRADE
SNOWY1,"2003/06/09 22:00",17.82333,21.79,TRADE
SNOWY1,"2003/06/09 22:30",22.24,23.09,TRADE
SNOWY1,"2003/06/09 23:00",15.24833,20.68,TRADE
SNOWY1,"2003/06/09 23:30",20.765,21.12,TRADE
SNOWY1,"2003/06/10 00:00",17.98833,20.02,TRADE
SNOWY1,"2003/06/10 00:30",17.62167,19.31,TRADE
SNOWY1,"2003/06/10 01:00",24.98333,18.89,TRADE
SNOWY1,"2003/06/10 01:30",25.65,19.58,TRADE
SNOWY1,"2003/06/10 02:00",23.75833,17.7,TRADE
SNOWY1,"2003/06/10 02:30",18.76167,16.91,TRADE
SNOWY1,"2003/06/10 03:00",21.01,15.93,TRADE
SNOWY1,"2003/06/10 03:30",19.86,14.59,TRADE
SNOWY1,"2003/06/10 04:00",14.9,12.76,TRADE
SNOWY1,"2003/06/10 04:30",18.645,12.7,TRADE
SNOWY1,"2003/06/10 05:00",15.14167,12.93,TRADE
SNOWY1,"2003/06/10 05:30",19.93167,14.56,TRADE
SNOWY1,"2003/06/10 06:00",17.73833,16.21,TRADE
SNOWY1,"2003/06/10 06:30",19.22,19.43,TRADE
SNOWY1,"2003/06/10 07:00",18.06,23.28,TRADE
SNOWY1,"2003/06/10 07:30",24.69167,24.98,TRADE
SNOWY1,"2003/06/10 08:00",50.02333,31.27,TRADE
SNOWY1,"2003/06/10 08:30",36.94167,28.47,TRADE
SNOWY1,"2003/06/10 09:00",10.16667,27.45,TRADE
SNOWY1,"2003/06/10 09:30",14.99833,27.38,TRADE
SNOWY1,"2003/06/10 10:00",14.38,26.56,TRADE
SNOWY1,"2003/06/10 10:30",12.955,23.67,TRADE
SNOWY1,"2003/06/10 11:00",17.68667,22,TRADE
SNOWY1,"2003/06/10 11:30",13.405,21.89,TRADE
SNOWY1,"2003/06/10 12:00",14.31333,21.51,TRADE
SNOWY1,"2003/06/10 12:30",12.93833,20.78,TRADE
SNOWY1,"2003/06/10 13:00",15.46833,19.71,TRADE
SNOWY1,"2003/06/10 13:30",11.40167,21.06,TRADE
SNOWY1,"2003/06/10 14:00",11.19833,20.26,TRADE
SNOWY1,"2003/06/10 14:30",12.93833,19.61,TRADE
SNOWY1,"2003/06/10 15:00",22.27,18.93,TRADE
SNOWY1,"2003/06/10 15:30",11.33333,17.47,TRADE
SNOWY1,"2003/06/10 16:00",10.485,17.33,TRADE
SNOWY1,"2003/06/10 16:30",7.52667,18.49,TRADE
SNOWY1,"2003/06/10 17:00",19.35833,22.16,TRADE
SNOWY1,"2003/06/10 17:30",38.44167,37.36,TRADE
SNOWY1,"2003/06/10 18:00",24.76833,67.66,TRADE
SNOWY1,"2003/06/10 18:30",20.98667,53.6,TRADE
SNOWY1,"2003/06/10 19:00",21.125,45.53,TRADE
SNOWY1,"2003/06/10 19:30",9.225,39.36,TRADE
SNOWY1,"2003/06/10 20:00",4.59167,28.44,TRADE
SNOWY1,"2003/06/10 20:30",16.745,27.5,TRADE
SNOWY1,"2003/06/10 21:00",17.49,27.5,TRADE
SNOWY1,"2003/06/10 21:30",18.13833,27.5,TRADE
SNOWY1,"2003/06/10 22:00",14.94833,25.63,TRADE
SNOWY1,"2003/06/10 22:30",22.665,25.78,TRADE
SNOWY1,"2003/06/10 23:00",13.74333,23.21,TRADE
SNOWY1,"2003/06/10 23:30",24.185,24.11,TRADE
SNOWY1,"2003/06/11 00:00",11.71333,22.78,TRADE
SNOWY1,"2003/06/11 00:30",13.76333,22.02,TRADE
SNOWY1,"2003/06/11 01:00",16.32833,21.26,TRADE
SNOWY1,"2003/06/11 01:30",18.88,21.3,TRADE
SNOWY1,"2003/06/11 02:00",20.72,19.35,TRADE
SNOWY1,"2003/06/11 02:30",15.43667,18.07,TRADE
SNOWY1,"2003/06/11 03:00",6.67333,16.94,TRADE
SNOWY1,"2003/06/11 03:30",5.76667,16.56,TRADE
SNOWY1,"2003/06/11 04:00",17.36,14.02,TRADE
SNOWY1,"2003/06/11 04:30",7.38667,14.36,TRADE
SNOWY1,"2003/06/11 05:00",10.86167,15.47,TRADE
SNOWY1,"2003/06/11 05:30",12.47333,16.38,TRADE
SNOWY1,"2003/06/11 06:00",10.71,16.57,TRADE
SNOWY1,"2003/06/11 06:30",13.38833,21.35,TRADE
SNOWY1,"2003/06/11 07:00",17.56167,24.85,TRADE
SNOWY1,"2003/06/11 07:30",17.54667,25.71,TRADE
SNOWY1,"2003/06/11 08:00",16.74667,27.5,TRADE
SNOWY1,"2003/06/11 08:30",17.85167,27.41,TRADE
SNOWY1,"2003/06/11 09:00",14.50833,24.41,TRADE
SNOWY1,"2003/06/11 09:30",12.30167,25.11,TRADE
SNOWY1,"2003/06/11 10:00",13.40333,23.48,TRADE
SNOWY1,"2003/06/11 10:30",13.44167,22.28,TRADE
SNOWY1,"2003/06/11 11:00",11.45667,22.13,TRADE
SNOWY1,"2003/06/11 11:30",22.02667,22.04,TRADE
SNOWY1,"2003/06/11 12:00",17.96833,22,TRADE
SNOWY1,"2003/06/11 12:30",7.785,21.91,TRADE
SNOWY1,"2003/06/11 13:00",15.83667,21.73,TRADE
SNOWY1,"2003/06/11 13:30",25.01,22.19,TRADE
SNOWY1,"2003/06/11 14:00",8.82833,20.54,TRADE
SNOWY1,"2003/06/11 14:30",19.22167,17.94,TRADE
SNOWY1,"2003/06/11 15:00",12.88333,18.04,TRADE
SNOWY1,"2003/06/11 15:30",13.55667,17.51,TRADE
SNOWY1,"2003/06/11 16:00",14.07,17.77,TRADE
SNOWY1,"2003/06/11 16:30",17.30333,18.26,TRADE
SNOWY1,"2003/06/11 17:00",16.07167,20.27,TRADE
SNOWY1,"2003/06/11 17:30",35.18167,35.03,TRADE
SNOWY1,"2003/06/11 18:00",34.77,58.21,TRADE
SNOWY1,"2003/06/11 18:30",11.19333,50.84,TRADE
SNOWY1,"2003/06/11 19:00",17.32167,37.71,TRADE
SNOWY1,"2003/06/11 19:30",15.72167,32.21,TRADE
SNOWY1,"2003/06/11 20:00",9.435,26.79,TRADE
SNOWY1,"2003/06/11 20:30",9.82167,26.8,TRADE
SNOWY1,"2003/06/11 21:00",13.82833,26.11,TRADE
SNOWY1,"2003/06/11 21:30",13.97333,27,TRADE
SNOWY1,"2003/06/11 22:00",15.15167,24.31,TRADE
SNOWY1,"2003/06/11 22:30",8.57667,26.63,TRADE
SNOWY1,"2003/06/11 23:00",8.34,23.98,TRADE
SNOWY1,"2003/06/11 23:30",9.47,25.75,TRADE
SNOWY1,"2003/06/12 00:00",14.85667,24.15,TRADE
SNOWY1,"2003/06/12 00:30",9.57833,22.02,TRADE
SNOWY1,"2003/06/12 01:00",9.11667,21.6,TRADE
SNOWY1,"2003/06/12 01:30",16.31,22.01,TRADE
SNOWY1,"2003/06/12 02:00",16.50167,20.79,TRADE
SNOWY1,"2003/06/12 02:30",8.55,18.51,TRADE
SNOWY1,"2003/06/12 03:00",10.01667,17.58,TRADE
SNOWY1,"2003/06/12 03:30",11.70833,16.54,TRADE
SNOWY1,"2003/06/12 04:00",3.43167,14.97,TRADE
SNOWY1,"2003/06/12 04:30",9.78,13.95,TRADE
SNOWY1,"2003/06/12 05:00",11.92,14.16,TRADE
SNOWY1,"2003/06/12 05:30",11.445,16.07,TRADE
SNOWY1,"2003/06/12 06:00",14.145,16.28,TRADE
SNOWY1,"2003/06/12 06:30",11.885,19.73,TRADE
SNOWY1,"2003/06/12 07:00",23.11333,22.61,TRADE
SNOWY1,"2003/06/12 07:30",19.425,23.68,TRADE
SNOWY1,"2003/06/12 08:00",19.305,25.8,TRADE
SNOWY1,"2003/06/12 08:30",23.12833,23.99,TRADE
SNOWY1,"2003/06/12 09:00",8.28167,22,TRADE
SNOWY1,"2003/06/12 09:30",19.39667,22.05,TRADE
SNOWY1,"2003/06/12 10:00",19.67,21.83,TRADE
SNOWY1,"2003/06/12 10:30",12.945,20.42,TRADE
SNOWY1,"2003/06/12 11:00",16.27833,17.69,TRADE
SNOWY1,"2003/06/12 11:30",18.58833,17.24,TRADE
SNOWY1,"2003/06/12 12:00",20.04333,17.56,TRADE
SNOWY1,"2003/06/12 12:30",11.66333,16.45,TRADE
SNOWY1,"2003/06/12 13:00",14.29833,15.07,TRADE
SNOWY1,"2003/06/12 13:30",14.88667,15.21,TRADE
SNOWY1,"2003/06/12 14:00",22.175,15.08,TRADE
SNOWY1,"2003/06/12 14:30",24.755,14.92,TRADE
SNOWY1,"2003/06/12 15:00",11.07,13.75,TRADE
SNOWY1,"2003/06/12 15:30",15.295,14.15,TRADE
SNOWY1,"2003/06/12 16:00",7.29667,13.94,TRADE
SNOWY1,"2003/06/12 16:30",13.99333,15.38,TRADE
SNOWY1,"2003/06/12 17:00",9.16667,18.59,TRADE
SNOWY1,"2003/06/12 17:30",21.05667,26.57,TRADE
SNOWY1,"2003/06/12 18:00",34.93,33.61,TRADE
SNOWY1,"2003/06/12 18:30",14.39667,33.34,TRADE
SNOWY1,"2003/06/12 19:00",21.40333,29.63,TRADE
SNOWY1,"2003/06/12 19:30",22.65667,26.45,TRADE
SNOWY1,"2003/06/12 20:00",11.4,22.46,TRADE
SNOWY1,"2003/06/12 20:30",13.69833,25.16,TRADE
SNOWY1,"2003/06/12 21:00",22.95,22.88,TRADE
SNOWY1,"2003/06/12 21:30",18.655,22,TRADE
SNOWY1,"2003/06/12 22:00",11.75833,21.27,TRADE
SNOWY1,"2003/06/12 22:30",15.56167,21.88,TRADE
SNOWY1,"2003/06/12 23:00",11.41333,19.57,TRADE
SNOWY1,"2003/06/12 23:30",11.25,21.81,TRADE
SNOWY1,"2003/06/13 00:00",9.90167,20.56,TRADE
SNOWY1,"2003/06/13 00:30",12.53333,19.57,TRADE
SNOWY1,"2003/06/13 01:00",7.52167,18.13,TRADE
SNOWY1,"2003/06/13 01:30",12.07333,19.78,TRADE
SNOWY1,"2003/06/13 02:00",18.54833,16.69,TRADE
SNOWY1,"2003/06/13 02:30",11.25333,16.87,TRADE
SNOWY1,"2003/06/13 03:00",8.985,16.1,TRADE
SNOWY1,"2003/06/13 03:30",10.29333,16.16,TRADE
SNOWY1,"2003/06/13 04:00",11.39,13.37,TRADE
SNOWY1,"2003/06/13 04:30",8.96667,15.21,TRADE
SNOWY1,"2003/06/13 05:00",3.53833,15.54,TRADE
SNOWY1,"2003/06/13 05:30",4.90667,15.7,TRADE
SNOWY1,"2003/06/13 06:00",7.62667,15.98,TRADE
SNOWY1,"2003/06/13 06:30",7.045,19.58,TRADE
SNOWY1,"2003/06/13 07:00",30.89333,20.78,TRADE
SNOWY1,"2003/06/13 07:30",14.72167,17.62,TRADE
SNOWY1,"2003/06/13 08:00",27.71,17.77,TRADE
SNOWY1,"2003/06/13 08:30",20.14833,17.7,TRADE
SNOWY1,"2003/06/13 09:00",12.66833,20.14,TRADE
SNOWY1,"2003/06/13 09:30",9.915,20.25,TRADE
SNOWY1,"2003/06/13 10:00",9.58,19.89,TRADE
SNOWY1,"2003/06/13 10:30",12.165,18.87,TRADE
SNOWY1,"2003/06/13 11:00",19.76667,18.4,TRADE
SNOWY1,"2003/06/13 11:30",13.915,17.87,TRADE
SNOWY1,"2003/06/13 12:00",11.34333,17.69,TRADE
SNOWY1,"2003/06/13 12:30",12.42333,17.21,TRADE
SNOWY1,"2003/06/13 13:00",11.96167,17.66,TRADE
SNOWY1,"2003/06/13 13:30",8.935,17.89,TRADE
SNOWY1,"2003/06/13 14:00",9.84833,17.21,TRADE
SNOWY1,"2003/06/13 14:30",20.545,18.82,TRADE
SNOWY1,"2003/06/13 15:00",21.805,17.93,TRADE
SNOWY1,"2003/06/13 15:30",14.78667,17.86,TRADE
SNOWY1,"2003/06/13 16:00",22.99833,16.67,TRADE
SNOWY1,"2003/06/13 16:30",11.735,15.93,TRADE
SNOWY1,"2003/06/13 17:00",24.08667,18.28,TRADE
SNOWY1,"2003/06/13 17:30",25.42833,25.67,TRADE
SNOWY1,"2003/06/13 18:00",28.66,32.53,TRADE
SNOWY1,"2003/06/13 18:30",25.87,29.22,TRADE
SNOWY1,"2003/06/13 19:00",14.21333,27.52,TRADE
SNOWY1,"2003/06/13 19:30",11.22,21.98,TRADE
SNOWY1,"2003/06/13 20:00",8.4,20.54,TRADE
SNOWY1,"2003/06/13 20:30",12.12,22,TRADE
SNOWY1,"2003/06/13 21:00",13.95667,22.16,TRADE
SNOWY1,"2003/06/13 21:30",15.49833,21.81,TRADE
SNOWY1,"2003/06/13 22:00",11.925,20.88,TRADE
SNOWY1,"2003/06/13 22:30",23.375,22,TRADE
SNOWY1,"2003/06/13 23:00",7.75,21.88,TRADE
SNOWY1,"2003/06/13 23:30",23.55667,24.54,TRADE
SNOWY1,"2003/06/14 00:00",18.04,23.05,TRADE
SNOWY1,"2003/06/14 00:30",24.88667,22.17,TRADE
SNOWY1,"2003/06/14 01:00",13.43667,21.94,TRADE
SNOWY1,"2003/06/14 01:30",21.70667,22.56,TRADE
SNOWY1,"2003/06/14 02:00",14.16167,20.68,TRADE
SNOWY1,"2003/06/14 02:30",13.15167,18.79,TRADE
SNOWY1,"2003/06/14 03:00",14.33,17.91,TRADE
SNOWY1,"2003/06/14 03:30",6.49167,16.69,TRADE
SNOWY1,"2003/06/14 04:00",8.36667,15.95,TRADE
SNOWY1,"2003/06/14 04:30",9.04833,13.36,TRADE
SNOWY1,"2003/06/14 05:00",4.30833,12.89,TRADE
SNOWY1,"2003/06/14 05:30",15.96167,13.51,TRADE
SNOWY1,"2003/06/14 06:00",11.43167,14.36,TRADE
SNOWY1,"2003/06/14 06:30",12.03333,16.07,TRADE
SNOWY1,"2003/06/14 07:00",13.29,16.12,TRADE
SNOWY1,"2003/06/14 07:30",7.43833,15.92,TRADE
SNOWY1,"2003/06/14 08:00",12.32167,19.03,TRADE
SNOWY1,"2003/06/14 08:30",13.71333,21.83,TRADE
SNOWY1,"2003/06/14 09:00",14.34,24.83,TRADE
SNOWY1,"2003/06/14 09:30",31.45167,26.86,TRADE
SNOWY1,"2003/06/14 10:00",11.145,27.15,TRADE
SNOWY1,"2003/06/14 10:30",11.94333,25.29,TRADE
SNOWY1,"2003/06/14 11:00",16.72,24.09,TRADE
SNOWY1,"2003/06/14 11:30",7.505,24.19,TRADE
SNOWY1,"2003/06/14 12:00",12.91667,24.4,TRADE
SNOWY1,"2003/06/14 12:30",9.69167,22.24,TRADE
SNOWY1,"2003/06/14 13:00",13.26167,21.97,TRADE
SNOWY1,"2003/06/14 13:30",20.32333,21.98,TRADE
SNOWY1,"2003/06/14 14:00",7.76333,21.43,TRADE
SNOWY1,"2003/06/14 14:30",6.45667,20.27,TRADE
SNOWY1,"2003/06/14 15:00",16.265,19.59,TRADE
SNOWY1,"2003/06/14 15:30",11.29,18.14,TRADE
SNOWY1,"2003/06/14 16:00",12.00333,17.67,TRADE
SNOWY1,"2003/06/14 16:30",10.82,20.18,TRADE
SNOWY1,"2003/06/14 17:00",6.51,24.05,TRADE
SNOWY1,"2003/06/14 17:30",40.78167,46.96,TRADE
SNOWY1,"2003/06/14 18:00",27.34167,117.43,TRADE
SNOWY1,"2003/06/14 18:30",35.79167,104.64,TRADE
SNOWY1,"2003/06/14 19:00",9.99,58.42,TRADE
SNOWY1,"2003/06/14 19:30",19.97667,39.1,TRADE
SNOWY1,"2003/06/14 20:00",20.00333,28.48,TRADE
SNOWY1,"2003/06/14 20:30",15.82167,27.5,TRADE
SNOWY1,"2003/06/14 21:00",20.525,27.5,TRADE
SNOWY1,"2003/06/14 21:30",14.825,26.62,TRADE
SNOWY1,"2003/06/14 22:00",18.30667,24.62,TRADE
SNOWY1,"2003/06/14 22:30",10.09667,25.1,TRADE
SNOWY1,"2003/06/14 23:00",18.275,24.47,TRADE
SNOWY1,"2003/06/14 23:30",20.54,26.64,TRADE
SNOWY1,"2003/06/15 00:00",13.905,23.59,TRADE
SNOWY1,"2003/06/15 00:30",15.66667,22.31,TRADE
SNOWY1,"2003/06/15 01:00",7.095,21.88,TRADE
SNOWY1,"2003/06/15 01:30",18.595,20.98,TRADE
SNOWY1,"2003/06/15 02:00",15.99833,16.84,TRADE
SNOWY1,"2003/06/15 02:30",7.87833,15.65,TRADE
SNOWY1,"2003/06/15 03:00",12.675,14.37,TRADE
SNOWY1,"2003/06/15 03:30",6.42833,14,TRADE
SNOWY1,"2003/06/15 04:00",6.925,13.61,TRADE
SNOWY1,"2003/06/15 04:30",8.19333,12.58,TRADE
SNOWY1,"2003/06/15 05:00",9.10833,12.06,TRADE
SNOWY1,"2003/06/15 05:30",7.82,12.5,TRADE
SNOWY1,"2003/06/15 06:00",9.47667,11.98,TRADE
SNOWY1,"2003/06/15 06:30",9.35667,12.07,TRADE
SNOWY1,"2003/06/15 07:00",3.91833,13.06,TRADE
SNOWY1,"2003/06/15 07:30",8.72333,13.01,TRADE
SNOWY1,"2003/06/15 08:00",5.24,14.09,TRADE
SNOWY1,"2003/06/15 08:30",5.04167,17.51,TRADE
SNOWY1,"2003/06/15 09:00",15.655,19.75,TRADE
SNOWY1,"2003/06/15 09:30",25.535,22.4,TRADE
SNOWY1,"2003/06/15 10:00",11.53333,23.73,TRADE
SNOWY1,"2003/06/15 10:30",11.11167,22.17,TRADE
SNOWY1,"2003/06/15 11:00",17.17333,22.02,TRADE
SNOWY1,"2003/06/15 11:30",14.45,21.65,TRADE
SNOWY1,"2003/06/15 12:00",10.77,20.82,TRADE
SNOWY1,"2003/06/15 12:30",9.68167,19.44,TRADE
SNOWY1,"2003/06/15 13:00",13.16667,18.64,TRADE
SNOWY1,"2003/06/15 13:30",5.90167,18.18,TRADE
SNOWY1,"2003/06/15 14:00",11.375,17.23,TRADE
SNOWY1,"2003/06/15 14:30",18.57667,14.99,TRADE
SNOWY1,"2003/06/15 15:00",18.225,14.13,TRADE
SNOWY1,"2003/06/15 15:30",11.21167,13.91,TRADE
SNOWY1,"2003/06/15 16:00",11.695,14.62,TRADE
SNOWY1,"2003/06/15 16:30",9.48333,18.58,TRADE
SNOWY1,"2003/06/15 17:00",16.27333,23.44,TRADE
SNOWY1,"2003/06/15 17:30",37.38667,44.59,TRADE
SNOWY1,"2003/06/15 18:00",37.74833,121.44,TRADE
SNOWY1,"2003/06/15 18:30",10.16167,162.4,TRADE
SNOWY1,"2003/06/15 19:00",2.97333,69.96,TRADE
SNOWY1,"2003/06/15 19:30",10.09833,54.91,TRADE
SNOWY1,"2003/06/15 20:00",6.30167,41.99,TRADE
SNOWY1,"2003/06/15 20:30",22.24333,38.23,TRADE
SNOWY1,"2003/06/15 21:00",16.555,32.21,TRADE
SNOWY1,"2003/06/15 21:30",18.57,28.2,TRADE
SNOWY1,"2003/06/15 22:00",15.62667,25.67,TRADE
SNOWY1,"2003/06/15 22:30",12.93833,26.6,TRADE
SNOWY1,"2003/06/15 23:00",10.23833,24.53,TRADE
SNOWY1,"2003/06/15 23:30",12.18667,24.55,TRADE
SNOWY1,"2003/06/16 00:00",7.525,21.21,TRADE
SNOWY1,"2003/06/16 00:30",8.44167,19.81,TRADE
SNOWY1,"2003/06/16 01:00",10.42167,18.43,TRADE
SNOWY1,"2003/06/16 01:30",15.93,19.89,TRADE
SNOWY1,"2003/06/16 02:00",10.22833,17.53,TRADE
SNOWY1,"2003/06/16 02:30",20.12167,16.77,TRADE
SNOWY1,"2003/06/16 03:00",9.49333,16.83,TRADE
SNOWY1,"2003/06/16 03:30",11.55667,16.93,TRADE
SNOWY1,"2003/06/16 04:00",12.315,16.25,TRADE
SNOWY1,"2003/06/16 04:30",19.83333,13.84,TRADE
SNOWY1,"2003/06/16 05:00",16.10667,15.23,TRADE
SNOWY1,"2003/06/16 05:30",14.75333,16.47,TRADE
SNOWY1,"2003/06/16 06:00",10.515,17.44,TRADE
SNOWY1,"2003/06/16 06:30",14.35167,19.96,TRADE
SNOWY1,"2003/06/16 07:00",33.99833,25.37,TRADE
SNOWY1,"2003/06/16 07:30",26.185,33.41,TRADE
SNOWY1,"2003/06/16 08:00",31.10167,41.36,TRADE
SNOWY1,"2003/06/16 08:30",23.60333,42.76,TRADE
SNOWY1,"2003/06/16 09:00",18.12167,31.38,TRADE
SNOWY1,"2003/06/16 09:30",33.16667,39.05,TRADE
SNOWY1,"2003/06/16 10:00",11.96833,32.98,TRADE
SNOWY1,"2003/06/16 10:30",20.86,27.5,TRADE
SNOWY1,"2003/06/16 11:00",12.92333,27.5,TRADE
SNOWY1,"2003/06/16 11:30",20.415,27.5,TRADE
SNOWY1,"2003/06/16 12:00",18.98167,26.06,TRADE
SNOWY1,"2003/06/16 12:30",18.74333,25.24,TRADE
SNOWY1,"2003/06/16 13:00",16.51167,25.4,TRADE
SNOWY1,"2003/06/16 13:30",24.86,25.55,TRADE
SNOWY1,"2003/06/16 14:00",26.70833,23.12,TRADE
SNOWY1,"2003/06/16 14:30",32.12167,22.43,TRADE
SNOWY1,"2003/06/16 15:00",36.355,22.01,TRADE
SNOWY1,"2003/06/16 15:30",18.575,21.94,TRADE
SNOWY1,"2003/06/16 16:00",13.13333,21.62,TRADE
SNOWY1,"2003/06/16 16:30",14.73833,21.78,TRADE
SNOWY1,"2003/06/16 17:00",22.26,25.04,TRADE
SNOWY1,"2003/06/16 17:30",32.56,57.02,TRADE
SNOWY1,"2003/06/16 18:00",42.44,708.91,TRADE
SNOWY1,"2003/06/16 18:30",17.715,93.38,TRADE
SNOWY1,"2003/06/16 19:00",11.45833,101.42,TRADE
SNOWY1,"2003/06/16 19:30",11.245,43.33,TRADE
SNOWY1,"2003/06/16 20:00",14.17333,35.75,TRADE
SNOWY1,"2003/06/16 20:30",21.26333,41.05,TRADE
SNOWY1,"2003/06/16 21:00",25.44167,35.58,TRADE
SNOWY1,"2003/06/16 21:30",16.355,32.65,TRADE
SNOWY1,"2003/06/16 22:00",16.015,27.6,TRADE
SNOWY1,"2003/06/16 22:30",24.02,29.68,TRADE
SNOWY1,"2003/06/16 23:00",13.46833,25.91,TRADE
SNOWY1,"2003/06/16 23:30",30.93,26.9,TRADE
SNOWY1,"2003/06/17 00:00",19.67667,25.01,TRADE
SNOWY1,"2003/06/17 00:30",16.72,24.19,TRADE
SNOWY1,"2003/06/17 01:00",13.69333,22.02,TRADE
SNOWY1,"2003/06/17 01:30",12.93,23.63,TRADE
SNOWY1,"2003/06/17 02:00",15.33,21.57,TRADE
SNOWY1,"2003/06/17 02:30",14.10833,20.17,TRADE
SNOWY1,"2003/06/17 03:00",7.86167,17.66,TRADE
SNOWY1,"2003/06/17 03:30",6.14,16.9,TRADE
SNOWY1,"2003/06/17 04:00",7.29833,15.66,TRADE
SNOWY1,"2003/06/17 04:30",12.37167,15.27,TRADE
SNOWY1,"2003/06/17 05:00",7.15167,16.01,TRADE
SNOWY1,"2003/06/17 05:30",11.075,16.31,TRADE
SNOWY1,"2003/06/17 06:00",7.06333,17.34,TRADE
SNOWY1,"2003/06/17 06:30",12.74833,22.48,TRADE
SNOWY1,"2003/06/17 07:00",38.69333,29,TRADE
SNOWY1,"2003/06/17 07:30",34.18,37.32,TRADE
SNOWY1,"2003/06/17 08:00",24.39667,43.2,TRADE
SNOWY1,"2003/06/17 08:30",18.675,41.96,TRADE
SNOWY1,"2003/06/17 09:00",19.13833,30.56,TRADE
SNOWY1,"2003/06/17 09:30",20.395,35.11,TRADE
SNOWY1,"2003/06/17 10:00",18.375,32.08,TRADE
SNOWY1,"2003/06/17 10:30",9.81167,27.5,TRADE
SNOWY1,"2003/06/17 11:00",18.655,27.5,TRADE
SNOWY1,"2003/06/17 11:30",11.585,24.63,TRADE
SNOWY1,"2003/06/17 12:00",7.69667,22.37,TRADE
SNOWY1,"2003/06/17 12:30",17.625,22.23,TRADE
SNOWY1,"2003/06/17 13:00",17.875,22.92,TRADE
SNOWY1,"2003/06/17 13:30",14.86333,23.2,TRADE
SNOWY1,"2003/06/17 14:00",14.55167,23.74,TRADE
SNOWY1,"2003/06/17 14:30",17.61,24.17,TRADE
SNOWY1,"2003/06/17 15:00",22.32833,24.47,TRADE
SNOWY1,"2003/06/17 15:30",7.89667,23.16,TRADE
SNOWY1,"2003/06/17 16:00",10.345,22.57,TRADE
SNOWY1,"2003/06/17 16:30",15.26167,22.38,TRADE
SNOWY1,"2003/06/17 17:00",15.89333,25.38,TRADE
SNOWY1,"2003/06/17 17:30",54.2,40.36,TRADE
SNOWY1,"2003/06/17 18:00",34.49667,796.64,TRADE
SNOWY1,"2003/06/17 18:30",21.33833,66.12,TRADE
SNOWY1,"2003/06/17 19:00",23.60167,62.99,TRADE
SNOWY1,"2003/06/17 19:30",12.06667,42.8,TRADE
SNOWY1,"2003/06/17 20:00",27.895,34.48,TRADE
SNOWY1,"2003/06/17 20:30",3.71,33.84,TRADE
SNOWY1,"2003/06/17 21:00",37.29333,31.39,TRADE
SNOWY1,"2003/06/17 21:30",27.26833,27.56,TRADE
SNOWY1,"2003/06/17 22:00",16.30167,27.14,TRADE
SNOWY1,"2003/06/17 22:30",34.17167,28.82,TRADE
SNOWY1,"2003/06/17 23:00",15.64667,24.78,TRADE
SNOWY1,"2003/06/17 23:30",18.00333,25.53,TRADE
SNOWY1,"2003/06/18 00:00",19.13167,24.64,TRADE
SNOWY1,"2003/06/18 00:30",12.08667,24.62,TRADE
SNOWY1,"2003/06/18 01:00",13.57167,22.42,TRADE
SNOWY1,"2003/06/18 01:30",21.21667,23.63,TRADE
SNOWY1,"2003/06/18 02:00",19.26,21.66,TRADE
SNOWY1,"2003/06/18 02:30",17.76667,20.74,TRADE
SNOWY1,"2003/06/18 03:00",16.46167,18.52,TRADE
SNOWY1,"2003/06/18 03:30",13.49667,17.2,TRADE
SNOWY1,"2003/06/18 04:00",12.13167,14.53,TRADE
SNOWY1,"2003/06/18 04:30",13.255,13.53,TRADE
SNOWY1,"2003/06/18 05:00",16.25,13.62,TRADE
SNOWY1,"2003/06/18 05:30",10.31667,15.82,TRADE
SNOWY1,"2003/06/18 06:00",7.59667,17.03,TRADE
SNOWY1,"2003/06/18 06:30",21.58333,21.37,TRADE
SNOWY1,"2003/06/18 07:00",22.245,26.39,TRADE
SNOWY1,"2003/06/18 07:30",23.22333,35.98,TRADE
SNOWY1,"2003/06/18 08:00",21.20833,42.45,TRADE
SNOWY1,"2003/06/18 08:30",34.37167,28.99,TRADE
SNOWY1,"2003/06/18 09:00",15.865,27.22,TRADE
SNOWY1,"2003/06/18 09:30",36.03667,27.12,TRADE
SNOWY1,"2003/06/18 10:00",19.915,25.12,TRADE
SNOWY1,"2003/06/18 10:30",17.49333,24.33,TRADE
SNOWY1,"2003/06/18 11:00",21.36333,23.24,TRADE
SNOWY1,"2003/06/18 11:30",15.65333,22,TRADE
SNOWY1,"2003/06/18 12:00",22.93,22,TRADE
SNOWY1,"2003/06/18 12:30",12.695,21.86,TRADE
SNOWY1,"2003/06/18 13:00",23.085,21.93,TRADE
SNOWY1,"2003/06/18 13:30",21.74667,22.13,TRADE
SNOWY1,"2003/06/18 14:00",19.15167,22.04,TRADE
SNOWY1,"2003/06/18 14:30",18.855,22.18,TRADE
SNOWY1,"2003/06/18 15:00",12.49333,22.54,TRADE
SNOWY1,"2003/06/18 15:30",26.32167,22.78,TRADE
SNOWY1,"2003/06/18 16:00",20.70333,22.46,TRADE
SNOWY1,"2003/06/18 16:30",28.98,22.97,TRADE
SNOWY1,"2003/06/18 17:00",9.16333,27.5,TRADE
SNOWY1,"2003/06/18 17:30",32.915,38.22,TRADE
SNOWY1,"2003/06/18 18:00",34.78667,76.11,TRADE
SNOWY1,"2003/06/18 18:30",21.21,91.9,TRADE
SNOWY1,"2003/06/18 19:00",6.87,71.53,TRADE
SNOWY1,"2003/06/18 19:30",11.32667,43.04,TRADE
SNOWY1,"2003/06/18 20:00",16.16333,34.98,TRADE
SNOWY1,"2003/06/18 20:30",14.70167,43.03,TRADE
SNOWY1,"2003/06/18 21:00",30.33167,43.06,TRADE
SNOWY1,"2003/06/18 21:30",18.74,39.72,TRADE
SNOWY1,"2003/06/18 22:00",8.99167,32.05,TRADE
SNOWY1,"2003/06/18 22:30",20.12,39.77,TRADE
SNOWY1,"2003/06/18 23:00",4.84,28.43,TRADE
SNOWY1,"2003/06/18 23:30",26.43167,29.27,TRADE
SNOWY1,"2003/06/19 00:00",16.345,27.49,TRADE
SNOWY1,"2003/06/19 00:30",22.025,25.29,TRADE
SNOWY1,"2003/06/19 01:00",13.675,24.83,TRADE
SNOWY1,"2003/06/19 01:30",33.71333,26.26,TRADE
SNOWY1,"2003/06/19 02:00",14.99833,23.3,TRADE
SNOWY1,"2003/06/19 02:30",35.755,21.87,TRADE
SNOWY1,"2003/06/19 03:00",10.09833,21.03,TRADE
SNOWY1,"2003/06/19 03:30",15.80167,20.08,TRADE
SNOWY1,"2003/06/19 04:00",11.55333,17.3,TRADE
SNOWY1,"2003/06/19 04:30",9.68167,16.72,TRADE
SNOWY1,"2003/06/19 05:00",14.81667,16.57,TRADE
SNOWY1,"2003/06/19 05:30",9.63667,18.16,TRADE
SNOWY1,"2003/06/19 06:00",10.73833,19.14,TRADE
SNOWY1,"2003/06/19 06:30",25.945,22.62,TRADE
SNOWY1,"2003/06/19 07:00",19.77667,27.27,TRADE
SNOWY1,"2003/06/19 07:30",32.70667,38.6,TRADE
SNOWY1,"2003/06/19 08:00",41.32833,43.2,TRADE
SNOWY1,"2003/06/19 08:30",26.615,35.44,TRADE
SNOWY1,"2003/06/19 09:00",27.09,27.5,TRADE
SNOWY1,"2003/06/19 09:30",22.92667,27.5,TRADE
SNOWY1,"2003/06/19 10:00",11.72667,27.5,TRADE
SNOWY1,"2003/06/19 10:30",32.42833,25.85,TRADE
SNOWY1,"2003/06/19 11:00",18.26167,24.35,TRADE
SNOWY1,"2003/06/19 11:30",22.70833,23.65,TRADE
SNOWY1,"2003/06/19 12:00",17.51,22.12,TRADE
SNOWY1,"2003/06/19 12:30",21.65667,22,TRADE
SNOWY1,"2003/06/19 13:00",27.175,22.15,TRADE
SNOWY1,"2003/06/19 13:30",39.21667,22.41,TRADE
SNOWY1,"2003/06/19 14:00",26.08333,22.05,TRADE
SNOWY1,"2003/06/19 14:30",35.56167,22.53,TRADE
SNOWY1,"2003/06/19 15:00",28.35,22.09,TRADE
SNOWY1,"2003/06/19 15:30",21.91167,22.25,TRADE
SNOWY1,"2003/06/19 16:00",24.26167,22.19,TRADE
SNOWY1,"2003/06/19 16:30",15.52,21.76,TRADE
SNOWY1,"2003/06/19 17:00",15.59,23.2,TRADE
SNOWY1,"2003/06/19 17:30",21.47333,32.31,TRADE
SNOWY1,"2003/06/19 18:00",41.72167,48.18,TRADE
SNOWY1,"2003/06/19 18:30",8.55,45.82,TRADE
SNOWY1,"2003/06/19 19:00",19.76167,64.57,TRADE
SNOWY1,"2003/06/19 19:30",16.68833,36.69,TRADE
SNOWY1,"2003/06/19 20:00",14.36167,33.25,TRADE
SNOWY1,"2003/06/19 20:30",15.06,33.2,TRADE
SNOWY1,"2003/06/19 21:00",33.00333,31.83,TRADE
SNOWY1,"2003/06/19 21:30",12.39333,27.61,TRADE
SNOWY1,"2003/06/19 22:00",12.99,26.5,TRADE
SNOWY1,"2003/06/19 22:30",29.31167,27.52,TRADE
SNOWY1,"2003/06/19 23:00",14.02,27.5,TRADE
SNOWY1,"2003/06/19 23:30",27.54167,31.04,TRADE
SNOWY1,"2003/06/20 00:00",10.79333,27.5,TRADE
SNOWY1,"2003/06/20 00:30",19.165,27.44,TRADE
SNOWY1,"2003/06/20 01:00",18.92833,26.24,TRADE
SNOWY1,"2003/06/20 01:30",22.60167,26.98,TRADE
SNOWY1,"2003/06/20 02:00",20.01333,23.93,TRADE
SNOWY1,"2003/06/20 02:30",19.67833,21.34,TRADE
SNOWY1,"2003/06/20 03:00",11.725,18.88,TRADE
SNOWY1,"2003/06/20 03:30",13.43167,17.94,TRADE
SNOWY1,"2003/06/20 04:00",21.72167,16.88,TRADE
SNOWY1,"2003/06/20 04:30",13.90667,14.59,TRADE
SNOWY1,"2003/06/20 05:00",17.19833,16.22,TRADE
SNOWY1,"2003/06/20 05:30",11.825,16.31,TRADE
SNOWY1,"2003/06/20 06:00",13.85833,16.71,TRADE
SNOWY1,"2003/06/20 06:30",17.17,19.87,TRADE
SNOWY1,"2003/06/20 07:00",26.00833,24.97,TRADE
SNOWY1,"2003/06/20 07:30",31.03333,27.37,TRADE
SNOWY1,"2003/06/20 08:00",39.04833,31.58,TRADE
SNOWY1,"2003/06/20 08:30",17.05667,27.5,TRADE
SNOWY1,"2003/06/20 09:00",36.335,26.58,TRADE
SNOWY1,"2003/06/20 09:30",32.77333,27.2,TRADE
SNOWY1,"2003/06/20 10:00",25.30833,26.43,TRADE
SNOWY1,"2003/06/20 10:30",8.76,25.34,TRADE
SNOWY1,"2003/06/20 11:00",21.705,24.23,TRADE
SNOWY1,"2003/06/20 11:30",18.395,25.3,TRADE
SNOWY1,"2003/06/20 12:00",16.63167,23.75,TRADE
SNOWY1,"2003/06/20 12:30",7.66667,22.17,TRADE
SNOWY1,"2003/06/20 13:00",10.29833,22,TRADE
SNOWY1,"2003/06/20 13:30",25.63833,22,TRADE
SNOWY1,"2003/06/20 14:00",16.88333,21.93,TRADE
SNOWY1,"2003/06/20 14:30",24.37333,22.02,TRADE
SNOWY1,"2003/06/20 15:00",15.205,21.91,TRADE
SNOWY1,"2003/06/20 15:30",18.235,21.57,TRADE
SNOWY1,"2003/06/20 16:00",9.58667,19.87,TRADE
SNOWY1,"2003/06/20 16:30",16.685,18.32,TRADE
SNOWY1,"2003/06/20 17:00",16.185,22.48,TRADE
SNOWY1,"2003/06/20 17:30",49.26667,31.53,TRADE
SNOWY1,"2003/06/20 18:00",32.74667,42.64,TRADE
SNOWY1,"2003/06/20 18:30",33.74833,43.48,TRADE
SNOWY1,"2003/06/20 19:00",27.42667,35.33,TRADE
SNOWY1,"2003/06/20 19:30",17.18833,27.33,TRADE
SNOWY1,"2003/06/20 20:00",22.12167,23.01,TRADE
SNOWY1,"2003/06/20 20:30",21.13167,24.72,TRADE
SNOWY1,"2003/06/20 21:00",11.18167,24.48,TRADE
SNOWY1,"2003/06/20 21:30",11.93667,24.76,TRADE
SNOWY1,"2003/06/20 22:00",14.76667,24.09,TRADE
SNOWY1,"2003/06/20 22:30",19.905,27.16,TRADE
SNOWY1,"2003/06/20 23:00",21.94333,25.29,TRADE
SNOWY1,"2003/06/20 23:30",21.75667,27.71,TRADE
SNOWY1,"2003/06/21 00:00",15.99333,26.74,TRADE
SNOWY1,"2003/06/21 00:30",17.84833,25.21,TRADE
SNOWY1,"2003/06/21 01:00",23.24333,22.66,TRADE
SNOWY1,"2003/06/21 01:30",16.40833,23.47,TRADE
SNOWY1,"2003/06/21 02:00",11.32667,20.37,TRADE
SNOWY1,"2003/06/21 02:30",15.64667,18.88,TRADE
SNOWY1,"2003/06/21 03:00",12.465,18.2,TRADE
SNOWY1,"2003/06/21 03:30",10.71333,16.75,TRADE
SNOWY1,"2003/06/21 04:00",13.53833,15.56,TRADE
SNOWY1,"2003/06/21 04:30",10.97333,14.23,TRADE
SNOWY1,"2003/06/21 05:00",6.71333,13.7,TRADE
SNOWY1,"2003/06/21 05:30",7.85833,14.26,TRADE
SNOWY1,"2003/06/21 06:00",8.13333,15.77,TRADE
SNOWY1,"2003/06/21 06:30",7.255,16.95,TRADE
SNOWY1,"2003/06/21 07:00",10.91833,16.25,TRADE
SNOWY1,"2003/06/21 07:30",13.15833,16.52,TRADE
SNOWY1,"2003/06/21 08:00",14.985,18.86,TRADE
SNOWY1,"2003/06/21 08:30",17.34833,22.02,TRADE
SNOWY1,"2003/06/21 09:00",16.67333,24.63,TRADE
SNOWY1,"2003/06/21 09:30",19.63333,26.88,TRADE
SNOWY1,"2003/06/21 10:00",20.835,27.5,TRADE
SNOWY1,"2003/06/21 10:30",20.22,27.5,TRADE
SNOWY1,"2003/06/21 11:00",20.385,25.61,TRADE
SNOWY1,"2003/06/21 11:30",13.07,25.18,TRADE
SNOWY1,"2003/06/21 12:00",20.29333,25.02,TRADE
SNOWY1,"2003/06/21 12:30",12.57333,24.85,TRADE
SNOWY1,"2003/06/21 13:00",15.89667,24.76,TRADE
SNOWY1,"2003/06/21 13:30",16.05167,24.54,TRADE
SNOWY1,"2003/06/21 14:00",11.14667,21.99,TRADE
SNOWY1,"2003/06/21 14:30",12.53833,22,TRADE
SNOWY1,"2003/06/21 15:00",9.42333,22,TRADE
SNOWY1,"2003/06/21 15:30",16.96333,22,TRADE
SNOWY1,"2003/06/21 16:00",17.27833,22,TRADE
SNOWY1,"2003/06/21 16:30",18.02667,24.31,TRADE
SNOWY1,"2003/06/21 17:00",16.01,29.19,TRADE
SNOWY1,"2003/06/21 17:30",44.54833,41.9,TRADE
SNOWY1,"2003/06/21 18:00",33.21,61.44,TRADE
SNOWY1,"2003/06/21 18:30",17.34667,45.83,TRADE
SNOWY1,"2003/06/21 19:00",18.055,50.07,TRADE
SNOWY1,"2003/06/21 19:30",24.50167,36.18,TRADE
SNOWY1,"2003/06/21 20:00",18.71667,27.5,TRADE
SNOWY1,"2003/06/21 20:30",5.39833,26.51,TRADE
SNOWY1,"2003/06/21 21:00",27.86333,25.33,TRADE
SNOWY1,"2003/06/21 21:30",14.40667,24.55,TRADE
SNOWY1,"2003/06/21 22:00",10.72333,23.1,TRADE
SNOWY1,"2003/06/21 22:30",17.53333,24.25,TRADE
SNOWY1,"2003/06/21 23:00",15.43167,23.39,TRADE
SNOWY1,"2003/06/21 23:30",27.27167,24.32,TRADE
SNOWY1,"2003/06/22 00:00",11.18333,22.1,TRADE
SNOWY1,"2003/06/22 00:30",9.92,21.11,TRADE
SNOWY1,"2003/06/22 01:00",19.84,18.89,TRADE
SNOWY1,"2003/06/22 01:30",13.98333,19.57,TRADE
SNOWY1,"2003/06/22 02:00",12.68667,17.06,TRADE
SNOWY1,"2003/06/22 02:30",16.01167,15.68,TRADE
SNOWY1,"2003/06/22 03:00",14.655,14.77,TRADE
SNOWY1,"2003/06/22 03:30",5.91833,13.8,TRADE
SNOWY1,"2003/06/22 04:00",9.28,12.67,TRADE
SNOWY1,"2003/06/22 04:30",8.91167,11.27,TRADE
SNOWY1,"2003/06/22 05:00",16.49,11.14,TRADE
SNOWY1,"2003/06/22 05:30",12.30167,11.48,TRADE
SNOWY1,"2003/06/22 06:00",10.85167,12.49,TRADE
SNOWY1,"2003/06/22 06:30",10.46833,12.26,TRADE
SNOWY1,"2003/06/22 07:00",14.04167,12.76,TRADE
SNOWY1,"2003/06/22 07:30",16.605,12.38,TRADE
SNOWY1,"2003/06/22 08:00",13.84,14.19,TRADE
SNOWY1,"2003/06/22 08:30",9.25667,16.38,TRADE
SNOWY1,"2003/06/22 09:00",12.00833,19.48,TRADE
SNOWY1,"2003/06/22 09:30",27.72833,21.81,TRADE
SNOWY1,"2003/06/22 10:00",28.725,25.65,TRADE
SNOWY1,"2003/06/22 10:30",11.85167,25.85,TRADE
SNOWY1,"2003/06/22 11:00",21.82333,24.4,TRADE
SNOWY1,"2003/06/22 11:30",8.88833,23.67,TRADE
SNOWY1,"2003/06/22 12:00",10.27833,23.2,TRADE
SNOWY1,"2003/06/22 12:30",14.27167,22.9,TRADE
SNOWY1,"2003/06/22 13:00",8.41833,22.02,TRADE
SNOWY1,"2003/06/22 13:30",10.71667,21.83,TRADE
SNOWY1,"2003/06/22 14:00",16.59167,19.34,TRADE
SNOWY1,"2003/06/22 14:30",15.285,18.83,TRADE
SNOWY1,"2003/06/22 15:00",7.41667,16.47,TRADE
SNOWY1,"2003/06/22 15:30",10.31333,17.5,TRADE
SNOWY1,"2003/06/22 16:00",13.78333,18.35,TRADE
SNOWY1,"2003/06/22 16:30",16.72167,21.62,TRADE
SNOWY1,"2003/06/22 17:00",19.8,25.49,TRADE
SNOWY1,"2003/06/22 17:30",30.51167,51.03,TRADE
SNOWY1,"2003/06/22 18:00",13.255,209.93,TRADE
SNOWY1,"2003/06/22 18:30",21.39,263.86,TRADE
SNOWY1,"2003/06/22 19:00",15.03667,106.48,TRADE
SNOWY1,"2003/06/22 19:30",9.00167,50.49,TRADE
SNOWY1,"2003/06/22 20:00",24.27,43.2,TRADE
SNOWY1,"2003/06/22 20:30",29.38833,38.28,TRADE
SNOWY1,"2003/06/22 21:00",14.24167,32.21,TRADE
SNOWY1,"2003/06/22 21:30",6.85167,27.32,TRADE
SNOWY1,"2003/06/22 22:00",8.915,23.58,TRADE
SNOWY1,"2003/06/22 22:30",18.13167,24.32,TRADE
SNOWY1,"2003/06/22 23:00",6.35833,22.62,TRADE
SNOWY1,"2003/06/22 23:30",17.01,23.81,TRADE
SNOWY1,"2003/06/23 00:00",12.25333,21.39,TRADE
SNOWY1,"2003/06/23 00:30",10.425,20.82,TRADE
SNOWY1,"2003/06/23 01:00",15.77,19.04,TRADE
SNOWY1,"2003/06/23 01:30",16.50333,19.62,TRADE
SNOWY1,"2003/06/23 02:00",11.885,18.54,TRADE
SNOWY1,"2003/06/23 02:30",14.83167,16.47,TRADE
SNOWY1,"2003/06/23 03:00",19.395,16.77,TRADE
SNOWY1,"2003/06/23 03:30",12.41833,15.73,TRADE
SNOWY1,"2003/06/23 04:00",11.06833,13.52,TRADE
SNOWY1,"2003/06/23 04:30",22.56333,12.38,TRADE
SNOWY1,"2003/06/23 05:00",11.01,13.19,TRADE
SNOWY1,"2003/06/23 05:30",11.31333,15.46,TRADE
SNOWY1,"2003/06/23 06:00",7.25167,16.76,TRADE
SNOWY1,"2003/06/23 06:30",16.56667,21.17,TRADE
SNOWY1,"2003/06/23 07:00",24.62333,26.47,TRADE
SNOWY1,"2003/06/23 07:30",17.64167,29.09,TRADE
SNOWY1,"2003/06/23 08:00",25.865,38.3,TRADE
SNOWY1,"2003/06/23 08:30",21.23833,38.41,TRADE
SNOWY1,"2003/06/23 09:00",13.98833,30.73,TRADE
SNOWY1,"2003/06/23 09:30",24.61667,35.68,TRADE
SNOWY1,"2003/06/23 10:00",27.14,27.71,TRADE
SNOWY1,"2003/06/23 10:30",15.165,30.07,TRADE
SNOWY1,"2003/06/23 11:00",7.85333,28.68,TRADE
SNOWY1,"2003/06/23 11:30",17.145,29.38,TRADE
SNOWY1,"2003/06/23 12:00",15.87333,27.84,TRADE
SNOWY1,"2003/06/23 12:30",22.76333,27.84,TRADE
SNOWY1,"2003/06/23 13:00",15.98167,27.77,TRADE
SNOWY1,"2003/06/23 13:30",16.635,27.5,TRADE
SNOWY1,"2003/06/23 14:00",25.1,27.5,TRADE
SNOWY1,"2003/06/23 14:30",23.34833,28.06,TRADE
SNOWY1,"2003/06/23 15:00",14.875,27.5,TRADE
SNOWY1,"2003/06/23 15:30",31.22667,27.5,TRADE
SNOWY1,"2003/06/23 16:00",26.06333,26.27,TRADE
SNOWY1,"2003/06/23 16:30",25.97833,25.95,TRADE
SNOWY1,"2003/06/23 17:00",29.73333,27.98,TRADE
SNOWY1,"2003/06/23 17:30",34.995,45.76,TRADE
SNOWY1,"2003/06/23 18:00",42.42667,6557.23,TRADE
SNOWY1,"2003/06/23 18:30",37.84,4964.98,TRADE
SNOWY1,"2003/06/23 19:00",22.41333,1054.22,TRADE
SNOWY1,"2003/06/23 19:30",7.775,56.31,TRADE
SNOWY1,"2003/06/23 20:00",24.54667,44.99,TRADE
SNOWY1,"2003/06/23 20:30",17.62333,54.9,TRADE
SNOWY1,"2003/06/23 21:00",18.52,51.03,TRADE
SNOWY1,"2003/06/23 21:30",16.325,42.35,TRADE
SNOWY1,"2003/06/23 22:00",18.365,33.29,TRADE
SNOWY1,"2003/06/23 22:30",12.83833,35.77,TRADE
SNOWY1,"2003/06/23 23:00",7.33667,27.51,TRADE
SNOWY1,"2003/06/23 23:30",37.02167,32.11,TRADE
SNOWY1,"2003/06/24 00:00",19.61833,28.11,TRADE
SNOWY1,"2003/06/24 00:30",14.82167,26.74,TRADE
SNOWY1,"2003/06/24 01:00",15.36833,26.56,TRADE
SNOWY1,"2003/06/24 01:30",30.54333,27.1,TRADE
SNOWY1,"2003/06/24 02:00",8.57333,25.18,TRADE
SNOWY1,"2003/06/24 02:30",24.005,21.35,TRADE
SNOWY1,"2003/06/24 03:00",13.36667,19.56,TRADE
SNOWY1,"2003/06/24 03:30",12.28167,17.99,TRADE
SNOWY1,"2003/06/24 04:00",15.605,16.94,TRADE
SNOWY1,"2003/06/24 04:30",13.29333,16.65,TRADE
SNOWY1,"2003/06/24 05:00",14.19,16.44,TRADE
SNOWY1,"2003/06/24 05:30",9.67833,16.85,TRADE
SNOWY1,"2003/06/24 06:00",7.83833,18.89,TRADE
SNOWY1,"2003/06/24 06:30",32.245,27.2,TRADE
SNOWY1,"2003/06/24 07:00",23.37833,37.38,TRADE
SNOWY1,"2003/06/24 07:30",25.8,60.82,TRADE
SNOWY1,"2003/06/24 08:00",43.32167,132.41,TRADE
SNOWY1,"2003/06/24 08:30",26.39167,59.73,TRADE
SNOWY1,"2003/06/24 09:00",21.18667,45.29,TRADE
SNOWY1,"2003/06/24 09:30",14.49833,43.71,TRADE
SNOWY1,"2003/06/24 10:00",7.14333,43.2,TRADE
SNOWY1,"2003/06/24 10:30",8.60833,40.65,TRADE
SNOWY1,"2003/06/24 11:00",12.78,40.38,TRADE
SNOWY1,"2003/06/24 11:30",10.015,33.77,TRADE
SNOWY1,"2003/06/24 12:00",9.29167,30.33,TRADE
SNOWY1,"2003/06/24 12:30",17.01833,27.5,TRADE
SNOWY1,"2003/06/24 13:00",10.07167,27.5,TRADE
SNOWY1,"2003/06/24 13:30",11.095,27.5,TRADE
SNOWY1,"2003/06/24 14:00",6.46333,27.14,TRADE
SNOWY1,"2003/06/24 14:30",8.81333,27.46,TRADE
SNOWY1,"2003/06/24 15:00",9.2,26.23,TRADE
SNOWY1,"2003/06/24 15:30",7.68,26.11,TRADE
SNOWY1,"2003/06/24 16:00",16.70667,25.94,TRADE
SNOWY1,"2003/06/24 16:30",18.92167,25.93,TRADE
SNOWY1,"2003/06/24 17:00",25.08167,30.22,TRADE
SNOWY1,"2003/06/24 17:30",27.285,39.85,TRADE
SNOWY1,"2003/06/24 18:00",35.20667,4162.63,TRADE
SNOWY1,"2003/06/24 18:30",33.38833,6680.52,TRADE
SNOWY1,"2003/06/24 19:00",23.045,1372.39,TRADE
SNOWY1,"2003/06/24 19:30",25.095,44.81,TRADE
SNOWY1,"2003/06/24 20:00",6.86167,41.2,TRADE
SNOWY1,"2003/06/24 20:30",20.265,43.2,TRADE
SNOWY1,"2003/06/24 21:00",9.87333,38.73,TRADE
SNOWY1,"2003/06/24 21:30",15.84167,33.8,TRADE
SNOWY1,"2003/06/24 22:00",5.90833,30.91,TRADE
SNOWY1,"2003/06/24 22:30",12.83333,34.85,TRADE
SNOWY1,"2003/06/24 23:00",6.24667,27.59,TRADE
SNOWY1,"2003/06/24 23:30",19.735,29.62,TRADE
SNOWY1,"2003/06/25 00:00",14.93167,27.23,TRADE
SNOWY1,"2003/06/25 00:30",16.57667,27.14,TRADE
SNOWY1,"2003/06/25 01:00",10.085,25.09,TRADE
SNOWY1,"2003/06/25 01:30",25.43333,26.95,TRADE
SNOWY1,"2003/06/25 02:00",18.70833,23.93,TRADE
SNOWY1,"2003/06/25 02:30",7.48333,21.26,TRADE
SNOWY1,"2003/06/25 03:00",13.3,19.32,TRADE
SNOWY1,"2003/06/25 03:30",12.63,17.16,TRADE
SNOWY1,"2003/06/25 04:00",12.21333,14.59,TRADE
SNOWY1,"2003/06/25 04:30",16.43667,13.48,TRADE
SNOWY1,"2003/06/25 05:00",16.48167,13.32,TRADE
SNOWY1,"2003/06/25 05:30",12.13,15.07,TRADE
SNOWY1,"2003/06/25 06:00",18.35333,17.79,TRADE
SNOWY1,"2003/06/25 06:30",26.315,22.44,TRADE
SNOWY1,"2003/06/25 07:00",36.71,28.86,TRADE
SNOWY1,"2003/06/25 07:30",20.705,36.68,TRADE
SNOWY1,"2003/06/25 08:00",34.715,43.2,TRADE
SNOWY1,"2003/06/25 08:30",32.51167,43.2,TRADE
SNOWY1,"2003/06/25 09:00",11.80667,39.05,TRADE
SNOWY1,"2003/06/25 09:30",32.325,43.2,TRADE
SNOWY1,"2003/06/25 10:00",8.85833,42.38,TRADE
SNOWY1,"2003/06/25 10:30",12.845,40.4,TRADE
SNOWY1,"2003/06/25 11:00",17.54833,40.09,TRADE
SNOWY1,"2003/06/25 11:30",10.99333,32.21,TRADE
SNOWY1,"2003/06/25 12:00",17.30333,27.61,TRADE
SNOWY1,"2003/06/25 12:30",4.21,27.5,TRADE
SNOWY1,"2003/06/25 13:00",15.36333,27.5,TRADE
SNOWY1,"2003/06/25 13:30",25.44667,27.5,TRADE
SNOWY1,"2003/06/25 14:00",20.22167,27.5,TRADE
SNOWY1,"2003/06/25 14:30",24.29333,30.85,TRADE
SNOWY1,"2003/06/25 15:00",20.63,33.15,TRADE
SNOWY1,"2003/06/25 15:30",26.68833,28.4,TRADE
SNOWY1,"2003/06/25 16:00",10.63667,28.52,TRADE
SNOWY1,"2003/06/25 16:30",20.9,27.9,TRADE
SNOWY1,"2003/06/25 17:00",34.14667,33.62,TRADE
SNOWY1,"2003/06/25 17:30",28.21667,57.05,TRADE
SNOWY1,"2003/06/25 18:00",31.14333,119.46,TRADE
SNOWY1,"2003/06/25 18:30",18.38667,197.93,TRADE
SNOWY1,"2003/06/25 19:00",15.09667,88.11,TRADE
SNOWY1,"2003/06/25 19:30",14.14833,56.82,TRADE
SNOWY1,"2003/06/25 20:00",20.78167,39.06,TRADE
SNOWY1,"2003/06/25 20:30",42.73833,35.27,TRADE
SNOWY1,"2003/06/25 21:00",195.56,35.91,TRADE
SNOWY1,"2003/06/25 21:30",196.32833,29.67,TRADE
SNOWY1,"2003/06/25 22:00",12.91667,23.51,TRADE
SNOWY1,"2003/06/25 22:30",10.27667,32.1,TRADE
SNOWY1,"2003/06/25 23:00",18.375,24.83,TRADE
SNOWY1,"2003/06/25 23:30",31.54833,27.65,TRADE
SNOWY1,"2003/06/26 00:00",14.38667,24.97,TRADE
SNOWY1,"2003/06/26 00:30",10.70667,22.47,TRADE
SNOWY1,"2003/06/26 01:00",9.75,22.02,TRADE
SNOWY1,"2003/06/26 01:30",19.25667,23.51,TRADE
SNOWY1,"2003/06/26 02:00",13.41,21,TRADE
SNOWY1,"2003/06/26 02:30",12.94167,18.11,TRADE
SNOWY1,"2003/06/26 03:00",24.30833,16.55,TRADE
SNOWY1,"2003/06/26 03:30",13.28167,13.58,TRADE
SNOWY1,"2003/06/26 04:00",12.14,12.27,TRADE
SNOWY1,"2003/06/26 04:30",14.23833,11.66,TRADE
SNOWY1,"2003/06/26 05:00",11.56667,11.99,TRADE
SNOWY1,"2003/06/26 05:30",9.95333,13.57,TRADE
SNOWY1,"2003/06/26 06:00",11.61,14.48,TRADE
SNOWY1,"2003/06/26 06:30",18.35,19.93,TRADE
SNOWY1,"2003/06/26 07:00",19.32667,25.27,TRADE
SNOWY1,"2003/06/26 07:30",17.72,27.69,TRADE
SNOWY1,"2003/06/26 08:00",35.14833,35.17,TRADE
SNOWY1,"2003/06/26 08:30",22.42,31.38,TRADE
SNOWY1,"2003/06/26 09:00",13.62333,26.91,TRADE
SNOWY1,"2003/06/26 09:30",15.425,26.65,TRADE
SNOWY1,"2003/06/26 10:00",14.24833,26.08,TRADE
SNOWY1,"2003/06/26 10:30",6.905,25.29,TRADE
SNOWY1,"2003/06/26 11:00",18.02167,24.22,TRADE
SNOWY1,"2003/06/26 11:30",15.105,22,TRADE
SNOWY1,"2003/06/26 12:00",7.6,21.95,TRADE
SNOWY1,"2003/06/26 12:30",9.545,20.41,TRADE
SNOWY1,"2003/06/26 13:00",4.19,18.55,TRADE
SNOWY1,"2003/06/26 13:30",8.87167,18.25,TRADE
SNOWY1,"2003/06/26 14:00",12.00167,17.98,TRADE
SNOWY1,"2003/06/26 14:30",32.75667,18.28,TRADE
SNOWY1,"2003/06/26 15:00",10.37667,17.77,TRADE
SNOWY1,"2003/06/26 15:30",12.03833,17.49,TRADE
SNOWY1,"2003/06/26 16:00",7.62167,17.43,TRADE
SNOWY1,"2003/06/26 16:30",17,17.02,TRADE
SNOWY1,"2003/06/26 17:00",17.36167,20.76,TRADE
SNOWY1,"2003/06/26 17:30",36.39667,29.06,TRADE
SNOWY1,"2003/06/26 18:00",39.81167,43.2,TRADE
SNOWY1,"2003/06/26 18:30",23.05667,43.2,TRADE
SNOWY1,"2003/06/26 19:00",18.685,42.74,TRADE
SNOWY1,"2003/06/26 19:30",29.8,34.26,TRADE
SNOWY1,"2003/06/26 20:00",7.17333,30.4,TRADE
SNOWY1,"2003/06/26 20:30",6.68833,28.89,TRADE
SNOWY1,"2003/06/26 21:00",9.75,27.1,TRADE
SNOWY1,"2003/06/26 21:30",19.395,23.48,TRADE
SNOWY1,"2003/06/26 22:00",13.12667,21.71,TRADE
SNOWY1,"2003/06/26 22:30",16.52667,23.13,TRADE
SNOWY1,"2003/06/26 23:00",10.10167,22.31,TRADE
SNOWY1,"2003/06/26 23:30",22.01333,26.28,TRADE
SNOWY1,"2003/06/27 00:00",12.50667,23.55,TRADE
SNOWY1,"2003/06/27 00:30",11.28833,22.02,TRADE
SNOWY1,"2003/06/27 01:00",6.49667,20.99,TRADE
SNOWY1,"2003/06/27 01:30",13.745,21.77,TRADE
SNOWY1,"2003/06/27 02:00",17.83167,19.8,TRADE
SNOWY1,"2003/06/27 02:30",9.97833,17,TRADE
SNOWY1,"2003/06/27 03:00",8.51833,15.41,TRADE
SNOWY1,"2003/06/27 03:30",8.10667,13.82,TRADE
SNOWY1,"2003/06/27 04:00",5.54,12.03,TRADE
SNOWY1,"2003/06/27 04:30",10.725,12.65,TRADE
SNOWY1,"2003/06/27 05:00",13.26167,12.24,TRADE
SNOWY1,"2003/06/27 05:30",22.22167,14.7,TRADE
SNOWY1,"2003/06/27 06:00",5.50167,14.34,TRADE
SNOWY1,"2003/06/27 06:30",14.98667,18.06,TRADE
SNOWY1,"2003/06/27 07:00",21.045,19.92,TRADE
SNOWY1,"2003/06/27 07:30",10.03,19.59,TRADE
SNOWY1,"2003/06/27 08:00",19.575,23.3,TRADE
SNOWY1,"2003/06/27 08:30",23.735,22.78,TRADE
SNOWY1,"2003/06/27 09:00",12.35667,22,TRADE
SNOWY1,"2003/06/27 09:30",17.16,22.19,TRADE
SNOWY1,"2003/06/27 10:00",15.72667,21.66,TRADE
SNOWY1,"2003/06/27 10:30",28.98167,21.73,TRADE
SNOWY1,"2003/06/27 11:00",15.19333,20.58,TRADE
SNOWY1,"2003/06/27 11:30",5.25667,19.64,TRADE
SNOWY1,"2003/06/27 12:00",11.49833,18.52,TRADE
SNOWY1,"2003/06/27 12:30",8.82833,18.65,TRADE
SNOWY1,"2003/06/27 13:00",13.45,18.02,TRADE
SNOWY1,"2003/06/27 13:30",6.41833,19.66,TRADE
SNOWY1,"2003/06/27 14:00",12.01333,19.06,TRADE
SNOWY1,"2003/06/27 14:30",21.75667,21.62,TRADE
SNOWY1,"2003/06/27 15:00",23.575,21.16,TRADE
SNOWY1,"2003/06/27 15:30",14.22167,21.81,TRADE
SNOWY1,"2003/06/27 16:00",28.77,22.11,TRADE
SNOWY1,"2003/06/27 16:30",14.915,22.01,TRADE
SNOWY1,"2003/06/27 17:00",22.88,25.05,TRADE
SNOWY1,"2003/06/27 17:30",32.12667,31.87,TRADE
SNOWY1,"2003/06/27 18:00",33.73,43.71,TRADE
SNOWY1,"2003/06/27 18:30",19.45833,43.08,TRADE
SNOWY1,"2003/06/27 19:00",12.62833,34.17,TRADE
SNOWY1,"2003/06/27 19:30",1.76167,28.13,TRADE
SNOWY1,"2003/06/27 20:00",6.72333,27.04,TRADE
SNOWY1,"2003/06/27 20:30",14.585,27.5,TRADE
SNOWY1,"2003/06/27 21:00",13.05833,26.9,TRADE
SNOWY1,"2003/06/27 21:30",19.515,25.15,TRADE
SNOWY1,"2003/06/27 22:00",9.13667,22.54,TRADE
SNOWY1,"2003/06/27 22:30",9.86167,25.56,TRADE
SNOWY1,"2003/06/27 23:00",13.515,23.67,TRADE
SNOWY1,"2003/06/27 23:30",16.97333,27.51,TRADE
SNOWY1,"2003/06/28 00:00",19.63333,25.11,TRADE
SNOWY1,"2003/06/28 00:30",19.075,22.07,TRADE
SNOWY1,"2003/06/28 01:00",11.485,21.62,TRADE
SNOWY1,"2003/06/28 01:30",13.04,21.71,TRADE
SNOWY1,"2003/06/28 02:00",6.57333,18.55,TRADE
SNOWY1,"2003/06/28 02:30",9.55333,15.11,TRADE
SNOWY1,"2003/06/28 03:00",6.21167,13.07,TRADE
SNOWY1,"2003/06/28 03:30",14.06167,12.12,TRADE
SNOWY1,"2003/06/28 04:00",9.57,11.18,TRADE
SNOWY1,"2003/06/28 04:30",6.695,11.28,TRADE
SNOWY1,"2003/06/28 05:00",4.84833,10.99,TRADE
SNOWY1,"2003/06/28 05:30",7.1,10.61,TRADE
SNOWY1,"2003/06/28 06:00",14.12667,9.99,TRADE
SNOWY1,"2003/06/28 06:30",12.98,10.52,TRADE
SNOWY1,"2003/06/28 07:00",11.37,12,TRADE
SNOWY1,"2003/06/28 07:30",20.185,12.48,TRADE
SNOWY1,"2003/06/28 08:00",6.57667,15.32,TRADE
SNOWY1,"2003/06/28 08:30",9.79167,18.22,TRADE
SNOWY1,"2003/06/28 09:00",19.26167,21.97,TRADE
SNOWY1,"2003/06/28 09:30",11.03167,23.74,TRADE
SNOWY1,"2003/06/28 10:00",6.48167,22.02,TRADE
SNOWY1,"2003/06/28 10:30",12.215,22.02,TRADE
SNOWY1,"2003/06/28 11:00",10.60833,21.52,TRADE
SNOWY1,"2003/06/28 11:30",3.785,18.59,TRADE
SNOWY1,"2003/06/28 12:00",10.30167,17.04,TRADE
SNOWY1,"2003/06/28 12:30",7.51667,16.1,TRADE
SNOWY1,"2003/06/28 13:00",5.11667,14.98,TRADE
SNOWY1,"2003/06/28 13:30",10.27667,15.03,TRADE
SNOWY1,"2003/06/28 14:00",9.28,14.87,TRADE
SNOWY1,"2003/06/28 14:30",12.50667,14.33,TRADE
SNOWY1,"2003/06/28 15:00",9.46333,13.47,TRADE
SNOWY1,"2003/06/28 15:30",7.41333,12.76,TRADE
SNOWY1,"2003/06/28 16:00",7.87667,12.65,TRADE
SNOWY1,"2003/06/28 16:30",8.425,13.58,TRADE
SNOWY1,"2003/06/28 17:00",7.08833,16.24,TRADE
SNOWY1,"2003/06/28 17:30",15.92333,22.99,TRADE
SNOWY1,"2003/06/28 18:00",20.07667,30.56,TRADE
SNOWY1,"2003/06/28 18:30",16.38833,32.77,TRADE
SNOWY1,"2003/06/28 19:00",11.88833,27.96,TRADE
SNOWY1,"2003/06/28 19:30",11.77167,23.62,TRADE
SNOWY1,"2003/06/28 20:00",14.92167,22.18,TRADE
SNOWY1,"2003/06/28 20:30",10.43167,20,TRADE
SNOWY1,"2003/06/28 21:00",17.63,16.84,TRADE
SNOWY1,"2003/06/28 21:30",11.39667,15.88,TRADE
SNOWY1,"2003/06/28 22:00",10.71833,15.65,TRADE
SNOWY1,"2003/06/28 22:30",18.16833,17.79,TRADE
SNOWY1,"2003/06/28 23:00",11.19,15.68,TRADE
SNOWY1,"2003/06/28 23:30",7.115,17.53,TRADE
SNOWY1,"2003/06/29 00:00",15.85,15.98,TRADE
SNOWY1,"2003/06/29 00:30",11.02167,15.62,TRADE
SNOWY1,"2003/06/29 01:00",7.325,14.74,TRADE
SNOWY1,"2003/06/29 01:30",14.75667,15.16,TRADE
SNOWY1,"2003/06/29 02:00",16.385,13.96,TRADE
SNOWY1,"2003/06/29 02:30",9.795,12.48,TRADE
SNOWY1,"2003/06/29 03:00",8,11.31,TRADE
SNOWY1,"2003/06/29 03:30",16.81,9.97,TRADE
SNOWY1,"2003/06/29 04:00",8.44833,8.66,TRADE
SNOWY1,"2003/06/29 04:30",12.88833,9.31,TRADE
SNOWY1,"2003/06/29 05:00",13.52333,8.91,TRADE
SNOWY1,"2003/06/29 05:30",5.17833,9.62,TRADE
SNOWY1,"2003/06/29 06:00",8.43,9.52,TRADE
SNOWY1,"2003/06/29 06:30",8.21833,10.94,TRADE
SNOWY1,"2003/06/29 07:00",13.98333,9.96,TRADE
SNOWY1,"2003/06/29 07:30",11.13833,9.19,TRADE
SNOWY1,"2003/06/29 08:00",8.4,10.93,TRADE
SNOWY1,"2003/06/29 08:30",13.6,12.14,TRADE
SNOWY1,"2003/06/29 09:00",6.59833,13.58,TRADE
SNOWY1,"2003/06/29 09:30",19.665,14.21,TRADE
SNOWY1,"2003/06/29 10:00",19.95,14.36,TRADE
SNOWY1,"2003/06/29 10:30",13.98167,14.47,TRADE
SNOWY1,"2003/06/29 11:00",12.26333,14.39,TRADE
SNOWY1,"2003/06/29 11:30",17.025,14.36,TRADE
SNOWY1,"2003/06/29 12:00",8.50167,14.28,TRADE
SNOWY1,"2003/06/29 12:30",10.57667,14.05,TRADE
SNOWY1,"2003/06/29 13:00",13.125,13.72,TRADE
SNOWY1,"2003/06/29 13:30",13.825,13.52,TRADE
SNOWY1,"2003/06/29 14:00",7.28667,12.34,TRADE
SNOWY1,"2003/06/29 14:30",16.03667,12.57,TRADE
SNOWY1,"2003/06/29 15:00",10.33667,11.25,TRADE
SNOWY1,"2003/06/29 15:30",15.475,11.67,TRADE
SNOWY1,"2003/06/29 16:00",9.34333,12.38,TRADE
SNOWY1,"2003/06/29 16:30",14.63667,13.51,TRADE
SNOWY1,"2003/06/29 17:00",15.93,14.57,TRADE
SNOWY1,"2003/06/29 17:30",13.76333,20.4,TRADE
SNOWY1,"2003/06/29 18:00",14.65833,27.67,TRADE
SNOWY1,"2003/06/29 18:30",35.055,33.69,TRADE
SNOWY1,"2003/06/29 19:00",33.67667,31.93,TRADE
SNOWY1,"2003/06/29 19:30",12.62333,23.5,TRADE
SNOWY1,"2003/06/29 20:00",11.265,22.02,TRADE
SNOWY1,"2003/06/29 20:30",7.48667,21.86,TRADE
SNOWY1,"2003/06/29 21:00",14.25833,19.96,TRADE
SNOWY1,"2003/06/29 21:30",16.83667,18,TRADE
SNOWY1,"2003/06/29 22:00",8.97,15.69,TRADE
SNOWY1,"2003/06/29 22:30",12.305,16.77,TRADE
SNOWY1,"2003/06/29 23:00",11.03,15.02,TRADE
SNOWY1,"2003/06/29 23:30",10.66,16.72,TRADE
SNOWY1,"2003/06/30 00:00",14.725,15.02,TRADE
SNOWY1,"2003/06/30 00:30",13.84,14.68,TRADE
SNOWY1,"2003/06/30 01:00",12.76667,14.19,TRADE
SNOWY1,"2003/06/30 01:30",11.69,14.54,TRADE
SNOWY1,"2003/06/30 02:00",15.185,12.64,TRADE
SNOWY1,"2003/06/30 02:30",13.21,11.25,TRADE
SNOWY1,"2003/06/30 03:00",13.02833,10.68,TRADE
SNOWY1,"2003/06/30 03:30",11.99167,10.68,TRADE
SNOWY1,"2003/06/30 04:00",10.595,9.63,TRADE
SNOWY1,"2003/06/30 04:30",6.74333,8.73,TRADE
SNOWY1,"2003/06/30 05:00",11.955,9.37,TRADE
SNOWY1,"2003/06/30 05:30",8.71,10.99,TRADE
SNOWY1,"2003/06/30 06:00",7.95167,11.6,TRADE
SNOWY1,"2003/06/30 06:30",23.70167,13.17,TRADE
SNOWY1,"2003/06/30 07:00",12.44167,14.58,TRADE
SNOWY1,"2003/06/30 07:30",18.22,14.77,TRADE
SNOWY1,"2003/06/30 08:00",18.15167,16.25,TRADE
SNOWY1,"2003/06/30 08:30",14.65,17.7,TRADE
SNOWY1,"2003/06/30 09:00",15.83167,17.9,TRADE
SNOWY1,"2003/06/30 09:30",21.46833,18,TRADE
SNOWY1,"2003/06/30 10:00",24.77,17.78,TRADE
SNOWY1,"2003/06/30 10:30",22.99167,17.66,TRADE
SNOWY1,"2003/06/30 11:00",20.81,17.71,TRADE
SNOWY1,"2003/06/30 11:30",12.81333,17.36,TRADE
SNOWY1,"2003/06/30 12:00",9.375,16.44,TRADE
SNOWY1,"2003/06/30 12:30",16.06667,16.9,TRADE
SNOWY1,"2003/06/30 13:00",7.1,17.44,TRADE
SNOWY1,"2003/06/30 13:30",6.13,17.95,TRADE
SNOWY1,"2003/06/30 14:00",14.85833,17.93,TRADE
SNOWY1,"2003/06/30 14:30",11.78,17.92,TRADE
SNOWY1,"2003/06/30 15:00",9.645,17.73,TRADE
SNOWY1,"2003/06/30 15:30",8.705,17.65,TRADE
SNOWY1,"2003/06/30 16:00",20.49333,17.57,TRADE
SNOWY1,"2003/06/30 16:30",23.93333,17.47,TRADE
SNOWY1,"2003/06/30 17:00",22.29667,20.65,TRADE
SNOWY1,"2003/06/30 17:30",30.205,30.47,TRADE
SNOWY1,"2003/06/30 18:00",19.39167,43.2,TRADE
SNOWY1,"2003/06/30 18:30",12.07833,41.18,TRADE
SNOWY1,"2003/06/30 19:00",9.705,32.29,TRADE
SNOWY1,"2003/06/30 19:30",17.80833,23.8,TRADE
SNOWY1,"2003/06/30 20:00",21.53667,22.63,TRADE
SNOWY1,"2003/06/30 20:30",12.53333,23.76,TRADE
SNOWY1,"2003/06/30 21:00",16.385,22.82,TRADE
SNOWY1,"2003/06/30 21:30",14.97167,21.61,TRADE
SNOWY1,"2003/06/30 22:00",14.975,18.31,TRADE
SNOWY1,"2003/06/30 22:30",9.155,17.19,TRADE
SNOWY1,"2003/06/30 23:00",20.05333,16.55,TRADE
SNOWY1,"2003/06/30 23:30",18.18,19.49,TRADE
SNOWY1,"2003/07/01 00:00",19.175,17.41,TRADE
