REGION,SETTLEMENTDATE,TOTALDEMAND,RRP,PERIODTYPE
SNOWY1,"2005/03/01 00:30:00",30.68333,20.93,TRADE
SNOWY1,"2005/03/01 01:00:00",23.675,19.69,TRADE
SNOWY1,"2005/03/01 01:30:00",41.64167,19.47,TRADE
SNOWY1,"2005/03/01 02:00:00",28.77833,16.81,TRADE
SNOWY1,"2005/03/01 02:30:00",54.83833,14.14,TRADE
SNOWY1,"2005/03/01 03:00:00",57.495,12.67,TRADE
SNOWY1,"2005/03/01 03:30:00",55.61167,12.36,TRADE
SNOWY1,"2005/03/01 04:00:00",59.30333,12.26,TRADE
SNOWY1,"2005/03/01 04:30:00",62.61333,14.95,TRADE
SNOWY1,"2005/03/01 05:00:00",65.71667,16.08,TRADE
SNOWY1,"2005/03/01 05:30:00",45.83833,18.57,TRADE
SNOWY1,"2005/03/01 06:00:00",29.89333,19.67,TRADE
SNOWY1,"2005/03/01 06:30:00",44.06333,21.26,TRADE
SNOWY1,"2005/03/01 07:00:00",36.76667,21.17,TRADE
SNOWY1,"2005/03/01 07:30:00",27.23333,20.27,TRADE
SNOWY1,"2005/03/01 08:00:00",35.85667,21.34,TRADE
SNOWY1,"2005/03/01 08:30:00",36.88167,21.89,TRADE
SNOWY1,"2005/03/01 09:00:00",30.25833,23.1,TRADE
SNOWY1,"2005/03/01 09:30:00",22.28833,24.1,TRADE
SNOWY1,"2005/03/01 10:00:00",30.84167,26.12,TRADE
SNOWY1,"2005/03/01 10:30:00",28.56667,27.04,TRADE
SNOWY1,"2005/03/01 11:00:00",15.35833,29.53,TRADE
SNOWY1,"2005/03/01 11:30:00",28.74167,31.19,TRADE
SNOWY1,"2005/03/01 12:00:00",31.94833,28.04,TRADE
SNOWY1,"2005/03/01 12:30:00",32.54667,34.36,TRADE
SNOWY1,"2005/03/01 13:00:00",49.48333,35.07,TRADE
SNOWY1,"2005/03/01 13:30:00",67.82667,36.22,TRADE
SNOWY1,"2005/03/01 14:00:00",82.01833,38.55,TRADE
SNOWY1,"2005/03/01 14:30:00",35.015,39.7,TRADE
SNOWY1,"2005/03/01 15:00:00",44.08167,42,TRADE
SNOWY1,"2005/03/01 15:30:00",34.68,40.85,TRADE
SNOWY1,"2005/03/01 16:00:00",24.945,35.05,TRADE
SNOWY1,"2005/03/01 16:30:00",22.655,35.03,TRADE
SNOWY1,"2005/03/01 17:00:00",31.55,31.17,TRADE
SNOWY1,"2005/03/01 17:30:00",32.075,25.82,TRADE
SNOWY1,"2005/03/01 18:00:00",34.44167,22.64,TRADE
SNOWY1,"2005/03/01 18:30:00",17.255,22.05,TRADE
SNOWY1,"2005/03/01 19:00:00",20.255,21.32,TRADE
SNOWY1,"2005/03/01 19:30:00",32.98667,23.26,TRADE
SNOWY1,"2005/03/01 20:00:00",28.95,21.36,TRADE
SNOWY1,"2005/03/01 20:30:00",19.45,21.18,TRADE
SNOWY1,"2005/03/01 21:00:00",32.73167,19.33,TRADE
SNOWY1,"2005/03/01 21:30:00",24.68,19.49,TRADE
SNOWY1,"2005/03/01 22:00:00",20.44333,17.9,TRADE
SNOWY1,"2005/03/01 22:30:00",23.58667,18.78,TRADE
SNOWY1,"2005/03/01 23:00:00",19.965,19.26,TRADE
SNOWY1,"2005/03/01 23:30:00",23.62667,21.03,TRADE
SNOWY1,"2005/03/02 00:00:00",24.76833,19.77,TRADE
SNOWY1,"2005/03/02 00:30:00",32.26,18.84,TRADE
SNOWY1,"2005/03/02 01:00:00",18.09833,17.34,TRADE
SNOWY1,"2005/03/02 01:30:00",58.73,17.55,TRADE
SNOWY1,"2005/03/02 02:00:00",89.13167,14.58,TRADE
SNOWY1,"2005/03/02 02:30:00",97.72333,13.75,TRADE
SNOWY1,"2005/03/02 03:00:00",108.04333,13.05,TRADE
SNOWY1,"2005/03/02 03:30:00",100.21833,12.89,TRADE
SNOWY1,"2005/03/02 04:00:00",96.45333,13.11,TRADE
SNOWY1,"2005/03/02 04:30:00",102.77333,13.88,TRADE
SNOWY1,"2005/03/02 05:00:00",105.13833,15.15,TRADE
SNOWY1,"2005/03/02 05:30:00",109.16167,18.36,TRADE
SNOWY1,"2005/03/02 06:00:00",44.87333,19.08,TRADE
SNOWY1,"2005/03/02 06:30:00",48.08667,20.05,TRADE
SNOWY1,"2005/03/02 07:00:00",58.01667,20.78,TRADE
SNOWY1,"2005/03/02 07:30:00",40.29167,19.29,TRADE
SNOWY1,"2005/03/02 08:00:00",45.96833,19.41,TRADE
SNOWY1,"2005/03/02 08:30:00",48.03667,18.93,TRADE
SNOWY1,"2005/03/02 09:00:00",47.69,19.45,TRADE
SNOWY1,"2005/03/02 09:30:00",57.715,19.91,TRADE
SNOWY1,"2005/03/02 10:00:00",45.725,20.58,TRADE
SNOWY1,"2005/03/02 10:30:00",38.85667,20.71,TRADE
SNOWY1,"2005/03/02 11:00:00",44.425,20.69,TRADE
SNOWY1,"2005/03/02 11:30:00",44.64833,20.39,TRADE
SNOWY1,"2005/03/02 12:00:00",39.49167,20.44,TRADE
SNOWY1,"2005/03/02 12:30:00",47.755,20.41,TRADE
SNOWY1,"2005/03/02 13:00:00",46.95333,20.86,TRADE
SNOWY1,"2005/03/02 13:30:00",33.855,20.58,TRADE
SNOWY1,"2005/03/02 14:00:00",38.235,20.44,TRADE
SNOWY1,"2005/03/02 14:30:00",32.69,20.26,TRADE
SNOWY1,"2005/03/02 15:00:00",36.92333,20.26,TRADE
SNOWY1,"2005/03/02 15:30:00",36.55833,20.22,TRADE
SNOWY1,"2005/03/02 16:00:00",31.18,19.75,TRADE
SNOWY1,"2005/03/02 16:30:00",38.44,19.37,TRADE
SNOWY1,"2005/03/02 17:00:00",21.865,19.5,TRADE
SNOWY1,"2005/03/02 17:30:00",27.67,18.05,TRADE
SNOWY1,"2005/03/02 18:00:00",35.03,17.15,TRADE
SNOWY1,"2005/03/02 18:30:00",28.62167,16.85,TRADE
SNOWY1,"2005/03/02 19:00:00",27.03333,17.26,TRADE
SNOWY1,"2005/03/02 19:30:00",29.07333,17.09,TRADE
SNOWY1,"2005/03/02 20:00:00",35.56333,16.88,TRADE
SNOWY1,"2005/03/02 20:30:00",32.01833,16.77,TRADE
SNOWY1,"2005/03/02 21:00:00",25.28167,15.49,TRADE
SNOWY1,"2005/03/02 21:30:00",23.1,17.41,TRADE
SNOWY1,"2005/03/02 22:00:00",28.57833,15.87,TRADE
SNOWY1,"2005/03/02 22:30:00",24.71333,16.45,TRADE
SNOWY1,"2005/03/02 23:00:00",23.19333,16.87,TRADE
SNOWY1,"2005/03/02 23:30:00",24.205,19.06,TRADE
SNOWY1,"2005/03/03 00:00:00",22.82333,18.44,TRADE
SNOWY1,"2005/03/03 00:30:00",19.7,17.57,TRADE
SNOWY1,"2005/03/03 01:00:00",20.57833,15.64,TRADE
SNOWY1,"2005/03/03 01:30:00",28.44667,15.64,TRADE
SNOWY1,"2005/03/03 02:00:00",62.73833,13.93,TRADE
SNOWY1,"2005/03/03 02:30:00",88.135,14.69,TRADE
SNOWY1,"2005/03/03 03:00:00",93.42667,13.62,TRADE
SNOWY1,"2005/03/03 03:30:00",89.74333,12.6,TRADE
SNOWY1,"2005/03/03 04:00:00",86.69667,12.82,TRADE
SNOWY1,"2005/03/03 04:30:00",84.50333,14.19,TRADE
SNOWY1,"2005/03/03 05:00:00",82.63833,15.05,TRADE
SNOWY1,"2005/03/03 05:30:00",64.30833,17.44,TRADE
SNOWY1,"2005/03/03 06:00:00",28.74,18.66,TRADE
SNOWY1,"2005/03/03 06:30:00",49.66,19.7,TRADE
SNOWY1,"2005/03/03 07:00:00",46.71,20.8,TRADE
SNOWY1,"2005/03/03 07:30:00",39.92333,18.03,TRADE
SNOWY1,"2005/03/03 08:00:00",21.63667,17.02,TRADE
SNOWY1,"2005/03/03 08:30:00",31.34833,16.68,TRADE
SNOWY1,"2005/03/03 09:00:00",29.98167,16.96,TRADE
SNOWY1,"2005/03/03 09:30:00",32.02,18.72,TRADE
SNOWY1,"2005/03/03 10:00:00",23.82667,18.69,TRADE
SNOWY1,"2005/03/03 10:30:00",33.59833,18.26,TRADE
SNOWY1,"2005/03/03 11:00:00",31.88333,17.42,TRADE
SNOWY1,"2005/03/03 11:30:00",36.57333,19.36,TRADE
SNOWY1,"2005/03/03 12:00:00",31.75,19.5,TRADE
SNOWY1,"2005/03/03 12:30:00",29.555,19.5,TRADE
SNOWY1,"2005/03/03 13:00:00",27.115,19.5,TRADE
SNOWY1,"2005/03/03 13:30:00",26.63667,19.57,TRADE
SNOWY1,"2005/03/03 14:00:00",27.61167,19.51,TRADE
SNOWY1,"2005/03/03 14:30:00",25.22833,19.82,TRADE
SNOWY1,"2005/03/03 15:00:00",20.465,19.9,TRADE
SNOWY1,"2005/03/03 15:30:00",21.72667,19.93,TRADE
SNOWY1,"2005/03/03 16:00:00",29.81833,19.95,TRADE
SNOWY1,"2005/03/03 16:30:00",26.43167,19.99,TRADE
SNOWY1,"2005/03/03 17:00:00",20.53,20.09,TRADE
SNOWY1,"2005/03/03 17:30:00",23.93667,19.64,TRADE
SNOWY1,"2005/03/03 18:00:00",29.61833,17.95,TRADE
SNOWY1,"2005/03/03 18:30:00",46.73333,16.98,TRADE
SNOWY1,"2005/03/03 19:00:00",65.905,18.38,TRADE
SNOWY1,"2005/03/03 19:30:00",65.02167,19.26,TRADE
SNOWY1,"2005/03/03 20:00:00",51.89,17.55,TRADE
SNOWY1,"2005/03/03 20:30:00",64.555,16.56,TRADE
SNOWY1,"2005/03/03 21:00:00",66.57,15.65,TRADE
SNOWY1,"2005/03/03 21:30:00",59.50167,16.62,TRADE
SNOWY1,"2005/03/03 22:00:00",56.85,15.52,TRADE
SNOWY1,"2005/03/03 22:30:00",58.56833,16.75,TRADE
SNOWY1,"2005/03/03 23:00:00",46.55333,17.34,TRADE
SNOWY1,"2005/03/03 23:30:00",51.15667,19.58,TRADE
SNOWY1,"2005/03/04 00:00:00",54.46333,18.43,TRADE
SNOWY1,"2005/03/04 00:30:00",52.27,17.35,TRADE
SNOWY1,"2005/03/04 01:00:00",60.74167,16.27,TRADE
SNOWY1,"2005/03/04 01:30:00",61.95833,17.46,TRADE
SNOWY1,"2005/03/04 02:00:00",80.64667,14.97,TRADE
SNOWY1,"2005/03/04 02:30:00",96.38,14.07,TRADE
SNOWY1,"2005/03/04 03:00:00",96.55833,14.21,TRADE
SNOWY1,"2005/03/04 03:30:00",94.05,12.75,TRADE
SNOWY1,"2005/03/04 04:00:00",96.665,12.59,TRADE
SNOWY1,"2005/03/04 04:30:00",96.94,13.93,TRADE
SNOWY1,"2005/03/04 05:00:00",91.22833,15.03,TRADE
SNOWY1,"2005/03/04 05:30:00",95.66667,16.81,TRADE
SNOWY1,"2005/03/04 06:00:00",79.85667,18.55,TRADE
SNOWY1,"2005/03/04 06:30:00",38.15333,18.99,TRADE
SNOWY1,"2005/03/04 07:00:00",38.85833,20.69,TRADE
SNOWY1,"2005/03/04 07:30:00",40.99833,19.7,TRADE
SNOWY1,"2005/03/04 08:00:00",29.16,20.02,TRADE
SNOWY1,"2005/03/04 08:30:00",26.88167,20.94,TRADE
SNOWY1,"2005/03/04 09:00:00",22.57833,21,TRADE
SNOWY1,"2005/03/04 09:30:00",31.17667,20.86,TRADE
SNOWY1,"2005/03/04 10:00:00",32.88333,20.63,TRADE
SNOWY1,"2005/03/04 10:30:00",26.86833,21.38,TRADE
SNOWY1,"2005/03/04 11:00:00",35.49167,21.79,TRADE
SNOWY1,"2005/03/04 11:30:00",23.04167,21.73,TRADE
SNOWY1,"2005/03/04 12:00:00",22.84667,23.05,TRADE
SNOWY1,"2005/03/04 12:30:00",25.90333,24.53,TRADE
SNOWY1,"2005/03/04 13:00:00",28.09,24.41,TRADE
SNOWY1,"2005/03/04 13:30:00",16.58667,24.82,TRADE
SNOWY1,"2005/03/04 14:00:00",40.49167,24.59,TRADE
SNOWY1,"2005/03/04 14:30:00",30.05833,23.16,TRADE
SNOWY1,"2005/03/04 15:00:00",30.975,23.98,TRADE
SNOWY1,"2005/03/04 15:30:00",30.92167,24.02,TRADE
SNOWY1,"2005/03/04 16:00:00",27.75167,22.56,TRADE
SNOWY1,"2005/03/04 16:30:00",28.97833,19.59,TRADE
SNOWY1,"2005/03/04 17:00:00",33.62833,19.65,TRADE
SNOWY1,"2005/03/04 17:30:00",34.65167,19.55,TRADE
SNOWY1,"2005/03/04 18:00:00",36.36833,19.57,TRADE
SNOWY1,"2005/03/04 18:30:00",38.90167,19.01,TRADE
SNOWY1,"2005/03/04 19:00:00",40.03,19.33,TRADE
SNOWY1,"2005/03/04 19:30:00",41.63333,19.6,TRADE
SNOWY1,"2005/03/04 20:00:00",31.95167,18.9,TRADE
SNOWY1,"2005/03/04 20:30:00",30.50833,17.39,TRADE
SNOWY1,"2005/03/04 21:00:00",27.59667,15.66,TRADE
SNOWY1,"2005/03/04 21:30:00",33.395,18.67,TRADE
SNOWY1,"2005/03/04 22:00:00",36.21167,16.6,TRADE
SNOWY1,"2005/03/04 22:30:00",23.83167,18.75,TRADE
SNOWY1,"2005/03/04 23:00:00",26.86,19.47,TRADE
SNOWY1,"2005/03/04 23:30:00",20.80833,23.27,TRADE
SNOWY1,"2005/03/05 00:00:00",28.085,19.72,TRADE
SNOWY1,"2005/03/05 00:30:00",29.09667,18.07,TRADE
SNOWY1,"2005/03/05 01:00:00",55.12,17.35,TRADE
SNOWY1,"2005/03/05 01:30:00",103.68167,17.65,TRADE
SNOWY1,"2005/03/05 02:00:00",99.30333,14.88,TRADE
SNOWY1,"2005/03/05 02:30:00",92.505,12.51,TRADE
SNOWY1,"2005/03/05 03:00:00",93.17833,11.6,TRADE
SNOWY1,"2005/03/05 03:30:00",91.505,10.74,TRADE
SNOWY1,"2005/03/05 04:00:00",92.09,10.01,TRADE
SNOWY1,"2005/03/05 04:30:00",84.315,10.51,TRADE
SNOWY1,"2005/03/05 05:00:00",92.39333,11.39,TRADE
SNOWY1,"2005/03/05 05:30:00",98.145,14.04,TRADE
SNOWY1,"2005/03/05 06:00:00",95.18,14.23,TRADE
SNOWY1,"2005/03/05 06:30:00",97.57,14.41,TRADE
SNOWY1,"2005/03/05 07:00:00",102.66333,15.31,TRADE
SNOWY1,"2005/03/05 07:30:00",101.07833,14.94,TRADE
SNOWY1,"2005/03/05 08:00:00",101.14,15.22,TRADE
SNOWY1,"2005/03/05 08:30:00",77.88667,18.52,TRADE
SNOWY1,"2005/03/05 09:00:00",30.77167,18.41,TRADE
SNOWY1,"2005/03/05 09:30:00",34.11667,18.68,TRADE
SNOWY1,"2005/03/05 10:00:00",29.57333,18.05,TRADE
SNOWY1,"2005/03/05 10:30:00",27.48667,18.47,TRADE
SNOWY1,"2005/03/05 11:00:00",37.22333,19.3,TRADE
SNOWY1,"2005/03/05 11:30:00",27.42333,18.59,TRADE
SNOWY1,"2005/03/05 12:00:00",29.91333,18.51,TRADE
SNOWY1,"2005/03/05 12:30:00",25.68833,17.67,TRADE
SNOWY1,"2005/03/05 13:00:00",36.45833,17.58,TRADE
SNOWY1,"2005/03/05 13:30:00",42.35833,16.43,TRADE
SNOWY1,"2005/03/05 14:00:00",36.29833,16.3,TRADE
SNOWY1,"2005/03/05 14:30:00",35.57667,15.84,TRADE
SNOWY1,"2005/03/05 15:00:00",35.92333,16.48,TRADE
SNOWY1,"2005/03/05 15:30:00",25.425,16.05,TRADE
SNOWY1,"2005/03/05 16:00:00",31.07167,16.84,TRADE
SNOWY1,"2005/03/05 16:30:00",27.68167,16.65,TRADE
SNOWY1,"2005/03/05 17:00:00",36.35,16.89,TRADE
SNOWY1,"2005/03/05 17:30:00",35.255,17.55,TRADE
SNOWY1,"2005/03/05 18:00:00",33.13,16.67,TRADE
SNOWY1,"2005/03/05 18:30:00",34.45833,16.63,TRADE
SNOWY1,"2005/03/05 19:00:00",28.77,19.42,TRADE
SNOWY1,"2005/03/05 19:30:00",41.855,19.61,TRADE
SNOWY1,"2005/03/05 20:00:00",34.30667,19.66,TRADE
SNOWY1,"2005/03/05 20:30:00",32.435,17.31,TRADE
SNOWY1,"2005/03/05 21:00:00",31.91333,16.56,TRADE
SNOWY1,"2005/03/05 21:30:00",31.69833,15.24,TRADE
SNOWY1,"2005/03/05 22:00:00",36.38,15.27,TRADE
SNOWY1,"2005/03/05 22:30:00",71.24,15.72,TRADE
SNOWY1,"2005/03/05 23:00:00",97.825,15.87,TRADE
SNOWY1,"2005/03/05 23:30:00",91.66167,17.19,TRADE
SNOWY1,"2005/03/06 00:00:00",95.51667,16.78,TRADE
SNOWY1,"2005/03/06 00:30:00",97.63667,16.8,TRADE
SNOWY1,"2005/03/06 01:00:00",108.125,15.48,TRADE
SNOWY1,"2005/03/06 01:30:00",96.21333,16.73,TRADE
SNOWY1,"2005/03/06 02:00:00",95.11333,14.78,TRADE
SNOWY1,"2005/03/06 02:30:00",93.55,13.52,TRADE
SNOWY1,"2005/03/06 03:00:00",91,14.75,TRADE
SNOWY1,"2005/03/06 03:30:00",93.145,14.43,TRADE
SNOWY1,"2005/03/06 04:00:00",91.41667,11.51,TRADE
SNOWY1,"2005/03/06 04:30:00",90.56333,10.31,TRADE
SNOWY1,"2005/03/06 05:00:00",94.88,11.58,TRADE
SNOWY1,"2005/03/06 05:30:00",91.61833,11.62,TRADE
SNOWY1,"2005/03/06 06:00:00",86.88333,12.82,TRADE
SNOWY1,"2005/03/06 06:30:00",94.10667,13.54,TRADE
SNOWY1,"2005/03/06 07:00:00",95.53333,14.56,TRADE
SNOWY1,"2005/03/06 07:30:00",92.35833,14.71,TRADE
SNOWY1,"2005/03/06 08:00:00",89.43833,15.39,TRADE
SNOWY1,"2005/03/06 08:30:00",31.25833,15.82,TRADE
SNOWY1,"2005/03/06 09:00:00",20.12667,16.1,TRADE
SNOWY1,"2005/03/06 09:30:00",26.08833,16.67,TRADE
SNOWY1,"2005/03/06 10:00:00",21.09833,16.7,TRADE
SNOWY1,"2005/03/06 10:30:00",24.34167,16.62,TRADE
SNOWY1,"2005/03/06 11:00:00",23.28833,16.61,TRADE
SNOWY1,"2005/03/06 11:30:00",28.83333,16.24,TRADE
SNOWY1,"2005/03/06 12:00:00",23.63167,16.22,TRADE
SNOWY1,"2005/03/06 12:30:00",20.115,15.82,TRADE
SNOWY1,"2005/03/06 13:00:00",20.46667,15.91,TRADE
SNOWY1,"2005/03/06 13:30:00",20.89,15.95,TRADE
SNOWY1,"2005/03/06 14:00:00",23.20167,15.91,TRADE
SNOWY1,"2005/03/06 14:30:00",25.25,15.91,TRADE
SNOWY1,"2005/03/06 15:00:00",21.85,15.93,TRADE
SNOWY1,"2005/03/06 15:30:00",25.92333,15.95,TRADE
SNOWY1,"2005/03/06 16:00:00",21.905,16,TRADE
SNOWY1,"2005/03/06 16:30:00",19.05833,16.13,TRADE
SNOWY1,"2005/03/06 17:00:00",20.925,16.37,TRADE
SNOWY1,"2005/03/06 17:30:00",25.62667,16.31,TRADE
SNOWY1,"2005/03/06 18:00:00",22.62,16.13,TRADE
SNOWY1,"2005/03/06 18:30:00",21.90167,15.79,TRADE
SNOWY1,"2005/03/06 19:00:00",25.78833,17.65,TRADE
SNOWY1,"2005/03/06 19:30:00",23.66333,17.19,TRADE
SNOWY1,"2005/03/06 20:00:00",20.63333,17.42,TRADE
SNOWY1,"2005/03/06 20:30:00",19.625,16.16,TRADE
SNOWY1,"2005/03/06 21:00:00",23.54833,15.24,TRADE
SNOWY1,"2005/03/06 21:30:00",16.58167,15.53,TRADE
SNOWY1,"2005/03/06 22:00:00",30.64167,14.99,TRADE
SNOWY1,"2005/03/06 22:30:00",36.17,15.72,TRADE
SNOWY1,"2005/03/06 23:00:00",85.295,15.78,TRADE
SNOWY1,"2005/03/06 23:30:00",90.185,16.58,TRADE
SNOWY1,"2005/03/07 00:00:00",93.43667,16.48,TRADE
SNOWY1,"2005/03/07 00:30:00",90.93667,15.85,TRADE
SNOWY1,"2005/03/07 01:00:00",89.255,15.28,TRADE
SNOWY1,"2005/03/07 01:30:00",86.60167,15.53,TRADE
SNOWY1,"2005/03/07 02:00:00",92.53167,14.92,TRADE
SNOWY1,"2005/03/07 02:30:00",86.005,14.89,TRADE
SNOWY1,"2005/03/07 03:00:00",88.51833,14.51,TRADE
SNOWY1,"2005/03/07 03:30:00",91.40333,14.32,TRADE
SNOWY1,"2005/03/07 04:00:00",85.735,14.41,TRADE
SNOWY1,"2005/03/07 04:30:00",79.245,14.28,TRADE
SNOWY1,"2005/03/07 05:00:00",78.31333,15.65,TRADE
SNOWY1,"2005/03/07 05:30:00",43.29667,17.23,TRADE
SNOWY1,"2005/03/07 06:00:00",31.22333,19.05,TRADE
SNOWY1,"2005/03/07 06:30:00",40.56667,20.35,TRADE
SNOWY1,"2005/03/07 07:00:00",30.13167,20.05,TRADE
SNOWY1,"2005/03/07 07:30:00",20.48,17.93,TRADE
SNOWY1,"2005/03/07 08:00:00",11.755,18,TRADE
SNOWY1,"2005/03/07 08:30:00",20.25833,18.58,TRADE
SNOWY1,"2005/03/07 09:00:00",34.99333,19.02,TRADE
SNOWY1,"2005/03/07 09:30:00",17.56667,19.02,TRADE
SNOWY1,"2005/03/07 10:00:00",42.65167,17.98,TRADE
SNOWY1,"2005/03/07 10:30:00",40.79167,17.49,TRADE
SNOWY1,"2005/03/07 11:00:00",23.395,18.1,TRADE
SNOWY1,"2005/03/07 11:30:00",19.55167,17.7,TRADE
SNOWY1,"2005/03/07 12:00:00",16.23167,18.75,TRADE
SNOWY1,"2005/03/07 12:30:00",17.47333,19.48,TRADE
SNOWY1,"2005/03/07 13:00:00",18.77667,19.44,TRADE
SNOWY1,"2005/03/07 13:30:00",18.76333,19.58,TRADE
SNOWY1,"2005/03/07 14:00:00",17.64,19.53,TRADE
SNOWY1,"2005/03/07 14:30:00",19.63333,19.53,TRADE
SNOWY1,"2005/03/07 15:00:00",14.56333,18.57,TRADE
SNOWY1,"2005/03/07 15:30:00",30.13167,19.58,TRADE
SNOWY1,"2005/03/07 16:00:00",21.77167,19.55,TRADE
SNOWY1,"2005/03/07 16:30:00",26.98333,20.86,TRADE
SNOWY1,"2005/03/07 17:00:00",18.70167,19.95,TRADE
SNOWY1,"2005/03/07 17:30:00",18.82167,19.25,TRADE
SNOWY1,"2005/03/07 18:00:00",12.51333,17.73,TRADE
SNOWY1,"2005/03/07 18:30:00",19.72667,17.41,TRADE
SNOWY1,"2005/03/07 19:00:00",27.52,19.52,TRADE
SNOWY1,"2005/03/07 19:30:00",19.40667,20.06,TRADE
SNOWY1,"2005/03/07 20:00:00",14.23833,19.5,TRADE
SNOWY1,"2005/03/07 20:30:00",15.86167,18.99,TRADE
SNOWY1,"2005/03/07 21:00:00",10.03167,17.47,TRADE
SNOWY1,"2005/03/07 21:30:00",20.375,18.8,TRADE
SNOWY1,"2005/03/07 22:00:00",19.61167,16.61,TRADE
SNOWY1,"2005/03/07 22:30:00",24.99667,17.83,TRADE
SNOWY1,"2005/03/07 23:00:00",12.53833,17.73,TRADE
SNOWY1,"2005/03/07 23:30:00",16.21833,19.65,TRADE
SNOWY1,"2005/03/08 00:00:00",10.78833,19.5,TRADE
SNOWY1,"2005/03/08 00:30:00",21.47,18.78,TRADE
SNOWY1,"2005/03/08 01:00:00",21.13167,17.84,TRADE
SNOWY1,"2005/03/08 01:30:00",24.72833,18.37,TRADE
SNOWY1,"2005/03/08 02:00:00",46.49333,15.27,TRADE
SNOWY1,"2005/03/08 02:30:00",50.065,13.62,TRADE
SNOWY1,"2005/03/08 03:00:00",52.715,14.6,TRADE
SNOWY1,"2005/03/08 03:30:00",48.06333,14.37,TRADE
SNOWY1,"2005/03/08 04:00:00",51.215,14.54,TRADE
SNOWY1,"2005/03/08 04:30:00",50.81,14.98,TRADE
SNOWY1,"2005/03/08 05:00:00",54.30833,15.06,TRADE
SNOWY1,"2005/03/08 05:30:00",47.25,19.2,TRADE
SNOWY1,"2005/03/08 06:00:00",19.31,20,TRADE
SNOWY1,"2005/03/08 06:30:00",42.895,20.52,TRADE
SNOWY1,"2005/03/08 07:00:00",23.68333,21.04,TRADE
SNOWY1,"2005/03/08 07:30:00",15.22333,19.5,TRADE
SNOWY1,"2005/03/08 08:00:00",25.84333,19.5,TRADE
SNOWY1,"2005/03/08 08:30:00",29.85667,19.57,TRADE
SNOWY1,"2005/03/08 09:00:00",29.36333,20.14,TRADE
SNOWY1,"2005/03/08 09:30:00",18.1,20.77,TRADE
SNOWY1,"2005/03/08 10:00:00",27.37167,20.59,TRADE
SNOWY1,"2005/03/08 10:30:00",25.78667,19.6,TRADE
SNOWY1,"2005/03/08 11:00:00",23.05333,19.58,TRADE
SNOWY1,"2005/03/08 11:30:00",27.55833,19.52,TRADE
SNOWY1,"2005/03/08 12:00:00",18.63,19.6,TRADE
SNOWY1,"2005/03/08 12:30:00",27.80667,19.77,TRADE
SNOWY1,"2005/03/08 13:00:00",16.905,19.54,TRADE
SNOWY1,"2005/03/08 13:30:00",19.31,20.11,TRADE
SNOWY1,"2005/03/08 14:00:00",21.77167,20.46,TRADE
SNOWY1,"2005/03/08 14:30:00",21.93667,19.94,TRADE
SNOWY1,"2005/03/08 15:00:00",33.97667,20.7,TRADE
SNOWY1,"2005/03/08 15:30:00",29.05167,20.11,TRADE
SNOWY1,"2005/03/08 16:00:00",18.88,20.52,TRADE
SNOWY1,"2005/03/08 16:30:00",16.73167,20.31,TRADE
SNOWY1,"2005/03/08 17:00:00",22.835,19.31,TRADE
SNOWY1,"2005/03/08 17:30:00",8.50167,17.99,TRADE
SNOWY1,"2005/03/08 18:00:00",20.36167,17.33,TRADE
SNOWY1,"2005/03/08 18:30:00",20.07167,17.22,TRADE
SNOWY1,"2005/03/08 19:00:00",22.45333,19.01,TRADE
SNOWY1,"2005/03/08 19:30:00",35.10333,19.5,TRADE
SNOWY1,"2005/03/08 20:00:00",11.655,18.35,TRADE
SNOWY1,"2005/03/08 20:30:00",16.60667,17.15,TRADE
SNOWY1,"2005/03/08 21:00:00",18.14833,16.88,TRADE
SNOWY1,"2005/03/08 21:30:00",27.04,18.63,TRADE
SNOWY1,"2005/03/08 22:00:00",15.51667,16.21,TRADE
SNOWY1,"2005/03/08 22:30:00",18.48,18.82,TRADE
SNOWY1,"2005/03/08 23:00:00",17.815,19.09,TRADE
SNOWY1,"2005/03/08 23:30:00",27.805,20.39,TRADE
SNOWY1,"2005/03/09 00:00:00",24.04,19.47,TRADE
SNOWY1,"2005/03/09 00:30:00",10.33833,18.84,TRADE
SNOWY1,"2005/03/09 01:00:00",31.65667,17.25,TRADE
SNOWY1,"2005/03/09 01:30:00",50.54667,17.19,TRADE
SNOWY1,"2005/03/09 02:00:00",84.47,15.1,TRADE
SNOWY1,"2005/03/09 02:30:00",88.025,13.72,TRADE
SNOWY1,"2005/03/09 03:00:00",85.40167,14.37,TRADE
SNOWY1,"2005/03/09 03:30:00",90.68833,14.9,TRADE
SNOWY1,"2005/03/09 04:00:00",88.99333,14.88,TRADE
SNOWY1,"2005/03/09 04:30:00",86.855,14.47,TRADE
SNOWY1,"2005/03/09 05:00:00",84.38,15.14,TRADE
SNOWY1,"2005/03/09 05:30:00",35.07,18.73,TRADE
SNOWY1,"2005/03/09 06:00:00",22.78333,20.46,TRADE
SNOWY1,"2005/03/09 06:30:00",23.18,21.13,TRADE
SNOWY1,"2005/03/09 07:00:00",26.91667,21.23,TRADE
SNOWY1,"2005/03/09 07:30:00",18.62833,19.45,TRADE
SNOWY1,"2005/03/09 08:00:00",16.04,20.56,TRADE
SNOWY1,"2005/03/09 08:30:00",11.67167,21.09,TRADE
SNOWY1,"2005/03/09 09:00:00",22.72,20.56,TRADE
SNOWY1,"2005/03/09 09:30:00",31.68833,20.34,TRADE
SNOWY1,"2005/03/09 10:00:00",16.47833,20.45,TRADE
SNOWY1,"2005/03/09 10:30:00",20.80833,20.18,TRADE
SNOWY1,"2005/03/09 11:00:00",14.90333,20.41,TRADE
SNOWY1,"2005/03/09 11:30:00",25.025,19.85,TRADE
SNOWY1,"2005/03/09 12:00:00",11.725,20.31,TRADE
SNOWY1,"2005/03/09 12:30:00",21.00333,20.49,TRADE
SNOWY1,"2005/03/09 13:00:00",10.51333,20.32,TRADE
SNOWY1,"2005/03/09 13:30:00",14.40167,20.39,TRADE
SNOWY1,"2005/03/09 14:00:00",15.36,20.21,TRADE
SNOWY1,"2005/03/09 14:30:00",13.10333,20.52,TRADE
SNOWY1,"2005/03/09 15:00:00",21.40167,22.25,TRADE
SNOWY1,"2005/03/09 15:30:00",22.03667,21.97,TRADE
SNOWY1,"2005/03/09 16:00:00",17.05333,22,TRADE
SNOWY1,"2005/03/09 16:30:00",20.36167,21.96,TRADE
SNOWY1,"2005/03/09 17:00:00",31.25167,20.7,TRADE
SNOWY1,"2005/03/09 17:30:00",20.66,19.99,TRADE
SNOWY1,"2005/03/09 18:00:00",19.67667,19.52,TRADE
SNOWY1,"2005/03/09 18:30:00",16.27833,19.52,TRADE
SNOWY1,"2005/03/09 19:00:00",26.51333,19.72,TRADE
SNOWY1,"2005/03/09 19:30:00",25.00167,19.92,TRADE
SNOWY1,"2005/03/09 20:00:00",18.33833,19.29,TRADE
SNOWY1,"2005/03/09 20:30:00",17.93,17.69,TRADE
SNOWY1,"2005/03/09 21:00:00",16.84,16.79,TRADE
SNOWY1,"2005/03/09 21:30:00",16.275,19.02,TRADE
SNOWY1,"2005/03/09 22:00:00",21.48667,16.4,TRADE
SNOWY1,"2005/03/09 22:30:00",22.87833,17.6,TRADE
SNOWY1,"2005/03/09 23:00:00",10.55833,18.29,TRADE
SNOWY1,"2005/03/09 23:30:00",12.61833,20.36,TRADE
SNOWY1,"2005/03/10 00:00:00",21.00667,18.57,TRADE
SNOWY1,"2005/03/10 00:30:00",20.485,17.83,TRADE
SNOWY1,"2005/03/10 01:00:00",16.16,16.57,TRADE
SNOWY1,"2005/03/10 01:30:00",22.82167,16.8,TRADE
SNOWY1,"2005/03/10 02:00:00",46.155,14.9,TRADE
SNOWY1,"2005/03/10 02:30:00",88.165,14.87,TRADE
SNOWY1,"2005/03/10 03:00:00",82.74833,14.99,TRADE
SNOWY1,"2005/03/10 03:30:00",86.65667,14.92,TRADE
SNOWY1,"2005/03/10 04:00:00",89.35667,14.78,TRADE
SNOWY1,"2005/03/10 04:30:00",76.25333,14.98,TRADE
SNOWY1,"2005/03/10 05:00:00",85.98167,15.69,TRADE
SNOWY1,"2005/03/10 05:30:00",86.475,19.65,TRADE
SNOWY1,"2005/03/10 06:00:00",20.52833,21.3,TRADE
SNOWY1,"2005/03/10 06:30:00",14.66,23.26,TRADE
SNOWY1,"2005/03/10 07:00:00",19.405,24.21,TRADE
SNOWY1,"2005/03/10 07:30:00",18.04,19.52,TRADE
SNOWY1,"2005/03/10 08:00:00",29.58667,20.01,TRADE
SNOWY1,"2005/03/10 08:30:00",22.69667,20.3,TRADE
SNOWY1,"2005/03/10 09:00:00",14.83833,20.69,TRADE
SNOWY1,"2005/03/10 09:30:00",17.44333,20.76,TRADE
SNOWY1,"2005/03/10 10:00:00",22.71333,20.69,TRADE
SNOWY1,"2005/03/10 10:30:00",14.67833,21,TRADE
SNOWY1,"2005/03/10 11:00:00",7.01667,20.92,TRADE
SNOWY1,"2005/03/10 11:30:00",13.58333,21.63,TRADE
SNOWY1,"2005/03/10 12:00:00",5.97,20.66,TRADE
SNOWY1,"2005/03/10 12:30:00",12.37667,21.03,TRADE
SNOWY1,"2005/03/10 13:00:00",13.23,21.69,TRADE
SNOWY1,"2005/03/10 13:30:00",9.26167,22.69,TRADE
SNOWY1,"2005/03/10 14:00:00",8.77333,23.57,TRADE
SNOWY1,"2005/03/10 14:30:00",7.60167,22.99,TRADE
SNOWY1,"2005/03/10 15:00:00",17.06667,22.38,TRADE
SNOWY1,"2005/03/10 15:30:00",13.025,21.36,TRADE
SNOWY1,"2005/03/10 16:00:00",6.25,21.05,TRADE
SNOWY1,"2005/03/10 16:30:00",5.98333,20.35,TRADE
SNOWY1,"2005/03/10 17:00:00",12.92167,20.49,TRADE
SNOWY1,"2005/03/10 17:30:00",23.005,19.52,TRADE
SNOWY1,"2005/03/10 18:00:00",7.60333,18.05,TRADE
SNOWY1,"2005/03/10 18:30:00",10.16167,17.37,TRADE
SNOWY1,"2005/03/10 19:00:00",14.46167,18.95,TRADE
SNOWY1,"2005/03/10 19:30:00",19.9,19.78,TRADE
SNOWY1,"2005/03/10 20:00:00",17.49333,19.04,TRADE
SNOWY1,"2005/03/10 20:30:00",13.00167,17.54,TRADE
SNOWY1,"2005/03/10 21:00:00",11.05167,16.71,TRADE
SNOWY1,"2005/03/10 21:30:00",15.85,17.99,TRADE
SNOWY1,"2005/03/10 22:00:00",19.20333,15.98,TRADE
SNOWY1,"2005/03/10 22:30:00",5.13833,17.92,TRADE
SNOWY1,"2005/03/10 23:00:00",15.735,18.04,TRADE
SNOWY1,"2005/03/10 23:30:00",9.31167,19.96,TRADE
SNOWY1,"2005/03/11 00:00:00",14.99167,19.33,TRADE
SNOWY1,"2005/03/11 00:30:00",12.41167,18.84,TRADE
SNOWY1,"2005/03/11 01:00:00",13.75833,16.56,TRADE
SNOWY1,"2005/03/11 01:30:00",67.89167,17.71,TRADE
SNOWY1,"2005/03/11 02:00:00",86.88,15.24,TRADE
SNOWY1,"2005/03/11 02:30:00",85.92833,13.83,TRADE
SNOWY1,"2005/03/11 03:00:00",86.59333,13.27,TRADE
SNOWY1,"2005/03/11 03:30:00",84.175,13.5,TRADE
SNOWY1,"2005/03/11 04:00:00",80.84,14.6,TRADE
SNOWY1,"2005/03/11 04:30:00",77.12333,14.98,TRADE
SNOWY1,"2005/03/11 05:00:00",81.24,15.32,TRADE
SNOWY1,"2005/03/11 05:30:00",65.25167,19.29,TRADE
SNOWY1,"2005/03/11 06:00:00",24.465,21.33,TRADE
SNOWY1,"2005/03/11 06:30:00",28.025,21.83,TRADE
SNOWY1,"2005/03/11 07:00:00",28.65,22.03,TRADE
SNOWY1,"2005/03/11 07:30:00",27.815,17.94,TRADE
SNOWY1,"2005/03/11 08:00:00",23.175,18.32,TRADE
SNOWY1,"2005/03/11 08:30:00",21.23,19.23,TRADE
SNOWY1,"2005/03/11 09:00:00",13.86667,19.58,TRADE
SNOWY1,"2005/03/11 09:30:00",23.13667,19.69,TRADE
SNOWY1,"2005/03/11 10:00:00",23,19.63,TRADE
SNOWY1,"2005/03/11 10:30:00",19.30833,19.41,TRADE
SNOWY1,"2005/03/11 11:00:00",17.92833,19.5,TRADE
SNOWY1,"2005/03/11 11:30:00",30.08833,19.5,TRADE
SNOWY1,"2005/03/11 12:00:00",21.24333,20.07,TRADE
SNOWY1,"2005/03/11 12:30:00",21.46667,20.25,TRADE
SNOWY1,"2005/03/11 13:00:00",20.90667,20.28,TRADE
SNOWY1,"2005/03/11 13:30:00",22.92833,20.81,TRADE
SNOWY1,"2005/03/11 14:00:00",15.39667,20.96,TRADE
SNOWY1,"2005/03/11 14:30:00",28.31333,21.31,TRADE
SNOWY1,"2005/03/11 15:00:00",18.47667,21.03,TRADE
SNOWY1,"2005/03/11 15:30:00",23.26833,20.88,TRADE
SNOWY1,"2005/03/11 16:00:00",16.82,21.77,TRADE
SNOWY1,"2005/03/11 16:30:00",13.665,21.32,TRADE
SNOWY1,"2005/03/11 17:00:00",33.06167,20.41,TRADE
SNOWY1,"2005/03/11 17:30:00",18.11,18.9,TRADE
SNOWY1,"2005/03/11 18:00:00",18.315,17.6,TRADE
SNOWY1,"2005/03/11 18:30:00",19.22667,17.25,TRADE
SNOWY1,"2005/03/11 19:00:00",18.82167,17.49,TRADE
SNOWY1,"2005/03/11 19:30:00",26.34667,17.52,TRADE
SNOWY1,"2005/03/11 20:00:00",20.49333,17.23,TRADE
SNOWY1,"2005/03/11 20:30:00",20.46,16.64,TRADE
SNOWY1,"2005/03/11 21:00:00",14.035,16.41,TRADE
SNOWY1,"2005/03/11 21:30:00",16.61333,16.78,TRADE
SNOWY1,"2005/03/11 22:00:00",15.665,15.59,TRADE
SNOWY1,"2005/03/11 22:30:00",14.095,18.55,TRADE
SNOWY1,"2005/03/11 23:00:00",18.69333,18.25,TRADE
SNOWY1,"2005/03/11 23:30:00",16.20167,20.12,TRADE
SNOWY1,"2005/03/12 00:00:00",16.27833,18.82,TRADE
SNOWY1,"2005/03/12 00:30:00",36.59667,17.44,TRADE
SNOWY1,"2005/03/12 01:00:00",76.805,15.98,TRADE
SNOWY1,"2005/03/12 01:30:00",84.03167,15.94,TRADE
SNOWY1,"2005/03/12 02:00:00",88.45833,14.42,TRADE
SNOWY1,"2005/03/12 02:30:00",86.34833,12.55,TRADE
SNOWY1,"2005/03/12 03:00:00",82.34167,12.41,TRADE
SNOWY1,"2005/03/12 03:30:00",90.27667,12.54,TRADE
SNOWY1,"2005/03/12 04:00:00",92.64333,12.35,TRADE
SNOWY1,"2005/03/12 04:30:00",85.47667,14.22,TRADE
SNOWY1,"2005/03/12 05:00:00",83.23333,14.34,TRADE
SNOWY1,"2005/03/12 05:30:00",85.985,15.04,TRADE
SNOWY1,"2005/03/12 06:00:00",87.25333,15.08,TRADE
SNOWY1,"2005/03/12 06:30:00",92.665,15.03,TRADE
SNOWY1,"2005/03/12 07:00:00",90.36,15.59,TRADE
SNOWY1,"2005/03/12 07:30:00",117.77833,15.74,TRADE
SNOWY1,"2005/03/12 08:00:00",99.58667,17.05,TRADE
SNOWY1,"2005/03/12 08:30:00",95.63167,19.12,TRADE
SNOWY1,"2005/03/12 09:00:00",25.995,19.32,TRADE
SNOWY1,"2005/03/12 09:30:00",28.785,19.66,TRADE
SNOWY1,"2005/03/12 10:00:00",27.62333,19.7,TRADE
SNOWY1,"2005/03/12 10:30:00",35.01167,20.03,TRADE
SNOWY1,"2005/03/12 11:00:00",25.02,20.96,TRADE
SNOWY1,"2005/03/12 11:30:00",30.39167,21.02,TRADE
SNOWY1,"2005/03/12 12:00:00",32.61833,21.51,TRADE
SNOWY1,"2005/03/12 12:30:00",21.23333,20.63,TRADE
SNOWY1,"2005/03/12 13:00:00",27.49667,21.45,TRADE
SNOWY1,"2005/03/12 13:30:00",28.94,21.08,TRADE
SNOWY1,"2005/03/12 14:00:00",29.73167,21.91,TRADE
SNOWY1,"2005/03/12 14:30:00",27.925,22.3,TRADE
SNOWY1,"2005/03/12 15:00:00",18.67167,23.25,TRADE
SNOWY1,"2005/03/12 15:30:00",33.05,25.15,TRADE
SNOWY1,"2005/03/12 16:00:00",31.6,24.31,TRADE
SNOWY1,"2005/03/12 16:30:00",19.82333,22.06,TRADE
SNOWY1,"2005/03/12 17:00:00",12.65167,22.07,TRADE
SNOWY1,"2005/03/12 17:30:00",26.98167,22.27,TRADE
SNOWY1,"2005/03/12 18:00:00",23.47667,20.98,TRADE
SNOWY1,"2005/03/12 18:30:00",14.29167,20.07,TRADE
SNOWY1,"2005/03/12 19:00:00",14.11333,20.01,TRADE
SNOWY1,"2005/03/12 19:30:00",10.745,21.23,TRADE
SNOWY1,"2005/03/12 20:00:00",24.15667,19.88,TRADE
SNOWY1,"2005/03/12 20:30:00",25.16,18.69,TRADE
SNOWY1,"2005/03/12 21:00:00",15.09833,17.99,TRADE
SNOWY1,"2005/03/12 21:30:00",51.18333,18.14,TRADE
SNOWY1,"2005/03/12 22:00:00",54.74667,17.54,TRADE
SNOWY1,"2005/03/12 22:30:00",51.72333,19.17,TRADE
SNOWY1,"2005/03/12 23:00:00",54.13667,18.01,TRADE
SNOWY1,"2005/03/12 23:30:00",24.98833,19.92,TRADE
SNOWY1,"2005/03/13 00:00:00",22.68,17.79,TRADE
SNOWY1,"2005/03/13 00:30:00",69.56667,16.7,TRADE
SNOWY1,"2005/03/13 01:00:00",85.165,15.64,TRADE
SNOWY1,"2005/03/13 01:30:00",87.29167,16.34,TRADE
SNOWY1,"2005/03/13 02:00:00",81.405,15.09,TRADE
SNOWY1,"2005/03/13 02:30:00",83.85667,15.07,TRADE
SNOWY1,"2005/03/13 03:00:00",82.75333,14.8,TRADE
SNOWY1,"2005/03/13 03:30:00",79.20833,14.35,TRADE
SNOWY1,"2005/03/13 04:00:00",79.60167,14.3,TRADE
SNOWY1,"2005/03/13 04:30:00",78.26167,14.26,TRADE
SNOWY1,"2005/03/13 05:00:00",75.25833,14.19,TRADE
SNOWY1,"2005/03/13 05:30:00",79.12167,14.53,TRADE
SNOWY1,"2005/03/13 06:00:00",79.64167,14.95,TRADE
SNOWY1,"2005/03/13 06:30:00",95.81333,13.21,TRADE
SNOWY1,"2005/03/13 07:00:00",85.59833,14.84,TRADE
SNOWY1,"2005/03/13 07:30:00",88.14,15.04,TRADE
SNOWY1,"2005/03/13 08:00:00",84.48167,15.41,TRADE
SNOWY1,"2005/03/13 08:30:00",83.54,15.77,TRADE
SNOWY1,"2005/03/13 09:00:00",79.24833,16.17,TRADE
SNOWY1,"2005/03/13 09:30:00",79.66333,16.86,TRADE
SNOWY1,"2005/03/13 10:00:00",57.86667,18.28,TRADE
SNOWY1,"2005/03/13 10:30:00",26.30833,18.94,TRADE
SNOWY1,"2005/03/13 11:00:00",19.195,19.5,TRADE
SNOWY1,"2005/03/13 11:30:00",22.80167,19.79,TRADE
SNOWY1,"2005/03/13 12:00:00",20.085,20.68,TRADE
SNOWY1,"2005/03/13 12:30:00",20.41333,21.25,TRADE
SNOWY1,"2005/03/13 13:00:00",21.28333,21.67,TRADE
SNOWY1,"2005/03/13 13:30:00",35.8,22.32,TRADE
SNOWY1,"2005/03/13 14:00:00",18.51,21.9,TRADE
SNOWY1,"2005/03/13 14:30:00",11.645,21.03,TRADE
SNOWY1,"2005/03/13 15:00:00",19.58333,21.86,TRADE
SNOWY1,"2005/03/13 15:30:00",16.91667,22.55,TRADE
SNOWY1,"2005/03/13 16:00:00",14.49,24.39,TRADE
SNOWY1,"2005/03/13 16:30:00",18.38167,23.37,TRADE
SNOWY1,"2005/03/13 17:00:00",17.19,24.8,TRADE
SNOWY1,"2005/03/13 17:30:00",16.10833,25.7,TRADE
SNOWY1,"2005/03/13 18:00:00",14.265,22.98,TRADE
SNOWY1,"2005/03/13 18:30:00",13.12333,20.15,TRADE
SNOWY1,"2005/03/13 19:00:00",17.54167,23.57,TRADE
SNOWY1,"2005/03/13 19:30:00",19.215,22.66,TRADE
SNOWY1,"2005/03/13 20:00:00",17.21833,20.58,TRADE
SNOWY1,"2005/03/13 20:30:00",18.91667,19.57,TRADE
SNOWY1,"2005/03/13 21:00:00",20.515,17.58,TRADE
SNOWY1,"2005/03/13 21:30:00",36.42333,17.22,TRADE
SNOWY1,"2005/03/13 22:00:00",54.19667,16.34,TRADE
SNOWY1,"2005/03/13 22:30:00",51.58167,17.3,TRADE
SNOWY1,"2005/03/13 23:00:00",74.03833,16.89,TRADE
SNOWY1,"2005/03/13 23:30:00",81.09333,17.57,TRADE
SNOWY1,"2005/03/14 00:00:00",82.00667,16.9,TRADE
SNOWY1,"2005/03/14 00:30:00",75.80667,16.41,TRADE
SNOWY1,"2005/03/14 01:00:00",82.755,15.98,TRADE
SNOWY1,"2005/03/14 01:30:00",81.875,16.37,TRADE
SNOWY1,"2005/03/14 02:00:00",79.075,15.31,TRADE
SNOWY1,"2005/03/14 02:30:00",79.33167,14.69,TRADE
SNOWY1,"2005/03/14 03:00:00",82.24,14.35,TRADE
SNOWY1,"2005/03/14 03:30:00",77.34667,14.32,TRADE
SNOWY1,"2005/03/14 04:00:00",78.72833,14.65,TRADE
SNOWY1,"2005/03/14 04:30:00",83.28333,14.74,TRADE
SNOWY1,"2005/03/14 05:00:00",78.89333,15.13,TRADE
SNOWY1,"2005/03/14 05:30:00",81.76167,16.05,TRADE
SNOWY1,"2005/03/14 06:00:00",85.71667,16.37,TRADE
SNOWY1,"2005/03/14 06:30:00",57.97833,16.61,TRADE
SNOWY1,"2005/03/14 07:00:00",17.42833,15.63,TRADE
SNOWY1,"2005/03/14 07:30:00",16.91833,14.28,TRADE
SNOWY1,"2005/03/14 08:00:00",10.575,15.17,TRADE
SNOWY1,"2005/03/14 08:30:00",14.71167,17.84,TRADE
SNOWY1,"2005/03/14 09:00:00",17.26833,19.29,TRADE
SNOWY1,"2005/03/14 09:30:00",17.9,19.5,TRADE
SNOWY1,"2005/03/14 10:00:00",9.75,19.5,TRADE
SNOWY1,"2005/03/14 10:30:00",13.81833,19.52,TRADE
SNOWY1,"2005/03/14 11:00:00",19.275,19.55,TRADE
SNOWY1,"2005/03/14 11:30:00",16.63,20.07,TRADE
SNOWY1,"2005/03/14 12:00:00",26.12667,21.15,TRADE
SNOWY1,"2005/03/14 12:30:00",10.88667,23.69,TRADE
SNOWY1,"2005/03/14 13:00:00",17.91667,25.56,TRADE
SNOWY1,"2005/03/14 13:30:00",20.73333,28.18,TRADE
SNOWY1,"2005/03/14 14:00:00",19.83333,31.07,TRADE
SNOWY1,"2005/03/14 14:30:00",13.805,31.86,TRADE
SNOWY1,"2005/03/14 15:00:00",14.325,31.62,TRADE
SNOWY1,"2005/03/14 15:30:00",14.43833,30.47,TRADE
SNOWY1,"2005/03/14 16:00:00",4.885,32.61,TRADE
SNOWY1,"2005/03/14 16:30:00",11.90667,30.99,TRADE
SNOWY1,"2005/03/14 17:00:00",15.23167,27.93,TRADE
SNOWY1,"2005/03/14 17:30:00",19.13167,23.53,TRADE
SNOWY1,"2005/03/14 18:00:00",16.135,20.59,TRADE
SNOWY1,"2005/03/14 18:30:00",10.73333,19.5,TRADE
SNOWY1,"2005/03/14 19:00:00",19.59833,19.51,TRADE
SNOWY1,"2005/03/14 19:30:00",10.59667,19.64,TRADE
SNOWY1,"2005/03/14 20:00:00",9.07333,18.25,TRADE
SNOWY1,"2005/03/14 20:30:00",12.44333,16.03,TRADE
SNOWY1,"2005/03/14 21:00:00",5.85333,14.97,TRADE
SNOWY1,"2005/03/14 21:30:00",12.92167,17.37,TRADE
SNOWY1,"2005/03/14 22:00:00",18.105,15.53,TRADE
SNOWY1,"2005/03/14 22:30:00",17.92167,15.97,TRADE
SNOWY1,"2005/03/14 23:00:00",9.46667,16.94,TRADE
SNOWY1,"2005/03/14 23:30:00",12.99,19.61,TRADE
SNOWY1,"2005/03/15 00:00:00",16.23,18.52,TRADE
SNOWY1,"2005/03/15 00:30:00",18.63167,17.07,TRADE
SNOWY1,"2005/03/15 01:00:00",60.73833,15.54,TRADE
SNOWY1,"2005/03/15 01:30:00",81.03833,16.78,TRADE
SNOWY1,"2005/03/15 02:00:00",87.91167,15.66,TRADE
SNOWY1,"2005/03/15 02:30:00",81.62833,15.07,TRADE
SNOWY1,"2005/03/15 03:00:00",81.77667,14.91,TRADE
SNOWY1,"2005/03/15 03:30:00",82.10833,14.48,TRADE
SNOWY1,"2005/03/15 04:00:00",81.47833,14.72,TRADE
SNOWY1,"2005/03/15 04:30:00",77.835,14.92,TRADE
SNOWY1,"2005/03/15 05:00:00",79.58167,15.56,TRADE
SNOWY1,"2005/03/15 05:30:00",65.82,17.64,TRADE
SNOWY1,"2005/03/15 06:00:00",11.22,20.07,TRADE
SNOWY1,"2005/03/15 06:30:00",12.48667,21.23,TRADE
SNOWY1,"2005/03/15 07:00:00",26.53,24.23,TRADE
SNOWY1,"2005/03/15 07:30:00",28.52167,20.4,TRADE
SNOWY1,"2005/03/15 08:00:00",12.69833,21.36,TRADE
SNOWY1,"2005/03/15 08:30:00",13.35,22.1,TRADE
SNOWY1,"2005/03/15 09:00:00",19.78333,23.65,TRADE
SNOWY1,"2005/03/15 09:30:00",14.96333,26.23,TRADE
SNOWY1,"2005/03/15 10:00:00",15.63,26.5,TRADE
SNOWY1,"2005/03/15 10:30:00",13.25,26.2,TRADE
SNOWY1,"2005/03/15 11:00:00",21.405,26.5,TRADE
SNOWY1,"2005/03/15 11:30:00",13.53667,26.5,TRADE
SNOWY1,"2005/03/15 12:00:00",17.60667,26.68,TRADE
SNOWY1,"2005/03/15 12:30:00",13.36667,27.99,TRADE
SNOWY1,"2005/03/15 13:00:00",15.62667,31.75,TRADE
SNOWY1,"2005/03/15 13:30:00",17.785,32.49,TRADE
SNOWY1,"2005/03/15 14:00:00",19.11,32.81,TRADE
SNOWY1,"2005/03/15 14:30:00",19,30.13,TRADE
SNOWY1,"2005/03/15 15:00:00",15.05333,34.37,TRADE
SNOWY1,"2005/03/15 15:30:00",25.67333,35.18,TRADE
SNOWY1,"2005/03/15 16:00:00",21.45167,35.12,TRADE
SNOWY1,"2005/03/15 16:30:00",20.03667,35.1,TRADE
SNOWY1,"2005/03/15 17:00:00",11.05,34.98,TRADE
SNOWY1,"2005/03/15 17:30:00",27.54333,28.21,TRADE
SNOWY1,"2005/03/15 18:00:00",21.34,25,TRADE
SNOWY1,"2005/03/15 18:30:00",24.72333,20.58,TRADE
SNOWY1,"2005/03/15 19:00:00",27.145,22.07,TRADE
SNOWY1,"2005/03/15 19:30:00",15.99,22.41,TRADE
SNOWY1,"2005/03/15 20:00:00",17.54667,19.65,TRADE
SNOWY1,"2005/03/15 20:30:00",16.32833,19.05,TRADE
SNOWY1,"2005/03/15 21:00:00",15.985,17.02,TRADE
SNOWY1,"2005/03/15 21:30:00",17.16,19.31,TRADE
SNOWY1,"2005/03/15 22:00:00",16,17.44,TRADE
SNOWY1,"2005/03/15 22:30:00",20.86167,18.62,TRADE
SNOWY1,"2005/03/15 23:00:00",10.21667,18.26,TRADE
SNOWY1,"2005/03/15 23:30:00",21.40167,19.93,TRADE
SNOWY1,"2005/03/16 00:00:00",8.76,19.09,TRADE
SNOWY1,"2005/03/16 00:30:00",9.77,18.52,TRADE
SNOWY1,"2005/03/16 01:00:00",24.37,17.33,TRADE
SNOWY1,"2005/03/16 01:30:00",56.73667,18.05,TRADE
SNOWY1,"2005/03/16 02:00:00",68.79,15.72,TRADE
SNOWY1,"2005/03/16 02:30:00",86.95667,14.25,TRADE
SNOWY1,"2005/03/16 03:00:00",80.575,13.43,TRADE
SNOWY1,"2005/03/16 03:30:00",83.695,14.41,TRADE
SNOWY1,"2005/03/16 04:00:00",83.92,14.62,TRADE
SNOWY1,"2005/03/16 04:30:00",84.75,15.1,TRADE
SNOWY1,"2005/03/16 05:00:00",86.21667,16.81,TRADE
SNOWY1,"2005/03/16 05:30:00",37.46667,22.92,TRADE
SNOWY1,"2005/03/16 06:00:00",12.185,22.25,TRADE
SNOWY1,"2005/03/16 06:30:00",17.13333,22.86,TRADE
SNOWY1,"2005/03/16 07:00:00",19.17,25.97,TRADE
SNOWY1,"2005/03/16 07:30:00",14.32,20.2,TRADE
SNOWY1,"2005/03/16 08:00:00",19.01,20.86,TRADE
SNOWY1,"2005/03/16 08:30:00",11.55333,21.77,TRADE
SNOWY1,"2005/03/16 09:00:00",11.9,22,TRADE
SNOWY1,"2005/03/16 09:30:00",8.69667,23.7,TRADE
SNOWY1,"2005/03/16 10:00:00",13.47833,24.6,TRADE
SNOWY1,"2005/03/16 10:30:00",12.255,22.52,TRADE
SNOWY1,"2005/03/16 11:00:00",17.58667,25.81,TRADE
SNOWY1,"2005/03/16 11:30:00",19.735,24.82,TRADE
SNOWY1,"2005/03/16 12:00:00",16.94833,22.05,TRADE
SNOWY1,"2005/03/16 12:30:00",8.615,22.66,TRADE
SNOWY1,"2005/03/16 13:00:00",13.975,25.01,TRADE
SNOWY1,"2005/03/16 13:30:00",15.32333,23.28,TRADE
SNOWY1,"2005/03/16 14:00:00",33.06333,22.48,TRADE
SNOWY1,"2005/03/16 14:30:00",18.35167,21.57,TRADE
SNOWY1,"2005/03/16 15:00:00",10.53333,20.19,TRADE
SNOWY1,"2005/03/16 15:30:00",16.91667,19.52,TRADE
SNOWY1,"2005/03/16 16:00:00",13.92333,19.6,TRADE
SNOWY1,"2005/03/16 16:30:00",17.8,19.6,TRADE
SNOWY1,"2005/03/16 17:00:00",16.245,19.26,TRADE
SNOWY1,"2005/03/16 17:30:00",25.49833,17.83,TRADE
SNOWY1,"2005/03/16 18:00:00",18.67833,17.14,TRADE
SNOWY1,"2005/03/16 18:30:00",19.07333,18.02,TRADE
SNOWY1,"2005/03/16 19:00:00",23.215,19.5,TRADE
SNOWY1,"2005/03/16 19:30:00",27.30167,19.08,TRADE
SNOWY1,"2005/03/16 20:00:00",24.28167,17.84,TRADE
SNOWY1,"2005/03/16 20:30:00",18.70667,16.79,TRADE
SNOWY1,"2005/03/16 21:00:00",19.77,15.89,TRADE
SNOWY1,"2005/03/16 21:30:00",19.34333,17.72,TRADE
SNOWY1,"2005/03/16 22:00:00",23.58333,16.25,TRADE
SNOWY1,"2005/03/16 22:30:00",20.81667,17.34,TRADE
SNOWY1,"2005/03/16 23:00:00",8.29,16.94,TRADE
SNOWY1,"2005/03/16 23:30:00",20.80167,19.59,TRADE
SNOWY1,"2005/03/17 00:00:00",16.7,17.51,TRADE
SNOWY1,"2005/03/17 00:30:00",36.54667,16.91,TRADE
SNOWY1,"2005/03/17 01:00:00",49.72333,16.75,TRADE
SNOWY1,"2005/03/17 01:30:00",52.80167,17.36,TRADE
SNOWY1,"2005/03/17 02:00:00",53.7,16.31,TRADE
SNOWY1,"2005/03/17 02:30:00",50.66833,14.98,TRADE
SNOWY1,"2005/03/17 03:00:00",49.46833,14.35,TRADE
SNOWY1,"2005/03/17 03:30:00",47.17167,14.63,TRADE
SNOWY1,"2005/03/17 04:00:00",43.725,14.57,TRADE
SNOWY1,"2005/03/17 04:30:00",43.02167,14.86,TRADE
SNOWY1,"2005/03/17 05:00:00",46.6,16.24,TRADE
SNOWY1,"2005/03/17 05:30:00",28.43667,19.33,TRADE
SNOWY1,"2005/03/17 06:00:00",17.12667,22.46,TRADE
SNOWY1,"2005/03/17 06:30:00",22.30833,23.19,TRADE
SNOWY1,"2005/03/17 07:00:00",27.23333,25.69,TRADE
SNOWY1,"2005/03/17 07:30:00",9.99,19.43,TRADE
SNOWY1,"2005/03/17 08:00:00",18.7,19.5,TRADE
SNOWY1,"2005/03/17 08:30:00",9.76333,19.55,TRADE
SNOWY1,"2005/03/17 09:00:00",12.53667,19.52,TRADE
SNOWY1,"2005/03/17 09:30:00",42.99833,19.6,TRADE
SNOWY1,"2005/03/17 10:00:00",18.87667,17.43,TRADE
SNOWY1,"2005/03/17 10:30:00",14.49167,17.14,TRADE
SNOWY1,"2005/03/17 11:00:00",18.65167,17.14,TRADE
SNOWY1,"2005/03/17 11:30:00",25.36,18.5,TRADE
SNOWY1,"2005/03/17 12:00:00",18.09333,17.86,TRADE
SNOWY1,"2005/03/17 12:30:00",21.12167,19.38,TRADE
SNOWY1,"2005/03/17 13:00:00",15.17167,20.63,TRADE
SNOWY1,"2005/03/17 13:30:00",13.75667,21.07,TRADE
SNOWY1,"2005/03/17 14:00:00",18.13333,20.51,TRADE
SNOWY1,"2005/03/17 14:30:00",7.95667,19.6,TRADE
SNOWY1,"2005/03/17 15:00:00",9.89,19.55,TRADE
SNOWY1,"2005/03/17 15:30:00",10.55,19.68,TRADE
SNOWY1,"2005/03/17 16:00:00",16.48167,19.6,TRADE
SNOWY1,"2005/03/17 16:30:00",12,21.65,TRADE
SNOWY1,"2005/03/17 17:00:00",15.60333,20.45,TRADE
SNOWY1,"2005/03/17 17:30:00",11.26667,19.12,TRADE
SNOWY1,"2005/03/17 18:00:00",15.43,17.51,TRADE
SNOWY1,"2005/03/17 18:30:00",14.23833,17.21,TRADE
SNOWY1,"2005/03/17 19:00:00",17.225,17.82,TRADE
SNOWY1,"2005/03/17 19:30:00",20.75667,18.72,TRADE
SNOWY1,"2005/03/17 20:00:00",20.88167,16.94,TRADE
SNOWY1,"2005/03/17 20:30:00",47.06,16.7,TRADE
SNOWY1,"2005/03/17 21:00:00",52.74167,15.45,TRADE
SNOWY1,"2005/03/17 21:30:00",63.46167,17.07,TRADE
SNOWY1,"2005/03/17 22:00:00",49.97833,15.56,TRADE
SNOWY1,"2005/03/17 22:30:00",53.535,16.9,TRADE
SNOWY1,"2005/03/17 23:00:00",55.585,16.71,TRADE
SNOWY1,"2005/03/17 23:30:00",52.75333,19.3,TRADE
SNOWY1,"2005/03/18 00:00:00",49.05833,18,TRADE
SNOWY1,"2005/03/18 00:30:00",82.61833,16.98,TRADE
SNOWY1,"2005/03/18 01:00:00",88.56,16.23,TRADE
SNOWY1,"2005/03/18 01:30:00",92.38833,16.01,TRADE
SNOWY1,"2005/03/18 02:00:00",87.31833,14.63,TRADE
SNOWY1,"2005/03/18 02:30:00",88.05,13.16,TRADE
SNOWY1,"2005/03/18 03:00:00",87.95833,13.69,TRADE
SNOWY1,"2005/03/18 03:30:00",83.13,13.89,TRADE
SNOWY1,"2005/03/18 04:00:00",87.89667,14.43,TRADE
SNOWY1,"2005/03/18 04:30:00",79.08167,14.63,TRADE
SNOWY1,"2005/03/18 05:00:00",79.96667,15.27,TRADE
SNOWY1,"2005/03/18 05:30:00",77.17333,16.34,TRADE
SNOWY1,"2005/03/18 06:00:00",27.26333,18.43,TRADE
SNOWY1,"2005/03/18 06:30:00",17.81333,20.33,TRADE
SNOWY1,"2005/03/18 07:00:00",20.41833,25.74,TRADE
SNOWY1,"2005/03/18 07:30:00",18.93333,19.47,TRADE
SNOWY1,"2005/03/18 08:00:00",8.26167,19.5,TRADE
SNOWY1,"2005/03/18 08:30:00",13.25667,19.25,TRADE
SNOWY1,"2005/03/18 09:00:00",23.91167,19.4,TRADE
SNOWY1,"2005/03/18 09:30:00",15.52667,20.49,TRADE
SNOWY1,"2005/03/18 10:00:00",21.09333,20.01,TRADE
SNOWY1,"2005/03/18 10:30:00",19.2,19.07,TRADE
SNOWY1,"2005/03/18 11:00:00",24.12667,20.67,TRADE
SNOWY1,"2005/03/18 11:30:00",19.76833,17.99,TRADE
SNOWY1,"2005/03/18 12:00:00",18.39167,19.58,TRADE
SNOWY1,"2005/03/18 12:30:00",12.61833,19.5,TRADE
SNOWY1,"2005/03/18 13:00:00",19.47833,19.58,TRADE
SNOWY1,"2005/03/18 13:30:00",16.78,19.58,TRADE
SNOWY1,"2005/03/18 14:00:00",13.87333,19.28,TRADE
SNOWY1,"2005/03/18 14:30:00",16.11167,18.59,TRADE
SNOWY1,"2005/03/18 15:00:00",16.14167,19.5,TRADE
SNOWY1,"2005/03/18 15:30:00",36.21333,18.86,TRADE
SNOWY1,"2005/03/18 16:00:00",12.25667,17.87,TRADE
SNOWY1,"2005/03/18 16:30:00",8.57167,17.54,TRADE
SNOWY1,"2005/03/18 17:00:00",13.91333,17.52,TRADE
SNOWY1,"2005/03/18 17:30:00",25.51833,16.79,TRADE
SNOWY1,"2005/03/18 18:00:00",15.88833,16.76,TRADE
SNOWY1,"2005/03/18 18:30:00",24.68667,16.65,TRADE
SNOWY1,"2005/03/18 19:00:00",17.63833,17.45,TRADE
SNOWY1,"2005/03/18 19:30:00",22.985,18.52,TRADE
SNOWY1,"2005/03/18 20:00:00",15.36833,17.17,TRADE
SNOWY1,"2005/03/18 20:30:00",19.28333,16.78,TRADE
SNOWY1,"2005/03/18 21:00:00",18.83833,15.26,TRADE
SNOWY1,"2005/03/18 21:30:00",37.42,18.39,TRADE
SNOWY1,"2005/03/18 22:00:00",55.49167,17.43,TRADE
SNOWY1,"2005/03/18 22:30:00",19.62333,20.81,TRADE
SNOWY1,"2005/03/18 23:00:00",19.02,21.33,TRADE
SNOWY1,"2005/03/18 23:30:00",40.86333,26.75,TRADE
SNOWY1,"2005/03/19 00:00:00",12.625,24.29,TRADE
SNOWY1,"2005/03/19 00:30:00",23.72833,20.55,TRADE
SNOWY1,"2005/03/19 01:00:00",17.31,19.06,TRADE
SNOWY1,"2005/03/19 01:30:00",14.965,20.12,TRADE
SNOWY1,"2005/03/19 02:00:00",40.90167,15.77,TRADE
SNOWY1,"2005/03/19 02:30:00",86.16167,15.14,TRADE
SNOWY1,"2005/03/19 03:00:00",80.81667,15.04,TRADE
SNOWY1,"2005/03/19 03:30:00",85.75833,15.05,TRADE
SNOWY1,"2005/03/19 04:00:00",88.27833,14.99,TRADE
SNOWY1,"2005/03/19 04:30:00",82.73333,15,TRADE
SNOWY1,"2005/03/19 05:00:00",87.435,14.91,TRADE
SNOWY1,"2005/03/19 05:30:00",87.52333,15.6,TRADE
SNOWY1,"2005/03/19 06:00:00",87.36,17.03,TRADE
SNOWY1,"2005/03/19 06:30:00",90.89333,17.3,TRADE
SNOWY1,"2005/03/19 07:00:00",84.36833,18.66,TRADE
SNOWY1,"2005/03/19 07:30:00",22.565,17.86,TRADE
SNOWY1,"2005/03/19 08:00:00",31.16167,20.44,TRADE
SNOWY1,"2005/03/19 08:30:00",16.61333,23.5,TRADE
SNOWY1,"2005/03/19 09:00:00",21.39333,21.84,TRADE
SNOWY1,"2005/03/19 09:30:00",21.08167,24.65,TRADE
SNOWY1,"2005/03/19 10:00:00",18.82333,24.17,TRADE
SNOWY1,"2005/03/19 10:30:00",21.4,22.23,TRADE
SNOWY1,"2005/03/19 11:00:00",24.91333,20.7,TRADE
SNOWY1,"2005/03/19 11:30:00",16.01833,20.68,TRADE
SNOWY1,"2005/03/19 12:00:00",22.99667,20.7,TRADE
SNOWY1,"2005/03/19 12:30:00",25.505,20.09,TRADE
SNOWY1,"2005/03/19 13:00:00",19.045,19.52,TRADE
SNOWY1,"2005/03/19 13:30:00",22.48333,19.5,TRADE
SNOWY1,"2005/03/19 14:00:00",28.54833,19.5,TRADE
SNOWY1,"2005/03/19 14:30:00",28.59333,19.09,TRADE
SNOWY1,"2005/03/19 15:00:00",18.84333,19.44,TRADE
SNOWY1,"2005/03/19 15:30:00",30.01667,19.18,TRADE
SNOWY1,"2005/03/19 16:00:00",14.635,19.5,TRADE
SNOWY1,"2005/03/19 16:30:00",17.78167,18.7,TRADE
SNOWY1,"2005/03/19 17:00:00",18.20667,19.23,TRADE
SNOWY1,"2005/03/19 17:30:00",24.8,19.02,TRADE
SNOWY1,"2005/03/19 18:00:00",23.77,18.67,TRADE
SNOWY1,"2005/03/19 18:30:00",25.90167,18.92,TRADE
SNOWY1,"2005/03/19 19:00:00",28.93667,19.6,TRADE
SNOWY1,"2005/03/19 19:30:00",22.84667,19.27,TRADE
SNOWY1,"2005/03/19 20:00:00",26.88667,18.44,TRADE
SNOWY1,"2005/03/19 20:30:00",26.30333,17.3,TRADE
SNOWY1,"2005/03/19 21:00:00",31.79167,16.57,TRADE
SNOWY1,"2005/03/19 21:30:00",60.555,16.59,TRADE
SNOWY1,"2005/03/19 22:00:00",54.90833,16.17,TRADE
SNOWY1,"2005/03/19 22:30:00",65.4,17.69,TRADE
SNOWY1,"2005/03/19 23:00:00",56.425,17.38,TRADE
SNOWY1,"2005/03/19 23:30:00",58.81667,19.77,TRADE
SNOWY1,"2005/03/20 00:00:00",57.42,18.22,TRADE
SNOWY1,"2005/03/20 00:30:00",57.54667,16.21,TRADE
SNOWY1,"2005/03/20 01:00:00",80.78667,15.53,TRADE
SNOWY1,"2005/03/20 01:30:00",91.13333,15.93,TRADE
SNOWY1,"2005/03/20 02:00:00",84.6,15.46,TRADE
SNOWY1,"2005/03/20 02:30:00",86.89167,14.74,TRADE
SNOWY1,"2005/03/20 03:00:00",90.08667,13.01,TRADE
SNOWY1,"2005/03/20 03:30:00",89.63,12.69,TRADE
SNOWY1,"2005/03/20 04:00:00",80.905,12.85,TRADE
SNOWY1,"2005/03/20 04:30:00",84.62333,13.57,TRADE
SNOWY1,"2005/03/20 05:00:00",85.50667,13.07,TRADE
SNOWY1,"2005/03/20 05:30:00",87.2,14.63,TRADE
SNOWY1,"2005/03/20 06:00:00",90.71,14.81,TRADE
SNOWY1,"2005/03/20 06:30:00",95.54667,14.72,TRADE
SNOWY1,"2005/03/20 07:00:00",92.725,15.42,TRADE
SNOWY1,"2005/03/20 07:30:00",90.465,15.21,TRADE
SNOWY1,"2005/03/20 08:00:00",85.03,15.8,TRADE
SNOWY1,"2005/03/20 08:30:00",92.285,16.22,TRADE
SNOWY1,"2005/03/20 09:00:00",80.915,17.1,TRADE
SNOWY1,"2005/03/20 09:30:00",35.48,18.11,TRADE
SNOWY1,"2005/03/20 10:00:00",15.965,17.63,TRADE
SNOWY1,"2005/03/20 10:30:00",16.29833,18.3,TRADE
SNOWY1,"2005/03/20 11:00:00",24.96667,18.62,TRADE
SNOWY1,"2005/03/20 11:30:00",12.60667,18.66,TRADE
SNOWY1,"2005/03/20 12:00:00",23.25167,18.58,TRADE
SNOWY1,"2005/03/20 12:30:00",20.62,18.5,TRADE
SNOWY1,"2005/03/20 13:00:00",20.05833,17.98,TRADE
SNOWY1,"2005/03/20 13:30:00",18.855,17.81,TRADE
SNOWY1,"2005/03/20 14:00:00",20.555,17.78,TRADE
SNOWY1,"2005/03/20 14:30:00",21.86,17.7,TRADE
SNOWY1,"2005/03/20 15:00:00",19.13833,18.04,TRADE
SNOWY1,"2005/03/20 15:30:00",19.37667,17.76,TRADE
SNOWY1,"2005/03/20 16:00:00",20.44667,18.15,TRADE
SNOWY1,"2005/03/20 16:30:00",18.555,17.91,TRADE
SNOWY1,"2005/03/20 17:00:00",19.91833,17.73,TRADE
SNOWY1,"2005/03/20 17:30:00",17.16167,19.01,TRADE
SNOWY1,"2005/03/20 18:00:00",18.505,18.98,TRADE
SNOWY1,"2005/03/20 18:30:00",26.38333,20.07,TRADE
SNOWY1,"2005/03/20 19:00:00",20.625,23.55,TRADE
SNOWY1,"2005/03/20 19:30:00",28.89,22.49,TRADE
SNOWY1,"2005/03/20 20:00:00",24.27333,20.35,TRADE
SNOWY1,"2005/03/20 20:30:00",16.19667,19.38,TRADE
SNOWY1,"2005/03/20 21:00:00",21.185,18.52,TRADE
SNOWY1,"2005/03/20 21:30:00",26.775,17.72,TRADE
SNOWY1,"2005/03/20 22:00:00",16.07667,17.05,TRADE
SNOWY1,"2005/03/20 22:30:00",16.65667,18.23,TRADE
SNOWY1,"2005/03/20 23:00:00",16.40833,17.6,TRADE
SNOWY1,"2005/03/20 23:30:00",13.835,19.9,TRADE
SNOWY1,"2005/03/21 00:00:00",22.05333,19.14,TRADE
SNOWY1,"2005/03/21 00:30:00",21.91833,17.69,TRADE
SNOWY1,"2005/03/21 01:00:00",66.92667,16.71,TRADE
SNOWY1,"2005/03/21 01:30:00",90.39,18.91,TRADE
SNOWY1,"2005/03/21 02:00:00",84.51667,16.67,TRADE
SNOWY1,"2005/03/21 02:30:00",88.165,16.54,TRADE
SNOWY1,"2005/03/21 03:00:00",89.22167,15.49,TRADE
SNOWY1,"2005/03/21 03:30:00",90.41667,15.49,TRADE
SNOWY1,"2005/03/21 04:00:00",79.21,15.74,TRADE
SNOWY1,"2005/03/21 04:30:00",80.87333,15.59,TRADE
SNOWY1,"2005/03/21 05:00:00",89.95333,16.47,TRADE
SNOWY1,"2005/03/21 05:30:00",60.48167,19.39,TRADE
SNOWY1,"2005/03/21 06:00:00",15.385,21.24,TRADE
SNOWY1,"2005/03/21 06:30:00",29.70167,22.82,TRADE
SNOWY1,"2005/03/21 07:00:00",31.88333,26.66,TRADE
SNOWY1,"2005/03/21 07:30:00",36.32667,19.71,TRADE
SNOWY1,"2005/03/21 08:00:00",16.05333,19.6,TRADE
SNOWY1,"2005/03/21 08:30:00",10.96833,19.68,TRADE
SNOWY1,"2005/03/21 09:00:00",21.715,20.14,TRADE
SNOWY1,"2005/03/21 09:30:00",11.52,20.33,TRADE
SNOWY1,"2005/03/21 10:00:00",16.82167,20.02,TRADE
SNOWY1,"2005/03/21 10:30:00",14.64,19.54,TRADE
SNOWY1,"2005/03/21 11:00:00",22.62167,19.45,TRADE
SNOWY1,"2005/03/21 11:30:00",13.14,19.5,TRADE
SNOWY1,"2005/03/21 12:00:00",7.52,19.44,TRADE
SNOWY1,"2005/03/21 12:30:00",17.96833,19.3,TRADE
SNOWY1,"2005/03/21 13:00:00",14.37,19.08,TRADE
SNOWY1,"2005/03/21 13:30:00",18.11167,18.04,TRADE
SNOWY1,"2005/03/21 14:00:00",13.805,17.68,TRADE
SNOWY1,"2005/03/21 14:30:00",16.66667,17.56,TRADE
SNOWY1,"2005/03/21 15:00:00",18.47667,17.59,TRADE
SNOWY1,"2005/03/21 15:30:00",17.625,17.8,TRADE
SNOWY1,"2005/03/21 16:00:00",18.31333,17.83,TRADE
SNOWY1,"2005/03/21 16:30:00",11.345,18.21,TRADE
SNOWY1,"2005/03/21 17:00:00",22.95,17.74,TRADE
SNOWY1,"2005/03/21 17:30:00",18.43167,17.35,TRADE
SNOWY1,"2005/03/21 18:00:00",15.155,16.81,TRADE
SNOWY1,"2005/03/21 18:30:00",32.47167,16.6,TRADE
SNOWY1,"2005/03/21 19:00:00",47.59167,16.85,TRADE
SNOWY1,"2005/03/21 19:30:00",66.41833,17.36,TRADE
SNOWY1,"2005/03/21 20:00:00",88.68167,15.99,TRADE
SNOWY1,"2005/03/21 20:30:00",87.83333,15.62,TRADE
SNOWY1,"2005/03/21 21:00:00",89.29167,15.46,TRADE
SNOWY1,"2005/03/21 21:30:00",80.675,17.38,TRADE
SNOWY1,"2005/03/21 22:00:00",96.56,15.41,TRADE
SNOWY1,"2005/03/21 22:30:00",91.80333,16.15,TRADE
SNOWY1,"2005/03/21 23:00:00",86.77167,16.63,TRADE
SNOWY1,"2005/03/21 23:30:00",89.15,19.48,TRADE
SNOWY1,"2005/03/22 00:00:00",91.25667,18.2,TRADE
SNOWY1,"2005/03/22 00:30:00",89.035,16.93,TRADE
SNOWY1,"2005/03/22 01:00:00",86.53333,15.65,TRADE
SNOWY1,"2005/03/22 01:30:00",93.55333,16.48,TRADE
SNOWY1,"2005/03/22 02:00:00",90.18833,15.18,TRADE
SNOWY1,"2005/03/22 02:30:00",87.025,13.71,TRADE
SNOWY1,"2005/03/22 03:00:00",85.70833,13.29,TRADE
SNOWY1,"2005/03/22 03:30:00",91.28833,13.11,TRADE
SNOWY1,"2005/03/22 04:00:00",85.77167,13.13,TRADE
SNOWY1,"2005/03/22 04:30:00",86.505,14.51,TRADE
SNOWY1,"2005/03/22 05:00:00",92.50167,15.1,TRADE
SNOWY1,"2005/03/22 05:30:00",80.15,17.18,TRADE
SNOWY1,"2005/03/22 06:00:00",50.76,18.52,TRADE
SNOWY1,"2005/03/22 06:30:00",27.89,18.67,TRADE
SNOWY1,"2005/03/22 07:00:00",36.84833,20.02,TRADE
SNOWY1,"2005/03/22 07:30:00",21.63,17.94,TRADE
SNOWY1,"2005/03/22 08:00:00",21.68,17.84,TRADE
SNOWY1,"2005/03/22 08:30:00",28.12833,17.57,TRADE
SNOWY1,"2005/03/22 09:00:00",20.37833,18.26,TRADE
SNOWY1,"2005/03/22 09:30:00",29.68667,18.93,TRADE
SNOWY1,"2005/03/22 10:00:00",16.705,18.05,TRADE
SNOWY1,"2005/03/22 10:30:00",17.66333,18.01,TRADE
SNOWY1,"2005/03/22 11:00:00",26.00833,18.94,TRADE
SNOWY1,"2005/03/22 11:30:00",17.43667,19.29,TRADE
SNOWY1,"2005/03/22 12:00:00",19.795,19.1,TRADE
SNOWY1,"2005/03/22 12:30:00",18.01333,19.04,TRADE
SNOWY1,"2005/03/22 13:00:00",24.27,19.39,TRADE
SNOWY1,"2005/03/22 13:30:00",30.23833,19.52,TRADE
SNOWY1,"2005/03/22 14:00:00",26.83,19.5,TRADE
SNOWY1,"2005/03/22 14:30:00",22.54833,19.48,TRADE
SNOWY1,"2005/03/22 15:00:00",19.9,19.47,TRADE
SNOWY1,"2005/03/22 15:30:00",16.16,19.44,TRADE
SNOWY1,"2005/03/22 16:00:00",25.43333,19.58,TRADE
SNOWY1,"2005/03/22 16:30:00",37.735,20.37,TRADE
SNOWY1,"2005/03/22 17:00:00",27.36167,20.18,TRADE
SNOWY1,"2005/03/22 17:30:00",23.02333,19.11,TRADE
SNOWY1,"2005/03/22 18:00:00",27.20167,19.25,TRADE
SNOWY1,"2005/03/22 18:30:00",27.32,19.55,TRADE
SNOWY1,"2005/03/22 19:00:00",31,19.64,TRADE
SNOWY1,"2005/03/22 19:30:00",21.82833,19.98,TRADE
SNOWY1,"2005/03/22 20:00:00",18.64833,18.62,TRADE
SNOWY1,"2005/03/22 20:30:00",25.29667,17.6,TRADE
SNOWY1,"2005/03/22 21:00:00",21.60667,16.66,TRADE
SNOWY1,"2005/03/22 21:30:00",24.32167,19.09,TRADE
SNOWY1,"2005/03/22 22:00:00",20.365,16.44,TRADE
SNOWY1,"2005/03/22 22:30:00",29.82,18.95,TRADE
SNOWY1,"2005/03/22 23:00:00",25.93833,19.46,TRADE
SNOWY1,"2005/03/22 23:30:00",16.70333,20.52,TRADE
SNOWY1,"2005/03/23 00:00:00",23.20667,20.36,TRADE
SNOWY1,"2005/03/23 00:30:00",18.375,18.79,TRADE
SNOWY1,"2005/03/23 01:00:00",34.82333,17.16,TRADE
SNOWY1,"2005/03/23 01:30:00",51.25167,18.9,TRADE
SNOWY1,"2005/03/23 02:00:00",59.04333,16.18,TRADE
SNOWY1,"2005/03/23 02:30:00",61.14167,14.92,TRADE
SNOWY1,"2005/03/23 03:00:00",54.37833,14.9,TRADE
SNOWY1,"2005/03/23 03:30:00",50.515,14.9,TRADE
SNOWY1,"2005/03/23 04:00:00",49.98667,14.91,TRADE
SNOWY1,"2005/03/23 04:30:00",55.87333,14.97,TRADE
SNOWY1,"2005/03/23 05:00:00",56.84333,15.78,TRADE
SNOWY1,"2005/03/23 05:30:00",32.17333,19.19,TRADE
SNOWY1,"2005/03/23 06:00:00",24.86167,20.16,TRADE
SNOWY1,"2005/03/23 06:30:00",19.87167,22.96,TRADE
SNOWY1,"2005/03/23 07:00:00",37.59833,25.11,TRADE
SNOWY1,"2005/03/23 07:30:00",19.62167,20.09,TRADE
SNOWY1,"2005/03/23 08:00:00",45.29333,19.6,TRADE
SNOWY1,"2005/03/23 08:30:00",22.62333,20.25,TRADE
SNOWY1,"2005/03/23 09:00:00",30.11833,20.42,TRADE
SNOWY1,"2005/03/23 09:30:00",22.33333,20.66,TRADE
SNOWY1,"2005/03/23 10:00:00",22.93833,20.7,TRADE
SNOWY1,"2005/03/23 10:30:00",21.52833,20.55,TRADE
SNOWY1,"2005/03/23 11:00:00",17.49833,21.23,TRADE
SNOWY1,"2005/03/23 11:30:00",19.17,20.18,TRADE
SNOWY1,"2005/03/23 12:00:00",20.61667,20.67,TRADE
SNOWY1,"2005/03/23 12:30:00",25.04,21.1,TRADE
SNOWY1,"2005/03/23 13:00:00",19.57167,21.15,TRADE
SNOWY1,"2005/03/23 13:30:00",11.21,21.31,TRADE
SNOWY1,"2005/03/23 14:00:00",25.77,20.95,TRADE
SNOWY1,"2005/03/23 14:30:00",14.675,20.96,TRADE
SNOWY1,"2005/03/23 15:00:00",21.76333,20.78,TRADE
SNOWY1,"2005/03/23 15:30:00",23.17667,20.71,TRADE
SNOWY1,"2005/03/23 16:00:00",12.485,20.75,TRADE
SNOWY1,"2005/03/23 16:30:00",6.76333,20.65,TRADE
SNOWY1,"2005/03/23 17:00:00",18.22333,20.33,TRADE
SNOWY1,"2005/03/23 17:30:00",14.07167,19.9,TRADE
SNOWY1,"2005/03/23 18:00:00",17.08833,19.6,TRADE
SNOWY1,"2005/03/23 18:30:00",21.77333,19.55,TRADE
SNOWY1,"2005/03/23 19:00:00",25.10667,20.13,TRADE
SNOWY1,"2005/03/23 19:30:00",15.78167,20.52,TRADE
SNOWY1,"2005/03/23 20:00:00",14.25667,20.12,TRADE
SNOWY1,"2005/03/23 20:30:00",19.74333,19.55,TRADE
SNOWY1,"2005/03/23 21:00:00",11.56,17.24,TRADE
SNOWY1,"2005/03/23 21:30:00",30.46167,20.12,TRADE
SNOWY1,"2005/03/23 22:00:00",21.47667,17.92,TRADE
SNOWY1,"2005/03/23 22:30:00",20.565,20.89,TRADE
SNOWY1,"2005/03/23 23:00:00",13.97167,21.2,TRADE
SNOWY1,"2005/03/23 23:30:00",18.16333,25.97,TRADE
SNOWY1,"2005/03/24 00:00:00",18.51167,23,TRADE
SNOWY1,"2005/03/24 00:30:00",28.94667,22.84,TRADE
SNOWY1,"2005/03/24 01:00:00",15.21333,20.65,TRADE
SNOWY1,"2005/03/24 01:30:00",15.86,21.57,TRADE
SNOWY1,"2005/03/24 02:00:00",8.62833,17.94,TRADE
SNOWY1,"2005/03/24 02:30:00",55.405,15.9,TRADE
SNOWY1,"2005/03/24 03:00:00",51.02167,15.59,TRADE
SNOWY1,"2005/03/24 03:30:00",51.44333,15.32,TRADE
SNOWY1,"2005/03/24 04:00:00",56.38833,15.25,TRADE
SNOWY1,"2005/03/24 04:30:00",58.45333,15.88,TRADE
SNOWY1,"2005/03/24 05:00:00",50.95,17.5,TRADE
SNOWY1,"2005/03/24 05:30:00",52.165,22.18,TRADE
SNOWY1,"2005/03/24 06:00:00",34.115,27.62,TRADE
SNOWY1,"2005/03/24 06:30:00",14.545,27.74,TRADE
SNOWY1,"2005/03/24 07:00:00",20.36833,31.56,TRADE
SNOWY1,"2005/03/24 07:30:00",25.77833,24.69,TRADE
SNOWY1,"2005/03/24 08:00:00",26.32667,21.96,TRADE
SNOWY1,"2005/03/24 08:30:00",20.84833,21.88,TRADE
SNOWY1,"2005/03/24 09:00:00",20.53667,21.81,TRADE
SNOWY1,"2005/03/24 09:30:00",18.855,22.52,TRADE
SNOWY1,"2005/03/24 10:00:00",14.56167,21.89,TRADE
SNOWY1,"2005/03/24 10:30:00",17.79,21.77,TRADE
SNOWY1,"2005/03/24 11:00:00",22.47667,23.68,TRADE
SNOWY1,"2005/03/24 11:30:00",20.98,22.82,TRADE
SNOWY1,"2005/03/24 12:00:00",20.695,22.71,TRADE
SNOWY1,"2005/03/24 12:30:00",28.06833,21.97,TRADE
SNOWY1,"2005/03/24 13:00:00",19.14,21.51,TRADE
SNOWY1,"2005/03/24 13:30:00",17.72333,21.24,TRADE
SNOWY1,"2005/03/24 14:00:00",23.11,20.73,TRADE
SNOWY1,"2005/03/24 14:30:00",24.54667,19.55,TRADE
SNOWY1,"2005/03/24 15:00:00",13.025,19.5,TRADE
SNOWY1,"2005/03/24 15:30:00",19.97667,19.43,TRADE
SNOWY1,"2005/03/24 16:00:00",15.53333,19.25,TRADE
SNOWY1,"2005/03/24 16:30:00",4.44167,18.4,TRADE
SNOWY1,"2005/03/24 17:00:00",20.04833,17.91,TRADE
SNOWY1,"2005/03/24 17:30:00",18.485,17.97,TRADE
SNOWY1,"2005/03/24 18:00:00",17.01833,18.18,TRADE
SNOWY1,"2005/03/24 18:30:00",18.92667,19.58,TRADE
SNOWY1,"2005/03/24 19:00:00",7.09667,20.04,TRADE
SNOWY1,"2005/03/24 19:30:00",24.52667,20.18,TRADE
SNOWY1,"2005/03/24 20:00:00",13.74833,19.52,TRADE
SNOWY1,"2005/03/24 20:30:00",21.33667,18.5,TRADE
SNOWY1,"2005/03/24 21:00:00",13.01167,17.05,TRADE
SNOWY1,"2005/03/24 21:30:00",25.61833,21.41,TRADE
SNOWY1,"2005/03/24 22:00:00",12.11833,19.56,TRADE
SNOWY1,"2005/03/24 22:30:00",20.51667,22.46,TRADE
SNOWY1,"2005/03/24 23:00:00",21.93667,25.98,TRADE
SNOWY1,"2005/03/24 23:30:00",18.34,26.5,TRADE
SNOWY1,"2005/03/25 00:00:00",15.03333,25.79,TRADE
SNOWY1,"2005/03/25 00:30:00",20.32667,24.1,TRADE
SNOWY1,"2005/03/25 01:00:00",15.54167,19.3,TRADE
SNOWY1,"2005/03/25 01:30:00",16.85,21.4,TRADE
SNOWY1,"2005/03/25 02:00:00",41.53667,17.84,TRADE
SNOWY1,"2005/03/25 02:30:00",77.23833,15.76,TRADE
SNOWY1,"2005/03/25 03:00:00",91.65167,15.65,TRADE
SNOWY1,"2005/03/25 03:30:00",85.22667,15.13,TRADE
SNOWY1,"2005/03/25 04:00:00",88.75167,15.38,TRADE
SNOWY1,"2005/03/25 04:30:00",89.125,15.4,TRADE
SNOWY1,"2005/03/25 05:00:00",84.90667,15.28,TRADE
SNOWY1,"2005/03/25 05:30:00",85.595,15.88,TRADE
SNOWY1,"2005/03/25 06:00:00",92.52,16.42,TRADE
SNOWY1,"2005/03/25 06:30:00",103.87833,15.71,TRADE
SNOWY1,"2005/03/25 07:00:00",91.59667,16.69,TRADE
SNOWY1,"2005/03/25 07:30:00",97.05167,16.03,TRADE
SNOWY1,"2005/03/25 08:00:00",96.99333,17.21,TRADE
SNOWY1,"2005/03/25 08:30:00",104.825,17.55,TRADE
SNOWY1,"2005/03/25 09:00:00",97.07,18.6,TRADE
SNOWY1,"2005/03/25 09:30:00",98.895,17.53,TRADE
SNOWY1,"2005/03/25 10:00:00",101.74833,18.02,TRADE
SNOWY1,"2005/03/25 10:30:00",97.35333,18.29,TRADE
SNOWY1,"2005/03/25 11:00:00",96.46667,17.66,TRADE
SNOWY1,"2005/03/25 11:30:00",92.05667,17.51,TRADE
SNOWY1,"2005/03/25 12:00:00",89.02,17.15,TRADE
SNOWY1,"2005/03/25 12:30:00",100.515,17.25,TRADE
SNOWY1,"2005/03/25 13:00:00",96.46167,16.99,TRADE
SNOWY1,"2005/03/25 13:30:00",93.195,16.93,TRADE
SNOWY1,"2005/03/25 14:00:00",90.1,16.94,TRADE
SNOWY1,"2005/03/25 14:30:00",96.40833,16.51,TRADE
SNOWY1,"2005/03/25 15:00:00",94.55,16.76,TRADE
SNOWY1,"2005/03/25 15:30:00",92.08333,16.66,TRADE
SNOWY1,"2005/03/25 16:00:00",96.62667,17.01,TRADE
SNOWY1,"2005/03/25 16:30:00",93.75167,17.18,TRADE
SNOWY1,"2005/03/25 17:00:00",92.22,17.86,TRADE
SNOWY1,"2005/03/25 17:30:00",97.55667,18.8,TRADE
SNOWY1,"2005/03/25 18:00:00",92.44,18.47,TRADE
SNOWY1,"2005/03/25 18:30:00",49.72833,19.65,TRADE
SNOWY1,"2005/03/25 19:00:00",21.75333,21.53,TRADE
SNOWY1,"2005/03/25 19:30:00",30.405,20.49,TRADE
SNOWY1,"2005/03/25 20:00:00",21.74333,19.36,TRADE
SNOWY1,"2005/03/25 20:30:00",18.98833,18.39,TRADE
SNOWY1,"2005/03/25 21:00:00",16.52333,17.18,TRADE
SNOWY1,"2005/03/25 21:30:00",25.645,17.49,TRADE
SNOWY1,"2005/03/25 22:00:00",23.64333,17.51,TRADE
SNOWY1,"2005/03/25 22:30:00",19.33167,22.87,TRADE
SNOWY1,"2005/03/25 23:00:00",19.245,21.24,TRADE
SNOWY1,"2005/03/25 23:30:00",13.39833,26.93,TRADE
SNOWY1,"2005/03/26 00:00:00",19.93167,23.84,TRADE
SNOWY1,"2005/03/26 00:30:00",29.11,22.71,TRADE
SNOWY1,"2005/03/26 01:00:00",25.25333,20.16,TRADE
SNOWY1,"2005/03/26 01:30:00",21.31833,23.44,TRADE
SNOWY1,"2005/03/26 02:00:00",29.15667,18.7,TRADE
SNOWY1,"2005/03/26 02:30:00",51.33833,17.03,TRADE
SNOWY1,"2005/03/26 03:00:00",94.45167,16.2,TRADE
SNOWY1,"2005/03/26 03:30:00",92.95833,15.97,TRADE
SNOWY1,"2005/03/26 04:00:00",98.37,15.42,TRADE
SNOWY1,"2005/03/26 04:30:00",99.39333,15.45,TRADE
SNOWY1,"2005/03/26 05:00:00",94.80667,15.81,TRADE
SNOWY1,"2005/03/26 05:30:00",88.14333,16.65,TRADE
SNOWY1,"2005/03/26 06:00:00",92.31833,16.95,TRADE
SNOWY1,"2005/03/26 06:30:00",102.14,16.44,TRADE
SNOWY1,"2005/03/26 07:00:00",97.56167,17.91,TRADE
SNOWY1,"2005/03/26 07:30:00",89.11833,18.94,TRADE
SNOWY1,"2005/03/26 08:00:00",23.735,19.98,TRADE
SNOWY1,"2005/03/26 08:30:00",24.665,20.77,TRADE
SNOWY1,"2005/03/26 09:00:00",30.32667,20.76,TRADE
SNOWY1,"2005/03/26 09:30:00",22.84167,20.75,TRADE
SNOWY1,"2005/03/26 10:00:00",27.395,19.91,TRADE
SNOWY1,"2005/03/26 10:30:00",23.78,19.51,TRADE
SNOWY1,"2005/03/26 11:00:00",29.03667,19.49,TRADE
SNOWY1,"2005/03/26 11:30:00",24.71333,19.33,TRADE
SNOWY1,"2005/03/26 12:00:00",22.90333,18.84,TRADE
SNOWY1,"2005/03/26 12:30:00",28.15167,18.91,TRADE
SNOWY1,"2005/03/26 13:00:00",32.20333,18.09,TRADE
SNOWY1,"2005/03/26 13:30:00",30.295,17.7,TRADE
SNOWY1,"2005/03/26 14:00:00",28.33667,17.5,TRADE
SNOWY1,"2005/03/26 14:30:00",30.29667,17.24,TRADE
SNOWY1,"2005/03/26 15:00:00",25.94333,17.35,TRADE
SNOWY1,"2005/03/26 15:30:00",29.475,17.66,TRADE
SNOWY1,"2005/03/26 16:00:00",26.45,17.71,TRADE
SNOWY1,"2005/03/26 16:30:00",24.45667,17.57,TRADE
SNOWY1,"2005/03/26 17:00:00",28.135,18.55,TRADE
SNOWY1,"2005/03/26 17:30:00",32.52167,19.22,TRADE
SNOWY1,"2005/03/26 18:00:00",29.15833,18.67,TRADE
SNOWY1,"2005/03/26 18:30:00",26.56167,19.8,TRADE
SNOWY1,"2005/03/26 19:00:00",31.81,20.85,TRADE
SNOWY1,"2005/03/26 19:30:00",32.205,19.83,TRADE
SNOWY1,"2005/03/26 20:00:00",39.95667,19.54,TRADE
SNOWY1,"2005/03/26 20:30:00",27.09167,19.05,TRADE
SNOWY1,"2005/03/26 21:00:00",27.76833,18.06,TRADE
SNOWY1,"2005/03/26 21:30:00",63.16333,19.13,TRADE
SNOWY1,"2005/03/26 22:00:00",69.245,18.53,TRADE
SNOWY1,"2005/03/26 22:30:00",43.92333,20.84,TRADE
SNOWY1,"2005/03/26 23:00:00",30.195,20.18,TRADE
SNOWY1,"2005/03/26 23:30:00",24.14,20.38,TRADE
SNOWY1,"2005/03/27 00:00:00",47.365,17.16,TRADE
SNOWY1,"2005/03/27 00:30:00",86.86333,15.92,TRADE
SNOWY1,"2005/03/27 01:00:00",99.55333,15.63,TRADE
SNOWY1,"2005/03/27 01:30:00",100.995,17.1,TRADE
SNOWY1,"2005/03/27 02:00:00",95.32833,15.35,TRADE
SNOWY1,"2005/03/27 02:30:00",99.16333,13.68,TRADE
SNOWY1,"2005/03/27 03:00:00",90.18,12.83,TRADE
SNOWY1,"2005/03/27 03:30:00",96.325,12.77,TRADE
SNOWY1,"2005/03/27 04:00:00",95.61,11.76,TRADE
SNOWY1,"2005/03/27 04:30:00",89.50833,11.73,TRADE
SNOWY1,"2005/03/27 05:00:00",94.32,11.77,TRADE
SNOWY1,"2005/03/27 05:30:00",94.03167,12.33,TRADE
SNOWY1,"2005/03/27 06:00:00",95.77167,12.75,TRADE
SNOWY1,"2005/03/27 06:30:00",104.67333,13.02,TRADE
SNOWY1,"2005/03/27 07:00:00",103.315,13.94,TRADE
SNOWY1,"2005/03/27 07:30:00",86.80333,14.25,TRADE
SNOWY1,"2005/03/27 08:00:00",93.29167,15.29,TRADE
SNOWY1,"2005/03/27 08:30:00",93.32667,15.21,TRADE
SNOWY1,"2005/03/27 09:00:00",99.68333,15.58,TRADE
SNOWY1,"2005/03/27 09:30:00",95.45833,15.9,TRADE
SNOWY1,"2005/03/27 10:00:00",95.37833,15.65,TRADE
SNOWY1,"2005/03/27 10:30:00",91.53833,15.5,TRADE
SNOWY1,"2005/03/27 11:00:00",98.37167,15.39,TRADE
SNOWY1,"2005/03/27 11:30:00",94.19167,15.32,TRADE
SNOWY1,"2005/03/27 12:00:00",95.06667,15.38,TRADE
SNOWY1,"2005/03/27 12:30:00",99.03167,15.37,TRADE
SNOWY1,"2005/03/27 13:00:00",101.165,15.24,TRADE
SNOWY1,"2005/03/27 13:30:00",93.56167,14.99,TRADE
SNOWY1,"2005/03/27 14:00:00",102.17333,15.12,TRADE
SNOWY1,"2005/03/27 14:30:00",94.47333,15,TRADE
SNOWY1,"2005/03/27 15:00:00",85.88167,15.02,TRADE
SNOWY1,"2005/03/27 15:30:00",97.685,14.99,TRADE
SNOWY1,"2005/03/27 16:00:00",96.77833,15.07,TRADE
SNOWY1,"2005/03/27 16:30:00",96.05167,15.1,TRADE
SNOWY1,"2005/03/27 17:00:00",101.61333,15.51,TRADE
SNOWY1,"2005/03/27 17:30:00",97.325,15.54,TRADE
SNOWY1,"2005/03/27 18:00:00",95.67167,16.18,TRADE
SNOWY1,"2005/03/27 18:30:00",93.71167,18.07,TRADE
SNOWY1,"2005/03/27 19:00:00",100.33333,19.2,TRADE
SNOWY1,"2005/03/27 19:30:00",98.14333,17.99,TRADE
SNOWY1,"2005/03/27 20:00:00",97.67,17.16,TRADE
SNOWY1,"2005/03/27 20:30:00",94.25167,16.63,TRADE
SNOWY1,"2005/03/27 21:00:00",93.775,16.41,TRADE
SNOWY1,"2005/03/27 21:30:00",95.54667,15.52,TRADE
SNOWY1,"2005/03/27 22:00:00",103.15167,15.4,TRADE
SNOWY1,"2005/03/27 22:30:00",96.475,16.63,TRADE
SNOWY1,"2005/03/27 23:00:00",91.39833,17.53,TRADE
SNOWY1,"2005/03/27 23:30:00",98.13333,19.92,TRADE
SNOWY1,"2005/03/28 00:00:00",101.06167,19.28,TRADE
SNOWY1,"2005/03/28 00:30:00",67.73167,16.66,TRADE
SNOWY1,"2005/03/28 01:00:00",62.53167,15.58,TRADE
SNOWY1,"2005/03/28 01:30:00",70.15833,17.21,TRADE
SNOWY1,"2005/03/28 02:00:00",103.12333,15.78,TRADE
SNOWY1,"2005/03/28 02:30:00",96.815,14.18,TRADE
SNOWY1,"2005/03/28 03:00:00",96.81,13.35,TRADE
SNOWY1,"2005/03/28 03:30:00",103.22833,12.61,TRADE
SNOWY1,"2005/03/28 04:00:00",97.65,11.34,TRADE
SNOWY1,"2005/03/28 04:30:00",90.47167,11.64,TRADE
SNOWY1,"2005/03/28 05:00:00",101.095,11.66,TRADE
SNOWY1,"2005/03/28 05:30:00",97.535,12.66,TRADE
SNOWY1,"2005/03/28 06:00:00",99.75,13.91,TRADE
SNOWY1,"2005/03/28 06:30:00",113.935,14.65,TRADE
SNOWY1,"2005/03/28 07:00:00",105.145,13.94,TRADE
SNOWY1,"2005/03/28 07:30:00",104.48667,14.2,TRADE
SNOWY1,"2005/03/28 08:00:00",103.02333,15.36,TRADE
SNOWY1,"2005/03/28 08:30:00",102.00167,15.36,TRADE
SNOWY1,"2005/03/28 09:00:00",101.38833,16.21,TRADE
SNOWY1,"2005/03/28 09:30:00",102.74333,16.52,TRADE
SNOWY1,"2005/03/28 10:00:00",104.35333,17.59,TRADE
SNOWY1,"2005/03/28 10:30:00",95.63667,18.11,TRADE
SNOWY1,"2005/03/28 11:00:00",102.59,18.03,TRADE
SNOWY1,"2005/03/28 11:30:00",103.47333,17.48,TRADE
SNOWY1,"2005/03/28 12:00:00",102.86667,17.62,TRADE
SNOWY1,"2005/03/28 12:30:00",106.99167,17.67,TRADE
SNOWY1,"2005/03/28 13:00:00",100.73667,17.21,TRADE
SNOWY1,"2005/03/28 13:30:00",100.83667,16.91,TRADE
SNOWY1,"2005/03/28 14:00:00",96.98667,16.63,TRADE
SNOWY1,"2005/03/28 14:30:00",107.08833,16.52,TRADE
SNOWY1,"2005/03/28 15:00:00",98.93167,16.52,TRADE
SNOWY1,"2005/03/28 15:30:00",95.18,16.5,TRADE
SNOWY1,"2005/03/28 16:00:00",99.23,16.52,TRADE
SNOWY1,"2005/03/28 16:30:00",97.385,16.88,TRADE
SNOWY1,"2005/03/28 17:00:00",101.71833,17.24,TRADE
SNOWY1,"2005/03/28 17:30:00",96.7,17.87,TRADE
SNOWY1,"2005/03/28 18:00:00",90.08833,19.28,TRADE
SNOWY1,"2005/03/28 18:30:00",34.94833,21.69,TRADE
SNOWY1,"2005/03/28 19:00:00",30.81,23.84,TRADE
SNOWY1,"2005/03/28 19:30:00",26.70667,19.94,TRADE
SNOWY1,"2005/03/28 20:00:00",29.38167,19.02,TRADE
SNOWY1,"2005/03/28 20:30:00",35.88,17.91,TRADE
SNOWY1,"2005/03/28 21:00:00",35.92,17.06,TRADE
SNOWY1,"2005/03/28 21:30:00",25.05833,16.76,TRADE
SNOWY1,"2005/03/28 22:00:00",28.63167,16.53,TRADE
SNOWY1,"2005/03/28 22:30:00",28.13667,17.3,TRADE
SNOWY1,"2005/03/28 23:00:00",26.19333,17.68,TRADE
SNOWY1,"2005/03/28 23:30:00",30.35667,20.14,TRADE
SNOWY1,"2005/03/29 00:00:00",36.76333,19.34,TRADE
SNOWY1,"2005/03/29 00:30:00",31.4,17.2,TRADE
SNOWY1,"2005/03/29 01:00:00",31.20667,17,TRADE
SNOWY1,"2005/03/29 01:30:00",28.90833,19.3,TRADE
SNOWY1,"2005/03/29 02:00:00",36.67333,17.23,TRADE
SNOWY1,"2005/03/29 02:30:00",65.075,16.43,TRADE
SNOWY1,"2005/03/29 03:00:00",63.05833,15.18,TRADE
SNOWY1,"2005/03/29 03:30:00",62.49333,14.89,TRADE
SNOWY1,"2005/03/29 04:00:00",63.21,14.86,TRADE
SNOWY1,"2005/03/29 04:30:00",60.25333,14.69,TRADE
SNOWY1,"2005/03/29 05:00:00",62.21333,15.04,TRADE
SNOWY1,"2005/03/29 05:30:00",72.365,15.27,TRADE
SNOWY1,"2005/03/29 06:00:00",67.79,15.62,TRADE
SNOWY1,"2005/03/29 06:30:00",68.04167,14.01,TRADE
SNOWY1,"2005/03/29 07:00:00",63.87167,17.7,TRADE
SNOWY1,"2005/03/29 07:30:00",68.92833,18.47,TRADE
SNOWY1,"2005/03/29 08:00:00",65.09833,19.55,TRADE
SNOWY1,"2005/03/29 08:30:00",54.37833,20.1,TRADE
SNOWY1,"2005/03/29 09:00:00",29.05,20.4,TRADE
SNOWY1,"2005/03/29 09:30:00",22.445,20.55,TRADE
SNOWY1,"2005/03/29 10:00:00",21.26,20.34,TRADE
SNOWY1,"2005/03/29 10:30:00",22.25333,19.73,TRADE
SNOWY1,"2005/03/29 11:00:00",20.945,19.6,TRADE
SNOWY1,"2005/03/29 11:30:00",27.67333,19.56,TRADE
SNOWY1,"2005/03/29 12:00:00",26.12167,19.58,TRADE
SNOWY1,"2005/03/29 12:30:00",22.94333,19.55,TRADE
SNOWY1,"2005/03/29 13:00:00",20.81333,19.58,TRADE
SNOWY1,"2005/03/29 13:30:00",27.95,19.52,TRADE
SNOWY1,"2005/03/29 14:00:00",21.37333,19.5,TRADE
SNOWY1,"2005/03/29 14:30:00",26.77667,19.5,TRADE
SNOWY1,"2005/03/29 15:00:00",31.39333,19.5,TRADE
SNOWY1,"2005/03/29 15:30:00",18.56333,18.47,TRADE
SNOWY1,"2005/03/29 16:00:00",31.24,17.38,TRADE
SNOWY1,"2005/03/29 16:30:00",17.41833,17.92,TRADE
SNOWY1,"2005/03/29 17:00:00",25.00667,19.16,TRADE
SNOWY1,"2005/03/29 17:30:00",25.55667,19.06,TRADE
SNOWY1,"2005/03/29 18:00:00",30.75167,19.52,TRADE
SNOWY1,"2005/03/29 18:30:00",28.57333,22.93,TRADE
SNOWY1,"2005/03/29 19:00:00",38.49,24.33,TRADE
SNOWY1,"2005/03/29 19:30:00",31.045,19.93,TRADE
SNOWY1,"2005/03/29 20:00:00",19.03333,18.35,TRADE
SNOWY1,"2005/03/29 20:30:00",24.04667,19.06,TRADE
SNOWY1,"2005/03/29 21:00:00",28.36667,17.01,TRADE
SNOWY1,"2005/03/29 21:30:00",19.035,17.18,TRADE
SNOWY1,"2005/03/29 22:00:00",24.96,16.11,TRADE
SNOWY1,"2005/03/29 22:30:00",17.64333,19.52,TRADE
SNOWY1,"2005/03/29 23:00:00",24.01667,19.69,TRADE
SNOWY1,"2005/03/29 23:30:00",13.6,21.03,TRADE
SNOWY1,"2005/03/30 00:00:00",27.99833,20.72,TRADE
SNOWY1,"2005/03/30 00:30:00",26.19333,20.05,TRADE
SNOWY1,"2005/03/30 01:00:00",18.65667,18.54,TRADE
SNOWY1,"2005/03/30 01:30:00",17.97667,21.46,TRADE
SNOWY1,"2005/03/30 02:00:00",29.02833,17.62,TRADE
SNOWY1,"2005/03/30 02:30:00",31.155,15.05,TRADE
SNOWY1,"2005/03/30 03:00:00",50.05833,14.65,TRADE
SNOWY1,"2005/03/30 03:30:00",57.46833,13.98,TRADE
SNOWY1,"2005/03/30 04:00:00",60.34667,13.42,TRADE
SNOWY1,"2005/03/30 04:30:00",59.285,13.14,TRADE
SNOWY1,"2005/03/30 05:00:00",60.535,13.62,TRADE
SNOWY1,"2005/03/30 05:30:00",58.24833,15.05,TRADE
SNOWY1,"2005/03/30 06:00:00",51.29167,15.34,TRADE
SNOWY1,"2005/03/30 06:30:00",60.13667,16.58,TRADE
SNOWY1,"2005/03/30 07:00:00",65.14167,17.7,TRADE
SNOWY1,"2005/03/30 07:30:00",65.395,17.18,TRADE
SNOWY1,"2005/03/30 08:00:00",39.18667,19.16,TRADE
SNOWY1,"2005/03/30 08:30:00",42.94833,19.57,TRADE
SNOWY1,"2005/03/30 09:00:00",19.29,19.6,TRADE
SNOWY1,"2005/03/30 09:30:00",22.325,19.6,TRADE
SNOWY1,"2005/03/30 10:00:00",21.335,20.05,TRADE
SNOWY1,"2005/03/30 10:30:00",12.40833,20.06,TRADE
SNOWY1,"2005/03/30 11:00:00",10.335,19.66,TRADE
SNOWY1,"2005/03/30 11:30:00",9.87333,19.84,TRADE
SNOWY1,"2005/03/30 12:00:00",16.505,20.33,TRADE
SNOWY1,"2005/03/30 12:30:00",14.75833,20.27,TRADE
SNOWY1,"2005/03/30 13:00:00",15.13833,20.4,TRADE
SNOWY1,"2005/03/30 13:30:00",14.05,21.01,TRADE
SNOWY1,"2005/03/30 14:00:00",13.55333,21.17,TRADE
SNOWY1,"2005/03/30 14:30:00",28.50667,25.75,TRADE
SNOWY1,"2005/03/30 15:00:00",48.88667,25.38,TRADE
SNOWY1,"2005/03/30 15:30:00",33.455,25.63,TRADE
SNOWY1,"2005/03/30 16:00:00",48.66333,25.17,TRADE
SNOWY1,"2005/03/30 16:30:00",28.63833,21.34,TRADE
SNOWY1,"2005/03/30 17:00:00",28.45167,19.6,TRADE
SNOWY1,"2005/03/30 17:30:00",30.39333,19.59,TRADE
SNOWY1,"2005/03/30 18:00:00",29.71333,20.66,TRADE
SNOWY1,"2005/03/30 18:30:00",38.91333,23.4,TRADE
SNOWY1,"2005/03/30 19:00:00",27.685,23.3,TRADE
SNOWY1,"2005/03/30 19:30:00",18.76333,19.86,TRADE
SNOWY1,"2005/03/30 20:00:00",40.45833,19.52,TRADE
SNOWY1,"2005/03/30 20:30:00",32.41,17.71,TRADE
SNOWY1,"2005/03/30 21:00:00",28.15833,16.52,TRADE
SNOWY1,"2005/03/30 21:30:00",32.89,16.54,TRADE
SNOWY1,"2005/03/30 22:00:00",36.47167,15.45,TRADE
SNOWY1,"2005/03/30 22:30:00",16.44833,17.98,TRADE
SNOWY1,"2005/03/30 23:00:00",18.525,18.36,TRADE
SNOWY1,"2005/03/30 23:30:00",28.39167,20.13,TRADE
SNOWY1,"2005/03/31 00:00:00",25.37167,20.02,TRADE
SNOWY1,"2005/03/31 00:30:00",28.45667,19.25,TRADE
SNOWY1,"2005/03/31 01:00:00",33.90667,17.96,TRADE
SNOWY1,"2005/03/31 01:30:00",58.45833,18.77,TRADE
SNOWY1,"2005/03/31 02:00:00",40.6,17.32,TRADE
SNOWY1,"2005/03/31 02:30:00",63.145,15.03,TRADE
SNOWY1,"2005/03/31 03:00:00",60.34167,14.87,TRADE
SNOWY1,"2005/03/31 03:30:00",66.53,14.24,TRADE
SNOWY1,"2005/03/31 04:00:00",64.18333,13.69,TRADE
SNOWY1,"2005/03/31 04:30:00",65.85833,13.17,TRADE
SNOWY1,"2005/03/31 05:00:00",59.555,13.68,TRADE
SNOWY1,"2005/03/31 05:30:00",61.91167,14.78,TRADE
SNOWY1,"2005/03/31 06:00:00",59.16,15.11,TRADE
SNOWY1,"2005/03/31 06:30:00",61.48833,16.21,TRADE
SNOWY1,"2005/03/31 07:00:00",74.40167,16.23,TRADE
SNOWY1,"2005/03/31 07:30:00",71.49167,16.3,TRADE
SNOWY1,"2005/03/31 08:00:00",61.585,18.12,TRADE
SNOWY1,"2005/03/31 08:30:00",37.67167,18.6,TRADE
SNOWY1,"2005/03/31 09:00:00",31.03667,18.96,TRADE
SNOWY1,"2005/03/31 09:30:00",33.73833,19.53,TRADE
SNOWY1,"2005/03/31 10:00:00",22.38167,19.5,TRADE
SNOWY1,"2005/03/31 10:30:00",31.35667,19.5,TRADE
SNOWY1,"2005/03/31 11:00:00",45.36167,19.57,TRADE
SNOWY1,"2005/03/31 11:30:00",26.24167,19.52,TRADE
SNOWY1,"2005/03/31 12:00:00",35.71667,19.57,TRADE
SNOWY1,"2005/03/31 12:30:00",35.44833,19.53,TRADE
SNOWY1,"2005/03/31 13:00:00",35.43,19.98,TRADE
SNOWY1,"2005/03/31 13:30:00",27.92333,21.35,TRADE
SNOWY1,"2005/03/31 14:00:00",31.59167,25.53,TRADE
SNOWY1,"2005/03/31 14:30:00",33.505,26.5,TRADE
SNOWY1,"2005/03/31 15:00:00",23.835,24.45,TRADE
SNOWY1,"2005/03/31 15:30:00",6.515,22.2,TRADE
SNOWY1,"2005/03/31 16:00:00",22.69167,21.38,TRADE
SNOWY1,"2005/03/31 16:30:00",46.21,21.7,TRADE
SNOWY1,"2005/03/31 17:00:00",45.90333,21.89,TRADE
SNOWY1,"2005/03/31 17:30:00",19.065,21.8,TRADE
SNOWY1,"2005/03/31 18:00:00",27.17,23.42,TRADE
SNOWY1,"2005/03/31 18:30:00",42.68,29.3,TRADE
SNOWY1,"2005/03/31 19:00:00",34.105,28.05,TRADE
SNOWY1,"2005/03/31 19:30:00",22.06833,24.35,TRADE
SNOWY1,"2005/03/31 20:00:00",28.04167,20.7,TRADE
SNOWY1,"2005/03/31 20:30:00",21.64167,19.8,TRADE
SNOWY1,"2005/03/31 21:00:00",33.385,19.05,TRADE
SNOWY1,"2005/03/31 21:30:00",25.22833,19.44,TRADE
SNOWY1,"2005/03/31 22:00:00",29.54167,17.79,TRADE
SNOWY1,"2005/03/31 22:30:00",29.58333,21.09,TRADE
SNOWY1,"2005/03/31 23:00:00",26.76,21.55,TRADE
SNOWY1,"2005/03/31 23:30:00",31.87,25.53,TRADE
SNOWY1,"2005/04/01 00:00:00",27.62333,22.92,TRADE
