REGION,SETTLEMENTDATE,TOTALDEMAND,RRP,PERIODTYPE
TAS1,"2008/12/01 00:30:00",891.43,25.18,TRADE
TAS1,"2008/12/01 01:00:00",881.65,25.18,TRADE
TAS1,"2008/12/01 01:30:00",880.25,25.18,TRADE
TAS1,"2008/12/01 02:00:00",878.73,25.18,TRADE
TAS1,"2008/12/01 02:30:00",884,25.18,TRADE
TAS1,"2008/12/01 03:00:00",885.82,25.18,TRADE
TAS1,"2008/12/01 03:30:00",887.52,25.18,TRADE
TAS1,"2008/12/01 04:00:00",891.94,25.18,TRADE
TAS1,"2008/12/01 04:30:00",901.47,6.08,TRADE
TAS1,"2008/12/01 05:00:00",940.52,9.9,TRADE
TAS1,"2008/12/01 05:30:00",1014.75,14.29,TRADE
TAS1,"2008/12/01 06:00:00",1095.59,25.28,TRADE
TAS1,"2008/12/01 06:30:00",1183.46,25.25,TRADE
TAS1,"2008/12/01 07:00:00",1205.52,35.27,TRADE
TAS1,"2008/12/01 07:30:00",1206.74,35.25,TRADE
TAS1,"2008/12/01 08:00:00",1207.41,27.91,TRADE
TAS1,"2008/12/01 08:30:00",1204.44,29.1,TRADE
TAS1,"2008/12/01 09:00:00",1192.6,28.46,TRADE
TAS1,"2008/12/01 09:30:00",1174.18,35.3,TRADE
TAS1,"2008/12/01 10:00:00",1179.72,35.3,TRADE
TAS1,"2008/12/01 10:30:00",1191.82,46.13,TRADE
TAS1,"2008/12/01 11:00:00",1175.17,43.93,TRADE
TAS1,"2008/12/01 11:30:00",1172.58,45.61,TRADE
TAS1,"2008/12/01 12:00:00",1109.1,39.09,TRADE
TAS1,"2008/12/01 12:30:00",1101.56,35.04,TRADE
TAS1,"2008/12/01 13:00:00",1085.54,35,TRADE
TAS1,"2008/12/01 13:30:00",1096.36,36.97,TRADE
TAS1,"2008/12/01 14:00:00",1122.27,48.26,TRADE
TAS1,"2008/12/01 14:30:00",1115.02,44.5,TRADE
TAS1,"2008/12/01 15:00:00",1086.1,35.41,TRADE
TAS1,"2008/12/01 15:30:00",1104.42,38.44,TRADE
TAS1,"2008/12/01 16:00:00",1124.36,48.26,TRADE
TAS1,"2008/12/01 16:30:00",1127.06,48.28,TRADE
TAS1,"2008/12/01 17:00:00",1155.65,48.3,TRADE
TAS1,"2008/12/01 17:30:00",1147.78,48.3,TRADE
TAS1,"2008/12/01 18:00:00",1157.69,35.3,TRADE
TAS1,"2008/12/01 18:30:00",1149.51,35.3,TRADE
TAS1,"2008/12/01 19:00:00",1150.18,35.3,TRADE
TAS1,"2008/12/01 19:30:00",1154.15,35.3,TRADE
TAS1,"2008/12/01 20:00:00",1162.21,35.3,TRADE
TAS1,"2008/12/01 20:30:00",1162.49,35.3,TRADE
TAS1,"2008/12/01 21:00:00",1143.39,35.3,TRADE
TAS1,"2008/12/01 21:30:00",1098.66,35.3,TRADE
TAS1,"2008/12/01 22:00:00",1055.13,30.3,TRADE
TAS1,"2008/12/01 22:30:00",1010.81,25.25,TRADE
TAS1,"2008/12/01 23:00:00",972.04,25.24,TRADE
TAS1,"2008/12/01 23:30:00",949.75,25.24,TRADE
TAS1,"2008/12/02 00:00:00",951.69,25.24,TRADE
TAS1,"2008/12/02 00:30:00",929.64,21.64,TRADE
TAS1,"2008/12/02 01:00:00",919.19,13.29,TRADE
TAS1,"2008/12/02 01:30:00",906.87,13.78,TRADE
TAS1,"2008/12/02 02:00:00",898.62,12.44,TRADE
TAS1,"2008/12/02 02:30:00",894.39,8.81,TRADE
TAS1,"2008/12/02 03:00:00",898.76,9.36,TRADE
TAS1,"2008/12/02 03:30:00",910.07,12.35,TRADE
TAS1,"2008/12/02 04:00:00",909.44,9.28,TRADE
TAS1,"2008/12/02 04:30:00",931.82,20.51,TRADE
TAS1,"2008/12/02 05:00:00",964.31,25.24,TRADE
TAS1,"2008/12/02 05:30:00",1031.92,25.25,TRADE
TAS1,"2008/12/02 06:00:00",1132.61,25.26,TRADE
TAS1,"2008/12/02 06:30:00",1225,38.27,TRADE
TAS1,"2008/12/02 07:00:00",1259.81,38.3,TRADE
TAS1,"2008/12/02 07:30:00",1257.36,38.29,TRADE
TAS1,"2008/12/02 08:00:00",1231.68,38.24,TRADE
TAS1,"2008/12/02 08:30:00",1200.24,38.24,TRADE
TAS1,"2008/12/02 09:00:00",1201.77,38.27,TRADE
TAS1,"2008/12/02 09:30:00",1197.26,38.3,TRADE
TAS1,"2008/12/02 10:00:00",1206.15,38.3,TRADE
TAS1,"2008/12/02 10:30:00",1198.81,38.3,TRADE
TAS1,"2008/12/02 11:00:00",1207.21,48.3,TRADE
TAS1,"2008/12/02 11:30:00",1197.48,48.3,TRADE
TAS1,"2008/12/02 12:00:00",1167.5,48.3,TRADE
TAS1,"2008/12/02 12:30:00",1137.66,48.3,TRADE
TAS1,"2008/12/02 13:00:00",1148.41,39.93,TRADE
TAS1,"2008/12/02 13:30:00",1160.85,38.28,TRADE
TAS1,"2008/12/02 14:00:00",1145.64,46.63,TRADE
TAS1,"2008/12/02 14:30:00",1140,48.3,TRADE
TAS1,"2008/12/02 15:00:00",1140.89,48.29,TRADE
TAS1,"2008/12/02 15:30:00",1178.68,58.29,TRADE
TAS1,"2008/12/02 16:00:00",1166.5,48.26,TRADE
TAS1,"2008/12/02 16:30:00",1208.34,48.3,TRADE
TAS1,"2008/12/02 17:00:00",1200.64,48.3,TRADE
TAS1,"2008/12/02 17:30:00",1206.74,39.97,TRADE
TAS1,"2008/12/02 18:00:00",1250.46,38.3,TRADE
TAS1,"2008/12/02 18:30:00",1238.55,38.3,TRADE
TAS1,"2008/12/02 19:00:00",1216.4,38.3,TRADE
TAS1,"2008/12/02 19:30:00",1194.82,38.3,TRADE
TAS1,"2008/12/02 20:00:00",1227.75,38.3,TRADE
TAS1,"2008/12/02 20:30:00",1248,38.32,TRADE
TAS1,"2008/12/02 21:00:00",1196.1,38.3,TRADE
TAS1,"2008/12/02 21:30:00",1142.09,38.28,TRADE
TAS1,"2008/12/02 22:00:00",1082.34,38.25,TRADE
TAS1,"2008/12/02 22:30:00",1021.91,38.27,TRADE
TAS1,"2008/12/02 23:00:00",1007.14,38.29,TRADE
TAS1,"2008/12/02 23:30:00",1019.22,38.3,TRADE
TAS1,"2008/12/03 00:00:00",970.58,38.3,TRADE
TAS1,"2008/12/03 00:30:00",945.92,25.29,TRADE
TAS1,"2008/12/03 01:00:00",982.07,25.3,TRADE
TAS1,"2008/12/03 01:30:00",975.6,25.3,TRADE
TAS1,"2008/12/03 02:00:00",949.66,25.29,TRADE
TAS1,"2008/12/03 02:30:00",992.27,25.3,TRADE
TAS1,"2008/12/03 03:00:00",1003.4,25.3,TRADE
TAS1,"2008/12/03 03:30:00",957.07,25.3,TRADE
TAS1,"2008/12/03 04:00:00",952.74,25.3,TRADE
TAS1,"2008/12/03 04:30:00",952.76,25.27,TRADE
TAS1,"2008/12/03 05:00:00",959.88,25.25,TRADE
TAS1,"2008/12/03 05:30:00",1014.44,33.96,TRADE
TAS1,"2008/12/03 06:00:00",1093.26,48.24,TRADE
TAS1,"2008/12/03 06:30:00",1176.51,44.07,TRADE
TAS1,"2008/12/03 07:00:00",1233.39,48.24,TRADE
TAS1,"2008/12/03 07:30:00",1234.85,48.24,TRADE
TAS1,"2008/12/03 08:00:00",1213.36,48.24,TRADE
TAS1,"2008/12/03 08:30:00",1218.63,48.24,TRADE
TAS1,"2008/12/03 09:00:00",1172.28,48.27,TRADE
TAS1,"2008/12/03 09:30:00",1170.46,48.27,TRADE
TAS1,"2008/12/03 10:00:00",1141.92,48.27,TRADE
TAS1,"2008/12/03 10:30:00",1148.77,48.27,TRADE
TAS1,"2008/12/03 11:00:00",1144.36,48.25,TRADE
TAS1,"2008/12/03 11:30:00",1127.71,48.24,TRADE
TAS1,"2008/12/03 12:00:00",1124.46,56.62,TRADE
TAS1,"2008/12/03 12:30:00",1106.42,48.24,TRADE
TAS1,"2008/12/03 13:00:00",1103.56,53.27,TRADE
TAS1,"2008/12/03 13:30:00",1110.99,49.92,TRADE
TAS1,"2008/12/03 14:00:00",1113.77,48.24,TRADE
TAS1,"2008/12/03 14:30:00",1112.03,48.24,TRADE
TAS1,"2008/12/03 15:00:00",1094.39,53.28,TRADE
TAS1,"2008/12/03 15:30:00",1096.48,56.64,TRADE
TAS1,"2008/12/03 16:00:00",1110.47,48.24,TRADE
TAS1,"2008/12/03 16:30:00",1122.48,48.24,TRADE
TAS1,"2008/12/03 17:00:00",1134.73,38.24,TRADE
TAS1,"2008/12/03 17:30:00",1134.49,38.24,TRADE
TAS1,"2008/12/03 18:00:00",1147.64,33.94,TRADE
TAS1,"2008/12/03 18:30:00",1139.12,27.42,TRADE
TAS1,"2008/12/03 19:00:00",1137.21,25.24,TRADE
TAS1,"2008/12/03 19:30:00",1177.57,27.45,TRADE
TAS1,"2008/12/03 20:00:00",1204.35,25.3,TRADE
TAS1,"2008/12/03 20:30:00",1228.74,25.3,TRADE
TAS1,"2008/12/03 21:00:00",1214.94,25.3,TRADE
TAS1,"2008/12/03 21:30:00",1188.07,29.59,TRADE
TAS1,"2008/12/03 22:00:00",1135.55,25.24,TRADE
TAS1,"2008/12/03 22:30:00",1095.6,25.24,TRADE
TAS1,"2008/12/03 23:00:00",1051.62,25.22,TRADE
TAS1,"2008/12/03 23:30:00",1038.86,25.22,TRADE
TAS1,"2008/12/04 00:00:00",1032.27,25.24,TRADE
TAS1,"2008/12/04 00:30:00",1034.21,25.24,TRADE
TAS1,"2008/12/04 01:00:00",1028.61,25.28,TRADE
TAS1,"2008/12/04 01:30:00",1037.52,25.3,TRADE
TAS1,"2008/12/04 02:00:00",1047.49,25.3,TRADE
TAS1,"2008/12/04 02:30:00",1052.62,25.3,TRADE
TAS1,"2008/12/04 03:00:00",1040.56,25.3,TRADE
TAS1,"2008/12/04 03:30:00",1051.98,25.3,TRADE
TAS1,"2008/12/04 04:00:00",1061.21,25.3,TRADE
TAS1,"2008/12/04 04:30:00",1087.39,79.32,TRADE
TAS1,"2008/12/04 05:00:00",1132.56,25.28,TRADE
TAS1,"2008/12/04 05:30:00",1225.49,25.29,TRADE
TAS1,"2008/12/04 06:00:00",1322.02,38.3,TRADE
TAS1,"2008/12/04 06:30:00",1402.48,73.97,TRADE
TAS1,"2008/12/04 07:00:00",1458.82,106.32,TRADE
TAS1,"2008/12/04 07:30:00",1442.5,77.3,TRADE
TAS1,"2008/12/04 08:00:00",1401.27,48.3,TRADE
TAS1,"2008/12/04 08:30:00",1358.76,48.26,TRADE
TAS1,"2008/12/04 09:00:00",1330.13,48.28,TRADE
TAS1,"2008/12/04 09:30:00",1303.33,48.27,TRADE
TAS1,"2008/12/04 10:00:00",1298.06,48.26,TRADE
TAS1,"2008/12/04 10:30:00",1268.07,48.25,TRADE
TAS1,"2008/12/04 11:00:00",1246.78,48.27,TRADE
TAS1,"2008/12/04 11:30:00",1213.7,48.26,TRADE
TAS1,"2008/12/04 12:00:00",1203.56,48.3,TRADE
TAS1,"2008/12/04 12:30:00",1185.71,48.26,TRADE
TAS1,"2008/12/04 13:00:00",1183.84,48.26,TRADE
TAS1,"2008/12/04 13:30:00",1187,48.26,TRADE
TAS1,"2008/12/04 14:00:00",1191.67,48.26,TRADE
TAS1,"2008/12/04 14:30:00",1186.1,46.59,TRADE
TAS1,"2008/12/04 15:00:00",1184.06,38.26,TRADE
TAS1,"2008/12/04 15:30:00",1169.96,38.26,TRADE
TAS1,"2008/12/04 16:00:00",1190.4,38.24,TRADE
TAS1,"2008/12/04 16:30:00",1205.54,38.25,TRADE
TAS1,"2008/12/04 17:00:00",1210.83,38.28,TRADE
TAS1,"2008/12/04 17:30:00",1206.76,38.27,TRADE
TAS1,"2008/12/04 18:00:00",1204.48,38.3,TRADE
TAS1,"2008/12/04 18:30:00",1207.75,38.3,TRADE
TAS1,"2008/12/04 19:00:00",1206.66,38.3,TRADE
TAS1,"2008/12/04 19:30:00",1206.92,38.3,TRADE
TAS1,"2008/12/04 20:00:00",1212.5,38.3,TRADE
TAS1,"2008/12/04 20:30:00",1206.99,38.3,TRADE
TAS1,"2008/12/04 21:00:00",1183.24,38.29,TRADE
TAS1,"2008/12/04 21:30:00",1130.02,38.29,TRADE
TAS1,"2008/12/04 22:00:00",1082.26,29.57,TRADE
TAS1,"2008/12/04 22:30:00",1027.91,25.23,TRADE
TAS1,"2008/12/04 23:00:00",1002.28,25.23,TRADE
TAS1,"2008/12/04 23:30:00",983.99,25.23,TRADE
TAS1,"2008/12/05 00:00:00",955.35,25.25,TRADE
TAS1,"2008/12/05 00:30:00",946.99,25.23,TRADE
TAS1,"2008/12/05 01:00:00",939.07,25.23,TRADE
TAS1,"2008/12/05 01:30:00",932.81,25.23,TRADE
TAS1,"2008/12/05 02:00:00",928.46,25.23,TRADE
TAS1,"2008/12/05 02:30:00",924.55,25.23,TRADE
TAS1,"2008/12/05 03:00:00",923.21,25.23,TRADE
TAS1,"2008/12/05 03:30:00",931.32,25.23,TRADE
TAS1,"2008/12/05 04:00:00",941.56,25.23,TRADE
TAS1,"2008/12/05 04:30:00",954.17,25.22,TRADE
TAS1,"2008/12/05 05:00:00",990.25,25.22,TRADE
TAS1,"2008/12/05 05:30:00",1078.12,25.27,TRADE
TAS1,"2008/12/05 06:00:00",1155.87,38.25,TRADE
TAS1,"2008/12/05 06:30:00",1253.13,38.26,TRADE
TAS1,"2008/12/05 07:00:00",1334.72,38.26,TRADE
TAS1,"2008/12/05 07:30:00",1320.55,38.43,TRADE
TAS1,"2008/12/05 08:00:00",1320.61,38.28,TRADE
TAS1,"2008/12/05 08:30:00",1336.74,38.76,TRADE
TAS1,"2008/12/05 09:00:00",1328.7,44.96,TRADE
TAS1,"2008/12/05 09:30:00",1318.94,48.29,TRADE
TAS1,"2008/12/05 10:00:00",1306.62,48.3,TRADE
TAS1,"2008/12/05 10:30:00",1282.62,48.29,TRADE
TAS1,"2008/12/05 11:00:00",1250.66,53.28,TRADE
TAS1,"2008/12/05 11:30:00",1224.04,58.28,TRADE
TAS1,"2008/12/05 12:00:00",1198.15,70.78,TRADE
TAS1,"2008/12/05 12:30:00",1177.2,53.28,TRADE
TAS1,"2008/12/05 13:00:00",1177.66,76.76,TRADE
TAS1,"2008/12/05 13:30:00",1151.37,106.28,TRADE
TAS1,"2008/12/05 14:00:00",1128.58,124.92,TRADE
TAS1,"2008/12/05 14:30:00",1151.85,143.55,TRADE
TAS1,"2008/12/05 15:00:00",1143.29,106.23,TRADE
TAS1,"2008/12/05 15:30:00",1153.67,102.51,TRADE
TAS1,"2008/12/05 16:00:00",1175.48,93.94,TRADE
TAS1,"2008/12/05 16:30:00",1170.95,51,TRADE
TAS1,"2008/12/05 17:00:00",1182.11,36.76,TRADE
TAS1,"2008/12/05 17:30:00",1169.17,32.08,TRADE
TAS1,"2008/12/05 18:00:00",1163.58,38.17,TRADE
TAS1,"2008/12/05 18:30:00",1131.31,38.14,TRADE
TAS1,"2008/12/05 19:00:00",1113.81,38.15,TRADE
TAS1,"2008/12/05 19:30:00",1104.63,46.61,TRADE
TAS1,"2008/12/05 20:00:00",1105.8,48.28,TRADE
TAS1,"2008/12/05 20:30:00",1110.08,38.28,TRADE
TAS1,"2008/12/05 21:00:00",1080.29,38.2,TRADE
TAS1,"2008/12/05 21:30:00",1054.68,38.21,TRADE
TAS1,"2008/12/05 22:00:00",1024.22,38.2,TRADE
TAS1,"2008/12/05 22:30:00",1007.28,38.23,TRADE
TAS1,"2008/12/05 23:00:00",1012.1,38.16,TRADE
TAS1,"2008/12/05 23:30:00",966.66,38.25,TRADE
TAS1,"2008/12/06 00:00:00",940.48,38.2,TRADE
TAS1,"2008/12/06 00:30:00",937.52,38.27,TRADE
TAS1,"2008/12/06 01:00:00",928.4,38.23,TRADE
TAS1,"2008/12/06 01:30:00",909.63,38.19,TRADE
TAS1,"2008/12/06 02:00:00",919.67,38.23,TRADE
TAS1,"2008/12/06 02:30:00",935.15,25.28,TRADE
TAS1,"2008/12/06 03:00:00",914.06,25.22,TRADE
TAS1,"2008/12/06 03:30:00",918.44,25.24,TRADE
TAS1,"2008/12/06 04:00:00",937.75,25.29,TRADE
TAS1,"2008/12/06 04:30:00",933.3,25.24,TRADE
TAS1,"2008/12/06 05:00:00",967.91,25.28,TRADE
TAS1,"2008/12/06 05:30:00",1002.47,25.3,TRADE
TAS1,"2008/12/06 06:00:00",1011.02,25.24,TRADE
TAS1,"2008/12/06 06:30:00",1031.26,38.24,TRADE
TAS1,"2008/12/06 07:00:00",1040.33,38.24,TRADE
TAS1,"2008/12/06 07:30:00",1086.66,18.49,TRADE
TAS1,"2008/12/06 08:00:00",1113.81,25.24,TRADE
TAS1,"2008/12/06 08:30:00",1137.78,25.24,TRADE
TAS1,"2008/12/06 09:00:00",1133.62,25.24,TRADE
TAS1,"2008/12/06 09:30:00",1123.19,25.24,TRADE
TAS1,"2008/12/06 10:00:00",1088.18,37.74,TRADE
TAS1,"2008/12/06 10:30:00",1065.81,48.24,TRADE
TAS1,"2008/12/06 11:00:00",1067.41,48.24,TRADE
TAS1,"2008/12/06 11:30:00",1044.95,48.24,TRADE
TAS1,"2008/12/06 12:00:00",1036.78,33.88,TRADE
TAS1,"2008/12/06 12:30:00",1071.43,25.3,TRADE
TAS1,"2008/12/06 13:00:00",1032.38,29.09,TRADE
TAS1,"2008/12/06 13:30:00",1045.69,48.28,TRADE
TAS1,"2008/12/06 14:00:00",1076.4,49.97,TRADE
TAS1,"2008/12/06 14:30:00",1070,48.29,TRADE
TAS1,"2008/12/06 15:00:00",1050.59,48.24,TRADE
TAS1,"2008/12/06 15:30:00",1017.31,48.23,TRADE
TAS1,"2008/12/06 16:00:00",1019.23,48.24,TRADE
TAS1,"2008/12/06 16:30:00",1034.58,48.24,TRADE
TAS1,"2008/12/06 17:00:00",1062.32,48.24,TRADE
TAS1,"2008/12/06 17:30:00",1034.58,38.24,TRADE
TAS1,"2008/12/06 18:00:00",1041.84,38.24,TRADE
TAS1,"2008/12/06 18:30:00",1023.54,38.24,TRADE
TAS1,"2008/12/06 19:00:00",1010.54,38.24,TRADE
TAS1,"2008/12/06 19:30:00",1012.58,38.24,TRADE
TAS1,"2008/12/06 20:00:00",1028.39,38.24,TRADE
TAS1,"2008/12/06 20:30:00",1029.96,38.24,TRADE
TAS1,"2008/12/06 21:00:00",1016.85,38.24,TRADE
TAS1,"2008/12/06 21:30:00",990.48,25.24,TRADE
TAS1,"2008/12/06 22:00:00",964.02,25.24,TRADE
TAS1,"2008/12/06 22:30:00",969.12,25.24,TRADE
TAS1,"2008/12/06 23:00:00",954.3,25.24,TRADE
TAS1,"2008/12/06 23:30:00",931.33,25.24,TRADE
TAS1,"2008/12/07 00:00:00",908.07,25.22,TRADE
TAS1,"2008/12/07 00:30:00",902.38,25.24,TRADE
TAS1,"2008/12/07 01:00:00",901.75,25.24,TRADE
TAS1,"2008/12/07 01:30:00",899.8,25.24,TRADE
TAS1,"2008/12/07 02:00:00",899.52,25.24,TRADE
TAS1,"2008/12/07 02:30:00",890.6,25.24,TRADE
TAS1,"2008/12/07 03:00:00",895.65,25.24,TRADE
TAS1,"2008/12/07 03:30:00",892.39,25.24,TRADE
TAS1,"2008/12/07 04:00:00",895.06,25.24,TRADE
TAS1,"2008/12/07 04:30:00",907.81,25.22,TRADE
TAS1,"2008/12/07 05:00:00",916.48,25.25,TRADE
TAS1,"2008/12/07 05:30:00",948.89,25.3,TRADE
TAS1,"2008/12/07 06:00:00",955.17,25.27,TRADE
TAS1,"2008/12/07 06:30:00",982.72,25.26,TRADE
TAS1,"2008/12/07 07:00:00",1027.47,25.24,TRADE
TAS1,"2008/12/07 07:30:00",1077.44,25.26,TRADE
TAS1,"2008/12/07 08:00:00",1111.47,25.24,TRADE
TAS1,"2008/12/07 08:30:00",1133.99,25.26,TRADE
TAS1,"2008/12/07 09:00:00",1152.23,25.3,TRADE
TAS1,"2008/12/07 09:30:00",1154.87,25.29,TRADE
TAS1,"2008/12/07 10:00:00",1130.22,25.25,TRADE
TAS1,"2008/12/07 10:30:00",1086.77,25.24,TRADE
TAS1,"2008/12/07 11:00:00",1022.34,25.24,TRADE
TAS1,"2008/12/07 11:30:00",1005.68,25.26,TRADE
TAS1,"2008/12/07 12:00:00",988.83,25.24,TRADE
TAS1,"2008/12/07 12:30:00",968.84,25.24,TRADE
TAS1,"2008/12/07 13:00:00",962.45,25.24,TRADE
TAS1,"2008/12/07 13:30:00",936.39,25.22,TRADE
TAS1,"2008/12/07 14:00:00",943.08,25.24,TRADE
TAS1,"2008/12/07 14:30:00",963.12,25.24,TRADE
TAS1,"2008/12/07 15:00:00",950.46,25.24,TRADE
TAS1,"2008/12/07 15:30:00",967.03,25.24,TRADE
TAS1,"2008/12/07 16:00:00",1084.02,36.12,TRADE
TAS1,"2008/12/07 16:30:00",1099.26,33.95,TRADE
TAS1,"2008/12/07 17:00:00",1107.02,25.24,TRADE
TAS1,"2008/12/07 17:30:00",1123.04,25.25,TRADE
TAS1,"2008/12/07 18:00:00",1144.72,25.29,TRADE
TAS1,"2008/12/07 18:30:00",1149.89,25.27,TRADE
TAS1,"2008/12/07 19:00:00",1141.64,25.26,TRADE
TAS1,"2008/12/07 19:30:00",1138.3,25.25,TRADE
TAS1,"2008/12/07 20:00:00",1162.44,25.27,TRADE
TAS1,"2008/12/07 20:30:00",1168.66,25.27,TRADE
TAS1,"2008/12/07 21:00:00",1158.23,25.26,TRADE
TAS1,"2008/12/07 21:30:00",1139.65,25.24,TRADE
TAS1,"2008/12/07 22:00:00",1111.16,25.23,TRADE
TAS1,"2008/12/07 22:30:00",1062.91,25.22,TRADE
TAS1,"2008/12/07 23:00:00",1043.7,25.22,TRADE
TAS1,"2008/12/07 23:30:00",1030.39,25.3,TRADE
TAS1,"2008/12/08 00:00:00",1021.78,25.25,TRADE
TAS1,"2008/12/08 00:30:00",1016.17,25.29,TRADE
TAS1,"2008/12/08 01:00:00",1024.91,25.3,TRADE
TAS1,"2008/12/08 01:30:00",1022.73,25.28,TRADE
TAS1,"2008/12/08 02:00:00",1011.32,25.29,TRADE
TAS1,"2008/12/08 02:30:00",1003.64,25.3,TRADE
TAS1,"2008/12/08 03:00:00",1011.74,25.3,TRADE
TAS1,"2008/12/08 03:30:00",1007.39,25.3,TRADE
TAS1,"2008/12/08 04:00:00",1008.7,25.3,TRADE
TAS1,"2008/12/08 04:30:00",1023.63,25.25,TRADE
TAS1,"2008/12/08 05:00:00",1045.37,25.25,TRADE
TAS1,"2008/12/08 05:30:00",1121.39,25.24,TRADE
TAS1,"2008/12/08 06:00:00",1222.59,25.22,TRADE
TAS1,"2008/12/08 06:30:00",1303.98,31.74,TRADE
TAS1,"2008/12/08 07:00:00",1342.07,38.25,TRADE
TAS1,"2008/12/08 07:30:00",1340.99,38.26,TRADE
TAS1,"2008/12/08 08:00:00",1326.33,38.24,TRADE
TAS1,"2008/12/08 08:30:00",1304.61,44.91,TRADE
TAS1,"2008/12/08 09:00:00",1268.19,44.9,TRADE
TAS1,"2008/12/08 09:30:00",1255.54,48.24,TRADE
TAS1,"2008/12/08 10:00:00",1249.38,48.24,TRADE
TAS1,"2008/12/08 10:30:00",1239.25,48.18,TRADE
TAS1,"2008/12/08 11:00:00",1215.84,46.49,TRADE
TAS1,"2008/12/08 11:30:00",1197.05,48.24,TRADE
TAS1,"2008/12/08 12:00:00",1197.52,63.99,TRADE
TAS1,"2008/12/08 12:30:00",1193.89,46.49,TRADE
TAS1,"2008/12/08 13:00:00",1182.63,41.54,TRADE
TAS1,"2008/12/08 13:30:00",1174.85,38.24,TRADE
TAS1,"2008/12/08 14:00:00",1168.38,51.4,TRADE
TAS1,"2008/12/08 14:30:00",1179.33,44.85,TRADE
TAS1,"2008/12/08 15:00:00",1189.71,38.18,TRADE
TAS1,"2008/12/08 15:30:00",1186.55,38.15,TRADE
TAS1,"2008/12/08 16:00:00",1194.68,38.15,TRADE
TAS1,"2008/12/08 16:30:00",1203.3,41.58,TRADE
TAS1,"2008/12/08 17:00:00",1219.34,34.55,TRADE
TAS1,"2008/12/08 17:30:00",1219.29,36.56,TRADE
TAS1,"2008/12/08 18:00:00",1206.82,38.26,TRADE
TAS1,"2008/12/08 18:30:00",1191.26,38.24,TRADE
TAS1,"2008/12/08 19:00:00",1193.88,38.24,TRADE
TAS1,"2008/12/08 19:30:00",1205.86,38.25,TRADE
TAS1,"2008/12/08 20:00:00",1218.17,38.26,TRADE
TAS1,"2008/12/08 20:30:00",1224.89,38.26,TRADE
TAS1,"2008/12/08 21:00:00",1211.64,38.25,TRADE
TAS1,"2008/12/08 21:30:00",1180.85,38.24,TRADE
TAS1,"2008/12/08 22:00:00",1138.32,38.24,TRADE
TAS1,"2008/12/08 22:30:00",1099.09,38.24,TRADE
TAS1,"2008/12/08 23:00:00",1078.59,38.24,TRADE
TAS1,"2008/12/08 23:30:00",1054.52,38.24,TRADE
TAS1,"2008/12/09 00:00:00",1038.42,25.24,TRADE
TAS1,"2008/12/09 00:30:00",1023.84,38.14,TRADE
TAS1,"2008/12/09 01:00:00",1012.79,25.24,TRADE
TAS1,"2008/12/09 01:30:00",1004.82,25.24,TRADE
TAS1,"2008/12/09 02:00:00",1002.87,25.24,TRADE
TAS1,"2008/12/09 02:30:00",1001.06,25.24,TRADE
TAS1,"2008/12/09 03:00:00",1005.98,25.24,TRADE
TAS1,"2008/12/09 03:30:00",998.07,25.24,TRADE
TAS1,"2008/12/09 04:00:00",989.79,25.24,TRADE
TAS1,"2008/12/09 04:30:00",1035.26,31.72,TRADE
TAS1,"2008/12/09 05:00:00",1087.21,25.25,TRADE
TAS1,"2008/12/09 05:30:00",1132.71,27.39,TRADE
TAS1,"2008/12/09 06:00:00",1220.11,31.75,TRADE
TAS1,"2008/12/09 06:30:00",1271.78,38.24,TRADE
TAS1,"2008/12/09 07:00:00",1317.6,38.24,TRADE
TAS1,"2008/12/09 07:30:00",1318.54,38.24,TRADE
TAS1,"2008/12/09 08:00:00",1269.1,39.89,TRADE
TAS1,"2008/12/09 08:30:00",1257.51,41.53,TRADE
TAS1,"2008/12/09 09:00:00",1228.44,38.24,TRADE
TAS1,"2008/12/09 09:30:00",1250.82,41.54,TRADE
TAS1,"2008/12/09 10:00:00",1230.59,38.24,TRADE
TAS1,"2008/12/09 10:30:00",1224.91,48.16,TRADE
TAS1,"2008/12/09 11:00:00",1221.95,48.16,TRADE
TAS1,"2008/12/09 11:30:00",1204.99,48.2,TRADE
TAS1,"2008/12/09 12:00:00",1149.99,48.14,TRADE
TAS1,"2008/12/09 12:30:00",1138.54,48.15,TRADE
TAS1,"2008/12/09 13:00:00",1143.08,41.68,TRADE
TAS1,"2008/12/09 13:30:00",1132.18,43.22,TRADE
TAS1,"2008/12/09 14:00:00",1125.07,48.24,TRADE
TAS1,"2008/12/09 14:30:00",1119.23,48.24,TRADE
TAS1,"2008/12/09 15:00:00",1129.58,49.84,TRADE
TAS1,"2008/12/09 15:30:00",1135.68,48.15,TRADE
TAS1,"2008/12/09 16:00:00",1134.99,48.83,TRADE
TAS1,"2008/12/09 16:30:00",1183.1,48.24,TRADE
TAS1,"2008/12/09 17:00:00",1239.26,46.58,TRADE
TAS1,"2008/12/09 17:30:00",1204.97,48.24,TRADE
TAS1,"2008/12/09 18:00:00",1190.09,48.24,TRADE
TAS1,"2008/12/09 18:30:00",1181.06,38.24,TRADE
TAS1,"2008/12/09 19:00:00",1193.14,48.17,TRADE
TAS1,"2008/12/09 19:30:00",1192.07,48.14,TRADE
TAS1,"2008/12/09 20:00:00",1206.83,48.25,TRADE
TAS1,"2008/12/09 20:30:00",1233.66,48.3,TRADE
TAS1,"2008/12/09 21:00:00",1230.13,39.9,TRADE
TAS1,"2008/12/09 21:30:00",1204.22,38.3,TRADE
TAS1,"2008/12/09 22:00:00",1169.98,46.53,TRADE
TAS1,"2008/12/09 22:30:00",1128.48,43.25,TRADE
TAS1,"2008/12/09 23:00:00",1086.27,38.24,TRADE
TAS1,"2008/12/09 23:30:00",1061.8,48.16,TRADE
TAS1,"2008/12/10 00:00:00",1037.35,44.84,TRADE
TAS1,"2008/12/10 00:30:00",1031.49,38.23,TRADE
TAS1,"2008/12/10 01:00:00",1036.47,38.22,TRADE
TAS1,"2008/12/10 01:30:00",1035.57,38.18,TRADE
TAS1,"2008/12/10 02:00:00",1039.23,38.23,TRADE
TAS1,"2008/12/10 02:30:00",1043.95,38.25,TRADE
TAS1,"2008/12/10 03:00:00",1047.62,38.28,TRADE
TAS1,"2008/12/10 03:30:00",1048.43,38.3,TRADE
TAS1,"2008/12/10 04:00:00",1053.76,38.25,TRADE
TAS1,"2008/12/10 04:30:00",1066.92,82.95,TRADE
TAS1,"2008/12/10 05:00:00",1091.22,60.65,TRADE
TAS1,"2008/12/10 05:30:00",1154.13,82.95,TRADE
TAS1,"2008/12/10 06:00:00",1240.34,33.95,TRADE
TAS1,"2008/12/10 06:30:00",1318.17,48.34,TRADE
TAS1,"2008/12/10 07:00:00",1351.62,48.3,TRADE
TAS1,"2008/12/10 07:30:00",1315.62,48.3,TRADE
TAS1,"2008/12/10 08:00:00",1265.54,48.29,TRADE
TAS1,"2008/12/10 08:30:00",1216.43,38.22,TRADE
TAS1,"2008/12/10 09:00:00",1183.34,38.22,TRADE
TAS1,"2008/12/10 09:30:00",1161.53,38.22,TRADE
TAS1,"2008/12/10 10:00:00",1153.61,38.22,TRADE
TAS1,"2008/12/10 10:30:00",1126.75,48.22,TRADE
TAS1,"2008/12/10 11:00:00",1117.6,48.23,TRADE
TAS1,"2008/12/10 11:30:00",1091.16,48.2,TRADE
TAS1,"2008/12/10 12:00:00",1076.82,54.86,TRADE
TAS1,"2008/12/10 12:30:00",1081.56,49.89,TRADE
TAS1,"2008/12/10 13:00:00",1073.09,48.24,TRADE
TAS1,"2008/12/10 13:30:00",1069.38,48.23,TRADE
TAS1,"2008/12/10 14:00:00",1061.77,48.2,TRADE
TAS1,"2008/12/10 14:30:00",1081.57,48.17,TRADE
TAS1,"2008/12/10 15:00:00",1082.02,44.89,TRADE
TAS1,"2008/12/10 15:30:00",1079.97,31.79,TRADE
TAS1,"2008/12/10 16:00:00",1105.53,38.2,TRADE
TAS1,"2008/12/10 16:30:00",1121.18,38.2,TRADE
TAS1,"2008/12/10 17:00:00",1143.17,60.58,TRADE
TAS1,"2008/12/10 17:30:00",1123.11,38.2,TRADE
TAS1,"2008/12/10 18:00:00",1134.79,32.89,TRADE
TAS1,"2008/12/10 18:30:00",1131.02,25.2,TRADE
TAS1,"2008/12/10 19:00:00",1132.18,25.2,TRADE
TAS1,"2008/12/10 19:30:00",1141.98,25.2,TRADE
TAS1,"2008/12/10 20:00:00",1170.75,29.58,TRADE
TAS1,"2008/12/10 20:30:00",1200.45,43.43,TRADE
TAS1,"2008/12/10 21:00:00",1190.24,25.22,TRADE
TAS1,"2008/12/10 21:30:00",1157.66,25.22,TRADE
TAS1,"2008/12/10 22:00:00",1119.52,25.22,TRADE
TAS1,"2008/12/10 22:30:00",1084.25,25.21,TRADE
TAS1,"2008/12/10 23:00:00",1056.41,25.22,TRADE
TAS1,"2008/12/10 23:30:00",1028.22,25.22,TRADE
TAS1,"2008/12/11 00:00:00",1012.41,25.22,TRADE
TAS1,"2008/12/11 00:30:00",989.24,25.22,TRADE
TAS1,"2008/12/11 01:00:00",1000.9,25.22,TRADE
TAS1,"2008/12/11 01:30:00",993.76,25.22,TRADE
TAS1,"2008/12/11 02:00:00",987.45,25.22,TRADE
TAS1,"2008/12/11 02:30:00",988.81,25.22,TRADE
TAS1,"2008/12/11 03:00:00",994.53,25.22,TRADE
TAS1,"2008/12/11 03:30:00",991.25,25.22,TRADE
TAS1,"2008/12/11 04:00:00",999.35,25.22,TRADE
TAS1,"2008/12/11 04:30:00",1004.98,25.28,TRADE
TAS1,"2008/12/11 05:00:00",1054.35,25.28,TRADE
TAS1,"2008/12/11 05:30:00",1116.68,25.28,TRADE
TAS1,"2008/12/11 06:00:00",1168.25,36.11,TRADE
TAS1,"2008/12/11 06:30:00",1264.24,38.25,TRADE
TAS1,"2008/12/11 07:00:00",1306.49,38.28,TRADE
TAS1,"2008/12/11 07:30:00",1278.45,58.24,TRADE
TAS1,"2008/12/11 08:00:00",1261.12,58.2,TRADE
TAS1,"2008/12/11 08:30:00",1235.03,58.2,TRADE
TAS1,"2008/12/11 09:00:00",1219.9,48.2,TRADE
TAS1,"2008/12/11 09:30:00",1202.95,48.2,TRADE
TAS1,"2008/12/11 10:00:00",1185.75,48.2,TRADE
TAS1,"2008/12/11 10:30:00",1202.17,48.26,TRADE
TAS1,"2008/12/11 11:00:00",1178.88,48.26,TRADE
TAS1,"2008/12/11 11:30:00",1137.52,48.22,TRADE
TAS1,"2008/12/11 12:00:00",1093.16,48.2,TRADE
TAS1,"2008/12/11 12:30:00",1084.5,48.22,TRADE
TAS1,"2008/12/11 13:00:00",1054.55,48.25,TRADE
TAS1,"2008/12/11 13:30:00",1042.7,48.26,TRADE
TAS1,"2008/12/11 14:00:00",1044.03,38.25,TRADE
TAS1,"2008/12/11 14:30:00",1053.27,38.25,TRADE
TAS1,"2008/12/11 15:00:00",1066.77,38.27,TRADE
TAS1,"2008/12/11 15:30:00",1075.5,38.28,TRADE
TAS1,"2008/12/11 16:00:00",1083.17,38.28,TRADE
TAS1,"2008/12/11 16:30:00",1086.29,38.28,TRADE
TAS1,"2008/12/11 17:00:00",1098.24,38.28,TRADE
TAS1,"2008/12/11 17:30:00",1089.65,38.28,TRADE
TAS1,"2008/12/11 18:00:00",1099.45,38.28,TRADE
TAS1,"2008/12/11 18:30:00",1092.41,38.26,TRADE
TAS1,"2008/12/11 19:00:00",1074.64,38.27,TRADE
TAS1,"2008/12/11 19:30:00",1092.05,38.27,TRADE
TAS1,"2008/12/11 20:00:00",1111.07,38.22,TRADE
TAS1,"2008/12/11 20:30:00",1107.98,38.22,TRADE
TAS1,"2008/12/11 21:00:00",1093.83,38.22,TRADE
TAS1,"2008/12/11 21:30:00",1057.75,36.09,TRADE
TAS1,"2008/12/11 22:00:00",1007.82,25.28,TRADE
TAS1,"2008/12/11 22:30:00",954.54,25.25,TRADE
TAS1,"2008/12/11 23:00:00",903.3,25.28,TRADE
TAS1,"2008/12/11 23:30:00",861.65,25.2,TRADE
TAS1,"2008/12/12 00:00:00",853.61,21.73,TRADE
TAS1,"2008/12/12 00:30:00",835.75,25.18,TRADE
TAS1,"2008/12/12 01:00:00",821.26,13.17,TRADE
TAS1,"2008/12/12 01:30:00",821.03,10.53,TRADE
TAS1,"2008/12/12 02:00:00",818.67,9.2,TRADE
TAS1,"2008/12/12 02:30:00",809.14,1.26,TRADE
TAS1,"2008/12/12 03:00:00",810.66,1.31,TRADE
TAS1,"2008/12/12 03:30:00",816.7,21.28,TRADE
TAS1,"2008/12/12 04:00:00",842.9,25.28,TRADE
TAS1,"2008/12/12 04:30:00",856.44,25.2,TRADE
TAS1,"2008/12/12 05:00:00",898.38,25.23,TRADE
TAS1,"2008/12/12 05:30:00",977.32,25.23,TRADE
TAS1,"2008/12/12 06:00:00",1050.36,25.28,TRADE
TAS1,"2008/12/12 06:30:00",1133.32,38.29,TRADE
TAS1,"2008/12/12 07:00:00",1178.66,38.28,TRADE
TAS1,"2008/12/12 07:30:00",1157.94,38.28,TRADE
TAS1,"2008/12/12 08:00:00",1166.23,38.28,TRADE
TAS1,"2008/12/12 08:30:00",1132.89,38.28,TRADE
TAS1,"2008/12/12 09:00:00",1075.55,48.29,TRADE
TAS1,"2008/12/12 09:30:00",1092.47,41.61,TRADE
TAS1,"2008/12/12 10:00:00",1102.31,48.28,TRADE
TAS1,"2008/12/12 10:30:00",1090.44,38.28,TRADE
TAS1,"2008/12/12 11:00:00",1075.05,38.28,TRADE
TAS1,"2008/12/12 11:30:00",1044.19,38.28,TRADE
TAS1,"2008/12/12 12:00:00",1043.89,38.28,TRADE
TAS1,"2008/12/12 12:30:00",1040.1,38.28,TRADE
TAS1,"2008/12/12 13:00:00",1039.41,38.28,TRADE
TAS1,"2008/12/12 13:30:00",1026.84,38.28,TRADE
TAS1,"2008/12/12 14:00:00",1026.48,38.28,TRADE
TAS1,"2008/12/12 14:30:00",1038.31,38.28,TRADE
TAS1,"2008/12/12 15:00:00",1016.64,38.28,TRADE
TAS1,"2008/12/12 15:30:00",1047.26,38.28,TRADE
TAS1,"2008/12/12 16:00:00",1033.65,38.28,TRADE
TAS1,"2008/12/12 16:30:00",1057.34,38.28,TRADE
TAS1,"2008/12/12 17:00:00",1078.73,38.28,TRADE
TAS1,"2008/12/12 17:30:00",1074.05,38.28,TRADE
TAS1,"2008/12/12 18:00:00",1070.94,29.61,TRADE
TAS1,"2008/12/12 18:30:00",1058.06,25.28,TRADE
TAS1,"2008/12/12 19:00:00",1063.85,25.28,TRADE
TAS1,"2008/12/12 19:30:00",1091.42,25.29,TRADE
TAS1,"2008/12/12 20:00:00",1123.06,25.29,TRADE
TAS1,"2008/12/12 20:30:00",1120.93,25.28,TRADE
TAS1,"2008/12/12 21:00:00",1094.03,25.28,TRADE
TAS1,"2008/12/12 21:30:00",1086.86,25.3,TRADE
TAS1,"2008/12/12 22:00:00",1053.86,70.71,TRADE
TAS1,"2008/12/12 22:30:00",1023.56,25.28,TRADE
TAS1,"2008/12/12 23:00:00",1003.63,25.28,TRADE
TAS1,"2008/12/12 23:30:00",987.23,25.29,TRADE
TAS1,"2008/12/13 00:00:00",965.6,25.3,TRADE
TAS1,"2008/12/13 00:30:00",959.67,25.3,TRADE
TAS1,"2008/12/13 01:00:00",954.92,25.3,TRADE
TAS1,"2008/12/13 01:30:00",961.85,25.3,TRADE
TAS1,"2008/12/13 02:00:00",963.21,25.3,TRADE
TAS1,"2008/12/13 02:30:00",956.59,25.3,TRADE
TAS1,"2008/12/13 03:00:00",955.28,25.3,TRADE
TAS1,"2008/12/13 03:30:00",947.85,25.3,TRADE
TAS1,"2008/12/13 04:00:00",957.22,25.3,TRADE
TAS1,"2008/12/13 04:30:00",964.78,25.3,TRADE
TAS1,"2008/12/13 05:00:00",962.27,25.3,TRADE
TAS1,"2008/12/13 05:30:00",980.49,25.3,TRADE
TAS1,"2008/12/13 06:00:00",1016.92,25.3,TRADE
TAS1,"2008/12/13 06:30:00",1049.16,25.3,TRADE
TAS1,"2008/12/13 07:00:00",1092.76,25.3,TRADE
TAS1,"2008/12/13 07:30:00",1140.26,25.3,TRADE
TAS1,"2008/12/13 08:00:00",1173.53,25.3,TRADE
TAS1,"2008/12/13 08:30:00",1203.47,36.13,TRADE
TAS1,"2008/12/13 09:00:00",1200.66,38.3,TRADE
TAS1,"2008/12/13 09:30:00",1199.3,38.3,TRADE
TAS1,"2008/12/13 10:00:00",1207.98,38.3,TRADE
TAS1,"2008/12/13 10:30:00",1202.08,38.3,TRADE
TAS1,"2008/12/13 11:00:00",1195.22,38.3,TRADE
TAS1,"2008/12/13 11:30:00",1155.16,29.63,TRADE
TAS1,"2008/12/13 12:00:00",1139.51,25.3,TRADE
TAS1,"2008/12/13 12:30:00",1071.85,38.3,TRADE
TAS1,"2008/12/13 13:00:00",1140.12,31.8,TRADE
TAS1,"2008/12/13 13:30:00",1133.96,38.63,TRADE
TAS1,"2008/12/13 14:00:00",1129.26,25.3,TRADE
TAS1,"2008/12/13 14:30:00",1134.27,25.3,TRADE
TAS1,"2008/12/13 15:00:00",1135.19,31.8,TRADE
TAS1,"2008/12/13 15:30:00",1144.05,38.3,TRADE
TAS1,"2008/12/13 16:00:00",1151.97,38.3,TRADE
TAS1,"2008/12/13 16:30:00",1176.84,38.3,TRADE
TAS1,"2008/12/13 17:00:00",1197.03,38.3,TRADE
TAS1,"2008/12/13 17:30:00",1203.45,38.3,TRADE
TAS1,"2008/12/13 18:00:00",1201.93,38.3,TRADE
TAS1,"2008/12/13 18:30:00",1187.87,38.3,TRADE
TAS1,"2008/12/13 19:00:00",1163.18,38.3,TRADE
TAS1,"2008/12/13 19:30:00",1158.65,38.3,TRADE
TAS1,"2008/12/13 20:00:00",1169.77,38.3,TRADE
TAS1,"2008/12/13 20:30:00",1174.42,38.3,TRADE
TAS1,"2008/12/13 21:00:00",1152.84,38.3,TRADE
TAS1,"2008/12/13 21:30:00",1124.79,38.3,TRADE
TAS1,"2008/12/13 22:00:00",1102.63,38.3,TRADE
TAS1,"2008/12/13 22:30:00",1073.74,25.3,TRADE
TAS1,"2008/12/13 23:00:00",1048.55,25.3,TRADE
TAS1,"2008/12/13 23:30:00",1014.74,25.3,TRADE
TAS1,"2008/12/14 00:00:00",992.1,25.3,TRADE
TAS1,"2008/12/14 00:30:00",988.08,25.3,TRADE
TAS1,"2008/12/14 01:00:00",982.99,25.3,TRADE
TAS1,"2008/12/14 01:30:00",973.22,25.3,TRADE
TAS1,"2008/12/14 02:00:00",959.28,25.3,TRADE
TAS1,"2008/12/14 02:30:00",956.85,25.3,TRADE
TAS1,"2008/12/14 03:00:00",951.36,25.3,TRADE
TAS1,"2008/12/14 03:30:00",960.03,25.3,TRADE
TAS1,"2008/12/14 04:00:00",961.69,25.3,TRADE
TAS1,"2008/12/14 04:30:00",967.23,25.3,TRADE
TAS1,"2008/12/14 05:00:00",979.8,25.3,TRADE
TAS1,"2008/12/14 05:30:00",983.61,25.3,TRADE
TAS1,"2008/12/14 06:00:00",991.55,25.3,TRADE
TAS1,"2008/12/14 06:30:00",1015.45,25.3,TRADE
TAS1,"2008/12/14 07:00:00",1063.95,25.3,TRADE
TAS1,"2008/12/14 07:30:00",1103.03,25.3,TRADE
TAS1,"2008/12/14 08:00:00",1144.14,25.3,TRADE
TAS1,"2008/12/14 08:30:00",1186.58,25.3,TRADE
TAS1,"2008/12/14 09:00:00",1182.7,25.3,TRADE
TAS1,"2008/12/14 09:30:00",1180.86,25.3,TRADE
TAS1,"2008/12/14 10:00:00",1172.48,25.3,TRADE
TAS1,"2008/12/14 10:30:00",1147.2,25.3,TRADE
TAS1,"2008/12/14 11:00:00",1122.59,25.3,TRADE
TAS1,"2008/12/14 11:30:00",1099.14,25.3,TRADE
TAS1,"2008/12/14 12:00:00",1076.44,25.3,TRADE
TAS1,"2008/12/14 12:30:00",1043.17,25.3,TRADE
TAS1,"2008/12/14 13:00:00",1021.58,25.3,TRADE
TAS1,"2008/12/14 13:30:00",1018.37,25.3,TRADE
TAS1,"2008/12/14 14:00:00",1011.58,25.3,TRADE
TAS1,"2008/12/14 14:30:00",1016.18,25.3,TRADE
TAS1,"2008/12/14 15:00:00",1021.87,25.3,TRADE
TAS1,"2008/12/14 15:30:00",1021.83,25.3,TRADE
TAS1,"2008/12/14 16:00:00",1045.83,25.3,TRADE
TAS1,"2008/12/14 16:30:00",1059.44,25.3,TRADE
TAS1,"2008/12/14 17:00:00",1068.43,25.3,TRADE
TAS1,"2008/12/14 17:30:00",1073.75,25.3,TRADE
TAS1,"2008/12/14 18:00:00",1080.68,25.3,TRADE
TAS1,"2008/12/14 18:30:00",1073.74,25.3,TRADE
TAS1,"2008/12/14 19:00:00",1062.54,25.3,TRADE
TAS1,"2008/12/14 19:30:00",1063.41,25.3,TRADE
TAS1,"2008/12/14 20:00:00",1088.53,25.3,TRADE
TAS1,"2008/12/14 20:30:00",1103.42,25.3,TRADE
TAS1,"2008/12/14 21:00:00",1107.66,25.3,TRADE
TAS1,"2008/12/14 21:30:00",1081.81,25.3,TRADE
TAS1,"2008/12/14 22:00:00",1051.46,25.3,TRADE
TAS1,"2008/12/14 22:30:00",1032,25.3,TRADE
TAS1,"2008/12/14 23:00:00",1006.22,25.3,TRADE
TAS1,"2008/12/14 23:30:00",967.47,25.3,TRADE
TAS1,"2008/12/15 00:00:00",951.87,25.3,TRADE
TAS1,"2008/12/15 00:30:00",946.66,25.3,TRADE
TAS1,"2008/12/15 01:00:00",953.41,25.3,TRADE
TAS1,"2008/12/15 01:30:00",956.17,25.3,TRADE
TAS1,"2008/12/15 02:00:00",952.55,25.3,TRADE
TAS1,"2008/12/15 02:30:00",956.62,25.3,TRADE
TAS1,"2008/12/15 03:00:00",968.98,25.3,TRADE
TAS1,"2008/12/15 03:30:00",974.45,25.3,TRADE
TAS1,"2008/12/15 04:00:00",976.3,25.3,TRADE
TAS1,"2008/12/15 04:30:00",1021.64,25.3,TRADE
TAS1,"2008/12/15 05:00:00",1039.22,25.3,TRADE
TAS1,"2008/12/15 05:30:00",1105.15,38.3,TRADE
TAS1,"2008/12/15 06:00:00",1183.93,38.3,TRADE
TAS1,"2008/12/15 06:30:00",1268.81,38.3,TRADE
TAS1,"2008/12/15 07:00:00",1330.02,38.3,TRADE
TAS1,"2008/12/15 07:30:00",1320.69,38.3,TRADE
TAS1,"2008/12/15 08:00:00",1310.86,38.3,TRADE
TAS1,"2008/12/15 08:30:00",1281.95,38.3,TRADE
TAS1,"2008/12/15 09:00:00",1261.72,38.3,TRADE
TAS1,"2008/12/15 09:30:00",1233.54,38.3,TRADE
TAS1,"2008/12/15 10:00:00",1203.16,38.3,TRADE
TAS1,"2008/12/15 10:30:00",1208.39,38.3,TRADE
TAS1,"2008/12/15 11:00:00",1191.16,38.3,TRADE
TAS1,"2008/12/15 11:30:00",1166.74,38.33,TRADE
TAS1,"2008/12/15 12:00:00",1149.74,38.3,TRADE
TAS1,"2008/12/15 12:30:00",1141.28,38.3,TRADE
TAS1,"2008/12/15 13:00:00",1163.56,38.3,TRADE
TAS1,"2008/12/15 13:30:00",1156.33,38.3,TRADE
TAS1,"2008/12/15 14:00:00",1155.17,68.26,TRADE
TAS1,"2008/12/15 14:30:00",1171.49,39.97,TRADE
TAS1,"2008/12/15 15:00:00",1153.17,38.3,TRADE
TAS1,"2008/12/15 15:30:00",1154.67,38.3,TRADE
TAS1,"2008/12/15 16:00:00",1149.98,38.3,TRADE
TAS1,"2008/12/15 16:30:00",1161.12,38.3,TRADE
TAS1,"2008/12/15 17:00:00",1163.19,38.3,TRADE
TAS1,"2008/12/15 17:30:00",1130.85,38.3,TRADE
TAS1,"2008/12/15 18:00:00",1133.61,38.3,TRADE
TAS1,"2008/12/15 18:30:00",1123.31,38.3,TRADE
TAS1,"2008/12/15 19:00:00",1113.37,38.3,TRADE
TAS1,"2008/12/15 19:30:00",1092.29,38.3,TRADE
TAS1,"2008/12/15 20:00:00",1111.75,38.3,TRADE
TAS1,"2008/12/15 20:30:00",1113.71,38.3,TRADE
TAS1,"2008/12/15 21:00:00",1091.19,38.3,TRADE
TAS1,"2008/12/15 21:30:00",1054.26,38.3,TRADE
TAS1,"2008/12/15 22:00:00",1027.09,25.3,TRADE
TAS1,"2008/12/15 22:30:00",1034.2,25.3,TRADE
TAS1,"2008/12/15 23:00:00",1006.19,25.3,TRADE
TAS1,"2008/12/15 23:30:00",986,25.3,TRADE
TAS1,"2008/12/16 00:00:00",980.08,25.3,TRADE
TAS1,"2008/12/16 00:30:00",989.34,25.3,TRADE
TAS1,"2008/12/16 01:00:00",991.13,25.3,TRADE
TAS1,"2008/12/16 01:30:00",986.59,25.3,TRADE
TAS1,"2008/12/16 02:00:00",976.14,25.3,TRADE
TAS1,"2008/12/16 02:30:00",977.99,25.3,TRADE
TAS1,"2008/12/16 03:00:00",982.41,25.3,TRADE
TAS1,"2008/12/16 03:30:00",998.35,25.3,TRADE
TAS1,"2008/12/16 04:00:00",1008.05,25.3,TRADE
TAS1,"2008/12/16 04:30:00",1014.46,25.3,TRADE
TAS1,"2008/12/16 05:00:00",1030.62,25.3,TRADE
TAS1,"2008/12/16 05:30:00",1077.3,25.3,TRADE
TAS1,"2008/12/16 06:00:00",1139.4,25.3,TRADE
TAS1,"2008/12/16 06:30:00",1198.25,25.3,TRADE
TAS1,"2008/12/16 07:00:00",1236.64,25.28,TRADE
TAS1,"2008/12/16 07:30:00",1238.88,25.29,TRADE
TAS1,"2008/12/16 08:00:00",1216.1,25.28,TRADE
TAS1,"2008/12/16 08:30:00",1188.35,25.28,TRADE
TAS1,"2008/12/16 09:00:00",1149.41,38.28,TRADE
TAS1,"2008/12/16 09:30:00",1160.28,38.28,TRADE
TAS1,"2008/12/16 10:00:00",1155.59,38.29,TRADE
TAS1,"2008/12/16 10:30:00",1176.01,38.3,TRADE
TAS1,"2008/12/16 11:00:00",1167.44,38.3,TRADE
TAS1,"2008/12/16 11:30:00",1156.65,38.29,TRADE
TAS1,"2008/12/16 12:00:00",1164.7,38.3,TRADE
TAS1,"2008/12/16 12:30:00",1160.81,46.63,TRADE
TAS1,"2008/12/16 13:00:00",1162.57,46.63,TRADE
TAS1,"2008/12/16 13:30:00",1154.42,38.3,TRADE
TAS1,"2008/12/16 14:00:00",1147.65,38.3,TRADE
TAS1,"2008/12/16 14:30:00",1152,39.95,TRADE
TAS1,"2008/12/16 15:00:00",1170.59,44.96,TRADE
TAS1,"2008/12/16 15:30:00",1161.53,48.3,TRADE
TAS1,"2008/12/16 16:00:00",1189.17,48.3,TRADE
TAS1,"2008/12/16 16:30:00",1201.51,48.3,TRADE
TAS1,"2008/12/16 17:00:00",1213.01,48.3,TRADE
TAS1,"2008/12/16 17:30:00",1226.4,38.3,TRADE
TAS1,"2008/12/16 18:00:00",1213.14,38.3,TRADE
TAS1,"2008/12/16 18:30:00",1192.52,38.3,TRADE
TAS1,"2008/12/16 19:00:00",1185.89,38.28,TRADE
TAS1,"2008/12/16 19:30:00",1183.56,38.28,TRADE
TAS1,"2008/12/16 20:00:00",1197.64,38.29,TRADE
TAS1,"2008/12/16 20:30:00",1213.52,38.3,TRADE
TAS1,"2008/12/16 21:00:00",1196.33,38.3,TRADE
TAS1,"2008/12/16 21:30:00",1166.78,38.3,TRADE
TAS1,"2008/12/16 22:00:00",1140.71,25.3,TRADE
TAS1,"2008/12/16 22:30:00",1101.57,25.3,TRADE
TAS1,"2008/12/16 23:00:00",1063.01,25.3,TRADE
TAS1,"2008/12/16 23:30:00",1053.8,25.3,TRADE
TAS1,"2008/12/17 00:00:00",1052.2,25.3,TRADE
TAS1,"2008/12/17 00:30:00",1042.9,25.3,TRADE
TAS1,"2008/12/17 01:00:00",1033.49,25.3,TRADE
TAS1,"2008/12/17 01:30:00",994.09,25.3,TRADE
TAS1,"2008/12/17 02:00:00",1022.89,25.3,TRADE
TAS1,"2008/12/17 02:30:00",1018.07,25.3,TRADE
TAS1,"2008/12/17 03:00:00",1008.79,25.3,TRADE
TAS1,"2008/12/17 03:30:00",1007.79,25.3,TRADE
TAS1,"2008/12/17 04:00:00",996.92,25.3,TRADE
TAS1,"2008/12/17 04:30:00",1022.55,25.28,TRADE
TAS1,"2008/12/17 05:00:00",1042.43,25.28,TRADE
TAS1,"2008/12/17 05:30:00",1112.86,25.28,TRADE
TAS1,"2008/12/17 06:00:00",1206.54,27.45,TRADE
TAS1,"2008/12/17 06:30:00",1292.55,27.47,TRADE
TAS1,"2008/12/17 07:00:00",1321.12,38.3,TRADE
TAS1,"2008/12/17 07:30:00",1335.97,38.3,TRADE
TAS1,"2008/12/17 08:00:00",1314.75,44.93,TRADE
TAS1,"2008/12/17 08:30:00",1271.94,39.97,TRADE
TAS1,"2008/12/17 09:00:00",1230.89,48.3,TRADE
TAS1,"2008/12/17 09:30:00",1211.51,48.3,TRADE
TAS1,"2008/12/17 10:00:00",1207.45,48.3,TRADE
TAS1,"2008/12/17 10:30:00",1202.78,48.3,TRADE
TAS1,"2008/12/17 11:00:00",1194.84,64.11,TRADE
TAS1,"2008/12/17 11:30:00",1169.89,48.3,TRADE
TAS1,"2008/12/17 12:00:00",1143.77,48.3,TRADE
TAS1,"2008/12/17 12:30:00",1143.76,48.3,TRADE
TAS1,"2008/12/17 13:00:00",1136.57,48.3,TRADE
TAS1,"2008/12/17 13:30:00",1134.37,54.62,TRADE
TAS1,"2008/12/17 14:00:00",1121.21,48.3,TRADE
TAS1,"2008/12/17 14:30:00",1136.39,51.46,TRADE
TAS1,"2008/12/17 15:00:00",1148.1,48.3,TRADE
TAS1,"2008/12/17 15:30:00",1157.82,48.3,TRADE
TAS1,"2008/12/17 16:00:00",1167.56,38.3,TRADE
TAS1,"2008/12/17 16:30:00",1183.27,38.3,TRADE
TAS1,"2008/12/17 17:00:00",1199.12,38.3,TRADE
TAS1,"2008/12/17 17:30:00",1206.47,48.28,TRADE
TAS1,"2008/12/17 18:00:00",1207.97,48.28,TRADE
TAS1,"2008/12/17 18:30:00",1197.11,48.28,TRADE
TAS1,"2008/12/17 19:00:00",1185.21,38.28,TRADE
TAS1,"2008/12/17 19:30:00",1191.75,38.29,TRADE
TAS1,"2008/12/17 20:00:00",1224.66,38.28,TRADE
TAS1,"2008/12/17 20:30:00",1239.19,38.28,TRADE
TAS1,"2008/12/17 21:00:00",1221.5,38.28,TRADE
TAS1,"2008/12/17 21:30:00",1185.61,38.28,TRADE
TAS1,"2008/12/17 22:00:00",1153.68,38.28,TRADE
TAS1,"2008/12/17 22:30:00",1117.88,38.29,TRADE
TAS1,"2008/12/17 23:00:00",1087.56,38.28,TRADE
TAS1,"2008/12/17 23:30:00",1067.17,38.28,TRADE
TAS1,"2008/12/18 00:00:00",1048.89,38.28,TRADE
TAS1,"2008/12/18 00:30:00",1042.37,25.28,TRADE
TAS1,"2008/12/18 01:00:00",1040.22,25.28,TRADE
TAS1,"2008/12/18 01:30:00",1032,25.28,TRADE
TAS1,"2008/12/18 02:00:00",1030.92,25.28,TRADE
TAS1,"2008/12/18 02:30:00",1003.83,25.28,TRADE
TAS1,"2008/12/18 03:00:00",1023.79,25.28,TRADE
TAS1,"2008/12/18 03:30:00",1041.46,25.28,TRADE
TAS1,"2008/12/18 04:00:00",1047.66,25.28,TRADE
TAS1,"2008/12/18 04:30:00",1054.32,25.28,TRADE
TAS1,"2008/12/18 05:00:00",1074.07,25.28,TRADE
TAS1,"2008/12/18 05:30:00",1126.78,25.28,TRADE
TAS1,"2008/12/18 06:00:00",1196.52,25.82,TRADE
TAS1,"2008/12/18 06:30:00",1281.06,38.28,TRADE
TAS1,"2008/12/18 07:00:00",1309.86,33.56,TRADE
TAS1,"2008/12/18 07:30:00",1298.14,39.95,TRADE
TAS1,"2008/12/18 08:00:00",1281.25,48.28,TRADE
TAS1,"2008/12/18 08:30:00",1267.82,48.28,TRADE
TAS1,"2008/12/18 09:00:00",1245.18,38.28,TRADE
TAS1,"2008/12/18 09:30:00",1229.61,38.28,TRADE
TAS1,"2008/12/18 10:00:00",1200.16,38.28,TRADE
TAS1,"2008/12/18 10:30:00",1178.03,38.26,TRADE
TAS1,"2008/12/18 11:00:00",1172.33,38.28,TRADE
TAS1,"2008/12/18 11:30:00",1153.55,38.28,TRADE
TAS1,"2008/12/18 12:00:00",1136.72,46.61,TRADE
TAS1,"2008/12/18 12:30:00",1126.09,48.28,TRADE
TAS1,"2008/12/18 13:00:00",1119.16,48.28,TRADE
TAS1,"2008/12/18 13:30:00",1121.8,48.28,TRADE
TAS1,"2008/12/18 14:00:00",1128.85,48.28,TRADE
TAS1,"2008/12/18 14:30:00",1127.74,48.26,TRADE
TAS1,"2008/12/18 15:00:00",1123.19,44.23,TRADE
TAS1,"2008/12/18 15:30:00",1151.18,48.23,TRADE
TAS1,"2008/12/18 16:00:00",1165.18,48.28,TRADE
TAS1,"2008/12/18 16:30:00",1168.88,48.29,TRADE
TAS1,"2008/12/18 17:00:00",1209.39,54.62,TRADE
TAS1,"2008/12/18 17:30:00",1204.95,43.28,TRADE
TAS1,"2008/12/18 18:00:00",1169.81,38.28,TRADE
TAS1,"2008/12/18 18:30:00",1119.42,38.28,TRADE
TAS1,"2008/12/18 19:00:00",1110.54,38.28,TRADE
TAS1,"2008/12/18 19:30:00",1114.24,38.28,TRADE
TAS1,"2008/12/18 20:00:00",1114.79,38.28,TRADE
TAS1,"2008/12/18 20:30:00",1117.07,38.28,TRADE
TAS1,"2008/12/18 21:00:00",1097.09,38.27,TRADE
TAS1,"2008/12/18 21:30:00",1062.55,38.28,TRADE
TAS1,"2008/12/18 22:00:00",1047.78,27.45,TRADE
TAS1,"2008/12/18 22:30:00",1018.72,38.28,TRADE
TAS1,"2008/12/18 23:00:00",993.38,38.28,TRADE
TAS1,"2008/12/18 23:30:00",946.61,38.28,TRADE
TAS1,"2008/12/19 00:00:00",960.89,25.28,TRADE
TAS1,"2008/12/19 00:30:00",932.46,38.28,TRADE
TAS1,"2008/12/19 01:00:00",925.88,25.28,TRADE
TAS1,"2008/12/19 01:30:00",923.05,25.28,TRADE
TAS1,"2008/12/19 02:00:00",925.61,25.28,TRADE
TAS1,"2008/12/19 02:30:00",906.33,25.28,TRADE
TAS1,"2008/12/19 03:00:00",902.37,25.28,TRADE
TAS1,"2008/12/19 03:30:00",913.8,25.28,TRADE
TAS1,"2008/12/19 04:00:00",924.48,25.28,TRADE
TAS1,"2008/12/19 04:30:00",951.35,25.3,TRADE
TAS1,"2008/12/19 05:00:00",974.41,18.71,TRADE
TAS1,"2008/12/19 05:30:00",1035.75,25.3,TRADE
TAS1,"2008/12/19 06:00:00",1111.4,25.04,TRADE
TAS1,"2008/12/19 06:30:00",1178.1,38.28,TRADE
TAS1,"2008/12/19 07:00:00",1223.48,41.63,TRADE
TAS1,"2008/12/19 07:30:00",1243.14,48.3,TRADE
TAS1,"2008/12/19 08:00:00",1250.44,44.97,TRADE
TAS1,"2008/12/19 08:30:00",1229.71,38.3,TRADE
TAS1,"2008/12/19 09:00:00",1195.89,38.95,TRADE
TAS1,"2008/12/19 09:30:00",1180.52,38.53,TRADE
TAS1,"2008/12/19 10:00:00",1160.92,38.3,TRADE
TAS1,"2008/12/19 10:30:00",1154.72,38.3,TRADE
TAS1,"2008/12/19 11:00:00",1147.15,38.3,TRADE
TAS1,"2008/12/19 11:30:00",1135.81,38.3,TRADE
TAS1,"2008/12/19 12:00:00",1124.22,38.3,TRADE
TAS1,"2008/12/19 12:30:00",1116.41,38.3,TRADE
TAS1,"2008/12/19 13:00:00",1112.22,41.88,TRADE
TAS1,"2008/12/19 13:30:00",1117.77,46.63,TRADE
TAS1,"2008/12/19 14:00:00",1107.21,38.28,TRADE
TAS1,"2008/12/19 14:30:00",1113.54,38.28,TRADE
TAS1,"2008/12/19 15:00:00",1106.63,38.28,TRADE
TAS1,"2008/12/19 15:30:00",1119.24,38.28,TRADE
TAS1,"2008/12/19 16:00:00",1117.54,39.95,TRADE
TAS1,"2008/12/19 16:30:00",1132.85,39.95,TRADE
TAS1,"2008/12/19 17:00:00",1151.55,41.62,TRADE
TAS1,"2008/12/19 17:30:00",1159,38.28,TRADE
TAS1,"2008/12/19 18:00:00",1162.02,38.28,TRADE
TAS1,"2008/12/19 18:30:00",1154.49,38.28,TRADE
TAS1,"2008/12/19 19:00:00",1152.62,38.28,TRADE
TAS1,"2008/12/19 19:30:00",1158.15,38.28,TRADE
TAS1,"2008/12/19 20:00:00",1172.68,38.3,TRADE
TAS1,"2008/12/19 20:30:00",1206.99,38.3,TRADE
TAS1,"2008/12/19 21:00:00",1208.22,38.3,TRADE
TAS1,"2008/12/19 21:30:00",1198.55,38.3,TRADE
TAS1,"2008/12/19 22:00:00",1166.89,39.07,TRADE
TAS1,"2008/12/19 22:30:00",1135.86,38.3,TRADE
TAS1,"2008/12/19 23:00:00",1116.85,38.3,TRADE
TAS1,"2008/12/19 23:30:00",1077.51,38.3,TRADE
TAS1,"2008/12/20 00:00:00",1064.51,38.3,TRADE
TAS1,"2008/12/20 00:30:00",1057.35,25.3,TRADE
TAS1,"2008/12/20 01:00:00",1056.68,25.3,TRADE
TAS1,"2008/12/20 01:30:00",1041.06,25.3,TRADE
TAS1,"2008/12/20 02:00:00",1032.49,25.3,TRADE
TAS1,"2008/12/20 02:30:00",1023.11,25.3,TRADE
TAS1,"2008/12/20 03:00:00",1022.33,25.3,TRADE
TAS1,"2008/12/20 03:30:00",1020.5,25.3,TRADE
TAS1,"2008/12/20 04:00:00",1020.47,25.3,TRADE
TAS1,"2008/12/20 04:30:00",1016.32,25.3,TRADE
TAS1,"2008/12/20 05:00:00",1036.04,25.3,TRADE
TAS1,"2008/12/20 05:30:00",1061,25.3,TRADE
TAS1,"2008/12/20 06:00:00",1083.78,25.3,TRADE
TAS1,"2008/12/20 06:30:00",1107.21,25.3,TRADE
TAS1,"2008/12/20 07:00:00",1146.9,25.34,TRADE
TAS1,"2008/12/20 07:30:00",1175.89,25.31,TRADE
TAS1,"2008/12/20 08:00:00",1203.83,26.63,TRADE
TAS1,"2008/12/20 08:30:00",1199.05,29.3,TRADE
TAS1,"2008/12/20 09:00:00",1215.23,33.3,TRADE
TAS1,"2008/12/20 09:30:00",1206.02,33.3,TRADE
TAS1,"2008/12/20 10:00:00",1190.36,33.3,TRADE
TAS1,"2008/12/20 10:30:00",1173.5,33.3,TRADE
TAS1,"2008/12/20 11:00:00",1154.9,33.3,TRADE
TAS1,"2008/12/20 11:30:00",1128.59,33.3,TRADE
TAS1,"2008/12/20 12:00:00",1119.5,33.3,TRADE
TAS1,"2008/12/20 12:30:00",1112.49,33.3,TRADE
TAS1,"2008/12/20 13:00:00",1100.1,33.3,TRADE
TAS1,"2008/12/20 13:30:00",1099.65,33.3,TRADE
TAS1,"2008/12/20 14:00:00",1096.49,33.3,TRADE
TAS1,"2008/12/20 14:30:00",1104.5,33.3,TRADE
TAS1,"2008/12/20 15:00:00",1109.18,33.3,TRADE
TAS1,"2008/12/20 15:30:00",1107.43,25.3,TRADE
TAS1,"2008/12/20 16:00:00",1101.68,25.3,TRADE
TAS1,"2008/12/20 16:30:00",1050.17,21.29,TRADE
TAS1,"2008/12/20 17:00:00",1098.21,3.29,TRADE
TAS1,"2008/12/20 17:30:00",1129.71,1.42,TRADE
TAS1,"2008/12/20 18:00:00",1143.53,1.69,TRADE
TAS1,"2008/12/20 18:30:00",1124.1,1.31,TRADE
TAS1,"2008/12/20 19:00:00",1126,10.72,TRADE
TAS1,"2008/12/20 19:30:00",1123.36,12.02,TRADE
TAS1,"2008/12/20 20:00:00",1135.2,12.42,TRADE
TAS1,"2008/12/20 20:30:00",1147.69,13.98,TRADE
TAS1,"2008/12/20 21:00:00",1133.18,10.27,TRADE
TAS1,"2008/12/20 21:30:00",1087.88,12.93,TRADE
TAS1,"2008/12/20 22:00:00",1080.57,12.24,TRADE
TAS1,"2008/12/20 22:30:00",1061.53,25.29,TRADE
TAS1,"2008/12/20 23:00:00",1044.34,25.3,TRADE
TAS1,"2008/12/20 23:30:00",1042.32,25.3,TRADE
TAS1,"2008/12/21 00:00:00",1024.89,25.3,TRADE
TAS1,"2008/12/21 00:30:00",1018.98,25.3,TRADE
TAS1,"2008/12/21 01:00:00",1010.64,25.3,TRADE
TAS1,"2008/12/21 01:30:00",1012.02,25.3,TRADE
TAS1,"2008/12/21 02:00:00",1007.63,25.3,TRADE
TAS1,"2008/12/21 02:30:00",1008.86,25.3,TRADE
TAS1,"2008/12/21 03:00:00",1012.47,25.3,TRADE
TAS1,"2008/12/21 03:30:00",1011.68,25.3,TRADE
TAS1,"2008/12/21 04:00:00",1017.31,25.3,TRADE
TAS1,"2008/12/21 04:30:00",1021.5,25.3,TRADE
TAS1,"2008/12/21 05:00:00",1024.7,25.3,TRADE
TAS1,"2008/12/21 05:30:00",1039.16,25.3,TRADE
TAS1,"2008/12/21 06:00:00",1055.22,25.3,TRADE
TAS1,"2008/12/21 06:30:00",1082.41,25.28,TRADE
TAS1,"2008/12/21 07:00:00",1117.81,25.3,TRADE
TAS1,"2008/12/21 07:30:00",1145.55,25.28,TRADE
TAS1,"2008/12/21 08:00:00",1182.73,25.3,TRADE
TAS1,"2008/12/21 08:30:00",1203.91,25.3,TRADE
TAS1,"2008/12/21 09:00:00",1202.71,25.28,TRADE
TAS1,"2008/12/21 09:30:00",1197.18,25.28,TRADE
TAS1,"2008/12/21 10:00:00",1193.53,25.28,TRADE
TAS1,"2008/12/21 10:30:00",1185.54,25.28,TRADE
TAS1,"2008/12/21 11:00:00",1178.56,25.28,TRADE
TAS1,"2008/12/21 11:30:00",1151.92,25.3,TRADE
TAS1,"2008/12/21 12:00:00",1137.19,25.3,TRADE
TAS1,"2008/12/21 12:30:00",1120.01,25.3,TRADE
TAS1,"2008/12/21 13:00:00",1107.2,25.29,TRADE
TAS1,"2008/12/21 13:30:00",1098.54,25.28,TRADE
TAS1,"2008/12/21 14:00:00",1080.95,25.28,TRADE
TAS1,"2008/12/21 14:30:00",1083.57,25.28,TRADE
TAS1,"2008/12/21 15:00:00",1079.39,25.28,TRADE
TAS1,"2008/12/21 15:30:00",1066.39,30.61,TRADE
TAS1,"2008/12/21 16:00:00",1067.43,33.28,TRADE
TAS1,"2008/12/21 16:30:00",1063.63,33.28,TRADE
TAS1,"2008/12/21 17:00:00",1076.13,33.28,TRADE
TAS1,"2008/12/21 17:30:00",1078.8,33.28,TRADE
TAS1,"2008/12/21 18:00:00",1080.23,33.29,TRADE
TAS1,"2008/12/21 18:30:00",1081.1,33.29,TRADE
TAS1,"2008/12/21 19:00:00",1071.15,33.28,TRADE
TAS1,"2008/12/21 19:30:00",1060.57,33.3,TRADE
TAS1,"2008/12/21 20:00:00",1071.88,33.3,TRADE
TAS1,"2008/12/21 20:30:00",1104.89,33.3,TRADE
TAS1,"2008/12/21 21:00:00",1091.99,25.28,TRADE
TAS1,"2008/12/21 21:30:00",1051.49,25.3,TRADE
TAS1,"2008/12/21 22:00:00",1018.96,25.3,TRADE
TAS1,"2008/12/21 22:30:00",1002.67,25.3,TRADE
TAS1,"2008/12/21 23:00:00",969.13,25.28,TRADE
TAS1,"2008/12/21 23:30:00",942.49,25.3,TRADE
TAS1,"2008/12/22 00:00:00",927.66,25.3,TRADE
TAS1,"2008/12/22 00:30:00",926.74,25.3,TRADE
TAS1,"2008/12/22 01:00:00",920.86,25.3,TRADE
TAS1,"2008/12/22 01:30:00",910.69,25.3,TRADE
TAS1,"2008/12/22 02:00:00",920.25,25.3,TRADE
TAS1,"2008/12/22 02:30:00",906.4,25.3,TRADE
TAS1,"2008/12/22 03:00:00",913.62,25.3,TRADE
TAS1,"2008/12/22 03:30:00",912.87,25.3,TRADE
TAS1,"2008/12/22 04:00:00",917.01,25.3,TRADE
TAS1,"2008/12/22 04:30:00",918.65,25.3,TRADE
TAS1,"2008/12/22 05:00:00",938.88,25.3,TRADE
TAS1,"2008/12/22 05:30:00",983.57,25.3,TRADE
TAS1,"2008/12/22 06:00:00",1035.09,25.3,TRADE
TAS1,"2008/12/22 06:30:00",1090.99,25.29,TRADE
TAS1,"2008/12/22 07:00:00",1138.43,25.3,TRADE
TAS1,"2008/12/22 07:30:00",1151.18,25.3,TRADE
TAS1,"2008/12/22 08:00:00",1163.25,25.3,TRADE
TAS1,"2008/12/22 08:30:00",1163.09,33.97,TRADE
TAS1,"2008/12/22 09:00:00",1163.79,38.3,TRADE
TAS1,"2008/12/22 09:30:00",1156.65,38.3,TRADE
TAS1,"2008/12/22 10:00:00",1144.18,38.3,TRADE
TAS1,"2008/12/22 10:30:00",1153.28,38.3,TRADE
TAS1,"2008/12/22 11:00:00",1176.36,38.3,TRADE
TAS1,"2008/12/22 11:30:00",1170.51,38.3,TRADE
TAS1,"2008/12/22 12:00:00",1165.34,38.3,TRADE
TAS1,"2008/12/22 12:30:00",1153.54,38.3,TRADE
TAS1,"2008/12/22 13:00:00",1154.52,38.3,TRADE
TAS1,"2008/12/22 13:30:00",1182.57,38.3,TRADE
TAS1,"2008/12/22 14:00:00",1185.1,38.3,TRADE
TAS1,"2008/12/22 14:30:00",1173.12,14.52,TRADE
TAS1,"2008/12/22 15:00:00",1180.76,8.97,TRADE
TAS1,"2008/12/22 15:30:00",1169.69,12.88,TRADE
TAS1,"2008/12/22 16:00:00",1176.99,10.71,TRADE
TAS1,"2008/12/22 16:30:00",1172.47,38.3,TRADE
TAS1,"2008/12/22 17:00:00",1178.85,38.3,TRADE
TAS1,"2008/12/22 17:30:00",1185.29,38.3,TRADE
TAS1,"2008/12/22 18:00:00",1147.68,38.3,TRADE
TAS1,"2008/12/22 18:30:00",1147.06,38.3,TRADE
TAS1,"2008/12/22 19:00:00",1144.55,38.3,TRADE
TAS1,"2008/12/22 19:30:00",1139.95,38.3,TRADE
TAS1,"2008/12/22 20:00:00",1139.01,38.3,TRADE
TAS1,"2008/12/22 20:30:00",1155.86,38.3,TRADE
TAS1,"2008/12/22 21:00:00",1128.8,38.3,TRADE
TAS1,"2008/12/22 21:30:00",1109.17,38.3,TRADE
TAS1,"2008/12/22 22:00:00",1096.19,25.3,TRADE
TAS1,"2008/12/22 22:30:00",1074.01,25.3,TRADE
TAS1,"2008/12/22 23:00:00",1025.98,25.3,TRADE
TAS1,"2008/12/22 23:30:00",992.66,25.3,TRADE
TAS1,"2008/12/23 00:00:00",979.95,25.3,TRADE
TAS1,"2008/12/23 00:30:00",959.25,25.3,TRADE
TAS1,"2008/12/23 01:00:00",970.12,25.3,TRADE
TAS1,"2008/12/23 01:30:00",942.61,25.3,TRADE
TAS1,"2008/12/23 02:00:00",936.38,25.3,TRADE
TAS1,"2008/12/23 02:30:00",930.73,25.3,TRADE
TAS1,"2008/12/23 03:00:00",922.47,25.3,TRADE
TAS1,"2008/12/23 03:30:00",935.35,25.3,TRADE
TAS1,"2008/12/23 04:00:00",936.57,25.3,TRADE
TAS1,"2008/12/23 04:30:00",941.11,25.3,TRADE
TAS1,"2008/12/23 05:00:00",955.64,25.3,TRADE
TAS1,"2008/12/23 05:30:00",999.85,25.3,TRADE
TAS1,"2008/12/23 06:00:00",1038.37,25.3,TRADE
TAS1,"2008/12/23 06:30:00",1093.51,25.3,TRADE
TAS1,"2008/12/23 07:00:00",1134.28,25.3,TRADE
TAS1,"2008/12/23 07:30:00",1138.37,25.3,TRADE
TAS1,"2008/12/23 08:00:00",1149.61,25.3,TRADE
TAS1,"2008/12/23 08:30:00",1162.94,25.3,TRADE
TAS1,"2008/12/23 09:00:00",1149.61,25.3,TRADE
TAS1,"2008/12/23 09:30:00",1144.37,25.3,TRADE
TAS1,"2008/12/23 10:00:00",1155.04,25.3,TRADE
TAS1,"2008/12/23 10:30:00",1143.08,25.3,TRADE
TAS1,"2008/12/23 11:00:00",1133.3,25.3,TRADE
TAS1,"2008/12/23 11:30:00",1117.7,33.3,TRADE
TAS1,"2008/12/23 12:00:00",1127.06,33.3,TRADE
TAS1,"2008/12/23 12:30:00",1112.15,33.3,TRADE
TAS1,"2008/12/23 13:00:00",1079.24,33.3,TRADE
TAS1,"2008/12/23 13:30:00",1065.96,33.3,TRADE
TAS1,"2008/12/23 14:00:00",1054.2,33.3,TRADE
TAS1,"2008/12/23 14:30:00",1075.98,25.3,TRADE
TAS1,"2008/12/23 15:00:00",1099.47,25.3,TRADE
TAS1,"2008/12/23 15:30:00",1117.34,30.85,TRADE
TAS1,"2008/12/23 16:00:00",1120.78,33.3,TRADE
TAS1,"2008/12/23 16:30:00",1137.02,33.3,TRADE
TAS1,"2008/12/23 17:00:00",1156.57,33.3,TRADE
TAS1,"2008/12/23 17:30:00",1147.18,25.3,TRADE
TAS1,"2008/12/23 18:00:00",1134.24,25.3,TRADE
TAS1,"2008/12/23 18:30:00",1137.49,25.3,TRADE
TAS1,"2008/12/23 19:00:00",1127.57,25.3,TRADE
TAS1,"2008/12/23 19:30:00",1129.49,25.3,TRADE
TAS1,"2008/12/23 20:00:00",1140.21,25.3,TRADE
TAS1,"2008/12/23 20:30:00",1160.09,25.3,TRADE
TAS1,"2008/12/23 21:00:00",1159.14,25.3,TRADE
TAS1,"2008/12/23 21:30:00",1145.45,25.3,TRADE
TAS1,"2008/12/23 22:00:00",1119.96,25.3,TRADE
TAS1,"2008/12/23 22:30:00",1103.23,25.3,TRADE
TAS1,"2008/12/23 23:00:00",1076.03,25.3,TRADE
TAS1,"2008/12/23 23:30:00",1053.27,25.3,TRADE
TAS1,"2008/12/24 00:00:00",1042.47,25.3,TRADE
TAS1,"2008/12/24 00:30:00",1032.11,25.3,TRADE
TAS1,"2008/12/24 01:00:00",1018.08,25.3,TRADE
TAS1,"2008/12/24 01:30:00",1009.53,25.3,TRADE
TAS1,"2008/12/24 02:00:00",1004.74,25.3,TRADE
TAS1,"2008/12/24 02:30:00",1019.5,25.3,TRADE
TAS1,"2008/12/24 03:00:00",1023.8,25.3,TRADE
TAS1,"2008/12/24 03:30:00",1027.84,25.3,TRADE
TAS1,"2008/12/24 04:00:00",1025.47,25.3,TRADE
TAS1,"2008/12/24 04:30:00",1039.01,25.3,TRADE
TAS1,"2008/12/24 05:00:00",1065.63,25.3,TRADE
TAS1,"2008/12/24 05:30:00",1093.58,25.3,TRADE
TAS1,"2008/12/24 06:00:00",1132.64,25.3,TRADE
TAS1,"2008/12/24 06:30:00",1181.64,25.32,TRADE
TAS1,"2008/12/24 07:00:00",1210.11,25.32,TRADE
TAS1,"2008/12/24 07:30:00",1229.52,25.31,TRADE
TAS1,"2008/12/24 08:00:00",1229.73,25.3,TRADE
TAS1,"2008/12/24 08:30:00",1218.52,25.3,TRADE
TAS1,"2008/12/24 09:00:00",1219.31,25.3,TRADE
TAS1,"2008/12/24 09:30:00",1194.2,25.3,TRADE
TAS1,"2008/12/24 10:00:00",1179.5,27.97,TRADE
TAS1,"2008/12/24 10:30:00",1148.15,25.3,TRADE
TAS1,"2008/12/24 11:00:00",1155.27,25.3,TRADE
TAS1,"2008/12/24 11:30:00",1174.51,25.3,TRADE
TAS1,"2008/12/24 12:00:00",1165.44,33.3,TRADE
TAS1,"2008/12/24 12:30:00",1153.46,33.3,TRADE
TAS1,"2008/12/24 13:00:00",1144.65,33.3,TRADE
TAS1,"2008/12/24 13:30:00",1127.28,33.3,TRADE
TAS1,"2008/12/24 14:00:00",1124.71,33.3,TRADE
TAS1,"2008/12/24 14:30:00",1122.04,33.3,TRADE
TAS1,"2008/12/24 15:00:00",1110.85,33.3,TRADE
TAS1,"2008/12/24 15:30:00",1116.57,25.3,TRADE
TAS1,"2008/12/24 16:00:00",1126.15,25.3,TRADE
TAS1,"2008/12/24 16:30:00",1129.52,25.3,TRADE
TAS1,"2008/12/24 17:00:00",1141.9,25.3,TRADE
TAS1,"2008/12/24 17:30:00",1141.54,25.3,TRADE
TAS1,"2008/12/24 18:00:00",1123.59,25.3,TRADE
TAS1,"2008/12/24 18:30:00",1105.77,25.3,TRADE
TAS1,"2008/12/24 19:00:00",1135.08,25.3,TRADE
TAS1,"2008/12/24 19:30:00",1140.39,25.3,TRADE
TAS1,"2008/12/24 20:00:00",1147.05,25.3,TRADE
TAS1,"2008/12/24 20:30:00",1154.11,25.3,TRADE
TAS1,"2008/12/24 21:00:00",1149.96,25.3,TRADE
TAS1,"2008/12/24 21:30:00",1136.68,25.3,TRADE
TAS1,"2008/12/24 22:00:00",1122.01,25.3,TRADE
TAS1,"2008/12/24 22:30:00",1097.55,25.3,TRADE
TAS1,"2008/12/24 23:00:00",1063.61,25.3,TRADE
TAS1,"2008/12/24 23:30:00",1032.03,25.3,TRADE
TAS1,"2008/12/25 00:00:00",1007.14,25.3,TRADE
TAS1,"2008/12/25 00:30:00",960.79,25.3,TRADE
TAS1,"2008/12/25 01:00:00",974.82,25.3,TRADE
TAS1,"2008/12/25 01:30:00",976.83,25.3,TRADE
TAS1,"2008/12/25 02:00:00",967.76,25.3,TRADE
TAS1,"2008/12/25 02:30:00",946.34,25.3,TRADE
TAS1,"2008/12/25 03:00:00",951.76,25.3,TRADE
TAS1,"2008/12/25 03:30:00",953.89,25.3,TRADE
TAS1,"2008/12/25 04:00:00",959.31,25.3,TRADE
TAS1,"2008/12/25 04:30:00",967.88,25.3,TRADE
TAS1,"2008/12/25 05:00:00",973.16,25.3,TRADE
TAS1,"2008/12/25 05:30:00",997.57,25.3,TRADE
TAS1,"2008/12/25 06:00:00",1029.06,25.3,TRADE
TAS1,"2008/12/25 06:30:00",1068.13,25.33,TRADE
TAS1,"2008/12/25 07:00:00",1118,25.3,TRADE
TAS1,"2008/12/25 07:30:00",1154.62,25.3,TRADE
TAS1,"2008/12/25 08:00:00",1172.06,25.28,TRADE
TAS1,"2008/12/25 08:30:00",1176.98,25.28,TRADE
TAS1,"2008/12/25 09:00:00",1165.51,25.28,TRADE
TAS1,"2008/12/25 09:30:00",1161.36,25.28,TRADE
TAS1,"2008/12/25 10:00:00",1155.71,25.28,TRADE
TAS1,"2008/12/25 10:30:00",1139.01,25.3,TRADE
TAS1,"2008/12/25 11:00:00",1134.83,25.3,TRADE
TAS1,"2008/12/25 11:30:00",1105.61,25.3,TRADE
TAS1,"2008/12/25 12:00:00",1071.58,25.3,TRADE
TAS1,"2008/12/25 12:30:00",1006.66,25.3,TRADE
TAS1,"2008/12/25 13:00:00",987.44,25.3,TRADE
TAS1,"2008/12/25 13:30:00",992.93,25.3,TRADE
TAS1,"2008/12/25 14:00:00",989.24,25.3,TRADE
TAS1,"2008/12/25 14:30:00",990.19,25.3,TRADE
TAS1,"2008/12/25 15:00:00",992.15,25.3,TRADE
TAS1,"2008/12/25 15:30:00",996.42,25.3,TRADE
TAS1,"2008/12/25 16:00:00",992.94,25.28,TRADE
TAS1,"2008/12/25 16:30:00",1001.42,25.29,TRADE
TAS1,"2008/12/25 17:00:00",999.97,25.28,TRADE
TAS1,"2008/12/25 17:30:00",1003.55,25.29,TRADE
TAS1,"2008/12/25 18:00:00",1005.09,25.3,TRADE
TAS1,"2008/12/25 18:30:00",1009.08,25.3,TRADE
TAS1,"2008/12/25 19:00:00",1028.31,25.3,TRADE
TAS1,"2008/12/25 19:30:00",1037.13,25.3,TRADE
TAS1,"2008/12/25 20:00:00",1050.14,25.3,TRADE
TAS1,"2008/12/25 20:30:00",1066.11,25.3,TRADE
TAS1,"2008/12/25 21:00:00",1058.03,25.3,TRADE
TAS1,"2008/12/25 21:30:00",1066.93,25.3,TRADE
TAS1,"2008/12/25 22:00:00",1054.05,25.3,TRADE
TAS1,"2008/12/25 22:30:00",1019.94,25.3,TRADE
TAS1,"2008/12/25 23:00:00",986.03,25.3,TRADE
TAS1,"2008/12/25 23:30:00",961.96,25.3,TRADE
TAS1,"2008/12/26 00:00:00",946.63,25.31,TRADE
TAS1,"2008/12/26 00:30:00",950.78,25.3,TRADE
TAS1,"2008/12/26 01:00:00",945.34,25.3,TRADE
TAS1,"2008/12/26 01:30:00",944.99,25.3,TRADE
TAS1,"2008/12/26 02:00:00",934.7,25.3,TRADE
TAS1,"2008/12/26 02:30:00",932.85,25.3,TRADE
TAS1,"2008/12/26 03:00:00",928.4,25.3,TRADE
TAS1,"2008/12/26 03:30:00",927.53,25.3,TRADE
TAS1,"2008/12/26 04:00:00",930.93,25.3,TRADE
TAS1,"2008/12/26 04:30:00",926.65,25.3,TRADE
TAS1,"2008/12/26 05:00:00",950.08,25.3,TRADE
TAS1,"2008/12/26 05:30:00",959.51,25.3,TRADE
TAS1,"2008/12/26 06:00:00",974.3,25.3,TRADE
TAS1,"2008/12/26 06:30:00",1005.71,25.3,TRADE
TAS1,"2008/12/26 07:00:00",1037.63,25.3,TRADE
TAS1,"2008/12/26 07:30:00",1089.44,25.3,TRADE
TAS1,"2008/12/26 08:00:00",1113.15,25.3,TRADE
TAS1,"2008/12/26 08:30:00",1123.01,25.3,TRADE
TAS1,"2008/12/26 09:00:00",1120.26,25.3,TRADE
TAS1,"2008/12/26 09:30:00",1132.77,25.3,TRADE
TAS1,"2008/12/26 10:00:00",1132.52,25.3,TRADE
TAS1,"2008/12/26 10:30:00",1120.69,25.3,TRADE
TAS1,"2008/12/26 11:00:00",1122.1,25.3,TRADE
TAS1,"2008/12/26 11:30:00",1105.41,25.3,TRADE
TAS1,"2008/12/26 12:00:00",1099.16,25.3,TRADE
TAS1,"2008/12/26 12:30:00",1087.05,10.5,TRADE
TAS1,"2008/12/26 13:00:00",1078.45,6.96,TRADE
TAS1,"2008/12/26 13:30:00",1074.88,16.55,TRADE
TAS1,"2008/12/26 14:00:00",1070.76,16.04,TRADE
TAS1,"2008/12/26 14:30:00",1069.62,16.28,TRADE
TAS1,"2008/12/26 15:00:00",1059.48,9.08,TRADE
TAS1,"2008/12/26 15:30:00",995.73,26.89,TRADE
TAS1,"2008/12/26 16:00:00",995.43,38.63,TRADE
TAS1,"2008/12/26 16:30:00",1008.51,45.3,TRADE
TAS1,"2008/12/26 17:00:00",1016.89,41.97,TRADE
TAS1,"2008/12/26 17:30:00",1021.44,45.3,TRADE
TAS1,"2008/12/26 18:00:00",1042.23,45.3,TRADE
TAS1,"2008/12/26 18:30:00",1042.81,25.3,TRADE
TAS1,"2008/12/26 19:00:00",1045.74,33.3,TRADE
TAS1,"2008/12/26 19:30:00",1055,33.3,TRADE
TAS1,"2008/12/26 20:00:00",1066.97,33.3,TRADE
TAS1,"2008/12/26 20:30:00",1082.68,33.3,TRADE
TAS1,"2008/12/26 21:00:00",1134.3,33.3,TRADE
TAS1,"2008/12/26 21:30:00",1134.15,33.3,TRADE
TAS1,"2008/12/26 22:00:00",1108.28,33.3,TRADE
TAS1,"2008/12/26 22:30:00",1084.52,33.3,TRADE
TAS1,"2008/12/26 23:00:00",1048.83,33.3,TRADE
TAS1,"2008/12/26 23:30:00",1026.27,33.3,TRADE
TAS1,"2008/12/27 00:00:00",1008.17,33.34,TRADE
TAS1,"2008/12/27 00:30:00",999.47,33.3,TRADE
TAS1,"2008/12/27 01:00:00",991.32,33.3,TRADE
TAS1,"2008/12/27 01:30:00",977.29,33.3,TRADE
TAS1,"2008/12/27 02:00:00",951.09,33.33,TRADE
TAS1,"2008/12/27 02:30:00",946.85,25.34,TRADE
TAS1,"2008/12/27 03:00:00",942.94,25.3,TRADE
TAS1,"2008/12/27 03:30:00",954.72,25.37,TRADE
TAS1,"2008/12/27 04:00:00",956.2,25.42,TRADE
TAS1,"2008/12/27 04:30:00",973.96,25.44,TRADE
TAS1,"2008/12/27 05:00:00",977.05,25.3,TRADE
TAS1,"2008/12/27 05:30:00",972.68,25.3,TRADE
TAS1,"2008/12/27 06:00:00",994.22,25.3,TRADE
TAS1,"2008/12/27 06:30:00",1036.37,-161.53,TRADE
TAS1,"2008/12/27 07:00:00",1072.99,2.24,TRADE
TAS1,"2008/12/27 07:30:00",1109.51,2.38,TRADE
TAS1,"2008/12/27 08:00:00",1128.98,31.97,TRADE
TAS1,"2008/12/27 08:30:00",1146.97,33.3,TRADE
TAS1,"2008/12/27 09:00:00",1157.64,33.3,TRADE
TAS1,"2008/12/27 09:30:00",1154.6,33.3,TRADE
TAS1,"2008/12/27 10:00:00",1143.57,33.3,TRADE
TAS1,"2008/12/27 10:30:00",1130.16,35.3,TRADE
TAS1,"2008/12/27 11:00:00",1129.74,45.3,TRADE
TAS1,"2008/12/27 11:30:00",1112.03,45.3,TRADE
TAS1,"2008/12/27 12:00:00",1082.23,45.3,TRADE
TAS1,"2008/12/27 12:30:00",1063.64,45.3,TRADE
TAS1,"2008/12/27 13:00:00",1047.54,45.3,TRADE
TAS1,"2008/12/27 13:30:00",969.31,45.3,TRADE
TAS1,"2008/12/27 14:00:00",957.83,45.3,TRADE
TAS1,"2008/12/27 14:30:00",968.34,45.3,TRADE
TAS1,"2008/12/27 15:00:00",965.81,45.3,TRADE
TAS1,"2008/12/27 15:30:00",975.72,45.3,TRADE
TAS1,"2008/12/27 16:00:00",978.66,45.3,TRADE
TAS1,"2008/12/27 16:30:00",1012.95,45.3,TRADE
TAS1,"2008/12/27 17:00:00",1012.32,33.3,TRADE
TAS1,"2008/12/27 17:30:00",1024.12,33.3,TRADE
TAS1,"2008/12/27 18:00:00",1036.07,33.3,TRADE
TAS1,"2008/12/27 18:30:00",1028.2,33.3,TRADE
TAS1,"2008/12/27 19:00:00",1021.82,33.3,TRADE
TAS1,"2008/12/27 19:30:00",1014.99,25.3,TRADE
TAS1,"2008/12/27 20:00:00",1036.77,25.3,TRADE
TAS1,"2008/12/27 20:30:00",1051.81,25.3,TRADE
TAS1,"2008/12/27 21:00:00",1051.66,25.3,TRADE
TAS1,"2008/12/27 21:30:00",1031.56,25.3,TRADE
TAS1,"2008/12/27 22:00:00",1001.89,25.3,TRADE
TAS1,"2008/12/27 22:30:00",978.68,25.4,TRADE
TAS1,"2008/12/27 23:00:00",961.24,25.3,TRADE
TAS1,"2008/12/27 23:30:00",933.67,25.71,TRADE
TAS1,"2008/12/28 00:00:00",903.1,26.12,TRADE
TAS1,"2008/12/28 00:30:00",881.56,25.3,TRADE
TAS1,"2008/12/28 01:00:00",877.65,25.3,TRADE
TAS1,"2008/12/28 01:30:00",859.99,25.3,TRADE
TAS1,"2008/12/28 02:00:00",840.81,25.3,TRADE
TAS1,"2008/12/28 02:30:00",824.62,25.3,TRADE
TAS1,"2008/12/28 03:00:00",829.23,25.3,TRADE
TAS1,"2008/12/28 03:30:00",841.2,25.3,TRADE
TAS1,"2008/12/28 04:00:00",828.13,25.3,TRADE
TAS1,"2008/12/28 04:30:00",828.58,25.3,TRADE
TAS1,"2008/12/28 05:00:00",824.77,25.28,TRADE
TAS1,"2008/12/28 05:30:00",831.88,25.28,TRADE
TAS1,"2008/12/28 06:00:00",843.34,25.28,TRADE
TAS1,"2008/12/28 06:30:00",852.31,25.28,TRADE
TAS1,"2008/12/28 07:00:00",866.91,25.28,TRADE
TAS1,"2008/12/28 07:30:00",901.49,26.61,TRADE
TAS1,"2008/12/28 08:00:00",925.04,33.28,TRADE
TAS1,"2008/12/28 08:30:00",942.75,33.28,TRADE
TAS1,"2008/12/28 09:00:00",945.68,33.28,TRADE
TAS1,"2008/12/28 09:30:00",952.61,25.28,TRADE
TAS1,"2008/12/28 10:00:00",940.71,27.97,TRADE
TAS1,"2008/12/28 10:30:00",962.13,33.29,TRADE
TAS1,"2008/12/28 11:00:00",950.41,33.29,TRADE
TAS1,"2008/12/28 11:30:00",948.84,33.29,TRADE
TAS1,"2008/12/28 12:00:00",931.15,43.28,TRADE
TAS1,"2008/12/28 12:30:00",943.8,43.28,TRADE
TAS1,"2008/12/28 13:00:00",929.41,43.28,TRADE
TAS1,"2008/12/28 13:30:00",945.72,41.13,TRADE
TAS1,"2008/12/28 14:00:00",925.71,58.29,TRADE
TAS1,"2008/12/28 14:30:00",921.42,58.29,TRADE
TAS1,"2008/12/28 15:00:00",932.27,58.3,TRADE
TAS1,"2008/12/28 15:30:00",921.8,45.79,TRADE
TAS1,"2008/12/28 16:00:00",920.51,43.3,TRADE
TAS1,"2008/12/28 16:30:00",921.25,43.3,TRADE
TAS1,"2008/12/28 17:00:00",921.34,48.29,TRADE
TAS1,"2008/12/28 17:30:00",936.78,58.3,TRADE
TAS1,"2008/12/28 18:00:00",946.18,43.3,TRADE
TAS1,"2008/12/28 18:30:00",923.16,43.3,TRADE
TAS1,"2008/12/28 19:00:00",923.78,43.28,TRADE
TAS1,"2008/12/28 19:30:00",921.07,33.28,TRADE
TAS1,"2008/12/28 20:00:00",951.54,33.29,TRADE
TAS1,"2008/12/28 20:30:00",966.43,33.29,TRADE
TAS1,"2008/12/28 21:00:00",933.24,33.28,TRADE
TAS1,"2008/12/28 21:30:00",924.74,33.3,TRADE
TAS1,"2008/12/28 22:00:00",899.22,33.3,TRADE
TAS1,"2008/12/28 22:30:00",884.69,43.28,TRADE
TAS1,"2008/12/28 23:00:00",860.07,33.28,TRADE
TAS1,"2008/12/28 23:30:00",836.84,33.3,TRADE
TAS1,"2008/12/29 00:00:00",826.05,25.3,TRADE
TAS1,"2008/12/29 00:30:00",819.36,25.3,TRADE
TAS1,"2008/12/29 01:00:00",813.68,25.3,TRADE
TAS1,"2008/12/29 01:30:00",811.01,33.3,TRADE
TAS1,"2008/12/29 02:00:00",812.15,25.31,TRADE
TAS1,"2008/12/29 02:30:00",801.51,25.3,TRADE
TAS1,"2008/12/29 03:00:00",817.9,25.3,TRADE
TAS1,"2008/12/29 03:30:00",808.48,25.3,TRADE
TAS1,"2008/12/29 04:00:00",807.83,25.3,TRADE
TAS1,"2008/12/29 04:30:00",814.85,25.3,TRADE
TAS1,"2008/12/29 05:00:00",821.99,25.28,TRADE
TAS1,"2008/12/29 05:30:00",862.04,25.29,TRADE
TAS1,"2008/12/29 06:00:00",901.77,25.29,TRADE
TAS1,"2008/12/29 06:30:00",940.43,25.3,TRADE
TAS1,"2008/12/29 07:00:00",985.37,25.3,TRADE
TAS1,"2008/12/29 07:30:00",1010.45,25.28,TRADE
TAS1,"2008/12/29 08:00:00",1044.79,25.28,TRADE
TAS1,"2008/12/29 08:30:00",1046.6,25.3,TRADE
TAS1,"2008/12/29 09:00:00",1040.73,33.3,TRADE
TAS1,"2008/12/29 09:30:00",1024.63,33.3,TRADE
TAS1,"2008/12/29 10:00:00",983.39,33.3,TRADE
TAS1,"2008/12/29 10:30:00",981.49,36.63,TRADE
TAS1,"2008/12/29 11:00:00",994.97,43.3,TRADE
TAS1,"2008/12/29 11:30:00",981.16,43.3,TRADE
TAS1,"2008/12/29 12:00:00",959.42,43.3,TRADE
TAS1,"2008/12/29 12:30:00",983.71,43.3,TRADE
TAS1,"2008/12/29 13:00:00",977,43.3,TRADE
TAS1,"2008/12/29 13:30:00",951.11,43.3,TRADE
TAS1,"2008/12/29 14:00:00",951.34,43.3,TRADE
TAS1,"2008/12/29 14:30:00",956.41,43.3,TRADE
TAS1,"2008/12/29 15:00:00",958.09,43.3,TRADE
TAS1,"2008/12/29 15:30:00",955.24,43.3,TRADE
TAS1,"2008/12/29 16:00:00",966.16,43.3,TRADE
TAS1,"2008/12/29 16:30:00",990.64,43.3,TRADE
TAS1,"2008/12/29 17:00:00",1032.42,43.3,TRADE
TAS1,"2008/12/29 17:30:00",1038.49,43.3,TRADE
TAS1,"2008/12/29 18:00:00",1043.99,43.3,TRADE
TAS1,"2008/12/29 18:30:00",1040.38,43.3,TRADE
TAS1,"2008/12/29 19:00:00",1050.59,33.3,TRADE
TAS1,"2008/12/29 19:30:00",1085.68,33.3,TRADE
TAS1,"2008/12/29 20:00:00",1106.55,33.3,TRADE
TAS1,"2008/12/29 20:30:00",1135.98,33.3,TRADE
TAS1,"2008/12/29 21:00:00",1145.56,33.3,TRADE
TAS1,"2008/12/29 21:30:00",1110.4,33.3,TRADE
TAS1,"2008/12/29 22:00:00",1084.2,33.3,TRADE
TAS1,"2008/12/29 22:30:00",1060.07,33.3,TRADE
TAS1,"2008/12/29 23:00:00",1009.43,33.3,TRADE
TAS1,"2008/12/29 23:30:00",990.89,33.3,TRADE
TAS1,"2008/12/30 00:00:00",985.88,25.3,TRADE
TAS1,"2008/12/30 00:30:00",940.02,25.3,TRADE
TAS1,"2008/12/30 01:00:00",938.73,25.3,TRADE
TAS1,"2008/12/30 01:30:00",958.12,25.3,TRADE
TAS1,"2008/12/30 02:00:00",924.72,25.3,TRADE
TAS1,"2008/12/30 02:30:00",928.67,25.3,TRADE
TAS1,"2008/12/30 03:00:00",917.35,25.3,TRADE
TAS1,"2008/12/30 03:30:00",919.2,25.3,TRADE
TAS1,"2008/12/30 04:00:00",907.62,25.3,TRADE
TAS1,"2008/12/30 04:30:00",909.36,25.3,TRADE
TAS1,"2008/12/30 05:00:00",922.88,25.29,TRADE
TAS1,"2008/12/30 05:30:00",946.07,25.3,TRADE
TAS1,"2008/12/30 06:00:00",972.53,25.28,TRADE
TAS1,"2008/12/30 06:30:00",1010.78,25.28,TRADE
TAS1,"2008/12/30 07:00:00",1040.2,25.28,TRADE
TAS1,"2008/12/30 07:30:00",1073.74,25.28,TRADE
TAS1,"2008/12/30 08:00:00",1088.5,25.28,TRADE
TAS1,"2008/12/30 08:30:00",1107.82,27.95,TRADE
TAS1,"2008/12/30 09:00:00",1105.3,33.28,TRADE
TAS1,"2008/12/30 09:30:00",1103.72,33.28,TRADE
TAS1,"2008/12/30 10:00:00",1085.92,33.3,TRADE
TAS1,"2008/12/30 10:30:00",1070.5,25.3,TRADE
TAS1,"2008/12/30 11:00:00",1048.14,33.3,TRADE
TAS1,"2008/12/30 11:30:00",1046.07,33.3,TRADE
TAS1,"2008/12/30 12:00:00",1052.49,33.29,TRADE
TAS1,"2008/12/30 12:30:00",1036.51,33.28,TRADE
TAS1,"2008/12/30 13:00:00",1029.11,33.28,TRADE
TAS1,"2008/12/30 13:30:00",1027.27,33.28,TRADE
TAS1,"2008/12/30 14:00:00",1024.29,33.28,TRADE
TAS1,"2008/12/30 14:30:00",1039.36,33.28,TRADE
TAS1,"2008/12/30 15:00:00",1044.72,33.3,TRADE
TAS1,"2008/12/30 15:30:00",1044.9,33.3,TRADE
TAS1,"2008/12/30 16:00:00",1044.17,33.29,TRADE
TAS1,"2008/12/30 16:30:00",1053.25,33.3,TRADE
TAS1,"2008/12/30 17:00:00",1064.8,33.3,TRADE
TAS1,"2008/12/30 17:30:00",1057.6,33.3,TRADE
TAS1,"2008/12/30 18:00:00",1044.42,33.29,TRADE
TAS1,"2008/12/30 18:30:00",1037.42,33.29,TRADE
TAS1,"2008/12/30 19:00:00",1038.29,25.3,TRADE
TAS1,"2008/12/30 19:30:00",1042.5,25.3,TRADE
TAS1,"2008/12/30 20:00:00",1038.82,25.3,TRADE
TAS1,"2008/12/30 20:30:00",1048.07,25.29,TRADE
TAS1,"2008/12/30 21:00:00",1048.89,25.28,TRADE
TAS1,"2008/12/30 21:30:00",1031.87,25.28,TRADE
TAS1,"2008/12/30 22:00:00",1007.61,25.29,TRADE
TAS1,"2008/12/30 22:30:00",979.31,25.29,TRADE
TAS1,"2008/12/30 23:00:00",963.1,25.3,TRADE
TAS1,"2008/12/30 23:30:00",935.28,25.3,TRADE
TAS1,"2008/12/31 00:00:00",918.39,25.3,TRADE
TAS1,"2008/12/31 00:30:00",905.22,25.3,TRADE
TAS1,"2008/12/31 01:00:00",896.04,25.3,TRADE
TAS1,"2008/12/31 01:30:00",889.15,25.3,TRADE
TAS1,"2008/12/31 02:00:00",885.03,25.3,TRADE
TAS1,"2008/12/31 02:30:00",892.1,25.3,TRADE
TAS1,"2008/12/31 03:00:00",894.73,25.3,TRADE
TAS1,"2008/12/31 03:30:00",899.11,25.3,TRADE
TAS1,"2008/12/31 04:00:00",898.52,25.3,TRADE
TAS1,"2008/12/31 04:30:00",909.81,25.3,TRADE
TAS1,"2008/12/31 05:00:00",914.37,25.28,TRADE
TAS1,"2008/12/31 05:30:00",943.56,25.29,TRADE
TAS1,"2008/12/31 06:00:00",993.67,25.28,TRADE
TAS1,"2008/12/31 06:30:00",1029.7,25.28,TRADE
TAS1,"2008/12/31 07:00:00",1071.25,25.28,TRADE
TAS1,"2008/12/31 07:30:00",1078.09,25.28,TRADE
TAS1,"2008/12/31 08:00:00",1109.98,25.28,TRADE
TAS1,"2008/12/31 08:30:00",1121.04,25.28,TRADE
TAS1,"2008/12/31 09:00:00",1106.12,25.28,TRADE
TAS1,"2008/12/31 09:30:00",1125.53,25.28,TRADE
TAS1,"2008/12/31 10:00:00",1112.1,25.28,TRADE
TAS1,"2008/12/31 10:30:00",1111.93,33.28,TRADE
TAS1,"2008/12/31 11:00:00",1099.9,33.28,TRADE
TAS1,"2008/12/31 11:30:00",1077.43,33.28,TRADE
TAS1,"2008/12/31 12:00:00",1052.56,33.28,TRADE
TAS1,"2008/12/31 12:30:00",1023.19,33.27,TRADE
TAS1,"2008/12/31 13:00:00",1051.43,33.28,TRADE
TAS1,"2008/12/31 13:30:00",1030.11,33.28,TRADE
TAS1,"2008/12/31 14:00:00",1005.62,33.28,TRADE
TAS1,"2008/12/31 14:30:00",1027.2,33.28,TRADE
TAS1,"2008/12/31 15:00:00",1052.26,33.28,TRADE
TAS1,"2008/12/31 15:30:00",1042.37,33.28,TRADE
TAS1,"2008/12/31 16:00:00",1083.78,33.28,TRADE
TAS1,"2008/12/31 16:30:00",1074.99,33.28,TRADE
TAS1,"2008/12/31 17:00:00",1063.19,33.24,TRADE
TAS1,"2008/12/31 17:30:00",1067.35,33.28,TRADE
TAS1,"2008/12/31 18:00:00",1039.58,33.2,TRADE
TAS1,"2008/12/31 18:30:00",1033.44,33.25,TRADE
TAS1,"2008/12/31 19:00:00",1030.03,25.24,TRADE
TAS1,"2008/12/31 19:30:00",1024.55,25.23,TRADE
TAS1,"2008/12/31 20:00:00",1018.1,25.23,TRADE
TAS1,"2008/12/31 20:30:00",1024.96,25.28,TRADE
TAS1,"2008/12/31 21:00:00",1008.23,25.23,TRADE
TAS1,"2008/12/31 21:30:00",998.79,25.23,TRADE
TAS1,"2008/12/31 22:00:00",987.55,25.17,TRADE
TAS1,"2008/12/31 22:30:00",965.87,25.2,TRADE
TAS1,"2008/12/31 23:00:00",951.33,25.22,TRADE
TAS1,"2008/12/31 23:30:00",931.64,25.21,TRADE
TAS1,"2009/01/01 00:00:00",916.87,25.2,TRADE
