REGION,SETTLEMENTDATE,TOTALDEMAND,RRP,PERIODTYPE
VIC1,"2002/09/01 00:30",5255.87667,19.81,TRADE
VIC1,"2002/09/01 01:00",5117.51167,16.89,TRADE
VIC1,"2002/09/01 01:30",5480.625,20.02,TRADE
VIC1,"2002/09/01 02:00",5306.91333,16.26,TRADE
VIC1,"2002/09/01 02:30",5096.96333,14.77,TRADE
VIC1,"2002/09/01 03:00",4911.98333,14.62,TRADE
VIC1,"2002/09/01 03:30",4696.245,13.5,TRADE
VIC1,"2002/09/01 04:00",4618.41667,12.72,TRADE
VIC1,"2002/09/01 04:30",4518.25333,11.6,TRADE
VIC1,"2002/09/01 05:00",4435.68333,10.09,TRADE
VIC1,"2002/09/01 05:30",4374.81833,10.92,TRADE
VIC1,"2002/09/01 06:00",4376.535,11.63,TRADE
VIC1,"2002/09/01 06:30",4444.60167,10.25,TRADE
VIC1,"2002/09/01 07:00",4486.945,10.7,TRADE
VIC1,"2002/09/01 07:30",4381.96667,10.26,TRADE
VIC1,"2002/09/01 08:00",4561.55833,12.02,TRADE
VIC1,"2002/09/01 08:30",4738.31167,14.95,TRADE
VIC1,"2002/09/01 09:00",4823.59667,18.01,TRADE
VIC1,"2002/09/01 09:30",4885.545,19.35,TRADE
VIC1,"2002/09/01 10:00",4945.895,18.84,TRADE
VIC1,"2002/09/01 10:30",4886.29,17.84,TRADE
VIC1,"2002/09/01 11:00",4857.80667,17.45,TRADE
VIC1,"2002/09/01 11:30",4847.02333,17.14,TRADE
VIC1,"2002/09/01 12:00",4804.45833,16.22,TRADE
VIC1,"2002/09/01 12:30",4825.755,17.05,TRADE
VIC1,"2002/09/01 13:00",4805.92667,16.14,TRADE
VIC1,"2002/09/01 13:30",4800.46333,14.61,TRADE
VIC1,"2002/09/01 14:00",4716.80333,13.54,TRADE
VIC1,"2002/09/01 14:30",4636.995,13.51,TRADE
VIC1,"2002/09/01 15:00",4631.93333,13.52,TRADE
VIC1,"2002/09/01 15:30",4600.665,13.27,TRADE
VIC1,"2002/09/01 16:00",4619.42333,11.69,TRADE
VIC1,"2002/09/01 16:30",4647.175,12.03,TRADE
VIC1,"2002/09/01 17:00",4716.29333,12.55,TRADE
VIC1,"2002/09/01 17:30",4859.9,13.44,TRADE
VIC1,"2002/09/01 18:00",5032.79333,18.25,TRADE
VIC1,"2002/09/01 18:30",5476.965,39.1,TRADE
VIC1,"2002/09/01 19:00",5600.07,39.47,TRADE
VIC1,"2002/09/01 19:30",5581.435,34.36,TRADE
VIC1,"2002/09/01 20:00",5576.91167,30.26,TRADE
VIC1,"2002/09/01 20:30",5466.64,27.57,TRADE
VIC1,"2002/09/01 21:00",5458.31833,25.85,TRADE
VIC1,"2002/09/01 21:30",5328.92333,22.01,TRADE
VIC1,"2002/09/01 22:00",5202.585,19.23,TRADE
VIC1,"2002/09/01 22:30",5109.36667,20.36,TRADE
VIC1,"2002/09/01 23:00",5004.61833,17.84,TRADE
VIC1,"2002/09/01 23:30",5290.545,22.83,TRADE
VIC1,"2002/09/02 00:00",5218.39667,18.64,TRADE
VIC1,"2002/09/02 00:30",5135.38,17.24,TRADE
VIC1,"2002/09/02 01:00",5049.11,17.07,TRADE
VIC1,"2002/09/02 01:30",5428.17333,18.09,TRADE
VIC1,"2002/09/02 02:00",5311.53833,15.7,TRADE
VIC1,"2002/09/02 02:30",5149.425,14.79,TRADE
VIC1,"2002/09/02 03:00",4956.34,14.32,TRADE
VIC1,"2002/09/02 03:30",4847.23333,13.78,TRADE
VIC1,"2002/09/02 04:00",4698.49,12.45,TRADE
VIC1,"2002/09/02 04:30",4658.055,12.7,TRADE
VIC1,"2002/09/02 05:00",4605.80333,12.89,TRADE
VIC1,"2002/09/02 05:30",4712.22667,13.73,TRADE
VIC1,"2002/09/02 06:00",4845.97333,4.83,TRADE
VIC1,"2002/09/02 06:30",5232.42,5.13,TRADE
VIC1,"2002/09/02 07:00",5587.73333,10.15,TRADE
VIC1,"2002/09/02 07:30",5793.24667,15.06,TRADE
VIC1,"2002/09/02 08:00",6059.71333,24.32,TRADE
VIC1,"2002/09/02 08:30",6174.45833,27.37,TRADE
VIC1,"2002/09/02 09:00",6137.41333,24.96,TRADE
VIC1,"2002/09/02 09:30",6151.55667,25.38,TRADE
VIC1,"2002/09/02 10:00",6075.71,24.66,TRADE
VIC1,"2002/09/02 10:30",6043.12833,28.02,TRADE
VIC1,"2002/09/02 11:00",6048.54167,33.98,TRADE
VIC1,"2002/09/02 11:30",5988.53833,34.79,TRADE
VIC1,"2002/09/02 12:00",6041.665,36.84,TRADE
VIC1,"2002/09/02 12:30",6031.51333,37.58,TRADE
VIC1,"2002/09/02 13:00",6030.15667,37.13,TRADE
VIC1,"2002/09/02 13:30",6083.74333,37.57,TRADE
VIC1,"2002/09/02 14:00",6115.23833,42.45,TRADE
VIC1,"2002/09/02 14:30",6050.08333,42.68,TRADE
VIC1,"2002/09/02 15:00",5995.37167,37.09,TRADE
VIC1,"2002/09/02 15:30",5935.21167,37.12,TRADE
VIC1,"2002/09/02 16:00",5902.3,37.09,TRADE
VIC1,"2002/09/02 16:30",5948.69333,36.88,TRADE
VIC1,"2002/09/02 17:00",5975.42833,28.68,TRADE
VIC1,"2002/09/02 17:30",6062.01167,25.93,TRADE
VIC1,"2002/09/02 18:00",6205,27.13,TRADE
VIC1,"2002/09/02 18:30",6362.795,32.38,TRADE
VIC1,"2002/09/02 19:00",6332.07667,40.63,TRADE
VIC1,"2002/09/02 19:30",6174.985,25.18,TRADE
VIC1,"2002/09/02 20:00",6067.93833,30.41,TRADE
VIC1,"2002/09/02 20:30",5915.925,28.14,TRADE
VIC1,"2002/09/02 21:00",5766.90667,27.48,TRADE
VIC1,"2002/09/02 21:30",5578.22,23.76,TRADE
VIC1,"2002/09/02 22:00",5398.58833,19.77,TRADE
VIC1,"2002/09/02 22:30",5267.36167,31,TRADE
VIC1,"2002/09/02 23:00",5150.79333,24.59,TRADE
VIC1,"2002/09/02 23:30",5468.44333,28.98,TRADE
VIC1,"2002/09/03 00:00",5244.71333,22.85,TRADE
VIC1,"2002/09/03 00:30",5146.33833,22.12,TRADE
VIC1,"2002/09/03 01:00",5062.82333,22.58,TRADE
VIC1,"2002/09/03 01:30",5405.75667,25.25,TRADE
VIC1,"2002/09/03 02:00",5312.605,21.79,TRADE
VIC1,"2002/09/03 02:30",5102.18833,17.71,TRADE
VIC1,"2002/09/03 03:00",4907.34333,16.01,TRADE
VIC1,"2002/09/03 03:30",4735.11833,14.79,TRADE
VIC1,"2002/09/03 04:00",4581.40333,10.77,TRADE
VIC1,"2002/09/03 04:30",4511.52333,11.74,TRADE
VIC1,"2002/09/03 05:00",4486.645,9.87,TRADE
VIC1,"2002/09/03 05:30",4570.535,11.93,TRADE
VIC1,"2002/09/03 06:00",4720.15833,13.55,TRADE
VIC1,"2002/09/03 06:30",5102.28167,17.72,TRADE
VIC1,"2002/09/03 07:00",5462.73,27.08,TRADE
VIC1,"2002/09/03 07:30",5673.825,22.71,TRADE
VIC1,"2002/09/03 08:00",5974.12833,30.65,TRADE
VIC1,"2002/09/03 08:30",6058.30333,27.4,TRADE
VIC1,"2002/09/03 09:00",6041.205,26.48,TRADE
VIC1,"2002/09/03 09:30",6043.63667,27.63,TRADE
VIC1,"2002/09/03 10:00",6054.24,27.76,TRADE
VIC1,"2002/09/03 10:30",5983.555,27.05,TRADE
VIC1,"2002/09/03 11:00",6012.94333,27.28,TRADE
VIC1,"2002/09/03 11:30",5983.27,26.73,TRADE
VIC1,"2002/09/03 12:00",5969.69667,27.19,TRADE
VIC1,"2002/09/03 12:30",5956.73,26.3,TRADE
VIC1,"2002/09/03 13:00",5879.23833,26.3,TRADE
VIC1,"2002/09/03 13:30",5947.29,26.46,TRADE
VIC1,"2002/09/03 14:00",5918.245,26.3,TRADE
VIC1,"2002/09/03 14:30",5914.4,26.2,TRADE
VIC1,"2002/09/03 15:00",5876.885,25.79,TRADE
VIC1,"2002/09/03 15:30",5876.41167,26.26,TRADE
VIC1,"2002/09/03 16:00",5894.99167,26.38,TRADE
VIC1,"2002/09/03 16:30",5970.475,27.04,TRADE
VIC1,"2002/09/03 17:00",5974.50333,27.32,TRADE
VIC1,"2002/09/03 17:30",6061.96667,28.95,TRADE
VIC1,"2002/09/03 18:00",6187.82333,38.96,TRADE
VIC1,"2002/09/03 18:30",6373.7,47.86,TRADE
VIC1,"2002/09/03 19:00",6382.55667,50.63,TRADE
VIC1,"2002/09/03 19:30",6214.30833,30.12,TRADE
VIC1,"2002/09/03 20:00",6120.19,28.82,TRADE
VIC1,"2002/09/03 20:30",5990.495,26.74,TRADE
VIC1,"2002/09/03 21:00",5865.96833,25.76,TRADE
VIC1,"2002/09/03 21:30",5712.70167,24.49,TRADE
VIC1,"2002/09/03 22:00",5533.00167,18.86,TRADE
VIC1,"2002/09/03 22:30",5372.79667,26.95,TRADE
VIC1,"2002/09/03 23:00",5249.88667,25.66,TRADE
VIC1,"2002/09/03 23:30",5577.49,30.89,TRADE
VIC1,"2002/09/04 00:00",5508.355,25.99,TRADE
VIC1,"2002/09/04 00:30",5323.725,23.16,TRADE
VIC1,"2002/09/04 01:00",5226.50167,22.69,TRADE
VIC1,"2002/09/04 01:30",5530.54667,26.64,TRADE
VIC1,"2002/09/04 02:00",5422.565,21.92,TRADE
VIC1,"2002/09/04 02:30",5206.68833,16.93,TRADE
VIC1,"2002/09/04 03:00",4998.93833,16.21,TRADE
VIC1,"2002/09/04 03:30",4830.64667,15.06,TRADE
VIC1,"2002/09/04 04:00",4661.36667,13.58,TRADE
VIC1,"2002/09/04 04:30",4583.445,12.49,TRADE
VIC1,"2002/09/04 05:00",4511.89167,12.95,TRADE
VIC1,"2002/09/04 05:30",4565.53,13.89,TRADE
VIC1,"2002/09/04 06:00",4691.62,13.97,TRADE
VIC1,"2002/09/04 06:30",5089.78667,18.53,TRADE
VIC1,"2002/09/04 07:00",5473.40333,21.27,TRADE
VIC1,"2002/09/04 07:30",5684.14167,21.34,TRADE
VIC1,"2002/09/04 08:00",5930.285,28.18,TRADE
VIC1,"2002/09/04 08:30",6078.72667,27.65,TRADE
VIC1,"2002/09/04 09:00",6074.145,26.42,TRADE
VIC1,"2002/09/04 09:30",6126.525,27.02,TRADE
VIC1,"2002/09/04 10:00",6073.035,26.61,TRADE
VIC1,"2002/09/04 10:30",6059.75667,26.88,TRADE
VIC1,"2002/09/04 11:00",6053.54833,27.26,TRADE
VIC1,"2002/09/04 11:30",6046.7,27.15,TRADE
VIC1,"2002/09/04 12:00",6046.16833,27.02,TRADE
VIC1,"2002/09/04 12:30",6036.72,26.58,TRADE
VIC1,"2002/09/04 13:00",5953.55667,26.28,TRADE
VIC1,"2002/09/04 13:30",6008.27333,26.39,TRADE
VIC1,"2002/09/04 14:00",6006.61667,26.29,TRADE
VIC1,"2002/09/04 14:30",6008.075,26.21,TRADE
VIC1,"2002/09/04 15:00",5974.15333,26.29,TRADE
VIC1,"2002/09/04 15:30",5920.40333,26.25,TRADE
VIC1,"2002/09/04 16:00",5888.70667,26.25,TRADE
VIC1,"2002/09/04 16:30",5915.19167,25.1,TRADE
VIC1,"2002/09/04 17:00",5954.44333,27.17,TRADE
VIC1,"2002/09/04 17:30",6038.24,26.09,TRADE
VIC1,"2002/09/04 18:00",6122.155,31.94,TRADE
VIC1,"2002/09/04 18:30",6269.685,35.77,TRADE
VIC1,"2002/09/04 19:00",6336.06667,35.32,TRADE
VIC1,"2002/09/04 19:30",6216.86333,24.68,TRADE
VIC1,"2002/09/04 20:00",6115.755,23.84,TRADE
VIC1,"2002/09/04 20:30",5992.82167,25.15,TRADE
VIC1,"2002/09/04 21:00",5913.54667,22.49,TRADE
VIC1,"2002/09/04 21:30",5771.29333,19.95,TRADE
VIC1,"2002/09/04 22:00",5610.47,18.41,TRADE
VIC1,"2002/09/04 22:30",5492.78167,28.79,TRADE
VIC1,"2002/09/04 23:00",5361.10333,26.75,TRADE
VIC1,"2002/09/04 23:30",5688.98,31.51,TRADE
VIC1,"2002/09/05 00:00",5603.53,29,TRADE
VIC1,"2002/09/05 00:30",5481.69167,24.22,TRADE
VIC1,"2002/09/05 01:00",5401.56333,24.07,TRADE
VIC1,"2002/09/05 01:30",5722.34833,25.7,TRADE
VIC1,"2002/09/05 02:00",5593.16333,21.95,TRADE
VIC1,"2002/09/05 02:30",5403.46667,16.53,TRADE
VIC1,"2002/09/05 03:00",5186.10167,16.2,TRADE
VIC1,"2002/09/05 03:30",5026.03,14.91,TRADE
VIC1,"2002/09/05 04:00",4884.31167,14.02,TRADE
VIC1,"2002/09/05 04:30",4799.25,13.34,TRADE
VIC1,"2002/09/05 05:00",4750.74333,13.37,TRADE
VIC1,"2002/09/05 05:30",4816.615,14.99,TRADE
VIC1,"2002/09/05 06:00",4990.29833,16.22,TRADE
VIC1,"2002/09/05 06:30",5423.55667,21.66,TRADE
VIC1,"2002/09/05 07:00",5755.07833,30.59,TRADE
VIC1,"2002/09/05 07:30",5871.48833,22.71,TRADE
VIC1,"2002/09/05 08:00",6099.20333,32.85,TRADE
VIC1,"2002/09/05 08:30",6171.23,36.44,TRADE
VIC1,"2002/09/05 09:00",6122.42167,26.95,TRADE
VIC1,"2002/09/05 09:30",6147.925,26.28,TRADE
VIC1,"2002/09/05 10:00",6062.38167,25.43,TRADE
VIC1,"2002/09/05 10:30",5990.59167,26.96,TRADE
VIC1,"2002/09/05 11:00",5966.29667,27.74,TRADE
VIC1,"2002/09/05 11:30",5950.405,31.9,TRADE
VIC1,"2002/09/05 12:00",5946.10333,31.23,TRADE
VIC1,"2002/09/05 12:30",5921.96333,27.36,TRADE
VIC1,"2002/09/05 13:00",5889.155,25.32,TRADE
VIC1,"2002/09/05 13:30",5954.83833,26.47,TRADE
VIC1,"2002/09/05 14:00",5933.41167,26.86,TRADE
VIC1,"2002/09/05 14:30",5906.10333,36.18,TRADE
VIC1,"2002/09/05 15:00",5830.565,35.94,TRADE
VIC1,"2002/09/05 15:30",5806.82,35.91,TRADE
VIC1,"2002/09/05 16:00",5838.55,37.05,TRADE
VIC1,"2002/09/05 16:30",5788.46667,35.94,TRADE
VIC1,"2002/09/05 17:00",5818.67333,36.09,TRADE
VIC1,"2002/09/05 17:30",5839.995,29.57,TRADE
VIC1,"2002/09/05 18:00",5937.29667,33.3,TRADE
VIC1,"2002/09/05 18:30",6169.70333,44.28,TRADE
VIC1,"2002/09/05 19:00",6243.82667,43.86,TRADE
VIC1,"2002/09/05 19:30",6166.67,33.45,TRADE
VIC1,"2002/09/05 20:00",6065.99333,32.45,TRADE
VIC1,"2002/09/05 20:30",5940.98,31.22,TRADE
VIC1,"2002/09/05 21:00",5807.075,26.57,TRADE
VIC1,"2002/09/05 21:30",5662.525,22.82,TRADE
VIC1,"2002/09/05 22:00",5479.03667,17.46,TRADE
VIC1,"2002/09/05 22:30",5334.61167,24.72,TRADE
VIC1,"2002/09/05 23:00",5222.58167,21.67,TRADE
VIC1,"2002/09/05 23:30",5622.505,30.88,TRADE
VIC1,"2002/09/06 00:00",5480.94,30.76,TRADE
VIC1,"2002/09/06 00:30",5335.19333,22.48,TRADE
VIC1,"2002/09/06 01:00",5242.09667,18.12,TRADE
VIC1,"2002/09/06 01:30",5562.1,19.52,TRADE
VIC1,"2002/09/06 02:00",5404.91667,16.12,TRADE
VIC1,"2002/09/06 02:30",5194.55167,14.48,TRADE
VIC1,"2002/09/06 03:00",5000.65833,14.1,TRADE
VIC1,"2002/09/06 03:30",4854.48833,12.96,TRADE
VIC1,"2002/09/06 04:00",4698.37333,11.49,TRADE
VIC1,"2002/09/06 04:30",4621.42833,11.31,TRADE
VIC1,"2002/09/06 05:00",4605.04333,10.86,TRADE
VIC1,"2002/09/06 05:30",4642.25,12.21,TRADE
VIC1,"2002/09/06 06:00",4818.49167,13.37,TRADE
VIC1,"2002/09/06 06:30",5166.79167,15.93,TRADE
VIC1,"2002/09/06 07:00",5524.72,22.92,TRADE
VIC1,"2002/09/06 07:30",5724.22667,19.2,TRADE
VIC1,"2002/09/06 08:00",5960.44333,28.44,TRADE
VIC1,"2002/09/06 08:30",6063.51833,29.2,TRADE
VIC1,"2002/09/06 09:00",6079.98,27.67,TRADE
VIC1,"2002/09/06 09:30",6162.67167,36.18,TRADE
VIC1,"2002/09/06 10:00",6092.04,36.18,TRADE
VIC1,"2002/09/06 10:30",6066.43833,36.04,TRADE
VIC1,"2002/09/06 11:00",6036.93167,36.01,TRADE
VIC1,"2002/09/06 11:30",6009.725,35.8,TRADE
VIC1,"2002/09/06 12:00",6014.17167,30.8,TRADE
VIC1,"2002/09/06 12:30",5919.55833,26.12,TRADE
VIC1,"2002/09/06 13:00",5887.48833,26.3,TRADE
VIC1,"2002/09/06 13:30",5951.56167,27.11,TRADE
VIC1,"2002/09/06 14:00",5895.42167,25.82,TRADE
VIC1,"2002/09/06 14:30",5897.11,26.54,TRADE
VIC1,"2002/09/06 15:00",5822.27333,24.61,TRADE
VIC1,"2002/09/06 15:30",5755.59167,23.16,TRADE
VIC1,"2002/09/06 16:00",5770.97,24.52,TRADE
VIC1,"2002/09/06 16:30",5742.98,23.67,TRADE
VIC1,"2002/09/06 17:00",5783.85833,24.55,TRADE
VIC1,"2002/09/06 17:30",5773.77833,24.62,TRADE
VIC1,"2002/09/06 18:00",5843.705,24.75,TRADE
VIC1,"2002/09/06 18:30",5956.7,33.4,TRADE
VIC1,"2002/09/06 19:00",6017.81667,29.27,TRADE
VIC1,"2002/09/06 19:30",6074.955,26.5,TRADE
VIC1,"2002/09/06 20:00",5963.17667,25.59,TRADE
VIC1,"2002/09/06 20:30",5845.875,25.53,TRADE
VIC1,"2002/09/06 21:00",5739.1,22.22,TRADE
VIC1,"2002/09/06 21:30",5599.655,17.98,TRADE
VIC1,"2002/09/06 22:00",5432.21,16.66,TRADE
VIC1,"2002/09/06 22:30",5381.9,25.29,TRADE
VIC1,"2002/09/06 23:00",5347.62333,24.75,TRADE
VIC1,"2002/09/06 23:30",5704.69,37.11,TRADE
VIC1,"2002/09/07 00:00",5547.32167,32.24,TRADE
VIC1,"2002/09/07 00:30",5396.56333,25.11,TRADE
VIC1,"2002/09/07 01:00",5286.38,23.26,TRADE
VIC1,"2002/09/07 01:30",5599.48833,26.84,TRADE
VIC1,"2002/09/07 02:00",5412.085,20.71,TRADE
VIC1,"2002/09/07 02:30",5235.815,18.23,TRADE
VIC1,"2002/09/07 03:00",4991.98167,16.66,TRADE
VIC1,"2002/09/07 03:30",4825.99,15.56,TRADE
VIC1,"2002/09/07 04:00",4673.66,14.63,TRADE
VIC1,"2002/09/07 04:30",4555.61167,14.43,TRADE
VIC1,"2002/09/07 05:00",4484.41333,14.09,TRADE
VIC1,"2002/09/07 05:30",4469.27667,14.4,TRADE
VIC1,"2002/09/07 06:00",4502.16333,14.46,TRADE
VIC1,"2002/09/07 06:30",4660.52833,13.9,TRADE
VIC1,"2002/09/07 07:00",4737.07833,14.8,TRADE
VIC1,"2002/09/07 07:30",4737.395,15.14,TRADE
VIC1,"2002/09/07 08:00",4916.865,18.85,TRADE
VIC1,"2002/09/07 08:30",5087.87833,23.9,TRADE
VIC1,"2002/09/07 09:00",5188.44167,26.71,TRADE
VIC1,"2002/09/07 09:30",5246.09333,31.36,TRADE
VIC1,"2002/09/07 10:00",5295.08833,28.33,TRADE
VIC1,"2002/09/07 10:30",5360.605,27.24,TRADE
VIC1,"2002/09/07 11:00",5302.11167,27.17,TRADE
VIC1,"2002/09/07 11:30",5250.17333,27.93,TRADE
VIC1,"2002/09/07 12:00",5253.46333,27.57,TRADE
VIC1,"2002/09/07 12:30",5240.74833,27.48,TRADE
VIC1,"2002/09/07 13:00",5189.30833,26.49,TRADE
VIC1,"2002/09/07 13:30",5201.58333,25.94,TRADE
VIC1,"2002/09/07 14:00",5170.01,22.72,TRADE
VIC1,"2002/09/07 14:30",5099.86833,21.33,TRADE
VIC1,"2002/09/07 15:00",5054.67167,21.52,TRADE
VIC1,"2002/09/07 15:30",5061.67167,22.13,TRADE
VIC1,"2002/09/07 16:00",5061.785,22.82,TRADE
VIC1,"2002/09/07 16:30",5071.585,23.09,TRADE
VIC1,"2002/09/07 17:00",5158.18667,23.08,TRADE
VIC1,"2002/09/07 17:30",5272.73333,22.31,TRADE
VIC1,"2002/09/07 18:00",5434.78833,27.51,TRADE
VIC1,"2002/09/07 18:30",5693.12833,37.57,TRADE
VIC1,"2002/09/07 19:00",5812.85167,40.02,TRADE
VIC1,"2002/09/07 19:30",5749.16167,30.42,TRADE
VIC1,"2002/09/07 20:00",5652.95833,26.39,TRADE
VIC1,"2002/09/07 20:30",5509.34833,24.78,TRADE
VIC1,"2002/09/07 21:00",5424.74167,23.33,TRADE
VIC1,"2002/09/07 21:30",5354.07167,21.64,TRADE
VIC1,"2002/09/07 22:00",5239.02667,19.38,TRADE
VIC1,"2002/09/07 22:30",5140.52667,20.22,TRADE
VIC1,"2002/09/07 23:00",5098.18333,19.34,TRADE
VIC1,"2002/09/07 23:30",5440.66667,24.95,TRADE
VIC1,"2002/09/08 00:00",5357.77667,22.89,TRADE
VIC1,"2002/09/08 00:30",5309.09167,21.06,TRADE
VIC1,"2002/09/08 01:00",5185.33833,19.38,TRADE
VIC1,"2002/09/08 01:30",5559.62,21.28,TRADE
VIC1,"2002/09/08 02:00",5319.985,17.17,TRADE
VIC1,"2002/09/08 02:30",5147.79167,15.91,TRADE
VIC1,"2002/09/08 03:00",4946.08,15.64,TRADE
VIC1,"2002/09/08 03:30",4791.09167,15.09,TRADE
VIC1,"2002/09/08 04:00",4650.33,14.7,TRADE
VIC1,"2002/09/08 04:30",4570.63333,14.3,TRADE
VIC1,"2002/09/08 05:00",4452.72833,13.96,TRADE
VIC1,"2002/09/08 05:30",4424.84,13.8,TRADE
VIC1,"2002/09/08 06:00",4437.75167,13.88,TRADE
VIC1,"2002/09/08 06:30",4481.25833,11.72,TRADE
VIC1,"2002/09/08 07:00",4513.01167,13.08,TRADE
VIC1,"2002/09/08 07:30",4426.46,13.4,TRADE
VIC1,"2002/09/08 08:00",4542.61167,14.71,TRADE
VIC1,"2002/09/08 08:30",4701.68333,17.46,TRADE
VIC1,"2002/09/08 09:00",4799.86333,18.8,TRADE
VIC1,"2002/09/08 09:30",4932.91,20.22,TRADE
VIC1,"2002/09/08 10:00",4977.72,21.41,TRADE
VIC1,"2002/09/08 10:30",4992.46,21.02,TRADE
VIC1,"2002/09/08 11:00",5005.61333,19.36,TRADE
VIC1,"2002/09/08 11:30",5026.92167,19.27,TRADE
VIC1,"2002/09/08 12:00",5019.58333,19.12,TRADE
VIC1,"2002/09/08 12:30",4986.27,18.71,TRADE
VIC1,"2002/09/08 13:00",5003.755,17.86,TRADE
VIC1,"2002/09/08 13:30",5052.72667,18.3,TRADE
VIC1,"2002/09/08 14:00",5013.64333,18.33,TRADE
VIC1,"2002/09/08 14:30",4958.595,17.42,TRADE
VIC1,"2002/09/08 15:00",4921.755,16.39,TRADE
VIC1,"2002/09/08 15:30",4891.135,15.91,TRADE
VIC1,"2002/09/08 16:00",4911.02167,16.02,TRADE
VIC1,"2002/09/08 16:30",4898.17,15.54,TRADE
VIC1,"2002/09/08 17:00",4962.83167,17.12,TRADE
VIC1,"2002/09/08 17:30",5136.19167,17.38,TRADE
VIC1,"2002/09/08 18:00",5404.51833,23,TRADE
VIC1,"2002/09/08 18:30",5721.255,36.7,TRADE
VIC1,"2002/09/08 19:00",5807.47333,42.97,TRADE
VIC1,"2002/09/08 19:30",5721.84833,26.81,TRADE
VIC1,"2002/09/08 20:00",5647.92333,26.24,TRADE
VIC1,"2002/09/08 20:30",5530.83333,24.72,TRADE
VIC1,"2002/09/08 21:00",5457.35333,24.51,TRADE
VIC1,"2002/09/08 21:30",5304.94167,22.28,TRADE
VIC1,"2002/09/08 22:00",5157.78,18.8,TRADE
VIC1,"2002/09/08 22:30",5018.01,18.39,TRADE
VIC1,"2002/09/08 23:00",4921.61833,17.63,TRADE
VIC1,"2002/09/08 23:30",5237.03667,20.18,TRADE
VIC1,"2002/09/09 00:00",5160.76833,18.52,TRADE
VIC1,"2002/09/09 00:30",5094.71333,17.16,TRADE
VIC1,"2002/09/09 01:00",4976.91833,16.01,TRADE
VIC1,"2002/09/09 01:30",5355.40333,18.44,TRADE
VIC1,"2002/09/09 02:00",5189.29,16.16,TRADE
VIC1,"2002/09/09 02:30",5055.84,15.3,TRADE
VIC1,"2002/09/09 03:00",4883.50833,14.94,TRADE
VIC1,"2002/09/09 03:30",4718.68667,14.31,TRADE
VIC1,"2002/09/09 04:00",4615.26167,13.85,TRADE
VIC1,"2002/09/09 04:30",4545.05,13.47,TRADE
VIC1,"2002/09/09 05:00",4500.37833,13.26,TRADE
VIC1,"2002/09/09 05:30",4622.22167,13.97,TRADE
VIC1,"2002/09/09 06:00",4744.73167,15.07,TRADE
VIC1,"2002/09/09 06:30",5170.83833,17.46,TRADE
VIC1,"2002/09/09 07:00",5536.40833,25.38,TRADE
VIC1,"2002/09/09 07:30",5716.84333,23.17,TRADE
VIC1,"2002/09/09 08:00",6037.675,32.04,TRADE
VIC1,"2002/09/09 08:30",6140.62667,37.71,TRADE
VIC1,"2002/09/09 09:00",6179.41167,38.67,TRADE
VIC1,"2002/09/09 09:30",6227.68,41.89,TRADE
VIC1,"2002/09/09 10:00",6225.915,39.55,TRADE
VIC1,"2002/09/09 10:30",6202.68833,38.93,TRADE
VIC1,"2002/09/09 11:00",6174.72333,38.84,TRADE
VIC1,"2002/09/09 11:30",6198.29167,38.93,TRADE
VIC1,"2002/09/09 12:00",6188.65667,41.44,TRADE
VIC1,"2002/09/09 12:30",6154.37,39.46,TRADE
VIC1,"2002/09/09 13:00",6130.90333,38.51,TRADE
VIC1,"2002/09/09 13:30",6250.855,41.59,TRADE
VIC1,"2002/09/09 14:00",6271.37167,43.76,TRADE
VIC1,"2002/09/09 14:30",6216.55333,40.78,TRADE
VIC1,"2002/09/09 15:00",6174.75333,38.85,TRADE
VIC1,"2002/09/09 15:30",6121.12167,38.78,TRADE
VIC1,"2002/09/09 16:00",6134.895,38.65,TRADE
VIC1,"2002/09/09 16:30",6184.265,39.68,TRADE
VIC1,"2002/09/09 17:00",6246.72833,39.56,TRADE
VIC1,"2002/09/09 17:30",6410.56667,41.94,TRADE
VIC1,"2002/09/09 18:00",6541.67333,44.25,TRADE
VIC1,"2002/09/09 18:30",6629.70833,46.47,TRADE
VIC1,"2002/09/09 19:00",6692.085,46.31,TRADE
VIC1,"2002/09/09 19:30",6564.795,39.49,TRADE
VIC1,"2002/09/09 20:00",6447.285,33.26,TRADE
VIC1,"2002/09/09 20:30",6305.02167,32.54,TRADE
VIC1,"2002/09/09 21:00",6145.825,28.09,TRADE
VIC1,"2002/09/09 21:30",5990.81167,23.92,TRADE
VIC1,"2002/09/09 22:00",5826.94333,20.45,TRADE
VIC1,"2002/09/09 22:30",5636.78667,29.97,TRADE
VIC1,"2002/09/09 23:00",5458.08667,24.41,TRADE
VIC1,"2002/09/09 23:30",5734.43167,30.12,TRADE
VIC1,"2002/09/10 00:00",5645.80833,28.23,TRADE
VIC1,"2002/09/10 00:30",5589.93333,27.19,TRADE
VIC1,"2002/09/10 01:00",5487.19833,27.18,TRADE
VIC1,"2002/09/10 01:30",5851.05667,34.5,TRADE
VIC1,"2002/09/10 02:00",5724.67333,26.87,TRADE
VIC1,"2002/09/10 02:30",5536.27167,20.78,TRADE
VIC1,"2002/09/10 03:00",5348.73833,17.74,TRADE
VIC1,"2002/09/10 03:30",5167.975,16.33,TRADE
VIC1,"2002/09/10 04:00",5021.935,14.86,TRADE
VIC1,"2002/09/10 04:30",4965.69833,14.9,TRADE
VIC1,"2002/09/10 05:00",4879.215,14.4,TRADE
VIC1,"2002/09/10 05:30",4992.60667,15.15,TRADE
VIC1,"2002/09/10 06:00",5100.58833,16.23,TRADE
VIC1,"2002/09/10 06:30",5501.75167,18.54,TRADE
VIC1,"2002/09/10 07:00",5939.14167,32.01,TRADE
VIC1,"2002/09/10 07:30",6123.28,26.4,TRADE
VIC1,"2002/09/10 08:00",6450.57667,38.58,TRADE
VIC1,"2002/09/10 08:30",6533.09,39.38,TRADE
VIC1,"2002/09/10 09:00",6537.90667,35.78,TRADE
VIC1,"2002/09/10 09:30",6548.28167,38.12,TRADE
VIC1,"2002/09/10 10:00",6420.52167,36.67,TRADE
VIC1,"2002/09/10 10:30",6327.76667,38.31,TRADE
VIC1,"2002/09/10 11:00",6321.39167,37.82,TRADE
VIC1,"2002/09/10 11:30",6345.04,30.12,TRADE
VIC1,"2002/09/10 12:00",6321.295,35.28,TRADE
VIC1,"2002/09/10 12:30",6298.955,31.01,TRADE
VIC1,"2002/09/10 13:00",6251.27167,34.9,TRADE
VIC1,"2002/09/10 13:30",6335.09,36.34,TRADE
VIC1,"2002/09/10 14:00",6304.53,35.06,TRADE
VIC1,"2002/09/10 14:30",6259.045,37.58,TRADE
VIC1,"2002/09/10 15:00",6244.13,37.7,TRADE
VIC1,"2002/09/10 15:30",6195.02833,37.45,TRADE
VIC1,"2002/09/10 16:00",6200.64333,37.34,TRADE
VIC1,"2002/09/10 16:30",6198.89167,38.27,TRADE
VIC1,"2002/09/10 17:00",6333.99833,44.18,TRADE
VIC1,"2002/09/10 17:30",6350.835,44.39,TRADE
VIC1,"2002/09/10 18:00",6547.62167,62.91,TRADE
VIC1,"2002/09/10 18:30",6707.49167,75.5,TRADE
VIC1,"2002/09/10 19:00",6761.97667,76.47,TRADE
VIC1,"2002/09/10 19:30",6634.11833,61.82,TRADE
VIC1,"2002/09/10 20:00",6523.50667,45.23,TRADE
VIC1,"2002/09/10 20:30",6361.505,44.78,TRADE
VIC1,"2002/09/10 21:00",6272.86167,43.23,TRADE
VIC1,"2002/09/10 21:30",6097.22,36.87,TRADE
VIC1,"2002/09/10 22:00",5945.31,31.96,TRADE
VIC1,"2002/09/10 22:30",5720.19833,31.94,TRADE
VIC1,"2002/09/10 23:00",5576.89833,28.98,TRADE
VIC1,"2002/09/10 23:30",5903.11667,36.46,TRADE
VIC1,"2002/09/11 00:00",5773.105,29.49,TRADE
VIC1,"2002/09/11 00:30",5671.60333,37.53,TRADE
VIC1,"2002/09/11 01:00",5533.54833,32.85,TRADE
VIC1,"2002/09/11 01:30",5936.55833,52.48,TRADE
VIC1,"2002/09/11 02:00",5782.98667,25.71,TRADE
VIC1,"2002/09/11 02:30",5589.32167,16.72,TRADE
VIC1,"2002/09/11 03:00",5362.575,18.64,TRADE
VIC1,"2002/09/11 03:30",5220.20167,13.32,TRADE
VIC1,"2002/09/11 04:00",5048.85333,6.92,TRADE
VIC1,"2002/09/11 04:30",4971.21,4.35,TRADE
VIC1,"2002/09/11 05:00",4942.66167,4.33,TRADE
VIC1,"2002/09/11 05:30",5032.46333,11.81,TRADE
VIC1,"2002/09/11 06:00",5182.83167,17.12,TRADE
VIC1,"2002/09/11 06:30",5601.14833,28.75,TRADE
VIC1,"2002/09/11 07:00",6014.55833,61.32,TRADE
VIC1,"2002/09/11 07:30",6156.18167,42.23,TRADE
VIC1,"2002/09/11 08:00",6453.65833,44.93,TRADE
VIC1,"2002/09/11 08:30",6550.655,45.7,TRADE
VIC1,"2002/09/11 09:00",6496.945,45.56,TRADE
VIC1,"2002/09/11 09:30",6496.18667,45.38,TRADE
VIC1,"2002/09/11 10:00",6379.63167,44.11,TRADE
VIC1,"2002/09/11 10:30",6341.26167,42.48,TRADE
VIC1,"2002/09/11 11:00",6279.12333,38.78,TRADE
VIC1,"2002/09/11 11:30",6268.23333,37.7,TRADE
VIC1,"2002/09/11 12:00",6253.20667,37.57,TRADE
VIC1,"2002/09/11 12:30",6166.87833,36.64,TRADE
VIC1,"2002/09/11 13:00",6152.81333,32.83,TRADE
VIC1,"2002/09/11 13:30",6216.64667,33.97,TRADE
VIC1,"2002/09/11 14:00",6195.23333,32.91,TRADE
VIC1,"2002/09/11 14:30",6150.23667,34.72,TRADE
VIC1,"2002/09/11 15:00",6094.13833,28.14,TRADE
VIC1,"2002/09/11 15:30",6005.33,27.47,TRADE
VIC1,"2002/09/11 16:00",5972.58,28.83,TRADE
VIC1,"2002/09/11 16:30",5976.785,28.02,TRADE
VIC1,"2002/09/11 17:00",6047.2,32.4,TRADE
VIC1,"2002/09/11 17:30",6128.88667,33.1,TRADE
VIC1,"2002/09/11 18:00",6232.88833,32.97,TRADE
VIC1,"2002/09/11 18:30",6399.26833,52.97,TRADE
VIC1,"2002/09/11 19:00",6540.24667,75.06,TRADE
VIC1,"2002/09/11 19:30",6463.82,44.87,TRADE
VIC1,"2002/09/11 20:00",6354.96667,43.44,TRADE
VIC1,"2002/09/11 20:30",6193.01333,42.45,TRADE
VIC1,"2002/09/11 21:00",6107.48833,41.52,TRADE
VIC1,"2002/09/11 21:30",5976.55667,35.25,TRADE
VIC1,"2002/09/11 22:00",5826.94667,28.95,TRADE
VIC1,"2002/09/11 22:30",5672.94167,41.06,TRADE
VIC1,"2002/09/11 23:00",5526.265,37.02,TRADE
VIC1,"2002/09/11 23:30",5865.44,40.21,TRADE
VIC1,"2002/09/12 00:00",5771.86667,38.24,TRADE
VIC1,"2002/09/12 00:30",5646.55167,36.65,TRADE
VIC1,"2002/09/12 01:00",5506.29667,33.05,TRADE
VIC1,"2002/09/12 01:30",5878.5,34.43,TRADE
VIC1,"2002/09/12 02:00",5771.17833,30.82,TRADE
VIC1,"2002/09/12 02:30",5545.57,25.61,TRADE
VIC1,"2002/09/12 03:00",5358.11,24.92,TRADE
VIC1,"2002/09/12 03:30",5190.82167,22.4,TRADE
VIC1,"2002/09/12 04:00",5082.53833,17.91,TRADE
VIC1,"2002/09/12 04:30",5004.82667,17.13,TRADE
VIC1,"2002/09/12 05:00",4961.72833,17.07,TRADE
VIC1,"2002/09/12 05:30",5034.74833,18.69,TRADE
VIC1,"2002/09/12 06:00",5216.83,26.09,TRADE
VIC1,"2002/09/12 06:30",5638.00833,26.98,TRADE
VIC1,"2002/09/12 07:00",5946.91167,30.25,TRADE
VIC1,"2002/09/12 07:30",6097.50333,41.58,TRADE
VIC1,"2002/09/12 08:00",6390.515,40.88,TRADE
VIC1,"2002/09/12 08:30",6468.10833,44.36,TRADE
VIC1,"2002/09/12 09:00",6400.355,44.11,TRADE
VIC1,"2002/09/12 09:30",6375.46667,40.78,TRADE
VIC1,"2002/09/12 10:00",6251.515,36.97,TRADE
VIC1,"2002/09/12 10:30",6186.06667,33.77,TRADE
VIC1,"2002/09/12 11:00",6129.59167,33.76,TRADE
VIC1,"2002/09/12 11:30",6051.96833,29.67,TRADE
VIC1,"2002/09/12 12:00",6037.5,29.03,TRADE
VIC1,"2002/09/12 12:30",5947.99333,29.28,TRADE
VIC1,"2002/09/12 13:00",5944.22833,29.65,TRADE
VIC1,"2002/09/12 13:30",6031.79667,33.25,TRADE
VIC1,"2002/09/12 14:00",6000.51333,28.94,TRADE
VIC1,"2002/09/12 14:30",5964.86667,29,TRADE
VIC1,"2002/09/12 15:00",5938.745,28.97,TRADE
VIC1,"2002/09/12 15:30",5864.14667,28.1,TRADE
VIC1,"2002/09/12 16:00",5875.04167,30.12,TRADE
VIC1,"2002/09/12 16:30",5887.93333,28.12,TRADE
VIC1,"2002/09/12 17:00",5886.91833,29.66,TRADE
VIC1,"2002/09/12 17:30",5947.30667,29.62,TRADE
VIC1,"2002/09/12 18:00",6044.93667,35.98,TRADE
VIC1,"2002/09/12 18:30",6246.35167,42.9,TRADE
VIC1,"2002/09/12 19:00",6398.70167,48.68,TRADE
VIC1,"2002/09/12 19:30",6341.85167,43.36,TRADE
VIC1,"2002/09/12 20:00",6236.32,42.72,TRADE
VIC1,"2002/09/12 20:30",6115.675,42.31,TRADE
VIC1,"2002/09/12 21:00",6021.785,40.53,TRADE
VIC1,"2002/09/12 21:30",5898.14833,38.71,TRADE
VIC1,"2002/09/12 22:00",5726.93,33.72,TRADE
VIC1,"2002/09/12 22:30",5592.115,45.1,TRADE
VIC1,"2002/09/12 23:00",5440.61,32.33,TRADE
VIC1,"2002/09/12 23:30",5786.04,53.8,TRADE
VIC1,"2002/09/13 00:00",5658.71333,42.78,TRADE
VIC1,"2002/09/13 00:30",5491.99333,40.63,TRADE
VIC1,"2002/09/13 01:00",5338.24667,36.49,TRADE
VIC1,"2002/09/13 01:30",5710.86667,39.99,TRADE
VIC1,"2002/09/13 02:00",5575.68667,35.98,TRADE
VIC1,"2002/09/13 02:30",5411.79833,31.25,TRADE
VIC1,"2002/09/13 03:00",5230.63667,26.77,TRADE
VIC1,"2002/09/13 03:30",5072.10833,21.64,TRADE
VIC1,"2002/09/13 04:00",4948.855,17.88,TRADE
VIC1,"2002/09/13 04:30",4860.335,16.92,TRADE
VIC1,"2002/09/13 05:00",4800.49333,16.28,TRADE
VIC1,"2002/09/13 05:30",4912.45,18.32,TRADE
VIC1,"2002/09/13 06:00",5050.365,20.06,TRADE
VIC1,"2002/09/13 06:30",5456.05,18.28,TRADE
VIC1,"2002/09/13 07:00",5790.72,22.79,TRADE
VIC1,"2002/09/13 07:30",5895.105,28.69,TRADE
VIC1,"2002/09/13 08:00",6109.98167,43.53,TRADE
VIC1,"2002/09/13 08:30",6240.40667,44.42,TRADE
VIC1,"2002/09/13 09:00",6199.945,37.97,TRADE
VIC1,"2002/09/13 09:30",6220.44333,37.44,TRADE
VIC1,"2002/09/13 10:00",6115.83333,35.89,TRADE
VIC1,"2002/09/13 10:30",6096.56167,30.77,TRADE
VIC1,"2002/09/13 11:00",6057.80833,37.27,TRADE
VIC1,"2002/09/13 11:30",6047.72667,37.24,TRADE
VIC1,"2002/09/13 12:00",6046.00333,34.96,TRADE
VIC1,"2002/09/13 12:30",6011.70333,32.24,TRADE
VIC1,"2002/09/13 13:00",5950.00333,26.53,TRADE
VIC1,"2002/09/13 13:30",5954.95167,26.72,TRADE
VIC1,"2002/09/13 14:00",5955.29667,26.73,TRADE
VIC1,"2002/09/13 14:30",5913.85833,29.04,TRADE
VIC1,"2002/09/13 15:00",5860.88167,32.77,TRADE
VIC1,"2002/09/13 15:30",5805.51667,31.73,TRADE
VIC1,"2002/09/13 16:00",5771.02333,26.77,TRADE
VIC1,"2002/09/13 16:30",5741.80833,26.14,TRADE
VIC1,"2002/09/13 17:00",5766.91167,25.73,TRADE
VIC1,"2002/09/13 17:30",5753.005,20.71,TRADE
VIC1,"2002/09/13 18:00",5815.68,34.73,TRADE
VIC1,"2002/09/13 18:30",5936.54333,42.74,TRADE
VIC1,"2002/09/13 19:00",6061.505,43.4,TRADE
VIC1,"2002/09/13 19:30",5986.00667,41.45,TRADE
VIC1,"2002/09/13 20:00",5860.955,36.68,TRADE
VIC1,"2002/09/13 20:30",5734.95333,35.94,TRADE
VIC1,"2002/09/13 21:00",5655.14333,36.11,TRADE
VIC1,"2002/09/13 21:30",5518.82167,31.46,TRADE
VIC1,"2002/09/13 22:00",5384.045,28.12,TRADE
VIC1,"2002/09/13 22:30",5305.69833,39.95,TRADE
VIC1,"2002/09/13 23:00",5251.19333,34.92,TRADE
VIC1,"2002/09/13 23:30",5647.25667,40.94,TRADE
VIC1,"2002/09/14 00:00",5514.695,36.56,TRADE
VIC1,"2002/09/14 00:30",5363.20833,34.82,TRADE
VIC1,"2002/09/14 01:00",5258.27667,29.93,TRADE
VIC1,"2002/09/14 01:30",5551.98333,33.2,TRADE
VIC1,"2002/09/14 02:00",5369.90333,23.59,TRADE
VIC1,"2002/09/14 02:30",5211.35667,22.76,TRADE
VIC1,"2002/09/14 03:00",4972.74667,16.85,TRADE
VIC1,"2002/09/14 03:30",4816.43833,16.27,TRADE
VIC1,"2002/09/14 04:00",4675.76667,14.61,TRADE
VIC1,"2002/09/14 04:30",4546.42,14.28,TRADE
VIC1,"2002/09/14 05:00",4501.98,13.58,TRADE
VIC1,"2002/09/14 05:30",4509.08667,13.62,TRADE
VIC1,"2002/09/14 06:00",4552.91,14.58,TRADE
VIC1,"2002/09/14 06:30",4707.20667,13.82,TRADE
VIC1,"2002/09/14 07:00",4782.94,15.04,TRADE
VIC1,"2002/09/14 07:30",4787.38,16.01,TRADE
VIC1,"2002/09/14 08:00",4944.605,22.93,TRADE
VIC1,"2002/09/14 08:30",5095.97833,29.39,TRADE
VIC1,"2002/09/14 09:00",5192.91,28.76,TRADE
VIC1,"2002/09/14 09:30",5227.075,32.33,TRADE
VIC1,"2002/09/14 10:00",5256.60833,30.99,TRADE
VIC1,"2002/09/14 10:30",5205.48667,28.02,TRADE
VIC1,"2002/09/14 11:00",5209.23,24.99,TRADE
VIC1,"2002/09/14 11:30",5159.09167,24.32,TRADE
VIC1,"2002/09/14 12:00",5170.75167,22.51,TRADE
VIC1,"2002/09/14 12:30",5117.445,22.82,TRADE
VIC1,"2002/09/14 13:00",5101.045,22.98,TRADE
VIC1,"2002/09/14 13:30",5060.96667,18.69,TRADE
VIC1,"2002/09/14 14:00",5009.82,17.26,TRADE
VIC1,"2002/09/14 14:30",4996.65333,17.06,TRADE
VIC1,"2002/09/14 15:00",4919.82333,16.05,TRADE
VIC1,"2002/09/14 15:30",4904.63833,16.27,TRADE
VIC1,"2002/09/14 16:00",4882.52667,16.04,TRADE
VIC1,"2002/09/14 16:30",4887.56333,16.35,TRADE
VIC1,"2002/09/14 17:00",4973.12,16.71,TRADE
VIC1,"2002/09/14 17:30",4989,16.84,TRADE
VIC1,"2002/09/14 18:00",5085.18667,24.55,TRADE
VIC1,"2002/09/14 18:30",5269.22167,32.09,TRADE
VIC1,"2002/09/14 19:00",5416.22833,35.01,TRADE
VIC1,"2002/09/14 19:30",5407.48167,32.83,TRADE
VIC1,"2002/09/14 20:00",5287.18667,25.29,TRADE
VIC1,"2002/09/14 20:30",5213.06833,23.91,TRADE
VIC1,"2002/09/14 21:00",5085.225,22.05,TRADE
VIC1,"2002/09/14 21:30",5006.625,20.38,TRADE
VIC1,"2002/09/14 22:00",4962.15333,19.22,TRADE
VIC1,"2002/09/14 22:30",4894.5,22.25,TRADE
VIC1,"2002/09/14 23:00",4908.92667,23.33,TRADE
VIC1,"2002/09/14 23:30",5289.425,28.48,TRADE
VIC1,"2002/09/15 00:00",5199.84833,24.37,TRADE
VIC1,"2002/09/15 00:30",5063.34167,22.05,TRADE
VIC1,"2002/09/15 01:00",4913.82333,18.31,TRADE
VIC1,"2002/09/15 01:30",5217.59833,18.56,TRADE
VIC1,"2002/09/15 02:00",5105.88833,15.99,TRADE
VIC1,"2002/09/15 02:30",4890.475,14.38,TRADE
VIC1,"2002/09/15 03:00",4694.285,13.97,TRADE
VIC1,"2002/09/15 03:30",4543.74333,12.41,TRADE
VIC1,"2002/09/15 04:00",4350.165,5.29,TRADE
VIC1,"2002/09/15 04:30",4266.56333,4.3,TRADE
VIC1,"2002/09/15 05:00",4178.67833,4.24,TRADE
VIC1,"2002/09/15 05:30",4139.10667,4.28,TRADE
VIC1,"2002/09/15 06:00",4125.94167,4.27,TRADE
VIC1,"2002/09/15 06:30",4161.86833,4.29,TRADE
VIC1,"2002/09/15 07:00",4166.78,4.27,TRADE
VIC1,"2002/09/15 07:30",4170.525,4.26,TRADE
VIC1,"2002/09/15 08:00",4276.23833,4.76,TRADE
VIC1,"2002/09/15 08:30",4388.76667,7.17,TRADE
VIC1,"2002/09/15 09:00",4520.94,10.54,TRADE
VIC1,"2002/09/15 09:30",4605.83833,11.04,TRADE
VIC1,"2002/09/15 10:00",4666.97667,12.72,TRADE
VIC1,"2002/09/15 10:30",4748.29667,14.94,TRADE
VIC1,"2002/09/15 11:00",4741.45667,16.42,TRADE
VIC1,"2002/09/15 11:30",4805.94667,17.29,TRADE
VIC1,"2002/09/15 12:00",4807.04,17.8,TRADE
VIC1,"2002/09/15 12:30",4825.49667,17.99,TRADE
VIC1,"2002/09/15 13:00",4839.93667,17.55,TRADE
VIC1,"2002/09/15 13:30",4792.61167,16.63,TRADE
VIC1,"2002/09/15 14:00",4769.35833,16.23,TRADE
VIC1,"2002/09/15 14:30",4748.53,15.51,TRADE
VIC1,"2002/09/15 15:00",4707.43333,14.55,TRADE
VIC1,"2002/09/15 15:30",4738.41667,14.83,TRADE
VIC1,"2002/09/15 16:00",4726.58,14.33,TRADE
VIC1,"2002/09/15 16:30",4746.46333,15.41,TRADE
VIC1,"2002/09/15 17:00",4792.12167,16.06,TRADE
VIC1,"2002/09/15 17:30",4888.97333,16.14,TRADE
VIC1,"2002/09/15 18:00",5044.59,22.91,TRADE
VIC1,"2002/09/15 18:30",5278.92833,34.17,TRADE
VIC1,"2002/09/15 19:00",5414.58,37.14,TRADE
VIC1,"2002/09/15 19:30",5374.41833,33.59,TRADE
VIC1,"2002/09/15 20:00",5283.75,25.68,TRADE
VIC1,"2002/09/15 20:30",5183.23833,24.7,TRADE
VIC1,"2002/09/15 21:00",5080.71167,21.75,TRADE
VIC1,"2002/09/15 21:30",4979.08833,18.79,TRADE
VIC1,"2002/09/15 22:00",4830.32833,16.4,TRADE
VIC1,"2002/09/15 22:30",4783.55,17.08,TRADE
VIC1,"2002/09/15 23:00",4770.79,17.05,TRADE
VIC1,"2002/09/15 23:30",5088.805,22.68,TRADE
VIC1,"2002/09/16 00:00",5051.27833,18.74,TRADE
VIC1,"2002/09/16 00:30",4910.445,17.2,TRADE
VIC1,"2002/09/16 01:00",4810.32,16.1,TRADE
VIC1,"2002/09/16 01:30",5185.95833,19.16,TRADE
VIC1,"2002/09/16 02:00",5023.08833,16,TRADE
VIC1,"2002/09/16 02:30",4856.09333,14.7,TRADE
VIC1,"2002/09/16 03:00",4649.70667,13.95,TRADE
VIC1,"2002/09/16 03:30",4475.32333,12.9,TRADE
VIC1,"2002/09/16 04:00",4399.98333,11.9,TRADE
VIC1,"2002/09/16 04:30",4307.52833,10.96,TRADE
VIC1,"2002/09/16 05:00",4302.23,11.38,TRADE
VIC1,"2002/09/16 05:30",4390.495,11.63,TRADE
VIC1,"2002/09/16 06:00",4481.49333,13.59,TRADE
VIC1,"2002/09/16 06:30",4824.48833,16.52,TRADE
VIC1,"2002/09/16 07:00",5218.115,25.62,TRADE
VIC1,"2002/09/16 07:30",5413.04167,21.84,TRADE
VIC1,"2002/09/16 08:00",5751.28333,33.21,TRADE
VIC1,"2002/09/16 08:30",5907.76,38.21,TRADE
VIC1,"2002/09/16 09:00",6013.58,43.08,TRADE
VIC1,"2002/09/16 09:30",6083.48167,42.88,TRADE
VIC1,"2002/09/16 10:00",6105.275,42.85,TRADE
VIC1,"2002/09/16 10:30",6120.59,42.91,TRADE
VIC1,"2002/09/16 11:00",6110.225,42.9,TRADE
VIC1,"2002/09/16 11:30",6128.57333,42.05,TRADE
VIC1,"2002/09/16 12:00",6142.22,41.06,TRADE
VIC1,"2002/09/16 12:30",6114.99333,43.22,TRADE
VIC1,"2002/09/16 13:00",6099.80833,43.34,TRADE
VIC1,"2002/09/16 13:30",6124.66333,35.25,TRADE
VIC1,"2002/09/16 14:00",6184.60667,38.08,TRADE
VIC1,"2002/09/16 14:30",6135.09833,27.86,TRADE
VIC1,"2002/09/16 15:00",6142.82833,39.24,TRADE
VIC1,"2002/09/16 15:30",6098.48833,36.29,TRADE
VIC1,"2002/09/16 16:00",6147.75,38.07,TRADE
VIC1,"2002/09/16 16:30",6235.11833,38.24,TRADE
VIC1,"2002/09/16 17:00",6327.47333,39.78,TRADE
VIC1,"2002/09/16 17:30",6357.66833,40.41,TRADE
VIC1,"2002/09/16 18:00",6448.56333,43.64,TRADE
VIC1,"2002/09/16 18:30",6469.69667,43.95,TRADE
VIC1,"2002/09/16 19:00",6455.83167,44.16,TRADE
VIC1,"2002/09/16 19:30",6301.57833,43.54,TRADE
VIC1,"2002/09/16 20:00",6152.53667,41.19,TRADE
VIC1,"2002/09/16 20:30",5989.17333,36.68,TRADE
VIC1,"2002/09/16 21:00",5856.08,35.25,TRADE
VIC1,"2002/09/16 21:30",5695.49167,34.17,TRADE
VIC1,"2002/09/16 22:00",5545.28,31.26,TRADE
VIC1,"2002/09/16 22:30",5364.53833,27.35,TRADE
VIC1,"2002/09/16 23:00",5253.83,18.33,TRADE
VIC1,"2002/09/16 23:30",5566.45667,26.37,TRADE
VIC1,"2002/09/17 00:00",5499.29667,40.03,TRADE
VIC1,"2002/09/17 00:30",5432.54167,34.27,TRADE
VIC1,"2002/09/17 01:00",5357.165,30.68,TRADE
VIC1,"2002/09/17 01:30",5699.28167,33.61,TRADE
VIC1,"2002/09/17 02:00",5550.95333,28.11,TRADE
VIC1,"2002/09/17 02:30",5338.02333,21.57,TRADE
VIC1,"2002/09/17 03:00",5118.59333,16.86,TRADE
VIC1,"2002/09/17 03:30",4937.765,15.62,TRADE
VIC1,"2002/09/17 04:00",4805.99167,14.7,TRADE
VIC1,"2002/09/17 04:30",4726.68167,13.7,TRADE
VIC1,"2002/09/17 05:00",4724.84,13.95,TRADE
VIC1,"2002/09/17 05:30",4784.22667,14.58,TRADE
VIC1,"2002/09/17 06:00",4977.62333,16.52,TRADE
VIC1,"2002/09/17 06:30",5340.91833,21.36,TRADE
VIC1,"2002/09/17 07:00",5696.01667,36.44,TRADE
VIC1,"2002/09/17 07:30",5831.33833,32.93,TRADE
VIC1,"2002/09/17 08:00",6114.31167,29.96,TRADE
VIC1,"2002/09/17 08:30",6205.26333,27.91,TRADE
VIC1,"2002/09/17 09:00",6177.18167,40.37,TRADE
VIC1,"2002/09/17 09:30",6185.20667,43.7,TRADE
VIC1,"2002/09/17 10:00",6124.47333,31.48,TRADE
VIC1,"2002/09/17 10:30",6079.97667,34.46,TRADE
VIC1,"2002/09/17 11:00",6070.09833,35.83,TRADE
VIC1,"2002/09/17 11:30",6098.22333,37.2,TRADE
VIC1,"2002/09/17 12:00",6115.245,36.52,TRADE
VIC1,"2002/09/17 12:30",6078.38333,36.35,TRADE
VIC1,"2002/09/17 13:00",6013.725,34.48,TRADE
VIC1,"2002/09/17 13:30",6091.43333,24.96,TRADE
VIC1,"2002/09/17 14:00",6096.09833,28.01,TRADE
VIC1,"2002/09/17 14:30",6058.01333,36.89,TRADE
VIC1,"2002/09/17 15:00",6020.15167,27.91,TRADE
VIC1,"2002/09/17 15:30",5965.18833,25.89,TRADE
VIC1,"2002/09/17 16:00",6016.91333,24.09,TRADE
VIC1,"2002/09/17 16:30",6085.11833,19.41,TRADE
VIC1,"2002/09/17 17:00",6167.42333,23.81,TRADE
VIC1,"2002/09/17 17:30",6247.26333,23.27,TRADE
VIC1,"2002/09/17 18:00",6412.2,24.73,TRADE
VIC1,"2002/09/17 18:30",6516.45,25.09,TRADE
VIC1,"2002/09/17 19:00",6520.85833,48.16,TRADE
VIC1,"2002/09/17 19:30",6386.34,64.82,TRADE
VIC1,"2002/09/17 20:00",6289.27167,45.41,TRADE
VIC1,"2002/09/17 20:30",6123.11667,42.66,TRADE
VIC1,"2002/09/17 21:00",5987.94333,35.78,TRADE
VIC1,"2002/09/17 21:30",5821.94,33.11,TRADE
VIC1,"2002/09/17 22:00",5656.935,26.02,TRADE
VIC1,"2002/09/17 22:30",5443.23833,34.4,TRADE
VIC1,"2002/09/17 23:00",5374.02833,29.49,TRADE
VIC1,"2002/09/17 23:30",5692.795,35.15,TRADE
VIC1,"2002/09/18 00:00",5570.49167,32.46,TRADE
VIC1,"2002/09/18 00:30",5425.2,25.95,TRADE
VIC1,"2002/09/18 01:00",5341.605,24.99,TRADE
VIC1,"2002/09/18 01:30",5685.47,30.02,TRADE
VIC1,"2002/09/18 02:00",5544.20667,23.38,TRADE
VIC1,"2002/09/18 02:30",5340.56167,19.37,TRADE
VIC1,"2002/09/18 03:00",5137.02333,16.69,TRADE
VIC1,"2002/09/18 03:30",4957.96667,15.16,TRADE
VIC1,"2002/09/18 04:00",4812.23333,14.24,TRADE
VIC1,"2002/09/18 04:30",4709.82333,13.32,TRADE
VIC1,"2002/09/18 05:00",4678.47667,13.01,TRADE
VIC1,"2002/09/18 05:30",4783.33833,13.74,TRADE
VIC1,"2002/09/18 06:00",4915.81833,15.07,TRADE
VIC1,"2002/09/18 06:30",5291.41333,21.59,TRADE
VIC1,"2002/09/18 07:00",5675.865,29.09,TRADE
VIC1,"2002/09/18 07:30",5851.835,27.01,TRADE
VIC1,"2002/09/18 08:00",6134.255,27.45,TRADE
VIC1,"2002/09/18 08:30",6276.12167,23.5,TRADE
VIC1,"2002/09/18 09:00",6301.05667,30.62,TRADE
VIC1,"2002/09/18 09:30",6276.52833,22.93,TRADE
VIC1,"2002/09/18 10:00",6302.06,20.21,TRADE
VIC1,"2002/09/18 10:30",6306.91333,19.79,TRADE
VIC1,"2002/09/18 11:00",6290.175,20.05,TRADE
VIC1,"2002/09/18 11:30",6278.80833,22.48,TRADE
VIC1,"2002/09/18 12:00",6282.84333,38.49,TRADE
VIC1,"2002/09/18 12:30",6202.415,40.49,TRADE
VIC1,"2002/09/18 13:00",6160.11833,38.05,TRADE
VIC1,"2002/09/18 13:30",6233.27,37.62,TRADE
VIC1,"2002/09/18 14:00",6143.31,37.41,TRADE
VIC1,"2002/09/18 14:30",6116.97167,37.19,TRADE
VIC1,"2002/09/18 15:00",6076.64167,36.14,TRADE
VIC1,"2002/09/18 15:30",6031.70333,35.06,TRADE
VIC1,"2002/09/18 16:00",6052.59167,35.72,TRADE
VIC1,"2002/09/18 16:30",6098.68667,36.68,TRADE
VIC1,"2002/09/18 17:00",6235.06,37.59,TRADE
VIC1,"2002/09/18 17:30",6336.23167,38.88,TRADE
VIC1,"2002/09/18 18:00",6399.49,43.79,TRADE
VIC1,"2002/09/18 18:30",6422.635,28.16,TRADE
VIC1,"2002/09/18 19:00",6518.44833,71.6,TRADE
VIC1,"2002/09/18 19:30",6392.8,45.08,TRADE
VIC1,"2002/09/18 20:00",6325.435,44.04,TRADE
VIC1,"2002/09/18 20:30",6180.19,30.94,TRADE
VIC1,"2002/09/18 21:00",6088.695,37.54,TRADE
VIC1,"2002/09/18 21:30",5905.01,36.84,TRADE
VIC1,"2002/09/18 22:00",5756.30167,32.14,TRADE
VIC1,"2002/09/18 22:30",5563.99833,33.79,TRADE
VIC1,"2002/09/18 23:00",5394.25167,24.1,TRADE
VIC1,"2002/09/18 23:30",5696.77167,43.23,TRADE
VIC1,"2002/09/19 00:00",5591.845,43.4,TRADE
VIC1,"2002/09/19 00:30",5503.085,42.98,TRADE
VIC1,"2002/09/19 01:00",5370.11333,39.23,TRADE
VIC1,"2002/09/19 01:30",5755.86167,52.49,TRADE
VIC1,"2002/09/19 02:00",5618.31,40.07,TRADE
VIC1,"2002/09/19 02:30",5430.88167,33.14,TRADE
VIC1,"2002/09/19 03:00",5220.53333,23.39,TRADE
VIC1,"2002/09/19 03:30",5017.00333,18.52,TRADE
VIC1,"2002/09/19 04:00",4830.56167,15.56,TRADE
VIC1,"2002/09/19 04:30",4748.06167,15.17,TRADE
VIC1,"2002/09/19 05:00",4776.79833,14.7,TRADE
VIC1,"2002/09/19 05:30",4833.19667,16.72,TRADE
VIC1,"2002/09/19 06:00",5030.41167,24.62,TRADE
VIC1,"2002/09/19 06:30",5379.585,29.14,TRADE
VIC1,"2002/09/19 07:00",5712.02667,48.34,TRADE
VIC1,"2002/09/19 07:30",5892.155,38.5,TRADE
VIC1,"2002/09/19 08:00",6179.365,44.23,TRADE
VIC1,"2002/09/19 08:30",6320.76333,46.31,TRADE
VIC1,"2002/09/19 09:00",6330.76833,42.77,TRADE
VIC1,"2002/09/19 09:30",6340.23,46.39,TRADE
VIC1,"2002/09/19 10:00",6311.985,41.98,TRADE
VIC1,"2002/09/19 10:30",6274.21333,39.53,TRADE
VIC1,"2002/09/19 11:00",6257.86333,40.34,TRADE
VIC1,"2002/09/19 11:30",6259.69333,39.39,TRADE
VIC1,"2002/09/19 12:00",6230.28,39.53,TRADE
VIC1,"2002/09/19 12:30",6160.85,38.34,TRADE
VIC1,"2002/09/19 13:00",6111.88667,38.08,TRADE
VIC1,"2002/09/19 13:30",6196.48333,39.44,TRADE
VIC1,"2002/09/19 14:00",6208.22333,38.97,TRADE
VIC1,"2002/09/19 14:30",6170.72,38.32,TRADE
VIC1,"2002/09/19 15:00",6137.44167,38.23,TRADE
VIC1,"2002/09/19 15:30",6082.93833,38.01,TRADE
VIC1,"2002/09/19 16:00",6063.81667,37.84,TRADE
VIC1,"2002/09/19 16:30",6087.35833,37.94,TRADE
VIC1,"2002/09/19 17:00",6098.055,38.04,TRADE
VIC1,"2002/09/19 17:30",6178.32333,38.33,TRADE
VIC1,"2002/09/19 18:00",6338.23167,40.51,TRADE
VIC1,"2002/09/19 18:30",6455.06,45.52,TRADE
VIC1,"2002/09/19 19:00",6601.92,46.42,TRADE
VIC1,"2002/09/19 19:30",6471.33667,44.06,TRADE
VIC1,"2002/09/19 20:00",6387.9,41.51,TRADE
VIC1,"2002/09/19 20:30",6228.435,43.63,TRADE
VIC1,"2002/09/19 21:00",6139.17833,42.19,TRADE
VIC1,"2002/09/19 21:30",5973.75167,37.64,TRADE
VIC1,"2002/09/19 22:00",5801.64667,31.92,TRADE
VIC1,"2002/09/19 22:30",5643.55833,41.75,TRADE
VIC1,"2002/09/19 23:00",5509.68667,38.19,TRADE
VIC1,"2002/09/19 23:30",5856.08167,46.57,TRADE
VIC1,"2002/09/20 00:00",5735.09833,43.03,TRADE
VIC1,"2002/09/20 00:30",5605.79,38.47,TRADE
VIC1,"2002/09/20 01:00",5461.82833,38.1,TRADE
VIC1,"2002/09/20 01:30",5818.74,43.97,TRADE
VIC1,"2002/09/20 02:00",5685.76667,42.87,TRADE
VIC1,"2002/09/20 02:30",5478.39833,36.58,TRADE
VIC1,"2002/09/20 03:00",5296.98667,30.63,TRADE
VIC1,"2002/09/20 03:30",5107.405,25.26,TRADE
VIC1,"2002/09/20 04:00",4971.28833,21.78,TRADE
VIC1,"2002/09/20 04:30",4906.42,19.55,TRADE
VIC1,"2002/09/20 05:00",4875.665,20.49,TRADE
VIC1,"2002/09/20 05:30",4946.54,25,TRADE
VIC1,"2002/09/20 06:00",5079.47667,29.94,TRADE
VIC1,"2002/09/20 06:30",5407.265,30.59,TRADE
VIC1,"2002/09/20 07:00",5757.33333,52.86,TRADE
VIC1,"2002/09/20 07:30",5907.70333,39.68,TRADE
VIC1,"2002/09/20 08:00",6160.10333,42.85,TRADE
VIC1,"2002/09/20 08:30",6349.855,47.18,TRADE
VIC1,"2002/09/20 09:00",6366.54667,40.95,TRADE
VIC1,"2002/09/20 09:30",6387.78167,42.84,TRADE
VIC1,"2002/09/20 10:00",6338.45,46.44,TRADE
VIC1,"2002/09/20 10:30",6269.715,30.71,TRADE
VIC1,"2002/09/20 11:00",6272.31833,39.39,TRADE
VIC1,"2002/09/20 11:30",6250.56,33.58,TRADE
VIC1,"2002/09/20 12:00",6229.02333,33.48,TRADE
VIC1,"2002/09/20 12:30",6111.545,30.89,TRADE
VIC1,"2002/09/20 13:00",6088.09333,36.72,TRADE
VIC1,"2002/09/20 13:30",6096.76,38.46,TRADE
VIC1,"2002/09/20 14:00",5992.265,37.51,TRADE
VIC1,"2002/09/20 14:30",5941.13833,35.11,TRADE
VIC1,"2002/09/20 15:00",5776.56833,30.01,TRADE
VIC1,"2002/09/20 15:30",5770.75833,27.73,TRADE
VIC1,"2002/09/20 16:00",5738.67833,29.8,TRADE
VIC1,"2002/09/20 16:30",5736.44833,27.08,TRADE
VIC1,"2002/09/20 17:00",5699.615,26.48,TRADE
VIC1,"2002/09/20 17:30",5742.99833,26.55,TRADE
VIC1,"2002/09/20 18:00",5830.59667,29.19,TRADE
VIC1,"2002/09/20 18:30",5970.38667,37.53,TRADE
VIC1,"2002/09/20 19:00",6108.15833,40.98,TRADE
VIC1,"2002/09/20 19:30",6122.63667,38.68,TRADE
VIC1,"2002/09/20 20:00",6032.775,33.06,TRADE
VIC1,"2002/09/20 20:30",5902.86167,30.75,TRADE
VIC1,"2002/09/20 21:00",5824.21,27.89,TRADE
VIC1,"2002/09/20 21:30",5672.075,27.07,TRADE
VIC1,"2002/09/20 22:00",5518.46833,25.11,TRADE
VIC1,"2002/09/20 22:30",5388.62833,35.53,TRADE
VIC1,"2002/09/20 23:00",5321.13333,30.19,TRADE
VIC1,"2002/09/20 23:30",5688.72667,39.33,TRADE
VIC1,"2002/09/21 00:00",5587.95833,37.6,TRADE
VIC1,"2002/09/21 00:30",5422.93833,37.52,TRADE
VIC1,"2002/09/21 01:00",5282.18,35.51,TRADE
VIC1,"2002/09/21 01:30",5609.93333,40.19,TRADE
VIC1,"2002/09/21 02:00",5460.7,32.68,TRADE
VIC1,"2002/09/21 02:30",5258.85833,26.21,TRADE
VIC1,"2002/09/21 03:00",5059.09333,21.7,TRADE
VIC1,"2002/09/21 03:30",4879.84,19.58,TRADE
VIC1,"2002/09/21 04:00",4713.35833,16.76,TRADE
VIC1,"2002/09/21 04:30",4634.00333,14.93,TRADE
VIC1,"2002/09/21 05:00",4581.12667,14.99,TRADE
VIC1,"2002/09/21 05:30",4579.86167,15.09,TRADE
VIC1,"2002/09/21 06:00",4631.21333,15.58,TRADE
VIC1,"2002/09/21 06:30",4701.56167,16.38,TRADE
VIC1,"2002/09/21 07:00",4791.09,16.99,TRADE
VIC1,"2002/09/21 07:30",4756.77333,18.1,TRADE
VIC1,"2002/09/21 08:00",4919.705,23.79,TRADE
VIC1,"2002/09/21 08:30",5087.33333,26.75,TRADE
VIC1,"2002/09/21 09:00",5168.52833,30.46,TRADE
VIC1,"2002/09/21 09:30",5205.71,35.92,TRADE
VIC1,"2002/09/21 10:00",5180.09,33.99,TRADE
VIC1,"2002/09/21 10:30",5152.12667,29.79,TRADE
VIC1,"2002/09/21 11:00",5120.825,28.02,TRADE
VIC1,"2002/09/21 11:30",5080.79833,26.97,TRADE
VIC1,"2002/09/21 12:00",5088.55333,26.17,TRADE
VIC1,"2002/09/21 12:30",5011.44833,25.5,TRADE
VIC1,"2002/09/21 13:00",5015.29,24.91,TRADE
VIC1,"2002/09/21 13:30",4971.42,23.68,TRADE
VIC1,"2002/09/21 14:00",4959.84333,23.67,TRADE
VIC1,"2002/09/21 14:30",4894.96,22.43,TRADE
VIC1,"2002/09/21 15:00",4824.46333,20.74,TRADE
VIC1,"2002/09/21 15:30",4802.87333,21.37,TRADE
VIC1,"2002/09/21 16:00",4815.26667,21.61,TRADE
VIC1,"2002/09/21 16:30",4830.06167,20.73,TRADE
VIC1,"2002/09/21 17:00",4856.34,21.27,TRADE
VIC1,"2002/09/21 17:30",4896.51667,18.36,TRADE
VIC1,"2002/09/21 18:00",5041.17333,23.84,TRADE
VIC1,"2002/09/21 18:30",5243.71667,29.49,TRADE
VIC1,"2002/09/21 19:00",5465.98667,35.75,TRADE
VIC1,"2002/09/21 19:30",5481.44333,30.3,TRADE
VIC1,"2002/09/21 20:00",5358.76333,27.73,TRADE
VIC1,"2002/09/21 20:30",5216.67333,25.75,TRADE
VIC1,"2002/09/21 21:00",5119.88833,24.03,TRADE
VIC1,"2002/09/21 21:30",5022.29833,22.2,TRADE
VIC1,"2002/09/21 22:00",5027.03333,19.87,TRADE
VIC1,"2002/09/21 22:30",4959.52,23.05,TRADE
VIC1,"2002/09/21 23:00",4898.89,23.47,TRADE
VIC1,"2002/09/21 23:30",5199.02167,29.12,TRADE
VIC1,"2002/09/22 00:00",5112.23167,27.93,TRADE
VIC1,"2002/09/22 00:30",4959.91667,26.01,TRADE
VIC1,"2002/09/22 01:00",4845.515,22.98,TRADE
VIC1,"2002/09/22 01:30",5170.45333,26.49,TRADE
VIC1,"2002/09/22 02:00",5054.99,21.9,TRADE
VIC1,"2002/09/22 02:30",4869.51167,17.94,TRADE
VIC1,"2002/09/22 03:00",4676.03667,16.57,TRADE
VIC1,"2002/09/22 03:30",4520.07333,15,TRADE
VIC1,"2002/09/22 04:00",4354.57333,13.81,TRADE
VIC1,"2002/09/22 04:30",4234.14,12.06,TRADE
VIC1,"2002/09/22 05:00",4171.255,11.48,TRADE
VIC1,"2002/09/22 05:30",4126.19167,12.21,TRADE
VIC1,"2002/09/22 06:00",4139.83333,12.98,TRADE
VIC1,"2002/09/22 06:30",4146.13833,12.64,TRADE
VIC1,"2002/09/22 07:00",4210.87667,13.87,TRADE
VIC1,"2002/09/22 07:30",4206.22667,14.08,TRADE
VIC1,"2002/09/22 08:00",4304.655,14.93,TRADE
VIC1,"2002/09/22 08:30",4456.825,18.16,TRADE
VIC1,"2002/09/22 09:00",4582.79,20.87,TRADE
VIC1,"2002/09/22 09:30",4664.67333,22.94,TRADE
VIC1,"2002/09/22 10:00",4719.44,25.81,TRADE
VIC1,"2002/09/22 10:30",4747.49333,25.64,TRADE
VIC1,"2002/09/22 11:00",4739.67667,23.96,TRADE
VIC1,"2002/09/22 11:30",4754.88167,22.93,TRADE
VIC1,"2002/09/22 12:00",4757.46833,22.46,TRADE
VIC1,"2002/09/22 12:30",4723.985,22.77,TRADE
VIC1,"2002/09/22 13:00",4683.76167,22.89,TRADE
VIC1,"2002/09/22 13:30",4678.385,22.08,TRADE
VIC1,"2002/09/22 14:00",4624.09833,19.25,TRADE
VIC1,"2002/09/22 14:30",4614.90333,17.89,TRADE
VIC1,"2002/09/22 15:00",4576.84167,16.96,TRADE
VIC1,"2002/09/22 15:30",4553.78,16.9,TRADE
VIC1,"2002/09/22 16:00",4539.75667,16.87,TRADE
VIC1,"2002/09/22 16:30",4550.345,16.73,TRADE
VIC1,"2002/09/22 17:00",4642.84167,17.17,TRADE
VIC1,"2002/09/22 17:30",4711.44833,17.32,TRADE
VIC1,"2002/09/22 18:00",4883.92167,21.64,TRADE
VIC1,"2002/09/22 18:30",5111.11667,36.76,TRADE
VIC1,"2002/09/22 19:00",5375.69667,42.48,TRADE
VIC1,"2002/09/22 19:30",5420.54167,45.7,TRADE
VIC1,"2002/09/22 20:00",5372.62333,43.2,TRADE
VIC1,"2002/09/22 20:30",5295.87667,37.45,TRADE
VIC1,"2002/09/22 21:00",5210.58333,33.19,TRADE
VIC1,"2002/09/22 21:30",5122.48167,26.46,TRADE
VIC1,"2002/09/22 22:00",4996.58167,23.7,TRADE
VIC1,"2002/09/22 22:30",4892.46833,24.56,TRADE
VIC1,"2002/09/22 23:00",4822.25667,24.02,TRADE
VIC1,"2002/09/22 23:30",5144.69,29,TRADE
VIC1,"2002/09/23 00:00",5062.23667,23.77,TRADE
VIC1,"2002/09/23 00:30",4932.085,23.01,TRADE
VIC1,"2002/09/23 01:00",4846.995,22.07,TRADE
VIC1,"2002/09/23 01:30",5175.15,25.52,TRADE
VIC1,"2002/09/23 02:00",5078.46333,22.1,TRADE
VIC1,"2002/09/23 02:30",4927.965,18.34,TRADE
VIC1,"2002/09/23 03:00",4743.975,16,TRADE
VIC1,"2002/09/23 03:30",4614.715,15.15,TRADE
VIC1,"2002/09/23 04:00",4515.14,14.21,TRADE
VIC1,"2002/09/23 04:30",4441.46833,14.79,TRADE
VIC1,"2002/09/23 05:00",4433.33667,14.91,TRADE
VIC1,"2002/09/23 05:30",4515.355,16.12,TRADE
VIC1,"2002/09/23 06:00",4653.21,17.55,TRADE
VIC1,"2002/09/23 06:30",5013.48,22.89,TRADE
VIC1,"2002/09/23 07:00",5336.43833,35.58,TRADE
VIC1,"2002/09/23 07:30",5481.24833,30.21,TRADE
VIC1,"2002/09/23 08:00",5517.62833,29.41,TRADE
VIC1,"2002/09/23 08:30",5626.56,32.32,TRADE
VIC1,"2002/09/23 09:00",5904.36,37.74,TRADE
VIC1,"2002/09/23 09:30",5964.56333,43.46,TRADE
VIC1,"2002/09/23 10:00",5942.825,42.73,TRADE
VIC1,"2002/09/23 10:30",5912.155,39.97,TRADE
VIC1,"2002/09/23 11:00",5899.25667,45.08,TRADE
VIC1,"2002/09/23 11:30",5851.54,44.74,TRADE
VIC1,"2002/09/23 12:00",5851.985,40.4,TRADE
VIC1,"2002/09/23 12:30",5783.56,36.69,TRADE
VIC1,"2002/09/23 13:00",5806.49,36.49,TRADE
VIC1,"2002/09/23 13:30",5827.51,36.34,TRADE
VIC1,"2002/09/23 14:00",5869.40667,34.7,TRADE
VIC1,"2002/09/23 14:30",5838.48333,34.48,TRADE
VIC1,"2002/09/23 15:00",5796.62667,33.31,TRADE
VIC1,"2002/09/23 15:30",5773.195,30.29,TRADE
VIC1,"2002/09/23 16:00",5800.795,30.65,TRADE
VIC1,"2002/09/23 16:30",5787.07833,27.5,TRADE
VIC1,"2002/09/23 17:00",5809.035,27.7,TRADE
VIC1,"2002/09/23 17:30",5817.64333,27.73,TRADE
VIC1,"2002/09/23 18:00",5866.135,35.1,TRADE
VIC1,"2002/09/23 18:30",5971.41833,38.36,TRADE
VIC1,"2002/09/23 19:00",6137.92333,42.22,TRADE
VIC1,"2002/09/23 19:30",6045.43333,35,TRADE
VIC1,"2002/09/23 20:00",5936.33833,29.98,TRADE
VIC1,"2002/09/23 20:30",5769.66,27.91,TRADE
VIC1,"2002/09/23 21:00",5617.07167,26.71,TRADE
VIC1,"2002/09/23 21:30",5525.27333,26.32,TRADE
VIC1,"2002/09/23 22:00",5409.34,25.44,TRADE
VIC1,"2002/09/23 22:30",5276.95833,32.99,TRADE
VIC1,"2002/09/23 23:00",5179.79167,30.57,TRADE
VIC1,"2002/09/23 23:30",5566.715,40.26,TRADE
VIC1,"2002/09/24 00:00",5443.48333,37.43,TRADE
VIC1,"2002/09/24 00:30",5263.68333,35.12,TRADE
VIC1,"2002/09/24 01:00",5098.45833,30.39,TRADE
VIC1,"2002/09/24 01:30",5461.40167,38.55,TRADE
VIC1,"2002/09/24 02:00",5304.455,30.9,TRADE
VIC1,"2002/09/24 02:30",5111.33333,23.95,TRADE
VIC1,"2002/09/24 03:00",4902.96667,17.14,TRADE
VIC1,"2002/09/24 03:30",4738.085,15.52,TRADE
VIC1,"2002/09/24 04:00",4573.47667,14.44,TRADE
VIC1,"2002/09/24 04:30",4491.55333,13.95,TRADE
VIC1,"2002/09/24 05:00",4497.58667,13.98,TRADE
VIC1,"2002/09/24 05:30",4575.45167,15.23,TRADE
VIC1,"2002/09/24 06:00",4744.15,16.97,TRADE
VIC1,"2002/09/24 06:30",5046.21333,26.39,TRADE
VIC1,"2002/09/24 07:00",5311.585,29.97,TRADE
VIC1,"2002/09/24 07:30",5454.8,23.9,TRADE
VIC1,"2002/09/24 08:00",5698.71167,26.98,TRADE
VIC1,"2002/09/24 08:30",5851.57167,30.54,TRADE
VIC1,"2002/09/24 09:00",5911.78,35.26,TRADE
VIC1,"2002/09/24 09:30",5989.07,35.6,TRADE
VIC1,"2002/09/24 10:00",5951.47167,33.95,TRADE
VIC1,"2002/09/24 10:30",5957.95,35.88,TRADE
VIC1,"2002/09/24 11:00",5983.26167,36.1,TRADE
VIC1,"2002/09/24 11:30",6060.87333,36.93,TRADE
VIC1,"2002/09/24 12:00",6081.40167,40.76,TRADE
VIC1,"2002/09/24 12:30",5990.38167,42.36,TRADE
VIC1,"2002/09/24 13:00",5976.01333,38.94,TRADE
VIC1,"2002/09/24 13:30",5983.87167,40.72,TRADE
VIC1,"2002/09/24 14:00",5977.36167,42.5,TRADE
VIC1,"2002/09/24 14:30",5901.19667,42.73,TRADE
VIC1,"2002/09/24 15:00",5875.30667,36.76,TRADE
VIC1,"2002/09/24 15:30",5836.62833,35.69,TRADE
VIC1,"2002/09/24 16:00",5818.98667,35.6,TRADE
VIC1,"2002/09/24 16:30",5790.96833,35.43,TRADE
VIC1,"2002/09/24 17:00",5827,35.47,TRADE
VIC1,"2002/09/24 17:30",5851.22167,35.46,TRADE
VIC1,"2002/09/24 18:00",5878.22667,36.23,TRADE
VIC1,"2002/09/24 18:30",5909.95167,42.15,TRADE
VIC1,"2002/09/24 19:00",6060.7,42.65,TRADE
VIC1,"2002/09/24 19:30",5983.44667,37.18,TRADE
VIC1,"2002/09/24 20:00",5893.49167,30.29,TRADE
VIC1,"2002/09/24 20:30",5771.23667,28.38,TRADE
VIC1,"2002/09/24 21:00",5656.58167,26.4,TRADE
VIC1,"2002/09/24 21:30",5540.62833,25.21,TRADE
VIC1,"2002/09/24 22:00",5443.15833,23.68,TRADE
VIC1,"2002/09/24 22:30",5295.59333,30.92,TRADE
VIC1,"2002/09/24 23:00",5188.965,25.46,TRADE
VIC1,"2002/09/24 23:30",5586.11833,36.53,TRADE
VIC1,"2002/09/25 00:00",5477.28333,29.85,TRADE
VIC1,"2002/09/25 00:30",5298.745,25.43,TRADE
VIC1,"2002/09/25 01:00",5156.36667,24.64,TRADE
VIC1,"2002/09/25 01:30",5502.495,31.27,TRADE
VIC1,"2002/09/25 02:00",5322.57333,24.05,TRADE
VIC1,"2002/09/25 02:30",5093.06,16.88,TRADE
VIC1,"2002/09/25 03:00",4905.99167,15.46,TRADE
VIC1,"2002/09/25 03:30",4740.71667,14.05,TRADE
VIC1,"2002/09/25 04:00",4626.00333,13.66,TRADE
VIC1,"2002/09/25 04:30",4566.97833,13.66,TRADE
VIC1,"2002/09/25 05:00",4525.505,13.71,TRADE
VIC1,"2002/09/25 05:30",4630.24333,14.46,TRADE
VIC1,"2002/09/25 06:00",4782.10833,14.82,TRADE
VIC1,"2002/09/25 06:30",5122.33833,20.88,TRADE
VIC1,"2002/09/25 07:00",5415.47667,24.26,TRADE
VIC1,"2002/09/25 07:30",5531.385,22.91,TRADE
VIC1,"2002/09/25 08:00",5744.295,30.11,TRADE
VIC1,"2002/09/25 08:30",5884.66167,37.52,TRADE
VIC1,"2002/09/25 09:00",5926.975,37.71,TRADE
VIC1,"2002/09/25 09:30",5945.11333,38.33,TRADE
VIC1,"2002/09/25 10:00",5904.08667,37.94,TRADE
VIC1,"2002/09/25 10:30",5851.05167,36.44,TRADE
VIC1,"2002/09/25 11:00",5879.09667,35.58,TRADE
VIC1,"2002/09/25 11:30",5904.21833,35.43,TRADE
VIC1,"2002/09/25 12:00",5917.825,35.54,TRADE
VIC1,"2002/09/25 12:30",5889.96333,35.41,TRADE
VIC1,"2002/09/25 13:00",5847.11,35.32,TRADE
VIC1,"2002/09/25 13:30",5889.465,32.45,TRADE
VIC1,"2002/09/25 14:00",5866.06167,34.98,TRADE
VIC1,"2002/09/25 14:30",5848.71,35.52,TRADE
VIC1,"2002/09/25 15:00",5820.76667,35.46,TRADE
VIC1,"2002/09/25 15:30",5811.52667,35.05,TRADE
VIC1,"2002/09/25 16:00",5865.43833,35.24,TRADE
VIC1,"2002/09/25 16:30",5911.74167,35.73,TRADE
VIC1,"2002/09/25 17:00",5936.24667,33.86,TRADE
VIC1,"2002/09/25 17:30",5955.33333,34.73,TRADE
VIC1,"2002/09/25 18:00",5979.08833,30.13,TRADE
VIC1,"2002/09/25 18:30",6056.81667,39.55,TRADE
VIC1,"2002/09/25 19:00",6191.64333,42.53,TRADE
VIC1,"2002/09/25 19:30",6099.08167,36.6,TRADE
VIC1,"2002/09/25 20:00",5993.86,30.91,TRADE
VIC1,"2002/09/25 20:30",5850.20667,27.64,TRADE
VIC1,"2002/09/25 21:00",5751.87167,26.66,TRADE
VIC1,"2002/09/25 21:30",5630.905,26.43,TRADE
VIC1,"2002/09/25 22:00",5470.72333,23.38,TRADE
VIC1,"2002/09/25 22:30",5314.68833,31.71,TRADE
VIC1,"2002/09/25 23:00",5210.75333,25.51,TRADE
VIC1,"2002/09/25 23:30",5562.60833,31.19,TRADE
VIC1,"2002/09/26 00:00",5532.24,28.36,TRADE
VIC1,"2002/09/26 00:30",5369.21667,25.88,TRADE
VIC1,"2002/09/26 01:00",5229.99833,25.05,TRADE
VIC1,"2002/09/26 01:30",5565.54167,27.85,TRADE
VIC1,"2002/09/26 02:00",5443.22,24.62,TRADE
VIC1,"2002/09/26 02:30",5227.29,18.98,TRADE
VIC1,"2002/09/26 03:00",5031.96167,16.65,TRADE
VIC1,"2002/09/26 03:30",4838.78167,15.07,TRADE
VIC1,"2002/09/26 04:00",4731.25,14.12,TRADE
VIC1,"2002/09/26 04:30",4651.095,13.84,TRADE
VIC1,"2002/09/26 05:00",4632.945,14.16,TRADE
VIC1,"2002/09/26 05:30",4736.01833,15.11,TRADE
VIC1,"2002/09/26 06:00",4894.12667,16.85,TRADE
VIC1,"2002/09/26 06:30",5201.325,22.57,TRADE
VIC1,"2002/09/26 07:00",5475,31.1,TRADE
VIC1,"2002/09/26 07:30",5565.01333,24.51,TRADE
VIC1,"2002/09/26 08:00",5800.225,32.05,TRADE
VIC1,"2002/09/26 08:30",5990.34,37.67,TRADE
VIC1,"2002/09/26 09:00",6027.855,37.59,TRADE
VIC1,"2002/09/26 09:30",6108.785,44.29,TRADE
VIC1,"2002/09/26 10:00",6007.35667,44.01,TRADE
VIC1,"2002/09/26 10:30",5966.68833,44.07,TRADE
VIC1,"2002/09/26 11:00",5970.74,43.75,TRADE
VIC1,"2002/09/26 11:30",5970.795,43.71,TRADE
VIC1,"2002/09/26 12:00",5939.475,39.96,TRADE
VIC1,"2002/09/26 12:30",5914.61167,43.14,TRADE
VIC1,"2002/09/26 13:00",5898.015,43.04,TRADE
VIC1,"2002/09/26 13:30",5936.36833,43.16,TRADE
VIC1,"2002/09/26 14:00",5897.62,43.88,TRADE
VIC1,"2002/09/26 14:30",5839.22833,43.15,TRADE
VIC1,"2002/09/26 15:00",5835.26167,40.23,TRADE
VIC1,"2002/09/26 15:30",5829.43667,35.47,TRADE
VIC1,"2002/09/26 16:00",5792.63,35.37,TRADE
VIC1,"2002/09/26 16:30",5781.305,35.38,TRADE
VIC1,"2002/09/26 17:00",5784.82333,29.97,TRADE
VIC1,"2002/09/26 17:30",5837.79,32.51,TRADE
VIC1,"2002/09/26 18:00",5926.815,36.7,TRADE
VIC1,"2002/09/26 18:30",6014.05167,41.01,TRADE
VIC1,"2002/09/26 19:00",6133.23,42.62,TRADE
VIC1,"2002/09/26 19:30",6094.55167,40.59,TRADE
VIC1,"2002/09/26 20:00",6004.11333,36.56,TRADE
VIC1,"2002/09/26 20:30",5895.31167,39.19,TRADE
VIC1,"2002/09/26 21:00",5841.12833,34.52,TRADE
VIC1,"2002/09/26 21:30",5694.76667,27.02,TRADE
VIC1,"2002/09/26 22:00",5553.64833,26.16,TRADE
VIC1,"2002/09/26 22:30",5399.89667,39.24,TRADE
VIC1,"2002/09/26 23:00",5357.51833,29.87,TRADE
VIC1,"2002/09/26 23:30",5727.97167,38.69,TRADE
VIC1,"2002/09/27 00:00",5628.83667,31.68,TRADE
VIC1,"2002/09/27 00:30",5416.435,26.74,TRADE
VIC1,"2002/09/27 01:00",5247.28667,25.69,TRADE
VIC1,"2002/09/27 01:30",5561.93,30.1,TRADE
VIC1,"2002/09/27 02:00",5428.79,25.73,TRADE
VIC1,"2002/09/27 02:30",5205.175,21.2,TRADE
VIC1,"2002/09/27 03:00",5060.65667,16.85,TRADE
VIC1,"2002/09/27 03:30",4870.46667,15.22,TRADE
VIC1,"2002/09/27 04:00",4719.29667,13.59,TRADE
VIC1,"2002/09/27 04:30",4622.985,12.97,TRADE
VIC1,"2002/09/27 05:00",4608.62833,12.93,TRADE
VIC1,"2002/09/27 05:30",4674.47167,13.82,TRADE
VIC1,"2002/09/27 06:00",4827.47667,14.38,TRADE
VIC1,"2002/09/27 06:30",5118.33667,19.42,TRADE
VIC1,"2002/09/27 07:00",5427.80833,27.88,TRADE
VIC1,"2002/09/27 07:30",5502.18167,22.45,TRADE
VIC1,"2002/09/27 08:00",5738.24667,32.09,TRADE
VIC1,"2002/09/27 08:30",5936.64167,35.1,TRADE
VIC1,"2002/09/27 09:00",5999.97167,35.74,TRADE
VIC1,"2002/09/27 09:30",6080.55333,38.31,TRADE
VIC1,"2002/09/27 10:00",6033.46833,37.64,TRADE
VIC1,"2002/09/27 10:30",5960.32333,36.57,TRADE
VIC1,"2002/09/27 11:00",5905.11833,36.39,TRADE
VIC1,"2002/09/27 11:30",5868.21,36.28,TRADE
VIC1,"2002/09/27 12:00",5899.7,36.4,TRADE
VIC1,"2002/09/27 12:30",5901.27,36.44,TRADE
VIC1,"2002/09/27 13:00",5840.185,35.29,TRADE
VIC1,"2002/09/27 13:30",5881.69833,36.04,TRADE
VIC1,"2002/09/27 14:00",5856.54167,34.34,TRADE
VIC1,"2002/09/27 14:30",5819.89,35.63,TRADE
VIC1,"2002/09/27 15:00",5763.06167,33.25,TRADE
VIC1,"2002/09/27 15:30",5687.02333,31.98,TRADE
VIC1,"2002/09/27 16:00",5699.23167,30.69,TRADE
VIC1,"2002/09/27 16:30",5706.42833,31.72,TRADE
VIC1,"2002/09/27 17:00",5775.35,35.77,TRADE
VIC1,"2002/09/27 17:30",5869.685,36.18,TRADE
VIC1,"2002/09/27 18:00",5947.135,37.92,TRADE
VIC1,"2002/09/27 18:30",6060.86833,42.57,TRADE
VIC1,"2002/09/27 19:00",6082.84833,43.69,TRADE
VIC1,"2002/09/27 19:30",6028.71333,40.22,TRADE
VIC1,"2002/09/27 20:00",5918.53667,33.39,TRADE
VIC1,"2002/09/27 20:30",5821.33833,31.16,TRADE
VIC1,"2002/09/27 21:00",5685.00333,25.87,TRADE
VIC1,"2002/09/27 21:30",5545.76667,24.02,TRADE
VIC1,"2002/09/27 22:00",5371.765,18.9,TRADE
VIC1,"2002/09/27 22:30",5299.38,30.54,TRADE
VIC1,"2002/09/27 23:00",5216.21833,26.56,TRADE
VIC1,"2002/09/27 23:30",5583.34667,34.45,TRADE
VIC1,"2002/09/28 00:00",5501.405,28.04,TRADE
VIC1,"2002/09/28 00:30",5360.10333,29.25,TRADE
VIC1,"2002/09/28 01:00",5187.195,25.08,TRADE
VIC1,"2002/09/28 01:30",5504.90333,27.49,TRADE
VIC1,"2002/09/28 02:00",5318.845,22.12,TRADE
VIC1,"2002/09/28 02:30",5169.16667,18.38,TRADE
VIC1,"2002/09/28 03:00",4955.92,16.88,TRADE
VIC1,"2002/09/28 03:30",4808.49167,17.28,TRADE
VIC1,"2002/09/28 04:00",4654.90167,14.42,TRADE
VIC1,"2002/09/28 04:30",4582.22,13.26,TRADE
VIC1,"2002/09/28 05:00",4494.29,12.87,TRADE
VIC1,"2002/09/28 05:30",4500.385,12.89,TRADE
VIC1,"2002/09/28 06:00",4557.815,12.97,TRADE
VIC1,"2002/09/28 06:30",4623.24333,13.62,TRADE
VIC1,"2002/09/28 07:00",4719.00167,14.04,TRADE
VIC1,"2002/09/28 07:30",4735.01833,15.28,TRADE
VIC1,"2002/09/28 08:00",4904.69833,17.27,TRADE
VIC1,"2002/09/28 08:30",5176.01,24.45,TRADE
VIC1,"2002/09/28 09:00",5316.08667,31.18,TRADE
VIC1,"2002/09/28 09:30",5450.85333,38.01,TRADE
VIC1,"2002/09/28 10:00",5490.735,36.51,TRADE
VIC1,"2002/09/28 10:30",5495.28667,38.64,TRADE
VIC1,"2002/09/28 11:00",5565.17,36.45,TRADE
VIC1,"2002/09/28 11:30",5539.54667,36.48,TRADE
VIC1,"2002/09/28 12:00",5542.43167,36.54,TRADE
VIC1,"2002/09/28 12:30",5519.78667,36.52,TRADE
VIC1,"2002/09/28 13:00",5507.35833,35.76,TRADE
VIC1,"2002/09/28 13:30",5542.68333,35.07,TRADE
VIC1,"2002/09/28 14:00",5490.04833,31.87,TRADE
VIC1,"2002/09/28 14:30",5419.65833,30.97,TRADE
VIC1,"2002/09/28 15:00",5337.03833,27.97,TRADE
VIC1,"2002/09/28 15:30",5273.48667,26.18,TRADE
VIC1,"2002/09/28 16:00",5290.555,24.96,TRADE
VIC1,"2002/09/28 16:30",5245.01333,23.13,TRADE
VIC1,"2002/09/28 17:00",5253.67,24.33,TRADE
VIC1,"2002/09/28 17:30",5254.185,24,TRADE
VIC1,"2002/09/28 18:00",5380.77667,24.76,TRADE
VIC1,"2002/09/28 18:30",5631.11667,32.39,TRADE
VIC1,"2002/09/28 19:00",5799.02333,35.84,TRADE
VIC1,"2002/09/28 19:30",5754.63167,31.25,TRADE
VIC1,"2002/09/28 20:00",5625.55333,26.12,TRADE
VIC1,"2002/09/28 20:30",5558.705,24.27,TRADE
VIC1,"2002/09/28 21:00",5469.515,24.16,TRADE
VIC1,"2002/09/28 21:30",5331.38,23.09,TRADE
VIC1,"2002/09/28 22:00",5241.935,22.25,TRADE
VIC1,"2002/09/28 22:30",5144.855,22.87,TRADE
VIC1,"2002/09/28 23:00",5107.82667,21.6,TRADE
VIC1,"2002/09/28 23:30",5432.52667,29.62,TRADE
VIC1,"2002/09/29 00:00",5406.635,27.31,TRADE
VIC1,"2002/09/29 00:30",5278.46333,22.99,TRADE
VIC1,"2002/09/29 01:00",5236.94667,22.68,TRADE
VIC1,"2002/09/29 01:30",5521.09,21.96,TRADE
VIC1,"2002/09/29 02:00",5379.66,18.1,TRADE
VIC1,"2002/09/29 02:30",5161.14667,15.86,TRADE
VIC1,"2002/09/29 03:00",4932.96167,14.16,TRADE
VIC1,"2002/09/29 03:30",4754.48333,13.5,TRADE
VIC1,"2002/09/29 04:00",4609.905,13.07,TRADE
VIC1,"2002/09/29 04:30",4521.92333,12.64,TRADE
VIC1,"2002/09/29 05:00",4424.05,10.25,TRADE
VIC1,"2002/09/29 05:30",4363.89667,10.02,TRADE
VIC1,"2002/09/29 06:00",4374.42,10.27,TRADE
VIC1,"2002/09/29 06:30",4408.78167,11.21,TRADE
VIC1,"2002/09/29 07:00",4443.015,11.49,TRADE
VIC1,"2002/09/29 07:30",4376.14833,10.86,TRADE
VIC1,"2002/09/29 08:00",4515.33833,13.53,TRADE
VIC1,"2002/09/29 08:30",4695.62333,15.2,TRADE
VIC1,"2002/09/29 09:00",4828.27667,19.49,TRADE
VIC1,"2002/09/29 09:30",4906.035,21.87,TRADE
VIC1,"2002/09/29 10:00",4998.26333,21.66,TRADE
VIC1,"2002/09/29 10:30",5021.99333,25.95,TRADE
VIC1,"2002/09/29 11:00",5064.78167,25.34,TRADE
VIC1,"2002/09/29 11:30",5060.765,26.75,TRADE
VIC1,"2002/09/29 12:00",5013.33333,26.37,TRADE
VIC1,"2002/09/29 12:30",5015.05167,25.01,TRADE
VIC1,"2002/09/29 13:00",4941.72333,23.62,TRADE
VIC1,"2002/09/29 13:30",4963.95833,23.24,TRADE
VIC1,"2002/09/29 14:00",4911.18167,20.49,TRADE
VIC1,"2002/09/29 14:30",4844.42333,16.43,TRADE
VIC1,"2002/09/29 15:00",4837.975,16.08,TRADE
VIC1,"2002/09/29 15:30",4792.47833,15.63,TRADE
VIC1,"2002/09/29 16:00",4821.54833,15.74,TRADE
VIC1,"2002/09/29 16:30",4846.86667,16.98,TRADE
VIC1,"2002/09/29 17:00",4912.91667,20.46,TRADE
VIC1,"2002/09/29 17:30",5066.34833,26.12,TRADE
VIC1,"2002/09/29 18:00",5262.29833,33.98,TRADE
VIC1,"2002/09/29 18:30",5510.98833,41.08,TRADE
VIC1,"2002/09/29 19:00",5707.71167,43.25,TRADE
VIC1,"2002/09/29 19:30",5731.14667,43.55,TRADE
VIC1,"2002/09/29 20:00",5620.41333,39.98,TRADE
VIC1,"2002/09/29 20:30",5534.81833,36.01,TRADE
VIC1,"2002/09/29 21:00",5461.795,37.59,TRADE
VIC1,"2002/09/29 21:30",5360.02667,34.53,TRADE
VIC1,"2002/09/29 22:00",5230.475,30.04,TRADE
VIC1,"2002/09/29 22:30",5137.40333,32.61,TRADE
VIC1,"2002/09/29 23:00",5078.41,33.21,TRADE
VIC1,"2002/09/29 23:30",5320.13167,36.09,TRADE
VIC1,"2002/09/30 00:00",5217.01333,28.31,TRADE
VIC1,"2002/09/30 00:30",5147.885,24.13,TRADE
VIC1,"2002/09/30 01:00",5056.185,23.91,TRADE
VIC1,"2002/09/30 01:30",5396.165,27.53,TRADE
VIC1,"2002/09/30 02:00",5302.23833,21.71,TRADE
VIC1,"2002/09/30 02:30",5138.90167,16.44,TRADE
VIC1,"2002/09/30 03:00",4931.09167,14.47,TRADE
VIC1,"2002/09/30 03:30",4808.42833,14.12,TRADE
VIC1,"2002/09/30 04:00",4684.66833,13.82,TRADE
VIC1,"2002/09/30 04:30",4607.395,13.23,TRADE
VIC1,"2002/09/30 05:00",4590.765,13.18,TRADE
VIC1,"2002/09/30 05:30",4664.84333,13.36,TRADE
VIC1,"2002/09/30 06:00",4800.835,14.56,TRADE
VIC1,"2002/09/30 06:30",5111.05,19.64,TRADE
VIC1,"2002/09/30 07:00",5447.48,28.11,TRADE
VIC1,"2002/09/30 07:30",5585.07333,21.74,TRADE
VIC1,"2002/09/30 08:00",5813.25667,28.68,TRADE
VIC1,"2002/09/30 08:30",6108.02333,34.58,TRADE
VIC1,"2002/09/30 09:00",6206.42333,34.97,TRADE
VIC1,"2002/09/30 09:30",6250.72333,35.02,TRADE
VIC1,"2002/09/30 10:00",6185.57833,35.6,TRADE
VIC1,"2002/09/30 10:30",6150.13,32.16,TRADE
VIC1,"2002/09/30 11:00",6101.26833,30.96,TRADE
VIC1,"2002/09/30 11:30",6101.16333,30.95,TRADE
VIC1,"2002/09/30 12:00",6099.09667,29.08,TRADE
VIC1,"2002/09/30 12:30",6072.74333,29.49,TRADE
VIC1,"2002/09/30 13:00",6015.23333,28.45,TRADE
VIC1,"2002/09/30 13:30",6051.71667,30.38,TRADE
VIC1,"2002/09/30 14:00",6005.98333,28.08,TRADE
VIC1,"2002/09/30 14:30",5940.35833,27.76,TRADE
VIC1,"2002/09/30 15:00",5912.79667,27.65,TRADE
VIC1,"2002/09/30 15:30",5894.17167,27.77,TRADE
VIC1,"2002/09/30 16:00",5835.505,27.1,TRADE
VIC1,"2002/09/30 16:30",5777.07833,27.47,TRADE
VIC1,"2002/09/30 17:00",5818.67,26.71,TRADE
VIC1,"2002/09/30 17:30",5885.80667,27.13,TRADE
VIC1,"2002/09/30 18:00",5943.805,30.19,TRADE
VIC1,"2002/09/30 18:30",6034.34333,34.97,TRADE
VIC1,"2002/09/30 19:00",6222.95333,42.71,TRADE
VIC1,"2002/09/30 19:30",6166.16167,33.31,TRADE
VIC1,"2002/09/30 20:00",6088.72,30.85,TRADE
VIC1,"2002/09/30 20:30",5969.42667,28.97,TRADE
VIC1,"2002/09/30 21:00",5888.92833,28.85,TRADE
VIC1,"2002/09/30 21:30",5761.095,27.68,TRADE
VIC1,"2002/09/30 22:00",5637.26833,24.69,TRADE
VIC1,"2002/09/30 22:30",5460.6,32.89,TRADE
VIC1,"2002/09/30 23:00",5330.98833,26.97,TRADE
VIC1,"2002/09/30 23:30",5708.81333,32.95,TRADE
VIC1,"2002/10/01 00:00",5548.99,31.69,TRADE
