REGION,SETTLEMENTDATE,TOTALDEMAND,RRP,PERIODTYPE
NSW1,"2003/02/01 00:30",7297.3,18.87,TRADE
NSW1,"2003/02/01 01:00",6989.76333,17.1,TRADE
NSW1,"2003/02/01 01:30",6701.39,17.18,TRADE
NSW1,"2003/02/01 02:00",6399.80333,15.17,TRADE
NSW1,"2003/02/01 02:30",6177.97833,13.63,TRADE
NSW1,"2003/02/01 03:00",6078.045,12.45,TRADE
NSW1,"2003/02/01 03:30",6012.38,13.7,TRADE
NSW1,"2003/02/01 04:00",6004.79833,14.25,TRADE
NSW1,"2003/02/01 04:30",6084.06333,14.88,TRADE
NSW1,"2003/02/01 05:00",6142.58333,15.76,TRADE
NSW1,"2003/02/01 05:30",6341.83833,16.5,TRADE
NSW1,"2003/02/01 06:00",6480.99667,15.83,TRADE
NSW1,"2003/02/01 06:30",6747.34333,16.7,TRADE
NSW1,"2003/02/01 07:00",7058.51,16.42,TRADE
NSW1,"2003/02/01 07:30",7483.73167,17.99,TRADE
NSW1,"2003/02/01 08:00",7787.945,23.04,TRADE
NSW1,"2003/02/01 08:30",8117.855,27.24,TRADE
NSW1,"2003/02/01 09:00",8224.00167,29.92,TRADE
NSW1,"2003/02/01 09:30",8372.40333,34.58,TRADE
NSW1,"2003/02/01 10:00",8319.16,27.42,TRADE
NSW1,"2003/02/01 10:30",8253.25667,27.45,TRADE
NSW1,"2003/02/01 11:00",8178.13667,27.39,TRADE
NSW1,"2003/02/01 11:30",8127.06,26.2,TRADE
NSW1,"2003/02/01 12:00",8086.98,26,TRADE
NSW1,"2003/02/01 12:30",7973.92667,23.52,TRADE
NSW1,"2003/02/01 13:00",7965.59667,23.2,TRADE
NSW1,"2003/02/01 13:30",7899.08167,22.02,TRADE
NSW1,"2003/02/01 14:00",7840.03667,21.82,TRADE
NSW1,"2003/02/01 14:30",7756.73833,21.31,TRADE
NSW1,"2003/02/01 15:00",7768.99167,21,TRADE
NSW1,"2003/02/01 15:30",7730.385,20.65,TRADE
NSW1,"2003/02/01 16:00",7749.72667,20.63,TRADE
NSW1,"2003/02/01 16:30",7636.91167,19.65,TRADE
NSW1,"2003/02/01 17:00",7689.80667,20.33,TRADE
NSW1,"2003/02/01 17:30",7718.96333,20.58,TRADE
NSW1,"2003/02/01 18:00",7607.77833,19.68,TRADE
NSW1,"2003/02/01 18:30",7561.83167,19.7,TRADE
NSW1,"2003/02/01 19:00",7492.14167,19.18,TRADE
NSW1,"2003/02/01 19:30",7571.15833,19.74,TRADE
NSW1,"2003/02/01 20:00",7628.42333,20.78,TRADE
NSW1,"2003/02/01 20:30",7530.535,18.12,TRADE
NSW1,"2003/02/01 21:00",7392.70667,17.5,TRADE
NSW1,"2003/02/01 21:30",7387.03833,18.51,TRADE
NSW1,"2003/02/01 22:00",7415.50833,17.91,TRADE
NSW1,"2003/02/01 22:30",7457.72667,18.79,TRADE
NSW1,"2003/02/01 23:00",7243.44167,16.71,TRADE
NSW1,"2003/02/01 23:30",7051.58,17.6,TRADE
NSW1,"2003/02/02 00:00",6856.845,17.9,TRADE
NSW1,"2003/02/02 00:30",6667.97667,16.25,TRADE
NSW1,"2003/02/02 01:00",6428.77,15.48,TRADE
NSW1,"2003/02/02 01:30",6174.795,14.28,TRADE
NSW1,"2003/02/02 02:00",5938.23333,11.63,TRADE
NSW1,"2003/02/02 02:30",5755.52833,9.57,TRADE
NSW1,"2003/02/02 03:00",5632.13,8.94,TRADE
NSW1,"2003/02/02 03:30",5639.905,9.31,TRADE
NSW1,"2003/02/02 04:00",5588.83833,8.59,TRADE
NSW1,"2003/02/02 04:30",5641.995,6.73,TRADE
NSW1,"2003/02/02 05:00",5692.56167,6.07,TRADE
NSW1,"2003/02/02 05:30",5826.48333,7.9,TRADE
NSW1,"2003/02/02 06:00",5812.25167,10.04,TRADE
NSW1,"2003/02/02 06:30",6011.835,9.54,TRADE
NSW1,"2003/02/02 07:00",6254.06833,10.79,TRADE
NSW1,"2003/02/02 07:30",6673.99667,12.03,TRADE
NSW1,"2003/02/02 08:00",7032.89667,13.93,TRADE
NSW1,"2003/02/02 08:30",7288.96667,15.47,TRADE
NSW1,"2003/02/02 09:00",7466.96167,16.04,TRADE
NSW1,"2003/02/02 09:30",7647.12833,16.43,TRADE
NSW1,"2003/02/02 10:00",7654.62833,16.56,TRADE
NSW1,"2003/02/02 10:30",7672.06333,17.03,TRADE
NSW1,"2003/02/02 11:00",7690.23333,17.44,TRADE
NSW1,"2003/02/02 11:30",7495.74833,16.62,TRADE
NSW1,"2003/02/02 12:00",7628.91833,16.4,TRADE
NSW1,"2003/02/02 12:30",7612.03167,16.42,TRADE
NSW1,"2003/02/02 13:00",7622.22167,16.22,TRADE
NSW1,"2003/02/02 13:30",7583.06333,16.39,TRADE
NSW1,"2003/02/02 14:00",7573.115,16.33,TRADE
NSW1,"2003/02/02 14:30",7607.96,16.53,TRADE
NSW1,"2003/02/02 15:00",7598.625,16.53,TRADE
NSW1,"2003/02/02 15:30",7602.73667,16.5,TRADE
NSW1,"2003/02/02 16:00",7605.685,16.55,TRADE
NSW1,"2003/02/02 16:30",7525.35667,17,TRADE
NSW1,"2003/02/02 17:00",7641.495,18.71,TRADE
NSW1,"2003/02/02 17:30",7687.90833,21.26,TRADE
NSW1,"2003/02/02 18:00",7745.97,21.58,TRADE
NSW1,"2003/02/02 18:30",7640.02167,20.19,TRADE
NSW1,"2003/02/02 19:00",7689.36,21.44,TRADE
NSW1,"2003/02/02 19:30",7814.00833,22.53,TRADE
NSW1,"2003/02/02 20:00",7910.385,24.33,TRADE
NSW1,"2003/02/02 20:30",7727.605,22.33,TRADE
NSW1,"2003/02/02 21:00",7483.52167,18.63,TRADE
NSW1,"2003/02/02 21:30",7481.21333,19.25,TRADE
NSW1,"2003/02/02 22:00",7396.475,17.92,TRADE
NSW1,"2003/02/02 22:30",7376.34,16.85,TRADE
NSW1,"2003/02/02 23:00",7203.435,14.42,TRADE
NSW1,"2003/02/02 23:30",6953.95333,14.79,TRADE
NSW1,"2003/02/03 00:00",6789.3,12.23,TRADE
NSW1,"2003/02/03 00:30",6672.07667,13.79,TRADE
NSW1,"2003/02/03 01:00",6462.98333,11.73,TRADE
NSW1,"2003/02/03 01:30",6241.55667,11.35,TRADE
NSW1,"2003/02/03 02:00",5996.50833,11.04,TRADE
NSW1,"2003/02/03 02:30",5856.69333,10.03,TRADE
NSW1,"2003/02/03 03:00",5804.93167,9.45,TRADE
NSW1,"2003/02/03 03:30",5782.40833,8.79,TRADE
NSW1,"2003/02/03 04:00",5873.8,8.98,TRADE
NSW1,"2003/02/03 04:30",6078.20167,10.5,TRADE
NSW1,"2003/02/03 05:00",6401.38667,12.11,TRADE
NSW1,"2003/02/03 05:30",7005.785,15.4,TRADE
NSW1,"2003/02/03 06:00",7579.10333,15.78,TRADE
NSW1,"2003/02/03 06:30",8015.00167,18.72,TRADE
NSW1,"2003/02/03 07:00",8477.02667,21.95,TRADE
NSW1,"2003/02/03 07:30",8729.56667,17.86,TRADE
NSW1,"2003/02/03 08:00",8868.63333,17.38,TRADE
NSW1,"2003/02/03 08:30",9064.17,17.81,TRADE
NSW1,"2003/02/03 09:00",9171.80167,17.93,TRADE
NSW1,"2003/02/03 09:30",9263.66,18.11,TRADE
NSW1,"2003/02/03 10:00",9293.87,18.02,TRADE
NSW1,"2003/02/03 10:30",9278.06167,19.2,TRADE
NSW1,"2003/02/03 11:00",9296.83,21.27,TRADE
NSW1,"2003/02/03 11:30",9319.25333,21.62,TRADE
NSW1,"2003/02/03 12:00",9301.45667,21.64,TRADE
NSW1,"2003/02/03 12:30",9309.88167,21.71,TRADE
NSW1,"2003/02/03 13:00",9315.51667,22.67,TRADE
NSW1,"2003/02/03 13:30",9327.13167,21.95,TRADE
NSW1,"2003/02/03 14:00",9287.77833,21.38,TRADE
NSW1,"2003/02/03 14:30",9248.96833,21.35,TRADE
NSW1,"2003/02/03 15:00",9266.99667,23.22,TRADE
NSW1,"2003/02/03 15:30",9272.67833,25.74,TRADE
NSW1,"2003/02/03 16:00",9251.83833,25.29,TRADE
NSW1,"2003/02/03 16:30",9204.24,24.19,TRADE
NSW1,"2003/02/03 17:00",9169.845,25.37,TRADE
NSW1,"2003/02/03 17:30",8910.01167,22.71,TRADE
NSW1,"2003/02/03 18:00",8732.27667,21.55,TRADE
NSW1,"2003/02/03 18:30",8456.235,18.76,TRADE
NSW1,"2003/02/03 19:00",8334.645,18,TRADE
NSW1,"2003/02/03 19:30",8475.575,21.25,TRADE
NSW1,"2003/02/03 20:00",8499.45167,21.14,TRADE
NSW1,"2003/02/03 20:30",8272.695,21.38,TRADE
NSW1,"2003/02/03 21:00",7917.06,19.08,TRADE
NSW1,"2003/02/03 21:30",7993.58833,19.27,TRADE
NSW1,"2003/02/03 22:00",7881.19667,17.59,TRADE
NSW1,"2003/02/03 22:30",8012.31833,18.43,TRADE
NSW1,"2003/02/03 23:00",7856.86,17.71,TRADE
NSW1,"2003/02/03 23:30",7618.58833,19.69,TRADE
NSW1,"2003/02/04 00:00",7460.17333,17.76,TRADE
NSW1,"2003/02/04 00:30",7237.06667,16.19,TRADE
NSW1,"2003/02/04 01:00",6967.07333,14.67,TRADE
NSW1,"2003/02/04 01:30",6713.37167,15.54,TRADE
NSW1,"2003/02/04 02:00",6389.19167,11.6,TRADE
NSW1,"2003/02/04 02:30",6174.03667,10.45,TRADE
NSW1,"2003/02/04 03:00",6099.96167,9.77,TRADE
NSW1,"2003/02/04 03:30",6061.52167,9.71,TRADE
NSW1,"2003/02/04 04:00",6105.22833,9.69,TRADE
NSW1,"2003/02/04 04:30",6327.09833,11.41,TRADE
NSW1,"2003/02/04 05:00",6583.525,12.46,TRADE
NSW1,"2003/02/04 05:30",7182.82833,16.74,TRADE
NSW1,"2003/02/04 06:00",7684.34,19.6,TRADE
NSW1,"2003/02/04 06:30",8167.63667,22.85,TRADE
NSW1,"2003/02/04 07:00",8614.92333,25.5,TRADE
NSW1,"2003/02/04 07:30",8832.90333,21.66,TRADE
NSW1,"2003/02/04 08:00",8975.17167,21.64,TRADE
NSW1,"2003/02/04 08:30",9226.08667,21.56,TRADE
NSW1,"2003/02/04 09:00",9274.56333,19.47,TRADE
NSW1,"2003/02/04 09:30",9366.305,21.88,TRADE
NSW1,"2003/02/04 10:00",9381.50333,22.62,TRADE
NSW1,"2003/02/04 10:30",9403.76167,23.53,TRADE
NSW1,"2003/02/04 11:00",9415.82333,24.66,TRADE
NSW1,"2003/02/04 11:30",9470.37,25.81,TRADE
NSW1,"2003/02/04 12:00",9449.29833,26.19,TRADE
NSW1,"2003/02/04 12:30",9454.295,27.33,TRADE
NSW1,"2003/02/04 13:00",9471.34167,27.6,TRADE
NSW1,"2003/02/04 13:30",9524.89833,28.57,TRADE
NSW1,"2003/02/04 14:00",9526.70333,29.26,TRADE
NSW1,"2003/02/04 14:30",9478.74,30.66,TRADE
NSW1,"2003/02/04 15:00",9445.16333,27.82,TRADE
NSW1,"2003/02/04 15:30",9632.54,36.88,TRADE
NSW1,"2003/02/04 16:00",9690.64167,37.72,TRADE
NSW1,"2003/02/04 16:30",9603.01,37.59,TRADE
NSW1,"2003/02/04 17:00",9522.46,35.44,TRADE
NSW1,"2003/02/04 17:30",9282.60833,27.73,TRADE
NSW1,"2003/02/04 18:00",9072.64333,30.85,TRADE
NSW1,"2003/02/04 18:30",8801.63667,26.15,TRADE
NSW1,"2003/02/04 19:00",8644.69,24.61,TRADE
NSW1,"2003/02/04 19:30",8710.53833,24.8,TRADE
NSW1,"2003/02/04 20:00",8750.94833,23.44,TRADE
NSW1,"2003/02/04 20:30",8441.56333,21.75,TRADE
NSW1,"2003/02/04 21:00",8187.18167,21.29,TRADE
NSW1,"2003/02/04 21:30",8240.46667,21.42,TRADE
NSW1,"2003/02/04 22:00",8154.46833,18.49,TRADE
NSW1,"2003/02/04 22:30",8186.58833,18.21,TRADE
NSW1,"2003/02/04 23:00",8032.76833,17.93,TRADE
NSW1,"2003/02/04 23:30",7788.55333,21.42,TRADE
NSW1,"2003/02/05 00:00",7600.59,18.88,TRADE
NSW1,"2003/02/05 00:30",7359.27,16.36,TRADE
NSW1,"2003/02/05 01:00",7086.91333,15.17,TRADE
NSW1,"2003/02/05 01:30",6766.665,16.13,TRADE
NSW1,"2003/02/05 02:00",6451.525,12.92,TRADE
NSW1,"2003/02/05 02:30",6261.665,11.45,TRADE
NSW1,"2003/02/05 03:00",6170.93833,10.32,TRADE
NSW1,"2003/02/05 03:30",6132.06167,9.84,TRADE
NSW1,"2003/02/05 04:00",6203.66333,10.51,TRADE
NSW1,"2003/02/05 04:30",6385.305,10.44,TRADE
NSW1,"2003/02/05 05:00",6662.61333,12.18,TRADE
NSW1,"2003/02/05 05:30",7222.01667,16.42,TRADE
NSW1,"2003/02/05 06:00",7798.79333,19.29,TRADE
NSW1,"2003/02/05 06:30",8204.62167,21.94,TRADE
NSW1,"2003/02/05 07:00",8671.46667,22.84,TRADE
NSW1,"2003/02/05 07:30",8866.41833,20.53,TRADE
NSW1,"2003/02/05 08:00",9084.69,20.5,TRADE
NSW1,"2003/02/05 08:30",9293.77167,20.22,TRADE
NSW1,"2003/02/05 09:00",9442.34333,21.46,TRADE
NSW1,"2003/02/05 09:30",9576.06,22.11,TRADE
NSW1,"2003/02/05 10:00",9572.175,22.44,TRADE
NSW1,"2003/02/05 10:30",9601.31333,23.22,TRADE
NSW1,"2003/02/05 11:00",9640.13,24.42,TRADE
NSW1,"2003/02/05 11:30",9669.74667,21.94,TRADE
NSW1,"2003/02/05 12:00",9710.64833,22.6,TRADE
NSW1,"2003/02/05 12:30",9775.31833,21.67,TRADE
NSW1,"2003/02/05 13:00",9800.61,23.59,TRADE
NSW1,"2003/02/05 13:30",9828.26,25.27,TRADE
NSW1,"2003/02/05 14:00",9800.88667,25.15,TRADE
NSW1,"2003/02/05 14:30",9882.42667,25.57,TRADE
NSW1,"2003/02/05 15:00",9933.48667,25.32,TRADE
NSW1,"2003/02/05 15:30",10010.97167,25.86,TRADE
NSW1,"2003/02/05 16:00",10013.28,26.58,TRADE
NSW1,"2003/02/05 16:30",9919.08,21.85,TRADE
NSW1,"2003/02/05 17:00",9791.16667,23.44,TRADE
NSW1,"2003/02/05 17:30",9475.19167,20.11,TRADE
NSW1,"2003/02/05 18:00",9248.03167,17.77,TRADE
NSW1,"2003/02/05 18:30",8967.15667,16.41,TRADE
NSW1,"2003/02/05 19:00",8787.76333,16.23,TRADE
NSW1,"2003/02/05 19:30",8844.155,17.35,TRADE
NSW1,"2003/02/05 20:00",8938.63333,18.06,TRADE
NSW1,"2003/02/05 20:30",8640.99333,17.6,TRADE
NSW1,"2003/02/05 21:00",8313.42333,16.2,TRADE
NSW1,"2003/02/05 21:30",8352.87167,17.92,TRADE
NSW1,"2003/02/05 22:00",8148.86,16.73,TRADE
NSW1,"2003/02/05 22:30",8197.175,17.52,TRADE
NSW1,"2003/02/05 23:00",8035.055,16.47,TRADE
NSW1,"2003/02/05 23:30",7841.98167,18.17,TRADE
NSW1,"2003/02/06 00:00",7583.50333,16.78,TRADE
NSW1,"2003/02/06 00:30",7367.17833,15.96,TRADE
NSW1,"2003/02/06 01:00",7119.25333,12.9,TRADE
NSW1,"2003/02/06 01:30",6805.72833,11.98,TRADE
NSW1,"2003/02/06 02:00",6506.105,10.66,TRADE
NSW1,"2003/02/06 02:30",6316.26667,9.56,TRADE
NSW1,"2003/02/06 03:00",6223.80667,5.93,TRADE
NSW1,"2003/02/06 03:30",6206.485,5.63,TRADE
NSW1,"2003/02/06 04:00",6278.19167,6.49,TRADE
NSW1,"2003/02/06 04:30",6449.155,9.08,TRADE
NSW1,"2003/02/06 05:00",6736.87667,11.01,TRADE
NSW1,"2003/02/06 05:30",7266.03167,15.38,TRADE
NSW1,"2003/02/06 06:00",7837.925,18.04,TRADE
NSW1,"2003/02/06 06:30",8290.49,21.25,TRADE
NSW1,"2003/02/06 07:00",8786.82333,24.35,TRADE
NSW1,"2003/02/06 07:30",9008.36333,18.79,TRADE
NSW1,"2003/02/06 08:00",9168.87833,17.78,TRADE
NSW1,"2003/02/06 08:30",9474.07167,17.75,TRADE
NSW1,"2003/02/06 09:00",9669.30333,18.08,TRADE
NSW1,"2003/02/06 09:30",9720.855,19.31,TRADE
NSW1,"2003/02/06 10:00",9826.74833,21.99,TRADE
NSW1,"2003/02/06 10:30",9925.55,19.03,TRADE
NSW1,"2003/02/06 11:00",9994.53833,18.93,TRADE
NSW1,"2003/02/06 11:30",10013.52,20.02,TRADE
NSW1,"2003/02/06 12:00",10041.26333,20.73,TRADE
NSW1,"2003/02/06 12:30",10123.00667,22.59,TRADE
NSW1,"2003/02/06 13:00",10169.07333,23.35,TRADE
NSW1,"2003/02/06 13:30",10206.63167,25.17,TRADE
NSW1,"2003/02/06 14:00",10267.67167,26.65,TRADE
NSW1,"2003/02/06 14:30",10241.00667,26.16,TRADE
NSW1,"2003/02/06 15:00",10307.615,27.52,TRADE
NSW1,"2003/02/06 15:30",10372.80833,27.63,TRADE
NSW1,"2003/02/06 16:00",10392.52167,27.81,TRADE
NSW1,"2003/02/06 16:30",10248.8,24.46,TRADE
NSW1,"2003/02/06 17:00",10148.79667,21.83,TRADE
NSW1,"2003/02/06 17:30",9854.22333,21.76,TRADE
NSW1,"2003/02/06 18:00",9679.50333,21.35,TRADE
NSW1,"2003/02/06 18:30",9363.14333,20.63,TRADE
NSW1,"2003/02/06 19:00",9228.61167,22.02,TRADE
NSW1,"2003/02/06 19:30",9244.205,22.96,TRADE
NSW1,"2003/02/06 20:00",9276.91333,22.73,TRADE
NSW1,"2003/02/06 20:30",8891.19333,22.35,TRADE
NSW1,"2003/02/06 21:00",8538.75167,20.11,TRADE
NSW1,"2003/02/06 21:30",8535.00833,21.22,TRADE
NSW1,"2003/02/06 22:00",8332.32167,18.73,TRADE
NSW1,"2003/02/06 22:30",8353.65667,19.17,TRADE
NSW1,"2003/02/06 23:00",8208.92333,18.52,TRADE
NSW1,"2003/02/06 23:30",7935.225,22.1,TRADE
NSW1,"2003/02/07 00:00",7710.53667,19.66,TRADE
NSW1,"2003/02/07 00:30",7476.09667,18.41,TRADE
NSW1,"2003/02/07 01:00",7176.185,16.3,TRADE
NSW1,"2003/02/07 01:30",6869.51,16.84,TRADE
NSW1,"2003/02/07 02:00",6555.86167,15.54,TRADE
NSW1,"2003/02/07 02:30",6382.09667,12.97,TRADE
NSW1,"2003/02/07 03:00",6286.855,10.39,TRADE
NSW1,"2003/02/07 03:30",6260.99833,9.35,TRADE
NSW1,"2003/02/07 04:00",6322.06,10,TRADE
NSW1,"2003/02/07 04:30",6532.60333,13.95,TRADE
NSW1,"2003/02/07 05:00",6811.64667,16.12,TRADE
NSW1,"2003/02/07 05:30",7373.31667,20.9,TRADE
NSW1,"2003/02/07 06:00",7922.42667,19.77,TRADE
NSW1,"2003/02/07 06:30",8434.24333,23.4,TRADE
NSW1,"2003/02/07 07:00",8872.355,25.99,TRADE
NSW1,"2003/02/07 07:30",9058.35333,21.66,TRADE
NSW1,"2003/02/07 08:00",9237.055,21.77,TRADE
NSW1,"2003/02/07 08:30",9511.81,20.82,TRADE
NSW1,"2003/02/07 09:00",9688.23167,21.57,TRADE
NSW1,"2003/02/07 09:30",9690.63167,22.1,TRADE
NSW1,"2003/02/07 10:00",9843.26,22.73,TRADE
NSW1,"2003/02/07 10:30",9864.21667,24.05,TRADE
NSW1,"2003/02/07 11:00",9926.31333,25.6,TRADE
NSW1,"2003/02/07 11:30",9894.25167,25.88,TRADE
NSW1,"2003/02/07 12:00",9915.29,26,TRADE
NSW1,"2003/02/07 12:30",9828.77833,26.26,TRADE
NSW1,"2003/02/07 13:00",10016.46,27.62,TRADE
NSW1,"2003/02/07 13:30",10068.65333,27.67,TRADE
NSW1,"2003/02/07 14:00",10052.95167,27.7,TRADE
NSW1,"2003/02/07 14:30",10017.07667,27.15,TRADE
NSW1,"2003/02/07 15:00",9989.09667,25.93,TRADE
NSW1,"2003/02/07 15:30",10046.605,26,TRADE
NSW1,"2003/02/07 16:00",10005.25833,26.08,TRADE
NSW1,"2003/02/07 16:30",9850.66,24.81,TRADE
NSW1,"2003/02/07 17:00",9639.79667,21.43,TRADE
NSW1,"2003/02/07 17:30",9275.525,19.73,TRADE
NSW1,"2003/02/07 18:00",9026.84333,17.83,TRADE
NSW1,"2003/02/07 18:30",8788.73667,17.68,TRADE
NSW1,"2003/02/07 19:00",8657.91167,17.7,TRADE
NSW1,"2003/02/07 19:30",8790.09833,18.05,TRADE
NSW1,"2003/02/07 20:00",8708.72333,18.02,TRADE
NSW1,"2003/02/07 20:30",8460.78,17.95,TRADE
NSW1,"2003/02/07 21:00",8217.06167,17.79,TRADE
NSW1,"2003/02/07 21:30",8260.99167,20.35,TRADE
NSW1,"2003/02/07 22:00",8194.175,17.61,TRADE
NSW1,"2003/02/07 22:30",8255.67,18.41,TRADE
NSW1,"2003/02/07 23:00",8111.445,17.97,TRADE
NSW1,"2003/02/07 23:30",7884.92167,21.45,TRADE
NSW1,"2003/02/08 00:00",7627.89167,20.01,TRADE
NSW1,"2003/02/08 00:30",7352.05667,17.22,TRADE
NSW1,"2003/02/08 01:00",7066.49167,16.02,TRADE
NSW1,"2003/02/08 01:30",6705.4,15.79,TRADE
NSW1,"2003/02/08 02:00",6422.30667,12.29,TRADE
NSW1,"2003/02/08 02:30",6188.78333,10.82,TRADE
NSW1,"2003/02/08 03:00",6088.67833,9.16,TRADE
NSW1,"2003/02/08 03:30",5993.70667,9,TRADE
NSW1,"2003/02/08 04:00",6026.96,9,TRADE
NSW1,"2003/02/08 04:30",6078.125,9,TRADE
NSW1,"2003/02/08 05:00",6171.59167,9.41,TRADE
NSW1,"2003/02/08 05:30",6377.33667,12.28,TRADE
NSW1,"2003/02/08 06:00",6525.095,12.96,TRADE
NSW1,"2003/02/08 06:30",6804.105,12.46,TRADE
NSW1,"2003/02/08 07:00",7219.85167,16.2,TRADE
NSW1,"2003/02/08 07:30",7601.05333,17.4,TRADE
NSW1,"2003/02/08 08:00",7957.78,21.38,TRADE
NSW1,"2003/02/08 08:30",8354.83667,25.61,TRADE
NSW1,"2003/02/08 09:00",8397.15167,29.13,TRADE
NSW1,"2003/02/08 09:30",8589.13333,28.67,TRADE
NSW1,"2003/02/08 10:00",8550.48,26.3,TRADE
NSW1,"2003/02/08 10:30",8540.7,26,TRADE
NSW1,"2003/02/08 11:00",8581.115,26.17,TRADE
NSW1,"2003/02/08 11:30",8631.98167,26.53,TRADE
NSW1,"2003/02/08 12:00",8607.45167,26.5,TRADE
NSW1,"2003/02/08 12:30",8584.93667,25.81,TRADE
NSW1,"2003/02/08 13:00",8514.38833,25.93,TRADE
NSW1,"2003/02/08 13:30",8483.73333,25.33,TRADE
NSW1,"2003/02/08 14:00",8482.24,25.92,TRADE
NSW1,"2003/02/08 14:30",8511.63,25.65,TRADE
NSW1,"2003/02/08 15:00",8531.66167,25.98,TRADE
NSW1,"2003/02/08 15:30",8472.78667,25.03,TRADE
NSW1,"2003/02/08 16:00",8527.91167,25.9,TRADE
NSW1,"2003/02/08 16:30",8335.255,23.44,TRADE
NSW1,"2003/02/08 17:00",8359.76333,24.69,TRADE
NSW1,"2003/02/08 17:30",8291.89,23.69,TRADE
NSW1,"2003/02/08 18:00",8153.83833,22.1,TRADE
NSW1,"2003/02/08 18:30",8021.18,21.88,TRADE
NSW1,"2003/02/08 19:00",7969.175,21.8,TRADE
NSW1,"2003/02/08 19:30",8066.81833,21.99,TRADE
NSW1,"2003/02/08 20:00",8084.555,22.52,TRADE
NSW1,"2003/02/08 20:30",7926.00833,22.21,TRADE
NSW1,"2003/02/08 21:00",7761.90833,21.03,TRADE
NSW1,"2003/02/08 21:30",7798.21667,22.18,TRADE
NSW1,"2003/02/08 22:00",7704.17,20.65,TRADE
NSW1,"2003/02/08 22:30",7709.47833,23.05,TRADE
NSW1,"2003/02/08 23:00",7445,19.58,TRADE
NSW1,"2003/02/08 23:30",7219.55167,21.51,TRADE
NSW1,"2003/02/09 00:00",7001.05667,20.79,TRADE
NSW1,"2003/02/09 00:30",6789.87,17.6,TRADE
NSW1,"2003/02/09 01:00",6564.495,15.42,TRADE
NSW1,"2003/02/09 01:30",6285.555,14.58,TRADE
NSW1,"2003/02/09 02:00",6063.64833,11.88,TRADE
NSW1,"2003/02/09 02:30",5916.65,9.79,TRADE
NSW1,"2003/02/09 03:00",5837.21667,10.19,TRADE
NSW1,"2003/02/09 03:30",5807.93167,9.07,TRADE
NSW1,"2003/02/09 04:00",5799.395,8.99,TRADE
NSW1,"2003/02/09 04:30",5828.39167,9,TRADE
NSW1,"2003/02/09 05:00",5802.77167,8.92,TRADE
NSW1,"2003/02/09 05:30",5934.775,9.07,TRADE
NSW1,"2003/02/09 06:00",5996.675,9.23,TRADE
NSW1,"2003/02/09 06:30",6199.98833,9.71,TRADE
NSW1,"2003/02/09 07:00",6531.65333,11.38,TRADE
NSW1,"2003/02/09 07:30",6932.52167,14.27,TRADE
NSW1,"2003/02/09 08:00",7253.73667,16.46,TRADE
NSW1,"2003/02/09 08:30",7579.07167,18.84,TRADE
NSW1,"2003/02/09 09:00",7758.05333,21.84,TRADE
NSW1,"2003/02/09 09:30",7953.17167,23.96,TRADE
NSW1,"2003/02/09 10:00",7972.50333,23.98,TRADE
NSW1,"2003/02/09 10:30",8086.80333,25.88,TRADE
NSW1,"2003/02/09 11:00",8156.80333,25.87,TRADE
NSW1,"2003/02/09 11:30",8198.715,26.04,TRADE
NSW1,"2003/02/09 12:00",8255.92,26.09,TRADE
NSW1,"2003/02/09 12:30",8254.42667,26,TRADE
NSW1,"2003/02/09 13:00",8260.665,26,TRADE
NSW1,"2003/02/09 13:30",8304.30667,26,TRADE
NSW1,"2003/02/09 14:00",8326.085,25.95,TRADE
NSW1,"2003/02/09 14:30",8404.83,26.2,TRADE
NSW1,"2003/02/09 15:00",8424.39667,27.23,TRADE
NSW1,"2003/02/09 15:30",8490.75167,27.32,TRADE
NSW1,"2003/02/09 16:00",8531.79167,27.61,TRADE
NSW1,"2003/02/09 16:30",8447.92333,26.29,TRADE
NSW1,"2003/02/09 17:00",8488.41333,26.59,TRADE
NSW1,"2003/02/09 17:30",8512.64833,27.24,TRADE
NSW1,"2003/02/09 18:00",8402.00167,26.67,TRADE
NSW1,"2003/02/09 18:30",8257.045,25.78,TRADE
NSW1,"2003/02/09 19:00",8186.25333,25.33,TRADE
NSW1,"2003/02/09 19:30",8333.375,26.25,TRADE
NSW1,"2003/02/09 20:00",8387.15667,26.75,TRADE
NSW1,"2003/02/09 20:30",8168.835,24.64,TRADE
NSW1,"2003/02/09 21:00",7888.84167,22.33,TRADE
NSW1,"2003/02/09 21:30",7841.115,21.6,TRADE
NSW1,"2003/02/09 22:00",7666.29333,18.83,TRADE
NSW1,"2003/02/09 22:30",7652.59833,18.55,TRADE
NSW1,"2003/02/09 23:00",7356.25167,16.56,TRADE
NSW1,"2003/02/09 23:30",7162.20167,17.37,TRADE
NSW1,"2003/02/10 00:00",6957.75333,16.63,TRADE
NSW1,"2003/02/10 00:30",6756.32667,15.51,TRADE
NSW1,"2003/02/10 01:00",6607.43667,13.79,TRADE
NSW1,"2003/02/10 01:30",6336.77167,13.25,TRADE
NSW1,"2003/02/10 02:00",6168.06,10.96,TRADE
NSW1,"2003/02/10 02:30",6019.83667,9.49,TRADE
NSW1,"2003/02/10 03:00",6007.185,9,TRADE
NSW1,"2003/02/10 03:30",6014.045,8.98,TRADE
NSW1,"2003/02/10 04:00",6077.76667,9,TRADE
NSW1,"2003/02/10 04:30",6315.91833,9.81,TRADE
NSW1,"2003/02/10 05:00",6564.46167,12.11,TRADE
NSW1,"2003/02/10 05:30",7247.95833,16.24,TRADE
NSW1,"2003/02/10 06:00",7789.56333,18.16,TRADE
NSW1,"2003/02/10 06:30",8260.59333,21.3,TRADE
NSW1,"2003/02/10 07:00",8684.66,23.51,TRADE
NSW1,"2003/02/10 07:30",8909.64667,19.77,TRADE
NSW1,"2003/02/10 08:00",9116.265,17.86,TRADE
NSW1,"2003/02/10 08:30",9410.58,20.71,TRADE
NSW1,"2003/02/10 09:00",9606.18,22.16,TRADE
NSW1,"2003/02/10 09:30",9784.25,22.54,TRADE
NSW1,"2003/02/10 10:00",9892.44167,22.59,TRADE
NSW1,"2003/02/10 10:30",9975.45667,22.5,TRADE
NSW1,"2003/02/10 11:00",10123.87667,23.89,TRADE
NSW1,"2003/02/10 11:30",10179.41167,23.8,TRADE
NSW1,"2003/02/10 12:00",10279.655,25.65,TRADE
NSW1,"2003/02/10 12:30",10393.97667,26.09,TRADE
NSW1,"2003/02/10 13:00",10477.385,26.61,TRADE
NSW1,"2003/02/10 13:30",10471.62333,25.78,TRADE
NSW1,"2003/02/10 14:00",10470.86833,26.55,TRADE
NSW1,"2003/02/10 14:30",10361.59667,24.32,TRADE
NSW1,"2003/02/10 15:00",10262.96167,27,TRADE
NSW1,"2003/02/10 15:30",10134.09,23.89,TRADE
NSW1,"2003/02/10 16:00",10079.82167,23.31,TRADE
NSW1,"2003/02/10 16:30",9931.75,22.91,TRADE
NSW1,"2003/02/10 17:00",9821.56667,22.62,TRADE
NSW1,"2003/02/10 17:30",9472.12167,21.12,TRADE
NSW1,"2003/02/10 18:00",9235.62,17.86,TRADE
NSW1,"2003/02/10 18:30",8934.02333,17.36,TRADE
NSW1,"2003/02/10 19:00",8795.98167,16.92,TRADE
NSW1,"2003/02/10 19:30",8776.195,17.67,TRADE
NSW1,"2003/02/10 20:00",8716.865,18.06,TRADE
NSW1,"2003/02/10 20:30",8395.83667,17.97,TRADE
NSW1,"2003/02/10 21:00",8111.37667,17.26,TRADE
NSW1,"2003/02/10 21:30",8186.135,18.22,TRADE
NSW1,"2003/02/10 22:00",8009.82,17.1,TRADE
NSW1,"2003/02/10 22:30",8049.36,17,TRADE
NSW1,"2003/02/10 23:00",7943.05667,16.25,TRADE
NSW1,"2003/02/10 23:30",7697.11667,17.75,TRADE
NSW1,"2003/02/11 00:00",7523.155,16.94,TRADE
NSW1,"2003/02/11 00:30",7273.24667,14.93,TRADE
NSW1,"2003/02/11 01:00",7059.17333,11.95,TRADE
NSW1,"2003/02/11 01:30",6729.80333,13.76,TRADE
NSW1,"2003/02/11 02:00",6472.19167,11.41,TRADE
NSW1,"2003/02/11 02:30",6240.38667,9.05,TRADE
NSW1,"2003/02/11 03:00",6116.855,8.99,TRADE
NSW1,"2003/02/11 03:30",6154.83667,8.99,TRADE
NSW1,"2003/02/11 04:00",6213.135,9,TRADE
NSW1,"2003/02/11 04:30",6401.24667,9.09,TRADE
NSW1,"2003/02/11 05:00",6696.04667,13.15,TRADE
NSW1,"2003/02/11 05:30",7337.25,16.33,TRADE
NSW1,"2003/02/11 06:00",7927.1,18.54,TRADE
NSW1,"2003/02/11 06:30",8375.515,20.54,TRADE
NSW1,"2003/02/11 07:00",8727.05667,22.1,TRADE
NSW1,"2003/02/11 07:30",8993.11,17.85,TRADE
NSW1,"2003/02/11 08:00",9091.36167,17.6,TRADE
NSW1,"2003/02/11 08:30",9398.375,17.58,TRADE
NSW1,"2003/02/11 09:00",9562.31833,20.08,TRADE
NSW1,"2003/02/11 09:30",9706.34333,21.19,TRADE
NSW1,"2003/02/11 10:00",9751.16333,20.1,TRADE
NSW1,"2003/02/11 10:30",9808.905,20.39,TRADE
NSW1,"2003/02/11 11:00",9862.91,21.57,TRADE
NSW1,"2003/02/11 11:30",9894.585,22.18,TRADE
NSW1,"2003/02/11 12:00",9951.46167,22.1,TRADE
NSW1,"2003/02/11 12:30",10046.185,22.2,TRADE
NSW1,"2003/02/11 13:00",10145.99667,22.91,TRADE
NSW1,"2003/02/11 13:30",10220.9,24.95,TRADE
NSW1,"2003/02/11 14:00",10224.4,23.6,TRADE
NSW1,"2003/02/11 14:30",10243.91,23.83,TRADE
NSW1,"2003/02/11 15:00",10317.90167,24.84,TRADE
NSW1,"2003/02/11 15:30",10404.29333,25.75,TRADE
NSW1,"2003/02/11 16:00",10444.62833,22.63,TRADE
NSW1,"2003/02/11 16:30",10348.11333,27.42,TRADE
NSW1,"2003/02/11 17:00",10203.70333,28.99,TRADE
NSW1,"2003/02/11 17:30",9866.33167,25.46,TRADE
NSW1,"2003/02/11 18:00",9651.31833,22.71,TRADE
NSW1,"2003/02/11 18:30",9339.935,21.65,TRADE
NSW1,"2003/02/11 19:00",9137.65833,18.92,TRADE
NSW1,"2003/02/11 19:30",9314.23333,20.97,TRADE
NSW1,"2003/02/11 20:00",9253.27833,18.33,TRADE
NSW1,"2003/02/11 20:30",8940.37167,17.92,TRADE
NSW1,"2003/02/11 21:00",8576.75167,17.11,TRADE
NSW1,"2003/02/11 21:30",8625.20167,18.1,TRADE
NSW1,"2003/02/11 22:00",8413.35667,17.16,TRADE
NSW1,"2003/02/11 22:30",8381.98833,17.78,TRADE
NSW1,"2003/02/11 23:00",8125.46,17.07,TRADE
NSW1,"2003/02/11 23:30",7868.85,18,TRADE
NSW1,"2003/02/12 00:00",7654.07,17.38,TRADE
NSW1,"2003/02/12 00:30",7501.29833,16.26,TRADE
NSW1,"2003/02/12 01:00",7237.50333,15.86,TRADE
NSW1,"2003/02/12 01:30",6866.20167,15.81,TRADE
NSW1,"2003/02/12 02:00",6560.62667,12.75,TRADE
NSW1,"2003/02/12 02:30",6358.61667,11.61,TRADE
NSW1,"2003/02/12 03:00",6272.38833,9.67,TRADE
NSW1,"2003/02/12 03:30",6280.29667,11.71,TRADE
NSW1,"2003/02/12 04:00",6300.49667,11.35,TRADE
NSW1,"2003/02/12 04:30",6529.045,12.96,TRADE
NSW1,"2003/02/12 05:00",6767.45833,13.07,TRADE
NSW1,"2003/02/12 05:30",7408.58,16.52,TRADE
NSW1,"2003/02/12 06:00",7972.49833,17.3,TRADE
NSW1,"2003/02/12 06:30",8370.49667,18.58,TRADE
NSW1,"2003/02/12 07:00",8849.375,21.31,TRADE
NSW1,"2003/02/12 07:30",9110.67167,19.04,TRADE
NSW1,"2003/02/12 08:00",9329.37667,17.89,TRADE
NSW1,"2003/02/12 08:30",9633.91833,19.32,TRADE
NSW1,"2003/02/12 09:00",9828.09,19.59,TRADE
NSW1,"2003/02/12 09:30",9974.69667,21.48,TRADE
NSW1,"2003/02/12 10:00",10071.925,21.93,TRADE
NSW1,"2003/02/12 10:30",10119.19333,22.64,TRADE
NSW1,"2003/02/12 11:00",10236.83333,27.16,TRADE
NSW1,"2003/02/12 11:30",10288.72667,27.33,TRADE
NSW1,"2003/02/12 12:00",10381.21667,27.72,TRADE
NSW1,"2003/02/12 12:30",10526.19333,27.64,TRADE
NSW1,"2003/02/12 13:00",10648.10833,32.76,TRADE
NSW1,"2003/02/12 13:30",10741.83167,33.1,TRADE
NSW1,"2003/02/12 14:00",10820.21,34.39,TRADE
NSW1,"2003/02/12 14:30",10820.38833,35.74,TRADE
NSW1,"2003/02/12 15:00",10875.32333,38.46,TRADE
NSW1,"2003/02/12 15:30",10879.96,42.11,TRADE
NSW1,"2003/02/12 16:00",10925.02167,43.39,TRADE
NSW1,"2003/02/12 16:30",10868.42333,42.37,TRADE
NSW1,"2003/02/12 17:00",10644.75167,40.99,TRADE
NSW1,"2003/02/12 17:30",10329.66167,31.99,TRADE
NSW1,"2003/02/12 18:00",10095.68333,25.74,TRADE
NSW1,"2003/02/12 18:30",9794.68333,22.29,TRADE
NSW1,"2003/02/12 19:00",9597.665,21.31,TRADE
NSW1,"2003/02/12 19:30",9688.5,24.74,TRADE
NSW1,"2003/02/12 20:00",9639.29333,24.21,TRADE
NSW1,"2003/02/12 20:30",9249.73667,21.79,TRADE
NSW1,"2003/02/12 21:00",8846.42833,18.61,TRADE
NSW1,"2003/02/12 21:30",8795.84167,19.24,TRADE
NSW1,"2003/02/12 22:00",8482.525,17.29,TRADE
NSW1,"2003/02/12 22:30",8452.27167,17.9,TRADE
NSW1,"2003/02/12 23:00",8232.76333,16.94,TRADE
NSW1,"2003/02/12 23:30",7962.57333,18.3,TRADE
NSW1,"2003/02/13 00:00",7696.01333,16.94,TRADE
NSW1,"2003/02/13 00:30",7469.685,15.52,TRADE
NSW1,"2003/02/13 01:00",7187.8,13.87,TRADE
NSW1,"2003/02/13 01:30",6846.575,14.11,TRADE
NSW1,"2003/02/13 02:00",6575.66167,12.07,TRADE
NSW1,"2003/02/13 02:30",6391.13333,10.54,TRADE
NSW1,"2003/02/13 03:00",6291.71667,10.04,TRADE
NSW1,"2003/02/13 03:30",6272.88667,9.46,TRADE
NSW1,"2003/02/13 04:00",6323.82833,9.69,TRADE
NSW1,"2003/02/13 04:30",6517.47333,12.06,TRADE
NSW1,"2003/02/13 05:00",6820.85667,12.82,TRADE
NSW1,"2003/02/13 05:30",7457.06833,17.31,TRADE
NSW1,"2003/02/13 06:00",8004.76833,18.53,TRADE
NSW1,"2003/02/13 06:30",8520.84167,21.53,TRADE
NSW1,"2003/02/13 07:00",8986.125,24.31,TRADE
NSW1,"2003/02/13 07:30",9266.69,20.85,TRADE
NSW1,"2003/02/13 08:00",9447.83833,20.3,TRADE
NSW1,"2003/02/13 08:30",9703.805,20.93,TRADE
NSW1,"2003/02/13 09:00",9868.31167,21.86,TRADE
NSW1,"2003/02/13 09:30",10037.24333,25.71,TRADE
NSW1,"2003/02/13 10:00",10142.885,26.44,TRADE
NSW1,"2003/02/13 10:30",10219.53833,27.13,TRADE
NSW1,"2003/02/13 11:00",10316.43667,27.46,TRADE
NSW1,"2003/02/13 11:30",10345.22333,27.86,TRADE
NSW1,"2003/02/13 12:00",10451.05667,28.1,TRADE
NSW1,"2003/02/13 12:30",10608.11,30.54,TRADE
NSW1,"2003/02/13 13:00",10741.65833,37.87,TRADE
NSW1,"2003/02/13 13:30",10863.61167,43.37,TRADE
NSW1,"2003/02/13 14:00",10906.26,36.22,TRADE
NSW1,"2003/02/13 14:30",10850.72833,35.18,TRADE
NSW1,"2003/02/13 15:00",10984.22,39.8,TRADE
NSW1,"2003/02/13 15:30",11075.71667,52.91,TRADE
NSW1,"2003/02/13 16:00",11114.55333,43.99,TRADE
NSW1,"2003/02/13 16:30",11005.20333,41.3,TRADE
NSW1,"2003/02/13 17:00",10926.29833,42.41,TRADE
NSW1,"2003/02/13 17:30",10651.55333,38.16,TRADE
NSW1,"2003/02/13 18:00",10463.19667,34.36,TRADE
NSW1,"2003/02/13 18:30",10145.75,29.37,TRADE
NSW1,"2003/02/13 19:00",10082.19,32.01,TRADE
NSW1,"2003/02/13 19:30",10145.31333,35.01,TRADE
NSW1,"2003/02/13 20:00",9953.50167,32.86,TRADE
NSW1,"2003/02/13 20:30",9486.67333,27.76,TRADE
NSW1,"2003/02/13 21:00",9015.28833,23.54,TRADE
NSW1,"2003/02/13 21:30",9057.76167,25.31,TRADE
NSW1,"2003/02/13 22:00",8786.97167,21.16,TRADE
NSW1,"2003/02/13 22:30",8718.92333,20.25,TRADE
NSW1,"2003/02/13 23:00",8459.90167,18.83,TRADE
NSW1,"2003/02/13 23:30",8159.72833,23.3,TRADE
NSW1,"2003/02/14 00:00",7881.08,22.11,TRADE
NSW1,"2003/02/14 00:30",7666.62,18.45,TRADE
NSW1,"2003/02/14 01:00",7361.35,16.64,TRADE
NSW1,"2003/02/14 01:30",6966.57167,16.78,TRADE
NSW1,"2003/02/14 02:00",6715.005,14.02,TRADE
NSW1,"2003/02/14 02:30",6480.49,11.86,TRADE
NSW1,"2003/02/14 03:00",6414.72333,11.71,TRADE
NSW1,"2003/02/14 03:30",6354.495,12.28,TRADE
NSW1,"2003/02/14 04:00",6381.16333,10.69,TRADE
NSW1,"2003/02/14 04:30",6594.12667,12.87,TRADE
NSW1,"2003/02/14 05:00",6905.39167,14.5,TRADE
NSW1,"2003/02/14 05:30",7489.87833,17.64,TRADE
NSW1,"2003/02/14 06:00",8044.315,20.48,TRADE
NSW1,"2003/02/14 06:30",8499.17333,24.35,TRADE
NSW1,"2003/02/14 07:00",8975.65,26.2,TRADE
NSW1,"2003/02/14 07:30",9217.545,21.19,TRADE
NSW1,"2003/02/14 08:00",9368.28,19.22,TRADE
NSW1,"2003/02/14 08:30",9610.455,21.8,TRADE
NSW1,"2003/02/14 09:00",9795.82,22.6,TRADE
NSW1,"2003/02/14 09:30",9850.935,22.48,TRADE
NSW1,"2003/02/14 10:00",9863.02833,22.26,TRADE
NSW1,"2003/02/14 10:30",9826.45167,21.73,TRADE
NSW1,"2003/02/14 11:00",9893.02833,23.3,TRADE
NSW1,"2003/02/14 11:30",9861.65833,25.22,TRADE
NSW1,"2003/02/14 12:00",9951.55167,26.43,TRADE
NSW1,"2003/02/14 12:30",10047.995,27.09,TRADE
NSW1,"2003/02/14 13:00",10140.28833,30.11,TRADE
NSW1,"2003/02/14 13:30",10203.46333,35.93,TRADE
NSW1,"2003/02/14 14:00",10194.665,30.06,TRADE
NSW1,"2003/02/14 14:30",10174.665,28.8,TRADE
NSW1,"2003/02/14 15:00",10267.33667,29.4,TRADE
NSW1,"2003/02/14 15:30",10334.57833,35.3,TRADE
NSW1,"2003/02/14 16:00",10329.875,32.37,TRADE
NSW1,"2003/02/14 16:30",10270.62333,28.59,TRADE
NSW1,"2003/02/14 17:00",10022.375,28.78,TRADE
NSW1,"2003/02/14 17:30",9690.18,25.07,TRADE
NSW1,"2003/02/14 18:00",9417.52833,21.52,TRADE
NSW1,"2003/02/14 18:30",9150.98667,19.15,TRADE
NSW1,"2003/02/14 19:00",9035.34667,18.68,TRADE
NSW1,"2003/02/14 19:30",9095.25,21.76,TRADE
NSW1,"2003/02/14 20:00",9060.59333,19.44,TRADE
NSW1,"2003/02/14 20:30",8771.31833,18.71,TRADE
NSW1,"2003/02/14 21:00",8460.23333,17.49,TRADE
NSW1,"2003/02/14 21:30",8579.55,18.85,TRADE
NSW1,"2003/02/14 22:00",8423.50167,17.84,TRADE
NSW1,"2003/02/14 22:30",8514.04667,18.19,TRADE
NSW1,"2003/02/14 23:00",8251.845,18.14,TRADE
NSW1,"2003/02/14 23:30",8018.42167,23.07,TRADE
NSW1,"2003/02/15 00:00",7763.54667,19.98,TRADE
NSW1,"2003/02/15 00:30",7514.62333,17.27,TRADE
NSW1,"2003/02/15 01:00",7141.84667,16.16,TRADE
NSW1,"2003/02/15 01:30",6832.675,15.43,TRADE
NSW1,"2003/02/15 02:00",6517.56333,12.64,TRADE
NSW1,"2003/02/15 02:30",6338.19167,11.96,TRADE
NSW1,"2003/02/15 03:00",6240.53667,10.24,TRADE
NSW1,"2003/02/15 03:30",6163.00833,9.5,TRADE
NSW1,"2003/02/15 04:00",6147.45167,9,TRADE
NSW1,"2003/02/15 04:30",6178.225,9,TRADE
NSW1,"2003/02/15 05:00",6293.29167,10.52,TRADE
NSW1,"2003/02/15 05:30",6503.22333,12.87,TRADE
NSW1,"2003/02/15 06:00",6637.84833,11.54,TRADE
NSW1,"2003/02/15 06:30",6909.27333,13,TRADE
NSW1,"2003/02/15 07:00",7344.95833,15.79,TRADE
NSW1,"2003/02/15 07:30",7778.6,18.55,TRADE
NSW1,"2003/02/15 08:00",8190.04667,21.5,TRADE
NSW1,"2003/02/15 08:30",8511.69833,25.97,TRADE
NSW1,"2003/02/15 09:00",8723.27833,27.28,TRADE
NSW1,"2003/02/15 09:30",8914.65,28.51,TRADE
NSW1,"2003/02/15 10:00",9008.87,31.86,TRADE
NSW1,"2003/02/15 10:30",9082.18667,34.5,TRADE
NSW1,"2003/02/15 11:00",9212.10833,35.99,TRADE
NSW1,"2003/02/15 11:30",9303.64,37.36,TRADE
NSW1,"2003/02/15 12:00",9364.31167,36.92,TRADE
NSW1,"2003/02/15 12:30",9440.62,37.54,TRADE
NSW1,"2003/02/15 13:00",9536.66667,40.63,TRADE
NSW1,"2003/02/15 13:30",9594.98333,40.39,TRADE
NSW1,"2003/02/15 14:00",9614.83667,42.85,TRADE
NSW1,"2003/02/15 14:30",9590.99833,42.76,TRADE
NSW1,"2003/02/15 15:00",9574.85,42.86,TRADE
NSW1,"2003/02/15 15:30",9447.76833,42.67,TRADE
NSW1,"2003/02/15 16:00",9311.065,42.37,TRADE
NSW1,"2003/02/15 16:30",9064.7,35.94,TRADE
NSW1,"2003/02/15 17:00",9015.12833,31.16,TRADE
NSW1,"2003/02/15 17:30",8887.66833,27.44,TRADE
NSW1,"2003/02/15 18:00",8724.815,25.88,TRADE
NSW1,"2003/02/15 18:30",8552.81333,25.51,TRADE
NSW1,"2003/02/15 19:00",8515.54833,26,TRADE
NSW1,"2003/02/15 19:30",8627.42333,26.93,TRADE
NSW1,"2003/02/15 20:00",8536.10167,26.05,TRADE
NSW1,"2003/02/15 20:30",8366.94167,24.24,TRADE
NSW1,"2003/02/15 21:00",8191.505,20.47,TRADE
NSW1,"2003/02/15 21:30",8195.51,23.23,TRADE
NSW1,"2003/02/15 22:00",8061.51333,20.12,TRADE
NSW1,"2003/02/15 22:30",7983.44333,20.3,TRADE
NSW1,"2003/02/15 23:00",7689.12833,18.62,TRADE
NSW1,"2003/02/15 23:30",7473.23333,22.09,TRADE
NSW1,"2003/02/16 00:00",7260.61667,22.59,TRADE
NSW1,"2003/02/16 00:30",7022.04667,20.23,TRADE
NSW1,"2003/02/16 01:00",6811.13,17.59,TRADE
NSW1,"2003/02/16 01:30",6495.51333,15.99,TRADE
NSW1,"2003/02/16 02:00",6246.26167,13.35,TRADE
NSW1,"2003/02/16 02:30",6106.11,12.06,TRADE
NSW1,"2003/02/16 03:00",6070.97833,12.04,TRADE
NSW1,"2003/02/16 03:30",5975.62667,12.29,TRADE
NSW1,"2003/02/16 04:00",6008.81167,11.78,TRADE
NSW1,"2003/02/16 04:30",6043.05167,12.22,TRADE
NSW1,"2003/02/16 05:00",6073.17333,13.84,TRADE
NSW1,"2003/02/16 05:30",6170.08167,10.69,TRADE
NSW1,"2003/02/16 06:00",6276.79,11.35,TRADE
NSW1,"2003/02/16 06:30",6409.305,13.01,TRADE
NSW1,"2003/02/16 07:00",6708.93667,14,TRADE
NSW1,"2003/02/16 07:30",7140.42,15.99,TRADE
NSW1,"2003/02/16 08:00",7449.42667,17.29,TRADE
NSW1,"2003/02/16 08:30",7722.64333,19.03,TRADE
NSW1,"2003/02/16 09:00",7883.64,19.86,TRADE
NSW1,"2003/02/16 09:30",8100.88667,21.65,TRADE
NSW1,"2003/02/16 10:00",8142.25167,21.86,TRADE
NSW1,"2003/02/16 10:30",8252.73333,21.85,TRADE
NSW1,"2003/02/16 11:00",8322.26167,23.4,TRADE
NSW1,"2003/02/16 11:30",8413.80333,24.54,TRADE
NSW1,"2003/02/16 12:00",8420.20333,24.85,TRADE
NSW1,"2003/02/16 12:30",8426.11333,24.8,TRADE
NSW1,"2003/02/16 13:00",8403.57833,24.72,TRADE
NSW1,"2003/02/16 13:30",8445.53,24.83,TRADE
NSW1,"2003/02/16 14:00",8419.835,24.88,TRADE
NSW1,"2003/02/16 14:30",8403.02,24.62,TRADE
NSW1,"2003/02/16 15:00",8471.95833,24.73,TRADE
NSW1,"2003/02/16 15:30",8402.90833,24.34,TRADE
NSW1,"2003/02/16 16:00",8458.80833,25.72,TRADE
NSW1,"2003/02/16 16:30",8362.81833,25,TRADE
NSW1,"2003/02/16 17:00",8479.20333,25.97,TRADE
NSW1,"2003/02/16 17:30",8490.4,25.82,TRADE
NSW1,"2003/02/16 18:00",8513.22,26,TRADE
NSW1,"2003/02/16 18:30",8420.80667,24.61,TRADE
NSW1,"2003/02/16 19:00",8514.32,26.63,TRADE
NSW1,"2003/02/16 19:30",8623.36833,27.22,TRADE
NSW1,"2003/02/16 20:00",8590.97167,26.37,TRADE
NSW1,"2003/02/16 20:30",8358.2,22.92,TRADE
NSW1,"2003/02/16 21:00",8063.065,18.54,TRADE
NSW1,"2003/02/16 21:30",7981.335,18.05,TRADE
NSW1,"2003/02/16 22:00",7821.15,17.07,TRADE
NSW1,"2003/02/16 22:30",7726.07333,17.3,TRADE
NSW1,"2003/02/16 23:00",7439.21667,15.79,TRADE
NSW1,"2003/02/16 23:30",7264.93167,17.04,TRADE
NSW1,"2003/02/17 00:00",7054.34333,15.56,TRADE
NSW1,"2003/02/17 00:30",6923.75833,14.88,TRADE
NSW1,"2003/02/17 01:00",6696.41833,13.15,TRADE
NSW1,"2003/02/17 01:30",6430.94667,12.53,TRADE
NSW1,"2003/02/17 02:00",6277.51667,11.18,TRADE
NSW1,"2003/02/17 02:30",6151.53167,9.69,TRADE
NSW1,"2003/02/17 03:00",6102.38667,8.97,TRADE
NSW1,"2003/02/17 03:30",6113.39167,9.06,TRADE
NSW1,"2003/02/17 04:00",6231.69,9,TRADE
NSW1,"2003/02/17 04:30",6437.88167,10.07,TRADE
NSW1,"2003/02/17 05:00",6748.74167,13.95,TRADE
NSW1,"2003/02/17 05:30",7413.245,16.69,TRADE
NSW1,"2003/02/17 06:00",8020.10833,18.16,TRADE
NSW1,"2003/02/17 06:30",8491.46833,21.28,TRADE
NSW1,"2003/02/17 07:00",9015.33333,24.51,TRADE
NSW1,"2003/02/17 07:30",9297.66,21.48,TRADE
NSW1,"2003/02/17 08:00",9448.14667,19.06,TRADE
NSW1,"2003/02/17 08:30",9719.77167,21.94,TRADE
NSW1,"2003/02/17 09:00",9878.49667,22.63,TRADE
NSW1,"2003/02/17 09:30",9901.90667,23.51,TRADE
NSW1,"2003/02/17 10:00",9993.94,23.61,TRADE
NSW1,"2003/02/17 10:30",9987.84667,22.9,TRADE
NSW1,"2003/02/17 11:00",10061.205,25.27,TRADE
NSW1,"2003/02/17 11:30",10049.57333,25.68,TRADE
NSW1,"2003/02/17 12:00",10041.98333,26.28,TRADE
NSW1,"2003/02/17 12:30",9996.37833,24.76,TRADE
NSW1,"2003/02/17 13:00",9890.99667,23.44,TRADE
NSW1,"2003/02/17 13:30",9884.29667,24.3,TRADE
NSW1,"2003/02/17 14:00",9799.99167,23.56,TRADE
NSW1,"2003/02/17 14:30",9713.48167,23.06,TRADE
NSW1,"2003/02/17 15:00",9663.66,22.59,TRADE
NSW1,"2003/02/17 15:30",9664.08,23.91,TRADE
NSW1,"2003/02/17 16:00",9617.95,25.95,TRADE
NSW1,"2003/02/17 16:30",9558.61167,24.78,TRADE
NSW1,"2003/02/17 17:00",9417.18667,19.98,TRADE
NSW1,"2003/02/17 17:30",9181.37667,17.91,TRADE
NSW1,"2003/02/17 18:00",9031.61667,17.14,TRADE
NSW1,"2003/02/17 18:30",8778.555,16.37,TRADE
NSW1,"2003/02/17 19:00",8714.60833,16.13,TRADE
NSW1,"2003/02/17 19:30",8700.36667,17.44,TRADE
NSW1,"2003/02/17 20:00",8524.88167,17.02,TRADE
NSW1,"2003/02/17 20:30",8246.67833,16.95,TRADE
NSW1,"2003/02/17 21:00",7881.62667,16.1,TRADE
NSW1,"2003/02/17 21:30",7962.64,17.5,TRADE
NSW1,"2003/02/17 22:00",7810.36167,15.85,TRADE
NSW1,"2003/02/17 22:30",7899.49667,16.34,TRADE
NSW1,"2003/02/17 23:00",7787.59167,16.2,TRADE
NSW1,"2003/02/17 23:30",7633.40333,18.29,TRADE
NSW1,"2003/02/18 00:00",7450.09333,16.84,TRADE
NSW1,"2003/02/18 00:30",7211.21167,14.76,TRADE
NSW1,"2003/02/18 01:00",6995.75333,13.36,TRADE
NSW1,"2003/02/18 01:30",6638.9,13.01,TRADE
NSW1,"2003/02/18 02:00",6362.17833,11.46,TRADE
NSW1,"2003/02/18 02:30",6162.875,9.02,TRADE
NSW1,"2003/02/18 03:00",6024.47167,8.92,TRADE
NSW1,"2003/02/18 03:30",6028.85667,9.03,TRADE
NSW1,"2003/02/18 04:00",6111.87,9,TRADE
NSW1,"2003/02/18 04:30",6311.175,9.64,TRADE
NSW1,"2003/02/18 05:00",6611.26,13.88,TRADE
NSW1,"2003/02/18 05:30",7222.655,16.7,TRADE
NSW1,"2003/02/18 06:00",7830.45667,18.61,TRADE
NSW1,"2003/02/18 06:30",8219.94833,21.28,TRADE
NSW1,"2003/02/18 07:00",8628.24833,23.13,TRADE
NSW1,"2003/02/18 07:30",8766.435,19.17,TRADE
NSW1,"2003/02/18 08:00",8912.30667,19.34,TRADE
NSW1,"2003/02/18 08:30",9100.56667,19.16,TRADE
NSW1,"2003/02/18 09:00",9194.94333,19.15,TRADE
NSW1,"2003/02/18 09:30",9283.77833,20.28,TRADE
NSW1,"2003/02/18 10:00",9362.24667,21.4,TRADE
NSW1,"2003/02/18 10:30",9376.41167,19.83,TRADE
NSW1,"2003/02/18 11:00",9427.46833,21.07,TRADE
NSW1,"2003/02/18 11:30",9405.03667,21.22,TRADE
NSW1,"2003/02/18 12:00",9431.44667,21.25,TRADE
NSW1,"2003/02/18 12:30",9450.56333,21.19,TRADE
NSW1,"2003/02/18 13:00",9436.71,21.64,TRADE
NSW1,"2003/02/18 13:30",9539.12333,23.34,TRADE
NSW1,"2003/02/18 14:00",9439.55833,22.43,TRADE
NSW1,"2003/02/18 14:30",9519.7,22.86,TRADE
NSW1,"2003/02/18 15:00",9555.88833,22.49,TRADE
NSW1,"2003/02/18 15:30",9572.55,22.26,TRADE
NSW1,"2003/02/18 16:00",9581.00333,22.52,TRADE
NSW1,"2003/02/18 16:30",9481.64,21.77,TRADE
NSW1,"2003/02/18 17:00",9421.84333,20.23,TRADE
NSW1,"2003/02/18 17:30",9119.015,17.65,TRADE
NSW1,"2003/02/18 18:00",8903.60667,16.65,TRADE
NSW1,"2003/02/18 18:30",8654.43667,16.28,TRADE
NSW1,"2003/02/18 19:00",8685.32167,16.87,TRADE
NSW1,"2003/02/18 19:30",8798.79167,19.08,TRADE
NSW1,"2003/02/18 20:00",8723.835,18.58,TRADE
NSW1,"2003/02/18 20:30",8409.17167,18.09,TRADE
NSW1,"2003/02/18 21:00",8117.69,16.84,TRADE
NSW1,"2003/02/18 21:30",8174.46333,18.06,TRADE
NSW1,"2003/02/18 22:00",8010.80333,16.27,TRADE
NSW1,"2003/02/18 22:30",8073.33333,17.07,TRADE
NSW1,"2003/02/18 23:00",7920.815,17.48,TRADE
NSW1,"2003/02/18 23:30",7765.56833,20.8,TRADE
NSW1,"2003/02/19 00:00",7563.46167,19.99,TRADE
NSW1,"2003/02/19 00:30",7377.475,18.28,TRADE
NSW1,"2003/02/19 01:00",7092.62167,16.95,TRADE
NSW1,"2003/02/19 01:30",6731.83167,17.07,TRADE
NSW1,"2003/02/19 02:00",6406.285,12.58,TRADE
NSW1,"2003/02/19 02:30",6197.07,11.05,TRADE
NSW1,"2003/02/19 03:00",6190.13667,9.25,TRADE
NSW1,"2003/02/19 03:30",6168.34833,10.94,TRADE
NSW1,"2003/02/19 04:00",6204.94333,9.75,TRADE
NSW1,"2003/02/19 04:30",6411.17333,11.65,TRADE
NSW1,"2003/02/19 05:00",6724.61,13.43,TRADE
NSW1,"2003/02/19 05:30",7322.865,15.41,TRADE
NSW1,"2003/02/19 06:00",7945.46833,15.81,TRADE
NSW1,"2003/02/19 06:30",8434.27,17.77,TRADE
NSW1,"2003/02/19 07:00",8845.75667,20.7,TRADE
NSW1,"2003/02/19 07:30",8992.05167,18.51,TRADE
NSW1,"2003/02/19 08:00",9110.29,17.14,TRADE
NSW1,"2003/02/19 08:30",9318.37167,16.45,TRADE
NSW1,"2003/02/19 09:00",9440.115,16.54,TRADE
NSW1,"2003/02/19 09:30",9486.01333,16.54,TRADE
NSW1,"2003/02/19 10:00",9538.50333,16.89,TRADE
NSW1,"2003/02/19 10:30",9550.71667,16.31,TRADE
NSW1,"2003/02/19 11:00",9613.54667,17.08,TRADE
NSW1,"2003/02/19 11:30",9604.41333,17.02,TRADE
NSW1,"2003/02/19 12:00",9619.8,17.86,TRADE
NSW1,"2003/02/19 12:30",9480.52833,16.8,TRADE
NSW1,"2003/02/19 13:00",9569.38,18.04,TRADE
NSW1,"2003/02/19 13:30",9775.97667,19.6,TRADE
NSW1,"2003/02/19 14:00",9724.92,19.4,TRADE
NSW1,"2003/02/19 14:30",9691.03667,18.82,TRADE
NSW1,"2003/02/19 15:00",9727.31667,18.54,TRADE
NSW1,"2003/02/19 15:30",9731.81667,18.82,TRADE
NSW1,"2003/02/19 16:00",9732.13667,18.12,TRADE
NSW1,"2003/02/19 16:30",9586.23833,17.36,TRADE
NSW1,"2003/02/19 17:00",9469.775,16.25,TRADE
NSW1,"2003/02/19 17:30",9177.17833,15.83,TRADE
NSW1,"2003/02/19 18:00",8948.14167,15.92,TRADE
NSW1,"2003/02/19 18:30",8741.18833,16.05,TRADE
NSW1,"2003/02/19 19:00",8748.03667,16.06,TRADE
NSW1,"2003/02/19 19:30",8844.185,16.17,TRADE
NSW1,"2003/02/19 20:00",8770.77333,16.17,TRADE
NSW1,"2003/02/19 20:30",8412.30833,15.53,TRADE
NSW1,"2003/02/19 21:00",8105.58667,14.83,TRADE
NSW1,"2003/02/19 21:30",8157.65833,15.28,TRADE
NSW1,"2003/02/19 22:00",8049.15167,13.6,TRADE
NSW1,"2003/02/19 22:30",8151.05333,15.19,TRADE
NSW1,"2003/02/19 23:00",7972.42333,14.94,TRADE
NSW1,"2003/02/19 23:30",7801.885,16.24,TRADE
NSW1,"2003/02/20 00:00",7591.64667,14.94,TRADE
NSW1,"2003/02/20 00:30",7407.27833,14.92,TRADE
NSW1,"2003/02/20 01:00",7118.78167,13.55,TRADE
NSW1,"2003/02/20 01:30",6772.98333,13.27,TRADE
NSW1,"2003/02/20 02:00",6454.06,10.84,TRADE
NSW1,"2003/02/20 02:30",6284.91667,9.24,TRADE
NSW1,"2003/02/20 03:00",6194.29667,9,TRADE
NSW1,"2003/02/20 03:30",6140.13667,8.98,TRADE
NSW1,"2003/02/20 04:00",6195.44,9,TRADE
NSW1,"2003/02/20 04:30",6459.96167,9.95,TRADE
NSW1,"2003/02/20 05:00",6761.03,11.53,TRADE
NSW1,"2003/02/20 05:30",7396.235,15.76,TRADE
NSW1,"2003/02/20 06:00",8016.33,16.97,TRADE
NSW1,"2003/02/20 06:30",8473.92833,18.38,TRADE
NSW1,"2003/02/20 07:00",8932.27833,20.9,TRADE
NSW1,"2003/02/20 07:30",9092.36167,18.35,TRADE
NSW1,"2003/02/20 08:00",9210.84667,16.55,TRADE
NSW1,"2003/02/20 08:30",9466.44833,17.06,TRADE
NSW1,"2003/02/20 09:00",9593.16833,16.43,TRADE
NSW1,"2003/02/20 09:30",9658.88333,17.35,TRADE
NSW1,"2003/02/20 10:00",9693.32,17.51,TRADE
NSW1,"2003/02/20 10:30",9678.07167,16.57,TRADE
NSW1,"2003/02/20 11:00",9664.47167,17.13,TRADE
NSW1,"2003/02/20 11:30",9738.12667,17.56,TRADE
NSW1,"2003/02/20 12:00",9707.1,17.56,TRADE
NSW1,"2003/02/20 12:30",9777.72667,18.22,TRADE
NSW1,"2003/02/20 13:00",9797.53833,19.31,TRADE
NSW1,"2003/02/20 13:30",9831.72,20.34,TRADE
NSW1,"2003/02/20 14:00",9756.91667,20.03,TRADE
NSW1,"2003/02/20 14:30",9676.28167,18.67,TRADE
NSW1,"2003/02/20 15:00",9674.05333,18.09,TRADE
NSW1,"2003/02/20 15:30",9660.96,18.04,TRADE
NSW1,"2003/02/20 16:00",9590.37333,17.46,TRADE
NSW1,"2003/02/20 16:30",9492.26667,16.69,TRADE
NSW1,"2003/02/20 17:00",9485.7,16.2,TRADE
NSW1,"2003/02/20 17:30",9212.26333,15.75,TRADE
NSW1,"2003/02/20 18:00",9082.85333,16.14,TRADE
NSW1,"2003/02/20 18:30",8920.315,16.2,TRADE
NSW1,"2003/02/20 19:00",9016.14333,16.2,TRADE
NSW1,"2003/02/20 19:30",9052.49833,16.2,TRADE
NSW1,"2003/02/20 20:00",8938.18167,16.17,TRADE
NSW1,"2003/02/20 20:30",8528.31833,15.56,TRADE
NSW1,"2003/02/20 21:00",8263.195,14.92,TRADE
NSW1,"2003/02/20 21:30",8358.65667,15.61,TRADE
NSW1,"2003/02/20 22:00",8205.39,13.86,TRADE
NSW1,"2003/02/20 22:30",8221.64167,15.35,TRADE
NSW1,"2003/02/20 23:00",8050.08667,14.94,TRADE
NSW1,"2003/02/20 23:30",7809.39333,16.1,TRADE
NSW1,"2003/02/21 00:00",7636.245,15.84,TRADE
NSW1,"2003/02/21 00:30",7447.76833,14.63,TRADE
NSW1,"2003/02/21 01:00",7173.48333,13.49,TRADE
NSW1,"2003/02/21 01:30",6810.52167,14.17,TRADE
NSW1,"2003/02/21 02:00",6546.045,11.39,TRADE
NSW1,"2003/02/21 02:30",6340.19167,9.73,TRADE
NSW1,"2003/02/21 03:00",6265.01,9.07,TRADE
NSW1,"2003/02/21 03:30",6236.83667,9,TRADE
NSW1,"2003/02/21 04:00",6275.52,9,TRADE
NSW1,"2003/02/21 04:30",6490.025,9.36,TRADE
NSW1,"2003/02/21 05:00",6770.715,11.17,TRADE
NSW1,"2003/02/21 05:30",7366.40833,14.45,TRADE
NSW1,"2003/02/21 06:00",8006.49833,15.08,TRADE
NSW1,"2003/02/21 06:30",8495.00833,18.69,TRADE
NSW1,"2003/02/21 07:00",8915.25833,21.13,TRADE
NSW1,"2003/02/21 07:30",9125.94667,19.34,TRADE
NSW1,"2003/02/21 08:00",9133.185,16.26,TRADE
NSW1,"2003/02/21 08:30",9396.80833,16.52,TRADE
NSW1,"2003/02/21 09:00",9509.17667,16.84,TRADE
NSW1,"2003/02/21 09:30",9591.75,16.83,TRADE
NSW1,"2003/02/21 10:00",9573.825,16.21,TRADE
NSW1,"2003/02/21 10:30",9534.83,16.36,TRADE
NSW1,"2003/02/21 11:00",9493.09,16.28,TRADE
NSW1,"2003/02/21 11:30",9411.23167,17.48,TRADE
NSW1,"2003/02/21 12:00",9353.82333,17.09,TRADE
NSW1,"2003/02/21 12:30",9260.465,16.99,TRADE
NSW1,"2003/02/21 13:00",9196.99167,16.75,TRADE
NSW1,"2003/02/21 13:30",9182.08333,16.56,TRADE
NSW1,"2003/02/21 14:00",9093.56333,16.2,TRADE
NSW1,"2003/02/21 14:30",9003.76667,16.18,TRADE
NSW1,"2003/02/21 15:00",9046.33333,16.17,TRADE
NSW1,"2003/02/21 15:30",9064.625,16.2,TRADE
NSW1,"2003/02/21 16:00",9093.08,16.2,TRADE
NSW1,"2003/02/21 16:30",8978.26667,16.2,TRADE
NSW1,"2003/02/21 17:00",8869.67167,16.17,TRADE
NSW1,"2003/02/21 17:30",8658.88667,15.95,TRADE
NSW1,"2003/02/21 18:00",8551.14667,16.15,TRADE
NSW1,"2003/02/21 18:30",8352.71667,15.62,TRADE
NSW1,"2003/02/21 19:00",8262.555,15,TRADE
NSW1,"2003/02/21 19:30",8172.225,15.1,TRADE
NSW1,"2003/02/21 20:00",8106.70667,14.74,TRADE
NSW1,"2003/02/21 20:30",7873.34833,14.3,TRADE
NSW1,"2003/02/21 21:00",7602.74,11.98,TRADE
NSW1,"2003/02/21 21:30",7911.485,15.16,TRADE
NSW1,"2003/02/21 22:00",7825.49667,13.54,TRADE
NSW1,"2003/02/21 22:30",8030.08,15.74,TRADE
NSW1,"2003/02/21 23:00",7859.63,15.02,TRADE
NSW1,"2003/02/21 23:30",7700.84667,16.36,TRADE
NSW1,"2003/02/22 00:00",7492.79167,14.93,TRADE
NSW1,"2003/02/22 00:30",7202.55833,13.44,TRADE
NSW1,"2003/02/22 01:00",6956.67667,13.45,TRADE
NSW1,"2003/02/22 01:30",6619.00167,14.12,TRADE
NSW1,"2003/02/22 02:00",6317.49833,10.63,TRADE
NSW1,"2003/02/22 02:30",6103.64833,9.09,TRADE
NSW1,"2003/02/22 03:00",5938.22,8.92,TRADE
NSW1,"2003/02/22 03:30",5874.99667,8.9,TRADE
NSW1,"2003/02/22 04:00",5894.26333,8.9,TRADE
NSW1,"2003/02/22 04:30",5932.74833,9,TRADE
NSW1,"2003/02/22 05:00",6066.43167,8.84,TRADE
NSW1,"2003/02/22 05:30",6266.565,10.08,TRADE
NSW1,"2003/02/22 06:00",6493.055,10.81,TRADE
NSW1,"2003/02/22 06:30",6713.44333,11.81,TRADE
NSW1,"2003/02/22 07:00",7160.93,15.04,TRADE
NSW1,"2003/02/22 07:30",7586.255,14.4,TRADE
NSW1,"2003/02/22 08:00",7956.52167,16.06,TRADE
NSW1,"2003/02/22 08:30",8320.51,18.13,TRADE
NSW1,"2003/02/22 09:00",8434.955,19.21,TRADE
NSW1,"2003/02/22 09:30",8547.52,21,TRADE
NSW1,"2003/02/22 10:00",8498.455,20.53,TRADE
NSW1,"2003/02/22 10:30",8499.82333,20.72,TRADE
NSW1,"2003/02/22 11:00",8491.215,20.16,TRADE
NSW1,"2003/02/22 11:30",8455.63,20.93,TRADE
NSW1,"2003/02/22 12:00",8385.98667,19.13,TRADE
NSW1,"2003/02/22 12:30",8343.955,17.66,TRADE
NSW1,"2003/02/22 13:00",8238.46333,17.22,TRADE
NSW1,"2003/02/22 13:30",8172.07167,16.54,TRADE
NSW1,"2003/02/22 14:00",8119.32167,16.17,TRADE
NSW1,"2003/02/22 14:30",8100.42,16.2,TRADE
NSW1,"2003/02/22 15:00",8139.185,16.32,TRADE
NSW1,"2003/02/22 15:30",8115.145,16.64,TRADE
NSW1,"2003/02/22 16:00",8183.2,17.38,TRADE
NSW1,"2003/02/22 16:30",8040.41833,16.2,TRADE
NSW1,"2003/02/22 17:00",8128.72333,16.35,TRADE
NSW1,"2003/02/22 17:30",8143.305,16.01,TRADE
NSW1,"2003/02/22 18:00",8166.02667,16.17,TRADE
NSW1,"2003/02/22 18:30",8067.28,16.2,TRADE
NSW1,"2003/02/22 19:00",8037.83,16.17,TRADE
NSW1,"2003/02/22 19:30",8067.49833,16.05,TRADE
NSW1,"2003/02/22 20:00",7972.01667,15.74,TRADE
NSW1,"2003/02/22 20:30",7811.00667,14.35,TRADE
NSW1,"2003/02/22 21:00",7657.54667,13.23,TRADE
NSW1,"2003/02/22 21:30",7711.75667,13.55,TRADE
NSW1,"2003/02/22 22:00",7663.375,12.29,TRADE
NSW1,"2003/02/22 22:30",7704,12.1,TRADE
NSW1,"2003/02/22 23:00",7471.14333,11.16,TRADE
NSW1,"2003/02/22 23:30",7235.99333,12.19,TRADE
NSW1,"2003/02/23 00:00",7053.17833,12.14,TRADE
NSW1,"2003/02/23 00:30",6799.46333,10.59,TRADE
NSW1,"2003/02/23 01:00",6593.205,10.57,TRADE
NSW1,"2003/02/23 01:30",6327.19333,10.83,TRADE
NSW1,"2003/02/23 02:00",6069.56833,9.2,TRADE
NSW1,"2003/02/23 02:30",5908.575,8.68,TRADE
NSW1,"2003/02/23 03:00",5800.11667,5.91,TRADE
NSW1,"2003/02/23 03:30",5719.40333,3.49,TRADE
NSW1,"2003/02/23 04:00",5752.23333,4.44,TRADE
NSW1,"2003/02/23 04:30",5786.30167,3.93,TRADE
NSW1,"2003/02/23 05:00",5902.27667,4.55,TRADE
NSW1,"2003/02/23 05:30",5986.10167,5.76,TRADE
NSW1,"2003/02/23 06:00",6073.73667,4.9,TRADE
NSW1,"2003/02/23 06:30",6181.03167,8.84,TRADE
NSW1,"2003/02/23 07:00",6494.38,8.88,TRADE
NSW1,"2003/02/23 07:30",6898.61667,9.66,TRADE
NSW1,"2003/02/23 08:00",7301.10333,11.05,TRADE
NSW1,"2003/02/23 08:30",7604.71333,15.05,TRADE
NSW1,"2003/02/23 09:00",7822.19167,15.9,TRADE
NSW1,"2003/02/23 09:30",8023.65667,17.5,TRADE
NSW1,"2003/02/23 10:00",8071.25333,17.96,TRADE
NSW1,"2003/02/23 10:30",8096.16833,18.73,TRADE
NSW1,"2003/02/23 11:00",8132.36167,19.3,TRADE
NSW1,"2003/02/23 11:30",8098.87667,21.15,TRADE
NSW1,"2003/02/23 12:00",8063.10333,23.23,TRADE
NSW1,"2003/02/23 12:30",8028.24333,20.97,TRADE
NSW1,"2003/02/23 13:00",7974.08167,19.98,TRADE
NSW1,"2003/02/23 13:30",7916.28167,21.4,TRADE
NSW1,"2003/02/23 14:00",7831.92167,24.02,TRADE
NSW1,"2003/02/23 14:30",7831.69167,22.88,TRADE
NSW1,"2003/02/23 15:00",7842.23833,22,TRADE
NSW1,"2003/02/23 15:30",7833.29833,22.13,TRADE
NSW1,"2003/02/23 16:00",7856.77,23.34,TRADE
NSW1,"2003/02/23 16:30",7774.17333,24.2,TRADE
NSW1,"2003/02/23 17:00",7855.785,25.23,TRADE
NSW1,"2003/02/23 17:30",7891.35667,27,TRADE
NSW1,"2003/02/23 18:00",7959.98833,27.26,TRADE
NSW1,"2003/02/23 18:30",7849.055,26.62,TRADE
NSW1,"2003/02/23 19:00",7877.55333,26.72,TRADE
NSW1,"2003/02/23 19:30",7978.23333,26.13,TRADE
NSW1,"2003/02/23 20:00",7975.47833,26.54,TRADE
NSW1,"2003/02/23 20:30",7773.85333,25.67,TRADE
NSW1,"2003/02/23 21:00",7566.275,19,TRADE
NSW1,"2003/02/23 21:30",7531.25167,18.32,TRADE
NSW1,"2003/02/23 22:00",7485.97667,15.43,TRADE
NSW1,"2003/02/23 22:30",7442.28,15.12,TRADE
NSW1,"2003/02/23 23:00",7173.45333,14.61,TRADE
NSW1,"2003/02/23 23:30",6976.47333,15.98,TRADE
NSW1,"2003/02/24 00:00",6794.44667,15.54,TRADE
NSW1,"2003/02/24 00:30",6685.27833,15,TRADE
NSW1,"2003/02/24 01:00",6514.515,13.19,TRADE
NSW1,"2003/02/24 01:30",6247.495,14.38,TRADE
NSW1,"2003/02/24 02:00",6009.89167,12.31,TRADE
NSW1,"2003/02/24 02:30",5940.87333,10.5,TRADE
NSW1,"2003/02/24 03:00",5890.63667,9.05,TRADE
NSW1,"2003/02/24 03:30",5905.40167,9,TRADE
NSW1,"2003/02/24 04:00",5968.52167,9.02,TRADE
NSW1,"2003/02/24 04:30",6223.21167,11.1,TRADE
NSW1,"2003/02/24 05:00",6471.405,12.32,TRADE
NSW1,"2003/02/24 05:30",7157.67667,14.97,TRADE
NSW1,"2003/02/24 06:00",7743.12,16.57,TRADE
NSW1,"2003/02/24 06:30",8119.46667,19.78,TRADE
NSW1,"2003/02/24 07:00",8591.78,21.35,TRADE
NSW1,"2003/02/24 07:30",8793.64667,20.3,TRADE
NSW1,"2003/02/24 08:00",8963.43833,20.25,TRADE
NSW1,"2003/02/24 08:30",9231.59333,21.79,TRADE
NSW1,"2003/02/24 09:00",9382.68,23.58,TRADE
NSW1,"2003/02/24 09:30",9546.10333,23.36,TRADE
NSW1,"2003/02/24 10:00",9582.425,22.47,TRADE
NSW1,"2003/02/24 10:30",9591.63833,21.22,TRADE
NSW1,"2003/02/24 11:00",9629.73333,21.05,TRADE
NSW1,"2003/02/24 11:30",9593.00667,26.81,TRADE
NSW1,"2003/02/24 12:00",9610.295,31,TRADE
NSW1,"2003/02/24 12:30",9648.415,29.59,TRADE
NSW1,"2003/02/24 13:00",9678.14667,37.4,TRADE
NSW1,"2003/02/24 13:30",9633.97,36,TRADE
NSW1,"2003/02/24 14:00",9603.49667,36.82,TRADE
NSW1,"2003/02/24 14:30",9643.58,28.08,TRADE
NSW1,"2003/02/24 15:00",9653.455,26.2,TRADE
NSW1,"2003/02/24 15:30",9675.95,26.53,TRADE
NSW1,"2003/02/24 16:00",9676.67,26.17,TRADE
NSW1,"2003/02/24 16:30",9592.04333,25.84,TRADE
NSW1,"2003/02/24 17:00",9533.19167,25.64,TRADE
NSW1,"2003/02/24 17:30",9256.84667,26.05,TRADE
NSW1,"2003/02/24 18:00",9044.48,24.35,TRADE
NSW1,"2003/02/24 18:30",8781.93167,20.85,TRADE
NSW1,"2003/02/24 19:00",8718.46333,22.48,TRADE
NSW1,"2003/02/24 19:30",8827.89833,25.13,TRADE
NSW1,"2003/02/24 20:00",8733.825,22.79,TRADE
NSW1,"2003/02/24 20:30",8431.565,20.22,TRADE
NSW1,"2003/02/24 21:00",8146.22,18.62,TRADE
NSW1,"2003/02/24 21:30",8213.60667,18.83,TRADE
NSW1,"2003/02/24 22:00",8076.92833,16.54,TRADE
NSW1,"2003/02/24 22:30",8109.02833,15.57,TRADE
NSW1,"2003/02/24 23:00",7926.31167,14.91,TRADE
NSW1,"2003/02/24 23:30",7757.60333,16.13,TRADE
NSW1,"2003/02/25 00:00",7535.41833,14.01,TRADE
NSW1,"2003/02/25 00:30",7361.815,11.63,TRADE
NSW1,"2003/02/25 01:00",7119.095,11.46,TRADE
NSW1,"2003/02/25 01:30",6752.17333,13.51,TRADE
NSW1,"2003/02/25 02:00",6454.76333,10.83,TRADE
NSW1,"2003/02/25 02:30",6244.75333,9.25,TRADE
NSW1,"2003/02/25 03:00",6119.885,8.95,TRADE
NSW1,"2003/02/25 03:30",6098.395,8.87,TRADE
NSW1,"2003/02/25 04:00",6120.19333,8.9,TRADE
NSW1,"2003/02/25 04:30",6362.49333,8.95,TRADE
NSW1,"2003/02/25 05:00",6651.615,11.07,TRADE
NSW1,"2003/02/25 05:30",7303.12167,14.9,TRADE
NSW1,"2003/02/25 06:00",7916.09333,15.57,TRADE
NSW1,"2003/02/25 06:30",8305.435,18.01,TRADE
NSW1,"2003/02/25 07:00",8710.52833,19.82,TRADE
NSW1,"2003/02/25 07:30",8893.84167,16.89,TRADE
NSW1,"2003/02/25 08:00",9009.14333,17.1,TRADE
NSW1,"2003/02/25 08:30",9302.70667,17.53,TRADE
NSW1,"2003/02/25 09:00",9487.58,18.55,TRADE
NSW1,"2003/02/25 09:30",9590.13333,19.82,TRADE
NSW1,"2003/02/25 10:00",9668.52667,20.41,TRADE
NSW1,"2003/02/25 10:30",9489.82,19.27,TRADE
NSW1,"2003/02/25 11:00",9625.99333,20.31,TRADE
NSW1,"2003/02/25 11:30",9751.44667,22.89,TRADE
NSW1,"2003/02/25 12:00",9775.97667,25.36,TRADE
NSW1,"2003/02/25 12:30",9840.10167,26.61,TRADE
NSW1,"2003/02/25 13:00",9872.035,27,TRADE
NSW1,"2003/02/25 13:30",9896.40667,27.28,TRADE
NSW1,"2003/02/25 14:00",9877.505,26.34,TRADE
NSW1,"2003/02/25 14:30",9874.8,26.06,TRADE
NSW1,"2003/02/25 15:00",9943.70833,26,TRADE
NSW1,"2003/02/25 15:30",9928.44667,25.92,TRADE
NSW1,"2003/02/25 16:00",9988.81667,25.94,TRADE
NSW1,"2003/02/25 16:30",9885.705,24.82,TRADE
NSW1,"2003/02/25 17:00",9755.77333,22.63,TRADE
NSW1,"2003/02/25 17:30",9386.56333,20.61,TRADE
NSW1,"2003/02/25 18:00",9207.00833,18.9,TRADE
NSW1,"2003/02/25 18:30",8933.74833,17.07,TRADE
NSW1,"2003/02/25 19:00",8885.27167,16.38,TRADE
NSW1,"2003/02/25 19:30",9011.75,17.61,TRADE
NSW1,"2003/02/25 20:00",8876.535,16.73,TRADE
NSW1,"2003/02/25 20:30",8531.96833,16.06,TRADE
NSW1,"2003/02/25 21:00",8330.70167,15.91,TRADE
NSW1,"2003/02/25 21:30",8401.55,16.02,TRADE
NSW1,"2003/02/25 22:00",8242.92,13.03,TRADE
NSW1,"2003/02/25 22:30",8200.29833,15.37,TRADE
NSW1,"2003/02/25 23:00",7981.18667,13.25,TRADE
NSW1,"2003/02/25 23:30",7780.18667,13.55,TRADE
NSW1,"2003/02/26 00:00",7608.38667,11.64,TRADE
NSW1,"2003/02/26 00:30",7394.86333,11.01,TRADE
NSW1,"2003/02/26 01:00",7121.24667,10.99,TRADE
NSW1,"2003/02/26 01:30",6791.50667,13.15,TRADE
NSW1,"2003/02/26 02:00",6521.58833,10.35,TRADE
NSW1,"2003/02/26 02:30",6250.81667,9,TRADE
NSW1,"2003/02/26 03:00",6137.35,8.64,TRADE
NSW1,"2003/02/26 03:30",6105.94833,8.45,TRADE
NSW1,"2003/02/26 04:00",6176.67833,8.56,TRADE
NSW1,"2003/02/26 04:30",6416.72167,9,TRADE
NSW1,"2003/02/26 05:00",6717.08333,10.86,TRADE
NSW1,"2003/02/26 05:30",7353.37667,14.73,TRADE
NSW1,"2003/02/26 06:00",7898.73333,15.71,TRADE
NSW1,"2003/02/26 06:30",8349.17,17.8,TRADE
NSW1,"2003/02/26 07:00",8732.13667,20.4,TRADE
NSW1,"2003/02/26 07:30",8943.29833,17.53,TRADE
NSW1,"2003/02/26 08:00",9112.62333,17.05,TRADE
NSW1,"2003/02/26 08:30",9295.08667,17.07,TRADE
NSW1,"2003/02/26 09:00",9429.58833,17.75,TRADE
NSW1,"2003/02/26 09:30",9479.33333,18.13,TRADE
NSW1,"2003/02/26 10:00",9529.90167,18.39,TRADE
NSW1,"2003/02/26 10:30",9547.72833,18.82,TRADE
NSW1,"2003/02/26 11:00",9608.96667,19.53,TRADE
NSW1,"2003/02/26 11:30",9588.81833,20.59,TRADE
NSW1,"2003/02/26 12:00",9603.65833,20.87,TRADE
NSW1,"2003/02/26 12:30",9595.53,20.95,TRADE
NSW1,"2003/02/26 13:00",9663.42167,21.16,TRADE
NSW1,"2003/02/26 13:30",9663.07167,21.08,TRADE
NSW1,"2003/02/26 14:00",9636.11667,20.88,TRADE
NSW1,"2003/02/26 14:30",9678.8,20.9,TRADE
NSW1,"2003/02/26 15:00",9733.56333,21.25,TRADE
NSW1,"2003/02/26 15:30",9773.47167,22.07,TRADE
NSW1,"2003/02/26 16:00",9826.37667,24.68,TRADE
NSW1,"2003/02/26 16:30",9701.05167,22.51,TRADE
NSW1,"2003/02/26 17:00",9636.03,21.25,TRADE
NSW1,"2003/02/26 17:30",9320.29333,20.47,TRADE
NSW1,"2003/02/26 18:00",9139.86667,18.56,TRADE
NSW1,"2003/02/26 18:30",8860.53667,16.61,TRADE
NSW1,"2003/02/26 19:00",8862.81833,16.67,TRADE
NSW1,"2003/02/26 19:30",8977.33,17.33,TRADE
NSW1,"2003/02/26 20:00",8845.62833,16.77,TRADE
NSW1,"2003/02/26 20:30",8510.8,16.41,TRADE
NSW1,"2003/02/26 21:00",8284.92667,15.85,TRADE
NSW1,"2003/02/26 21:30",8339.665,15.67,TRADE
NSW1,"2003/02/26 22:00",8195.285,13.85,TRADE
NSW1,"2003/02/26 22:30",8185.09333,15.04,TRADE
NSW1,"2003/02/26 23:00",7964.61,13.32,TRADE
NSW1,"2003/02/26 23:30",7781.95,13.18,TRADE
NSW1,"2003/02/27 00:00",7561.565,11.18,TRADE
NSW1,"2003/02/27 00:30",7382.29833,10.24,TRADE
NSW1,"2003/02/27 01:00",7076.16,10.33,TRADE
NSW1,"2003/02/27 01:30",6701.285,11.2,TRADE
NSW1,"2003/02/27 02:00",6440.85667,9.25,TRADE
NSW1,"2003/02/27 02:30",6250.16333,8.85,TRADE
NSW1,"2003/02/27 03:00",6149.69333,7.46,TRADE
NSW1,"2003/02/27 03:30",6100.93,4.91,TRADE
NSW1,"2003/02/27 04:00",6181.35167,6.99,TRADE
NSW1,"2003/02/27 04:30",6378.985,8.87,TRADE
NSW1,"2003/02/27 05:00",6674.87667,9.87,TRADE
NSW1,"2003/02/27 05:30",7309.905,13.99,TRADE
NSW1,"2003/02/27 06:00",7892.775,16.68,TRADE
NSW1,"2003/02/27 06:30",8346.115,18.84,TRADE
NSW1,"2003/02/27 07:00",8779,20.56,TRADE
NSW1,"2003/02/27 07:30",8892.43,17.45,TRADE
NSW1,"2003/02/27 08:00",9063.70667,18.42,TRADE
NSW1,"2003/02/27 08:30",9311.10167,18.98,TRADE
NSW1,"2003/02/27 09:00",9425.77333,19.77,TRADE
NSW1,"2003/02/27 09:30",9573.415,20.95,TRADE
NSW1,"2003/02/27 10:00",9633.85667,21.45,TRADE
NSW1,"2003/02/27 10:30",9641.70667,20.36,TRADE
NSW1,"2003/02/27 11:00",9743.705,20.72,TRADE
NSW1,"2003/02/27 11:30",9738.66333,21.76,TRADE
NSW1,"2003/02/27 12:00",9754.105,23.42,TRADE
NSW1,"2003/02/27 12:30",9763.135,25.75,TRADE
NSW1,"2003/02/27 13:00",9885.78667,26.44,TRADE
NSW1,"2003/02/27 13:30",9956.40667,26.88,TRADE
NSW1,"2003/02/27 14:00",9937.115,26.66,TRADE
NSW1,"2003/02/27 14:30",9955.13167,25.61,TRADE
NSW1,"2003/02/27 15:00",10075.92167,22.69,TRADE
NSW1,"2003/02/27 15:30",10078.78667,24.57,TRADE
NSW1,"2003/02/27 16:00",10113.98167,24.72,TRADE
NSW1,"2003/02/27 16:30",10020.40167,21.29,TRADE
NSW1,"2003/02/27 17:00",9974.425,21.63,TRADE
NSW1,"2003/02/27 17:30",9695.06333,20.56,TRADE
NSW1,"2003/02/27 18:00",9459.25167,18.22,TRADE
NSW1,"2003/02/27 18:30",9221.3,16.64,TRADE
NSW1,"2003/02/27 19:00",9231.00833,17.69,TRADE
NSW1,"2003/02/27 19:30",9272.345,20.55,TRADE
NSW1,"2003/02/27 20:00",9143.49167,21.53,TRADE
NSW1,"2003/02/27 20:30",8760.71167,20.87,TRADE
NSW1,"2003/02/27 21:00",8464.89667,18.27,TRADE
NSW1,"2003/02/27 21:30",8500.95333,17.81,TRADE
NSW1,"2003/02/27 22:00",8335.95,16.57,TRADE
NSW1,"2003/02/27 22:30",8340.395,16.87,TRADE
NSW1,"2003/02/27 23:00",8085.69833,16.16,TRADE
NSW1,"2003/02/27 23:30",7855.21833,18.12,TRADE
NSW1,"2003/02/28 00:00",7599.53667,17.41,TRADE
NSW1,"2003/02/28 00:30",7390.24667,16.43,TRADE
NSW1,"2003/02/28 01:00",7082.13167,13.98,TRADE
NSW1,"2003/02/28 01:30",6738.675,14.6,TRADE
NSW1,"2003/02/28 02:00",6458.17,12.13,TRADE
NSW1,"2003/02/28 02:30",6285.20667,10.67,TRADE
NSW1,"2003/02/28 03:00",6191.73333,9.67,TRADE
NSW1,"2003/02/28 03:30",6171.19333,9.36,TRADE
NSW1,"2003/02/28 04:00",6214.92833,9.34,TRADE
NSW1,"2003/02/28 04:30",6454.36667,10.97,TRADE
NSW1,"2003/02/28 05:00",6734.43167,12.37,TRADE
NSW1,"2003/02/28 05:30",7378.205,16.35,TRADE
NSW1,"2003/02/28 06:00",7982.97833,19.48,TRADE
NSW1,"2003/02/28 06:30",8452.33833,21.94,TRADE
NSW1,"2003/02/28 07:00",8839.69833,24.5,TRADE
NSW1,"2003/02/28 07:30",9049.52167,20.7,TRADE
NSW1,"2003/02/28 08:00",9259.07,19.64,TRADE
NSW1,"2003/02/28 08:30",9540.79,20.96,TRADE
NSW1,"2003/02/28 09:00",9680.085,21.57,TRADE
NSW1,"2003/02/28 09:30",9871.98833,22.01,TRADE
NSW1,"2003/02/28 10:00",10000.61667,22.17,TRADE
NSW1,"2003/02/28 10:30",10041.96667,22.14,TRADE
NSW1,"2003/02/28 11:00",10131.54,23.44,TRADE
NSW1,"2003/02/28 11:30",10158.73,26.55,TRADE
NSW1,"2003/02/28 12:00",10148.02333,25.47,TRADE
NSW1,"2003/02/28 12:30",10123.16667,23.56,TRADE
NSW1,"2003/02/28 13:00",10106.195,24.08,TRADE
NSW1,"2003/02/28 13:30",10135.96833,25.41,TRADE
NSW1,"2003/02/28 14:00",10005.70833,22.3,TRADE
NSW1,"2003/02/28 14:30",10057.18333,21.55,TRADE
NSW1,"2003/02/28 15:00",10062.96167,20.4,TRADE
NSW1,"2003/02/28 15:30",10080.60833,23.11,TRADE
NSW1,"2003/02/28 16:00",10069.62,22.71,TRADE
NSW1,"2003/02/28 16:30",9874.465,20.42,TRADE
NSW1,"2003/02/28 17:00",9696.72167,18.27,TRADE
NSW1,"2003/02/28 17:30",9302.68,16.05,TRADE
NSW1,"2003/02/28 18:00",9131.38667,15.84,TRADE
NSW1,"2003/02/28 18:30",8818.93667,13.62,TRADE
NSW1,"2003/02/28 19:00",8841.355,15.66,TRADE
NSW1,"2003/02/28 19:30",8835.635,16.19,TRADE
NSW1,"2003/02/28 20:00",8740.88667,15.94,TRADE
NSW1,"2003/02/28 20:30",8474.36667,15.68,TRADE
NSW1,"2003/02/28 21:00",8231.52667,14.66,TRADE
NSW1,"2003/02/28 21:30",8382.47167,16.04,TRADE
NSW1,"2003/02/28 22:00",8336.895,15.27,TRADE
NSW1,"2003/02/28 22:30",8373.31667,16.22,TRADE
NSW1,"2003/02/28 23:00",8143.31833,15.48,TRADE
NSW1,"2003/02/28 23:30",7907.55167,16.21,TRADE
NSW1,"2003/03/01 00:00",7632.56333,15.38,TRADE
