REGION,SETTLEMENTDATE,TOTALDEMAND,RRP,PERIODTYPE
SNOWY1,"2005/05/01 00:30:00",100.685,24.43,TRADE
SNOWY1,"2005/05/01 01:00:00",92.855,20.62,TRADE
SNOWY1,"2005/05/01 01:30:00",101.96667,23.82,TRADE
SNOWY1,"2005/05/01 02:00:00",99.81667,19.05,TRADE
SNOWY1,"2005/05/01 02:30:00",94.355,16.69,TRADE
SNOWY1,"2005/05/01 03:00:00",97.12167,15.65,TRADE
SNOWY1,"2005/05/01 03:30:00",104.99167,15.44,TRADE
SNOWY1,"2005/05/01 04:00:00",98.04667,15.21,TRADE
SNOWY1,"2005/05/01 04:30:00",103.86,15.39,TRADE
SNOWY1,"2005/05/01 05:00:00",100.68667,15.16,TRADE
SNOWY1,"2005/05/01 05:30:00",99.26833,15.03,TRADE
SNOWY1,"2005/05/01 06:00:00",104.44833,14.45,TRADE
SNOWY1,"2005/05/01 06:30:00",103.51,14.99,TRADE
SNOWY1,"2005/05/01 07:00:00",104.125,14.83,TRADE
SNOWY1,"2005/05/01 07:30:00",105.99167,15.29,TRADE
SNOWY1,"2005/05/01 08:00:00",102.46833,16.63,TRADE
SNOWY1,"2005/05/01 08:30:00",103.93667,18.61,TRADE
SNOWY1,"2005/05/01 09:00:00",101.52667,18.6,TRADE
SNOWY1,"2005/05/01 09:30:00",104.405,20.29,TRADE
SNOWY1,"2005/05/01 10:00:00",98.30167,20.82,TRADE
SNOWY1,"2005/05/01 10:30:00",107.81667,20.2,TRADE
SNOWY1,"2005/05/01 11:00:00",104.235,20.34,TRADE
SNOWY1,"2005/05/01 11:30:00",104.25167,20.28,TRADE
SNOWY1,"2005/05/01 12:00:00",97.15833,20.37,TRADE
SNOWY1,"2005/05/01 12:30:00",101.89167,19.95,TRADE
SNOWY1,"2005/05/01 13:00:00",92.335,19.1,TRADE
SNOWY1,"2005/05/01 13:30:00",101.64333,17.78,TRADE
SNOWY1,"2005/05/01 14:00:00",102.26333,17.32,TRADE
SNOWY1,"2005/05/01 14:30:00",99.63,16.96,TRADE
SNOWY1,"2005/05/01 15:00:00",100.10167,16.85,TRADE
SNOWY1,"2005/05/01 15:30:00",101.585,16.81,TRADE
SNOWY1,"2005/05/01 16:00:00",100.06833,16.82,TRADE
SNOWY1,"2005/05/01 16:30:00",94.50333,17.55,TRADE
SNOWY1,"2005/05/01 17:00:00",93.82333,18.43,TRADE
SNOWY1,"2005/05/01 17:30:00",90.91167,24.46,TRADE
SNOWY1,"2005/05/01 18:00:00",58.305,40.85,TRADE
SNOWY1,"2005/05/01 18:30:00",49.1,44.88,TRADE
SNOWY1,"2005/05/01 19:00:00",40.34333,45.15,TRADE
SNOWY1,"2005/05/01 19:30:00",14.75667,35.7,TRADE
SNOWY1,"2005/05/01 20:00:00",18.53833,30.77,TRADE
SNOWY1,"2005/05/01 20:30:00",17.19333,26.14,TRADE
SNOWY1,"2005/05/01 21:00:00",60.51167,21.52,TRADE
SNOWY1,"2005/05/01 21:30:00",77.00167,21.28,TRADE
SNOWY1,"2005/05/01 22:00:00",87.96167,17.82,TRADE
SNOWY1,"2005/05/01 22:30:00",106.71667,21.17,TRADE
SNOWY1,"2005/05/01 23:00:00",95.77333,20.41,TRADE
SNOWY1,"2005/05/01 23:30:00",101.18833,24.16,TRADE
SNOWY1,"2005/05/02 00:00:00",95.91167,20.22,TRADE
SNOWY1,"2005/05/02 00:30:00",106.83833,19.51,TRADE
SNOWY1,"2005/05/02 01:00:00",94.68,17.68,TRADE
SNOWY1,"2005/05/02 01:30:00",98.665,19.81,TRADE
SNOWY1,"2005/05/02 02:00:00",99.96167,16.71,TRADE
SNOWY1,"2005/05/02 02:30:00",106.425,15.19,TRADE
SNOWY1,"2005/05/02 03:00:00",101.33,14.97,TRADE
SNOWY1,"2005/05/02 03:30:00",95.86,14.43,TRADE
SNOWY1,"2005/05/02 04:00:00",96.49167,13.99,TRADE
SNOWY1,"2005/05/02 04:30:00",95.79167,14.69,TRADE
SNOWY1,"2005/05/02 05:00:00",100.02833,14.68,TRADE
SNOWY1,"2005/05/02 05:30:00",95.11833,14.62,TRADE
SNOWY1,"2005/05/02 06:00:00",97.26833,15.31,TRADE
SNOWY1,"2005/05/02 06:30:00",94.82,17.94,TRADE
SNOWY1,"2005/05/02 07:00:00",102.61667,20.74,TRADE
SNOWY1,"2005/05/02 07:30:00",91.73833,21.09,TRADE
SNOWY1,"2005/05/02 08:00:00",96.515,26.23,TRADE
SNOWY1,"2005/05/02 08:30:00",35.49833,26.62,TRADE
SNOWY1,"2005/05/02 09:00:00",27.2,26.82,TRADE
SNOWY1,"2005/05/02 09:30:00",29.21667,26.72,TRADE
SNOWY1,"2005/05/02 10:00:00",31.61,24.74,TRADE
SNOWY1,"2005/05/02 10:30:00",22.21667,23.33,TRADE
SNOWY1,"2005/05/02 11:00:00",25.53,23.92,TRADE
SNOWY1,"2005/05/02 11:30:00",29.32,22.16,TRADE
SNOWY1,"2005/05/02 12:00:00",32.29833,23.84,TRADE
SNOWY1,"2005/05/02 12:30:00",28.38167,24.52,TRADE
SNOWY1,"2005/05/02 13:00:00",28.43667,22.7,TRADE
SNOWY1,"2005/05/02 13:30:00",28.99833,23.61,TRADE
SNOWY1,"2005/05/02 14:00:00",25.36,21.42,TRADE
SNOWY1,"2005/05/02 14:30:00",29.39667,21,TRADE
SNOWY1,"2005/05/02 15:00:00",31.595,22.71,TRADE
SNOWY1,"2005/05/02 15:30:00",28.26,20.91,TRADE
SNOWY1,"2005/05/02 16:00:00",22.50833,20.85,TRADE
SNOWY1,"2005/05/02 16:30:00",22.08333,21.73,TRADE
SNOWY1,"2005/05/02 17:00:00",27.32167,21.2,TRADE
SNOWY1,"2005/05/02 17:30:00",26.43167,26.46,TRADE
SNOWY1,"2005/05/02 18:00:00",27.45167,38.7,TRADE
SNOWY1,"2005/05/02 18:30:00",44.45167,41.05,TRADE
SNOWY1,"2005/05/02 19:00:00",43.585,33.64,TRADE
SNOWY1,"2005/05/02 19:30:00",26.69,26.79,TRADE
SNOWY1,"2005/05/02 20:00:00",31.10167,24.72,TRADE
SNOWY1,"2005/05/02 20:30:00",37.45167,23.63,TRADE
SNOWY1,"2005/05/02 21:00:00",58.57833,20.74,TRADE
SNOWY1,"2005/05/02 21:30:00",92.88667,20.46,TRADE
SNOWY1,"2005/05/02 22:00:00",104.42667,17.46,TRADE
SNOWY1,"2005/05/02 22:30:00",98.71167,21.26,TRADE
SNOWY1,"2005/05/02 23:00:00",103.52667,20.52,TRADE
SNOWY1,"2005/05/02 23:30:00",106.82833,25.91,TRADE
SNOWY1,"2005/05/03 00:00:00",103.8,23.11,TRADE
SNOWY1,"2005/05/03 00:30:00",98.63667,20.67,TRADE
SNOWY1,"2005/05/03 01:00:00",101.61,20.39,TRADE
SNOWY1,"2005/05/03 01:30:00",108.19833,23.29,TRADE
SNOWY1,"2005/05/03 02:00:00",96.69333,18.32,TRADE
SNOWY1,"2005/05/03 02:30:00",94.635,15.04,TRADE
SNOWY1,"2005/05/03 03:00:00",96.57833,14.64,TRADE
SNOWY1,"2005/05/03 03:30:00",97.19333,12.93,TRADE
SNOWY1,"2005/05/03 04:00:00",99.21833,13.56,TRADE
SNOWY1,"2005/05/03 04:30:00",90.85167,14.42,TRADE
SNOWY1,"2005/05/03 05:00:00",99.42,14.48,TRADE
SNOWY1,"2005/05/03 05:30:00",94.11667,14.81,TRADE
SNOWY1,"2005/05/03 06:00:00",94.29,15.83,TRADE
SNOWY1,"2005/05/03 06:30:00",91.65167,18.62,TRADE
SNOWY1,"2005/05/03 07:00:00",102.645,22.55,TRADE
SNOWY1,"2005/05/03 07:30:00",93.09333,22.98,TRADE
SNOWY1,"2005/05/03 08:00:00",64.87167,30.04,TRADE
SNOWY1,"2005/05/03 08:30:00",33.66833,27.76,TRADE
SNOWY1,"2005/05/03 09:00:00",30.00833,26.49,TRADE
SNOWY1,"2005/05/03 09:30:00",26.91833,24.82,TRADE
SNOWY1,"2005/05/03 10:00:00",33.99167,24.72,TRADE
SNOWY1,"2005/05/03 10:30:00",31.79667,22.01,TRADE
SNOWY1,"2005/05/03 11:00:00",43.99167,24.17,TRADE
SNOWY1,"2005/05/03 11:30:00",35.70833,26.55,TRADE
SNOWY1,"2005/05/03 12:00:00",45.10167,29.09,TRADE
SNOWY1,"2005/05/03 12:30:00",39.30667,26.7,TRADE
SNOWY1,"2005/05/03 13:00:00",31.34833,28.3,TRADE
SNOWY1,"2005/05/03 13:30:00",37.62333,34.58,TRADE
SNOWY1,"2005/05/03 14:00:00",36.81833,34.54,TRADE
SNOWY1,"2005/05/03 14:30:00",30.62833,30.59,TRADE
SNOWY1,"2005/05/03 15:00:00",34.12167,27.21,TRADE
SNOWY1,"2005/05/03 15:30:00",32.34333,26.18,TRADE
SNOWY1,"2005/05/03 16:00:00",34.055,24.31,TRADE
SNOWY1,"2005/05/03 16:30:00",40.62833,23.32,TRADE
SNOWY1,"2005/05/03 17:00:00",45.135,22.59,TRADE
SNOWY1,"2005/05/03 17:30:00",11.97667,29.04,TRADE
SNOWY1,"2005/05/03 18:00:00",49.76833,40.87,TRADE
SNOWY1,"2005/05/03 18:30:00",62.83,42,TRADE
SNOWY1,"2005/05/03 19:00:00",57.94,36.22,TRADE
SNOWY1,"2005/05/03 19:30:00",44.85667,27.5,TRADE
SNOWY1,"2005/05/03 20:00:00",35.56167,22.74,TRADE
SNOWY1,"2005/05/03 20:30:00",64.43333,23.06,TRADE
SNOWY1,"2005/05/03 21:00:00",105.20833,21.42,TRADE
SNOWY1,"2005/05/03 21:30:00",114.16333,20.1,TRADE
SNOWY1,"2005/05/03 22:00:00",91.26833,17.69,TRADE
SNOWY1,"2005/05/03 22:30:00",97.48333,20.66,TRADE
SNOWY1,"2005/05/03 23:00:00",100.24833,20.59,TRADE
SNOWY1,"2005/05/03 23:30:00",98.82167,26.62,TRADE
SNOWY1,"2005/05/04 00:00:00",112.10667,23.13,TRADE
SNOWY1,"2005/05/04 00:30:00",98.88833,20.87,TRADE
SNOWY1,"2005/05/04 01:00:00",95.40667,20.31,TRADE
SNOWY1,"2005/05/04 01:30:00",106.79167,21.04,TRADE
SNOWY1,"2005/05/04 02:00:00",100.685,18.87,TRADE
SNOWY1,"2005/05/04 02:30:00",103.19333,15.93,TRADE
SNOWY1,"2005/05/04 03:00:00",92.91667,14.18,TRADE
SNOWY1,"2005/05/04 03:30:00",98.87833,13.62,TRADE
SNOWY1,"2005/05/04 04:00:00",98.02,14.15,TRADE
SNOWY1,"2005/05/04 04:30:00",95.24833,14.33,TRADE
SNOWY1,"2005/05/04 05:00:00",97.515,13.79,TRADE
SNOWY1,"2005/05/04 05:30:00",106.75667,15.85,TRADE
SNOWY1,"2005/05/04 06:00:00",98.25167,16.74,TRADE
SNOWY1,"2005/05/04 06:30:00",103.08,19.27,TRADE
SNOWY1,"2005/05/04 07:00:00",104.18,19.45,TRADE
SNOWY1,"2005/05/04 07:30:00",72.23667,19.29,TRADE
SNOWY1,"2005/05/04 08:00:00",59.05,22.21,TRADE
SNOWY1,"2005/05/04 08:30:00",34.04833,20.7,TRADE
SNOWY1,"2005/05/04 09:00:00",27.76667,20.62,TRADE
SNOWY1,"2005/05/04 09:30:00",32.06167,22.27,TRADE
SNOWY1,"2005/05/04 10:00:00",28.25,21.1,TRADE
SNOWY1,"2005/05/04 10:30:00",30.73,20.48,TRADE
SNOWY1,"2005/05/04 11:00:00",34.93667,20.45,TRADE
SNOWY1,"2005/05/04 11:30:00",30.71833,21.25,TRADE
SNOWY1,"2005/05/04 12:00:00",20.39667,22.35,TRADE
SNOWY1,"2005/05/04 12:30:00",40.60667,21.84,TRADE
SNOWY1,"2005/05/04 13:00:00",49.32667,20.49,TRADE
SNOWY1,"2005/05/04 13:30:00",28.765,22.16,TRADE
SNOWY1,"2005/05/04 14:00:00",21.44,21.63,TRADE
SNOWY1,"2005/05/04 14:30:00",28.43333,20.35,TRADE
SNOWY1,"2005/05/04 15:00:00",24.67,21.69,TRADE
SNOWY1,"2005/05/04 15:30:00",23.07333,22.21,TRADE
SNOWY1,"2005/05/04 16:00:00",23.31833,19.64,TRADE
SNOWY1,"2005/05/04 16:30:00",29.44333,20.36,TRADE
SNOWY1,"2005/05/04 17:00:00",21.62,18.68,TRADE
SNOWY1,"2005/05/04 17:30:00",2.16667,22.49,TRADE
SNOWY1,"2005/05/04 18:00:00",29.02667,38.78,TRADE
SNOWY1,"2005/05/04 18:30:00",57.42,36.47,TRADE
SNOWY1,"2005/05/04 19:00:00",59.49833,29.98,TRADE
SNOWY1,"2005/05/04 19:30:00",27.45833,23.45,TRADE
SNOWY1,"2005/05/04 20:00:00",33.905,20.48,TRADE
SNOWY1,"2005/05/04 20:30:00",54.52333,20.11,TRADE
SNOWY1,"2005/05/04 21:00:00",103.14,17.63,TRADE
SNOWY1,"2005/05/04 21:30:00",103.08667,17.77,TRADE
SNOWY1,"2005/05/04 22:00:00",97.225,16.94,TRADE
SNOWY1,"2005/05/04 22:30:00",106.18667,20.15,TRADE
SNOWY1,"2005/05/04 23:00:00",95.75333,19.77,TRADE
SNOWY1,"2005/05/04 23:30:00",101.895,22.38,TRADE
SNOWY1,"2005/05/05 00:00:00",101.01,20.93,TRADE
SNOWY1,"2005/05/05 00:30:00",97.47333,20.32,TRADE
SNOWY1,"2005/05/05 01:00:00",101.93667,20.22,TRADE
SNOWY1,"2005/05/05 01:30:00",93.63667,20.28,TRADE
SNOWY1,"2005/05/05 02:00:00",96.97167,17.86,TRADE
SNOWY1,"2005/05/05 02:30:00",99.29667,14.94,TRADE
SNOWY1,"2005/05/05 03:00:00",104.43167,14.63,TRADE
SNOWY1,"2005/05/05 03:30:00",97.385,14.19,TRADE
SNOWY1,"2005/05/05 04:00:00",102.01833,14.36,TRADE
SNOWY1,"2005/05/05 04:30:00",99.83667,14.53,TRADE
SNOWY1,"2005/05/05 05:00:00",101.96167,14.5,TRADE
SNOWY1,"2005/05/05 05:30:00",101.31167,15.23,TRADE
SNOWY1,"2005/05/05 06:00:00",95.77667,16.3,TRADE
SNOWY1,"2005/05/05 06:30:00",92.74,19.19,TRADE
SNOWY1,"2005/05/05 07:00:00",103.72,19.81,TRADE
SNOWY1,"2005/05/05 07:30:00",91.13667,18.46,TRADE
SNOWY1,"2005/05/05 08:00:00",56.72667,25.63,TRADE
SNOWY1,"2005/05/05 08:30:00",37.215,25.27,TRADE
SNOWY1,"2005/05/05 09:00:00",34.44167,26.5,TRADE
SNOWY1,"2005/05/05 09:30:00",31.81667,26.5,TRADE
SNOWY1,"2005/05/05 10:00:00",23.64167,25.36,TRADE
SNOWY1,"2005/05/05 10:30:00",26.65667,25.19,TRADE
SNOWY1,"2005/05/05 11:00:00",31.925,23.94,TRADE
SNOWY1,"2005/05/05 11:30:00",29.73333,28.12,TRADE
SNOWY1,"2005/05/05 12:00:00",27.65667,27.38,TRADE
SNOWY1,"2005/05/05 12:30:00",22.29167,24.79,TRADE
SNOWY1,"2005/05/05 13:00:00",30.91333,22.51,TRADE
SNOWY1,"2005/05/05 13:30:00",33.07833,25.03,TRADE
SNOWY1,"2005/05/05 14:00:00",37.98,24.33,TRADE
SNOWY1,"2005/05/05 14:30:00",33.09167,25.21,TRADE
SNOWY1,"2005/05/05 15:00:00",34.055,25.46,TRADE
SNOWY1,"2005/05/05 15:30:00",23.03333,22.5,TRADE
SNOWY1,"2005/05/05 16:00:00",37.215,23.91,TRADE
SNOWY1,"2005/05/05 16:30:00",32.505,23.33,TRADE
SNOWY1,"2005/05/05 17:00:00",34.41,26.89,TRADE
SNOWY1,"2005/05/05 17:30:00",9.41667,30.19,TRADE
SNOWY1,"2005/05/05 18:00:00",33.72167,46.11,TRADE
SNOWY1,"2005/05/05 18:30:00",75.99167,42.54,TRADE
SNOWY1,"2005/05/05 19:00:00",30.91333,37.12,TRADE
SNOWY1,"2005/05/05 19:30:00",47.08833,31.29,TRADE
SNOWY1,"2005/05/05 20:00:00",21.19167,26.81,TRADE
SNOWY1,"2005/05/05 20:30:00",26.955,26.96,TRADE
SNOWY1,"2005/05/05 21:00:00",28.61333,24.98,TRADE
SNOWY1,"2005/05/05 21:30:00",29.70833,21.79,TRADE
SNOWY1,"2005/05/05 22:00:00",30.88833,20.17,TRADE
SNOWY1,"2005/05/05 22:30:00",33.43,26.18,TRADE
SNOWY1,"2005/05/05 23:00:00",21.52167,23.65,TRADE
SNOWY1,"2005/05/05 23:30:00",35.06833,28.09,TRADE
SNOWY1,"2005/05/06 00:00:00",33.96833,24.83,TRADE
SNOWY1,"2005/05/06 00:30:00",87.76167,22.05,TRADE
SNOWY1,"2005/05/06 01:00:00",97.36167,20.33,TRADE
SNOWY1,"2005/05/06 01:30:00",106.635,21.35,TRADE
SNOWY1,"2005/05/06 02:00:00",103.505,19.9,TRADE
SNOWY1,"2005/05/06 02:30:00",103.86333,17.26,TRADE
SNOWY1,"2005/05/06 03:00:00",102.01833,15.4,TRADE
SNOWY1,"2005/05/06 03:30:00",96.94667,14.45,TRADE
SNOWY1,"2005/05/06 04:00:00",91.205,14.6,TRADE
SNOWY1,"2005/05/06 04:30:00",100.695,14.47,TRADE
SNOWY1,"2005/05/06 05:00:00",95.76667,13.43,TRADE
SNOWY1,"2005/05/06 05:30:00",104.9,15.87,TRADE
SNOWY1,"2005/05/06 06:00:00",99.4,16.62,TRADE
SNOWY1,"2005/05/06 06:30:00",99.86333,19.02,TRADE
SNOWY1,"2005/05/06 07:00:00",101.86667,20.94,TRADE
SNOWY1,"2005/05/06 07:30:00",103.965,22.08,TRADE
SNOWY1,"2005/05/06 08:00:00",62.81167,25.76,TRADE
SNOWY1,"2005/05/06 08:30:00",35.68667,26.5,TRADE
SNOWY1,"2005/05/06 09:00:00",35.86833,22.48,TRADE
SNOWY1,"2005/05/06 09:30:00",33.68333,25.18,TRADE
SNOWY1,"2005/05/06 10:00:00",31.61667,24,TRADE
SNOWY1,"2005/05/06 10:30:00",30.83833,24.75,TRADE
SNOWY1,"2005/05/06 11:00:00",28.26167,24.19,TRADE
SNOWY1,"2005/05/06 11:30:00",22.75667,26.5,TRADE
SNOWY1,"2005/05/06 12:00:00",26.53167,26.5,TRADE
SNOWY1,"2005/05/06 12:30:00",25.89333,26.5,TRADE
SNOWY1,"2005/05/06 13:00:00",37.48333,26.5,TRADE
SNOWY1,"2005/05/06 13:30:00",28.71167,22.96,TRADE
SNOWY1,"2005/05/06 14:00:00",31.35167,22.88,TRADE
SNOWY1,"2005/05/06 14:30:00",38.125,21.41,TRADE
SNOWY1,"2005/05/06 15:00:00",35.27667,20.63,TRADE
SNOWY1,"2005/05/06 15:30:00",26.17333,20.28,TRADE
SNOWY1,"2005/05/06 16:00:00",30.70167,20.22,TRADE
SNOWY1,"2005/05/06 16:30:00",28.84667,20.2,TRADE
SNOWY1,"2005/05/06 17:00:00",34.36333,20.47,TRADE
SNOWY1,"2005/05/06 17:30:00",30.29167,25.38,TRADE
SNOWY1,"2005/05/06 18:00:00",39.82833,39.67,TRADE
SNOWY1,"2005/05/06 18:30:00",41.21167,35.8,TRADE
SNOWY1,"2005/05/06 19:00:00",42.345,30.48,TRADE
SNOWY1,"2005/05/06 19:30:00",26.355,25.62,TRADE
SNOWY1,"2005/05/06 20:00:00",35.58667,23.87,TRADE
SNOWY1,"2005/05/06 20:30:00",23.10167,22.34,TRADE
SNOWY1,"2005/05/06 21:00:00",29.595,22.22,TRADE
SNOWY1,"2005/05/06 21:30:00",25.79,24.57,TRADE
SNOWY1,"2005/05/06 22:00:00",33.53333,21.34,TRADE
SNOWY1,"2005/05/06 22:30:00",33.47667,33.71,TRADE
SNOWY1,"2005/05/06 23:00:00",40.82333,30.38,TRADE
SNOWY1,"2005/05/06 23:30:00",42.41333,37.5,TRADE
SNOWY1,"2005/05/07 00:00:00",31.07833,30.83,TRADE
SNOWY1,"2005/05/07 00:30:00",34.26667,26.55,TRADE
SNOWY1,"2005/05/07 01:00:00",34.88833,23.01,TRADE
SNOWY1,"2005/05/07 01:30:00",40.85167,24.48,TRADE
SNOWY1,"2005/05/07 02:00:00",40.41,20.72,TRADE
SNOWY1,"2005/05/07 02:30:00",67.475,19.59,TRADE
SNOWY1,"2005/05/07 03:00:00",103.51667,17.47,TRADE
SNOWY1,"2005/05/07 03:30:00",98.87167,15.87,TRADE
SNOWY1,"2005/05/07 04:00:00",101.81833,15.14,TRADE
SNOWY1,"2005/05/07 04:30:00",108.295,14.66,TRADE
SNOWY1,"2005/05/07 05:00:00",104.645,14.73,TRADE
SNOWY1,"2005/05/07 05:30:00",98.51167,14.85,TRADE
SNOWY1,"2005/05/07 06:00:00",100.485,16.11,TRADE
SNOWY1,"2005/05/07 06:30:00",102.82333,17.22,TRADE
SNOWY1,"2005/05/07 07:00:00",109.62167,17.2,TRADE
SNOWY1,"2005/05/07 07:30:00",121.25,17.57,TRADE
SNOWY1,"2005/05/07 08:00:00",130.72833,19.31,TRADE
SNOWY1,"2005/05/07 08:30:00",114.84833,20.91,TRADE
SNOWY1,"2005/05/07 09:00:00",89.98,26.26,TRADE
SNOWY1,"2005/05/07 09:30:00",59.795,26.5,TRADE
SNOWY1,"2005/05/07 10:00:00",24.17833,26.5,TRADE
SNOWY1,"2005/05/07 10:30:00",46.435,26.5,TRADE
SNOWY1,"2005/05/07 11:00:00",38.12333,26.5,TRADE
SNOWY1,"2005/05/07 11:30:00",29.93333,25.75,TRADE
SNOWY1,"2005/05/07 12:00:00",37.46667,23.65,TRADE
SNOWY1,"2005/05/07 12:30:00",37.42833,22.35,TRADE
SNOWY1,"2005/05/07 13:00:00",52.14667,20.39,TRADE
SNOWY1,"2005/05/07 13:30:00",107.73167,20.07,TRADE
SNOWY1,"2005/05/07 14:00:00",110.5,19.6,TRADE
SNOWY1,"2005/05/07 14:30:00",101.30833,19.5,TRADE
SNOWY1,"2005/05/07 15:00:00",99.38667,20.98,TRADE
SNOWY1,"2005/05/07 15:30:00",107.56667,20.79,TRADE
SNOWY1,"2005/05/07 16:00:00",96.435,19.61,TRADE
SNOWY1,"2005/05/07 16:30:00",110.40167,22.32,TRADE
SNOWY1,"2005/05/07 17:00:00",104.18,26.28,TRADE
SNOWY1,"2005/05/07 17:30:00",8.90833,28.79,TRADE
SNOWY1,"2005/05/07 18:00:00",43.98833,46.66,TRADE
SNOWY1,"2005/05/07 18:30:00",51.855,50.56,TRADE
SNOWY1,"2005/05/07 19:00:00",39.695,38.05,TRADE
SNOWY1,"2005/05/07 19:30:00",22.54167,32.53,TRADE
SNOWY1,"2005/05/07 20:00:00",26.105,26.73,TRADE
SNOWY1,"2005/05/07 20:30:00",36.86333,25.06,TRADE
SNOWY1,"2005/05/07 21:00:00",22.075,23.55,TRADE
SNOWY1,"2005/05/07 21:30:00",14.34167,24.79,TRADE
SNOWY1,"2005/05/07 22:00:00",40.08167,25.39,TRADE
SNOWY1,"2005/05/07 22:30:00",46.97667,26.5,TRADE
SNOWY1,"2005/05/07 23:00:00",46.31667,26.37,TRADE
SNOWY1,"2005/05/07 23:30:00",44.81667,27.58,TRADE
SNOWY1,"2005/05/08 00:00:00",46.78167,26.11,TRADE
SNOWY1,"2005/05/08 00:30:00",70.92833,21.16,TRADE
SNOWY1,"2005/05/08 01:00:00",90.68167,19.69,TRADE
SNOWY1,"2005/05/08 01:30:00",110.82667,19.7,TRADE
SNOWY1,"2005/05/08 02:00:00",117.05833,18.61,TRADE
SNOWY1,"2005/05/08 02:30:00",95.34,17.63,TRADE
SNOWY1,"2005/05/08 03:00:00",100.51833,17.09,TRADE
SNOWY1,"2005/05/08 03:30:00",105.37,16.59,TRADE
SNOWY1,"2005/05/08 04:00:00",104.78667,16.11,TRADE
SNOWY1,"2005/05/08 04:30:00",104.75167,15.67,TRADE
SNOWY1,"2005/05/08 05:00:00",102.56667,15.62,TRADE
SNOWY1,"2005/05/08 05:30:00",105.62833,15.7,TRADE
SNOWY1,"2005/05/08 06:00:00",101.71833,14.76,TRADE
SNOWY1,"2005/05/08 06:30:00",106.78667,14.85,TRADE
SNOWY1,"2005/05/08 07:00:00",105.30167,15.33,TRADE
SNOWY1,"2005/05/08 07:30:00",99.26667,15.79,TRADE
SNOWY1,"2005/05/08 08:00:00",92.29,16.93,TRADE
SNOWY1,"2005/05/08 08:30:00",110.12167,18.32,TRADE
SNOWY1,"2005/05/08 09:00:00",112.86333,19.5,TRADE
SNOWY1,"2005/05/08 09:30:00",114.20833,19.61,TRADE
SNOWY1,"2005/05/08 10:00:00",100.13833,20.2,TRADE
SNOWY1,"2005/05/08 10:30:00",93.81167,19.77,TRADE
SNOWY1,"2005/05/08 11:00:00",97.745,19.85,TRADE
SNOWY1,"2005/05/08 11:30:00",91.95333,19.72,TRADE
SNOWY1,"2005/05/08 12:00:00",93.37,19.5,TRADE
SNOWY1,"2005/05/08 12:30:00",96.355,19.5,TRADE
SNOWY1,"2005/05/08 13:00:00",108.455,19.29,TRADE
SNOWY1,"2005/05/08 13:30:00",102.725,19.42,TRADE
SNOWY1,"2005/05/08 14:00:00",111.16167,19.29,TRADE
SNOWY1,"2005/05/08 14:30:00",106.73833,19.06,TRADE
SNOWY1,"2005/05/08 15:00:00",101.80167,18.82,TRADE
SNOWY1,"2005/05/08 15:30:00",103.04667,18.81,TRADE
SNOWY1,"2005/05/08 16:00:00",99.78833,18.81,TRADE
SNOWY1,"2005/05/08 16:30:00",102.84,19.37,TRADE
SNOWY1,"2005/05/08 17:00:00",107.655,19.67,TRADE
SNOWY1,"2005/05/08 17:30:00",77.73,23.72,TRADE
SNOWY1,"2005/05/08 18:00:00",41.68833,34.83,TRADE
SNOWY1,"2005/05/08 18:30:00",77.10667,38.05,TRADE
SNOWY1,"2005/05/08 19:00:00",50.20833,38.03,TRADE
SNOWY1,"2005/05/08 19:30:00",33.22167,32.3,TRADE
SNOWY1,"2005/05/08 20:00:00",37.14667,27.24,TRADE
SNOWY1,"2005/05/08 20:30:00",12.48333,26.5,TRADE
SNOWY1,"2005/05/08 21:00:00",24.945,26.5,TRADE
SNOWY1,"2005/05/08 21:30:00",45.54,26.5,TRADE
SNOWY1,"2005/05/08 22:00:00",37.975,22.32,TRADE
SNOWY1,"2005/05/08 22:30:00",47.36167,25.26,TRADE
SNOWY1,"2005/05/08 23:00:00",38.39833,22.28,TRADE
SNOWY1,"2005/05/08 23:30:00",22.73167,24.8,TRADE
SNOWY1,"2005/05/09 00:00:00",36.19,21.78,TRADE
SNOWY1,"2005/05/09 00:30:00",28.08333,20.34,TRADE
SNOWY1,"2005/05/09 01:00:00",55.08833,19.52,TRADE
SNOWY1,"2005/05/09 01:30:00",101.80333,20.49,TRADE
SNOWY1,"2005/05/09 02:00:00",103.08667,19.52,TRADE
SNOWY1,"2005/05/09 02:30:00",108.16667,18.89,TRADE
SNOWY1,"2005/05/09 03:00:00",110.60833,18.2,TRADE
SNOWY1,"2005/05/09 03:30:00",114.72167,17.54,TRADE
SNOWY1,"2005/05/09 04:00:00",103.74667,17.45,TRADE
SNOWY1,"2005/05/09 04:30:00",106.71833,17.45,TRADE
SNOWY1,"2005/05/09 05:00:00",105.16167,17.45,TRADE
SNOWY1,"2005/05/09 05:30:00",133.885,17.63,TRADE
SNOWY1,"2005/05/09 06:00:00",91.33667,18.59,TRADE
SNOWY1,"2005/05/09 06:30:00",109.985,21.32,TRADE
SNOWY1,"2005/05/09 07:00:00",113.34167,25.33,TRADE
SNOWY1,"2005/05/09 07:30:00",52.59333,24.38,TRADE
SNOWY1,"2005/05/09 08:00:00",72.85667,27.29,TRADE
SNOWY1,"2005/05/09 08:30:00",33.19833,26.53,TRADE
SNOWY1,"2005/05/09 09:00:00",16.38667,26.5,TRADE
SNOWY1,"2005/05/09 09:30:00",21.80333,25.7,TRADE
SNOWY1,"2005/05/09 10:00:00",31.505,23.57,TRADE
SNOWY1,"2005/05/09 10:30:00",23.66,24.43,TRADE
SNOWY1,"2005/05/09 11:00:00",33.24333,21.95,TRADE
SNOWY1,"2005/05/09 11:30:00",32.87,21.58,TRADE
SNOWY1,"2005/05/09 12:00:00",31.92667,20.8,TRADE
SNOWY1,"2005/05/09 12:30:00",32.79667,22.17,TRADE
SNOWY1,"2005/05/09 13:00:00",29.625,20.94,TRADE
SNOWY1,"2005/05/09 13:30:00",25.37,21.79,TRADE
SNOWY1,"2005/05/09 14:00:00",46.95,22.66,TRADE
SNOWY1,"2005/05/09 14:30:00",35.87833,20.39,TRADE
SNOWY1,"2005/05/09 15:00:00",17.46,19.5,TRADE
SNOWY1,"2005/05/09 15:30:00",23.50833,19.5,TRADE
SNOWY1,"2005/05/09 16:00:00",30.23833,19.5,TRADE
SNOWY1,"2005/05/09 16:30:00",22.91333,19.66,TRADE
SNOWY1,"2005/05/09 17:00:00",13.21833,19.64,TRADE
SNOWY1,"2005/05/09 17:30:00",14.585,22.41,TRADE
SNOWY1,"2005/05/09 18:00:00",52.195,33.19,TRADE
SNOWY1,"2005/05/09 18:30:00",39.45167,36.41,TRADE
SNOWY1,"2005/05/09 19:00:00",39.45833,27.91,TRADE
SNOWY1,"2005/05/09 19:30:00",50.33833,26.46,TRADE
SNOWY1,"2005/05/09 20:00:00",27.67667,25.03,TRADE
SNOWY1,"2005/05/09 20:30:00",39.535,21.08,TRADE
SNOWY1,"2005/05/09 21:00:00",24.52833,19.54,TRADE
SNOWY1,"2005/05/09 21:30:00",30.2,18.96,TRADE
SNOWY1,"2005/05/09 22:00:00",25.58,17.8,TRADE
SNOWY1,"2005/05/09 22:30:00",48.65333,21.53,TRADE
SNOWY1,"2005/05/09 23:00:00",43.62333,19.51,TRADE
SNOWY1,"2005/05/09 23:30:00",38.74333,21.16,TRADE
SNOWY1,"2005/05/10 00:00:00",39.41667,19.89,TRADE
SNOWY1,"2005/05/10 00:30:00",18.395,19.49,TRADE
SNOWY1,"2005/05/10 01:00:00",52.30667,19.43,TRADE
SNOWY1,"2005/05/10 01:30:00",105.73833,19.58,TRADE
SNOWY1,"2005/05/10 02:00:00",102.87,18.96,TRADE
SNOWY1,"2005/05/10 02:30:00",94.63,17.02,TRADE
SNOWY1,"2005/05/10 03:00:00",98.75167,16.02,TRADE
SNOWY1,"2005/05/10 03:30:00",91.46,14.85,TRADE
SNOWY1,"2005/05/10 04:00:00",98.515,14.67,TRADE
SNOWY1,"2005/05/10 04:30:00",100.84667,14.72,TRADE
SNOWY1,"2005/05/10 05:00:00",103.73167,14.49,TRADE
SNOWY1,"2005/05/10 05:30:00",93.555,14.41,TRADE
SNOWY1,"2005/05/10 06:00:00",104.285,16.25,TRADE
SNOWY1,"2005/05/10 06:30:00",118.08833,19.01,TRADE
SNOWY1,"2005/05/10 07:00:00",86.14833,22.54,TRADE
SNOWY1,"2005/05/10 07:30:00",92.075,20.77,TRADE
SNOWY1,"2005/05/10 08:00:00",40.73667,26.08,TRADE
SNOWY1,"2005/05/10 08:30:00",44.29167,26.45,TRADE
SNOWY1,"2005/05/10 09:00:00",25.51667,25.37,TRADE
SNOWY1,"2005/05/10 09:30:00",33.04,26.31,TRADE
SNOWY1,"2005/05/10 10:00:00",31.165,25.17,TRADE
SNOWY1,"2005/05/10 10:30:00",19.78167,22.5,TRADE
SNOWY1,"2005/05/10 11:00:00",20.835,21.02,TRADE
SNOWY1,"2005/05/10 11:30:00",30.56667,25.22,TRADE
SNOWY1,"2005/05/10 12:00:00",31.12167,26.21,TRADE
SNOWY1,"2005/05/10 12:30:00",32.125,22.89,TRADE
SNOWY1,"2005/05/10 13:00:00",27.62833,19.5,TRADE
SNOWY1,"2005/05/10 13:30:00",20.54667,23.56,TRADE
SNOWY1,"2005/05/10 14:00:00",29.85833,22.98,TRADE
SNOWY1,"2005/05/10 14:30:00",25.54833,21.67,TRADE
SNOWY1,"2005/05/10 15:00:00",22.935,20.75,TRADE
SNOWY1,"2005/05/10 15:30:00",24.07167,19.5,TRADE
SNOWY1,"2005/05/10 16:00:00",37.08667,19.58,TRADE
SNOWY1,"2005/05/10 16:30:00",25.12167,20.49,TRADE
SNOWY1,"2005/05/10 17:00:00",36.86167,22.68,TRADE
SNOWY1,"2005/05/10 17:30:00",56.33167,27.04,TRADE
SNOWY1,"2005/05/10 18:00:00",55.10833,35.99,TRADE
SNOWY1,"2005/05/10 18:30:00",40.41,36.71,TRADE
SNOWY1,"2005/05/10 19:00:00",32.52833,27.52,TRADE
SNOWY1,"2005/05/10 19:30:00",26.025,26.22,TRADE
SNOWY1,"2005/05/10 20:00:00",19.30833,21.06,TRADE
SNOWY1,"2005/05/10 20:30:00",25.36333,20.05,TRADE
SNOWY1,"2005/05/10 21:00:00",18.84,19.49,TRADE
SNOWY1,"2005/05/10 21:30:00",36.21167,19.19,TRADE
SNOWY1,"2005/05/10 22:00:00",27.83,17.51,TRADE
SNOWY1,"2005/05/10 22:30:00",38.40833,19.5,TRADE
SNOWY1,"2005/05/10 23:00:00",27.35167,19.44,TRADE
SNOWY1,"2005/05/10 23:30:00",36.54667,19.7,TRADE
SNOWY1,"2005/05/11 00:00:00",16.05,19.49,TRADE
SNOWY1,"2005/05/11 00:30:00",28.13,19.48,TRADE
SNOWY1,"2005/05/11 01:00:00",54.21333,19.12,TRADE
SNOWY1,"2005/05/11 01:30:00",109.045,19.22,TRADE
SNOWY1,"2005/05/11 02:00:00",97.825,18.34,TRADE
SNOWY1,"2005/05/11 02:30:00",97.15333,16.01,TRADE
SNOWY1,"2005/05/11 03:00:00",99.07333,14.91,TRADE
SNOWY1,"2005/05/11 03:30:00",95.825,14.84,TRADE
SNOWY1,"2005/05/11 04:00:00",95.46667,14.75,TRADE
SNOWY1,"2005/05/11 04:30:00",98.64,14.84,TRADE
SNOWY1,"2005/05/11 05:00:00",100.01667,14.8,TRADE
SNOWY1,"2005/05/11 05:30:00",97.365,14.62,TRADE
SNOWY1,"2005/05/11 06:00:00",97.055,15.98,TRADE
SNOWY1,"2005/05/11 06:30:00",107.735,17.76,TRADE
SNOWY1,"2005/05/11 07:00:00",110.54,20.13,TRADE
SNOWY1,"2005/05/11 07:30:00",104.73333,18.84,TRADE
SNOWY1,"2005/05/11 08:00:00",108.70833,19.83,TRADE
SNOWY1,"2005/05/11 08:30:00",95.24833,20.41,TRADE
SNOWY1,"2005/05/11 09:00:00",111.26,19.77,TRADE
SNOWY1,"2005/05/11 09:30:00",105.77,19.61,TRADE
SNOWY1,"2005/05/11 10:00:00",114.825,19.76,TRADE
SNOWY1,"2005/05/11 10:30:00",99.85833,19.76,TRADE
SNOWY1,"2005/05/11 11:00:00",97.285,19.69,TRADE
SNOWY1,"2005/05/11 11:30:00",96.6,19.77,TRADE
SNOWY1,"2005/05/11 12:00:00",103.975,19.74,TRADE
SNOWY1,"2005/05/11 12:30:00",93.05667,21.18,TRADE
SNOWY1,"2005/05/11 13:00:00",102.905,19.72,TRADE
SNOWY1,"2005/05/11 13:30:00",103.26833,21.79,TRADE
SNOWY1,"2005/05/11 14:00:00",74.715,19.57,TRADE
SNOWY1,"2005/05/11 14:30:00",98.69167,21.73,TRADE
SNOWY1,"2005/05/11 15:00:00",88.12833,19.84,TRADE
SNOWY1,"2005/05/11 15:30:00",97.56167,20.23,TRADE
SNOWY1,"2005/05/11 16:00:00",89.86,19.65,TRADE
SNOWY1,"2005/05/11 16:30:00",98.41667,20.65,TRADE
SNOWY1,"2005/05/11 17:00:00",31.65333,22.08,TRADE
SNOWY1,"2005/05/11 17:30:00",23.285,25.93,TRADE
SNOWY1,"2005/05/11 18:00:00",57.36333,35.9,TRADE
SNOWY1,"2005/05/11 18:30:00",20.69333,36.98,TRADE
SNOWY1,"2005/05/11 19:00:00",31.30333,30.23,TRADE
SNOWY1,"2005/05/11 19:30:00",22.15167,26.06,TRADE
SNOWY1,"2005/05/11 20:00:00",21.47667,24.04,TRADE
SNOWY1,"2005/05/11 20:30:00",22.555,21.22,TRADE
SNOWY1,"2005/05/11 21:00:00",28.03167,19.79,TRADE
SNOWY1,"2005/05/11 21:30:00",79.77667,19.57,TRADE
SNOWY1,"2005/05/11 22:00:00",80.13833,18.5,TRADE
SNOWY1,"2005/05/11 22:30:00",95.625,22.56,TRADE
SNOWY1,"2005/05/11 23:00:00",100.34667,21.16,TRADE
SNOWY1,"2005/05/11 23:30:00",97.45333,25.08,TRADE
SNOWY1,"2005/05/12 00:00:00",94.38833,21.49,TRADE
SNOWY1,"2005/05/12 00:30:00",93.89167,20.23,TRADE
SNOWY1,"2005/05/12 01:00:00",92.29833,19.5,TRADE
SNOWY1,"2005/05/12 01:30:00",98.16833,20.69,TRADE
SNOWY1,"2005/05/12 02:00:00",92.42167,19.48,TRADE
SNOWY1,"2005/05/12 02:30:00",87.385,17.6,TRADE
SNOWY1,"2005/05/12 03:00:00",91.16333,16.54,TRADE
SNOWY1,"2005/05/12 03:30:00",97.19167,15.67,TRADE
SNOWY1,"2005/05/12 04:00:00",100.25833,15.07,TRADE
SNOWY1,"2005/05/12 04:30:00",85.07833,14.93,TRADE
SNOWY1,"2005/05/12 05:00:00",96.61167,15.08,TRADE
SNOWY1,"2005/05/12 05:30:00",88.21,15.71,TRADE
SNOWY1,"2005/05/12 06:00:00",111.19333,17.48,TRADE
SNOWY1,"2005/05/12 06:30:00",108.185,19.62,TRADE
SNOWY1,"2005/05/12 07:00:00",98.54833,24.4,TRADE
SNOWY1,"2005/05/12 07:30:00",78.63167,21.07,TRADE
SNOWY1,"2005/05/12 08:00:00",29.19833,25.76,TRADE
SNOWY1,"2005/05/12 08:30:00",29.16167,25.93,TRADE
SNOWY1,"2005/05/12 09:00:00",15.86167,22.45,TRADE
SNOWY1,"2005/05/12 09:30:00",16.48833,20.78,TRADE
SNOWY1,"2005/05/12 10:00:00",20.82833,20.11,TRADE
SNOWY1,"2005/05/12 10:30:00",32.9,19.74,TRADE
SNOWY1,"2005/05/12 11:00:00",20.55,19.67,TRADE
SNOWY1,"2005/05/12 11:30:00",15.265,19.62,TRADE
SNOWY1,"2005/05/12 12:00:00",20.065,19.57,TRADE
SNOWY1,"2005/05/12 12:30:00",20.25667,19.5,TRADE
SNOWY1,"2005/05/12 13:00:00",21.255,19.5,TRADE
SNOWY1,"2005/05/12 13:30:00",18.83833,19.5,TRADE
SNOWY1,"2005/05/12 14:00:00",25.54,19.5,TRADE
SNOWY1,"2005/05/12 14:30:00",25.73667,19.5,TRADE
SNOWY1,"2005/05/12 15:00:00",28.32667,19.26,TRADE
SNOWY1,"2005/05/12 15:30:00",22.46833,18.51,TRADE
SNOWY1,"2005/05/12 16:00:00",25.51,19.5,TRADE
SNOWY1,"2005/05/12 16:30:00",29.205,19.5,TRADE
SNOWY1,"2005/05/12 17:00:00",16.02833,21.07,TRADE
SNOWY1,"2005/05/12 17:30:00",31.58167,24.84,TRADE
SNOWY1,"2005/05/12 18:00:00",71.67833,35.41,TRADE
SNOWY1,"2005/05/12 18:30:00",31.18333,37.88,TRADE
SNOWY1,"2005/05/12 19:00:00",40.36167,27.41,TRADE
SNOWY1,"2005/05/12 19:30:00",29,25.29,TRADE
SNOWY1,"2005/05/12 20:00:00",28.70667,21.34,TRADE
SNOWY1,"2005/05/12 20:30:00",22.95,19.93,TRADE
SNOWY1,"2005/05/12 21:00:00",71.90167,19.95,TRADE
SNOWY1,"2005/05/12 21:30:00",92.00833,18.77,TRADE
SNOWY1,"2005/05/12 22:00:00",106.70833,17.57,TRADE
SNOWY1,"2005/05/12 22:30:00",108.8,19.87,TRADE
SNOWY1,"2005/05/12 23:00:00",94.045,19.59,TRADE
SNOWY1,"2005/05/12 23:30:00",96.11833,21.12,TRADE
SNOWY1,"2005/05/13 00:00:00",86.965,19.84,TRADE
SNOWY1,"2005/05/13 00:30:00",98.56,19.48,TRADE
SNOWY1,"2005/05/13 01:00:00",89.17667,19.06,TRADE
SNOWY1,"2005/05/13 01:30:00",103.79333,19.47,TRADE
SNOWY1,"2005/05/13 02:00:00",96.66833,18.58,TRADE
SNOWY1,"2005/05/13 02:30:00",89.09,16.73,TRADE
SNOWY1,"2005/05/13 03:00:00",82.95333,15.09,TRADE
SNOWY1,"2005/05/13 03:30:00",87.14,14.97,TRADE
SNOWY1,"2005/05/13 04:00:00",91.87333,14.95,TRADE
SNOWY1,"2005/05/13 04:30:00",94.32833,15,TRADE
SNOWY1,"2005/05/13 05:00:00",87.07333,14.95,TRADE
SNOWY1,"2005/05/13 05:30:00",85.53833,15.87,TRADE
SNOWY1,"2005/05/13 06:00:00",84.57667,16.87,TRADE
SNOWY1,"2005/05/13 06:30:00",123.82333,18.89,TRADE
SNOWY1,"2005/05/13 07:00:00",104.35,19.86,TRADE
SNOWY1,"2005/05/13 07:30:00",109.24333,20.42,TRADE
SNOWY1,"2005/05/13 08:00:00",45.19667,25.13,TRADE
SNOWY1,"2005/05/13 08:30:00",35.51667,25.62,TRADE
SNOWY1,"2005/05/13 09:00:00",24.14333,23.03,TRADE
SNOWY1,"2005/05/13 09:30:00",15.74167,24.35,TRADE
SNOWY1,"2005/05/13 10:00:00",31.85833,24.35,TRADE
SNOWY1,"2005/05/13 10:30:00",12.69833,23.07,TRADE
SNOWY1,"2005/05/13 11:00:00",24.44833,21.35,TRADE
SNOWY1,"2005/05/13 11:30:00",31.07333,21.01,TRADE
SNOWY1,"2005/05/13 12:00:00",21.83833,20.83,TRADE
SNOWY1,"2005/05/13 12:30:00",28.785,20.27,TRADE
SNOWY1,"2005/05/13 13:00:00",30.37167,19.84,TRADE
SNOWY1,"2005/05/13 13:30:00",84.61667,19.94,TRADE
SNOWY1,"2005/05/13 14:00:00",91.47833,19.68,TRADE
SNOWY1,"2005/05/13 14:30:00",85.76833,19.5,TRADE
SNOWY1,"2005/05/13 15:00:00",92.135,18.88,TRADE
SNOWY1,"2005/05/13 15:30:00",96.37,18.45,TRADE
SNOWY1,"2005/05/13 16:00:00",95.21667,19.22,TRADE
SNOWY1,"2005/05/13 16:30:00",100.505,19.5,TRADE
SNOWY1,"2005/05/13 17:00:00",93.845,19.54,TRADE
SNOWY1,"2005/05/13 17:30:00",87.87667,23.28,TRADE
SNOWY1,"2005/05/13 18:00:00",118.43,26.6,TRADE
SNOWY1,"2005/05/13 18:30:00",98.46833,26.6,TRADE
SNOWY1,"2005/05/13 19:00:00",94.71333,24.72,TRADE
SNOWY1,"2005/05/13 19:30:00",88.28333,20.92,TRADE
SNOWY1,"2005/05/13 20:00:00",92.435,19.69,TRADE
SNOWY1,"2005/05/13 20:30:00",98.185,19.47,TRADE
SNOWY1,"2005/05/13 21:00:00",87.175,18.41,TRADE
SNOWY1,"2005/05/13 21:30:00",89.71667,17.86,TRADE
SNOWY1,"2005/05/13 22:00:00",94.96333,17.5,TRADE
SNOWY1,"2005/05/13 22:30:00",90.85167,22.24,TRADE
SNOWY1,"2005/05/13 23:00:00",100.975,20.7,TRADE
SNOWY1,"2005/05/13 23:30:00",95.43167,25.98,TRADE
SNOWY1,"2005/05/14 00:00:00",97.69333,22.6,TRADE
SNOWY1,"2005/05/14 00:30:00",92.46667,21.01,TRADE
SNOWY1,"2005/05/14 01:00:00",95.25667,19.52,TRADE
SNOWY1,"2005/05/14 01:30:00",100.095,20.17,TRADE
SNOWY1,"2005/05/14 02:00:00",90.39333,19.48,TRADE
SNOWY1,"2005/05/14 02:30:00",98.565,18.77,TRADE
SNOWY1,"2005/05/14 03:00:00",93.455,17.69,TRADE
SNOWY1,"2005/05/14 03:30:00",88.305,15.25,TRADE
SNOWY1,"2005/05/14 04:00:00",89.71,14.89,TRADE
SNOWY1,"2005/05/14 04:30:00",97.75167,14.37,TRADE
SNOWY1,"2005/05/14 05:00:00",92.09667,14.8,TRADE
SNOWY1,"2005/05/14 05:30:00",86.39667,14.07,TRADE
SNOWY1,"2005/05/14 06:00:00",93.11667,14.86,TRADE
SNOWY1,"2005/05/14 06:30:00",98.56167,14.68,TRADE
SNOWY1,"2005/05/14 07:00:00",99.51333,15.19,TRADE
SNOWY1,"2005/05/14 07:30:00",91.19667,15.58,TRADE
SNOWY1,"2005/05/14 08:00:00",98.38167,18.5,TRADE
SNOWY1,"2005/05/14 08:30:00",107.41167,19.46,TRADE
SNOWY1,"2005/05/14 09:00:00",103.695,19.5,TRADE
SNOWY1,"2005/05/14 09:30:00",93.28833,21.43,TRADE
SNOWY1,"2005/05/14 10:00:00",91.085,21.78,TRADE
SNOWY1,"2005/05/14 10:30:00",100.87167,24.04,TRADE
SNOWY1,"2005/05/14 11:00:00",84.02333,20.62,TRADE
SNOWY1,"2005/05/14 11:30:00",96.39333,19.5,TRADE
SNOWY1,"2005/05/14 12:00:00",82.52833,19.49,TRADE
SNOWY1,"2005/05/14 12:30:00",107.05667,19.46,TRADE
SNOWY1,"2005/05/14 13:00:00",89.87833,19.36,TRADE
SNOWY1,"2005/05/14 13:30:00",84.99,18.93,TRADE
SNOWY1,"2005/05/14 14:00:00",85.38833,18.57,TRADE
SNOWY1,"2005/05/14 14:30:00",88.175,17.74,TRADE
SNOWY1,"2005/05/14 15:00:00",89.98,17.92,TRADE
SNOWY1,"2005/05/14 15:30:00",88.54,17.29,TRADE
SNOWY1,"2005/05/14 16:00:00",88.16667,17.87,TRADE
SNOWY1,"2005/05/14 16:30:00",89.02833,18.24,TRADE
SNOWY1,"2005/05/14 17:00:00",97.025,19.33,TRADE
SNOWY1,"2005/05/14 17:30:00",87.19833,22.47,TRADE
SNOWY1,"2005/05/14 18:00:00",120.22333,34.6,TRADE
SNOWY1,"2005/05/14 18:30:00",96.235,34.34,TRADE
SNOWY1,"2005/05/14 19:00:00",79.54667,27.04,TRADE
SNOWY1,"2005/05/14 19:30:00",82.45333,25.9,TRADE
SNOWY1,"2005/05/14 20:00:00",80.87667,22.73,TRADE
SNOWY1,"2005/05/14 20:30:00",90.47667,21.03,TRADE
SNOWY1,"2005/05/14 21:00:00",93.62,19.79,TRADE
SNOWY1,"2005/05/14 21:30:00",79.64333,19.54,TRADE
SNOWY1,"2005/05/14 22:00:00",76.28833,19.5,TRADE
SNOWY1,"2005/05/14 22:30:00",96.11167,19.8,TRADE
SNOWY1,"2005/05/14 23:00:00",89.06667,20.23,TRADE
SNOWY1,"2005/05/14 23:30:00",95.07,25.55,TRADE
SNOWY1,"2005/05/15 00:00:00",87.10833,23.45,TRADE
SNOWY1,"2005/05/15 00:30:00",91.345,20.18,TRADE
SNOWY1,"2005/05/15 01:00:00",91.88833,19.5,TRADE
SNOWY1,"2005/05/15 01:30:00",104.14833,19.68,TRADE
SNOWY1,"2005/05/15 02:00:00",95.505,19.26,TRADE
SNOWY1,"2005/05/15 02:30:00",105.285,18.39,TRADE
SNOWY1,"2005/05/15 03:00:00",103.7,17.17,TRADE
SNOWY1,"2005/05/15 03:30:00",99.82,15.22,TRADE
SNOWY1,"2005/05/15 04:00:00",100.97,14.75,TRADE
SNOWY1,"2005/05/15 04:30:00",92.82833,16.31,TRADE
SNOWY1,"2005/05/15 05:00:00",98.23833,16.28,TRADE
SNOWY1,"2005/05/15 05:30:00",101.21833,16.27,TRADE
SNOWY1,"2005/05/15 06:00:00",98.32333,15.04,TRADE
SNOWY1,"2005/05/15 06:30:00",99.47333,15.05,TRADE
SNOWY1,"2005/05/15 07:00:00",99.23667,15.14,TRADE
SNOWY1,"2005/05/15 07:30:00",101.07167,14.33,TRADE
SNOWY1,"2005/05/15 08:00:00",96.2,16.32,TRADE
SNOWY1,"2005/05/15 08:30:00",104.91333,18.63,TRADE
SNOWY1,"2005/05/15 09:00:00",99.50667,19.39,TRADE
SNOWY1,"2005/05/15 09:30:00",103.65,19.5,TRADE
SNOWY1,"2005/05/15 10:00:00",102.90333,19.87,TRADE
SNOWY1,"2005/05/15 10:30:00",98.02667,20.24,TRADE
SNOWY1,"2005/05/15 11:00:00",95.43,19.65,TRADE
SNOWY1,"2005/05/15 11:30:00",93.25833,19.5,TRADE
SNOWY1,"2005/05/15 12:00:00",95.81167,19.5,TRADE
SNOWY1,"2005/05/15 12:30:00",90.2,19.5,TRADE
SNOWY1,"2005/05/15 13:00:00",93.345,19.5,TRADE
SNOWY1,"2005/05/15 13:30:00",96.16667,19.5,TRADE
SNOWY1,"2005/05/15 14:00:00",95.01333,19.48,TRADE
SNOWY1,"2005/05/15 14:30:00",97.255,19.48,TRADE
SNOWY1,"2005/05/15 15:00:00",94.95333,19.45,TRADE
SNOWY1,"2005/05/15 15:30:00",89.79167,19.49,TRADE
SNOWY1,"2005/05/15 16:00:00",91.54167,19.5,TRADE
SNOWY1,"2005/05/15 16:30:00",96.59667,19.5,TRADE
SNOWY1,"2005/05/15 17:00:00",70.705,22.36,TRADE
SNOWY1,"2005/05/15 17:30:00",35.55667,28.81,TRADE
SNOWY1,"2005/05/15 18:00:00",49.89833,45.12,TRADE
SNOWY1,"2005/05/15 18:30:00",41.51333,43.08,TRADE
SNOWY1,"2005/05/15 19:00:00",23.25,36.58,TRADE
SNOWY1,"2005/05/15 19:30:00",10.69667,26.86,TRADE
SNOWY1,"2005/05/15 20:00:00",31.11667,25.95,TRADE
SNOWY1,"2005/05/15 20:30:00",16.96833,22.95,TRADE
SNOWY1,"2005/05/15 21:00:00",64.76,20.33,TRADE
SNOWY1,"2005/05/15 21:30:00",81.055,19.77,TRADE
SNOWY1,"2005/05/15 22:00:00",80.25667,19.35,TRADE
SNOWY1,"2005/05/15 22:30:00",96.95667,19.79,TRADE
SNOWY1,"2005/05/15 23:00:00",90.78833,19.65,TRADE
SNOWY1,"2005/05/15 23:30:00",97.46333,20.52,TRADE
SNOWY1,"2005/05/16 00:00:00",85.59,20.01,TRADE
SNOWY1,"2005/05/16 00:30:00",91.87167,19.49,TRADE
SNOWY1,"2005/05/16 01:00:00",64.04167,18.41,TRADE
SNOWY1,"2005/05/16 01:30:00",91.35333,18.85,TRADE
SNOWY1,"2005/05/16 02:00:00",100.07167,18.88,TRADE
SNOWY1,"2005/05/16 02:30:00",99.30167,17.34,TRADE
SNOWY1,"2005/05/16 03:00:00",90.79167,17.26,TRADE
SNOWY1,"2005/05/16 03:30:00",94.16333,15.99,TRADE
SNOWY1,"2005/05/16 04:00:00",87.13,15.78,TRADE
SNOWY1,"2005/05/16 04:30:00",90.66333,15.98,TRADE
SNOWY1,"2005/05/16 05:00:00",82.17667,16.41,TRADE
SNOWY1,"2005/05/16 05:30:00",89.55333,16.96,TRADE
SNOWY1,"2005/05/16 06:00:00",93.83833,18.23,TRADE
SNOWY1,"2005/05/16 06:30:00",108.95167,19.46,TRADE
SNOWY1,"2005/05/16 07:00:00",75.46667,24.68,TRADE
SNOWY1,"2005/05/16 07:30:00",62.01167,25.67,TRADE
SNOWY1,"2005/05/16 08:00:00",44.10167,30.3,TRADE
SNOWY1,"2005/05/16 08:30:00",53.07333,27.89,TRADE
SNOWY1,"2005/05/16 09:00:00",25.10167,26.5,TRADE
SNOWY1,"2005/05/16 09:30:00",17.095,26.5,TRADE
SNOWY1,"2005/05/16 10:00:00",26.21167,28.07,TRADE
SNOWY1,"2005/05/16 10:30:00",15.44833,36.02,TRADE
SNOWY1,"2005/05/16 11:00:00",18.43333,37.87,TRADE
SNOWY1,"2005/05/16 11:30:00",19.05,34.12,TRADE
SNOWY1,"2005/05/16 12:00:00",16.735,29.18,TRADE
SNOWY1,"2005/05/16 12:30:00",14.93333,29.63,TRADE
SNOWY1,"2005/05/16 13:00:00",12.37667,29.74,TRADE
SNOWY1,"2005/05/16 13:30:00",26.12167,31.26,TRADE
SNOWY1,"2005/05/16 14:00:00",18.31,29.38,TRADE
SNOWY1,"2005/05/16 14:30:00",18.56667,29.1,TRADE
SNOWY1,"2005/05/16 15:00:00",12.30833,26.5,TRADE
SNOWY1,"2005/05/16 15:30:00",17.755,26.49,TRADE
SNOWY1,"2005/05/16 16:00:00",21.85333,26.08,TRADE
SNOWY1,"2005/05/16 16:30:00",22.70667,26.91,TRADE
SNOWY1,"2005/05/16 17:00:00",16.89833,29.18,TRADE
SNOWY1,"2005/05/16 17:30:00",13.46833,34.35,TRADE
SNOWY1,"2005/05/16 18:00:00",39.82,47.85,TRADE
SNOWY1,"2005/05/16 18:30:00",33.77667,40.69,TRADE
SNOWY1,"2005/05/16 19:00:00",6.42333,38.1,TRADE
SNOWY1,"2005/05/16 19:30:00",19.03667,38.08,TRADE
SNOWY1,"2005/05/16 20:00:00",10.03833,32.05,TRADE
SNOWY1,"2005/05/16 20:30:00",20.49,29.23,TRADE
SNOWY1,"2005/05/16 21:00:00",15.87833,26.94,TRADE
SNOWY1,"2005/05/16 21:30:00",13.02833,26.3,TRADE
SNOWY1,"2005/05/16 22:00:00",28.43333,20.72,TRADE
SNOWY1,"2005/05/16 22:30:00",22.97333,26.5,TRADE
SNOWY1,"2005/05/16 23:00:00",11.02667,26.06,TRADE
SNOWY1,"2005/05/16 23:30:00",37.62,26.5,TRADE
SNOWY1,"2005/05/17 00:00:00",12.54833,25.92,TRADE
SNOWY1,"2005/05/17 00:30:00",30.83833,26.5,TRADE
SNOWY1,"2005/05/17 01:00:00",25.80333,22.88,TRADE
SNOWY1,"2005/05/17 01:30:00",38.12333,25.66,TRADE
SNOWY1,"2005/05/17 02:00:00",21.36833,22.49,TRADE
SNOWY1,"2005/05/17 02:30:00",69.315,20.31,TRADE
SNOWY1,"2005/05/17 03:00:00",108.42667,19.47,TRADE
SNOWY1,"2005/05/17 03:30:00",99.19167,18.78,TRADE
SNOWY1,"2005/05/17 04:00:00",90.83833,18.02,TRADE
SNOWY1,"2005/05/17 04:30:00",93.56667,16.73,TRADE
SNOWY1,"2005/05/17 05:00:00",89.71167,17.41,TRADE
SNOWY1,"2005/05/17 05:30:00",100.66667,18.87,TRADE
SNOWY1,"2005/05/17 06:00:00",95.20167,19.48,TRADE
SNOWY1,"2005/05/17 06:30:00",102.68167,23.58,TRADE
SNOWY1,"2005/05/17 07:00:00",116.30167,28.32,TRADE
SNOWY1,"2005/05/17 07:30:00",45.705,25.56,TRADE
SNOWY1,"2005/05/17 08:00:00",41.94167,26.5,TRADE
SNOWY1,"2005/05/17 08:30:00",53.98167,26.53,TRADE
SNOWY1,"2005/05/17 09:00:00",28.4,26.58,TRADE
SNOWY1,"2005/05/17 09:30:00",27.72833,26.52,TRADE
SNOWY1,"2005/05/17 10:00:00",33.81333,26.55,TRADE
SNOWY1,"2005/05/17 10:30:00",27.14833,26.85,TRADE
SNOWY1,"2005/05/17 11:00:00",20.93667,26.6,TRADE
SNOWY1,"2005/05/17 11:30:00",27.66833,26.6,TRADE
SNOWY1,"2005/05/17 12:00:00",33.765,26.58,TRADE
SNOWY1,"2005/05/17 12:30:00",27.23667,28.29,TRADE
SNOWY1,"2005/05/17 13:00:00",28.78833,29.05,TRADE
SNOWY1,"2005/05/17 13:30:00",27.58167,28.64,TRADE
SNOWY1,"2005/05/17 14:00:00",19.00167,28.23,TRADE
SNOWY1,"2005/05/17 14:30:00",23.25333,28.56,TRADE
SNOWY1,"2005/05/17 15:00:00",21.50167,27.34,TRADE
SNOWY1,"2005/05/17 15:30:00",31.89333,27.84,TRADE
SNOWY1,"2005/05/17 16:00:00",23.96167,28.51,TRADE
SNOWY1,"2005/05/17 16:30:00",28.165,31.23,TRADE
SNOWY1,"2005/05/17 17:00:00",44.03,36.89,TRADE
SNOWY1,"2005/05/17 17:30:00",34.07,40.47,TRADE
SNOWY1,"2005/05/17 18:00:00",53.34167,58.77,TRADE
SNOWY1,"2005/05/17 18:30:00",24.86667,52.26,TRADE
SNOWY1,"2005/05/17 19:00:00",31.75,43.09,TRADE
SNOWY1,"2005/05/17 19:30:00",14.10667,38.03,TRADE
SNOWY1,"2005/05/17 20:00:00",8.28,33.1,TRADE
SNOWY1,"2005/05/17 20:30:00",19.85833,29.55,TRADE
SNOWY1,"2005/05/17 21:00:00",13.73,28.08,TRADE
SNOWY1,"2005/05/17 21:30:00",10.83833,26.5,TRADE
SNOWY1,"2005/05/17 22:00:00",48.14167,24.73,TRADE
SNOWY1,"2005/05/17 22:30:00",33.03667,33.51,TRADE
SNOWY1,"2005/05/17 23:00:00",18.745,26.86,TRADE
SNOWY1,"2005/05/17 23:30:00",32.18,32.14,TRADE
SNOWY1,"2005/05/18 00:00:00",16.84,27.19,TRADE
SNOWY1,"2005/05/18 00:30:00",41.19,26.49,TRADE
SNOWY1,"2005/05/18 01:00:00",99.865,24.53,TRADE
SNOWY1,"2005/05/18 01:30:00",117.86,26.48,TRADE
SNOWY1,"2005/05/18 02:00:00",105.42333,26.37,TRADE
SNOWY1,"2005/05/18 02:30:00",103.61167,20.85,TRADE
SNOWY1,"2005/05/18 03:00:00",97.69167,19.44,TRADE
SNOWY1,"2005/05/18 03:30:00",98.76833,18.56,TRADE
SNOWY1,"2005/05/18 04:00:00",94.14167,17.5,TRADE
SNOWY1,"2005/05/18 04:30:00",88.30333,17.6,TRADE
SNOWY1,"2005/05/18 05:00:00",95.675,18.25,TRADE
SNOWY1,"2005/05/18 05:30:00",97.14667,18.88,TRADE
SNOWY1,"2005/05/18 06:00:00",100.76833,19.71,TRADE
SNOWY1,"2005/05/18 06:30:00",93.92333,23.67,TRADE
SNOWY1,"2005/05/18 07:00:00",72.74167,31.38,TRADE
SNOWY1,"2005/05/18 07:30:00",30.705,26.78,TRADE
SNOWY1,"2005/05/18 08:00:00",34.83,35.51,TRADE
SNOWY1,"2005/05/18 08:30:00",32.82667,28.45,TRADE
SNOWY1,"2005/05/18 09:00:00",7.23,26.54,TRADE
SNOWY1,"2005/05/18 09:30:00",29.49833,26.59,TRADE
SNOWY1,"2005/05/18 10:00:00",23.815,26.55,TRADE
SNOWY1,"2005/05/18 10:30:00",29.10333,27,TRADE
SNOWY1,"2005/05/18 11:00:00",23.63667,27.73,TRADE
SNOWY1,"2005/05/18 11:30:00",31.445,26.52,TRADE
SNOWY1,"2005/05/18 12:00:00",23.44333,26.5,TRADE
SNOWY1,"2005/05/18 12:30:00",19.37167,26.5,TRADE
SNOWY1,"2005/05/18 13:00:00",21.26,26.5,TRADE
SNOWY1,"2005/05/18 13:30:00",29.33333,26.5,TRADE
SNOWY1,"2005/05/18 14:00:00",16.60167,26.5,TRADE
SNOWY1,"2005/05/18 14:30:00",16.235,26.5,TRADE
SNOWY1,"2005/05/18 15:00:00",24.66667,26.5,TRADE
SNOWY1,"2005/05/18 15:30:00",21.91667,26.5,TRADE
SNOWY1,"2005/05/18 16:00:00",22.41,26.5,TRADE
SNOWY1,"2005/05/18 16:30:00",23.35833,26.5,TRADE
SNOWY1,"2005/05/18 17:00:00",29.27167,26.88,TRADE
SNOWY1,"2005/05/18 17:30:00",38.695,34.83,TRADE
SNOWY1,"2005/05/18 18:00:00",52.17,50.65,TRADE
SNOWY1,"2005/05/18 18:30:00",30.44,39.16,TRADE
SNOWY1,"2005/05/18 19:00:00",25.555,38.1,TRADE
SNOWY1,"2005/05/18 19:30:00",13.82333,37.81,TRADE
SNOWY1,"2005/05/18 20:00:00",20.94833,30.21,TRADE
SNOWY1,"2005/05/18 20:30:00",20.47,26.6,TRADE
SNOWY1,"2005/05/18 21:00:00",21.755,25.67,TRADE
SNOWY1,"2005/05/18 21:30:00",21.99833,22.91,TRADE
SNOWY1,"2005/05/18 22:00:00",21.97333,20.15,TRADE
SNOWY1,"2005/05/18 22:30:00",32.86,26.03,TRADE
SNOWY1,"2005/05/18 23:00:00",24.69167,23.11,TRADE
SNOWY1,"2005/05/18 23:30:00",42.73833,26.41,TRADE
SNOWY1,"2005/05/19 00:00:00",27.07833,23.74,TRADE
SNOWY1,"2005/05/19 00:30:00",67.64,25.75,TRADE
SNOWY1,"2005/05/19 01:00:00",99.25667,22.9,TRADE
SNOWY1,"2005/05/19 01:30:00",126.99167,25.28,TRADE
SNOWY1,"2005/05/19 02:00:00",102.54833,21.02,TRADE
SNOWY1,"2005/05/19 02:30:00",89.84833,19.58,TRADE
SNOWY1,"2005/05/19 03:00:00",94.65,18.62,TRADE
SNOWY1,"2005/05/19 03:30:00",97.795,17.5,TRADE
SNOWY1,"2005/05/19 04:00:00",101.61333,16.47,TRADE
SNOWY1,"2005/05/19 04:30:00",90.65833,16.1,TRADE
SNOWY1,"2005/05/19 05:00:00",94.195,15.8,TRADE
SNOWY1,"2005/05/19 05:30:00",98.88333,16.84,TRADE
SNOWY1,"2005/05/19 06:00:00",97.75667,18.6,TRADE
SNOWY1,"2005/05/19 06:30:00",96.69667,24.04,TRADE
SNOWY1,"2005/05/19 07:00:00",115.155,34.27,TRADE
SNOWY1,"2005/05/19 07:30:00",61.945,33.63,TRADE
SNOWY1,"2005/05/19 08:00:00",70.21,38.05,TRADE
SNOWY1,"2005/05/19 08:30:00",42.965,38.03,TRADE
SNOWY1,"2005/05/19 09:00:00",8.91167,33.38,TRADE
SNOWY1,"2005/05/19 09:30:00",18.10833,34.82,TRADE
SNOWY1,"2005/05/19 10:00:00",19.24833,32,TRADE
SNOWY1,"2005/05/19 10:30:00",15.12667,31.5,TRADE
SNOWY1,"2005/05/19 11:00:00",7.62833,27.18,TRADE
SNOWY1,"2005/05/19 11:30:00",10.90167,26.7,TRADE
SNOWY1,"2005/05/19 12:00:00",22.67,26.49,TRADE
SNOWY1,"2005/05/19 12:30:00",13.01167,24.63,TRADE
SNOWY1,"2005/05/19 13:00:00",18.88,24.74,TRADE
SNOWY1,"2005/05/19 13:30:00",26.98833,25.77,TRADE
SNOWY1,"2005/05/19 14:00:00",24.97333,25.29,TRADE
SNOWY1,"2005/05/19 14:30:00",17.62,23.13,TRADE
SNOWY1,"2005/05/19 15:00:00",13.61667,22.11,TRADE
SNOWY1,"2005/05/19 15:30:00",13.21667,22.21,TRADE
SNOWY1,"2005/05/19 16:00:00",17.49333,22.34,TRADE
SNOWY1,"2005/05/19 16:30:00",15.565,21.81,TRADE
SNOWY1,"2005/05/19 17:00:00",3.13667,23.79,TRADE
SNOWY1,"2005/05/19 17:30:00",26.74,31.76,TRADE
SNOWY1,"2005/05/19 18:00:00",70.65,41.38,TRADE
SNOWY1,"2005/05/19 18:30:00",28.695,40.91,TRADE
SNOWY1,"2005/05/19 19:00:00",19.51833,38.69,TRADE
SNOWY1,"2005/05/19 19:30:00",23.04833,33.55,TRADE
SNOWY1,"2005/05/19 20:00:00",28.68667,30.8,TRADE
SNOWY1,"2005/05/19 20:30:00",22.57667,28.8,TRADE
SNOWY1,"2005/05/19 21:00:00",39.995,23.82,TRADE
SNOWY1,"2005/05/19 21:30:00",16.56333,20.18,TRADE
SNOWY1,"2005/05/19 22:00:00",44.58,19.92,TRADE
SNOWY1,"2005/05/19 22:30:00",19.57833,24.78,TRADE
SNOWY1,"2005/05/19 23:00:00",25.59333,23.12,TRADE
SNOWY1,"2005/05/19 23:30:00",38.95333,28.34,TRADE
SNOWY1,"2005/05/20 00:00:00",24.75667,25.1,TRADE
SNOWY1,"2005/05/20 00:30:00",34.15167,24.57,TRADE
SNOWY1,"2005/05/20 01:00:00",36.30167,20.69,TRADE
SNOWY1,"2005/05/20 01:30:00",32.10833,24.08,TRADE
SNOWY1,"2005/05/20 02:00:00",60.29833,20.06,TRADE
SNOWY1,"2005/05/20 02:30:00",116.39333,18.01,TRADE
SNOWY1,"2005/05/20 03:00:00",98.00833,17.69,TRADE
SNOWY1,"2005/05/20 03:30:00",102.32667,16.6,TRADE
SNOWY1,"2005/05/20 04:00:00",96.83833,16.48,TRADE
SNOWY1,"2005/05/20 04:30:00",95.23833,16.36,TRADE
SNOWY1,"2005/05/20 05:00:00",99.59,16.42,TRADE
SNOWY1,"2005/05/20 05:30:00",97.65333,16.47,TRADE
SNOWY1,"2005/05/20 06:00:00",101.51,18.28,TRADE
SNOWY1,"2005/05/20 06:30:00",116.665,23.5,TRADE
SNOWY1,"2005/05/20 07:00:00",53.41833,29.93,TRADE
SNOWY1,"2005/05/20 07:30:00",52.60833,27.85,TRADE
SNOWY1,"2005/05/20 08:00:00",77.99,37.02,TRADE
SNOWY1,"2005/05/20 08:30:00",57.42167,35.78,TRADE
SNOWY1,"2005/05/20 09:00:00",18.80333,31.68,TRADE
SNOWY1,"2005/05/20 09:30:00",25.74667,32,TRADE
SNOWY1,"2005/05/20 10:00:00",12.51167,28.28,TRADE
SNOWY1,"2005/05/20 10:30:00",22.375,26.5,TRADE
SNOWY1,"2005/05/20 11:00:00",26.96333,25.47,TRADE
SNOWY1,"2005/05/20 11:30:00",22.88667,22.16,TRADE
SNOWY1,"2005/05/20 12:00:00",17.13833,21.2,TRADE
SNOWY1,"2005/05/20 12:30:00",33.29667,22.4,TRADE
SNOWY1,"2005/05/20 13:00:00",28.96333,23.1,TRADE
SNOWY1,"2005/05/20 13:30:00",32.76167,26.28,TRADE
SNOWY1,"2005/05/20 14:00:00",21.62,22.58,TRADE
SNOWY1,"2005/05/20 14:30:00",30.33667,22.25,TRADE
SNOWY1,"2005/05/20 15:00:00",27.06167,22.68,TRADE
SNOWY1,"2005/05/20 15:30:00",27.965,20.79,TRADE
SNOWY1,"2005/05/20 16:00:00",32.965,21.63,TRADE
SNOWY1,"2005/05/20 16:30:00",32.03167,23.39,TRADE
SNOWY1,"2005/05/20 17:00:00",24.77667,25.15,TRADE
SNOWY1,"2005/05/20 17:30:00",20.52667,30.3,TRADE
SNOWY1,"2005/05/20 18:00:00",63.12833,40.92,TRADE
SNOWY1,"2005/05/20 18:30:00",43.045,38.05,TRADE
SNOWY1,"2005/05/20 19:00:00",53.54833,36.99,TRADE
SNOWY1,"2005/05/20 19:30:00",9.81667,31.11,TRADE
SNOWY1,"2005/05/20 20:00:00",28.055,26.5,TRADE
SNOWY1,"2005/05/20 20:30:00",25.485,26.5,TRADE
SNOWY1,"2005/05/20 21:00:00",31.27167,26.16,TRADE
SNOWY1,"2005/05/20 21:30:00",34.405,23.48,TRADE
SNOWY1,"2005/05/20 22:00:00",19.03,19.56,TRADE
SNOWY1,"2005/05/20 22:30:00",30.47667,27.58,TRADE
SNOWY1,"2005/05/20 23:00:00",25.765,26.04,TRADE
SNOWY1,"2005/05/20 23:30:00",33.75333,29.05,TRADE
SNOWY1,"2005/05/21 00:00:00",56.84,24.68,TRADE
SNOWY1,"2005/05/21 00:30:00",29.79333,26.45,TRADE
SNOWY1,"2005/05/21 01:00:00",55.425,21.41,TRADE
SNOWY1,"2005/05/21 01:30:00",96.11167,25.1,TRADE
SNOWY1,"2005/05/21 02:00:00",104.66833,20.71,TRADE
SNOWY1,"2005/05/21 02:30:00",118.22,18.76,TRADE
SNOWY1,"2005/05/21 03:00:00",109.39667,17.38,TRADE
SNOWY1,"2005/05/21 03:30:00",100.42167,15.4,TRADE
SNOWY1,"2005/05/21 04:00:00",92.16333,14.2,TRADE
SNOWY1,"2005/05/21 04:30:00",104.89833,13.45,TRADE
SNOWY1,"2005/05/21 05:00:00",100.26333,14.82,TRADE
SNOWY1,"2005/05/21 05:30:00",102.13333,14.97,TRADE
SNOWY1,"2005/05/21 06:00:00",96.20833,15.09,TRADE
SNOWY1,"2005/05/21 06:30:00",97.895,16.46,TRADE
SNOWY1,"2005/05/21 07:00:00",97.36667,17,TRADE
SNOWY1,"2005/05/21 07:30:00",102.285,17.09,TRADE
SNOWY1,"2005/05/21 08:00:00",109.71333,19.54,TRADE
SNOWY1,"2005/05/21 08:30:00",95.20333,25.72,TRADE
SNOWY1,"2005/05/21 09:00:00",38.335,27.48,TRADE
SNOWY1,"2005/05/21 09:30:00",30.88667,29.05,TRADE
SNOWY1,"2005/05/21 10:00:00",32.95,26.5,TRADE
SNOWY1,"2005/05/21 10:30:00",40.69833,26.5,TRADE
SNOWY1,"2005/05/21 11:00:00",34.99833,23.24,TRADE
SNOWY1,"2005/05/21 11:30:00",29.19667,21.15,TRADE
SNOWY1,"2005/05/21 12:00:00",33.455,20.12,TRADE
SNOWY1,"2005/05/21 12:30:00",57.735,19.8,TRADE
SNOWY1,"2005/05/21 13:00:00",99.57667,19.47,TRADE
SNOWY1,"2005/05/21 13:30:00",100.75,19.31,TRADE
SNOWY1,"2005/05/21 14:00:00",105.22167,18.57,TRADE
SNOWY1,"2005/05/21 14:30:00",95.69167,17.66,TRADE
SNOWY1,"2005/05/21 15:00:00",99.725,18.26,TRADE
SNOWY1,"2005/05/21 15:30:00",102.11333,18.14,TRADE
SNOWY1,"2005/05/21 16:00:00",102.46,17.94,TRADE
SNOWY1,"2005/05/21 16:30:00",101.15833,19.03,TRADE
SNOWY1,"2005/05/21 17:00:00",107.94333,21.59,TRADE
SNOWY1,"2005/05/21 17:30:00",75.67167,30.87,TRADE
SNOWY1,"2005/05/21 18:00:00",64.34167,41.04,TRADE
SNOWY1,"2005/05/21 18:30:00",44.03333,41.32,TRADE
SNOWY1,"2005/05/21 19:00:00",30.38333,38,TRADE
SNOWY1,"2005/05/21 19:30:00",19.39833,28.33,TRADE
SNOWY1,"2005/05/21 20:00:00",28.51833,26.49,TRADE
SNOWY1,"2005/05/21 20:30:00",32.935,26.26,TRADE
SNOWY1,"2005/05/21 21:00:00",29.68167,23.61,TRADE
SNOWY1,"2005/05/21 21:30:00",23.38,21.15,TRADE
SNOWY1,"2005/05/21 22:00:00",32.33667,20.18,TRADE
SNOWY1,"2005/05/21 22:30:00",39.04167,26.67,TRADE
SNOWY1,"2005/05/21 23:00:00",37.49167,28.42,TRADE
SNOWY1,"2005/05/21 23:30:00",46.235,32.01,TRADE
SNOWY1,"2005/05/22 00:00:00",38.86333,31.08,TRADE
SNOWY1,"2005/05/22 00:30:00",92.665,28.64,TRADE
SNOWY1,"2005/05/22 01:00:00",104.99667,23.22,TRADE
SNOWY1,"2005/05/22 01:30:00",113.81167,24.64,TRADE
SNOWY1,"2005/05/22 02:00:00",111.65167,21.82,TRADE
SNOWY1,"2005/05/22 02:30:00",99.6,19.53,TRADE
SNOWY1,"2005/05/22 03:00:00",125.92,19.18,TRADE
SNOWY1,"2005/05/22 03:30:00",103.15,16.77,TRADE
SNOWY1,"2005/05/22 04:00:00",100.88167,16.11,TRADE
SNOWY1,"2005/05/22 04:30:00",98.20333,17.16,TRADE
SNOWY1,"2005/05/22 05:00:00",103.46667,16.82,TRADE
SNOWY1,"2005/05/22 05:30:00",89.01667,17.09,TRADE
SNOWY1,"2005/05/22 06:00:00",97.61667,16.33,TRADE
SNOWY1,"2005/05/22 06:30:00",88.39833,16.55,TRADE
SNOWY1,"2005/05/22 07:00:00",95.075,15.84,TRADE
SNOWY1,"2005/05/22 07:30:00",95.345,15.55,TRADE
SNOWY1,"2005/05/22 08:00:00",93.36333,17.72,TRADE
SNOWY1,"2005/05/22 08:30:00",97.40167,19.47,TRADE
SNOWY1,"2005/05/22 09:00:00",97.91,19.59,TRADE
SNOWY1,"2005/05/22 09:30:00",93.90167,19.77,TRADE
SNOWY1,"2005/05/22 10:00:00",99.08333,19.83,TRADE
SNOWY1,"2005/05/22 10:30:00",107.12333,19.89,TRADE
SNOWY1,"2005/05/22 11:00:00",92.41167,19.72,TRADE
SNOWY1,"2005/05/22 11:30:00",102.11167,19.74,TRADE
SNOWY1,"2005/05/22 12:00:00",92.45167,19.77,TRADE
SNOWY1,"2005/05/22 12:30:00",95.23333,19.9,TRADE
SNOWY1,"2005/05/22 13:00:00",96.83833,18.86,TRADE
SNOWY1,"2005/05/22 13:30:00",97.86667,18.53,TRADE
SNOWY1,"2005/05/22 14:00:00",94.23167,18.71,TRADE
SNOWY1,"2005/05/22 14:30:00",120.28,18.56,TRADE
SNOWY1,"2005/05/22 15:00:00",109.165,18.25,TRADE
SNOWY1,"2005/05/22 15:30:00",107.025,18.37,TRADE
SNOWY1,"2005/05/22 16:00:00",105.215,18.37,TRADE
SNOWY1,"2005/05/22 16:30:00",91.49167,18.6,TRADE
SNOWY1,"2005/05/22 17:00:00",89.19,22.52,TRADE
SNOWY1,"2005/05/22 17:30:00",54.20333,32.16,TRADE
SNOWY1,"2005/05/22 18:00:00",30.965,51.61,TRADE
SNOWY1,"2005/05/22 18:30:00",48.35167,48.87,TRADE
SNOWY1,"2005/05/22 19:00:00",21.16333,41.06,TRADE
SNOWY1,"2005/05/22 19:30:00",15.5,33,TRADE
SNOWY1,"2005/05/22 20:00:00",19.45167,29.26,TRADE
SNOWY1,"2005/05/22 20:30:00",21.91,27.75,TRADE
SNOWY1,"2005/05/22 21:00:00",19.07,27.83,TRADE
SNOWY1,"2005/05/22 21:30:00",24.64667,24.74,TRADE
SNOWY1,"2005/05/22 22:00:00",28.26833,20.33,TRADE
SNOWY1,"2005/05/22 22:30:00",26.19833,22.21,TRADE
SNOWY1,"2005/05/22 23:00:00",34.15167,20.57,TRADE
SNOWY1,"2005/05/22 23:30:00",32.635,23.39,TRADE
SNOWY1,"2005/05/23 00:00:00",35.12333,21.74,TRADE
SNOWY1,"2005/05/23 00:30:00",59.75667,19.99,TRADE
SNOWY1,"2005/05/23 01:00:00",96.9,19.91,TRADE
SNOWY1,"2005/05/23 01:30:00",102.61333,22.07,TRADE
SNOWY1,"2005/05/23 02:00:00",107.98333,20.08,TRADE
SNOWY1,"2005/05/23 02:30:00",106.73,18.97,TRADE
SNOWY1,"2005/05/23 03:00:00",103.47833,18.73,TRADE
SNOWY1,"2005/05/23 03:30:00",105.81833,18.51,TRADE
SNOWY1,"2005/05/23 04:00:00",98.27167,18,TRADE
SNOWY1,"2005/05/23 04:30:00",95.66,15.96,TRADE
SNOWY1,"2005/05/23 05:00:00",96.55667,16.21,TRADE
SNOWY1,"2005/05/23 05:30:00",96.585,16.73,TRADE
SNOWY1,"2005/05/23 06:00:00",99.52167,17.99,TRADE
SNOWY1,"2005/05/23 06:30:00",106.29167,20.99,TRADE
SNOWY1,"2005/05/23 07:00:00",114.23667,27.49,TRADE
SNOWY1,"2005/05/23 07:30:00",55.05667,23.89,TRADE
SNOWY1,"2005/05/23 08:00:00",58.32667,31.64,TRADE
SNOWY1,"2005/05/23 08:30:00",46.40833,29.41,TRADE
SNOWY1,"2005/05/23 09:00:00",26.79667,26.5,TRADE
SNOWY1,"2005/05/23 09:30:00",30.97667,26.5,TRADE
SNOWY1,"2005/05/23 10:00:00",27.395,24.24,TRADE
SNOWY1,"2005/05/23 10:30:00",28.48833,22.51,TRADE
SNOWY1,"2005/05/23 11:00:00",37.825,21.58,TRADE
SNOWY1,"2005/05/23 11:30:00",22.65,20.72,TRADE
SNOWY1,"2005/05/23 12:00:00",34.07833,21.46,TRADE
SNOWY1,"2005/05/23 12:30:00",37.135,21.67,TRADE
SNOWY1,"2005/05/23 13:00:00",26.31667,20.65,TRADE
SNOWY1,"2005/05/23 13:30:00",33.305,20.76,TRADE
SNOWY1,"2005/05/23 14:00:00",32.855,20.11,TRADE
SNOWY1,"2005/05/23 14:30:00",37.34167,20.44,TRADE
SNOWY1,"2005/05/23 15:00:00",42.37667,20.26,TRADE
SNOWY1,"2005/05/23 15:30:00",26.9,19.95,TRADE
SNOWY1,"2005/05/23 16:00:00",26.32167,20.01,TRADE
SNOWY1,"2005/05/23 16:30:00",35.03167,21.38,TRADE
SNOWY1,"2005/05/23 17:00:00",36.65667,26.55,TRADE
SNOWY1,"2005/05/23 17:30:00",21.27667,35.69,TRADE
SNOWY1,"2005/05/23 18:00:00",82.465,52.95,TRADE
SNOWY1,"2005/05/23 18:30:00",45.43167,42.05,TRADE
SNOWY1,"2005/05/23 19:00:00",27.62333,40.27,TRADE
SNOWY1,"2005/05/23 19:30:00",9.10333,33.17,TRADE
SNOWY1,"2005/05/23 20:00:00",26.815,27.39,TRADE
SNOWY1,"2005/05/23 20:30:00",27.305,26.5,TRADE
SNOWY1,"2005/05/23 21:00:00",25.17833,24.74,TRADE
SNOWY1,"2005/05/23 21:30:00",29.68167,20.63,TRADE
SNOWY1,"2005/05/23 22:00:00",42.31333,17.57,TRADE
SNOWY1,"2005/05/23 22:30:00",26.00333,25.57,TRADE
SNOWY1,"2005/05/23 23:00:00",31.745,22.16,TRADE
SNOWY1,"2005/05/23 23:30:00",23.64333,25.6,TRADE
SNOWY1,"2005/05/24 00:00:00",84.33167,23.35,TRADE
SNOWY1,"2005/05/24 00:30:00",104.245,23.09,TRADE
SNOWY1,"2005/05/24 01:00:00",96.89833,19.91,TRADE
SNOWY1,"2005/05/24 01:30:00",98.75667,22.53,TRADE
SNOWY1,"2005/05/24 02:00:00",100.56,19.84,TRADE
SNOWY1,"2005/05/24 02:30:00",105.62667,18.11,TRADE
SNOWY1,"2005/05/24 03:00:00",99.19833,16.83,TRADE
SNOWY1,"2005/05/24 03:30:00",88.965,16.13,TRADE
SNOWY1,"2005/05/24 04:00:00",94.91833,15.46,TRADE
SNOWY1,"2005/05/24 04:30:00",90.44333,15.24,TRADE
SNOWY1,"2005/05/24 05:00:00",92.685,15.08,TRADE
SNOWY1,"2005/05/24 05:30:00",94.85667,15.35,TRADE
SNOWY1,"2005/05/24 06:00:00",97.86,16.82,TRADE
SNOWY1,"2005/05/24 06:30:00",105.88667,20.97,TRADE
SNOWY1,"2005/05/24 07:00:00",64.75,27.52,TRADE
SNOWY1,"2005/05/24 07:30:00",17.83667,23.41,TRADE
SNOWY1,"2005/05/24 08:00:00",67.11167,32,TRADE
SNOWY1,"2005/05/24 08:30:00",52.07,28.94,TRADE
SNOWY1,"2005/05/24 09:00:00",36.755,25.96,TRADE
SNOWY1,"2005/05/24 09:30:00",28.57167,26.16,TRADE
SNOWY1,"2005/05/24 10:00:00",27.06167,23.44,TRADE
SNOWY1,"2005/05/24 10:30:00",43.68167,26.5,TRADE
SNOWY1,"2005/05/24 11:00:00",20.635,26.5,TRADE
SNOWY1,"2005/05/24 11:30:00",27.59,26.5,TRADE
SNOWY1,"2005/05/24 12:00:00",27.48333,26.5,TRADE
SNOWY1,"2005/05/24 12:30:00",27.47667,26.5,TRADE
SNOWY1,"2005/05/24 13:00:00",21.95333,23.18,TRADE
SNOWY1,"2005/05/24 13:30:00",39.83,25.8,TRADE
SNOWY1,"2005/05/24 14:00:00",28.235,22.5,TRADE
SNOWY1,"2005/05/24 14:30:00",26.69667,22.5,TRADE
SNOWY1,"2005/05/24 15:00:00",35.09167,22.5,TRADE
SNOWY1,"2005/05/24 15:30:00",36.805,22.93,TRADE
SNOWY1,"2005/05/24 16:00:00",32.22167,24.52,TRADE
SNOWY1,"2005/05/24 16:30:00",38.22,26.27,TRADE
SNOWY1,"2005/05/24 17:00:00",37.615,28.72,TRADE
SNOWY1,"2005/05/24 17:30:00",26.85833,40.03,TRADE
SNOWY1,"2005/05/24 18:00:00",41.025,60.18,TRADE
SNOWY1,"2005/05/24 18:30:00",17.39167,51.49,TRADE
SNOWY1,"2005/05/24 19:00:00",4.11833,40.71,TRADE
SNOWY1,"2005/05/24 19:30:00",8.07333,33.21,TRADE
SNOWY1,"2005/05/24 20:00:00",34.22833,30.11,TRADE
SNOWY1,"2005/05/24 20:30:00",29.45667,26.88,TRADE
SNOWY1,"2005/05/24 21:00:00",33.03833,24.61,TRADE
SNOWY1,"2005/05/24 21:30:00",27.86,20.49,TRADE
SNOWY1,"2005/05/24 22:00:00",26.07833,17.84,TRADE
SNOWY1,"2005/05/24 22:30:00",31.95167,26.53,TRADE
SNOWY1,"2005/05/24 23:00:00",30.55,23.59,TRADE
SNOWY1,"2005/05/24 23:30:00",33.67,25.94,TRADE
SNOWY1,"2005/05/25 00:00:00",57.01333,25.93,TRADE
SNOWY1,"2005/05/25 00:30:00",25.70167,25.27,TRADE
SNOWY1,"2005/05/25 01:00:00",26.28,22.3,TRADE
SNOWY1,"2005/05/25 01:30:00",56.17167,24.65,TRADE
SNOWY1,"2005/05/25 02:00:00",77.02833,20.64,TRADE
SNOWY1,"2005/05/25 02:30:00",108.12333,18.65,TRADE
SNOWY1,"2005/05/25 03:00:00",97.63667,17.69,TRADE
SNOWY1,"2005/05/25 03:30:00",95.72667,16.96,TRADE
SNOWY1,"2005/05/25 04:00:00",98.10167,15.92,TRADE
SNOWY1,"2005/05/25 04:30:00",95.31167,15.92,TRADE
SNOWY1,"2005/05/25 05:00:00",94.07167,15.75,TRADE
SNOWY1,"2005/05/25 05:30:00",96.30167,15.76,TRADE
SNOWY1,"2005/05/25 06:00:00",94.4,16.82,TRADE
SNOWY1,"2005/05/25 06:30:00",92.64333,21.04,TRADE
SNOWY1,"2005/05/25 07:00:00",50.085,27.73,TRADE
SNOWY1,"2005/05/25 07:30:00",41.51833,24.29,TRADE
SNOWY1,"2005/05/25 08:00:00",53.34667,30.04,TRADE
SNOWY1,"2005/05/25 08:30:00",43.28833,29.49,TRADE
SNOWY1,"2005/05/25 09:00:00",23.24333,26.5,TRADE
SNOWY1,"2005/05/25 09:30:00",39.86167,26.5,TRADE
SNOWY1,"2005/05/25 10:00:00",31.01333,26.99,TRADE
SNOWY1,"2005/05/25 10:30:00",58.23,29.89,TRADE
SNOWY1,"2005/05/25 11:00:00",26.80833,26.5,TRADE
SNOWY1,"2005/05/25 11:30:00",15.53,26.5,TRADE
SNOWY1,"2005/05/25 12:00:00",26.76833,26.5,TRADE
SNOWY1,"2005/05/25 12:30:00",25.84333,26.5,TRADE
SNOWY1,"2005/05/25 13:00:00",22.32667,26.28,TRADE
SNOWY1,"2005/05/25 13:30:00",27.74333,26.5,TRADE
SNOWY1,"2005/05/25 14:00:00",28.02167,26.48,TRADE
SNOWY1,"2005/05/25 14:30:00",24.47167,26.48,TRADE
SNOWY1,"2005/05/25 15:00:00",26.43,26.36,TRADE
SNOWY1,"2005/05/25 15:30:00",29.97167,24.3,TRADE
SNOWY1,"2005/05/25 16:00:00",32.55,26.5,TRADE
SNOWY1,"2005/05/25 16:30:00",26.74167,26.48,TRADE
SNOWY1,"2005/05/25 17:00:00",33.065,31.84,TRADE
SNOWY1,"2005/05/25 17:30:00",39.19,41.5,TRADE
SNOWY1,"2005/05/25 18:00:00",46.37167,54.95,TRADE
SNOWY1,"2005/05/25 18:30:00",41.005,51.61,TRADE
SNOWY1,"2005/05/25 19:00:00",12.29167,42.05,TRADE
SNOWY1,"2005/05/25 19:30:00",13.07,36.2,TRADE
SNOWY1,"2005/05/25 20:00:00",32.70833,31.65,TRADE
SNOWY1,"2005/05/25 20:30:00",28.19667,31.99,TRADE
SNOWY1,"2005/05/25 21:00:00",27.00333,29.26,TRADE
SNOWY1,"2005/05/25 21:30:00",45.065,27.19,TRADE
SNOWY1,"2005/05/25 22:00:00",23.46,23.19,TRADE
SNOWY1,"2005/05/25 22:30:00",38.71333,33.1,TRADE
SNOWY1,"2005/05/25 23:00:00",37.775,32.38,TRADE
SNOWY1,"2005/05/25 23:30:00",38.74,36.03,TRADE
SNOWY1,"2005/05/26 00:00:00",40.03667,32.35,TRADE
SNOWY1,"2005/05/26 00:30:00",38.73667,33.7,TRADE
SNOWY1,"2005/05/26 01:00:00",33.87167,32.83,TRADE
SNOWY1,"2005/05/26 01:30:00",30.51667,33.99,TRADE
SNOWY1,"2005/05/26 02:00:00",45.63333,30.97,TRADE
SNOWY1,"2005/05/26 02:30:00",88.90833,25.05,TRADE
SNOWY1,"2005/05/26 03:00:00",109.605,21.91,TRADE
SNOWY1,"2005/05/26 03:30:00",101.64,20.59,TRADE
SNOWY1,"2005/05/26 04:00:00",103.28333,19.2,TRADE
SNOWY1,"2005/05/26 04:30:00",102.00667,19.15,TRADE
SNOWY1,"2005/05/26 05:00:00",100.8,19.39,TRADE
SNOWY1,"2005/05/26 05:30:00",103.07667,20.75,TRADE
SNOWY1,"2005/05/26 06:00:00",105.49,22.92,TRADE
SNOWY1,"2005/05/26 06:30:00",110.56833,32.57,TRADE
SNOWY1,"2005/05/26 07:00:00",63.81667,39.7,TRADE
SNOWY1,"2005/05/26 07:30:00",39.74833,36.17,TRADE
SNOWY1,"2005/05/26 08:00:00",39.72,40.04,TRADE
SNOWY1,"2005/05/26 08:30:00",44.45167,39.38,TRADE
SNOWY1,"2005/05/26 09:00:00",10.465,38,TRADE
SNOWY1,"2005/05/26 09:30:00",46.86333,38.02,TRADE
SNOWY1,"2005/05/26 10:00:00",21.91667,35.98,TRADE
SNOWY1,"2005/05/26 10:30:00",35.64667,38,TRADE
SNOWY1,"2005/05/26 11:00:00",39.065,32.47,TRADE
SNOWY1,"2005/05/26 11:30:00",24.96333,32,TRADE
SNOWY1,"2005/05/26 12:00:00",27.26333,32,TRADE
SNOWY1,"2005/05/26 12:30:00",46.52667,32,TRADE
SNOWY1,"2005/05/26 13:00:00",29.64,32,TRADE
SNOWY1,"2005/05/26 13:30:00",22.505,32,TRADE
SNOWY1,"2005/05/26 14:00:00",34.37667,33.93,TRADE
SNOWY1,"2005/05/26 14:30:00",16.04167,32,TRADE
SNOWY1,"2005/05/26 15:00:00",29.965,32,TRADE
SNOWY1,"2005/05/26 15:30:00",28.28167,31.95,TRADE
SNOWY1,"2005/05/26 16:00:00",20.16667,27.5,TRADE
SNOWY1,"2005/05/26 16:30:00",30.98333,26.59,TRADE
SNOWY1,"2005/05/26 17:00:00",21.85333,33.72,TRADE
SNOWY1,"2005/05/26 17:30:00",40.96833,41.15,TRADE
SNOWY1,"2005/05/26 18:00:00",39.13833,59.78,TRADE
SNOWY1,"2005/05/26 18:30:00",46.60667,47.17,TRADE
SNOWY1,"2005/05/26 19:00:00",33.005,47.5,TRADE
SNOWY1,"2005/05/26 19:30:00",19.65333,40.79,TRADE
SNOWY1,"2005/05/26 20:00:00",31.11333,38.02,TRADE
SNOWY1,"2005/05/26 20:30:00",40.59667,38.28,TRADE
SNOWY1,"2005/05/26 21:00:00",16.28,37,TRADE
SNOWY1,"2005/05/26 21:30:00",21.66167,32.2,TRADE
SNOWY1,"2005/05/26 22:00:00",17.99167,27.14,TRADE
SNOWY1,"2005/05/26 22:30:00",48.37667,37,TRADE
SNOWY1,"2005/05/26 23:00:00",30.47,31.68,TRADE
SNOWY1,"2005/05/26 23:30:00",37.595,36,TRADE
SNOWY1,"2005/05/27 00:00:00",21.73,30.16,TRADE
SNOWY1,"2005/05/27 00:30:00",23.44833,34.09,TRADE
SNOWY1,"2005/05/27 01:00:00",24.06167,30.88,TRADE
SNOWY1,"2005/05/27 01:30:00",29.18333,30.08,TRADE
SNOWY1,"2005/05/27 02:00:00",91.57167,24.56,TRADE
SNOWY1,"2005/05/27 02:30:00",101.78167,21.62,TRADE
SNOWY1,"2005/05/27 03:00:00",103.035,19.12,TRADE
SNOWY1,"2005/05/27 03:30:00",97.18833,17.82,TRADE
SNOWY1,"2005/05/27 04:00:00",97.88,16.66,TRADE
SNOWY1,"2005/05/27 04:30:00",98.585,16.5,TRADE
SNOWY1,"2005/05/27 05:00:00",93.44833,16.56,TRADE
SNOWY1,"2005/05/27 05:30:00",95.025,16.98,TRADE
SNOWY1,"2005/05/27 06:00:00",99.25333,18.04,TRADE
SNOWY1,"2005/05/27 06:30:00",76.94667,26.98,TRADE
SNOWY1,"2005/05/27 07:00:00",60.36667,33.69,TRADE
SNOWY1,"2005/05/27 07:30:00",36.285,32.38,TRADE
SNOWY1,"2005/05/27 08:00:00",78.84833,38.01,TRADE
SNOWY1,"2005/05/27 08:30:00",34.255,38,TRADE
SNOWY1,"2005/05/27 09:00:00",27.33667,35.68,TRADE
SNOWY1,"2005/05/27 09:30:00",24.69333,34.99,TRADE
SNOWY1,"2005/05/27 10:00:00",30.35167,31.22,TRADE
SNOWY1,"2005/05/27 10:30:00",34.46833,33.3,TRADE
SNOWY1,"2005/05/27 11:00:00",31.905,33.57,TRADE
SNOWY1,"2005/05/27 11:30:00",23.7,32.96,TRADE
SNOWY1,"2005/05/27 12:00:00",26.72333,31.13,TRADE
SNOWY1,"2005/05/27 12:30:00",32.92167,30.92,TRADE
SNOWY1,"2005/05/27 13:00:00",35.57833,29.21,TRADE
SNOWY1,"2005/05/27 13:30:00",35.675,33.78,TRADE
SNOWY1,"2005/05/27 14:00:00",25.54833,29.48,TRADE
SNOWY1,"2005/05/27 14:30:00",30.28167,29.88,TRADE
SNOWY1,"2005/05/27 15:00:00",19.55,28.5,TRADE
SNOWY1,"2005/05/27 15:30:00",28.51833,28.5,TRADE
SNOWY1,"2005/05/27 16:00:00",25.61167,28.5,TRADE
SNOWY1,"2005/05/27 16:30:00",30.71333,28.29,TRADE
SNOWY1,"2005/05/27 17:00:00",15.92,30.86,TRADE
SNOWY1,"2005/05/27 17:30:00",38.10833,38.34,TRADE
SNOWY1,"2005/05/27 18:00:00",47.36667,42.77,TRADE
SNOWY1,"2005/05/27 18:30:00",25.60667,42.03,TRADE
SNOWY1,"2005/05/27 19:00:00",17.71333,42.01,TRADE
SNOWY1,"2005/05/27 19:30:00",5.81667,36.48,TRADE
SNOWY1,"2005/05/27 20:00:00",21.45667,34.04,TRADE
SNOWY1,"2005/05/27 20:30:00",10.55167,32.52,TRADE
SNOWY1,"2005/05/27 21:00:00",18.05167,29.47,TRADE
SNOWY1,"2005/05/27 21:30:00",15.96167,30.48,TRADE
SNOWY1,"2005/05/27 22:00:00",17.89,26.6,TRADE
SNOWY1,"2005/05/27 22:30:00",28.68667,37.87,TRADE
SNOWY1,"2005/05/27 23:00:00",11.50833,36.21,TRADE
SNOWY1,"2005/05/27 23:30:00",34.52833,38.45,TRADE
SNOWY1,"2005/05/28 00:00:00",23.60667,36.03,TRADE
SNOWY1,"2005/05/28 00:30:00",24.32,35.47,TRADE
SNOWY1,"2005/05/28 01:00:00",13.22667,31.25,TRADE
SNOWY1,"2005/05/28 01:30:00",28.38167,32.07,TRADE
SNOWY1,"2005/05/28 02:00:00",72.855,25.75,TRADE
SNOWY1,"2005/05/28 02:30:00",105.22667,20.53,TRADE
SNOWY1,"2005/05/28 03:00:00",94.15833,18.87,TRADE
SNOWY1,"2005/05/28 03:30:00",91.41167,17.08,TRADE
SNOWY1,"2005/05/28 04:00:00",95.43,15.9,TRADE
SNOWY1,"2005/05/28 04:30:00",94.145,15.4,TRADE
SNOWY1,"2005/05/28 05:00:00",87.35333,15.45,TRADE
SNOWY1,"2005/05/28 05:30:00",83.50333,15.46,TRADE
SNOWY1,"2005/05/28 06:00:00",88.03667,16.27,TRADE
SNOWY1,"2005/05/28 06:30:00",91.41667,16.61,TRADE
SNOWY1,"2005/05/28 07:00:00",95.41333,17.32,TRADE
SNOWY1,"2005/05/28 07:30:00",92.03167,17.91,TRADE
SNOWY1,"2005/05/28 08:00:00",96.60333,21.76,TRADE
SNOWY1,"2005/05/28 08:30:00",44.28333,30.9,TRADE
SNOWY1,"2005/05/28 09:00:00",30.075,35.5,TRADE
SNOWY1,"2005/05/28 09:30:00",33.43,38,TRADE
SNOWY1,"2005/05/28 10:00:00",14.91833,37,TRADE
SNOWY1,"2005/05/28 10:30:00",46.30833,36,TRADE
SNOWY1,"2005/05/28 11:00:00",22.20667,34.42,TRADE
SNOWY1,"2005/05/28 11:30:00",32.00167,33.26,TRADE
SNOWY1,"2005/05/28 12:00:00",19.3,28.9,TRADE
SNOWY1,"2005/05/28 12:30:00",27.23167,27.54,TRADE
SNOWY1,"2005/05/28 13:00:00",38.375,25.07,TRADE
SNOWY1,"2005/05/28 13:30:00",54.16333,21.11,TRADE
SNOWY1,"2005/05/28 14:00:00",97.38667,21.16,TRADE
SNOWY1,"2005/05/28 14:30:00",93.925,21.11,TRADE
SNOWY1,"2005/05/28 15:00:00",105.93833,21.08,TRADE
SNOWY1,"2005/05/28 15:30:00",103.07167,20.53,TRADE
SNOWY1,"2005/05/28 16:00:00",92.38333,20.47,TRADE
SNOWY1,"2005/05/28 16:30:00",103.20333,19.37,TRADE
SNOWY1,"2005/05/28 17:00:00",56.84833,25.69,TRADE
SNOWY1,"2005/05/28 17:30:00",52.66833,37.67,TRADE
SNOWY1,"2005/05/28 18:00:00",56.31,45.04,TRADE
SNOWY1,"2005/05/28 18:30:00",30.89167,43.32,TRADE
SNOWY1,"2005/05/28 19:00:00",12.22333,38.67,TRADE
SNOWY1,"2005/05/28 19:30:00",5.40333,34.83,TRADE
SNOWY1,"2005/05/28 20:00:00",25.13667,35,TRADE
SNOWY1,"2005/05/28 20:30:00",19.15167,33.29,TRADE
SNOWY1,"2005/05/28 21:00:00",26.35167,30.56,TRADE
SNOWY1,"2005/05/28 21:30:00",16.73667,28.45,TRADE
SNOWY1,"2005/05/28 22:00:00",13.69333,25.52,TRADE
SNOWY1,"2005/05/28 22:30:00",26.74833,31.1,TRADE
SNOWY1,"2005/05/28 23:00:00",15.86,30.14,TRADE
SNOWY1,"2005/05/28 23:30:00",21.335,34.68,TRADE
SNOWY1,"2005/05/29 00:00:00",16.51833,29.97,TRADE
SNOWY1,"2005/05/29 00:30:00",34.62833,28.45,TRADE
SNOWY1,"2005/05/29 01:00:00",26.335,24.51,TRADE
SNOWY1,"2005/05/29 01:30:00",25.25667,25.15,TRADE
SNOWY1,"2005/05/29 02:00:00",80.84667,21.71,TRADE
SNOWY1,"2005/05/29 02:30:00",96.60833,19.64,TRADE
SNOWY1,"2005/05/29 03:00:00",91.53833,17.64,TRADE
SNOWY1,"2005/05/29 03:30:00",89.19333,16.44,TRADE
SNOWY1,"2005/05/29 04:00:00",95.97,16.13,TRADE
SNOWY1,"2005/05/29 04:30:00",98.97,16.06,TRADE
SNOWY1,"2005/05/29 05:00:00",90.92667,16.11,TRADE
SNOWY1,"2005/05/29 05:30:00",103.7,17.03,TRADE
SNOWY1,"2005/05/29 06:00:00",91.875,15.87,TRADE
SNOWY1,"2005/05/29 06:30:00",99.78,16.05,TRADE
SNOWY1,"2005/05/29 07:00:00",98.625,15.52,TRADE
SNOWY1,"2005/05/29 07:30:00",102.31333,15.69,TRADE
SNOWY1,"2005/05/29 08:00:00",97.86167,17.46,TRADE
SNOWY1,"2005/05/29 08:30:00",84.56833,21.25,TRADE
SNOWY1,"2005/05/29 09:00:00",26.805,22.97,TRADE
SNOWY1,"2005/05/29 09:30:00",33.455,28.2,TRADE
SNOWY1,"2005/05/29 10:00:00",27.93167,28.46,TRADE
SNOWY1,"2005/05/29 10:30:00",27.15333,28.45,TRADE
SNOWY1,"2005/05/29 11:00:00",28.59833,27.41,TRADE
SNOWY1,"2005/05/29 11:30:00",31.05,22.97,TRADE
SNOWY1,"2005/05/29 12:00:00",30.82833,20.29,TRADE
SNOWY1,"2005/05/29 12:30:00",31.425,20.21,TRADE
SNOWY1,"2005/05/29 13:00:00",63.875,19.82,TRADE
SNOWY1,"2005/05/29 13:30:00",102.91333,20.29,TRADE
SNOWY1,"2005/05/29 14:00:00",100.35,20.38,TRADE
SNOWY1,"2005/05/29 14:30:00",104.435,19.72,TRADE
SNOWY1,"2005/05/29 15:00:00",100.12833,18.6,TRADE
SNOWY1,"2005/05/29 15:30:00",104.63833,18.47,TRADE
SNOWY1,"2005/05/29 16:00:00",102.19667,18.31,TRADE
SNOWY1,"2005/05/29 16:30:00",86.095,18.46,TRADE
SNOWY1,"2005/05/29 17:00:00",64.98167,25.59,TRADE
SNOWY1,"2005/05/29 17:30:00",57.29167,40.13,TRADE
SNOWY1,"2005/05/29 18:00:00",52.78833,57.99,TRADE
SNOWY1,"2005/05/29 18:30:00",42.715,57.9,TRADE
SNOWY1,"2005/05/29 19:00:00",35.37167,50.88,TRADE
SNOWY1,"2005/05/29 19:30:00",16.62833,38.72,TRADE
SNOWY1,"2005/05/29 20:00:00",29.33167,38,TRADE
SNOWY1,"2005/05/29 20:30:00",25.52833,37,TRADE
SNOWY1,"2005/05/29 21:00:00",26.36667,35,TRADE
SNOWY1,"2005/05/29 21:30:00",23.375,29.83,TRADE
SNOWY1,"2005/05/29 22:00:00",14.28167,26.04,TRADE
SNOWY1,"2005/05/29 22:30:00",21.97333,28.43,TRADE
SNOWY1,"2005/05/29 23:00:00",13.6,25.79,TRADE
SNOWY1,"2005/05/29 23:30:00",17.995,27.64,TRADE
SNOWY1,"2005/05/30 00:00:00",56.98167,24.22,TRADE
SNOWY1,"2005/05/30 00:30:00",100.32,25.22,TRADE
SNOWY1,"2005/05/30 01:00:00",100.675,26.04,TRADE
SNOWY1,"2005/05/30 01:30:00",125.53333,25.23,TRADE
SNOWY1,"2005/05/30 02:00:00",99.205,20.66,TRADE
SNOWY1,"2005/05/30 02:30:00",98.06833,19.78,TRADE
SNOWY1,"2005/05/30 03:00:00",92.14833,18.48,TRADE
SNOWY1,"2005/05/30 03:30:00",94.12333,17.56,TRADE
SNOWY1,"2005/05/30 04:00:00",93.705,16.35,TRADE
SNOWY1,"2005/05/30 04:30:00",93.19667,16.17,TRADE
SNOWY1,"2005/05/30 05:00:00",93.455,16.06,TRADE
SNOWY1,"2005/05/30 05:30:00",92.145,16.69,TRADE
SNOWY1,"2005/05/30 06:00:00",90.56333,18.76,TRADE
SNOWY1,"2005/05/30 06:30:00",47.19333,25.17,TRADE
SNOWY1,"2005/05/30 07:00:00",45.93167,32.77,TRADE
SNOWY1,"2005/05/30 07:30:00",43.74667,32.89,TRADE
SNOWY1,"2005/05/30 08:00:00",57.74667,38.6,TRADE
SNOWY1,"2005/05/30 08:30:00",41.47833,39.98,TRADE
SNOWY1,"2005/05/30 09:00:00",23.52,35.99,TRADE
SNOWY1,"2005/05/30 09:30:00",36.71833,36.07,TRADE
SNOWY1,"2005/05/30 10:00:00",23.98167,34.98,TRADE
SNOWY1,"2005/05/30 10:30:00",31.19333,34.97,TRADE
SNOWY1,"2005/05/30 11:00:00",20.17667,32.81,TRADE
SNOWY1,"2005/05/30 11:30:00",23.62833,29.99,TRADE
SNOWY1,"2005/05/30 12:00:00",17.05167,28.5,TRADE
SNOWY1,"2005/05/30 12:30:00",17.75333,28.48,TRADE
SNOWY1,"2005/05/30 13:00:00",41.10333,27.92,TRADE
SNOWY1,"2005/05/30 13:30:00",60.29667,28.48,TRADE
SNOWY1,"2005/05/30 14:00:00",13.46333,27.59,TRADE
SNOWY1,"2005/05/30 14:30:00",35.77333,27.01,TRADE
SNOWY1,"2005/05/30 15:00:00",18.97,21.47,TRADE
SNOWY1,"2005/05/30 15:30:00",39.66333,22.48,TRADE
SNOWY1,"2005/05/30 16:00:00",39.35167,22.59,TRADE
SNOWY1,"2005/05/30 16:30:00",46.54333,23.95,TRADE
SNOWY1,"2005/05/30 17:00:00",19.95167,32.38,TRADE
SNOWY1,"2005/05/30 17:30:00",57.98667,40.03,TRADE
SNOWY1,"2005/05/30 18:00:00",47.58167,56.97,TRADE
SNOWY1,"2005/05/30 18:30:00",36.64833,48.45,TRADE
SNOWY1,"2005/05/30 19:00:00",26.78833,42.05,TRADE
SNOWY1,"2005/05/30 19:30:00",24.32,37.88,TRADE
SNOWY1,"2005/05/30 20:00:00",36.00667,35.69,TRADE
SNOWY1,"2005/05/30 20:30:00",38.10333,35.99,TRADE
SNOWY1,"2005/05/30 21:00:00",32.34333,34.13,TRADE
SNOWY1,"2005/05/30 21:30:00",35.865,29.58,TRADE
SNOWY1,"2005/05/30 22:00:00",23.92333,20.71,TRADE
SNOWY1,"2005/05/30 22:30:00",35.20833,34.07,TRADE
SNOWY1,"2005/05/30 23:00:00",34.3,30.3,TRADE
SNOWY1,"2005/05/30 23:30:00",30.35,34.41,TRADE
SNOWY1,"2005/05/31 00:00:00",35.08667,29.58,TRADE
SNOWY1,"2005/05/31 00:30:00",29.97667,31.18,TRADE
SNOWY1,"2005/05/31 01:00:00",38.20333,25.5,TRADE
SNOWY1,"2005/05/31 01:30:00",44.28333,34.5,TRADE
SNOWY1,"2005/05/31 02:00:00",35.68833,29.21,TRADE
SNOWY1,"2005/05/31 02:30:00",60.32667,23.14,TRADE
SNOWY1,"2005/05/31 03:00:00",103.37,20.27,TRADE
SNOWY1,"2005/05/31 03:30:00",96.82833,18.75,TRADE
SNOWY1,"2005/05/31 04:00:00",97.665,18.19,TRADE
SNOWY1,"2005/05/31 04:30:00",101.79667,18.55,TRADE
SNOWY1,"2005/05/31 05:00:00",102.89667,18.96,TRADE
SNOWY1,"2005/05/31 05:30:00",95.28,18.06,TRADE
SNOWY1,"2005/05/31 06:00:00",100.23333,20.32,TRADE
SNOWY1,"2005/05/31 06:30:00",104.11,26.79,TRADE
SNOWY1,"2005/05/31 07:00:00",68.75167,32.06,TRADE
SNOWY1,"2005/05/31 07:30:00",43.10333,33.94,TRADE
SNOWY1,"2005/05/31 08:00:00",56.49,40.63,TRADE
SNOWY1,"2005/05/31 08:30:00",25.65333,37.98,TRADE
SNOWY1,"2005/05/31 09:00:00",25.24667,36.97,TRADE
SNOWY1,"2005/05/31 09:30:00",33.61833,36.98,TRADE
SNOWY1,"2005/05/31 10:00:00",20.40833,33.43,TRADE
SNOWY1,"2005/05/31 10:30:00",36.03333,32.5,TRADE
SNOWY1,"2005/05/31 11:00:00",30.55333,28.98,TRADE
SNOWY1,"2005/05/31 11:30:00",34.33167,28.62,TRADE
SNOWY1,"2005/05/31 12:00:00",34.24167,28.5,TRADE
SNOWY1,"2005/05/31 12:30:00",30.58833,28.5,TRADE
SNOWY1,"2005/05/31 13:00:00",37.60667,26.66,TRADE
SNOWY1,"2005/05/31 13:30:00",29.90333,26.51,TRADE
SNOWY1,"2005/05/31 14:00:00",25.49,25.21,TRADE
SNOWY1,"2005/05/31 14:30:00",36.79,25.66,TRADE
SNOWY1,"2005/05/31 15:00:00",35.04333,28.45,TRADE
SNOWY1,"2005/05/31 15:30:00",37.115,25.76,TRADE
SNOWY1,"2005/05/31 16:00:00",37.39333,26.95,TRADE
SNOWY1,"2005/05/31 16:30:00",36.60833,27.32,TRADE
SNOWY1,"2005/05/31 17:00:00",44.665,31.98,TRADE
SNOWY1,"2005/05/31 17:30:00",37.05833,38.77,TRADE
SNOWY1,"2005/05/31 18:00:00",33.975,58.09,TRADE
SNOWY1,"2005/05/31 18:30:00",43.085,47.77,TRADE
SNOWY1,"2005/05/31 19:00:00",23.57667,43.03,TRADE
SNOWY1,"2005/05/31 19:30:00",22.71833,38.67,TRADE
SNOWY1,"2005/05/31 20:00:00",24.70667,36.87,TRADE
SNOWY1,"2005/05/31 20:30:00",22.78,36.5,TRADE
SNOWY1,"2005/05/31 21:00:00",35.22667,33.25,TRADE
SNOWY1,"2005/05/31 21:30:00",34.90833,30.53,TRADE
SNOWY1,"2005/05/31 22:00:00",27.47167,25.66,TRADE
SNOWY1,"2005/05/31 22:30:00",36.45333,34.65,TRADE
SNOWY1,"2005/05/31 23:00:00",30.48833,25.52,TRADE
SNOWY1,"2005/05/31 23:30:00",25.615,34.24,TRADE
SNOWY1,"2005/06/01 00:00:00",29.27333,25.93,TRADE
