REGION,SETTLEMENTDATE,TOTALDEMAND,RRP,PERIODTYPE
SNOWY1,"1999/06/01 00:30",4.44833,30.93,TRADE
SNOWY1,"1999/06/01 01:00",1.15333,26.78,TRADE
SNOWY1,"1999/06/01 01:30",3.695,28.29,TRADE
SNOWY1,"1999/06/01 02:00",5.33333,21.98,TRADE
SNOWY1,"1999/06/01 02:30",3.12,17.84,TRADE
SNOWY1,"1999/06/01 03:00",6.79667,17.12,TRADE
SNOWY1,"1999/06/01 03:30",6.15333,14.97,TRADE
SNOWY1,"1999/06/01 04:00",7.63333,11.62,TRADE
SNOWY1,"1999/06/01 04:30",8.95667,10.97,TRADE
SNOWY1,"1999/06/01 05:00",4.40833,13.93,TRADE
SNOWY1,"1999/06/01 05:30",6.92333,14.75,TRADE
SNOWY1,"1999/06/01 06:00",3.28833,17.58,TRADE
SNOWY1,"1999/06/01 06:30",15.615,20.67,TRADE
SNOWY1,"1999/06/01 07:00",18.94167,21.19,TRADE
SNOWY1,"1999/06/01 07:30",3.705,22.02,TRADE
SNOWY1,"1999/06/01 08:00",5.45167,29.58,TRADE
SNOWY1,"1999/06/01 08:30",9.63333,29.44,TRADE
SNOWY1,"1999/06/01 09:00",5.335,24.91,TRADE
SNOWY1,"1999/06/01 09:30",9.38833,38.89,TRADE
SNOWY1,"1999/06/01 10:00",9.30667,40.81,TRADE
SNOWY1,"1999/06/01 10:30",3.69167,32.13,TRADE
SNOWY1,"1999/06/01 11:00",13.13,36.69,TRADE
SNOWY1,"1999/06/01 11:30",0,35.97,TRADE
SNOWY1,"1999/06/01 12:00",9.77,31.77,TRADE
SNOWY1,"1999/06/01 12:30",14.35333,30.02,TRADE
SNOWY1,"1999/06/01 13:00",12.89667,26.57,TRADE
SNOWY1,"1999/06/01 13:30",10.60167,30.94,TRADE
SNOWY1,"1999/06/01 14:00",4.88167,33.2,TRADE
SNOWY1,"1999/06/01 14:30",3.71167,34.66,TRADE
SNOWY1,"1999/06/01 15:00",4.68833,30.46,TRADE
SNOWY1,"1999/06/01 15:30",5.95,27.7,TRADE
SNOWY1,"1999/06/01 16:00",16.75833,22.41,TRADE
SNOWY1,"1999/06/01 16:30",5.1,19.16,TRADE
SNOWY1,"1999/06/01 17:00",4.80333,26.65,TRADE
SNOWY1,"1999/06/01 17:30",11.58,38.54,TRADE
SNOWY1,"1999/06/01 18:00",6.32167,43,TRADE
SNOWY1,"1999/06/01 18:30",12.155,44.53,TRADE
SNOWY1,"1999/06/01 19:00",4.59333,38.74,TRADE
SNOWY1,"1999/06/01 19:30",9.055,32.77,TRADE
SNOWY1,"1999/06/01 20:00",1.02167,31.38,TRADE
SNOWY1,"1999/06/01 20:30",10.34667,31.13,TRADE
SNOWY1,"1999/06/01 21:00",3.68,33.25,TRADE
SNOWY1,"1999/06/01 21:30",7.11167,28.47,TRADE
SNOWY1,"1999/06/01 22:00",5.94333,27.77,TRADE
SNOWY1,"1999/06/01 22:30",5.36,23.64,TRADE
SNOWY1,"1999/06/01 23:00",4.04833,17.47,TRADE
SNOWY1,"1999/06/01 23:30",3.51,28.43,TRADE
SNOWY1,"1999/06/02 00:00",5.92167,26.11,TRADE
SNOWY1,"1999/06/02 00:30",5.98167,26.71,TRADE
SNOWY1,"1999/06/02 01:00",8.20667,26.7,TRADE
SNOWY1,"1999/06/02 01:30",7.64667,29.28,TRADE
SNOWY1,"1999/06/02 02:00",6.66333,26.2,TRADE
SNOWY1,"1999/06/02 02:30",3.575,24.56,TRADE
SNOWY1,"1999/06/02 03:00",7.38333,17.94,TRADE
SNOWY1,"1999/06/02 03:30",46.34833,14.58,TRADE
SNOWY1,"1999/06/02 04:00",72.065,11.49,TRADE
SNOWY1,"1999/06/02 04:30",73.12667,12.6,TRADE
SNOWY1,"1999/06/02 05:00",74.815,14.71,TRADE
SNOWY1,"1999/06/02 05:30",71.03667,19.13,TRADE
SNOWY1,"1999/06/02 06:00",14.415,18.48,TRADE
SNOWY1,"1999/06/02 06:30",12.89167,26.39,TRADE
SNOWY1,"1999/06/02 07:00",7.7,31.17,TRADE
SNOWY1,"1999/06/02 07:30",13.67333,31.71,TRADE
SNOWY1,"1999/06/02 08:00",13.21,44.63,TRADE
SNOWY1,"1999/06/02 08:30",10.21,46.66,TRADE
SNOWY1,"1999/06/02 09:00",14.43333,46.57,TRADE
SNOWY1,"1999/06/02 09:30",11.70167,46.62,TRADE
SNOWY1,"1999/06/02 10:00",5.48833,46.66,TRADE
SNOWY1,"1999/06/02 10:30",4.77,39.84,TRADE
SNOWY1,"1999/06/02 11:00",9.34167,32.87,TRADE
SNOWY1,"1999/06/02 11:30",8.085,38.69,TRADE
SNOWY1,"1999/06/02 12:00",7.23667,34.65,TRADE
SNOWY1,"1999/06/02 12:30",6.38,32.68,TRADE
SNOWY1,"1999/06/02 13:00",5.70333,33.35,TRADE
SNOWY1,"1999/06/02 13:30",3.28833,46.37,TRADE
SNOWY1,"1999/06/02 14:00",4.16,44.7,TRADE
SNOWY1,"1999/06/02 14:30",4.50333,40.19,TRADE
SNOWY1,"1999/06/02 15:00",3.18,34.26,TRADE
SNOWY1,"1999/06/02 15:30",1.395,37.22,TRADE
SNOWY1,"1999/06/02 16:00",3.08333,30.45,TRADE
SNOWY1,"1999/06/02 16:30",5.20667,31.39,TRADE
SNOWY1,"1999/06/02 17:00",15.41667,32.77,TRADE
SNOWY1,"1999/06/02 17:30",2.98333,37.6,TRADE
SNOWY1,"1999/06/02 18:00",20.28667,44.62,TRADE
SNOWY1,"1999/06/02 18:30",7.20333,51.08,TRADE
SNOWY1,"1999/06/02 19:00",9.50833,43.73,TRADE
SNOWY1,"1999/06/02 19:30",6.78667,34.96,TRADE
SNOWY1,"1999/06/02 20:00",3.47833,39.29,TRADE
SNOWY1,"1999/06/02 20:30",3.67167,33.72,TRADE
SNOWY1,"1999/06/02 21:00",3.43667,30.66,TRADE
SNOWY1,"1999/06/02 21:30",10.93833,31.67,TRADE
SNOWY1,"1999/06/02 22:00",8.76833,29.2,TRADE
SNOWY1,"1999/06/02 22:30",5.15833,24.47,TRADE
SNOWY1,"1999/06/02 23:00",10.38667,21.6,TRADE
SNOWY1,"1999/06/02 23:30",3.77,30.45,TRADE
SNOWY1,"1999/06/03 00:00",12.12333,31.07,TRADE
SNOWY1,"1999/06/03 00:30",7.18833,30.85,TRADE
SNOWY1,"1999/06/03 01:00",9.91,29.67,TRADE
SNOWY1,"1999/06/03 01:30",9.625,32.8,TRADE
SNOWY1,"1999/06/03 02:00",13.19333,30.14,TRADE
SNOWY1,"1999/06/03 02:30",9.13333,26.35,TRADE
SNOWY1,"1999/06/03 03:00",4.69667,24.04,TRADE
SNOWY1,"1999/06/03 03:30",3.845,18.94,TRADE
SNOWY1,"1999/06/03 04:00",9.30667,14.9,TRADE
SNOWY1,"1999/06/03 04:30",76.15167,17.55,TRADE
SNOWY1,"1999/06/03 05:00",74.35833,14.56,TRADE
SNOWY1,"1999/06/03 05:30",73.015,12.1,TRADE
SNOWY1,"1999/06/03 06:00",74.415,17.81,TRADE
SNOWY1,"1999/06/03 06:30",23.77667,24.9,TRADE
SNOWY1,"1999/06/03 07:00",4.84333,28.07,TRADE
SNOWY1,"1999/06/03 07:30",9.715,31.36,TRADE
SNOWY1,"1999/06/03 08:00",14.80833,45.03,TRADE
SNOWY1,"1999/06/03 08:30",1.61,55.14,TRADE
SNOWY1,"1999/06/03 09:00",1.73333,58.15,TRADE
SNOWY1,"1999/06/03 09:30",6.87833,57.63,TRADE
SNOWY1,"1999/06/03 10:00",8.36167,38.81,TRADE
SNOWY1,"1999/06/03 10:30",1.74667,36.69,TRADE
SNOWY1,"1999/06/03 11:00",5,41.92,TRADE
SNOWY1,"1999/06/03 11:30",5.165,41.13,TRADE
SNOWY1,"1999/06/03 12:00",4.175,46.45,TRADE
SNOWY1,"1999/06/03 12:30",7.80833,45.3,TRADE
SNOWY1,"1999/06/03 13:00",1.03833,41.22,TRADE
SNOWY1,"1999/06/03 13:30",4.14667,41.21,TRADE
SNOWY1,"1999/06/03 14:00",0.72667,39.89,TRADE
SNOWY1,"1999/06/03 14:30",3.46333,40.02,TRADE
SNOWY1,"1999/06/03 15:00",3.565,36.04,TRADE
SNOWY1,"1999/06/03 15:30",0.785,34.43,TRADE
SNOWY1,"1999/06/03 16:00",4.39667,35.29,TRADE
SNOWY1,"1999/06/03 16:30",3.40167,32.81,TRADE
SNOWY1,"1999/06/03 17:00",3.73333,39.21,TRADE
SNOWY1,"1999/06/03 17:30",15.07833,44.95,TRADE
SNOWY1,"1999/06/03 18:00",4.42167,94.93,TRADE
SNOWY1,"1999/06/03 18:30",10.39,48.36,TRADE
SNOWY1,"1999/06/03 19:00",4.105,49.34,TRADE
SNOWY1,"1999/06/03 19:30",3.77667,36,TRADE
SNOWY1,"1999/06/03 20:00",3.95833,32.61,TRADE
SNOWY1,"1999/06/03 20:30",7.41333,31.55,TRADE
SNOWY1,"1999/06/03 21:00",3.18333,40.17,TRADE
SNOWY1,"1999/06/03 21:30",0,33.12,TRADE
SNOWY1,"1999/06/03 22:00",0,31.87,TRADE
SNOWY1,"1999/06/03 22:30",0,26.24,TRADE
SNOWY1,"1999/06/03 23:00",1.22333,25.68,TRADE
SNOWY1,"1999/06/03 23:30",13.86167,32.3,TRADE
SNOWY1,"1999/06/04 00:00",0.555,31.73,TRADE
SNOWY1,"1999/06/04 00:30",2.04333,30.61,TRADE
SNOWY1,"1999/06/04 01:00",0.77833,28.86,TRADE
SNOWY1,"1999/06/04 01:30",0.165,32.32,TRADE
SNOWY1,"1999/06/04 02:00",2.48,29.71,TRADE
SNOWY1,"1999/06/04 02:30",1.82667,24.9,TRADE
SNOWY1,"1999/06/04 03:00",0.73,20.8,TRADE
SNOWY1,"1999/06/04 03:30",1.51167,17.53,TRADE
SNOWY1,"1999/06/04 04:00",42.78667,14.2,TRADE
SNOWY1,"1999/06/04 04:30",73.27167,15.16,TRADE
SNOWY1,"1999/06/04 05:00",73.16667,14.73,TRADE
SNOWY1,"1999/06/04 05:30",76.88167,18.39,TRADE
SNOWY1,"1999/06/04 06:00",73.07667,19.68,TRADE
SNOWY1,"1999/06/04 06:30",17.67333,26.27,TRADE
SNOWY1,"1999/06/04 07:00",2.70833,27.9,TRADE
SNOWY1,"1999/06/04 07:30",12.43,30.55,TRADE
SNOWY1,"1999/06/04 08:00",9.965,37.84,TRADE
SNOWY1,"1999/06/04 08:30",7.45833,38.6,TRADE
SNOWY1,"1999/06/04 09:00",6.26833,40.91,TRADE
SNOWY1,"1999/06/04 09:30",7.31833,44.01,TRADE
SNOWY1,"1999/06/04 10:00",2.73167,45.79,TRADE
SNOWY1,"1999/06/04 10:30",3.31167,39.65,TRADE
SNOWY1,"1999/06/04 11:00",4.93333,36.21,TRADE
SNOWY1,"1999/06/04 11:30",5.54167,38.14,TRADE
SNOWY1,"1999/06/04 12:00",5.83167,38.43,TRADE
SNOWY1,"1999/06/04 12:30",3.28333,38.21,TRADE
SNOWY1,"1999/06/04 13:00",8.94833,34.43,TRADE
SNOWY1,"1999/06/04 13:30",5.12167,34.7,TRADE
SNOWY1,"1999/06/04 14:00",6.83667,34.01,TRADE
SNOWY1,"1999/06/04 14:30",6.65333,32.08,TRADE
SNOWY1,"1999/06/04 15:00",5.835,30.81,TRADE
SNOWY1,"1999/06/04 15:30",1.55833,30.68,TRADE
SNOWY1,"1999/06/04 16:00",5.09167,25.59,TRADE
SNOWY1,"1999/06/04 16:30",2.57833,26.74,TRADE
SNOWY1,"1999/06/04 17:00",12.315,30.52,TRADE
SNOWY1,"1999/06/04 17:30",16.76167,34.65,TRADE
SNOWY1,"1999/06/04 18:00",14.34,38.5,TRADE
SNOWY1,"1999/06/04 18:30",12.90833,30.29,TRADE
SNOWY1,"1999/06/04 19:00",14.63167,25.55,TRADE
SNOWY1,"1999/06/04 19:30",8.01333,18.54,TRADE
SNOWY1,"1999/06/04 20:00",3.51333,19.24,TRADE
SNOWY1,"1999/06/04 20:30",11.75,19.64,TRADE
SNOWY1,"1999/06/04 21:00",13.75,17.28,TRADE
SNOWY1,"1999/06/04 21:30",10.47167,18.72,TRADE
SNOWY1,"1999/06/04 22:00",8.18,21.21,TRADE
SNOWY1,"1999/06/04 22:30",9.28833,21.72,TRADE
SNOWY1,"1999/06/04 23:00",9.62667,20.66,TRADE
SNOWY1,"1999/06/04 23:30",10.80667,29,TRADE
SNOWY1,"1999/06/05 00:00",10.9,29.99,TRADE
SNOWY1,"1999/06/05 00:30",4.53,26.57,TRADE
SNOWY1,"1999/06/05 01:00",10.765,25.75,TRADE
SNOWY1,"1999/06/05 01:30",12.85667,27.4,TRADE
SNOWY1,"1999/06/05 02:00",5.07,22.5,TRADE
SNOWY1,"1999/06/05 02:30",16.915,22.22,TRADE
SNOWY1,"1999/06/05 03:00",13.265,22.54,TRADE
SNOWY1,"1999/06/05 03:30",7.765,21.38,TRADE
SNOWY1,"1999/06/05 04:00",7.25833,15.52,TRADE
SNOWY1,"1999/06/05 04:30",7.23833,14.39,TRADE
SNOWY1,"1999/06/05 05:00",4.34,14.14,TRADE
SNOWY1,"1999/06/05 05:30",5.03,14.28,TRADE
SNOWY1,"1999/06/05 06:00",5.69,13.78,TRADE
SNOWY1,"1999/06/05 06:30",4.405,14.96,TRADE
SNOWY1,"1999/06/05 07:00",7.775,14.84,TRADE
SNOWY1,"1999/06/05 07:30",12.06167,18.43,TRADE
SNOWY1,"1999/06/05 08:00",6.06667,23.09,TRADE
SNOWY1,"1999/06/05 08:30",13.02833,24.81,TRADE
SNOWY1,"1999/06/05 09:00",10.62333,28.44,TRADE
SNOWY1,"1999/06/05 09:30",34.16167,28.44,TRADE
SNOWY1,"1999/06/05 10:00",27.65167,28.64,TRADE
SNOWY1,"1999/06/05 10:30",10.14,28.44,TRADE
SNOWY1,"1999/06/05 11:00",7.26833,28.44,TRADE
SNOWY1,"1999/06/05 11:30",8.965,30.9,TRADE
SNOWY1,"1999/06/05 12:00",7.29667,28.81,TRADE
SNOWY1,"1999/06/05 12:30",10.53833,28.44,TRADE
SNOWY1,"1999/06/05 13:00",4.83667,24.1,TRADE
SNOWY1,"1999/06/05 13:30",7.335,25,TRADE
SNOWY1,"1999/06/05 14:00",7.25,20.04,TRADE
SNOWY1,"1999/06/05 14:30",10.57167,18.43,TRADE
SNOWY1,"1999/06/05 15:00",8.53833,17.25,TRADE
SNOWY1,"1999/06/05 15:30",5.47667,15.77,TRADE
SNOWY1,"1999/06/05 16:00",10.38,17.7,TRADE
SNOWY1,"1999/06/05 16:30",5.09333,18.39,TRADE
SNOWY1,"1999/06/05 17:00",6.54333,24.54,TRADE
SNOWY1,"1999/06/05 17:30",30.4,29.28,TRADE
SNOWY1,"1999/06/05 18:00",25.49667,32.61,TRADE
SNOWY1,"1999/06/05 18:30",12.86167,30.56,TRADE
SNOWY1,"1999/06/05 19:00",13.13833,28.44,TRADE
SNOWY1,"1999/06/05 19:30",8.80833,27.65,TRADE
SNOWY1,"1999/06/05 20:00",11.12333,27.34,TRADE
SNOWY1,"1999/06/05 20:30",8.21,26.09,TRADE
SNOWY1,"1999/06/05 21:00",9.66833,23.93,TRADE
SNOWY1,"1999/06/05 21:30",8.53667,22.39,TRADE
SNOWY1,"1999/06/05 22:00",10.52167,22.1,TRADE
SNOWY1,"1999/06/05 22:30",5.455,23.42,TRADE
SNOWY1,"1999/06/05 23:00",5.91167,22.79,TRADE
SNOWY1,"1999/06/05 23:30",16.02833,27.78,TRADE
SNOWY1,"1999/06/06 00:00",10.11333,26.47,TRADE
SNOWY1,"1999/06/06 00:30",8.14667,24.77,TRADE
SNOWY1,"1999/06/06 01:00",7.37667,17.41,TRADE
SNOWY1,"1999/06/06 01:30",10.625,26.23,TRADE
SNOWY1,"1999/06/06 02:00",9.16833,22.14,TRADE
SNOWY1,"1999/06/06 02:30",8.135,19.17,TRADE
SNOWY1,"1999/06/06 03:00",6.94,16.94,TRADE
SNOWY1,"1999/06/06 03:30",5.95667,15.02,TRADE
SNOWY1,"1999/06/06 04:00",8.55833,13.99,TRADE
SNOWY1,"1999/06/06 04:30",6.41333,10.74,TRADE
SNOWY1,"1999/06/06 05:00",8.56,8.46,TRADE
SNOWY1,"1999/06/06 05:30",7.48833,8.89,TRADE
SNOWY1,"1999/06/06 06:00",10.01167,12.73,TRADE
SNOWY1,"1999/06/06 06:30",5.32,13.37,TRADE
SNOWY1,"1999/06/06 07:00",7.085,13.53,TRADE
SNOWY1,"1999/06/06 07:30",14.51167,13.47,TRADE
SNOWY1,"1999/06/06 08:00",5.89333,15.1,TRADE
SNOWY1,"1999/06/06 08:30",7.24333,18.41,TRADE
SNOWY1,"1999/06/06 09:00",4.225,20.55,TRADE
SNOWY1,"1999/06/06 09:30",5.96667,21.32,TRADE
SNOWY1,"1999/06/06 10:00",5.10667,22.14,TRADE
SNOWY1,"1999/06/06 10:30",6.48667,21.05,TRADE
SNOWY1,"1999/06/06 11:00",4.36167,21.52,TRADE
SNOWY1,"1999/06/06 11:30",5.59667,21.14,TRADE
SNOWY1,"1999/06/06 12:00",2.04667,21.72,TRADE
SNOWY1,"1999/06/06 12:30",11.45333,26.97,TRADE
SNOWY1,"1999/06/06 13:00",5.87667,24.85,TRADE
SNOWY1,"1999/06/06 13:30",3.74333,23.56,TRADE
SNOWY1,"1999/06/06 14:00",4.27,23.51,TRADE
SNOWY1,"1999/06/06 14:30",5.31,24.12,TRADE
SNOWY1,"1999/06/06 15:00",4.97833,22.6,TRADE
SNOWY1,"1999/06/06 15:30",6.96333,20.27,TRADE
SNOWY1,"1999/06/06 16:00",5.37667,23.14,TRADE
SNOWY1,"1999/06/06 16:30",9.58333,22.86,TRADE
SNOWY1,"1999/06/06 17:00",11.59333,24.04,TRADE
SNOWY1,"1999/06/06 17:30",27.135,29.95,TRADE
SNOWY1,"1999/06/06 18:00",24.64167,34.54,TRADE
SNOWY1,"1999/06/06 18:30",10.75333,34.66,TRADE
SNOWY1,"1999/06/06 19:00",5.81667,31.93,TRADE
SNOWY1,"1999/06/06 19:30",5.65833,26.94,TRADE
SNOWY1,"1999/06/06 20:00",11.38333,29.8,TRADE
SNOWY1,"1999/06/06 20:30",7.48,26.94,TRADE
SNOWY1,"1999/06/06 21:00",5.89667,26.94,TRADE
SNOWY1,"1999/06/06 21:30",10.33333,26.94,TRADE
SNOWY1,"1999/06/06 22:00",10.00167,25.86,TRADE
SNOWY1,"1999/06/06 22:30",20.55,26.2,TRADE
SNOWY1,"1999/06/06 23:00",3.25667,26.2,TRADE
SNOWY1,"1999/06/06 23:30",23.44333,28.7,TRADE
SNOWY1,"1999/06/07 00:00",6.70833,26.94,TRADE
SNOWY1,"1999/06/07 00:30",9.34333,25.89,TRADE
SNOWY1,"1999/06/07 01:00",5.49667,20.6,TRADE
SNOWY1,"1999/06/07 01:30",25.61833,26.94,TRADE
SNOWY1,"1999/06/07 02:00",17.655,25.88,TRADE
SNOWY1,"1999/06/07 02:30",6.9,19.83,TRADE
SNOWY1,"1999/06/07 03:00",69.47167,19.27,TRADE
SNOWY1,"1999/06/07 03:30",77.205,17.39,TRADE
SNOWY1,"1999/06/07 04:00",73.575,15.24,TRADE
SNOWY1,"1999/06/07 04:30",76.57833,14.77,TRADE
SNOWY1,"1999/06/07 05:00",76.275,15.59,TRADE
SNOWY1,"1999/06/07 05:30",54.66333,20.75,TRADE
SNOWY1,"1999/06/07 06:00",0.555,15.94,TRADE
SNOWY1,"1999/06/07 06:30",9.95833,22.01,TRADE
SNOWY1,"1999/06/07 07:00",20.55333,30.26,TRADE
SNOWY1,"1999/06/07 07:30",29.475,29.54,TRADE
SNOWY1,"1999/06/07 08:00",11.43,46.75,TRADE
SNOWY1,"1999/06/07 08:30",4.64,47.33,TRADE
SNOWY1,"1999/06/07 09:00",5.30833,50.69,TRADE
SNOWY1,"1999/06/07 09:30",12.09167,58.93,TRADE
SNOWY1,"1999/06/07 10:00",3.33167,60.13,TRADE
SNOWY1,"1999/06/07 10:30",3.15,49.86,TRADE
SNOWY1,"1999/06/07 11:00",0.06333,42.84,TRADE
SNOWY1,"1999/06/07 11:30",4.83333,43.94,TRADE
SNOWY1,"1999/06/07 12:00",0.465,46.38,TRADE
SNOWY1,"1999/06/07 12:30",18.44167,47.66,TRADE
SNOWY1,"1999/06/07 13:00",6.445,46.99,TRADE
SNOWY1,"1999/06/07 13:30",12.48833,52.11,TRADE
SNOWY1,"1999/06/07 14:00",4.02333,48.88,TRADE
SNOWY1,"1999/06/07 14:30",4.92167,53.52,TRADE
SNOWY1,"1999/06/07 15:00",7.66,46.66,TRADE
SNOWY1,"1999/06/07 15:30",5.51833,44.06,TRADE
SNOWY1,"1999/06/07 16:00",13.61333,45.82,TRADE
SNOWY1,"1999/06/07 16:30",7.22333,44.06,TRADE
SNOWY1,"1999/06/07 17:00",15.89,41.03,TRADE
SNOWY1,"1999/06/07 17:30",20.50667,51.78,TRADE
SNOWY1,"1999/06/07 18:00",8.93,63.11,TRADE
SNOWY1,"1999/06/07 18:30",4.59167,63.46,TRADE
SNOWY1,"1999/06/07 19:00",5.60833,60.13,TRADE
SNOWY1,"1999/06/07 19:30",7.96167,47.5,TRADE
SNOWY1,"1999/06/07 20:00",14.14,42.77,TRADE
SNOWY1,"1999/06/07 20:30",6.02,32.9,TRADE
SNOWY1,"1999/06/07 21:00",8.50833,32.79,TRADE
SNOWY1,"1999/06/07 21:30",10.28667,28.92,TRADE
SNOWY1,"1999/06/07 22:00",5.605,27.99,TRADE
SNOWY1,"1999/06/07 22:30",10.72167,24.21,TRADE
SNOWY1,"1999/06/07 23:00",9.96333,24.36,TRADE
SNOWY1,"1999/06/07 23:30",9.05167,31.76,TRADE
SNOWY1,"1999/06/08 00:00",7.9,32.04,TRADE
SNOWY1,"1999/06/08 00:30",8.77167,30.69,TRADE
SNOWY1,"1999/06/08 01:00",9.57,28.19,TRADE
SNOWY1,"1999/06/08 01:30",9.49167,30.07,TRADE
SNOWY1,"1999/06/08 02:00",4.07167,24.69,TRADE
SNOWY1,"1999/06/08 02:30",10.64,24.08,TRADE
SNOWY1,"1999/06/08 03:00",16.67167,21.61,TRADE
SNOWY1,"1999/06/08 03:30",79.63333,21.43,TRADE
SNOWY1,"1999/06/08 04:00",85.125,16.22,TRADE
SNOWY1,"1999/06/08 04:30",79.91833,14.37,TRADE
SNOWY1,"1999/06/08 05:00",80.36833,12.81,TRADE
SNOWY1,"1999/06/08 05:30",82.34667,21.44,TRADE
SNOWY1,"1999/06/08 06:00",81.83,18.31,TRADE
SNOWY1,"1999/06/08 06:30",91.645,23.47,TRADE
SNOWY1,"1999/06/08 07:00",54.05333,26.96,TRADE
SNOWY1,"1999/06/08 07:30",28.32333,28.31,TRADE
SNOWY1,"1999/06/08 08:00",23.2,42.76,TRADE
SNOWY1,"1999/06/08 08:30",8.61667,46.36,TRADE
SNOWY1,"1999/06/08 09:00",6.24167,43.24,TRADE
SNOWY1,"1999/06/08 09:30",20.49667,47.07,TRADE
SNOWY1,"1999/06/08 10:00",5.65333,51.78,TRADE
SNOWY1,"1999/06/08 10:30",9.68167,37.52,TRADE
SNOWY1,"1999/06/08 11:00",9.72167,34.63,TRADE
SNOWY1,"1999/06/08 11:30",4.86333,35.38,TRADE
SNOWY1,"1999/06/08 12:00",1.62,38.88,TRADE
SNOWY1,"1999/06/08 12:30",2.29333,39.56,TRADE
SNOWY1,"1999/06/08 13:00",2.98333,41.03,TRADE
SNOWY1,"1999/06/08 13:30",9.18667,42.49,TRADE
SNOWY1,"1999/06/08 14:00",9.475,39.02,TRADE
SNOWY1,"1999/06/08 14:30",1.46,38.07,TRADE
SNOWY1,"1999/06/08 15:00",5.64,36.1,TRADE
SNOWY1,"1999/06/08 15:30",3.43333,33.48,TRADE
SNOWY1,"1999/06/08 16:00",4.46333,32.67,TRADE
SNOWY1,"1999/06/08 16:30",2.43,32.46,TRADE
SNOWY1,"1999/06/08 17:00",10.07,33.51,TRADE
SNOWY1,"1999/06/08 17:30",8.92833,49.28,TRADE
SNOWY1,"1999/06/08 18:00",18.12167,60.86,TRADE
SNOWY1,"1999/06/08 18:30",10.83833,65.9,TRADE
SNOWY1,"1999/06/08 19:00",14.93333,58.19,TRADE
SNOWY1,"1999/06/08 19:30",4.50833,44.99,TRADE
SNOWY1,"1999/06/08 20:00",7.42833,38.57,TRADE
SNOWY1,"1999/06/08 20:30",3.035,36.29,TRADE
SNOWY1,"1999/06/08 21:00",5.14333,36.56,TRADE
SNOWY1,"1999/06/08 21:30",0.39333,31.91,TRADE
SNOWY1,"1999/06/08 22:00",3.08,31.96,TRADE
SNOWY1,"1999/06/08 22:30",2.445,26.7,TRADE
SNOWY1,"1999/06/08 23:00",4.35333,25.1,TRADE
SNOWY1,"1999/06/08 23:30",3.83167,31.72,TRADE
SNOWY1,"1999/06/09 00:00",3.37667,31.55,TRADE
SNOWY1,"1999/06/09 00:30",4.21833,31.67,TRADE
SNOWY1,"1999/06/09 01:00",6.445,30.89,TRADE
SNOWY1,"1999/06/09 01:30",12.415,33.25,TRADE
SNOWY1,"1999/06/09 02:00",11.21333,30.56,TRADE
SNOWY1,"1999/06/09 02:30",10.21,27.04,TRADE
SNOWY1,"1999/06/09 03:00",6.205,24.35,TRADE
SNOWY1,"1999/06/09 03:30",3.61333,20.01,TRADE
SNOWY1,"1999/06/09 04:00",67.94667,19.76,TRADE
SNOWY1,"1999/06/09 04:30",73.61,14.39,TRADE
SNOWY1,"1999/06/09 05:00",74.975,14.03,TRADE
SNOWY1,"1999/06/09 05:30",88.19833,18.49,TRADE
SNOWY1,"1999/06/09 06:00",76.97833,18.67,TRADE
SNOWY1,"1999/06/09 06:30",83.825,24.25,TRADE
SNOWY1,"1999/06/09 07:00",26.02,26.2,TRADE
SNOWY1,"1999/06/09 07:30",21.13667,28.4,TRADE
SNOWY1,"1999/06/09 08:00",27.54,43.36,TRADE
SNOWY1,"1999/06/09 08:30",11.405,44.97,TRADE
SNOWY1,"1999/06/09 09:00",3.16,46.66,TRADE
SNOWY1,"1999/06/09 09:30",4.33167,55.91,TRADE
SNOWY1,"1999/06/09 10:00",13.33833,52.97,TRADE
SNOWY1,"1999/06/09 10:30",5.63333,45.14,TRADE
SNOWY1,"1999/06/09 11:00",6.01,45.4,TRADE
SNOWY1,"1999/06/09 11:30",6.625,45.48,TRADE
SNOWY1,"1999/06/09 12:00",7.56,44.95,TRADE
SNOWY1,"1999/06/09 12:30",9.90333,46.35,TRADE
SNOWY1,"1999/06/09 13:00",4.39167,46.47,TRADE
SNOWY1,"1999/06/09 13:30",12.59,46.25,TRADE
SNOWY1,"1999/06/09 14:00",4.29833,44.16,TRADE
SNOWY1,"1999/06/09 14:30",9.48667,51.14,TRADE
SNOWY1,"1999/06/09 15:00",7.08167,55.27,TRADE
SNOWY1,"1999/06/09 15:30",5.04333,49.99,TRADE
SNOWY1,"1999/06/09 16:00",9.78167,44.68,TRADE
SNOWY1,"1999/06/09 16:30",12.74667,41.96,TRADE
SNOWY1,"1999/06/09 17:00",10.96667,40,TRADE
SNOWY1,"1999/06/09 17:30",5.62667,47.67,TRADE
SNOWY1,"1999/06/09 18:00",0.95333,76.13,TRADE
SNOWY1,"1999/06/09 18:30",1.76167,77.36,TRADE
SNOWY1,"1999/06/09 19:00",2.00833,48.63,TRADE
SNOWY1,"1999/06/09 19:30",3.055,41.88,TRADE
SNOWY1,"1999/06/09 20:00",8.14333,36.77,TRADE
SNOWY1,"1999/06/09 20:30",10.01,30.39,TRADE
SNOWY1,"1999/06/09 21:00",2.57333,31.04,TRADE
SNOWY1,"1999/06/09 21:30",13.12333,35.57,TRADE
SNOWY1,"1999/06/09 22:00",9.15667,29.78,TRADE
SNOWY1,"1999/06/09 22:30",11.845,28.55,TRADE
SNOWY1,"1999/06/09 23:00",9.01333,26.2,TRADE
SNOWY1,"1999/06/09 23:30",7.84667,31.58,TRADE
SNOWY1,"1999/06/10 00:00",9.24667,28.94,TRADE
SNOWY1,"1999/06/10 00:30",9.805,28.35,TRADE
SNOWY1,"1999/06/10 01:00",6.93833,25.76,TRADE
SNOWY1,"1999/06/10 01:30",5.52667,27.46,TRADE
SNOWY1,"1999/06/10 02:00",6.33833,22.35,TRADE
SNOWY1,"1999/06/10 02:30",6.36333,22.26,TRADE
SNOWY1,"1999/06/10 03:00",1.18667,18.38,TRADE
SNOWY1,"1999/06/10 03:30",68.825,15.03,TRADE
SNOWY1,"1999/06/10 04:00",73.66,14.3,TRADE
SNOWY1,"1999/06/10 04:30",114.515,7.78,TRADE
SNOWY1,"1999/06/10 05:00",99.29,8.34,TRADE
SNOWY1,"1999/06/10 05:30",76.23167,10.37,TRADE
SNOWY1,"1999/06/10 06:00",73.87833,14.37,TRADE
SNOWY1,"1999/06/10 06:30",73.935,18.65,TRADE
SNOWY1,"1999/06/10 07:00",75.86,19.78,TRADE
SNOWY1,"1999/06/10 07:30",75.59333,20.22,TRADE
SNOWY1,"1999/06/10 08:00",14.79333,25.21,TRADE
SNOWY1,"1999/06/10 08:30",2.85667,25.55,TRADE
SNOWY1,"1999/06/10 09:00",4.17167,25.35,TRADE
SNOWY1,"1999/06/10 09:30",7.1,42.55,TRADE
SNOWY1,"1999/06/10 10:00",8.22667,30.53,TRADE
SNOWY1,"1999/06/10 10:30",12.16167,22.8,TRADE
SNOWY1,"1999/06/10 11:00",4.89833,18.36,TRADE
SNOWY1,"1999/06/10 11:30",8.24833,17.62,TRADE
SNOWY1,"1999/06/10 12:00",7.11333,19.45,TRADE
SNOWY1,"1999/06/10 12:30",4.60833,17.62,TRADE
SNOWY1,"1999/06/10 13:00",3.64833,18.09,TRADE
SNOWY1,"1999/06/10 13:30",5.27833,27.27,TRADE
SNOWY1,"1999/06/10 14:00",0.72833,21.02,TRADE
SNOWY1,"1999/06/10 14:30",7.265,20.19,TRADE
SNOWY1,"1999/06/10 15:00",6.08167,18.92,TRADE
SNOWY1,"1999/06/10 15:30",1.99,19.91,TRADE
SNOWY1,"1999/06/10 16:00",1.88833,24.4,TRADE
SNOWY1,"1999/06/10 16:30",3.51667,28.14,TRADE
SNOWY1,"1999/06/10 17:00",12.29833,22.24,TRADE
SNOWY1,"1999/06/10 17:30",11.75833,33.7,TRADE
SNOWY1,"1999/06/10 18:00",17.105,42.58,TRADE
SNOWY1,"1999/06/10 18:30",10.58167,40.51,TRADE
SNOWY1,"1999/06/10 19:00",11.03667,33.23,TRADE
SNOWY1,"1999/06/10 19:30",8.94333,32.19,TRADE
SNOWY1,"1999/06/10 20:00",8.03167,30.07,TRADE
SNOWY1,"1999/06/10 20:30",6.64667,29.83,TRADE
SNOWY1,"1999/06/10 21:00",10.355,25.11,TRADE
SNOWY1,"1999/06/10 21:30",6.66833,21.42,TRADE
SNOWY1,"1999/06/10 22:00",5.98833,24.09,TRADE
SNOWY1,"1999/06/10 22:30",11.7,24.2,TRADE
SNOWY1,"1999/06/10 23:00",5.76,18.95,TRADE
SNOWY1,"1999/06/10 23:30",8.85,30.62,TRADE
SNOWY1,"1999/06/11 00:00",11.49667,27.81,TRADE
SNOWY1,"1999/06/11 00:30",11.82833,26.3,TRADE
SNOWY1,"1999/06/11 01:00",3.69167,24.91,TRADE
SNOWY1,"1999/06/11 01:30",30.44333,26.51,TRADE
SNOWY1,"1999/06/11 02:00",10.06333,22.85,TRADE
SNOWY1,"1999/06/11 02:30",50.18167,22.27,TRADE
SNOWY1,"1999/06/11 03:00",59.30167,17.39,TRADE
SNOWY1,"1999/06/11 03:30",71.33167,16.15,TRADE
SNOWY1,"1999/06/11 04:00",72.71667,13.58,TRADE
SNOWY1,"1999/06/11 04:30",72.13,11.62,TRADE
SNOWY1,"1999/06/11 05:00",70.515,13.73,TRADE
SNOWY1,"1999/06/11 05:30",72.19167,15.16,TRADE
SNOWY1,"1999/06/11 06:00",71.725,17.06,TRADE
SNOWY1,"1999/06/11 06:30",63.76,20.95,TRADE
SNOWY1,"1999/06/11 07:00",29.37333,23.73,TRADE
SNOWY1,"1999/06/11 07:30",20.68167,25.11,TRADE
SNOWY1,"1999/06/11 08:00",4.56667,34.75,TRADE
SNOWY1,"1999/06/11 08:30",9.30333,35.68,TRADE
SNOWY1,"1999/06/11 09:00",6.54167,32.39,TRADE
SNOWY1,"1999/06/11 09:30",8,42.56,TRADE
SNOWY1,"1999/06/11 10:00",9.11667,42.98,TRADE
SNOWY1,"1999/06/11 10:30",2.905,33.73,TRADE
SNOWY1,"1999/06/11 11:00",1.955,31.04,TRADE
SNOWY1,"1999/06/11 11:30",3.64833,29.17,TRADE
SNOWY1,"1999/06/11 12:00",6.07167,29.78,TRADE
SNOWY1,"1999/06/11 12:30",3.705,30.3,TRADE
SNOWY1,"1999/06/11 13:00",2.49833,30.47,TRADE
SNOWY1,"1999/06/11 13:30",4.44667,34.98,TRADE
SNOWY1,"1999/06/11 14:00",2.075,34.59,TRADE
SNOWY1,"1999/06/11 14:30",1.74667,34.2,TRADE
SNOWY1,"1999/06/11 15:00",0,30.45,TRADE
SNOWY1,"1999/06/11 15:30",0.15667,25.33,TRADE
SNOWY1,"1999/06/11 16:00",0.875,23.99,TRADE
SNOWY1,"1999/06/11 16:30",10.18833,26.93,TRADE
SNOWY1,"1999/06/11 17:00",22.085,18.1,TRADE
SNOWY1,"1999/06/11 17:30",5.025,36.17,TRADE
SNOWY1,"1999/06/11 18:00",15.01667,41.55,TRADE
SNOWY1,"1999/06/11 18:30",5.71167,42.02,TRADE
SNOWY1,"1999/06/11 19:00",0.44,33.86,TRADE
SNOWY1,"1999/06/11 19:30",2.97,36.5,TRADE
SNOWY1,"1999/06/11 20:00",9.605,30.62,TRADE
SNOWY1,"1999/06/11 20:30",7.18167,29.17,TRADE
SNOWY1,"1999/06/11 21:00",1.6,25.57,TRADE
SNOWY1,"1999/06/11 21:30",4.255,30.04,TRADE
SNOWY1,"1999/06/11 22:00",1.27667,27.19,TRADE
SNOWY1,"1999/06/11 22:30",11.10167,24.81,TRADE
SNOWY1,"1999/06/11 23:00",13.10667,24.39,TRADE
SNOWY1,"1999/06/11 23:30",20.27167,33.11,TRADE
SNOWY1,"1999/06/12 00:00",3.475,30.64,TRADE
SNOWY1,"1999/06/12 00:30",2.99333,28.91,TRADE
SNOWY1,"1999/06/12 01:00",3.44833,24.86,TRADE
SNOWY1,"1999/06/12 01:30",66.40833,28.41,TRADE
SNOWY1,"1999/06/12 02:00",71.315,28.08,TRADE
SNOWY1,"1999/06/12 02:30",79.66833,25.54,TRADE
SNOWY1,"1999/06/12 03:00",66.155,22.01,TRADE
SNOWY1,"1999/06/12 03:30",89.225,20.38,TRADE
SNOWY1,"1999/06/12 04:00",73.96333,16.05,TRADE
SNOWY1,"1999/06/12 04:30",73.38833,14.49,TRADE
SNOWY1,"1999/06/12 05:00",72.08,14.4,TRADE
SNOWY1,"1999/06/12 05:30",74.83667,14.37,TRADE
SNOWY1,"1999/06/12 06:00",72.265,14.82,TRADE
SNOWY1,"1999/06/12 06:30",74.15833,16.29,TRADE
SNOWY1,"1999/06/12 07:00",70.51167,16.78,TRADE
SNOWY1,"1999/06/12 07:30",103.72333,17.66,TRADE
SNOWY1,"1999/06/12 08:00",74.16667,24.16,TRADE
SNOWY1,"1999/06/12 08:30",56.57833,29.14,TRADE
SNOWY1,"1999/06/12 09:00",5.18833,34.45,TRADE
SNOWY1,"1999/06/12 09:30",2.59333,39.06,TRADE
SNOWY1,"1999/06/12 10:00",3.43833,38.63,TRADE
SNOWY1,"1999/06/12 10:30",4.71333,35.61,TRADE
SNOWY1,"1999/06/12 11:00",4.62667,30.84,TRADE
SNOWY1,"1999/06/12 11:30",4.55333,28.93,TRADE
SNOWY1,"1999/06/12 12:00",2.27333,55.38,TRADE
SNOWY1,"1999/06/12 12:30",1.18833,33.69,TRADE
SNOWY1,"1999/06/12 13:00",0,26.01,TRADE
SNOWY1,"1999/06/12 13:30",3.50667,26.47,TRADE
SNOWY1,"1999/06/12 14:00",5.62,26.33,TRADE
SNOWY1,"1999/06/12 14:30",5.195,26.37,TRADE
SNOWY1,"1999/06/12 15:00",8.06333,25.13,TRADE
SNOWY1,"1999/06/12 15:30",4.44667,25.73,TRADE
SNOWY1,"1999/06/12 16:00",5.1,25.27,TRADE
SNOWY1,"1999/06/12 16:30",5.18,27.76,TRADE
SNOWY1,"1999/06/12 17:00",8.05167,34.18,TRADE
SNOWY1,"1999/06/12 17:30",31.04833,43.41,TRADE
SNOWY1,"1999/06/12 18:00",17.30167,45.75,TRADE
SNOWY1,"1999/06/12 18:30",7.63,48.47,TRADE
SNOWY1,"1999/06/12 19:00",5.20333,43.33,TRADE
SNOWY1,"1999/06/12 19:30",4.485,40.24,TRADE
SNOWY1,"1999/06/12 20:00",10.93333,37.66,TRADE
SNOWY1,"1999/06/12 20:30",11.93333,31.75,TRADE
SNOWY1,"1999/06/12 21:00",10.52833,35.06,TRADE
SNOWY1,"1999/06/12 21:30",8.98833,34.63,TRADE
SNOWY1,"1999/06/12 22:00",9.24833,29.77,TRADE
SNOWY1,"1999/06/12 22:30",12.56333,28.94,TRADE
SNOWY1,"1999/06/12 23:00",11.34833,26.69,TRADE
SNOWY1,"1999/06/12 23:30",11.12167,34.27,TRADE
SNOWY1,"1999/06/13 00:00",13.46333,29.28,TRADE
SNOWY1,"1999/06/13 00:30",2.58167,33.55,TRADE
SNOWY1,"1999/06/13 01:00",9.015,27.34,TRADE
SNOWY1,"1999/06/13 01:30",7.37833,30.66,TRADE
SNOWY1,"1999/06/13 02:00",6.91667,25.91,TRADE
SNOWY1,"1999/06/13 02:30",7.06833,20.19,TRADE
SNOWY1,"1999/06/13 03:00",7.185,18.39,TRADE
SNOWY1,"1999/06/13 03:30",48.93333,15.08,TRADE
SNOWY1,"1999/06/13 04:00",76.96,14.28,TRADE
SNOWY1,"1999/06/13 04:30",76.46833,12.87,TRADE
SNOWY1,"1999/06/13 05:00",76.50667,12.82,TRADE
SNOWY1,"1999/06/13 05:30",77.12,12.85,TRADE
SNOWY1,"1999/06/13 06:00",75.515,12.92,TRADE
SNOWY1,"1999/06/13 06:30",74.475,13.24,TRADE
SNOWY1,"1999/06/13 07:00",74.04,13.59,TRADE
SNOWY1,"1999/06/13 07:30",100.845,13.11,TRADE
SNOWY1,"1999/06/13 08:00",73.96167,14.74,TRADE
SNOWY1,"1999/06/13 08:30",72.15,17.51,TRADE
SNOWY1,"1999/06/13 09:00",75.53333,24.4,TRADE
SNOWY1,"1999/06/13 09:30",73.695,29.62,TRADE
SNOWY1,"1999/06/13 10:00",74.19667,32.92,TRADE
SNOWY1,"1999/06/13 10:30",40.79167,33.01,TRADE
SNOWY1,"1999/06/13 11:00",5.005,33.22,TRADE
SNOWY1,"1999/06/13 11:30",5.415,33.35,TRADE
SNOWY1,"1999/06/13 12:00",4.66833,33.82,TRADE
SNOWY1,"1999/06/13 12:30",3.22167,36.77,TRADE
SNOWY1,"1999/06/13 13:00",45.33167,36.93,TRADE
SNOWY1,"1999/06/13 13:30",41.255,37.87,TRADE
SNOWY1,"1999/06/13 14:00",63.71333,33.99,TRADE
SNOWY1,"1999/06/13 14:30",63.6,33.6,TRADE
SNOWY1,"1999/06/13 15:00",50.16333,33.08,TRADE
SNOWY1,"1999/06/13 15:30",40.455,32.52,TRADE
SNOWY1,"1999/06/13 16:00",3.79667,27.82,TRADE
SNOWY1,"1999/06/13 16:30",4.15667,28.72,TRADE
SNOWY1,"1999/06/13 17:00",6.42833,30.55,TRADE
SNOWY1,"1999/06/13 17:30",4.595,37.74,TRADE
SNOWY1,"1999/06/13 18:00",17.71167,43.33,TRADE
SNOWY1,"1999/06/13 18:30",6.71833,43.41,TRADE
SNOWY1,"1999/06/13 19:00",5.82167,41.22,TRADE
SNOWY1,"1999/06/13 19:30",10.06,30.21,TRADE
SNOWY1,"1999/06/13 20:00",11.63333,33.29,TRADE
SNOWY1,"1999/06/13 20:30",8.77167,29.41,TRADE
SNOWY1,"1999/06/13 21:00",8.83,29.04,TRADE
SNOWY1,"1999/06/13 21:30",7.825,28.3,TRADE
SNOWY1,"1999/06/13 22:00",6.69667,26.18,TRADE
SNOWY1,"1999/06/13 22:30",7.63333,27.05,TRADE
SNOWY1,"1999/06/13 23:00",10.13667,25.63,TRADE
SNOWY1,"1999/06/13 23:30",10.04667,32.5,TRADE
SNOWY1,"1999/06/14 00:00",4.60667,27.09,TRADE
SNOWY1,"1999/06/14 00:30",0.95,25.66,TRADE
SNOWY1,"1999/06/14 01:00",3.41167,21.45,TRADE
SNOWY1,"1999/06/14 01:30",18.92333,27.11,TRADE
SNOWY1,"1999/06/14 02:00",0,24,TRADE
SNOWY1,"1999/06/14 02:30",7.035,17.63,TRADE
SNOWY1,"1999/06/14 03:00",47.42,14.94,TRADE
SNOWY1,"1999/06/14 03:30",76.65667,13.87,TRADE
SNOWY1,"1999/06/14 04:00",77.41333,12.96,TRADE
SNOWY1,"1999/06/14 04:30",76.79,12.04,TRADE
SNOWY1,"1999/06/14 05:00",74.25,9.52,TRADE
SNOWY1,"1999/06/14 05:30",75.83667,11.11,TRADE
SNOWY1,"1999/06/14 06:00",77.41667,12.1,TRADE
SNOWY1,"1999/06/14 06:30",75.44833,13.8,TRADE
SNOWY1,"1999/06/14 07:00",73.22,15.34,TRADE
SNOWY1,"1999/06/14 07:30",82.985,13.48,TRADE
SNOWY1,"1999/06/14 08:00",73.335,15.39,TRADE
SNOWY1,"1999/06/14 08:30",74.72167,15.82,TRADE
SNOWY1,"1999/06/14 09:00",82.24833,20.68,TRADE
SNOWY1,"1999/06/14 09:30",49.16333,28.57,TRADE
SNOWY1,"1999/06/14 10:00",9.02,31.9,TRADE
SNOWY1,"1999/06/14 10:30",7.38333,31.94,TRADE
SNOWY1,"1999/06/14 11:00",12.865,31.01,TRADE
SNOWY1,"1999/06/14 11:30",7.90833,31.31,TRADE
SNOWY1,"1999/06/14 12:00",12.12,30,TRADE
SNOWY1,"1999/06/14 12:30",9.97833,30.44,TRADE
SNOWY1,"1999/06/14 13:00",11.15667,30.15,TRADE
SNOWY1,"1999/06/14 13:30",8.375,30.57,TRADE
SNOWY1,"1999/06/14 14:00",7.675,30.32,TRADE
SNOWY1,"1999/06/14 14:30",6.67333,31.06,TRADE
SNOWY1,"1999/06/14 15:00",6.85833,30.52,TRADE
SNOWY1,"1999/06/14 15:30",5.24333,29.17,TRADE
SNOWY1,"1999/06/14 16:00",5.72667,32.45,TRADE
SNOWY1,"1999/06/14 16:30",5.42333,31.93,TRADE
SNOWY1,"1999/06/14 17:00",5.715,32.35,TRADE
SNOWY1,"1999/06/14 17:30",27.50833,55.52,TRADE
SNOWY1,"1999/06/14 18:00",21.85333,69.1,TRADE
SNOWY1,"1999/06/14 18:30",17.01167,71.29,TRADE
SNOWY1,"1999/06/14 19:00",13.195,58.45,TRADE
SNOWY1,"1999/06/14 19:30",12.00167,54.95,TRADE
SNOWY1,"1999/06/14 20:00",11.74,43.59,TRADE
SNOWY1,"1999/06/14 20:30",9.23667,37.06,TRADE
SNOWY1,"1999/06/14 21:00",10.47167,34.3,TRADE
SNOWY1,"1999/06/14 21:30",5.15667,34.03,TRADE
SNOWY1,"1999/06/14 22:00",10.16167,28.25,TRADE
SNOWY1,"1999/06/14 22:30",7.63,26.85,TRADE
SNOWY1,"1999/06/14 23:00",9.81667,22.19,TRADE
SNOWY1,"1999/06/14 23:30",7.45,28.93,TRADE
SNOWY1,"1999/06/15 00:00",8.07167,26.52,TRADE
SNOWY1,"1999/06/15 00:30",1.08833,20.03,TRADE
SNOWY1,"1999/06/15 01:00",32.24167,18.63,TRADE
SNOWY1,"1999/06/15 01:30",84.60333,27.54,TRADE
SNOWY1,"1999/06/15 02:00",59.84833,24.2,TRADE
SNOWY1,"1999/06/15 02:30",73.285,21.75,TRADE
SNOWY1,"1999/06/15 03:00",72.11333,18.71,TRADE
SNOWY1,"1999/06/15 03:30",72.84,15.43,TRADE
SNOWY1,"1999/06/15 04:00",74.39167,14.42,TRADE
SNOWY1,"1999/06/15 04:30",74.445,11.11,TRADE
SNOWY1,"1999/06/15 05:00",72.39333,10.71,TRADE
SNOWY1,"1999/06/15 05:30",73.57667,16.29,TRADE
SNOWY1,"1999/06/15 06:00",72.55333,18.58,TRADE
SNOWY1,"1999/06/15 06:30",100.60167,27.35,TRADE
SNOWY1,"1999/06/15 07:00",77.785,30.44,TRADE
SNOWY1,"1999/06/15 07:30",89.36333,35.42,TRADE
SNOWY1,"1999/06/15 08:00",16.435,54.11,TRADE
SNOWY1,"1999/06/15 08:30",11.46333,59.5,TRADE
SNOWY1,"1999/06/15 09:00",9.04667,59.91,TRADE
SNOWY1,"1999/06/15 09:30",8.22,60.13,TRADE
SNOWY1,"1999/06/15 10:00",10.05333,60.08,TRADE
SNOWY1,"1999/06/15 10:30",8.47,58.56,TRADE
SNOWY1,"1999/06/15 11:00",4.2,50.89,TRADE
SNOWY1,"1999/06/15 11:30",7.86167,46.66,TRADE
SNOWY1,"1999/06/15 12:00",2.86667,54.98,TRADE
SNOWY1,"1999/06/15 12:30",6.585,55.11,TRADE
SNOWY1,"1999/06/15 13:00",10.69667,57.02,TRADE
SNOWY1,"1999/06/15 13:30",7.65333,57.98,TRADE
SNOWY1,"1999/06/15 14:00",4.08,49.6,TRADE
SNOWY1,"1999/06/15 14:30",7.475,48.58,TRADE
SNOWY1,"1999/06/15 15:00",5.20667,46.66,TRADE
SNOWY1,"1999/06/15 15:30",4.06833,46.66,TRADE
SNOWY1,"1999/06/15 16:00",4.84333,46.66,TRADE
SNOWY1,"1999/06/15 16:30",4.56667,60.06,TRADE
SNOWY1,"1999/06/15 17:00",0.84,60.09,TRADE
SNOWY1,"1999/06/15 17:30",1.25167,74.68,TRADE
SNOWY1,"1999/06/15 18:00",3.82333,320.43,TRADE
SNOWY1,"1999/06/15 18:30",2.65833,182.52,TRADE
SNOWY1,"1999/06/15 19:00",2.03167,76.36,TRADE
SNOWY1,"1999/06/15 19:30",7.13833,60.13,TRADE
SNOWY1,"1999/06/15 20:00",8.20667,54.91,TRADE
SNOWY1,"1999/06/15 20:30",12.90833,55.47,TRADE
SNOWY1,"1999/06/15 21:00",8.30333,51.97,TRADE
SNOWY1,"1999/06/15 21:30",5.30833,46.66,TRADE
SNOWY1,"1999/06/15 22:00",9.01833,38.58,TRADE
SNOWY1,"1999/06/15 22:30",4.89167,33.32,TRADE
SNOWY1,"1999/06/15 23:00",7.73833,28.24,TRADE
SNOWY1,"1999/06/15 23:30",17.175,33.48,TRADE
SNOWY1,"1999/06/16 00:00",7.765,33.51,TRADE
SNOWY1,"1999/06/16 00:30",10.475,33.68,TRADE
SNOWY1,"1999/06/16 01:00",11.16833,31.95,TRADE
SNOWY1,"1999/06/16 01:30",24.12167,34.73,TRADE
SNOWY1,"1999/06/16 02:00",10.97,32.07,TRADE
SNOWY1,"1999/06/16 02:30",5.83167,27.49,TRADE
SNOWY1,"1999/06/16 03:00",3.085,24.99,TRADE
SNOWY1,"1999/06/16 03:30",5.75167,24.13,TRADE
SNOWY1,"1999/06/16 04:00",3.56833,19.83,TRADE
SNOWY1,"1999/06/16 04:30",54.32,14.66,TRADE
SNOWY1,"1999/06/16 05:00",68.22333,14.77,TRADE
SNOWY1,"1999/06/16 05:30",97.09167,21.3,TRADE
SNOWY1,"1999/06/16 06:00",96.635,21.63,TRADE
SNOWY1,"1999/06/16 06:30",57.48167,26.65,TRADE
SNOWY1,"1999/06/16 07:00",7.18833,32.16,TRADE
SNOWY1,"1999/06/16 07:30",12.24333,38.93,TRADE
SNOWY1,"1999/06/16 08:00",21.675,57.45,TRADE
SNOWY1,"1999/06/16 08:30",17.70833,59.27,TRADE
SNOWY1,"1999/06/16 09:00",7.85333,60.1,TRADE
SNOWY1,"1999/06/16 09:30",15.54333,60.13,TRADE
SNOWY1,"1999/06/16 10:00",8.93,60.13,TRADE
SNOWY1,"1999/06/16 10:30",2.66667,55.77,TRADE
SNOWY1,"1999/06/16 11:00",4.17333,47.6,TRADE
SNOWY1,"1999/06/16 11:30",2.90333,45.06,TRADE
SNOWY1,"1999/06/16 12:00",3.50667,46.14,TRADE
SNOWY1,"1999/06/16 12:30",4.30833,46.09,TRADE
SNOWY1,"1999/06/16 13:00",7.04,46.66,TRADE
SNOWY1,"1999/06/16 13:30",0,46.66,TRADE
SNOWY1,"1999/06/16 14:00",1.47333,45.85,TRADE
SNOWY1,"1999/06/16 14:30",2.70667,45.35,TRADE
SNOWY1,"1999/06/16 15:00",2.34333,39.97,TRADE
SNOWY1,"1999/06/16 15:30",3.95,38.19,TRADE
SNOWY1,"1999/06/16 16:00",2.14667,37.79,TRADE
SNOWY1,"1999/06/16 16:30",3.05667,45.33,TRADE
SNOWY1,"1999/06/16 17:00",28.94667,49.49,TRADE
SNOWY1,"1999/06/16 17:30",3.89833,55.71,TRADE
SNOWY1,"1999/06/16 18:00",9.175,60.13,TRADE
SNOWY1,"1999/06/16 18:30",3.23667,60.14,TRADE
SNOWY1,"1999/06/16 19:00",0.52833,60.13,TRADE
SNOWY1,"1999/06/16 19:30",2.09333,51.61,TRADE
SNOWY1,"1999/06/16 20:00",8.91333,53.82,TRADE
SNOWY1,"1999/06/16 20:30",6.36667,54.21,TRADE
SNOWY1,"1999/06/16 21:00",10.75833,55.73,TRADE
SNOWY1,"1999/06/16 21:30",6.14833,49.11,TRADE
SNOWY1,"1999/06/16 22:00",6.965,38.95,TRADE
SNOWY1,"1999/06/16 22:30",12.30833,34.46,TRADE
SNOWY1,"1999/06/16 23:00",1.70667,31.06,TRADE
SNOWY1,"1999/06/16 23:30",33.94833,37.07,TRADE
SNOWY1,"1999/06/17 00:00",30.62167,35.12,TRADE
SNOWY1,"1999/06/17 00:30",38.76,40.69,TRADE
SNOWY1,"1999/06/17 01:00",21.50833,34.54,TRADE
SNOWY1,"1999/06/17 01:30",8.00667,38.82,TRADE
SNOWY1,"1999/06/17 02:00",3.42667,33.79,TRADE
SNOWY1,"1999/06/17 02:30",9,28.77,TRADE
SNOWY1,"1999/06/17 03:00",6.44,27.15,TRADE
SNOWY1,"1999/06/17 03:30",6.83,25.63,TRADE
SNOWY1,"1999/06/17 04:00",3.73333,22.88,TRADE
SNOWY1,"1999/06/17 04:30",72.37,21.84,TRADE
SNOWY1,"1999/06/17 05:00",69.20167,20.27,TRADE
SNOWY1,"1999/06/17 05:30",100.29333,23.51,TRADE
SNOWY1,"1999/06/17 06:00",111.88833,24.67,TRADE
SNOWY1,"1999/06/17 06:30",38.81167,30.8,TRADE
SNOWY1,"1999/06/17 07:00",18.235,34.03,TRADE
SNOWY1,"1999/06/17 07:30",35.16333,44.27,TRADE
SNOWY1,"1999/06/17 08:00",12.21,58.35,TRADE
SNOWY1,"1999/06/17 08:30",14.23667,60.13,TRADE
SNOWY1,"1999/06/17 09:00",4.885,60.13,TRADE
SNOWY1,"1999/06/17 09:30",12.50167,63.62,TRADE
SNOWY1,"1999/06/17 10:00",5.47,60.61,TRADE
SNOWY1,"1999/06/17 10:30",6.545,58.35,TRADE
SNOWY1,"1999/06/17 11:00",4.93167,50.65,TRADE
SNOWY1,"1999/06/17 11:30",4.62833,51.17,TRADE
SNOWY1,"1999/06/17 12:00",1.3,52.97,TRADE
SNOWY1,"1999/06/17 12:30",4.23667,46.98,TRADE
SNOWY1,"1999/06/17 13:00",6.56,46.77,TRADE
SNOWY1,"1999/06/17 13:30",5.84,46.85,TRADE
SNOWY1,"1999/06/17 14:30",2.155,46.12,TRADE
SNOWY1,"1999/06/17 15:00",1.44667,43.35,TRADE
SNOWY1,"1999/06/17 15:30",0.43,38.79,TRADE
SNOWY1,"1999/06/17 16:00",1.24667,38.92,TRADE
SNOWY1,"1999/06/17 16:30",2.95667,43.99,TRADE
SNOWY1,"1999/06/17 17:00",31.05167,48.84,TRADE
SNOWY1,"1999/06/17 17:30",7.94,61.16,TRADE
SNOWY1,"1999/06/17 18:00",21.85167,190.31,TRADE
SNOWY1,"1999/06/17 18:30",3.36,98.75,TRADE
SNOWY1,"1999/06/17 19:00",3.80833,51.43,TRADE
SNOWY1,"1999/06/17 19:30",1.915,48.03,TRADE
SNOWY1,"1999/06/17 20:00",6.68167,48.36,TRADE
SNOWY1,"1999/06/17 20:30",6.61833,52,TRADE
SNOWY1,"1999/06/17 21:00",14.76667,46.83,TRADE
SNOWY1,"1999/06/17 21:30",8.22833,45.61,TRADE
SNOWY1,"1999/06/17 22:00",2.44833,33.36,TRADE
SNOWY1,"1999/06/17 22:30",4.04167,31.68,TRADE
SNOWY1,"1999/06/17 23:00",3.075,29.3,TRADE
SNOWY1,"1999/06/17 23:30",6.615,36.63,TRADE
SNOWY1,"1999/06/18 00:00",18.08667,34.45,TRADE
SNOWY1,"1999/06/18 00:30",7.89167,33.93,TRADE
SNOWY1,"1999/06/18 01:00",3.16333,30.66,TRADE
SNOWY1,"1999/06/18 01:30",29.09333,34.54,TRADE
SNOWY1,"1999/06/18 02:00",3.93167,31.24,TRADE
SNOWY1,"1999/06/18 02:30",1.80333,26.49,TRADE
SNOWY1,"1999/06/18 03:00",1.89667,22.09,TRADE
SNOWY1,"1999/06/18 03:30",71.66833,21.6,TRADE
SNOWY1,"1999/06/18 04:00",70.10167,16.13,TRADE
SNOWY1,"1999/06/18 04:30",69.68,14.93,TRADE
SNOWY1,"1999/06/18 05:00",66.45333,14.54,TRADE
SNOWY1,"1999/06/18 05:30",69.51167,15.46,TRADE
SNOWY1,"1999/06/18 06:00",70.725,17.02,TRADE
SNOWY1,"1999/06/18 06:30",92.73333,21.55,TRADE
SNOWY1,"1999/06/18 07:00",56.28833,30.85,TRADE
SNOWY1,"1999/06/18 07:30",22.69333,30.55,TRADE
SNOWY1,"1999/06/18 08:00",0,34.54,TRADE
SNOWY1,"1999/06/18 08:30",0,25.29,TRADE
SNOWY1,"1999/06/18 09:00",528.55,46.07,TRADE
SNOWY1,"1999/06/18 09:30",480.97667,39.44,TRADE
SNOWY1,"1999/06/18 10:00",736.88667,55.39,TRADE
SNOWY1,"1999/06/18 10:30",423.44333,40.99,TRADE
SNOWY1,"1999/06/18 11:00",61.895,31.55,TRADE
SNOWY1,"1999/06/18 11:30",57.74833,25.97,TRADE
SNOWY1,"1999/06/18 12:00",36.2,24.98,TRADE
SNOWY1,"1999/06/18 12:30",20.53,39.01,TRADE
SNOWY1,"1999/06/18 13:00",5.835,43.27,TRADE
SNOWY1,"1999/06/18 13:30",4.545,41.43,TRADE
SNOWY1,"1999/06/18 14:00",0.81833,31.34,TRADE
SNOWY1,"1999/06/18 14:30",1.525,30.64,TRADE
SNOWY1,"1999/06/18 15:00",3.37667,28.51,TRADE
SNOWY1,"1999/06/18 15:30",1.46167,23.24,TRADE
SNOWY1,"1999/06/18 16:00",1.26667,24.42,TRADE
SNOWY1,"1999/06/18 16:30",0.3,29.54,TRADE
SNOWY1,"1999/06/18 17:00",10.67667,33.64,TRADE
SNOWY1,"1999/06/18 17:30",7.34667,38.48,TRADE
SNOWY1,"1999/06/18 18:00",16.51167,46.66,TRADE
SNOWY1,"1999/06/18 18:30",11.835,48.28,TRADE
SNOWY1,"1999/06/18 19:00",6.56167,44.88,TRADE
SNOWY1,"1999/06/18 19:30",4.80333,45.69,TRADE
SNOWY1,"1999/06/18 20:00",9.19167,35.35,TRADE
SNOWY1,"1999/06/18 20:30",4.82333,34.36,TRADE
SNOWY1,"1999/06/18 21:00",2.51167,26.64,TRADE
SNOWY1,"1999/06/18 21:30",5.82333,25.2,TRADE
SNOWY1,"1999/06/18 22:00",1.19333,22.17,TRADE
SNOWY1,"1999/06/18 22:30",2.66,26.6,TRADE
SNOWY1,"1999/06/18 23:00",0.37333,24.75,TRADE
SNOWY1,"1999/06/18 23:30",2.28,30.98,TRADE
SNOWY1,"1999/06/19 00:00",0.56667,30.21,TRADE
SNOWY1,"1999/06/19 00:30",0.02,30.89,TRADE
SNOWY1,"1999/06/19 01:00",0,29.89,TRADE
SNOWY1,"1999/06/19 01:30",0.43667,34.9,TRADE
SNOWY1,"1999/06/19 02:00",1.745,29.58,TRADE
SNOWY1,"1999/06/19 02:30",1.74667,20.94,TRADE
SNOWY1,"1999/06/19 03:00",4.04,18.29,TRADE
SNOWY1,"1999/06/19 03:30",72.22,17.29,TRADE
SNOWY1,"1999/06/19 04:00",70.33,14.97,TRADE
SNOWY1,"1999/06/19 04:30",69.84167,13.74,TRADE
SNOWY1,"1999/06/19 05:00",70.01,14.82,TRADE
SNOWY1,"1999/06/19 05:30",68.465,14.17,TRADE
SNOWY1,"1999/06/19 06:00",68.87833,16.33,TRADE
SNOWY1,"1999/06/19 06:30",69.29667,21.92,TRADE
SNOWY1,"1999/06/19 07:00",68.36667,22.27,TRADE
SNOWY1,"1999/06/19 07:30",76.04667,21.99,TRADE
SNOWY1,"1999/06/19 08:00",6.20833,26.55,TRADE
SNOWY1,"1999/06/19 08:30",19.13667,30.83,TRADE
SNOWY1,"1999/06/19 09:00",0.385,35,TRADE
SNOWY1,"1999/06/19 09:30",1.23333,36.27,TRADE
SNOWY1,"1999/06/19 10:00",8.09,35.85,TRADE
SNOWY1,"1999/06/19 10:30",7.23667,32.86,TRADE
SNOWY1,"1999/06/19 11:00",5.87833,31.82,TRADE
SNOWY1,"1999/06/19 11:30",3.34167,31.89,TRADE
SNOWY1,"1999/06/19 12:00",0.94833,29.91,TRADE
SNOWY1,"1999/06/19 12:30",2.72333,29.56,TRADE
SNOWY1,"1999/06/19 13:00",4.84333,25.05,TRADE
SNOWY1,"1999/06/19 13:30",4.515,24.03,TRADE
SNOWY1,"1999/06/19 14:00",4.30667,22.59,TRADE
SNOWY1,"1999/06/19 14:30",2.25167,24.32,TRADE
SNOWY1,"1999/06/19 15:00",3.43167,21.03,TRADE
SNOWY1,"1999/06/19 15:30",4.595,16.94,TRADE
SNOWY1,"1999/06/19 16:00",4.52167,15.19,TRADE
SNOWY1,"1999/06/19 16:30",6.44667,16.81,TRADE
SNOWY1,"1999/06/19 17:00",1.87667,16.98,TRADE
SNOWY1,"1999/06/19 17:30",11.405,33.11,TRADE
SNOWY1,"1999/06/19 18:00",10.97833,43.33,TRADE
SNOWY1,"1999/06/19 18:30",15.14167,43.33,TRADE
SNOWY1,"1999/06/19 19:00",6.66667,41.79,TRADE
SNOWY1,"1999/06/19 19:30",5.93833,37.48,TRADE
SNOWY1,"1999/06/19 20:00",7.365,35.16,TRADE
SNOWY1,"1999/06/19 20:30",5.505,32.32,TRADE
SNOWY1,"1999/06/19 21:00",5.05,32.16,TRADE
SNOWY1,"1999/06/19 21:30",8.20667,33.12,TRADE
SNOWY1,"1999/06/19 22:00",5.59167,30.28,TRADE
SNOWY1,"1999/06/19 22:30",5.99167,28.69,TRADE
SNOWY1,"1999/06/19 23:00",5.84667,27.65,TRADE
SNOWY1,"1999/06/19 23:30",11.59167,33.3,TRADE
SNOWY1,"1999/06/20 00:00",8.05,31.19,TRADE
SNOWY1,"1999/06/20 00:30",4.44333,29.34,TRADE
SNOWY1,"1999/06/20 01:00",10.92333,26.78,TRADE
SNOWY1,"1999/06/20 01:30",19.98667,28.94,TRADE
SNOWY1,"1999/06/20 02:00",23.29333,26.94,TRADE
SNOWY1,"1999/06/20 02:30",2.03,22.66,TRADE
SNOWY1,"1999/06/20 03:00",0.93333,23.44,TRADE
SNOWY1,"1999/06/20 03:30",6.11833,19.21,TRADE
SNOWY1,"1999/06/20 04:00",73.17833,14.23,TRADE
SNOWY1,"1999/06/20 04:30",68.86,13.11,TRADE
SNOWY1,"1999/06/20 05:00",68.14333,12.3,TRADE
SNOWY1,"1999/06/20 05:30",68.415,12.32,TRADE
SNOWY1,"1999/06/20 06:00",68.03833,13.1,TRADE
SNOWY1,"1999/06/20 06:30",68.455,14.01,TRADE
SNOWY1,"1999/06/20 07:00",66.03833,13.69,TRADE
SNOWY1,"1999/06/20 07:30",101.08333,13.73,TRADE
SNOWY1,"1999/06/20 08:00",70.21333,20.9,TRADE
SNOWY1,"1999/06/20 08:30",69.27167,18.77,TRADE
SNOWY1,"1999/06/20 09:00",65.625,21.21,TRADE
SNOWY1,"1999/06/20 09:30",17.555,23.34,TRADE
SNOWY1,"1999/06/20 10:00",0.55333,23.95,TRADE
SNOWY1,"1999/06/20 10:30",1.68333,21.62,TRADE
SNOWY1,"1999/06/20 11:00",1.71833,22.64,TRADE
SNOWY1,"1999/06/20 11:30",1.165,21.94,TRADE
SNOWY1,"1999/06/20 12:00",0.135,15.85,TRADE
SNOWY1,"1999/06/20 12:30",10.7,15.98,TRADE
SNOWY1,"1999/06/20 13:00",68.75167,17.37,TRADE
SNOWY1,"1999/06/20 13:30",69.55167,20.49,TRADE
SNOWY1,"1999/06/20 14:00",69.275,14.96,TRADE
SNOWY1,"1999/06/20 14:30",75.675,14.45,TRADE
SNOWY1,"1999/06/20 15:00",72.81,14.34,TRADE
SNOWY1,"1999/06/20 15:30",72.325,14.91,TRADE
SNOWY1,"1999/06/20 16:00",74.395,14.61,TRADE
SNOWY1,"1999/06/20 16:30",71.625,14.78,TRADE
SNOWY1,"1999/06/20 17:00",71.445,17.35,TRADE
SNOWY1,"1999/06/20 17:30",64.88167,27.94,TRADE
SNOWY1,"1999/06/20 18:00",10.96167,41.63,TRADE
SNOWY1,"1999/06/20 18:30",55.17667,44.05,TRADE
SNOWY1,"1999/06/20 19:00",14.19167,43.33,TRADE
SNOWY1,"1999/06/20 19:30",14.115,36.18,TRADE
SNOWY1,"1999/06/20 20:00",5.35,35.22,TRADE
SNOWY1,"1999/06/20 20:30",6.50167,32.99,TRADE
SNOWY1,"1999/06/20 21:00",6.51667,33.18,TRADE
SNOWY1,"1999/06/20 21:30",5.32833,33.8,TRADE
SNOWY1,"1999/06/20 22:00",1.455,31.74,TRADE
SNOWY1,"1999/06/20 22:30",3.46333,28,TRADE
SNOWY1,"1999/06/20 23:00",3.62833,26.86,TRADE
SNOWY1,"1999/06/20 23:30",4.38167,35.46,TRADE
SNOWY1,"1999/06/21 00:00",3.87667,30.8,TRADE
SNOWY1,"1999/06/21 00:30",2.14,29.44,TRADE
SNOWY1,"1999/06/21 01:00",1.275,27.62,TRADE
SNOWY1,"1999/06/21 01:30",19.07667,30.65,TRADE
SNOWY1,"1999/06/21 02:00",1.90667,28.86,TRADE
SNOWY1,"1999/06/21 02:30",1.815,24.79,TRADE
SNOWY1,"1999/06/21 03:00",0.52167,20.58,TRADE
SNOWY1,"1999/06/21 03:30",9.26333,15.41,TRADE
SNOWY1,"1999/06/21 04:00",35.57833,14.24,TRADE
SNOWY1,"1999/06/21 04:30",70.15667,11.72,TRADE
SNOWY1,"1999/06/21 05:00",70.74333,14,TRADE
SNOWY1,"1999/06/21 05:30",67.64333,17.1,TRADE
SNOWY1,"1999/06/21 06:00",69.925,17.13,TRADE
SNOWY1,"1999/06/21 06:30",79.99167,20.99,TRADE
SNOWY1,"1999/06/21 07:00",65.46167,24.5,TRADE
SNOWY1,"1999/06/21 07:30",29.58167,31.29,TRADE
SNOWY1,"1999/06/21 08:00",5.78333,53.57,TRADE
SNOWY1,"1999/06/21 08:30",8.48667,55.64,TRADE
SNOWY1,"1999/06/21 09:00",9.01833,40.4,TRADE
SNOWY1,"1999/06/21 09:30",0,55.67,TRADE
SNOWY1,"1999/06/21 10:00",12.56167,53.92,TRADE
SNOWY1,"1999/06/21 10:30",10.425,42.94,TRADE
SNOWY1,"1999/06/21 11:00",3.29167,35.21,TRADE
SNOWY1,"1999/06/21 11:30",3.64333,39.28,TRADE
SNOWY1,"1999/06/21 12:00",5.94167,42.72,TRADE
SNOWY1,"1999/06/21 12:30",5.17333,42.91,TRADE
SNOWY1,"1999/06/21 13:00",14.31,33.71,TRADE
SNOWY1,"1999/06/21 13:30",3.57333,38.46,TRADE
SNOWY1,"1999/06/21 14:00",5.08833,36.09,TRADE
SNOWY1,"1999/06/21 14:30",8.91667,30.36,TRADE
SNOWY1,"1999/06/21 15:00",4.80833,30.22,TRADE
SNOWY1,"1999/06/21 15:30",6.38333,20.38,TRADE
SNOWY1,"1999/06/21 16:00",2.465,19.22,TRADE
SNOWY1,"1999/06/21 16:30",2.36667,29.18,TRADE
SNOWY1,"1999/06/21 17:00",0.8,34.06,TRADE
SNOWY1,"1999/06/21 17:30",10.57333,48.47,TRADE
SNOWY1,"1999/06/21 18:00",5.885,49.72,TRADE
SNOWY1,"1999/06/21 18:30",12.1,50.73,TRADE
SNOWY1,"1999/06/21 19:00",9.18,40.21,TRADE
SNOWY1,"1999/06/21 19:30",12.14833,45.21,TRADE
SNOWY1,"1999/06/21 20:00",7.48,43.54,TRADE
SNOWY1,"1999/06/21 20:30",4.745,43.64,TRADE
SNOWY1,"1999/06/21 21:00",11.19667,40.86,TRADE
SNOWY1,"1999/06/21 21:30",11.99333,34.47,TRADE
SNOWY1,"1999/06/21 22:00",3.18,28.19,TRADE
SNOWY1,"1999/06/21 22:30",2.87667,20.87,TRADE
SNOWY1,"1999/06/21 23:00",2.045,20.32,TRADE
SNOWY1,"1999/06/21 23:30",4.315,30.78,TRADE
SNOWY1,"1999/06/22 00:00",1.66333,27.42,TRADE
SNOWY1,"1999/06/22 00:30",4.545,26.94,TRADE
SNOWY1,"1999/06/22 01:00",2.33333,27.04,TRADE
SNOWY1,"1999/06/22 01:30",4.495,31.24,TRADE
SNOWY1,"1999/06/22 02:00",4.74667,26.38,TRADE
SNOWY1,"1999/06/22 02:30",3.57667,26.1,TRADE
SNOWY1,"1999/06/22 03:00",4.73,23.27,TRADE
SNOWY1,"1999/06/22 03:30",30.15167,22.24,TRADE
SNOWY1,"1999/06/22 04:00",70.19667,19.01,TRADE
SNOWY1,"1999/06/22 04:30",72.26333,16.96,TRADE
SNOWY1,"1999/06/22 05:00",66.945,16.07,TRADE
SNOWY1,"1999/06/22 05:30",78.13833,22.15,TRADE
SNOWY1,"1999/06/22 06:00",85.265,21.45,TRADE
SNOWY1,"1999/06/22 06:30",68.94833,25.17,TRADE
SNOWY1,"1999/06/22 07:00",4.18,26.29,TRADE
SNOWY1,"1999/06/22 07:30",19.35167,32.97,TRADE
SNOWY1,"1999/06/22 08:00",9.77,49.57,TRADE
SNOWY1,"1999/06/22 08:30",16.20167,50.56,TRADE
SNOWY1,"1999/06/22 09:00",6.51333,51.06,TRADE
SNOWY1,"1999/06/22 09:30",11.36833,46.66,TRADE
SNOWY1,"1999/06/22 10:00",3.105,42.92,TRADE
SNOWY1,"1999/06/22 10:30",6.58333,35.87,TRADE
SNOWY1,"1999/06/22 11:00",2.43,34.74,TRADE
SNOWY1,"1999/06/22 11:30",5.67333,46.66,TRADE
SNOWY1,"1999/06/22 12:00",14.165,48.25,TRADE
SNOWY1,"1999/06/22 12:30",0.595,33.35,TRADE
SNOWY1,"1999/06/22 13:00",4.21833,46.85,TRADE
SNOWY1,"1999/06/22 13:30",7.49833,46.66,TRADE
SNOWY1,"1999/06/22 14:00",1.88667,46.45,TRADE
SNOWY1,"1999/06/22 14:30",6.24833,46.53,TRADE
SNOWY1,"1999/06/22 15:00",5.61,46.66,TRADE
SNOWY1,"1999/06/22 15:30",3.86333,41.19,TRADE
SNOWY1,"1999/06/22 16:00",0.40167,36.61,TRADE
SNOWY1,"1999/06/22 16:30",4.06833,46.42,TRADE
SNOWY1,"1999/06/22 17:00",20.99667,49.32,TRADE
SNOWY1,"1999/06/22 17:30",21.40667,56.24,TRADE
SNOWY1,"1999/06/22 18:00",8.19833,60.13,TRADE
SNOWY1,"1999/06/22 18:30",17.16167,60.13,TRADE
SNOWY1,"1999/06/22 19:00",21.575,46.19,TRADE
SNOWY1,"1999/06/22 19:30",13.28167,46.62,TRADE
SNOWY1,"1999/06/22 20:00",9.06,46.61,TRADE
SNOWY1,"1999/06/22 20:30",6.65333,46.66,TRADE
SNOWY1,"1999/06/22 21:00",7.01167,43.33,TRADE
SNOWY1,"1999/06/22 21:30",10.95,37.98,TRADE
SNOWY1,"1999/06/22 22:00",8.85833,30.27,TRADE
SNOWY1,"1999/06/22 22:30",3.74333,25.08,TRADE
SNOWY1,"1999/06/22 23:00",5.15,21.72,TRADE
SNOWY1,"1999/06/22 23:30",6.31667,30.35,TRADE
SNOWY1,"1999/06/23 00:00",5.52,29.01,TRADE
SNOWY1,"1999/06/23 00:30",8.28833,28.9,TRADE
SNOWY1,"1999/06/23 01:00",5.78333,27.79,TRADE
SNOWY1,"1999/06/23 01:30",5.41667,29.39,TRADE
SNOWY1,"1999/06/23 02:00",13.35667,24.85,TRADE
SNOWY1,"1999/06/23 02:30",49.19333,23.28,TRADE
SNOWY1,"1999/06/23 03:00",64.865,22.45,TRADE
SNOWY1,"1999/06/23 03:30",103.87,23.96,TRADE
SNOWY1,"1999/06/23 04:00",90.53167,23.43,TRADE
SNOWY1,"1999/06/23 04:30",113.515,23.65,TRADE
SNOWY1,"1999/06/23 05:00",81.49,22.73,TRADE
SNOWY1,"1999/06/23 05:30",82.705,23.74,TRADE
SNOWY1,"1999/06/23 06:00",77.97,23.39,TRADE
SNOWY1,"1999/06/23 06:30",27.47833,24.64,TRADE
SNOWY1,"1999/06/23 07:00",9.72167,24.06,TRADE
SNOWY1,"1999/06/23 07:30",6.44833,27.25,TRADE
SNOWY1,"1999/06/23 08:00",11.49333,41.71,TRADE
SNOWY1,"1999/06/23 08:30",18.435,38.44,TRADE
SNOWY1,"1999/06/23 09:00",10.87333,37.12,TRADE
SNOWY1,"1999/06/23 09:30",14.26833,39.38,TRADE
SNOWY1,"1999/06/23 10:00",9.825,43.86,TRADE
SNOWY1,"1999/06/23 10:30",7.45333,33.39,TRADE
SNOWY1,"1999/06/23 11:00",3.825,36.97,TRADE
SNOWY1,"1999/06/23 11:30",4.12,33.25,TRADE
SNOWY1,"1999/06/23 12:00",10.385,34.56,TRADE
SNOWY1,"1999/06/23 12:30",10.955,41.85,TRADE
SNOWY1,"1999/06/23 13:00",7.70833,34.3,TRADE
SNOWY1,"1999/06/23 13:30",3.105,38.39,TRADE
SNOWY1,"1999/06/23 14:00",4.26333,35.72,TRADE
SNOWY1,"1999/06/23 14:30",3.32667,31.34,TRADE
SNOWY1,"1999/06/23 15:00",3.74833,28.08,TRADE
SNOWY1,"1999/06/23 15:30",5,25.65,TRADE
SNOWY1,"1999/06/23 16:00",4.07,23.85,TRADE
SNOWY1,"1999/06/23 16:30",3.96833,31.12,TRADE
SNOWY1,"1999/06/23 17:00",3.70667,41.76,TRADE
SNOWY1,"1999/06/23 17:30",2.50667,50.05,TRADE
SNOWY1,"1999/06/23 18:00",2.915,56.68,TRADE
SNOWY1,"1999/06/23 18:30",0.92,60.13,TRADE
SNOWY1,"1999/06/23 19:00",0.06167,49.49,TRADE
SNOWY1,"1999/06/23 19:30",6.39333,49.98,TRADE
SNOWY1,"1999/06/23 20:00",8.73833,49.87,TRADE
SNOWY1,"1999/06/23 20:30",7.79333,43.85,TRADE
SNOWY1,"1999/06/23 21:00",6.92,37.7,TRADE
SNOWY1,"1999/06/23 21:30",4.59167,36.49,TRADE
SNOWY1,"1999/06/23 22:00",3.87333,32.08,TRADE
SNOWY1,"1999/06/23 22:30",8.35333,28.39,TRADE
SNOWY1,"1999/06/23 23:00",3.55333,25.93,TRADE
SNOWY1,"1999/06/23 23:30",7.245,31.36,TRADE
SNOWY1,"1999/06/24 00:00",7.06167,30.16,TRADE
SNOWY1,"1999/06/24 00:30",10.99667,29.75,TRADE
SNOWY1,"1999/06/24 01:00",6.94333,28.78,TRADE
SNOWY1,"1999/06/24 01:30",5.75333,31.09,TRADE
SNOWY1,"1999/06/24 02:00",5.615,27.2,TRADE
SNOWY1,"1999/06/24 02:30",3.15833,22.59,TRADE
SNOWY1,"1999/06/24 03:00",25.465,21.46,TRADE
SNOWY1,"1999/06/24 03:30",19.41667,19.01,TRADE
SNOWY1,"1999/06/24 04:00",54.20167,14.75,TRADE
SNOWY1,"1999/06/24 04:30",67.86667,19.8,TRADE
SNOWY1,"1999/06/24 05:00",77.42167,16.99,TRADE
SNOWY1,"1999/06/24 05:30",92.32667,21.4,TRADE
SNOWY1,"1999/06/24 06:00",69.175,20.06,TRADE
SNOWY1,"1999/06/24 06:30",55.08333,23.31,TRADE
SNOWY1,"1999/06/24 07:00",111.94833,29.84,TRADE
SNOWY1,"1999/06/24 07:30",10.38167,30.26,TRADE
SNOWY1,"1999/06/24 08:00",6.78,42.49,TRADE
SNOWY1,"1999/06/24 08:30",5.995,46.66,TRADE
SNOWY1,"1999/06/24 09:00",9.97333,47.64,TRADE
SNOWY1,"1999/06/24 09:30",2.04667,53.9,TRADE
SNOWY1,"1999/06/24 10:00",7.73833,53.63,TRADE
SNOWY1,"1999/06/24 10:30",4.49833,41.44,TRADE
SNOWY1,"1999/06/24 11:00",7.63667,42.42,TRADE
SNOWY1,"1999/06/24 11:30",6.60667,33.44,TRADE
SNOWY1,"1999/06/24 12:00",3.24833,31.88,TRADE
SNOWY1,"1999/06/24 12:30",3.80167,30.28,TRADE
SNOWY1,"1999/06/24 13:00",5.26333,28.33,TRADE
SNOWY1,"1999/06/24 13:30",4.075,30.3,TRADE
SNOWY1,"1999/06/24 14:00",2.32333,27.81,TRADE
SNOWY1,"1999/06/24 14:30",3.28333,22.23,TRADE
SNOWY1,"1999/06/24 15:00",5.44,17.39,TRADE
SNOWY1,"1999/06/24 15:30",0.84333,15.7,TRADE
SNOWY1,"1999/06/24 16:00",6.39,17.36,TRADE
SNOWY1,"1999/06/24 16:30",2.74333,23.59,TRADE
SNOWY1,"1999/06/24 17:00",4.01,32.39,TRADE
SNOWY1,"1999/06/24 17:30",13.05167,34.34,TRADE
SNOWY1,"1999/06/24 18:00",5.66,43.45,TRADE
SNOWY1,"1999/06/24 18:30",18.40667,46.2,TRADE
SNOWY1,"1999/06/24 19:00",7.195,41.06,TRADE
SNOWY1,"1999/06/24 19:30",11.58,35.23,TRADE
SNOWY1,"1999/06/24 20:00",5.25667,29.05,TRADE
SNOWY1,"1999/06/24 20:30",7.33833,31.49,TRADE
SNOWY1,"1999/06/24 21:00",5.85167,32.17,TRADE
SNOWY1,"1999/06/24 21:30",4.36667,29.18,TRADE
SNOWY1,"1999/06/24 22:00",2.195,22.65,TRADE
SNOWY1,"1999/06/24 22:30",3.03333,26.89,TRADE
SNOWY1,"1999/06/24 23:00",1.14667,26.41,TRADE
SNOWY1,"1999/06/24 23:30",5.29833,31.76,TRADE
SNOWY1,"1999/06/25 00:00",3.46333,30.42,TRADE
SNOWY1,"1999/06/25 00:30",1.78167,29.34,TRADE
SNOWY1,"1999/06/25 01:00",2.29667,28.55,TRADE
SNOWY1,"1999/06/25 01:30",6.12333,30.84,TRADE
SNOWY1,"1999/06/25 02:00",5.1,27.78,TRADE
SNOWY1,"1999/06/25 02:30",4.58167,22.97,TRADE
SNOWY1,"1999/06/25 03:00",2.535,21.66,TRADE
SNOWY1,"1999/06/25 03:30",4.135,19.98,TRADE
SNOWY1,"1999/06/25 04:00",35.56833,15.95,TRADE
SNOWY1,"1999/06/25 04:30",74.86,14.67,TRADE
SNOWY1,"1999/06/25 05:00",70.285,14.76,TRADE
SNOWY1,"1999/06/25 05:30",77.965,18.44,TRADE
SNOWY1,"1999/06/25 06:00",79.11667,19.97,TRADE
SNOWY1,"1999/06/25 06:30",87.05,23.94,TRADE
SNOWY1,"1999/06/25 07:00",35.62167,27.46,TRADE
SNOWY1,"1999/06/25 07:30",14.04167,28.96,TRADE
SNOWY1,"1999/06/25 08:00",22.36,44.19,TRADE
SNOWY1,"1999/06/25 08:30",5.14333,50.05,TRADE
SNOWY1,"1999/06/25 09:00",11.80833,51.4,TRADE
SNOWY1,"1999/06/25 09:30",10.89333,50.59,TRADE
SNOWY1,"1999/06/25 10:00",6.955,41.31,TRADE
SNOWY1,"1999/06/25 10:30",4.83333,31.13,TRADE
SNOWY1,"1999/06/25 11:00",3.74167,30.9,TRADE
SNOWY1,"1999/06/25 11:30",3.62,20.79,TRADE
SNOWY1,"1999/06/25 12:00",7.25833,19.94,TRADE
SNOWY1,"1999/06/25 12:30",64.31667,16.97,TRADE
SNOWY1,"1999/06/25 13:00",74.65333,29.52,TRADE
SNOWY1,"1999/06/25 13:30",70.035,31.07,TRADE
SNOWY1,"1999/06/25 14:00",25.97,29.91,TRADE
SNOWY1,"1999/06/25 14:30",0,29.38,TRADE
SNOWY1,"1999/06/25 15:00",0,25.6,TRADE
SNOWY1,"1999/06/25 15:30",4.26333,16.9,TRADE
SNOWY1,"1999/06/25 16:00",2.99333,20.08,TRADE
SNOWY1,"1999/06/25 16:30",4.555,26.24,TRADE
SNOWY1,"1999/06/25 17:00",12.26667,27.45,TRADE
SNOWY1,"1999/06/25 17:30",19.5,44.37,TRADE
SNOWY1,"1999/06/25 18:00",12.38,57.53,TRADE
SNOWY1,"1999/06/25 18:30",7.405,28.81,TRADE
SNOWY1,"1999/06/25 19:00",6.00333,23.76,TRADE
SNOWY1,"1999/06/25 19:30",9.205,16.39,TRADE
SNOWY1,"1999/06/25 20:00",9.645,17.77,TRADE
SNOWY1,"1999/06/25 20:30",0.55,17.68,TRADE
SNOWY1,"1999/06/25 21:00",13.395,30.35,TRADE
SNOWY1,"1999/06/25 21:30",9.08333,27.09,TRADE
SNOWY1,"1999/06/25 22:00",4.045,25.31,TRADE
SNOWY1,"1999/06/25 22:30",10.26167,26.5,TRADE
SNOWY1,"1999/06/25 23:00",7.10833,28.45,TRADE
SNOWY1,"1999/06/25 23:30",30.435,39.7,TRADE
SNOWY1,"1999/06/26 00:00",21.43,38.95,TRADE
SNOWY1,"1999/06/26 00:30",16.9,36.72,TRADE
SNOWY1,"1999/06/26 01:00",14.31167,34.64,TRADE
SNOWY1,"1999/06/26 01:30",7.32,29.88,TRADE
SNOWY1,"1999/06/26 02:00",7.465,25.99,TRADE
SNOWY1,"1999/06/26 02:30",13.75833,28.27,TRADE
SNOWY1,"1999/06/26 03:00",2.19667,24.7,TRADE
SNOWY1,"1999/06/26 03:30",8.82167,17.73,TRADE
SNOWY1,"1999/06/26 04:00",72.49333,15.03,TRADE
SNOWY1,"1999/06/26 04:30",73.245,18.46,TRADE
SNOWY1,"1999/06/26 05:00",69.98833,15.26,TRADE
SNOWY1,"1999/06/26 05:30",72.89667,16.24,TRADE
SNOWY1,"1999/06/26 06:00",72.32,19.6,TRADE
SNOWY1,"1999/06/26 06:30",72.05833,22.09,TRADE
SNOWY1,"1999/06/26 07:00",72.655,23.2,TRADE
SNOWY1,"1999/06/26 07:30",78.815,24.4,TRADE
SNOWY1,"1999/06/26 08:00",15.69167,34.4,TRADE
SNOWY1,"1999/06/26 08:30",4.01333,37.63,TRADE
SNOWY1,"1999/06/26 09:00",8.175,41.31,TRADE
SNOWY1,"1999/06/26 09:30",1.80667,42.1,TRADE
SNOWY1,"1999/06/26 10:00",29.145,50.8,TRADE
SNOWY1,"1999/06/26 10:30",44.57667,43.22,TRADE
SNOWY1,"1999/06/26 11:00",111.53667,39.87,TRADE
SNOWY1,"1999/06/26 11:30",34.71667,38.1,TRADE
SNOWY1,"1999/06/26 12:00",22.85,35.31,TRADE
SNOWY1,"1999/06/26 12:30",6.49833,37.57,TRADE
SNOWY1,"1999/06/26 13:00",7.70333,41.01,TRADE
SNOWY1,"1999/06/26 13:30",8.485,36.33,TRADE
SNOWY1,"1999/06/26 14:00",5.44167,35.15,TRADE
SNOWY1,"1999/06/26 14:30",5.52167,34.33,TRADE
SNOWY1,"1999/06/26 15:00",4.69,33.24,TRADE
SNOWY1,"1999/06/26 15:30",2.9,31.33,TRADE
SNOWY1,"1999/06/26 16:00",3.905,26.6,TRADE
SNOWY1,"1999/06/26 16:30",4.70667,25.9,TRADE
SNOWY1,"1999/06/26 17:00",3.76667,27.17,TRADE
SNOWY1,"1999/06/26 17:30",9.575,33.79,TRADE
SNOWY1,"1999/06/26 18:00",14.81333,42.93,TRADE
SNOWY1,"1999/06/26 18:30",17.025,43.33,TRADE
SNOWY1,"1999/06/26 19:00",10.59833,40.07,TRADE
SNOWY1,"1999/06/26 19:30",25.22667,42.7,TRADE
SNOWY1,"1999/06/26 20:00",18.65167,38,TRADE
SNOWY1,"1999/06/26 20:30",6.41,28.49,TRADE
SNOWY1,"1999/06/26 21:00",3.40833,31.06,TRADE
SNOWY1,"1999/06/26 21:30",2.12333,33.01,TRADE
SNOWY1,"1999/06/26 22:00",3.75333,30.99,TRADE
SNOWY1,"1999/06/26 22:30",2.85833,27.87,TRADE
SNOWY1,"1999/06/26 23:00",3.00333,27.62,TRADE
SNOWY1,"1999/06/26 23:30",4.28,31.88,TRADE
SNOWY1,"1999/06/27 00:00",2.45833,28.67,TRADE
SNOWY1,"1999/06/27 00:30",2.75167,27.95,TRADE
SNOWY1,"1999/06/27 01:00",0,26.34,TRADE
SNOWY1,"1999/06/27 01:30",3.87167,29.71,TRADE
SNOWY1,"1999/06/27 02:00",2.71,26.92,TRADE
SNOWY1,"1999/06/27 02:30",3.3,23.56,TRADE
SNOWY1,"1999/06/27 03:00",2.03333,17.68,TRADE
SNOWY1,"1999/06/27 03:30",2.21167,14.76,TRADE
SNOWY1,"1999/06/27 04:00",60.61333,14.46,TRADE
SNOWY1,"1999/06/27 04:30",59.35667,15.24,TRADE
SNOWY1,"1999/06/27 05:00",68.44,14.15,TRADE
SNOWY1,"1999/06/27 05:30",65.7,15.28,TRADE
SNOWY1,"1999/06/27 06:00",72.76833,20.78,TRADE
SNOWY1,"1999/06/27 06:30",72.71167,15.01,TRADE
SNOWY1,"1999/06/27 07:00",67.57667,16.26,TRADE
SNOWY1,"1999/06/27 07:30",85.14333,17.86,TRADE
SNOWY1,"1999/06/27 08:00",74.185,20.64,TRADE
SNOWY1,"1999/06/27 08:30",74.67333,21.64,TRADE
SNOWY1,"1999/06/27 09:00",72.315,17.97,TRADE
SNOWY1,"1999/06/27 09:30",68.65833,21.48,TRADE
SNOWY1,"1999/06/27 10:00",72.27833,23.92,TRADE
SNOWY1,"1999/06/27 10:30",72.87667,23.94,TRADE
SNOWY1,"1999/06/27 11:00",70.79333,23.11,TRADE
SNOWY1,"1999/06/27 11:30",71.87833,21.04,TRADE
SNOWY1,"1999/06/27 12:00",72.04333,20.09,TRADE
SNOWY1,"1999/06/27 12:30",72.00167,18.07,TRADE
SNOWY1,"1999/06/27 13:00",94.17167,20.6,TRADE
SNOWY1,"1999/06/27 13:30",69.87333,20.51,TRADE
SNOWY1,"1999/06/27 14:00",75.43167,19.7,TRADE
SNOWY1,"1999/06/27 14:30",74.16,20.6,TRADE
SNOWY1,"1999/06/27 15:00",66.86333,18.26,TRADE
SNOWY1,"1999/06/27 15:30",74.53833,20.72,TRADE
SNOWY1,"1999/06/27 16:00",65.16,26.55,TRADE
SNOWY1,"1999/06/27 16:30",0.60167,25.98,TRADE
SNOWY1,"1999/06/27 17:00",0.81833,29.07,TRADE
SNOWY1,"1999/06/27 17:30",11.15,38.51,TRADE
SNOWY1,"1999/06/27 18:00",4.71667,45.06,TRADE
SNOWY1,"1999/06/27 18:30",30.755,44.61,TRADE
SNOWY1,"1999/06/27 19:00",5.25,43.33,TRADE
SNOWY1,"1999/06/27 19:30",7.73833,43.33,TRADE
SNOWY1,"1999/06/27 20:00",2.85333,38.11,TRADE
SNOWY1,"1999/06/27 20:30",3.51667,32.91,TRADE
SNOWY1,"1999/06/27 21:00",5.30833,32.11,TRADE
SNOWY1,"1999/06/27 21:30",4.45,29.64,TRADE
SNOWY1,"1999/06/27 22:00",5.02333,24.21,TRADE
SNOWY1,"1999/06/27 22:30",4.52667,25.78,TRADE
SNOWY1,"1999/06/27 23:00",3.70167,22.7,TRADE
SNOWY1,"1999/06/27 23:30",5.16,29.52,TRADE
SNOWY1,"1999/06/28 00:00",4.45,25.69,TRADE
SNOWY1,"1999/06/28 00:30",1.295,27.76,TRADE
SNOWY1,"1999/06/28 01:00",0,25.51,TRADE
SNOWY1,"1999/06/28 01:30",10.89167,28.26,TRADE
SNOWY1,"1999/06/28 02:00",2.02,26.15,TRADE
SNOWY1,"1999/06/28 02:30",10.745,24,TRADE
SNOWY1,"1999/06/28 03:00",67.31333,23.68,TRADE
SNOWY1,"1999/06/28 03:30",107.87833,20.33,TRADE
SNOWY1,"1999/06/28 04:00",117.55167,15.83,TRADE
SNOWY1,"1999/06/28 04:30",81.61,14.62,TRADE
SNOWY1,"1999/06/28 05:00",72.055,14.79,TRADE
SNOWY1,"1999/06/28 05:30",69.89,15,TRADE
SNOWY1,"1999/06/28 06:00",73.79667,17.59,TRADE
SNOWY1,"1999/06/28 06:30",106.865,22.44,TRADE
SNOWY1,"1999/06/28 07:00",3.63,28.03,TRADE
SNOWY1,"1999/06/28 07:30",12.5,32.76,TRADE
SNOWY1,"1999/06/28 08:00",8.37,46.49,TRADE
SNOWY1,"1999/06/28 08:30",11.75333,48.73,TRADE
SNOWY1,"1999/06/28 09:00",6.10333,57.8,TRADE
SNOWY1,"1999/06/28 09:30",4.21,56.33,TRADE
SNOWY1,"1999/06/28 10:00",9.94833,52.89,TRADE
SNOWY1,"1999/06/28 10:30",4.88,46.66,TRADE
SNOWY1,"1999/06/28 11:00",2.85,46.66,TRADE
SNOWY1,"1999/06/28 11:30",1.525,46.66,TRADE
SNOWY1,"1999/06/28 12:00",4.33833,46.65,TRADE
SNOWY1,"1999/06/28 12:30",3.155,46.66,TRADE
SNOWY1,"1999/06/28 13:00",4.69,34.84,TRADE
SNOWY1,"1999/06/28 13:30",9.03167,39.29,TRADE
SNOWY1,"1999/06/28 14:00",15.28667,33.66,TRADE
SNOWY1,"1999/06/28 14:30",9.11833,36.93,TRADE
SNOWY1,"1999/06/28 15:00",4.19833,34.18,TRADE
SNOWY1,"1999/06/28 15:30",2.17167,30.52,TRADE
SNOWY1,"1999/06/28 16:00",1.675,32.66,TRADE
SNOWY1,"1999/06/28 16:30",0.17333,31.41,TRADE
SNOWY1,"1999/06/28 17:00",0.05333,37.9,TRADE
SNOWY1,"1999/06/28 17:30",1.2,50.36,TRADE
SNOWY1,"1999/06/28 18:00",3.59333,57.87,TRADE
SNOWY1,"1999/06/28 18:30",2.24667,60.13,TRADE
SNOWY1,"1999/06/28 19:00",0.27333,58.49,TRADE
SNOWY1,"1999/06/28 19:30",2.17833,56.46,TRADE
SNOWY1,"1999/06/28 20:00",11.49,53.48,TRADE
SNOWY1,"1999/06/28 20:30",10.53667,46.87,TRADE
SNOWY1,"1999/06/28 21:00",12.93667,43.88,TRADE
SNOWY1,"1999/06/28 21:30",5.77833,36.23,TRADE
SNOWY1,"1999/06/28 22:00",2.30167,33.66,TRADE
SNOWY1,"1999/06/28 22:30",0.3,27.68,TRADE
SNOWY1,"1999/06/28 23:00",1.85667,27.38,TRADE
SNOWY1,"1999/06/28 23:30",3.485,33.4,TRADE
SNOWY1,"1999/06/29 00:00",1.94833,32.79,TRADE
SNOWY1,"1999/06/29 00:30",1.65,33.13,TRADE
SNOWY1,"1999/06/29 01:00",1.62333,29.2,TRADE
SNOWY1,"1999/06/29 01:30",5.93667,33.4,TRADE
SNOWY1,"1999/06/29 02:00",1.87833,29.38,TRADE
SNOWY1,"1999/06/29 02:30",1.385,24.17,TRADE
SNOWY1,"1999/06/29 03:00",2.50333,21.09,TRADE
SNOWY1,"1999/06/29 03:30",1.61167,19.67,TRADE
SNOWY1,"1999/06/29 04:00",62,17.07,TRADE
SNOWY1,"1999/06/29 04:30",69.47833,15.67,TRADE
SNOWY1,"1999/06/29 05:00",70.28,15.45,TRADE
SNOWY1,"1999/06/29 05:30",72.62167,20.29,TRADE
SNOWY1,"1999/06/29 06:00",93.06,21.81,TRADE
SNOWY1,"1999/06/29 06:30",24.66833,26.04,TRADE
SNOWY1,"1999/06/29 07:00",3.54667,30.1,TRADE
SNOWY1,"1999/06/29 07:30",14.275,35.26,TRADE
SNOWY1,"1999/06/29 08:00",5.76667,46.5,TRADE
SNOWY1,"1999/06/29 08:30",12.43667,54.69,TRADE
SNOWY1,"1999/06/29 09:00",4.40667,56.74,TRADE
SNOWY1,"1999/06/29 09:30",4.16,55.31,TRADE
SNOWY1,"1999/06/29 10:00",7.11333,47.33,TRADE
SNOWY1,"1999/06/29 10:30",7.85667,46.66,TRADE
SNOWY1,"1999/06/29 11:00",9.00333,45.3,TRADE
SNOWY1,"1999/06/29 11:30",5.81333,41.46,TRADE
SNOWY1,"1999/06/29 12:00",5.17,40.58,TRADE
SNOWY1,"1999/06/29 12:30",5.83333,35.28,TRADE
SNOWY1,"1999/06/29 13:00",1.51,31.56,TRADE
SNOWY1,"1999/06/29 13:30",5.17833,37.44,TRADE
SNOWY1,"1999/06/29 14:00",4.91,33.2,TRADE
SNOWY1,"1999/06/29 14:30",19.11667,55.28,TRADE
SNOWY1,"1999/06/29 15:00",4.42333,48.01,TRADE
SNOWY1,"1999/06/29 15:30",3.03167,40.23,TRADE
SNOWY1,"1999/06/29 16:00",3.64667,30.08,TRADE
SNOWY1,"1999/06/29 16:30",1.18,30.87,TRADE
SNOWY1,"1999/06/29 17:00",4.52333,40.11,TRADE
SNOWY1,"1999/06/29 17:30",9.12,49.7,TRADE
SNOWY1,"1999/06/29 18:00",15.23833,60.13,TRADE
SNOWY1,"1999/06/29 18:30",17.865,60.13,TRADE
SNOWY1,"1999/06/29 19:00",18.70833,56.62,TRADE
SNOWY1,"1999/06/29 19:30",14.62167,50.75,TRADE
SNOWY1,"1999/06/29 20:00",3.7,46.74,TRADE
SNOWY1,"1999/06/29 20:30",7.095,43.87,TRADE
SNOWY1,"1999/06/29 21:00",7.63167,37.28,TRADE
SNOWY1,"1999/06/29 21:30",5.115,31.99,TRADE
SNOWY1,"1999/06/29 22:00",8.18667,30.77,TRADE
SNOWY1,"1999/06/29 22:30",0.76833,26.42,TRADE
SNOWY1,"1999/06/29 23:00",1.84667,26.8,TRADE
SNOWY1,"1999/06/29 23:30",1.8,32.43,TRADE
SNOWY1,"1999/06/30 00:00",5.14667,31.58,TRADE
SNOWY1,"1999/06/30 00:30",7.08,31.76,TRADE
SNOWY1,"1999/06/30 01:00",4.85167,27.69,TRADE
SNOWY1,"1999/06/30 01:30",3.34167,31.3,TRADE
SNOWY1,"1999/06/30 02:00",2.415,25.61,TRADE
SNOWY1,"1999/06/30 02:30",2.98667,23.97,TRADE
SNOWY1,"1999/06/30 03:00",0.82,21.38,TRADE
SNOWY1,"1999/06/30 03:30",7.61,17.29,TRADE
SNOWY1,"1999/06/30 04:00",87.135,15.23,TRADE
SNOWY1,"1999/06/30 04:30",86.29833,12.83,TRADE
SNOWY1,"1999/06/30 05:00",87.905,15.34,TRADE
SNOWY1,"1999/06/30 05:30",74.99333,17.01,TRADE
SNOWY1,"1999/06/30 06:00",77.85167,19.04,TRADE
SNOWY1,"1999/06/30 06:30",53.78,21.81,TRADE
SNOWY1,"1999/06/30 07:00",84.855,27.22,TRADE
SNOWY1,"1999/06/30 07:30",9.30167,29.08,TRADE
SNOWY1,"1999/06/30 08:00",6.47333,44.55,TRADE
SNOWY1,"1999/06/30 08:30",7.13333,50.81,TRADE
SNOWY1,"1999/06/30 09:00",5.395,46.68,TRADE
SNOWY1,"1999/06/30 09:30",1.08833,53.69,TRADE
SNOWY1,"1999/06/30 10:00",14.08833,56.04,TRADE
SNOWY1,"1999/06/30 10:30",4.52167,48.08,TRADE
SNOWY1,"1999/06/30 11:00",12.17833,50,TRADE
SNOWY1,"1999/06/30 11:30",8.88,42.2,TRADE
SNOWY1,"1999/06/30 12:00",4.86833,44.48,TRADE
SNOWY1,"1999/06/30 12:30",3.195,42.19,TRADE
SNOWY1,"1999/06/30 13:00",4.39167,35.9,TRADE
SNOWY1,"1999/06/30 13:30",6.12,40.77,TRADE
SNOWY1,"1999/06/30 14:00",2.58,40.39,TRADE
SNOWY1,"1999/06/30 14:30",3.42167,38.55,TRADE
SNOWY1,"1999/06/30 15:00",2.425,36.93,TRADE
SNOWY1,"1999/06/30 15:30",2.24667,28.95,TRADE
SNOWY1,"1999/06/30 16:00",1.065,33.14,TRADE
SNOWY1,"1999/06/30 16:30",1.2,40.1,TRADE
SNOWY1,"1999/06/30 17:00",6.16667,42.21,TRADE
SNOWY1,"1999/06/30 17:30",15.69833,48.79,TRADE
SNOWY1,"1999/06/30 18:00",13.92333,51.14,TRADE
SNOWY1,"1999/06/30 18:30",8.87,59.93,TRADE
SNOWY1,"1999/06/30 19:00",8.03167,49.87,TRADE
SNOWY1,"1999/06/30 19:30",8.57667,47.31,TRADE
SNOWY1,"1999/06/30 20:00",7.285,46.66,TRADE
SNOWY1,"1999/06/30 20:30",6.41833,45.43,TRADE
SNOWY1,"1999/06/30 21:00",6.37667,39.11,TRADE
SNOWY1,"1999/06/30 21:30",7.765,41.92,TRADE
SNOWY1,"1999/06/30 22:00",7.25333,31.07,TRADE
SNOWY1,"1999/06/30 22:30",2.67667,26.39,TRADE
SNOWY1,"1999/06/30 23:00",1.94167,26.58,TRADE
SNOWY1,"1999/06/30 23:30",10.13333,32.56,TRADE
SNOWY1,"1999/07/01 00:00",6.19667,30.57,TRADE
