REGION,SETTLEMENTDATE,TOTALDEMAND,RRP,PERIODTYPE
TAS1,"2012/09/01 00:30:00",1098.47,49.29,TRADE
TAS1,"2012/09/01 01:00:00",1095.67,49.28,TRADE
TAS1,"2012/09/01 01:30:00",1103.16,49.28,TRADE
TAS1,"2012/09/01 02:00:00",1095.96,49.28,TRADE
TAS1,"2012/09/01 02:30:00",1095.42,49.27,TRADE
TAS1,"2012/09/01 03:00:00",1092.41,45.88,TRADE
TAS1,"2012/09/01 03:30:00",1074.63,45.78,TRADE
TAS1,"2012/09/01 04:00:00",1085.55,45.78,TRADE
TAS1,"2012/09/01 04:30:00",1087.31,45.76,TRADE
TAS1,"2012/09/01 05:00:00",1088.61,44.92,TRADE
TAS1,"2012/09/01 05:30:00",1096.99,45.7,TRADE
TAS1,"2012/09/01 06:00:00",1120.51,45.83,TRADE
TAS1,"2012/09/01 06:30:00",1178.29,47.05,TRADE
TAS1,"2012/09/01 07:00:00",1199.08,45.8,TRADE
TAS1,"2012/09/01 07:30:00",1235.57,44.79,TRADE
TAS1,"2012/09/01 08:00:00",1268.75,44.28,TRADE
TAS1,"2012/09/01 08:30:00",1316.42,44.28,TRADE
TAS1,"2012/09/01 09:00:00",1327.37,47.61,TRADE
TAS1,"2012/09/01 09:30:00",1340.21,52.28,TRADE
TAS1,"2012/09/01 10:00:00",1318.55,52.28,TRADE
TAS1,"2012/09/01 10:30:00",1282.26,49.28,TRADE
TAS1,"2012/09/01 11:00:00",1243.67,49.04,TRADE
TAS1,"2012/09/01 11:30:00",1205.2,45.54,TRADE
TAS1,"2012/09/01 12:00:00",1187.83,45.76,TRADE
TAS1,"2012/09/01 12:30:00",1149.03,41.62,TRADE
TAS1,"2012/09/01 13:00:00",1133.79,41.61,TRADE
TAS1,"2012/09/01 13:30:00",1109.88,44.12,TRADE
TAS1,"2012/09/01 14:00:00",1095.73,43.95,TRADE
TAS1,"2012/09/01 14:30:00",1097.33,44.22,TRADE
TAS1,"2012/09/01 15:00:00",1092.33,44.02,TRADE
TAS1,"2012/09/01 15:30:00",1104.79,44.23,TRADE
TAS1,"2012/09/01 16:00:00",1112.18,44.28,TRADE
TAS1,"2012/09/01 16:30:00",1132.68,44.29,TRADE
TAS1,"2012/09/01 17:00:00",1179.04,43.89,TRADE
TAS1,"2012/09/01 17:30:00",1237.63,44.28,TRADE
TAS1,"2012/09/01 18:00:00",1307.1,44.5,TRADE
TAS1,"2012/09/01 18:30:00",1376.04,44.3,TRADE
TAS1,"2012/09/01 19:00:00",1373.35,44.3,TRADE
TAS1,"2012/09/01 19:30:00",1363.61,44.3,TRADE
TAS1,"2012/09/01 20:00:00",1348.9,44.3,TRADE
TAS1,"2012/09/01 20:30:00",1335.99,44.3,TRADE
TAS1,"2012/09/01 21:00:00",1316.96,44.3,TRADE
TAS1,"2012/09/01 21:30:00",1300.1,44.3,TRADE
TAS1,"2012/09/01 22:00:00",1275.07,44.28,TRADE
TAS1,"2012/09/01 22:30:00",1242.48,44.28,TRADE
TAS1,"2012/09/01 23:00:00",1207.59,44.27,TRADE
TAS1,"2012/09/01 23:30:00",1168.18,43.82,TRADE
TAS1,"2012/09/02 00:00:00",1150.62,43.74,TRADE
TAS1,"2012/09/02 00:30:00",1107.35,44.28,TRADE
TAS1,"2012/09/02 01:00:00",1084.51,44.3,TRADE
TAS1,"2012/09/02 01:30:00",1078.14,44.28,TRADE
TAS1,"2012/09/02 02:00:00",1065.42,43.96,TRADE
TAS1,"2012/09/02 02:30:00",1061.78,43.14,TRADE
TAS1,"2012/09/02 03:00:00",1059.85,41.85,TRADE
TAS1,"2012/09/02 03:30:00",1057.78,41.01,TRADE
TAS1,"2012/09/02 04:00:00",1047.84,38,TRADE
TAS1,"2012/09/02 04:30:00",1050.91,40.67,TRADE
TAS1,"2012/09/02 05:00:00",1055.68,39.92,TRADE
TAS1,"2012/09/02 05:30:00",1062.49,41.2,TRADE
TAS1,"2012/09/02 06:00:00",1078.75,41.44,TRADE
TAS1,"2012/09/02 06:30:00",1096.26,42.36,TRADE
TAS1,"2012/09/02 07:00:00",1125.2,43.19,TRADE
TAS1,"2012/09/02 07:30:00",1162.53,41.05,TRADE
TAS1,"2012/09/02 08:00:00",1213.15,42.92,TRADE
TAS1,"2012/09/02 08:30:00",1260.78,43.49,TRADE
TAS1,"2012/09/02 09:00:00",1292.43,44.26,TRADE
TAS1,"2012/09/02 09:30:00",1296.35,44.36,TRADE
TAS1,"2012/09/02 10:00:00",1280.22,44.28,TRADE
TAS1,"2012/09/02 10:30:00",1221.24,44.44,TRADE
TAS1,"2012/09/02 11:00:00",1268.58,45.46,TRADE
TAS1,"2012/09/02 11:30:00",1234.81,44.56,TRADE
TAS1,"2012/09/02 12:00:00",1210.17,44.29,TRADE
TAS1,"2012/09/02 12:30:00",1171.59,44.28,TRADE
TAS1,"2012/09/02 13:00:00",1118.64,44.2,TRADE
TAS1,"2012/09/02 13:30:00",1099.92,42.55,TRADE
TAS1,"2012/09/02 14:00:00",1078.1,43.02,TRADE
TAS1,"2012/09/02 14:30:00",1081.11,44.03,TRADE
TAS1,"2012/09/02 15:00:00",1099.77,44.3,TRADE
TAS1,"2012/09/02 15:30:00",1111.12,43.2,TRADE
TAS1,"2012/09/02 16:00:00",1129.53,44.21,TRADE
TAS1,"2012/09/02 16:30:00",1152.49,43.73,TRADE
TAS1,"2012/09/02 17:00:00",1144.51,43.98,TRADE
TAS1,"2012/09/02 17:30:00",1173.1,43.77,TRADE
TAS1,"2012/09/02 18:00:00",1238.26,43.93,TRADE
TAS1,"2012/09/02 18:30:00",1310.19,44.29,TRADE
TAS1,"2012/09/02 19:00:00",1332.45,44.3,TRADE
TAS1,"2012/09/02 19:30:00",1317.23,44.3,TRADE
TAS1,"2012/09/02 20:00:00",1305.1,44.3,TRADE
TAS1,"2012/09/02 20:30:00",1287.59,44.29,TRADE
TAS1,"2012/09/02 21:00:00",1251.27,44.28,TRADE
TAS1,"2012/09/02 21:30:00",1213.74,44.28,TRADE
TAS1,"2012/09/02 22:00:00",1175.73,44.28,TRADE
TAS1,"2012/09/02 22:30:00",1141.05,43.27,TRADE
TAS1,"2012/09/02 23:00:00",1084.24,41.48,TRADE
TAS1,"2012/09/02 23:30:00",1039.28,40.62,TRADE
TAS1,"2012/09/03 00:00:00",1014.47,40.38,TRADE
TAS1,"2012/09/03 00:30:00",980.85,43.16,TRADE
TAS1,"2012/09/03 01:00:00",995.46,43.61,TRADE
TAS1,"2012/09/03 01:30:00",1003.79,44.08,TRADE
TAS1,"2012/09/03 02:00:00",1010.95,42.06,TRADE
TAS1,"2012/09/03 02:30:00",1005.6,42.79,TRADE
TAS1,"2012/09/03 03:00:00",1008.21,42.19,TRADE
TAS1,"2012/09/03 03:30:00",1017.81,41.57,TRADE
TAS1,"2012/09/03 04:00:00",1025.81,41.24,TRADE
TAS1,"2012/09/03 04:30:00",1037.99,42.8,TRADE
TAS1,"2012/09/03 05:00:00",1053.08,43.38,TRADE
TAS1,"2012/09/03 05:30:00",1087.41,45.02,TRADE
TAS1,"2012/09/03 06:00:00",1115.45,45.61,TRADE
TAS1,"2012/09/03 06:30:00",1211.8,44.22,TRADE
TAS1,"2012/09/03 07:00:00",1297.18,44.55,TRADE
TAS1,"2012/09/03 07:30:00",1388.82,44.51,TRADE
TAS1,"2012/09/03 08:00:00",1438.03,52.29,TRADE
TAS1,"2012/09/03 08:30:00",1425.57,49.13,TRADE
TAS1,"2012/09/03 09:00:00",1395.14,44.3,TRADE
TAS1,"2012/09/03 09:30:00",1377.52,44.3,TRADE
TAS1,"2012/09/03 10:00:00",1331.53,44.3,TRADE
TAS1,"2012/09/03 10:30:00",1281.76,44.28,TRADE
TAS1,"2012/09/03 11:00:00",1251.38,44.48,TRADE
TAS1,"2012/09/03 11:30:00",1236.92,45.36,TRADE
TAS1,"2012/09/03 12:00:00",1215.05,40.96,TRADE
TAS1,"2012/09/03 12:30:00",1204.48,40.3,TRADE
TAS1,"2012/09/03 13:00:00",1193.43,40.29,TRADE
TAS1,"2012/09/03 13:30:00",1186.64,40.28,TRADE
TAS1,"2012/09/03 14:00:00",1163.33,40.29,TRADE
TAS1,"2012/09/03 14:30:00",1175.91,40.29,TRADE
TAS1,"2012/09/03 15:00:00",1166.86,40.29,TRADE
TAS1,"2012/09/03 15:30:00",1171.76,40.29,TRADE
TAS1,"2012/09/03 16:00:00",1185.54,40.3,TRADE
TAS1,"2012/09/03 16:30:00",1194.89,40.3,TRADE
TAS1,"2012/09/03 17:00:00",1215.91,44.28,TRADE
TAS1,"2012/09/03 17:30:00",1253.44,44.29,TRADE
TAS1,"2012/09/03 18:00:00",1354.79,46.39,TRADE
TAS1,"2012/09/03 18:30:00",1403.31,52.32,TRADE
TAS1,"2012/09/03 19:00:00",1410.9,52.32,TRADE
TAS1,"2012/09/03 19:30:00",1389.65,51.64,TRADE
TAS1,"2012/09/03 20:00:00",1362.03,46.56,TRADE
TAS1,"2012/09/03 20:30:00",1362.02,45.84,TRADE
TAS1,"2012/09/03 21:00:00",1332.81,44.3,TRADE
TAS1,"2012/09/03 21:30:00",1308.37,44.3,TRADE
TAS1,"2012/09/03 22:00:00",1259.36,44.28,TRADE
TAS1,"2012/09/03 22:30:00",1208.53,44.28,TRADE
TAS1,"2012/09/03 23:00:00",1160.92,44.28,TRADE
TAS1,"2012/09/03 23:30:00",1120.67,44.19,TRADE
TAS1,"2012/09/04 00:00:00",1094.05,43.83,TRADE
TAS1,"2012/09/04 00:30:00",1076.55,43.61,TRADE
TAS1,"2012/09/04 01:00:00",1056.32,44.18,TRADE
TAS1,"2012/09/04 01:30:00",1061.07,44.28,TRADE
TAS1,"2012/09/04 02:00:00",1070.96,44.28,TRADE
TAS1,"2012/09/04 02:30:00",1061.85,44.28,TRADE
TAS1,"2012/09/04 03:00:00",1066.8,44.29,TRADE
TAS1,"2012/09/04 03:30:00",1066.17,42.84,TRADE
TAS1,"2012/09/04 04:00:00",1070.44,40.64,TRADE
TAS1,"2012/09/04 04:30:00",1070.16,36.54,TRADE
TAS1,"2012/09/04 05:00:00",1069.13,36.97,TRADE
TAS1,"2012/09/04 05:30:00",1105.17,36.86,TRADE
TAS1,"2012/09/04 06:00:00",1115.98,36.95,TRADE
TAS1,"2012/09/04 06:30:00",1212.91,42.86,TRADE
TAS1,"2012/09/04 07:00:00",1308.15,45.67,TRADE
TAS1,"2012/09/04 07:30:00",1413.71,45.31,TRADE
TAS1,"2012/09/04 08:00:00",1458.24,44.76,TRADE
TAS1,"2012/09/04 08:30:00",1464.22,45.54,TRADE
TAS1,"2012/09/04 09:00:00",1406.03,44.3,TRADE
TAS1,"2012/09/04 09:30:00",1352.74,44.29,TRADE
TAS1,"2012/09/04 10:00:00",1318.06,44.28,TRADE
TAS1,"2012/09/04 10:30:00",1262.87,44.28,TRADE
TAS1,"2012/09/04 11:00:00",1230.72,44.28,TRADE
TAS1,"2012/09/04 11:30:00",1208.85,44.28,TRADE
TAS1,"2012/09/04 12:00:00",1191.73,43.53,TRADE
TAS1,"2012/09/04 12:30:00",1174.76,43.72,TRADE
TAS1,"2012/09/04 13:00:00",1172.73,43.72,TRADE
TAS1,"2012/09/04 13:30:00",1172.88,43.76,TRADE
TAS1,"2012/09/04 14:00:00",1175.71,43.85,TRADE
TAS1,"2012/09/04 14:30:00",1167.68,44.06,TRADE
TAS1,"2012/09/04 15:00:00",1149.02,42.01,TRADE
TAS1,"2012/09/04 15:30:00",1160.65,42.76,TRADE
TAS1,"2012/09/04 16:00:00",1159.48,40.33,TRADE
TAS1,"2012/09/04 16:30:00",1165.13,40.67,TRADE
TAS1,"2012/09/04 17:00:00",1198.48,42.82,TRADE
TAS1,"2012/09/04 17:30:00",1249.37,44.21,TRADE
TAS1,"2012/09/04 18:00:00",1316.32,44.37,TRADE
TAS1,"2012/09/04 18:30:00",1371.29,45.9,TRADE
TAS1,"2012/09/04 19:00:00",1367.68,45.43,TRADE
TAS1,"2012/09/04 19:30:00",1329.07,44.47,TRADE
TAS1,"2012/09/04 20:00:00",1302.82,44.29,TRADE
TAS1,"2012/09/04 20:30:00",1281.42,44.29,TRADE
TAS1,"2012/09/04 21:00:00",1244.21,44.28,TRADE
TAS1,"2012/09/04 21:30:00",1217.64,43.88,TRADE
TAS1,"2012/09/04 22:00:00",1165.1,41.74,TRADE
TAS1,"2012/09/04 22:30:00",1099.76,44.6,TRADE
TAS1,"2012/09/04 23:00:00",1047.83,42.43,TRADE
TAS1,"2012/09/04 23:30:00",1016.18,44.26,TRADE
TAS1,"2012/09/05 00:00:00",976.95,42.76,TRADE
TAS1,"2012/09/05 00:30:00",950.97,40.58,TRADE
TAS1,"2012/09/05 01:00:00",917.22,34.77,TRADE
TAS1,"2012/09/05 01:30:00",905.83,34.52,TRADE
TAS1,"2012/09/05 02:00:00",891.43,34.27,TRADE
TAS1,"2012/09/05 02:30:00",880.35,33.68,TRADE
TAS1,"2012/09/05 03:00:00",872.38,34.07,TRADE
TAS1,"2012/09/05 03:30:00",878.6,33.95,TRADE
TAS1,"2012/09/05 04:00:00",883.46,34.18,TRADE
TAS1,"2012/09/05 04:30:00",896.97,35.07,TRADE
TAS1,"2012/09/05 05:00:00",906.94,35.06,TRADE
TAS1,"2012/09/05 05:30:00",930.89,36.37,TRADE
TAS1,"2012/09/05 06:00:00",961.52,35.84,TRADE
TAS1,"2012/09/05 06:30:00",1033.96,40.99,TRADE
TAS1,"2012/09/05 07:00:00",1114.45,43.58,TRADE
TAS1,"2012/09/05 07:30:00",1200.29,40.3,TRADE
TAS1,"2012/09/05 08:00:00",1221.95,40.28,TRADE
TAS1,"2012/09/05 08:30:00",1214.86,40.28,TRADE
TAS1,"2012/09/05 09:00:00",1183.74,40.83,TRADE
TAS1,"2012/09/05 09:30:00",1157.96,40.82,TRADE
TAS1,"2012/09/05 10:00:00",1137.82,40.25,TRADE
TAS1,"2012/09/05 10:30:00",1111.95,40.24,TRADE
TAS1,"2012/09/05 11:00:00",1105.81,39.97,TRADE
TAS1,"2012/09/05 11:30:00",1097.45,41.14,TRADE
TAS1,"2012/09/05 12:00:00",1108.64,40.28,TRADE
TAS1,"2012/09/05 12:30:00",1108.13,43.58,TRADE
TAS1,"2012/09/05 13:00:00",1102.38,43.1,TRADE
TAS1,"2012/09/05 13:30:00",1122.52,40.41,TRADE
TAS1,"2012/09/05 14:00:00",1121.69,42.31,TRADE
TAS1,"2012/09/05 14:30:00",1151.59,39.31,TRADE
TAS1,"2012/09/05 15:00:00",1154.23,38.7,TRADE
TAS1,"2012/09/05 15:30:00",1169.4,40.25,TRADE
TAS1,"2012/09/05 16:00:00",1162.14,40.25,TRADE
TAS1,"2012/09/05 16:30:00",1184.91,41.48,TRADE
TAS1,"2012/09/05 17:00:00",1222.92,41.5,TRADE
TAS1,"2012/09/05 17:30:00",1263.21,43.58,TRADE
TAS1,"2012/09/05 18:00:00",1289.04,43.58,TRADE
TAS1,"2012/09/05 18:30:00",1304.49,43.59,TRADE
TAS1,"2012/09/05 19:00:00",1308.11,43.69,TRADE
TAS1,"2012/09/05 19:30:00",1274.16,43.59,TRADE
TAS1,"2012/09/05 20:00:00",1243.98,43.59,TRADE
TAS1,"2012/09/05 20:30:00",1236.89,43.59,TRADE
TAS1,"2012/09/05 21:00:00",1227.5,43.58,TRADE
TAS1,"2012/09/05 21:30:00",1177.53,43.58,TRADE
TAS1,"2012/09/05 22:00:00",1131.6,43.58,TRADE
TAS1,"2012/09/05 22:30:00",1080.36,43.58,TRADE
TAS1,"2012/09/05 23:00:00",1032.82,42.99,TRADE
TAS1,"2012/09/05 23:30:00",994.33,57.55,TRADE
TAS1,"2012/09/06 00:00:00",992.07,48.48,TRADE
TAS1,"2012/09/06 00:30:00",1016.86,47.19,TRADE
TAS1,"2012/09/06 01:00:00",1049.52,43.58,TRADE
TAS1,"2012/09/06 01:30:00",1046.23,43.58,TRADE
TAS1,"2012/09/06 02:00:00",1027.97,43.58,TRADE
TAS1,"2012/09/06 02:30:00",998.87,41.53,TRADE
TAS1,"2012/09/06 03:00:00",978.53,38,TRADE
TAS1,"2012/09/06 03:30:00",1022.68,40.79,TRADE
TAS1,"2012/09/06 04:00:00",1024.86,39.84,TRADE
TAS1,"2012/09/06 04:30:00",1005.03,41.54,TRADE
TAS1,"2012/09/06 05:00:00",953.13,40.37,TRADE
TAS1,"2012/09/06 05:30:00",968.59,41.11,TRADE
TAS1,"2012/09/06 06:00:00",987.69,41.65,TRADE
TAS1,"2012/09/06 06:30:00",1060.13,43.41,TRADE
TAS1,"2012/09/06 07:00:00",1154.19,43.59,TRADE
TAS1,"2012/09/06 07:30:00",1231.92,43.58,TRADE
TAS1,"2012/09/06 08:00:00",1265.72,43.58,TRADE
TAS1,"2012/09/06 08:30:00",1248.11,43.58,TRADE
TAS1,"2012/09/06 09:00:00",1187.45,43.58,TRADE
TAS1,"2012/09/06 09:30:00",1180.69,43.36,TRADE
TAS1,"2012/09/06 10:00:00",1170.32,43.58,TRADE
TAS1,"2012/09/06 10:30:00",1112.86,43.58,TRADE
TAS1,"2012/09/06 11:00:00",1088.74,43.58,TRADE
TAS1,"2012/09/06 11:30:00",1080.46,43.14,TRADE
TAS1,"2012/09/06 12:00:00",1072.98,43.58,TRADE
TAS1,"2012/09/06 12:30:00",1063.9,43.58,TRADE
TAS1,"2012/09/06 13:00:00",1048.88,43.58,TRADE
TAS1,"2012/09/06 13:30:00",1055.64,43.58,TRADE
TAS1,"2012/09/06 14:00:00",1090.34,43.58,TRADE
TAS1,"2012/09/06 14:30:00",1096.47,43.58,TRADE
TAS1,"2012/09/06 15:00:00",1100.79,43.58,TRADE
TAS1,"2012/09/06 15:30:00",1084.83,43.55,TRADE
TAS1,"2012/09/06 16:00:00",1114.96,43.22,TRADE
TAS1,"2012/09/06 16:30:00",1127.78,43.58,TRADE
TAS1,"2012/09/06 17:00:00",1186.55,43.59,TRADE
TAS1,"2012/09/06 17:30:00",1230.6,43.58,TRADE
TAS1,"2012/09/06 18:00:00",1274.85,43.63,TRADE
TAS1,"2012/09/06 18:30:00",1301.32,44.15,TRADE
TAS1,"2012/09/06 19:00:00",1286.94,44.01,TRADE
TAS1,"2012/09/06 19:30:00",1253.55,43.59,TRADE
TAS1,"2012/09/06 20:00:00",1217.99,43.58,TRADE
TAS1,"2012/09/06 20:30:00",1219.93,43.58,TRADE
TAS1,"2012/09/06 21:00:00",1179.14,43.58,TRADE
TAS1,"2012/09/06 21:30:00",1160.52,43.58,TRADE
TAS1,"2012/09/06 22:00:00",1107.82,42.97,TRADE
TAS1,"2012/09/06 22:30:00",1093.67,43.58,TRADE
TAS1,"2012/09/06 23:00:00",1064.51,42.38,TRADE
TAS1,"2012/09/06 23:30:00",1023.44,43.1,TRADE
TAS1,"2012/09/07 00:00:00",1003.09,41.38,TRADE
TAS1,"2012/09/07 00:30:00",968.45,41.26,TRADE
TAS1,"2012/09/07 01:00:00",951.25,40.41,TRADE
TAS1,"2012/09/07 01:30:00",935.58,40.41,TRADE
TAS1,"2012/09/07 02:00:00",934.36,40.41,TRADE
TAS1,"2012/09/07 02:30:00",933.48,40.72,TRADE
TAS1,"2012/09/07 03:00:00",931.52,39.8,TRADE
TAS1,"2012/09/07 03:30:00",928.21,35.04,TRADE
TAS1,"2012/09/07 04:00:00",922.04,34.01,TRADE
TAS1,"2012/09/07 04:30:00",946.72,34.25,TRADE
TAS1,"2012/09/07 05:00:00",960.11,36.98,TRADE
TAS1,"2012/09/07 05:30:00",983.87,36.77,TRADE
TAS1,"2012/09/07 06:00:00",1000.94,39.92,TRADE
TAS1,"2012/09/07 06:30:00",1071.75,42.53,TRADE
TAS1,"2012/09/07 07:00:00",1153.63,43.29,TRADE
TAS1,"2012/09/07 07:30:00",1239.8,43.26,TRADE
TAS1,"2012/09/07 08:00:00",1276.17,43.47,TRADE
TAS1,"2012/09/07 08:30:00",1260.24,43.29,TRADE
TAS1,"2012/09/07 09:00:00",1278.46,43.3,TRADE
TAS1,"2012/09/07 09:30:00",1271.04,43.3,TRADE
TAS1,"2012/09/07 10:00:00",1227.69,43.28,TRADE
TAS1,"2012/09/07 10:30:00",1176.78,43.28,TRADE
TAS1,"2012/09/07 11:00:00",1168.43,43.28,TRADE
TAS1,"2012/09/07 11:30:00",1177.74,43.28,TRADE
TAS1,"2012/09/07 12:00:00",1180.1,42.8,TRADE
TAS1,"2012/09/07 12:30:00",1183.68,43.28,TRADE
TAS1,"2012/09/07 13:00:00",1243.55,43.28,TRADE
TAS1,"2012/09/07 13:30:00",1299.97,43.28,TRADE
TAS1,"2012/09/07 14:00:00",1284.89,43.28,TRADE
TAS1,"2012/09/07 14:30:00",1228.59,43.28,TRADE
TAS1,"2012/09/07 15:00:00",1245.97,43.28,TRADE
TAS1,"2012/09/07 15:30:00",1287.06,43.28,TRADE
TAS1,"2012/09/07 16:00:00",1258.22,43.28,TRADE
TAS1,"2012/09/07 16:30:00",1247.12,43.28,TRADE
TAS1,"2012/09/07 17:00:00",1275.7,43.46,TRADE
TAS1,"2012/09/07 17:30:00",1312.36,44.24,TRADE
TAS1,"2012/09/07 18:00:00",1353.67,46.77,TRADE
TAS1,"2012/09/07 18:30:00",1415.52,50.24,TRADE
TAS1,"2012/09/07 19:00:00",1386.18,50.43,TRADE
TAS1,"2012/09/07 19:30:00",1390.14,47.77,TRADE
TAS1,"2012/09/07 20:00:00",1360.56,45.96,TRADE
TAS1,"2012/09/07 20:30:00",1346.74,44.63,TRADE
TAS1,"2012/09/07 21:00:00",1312.31,43.29,TRADE
TAS1,"2012/09/07 21:30:00",1268.42,43.28,TRADE
TAS1,"2012/09/07 22:00:00",1236.23,43.28,TRADE
TAS1,"2012/09/07 22:30:00",1204.86,43.28,TRADE
TAS1,"2012/09/07 23:00:00",1154.81,41.37,TRADE
TAS1,"2012/09/07 23:30:00",1100.54,40.41,TRADE
TAS1,"2012/09/08 00:00:00",1056.4,36.98,TRADE
TAS1,"2012/09/08 00:30:00",1034.86,36.49,TRADE
TAS1,"2012/09/08 01:00:00",994.83,33.53,TRADE
TAS1,"2012/09/08 01:30:00",985.56,32.13,TRADE
TAS1,"2012/09/08 02:00:00",987.26,31.25,TRADE
TAS1,"2012/09/08 02:30:00",970.32,33.54,TRADE
TAS1,"2012/09/08 03:00:00",968.79,31.76,TRADE
TAS1,"2012/09/08 03:30:00",955.43,40.37,TRADE
TAS1,"2012/09/08 04:00:00",956.25,36.81,TRADE
TAS1,"2012/09/08 04:30:00",956.74,34.94,TRADE
TAS1,"2012/09/08 05:00:00",959.91,34.61,TRADE
TAS1,"2012/09/08 05:30:00",966.69,35.75,TRADE
TAS1,"2012/09/08 06:00:00",978.61,34.95,TRADE
TAS1,"2012/09/08 06:30:00",999.46,37.13,TRADE
TAS1,"2012/09/08 07:00:00",1039.07,39.3,TRADE
TAS1,"2012/09/08 07:30:00",1078.42,39.79,TRADE
TAS1,"2012/09/08 08:00:00",1131.51,42.93,TRADE
TAS1,"2012/09/08 08:30:00",1161.2,43.2,TRADE
TAS1,"2012/09/08 09:00:00",1130.97,42.31,TRADE
TAS1,"2012/09/08 09:30:00",1119.45,42.78,TRADE
TAS1,"2012/09/08 10:00:00",1116.54,41,TRADE
TAS1,"2012/09/08 10:30:00",1095.89,41,TRADE
TAS1,"2012/09/08 11:00:00",1098.12,38.47,TRADE
TAS1,"2012/09/08 11:30:00",1077.02,35.51,TRADE
TAS1,"2012/09/08 12:00:00",1060.75,34.84,TRADE
TAS1,"2012/09/08 12:30:00",1040.79,34.13,TRADE
TAS1,"2012/09/08 13:00:00",1012.7,35.12,TRADE
TAS1,"2012/09/08 13:30:00",921.91,31.16,TRADE
TAS1,"2012/09/08 14:00:00",982.97,32.44,TRADE
TAS1,"2012/09/08 14:30:00",972.93,40.26,TRADE
TAS1,"2012/09/08 15:00:00",990.82,40.39,TRADE
TAS1,"2012/09/08 15:30:00",978.81,40.26,TRADE
TAS1,"2012/09/08 16:00:00",994.01,40.41,TRADE
TAS1,"2012/09/08 16:30:00",1002.08,40.41,TRADE
TAS1,"2012/09/08 17:00:00",1039.72,42.38,TRADE
TAS1,"2012/09/08 17:30:00",1082.55,37.8,TRADE
TAS1,"2012/09/08 18:00:00",1139.28,41.39,TRADE
TAS1,"2012/09/08 18:30:00",1173.8,42.48,TRADE
TAS1,"2012/09/08 19:00:00",1155.57,39.26,TRADE
TAS1,"2012/09/08 19:30:00",1132.52,37.88,TRADE
TAS1,"2012/09/08 20:00:00",1102.34,36.31,TRADE
TAS1,"2012/09/08 20:30:00",1096.95,34.43,TRADE
TAS1,"2012/09/08 21:00:00",1066.7,31.94,TRADE
TAS1,"2012/09/08 21:30:00",1055.88,31.2,TRADE
TAS1,"2012/09/08 22:00:00",1023.51,31.09,TRADE
TAS1,"2012/09/08 22:30:00",982.75,31.11,TRADE
TAS1,"2012/09/08 23:00:00",945.92,31.16,TRADE
TAS1,"2012/09/08 23:30:00",909.38,30.99,TRADE
TAS1,"2012/09/09 00:00:00",886.94,31.11,TRADE
TAS1,"2012/09/09 00:30:00",859.37,30.59,TRADE
TAS1,"2012/09/09 01:00:00",876.49,30.95,TRADE
TAS1,"2012/09/09 01:30:00",863.97,30.66,TRADE
TAS1,"2012/09/09 02:00:00",829.29,30.12,TRADE
TAS1,"2012/09/09 02:30:00",810.77,29.66,TRADE
TAS1,"2012/09/09 03:00:00",812.67,29.18,TRADE
TAS1,"2012/09/09 03:30:00",803.37,28.66,TRADE
TAS1,"2012/09/09 04:00:00",810.66,30.49,TRADE
TAS1,"2012/09/09 04:30:00",801.03,30.88,TRADE
TAS1,"2012/09/09 05:00:00",798.55,30.78,TRADE
TAS1,"2012/09/09 05:30:00",807.41,31.05,TRADE
TAS1,"2012/09/09 06:00:00",824.51,30.8,TRADE
TAS1,"2012/09/09 06:30:00",836.43,30.73,TRADE
TAS1,"2012/09/09 07:00:00",861.05,31.53,TRADE
TAS1,"2012/09/09 07:30:00",889.11,32.45,TRADE
TAS1,"2012/09/09 08:00:00",916.37,34.27,TRADE
TAS1,"2012/09/09 08:30:00",946.07,36.58,TRADE
TAS1,"2012/09/09 09:00:00",965.63,37.24,TRADE
TAS1,"2012/09/09 09:30:00",971.46,37.24,TRADE
TAS1,"2012/09/09 10:00:00",976.68,37.24,TRADE
TAS1,"2012/09/09 10:30:00",975.15,37.24,TRADE
TAS1,"2012/09/09 11:00:00",959.99,36.74,TRADE
TAS1,"2012/09/09 11:30:00",940.27,36.25,TRADE
TAS1,"2012/09/09 12:00:00",969.94,37.16,TRADE
TAS1,"2012/09/09 12:30:00",969.53,36.35,TRADE
TAS1,"2012/09/09 13:00:00",945.58,35.76,TRADE
TAS1,"2012/09/09 13:30:00",929.71,34.77,TRADE
TAS1,"2012/09/09 14:00:00",908.3,33.47,TRADE
TAS1,"2012/09/09 14:30:00",927.77,34.77,TRADE
TAS1,"2012/09/09 15:00:00",927.26,34.77,TRADE
TAS1,"2012/09/09 15:30:00",929.06,36.25,TRADE
TAS1,"2012/09/09 16:00:00",940.77,34.09,TRADE
TAS1,"2012/09/09 16:30:00",951.96,35.73,TRADE
TAS1,"2012/09/09 17:00:00",979.53,37.24,TRADE
TAS1,"2012/09/09 17:30:00",1006.33,37.46,TRADE
TAS1,"2012/09/09 18:00:00",1091.74,38.37,TRADE
TAS1,"2012/09/09 18:30:00",1156.5,40.06,TRADE
TAS1,"2012/09/09 19:00:00",1177.63,40.11,TRADE
TAS1,"2012/09/09 19:30:00",1169.63,39.89,TRADE
TAS1,"2012/09/09 20:00:00",1150.79,42.46,TRADE
TAS1,"2012/09/09 20:30:00",1142.43,43.28,TRADE
TAS1,"2012/09/09 21:00:00",1135.88,43.28,TRADE
TAS1,"2012/09/09 21:30:00",1112.16,41.71,TRADE
TAS1,"2012/09/09 22:00:00",1077.22,37.68,TRADE
TAS1,"2012/09/09 22:30:00",1016.26,37.08,TRADE
TAS1,"2012/09/09 23:00:00",991.02,37.47,TRADE
TAS1,"2012/09/09 23:30:00",962.85,37.24,TRADE
TAS1,"2012/09/10 00:00:00",933.67,36.6,TRADE
TAS1,"2012/09/10 00:30:00",911.44,32.02,TRADE
TAS1,"2012/09/10 01:00:00",889.13,32.73,TRADE
TAS1,"2012/09/10 01:30:00",891.13,33.6,TRADE
TAS1,"2012/09/10 02:00:00",893.83,37.24,TRADE
TAS1,"2012/09/10 02:30:00",890.72,37.24,TRADE
TAS1,"2012/09/10 03:00:00",897.99,37.24,TRADE
TAS1,"2012/09/10 03:30:00",897.71,37.24,TRADE
TAS1,"2012/09/10 04:00:00",895.93,40.38,TRADE
TAS1,"2012/09/10 04:30:00",919.83,40.41,TRADE
TAS1,"2012/09/10 05:00:00",926.71,40.89,TRADE
TAS1,"2012/09/10 05:30:00",963.67,43.28,TRADE
TAS1,"2012/09/10 06:00:00",987.36,43.28,TRADE
TAS1,"2012/09/10 06:30:00",1057.79,41.85,TRADE
TAS1,"2012/09/10 07:00:00",1129.74,42.15,TRADE
TAS1,"2012/09/10 07:30:00",1199.2,43.28,TRADE
TAS1,"2012/09/10 08:00:00",1221.14,45.28,TRADE
TAS1,"2012/09/10 08:30:00",1253.23,46.68,TRADE
TAS1,"2012/09/10 09:00:00",1262.81,47.29,TRADE
TAS1,"2012/09/10 09:30:00",1257.89,47.29,TRADE
TAS1,"2012/09/10 10:00:00",1214.93,47.28,TRADE
TAS1,"2012/09/10 10:30:00",1170.42,45.88,TRADE
TAS1,"2012/09/10 11:00:00",1145.16,46.68,TRADE
TAS1,"2012/09/10 11:30:00",1164.32,45.16,TRADE
TAS1,"2012/09/10 12:00:00",1135.92,43.3,TRADE
TAS1,"2012/09/10 12:30:00",1132.97,43.3,TRADE
TAS1,"2012/09/10 13:00:00",1135.27,43.3,TRADE
TAS1,"2012/09/10 13:30:00",1098.46,43.3,TRADE
TAS1,"2012/09/10 14:00:00",1114.64,43.3,TRADE
TAS1,"2012/09/10 14:30:00",1121.58,43.3,TRADE
TAS1,"2012/09/10 15:00:00",1146.93,43.3,TRADE
TAS1,"2012/09/10 15:30:00",1123.04,43.3,TRADE
TAS1,"2012/09/10 16:00:00",1155.99,43.37,TRADE
TAS1,"2012/09/10 16:30:00",1194.2,43.3,TRADE
TAS1,"2012/09/10 17:00:00",1220.46,43.3,TRADE
TAS1,"2012/09/10 17:30:00",1243.65,43.3,TRADE
TAS1,"2012/09/10 18:00:00",1277.96,45.78,TRADE
TAS1,"2012/09/10 18:30:00",1323.99,54.45,TRADE
TAS1,"2012/09/10 19:00:00",1337.34,58.15,TRADE
TAS1,"2012/09/10 19:30:00",1321,51.58,TRADE
TAS1,"2012/09/10 20:00:00",1294.63,48.43,TRADE
TAS1,"2012/09/10 20:30:00",1278.76,43.3,TRADE
TAS1,"2012/09/10 21:00:00",1259.12,43.3,TRADE
TAS1,"2012/09/10 21:30:00",1236.5,43.3,TRADE
TAS1,"2012/09/10 22:00:00",1210.09,43.3,TRADE
TAS1,"2012/09/10 22:30:00",1157.66,43.29,TRADE
TAS1,"2012/09/10 23:00:00",1121.3,43.28,TRADE
TAS1,"2012/09/10 23:30:00",1075.69,41.57,TRADE
TAS1,"2012/09/11 00:00:00",1044.86,41.22,TRADE
TAS1,"2012/09/11 00:30:00",1017.23,41.09,TRADE
TAS1,"2012/09/11 01:00:00",997.91,40.68,TRADE
TAS1,"2012/09/11 01:30:00",978.4,40.34,TRADE
TAS1,"2012/09/11 02:00:00",977.87,40.95,TRADE
TAS1,"2012/09/11 02:30:00",982.17,41.09,TRADE
TAS1,"2012/09/11 03:00:00",985.36,41.22,TRADE
TAS1,"2012/09/11 03:30:00",973.91,42.94,TRADE
TAS1,"2012/09/11 04:00:00",965.69,42.81,TRADE
TAS1,"2012/09/11 04:30:00",979.45,39.28,TRADE
TAS1,"2012/09/11 05:00:00",992.33,39.28,TRADE
TAS1,"2012/09/11 05:30:00",1011.05,38.14,TRADE
TAS1,"2012/09/11 06:00:00",1021.13,38.12,TRADE
TAS1,"2012/09/11 06:30:00",1072.5,39.28,TRADE
TAS1,"2012/09/11 07:00:00",1157.35,41.53,TRADE
TAS1,"2012/09/11 07:30:00",1225.31,46.85,TRADE
TAS1,"2012/09/11 08:00:00",1265.47,47.28,TRADE
TAS1,"2012/09/11 08:30:00",1266.3,44.46,TRADE
TAS1,"2012/09/11 09:00:00",1253.95,43.9,TRADE
TAS1,"2012/09/11 09:30:00",1243.81,41.3,TRADE
TAS1,"2012/09/11 10:00:00",1212.06,34.27,TRADE
TAS1,"2012/09/11 10:30:00",1180.03,34.77,TRADE
TAS1,"2012/09/11 11:00:00",1147.51,34.77,TRADE
TAS1,"2012/09/11 11:30:00",1105.13,29.28,TRADE
TAS1,"2012/09/11 12:00:00",1111.19,34.27,TRADE
TAS1,"2012/09/11 12:30:00",1095.37,32.77,TRADE
TAS1,"2012/09/11 13:00:00",1077.66,32.02,TRADE
TAS1,"2012/09/11 13:30:00",1064.19,31.4,TRADE
TAS1,"2012/09/11 14:00:00",1059.51,32.02,TRADE
TAS1,"2012/09/11 14:30:00",1063.24,29.78,TRADE
TAS1,"2012/09/11 15:00:00",1063.68,31.4,TRADE
TAS1,"2012/09/11 15:30:00",1060.25,32.14,TRADE
TAS1,"2012/09/11 16:00:00",1057.16,31.89,TRADE
TAS1,"2012/09/11 16:30:00",1062.23,34.26,TRADE
TAS1,"2012/09/11 17:00:00",1074.17,34.26,TRADE
TAS1,"2012/09/11 17:30:00",1111.76,38.01,TRADE
TAS1,"2012/09/11 18:00:00",1164.64,39.28,TRADE
TAS1,"2012/09/11 18:30:00",1211.73,39.28,TRADE
TAS1,"2012/09/11 19:00:00",1229.66,39.28,TRADE
TAS1,"2012/09/11 19:30:00",1203.36,39.27,TRADE
TAS1,"2012/09/11 20:00:00",1166.97,37.63,TRADE
TAS1,"2012/09/11 20:30:00",1150.21,36.3,TRADE
TAS1,"2012/09/11 21:00:00",1130.14,36.11,TRADE
TAS1,"2012/09/11 21:30:00",1092.76,35.73,TRADE
TAS1,"2012/09/11 22:00:00",1066.24,33.26,TRADE
TAS1,"2012/09/11 22:30:00",1006.33,34.26,TRADE
TAS1,"2012/09/11 23:00:00",957.34,30.62,TRADE
TAS1,"2012/09/11 23:30:00",916.56,28.24,TRADE
TAS1,"2012/09/12 00:00:00",912.11,28.24,TRADE
TAS1,"2012/09/12 00:30:00",879.87,28.2,TRADE
TAS1,"2012/09/12 01:00:00",844.12,22.76,TRADE
TAS1,"2012/09/12 01:30:00",841.21,23.83,TRADE
TAS1,"2012/09/12 02:00:00",837.04,21.68,TRADE
TAS1,"2012/09/12 02:30:00",834.07,15.24,TRADE
TAS1,"2012/09/12 03:00:00",828.17,14.39,TRADE
TAS1,"2012/09/12 03:30:00",833.17,16.05,TRADE
TAS1,"2012/09/12 04:00:00",832.29,16.43,TRADE
TAS1,"2012/09/12 04:30:00",842.03,22.07,TRADE
TAS1,"2012/09/12 05:00:00",853,26.84,TRADE
TAS1,"2012/09/12 05:30:00",870.96,27.68,TRADE
TAS1,"2012/09/12 06:00:00",914.9,29.16,TRADE
TAS1,"2012/09/12 06:30:00",987.28,30.06,TRADE
TAS1,"2012/09/12 07:00:00",1057.65,33.63,TRADE
TAS1,"2012/09/12 07:30:00",1135.15,34.67,TRADE
TAS1,"2012/09/12 08:00:00",1198.69,42.12,TRADE
TAS1,"2012/09/12 08:30:00",1189.37,42.55,TRADE
TAS1,"2012/09/12 09:00:00",1191.86,42.22,TRADE
TAS1,"2012/09/12 09:30:00",1170.92,40.9,TRADE
TAS1,"2012/09/12 10:00:00",1116.01,36.09,TRADE
TAS1,"2012/09/12 10:30:00",1060.1,42.48,TRADE
TAS1,"2012/09/12 11:00:00",1049.04,43.1,TRADE
TAS1,"2012/09/12 11:30:00",1021.9,39.11,TRADE
TAS1,"2012/09/12 12:00:00",1001.55,37.09,TRADE
TAS1,"2012/09/12 12:30:00",978.9,35.77,TRADE
TAS1,"2012/09/12 13:00:00",975.95,35.75,TRADE
TAS1,"2012/09/12 13:30:00",967.29,34.77,TRADE
TAS1,"2012/09/12 14:00:00",963.06,33.4,TRADE
TAS1,"2012/09/12 14:30:00",939.82,31.61,TRADE
TAS1,"2012/09/12 15:00:00",956.76,35.91,TRADE
TAS1,"2012/09/12 15:30:00",981.51,33.49,TRADE
TAS1,"2012/09/12 16:00:00",986.36,33.88,TRADE
TAS1,"2012/09/12 16:30:00",1021.05,39.52,TRADE
TAS1,"2012/09/12 17:00:00",1053.38,39.59,TRADE
TAS1,"2012/09/12 17:30:00",1100.43,41.63,TRADE
TAS1,"2012/09/12 18:00:00",1167.27,43.58,TRADE
TAS1,"2012/09/12 18:30:00",1160.2,43.31,TRADE
TAS1,"2012/09/12 19:00:00",1168.1,43.5,TRADE
TAS1,"2012/09/12 19:30:00",1136.12,43.04,TRADE
TAS1,"2012/09/12 20:00:00",1112.8,43.04,TRADE
TAS1,"2012/09/12 20:30:00",1097.59,43.04,TRADE
TAS1,"2012/09/12 21:00:00",1067.93,42.23,TRADE
TAS1,"2012/09/12 21:30:00",1072,41.92,TRADE
TAS1,"2012/09/12 22:00:00",1046.23,37.82,TRADE
TAS1,"2012/09/12 22:30:00",1008.03,34.95,TRADE
TAS1,"2012/09/12 23:00:00",957.33,31.43,TRADE
TAS1,"2012/09/12 23:30:00",935.77,30.57,TRADE
TAS1,"2012/09/13 00:00:00",888.1,32.43,TRADE
TAS1,"2012/09/13 00:30:00",899.5,34.22,TRADE
TAS1,"2012/09/13 01:00:00",856.39,30.99,TRADE
TAS1,"2012/09/13 01:30:00",848.1,30.6,TRADE
TAS1,"2012/09/13 02:00:00",878.44,31.48,TRADE
TAS1,"2012/09/13 02:30:00",872.26,30.9,TRADE
TAS1,"2012/09/13 03:00:00",852.2,30.55,TRADE
TAS1,"2012/09/13 03:30:00",870.21,30.5,TRADE
TAS1,"2012/09/13 04:00:00",882.9,31.4,TRADE
TAS1,"2012/09/13 04:30:00",865.53,38.14,TRADE
TAS1,"2012/09/13 05:00:00",877.83,40.34,TRADE
TAS1,"2012/09/13 05:30:00",894.09,32.24,TRADE
TAS1,"2012/09/13 06:00:00",929.18,36.81,TRADE
TAS1,"2012/09/13 06:30:00",1010.68,41.81,TRADE
TAS1,"2012/09/13 07:00:00",1076.54,43.3,TRADE
TAS1,"2012/09/13 07:30:00",1133.26,43.28,TRADE
TAS1,"2012/09/13 08:00:00",1175.63,43.28,TRADE
TAS1,"2012/09/13 08:30:00",1196.04,43.3,TRADE
TAS1,"2012/09/13 09:00:00",1181.05,43.29,TRADE
TAS1,"2012/09/13 09:30:00",1163.66,43.28,TRADE
TAS1,"2012/09/13 10:00:00",1143.37,43.28,TRADE
TAS1,"2012/09/13 10:30:00",1121.36,43.28,TRADE
TAS1,"2012/09/13 11:00:00",1105.09,43.28,TRADE
TAS1,"2012/09/13 11:30:00",1081.34,42.17,TRADE
TAS1,"2012/09/13 12:00:00",1049.37,40.72,TRADE
TAS1,"2012/09/13 12:30:00",1051.51,40.84,TRADE
TAS1,"2012/09/13 13:00:00",1031.9,38.19,TRADE
TAS1,"2012/09/13 13:30:00",1024.61,36.76,TRADE
TAS1,"2012/09/13 14:00:00",1038.78,37.13,TRADE
TAS1,"2012/09/13 14:30:00",1054.86,37.25,TRADE
TAS1,"2012/09/13 15:00:00",1048.13,36.89,TRADE
TAS1,"2012/09/13 15:30:00",1045.6,37,TRADE
TAS1,"2012/09/13 16:00:00",1062.23,37.25,TRADE
TAS1,"2012/09/13 16:30:00",1034.92,37.14,TRADE
TAS1,"2012/09/13 17:00:00",1107.32,41.14,TRADE
TAS1,"2012/09/13 17:30:00",1149.63,37.27,TRADE
TAS1,"2012/09/13 18:00:00",1214.44,43.27,TRADE
TAS1,"2012/09/13 18:30:00",1269.91,43.29,TRADE
TAS1,"2012/09/13 19:00:00",1291.62,43.29,TRADE
TAS1,"2012/09/13 19:30:00",1295.08,43.3,TRADE
TAS1,"2012/09/13 20:00:00",1271.93,43.28,TRADE
TAS1,"2012/09/13 20:30:00",1296.89,43.3,TRADE
TAS1,"2012/09/13 21:00:00",1301.64,43.3,TRADE
TAS1,"2012/09/13 21:30:00",1237.17,43.28,TRADE
TAS1,"2012/09/13 22:00:00",1181.9,43.28,TRADE
TAS1,"2012/09/13 22:30:00",1139.39,42.12,TRADE
TAS1,"2012/09/13 23:00:00",1094.47,40.99,TRADE
TAS1,"2012/09/13 23:30:00",1061.73,39.22,TRADE
TAS1,"2012/09/14 00:00:00",1006.47,37.24,TRADE
TAS1,"2012/09/14 00:30:00",982.72,37.24,TRADE
TAS1,"2012/09/14 01:00:00",962.82,37.24,TRADE
TAS1,"2012/09/14 01:30:00",952.77,37.24,TRADE
TAS1,"2012/09/14 02:00:00",946.95,37.24,TRADE
TAS1,"2012/09/14 02:30:00",948.23,36.25,TRADE
TAS1,"2012/09/14 03:00:00",935.54,36.18,TRADE
TAS1,"2012/09/14 03:30:00",942.73,36.75,TRADE
TAS1,"2012/09/14 04:00:00",936.51,36.75,TRADE
TAS1,"2012/09/14 04:30:00",920.38,30.52,TRADE
TAS1,"2012/09/14 05:00:00",950.79,31.81,TRADE
TAS1,"2012/09/14 05:30:00",961.66,32.09,TRADE
TAS1,"2012/09/14 06:00:00",982.59,32.37,TRADE
TAS1,"2012/09/14 06:30:00",1046.33,33.96,TRADE
TAS1,"2012/09/14 07:00:00",1113.83,40.28,TRADE
TAS1,"2012/09/14 07:30:00",1165.18,40.3,TRADE
TAS1,"2012/09/14 08:00:00",1200.44,40.29,TRADE
TAS1,"2012/09/14 08:30:00",1237.03,40.3,TRADE
TAS1,"2012/09/14 09:00:00",1229.88,40.3,TRADE
TAS1,"2012/09/14 09:30:00",1193.11,40.26,TRADE
TAS1,"2012/09/14 10:00:00",1181.12,41.14,TRADE
TAS1,"2012/09/14 10:30:00",1152.89,40.57,TRADE
TAS1,"2012/09/14 11:00:00",1117.64,38.39,TRADE
TAS1,"2012/09/14 11:30:00",1075.8,37.77,TRADE
TAS1,"2012/09/14 12:00:00",1057.33,36.52,TRADE
TAS1,"2012/09/14 12:30:00",1022.59,34.9,TRADE
TAS1,"2012/09/14 13:00:00",994.66,34.57,TRADE
TAS1,"2012/09/14 13:30:00",986.22,34.57,TRADE
TAS1,"2012/09/14 14:00:00",990.46,34.57,TRADE
TAS1,"2012/09/14 14:30:00",994.01,34.57,TRADE
TAS1,"2012/09/14 15:00:00",975.7,34.61,TRADE
TAS1,"2012/09/14 15:30:00",970.87,34.13,TRADE
TAS1,"2012/09/14 16:00:00",971.08,34.37,TRADE
TAS1,"2012/09/14 16:30:00",1007.01,39.02,TRADE
TAS1,"2012/09/14 17:00:00",1041.5,37.21,TRADE
TAS1,"2012/09/14 17:30:00",1092.71,37.77,TRADE
TAS1,"2012/09/14 18:00:00",1138.27,39.64,TRADE
TAS1,"2012/09/14 18:30:00",1164.8,39.28,TRADE
TAS1,"2012/09/14 19:00:00",1206.25,40.3,TRADE
TAS1,"2012/09/14 19:30:00",1189.98,40.29,TRADE
TAS1,"2012/09/14 20:00:00",1181.39,40.28,TRADE
TAS1,"2012/09/14 20:30:00",1196.27,40.28,TRADE
TAS1,"2012/09/14 21:00:00",1188.37,40.28,TRADE
TAS1,"2012/09/14 21:30:00",1193.73,40.28,TRADE
TAS1,"2012/09/14 22:00:00",1174.8,40.28,TRADE
TAS1,"2012/09/14 22:30:00",1149.17,39.27,TRADE
TAS1,"2012/09/14 23:00:00",1122.35,39.25,TRADE
TAS1,"2012/09/14 23:30:00",1106.58,35.26,TRADE
TAS1,"2012/09/15 00:00:00",1077.01,37.27,TRADE
TAS1,"2012/09/15 00:30:00",1065.85,34.27,TRADE
TAS1,"2012/09/15 01:00:00",1052.65,34.27,TRADE
TAS1,"2012/09/15 01:30:00",1034.09,34.22,TRADE
TAS1,"2012/09/15 02:00:00",1018.14,34.13,TRADE
TAS1,"2012/09/15 02:30:00",1012.62,38.27,TRADE
TAS1,"2012/09/15 03:00:00",1003.49,34.27,TRADE
TAS1,"2012/09/15 03:30:00",1006.56,34.27,TRADE
TAS1,"2012/09/15 04:00:00",1017.27,34.28,TRADE
TAS1,"2012/09/15 04:30:00",1022.59,33.3,TRADE
TAS1,"2012/09/15 05:00:00",1034.92,34.49,TRADE
TAS1,"2012/09/15 05:30:00",1047.27,33.28,TRADE
TAS1,"2012/09/15 06:00:00",1065.69,33.29,TRADE
TAS1,"2012/09/15 06:30:00",1100.07,33.3,TRADE
TAS1,"2012/09/15 07:00:00",1132.33,38.81,TRADE
TAS1,"2012/09/15 07:30:00",1170.64,40.31,TRADE
TAS1,"2012/09/15 08:00:00",1192.08,40.7,TRADE
TAS1,"2012/09/15 08:30:00",1215.24,41.29,TRADE
TAS1,"2012/09/15 09:00:00",1236.91,41.3,TRADE
TAS1,"2012/09/15 09:30:00",1234.22,41.3,TRADE
TAS1,"2012/09/15 10:00:00",1216.78,41.29,TRADE
TAS1,"2012/09/15 10:30:00",1187.4,41.28,TRADE
TAS1,"2012/09/15 11:00:00",1162.5,41.28,TRADE
TAS1,"2012/09/15 11:30:00",1140.9,41.28,TRADE
TAS1,"2012/09/15 12:00:00",1122.6,41.28,TRADE
TAS1,"2012/09/15 12:30:00",1107.08,41.28,TRADE
TAS1,"2012/09/15 13:00:00",1085.06,38.01,TRADE
TAS1,"2012/09/15 13:30:00",1067.13,35.36,TRADE
TAS1,"2012/09/15 14:00:00",1043.73,35.36,TRADE
TAS1,"2012/09/15 14:30:00",1053.7,35.36,TRADE
TAS1,"2012/09/15 15:00:00",1053.76,37.65,TRADE
TAS1,"2012/09/15 15:30:00",1059.51,38.1,TRADE
TAS1,"2012/09/15 16:00:00",1059.42,38.08,TRADE
TAS1,"2012/09/15 16:30:00",1069.44,38.33,TRADE
TAS1,"2012/09/15 17:00:00",1092.8,39.31,TRADE
TAS1,"2012/09/15 17:30:00",1135.4,41.28,TRADE
TAS1,"2012/09/15 18:00:00",1200.03,48.26,TRADE
TAS1,"2012/09/15 18:30:00",1261.59,52.86,TRADE
TAS1,"2012/09/15 19:00:00",1292.1,55.28,TRADE
TAS1,"2012/09/15 19:30:00",1291.17,52.51,TRADE
TAS1,"2012/09/15 20:00:00",1251.05,42.6,TRADE
TAS1,"2012/09/15 20:30:00",1261.36,41.28,TRADE
TAS1,"2012/09/15 21:00:00",1255.97,41.3,TRADE
TAS1,"2012/09/15 21:30:00",1225.48,41.28,TRADE
TAS1,"2012/09/15 22:00:00",1198.49,41.28,TRADE
TAS1,"2012/09/15 22:30:00",1170.99,41.28,TRADE
TAS1,"2012/09/15 23:00:00",1132.75,38.82,TRADE
TAS1,"2012/09/15 23:30:00",1093.55,36.35,TRADE
TAS1,"2012/09/16 00:00:00",1065.11,35.36,TRADE
TAS1,"2012/09/16 00:30:00",1044.75,35.36,TRADE
TAS1,"2012/09/16 01:00:00",1019.35,35.36,TRADE
TAS1,"2012/09/16 01:30:00",1006.43,30.99,TRADE
TAS1,"2012/09/16 02:00:00",1002.54,30.99,TRADE
TAS1,"2012/09/16 02:30:00",998.52,30.99,TRADE
TAS1,"2012/09/16 03:00:00",1003.12,30.99,TRADE
TAS1,"2012/09/16 03:30:00",981.23,30.99,TRADE
TAS1,"2012/09/16 04:00:00",984.25,30.99,TRADE
TAS1,"2012/09/16 04:30:00",975.56,31.41,TRADE
TAS1,"2012/09/16 05:00:00",958.4,30.47,TRADE
TAS1,"2012/09/16 05:30:00",967.16,30.94,TRADE
TAS1,"2012/09/16 06:00:00",981.53,32.81,TRADE
TAS1,"2012/09/16 06:30:00",982.63,32.81,TRADE
TAS1,"2012/09/16 07:00:00",1012.7,32.9,TRADE
TAS1,"2012/09/16 07:30:00",1025.56,32.9,TRADE
TAS1,"2012/09/16 08:00:00",1056.82,33.28,TRADE
TAS1,"2012/09/16 08:30:00",1128.45,39.99,TRADE
TAS1,"2012/09/16 09:00:00",1146.1,40.28,TRADE
TAS1,"2012/09/16 09:30:00",1163.24,40.29,TRADE
TAS1,"2012/09/16 10:00:00",1168.04,40.29,TRADE
TAS1,"2012/09/16 10:30:00",1162.86,40.29,TRADE
TAS1,"2012/09/16 11:00:00",1151.78,40.28,TRADE
TAS1,"2012/09/16 11:30:00",1133.6,40.28,TRADE
TAS1,"2012/09/16 12:00:00",1136.75,40.29,TRADE
TAS1,"2012/09/16 12:30:00",1109.13,40.29,TRADE
TAS1,"2012/09/16 13:00:00",1101.25,40.28,TRADE
TAS1,"2012/09/16 13:30:00",1094.29,40.26,TRADE
TAS1,"2012/09/16 14:00:00",1081.93,40.14,TRADE
TAS1,"2012/09/16 14:30:00",1087.4,39.45,TRADE
TAS1,"2012/09/16 15:00:00",1111.04,40.28,TRADE
TAS1,"2012/09/16 15:30:00",1115.79,40.29,TRADE
TAS1,"2012/09/16 16:00:00",1118.33,40.29,TRADE
TAS1,"2012/09/16 16:30:00",1129.97,40.28,TRADE
TAS1,"2012/09/16 17:00:00",1155.1,40.29,TRADE
TAS1,"2012/09/16 17:30:00",1195.67,44.46,TRADE
TAS1,"2012/09/16 18:00:00",1241.39,46.12,TRADE
TAS1,"2012/09/16 18:30:00",1275.84,45.29,TRADE
TAS1,"2012/09/16 19:00:00",1297.09,45.29,TRADE
TAS1,"2012/09/16 19:30:00",1300.56,45.29,TRADE
TAS1,"2012/09/16 20:00:00",1273.18,45.28,TRADE
TAS1,"2012/09/16 20:30:00",1269.46,45.28,TRADE
TAS1,"2012/09/16 21:00:00",1257.38,45.28,TRADE
TAS1,"2012/09/16 21:30:00",1220.24,45.28,TRADE
TAS1,"2012/09/16 22:00:00",1184.94,45.28,TRADE
TAS1,"2012/09/16 22:30:00",1149.34,45.28,TRADE
TAS1,"2012/09/16 23:00:00",1117.55,45.28,TRADE
TAS1,"2012/09/16 23:30:00",1085.34,45.28,TRADE
TAS1,"2012/09/17 00:00:00",1065.31,45.28,TRADE
TAS1,"2012/09/17 00:30:00",1042.74,45.25,TRADE
TAS1,"2012/09/17 01:00:00",1031.73,44.72,TRADE
TAS1,"2012/09/17 01:30:00",1021.81,42.17,TRADE
TAS1,"2012/09/17 02:00:00",1023.14,45.25,TRADE
TAS1,"2012/09/17 02:30:00",1021.88,33.3,TRADE
TAS1,"2012/09/17 03:00:00",1020.53,33.3,TRADE
TAS1,"2012/09/17 03:30:00",1034.14,33.3,TRADE
TAS1,"2012/09/17 04:00:00",1030.92,33.3,TRADE
TAS1,"2012/09/17 04:30:00",1051.2,39.24,TRADE
TAS1,"2012/09/17 05:00:00",1039.3,39.76,TRADE
TAS1,"2012/09/17 05:30:00",1063.79,40.24,TRADE
TAS1,"2012/09/17 06:00:00",1082.29,40.26,TRADE
TAS1,"2012/09/17 06:30:00",1156.7,45.25,TRADE
TAS1,"2012/09/17 07:00:00",1228.79,45.29,TRADE
TAS1,"2012/09/17 07:30:00",1298.59,36.28,TRADE
TAS1,"2012/09/17 08:00:00",1349.2,45.3,TRADE
TAS1,"2012/09/17 08:30:00",1382.9,45.3,TRADE
TAS1,"2012/09/17 09:00:00",1385.4,45.3,TRADE
TAS1,"2012/09/17 09:30:00",1375.46,45.3,TRADE
TAS1,"2012/09/17 10:00:00",1346.45,45.3,TRADE
TAS1,"2012/09/17 10:30:00",1315.27,45.29,TRADE
TAS1,"2012/09/17 11:00:00",1298.25,45.3,TRADE
TAS1,"2012/09/17 11:30:00",1274.87,45.28,TRADE
TAS1,"2012/09/17 12:00:00",1273.57,45.28,TRADE
TAS1,"2012/09/17 12:30:00",1262.44,45.28,TRADE
TAS1,"2012/09/17 13:00:00",1242.08,45.28,TRADE
TAS1,"2012/09/17 13:30:00",1213.84,43.62,TRADE
TAS1,"2012/09/17 14:00:00",1240.59,45.29,TRADE
TAS1,"2012/09/17 14:30:00",1271.17,45.28,TRADE
TAS1,"2012/09/17 15:00:00",1277.98,45.28,TRADE
TAS1,"2012/09/17 15:30:00",1285.8,45.29,TRADE
TAS1,"2012/09/17 16:00:00",1298.44,45.29,TRADE
TAS1,"2012/09/17 16:30:00",1329.54,45.76,TRADE
TAS1,"2012/09/17 17:00:00",1350.34,46.84,TRADE
TAS1,"2012/09/17 17:30:00",1400.12,47.66,TRADE
TAS1,"2012/09/17 18:00:00",1414.52,46.59,TRADE
TAS1,"2012/09/17 18:30:00",1445.96,54.96,TRADE
TAS1,"2012/09/17 19:00:00",1441.36,51.73,TRADE
TAS1,"2012/09/17 19:30:00",1421.53,45.8,TRADE
TAS1,"2012/09/17 20:00:00",1397.1,45.3,TRADE
TAS1,"2012/09/17 20:30:00",1373.31,45.3,TRADE
TAS1,"2012/09/17 21:00:00",1334.26,45.3,TRADE
TAS1,"2012/09/17 21:30:00",1294.57,45.29,TRADE
TAS1,"2012/09/17 22:00:00",1250.56,45.28,TRADE
TAS1,"2012/09/17 22:30:00",1213.05,45.29,TRADE
TAS1,"2012/09/17 23:00:00",1169.77,45.28,TRADE
TAS1,"2012/09/17 23:30:00",1132.87,45.29,TRADE
TAS1,"2012/09/18 00:00:00",1102.56,45.26,TRADE
TAS1,"2012/09/18 00:30:00",1075.59,45.26,TRADE
TAS1,"2012/09/18 01:00:00",1055.09,45.24,TRADE
TAS1,"2012/09/18 01:30:00",1035.59,45.25,TRADE
TAS1,"2012/09/18 02:00:00",1045.96,45.25,TRADE
TAS1,"2012/09/18 02:30:00",1036.32,40.28,TRADE
TAS1,"2012/09/18 03:00:00",1039.59,40.29,TRADE
TAS1,"2012/09/18 03:30:00",1036.55,40.28,TRADE
TAS1,"2012/09/18 04:00:00",1038.55,40.28,TRADE
TAS1,"2012/09/18 04:30:00",1050.71,39.33,TRADE
TAS1,"2012/09/18 05:00:00",1070.37,42.23,TRADE
TAS1,"2012/09/18 05:30:00",1077.55,35.15,TRADE
TAS1,"2012/09/18 06:00:00",1114.14,45.3,TRADE
TAS1,"2012/09/18 06:30:00",1165.36,45.28,TRADE
TAS1,"2012/09/18 07:00:00",1235.05,45.3,TRADE
TAS1,"2012/09/18 07:30:00",1292.33,42.61,TRADE
TAS1,"2012/09/18 08:00:00",1335.35,45.3,TRADE
TAS1,"2012/09/18 08:30:00",1362.88,45.3,TRADE
TAS1,"2012/09/18 09:00:00",1351.24,45.73,TRADE
TAS1,"2012/09/18 09:30:00",1338.99,49.05,TRADE
TAS1,"2012/09/18 10:00:00",1326.33,48.73,TRADE
TAS1,"2012/09/18 10:30:00",1295.19,47.51,TRADE
TAS1,"2012/09/18 11:00:00",1271.59,47.34,TRADE
TAS1,"2012/09/18 11:30:00",1257.02,47,TRADE
TAS1,"2012/09/18 12:00:00",1231.8,47.2,TRADE
TAS1,"2012/09/18 12:30:00",1215.64,45.6,TRADE
TAS1,"2012/09/18 13:00:00",1205.75,47.26,TRADE
TAS1,"2012/09/18 13:30:00",1199.51,48.9,TRADE
TAS1,"2012/09/18 14:00:00",1192.61,50.32,TRADE
TAS1,"2012/09/18 14:30:00",1204.46,49.18,TRADE
TAS1,"2012/09/18 15:00:00",1173.38,47.52,TRADE
TAS1,"2012/09/18 15:30:00",1206.41,48.54,TRADE
TAS1,"2012/09/18 16:00:00",1221.54,47.67,TRADE
TAS1,"2012/09/18 16:30:00",1215.24,49.02,TRADE
TAS1,"2012/09/18 17:00:00",1206,46.25,TRADE
TAS1,"2012/09/18 17:30:00",1257.01,47.49,TRADE
TAS1,"2012/09/18 18:00:00",1306.87,50.86,TRADE
TAS1,"2012/09/18 18:30:00",1335.32,51.26,TRADE
TAS1,"2012/09/18 19:00:00",1359.54,52.06,TRADE
TAS1,"2012/09/18 19:30:00",1341.96,51.1,TRADE
TAS1,"2012/09/18 20:00:00",1317.39,50.76,TRADE
TAS1,"2012/09/18 20:30:00",1308.8,49.47,TRADE
TAS1,"2012/09/18 21:00:00",1278.48,45.3,TRADE
TAS1,"2012/09/18 21:30:00",1249.2,45.3,TRADE
TAS1,"2012/09/18 22:00:00",1197.08,45.28,TRADE
TAS1,"2012/09/18 22:30:00",1161.04,45.3,TRADE
TAS1,"2012/09/18 23:00:00",1118.01,45.28,TRADE
TAS1,"2012/09/18 23:30:00",1081.29,45.28,TRADE
TAS1,"2012/09/19 00:00:00",1037.07,45.28,TRADE
TAS1,"2012/09/19 00:30:00",1030.53,45.13,TRADE
TAS1,"2012/09/19 01:00:00",1011.2,45.28,TRADE
TAS1,"2012/09/19 01:30:00",1006.01,45.28,TRADE
TAS1,"2012/09/19 02:00:00",997.15,44.31,TRADE
TAS1,"2012/09/19 02:30:00",990.4,42.02,TRADE
TAS1,"2012/09/19 03:00:00",1008.79,40,TRADE
TAS1,"2012/09/19 03:30:00",1031.68,40.68,TRADE
TAS1,"2012/09/19 04:00:00",1023.36,35.18,TRADE
TAS1,"2012/09/19 04:30:00",1024.65,41.52,TRADE
TAS1,"2012/09/19 05:00:00",1016.12,40.17,TRADE
TAS1,"2012/09/19 05:30:00",1026.61,44.87,TRADE
TAS1,"2012/09/19 06:00:00",1053.82,45.13,TRADE
TAS1,"2012/09/19 06:30:00",1128.57,45.32,TRADE
TAS1,"2012/09/19 07:00:00",1173.03,43.6,TRADE
TAS1,"2012/09/19 07:30:00",1224.67,45.74,TRADE
TAS1,"2012/09/19 08:00:00",1286.13,46.26,TRADE
TAS1,"2012/09/19 08:30:00",1340.04,51.3,TRADE
TAS1,"2012/09/19 09:00:00",1301.74,47.27,TRADE
TAS1,"2012/09/19 09:30:00",1271.76,50.77,TRADE
TAS1,"2012/09/19 10:00:00",1227.22,46.43,TRADE
TAS1,"2012/09/19 10:30:00",1180.54,45.6,TRADE
TAS1,"2012/09/19 11:00:00",1154.11,45.3,TRADE
TAS1,"2012/09/19 11:30:00",1168.64,46.62,TRADE
TAS1,"2012/09/19 12:00:00",1158.06,45.66,TRADE
TAS1,"2012/09/19 12:30:00",1120.2,45.35,TRADE
TAS1,"2012/09/19 13:00:00",1102.06,45.3,TRADE
TAS1,"2012/09/19 13:30:00",1089.42,45.3,TRADE
TAS1,"2012/09/19 14:00:00",1081.01,45.3,TRADE
TAS1,"2012/09/19 14:30:00",1126.41,45.3,TRADE
TAS1,"2012/09/19 15:00:00",1127.08,46.07,TRADE
TAS1,"2012/09/19 15:30:00",1123.43,43.79,TRADE
TAS1,"2012/09/19 16:00:00",1146.68,46.12,TRADE
TAS1,"2012/09/19 16:30:00",1174.4,45.3,TRADE
TAS1,"2012/09/19 17:00:00",1179.49,45.3,TRADE
TAS1,"2012/09/19 17:30:00",1224.29,46.24,TRADE
TAS1,"2012/09/19 18:00:00",1268.6,49.15,TRADE
TAS1,"2012/09/19 18:30:00",1269.78,49.48,TRADE
TAS1,"2012/09/19 19:00:00",1282.25,52.23,TRADE
TAS1,"2012/09/19 19:30:00",1260.52,45.3,TRADE
TAS1,"2012/09/19 20:00:00",1239.18,45.3,TRADE
TAS1,"2012/09/19 20:30:00",1233.95,45.3,TRADE
TAS1,"2012/09/19 21:00:00",1193.3,45.29,TRADE
TAS1,"2012/09/19 21:30:00",1162,45.28,TRADE
TAS1,"2012/09/19 22:00:00",1117.01,40.91,TRADE
TAS1,"2012/09/19 22:30:00",1084.05,44.94,TRADE
TAS1,"2012/09/19 23:00:00",1049.1,43.1,TRADE
TAS1,"2012/09/19 23:30:00",1006.16,44.47,TRADE
TAS1,"2012/09/20 00:00:00",968.9,44.94,TRADE
TAS1,"2012/09/20 00:30:00",929.92,42.1,TRADE
TAS1,"2012/09/20 01:00:00",926.66,43.66,TRADE
TAS1,"2012/09/20 01:30:00",933.34,44.14,TRADE
TAS1,"2012/09/20 02:00:00",941.99,41.37,TRADE
TAS1,"2012/09/20 02:30:00",936.96,38.84,TRADE
TAS1,"2012/09/20 03:00:00",942.96,34.88,TRADE
TAS1,"2012/09/20 03:30:00",954.93,35.67,TRADE
TAS1,"2012/09/20 04:00:00",960.09,34.95,TRADE
TAS1,"2012/09/20 04:30:00",967.51,34.9,TRADE
TAS1,"2012/09/20 05:00:00",968.95,35.96,TRADE
TAS1,"2012/09/20 05:30:00",964.27,40.53,TRADE
TAS1,"2012/09/20 06:00:00",998.26,41,TRADE
TAS1,"2012/09/20 06:30:00",1045.77,40.74,TRADE
TAS1,"2012/09/20 07:00:00",1109.54,45.13,TRADE
TAS1,"2012/09/20 07:30:00",1181.82,41.47,TRADE
TAS1,"2012/09/20 08:00:00",1232.1,46.03,TRADE
TAS1,"2012/09/20 08:30:00",1235.05,47.43,TRADE
TAS1,"2012/09/20 09:00:00",1226.63,50.32,TRADE
TAS1,"2012/09/20 09:30:00",1227.52,51.77,TRADE
TAS1,"2012/09/20 10:00:00",1209.96,48.84,TRADE
TAS1,"2012/09/20 10:30:00",1167.87,48.86,TRADE
TAS1,"2012/09/20 11:00:00",1131.38,46.7,TRADE
TAS1,"2012/09/20 11:30:00",1095.6,45.63,TRADE
TAS1,"2012/09/20 12:00:00",1109.2,45.61,TRADE
TAS1,"2012/09/20 12:30:00",1092.7,42.14,TRADE
TAS1,"2012/09/20 13:00:00",1072.12,40.45,TRADE
TAS1,"2012/09/20 13:30:00",1079.15,40.73,TRADE
TAS1,"2012/09/20 14:00:00",1075.18,40.41,TRADE
TAS1,"2012/09/20 14:30:00",1072.38,38.45,TRADE
TAS1,"2012/09/20 15:00:00",1067.24,37.13,TRADE
TAS1,"2012/09/20 15:30:00",1072.18,38.78,TRADE
TAS1,"2012/09/20 16:00:00",1073.71,36.94,TRADE
TAS1,"2012/09/20 16:30:00",1084.66,38.18,TRADE
TAS1,"2012/09/20 17:00:00",1109.86,37.77,TRADE
TAS1,"2012/09/20 17:30:00",1140.32,43.75,TRADE
TAS1,"2012/09/20 18:00:00",1181.17,45.29,TRADE
TAS1,"2012/09/20 18:30:00",1218.66,42.5,TRADE
TAS1,"2012/09/20 19:00:00",1243.66,37.95,TRADE
TAS1,"2012/09/20 19:30:00",1222.9,44.03,TRADE
TAS1,"2012/09/20 20:00:00",1195.89,40.64,TRADE
TAS1,"2012/09/20 20:30:00",1172.83,35.68,TRADE
TAS1,"2012/09/20 21:00:00",1141.69,34.27,TRADE
TAS1,"2012/09/20 21:30:00",1109.19,34.19,TRADE
TAS1,"2012/09/20 22:00:00",1105.67,34.13,TRADE
TAS1,"2012/09/20 22:30:00",1073.8,34.1,TRADE
TAS1,"2012/09/20 23:00:00",1029.44,34.09,TRADE
TAS1,"2012/09/20 23:30:00",999.17,34.09,TRADE
TAS1,"2012/09/21 00:00:00",966.49,34.1,TRADE
TAS1,"2012/09/21 00:30:00",944.75,34.09,TRADE
TAS1,"2012/09/21 01:00:00",936.65,34.09,TRADE
TAS1,"2012/09/21 01:30:00",948.69,34.1,TRADE
TAS1,"2012/09/21 02:00:00",959.44,34.1,TRADE
TAS1,"2012/09/21 02:30:00",981.72,34.1,TRADE
TAS1,"2012/09/21 03:00:00",994.67,34.09,TRADE
TAS1,"2012/09/21 03:30:00",1000.51,34.08,TRADE
TAS1,"2012/09/21 04:00:00",1008.39,34.08,TRADE
TAS1,"2012/09/21 04:30:00",1016.51,34.08,TRADE
TAS1,"2012/09/21 05:00:00",1038.66,34.09,TRADE
TAS1,"2012/09/21 05:30:00",1053.26,34.09,TRADE
TAS1,"2012/09/21 06:00:00",1092.32,34.63,TRADE
TAS1,"2012/09/21 06:30:00",1123.12,33.97,TRADE
TAS1,"2012/09/21 07:00:00",1150.29,37.48,TRADE
TAS1,"2012/09/21 07:30:00",1197.08,39.44,TRADE
TAS1,"2012/09/21 08:00:00",1239.74,40.34,TRADE
TAS1,"2012/09/21 08:30:00",1254.77,41.35,TRADE
TAS1,"2012/09/21 09:00:00",1262.53,34.27,TRADE
TAS1,"2012/09/21 09:30:00",1270.41,46.31,TRADE
TAS1,"2012/09/21 10:00:00",1251.16,42.66,TRADE
TAS1,"2012/09/21 10:30:00",1222.67,42.15,TRADE
TAS1,"2012/09/21 11:00:00",1212.85,43.67,TRADE
TAS1,"2012/09/21 11:30:00",1186.68,36.03,TRADE
TAS1,"2012/09/21 12:00:00",1177.29,34.1,TRADE
TAS1,"2012/09/21 12:30:00",1145.73,34.1,TRADE
TAS1,"2012/09/21 13:00:00",1128.85,34.1,TRADE
TAS1,"2012/09/21 13:30:00",1146.9,34.1,TRADE
TAS1,"2012/09/21 14:00:00",1131.97,34.1,TRADE
TAS1,"2012/09/21 14:30:00",1148.23,34.1,TRADE
TAS1,"2012/09/21 15:00:00",1136.98,34.1,TRADE
TAS1,"2012/09/21 15:30:00",1135.31,34.1,TRADE
TAS1,"2012/09/21 16:00:00",1137.01,34.1,TRADE
TAS1,"2012/09/21 16:30:00",1151.76,34.09,TRADE
TAS1,"2012/09/21 17:00:00",1171.2,34.08,TRADE
TAS1,"2012/09/21 17:30:00",1190,34.08,TRADE
TAS1,"2012/09/21 18:00:00",1210.8,34.08,TRADE
TAS1,"2012/09/21 18:30:00",1247.26,34.1,TRADE
TAS1,"2012/09/21 19:00:00",1255.52,34.71,TRADE
TAS1,"2012/09/21 19:30:00",1235.11,34.1,TRADE
TAS1,"2012/09/21 20:00:00",1207.73,34.09,TRADE
TAS1,"2012/09/21 20:30:00",1206.36,34.08,TRADE
TAS1,"2012/09/21 21:00:00",1191.45,34.08,TRADE
TAS1,"2012/09/21 21:30:00",1160.31,34.06,TRADE
TAS1,"2012/09/21 22:00:00",1127.71,34.07,TRADE
TAS1,"2012/09/21 22:30:00",1093.28,32.52,TRADE
TAS1,"2012/09/21 23:00:00",1063.26,32.02,TRADE
TAS1,"2012/09/21 23:30:00",1051.1,31.97,TRADE
TAS1,"2012/09/22 00:00:00",1010.5,32.24,TRADE
TAS1,"2012/09/22 00:30:00",990.32,31.86,TRADE
TAS1,"2012/09/22 01:00:00",966.85,33.19,TRADE
TAS1,"2012/09/22 01:30:00",952.37,35.58,TRADE
TAS1,"2012/09/22 02:00:00",950.12,34.08,TRADE
TAS1,"2012/09/22 02:30:00",949.92,34.08,TRADE
TAS1,"2012/09/22 03:00:00",949.44,34,TRADE
TAS1,"2012/09/22 03:30:00",947.4,33.94,TRADE
TAS1,"2012/09/22 04:00:00",954.4,33.7,TRADE
TAS1,"2012/09/22 04:30:00",960.79,33.71,TRADE
TAS1,"2012/09/22 05:00:00",950.47,33.51,TRADE
TAS1,"2012/09/22 05:30:00",956.87,34.01,TRADE
TAS1,"2012/09/22 06:00:00",962.07,34.07,TRADE
TAS1,"2012/09/22 06:30:00",979.74,34.08,TRADE
TAS1,"2012/09/22 07:00:00",1024.33,34.09,TRADE
TAS1,"2012/09/22 07:30:00",1053.95,34.08,TRADE
TAS1,"2012/09/22 08:00:00",1081.87,34.1,TRADE
TAS1,"2012/09/22 08:30:00",1098.58,36.74,TRADE
TAS1,"2012/09/22 09:00:00",1150.57,36.98,TRADE
TAS1,"2012/09/22 09:30:00",1179.3,40.71,TRADE
TAS1,"2012/09/22 10:00:00",1179.75,35.11,TRADE
TAS1,"2012/09/22 10:30:00",1176.52,34.13,TRADE
TAS1,"2012/09/22 11:00:00",1161.41,34.92,TRADE
TAS1,"2012/09/22 11:30:00",1140.8,34.09,TRADE
TAS1,"2012/09/22 12:00:00",1117.92,34.08,TRADE
TAS1,"2012/09/22 12:30:00",1094.36,34.1,TRADE
TAS1,"2012/09/22 13:00:00",1082.5,34.1,TRADE
TAS1,"2012/09/22 13:30:00",1060.89,34.09,TRADE
TAS1,"2012/09/22 14:00:00",1047.02,34.1,TRADE
TAS1,"2012/09/22 14:30:00",1056.25,34.1,TRADE
TAS1,"2012/09/22 15:00:00",1055.74,34.1,TRADE
TAS1,"2012/09/22 15:30:00",1069.03,34.1,TRADE
TAS1,"2012/09/22 16:00:00",1085.6,34.21,TRADE
TAS1,"2012/09/22 16:30:00",1093.43,34.1,TRADE
TAS1,"2012/09/22 17:00:00",1104.05,34.1,TRADE
TAS1,"2012/09/22 17:30:00",1139.59,34.64,TRADE
TAS1,"2012/09/22 18:00:00",1181.46,34.8,TRADE
TAS1,"2012/09/22 18:30:00",1209.49,34.1,TRADE
TAS1,"2012/09/22 19:00:00",1197.45,34.09,TRADE
TAS1,"2012/09/22 19:30:00",1157.35,34.08,TRADE
TAS1,"2012/09/22 20:00:00",1140.49,34.09,TRADE
TAS1,"2012/09/22 20:30:00",1153.74,34.1,TRADE
TAS1,"2012/09/22 21:00:00",1123.55,38.05,TRADE
TAS1,"2012/09/22 21:30:00",1097.22,36.78,TRADE
TAS1,"2012/09/22 22:00:00",1058.78,34.27,TRADE
TAS1,"2012/09/22 22:30:00",1017.39,34.08,TRADE
TAS1,"2012/09/22 23:00:00",985.31,34.09,TRADE
TAS1,"2012/09/22 23:30:00",958.09,34.08,TRADE
TAS1,"2012/09/23 00:00:00",929.25,34.08,TRADE
TAS1,"2012/09/23 00:30:00",891.72,34.01,TRADE
TAS1,"2012/09/23 01:00:00",881.12,33.06,TRADE
TAS1,"2012/09/23 01:30:00",873.54,33.29,TRADE
TAS1,"2012/09/23 02:00:00",862.76,31.35,TRADE
TAS1,"2012/09/23 02:30:00",851.52,34.08,TRADE
TAS1,"2012/09/23 03:00:00",831.82,33.42,TRADE
TAS1,"2012/09/23 03:30:00",825.36,33.08,TRADE
TAS1,"2012/09/23 04:00:00",834.42,33.1,TRADE
TAS1,"2012/09/23 04:30:00",838.81,33.59,TRADE
TAS1,"2012/09/23 05:00:00",848.56,33.89,TRADE
TAS1,"2012/09/23 05:30:00",863.48,34.2,TRADE
TAS1,"2012/09/23 06:00:00",893.27,34.27,TRADE
TAS1,"2012/09/23 06:30:00",931.57,32.19,TRADE
TAS1,"2012/09/23 07:00:00",967.11,32.91,TRADE
TAS1,"2012/09/23 07:30:00",941.67,34.2,TRADE
TAS1,"2012/09/23 08:00:00",977.85,35.14,TRADE
TAS1,"2012/09/23 08:30:00",1035.97,34.42,TRADE
TAS1,"2012/09/23 09:00:00",1071.41,33.79,TRADE
TAS1,"2012/09/23 09:30:00",1078.62,36.28,TRADE
TAS1,"2012/09/23 10:00:00",1099.9,37.28,TRADE
TAS1,"2012/09/23 10:30:00",1148.46,36.78,TRADE
TAS1,"2012/09/23 11:00:00",1149.42,37.28,TRADE
TAS1,"2012/09/23 11:30:00",1153.07,37.29,TRADE
TAS1,"2012/09/23 12:00:00",1152.55,36.08,TRADE
TAS1,"2012/09/23 12:30:00",1139.78,36.78,TRADE
TAS1,"2012/09/23 13:00:00",1148.53,37.15,TRADE
TAS1,"2012/09/23 13:30:00",1121.38,36.31,TRADE
TAS1,"2012/09/23 14:00:00",1069.1,33.25,TRADE
TAS1,"2012/09/23 14:30:00",1116.7,33.91,TRADE
TAS1,"2012/09/23 15:00:00",1126.15,33.52,TRADE
TAS1,"2012/09/23 15:30:00",1113.93,32.8,TRADE
TAS1,"2012/09/23 16:00:00",1112.81,33.61,TRADE
TAS1,"2012/09/23 16:30:00",1127.63,36.73,TRADE
TAS1,"2012/09/23 17:00:00",1147.84,37.29,TRADE
TAS1,"2012/09/23 17:30:00",1183.24,40.69,TRADE
TAS1,"2012/09/23 18:00:00",1206.04,40.61,TRADE
TAS1,"2012/09/23 18:30:00",1254.54,42.28,TRADE
TAS1,"2012/09/23 19:00:00",1309.93,46.98,TRADE
TAS1,"2012/09/23 19:30:00",1282.66,43.47,TRADE
TAS1,"2012/09/23 20:00:00",1224.23,41.92,TRADE
TAS1,"2012/09/23 20:30:00",1198.6,42.23,TRADE
TAS1,"2012/09/23 21:00:00",1128.47,38.11,TRADE
TAS1,"2012/09/23 21:30:00",1154.28,38.07,TRADE
TAS1,"2012/09/23 22:00:00",1093.68,37.28,TRADE
TAS1,"2012/09/23 22:30:00",1039.39,37.28,TRADE
TAS1,"2012/09/23 23:00:00",1003.79,37.24,TRADE
TAS1,"2012/09/23 23:30:00",965.98,36.11,TRADE
TAS1,"2012/09/24 00:00:00",933.13,34.71,TRADE
TAS1,"2012/09/24 00:30:00",946.8,35.18,TRADE
TAS1,"2012/09/24 01:00:00",931.1,34.75,TRADE
TAS1,"2012/09/24 01:30:00",989.11,36.29,TRADE
TAS1,"2012/09/24 02:00:00",978.21,31.2,TRADE
TAS1,"2012/09/24 02:30:00",969.41,30.3,TRADE
TAS1,"2012/09/24 03:00:00",993.23,30.3,TRADE
TAS1,"2012/09/24 03:30:00",1011.25,30.85,TRADE
TAS1,"2012/09/24 04:00:00",939.88,30.29,TRADE
TAS1,"2012/09/24 04:30:00",937.39,33.27,TRADE
TAS1,"2012/09/24 05:00:00",989.8,33.43,TRADE
TAS1,"2012/09/24 05:30:00",1003.51,33.41,TRADE
TAS1,"2012/09/24 06:00:00",1012.75,33.58,TRADE
TAS1,"2012/09/24 06:30:00",1101.76,37.15,TRADE
TAS1,"2012/09/24 07:00:00",1192.16,37.71,TRADE
TAS1,"2012/09/24 07:30:00",1282.23,39.82,TRADE
TAS1,"2012/09/24 08:00:00",1328.49,38.69,TRADE
TAS1,"2012/09/24 08:30:00",1349.36,37.32,TRADE
TAS1,"2012/09/24 09:00:00",1312.4,37.3,TRADE
TAS1,"2012/09/24 09:30:00",1295.54,37.3,TRADE
TAS1,"2012/09/24 10:00:00",1230.48,37.28,TRADE
TAS1,"2012/09/24 10:30:00",1173.34,37.28,TRADE
TAS1,"2012/09/24 11:00:00",1125.28,37.28,TRADE
TAS1,"2012/09/24 11:30:00",1107.91,37.28,TRADE
TAS1,"2012/09/24 12:00:00",1153.34,37.29,TRADE
TAS1,"2012/09/24 12:30:00",1172.08,38.95,TRADE
TAS1,"2012/09/24 13:00:00",1154.53,41.65,TRADE
TAS1,"2012/09/24 13:30:00",1157.54,42.28,TRADE
TAS1,"2012/09/24 14:00:00",1173.6,42.28,TRADE
TAS1,"2012/09/24 14:30:00",1173,42.28,TRADE
TAS1,"2012/09/24 15:00:00",1161.17,42.28,TRADE
TAS1,"2012/09/24 15:30:00",1161.75,42.28,TRADE
TAS1,"2012/09/24 16:00:00",1174.78,42.28,TRADE
TAS1,"2012/09/24 16:30:00",1185.89,42.26,TRADE
TAS1,"2012/09/24 17:00:00",1194.19,42.26,TRADE
TAS1,"2012/09/24 17:30:00",1232.27,42.28,TRADE
TAS1,"2012/09/24 18:00:00",1302,42.3,TRADE
TAS1,"2012/09/24 18:30:00",1341.7,47.94,TRADE
TAS1,"2012/09/24 19:00:00",1384.34,54.93,TRADE
TAS1,"2012/09/24 19:30:00",1370.73,50.86,TRADE
TAS1,"2012/09/24 20:00:00",1362.98,47.59,TRADE
TAS1,"2012/09/24 20:30:00",1338.94,42.3,TRADE
TAS1,"2012/09/24 21:00:00",1313.84,42.28,TRADE
TAS1,"2012/09/24 21:30:00",1271.49,42.28,TRADE
TAS1,"2012/09/24 22:00:00",1234.23,42.25,TRADE
TAS1,"2012/09/24 22:30:00",1183.25,38.3,TRADE
TAS1,"2012/09/24 23:00:00",1131.77,42.22,TRADE
TAS1,"2012/09/24 23:30:00",1058.88,35.56,TRADE
TAS1,"2012/09/25 00:00:00",1015.49,34.8,TRADE
TAS1,"2012/09/25 00:30:00",990.24,34.79,TRADE
TAS1,"2012/09/25 01:00:00",978.02,34.74,TRADE
TAS1,"2012/09/25 01:30:00",977.19,34.66,TRADE
TAS1,"2012/09/25 02:00:00",975.39,34.54,TRADE
TAS1,"2012/09/25 02:30:00",980.61,34.56,TRADE
TAS1,"2012/09/25 03:00:00",992.04,34.35,TRADE
TAS1,"2012/09/25 03:30:00",993.41,34.11,TRADE
TAS1,"2012/09/25 04:00:00",1010.26,34.75,TRADE
TAS1,"2012/09/25 04:30:00",1020.96,35.27,TRADE
TAS1,"2012/09/25 05:00:00",1041.04,36.73,TRADE
TAS1,"2012/09/25 05:30:00",1057.44,37.28,TRADE
TAS1,"2012/09/25 06:00:00",1099.01,37.28,TRADE
TAS1,"2012/09/25 06:30:00",1182.34,37.28,TRADE
TAS1,"2012/09/25 07:00:00",1286.6,37.3,TRADE
TAS1,"2012/09/25 07:30:00",1376.46,38.5,TRADE
TAS1,"2012/09/25 08:00:00",1400.88,37.28,TRADE
TAS1,"2012/09/25 08:30:00",1416.79,37.28,TRADE
TAS1,"2012/09/25 09:00:00",1389.82,37.28,TRADE
TAS1,"2012/09/25 09:30:00",1353.45,37.27,TRADE
TAS1,"2012/09/25 10:00:00",1318.04,37.24,TRADE
TAS1,"2012/09/25 10:30:00",1256.89,37.14,TRADE
TAS1,"2012/09/25 11:00:00",1257.86,37.23,TRADE
TAS1,"2012/09/25 11:30:00",1254.62,34.47,TRADE
TAS1,"2012/09/25 12:00:00",1228.3,41.9,TRADE
TAS1,"2012/09/25 12:30:00",1220.79,41.42,TRADE
TAS1,"2012/09/25 13:00:00",1195.43,43.15,TRADE
TAS1,"2012/09/25 13:30:00",1179.19,39.76,TRADE
TAS1,"2012/09/25 14:00:00",1153.8,40.59,TRADE
TAS1,"2012/09/25 14:30:00",1180.24,37.29,TRADE
TAS1,"2012/09/25 15:00:00",1112.87,37.28,TRADE
TAS1,"2012/09/25 15:30:00",1189.07,37.29,TRADE
TAS1,"2012/09/25 16:00:00",1213.1,40.62,TRADE
TAS1,"2012/09/25 16:30:00",1224.39,42.28,TRADE
TAS1,"2012/09/25 17:00:00",1242.68,42.29,TRADE
TAS1,"2012/09/25 17:30:00",1275.95,42.29,TRADE
TAS1,"2012/09/25 18:00:00",1322.23,42.3,TRADE
TAS1,"2012/09/25 18:30:00",1357.29,50.82,TRADE
TAS1,"2012/09/25 19:00:00",1383.65,51.31,TRADE
TAS1,"2012/09/25 19:30:00",1386.23,44.27,TRADE
TAS1,"2012/09/25 20:00:00",1364.94,42.24,TRADE
TAS1,"2012/09/25 20:30:00",1355.71,42.28,TRADE
TAS1,"2012/09/25 21:00:00",1332.83,42.29,TRADE
TAS1,"2012/09/25 21:30:00",1296.78,42.28,TRADE
TAS1,"2012/09/25 22:00:00",1249.56,42.01,TRADE
TAS1,"2012/09/25 22:30:00",1204.76,42.28,TRADE
TAS1,"2012/09/25 23:00:00",1149.25,37.28,TRADE
TAS1,"2012/09/25 23:30:00",1093.85,36.78,TRADE
TAS1,"2012/09/26 00:00:00",1058.88,37.28,TRADE
TAS1,"2012/09/26 00:30:00",1033.62,36.74,TRADE
TAS1,"2012/09/26 01:00:00",1010.69,34.83,TRADE
TAS1,"2012/09/26 01:30:00",983.04,34.53,TRADE
TAS1,"2012/09/26 02:00:00",988.13,33.59,TRADE
TAS1,"2012/09/26 02:30:00",982.43,33.24,TRADE
TAS1,"2012/09/26 03:00:00",981.3,33.23,TRADE
TAS1,"2012/09/26 03:30:00",962.69,33.21,TRADE
TAS1,"2012/09/26 04:00:00",965.04,33.22,TRADE
TAS1,"2012/09/26 04:30:00",973.94,32.71,TRADE
TAS1,"2012/09/26 05:00:00",974.89,33.12,TRADE
TAS1,"2012/09/26 05:30:00",998.56,33.63,TRADE
TAS1,"2012/09/26 06:00:00",1036.32,33.72,TRADE
TAS1,"2012/09/26 06:30:00",1100.17,37.28,TRADE
TAS1,"2012/09/26 07:00:00",1164.5,37.29,TRADE
TAS1,"2012/09/26 07:30:00",1262.86,37.44,TRADE
TAS1,"2012/09/26 08:00:00",1269.08,36.78,TRADE
TAS1,"2012/09/26 08:30:00",1278.32,37.3,TRADE
TAS1,"2012/09/26 09:00:00",1242.72,37.3,TRADE
TAS1,"2012/09/26 09:30:00",1204.74,37.29,TRADE
TAS1,"2012/09/26 10:00:00",1156.36,37.28,TRADE
TAS1,"2012/09/26 10:30:00",1116.99,37.28,TRADE
TAS1,"2012/09/26 11:00:00",1100.51,36.23,TRADE
TAS1,"2012/09/26 11:30:00",1067.73,34.75,TRADE
TAS1,"2012/09/26 12:00:00",1040.02,34.15,TRADE
TAS1,"2012/09/26 12:30:00",1021.33,33.9,TRADE
TAS1,"2012/09/26 13:00:00",1012.14,33.86,TRADE
TAS1,"2012/09/26 13:30:00",1018.48,33.79,TRADE
TAS1,"2012/09/26 14:00:00",1012.44,33.34,TRADE
TAS1,"2012/09/26 14:30:00",1007.69,33.38,TRADE
TAS1,"2012/09/26 15:00:00",1003.73,33.26,TRADE
TAS1,"2012/09/26 15:30:00",1030.02,33.96,TRADE
TAS1,"2012/09/26 16:00:00",1012.79,33.78,TRADE
TAS1,"2012/09/26 16:30:00",1041.02,34.82,TRADE
TAS1,"2012/09/26 17:00:00",1071.33,36.17,TRADE
TAS1,"2012/09/26 17:30:00",1115.16,37.28,TRADE
TAS1,"2012/09/26 18:00:00",1160.98,37.28,TRADE
TAS1,"2012/09/26 18:30:00",1187.28,37.28,TRADE
TAS1,"2012/09/26 19:00:00",1212.96,37.28,TRADE
TAS1,"2012/09/26 19:30:00",1201.78,37.28,TRADE
TAS1,"2012/09/26 20:00:00",1175.08,37.28,TRADE
TAS1,"2012/09/26 20:30:00",1167.54,37.28,TRADE
TAS1,"2012/09/26 21:00:00",1138.99,37.28,TRADE
TAS1,"2012/09/26 21:30:00",1121.4,37.05,TRADE
TAS1,"2012/09/26 22:00:00",1083.58,34.42,TRADE
TAS1,"2012/09/26 22:30:00",1041.41,34.29,TRADE
TAS1,"2012/09/26 23:00:00",1012.55,33.46,TRADE
TAS1,"2012/09/26 23:30:00",969.44,34.74,TRADE
TAS1,"2012/09/27 00:00:00",934.84,33.69,TRADE
TAS1,"2012/09/27 00:30:00",915.58,33.29,TRADE
TAS1,"2012/09/27 01:00:00",913.62,33.25,TRADE
TAS1,"2012/09/27 01:30:00",911.08,33.24,TRADE
TAS1,"2012/09/27 02:00:00",911.14,33.21,TRADE
TAS1,"2012/09/27 02:30:00",897.95,33.2,TRADE
TAS1,"2012/09/27 03:00:00",898.4,34.16,TRADE
TAS1,"2012/09/27 03:30:00",902.47,34.09,TRADE
TAS1,"2012/09/27 04:00:00",916.23,34.14,TRADE
TAS1,"2012/09/27 04:30:00",939,34.39,TRADE
TAS1,"2012/09/27 05:00:00",950.68,34.6,TRADE
TAS1,"2012/09/27 05:30:00",965.67,33.36,TRADE
TAS1,"2012/09/27 06:00:00",1010.63,33.75,TRADE
TAS1,"2012/09/27 06:30:00",1075.24,33.38,TRADE
TAS1,"2012/09/27 07:00:00",1158.56,34.93,TRADE
TAS1,"2012/09/27 07:30:00",1235.38,37.28,TRADE
TAS1,"2012/09/27 08:00:00",1250.87,36.81,TRADE
TAS1,"2012/09/27 08:30:00",1246.38,37.28,TRADE
TAS1,"2012/09/27 09:00:00",1200.59,37.55,TRADE
TAS1,"2012/09/27 09:30:00",1126.56,37.28,TRADE
TAS1,"2012/09/27 10:00:00",1089.86,35.69,TRADE
TAS1,"2012/09/27 10:30:00",1044.91,34.27,TRADE
TAS1,"2012/09/27 11:00:00",1032.2,35.78,TRADE
TAS1,"2012/09/27 11:30:00",1016.81,35.85,TRADE
TAS1,"2012/09/27 12:00:00",1007.89,34.38,TRADE
TAS1,"2012/09/27 12:30:00",995.57,34.78,TRADE
TAS1,"2012/09/27 13:00:00",998.93,34.38,TRADE
TAS1,"2012/09/27 13:30:00",980.68,34.27,TRADE
TAS1,"2012/09/27 14:00:00",992.17,34.27,TRADE
TAS1,"2012/09/27 14:30:00",1006.37,34.94,TRADE
TAS1,"2012/09/27 15:00:00",1001.69,34.28,TRADE
TAS1,"2012/09/27 15:30:00",1017.65,34.27,TRADE
TAS1,"2012/09/27 16:00:00",1030.5,34.28,TRADE
TAS1,"2012/09/27 16:30:00",1044.85,34.31,TRADE
TAS1,"2012/09/27 17:00:00",1074.06,35.85,TRADE
TAS1,"2012/09/27 17:30:00",1105.36,37.28,TRADE
TAS1,"2012/09/27 18:00:00",1146.95,37.28,TRADE
TAS1,"2012/09/27 18:30:00",1184.86,37.28,TRADE
TAS1,"2012/09/27 19:00:00",1223.16,37.28,TRADE
TAS1,"2012/09/27 19:30:00",1222.68,37.28,TRADE
TAS1,"2012/09/27 20:00:00",1203.21,37.28,TRADE
TAS1,"2012/09/27 20:30:00",1202.92,37.28,TRADE
TAS1,"2012/09/27 21:00:00",1202.3,37.28,TRADE
TAS1,"2012/09/27 21:30:00",1177.24,37.28,TRADE
TAS1,"2012/09/27 22:00:00",1148,37.12,TRADE
TAS1,"2012/09/27 22:30:00",1114.48,37.28,TRADE
TAS1,"2012/09/27 23:00:00",1070.69,35.27,TRADE
TAS1,"2012/09/27 23:30:00",1022.34,34.9,TRADE
TAS1,"2012/09/28 00:00:00",1004.3,34.18,TRADE
TAS1,"2012/09/28 00:30:00",957.18,33.53,TRADE
TAS1,"2012/09/28 01:00:00",915.56,33.3,TRADE
TAS1,"2012/09/28 01:30:00",845.71,38.46,TRADE
TAS1,"2012/09/28 02:00:00",820.61,35.97,TRADE
TAS1,"2012/09/28 02:30:00",875.88,33.31,TRADE
TAS1,"2012/09/28 03:00:00",861.35,35.95,TRADE
TAS1,"2012/09/28 03:30:00",832.25,34.42,TRADE
TAS1,"2012/09/28 04:00:00",828.33,34.87,TRADE
TAS1,"2012/09/28 04:30:00",843.99,34.94,TRADE
TAS1,"2012/09/28 05:00:00",864.84,34.64,TRADE
TAS1,"2012/09/28 05:30:00",886.11,33.41,TRADE
TAS1,"2012/09/28 06:00:00",942.01,33.23,TRADE
TAS1,"2012/09/28 06:30:00",989.6,33.21,TRADE
TAS1,"2012/09/28 07:00:00",1047.55,33.9,TRADE
TAS1,"2012/09/28 07:30:00",1136.17,34.34,TRADE
TAS1,"2012/09/28 08:00:00",1194.55,36.12,TRADE
TAS1,"2012/09/28 08:30:00",1200.37,37.28,TRADE
TAS1,"2012/09/28 09:00:00",1183.21,37.28,TRADE
TAS1,"2012/09/28 09:30:00",1167.61,37.28,TRADE
TAS1,"2012/09/28 10:00:00",1139.48,37.28,TRADE
TAS1,"2012/09/28 10:30:00",1116.87,37.28,TRADE
TAS1,"2012/09/28 11:00:00",1110.75,37.28,TRADE
TAS1,"2012/09/28 11:30:00",1090.93,37.28,TRADE
TAS1,"2012/09/28 12:00:00",1112.93,37.28,TRADE
TAS1,"2012/09/28 12:30:00",1143.73,37.28,TRADE
TAS1,"2012/09/28 13:00:00",1156.45,37.28,TRADE
TAS1,"2012/09/28 13:30:00",1147.18,37.28,TRADE
TAS1,"2012/09/28 14:00:00",1135.64,37.28,TRADE
TAS1,"2012/09/28 14:30:00",1139,37.28,TRADE
TAS1,"2012/09/28 15:00:00",1110.22,37.28,TRADE
TAS1,"2012/09/28 15:30:00",1097.24,37.09,TRADE
TAS1,"2012/09/28 16:00:00",1091,37.28,TRADE
TAS1,"2012/09/28 16:30:00",1070.47,37.02,TRADE
TAS1,"2012/09/28 17:00:00",1098.67,37.09,TRADE
TAS1,"2012/09/28 17:30:00",1166.16,37.29,TRADE
TAS1,"2012/09/28 18:00:00",1196.82,37.28,TRADE
TAS1,"2012/09/28 18:30:00",1174.54,37.28,TRADE
TAS1,"2012/09/28 19:00:00",1237.26,37.28,TRADE
TAS1,"2012/09/28 19:30:00",1226.68,37.28,TRADE
TAS1,"2012/09/28 20:00:00",1201.75,40.29,TRADE
TAS1,"2012/09/28 20:30:00",1176.24,43.77,TRADE
TAS1,"2012/09/28 21:00:00",1164.21,44.17,TRADE
TAS1,"2012/09/28 21:30:00",1127.5,39.52,TRADE
TAS1,"2012/09/28 22:00:00",1120.06,35.97,TRADE
TAS1,"2012/09/28 22:30:00",1097.71,37.24,TRADE
TAS1,"2012/09/28 23:00:00",1056.6,35.75,TRADE
TAS1,"2012/09/28 23:30:00",1025.34,38.44,TRADE
TAS1,"2012/09/29 00:00:00",980.06,44.29,TRADE
TAS1,"2012/09/29 00:30:00",972.26,34.1,TRADE
TAS1,"2012/09/29 01:00:00",957.72,33.26,TRADE
TAS1,"2012/09/29 01:30:00",930.01,33.23,TRADE
TAS1,"2012/09/29 02:00:00",911.6,33.01,TRADE
TAS1,"2012/09/29 02:30:00",913.38,36.89,TRADE
TAS1,"2012/09/29 03:00:00",897.41,35.56,TRADE
TAS1,"2012/09/29 03:30:00",898.17,35.9,TRADE
TAS1,"2012/09/29 04:00:00",895.21,35.91,TRADE
TAS1,"2012/09/29 04:30:00",890.49,36.11,TRADE
TAS1,"2012/09/29 05:00:00",894.27,36.01,TRADE
TAS1,"2012/09/29 05:30:00",906.74,36.36,TRADE
TAS1,"2012/09/29 06:00:00",941.2,37.13,TRADE
TAS1,"2012/09/29 06:30:00",951.92,37.28,TRADE
TAS1,"2012/09/29 07:00:00",994.72,35.47,TRADE
TAS1,"2012/09/29 07:30:00",1024.56,35.25,TRADE
TAS1,"2012/09/29 08:00:00",1070.77,34.2,TRADE
TAS1,"2012/09/29 08:30:00",1103.14,36.69,TRADE
TAS1,"2012/09/29 09:00:00",1133.93,37.23,TRADE
TAS1,"2012/09/29 09:30:00",1184.26,37.29,TRADE
TAS1,"2012/09/29 10:00:00",1170.63,37.28,TRADE
TAS1,"2012/09/29 10:30:00",1151.98,37.28,TRADE
TAS1,"2012/09/29 11:00:00",1150.19,37.28,TRADE
TAS1,"2012/09/29 11:30:00",1162.06,37.28,TRADE
TAS1,"2012/09/29 12:00:00",1157.38,37.28,TRADE
TAS1,"2012/09/29 12:30:00",1151.3,37.28,TRADE
TAS1,"2012/09/29 13:00:00",1156.9,37.28,TRADE
TAS1,"2012/09/29 13:30:00",1142.5,37.03,TRADE
TAS1,"2012/09/29 14:00:00",1127.26,37.21,TRADE
TAS1,"2012/09/29 14:30:00",1127.79,36.47,TRADE
TAS1,"2012/09/29 15:00:00",1112.2,34.94,TRADE
TAS1,"2012/09/29 15:30:00",1102.74,34.09,TRADE
TAS1,"2012/09/29 16:00:00",1099.28,35.52,TRADE
TAS1,"2012/09/29 16:30:00",1108.65,36.94,TRADE
TAS1,"2012/09/29 17:00:00",1114.92,37.13,TRADE
TAS1,"2012/09/29 17:30:00",1137.42,38.39,TRADE
TAS1,"2012/09/29 18:00:00",1180.9,39.29,TRADE
TAS1,"2012/09/29 18:30:00",1223.29,39.32,TRADE
TAS1,"2012/09/29 19:00:00",1257.54,41.46,TRADE
TAS1,"2012/09/29 19:30:00",1242.57,39.3,TRADE
TAS1,"2012/09/29 20:00:00",1233.03,39.3,TRADE
TAS1,"2012/09/29 20:30:00",1229.8,39.29,TRADE
TAS1,"2012/09/29 21:00:00",1196.85,39.28,TRADE
TAS1,"2012/09/29 21:30:00",1182.22,39.28,TRADE
TAS1,"2012/09/29 22:00:00",1144.28,39.28,TRADE
TAS1,"2012/09/29 22:30:00",1106.36,39.28,TRADE
TAS1,"2012/09/29 23:00:00",1070.85,39.23,TRADE
TAS1,"2012/09/29 23:30:00",1031.68,39.2,TRADE
TAS1,"2012/09/30 00:00:00",998.43,37.99,TRADE
TAS1,"2012/09/30 00:30:00",968.32,36.63,TRADE
TAS1,"2012/09/30 01:00:00",961.11,34.76,TRADE
TAS1,"2012/09/30 01:30:00",942.12,33.97,TRADE
TAS1,"2012/09/30 02:00:00",932.71,33.3,TRADE
TAS1,"2012/09/30 02:30:00",905.3,37.28,TRADE
TAS1,"2012/09/30 03:00:00",899.52,36.93,TRADE
TAS1,"2012/09/30 03:30:00",905.15,36.26,TRADE
TAS1,"2012/09/30 04:00:00",906.18,36.48,TRADE
TAS1,"2012/09/30 04:30:00",907.97,36.37,TRADE
TAS1,"2012/09/30 05:00:00",917.4,36.86,TRADE
TAS1,"2012/09/30 05:30:00",935.68,34.09,TRADE
TAS1,"2012/09/30 06:00:00",944.22,34.22,TRADE
TAS1,"2012/09/30 06:30:00",962.12,34.14,TRADE
TAS1,"2012/09/30 07:00:00",981.73,30.08,TRADE
TAS1,"2012/09/30 07:30:00",1021.4,32.91,TRADE
TAS1,"2012/09/30 08:00:00",1059.13,35.98,TRADE
TAS1,"2012/09/30 08:30:00",1097.97,36.97,TRADE
TAS1,"2012/09/30 09:00:00",1117.13,37.4,TRADE
TAS1,"2012/09/30 09:30:00",1128.84,37.78,TRADE
TAS1,"2012/09/30 10:00:00",1116.41,37.78,TRADE
TAS1,"2012/09/30 10:30:00",1129.13,37.78,TRADE
TAS1,"2012/09/30 11:00:00",1103.23,37.78,TRADE
TAS1,"2012/09/30 11:30:00",1095.03,37.71,TRADE
TAS1,"2012/09/30 12:00:00",1101.01,37.78,TRADE
TAS1,"2012/09/30 12:30:00",1078.5,37.78,TRADE
TAS1,"2012/09/30 13:00:00",1053.65,37.15,TRADE
TAS1,"2012/09/30 13:30:00",1035.19,35.39,TRADE
TAS1,"2012/09/30 14:00:00",1018.96,34.93,TRADE
TAS1,"2012/09/30 14:30:00",1028.06,34.82,TRADE
TAS1,"2012/09/30 15:00:00",1026.22,34.87,TRADE
TAS1,"2012/09/30 15:30:00",1043.49,36.23,TRADE
TAS1,"2012/09/30 16:00:00",1056.93,37.01,TRADE
TAS1,"2012/09/30 16:30:00",1076.28,37.14,TRADE
TAS1,"2012/09/30 17:00:00",1146.26,37.78,TRADE
TAS1,"2012/09/30 17:30:00",1189.42,37.79,TRADE
TAS1,"2012/09/30 18:00:00",1228.82,37.8,TRADE
TAS1,"2012/09/30 18:30:00",1261.6,40.3,TRADE
TAS1,"2012/09/30 19:00:00",1300.22,44.43,TRADE
TAS1,"2012/09/30 19:30:00",1280.33,40.28,TRADE
TAS1,"2012/09/30 20:00:00",1266.3,40.28,TRADE
TAS1,"2012/09/30 20:30:00",1235.86,39.76,TRADE
TAS1,"2012/09/30 21:00:00",1207.35,37.99,TRADE
TAS1,"2012/09/30 21:30:00",1163.46,37.8,TRADE
TAS1,"2012/09/30 22:00:00",1116.05,37.78,TRADE
TAS1,"2012/09/30 22:30:00",1065.89,37.72,TRADE
TAS1,"2012/09/30 23:00:00",1005.87,35.07,TRADE
TAS1,"2012/09/30 23:30:00",975.03,34.78,TRADE
TAS1,"2012/10/01 00:00:00",953.13,34.12,TRADE
