REGION,SETTLEMENTDATE,TOTALDEMAND,RRP,PERIODTYPE
NSW1,"2003/09/01 00:30",7741.34333,17,TRADE
NSW1,"2003/09/01 01:00",7560.56333,17,TRADE
NSW1,"2003/09/01 01:30",7426.47,18.03,TRADE
NSW1,"2003/09/01 02:00",7241.645,16.61,TRADE
NSW1,"2003/09/01 02:30",6912.95167,15.89,TRADE
NSW1,"2003/09/01 03:00",6675.41667,14.29,TRADE
NSW1,"2003/09/01 03:30",6508.86333,13.64,TRADE
NSW1,"2003/09/01 04:00",6422.02833,12.68,TRADE
NSW1,"2003/09/01 04:30",6370.575,12.79,TRADE
NSW1,"2003/09/01 05:00",6440.675,12.06,TRADE
NSW1,"2003/09/01 05:30",6762.005,13.44,TRADE
NSW1,"2003/09/01 06:00",7254.19833,15.25,TRADE
NSW1,"2003/09/01 06:30",8129.39667,18.47,TRADE
NSW1,"2003/09/01 07:00",8995.85167,22.18,TRADE
NSW1,"2003/09/01 07:30",9311.05833,25.6,TRADE
NSW1,"2003/09/01 08:00",9737.395,38.12,TRADE
NSW1,"2003/09/01 08:30",9810.36,41.3,TRADE
NSW1,"2003/09/01 09:00",9654.985,34.74,TRADE
NSW1,"2003/09/01 09:30",9599.81833,33.18,TRADE
NSW1,"2003/09/01 10:00",9564.18667,25.72,TRADE
NSW1,"2003/09/01 10:30",9522.955,25.2,TRADE
NSW1,"2003/09/01 11:00",9451.17333,24.03,TRADE
NSW1,"2003/09/01 11:30",9228.54833,23.99,TRADE
NSW1,"2003/09/01 12:00",9168.805,24,TRADE
NSW1,"2003/09/01 12:30",9097.125,23.96,TRADE
NSW1,"2003/09/01 13:00",9058.04667,23.96,TRADE
NSW1,"2003/09/01 13:30",9017.33,23.98,TRADE
NSW1,"2003/09/01 14:00",8906.28667,23.76,TRADE
NSW1,"2003/09/01 14:30",8887.38667,23.93,TRADE
NSW1,"2003/09/01 15:00",8835.545,23.52,TRADE
NSW1,"2003/09/01 15:30",8809.49167,23.31,TRADE
NSW1,"2003/09/01 16:00",8853.925,23.66,TRADE
NSW1,"2003/09/01 16:30",9042.28333,19.67,TRADE
NSW1,"2003/09/01 17:00",9250.30167,20.1,TRADE
NSW1,"2003/09/01 17:30",9742.32,25.81,TRADE
NSW1,"2003/09/01 18:00",10522.825,3055,TRADE
NSW1,"2003/09/01 18:30",10973.83,82.67,TRADE
NSW1,"2003/09/01 19:00",11028.54333,71.46,TRADE
NSW1,"2003/09/01 19:30",10754.55,45.19,TRADE
NSW1,"2003/09/01 20:00",10545.51333,37.07,TRADE
NSW1,"2003/09/01 20:30",10333.44167,40.52,TRADE
NSW1,"2003/09/01 21:00",10131.03333,31.65,TRADE
NSW1,"2003/09/01 21:30",9761.99,24.62,TRADE
NSW1,"2003/09/01 22:00",9363.495,22.75,TRADE
NSW1,"2003/09/01 22:30",9381.27833,26.15,TRADE
NSW1,"2003/09/01 23:00",9145.98333,23.93,TRADE
NSW1,"2003/09/01 23:30",9008.89333,25.02,TRADE
NSW1,"2003/09/02 00:00",8825.09167,23.05,TRADE
NSW1,"2003/09/02 00:30",8658.03333,23.78,TRADE
NSW1,"2003/09/02 01:00",8523.75167,22.57,TRADE
NSW1,"2003/09/02 01:30",8391.23833,23.71,TRADE
NSW1,"2003/09/02 02:00",8156.73333,21.16,TRADE
NSW1,"2003/09/02 02:30",7799.51333,18.78,TRADE
NSW1,"2003/09/02 03:00",7379.55667,16.75,TRADE
NSW1,"2003/09/02 03:30",7096.32167,15.5,TRADE
NSW1,"2003/09/02 04:00",6887.69833,13.86,TRADE
NSW1,"2003/09/02 04:30",6726.60167,13.18,TRADE
NSW1,"2003/09/02 05:00",6740.62167,12.89,TRADE
NSW1,"2003/09/02 05:30",6988.79333,14.28,TRADE
NSW1,"2003/09/02 06:00",7461.94,15.71,TRADE
NSW1,"2003/09/02 06:30",8305.245,20.23,TRADE
NSW1,"2003/09/02 07:00",9200.52,23.58,TRADE
NSW1,"2003/09/02 07:30",9464.09,24.73,TRADE
NSW1,"2003/09/02 08:00",9878.815,28.98,TRADE
NSW1,"2003/09/02 08:30",9856.32833,30.35,TRADE
NSW1,"2003/09/02 09:00",9641.34333,27.26,TRADE
NSW1,"2003/09/02 09:30",9579.80167,25.36,TRADE
NSW1,"2003/09/02 10:00",9443.01167,22.79,TRADE
NSW1,"2003/09/02 10:30",9335.185,23.09,TRADE
NSW1,"2003/09/02 11:00",9237.31,22.64,TRADE
NSW1,"2003/09/02 11:30",9108.95,22.39,TRADE
NSW1,"2003/09/02 12:00",9045.635,22.34,TRADE
NSW1,"2003/09/02 12:30",8901.18167,22.07,TRADE
NSW1,"2003/09/02 13:00",8793.03,21.74,TRADE
NSW1,"2003/09/02 13:30",8813.61167,21.77,TRADE
NSW1,"2003/09/02 14:00",8746.31833,21.52,TRADE
NSW1,"2003/09/02 14:30",8736.01833,21.68,TRADE
NSW1,"2003/09/02 15:00",8693.08333,21.58,TRADE
NSW1,"2003/09/02 15:30",8615.40667,20.5,TRADE
NSW1,"2003/09/02 16:00",8662.64833,17.14,TRADE
NSW1,"2003/09/02 16:30",8764.92,17.88,TRADE
NSW1,"2003/09/02 17:00",8940.33667,19.89,TRADE
NSW1,"2003/09/02 17:30",9213.57667,22.17,TRADE
NSW1,"2003/09/02 18:00",9940.13833,32.38,TRADE
NSW1,"2003/09/02 18:30",10435.66167,46.27,TRADE
NSW1,"2003/09/02 19:00",10441.35,46.87,TRADE
NSW1,"2003/09/02 19:30",10239.34833,29.03,TRADE
NSW1,"2003/09/02 20:00",10108.63,24.56,TRADE
NSW1,"2003/09/02 20:30",9962.65833,28.36,TRADE
NSW1,"2003/09/02 21:00",9787.03833,25.24,TRADE
NSW1,"2003/09/02 21:30",9473.52667,23.35,TRADE
NSW1,"2003/09/02 22:00",9164.22833,22.42,TRADE
NSW1,"2003/09/02 22:30",9199.10333,23.57,TRADE
NSW1,"2003/09/02 23:00",9017.04167,22.6,TRADE
NSW1,"2003/09/02 23:30",8877.575,23.29,TRADE
NSW1,"2003/09/03 00:00",8741.405,22.49,TRADE
NSW1,"2003/09/03 00:30",8565.07667,22.25,TRADE
NSW1,"2003/09/03 01:00",8445.385,22.24,TRADE
NSW1,"2003/09/03 01:30",8268.14833,22.86,TRADE
NSW1,"2003/09/03 02:00",8065.40333,21.65,TRADE
NSW1,"2003/09/03 02:30",7674.765,17.8,TRADE
NSW1,"2003/09/03 03:00",7285.48333,15.72,TRADE
NSW1,"2003/09/03 03:30",6958.09167,14.15,TRADE
NSW1,"2003/09/03 04:00",6791.62167,13.13,TRADE
NSW1,"2003/09/03 04:30",6697.225,12.75,TRADE
NSW1,"2003/09/03 05:00",6685.71,12.53,TRADE
NSW1,"2003/09/03 05:30",7016.36,14.7,TRADE
NSW1,"2003/09/03 06:00",7456.70333,15.63,TRADE
NSW1,"2003/09/03 06:30",8370.07833,20.5,TRADE
NSW1,"2003/09/03 07:00",9276.515,25.26,TRADE
NSW1,"2003/09/03 07:30",9532.96333,34.28,TRADE
NSW1,"2003/09/03 08:00",9914.355,43.42,TRADE
NSW1,"2003/09/03 08:30",9885.99167,44.79,TRADE
NSW1,"2003/09/03 09:00",9701.44833,40.13,TRADE
NSW1,"2003/09/03 09:30",9597.46833,35.12,TRADE
NSW1,"2003/09/03 10:00",9508.64,24.84,TRADE
NSW1,"2003/09/03 10:30",9387.01667,24.43,TRADE
NSW1,"2003/09/03 11:00",9307.74,24.05,TRADE
NSW1,"2003/09/03 11:30",8890.54333,20.35,TRADE
NSW1,"2003/09/03 12:00",8825.26667,20.87,TRADE
NSW1,"2003/09/03 12:30",8865.76667,19.32,TRADE
NSW1,"2003/09/03 13:00",8903.64167,20.09,TRADE
NSW1,"2003/09/03 13:30",8785.23833,19.19,TRADE
NSW1,"2003/09/03 14:00",8674.32333,18.84,TRADE
NSW1,"2003/09/03 14:30",8450.235,17.62,TRADE
NSW1,"2003/09/03 15:00",8377.785,16.3,TRADE
NSW1,"2003/09/03 15:30",8499.95333,15.29,TRADE
NSW1,"2003/09/03 16:00",8620.76,15.38,TRADE
NSW1,"2003/09/03 16:30",8697.31833,15.67,TRADE
NSW1,"2003/09/03 17:00",8870.49167,16.75,TRADE
NSW1,"2003/09/03 17:30",9110.79667,17.99,TRADE
NSW1,"2003/09/03 18:00",9724.89333,22.48,TRADE
NSW1,"2003/09/03 18:30",10299.42167,26.88,TRADE
NSW1,"2003/09/03 19:00",10347.47333,29.31,TRADE
NSW1,"2003/09/03 19:30",10208.76667,24.54,TRADE
NSW1,"2003/09/03 20:00",9971.6,23.83,TRADE
NSW1,"2003/09/03 20:30",9804.97,24.35,TRADE
NSW1,"2003/09/03 21:00",9623.51333,24.05,TRADE
NSW1,"2003/09/03 21:30",9318.21833,23.52,TRADE
NSW1,"2003/09/03 22:00",9046.56,21.36,TRADE
NSW1,"2003/09/03 22:30",9157.465,23.91,TRADE
NSW1,"2003/09/03 23:00",8986.635,22.51,TRADE
NSW1,"2003/09/03 23:30",8946.45333,23.98,TRADE
NSW1,"2003/09/04 00:00",8804.46833,23.22,TRADE
NSW1,"2003/09/04 00:30",8615.25333,19.94,TRADE
NSW1,"2003/09/04 01:00",8455.27,19.26,TRADE
NSW1,"2003/09/04 01:30",8308.11667,22.26,TRADE
NSW1,"2003/09/04 02:00",8083.29667,20.02,TRADE
NSW1,"2003/09/04 02:30",7661.92333,17.73,TRADE
NSW1,"2003/09/04 03:00",7312.92,16.54,TRADE
NSW1,"2003/09/04 03:30",6964.21,15.3,TRADE
NSW1,"2003/09/04 04:00",6748.19667,13.85,TRADE
NSW1,"2003/09/04 04:30",6668.64,13.92,TRADE
NSW1,"2003/09/04 05:00",6661.03833,13.58,TRADE
NSW1,"2003/09/04 05:30",6949.64,15.49,TRADE
NSW1,"2003/09/04 06:00",7414.04,16.16,TRADE
NSW1,"2003/09/04 06:30",8272.265,19.48,TRADE
NSW1,"2003/09/04 07:00",9174.975,22.78,TRADE
NSW1,"2003/09/04 07:30",9393.38167,22.41,TRADE
NSW1,"2003/09/04 08:00",9749.10833,24.34,TRADE
NSW1,"2003/09/04 08:30",9759.56667,24.38,TRADE
NSW1,"2003/09/04 09:00",9508.09,21.79,TRADE
NSW1,"2003/09/04 09:30",9455.87333,21.71,TRADE
NSW1,"2003/09/04 10:00",9362.33,21.55,TRADE
NSW1,"2003/09/04 10:30",9222.375,21.57,TRADE
NSW1,"2003/09/04 11:00",9097.55,19.92,TRADE
NSW1,"2003/09/04 11:30",8977.25833,17.34,TRADE
NSW1,"2003/09/04 12:00",8876.00833,17,TRADE
NSW1,"2003/09/04 12:30",8774.88667,16.77,TRADE
NSW1,"2003/09/04 13:00",8691.48,14.94,TRADE
NSW1,"2003/09/04 13:30",8582.42667,14.85,TRADE
NSW1,"2003/09/04 14:00",8602.46833,15.58,TRADE
NSW1,"2003/09/04 14:30",8582.19333,14.87,TRADE
NSW1,"2003/09/04 15:00",8536.26,14.15,TRADE
NSW1,"2003/09/04 15:30",8487.54,13.27,TRADE
NSW1,"2003/09/04 16:00",8480.39333,13.78,TRADE
NSW1,"2003/09/04 16:30",8578.23167,14.27,TRADE
NSW1,"2003/09/04 17:00",8702.645,16.15,TRADE
NSW1,"2003/09/04 17:30",8923.39667,16.3,TRADE
NSW1,"2003/09/04 18:00",9578.665,21.62,TRADE
NSW1,"2003/09/04 18:30",10138.19833,23.37,TRADE
NSW1,"2003/09/04 19:00",10221.95333,24,TRADE
NSW1,"2003/09/04 19:30",10094.69333,22.53,TRADE
NSW1,"2003/09/04 20:00",9928.69833,22.19,TRADE
NSW1,"2003/09/04 20:30",9825.35667,22.1,TRADE
NSW1,"2003/09/04 21:00",9700.565,22.07,TRADE
NSW1,"2003/09/04 21:30",9439.455,21.87,TRADE
NSW1,"2003/09/04 22:00",9088.45333,21.33,TRADE
NSW1,"2003/09/04 22:30",9181.60167,21.75,TRADE
NSW1,"2003/09/04 23:00",9021.145,20.06,TRADE
NSW1,"2003/09/04 23:30",8957.32667,21.51,TRADE
NSW1,"2003/09/05 00:00",8754.81833,20.5,TRADE
NSW1,"2003/09/05 00:30",8549.08167,17.5,TRADE
NSW1,"2003/09/05 01:00",8368.485,17,TRADE
NSW1,"2003/09/05 01:30",8252.84,19.15,TRADE
NSW1,"2003/09/05 02:00",8006.21667,17,TRADE
NSW1,"2003/09/05 02:30",7620.07,17,TRADE
NSW1,"2003/09/05 03:00",7231.3,15.93,TRADE
NSW1,"2003/09/05 03:30",6931.765,13.98,TRADE
NSW1,"2003/09/05 04:00",6751.31167,13.34,TRADE
NSW1,"2003/09/05 04:30",6654.035,13.01,TRADE
NSW1,"2003/09/05 05:00",6691.53667,12.82,TRADE
NSW1,"2003/09/05 05:30",6965.22167,13.98,TRADE
NSW1,"2003/09/05 06:00",7449.245,14.68,TRADE
NSW1,"2003/09/05 06:30",8289.45167,17.68,TRADE
NSW1,"2003/09/05 07:00",9177.59833,21.13,TRADE
NSW1,"2003/09/05 07:30",9453.035,22.08,TRADE
NSW1,"2003/09/05 08:00",9776.59167,22.67,TRADE
NSW1,"2003/09/05 08:30",9777.695,22.45,TRADE
NSW1,"2003/09/05 09:00",9532.08167,21.88,TRADE
NSW1,"2003/09/05 09:30",9499.13167,21.71,TRADE
NSW1,"2003/09/05 10:00",9416.32,21.61,TRADE
NSW1,"2003/09/05 10:30",9382.95833,21.71,TRADE
NSW1,"2003/09/05 11:00",9287.53833,21.3,TRADE
NSW1,"2003/09/05 11:30",8955.86167,17.51,TRADE
NSW1,"2003/09/05 12:00",8775.52667,16.97,TRADE
NSW1,"2003/09/05 12:30",8977.90167,17,TRADE
NSW1,"2003/09/05 13:00",8866.755,17,TRADE
NSW1,"2003/09/05 13:30",8809.52,17,TRADE
NSW1,"2003/09/05 14:00",8766.89,17,TRADE
NSW1,"2003/09/05 14:30",8700.105,17,TRADE
NSW1,"2003/09/05 15:00",8583.81833,16.89,TRADE
NSW1,"2003/09/05 15:30",8540.81667,16.67,TRADE
NSW1,"2003/09/05 16:00",8513.28333,16.8,TRADE
NSW1,"2003/09/05 16:30",8576.51167,16.98,TRADE
NSW1,"2003/09/05 17:00",8629.84833,17,TRADE
NSW1,"2003/09/05 17:30",8722.20667,18.26,TRADE
NSW1,"2003/09/05 18:00",9153.80333,21.53,TRADE
NSW1,"2003/09/05 18:30",9490.04667,22.97,TRADE
NSW1,"2003/09/05 19:00",9502.58,23.31,TRADE
NSW1,"2003/09/05 19:30",9246.65167,21.29,TRADE
NSW1,"2003/09/05 20:00",9138.9,20.96,TRADE
NSW1,"2003/09/05 20:30",8925.51667,21.03,TRADE
NSW1,"2003/09/05 21:00",8836.2,21.02,TRADE
NSW1,"2003/09/05 21:30",8600.29333,18.47,TRADE
NSW1,"2003/09/05 22:00",8429.04167,17.4,TRADE
NSW1,"2003/09/05 22:30",8738.2,19.79,TRADE
NSW1,"2003/09/05 23:00",8703.35833,18.28,TRADE
NSW1,"2003/09/05 23:30",8780.58167,21.61,TRADE
NSW1,"2003/09/06 00:00",8622.005,20.9,TRADE
NSW1,"2003/09/06 00:30",8458.60667,17.88,TRADE
NSW1,"2003/09/06 01:00",8255.97667,17,TRADE
NSW1,"2003/09/06 01:30",8099.38833,17.29,TRADE
NSW1,"2003/09/06 02:00",7820.71333,16.98,TRADE
NSW1,"2003/09/06 02:30",7397.80833,16.65,TRADE
NSW1,"2003/09/06 03:00",7035.52333,16.36,TRADE
NSW1,"2003/09/06 03:30",6697.70833,14.77,TRADE
NSW1,"2003/09/06 04:00",6480.48,13.71,TRADE
NSW1,"2003/09/06 04:30",6345.4,13.09,TRADE
NSW1,"2003/09/06 05:00",6295.59667,12.98,TRADE
NSW1,"2003/09/06 05:30",6393.74333,13.23,TRADE
NSW1,"2003/09/06 06:00",6505.13667,13.5,TRADE
NSW1,"2003/09/06 06:30",6777.41833,14.01,TRADE
NSW1,"2003/09/06 07:00",7111.54,15.84,TRADE
NSW1,"2003/09/06 07:30",7548.595,16.51,TRADE
NSW1,"2003/09/06 08:00",8068.30333,17.55,TRADE
NSW1,"2003/09/06 08:30",8471.23,20.87,TRADE
NSW1,"2003/09/06 09:00",8695.92,22.55,TRADE
NSW1,"2003/09/06 09:30",8852.31167,22.7,TRADE
NSW1,"2003/09/06 10:00",8748.08333,22.48,TRADE
NSW1,"2003/09/06 10:30",8681.96667,22.31,TRADE
NSW1,"2003/09/06 11:00",8540.71,21.91,TRADE
NSW1,"2003/09/06 11:30",8341.985,20.54,TRADE
NSW1,"2003/09/06 12:00",8260.90667,17.6,TRADE
NSW1,"2003/09/06 12:30",8087.45833,17,TRADE
NSW1,"2003/09/06 13:00",7986.74833,17,TRADE
NSW1,"2003/09/06 13:30",7891.035,17,TRADE
NSW1,"2003/09/06 14:00",7822.60167,16.93,TRADE
NSW1,"2003/09/06 14:30",7717.845,16.43,TRADE
NSW1,"2003/09/06 15:00",7669.11333,15.03,TRADE
NSW1,"2003/09/06 15:30",7678.37667,14.08,TRADE
NSW1,"2003/09/06 16:00",7733.36333,16.14,TRADE
NSW1,"2003/09/06 16:30",7868.30833,16.52,TRADE
NSW1,"2003/09/06 17:00",8049.00167,17,TRADE
NSW1,"2003/09/06 17:30",8174.805,19,TRADE
NSW1,"2003/09/06 18:00",8763.85333,23.76,TRADE
NSW1,"2003/09/06 18:30",9122.13833,33.94,TRADE
NSW1,"2003/09/06 19:00",9120.45167,41.41,TRADE
NSW1,"2003/09/06 19:30",8881.625,23.16,TRADE
NSW1,"2003/09/06 20:00",8635.87167,22.15,TRADE
NSW1,"2003/09/06 20:30",8480.75833,21.93,TRADE
NSW1,"2003/09/06 21:00",8315.55167,21.15,TRADE
NSW1,"2003/09/06 21:30",8215.25333,18.46,TRADE
NSW1,"2003/09/06 22:00",8034.12667,16.82,TRADE
NSW1,"2003/09/06 22:30",8147.50667,17,TRADE
NSW1,"2003/09/06 23:00",8066.51667,17,TRADE
NSW1,"2003/09/06 23:30",8104.79,20.05,TRADE
NSW1,"2003/09/07 00:00",7842.61167,17.32,TRADE
NSW1,"2003/09/07 00:30",7612.90333,17.27,TRADE
NSW1,"2003/09/07 01:00",7403.10333,17,TRADE
NSW1,"2003/09/07 01:30",7135.76,17.88,TRADE
NSW1,"2003/09/07 02:00",6942.64167,16.44,TRADE
NSW1,"2003/09/07 02:30",6637.89333,15.2,TRADE
NSW1,"2003/09/07 03:00",6373.91,14.23,TRADE
NSW1,"2003/09/07 03:30",6165.72833,13.26,TRADE
NSW1,"2003/09/07 04:00",6037.00667,11.95,TRADE
NSW1,"2003/09/07 04:30",5945.815,11.07,TRADE
NSW1,"2003/09/07 05:00",5925.24833,10.84,TRADE
NSW1,"2003/09/07 05:30",5986.12167,11.29,TRADE
NSW1,"2003/09/07 06:00",6103.68167,11.28,TRADE
NSW1,"2003/09/07 06:30",6264.67833,11.09,TRADE
NSW1,"2003/09/07 07:00",6520.475,12.38,TRADE
NSW1,"2003/09/07 07:30",6804.23167,12.65,TRADE
NSW1,"2003/09/07 08:00",7223.44833,14.13,TRADE
NSW1,"2003/09/07 08:30",7662.38,16.6,TRADE
NSW1,"2003/09/07 09:00",7993.06333,17.49,TRADE
NSW1,"2003/09/07 09:30",8177.935,19.58,TRADE
NSW1,"2003/09/07 10:00",8249.45333,20.13,TRADE
NSW1,"2003/09/07 10:30",8227.225,20.16,TRADE
NSW1,"2003/09/07 11:00",8111.55667,17.47,TRADE
NSW1,"2003/09/07 11:30",7999.87833,17.36,TRADE
NSW1,"2003/09/07 12:00",7835.91333,17,TRADE
NSW1,"2003/09/07 12:30",7717.58833,17,TRADE
NSW1,"2003/09/07 13:00",7506.23333,15.81,TRADE
NSW1,"2003/09/07 13:30",7376.78833,15.75,TRADE
NSW1,"2003/09/07 14:00",7233.05,13.95,TRADE
NSW1,"2003/09/07 14:30",7123.53667,13.23,TRADE
NSW1,"2003/09/07 15:00",7080.70333,13.33,TRADE
NSW1,"2003/09/07 15:30",7081.02167,13.15,TRADE
NSW1,"2003/09/07 16:00",7126.585,13.88,TRADE
NSW1,"2003/09/07 16:30",7217.03,14.32,TRADE
NSW1,"2003/09/07 17:00",7373.20833,16.23,TRADE
NSW1,"2003/09/07 17:30",7532.86,16.78,TRADE
NSW1,"2003/09/07 18:00",8205.015,21.86,TRADE
NSW1,"2003/09/07 18:30",8978.47667,39.76,TRADE
NSW1,"2003/09/07 19:00",9076.96167,46.85,TRADE
NSW1,"2003/09/07 19:30",8969.34833,29.36,TRADE
NSW1,"2003/09/07 20:00",8826.46333,23.95,TRADE
NSW1,"2003/09/07 20:30",8700.71667,22.99,TRADE
NSW1,"2003/09/07 21:00",8620.74,22.22,TRADE
NSW1,"2003/09/07 21:30",8438.64833,21.67,TRADE
NSW1,"2003/09/07 22:00",8215.14333,18.01,TRADE
NSW1,"2003/09/07 22:30",8165.33,17,TRADE
NSW1,"2003/09/07 23:00",7966.11833,16.67,TRADE
NSW1,"2003/09/07 23:30",7892.255,17.01,TRADE
NSW1,"2003/09/08 00:00",7665.12167,16.78,TRADE
NSW1,"2003/09/08 00:30",7448.85333,16.66,TRADE
NSW1,"2003/09/08 01:00",7296.33333,16.35,TRADE
NSW1,"2003/09/08 01:30",7170.75,16.95,TRADE
NSW1,"2003/09/08 02:00",6970.33,15.66,TRADE
NSW1,"2003/09/08 02:30",6652.405,14.68,TRADE
NSW1,"2003/09/08 03:00",6389.09333,14.22,TRADE
NSW1,"2003/09/08 03:30",6252.53833,13.86,TRADE
NSW1,"2003/09/08 04:00",6151.01,13.1,TRADE
NSW1,"2003/09/08 04:30",6122.185,12.9,TRADE
NSW1,"2003/09/08 05:00",6234.64,13.05,TRADE
NSW1,"2003/09/08 05:30",6525.50333,14.48,TRADE
NSW1,"2003/09/08 06:00",6972.66,14.77,TRADE
NSW1,"2003/09/08 06:30",7791.10833,16.52,TRADE
NSW1,"2003/09/08 07:00",8661.76333,19.64,TRADE
NSW1,"2003/09/08 07:30",8971.65167,21.41,TRADE
NSW1,"2003/09/08 08:00",9351.82667,21.76,TRADE
NSW1,"2003/09/08 08:30",9449.18,21.73,TRADE
NSW1,"2003/09/08 09:00",9328.09667,21.49,TRADE
NSW1,"2003/09/08 09:30",9408.965,21.43,TRADE
NSW1,"2003/09/08 10:00",9374.71833,21.31,TRADE
NSW1,"2003/09/08 10:30",9357.205,21.37,TRADE
NSW1,"2003/09/08 11:00",9264.77667,21.07,TRADE
NSW1,"2003/09/08 11:30",9151.835,20.1,TRADE
NSW1,"2003/09/08 12:00",9069.73667,19.46,TRADE
NSW1,"2003/09/08 12:30",9008.305,18.77,TRADE
NSW1,"2003/09/08 13:00",8918.29667,17,TRADE
NSW1,"2003/09/08 13:30",8876.90167,18.31,TRADE
NSW1,"2003/09/08 14:00",8798.95333,17.79,TRADE
NSW1,"2003/09/08 14:30",8789.32667,17.67,TRADE
NSW1,"2003/09/08 15:00",8704.65167,17,TRADE
NSW1,"2003/09/08 15:30",8614.415,17,TRADE
NSW1,"2003/09/08 16:00",8659.73667,17,TRADE
NSW1,"2003/09/08 16:30",8740.70167,17,TRADE
NSW1,"2003/09/08 17:00",8949.15667,17,TRADE
NSW1,"2003/09/08 17:30",9298.575,21.15,TRADE
NSW1,"2003/09/08 18:00",9985.29,27.89,TRADE
NSW1,"2003/09/08 18:30",10552.70333,41.47,TRADE
NSW1,"2003/09/08 19:00",10665.87167,53.01,TRADE
NSW1,"2003/09/08 19:30",10392.03833,25.01,TRADE
NSW1,"2003/09/08 20:00",10231.995,23.3,TRADE
NSW1,"2003/09/08 20:30",9991.11833,24.27,TRADE
NSW1,"2003/09/08 21:00",9845.16333,23.72,TRADE
NSW1,"2003/09/08 21:30",9491.05667,22.3,TRADE
NSW1,"2003/09/08 22:00",9116.31167,21.53,TRADE
NSW1,"2003/09/08 22:30",9224.76833,21.89,TRADE
NSW1,"2003/09/08 23:00",8969.615,21.74,TRADE
NSW1,"2003/09/08 23:30",8873.995,22.63,TRADE
NSW1,"2003/09/09 00:00",8706.72,22.03,TRADE
NSW1,"2003/09/09 00:30",8518.58333,20.89,TRADE
NSW1,"2003/09/09 01:00",8385.62333,17.93,TRADE
NSW1,"2003/09/09 01:30",8243.36333,19.62,TRADE
NSW1,"2003/09/09 02:00",8025.81833,17.22,TRADE
NSW1,"2003/09/09 02:30",7627.41833,16.78,TRADE
NSW1,"2003/09/09 03:00",7282.28333,16.49,TRADE
NSW1,"2003/09/09 03:30",6928.75167,14.82,TRADE
NSW1,"2003/09/09 04:00",6749.79667,13.87,TRADE
NSW1,"2003/09/09 04:30",6648.07333,13.15,TRADE
NSW1,"2003/09/09 05:00",6705.27,13.02,TRADE
NSW1,"2003/09/09 05:30",7019.86833,14.67,TRADE
NSW1,"2003/09/09 06:00",7486.41833,15.99,TRADE
NSW1,"2003/09/09 06:30",8297.97833,18.86,TRADE
NSW1,"2003/09/09 07:00",9167.42167,22.06,TRADE
NSW1,"2003/09/09 07:30",9470.79333,23.24,TRADE
NSW1,"2003/09/09 08:00",9807.48,24,TRADE
NSW1,"2003/09/09 08:30",9778.38,23.78,TRADE
NSW1,"2003/09/09 09:00",9597.20667,21.89,TRADE
NSW1,"2003/09/09 09:30",9557.67833,21.77,TRADE
NSW1,"2003/09/09 10:00",9442.95333,21.71,TRADE
NSW1,"2003/09/09 10:30",9415.78333,21.97,TRADE
NSW1,"2003/09/09 11:00",9322.095,22.08,TRADE
NSW1,"2003/09/09 11:30",9122.01333,22.02,TRADE
NSW1,"2003/09/09 12:00",9066.46833,22.05,TRADE
NSW1,"2003/09/09 12:30",8946.15833,21.74,TRADE
NSW1,"2003/09/09 13:00",8906.25333,21.67,TRADE
NSW1,"2003/09/09 13:30",8870.84,21.62,TRADE
NSW1,"2003/09/09 14:00",8836.35,21.55,TRADE
NSW1,"2003/09/09 14:30",8776.94167,21.59,TRADE
NSW1,"2003/09/09 15:00",8695.52167,20.84,TRADE
NSW1,"2003/09/09 15:30",8676.02833,19.16,TRADE
NSW1,"2003/09/09 16:00",8713.22333,18.47,TRADE
NSW1,"2003/09/09 16:30",8845.72167,18.14,TRADE
NSW1,"2003/09/09 17:00",9040.12333,18.78,TRADE
NSW1,"2003/09/09 17:30",9295.55333,21.51,TRADE
NSW1,"2003/09/09 18:00",9949.35667,23.34,TRADE
NSW1,"2003/09/09 18:30",10442.705,27.52,TRADE
NSW1,"2003/09/09 19:00",10477.44333,25.9,TRADE
NSW1,"2003/09/09 19:30",10249.03,22.61,TRADE
NSW1,"2003/09/09 20:00",10050.52833,22.41,TRADE
NSW1,"2003/09/09 20:30",9878.10833,23.01,TRADE
NSW1,"2003/09/09 21:00",9702.88833,22.61,TRADE
NSW1,"2003/09/09 21:30",9428.01,22.12,TRADE
NSW1,"2003/09/09 22:00",9046.625,20.6,TRADE
NSW1,"2003/09/09 22:30",9093.49167,22.07,TRADE
NSW1,"2003/09/09 23:00",8897.91,21.28,TRADE
NSW1,"2003/09/09 23:30",8825.58833,22.4,TRADE
NSW1,"2003/09/10 00:00",8686.555,21.34,TRADE
NSW1,"2003/09/10 00:30",8503.77833,19.59,TRADE
NSW1,"2003/09/10 01:00",8361.13,17.22,TRADE
NSW1,"2003/09/10 01:30",8198.99,19.32,TRADE
NSW1,"2003/09/10 02:00",8008.27667,17.16,TRADE
NSW1,"2003/09/10 02:30",7557.36167,16.67,TRADE
NSW1,"2003/09/10 03:00",7200.15667,17,TRADE
NSW1,"2003/09/10 03:30",6873.49333,16,TRADE
NSW1,"2003/09/10 04:00",6687.50667,14.76,TRADE
NSW1,"2003/09/10 04:30",6550.21,13.77,TRADE
NSW1,"2003/09/10 05:00",6586.03,13.64,TRADE
NSW1,"2003/09/10 05:30",6842.38167,15.76,TRADE
NSW1,"2003/09/10 06:00",7310.49833,15.95,TRADE
NSW1,"2003/09/10 06:30",8133.78167,18.98,TRADE
NSW1,"2003/09/10 07:00",8984.395,22.82,TRADE
NSW1,"2003/09/10 07:30",9212.82167,23.82,TRADE
NSW1,"2003/09/10 08:00",9489.59667,23.94,TRADE
NSW1,"2003/09/10 08:30",9495.07667,24.05,TRADE
NSW1,"2003/09/10 09:00",9301.985,22.94,TRADE
NSW1,"2003/09/10 09:30",9238.19333,22.48,TRADE
NSW1,"2003/09/10 10:00",9165.19,22.49,TRADE
NSW1,"2003/09/10 10:30",9119.51,22.28,TRADE
NSW1,"2003/09/10 11:00",9098.59833,22.09,TRADE
NSW1,"2003/09/10 11:30",8914.22667,21.97,TRADE
NSW1,"2003/09/10 12:00",8906.42667,22.39,TRADE
NSW1,"2003/09/10 12:30",8860.22333,22.2,TRADE
NSW1,"2003/09/10 13:00",8757.16,21.89,TRADE
NSW1,"2003/09/10 13:30",8707.59833,21.82,TRADE
NSW1,"2003/09/10 14:00",8654.96167,21.02,TRADE
NSW1,"2003/09/10 14:30",8628.99,20.39,TRADE
NSW1,"2003/09/10 15:00",8619.19333,21.4,TRADE
NSW1,"2003/09/10 15:30",8601.68333,20.81,TRADE
NSW1,"2003/09/10 16:00",8604.19,17.31,TRADE
NSW1,"2003/09/10 16:30",8633.16333,18,TRADE
NSW1,"2003/09/10 17:00",8787.96,18.44,TRADE
NSW1,"2003/09/10 17:30",8895.215,19.24,TRADE
NSW1,"2003/09/10 18:00",9457.355,22.48,TRADE
NSW1,"2003/09/10 18:30",9871.40333,24.09,TRADE
NSW1,"2003/09/10 19:00",9899.80667,23.5,TRADE
NSW1,"2003/09/10 19:30",9685.81167,21.87,TRADE
NSW1,"2003/09/10 20:00",9480.13167,21.38,TRADE
NSW1,"2003/09/10 20:30",9265.88833,21.71,TRADE
NSW1,"2003/09/10 21:00",9083.07,21.43,TRADE
NSW1,"2003/09/10 21:30",8859.33833,19.87,TRADE
NSW1,"2003/09/10 22:00",8574.36833,17.3,TRADE
NSW1,"2003/09/10 22:30",8690.03167,17.36,TRADE
NSW1,"2003/09/10 23:00",8557.80667,17,TRADE
NSW1,"2003/09/10 23:30",8537.30667,20.49,TRADE
NSW1,"2003/09/11 00:00",8454.59833,18.31,TRADE
NSW1,"2003/09/11 00:30",8268.97333,17,TRADE
NSW1,"2003/09/11 01:00",8115.915,17,TRADE
NSW1,"2003/09/11 01:30",8031.635,18.48,TRADE
NSW1,"2003/09/11 02:00",7772.04333,16.99,TRADE
NSW1,"2003/09/11 02:30",7334.04167,16.8,TRADE
NSW1,"2003/09/11 03:00",6960.06167,16.15,TRADE
NSW1,"2003/09/11 03:30",6595.10833,13.39,TRADE
NSW1,"2003/09/11 04:00",6501.94833,13.03,TRADE
NSW1,"2003/09/11 04:30",6363.87,12.39,TRADE
NSW1,"2003/09/11 05:00",6401.43167,12.1,TRADE
NSW1,"2003/09/11 05:30",6675.08,13.44,TRADE
NSW1,"2003/09/11 06:00",7118.17,14.31,TRADE
NSW1,"2003/09/11 06:30",7947.07333,16.81,TRADE
NSW1,"2003/09/11 07:00",8729.35833,17.8,TRADE
NSW1,"2003/09/11 07:30",8917.50667,18.49,TRADE
NSW1,"2003/09/11 08:00",9140.37,19.81,TRADE
NSW1,"2003/09/11 08:30",9173.77167,19.69,TRADE
NSW1,"2003/09/11 09:00",9020.04,17.16,TRADE
NSW1,"2003/09/11 09:30",9056.20333,17.46,TRADE
NSW1,"2003/09/11 10:00",9019.89833,17.03,TRADE
NSW1,"2003/09/11 10:30",8989.94,17.05,TRADE
NSW1,"2003/09/11 11:00",8972.49167,17,TRADE
NSW1,"2003/09/11 11:30",8883.49833,17,TRADE
NSW1,"2003/09/11 12:00",8866.26667,17,TRADE
NSW1,"2003/09/11 12:30",8779.92667,17,TRADE
NSW1,"2003/09/11 13:00",8713.90667,17,TRADE
NSW1,"2003/09/11 13:30",8721.28167,17,TRADE
NSW1,"2003/09/11 14:00",8698.48833,17,TRADE
NSW1,"2003/09/11 14:30",8647.79,17,TRADE
NSW1,"2003/09/11 15:00",8603.45667,17,TRADE
NSW1,"2003/09/11 15:30",8570.04333,16.96,TRADE
NSW1,"2003/09/11 16:00",8588.335,16.95,TRADE
NSW1,"2003/09/11 16:30",8626.56333,16.99,TRADE
NSW1,"2003/09/11 17:00",8742.76667,17,TRADE
NSW1,"2003/09/11 17:30",8942.845,20.11,TRADE
NSW1,"2003/09/11 18:00",9458.43667,22.14,TRADE
NSW1,"2003/09/11 18:30",9781.52833,22.47,TRADE
NSW1,"2003/09/11 19:00",9702.27,22.18,TRADE
NSW1,"2003/09/11 19:30",9449.40333,20.7,TRADE
NSW1,"2003/09/11 20:00",9251.00333,18,TRADE
NSW1,"2003/09/11 20:30",9051.45667,19.46,TRADE
NSW1,"2003/09/11 21:00",8902.31667,18.67,TRADE
NSW1,"2003/09/11 21:30",8561.70667,16.67,TRADE
NSW1,"2003/09/11 22:00",8278.505,16.24,TRADE
NSW1,"2003/09/11 22:30",8518.27167,17.55,TRADE
NSW1,"2003/09/11 23:00",8444.74833,17,TRADE
NSW1,"2003/09/11 23:30",8471.60167,19.08,TRADE
NSW1,"2003/09/12 00:00",8331.215,16.98,TRADE
NSW1,"2003/09/12 00:30",8152.015,17,TRADE
NSW1,"2003/09/12 01:00",7917.24167,15.64,TRADE
NSW1,"2003/09/12 01:30",7828.305,16.68,TRADE
NSW1,"2003/09/12 02:00",7553.05667,15.23,TRADE
NSW1,"2003/09/12 02:30",7189.14167,15.34,TRADE
NSW1,"2003/09/12 03:00",6864.66667,14.07,TRADE
NSW1,"2003/09/12 03:30",6591.625,12.94,TRADE
NSW1,"2003/09/12 04:00",6432.785,11.73,TRADE
NSW1,"2003/09/12 04:30",6365.05333,11.51,TRADE
NSW1,"2003/09/12 05:00",6419.64333,11.34,TRADE
NSW1,"2003/09/12 05:30",6622.48833,12.88,TRADE
NSW1,"2003/09/12 06:00",6971.73833,13.08,TRADE
NSW1,"2003/09/12 06:30",7694.66667,16.18,TRADE
NSW1,"2003/09/12 07:00",8425.90333,16.95,TRADE
NSW1,"2003/09/12 07:30",8595.55667,17.58,TRADE
NSW1,"2003/09/12 08:00",8985.435,20.56,TRADE
NSW1,"2003/09/12 08:30",9111.61167,21.43,TRADE
NSW1,"2003/09/12 09:00",9090.31167,20.96,TRADE
NSW1,"2003/09/12 09:30",9163.22833,21.15,TRADE
NSW1,"2003/09/12 10:00",9212.47667,20.71,TRADE
NSW1,"2003/09/12 10:30",9214.08833,20.96,TRADE
NSW1,"2003/09/12 11:00",9166.57333,21.61,TRADE
NSW1,"2003/09/12 11:30",9051.77833,20.34,TRADE
NSW1,"2003/09/12 12:00",8989.215,19.42,TRADE
NSW1,"2003/09/12 12:30",8994.415,20.68,TRADE
NSW1,"2003/09/12 13:00",8864.115,19.02,TRADE
NSW1,"2003/09/12 13:30",8854.96,20.5,TRADE
NSW1,"2003/09/12 14:00",8751.46,20.18,TRADE
NSW1,"2003/09/12 14:30",8703.90667,19.73,TRADE
NSW1,"2003/09/12 15:00",8619.99167,17.56,TRADE
NSW1,"2003/09/12 15:30",8562.85333,17,TRADE
NSW1,"2003/09/12 16:00",8673.33,17.08,TRADE
NSW1,"2003/09/12 16:30",8733.34167,17.06,TRADE
NSW1,"2003/09/12 17:00",8923.18833,17.02,TRADE
NSW1,"2003/09/12 17:30",9046.14167,19.77,TRADE
NSW1,"2003/09/12 18:00",9386.47833,22.34,TRADE
NSW1,"2003/09/12 18:30",9575.515,22.53,TRADE
NSW1,"2003/09/12 19:00",9525.18,22.17,TRADE
NSW1,"2003/09/12 19:30",9231.30167,20.98,TRADE
NSW1,"2003/09/12 20:00",9079.00167,18.05,TRADE
NSW1,"2003/09/12 20:30",8814.89667,19.85,TRADE
NSW1,"2003/09/12 21:00",8710.16167,18.25,TRADE
NSW1,"2003/09/12 21:30",8449.94667,16.54,TRADE
NSW1,"2003/09/12 22:00",8210.69167,15.46,TRADE
NSW1,"2003/09/12 22:30",8503.135,18.51,TRADE
NSW1,"2003/09/12 23:00",8509.40167,16.98,TRADE
NSW1,"2003/09/12 23:30",8495.93167,19.55,TRADE
NSW1,"2003/09/13 00:00",8369.65833,17.37,TRADE
NSW1,"2003/09/13 00:30",8137.49833,16.73,TRADE
NSW1,"2003/09/13 01:00",7970.37333,15.86,TRADE
NSW1,"2003/09/13 01:30",7822.05,16.07,TRADE
NSW1,"2003/09/13 02:00",7428.69667,14.7,TRADE
NSW1,"2003/09/13 02:30",7100.33167,14.2,TRADE
NSW1,"2003/09/13 03:00",6726.61167,13.38,TRADE
NSW1,"2003/09/13 03:30",6435.22,12.52,TRADE
NSW1,"2003/09/13 04:00",6243.975,11.28,TRADE
NSW1,"2003/09/13 04:30",6074.68833,10.02,TRADE
NSW1,"2003/09/13 05:00",6074.985,10.35,TRADE
NSW1,"2003/09/13 05:30",6167.325,11.04,TRADE
NSW1,"2003/09/13 06:00",6306.24,11.54,TRADE
NSW1,"2003/09/13 06:30",6573.17667,12.17,TRADE
NSW1,"2003/09/13 07:00",6907.90667,12.04,TRADE
NSW1,"2003/09/13 07:30",7274.65,12.54,TRADE
NSW1,"2003/09/13 08:00",7764.705,15.62,TRADE
NSW1,"2003/09/13 08:30",8182.28,15.63,TRADE
NSW1,"2003/09/13 09:00",8435.46333,16.83,TRADE
NSW1,"2003/09/13 09:30",8613.31167,17.14,TRADE
NSW1,"2003/09/13 10:00",8525.565,16.82,TRADE
NSW1,"2003/09/13 10:30",8491.79667,17,TRADE
NSW1,"2003/09/13 11:00",8314.59,16.65,TRADE
NSW1,"2003/09/13 11:30",8124.90833,16.24,TRADE
NSW1,"2003/09/13 12:00",8004.485,16.22,TRADE
NSW1,"2003/09/13 12:30",7820.80833,15.21,TRADE
NSW1,"2003/09/13 13:00",7734.80167,15.01,TRADE
NSW1,"2003/09/13 13:30",7640.21167,14.86,TRADE
NSW1,"2003/09/13 14:00",7486.27833,14.56,TRADE
NSW1,"2003/09/13 14:30",7407.52,14.2,TRADE
NSW1,"2003/09/13 15:00",7372.86833,13.98,TRADE
NSW1,"2003/09/13 15:30",7304.76333,13.84,TRADE
NSW1,"2003/09/13 16:00",7364.995,14.52,TRADE
NSW1,"2003/09/13 16:30",7428.41667,14.57,TRADE
NSW1,"2003/09/13 17:00",7575.88667,15.99,TRADE
NSW1,"2003/09/13 17:30",7615.22333,16.15,TRADE
NSW1,"2003/09/13 18:00",8171.17,20.56,TRADE
NSW1,"2003/09/13 18:30",8760.95,22.92,TRADE
NSW1,"2003/09/13 19:00",8835.35,22.91,TRADE
NSW1,"2003/09/13 19:30",8657.66667,21.69,TRADE
NSW1,"2003/09/13 20:00",8492.24,21.06,TRADE
NSW1,"2003/09/13 20:30",8321.35,19.13,TRADE
NSW1,"2003/09/13 21:00",8237.35,16.9,TRADE
NSW1,"2003/09/13 21:30",8110.505,16.89,TRADE
NSW1,"2003/09/13 22:00",7942.86333,15.48,TRADE
NSW1,"2003/09/13 22:30",8057.06,16.54,TRADE
NSW1,"2003/09/13 23:00",7995.37667,15.8,TRADE
NSW1,"2003/09/13 23:30",8000.49833,17.85,TRADE
NSW1,"2003/09/14 00:00",7703.92667,15.45,TRADE
NSW1,"2003/09/14 00:30",7460.175,15.01,TRADE
NSW1,"2003/09/14 01:00",7229.61667,14.63,TRADE
NSW1,"2003/09/14 01:30",7070.66333,17.61,TRADE
NSW1,"2003/09/14 02:00",6756.63167,13.63,TRADE
NSW1,"2003/09/14 02:30",6488.01,13.76,TRADE
NSW1,"2003/09/14 03:00",6221.42,13,TRADE
NSW1,"2003/09/14 03:30",6017.31167,12.56,TRADE
NSW1,"2003/09/14 04:00",5879.98833,11.62,TRADE
NSW1,"2003/09/14 04:30",5834.97167,10.87,TRADE
NSW1,"2003/09/14 05:00",5808.485,10.39,TRADE
NSW1,"2003/09/14 05:30",5887.48167,11.07,TRADE
NSW1,"2003/09/14 06:00",5979.60667,13.11,TRADE
NSW1,"2003/09/14 06:30",6092.505,11.76,TRADE
NSW1,"2003/09/14 07:00",6370.395,13.04,TRADE
NSW1,"2003/09/14 07:30",6591.94,13.98,TRADE
NSW1,"2003/09/14 08:00",6995.31667,15.53,TRADE
NSW1,"2003/09/14 08:30",7407.8,15.77,TRADE
NSW1,"2003/09/14 09:00",7658.65167,16.46,TRADE
NSW1,"2003/09/14 09:30",7905.05167,17.11,TRADE
NSW1,"2003/09/14 10:00",7945.17333,17.11,TRADE
NSW1,"2003/09/14 10:30",7970.78167,17.53,TRADE
NSW1,"2003/09/14 11:00",7941.15333,17.4,TRADE
NSW1,"2003/09/14 11:30",7828.04167,17.34,TRADE
NSW1,"2003/09/14 12:00",7755.77,17.06,TRADE
NSW1,"2003/09/14 12:30",7670.635,17.06,TRADE
NSW1,"2003/09/14 13:00",7604.37333,17,TRADE
NSW1,"2003/09/14 13:30",7511.43167,17,TRADE
NSW1,"2003/09/14 14:00",7355.29167,16.58,TRADE
NSW1,"2003/09/14 14:30",7337.18667,16.67,TRADE
NSW1,"2003/09/14 15:00",7279.09833,16.12,TRADE
NSW1,"2003/09/14 15:30",7297.99333,16.35,TRADE
NSW1,"2003/09/14 16:00",7302.94667,21.11,TRADE
NSW1,"2003/09/14 16:30",7402.57833,46.49,TRADE
NSW1,"2003/09/14 17:00",7536.68,42.75,TRADE
NSW1,"2003/09/14 17:30",7718.035,22.49,TRADE
NSW1,"2003/09/14 18:00",8345.26333,22.37,TRADE
NSW1,"2003/09/14 18:30",9007.79833,24,TRADE
NSW1,"2003/09/14 19:00",9115.33167,27.71,TRADE
NSW1,"2003/09/14 19:30",8938.54667,22.79,TRADE
NSW1,"2003/09/14 20:00",8820.83333,21.89,TRADE
NSW1,"2003/09/14 20:30",8662.56,21.76,TRADE
NSW1,"2003/09/14 21:00",8577.315,21.54,TRADE
NSW1,"2003/09/14 21:30",8381.7,20.21,TRADE
NSW1,"2003/09/14 22:00",8057.92333,15.81,TRADE
NSW1,"2003/09/14 22:30",8120.075,16.4,TRADE
NSW1,"2003/09/14 23:00",7967.08667,16.16,TRADE
NSW1,"2003/09/14 23:30",7955.13167,19.16,TRADE
NSW1,"2003/09/15 00:00",7666.02833,15.69,TRADE
NSW1,"2003/09/15 00:30",7432.57667,15.29,TRADE
NSW1,"2003/09/15 01:00",7315.02,16.46,TRADE
NSW1,"2003/09/15 01:30",7201.57333,18.12,TRADE
NSW1,"2003/09/15 02:00",6952.46667,15.98,TRADE
NSW1,"2003/09/15 02:30",6713.715,13.63,TRADE
NSW1,"2003/09/15 03:00",6465.38667,13.21,TRADE
NSW1,"2003/09/15 03:30",6248.27167,12.73,TRADE
NSW1,"2003/09/15 04:00",6179.52333,12.01,TRADE
NSW1,"2003/09/15 04:30",6176.31167,11.93,TRADE
NSW1,"2003/09/15 05:00",6234.635,12.59,TRADE
NSW1,"2003/09/15 05:30",6541.37833,13.24,TRADE
NSW1,"2003/09/15 06:00",6972.53833,13.73,TRADE
NSW1,"2003/09/15 06:30",7768.37167,16.55,TRADE
NSW1,"2003/09/15 07:00",8614.32833,18.11,TRADE
NSW1,"2003/09/15 07:30",8915.89833,20.08,TRADE
NSW1,"2003/09/15 08:00",9245.83667,21.9,TRADE
NSW1,"2003/09/15 08:30",9399.47833,21.9,TRADE
NSW1,"2003/09/15 09:00",9350.93,21.71,TRADE
NSW1,"2003/09/15 09:30",9462.03167,21.78,TRADE
NSW1,"2003/09/15 10:00",9411.26,21.66,TRADE
NSW1,"2003/09/15 10:30",9428.87667,21.74,TRADE
NSW1,"2003/09/15 11:00",9314.105,21.66,TRADE
NSW1,"2003/09/15 11:30",9212.50333,21.72,TRADE
NSW1,"2003/09/15 12:00",9145.70667,21.66,TRADE
NSW1,"2003/09/15 12:30",9095.58667,21.61,TRADE
NSW1,"2003/09/15 13:00",8982.13167,21.45,TRADE
NSW1,"2003/09/15 13:30",8950.40667,21.55,TRADE
NSW1,"2003/09/15 14:00",8874.26,21.47,TRADE
NSW1,"2003/09/15 14:30",8913.86167,21.59,TRADE
NSW1,"2003/09/15 15:00",8769.04333,21.29,TRADE
NSW1,"2003/09/15 15:30",8719.37333,21.16,TRADE
NSW1,"2003/09/15 16:00",8748.61833,21.22,TRADE
NSW1,"2003/09/15 16:30",8770.73,20.5,TRADE
NSW1,"2003/09/15 17:00",8974.74667,21.42,TRADE
NSW1,"2003/09/15 17:30",9185.99833,21.62,TRADE
NSW1,"2003/09/15 18:00",9762.445,22.63,TRADE
NSW1,"2003/09/15 18:30",10387.02833,39.47,TRADE
NSW1,"2003/09/15 19:00",10461.895,39.85,TRADE
NSW1,"2003/09/15 19:30",10185.06833,23.34,TRADE
NSW1,"2003/09/15 20:00",9974.52667,22.54,TRADE
NSW1,"2003/09/15 20:30",9732.815,23.14,TRADE
NSW1,"2003/09/15 21:00",9593.05333,22.7,TRADE
NSW1,"2003/09/15 21:30",9294.54167,21.73,TRADE
NSW1,"2003/09/15 22:00",8886.09167,20.87,TRADE
NSW1,"2003/09/15 22:30",9022.53,21.34,TRADE
NSW1,"2003/09/15 23:00",8841.975,21.24,TRADE
NSW1,"2003/09/15 23:30",8798.07167,21.56,TRADE
NSW1,"2003/09/16 00:00",8607.575,20.97,TRADE
NSW1,"2003/09/16 00:30",8409.96,18.83,TRADE
NSW1,"2003/09/16 01:00",8224.78167,17.69,TRADE
NSW1,"2003/09/16 01:30",8110.71333,19.72,TRADE
NSW1,"2003/09/16 02:00",7845.05,16.91,TRADE
NSW1,"2003/09/16 02:30",7412.58833,16.67,TRADE
NSW1,"2003/09/16 03:00",7073.47667,16.57,TRADE
NSW1,"2003/09/16 03:30",6712.89167,14.83,TRADE
NSW1,"2003/09/16 04:00",6528.99167,13.37,TRADE
NSW1,"2003/09/16 04:30",6396.50167,12.9,TRADE
NSW1,"2003/09/16 05:00",6367.35333,12.89,TRADE
NSW1,"2003/09/16 05:30",6662.05333,13.91,TRADE
NSW1,"2003/09/16 06:00",7044.41,13.98,TRADE
NSW1,"2003/09/16 06:30",7816.23167,18.41,TRADE
NSW1,"2003/09/16 07:00",8666.75833,21.13,TRADE
NSW1,"2003/09/16 07:30",8891.095,21.64,TRADE
NSW1,"2003/09/16 08:00",9213.48667,21.83,TRADE
NSW1,"2003/09/16 08:30",9264.64333,21.58,TRADE
NSW1,"2003/09/16 09:00",9194.35,21.4,TRADE
NSW1,"2003/09/16 09:30",9283.39667,21.53,TRADE
NSW1,"2003/09/16 10:00",9257.3,21.6,TRADE
NSW1,"2003/09/16 10:30",9236.71667,21.67,TRADE
NSW1,"2003/09/16 11:00",9042.95167,21.38,TRADE
NSW1,"2003/09/16 11:30",9041.73667,21.44,TRADE
NSW1,"2003/09/16 12:00",9056.985,21.52,TRADE
NSW1,"2003/09/16 12:30",9019.81,21.46,TRADE
NSW1,"2003/09/16 13:00",8934.535,21.29,TRADE
NSW1,"2003/09/16 13:30",8891.88,21.23,TRADE
NSW1,"2003/09/16 14:00",8813.70833,21.11,TRADE
NSW1,"2003/09/16 14:30",8799.845,21.19,TRADE
NSW1,"2003/09/16 15:00",8721.16167,21.19,TRADE
NSW1,"2003/09/16 15:30",8690.08667,18.99,TRADE
NSW1,"2003/09/16 16:00",8728.43833,19.21,TRADE
NSW1,"2003/09/16 16:30",8849.895,20.06,TRADE
NSW1,"2003/09/16 17:00",9005.54,21.28,TRADE
NSW1,"2003/09/16 17:30",9221.42167,21.4,TRADE
NSW1,"2003/09/16 18:00",9613.13333,22.18,TRADE
NSW1,"2003/09/16 18:30",10058.34833,32.46,TRADE
NSW1,"2003/09/16 19:00",10063.175,29.39,TRADE
NSW1,"2003/09/16 19:30",9822.52,22.23,TRADE
NSW1,"2003/09/16 20:00",9609.62333,21.9,TRADE
NSW1,"2003/09/16 20:30",9411.68167,21.97,TRADE
NSW1,"2003/09/16 21:00",9201.84333,21.54,TRADE
NSW1,"2003/09/16 21:30",8909.75667,21.23,TRADE
NSW1,"2003/09/16 22:00",8627.4,18.01,TRADE
NSW1,"2003/09/16 22:30",8738.92333,17.61,TRADE
NSW1,"2003/09/16 23:00",8572.59167,16.93,TRADE
NSW1,"2003/09/16 23:30",8572.54167,20.27,TRADE
NSW1,"2003/09/17 00:00",8415.89167,18.37,TRADE
NSW1,"2003/09/17 00:30",8251.08833,16.97,TRADE
NSW1,"2003/09/17 01:00",8078.84333,16.87,TRADE
NSW1,"2003/09/17 01:30",7987.10667,18.45,TRADE
NSW1,"2003/09/17 02:00",7724.18333,16.89,TRADE
NSW1,"2003/09/17 02:30",7308.29167,16.78,TRADE
NSW1,"2003/09/17 03:00",6921.00167,16.17,TRADE
NSW1,"2003/09/17 03:30",6621.99833,14.18,TRADE
NSW1,"2003/09/17 04:00",6405.30167,13.29,TRADE
NSW1,"2003/09/17 04:30",6306.44167,12.92,TRADE
NSW1,"2003/09/17 05:00",6341.23833,12.96,TRADE
NSW1,"2003/09/17 05:30",6594.01167,13.78,TRADE
NSW1,"2003/09/17 06:00",6966.72667,13.9,TRADE
NSW1,"2003/09/17 06:30",7691.36667,16.56,TRADE
NSW1,"2003/09/17 07:00",8373.525,17.14,TRADE
NSW1,"2003/09/17 07:30",8379.825,18.25,TRADE
NSW1,"2003/09/17 08:00",8611.46667,20.27,TRADE
NSW1,"2003/09/17 08:30",8902.55,20.91,TRADE
NSW1,"2003/09/17 09:00",9021.41333,21.17,TRADE
NSW1,"2003/09/17 09:30",9119.23167,21.28,TRADE
NSW1,"2003/09/17 10:00",9151.225,21.34,TRADE
NSW1,"2003/09/17 10:30",9175.26,21.3,TRADE
NSW1,"2003/09/17 11:00",9099.51667,20.02,TRADE
NSW1,"2003/09/17 11:30",8956.35,18.49,TRADE
NSW1,"2003/09/17 12:00",8971.89833,21.37,TRADE
NSW1,"2003/09/17 12:30",8895.82333,19.12,TRADE
NSW1,"2003/09/17 13:00",8845.705,19.67,TRADE
NSW1,"2003/09/17 13:30",8774.88667,19.34,TRADE
NSW1,"2003/09/17 14:00",8748.48333,18.51,TRADE
NSW1,"2003/09/17 14:30",8680.005,17.92,TRADE
NSW1,"2003/09/17 15:00",8616.045,16.94,TRADE
NSW1,"2003/09/17 15:30",8664.00167,17,TRADE
NSW1,"2003/09/17 16:00",8628.82833,16.96,TRADE
NSW1,"2003/09/17 16:30",8701.77167,17,TRADE
NSW1,"2003/09/17 17:00",8758.925,18.08,TRADE
NSW1,"2003/09/17 17:30",8845.38,20.17,TRADE
NSW1,"2003/09/17 18:00",9180.04333,21.54,TRADE
NSW1,"2003/09/17 18:30",9624.265,22.08,TRADE
NSW1,"2003/09/17 19:00",9612.13667,22.06,TRADE
NSW1,"2003/09/17 19:30",9346.89167,21.54,TRADE
NSW1,"2003/09/17 20:00",9099.585,20.97,TRADE
NSW1,"2003/09/17 20:30",8887.85,21.12,TRADE
NSW1,"2003/09/17 21:00",8760.56333,20.33,TRADE
NSW1,"2003/09/17 21:30",8505.455,18.98,TRADE
NSW1,"2003/09/17 22:00",8229.06833,16.8,TRADE
NSW1,"2003/09/17 22:30",8408.92333,17.39,TRADE
NSW1,"2003/09/17 23:00",8345.01833,16.96,TRADE
NSW1,"2003/09/17 23:30",8364.11667,20.13,TRADE
NSW1,"2003/09/18 00:00",8200.83167,17.45,TRADE
NSW1,"2003/09/18 00:30",8058.33,17,TRADE
NSW1,"2003/09/18 01:00",7891.62333,17,TRADE
NSW1,"2003/09/18 01:30",7805.36167,18.42,TRADE
NSW1,"2003/09/18 02:00",7506.54,16.77,TRADE
NSW1,"2003/09/18 02:30",7111.41333,16.42,TRADE
NSW1,"2003/09/18 03:00",6738.81167,15.4,TRADE
NSW1,"2003/09/18 03:30",6468.28667,13.47,TRADE
NSW1,"2003/09/18 04:00",6292.17833,12.87,TRADE
NSW1,"2003/09/18 04:30",6204.84167,12.78,TRADE
NSW1,"2003/09/18 05:00",6248.85167,12.84,TRADE
NSW1,"2003/09/18 05:30",6510.135,13.83,TRADE
NSW1,"2003/09/18 06:00",6866.36333,14.69,TRADE
NSW1,"2003/09/18 06:30",7613.17167,16.63,TRADE
NSW1,"2003/09/18 07:00",8337.34833,18.54,TRADE
NSW1,"2003/09/18 07:30",8527.30167,20.1,TRADE
NSW1,"2003/09/18 08:00",8907.225,21.4,TRADE
NSW1,"2003/09/18 08:30",9017.1,21.27,TRADE
NSW1,"2003/09/18 09:00",8969.86833,21.2,TRADE
NSW1,"2003/09/18 09:30",9069.37167,21.31,TRADE
NSW1,"2003/09/18 10:00",9132.60333,21.45,TRADE
NSW1,"2003/09/18 10:30",9007.84167,21.36,TRADE
NSW1,"2003/09/18 11:00",9008.61,21.53,TRADE
NSW1,"2003/09/18 11:30",8994.46833,21.64,TRADE
NSW1,"2003/09/18 12:00",8951.19,21.67,TRADE
NSW1,"2003/09/18 12:30",8906.13667,21.75,TRADE
NSW1,"2003/09/18 13:00",8856.68667,21.67,TRADE
NSW1,"2003/09/18 13:30",8839.71,21.65,TRADE
NSW1,"2003/09/18 14:00",8759.69333,21.51,TRADE
NSW1,"2003/09/18 14:30",8745.02167,20.94,TRADE
NSW1,"2003/09/18 15:00",8677.80167,20,TRADE
NSW1,"2003/09/18 15:30",8590.73167,18.77,TRADE
NSW1,"2003/09/18 16:00",8592.55667,18.05,TRADE
NSW1,"2003/09/18 16:30",8643.475,17.13,TRADE
NSW1,"2003/09/18 17:00",8672.26333,17.89,TRADE
NSW1,"2003/09/18 17:30",8727.88667,18.12,TRADE
NSW1,"2003/09/18 18:00",9114.47833,21.31,TRADE
NSW1,"2003/09/18 18:30",9513.83667,21.83,TRADE
NSW1,"2003/09/18 19:00",9595.59667,21.9,TRADE
NSW1,"2003/09/18 19:30",9372.24333,21.56,TRADE
NSW1,"2003/09/18 20:00",9157.54667,21.31,TRADE
NSW1,"2003/09/18 20:30",8986.61,20.98,TRADE
NSW1,"2003/09/18 21:00",8800.32667,19.3,TRADE
NSW1,"2003/09/18 21:30",8529.975,16.81,TRADE
NSW1,"2003/09/18 22:00",8234.825,16.36,TRADE
NSW1,"2003/09/18 22:30",8431.92167,18.05,TRADE
NSW1,"2003/09/18 23:00",8377.165,17.42,TRADE
NSW1,"2003/09/18 23:30",8390.775,20.33,TRADE
NSW1,"2003/09/19 00:00",8264.21,17.84,TRADE
NSW1,"2003/09/19 00:30",8098.87167,16.85,TRADE
NSW1,"2003/09/19 01:00",7941.75,16.33,TRADE
NSW1,"2003/09/19 01:30",7823.70667,17.43,TRADE
NSW1,"2003/09/19 02:00",7539.71667,16.84,TRADE
NSW1,"2003/09/19 02:30",7177.325,16.83,TRADE
NSW1,"2003/09/19 03:00",6790.01333,16.03,TRADE
NSW1,"2003/09/19 03:30",6490.825,14,TRADE
NSW1,"2003/09/19 04:00",6351.48167,13.15,TRADE
NSW1,"2003/09/19 04:30",6298.03667,12.9,TRADE
NSW1,"2003/09/19 05:00",6294.91,13.03,TRADE
NSW1,"2003/09/19 05:30",6557.08167,14.65,TRADE
NSW1,"2003/09/19 06:00",6929.26167,15.68,TRADE
NSW1,"2003/09/19 06:30",7623.92833,18.82,TRADE
NSW1,"2003/09/19 07:00",8404.77167,19.82,TRADE
NSW1,"2003/09/19 07:30",8520.91833,19.44,TRADE
NSW1,"2003/09/19 08:00",8867.56333,21.89,TRADE
NSW1,"2003/09/19 08:30",8965.01333,22.09,TRADE
NSW1,"2003/09/19 09:00",8889.3,21.89,TRADE
NSW1,"2003/09/19 09:30",8967.01333,22.19,TRADE
NSW1,"2003/09/19 10:00",8969.46333,22.37,TRADE
NSW1,"2003/09/19 10:30",8992.56,22.32,TRADE
NSW1,"2003/09/19 11:00",8965.52,22.02,TRADE
NSW1,"2003/09/19 11:30",8917.20667,22.02,TRADE
NSW1,"2003/09/19 12:00",8900.03167,29.08,TRADE
NSW1,"2003/09/19 12:30",8838.89,22.23,TRADE
NSW1,"2003/09/19 13:00",8812.155,21.8,TRADE
NSW1,"2003/09/19 13:30",8777.695,21.76,TRADE
NSW1,"2003/09/19 14:00",8702.91167,19.72,TRADE
NSW1,"2003/09/19 14:30",8678.955,19.4,TRADE
NSW1,"2003/09/19 15:00",8655.73167,18.61,TRADE
NSW1,"2003/09/19 15:30",8577.91333,17.25,TRADE
NSW1,"2003/09/19 16:00",8597.935,17.89,TRADE
NSW1,"2003/09/19 16:30",8600.45333,17.13,TRADE
NSW1,"2003/09/19 17:00",8609.20333,17.04,TRADE
NSW1,"2003/09/19 17:30",8578.84167,16.84,TRADE
NSW1,"2003/09/19 18:00",8629.42667,17.79,TRADE
NSW1,"2003/09/19 18:30",8815.71667,20.54,TRADE
NSW1,"2003/09/19 19:00",8930.93,21.65,TRADE
NSW1,"2003/09/19 19:30",8822.33667,21.3,TRADE
NSW1,"2003/09/19 20:00",8653.77,18.09,TRADE
NSW1,"2003/09/19 20:30",8470.13,19.88,TRADE
NSW1,"2003/09/19 21:00",8333.79833,17.48,TRADE
NSW1,"2003/09/19 21:30",8066.01667,16.44,TRADE
NSW1,"2003/09/19 22:00",7873.74833,16.35,TRADE
NSW1,"2003/09/19 22:30",8205.74667,16.95,TRADE
NSW1,"2003/09/19 23:00",8162.49833,17.05,TRADE
NSW1,"2003/09/19 23:30",8255.52167,20.77,TRADE
NSW1,"2003/09/20 00:00",8158.09333,19.48,TRADE
NSW1,"2003/09/20 00:30",7968.59,17,TRADE
NSW1,"2003/09/20 01:00",7837.795,17,TRADE
NSW1,"2003/09/20 01:30",7647.96333,18.5,TRADE
NSW1,"2003/09/20 02:00",7363.16333,16.26,TRADE
NSW1,"2003/09/20 02:30",7002.395,16.12,TRADE
NSW1,"2003/09/20 03:00",6636.50167,16.13,TRADE
NSW1,"2003/09/20 03:30",6348.98167,15.45,TRADE
NSW1,"2003/09/20 04:00",6182.17167,13.66,TRADE
NSW1,"2003/09/20 04:30",6047.395,13.13,TRADE
NSW1,"2003/09/20 05:00",6026.45333,12.97,TRADE
NSW1,"2003/09/20 05:30",6068.66833,12.97,TRADE
NSW1,"2003/09/20 06:00",6172.63167,13.88,TRADE
NSW1,"2003/09/20 06:30",6439.81667,14.69,TRADE
NSW1,"2003/09/20 07:00",6790.31833,16.43,TRADE
NSW1,"2003/09/20 07:30",7102.62833,16.24,TRADE
NSW1,"2003/09/20 08:00",7645.34,16.89,TRADE
NSW1,"2003/09/20 08:30",8003.17333,17.16,TRADE
NSW1,"2003/09/20 09:00",8232.815,18.88,TRADE
NSW1,"2003/09/20 09:30",8458.74833,21.65,TRADE
NSW1,"2003/09/20 10:00",8411.015,21.37,TRADE
NSW1,"2003/09/20 10:30",8364.07833,20.29,TRADE
NSW1,"2003/09/20 11:00",8222.61333,17.22,TRADE
NSW1,"2003/09/20 11:30",8073.56667,17,TRADE
NSW1,"2003/09/20 12:00",7976.64333,17,TRADE
NSW1,"2003/09/20 12:30",7858.91833,17,TRADE
NSW1,"2003/09/20 13:00",7787.05,16.89,TRADE
NSW1,"2003/09/20 13:30",7609.42167,16.56,TRADE
NSW1,"2003/09/20 14:00",7558.43333,16.35,TRADE
NSW1,"2003/09/20 14:30",7450.05167,16.35,TRADE
NSW1,"2003/09/20 15:00",7384.285,14.86,TRADE
NSW1,"2003/09/20 15:30",7307.29167,14.54,TRADE
NSW1,"2003/09/20 16:00",7318.70167,14.62,TRADE
NSW1,"2003/09/20 16:30",7361.14833,14.73,TRADE
NSW1,"2003/09/20 17:00",7515.645,14.68,TRADE
NSW1,"2003/09/20 17:30",7519.18833,15.17,TRADE
NSW1,"2003/09/20 18:00",7975.15667,16.85,TRADE
NSW1,"2003/09/20 18:30",8578.33667,21.01,TRADE
NSW1,"2003/09/20 19:00",8695.24333,21.94,TRADE
NSW1,"2003/09/20 19:30",8519.34833,20.72,TRADE
NSW1,"2003/09/20 20:00",8309.80333,18.3,TRADE
NSW1,"2003/09/20 20:30",8115.16,17,TRADE
NSW1,"2003/09/20 21:00",7989.27833,16.97,TRADE
NSW1,"2003/09/20 21:30",7844.37,16.02,TRADE
NSW1,"2003/09/20 22:00",7716.45667,15.25,TRADE
NSW1,"2003/09/20 22:30",7837.25167,15.38,TRADE
NSW1,"2003/09/20 23:00",7817.69833,14.87,TRADE
NSW1,"2003/09/20 23:30",7834.84167,17.31,TRADE
NSW1,"2003/09/21 00:00",7591.935,16.09,TRADE
NSW1,"2003/09/21 00:30",7393.25667,16.13,TRADE
NSW1,"2003/09/21 01:00",7182.76833,16.23,TRADE
NSW1,"2003/09/21 01:30",7003.27667,17.45,TRADE
NSW1,"2003/09/21 02:00",6749.59,15.05,TRADE
NSW1,"2003/09/21 02:30",6457.32333,14.29,TRADE
NSW1,"2003/09/21 03:00",6180.42333,13.53,TRADE
NSW1,"2003/09/21 03:30",6008.18667,12.43,TRADE
NSW1,"2003/09/21 04:00",5893.085,10.58,TRADE
NSW1,"2003/09/21 04:30",5805.81833,10.44,TRADE
NSW1,"2003/09/21 05:00",5752.40333,10.46,TRADE
NSW1,"2003/09/21 05:30",5843.495,10.86,TRADE
NSW1,"2003/09/21 06:00",5898.52667,10.74,TRADE
NSW1,"2003/09/21 06:30",6007.29167,9.74,TRADE
NSW1,"2003/09/21 07:00",6306.02667,9.83,TRADE
NSW1,"2003/09/21 07:30",6580.425,11.74,TRADE
NSW1,"2003/09/21 08:00",6991.20333,13.45,TRADE
NSW1,"2003/09/21 08:30",7406.24167,15.23,TRADE
NSW1,"2003/09/21 09:00",7727.84333,15.06,TRADE
NSW1,"2003/09/21 09:30",8002.255,15.8,TRADE
NSW1,"2003/09/21 10:00",8125.965,16.6,TRADE
NSW1,"2003/09/21 10:30",8141.40833,18.19,TRADE
NSW1,"2003/09/21 11:00",8072.43667,16.36,TRADE
NSW1,"2003/09/21 11:30",7995.96333,14.68,TRADE
NSW1,"2003/09/21 12:00",7954.71167,14.98,TRADE
NSW1,"2003/09/21 12:30",7866.885,16.35,TRADE
NSW1,"2003/09/21 13:00",7741.66167,16.42,TRADE
NSW1,"2003/09/21 13:30",7547.43167,16.35,TRADE
NSW1,"2003/09/21 14:00",7431.49833,15.78,TRADE
NSW1,"2003/09/21 14:30",7261.94167,14.42,TRADE
NSW1,"2003/09/21 15:00",7214.53167,14.28,TRADE
NSW1,"2003/09/21 15:30",7175.06,14.02,TRADE
NSW1,"2003/09/21 16:00",7141.7,14.02,TRADE
NSW1,"2003/09/21 16:30",7184.74833,14.07,TRADE
NSW1,"2003/09/21 17:00",7227.12,14.34,TRADE
NSW1,"2003/09/21 17:30",7238.93167,13.99,TRADE
NSW1,"2003/09/21 18:00",7644.31,16.51,TRADE
NSW1,"2003/09/21 18:30",8364.33667,19.84,TRADE
NSW1,"2003/09/21 19:00",8548.41833,21.35,TRADE
NSW1,"2003/09/21 19:30",8466.88833,20.28,TRADE
NSW1,"2003/09/21 20:00",8278.605,17.73,TRADE
NSW1,"2003/09/21 20:30",8056.06833,17,TRADE
NSW1,"2003/09/21 21:00",7944.87167,17,TRADE
NSW1,"2003/09/21 21:30",7722.77833,16.44,TRADE
NSW1,"2003/09/21 22:00",7538.20333,15.04,TRADE
NSW1,"2003/09/21 22:30",7608.57167,16.46,TRADE
NSW1,"2003/09/21 23:00",7555.51167,15.84,TRADE
NSW1,"2003/09/21 23:30",7528.19,17.71,TRADE
NSW1,"2003/09/22 00:00",7272.90667,16.17,TRADE
NSW1,"2003/09/22 00:30",7054.03,16.12,TRADE
NSW1,"2003/09/22 01:00",6901.83333,15.93,TRADE
NSW1,"2003/09/22 01:30",6764.04667,16.63,TRADE
NSW1,"2003/09/22 02:00",6646.42833,15.32,TRADE
NSW1,"2003/09/22 02:30",6412.64167,13.67,TRADE
NSW1,"2003/09/22 03:00",6140.24667,13.05,TRADE
NSW1,"2003/09/22 03:30",5999.58,12.52,TRADE
NSW1,"2003/09/22 04:00",5860.47,11.15,TRADE
NSW1,"2003/09/22 04:30",5897.96333,11.21,TRADE
NSW1,"2003/09/22 05:00",5977.09833,11.54,TRADE
NSW1,"2003/09/22 05:30",6246.76833,12.82,TRADE
NSW1,"2003/09/22 06:00",6636.88167,13.84,TRADE
NSW1,"2003/09/22 06:30",7268.55,14.74,TRADE
NSW1,"2003/09/22 07:00",8049.86,16.49,TRADE
NSW1,"2003/09/22 07:30",7977.29167,15.87,TRADE
NSW1,"2003/09/22 08:00",8334.72333,16.59,TRADE
NSW1,"2003/09/22 08:30",8689.55833,17.96,TRADE
NSW1,"2003/09/22 09:00",8804.77833,17.46,TRADE
NSW1,"2003/09/22 09:30",8965.13333,17.6,TRADE
NSW1,"2003/09/22 10:00",9031.98167,17,TRADE
NSW1,"2003/09/22 10:30",9043.92833,18.07,TRADE
NSW1,"2003/09/22 11:00",9137.27667,18.5,TRADE
NSW1,"2003/09/22 11:30",9092.595,19.44,TRADE
NSW1,"2003/09/22 12:00",9093.65833,19.9,TRADE
NSW1,"2003/09/22 12:30",9120.69833,20.65,TRADE
NSW1,"2003/09/22 13:00",9035.16,19.71,TRADE
NSW1,"2003/09/22 13:30",9137.78667,21.05,TRADE
NSW1,"2003/09/22 14:00",9116.48,20.14,TRADE
NSW1,"2003/09/22 14:30",9104.84833,20.14,TRADE
NSW1,"2003/09/22 15:00",9115.61,19.62,TRADE
NSW1,"2003/09/22 15:30",9129.21167,19.25,TRADE
NSW1,"2003/09/22 16:00",9150.265,18.73,TRADE
NSW1,"2003/09/22 16:30",9259.69667,19.06,TRADE
NSW1,"2003/09/22 17:00",9391.105,21.69,TRADE
NSW1,"2003/09/22 17:30",9346.445,20.78,TRADE
NSW1,"2003/09/22 18:00",9458.60333,21.7,TRADE
NSW1,"2003/09/22 18:30",9742.87667,22.25,TRADE
NSW1,"2003/09/22 19:00",9761.195,22.27,TRADE
NSW1,"2003/09/22 19:30",9457.42,20.64,TRADE
NSW1,"2003/09/22 20:00",9152.31,17.95,TRADE
NSW1,"2003/09/22 20:30",8887.065,18.24,TRADE
NSW1,"2003/09/22 21:00",8647.53833,16.95,TRADE
NSW1,"2003/09/22 21:30",8376.90833,16.61,TRADE
NSW1,"2003/09/22 22:00",8091.99667,15.57,TRADE
NSW1,"2003/09/22 22:30",8303.87333,16.47,TRADE
NSW1,"2003/09/22 23:00",8198.51667,16.66,TRADE
NSW1,"2003/09/22 23:30",8202.46333,19.17,TRADE
NSW1,"2003/09/23 00:00",8102.41667,16.81,TRADE
NSW1,"2003/09/23 00:30",7895.66667,16.46,TRADE
NSW1,"2003/09/23 01:00",7683.615,16.18,TRADE
NSW1,"2003/09/23 01:30",7600.56333,17.94,TRADE
NSW1,"2003/09/23 02:00",7353.23833,15.53,TRADE
NSW1,"2003/09/23 02:30",6947.055,14.7,TRADE
NSW1,"2003/09/23 03:00",6606.855,14.09,TRADE
NSW1,"2003/09/23 03:30",6352.05667,12.9,TRADE
NSW1,"2003/09/23 04:00",6187.595,11.76,TRADE
NSW1,"2003/09/23 04:30",6141.78833,11.34,TRADE
NSW1,"2003/09/23 05:00",6186.09,11.98,TRADE
NSW1,"2003/09/23 05:30",6429.56167,12.88,TRADE
NSW1,"2003/09/23 06:00",6716.88667,14.66,TRADE
NSW1,"2003/09/23 06:30",7437.41167,16.38,TRADE
NSW1,"2003/09/23 07:00",8023.59167,17,TRADE
NSW1,"2003/09/23 07:30",8338.53,17.17,TRADE
NSW1,"2003/09/23 08:00",8748.715,19.75,TRADE
NSW1,"2003/09/23 08:30",9075.64167,21.67,TRADE
NSW1,"2003/09/23 09:00",9143.265,21.77,TRADE
NSW1,"2003/09/23 09:30",9415.13667,22.53,TRADE
NSW1,"2003/09/23 10:00",9401.66667,27.09,TRADE
NSW1,"2003/09/23 10:30",9501.02,24.9,TRADE
NSW1,"2003/09/23 11:00",9500.21333,33.9,TRADE
NSW1,"2003/09/23 11:30",9440.92333,60.17,TRADE
NSW1,"2003/09/23 12:00",9398.93833,35.24,TRADE
NSW1,"2003/09/23 12:30",9359.29,33.18,TRADE
NSW1,"2003/09/23 13:00",9283.04667,27.53,TRADE
NSW1,"2003/09/23 13:30",9292.54667,37.63,TRADE
NSW1,"2003/09/23 14:00",9383.26,38.62,TRADE
NSW1,"2003/09/23 14:30",9392.32,37.46,TRADE
NSW1,"2003/09/23 15:00",9238.63667,28.05,TRADE
NSW1,"2003/09/23 15:30",9243.90167,29.22,TRADE
NSW1,"2003/09/23 16:00",9335.395,35.94,TRADE
NSW1,"2003/09/23 16:30",9393.69833,29,TRADE
NSW1,"2003/09/23 17:00",9493.65667,24.39,TRADE
NSW1,"2003/09/23 17:30",9555.03667,23.01,TRADE
NSW1,"2003/09/23 18:00",9795.24,22.86,TRADE
NSW1,"2003/09/23 18:30",9951.06,25.37,TRADE
NSW1,"2003/09/23 19:00",9869.53833,23,TRADE
NSW1,"2003/09/23 19:30",9546.27,22.05,TRADE
NSW1,"2003/09/23 20:00",9258.32667,21.17,TRADE
NSW1,"2003/09/23 20:30",9038.14333,21.41,TRADE
NSW1,"2003/09/23 21:00",8807.40833,18.27,TRADE
NSW1,"2003/09/23 21:30",8444.825,16.83,TRADE
NSW1,"2003/09/23 22:00",8206.12667,16.61,TRADE
NSW1,"2003/09/23 22:30",8382.8,16.98,TRADE
NSW1,"2003/09/23 23:00",8235.55833,16.87,TRADE
NSW1,"2003/09/23 23:30",8283.03333,18.57,TRADE
NSW1,"2003/09/24 00:00",8145.48833,17.37,TRADE
NSW1,"2003/09/24 00:30",7927.78,16.72,TRADE
NSW1,"2003/09/24 01:00",7780.00167,16.82,TRADE
NSW1,"2003/09/24 01:30",7573.30667,16.79,TRADE
NSW1,"2003/09/24 02:00",7265.75667,15.76,TRADE
NSW1,"2003/09/24 02:30",6882.59,15.69,TRADE
NSW1,"2003/09/24 03:00",6530.23333,14.01,TRADE
NSW1,"2003/09/24 03:30",6324.025,13,TRADE
NSW1,"2003/09/24 04:00",6155.18833,11.96,TRADE
NSW1,"2003/09/24 04:30",6093.255,11.22,TRADE
NSW1,"2003/09/24 05:00",6124.09167,11.79,TRADE
NSW1,"2003/09/24 05:30",6362.065,13.08,TRADE
NSW1,"2003/09/24 06:00",6712.425,14.26,TRADE
NSW1,"2003/09/24 06:30",7374.20333,16.17,TRADE
NSW1,"2003/09/24 07:00",8076.70667,15.4,TRADE
NSW1,"2003/09/24 07:30",8164.56,15.47,TRADE
NSW1,"2003/09/24 08:00",8759.65,17.13,TRADE
NSW1,"2003/09/24 08:30",8963.53167,17.62,TRADE
NSW1,"2003/09/24 09:00",9106.59667,17.25,TRADE
NSW1,"2003/09/24 09:30",9276.855,17.47,TRADE
NSW1,"2003/09/24 10:00",9294.05,17.41,TRADE
NSW1,"2003/09/24 10:30",9296.97333,17.9,TRADE
NSW1,"2003/09/24 11:00",9323.355,20.51,TRADE
NSW1,"2003/09/24 11:30",9251.10833,20.88,TRADE
NSW1,"2003/09/24 12:00",9251.76333,20.44,TRADE
NSW1,"2003/09/24 12:30",9273.00167,18.45,TRADE
NSW1,"2003/09/24 13:00",9255.52167,17.89,TRADE
NSW1,"2003/09/24 13:30",9278.595,18.65,TRADE
NSW1,"2003/09/24 14:00",9254.035,18.41,TRADE
NSW1,"2003/09/24 14:30",9271.88667,19.15,TRADE
NSW1,"2003/09/24 15:00",9256.05667,18.27,TRADE
NSW1,"2003/09/24 15:30",9221.8,17.85,TRADE
NSW1,"2003/09/24 16:00",9212.895,17.82,TRADE
NSW1,"2003/09/24 16:30",9247.81167,17.59,TRADE
NSW1,"2003/09/24 17:00",9211.99333,17.57,TRADE
NSW1,"2003/09/24 17:30",9096.78,17.62,TRADE
NSW1,"2003/09/24 18:00",9224.18667,17.71,TRADE
NSW1,"2003/09/24 18:30",9502.91333,19.59,TRADE
NSW1,"2003/09/24 19:00",9603.24167,20.5,TRADE
NSW1,"2003/09/24 19:30",9312.95667,17.41,TRADE
NSW1,"2003/09/24 20:00",9058.1,17.1,TRADE
NSW1,"2003/09/24 20:30",8778.11167,17.06,TRADE
NSW1,"2003/09/24 21:00",8618.24,16.8,TRADE
NSW1,"2003/09/24 21:30",8323.22167,15.89,TRADE
NSW1,"2003/09/24 22:00",8088.45,14.3,TRADE
NSW1,"2003/09/24 22:30",8250.34167,17.06,TRADE
NSW1,"2003/09/24 23:00",8203.66833,16.45,TRADE
NSW1,"2003/09/24 23:30",8238.2,17.03,TRADE
NSW1,"2003/09/25 00:00",8098.55,16.67,TRADE
NSW1,"2003/09/25 00:30",7868.495,15.64,TRADE
NSW1,"2003/09/25 01:00",7685.59833,14.56,TRADE
NSW1,"2003/09/25 01:30",7553.82167,15.92,TRADE
NSW1,"2003/09/25 02:00",7318.50833,14.53,TRADE
NSW1,"2003/09/25 02:30",6942.55167,14.18,TRADE
NSW1,"2003/09/25 03:00",6617.75667,13.36,TRADE
NSW1,"2003/09/25 03:30",6348.34167,12.23,TRADE
NSW1,"2003/09/25 04:00",6190.54167,10.41,TRADE
NSW1,"2003/09/25 04:30",6135.27167,10.6,TRADE
NSW1,"2003/09/25 05:00",6157.95667,10.83,TRADE
NSW1,"2003/09/25 05:30",6411.76667,12.95,TRADE
NSW1,"2003/09/25 06:00",6712.69667,13.8,TRADE
NSW1,"2003/09/25 06:30",7381.45833,15.56,TRADE
NSW1,"2003/09/25 07:00",8060.095,16.72,TRADE
NSW1,"2003/09/25 07:30",8278.99667,17.06,TRADE
NSW1,"2003/09/25 08:00",8642.91667,17,TRADE
NSW1,"2003/09/25 08:30",8847.94333,17.93,TRADE
NSW1,"2003/09/25 09:00",8910.81833,17.1,TRADE
NSW1,"2003/09/25 09:30",9107.94,18.14,TRADE
NSW1,"2003/09/25 10:00",9211.96,17.41,TRADE
NSW1,"2003/09/25 10:30",9216.27167,18.08,TRADE
NSW1,"2003/09/25 11:00",9240.72667,20.15,TRADE
NSW1,"2003/09/25 11:30",9271.15333,22.53,TRADE
NSW1,"2003/09/25 12:00",9271.645,22.37,TRADE
NSW1,"2003/09/25 12:30",9273.04667,21.85,TRADE
NSW1,"2003/09/25 13:00",9223.12,21.92,TRADE
NSW1,"2003/09/25 13:30",9327.31833,22.56,TRADE
NSW1,"2003/09/25 14:00",9309.43,22.68,TRADE
NSW1,"2003/09/25 14:30",9380.845,22.96,TRADE
NSW1,"2003/09/25 15:00",9316.50833,23.04,TRADE
NSW1,"2003/09/25 15:30",9279.40167,25.18,TRADE
NSW1,"2003/09/25 16:00",9275.03167,23.33,TRADE
NSW1,"2003/09/25 16:30",9288.43833,23.32,TRADE
NSW1,"2003/09/25 17:00",9293.78,23.16,TRADE
NSW1,"2003/09/25 17:30",9173.59833,22.63,TRADE
NSW1,"2003/09/25 18:00",9280.775,22.47,TRADE
NSW1,"2003/09/25 18:30",9558.305,29.28,TRADE
NSW1,"2003/09/25 19:00",9649.975,33.16,TRADE
NSW1,"2003/09/25 19:30",9368.74833,22.38,TRADE
NSW1,"2003/09/25 20:00",9100.43,21.63,TRADE
NSW1,"2003/09/25 20:30",8918.62833,21.43,TRADE
NSW1,"2003/09/25 21:00",8653.15833,20.81,TRADE
NSW1,"2003/09/25 21:30",8363.12667,18.34,TRADE
NSW1,"2003/09/25 22:00",8044.53167,16.93,TRADE
NSW1,"2003/09/25 22:30",8257.12833,18.64,TRADE
NSW1,"2003/09/25 23:00",8186.95333,17.56,TRADE
NSW1,"2003/09/25 23:30",8267.23,21.18,TRADE
NSW1,"2003/09/26 00:00",8071.19667,18.4,TRADE
NSW1,"2003/09/26 00:30",7887.96667,17,TRADE
NSW1,"2003/09/26 01:00",7702.66,17,TRADE
NSW1,"2003/09/26 01:30",7534.85667,16.96,TRADE
NSW1,"2003/09/26 02:00",7267.2,16.98,TRADE
NSW1,"2003/09/26 02:30",6886.23,15.73,TRADE
NSW1,"2003/09/26 03:00",6551.12833,14.09,TRADE
NSW1,"2003/09/26 03:30",6306.31833,12.32,TRADE
NSW1,"2003/09/26 04:00",6180.83667,11.33,TRADE
NSW1,"2003/09/26 04:30",6118.45833,11.46,TRADE
NSW1,"2003/09/26 05:00",6020.46167,10.9,TRADE
NSW1,"2003/09/26 05:30",6387.64167,14.26,TRADE
NSW1,"2003/09/26 06:00",6619.15167,14.58,TRADE
NSW1,"2003/09/26 06:30",7330.09,16.72,TRADE
NSW1,"2003/09/26 07:00",7984.30333,17.01,TRADE
NSW1,"2003/09/26 07:30",8181.68,17,TRADE
NSW1,"2003/09/26 08:00",8589.04667,18.61,TRADE
NSW1,"2003/09/26 08:30",8888.58833,21,TRADE
NSW1,"2003/09/26 09:00",8970.77833,20.94,TRADE
NSW1,"2003/09/26 09:30",9154.01333,21.24,TRADE
NSW1,"2003/09/26 10:00",9313.83167,21.57,TRADE
NSW1,"2003/09/26 10:30",9398.20333,21.88,TRADE
NSW1,"2003/09/26 11:00",9396.73333,22.09,TRADE
NSW1,"2003/09/26 11:30",9405.45833,22.41,TRADE
NSW1,"2003/09/26 12:00",9383.02833,25.27,TRADE
NSW1,"2003/09/26 12:30",9413.21667,24.28,TRADE
NSW1,"2003/09/26 13:00",9313.72,22.52,TRADE
NSW1,"2003/09/26 13:30",9312.90667,29.01,TRADE
NSW1,"2003/09/26 14:00",9343.76,30.37,TRADE
NSW1,"2003/09/26 14:30",9307.86167,31.11,TRADE
NSW1,"2003/09/26 15:00",9249.03333,26.56,TRADE
NSW1,"2003/09/26 15:30",9197.715,21.75,TRADE
NSW1,"2003/09/26 16:00",9185.64167,21.07,TRADE
NSW1,"2003/09/26 16:30",9141.355,20.16,TRADE
NSW1,"2003/09/26 17:00",9130.55667,20.25,TRADE
NSW1,"2003/09/26 17:30",9018.51,20.41,TRADE
NSW1,"2003/09/26 18:00",9046.38333,20.92,TRADE
NSW1,"2003/09/26 18:30",9161.41167,21.18,TRADE
NSW1,"2003/09/26 19:00",9288.09667,21.22,TRADE
NSW1,"2003/09/26 19:30",9002.01667,20.29,TRADE
NSW1,"2003/09/26 20:00",8728.52667,17.13,TRADE
NSW1,"2003/09/26 20:30",8537.35833,17.58,TRADE
NSW1,"2003/09/26 21:00",8340.96333,17,TRADE
NSW1,"2003/09/26 21:30",8096.13,16.79,TRADE
NSW1,"2003/09/26 22:00",7869.88833,16.48,TRADE
NSW1,"2003/09/26 22:30",8182.245,17,TRADE
NSW1,"2003/09/26 23:00",8107.62833,17,TRADE
NSW1,"2003/09/26 23:30",8203.30667,19.09,TRADE
NSW1,"2003/09/27 00:00",8083.635,17.17,TRADE
NSW1,"2003/09/27 00:30",7845.96,16.93,TRADE
NSW1,"2003/09/27 01:00",7650.25,16.7,TRADE
NSW1,"2003/09/27 01:30",7434.12333,16.93,TRADE
NSW1,"2003/09/27 02:00",7117.98167,16.34,TRADE
NSW1,"2003/09/27 02:30",6793.41,16.07,TRADE
NSW1,"2003/09/27 03:00",6433.79,15.12,TRADE
NSW1,"2003/09/27 03:30",6162.77833,14.2,TRADE
NSW1,"2003/09/27 04:00",5991.56,13.31,TRADE
NSW1,"2003/09/27 04:30",5889.78167,12.43,TRADE
NSW1,"2003/09/27 05:00",5902.31667,11.8,TRADE
NSW1,"2003/09/27 05:30",5947.675,12.1,TRADE
NSW1,"2003/09/27 06:00",6039.05833,12.58,TRADE
NSW1,"2003/09/27 06:30",6294.04833,12.73,TRADE
NSW1,"2003/09/27 07:00",6637.56333,13.38,TRADE
NSW1,"2003/09/27 07:30",6986.99,14.1,TRADE
NSW1,"2003/09/27 08:00",7447.40667,15.69,TRADE
NSW1,"2003/09/27 08:30",7823.385,16.68,TRADE
NSW1,"2003/09/27 09:00",8094.43167,17.31,TRADE
NSW1,"2003/09/27 09:30",8427.89167,20.85,TRADE
NSW1,"2003/09/27 10:00",8423.87833,21.03,TRADE
NSW1,"2003/09/27 10:30",8410.755,21.19,TRADE
NSW1,"2003/09/27 11:00",8260.88667,18.61,TRADE
NSW1,"2003/09/27 11:30",8174.17667,18.32,TRADE
NSW1,"2003/09/27 12:00",8068.21333,17.66,TRADE
NSW1,"2003/09/27 12:30",7939.44,17.87,TRADE
NSW1,"2003/09/27 13:00",7810.24667,17.01,TRADE
NSW1,"2003/09/27 13:30",7759.31,17.01,TRADE
NSW1,"2003/09/27 14:00",7619.52333,17,TRADE
NSW1,"2003/09/27 14:30",7561.08833,17,TRADE
NSW1,"2003/09/27 15:00",7458.645,17,TRADE
NSW1,"2003/09/27 15:30",7457.72333,16.89,TRADE
NSW1,"2003/09/27 16:00",7466.70333,16.67,TRADE
NSW1,"2003/09/27 16:30",7457.34833,16.35,TRADE
NSW1,"2003/09/27 17:00",7551.545,16.35,TRADE
NSW1,"2003/09/27 17:30",7535.335,15.63,TRADE
NSW1,"2003/09/27 18:00",7939.74333,16.69,TRADE
NSW1,"2003/09/27 18:30",8533.61167,20.04,TRADE
NSW1,"2003/09/27 19:00",8750.24333,21.59,TRADE
NSW1,"2003/09/27 19:30",8558.62833,20.54,TRADE
NSW1,"2003/09/27 20:00",8384.8,18.87,TRADE
NSW1,"2003/09/27 20:30",8200.08333,19.58,TRADE
NSW1,"2003/09/27 21:00",8073.01333,17.39,TRADE
NSW1,"2003/09/27 21:30",7919.85667,17,TRADE
NSW1,"2003/09/27 22:00",7795.26,16.57,TRADE
NSW1,"2003/09/27 22:30",7884.31833,16.69,TRADE
NSW1,"2003/09/27 23:00",7830.995,16.83,TRADE
NSW1,"2003/09/27 23:30",7879.38,17.11,TRADE
NSW1,"2003/09/28 00:00",7623.67333,16.87,TRADE
NSW1,"2003/09/28 00:30",7392.49667,16.84,TRADE
NSW1,"2003/09/28 01:00",7167.05333,16.41,TRADE
NSW1,"2003/09/28 01:30",7013.365,16.68,TRADE
NSW1,"2003/09/28 02:00",6759.13333,16.38,TRADE
NSW1,"2003/09/28 02:30",6430.345,15.26,TRADE
NSW1,"2003/09/28 03:00",6160.83167,14.36,TRADE
NSW1,"2003/09/28 03:30",5958.54667,13.91,TRADE
NSW1,"2003/09/28 04:00",5865.94833,13.17,TRADE
NSW1,"2003/09/28 04:30",5802.55167,12.34,TRADE
NSW1,"2003/09/28 05:00",5824.04167,12.21,TRADE
NSW1,"2003/09/28 05:30",5890.10333,12.2,TRADE
NSW1,"2003/09/28 06:00",5904.23167,12.27,TRADE
NSW1,"2003/09/28 06:30",6094.08667,12.5,TRADE
NSW1,"2003/09/28 07:00",6383.41833,12.5,TRADE
NSW1,"2003/09/28 07:30",6626.68167,13.27,TRADE
NSW1,"2003/09/28 08:00",6993.995,14.56,TRADE
NSW1,"2003/09/28 08:30",7368.69667,15.35,TRADE
NSW1,"2003/09/28 09:00",7639.885,16.42,TRADE
NSW1,"2003/09/28 09:30",7884.45167,16.87,TRADE
NSW1,"2003/09/28 10:00",7919.95333,16.99,TRADE
NSW1,"2003/09/28 10:30",7902.12333,16.98,TRADE
NSW1,"2003/09/28 11:00",7737.63667,16.42,TRADE
NSW1,"2003/09/28 11:30",7643.82,16.54,TRADE
NSW1,"2003/09/28 12:00",7547.87,16.78,TRADE
NSW1,"2003/09/28 12:30",7436.90833,16.36,TRADE
NSW1,"2003/09/28 13:00",7345.11333,16.35,TRADE
NSW1,"2003/09/28 13:30",7228.07,16.35,TRADE
NSW1,"2003/09/28 14:00",7114.84667,15.1,TRADE
NSW1,"2003/09/28 14:30",7047.64167,14.7,TRADE
NSW1,"2003/09/28 15:00",6999.69667,14.58,TRADE
NSW1,"2003/09/28 15:30",7041.59167,14.7,TRADE
NSW1,"2003/09/28 16:00",7060.85,14.73,TRADE
NSW1,"2003/09/28 16:30",7111.64333,15.2,TRADE
NSW1,"2003/09/28 17:00",7221.45167,15.85,TRADE
NSW1,"2003/09/28 17:30",7222.35667,15.99,TRADE
NSW1,"2003/09/28 18:00",7794.59333,18,TRADE
NSW1,"2003/09/28 18:30",8560.61167,21.71,TRADE
NSW1,"2003/09/28 19:00",8814.19167,21.97,TRADE
NSW1,"2003/09/28 19:30",8694.135,21.31,TRADE
NSW1,"2003/09/28 20:00",8542.15833,20.98,TRADE
NSW1,"2003/09/28 20:30",8437.09833,20.01,TRADE
NSW1,"2003/09/28 21:00",8275.67667,18.24,TRADE
NSW1,"2003/09/28 21:30",8126.03333,17.33,TRADE
NSW1,"2003/09/28 22:00",7872.5,16.9,TRADE
NSW1,"2003/09/28 22:30",7959.74833,17,TRADE
NSW1,"2003/09/28 23:00",7782.33,16.78,TRADE
NSW1,"2003/09/28 23:30",7713.16667,16.88,TRADE
NSW1,"2003/09/29 00:00",7459.37167,16.55,TRADE
NSW1,"2003/09/29 00:30",7278.06833,15.85,TRADE
NSW1,"2003/09/29 01:00",7061.81667,15.16,TRADE
NSW1,"2003/09/29 01:30",6975.03833,16.44,TRADE
NSW1,"2003/09/29 02:00",6771.85167,15.19,TRADE
NSW1,"2003/09/29 02:30",6538.61,14.5,TRADE
NSW1,"2003/09/29 03:00",6272.01667,13,TRADE
NSW1,"2003/09/29 03:30",6113.04167,12.64,TRADE
NSW1,"2003/09/29 04:00",6032.94167,11.94,TRADE
NSW1,"2003/09/29 04:30",6009.77167,11.44,TRADE
NSW1,"2003/09/29 05:00",6098.78333,12.58,TRADE
NSW1,"2003/09/29 05:30",6342.11167,13.28,TRADE
NSW1,"2003/09/29 06:00",6658.39,13.22,TRADE
NSW1,"2003/09/29 06:30",7378.84167,16.18,TRADE
NSW1,"2003/09/29 07:00",7990.32,16.62,TRADE
NSW1,"2003/09/29 07:30",8158.81167,16.96,TRADE
NSW1,"2003/09/29 08:00",8626.38333,18.15,TRADE
NSW1,"2003/09/29 08:30",8906.80667,20.83,TRADE
NSW1,"2003/09/29 09:00",8974.84167,20.75,TRADE
NSW1,"2003/09/29 09:30",9134.57,21,TRADE
NSW1,"2003/09/29 10:00",9132.25667,20.74,TRADE
NSW1,"2003/09/29 10:30",9157.73,20.45,TRADE
NSW1,"2003/09/29 11:00",9124.64,20.48,TRADE
NSW1,"2003/09/29 11:30",9071.70667,20.73,TRADE
NSW1,"2003/09/29 12:00",9015.405,19.87,TRADE
NSW1,"2003/09/29 12:30",8963.17333,19.48,TRADE
NSW1,"2003/09/29 13:00",8870.32,19.7,TRADE
NSW1,"2003/09/29 13:30",8841.84,19.78,TRADE
NSW1,"2003/09/29 14:00",8724.01,19.68,TRADE
NSW1,"2003/09/29 14:30",8717.14,19.95,TRADE
NSW1,"2003/09/29 15:00",8645.52833,18.93,TRADE
NSW1,"2003/09/29 15:30",8579.955,17.59,TRADE
NSW1,"2003/09/29 16:00",8629.35167,17.94,TRADE
NSW1,"2003/09/29 16:30",8626.23333,17,TRADE
NSW1,"2003/09/29 17:00",8745.72167,17.26,TRADE
NSW1,"2003/09/29 17:30",8895.42667,21.07,TRADE
NSW1,"2003/09/29 18:00",9250.615,21.92,TRADE
NSW1,"2003/09/29 18:30",9735.18,31.47,TRADE
NSW1,"2003/09/29 19:00",9947.46833,43.94,TRADE
NSW1,"2003/09/29 19:30",9713.73667,23.24,TRADE
NSW1,"2003/09/29 20:00",9476.08333,21.43,TRADE
NSW1,"2003/09/29 20:30",9223.24833,21.34,TRADE
NSW1,"2003/09/29 21:00",9114.34833,21.07,TRADE
NSW1,"2003/09/29 21:30",8846.80333,19.79,TRADE
NSW1,"2003/09/29 22:00",8515.29667,17.76,TRADE
NSW1,"2003/09/29 22:30",8680.03333,20.22,TRADE
NSW1,"2003/09/29 23:00",8536.52667,17.96,TRADE
NSW1,"2003/09/29 23:30",8487.62833,20.51,TRADE
NSW1,"2003/09/30 00:00",8338.235,19.1,TRADE
NSW1,"2003/09/30 00:30",8141.00667,17.45,TRADE
NSW1,"2003/09/30 01:00",7962.895,17,TRADE
NSW1,"2003/09/30 01:30",7824.56667,18.69,TRADE
NSW1,"2003/09/30 02:00",7591.36333,17.36,TRADE
NSW1,"2003/09/30 02:30",7205.435,17,TRADE
NSW1,"2003/09/30 03:00",6860.43667,16.78,TRADE
NSW1,"2003/09/30 03:30",6576.22,16.35,TRADE
NSW1,"2003/09/30 04:00",6355.76833,16.05,TRADE
NSW1,"2003/09/30 04:30",6262.755,15,TRADE
NSW1,"2003/09/30 05:00",6263.09167,15.17,TRADE
NSW1,"2003/09/30 05:30",6572.76333,16.69,TRADE
NSW1,"2003/09/30 06:00",6912.515,16.79,TRADE
NSW1,"2003/09/30 06:30",7626.55167,17,TRADE
NSW1,"2003/09/30 07:00",8267.095,19.19,TRADE
NSW1,"2003/09/30 07:30",8371.64,18.15,TRADE
NSW1,"2003/09/30 08:00",8454.965,20.2,TRADE
NSW1,"2003/09/30 08:30",8856.26667,21.21,TRADE
NSW1,"2003/09/30 09:00",9044.365,21.26,TRADE
NSW1,"2003/09/30 09:30",9130.45667,21.34,TRADE
NSW1,"2003/09/30 10:00",9132.73,21.18,TRADE
NSW1,"2003/09/30 10:30",9053.365,20.68,TRADE
NSW1,"2003/09/30 11:00",9060.42167,20.38,TRADE
NSW1,"2003/09/30 11:30",8959.12167,20.13,TRADE
NSW1,"2003/09/30 12:00",8819.43333,19.77,TRADE
NSW1,"2003/09/30 12:30",8664.755,18.91,TRADE
NSW1,"2003/09/30 13:00",8692.71833,19.16,TRADE
NSW1,"2003/09/30 13:30",8660.075,19.61,TRADE
NSW1,"2003/09/30 14:00",8628.695,18.63,TRADE
NSW1,"2003/09/30 14:30",8572.42,18.36,TRADE
NSW1,"2003/09/30 15:00",8503.14833,17.52,TRADE
NSW1,"2003/09/30 15:30",8482.18,17,TRADE
NSW1,"2003/09/30 16:00",8464.01,17,TRADE
NSW1,"2003/09/30 16:30",8476.19333,17,TRADE
NSW1,"2003/09/30 17:00",8580.565,17,TRADE
NSW1,"2003/09/30 17:30",8708.11833,18.46,TRADE
NSW1,"2003/09/30 18:00",9130.04,21.25,TRADE
NSW1,"2003/09/30 18:30",9618.82833,25.74,TRADE
NSW1,"2003/09/30 19:00",9851.795,40.92,TRADE
NSW1,"2003/09/30 19:30",9648.60333,22.4,TRADE
NSW1,"2003/09/30 20:00",9466.39167,21.39,TRADE
NSW1,"2003/09/30 20:30",9246.82167,21.32,TRADE
NSW1,"2003/09/30 21:00",9125.17333,21.12,TRADE
NSW1,"2003/09/30 21:30",8831.97833,20.25,TRADE
NSW1,"2003/09/30 22:00",8547.785,18.18,TRADE
NSW1,"2003/09/30 22:30",8704.90833,20.24,TRADE
NSW1,"2003/09/30 23:00",8520.89,18.3,TRADE
NSW1,"2003/09/30 23:30",8492.83667,20.7,TRADE
NSW1,"2003/10/01 00:00",8308.885,18.63,TRADE
