REGION,SETTLEMENTDATE,TOTALDEMAND,RRP,PERIODTYPE
NSW1,"2004/08/01 00:30:00",8353.15167,26.17,TRADE
NSW1,"2004/08/01 01:00:00",8094.71,23.74,TRADE
NSW1,"2004/08/01 01:30:00",7887.45,23.64,TRADE
NSW1,"2004/08/01 02:00:00",7620.93167,21.93,TRADE
NSW1,"2004/08/01 02:30:00",7251.23833,16.91,TRADE
NSW1,"2004/08/01 03:00:00",6962.32833,17.06,TRADE
NSW1,"2004/08/01 03:30:00",6732.77833,17.46,TRADE
NSW1,"2004/08/01 04:00:00",6628.885,17,TRADE
NSW1,"2004/08/01 04:30:00",6506.38333,16.98,TRADE
NSW1,"2004/08/01 05:00:00",6500.88833,16.86,TRADE
NSW1,"2004/08/01 05:30:00",6537.81333,16.61,TRADE
NSW1,"2004/08/01 06:00:00",6682.97833,16.14,TRADE
NSW1,"2004/08/01 06:30:00",6885.70833,16.66,TRADE
NSW1,"2004/08/01 07:00:00",7144.605,16.88,TRADE
NSW1,"2004/08/01 07:30:00",7483.74167,16.76,TRADE
NSW1,"2004/08/01 08:00:00",8037.89,19.98,TRADE
NSW1,"2004/08/01 08:30:00",8553.67333,27.26,TRADE
NSW1,"2004/08/01 09:00:00",8936.425,31.89,TRADE
NSW1,"2004/08/01 09:30:00",9146.74,37.88,TRADE
NSW1,"2004/08/01 10:00:00",9165.49333,40.07,TRADE
NSW1,"2004/08/01 10:30:00",9091.67,39.7,TRADE
NSW1,"2004/08/01 11:00:00",8936.06667,35.89,TRADE
NSW1,"2004/08/01 11:30:00",8737.90333,29.42,TRADE
NSW1,"2004/08/01 12:00:00",8507.67833,26.14,TRADE
NSW1,"2004/08/01 12:30:00",8396.47,25,TRADE
NSW1,"2004/08/01 13:00:00",8300.8,23.23,TRADE
NSW1,"2004/08/01 13:30:00",8156.035,21.05,TRADE
NSW1,"2004/08/01 14:00:00",8082.22667,19.07,TRADE
NSW1,"2004/08/01 14:30:00",7996.22667,18.53,TRADE
NSW1,"2004/08/01 15:00:00",8038.47833,16.92,TRADE
NSW1,"2004/08/01 15:30:00",8065.175,17.11,TRADE
NSW1,"2004/08/01 16:00:00",8166.115,17.36,TRADE
NSW1,"2004/08/01 16:30:00",8361.72833,18.23,TRADE
NSW1,"2004/08/01 17:00:00",8748.26333,22.16,TRADE
NSW1,"2004/08/01 17:30:00",9255.12333,30.09,TRADE
NSW1,"2004/08/01 18:00:00",10061.85,43.64,TRADE
NSW1,"2004/08/01 18:30:00",10471.53667,49.43,TRADE
NSW1,"2004/08/01 19:00:00",10419.17833,48.08,TRADE
NSW1,"2004/08/01 19:30:00",10098.67667,42.05,TRADE
NSW1,"2004/08/01 20:00:00",9883.20333,37.43,TRADE
NSW1,"2004/08/01 20:30:00",9912.815,38.27,TRADE
NSW1,"2004/08/01 21:00:00",9774.915,36.64,TRADE
NSW1,"2004/08/01 21:30:00",9555.57167,32.25,TRADE
NSW1,"2004/08/01 22:00:00",9136.775,27.14,TRADE
NSW1,"2004/08/01 22:30:00",9061.47167,27.59,TRADE
NSW1,"2004/08/01 23:00:00",8766.835,24.34,TRADE
NSW1,"2004/08/01 23:30:00",8532.16833,25.74,TRADE
NSW1,"2004/08/02 00:00:00",8263.41667,22.5,TRADE
NSW1,"2004/08/02 00:30:00",8053.13333,21.07,TRADE
NSW1,"2004/08/02 01:00:00",7869.515,20.06,TRADE
NSW1,"2004/08/02 01:30:00",7743.06167,22.69,TRADE
NSW1,"2004/08/02 02:00:00",7562.89667,21.03,TRADE
NSW1,"2004/08/02 02:30:00",7288.06167,18.35,TRADE
NSW1,"2004/08/02 03:00:00",7037.70833,19.07,TRADE
NSW1,"2004/08/02 03:30:00",6879.30167,17.54,TRADE
NSW1,"2004/08/02 04:00:00",6719.66,16.88,TRADE
NSW1,"2004/08/02 04:30:00",6705.14,16.2,TRADE
NSW1,"2004/08/02 05:00:00",6780.31833,16.41,TRADE
NSW1,"2004/08/02 05:30:00",7198.10333,18.78,TRADE
NSW1,"2004/08/02 06:00:00",7694.01,17.87,TRADE
NSW1,"2004/08/02 06:30:00",8593.86833,27.07,TRADE
NSW1,"2004/08/02 07:00:00",9515.19333,36.99,TRADE
NSW1,"2004/08/02 07:30:00",10100.93333,34.63,TRADE
NSW1,"2004/08/02 08:00:00",10689.51,43.11,TRADE
NSW1,"2004/08/02 08:30:00",10748.95833,39,TRADE
NSW1,"2004/08/02 09:00:00",10598.205,29.97,TRADE
NSW1,"2004/08/02 09:30:00",10540.77833,28.36,TRADE
NSW1,"2004/08/02 10:00:00",10379.65333,26.94,TRADE
NSW1,"2004/08/02 10:30:00",10242,28.45,TRADE
NSW1,"2004/08/02 11:00:00",10012.20167,27.76,TRADE
NSW1,"2004/08/02 11:30:00",9810.665,26.59,TRADE
NSW1,"2004/08/02 12:00:00",9653.64833,25,TRADE
NSW1,"2004/08/02 12:30:00",9566.83667,25,TRADE
NSW1,"2004/08/02 13:00:00",9420.58,25,TRADE
NSW1,"2004/08/02 13:30:00",9331.915,25,TRADE
NSW1,"2004/08/02 14:00:00",9268.03167,25,TRADE
NSW1,"2004/08/02 14:30:00",9232.39833,24.55,TRADE
NSW1,"2004/08/02 15:00:00",9138.36667,24.55,TRADE
NSW1,"2004/08/02 15:30:00",9128.20833,24.84,TRADE
NSW1,"2004/08/02 16:00:00",9316.54167,24.99,TRADE
NSW1,"2004/08/02 16:30:00",9656.995,26.8,TRADE
NSW1,"2004/08/02 17:00:00",10275.95833,32.57,TRADE
NSW1,"2004/08/02 17:30:00",10904.24167,40.82,TRADE
NSW1,"2004/08/02 18:00:00",11445.985,55.09,TRADE
NSW1,"2004/08/02 18:30:00",11541.21,61.75,TRADE
NSW1,"2004/08/02 19:00:00",11402.41167,47.78,TRADE
NSW1,"2004/08/02 19:30:00",11129.83667,40.99,TRADE
NSW1,"2004/08/02 20:00:00",10934.655,36.5,TRADE
NSW1,"2004/08/02 20:30:00",10695.35333,30.47,TRADE
NSW1,"2004/08/02 21:00:00",10471.835,28.52,TRADE
NSW1,"2004/08/02 21:30:00",10091.43,27.48,TRADE
NSW1,"2004/08/02 22:00:00",9644.07,23.45,TRADE
NSW1,"2004/08/02 22:30:00",9627.97,26.69,TRADE
NSW1,"2004/08/02 23:00:00",9379.12833,22.6,TRADE
NSW1,"2004/08/02 23:30:00",9167.875,26.52,TRADE
NSW1,"2004/08/03 00:00:00",8986.17667,22.27,TRADE
NSW1,"2004/08/03 00:30:00",8787.93333,19.71,TRADE
NSW1,"2004/08/03 01:00:00",8693.76167,17.9,TRADE
NSW1,"2004/08/03 01:30:00",8546.13167,21.97,TRADE
NSW1,"2004/08/03 02:00:00",8317.39167,19.1,TRADE
NSW1,"2004/08/03 02:30:00",7884.42833,16.88,TRADE
NSW1,"2004/08/03 03:00:00",7534.83333,16.35,TRADE
NSW1,"2004/08/03 03:30:00",7173.49667,16.13,TRADE
NSW1,"2004/08/03 04:00:00",6950.75333,15.93,TRADE
NSW1,"2004/08/03 04:30:00",6852.54667,15.16,TRADE
NSW1,"2004/08/03 05:00:00",6886.24333,15.47,TRADE
NSW1,"2004/08/03 05:30:00",7154.485,15.85,TRADE
NSW1,"2004/08/03 06:00:00",7628.17,16.55,TRADE
NSW1,"2004/08/03 06:30:00",8533.425,22.25,TRADE
NSW1,"2004/08/03 07:00:00",9449.56,29.27,TRADE
NSW1,"2004/08/03 07:30:00",9837.015,24,TRADE
NSW1,"2004/08/03 08:00:00",10301.87833,34.03,TRADE
NSW1,"2004/08/03 08:30:00",10356.64,32.25,TRADE
NSW1,"2004/08/03 09:00:00",10166.07167,28.07,TRADE
NSW1,"2004/08/03 09:30:00",10178.70333,27.72,TRADE
NSW1,"2004/08/03 10:00:00",10128.91667,26.74,TRADE
NSW1,"2004/08/03 10:30:00",10009.18667,27.04,TRADE
NSW1,"2004/08/03 11:00:00",9939.39167,25.06,TRADE
NSW1,"2004/08/03 11:30:00",9800.695,25.02,TRADE
NSW1,"2004/08/03 12:00:00",9744.19833,25.61,TRADE
NSW1,"2004/08/03 12:30:00",9730.58,25.71,TRADE
NSW1,"2004/08/03 13:00:00",9664.19167,25,TRADE
NSW1,"2004/08/03 13:30:00",9672.38167,25.77,TRADE
NSW1,"2004/08/03 14:00:00",9567.48333,25,TRADE
NSW1,"2004/08/03 14:30:00",9553.14167,25.96,TRADE
NSW1,"2004/08/03 15:00:00",9532.68833,24.32,TRADE
NSW1,"2004/08/03 15:30:00",9482.28833,23.36,TRADE
NSW1,"2004/08/03 16:00:00",9600.81,24.92,TRADE
NSW1,"2004/08/03 16:30:00",9783.50333,25.24,TRADE
NSW1,"2004/08/03 17:00:00",10159.82333,27.87,TRADE
NSW1,"2004/08/03 17:30:00",10821.11833,35.89,TRADE
NSW1,"2004/08/03 18:00:00",11675.945,59.93,TRADE
NSW1,"2004/08/03 18:30:00",11922.855,73.09,TRADE
NSW1,"2004/08/03 19:00:00",11939.11667,70.6,TRADE
NSW1,"2004/08/03 19:30:00",11683.57,44.9,TRADE
NSW1,"2004/08/03 20:00:00",11519.37,40.88,TRADE
NSW1,"2004/08/03 20:30:00",11314.28667,39.94,TRADE
NSW1,"2004/08/03 21:00:00",11020.80667,34.21,TRADE
NSW1,"2004/08/03 21:30:00",10614.61,34.9,TRADE
NSW1,"2004/08/03 22:00:00",10132.80833,30.42,TRADE
NSW1,"2004/08/03 22:30:00",10118.28333,32.29,TRADE
NSW1,"2004/08/03 23:00:00",9785.57,26.57,TRADE
NSW1,"2004/08/03 23:30:00",9526.59333,31.32,TRADE
NSW1,"2004/08/04 00:00:00",9288.405,24.79,TRADE
NSW1,"2004/08/04 00:30:00",9092.49667,22.39,TRADE
NSW1,"2004/08/04 01:00:00",8960.03,19.58,TRADE
NSW1,"2004/08/04 01:30:00",8762.52,22.87,TRADE
NSW1,"2004/08/04 02:00:00",8505.135,19.7,TRADE
NSW1,"2004/08/04 02:30:00",8127.76833,17.59,TRADE
NSW1,"2004/08/04 03:00:00",7737.07333,16.82,TRADE
NSW1,"2004/08/04 03:30:00",7378.36667,16.68,TRADE
NSW1,"2004/08/04 04:00:00",7202.15,16.58,TRADE
NSW1,"2004/08/04 04:30:00",7091.20167,16.35,TRADE
NSW1,"2004/08/04 05:00:00",7105.41667,16.33,TRADE
NSW1,"2004/08/04 05:30:00",7433.67833,16.47,TRADE
NSW1,"2004/08/04 06:00:00",7875.375,17.22,TRADE
NSW1,"2004/08/04 06:30:00",8805.82,26.9,TRADE
NSW1,"2004/08/04 07:00:00",9721.60667,31.3,TRADE
NSW1,"2004/08/04 07:30:00",10199.12833,27.95,TRADE
NSW1,"2004/08/04 08:00:00",10724.9,38.25,TRADE
NSW1,"2004/08/04 08:30:00",10809.90167,33.17,TRADE
NSW1,"2004/08/04 09:00:00",10704.90333,29.14,TRADE
NSW1,"2004/08/04 09:30:00",10691.505,28.77,TRADE
NSW1,"2004/08/04 10:00:00",10520.81167,28.14,TRADE
NSW1,"2004/08/04 10:30:00",10388.71333,28.01,TRADE
NSW1,"2004/08/04 11:00:00",10232.72667,28.04,TRADE
NSW1,"2004/08/04 11:30:00",10110.17167,24.82,TRADE
NSW1,"2004/08/04 12:00:00",10003.30333,25.73,TRADE
NSW1,"2004/08/04 12:30:00",9942.715,24.98,TRADE
NSW1,"2004/08/04 13:00:00",9782.03833,23.7,TRADE
NSW1,"2004/08/04 13:30:00",9736.90667,26.32,TRADE
NSW1,"2004/08/04 14:00:00",9601.65833,25.01,TRADE
NSW1,"2004/08/04 14:30:00",9563.55833,25,TRADE
NSW1,"2004/08/04 15:00:00",9476.17833,22.96,TRADE
NSW1,"2004/08/04 15:30:00",9528.085,23.04,TRADE
NSW1,"2004/08/04 16:00:00",9674.28,25,TRADE
NSW1,"2004/08/04 16:30:00",9842.78,26.09,TRADE
NSW1,"2004/08/04 17:00:00",10250.65167,28.76,TRADE
NSW1,"2004/08/04 17:30:00",10833.89333,35.59,TRADE
NSW1,"2004/08/04 18:00:00",11794.74333,61.19,TRADE
NSW1,"2004/08/04 18:30:00",12011.73833,68.1,TRADE
NSW1,"2004/08/04 19:00:00",11993.135,63.68,TRADE
NSW1,"2004/08/04 19:30:00",11794.34667,44.18,TRADE
NSW1,"2004/08/04 20:00:00",11556.06333,40.63,TRADE
NSW1,"2004/08/04 20:30:00",11348.49,42.3,TRADE
NSW1,"2004/08/04 21:00:00",11067.455,38.35,TRADE
NSW1,"2004/08/04 21:30:00",10651.175,35.38,TRADE
NSW1,"2004/08/04 22:00:00",10137.845,31.01,TRADE
NSW1,"2004/08/04 22:30:00",10088.44667,36.11,TRADE
NSW1,"2004/08/04 23:00:00",9763.00833,24.37,TRADE
NSW1,"2004/08/04 23:30:00",9544.72333,27.72,TRADE
NSW1,"2004/08/05 00:00:00",9296.46333,24.16,TRADE
NSW1,"2004/08/05 00:30:00",9137.76667,24.35,TRADE
NSW1,"2004/08/05 01:00:00",8947.87667,23.62,TRADE
NSW1,"2004/08/05 01:30:00",8835.16833,23.53,TRADE
NSW1,"2004/08/05 02:00:00",8605.10167,20.72,TRADE
NSW1,"2004/08/05 02:30:00",8203.33833,17.25,TRADE
NSW1,"2004/08/05 03:00:00",7798.79,16.9,TRADE
NSW1,"2004/08/05 03:30:00",7471.19167,16.66,TRADE
NSW1,"2004/08/05 04:00:00",7233.17833,16.51,TRADE
NSW1,"2004/08/05 04:30:00",7105.14,16.31,TRADE
NSW1,"2004/08/05 05:00:00",7131.21833,16.48,TRADE
NSW1,"2004/08/05 05:30:00",7424.23667,16.54,TRADE
NSW1,"2004/08/05 06:00:00",7877.085,17.54,TRADE
NSW1,"2004/08/05 06:30:00",8833.815,22.43,TRADE
NSW1,"2004/08/05 07:00:00",9740.83833,28.27,TRADE
NSW1,"2004/08/05 07:30:00",10232.78833,26.31,TRADE
NSW1,"2004/08/05 08:00:00",10670.23833,32.68,TRADE
NSW1,"2004/08/05 08:30:00",10699.48,29.67,TRADE
NSW1,"2004/08/05 09:00:00",10447.34667,27.32,TRADE
NSW1,"2004/08/05 09:30:00",10394.99,27.6,TRADE
NSW1,"2004/08/05 10:00:00",10305.015,25.87,TRADE
NSW1,"2004/08/05 10:30:00",10201.91667,26,TRADE
NSW1,"2004/08/05 11:00:00",10038.14,26.22,TRADE
NSW1,"2004/08/05 11:30:00",9877.535,24.21,TRADE
NSW1,"2004/08/05 12:00:00",9727.845,23.58,TRADE
NSW1,"2004/08/05 12:30:00",9615.14833,23.36,TRADE
NSW1,"2004/08/05 13:00:00",9553.46,21.78,TRADE
NSW1,"2004/08/05 13:30:00",9500.68,23.38,TRADE
NSW1,"2004/08/05 14:00:00",9368.77333,21.5,TRADE
NSW1,"2004/08/05 14:30:00",9371.69167,23.14,TRADE
NSW1,"2004/08/05 15:00:00",9286.07833,21.74,TRADE
NSW1,"2004/08/05 15:30:00",9242.67333,18,TRADE
NSW1,"2004/08/05 16:00:00",9333.62667,19.04,TRADE
NSW1,"2004/08/05 16:30:00",9451.575,22.22,TRADE
NSW1,"2004/08/05 17:00:00",9783.055,25.95,TRADE
NSW1,"2004/08/05 17:30:00",10340.51333,27.53,TRADE
NSW1,"2004/08/05 18:00:00",11259.05167,40.48,TRADE
NSW1,"2004/08/05 18:30:00",11576.24833,43.71,TRADE
NSW1,"2004/08/05 19:00:00",11578.99167,44.84,TRADE
NSW1,"2004/08/05 19:30:00",11372.28167,42,TRADE
NSW1,"2004/08/05 20:00:00",11236.165,34.74,TRADE
NSW1,"2004/08/05 20:30:00",11109.38167,39.04,TRADE
NSW1,"2004/08/05 21:00:00",10854.45333,35.85,TRADE
NSW1,"2004/08/05 21:30:00",10492.46333,31.05,TRADE
NSW1,"2004/08/05 22:00:00",10079.205,26.23,TRADE
NSW1,"2004/08/05 22:30:00",10042.86167,33.34,TRADE
NSW1,"2004/08/05 23:00:00",9769.24833,27.64,TRADE
NSW1,"2004/08/05 23:30:00",9569.23167,28.42,TRADE
NSW1,"2004/08/06 00:00:00",9303.565,27.2,TRADE
NSW1,"2004/08/06 00:30:00",9073.625,25,TRADE
NSW1,"2004/08/06 01:00:00",8928.745,25,TRADE
NSW1,"2004/08/06 01:30:00",8767.845,26.81,TRADE
NSW1,"2004/08/06 02:00:00",8532.54833,23.89,TRADE
NSW1,"2004/08/06 02:30:00",8142.45,19.8,TRADE
NSW1,"2004/08/06 03:00:00",7749.22833,17.47,TRADE
NSW1,"2004/08/06 03:30:00",7427.3,18.12,TRADE
NSW1,"2004/08/06 04:00:00",7223.87167,18,TRADE
NSW1,"2004/08/06 04:30:00",7110.28167,18.03,TRADE
NSW1,"2004/08/06 05:00:00",7179.59833,18,TRADE
NSW1,"2004/08/06 05:30:00",7432.99833,20.69,TRADE
NSW1,"2004/08/06 06:00:00",7924.035,20.61,TRADE
NSW1,"2004/08/06 06:30:00",8841.98,27.41,TRADE
NSW1,"2004/08/06 07:00:00",9732.775,36.99,TRADE
NSW1,"2004/08/06 07:30:00",10219.27833,35.63,TRADE
NSW1,"2004/08/06 08:00:00",10675.12333,39.79,TRADE
NSW1,"2004/08/06 08:30:00",10702.53667,35.62,TRADE
NSW1,"2004/08/06 09:00:00",10507.90333,31.93,TRADE
NSW1,"2004/08/06 09:30:00",10375.02667,29.32,TRADE
NSW1,"2004/08/06 10:00:00",10253.86833,29.77,TRADE
NSW1,"2004/08/06 10:30:00",10179.96167,39.68,TRADE
NSW1,"2004/08/06 11:00:00",10015.34667,39.85,TRADE
NSW1,"2004/08/06 11:30:00",9756.48833,34.18,TRADE
NSW1,"2004/08/06 12:00:00",9629.53333,29.55,TRADE
NSW1,"2004/08/06 12:30:00",9542.46167,26.23,TRADE
NSW1,"2004/08/06 13:00:00",9427.10667,24.54,TRADE
NSW1,"2004/08/06 13:30:00",9384.89667,25,TRADE
NSW1,"2004/08/06 14:00:00",9315.35,24.4,TRADE
NSW1,"2004/08/06 14:30:00",9279.12,24.47,TRADE
NSW1,"2004/08/06 15:00:00",9144.06333,23.14,TRADE
NSW1,"2004/08/06 15:30:00",9129.30333,21.36,TRADE
NSW1,"2004/08/06 16:00:00",9144.275,16.93,TRADE
NSW1,"2004/08/06 16:30:00",9301.94333,21.57,TRADE
NSW1,"2004/08/06 17:00:00",9582.46333,24.82,TRADE
NSW1,"2004/08/06 17:30:00",10102.98667,26.77,TRADE
NSW1,"2004/08/06 18:00:00",10892.52833,38.67,TRADE
NSW1,"2004/08/06 18:30:00",11135.14833,42.07,TRADE
NSW1,"2004/08/06 19:00:00",11132.93,41.71,TRADE
NSW1,"2004/08/06 19:30:00",10926.74833,40.51,TRADE
NSW1,"2004/08/06 20:00:00",10768.58833,36.25,TRADE
NSW1,"2004/08/06 20:30:00",10634.585,34.98,TRADE
NSW1,"2004/08/06 21:00:00",10454.28833,29.44,TRADE
NSW1,"2004/08/06 21:30:00",10198.41167,28.74,TRADE
NSW1,"2004/08/06 22:00:00",9893.35667,27.94,TRADE
NSW1,"2004/08/06 22:30:00",10081.29833,37.18,TRADE
NSW1,"2004/08/06 23:00:00",9921.47167,28.24,TRADE
NSW1,"2004/08/06 23:30:00",9699.71333,29.1,TRADE
NSW1,"2004/08/07 00:00:00",9459.07667,28.54,TRADE
NSW1,"2004/08/07 00:30:00",9260.41667,26.5,TRADE
NSW1,"2004/08/07 01:00:00",8996.42,25,TRADE
NSW1,"2004/08/07 01:30:00",8834.51333,24.46,TRADE
NSW1,"2004/08/07 02:00:00",8458.19,23.46,TRADE
NSW1,"2004/08/07 02:30:00",8115.41833,22.52,TRADE
NSW1,"2004/08/07 03:00:00",7679.86833,19.95,TRADE
NSW1,"2004/08/07 03:30:00",7338.28667,18.2,TRADE
NSW1,"2004/08/07 04:00:00",7087.11167,17.63,TRADE
NSW1,"2004/08/07 04:30:00",6934.51333,18.29,TRADE
NSW1,"2004/08/07 05:00:00",6889.00333,17.39,TRADE
NSW1,"2004/08/07 05:30:00",6969.47,17.22,TRADE
NSW1,"2004/08/07 06:00:00",7153.47,17.74,TRADE
NSW1,"2004/08/07 06:30:00",7489.92333,18.5,TRADE
NSW1,"2004/08/07 07:00:00",7850.725,18.83,TRADE
NSW1,"2004/08/07 07:30:00",8379.74333,19.06,TRADE
NSW1,"2004/08/07 08:00:00",9064.655,24.12,TRADE
NSW1,"2004/08/07 08:30:00",9608.77333,28.07,TRADE
NSW1,"2004/08/07 09:00:00",9878.58333,30.8,TRADE
NSW1,"2004/08/07 09:30:00",10079.28167,35.27,TRADE
NSW1,"2004/08/07 10:00:00",9882.125,29.17,TRADE
NSW1,"2004/08/07 10:30:00",9768.67167,29.06,TRADE
NSW1,"2004/08/07 11:00:00",9424.965,26.72,TRADE
NSW1,"2004/08/07 11:30:00",9158.91833,23.97,TRADE
NSW1,"2004/08/07 12:00:00",8908.21667,22.89,TRADE
NSW1,"2004/08/07 12:30:00",8785.05833,22.56,TRADE
NSW1,"2004/08/07 13:00:00",8585.40667,21.04,TRADE
NSW1,"2004/08/07 13:30:00",8485.615,19.72,TRADE
NSW1,"2004/08/07 14:00:00",8323.19333,18.21,TRADE
NSW1,"2004/08/07 14:30:00",8275.96667,18.25,TRADE
NSW1,"2004/08/07 15:00:00",8237.41167,18.01,TRADE
NSW1,"2004/08/07 15:30:00",8234.32,17.87,TRADE
NSW1,"2004/08/07 16:00:00",8386.08167,18.09,TRADE
NSW1,"2004/08/07 16:30:00",8659.57833,17.93,TRADE
NSW1,"2004/08/07 17:00:00",9079.97667,22.21,TRADE
NSW1,"2004/08/07 17:30:00",9512.85833,27.58,TRADE
NSW1,"2004/08/07 18:00:00",10407.29333,40.94,TRADE
NSW1,"2004/08/07 18:30:00",10679.215,44.95,TRADE
NSW1,"2004/08/07 19:00:00",10572.39333,44.28,TRADE
NSW1,"2004/08/07 19:30:00",10358.11833,40.8,TRADE
NSW1,"2004/08/07 20:00:00",10220.64833,32.82,TRADE
NSW1,"2004/08/07 20:30:00",10019.14667,29.45,TRADE
NSW1,"2004/08/07 21:00:00",9877.74667,29.68,TRADE
NSW1,"2004/08/07 21:30:00",9722.035,29.5,TRADE
NSW1,"2004/08/07 22:00:00",9479.06667,27.04,TRADE
NSW1,"2004/08/07 22:30:00",9457.25,29.54,TRADE
NSW1,"2004/08/07 23:00:00",9306.08667,26.96,TRADE
NSW1,"2004/08/07 23:30:00",9185.44,27.9,TRADE
NSW1,"2004/08/08 00:00:00",8871.42167,24.71,TRADE
NSW1,"2004/08/08 00:30:00",8579.40667,23.74,TRADE
NSW1,"2004/08/08 01:00:00",8256.555,22.22,TRADE
NSW1,"2004/08/08 01:30:00",8027.34,20.88,TRADE
NSW1,"2004/08/08 02:00:00",7710.24333,17.76,TRADE
NSW1,"2004/08/08 02:30:00",7402.52,17.85,TRADE
NSW1,"2004/08/08 03:00:00",7077.68167,16.88,TRADE
NSW1,"2004/08/08 03:30:00",6854.76667,16.3,TRADE
NSW1,"2004/08/08 04:00:00",6687.16167,16.44,TRADE
NSW1,"2004/08/08 04:30:00",6599.86833,16.7,TRADE
NSW1,"2004/08/08 05:00:00",6549.80167,16.73,TRADE
NSW1,"2004/08/08 05:30:00",6657.40333,16.39,TRADE
NSW1,"2004/08/08 06:00:00",6753.72667,15.62,TRADE
NSW1,"2004/08/08 06:30:00",6991.03,16.07,TRADE
NSW1,"2004/08/08 07:00:00",7184.23333,16.19,TRADE
NSW1,"2004/08/08 07:30:00",7622.005,14.99,TRADE
NSW1,"2004/08/08 08:00:00",8234.40167,19.08,TRADE
NSW1,"2004/08/08 08:30:00",8793.57,21.98,TRADE
NSW1,"2004/08/08 09:00:00",9193.87667,23.13,TRADE
NSW1,"2004/08/08 09:30:00",9385.75333,24.17,TRADE
NSW1,"2004/08/08 10:00:00",9389.505,24.88,TRADE
NSW1,"2004/08/08 10:30:00",9258.17667,24.23,TRADE
NSW1,"2004/08/08 11:00:00",9094.775,22.62,TRADE
NSW1,"2004/08/08 11:30:00",8932.88167,23.88,TRADE
NSW1,"2004/08/08 12:00:00",8810.03833,23.24,TRADE
NSW1,"2004/08/08 12:30:00",8637.385,21.77,TRADE
NSW1,"2004/08/08 13:00:00",8444.22,18.89,TRADE
NSW1,"2004/08/08 13:30:00",8293.565,18.77,TRADE
NSW1,"2004/08/08 14:00:00",8100.30333,16.9,TRADE
NSW1,"2004/08/08 14:30:00",8012.88667,17,TRADE
NSW1,"2004/08/08 15:00:00",8003.925,16.9,TRADE
NSW1,"2004/08/08 15:30:00",8055.05167,17.7,TRADE
NSW1,"2004/08/08 16:00:00",8145.71667,17.29,TRADE
NSW1,"2004/08/08 16:30:00",8345.52833,18.07,TRADE
NSW1,"2004/08/08 17:00:00",8705.25,20.54,TRADE
NSW1,"2004/08/08 17:30:00",9202.03,25.34,TRADE
NSW1,"2004/08/08 18:00:00",10173.59,41.88,TRADE
NSW1,"2004/08/08 18:30:00",10731.245,61.66,TRADE
NSW1,"2004/08/08 19:00:00",10719.485,47.87,TRADE
NSW1,"2004/08/08 19:30:00",10554.15667,43.82,TRADE
NSW1,"2004/08/08 20:00:00",10522.51,38.18,TRADE
NSW1,"2004/08/08 20:30:00",10361.82667,34.51,TRADE
NSW1,"2004/08/08 21:00:00",10240.35833,34.8,TRADE
NSW1,"2004/08/08 21:30:00",9908.15833,31.02,TRADE
NSW1,"2004/08/08 22:00:00",9488.71667,26.04,TRADE
NSW1,"2004/08/08 22:30:00",9290.15,24.95,TRADE
NSW1,"2004/08/08 23:00:00",8979.69333,23.26,TRADE
NSW1,"2004/08/08 23:30:00",8718.47,22.47,TRADE
NSW1,"2004/08/09 00:00:00",8386.14333,20.9,TRADE
NSW1,"2004/08/09 00:30:00",8144.59333,19.1,TRADE
NSW1,"2004/08/09 01:00:00",7970.01333,18.97,TRADE
NSW1,"2004/08/09 01:30:00",7781.035,20.05,TRADE
NSW1,"2004/08/09 02:00:00",7597.73667,17.63,TRADE
NSW1,"2004/08/09 02:30:00",7307.32167,16.88,TRADE
NSW1,"2004/08/09 03:00:00",7061.63667,16.92,TRADE
NSW1,"2004/08/09 03:30:00",6865.00667,16.47,TRADE
NSW1,"2004/08/09 04:00:00",6742.79833,16.43,TRADE
NSW1,"2004/08/09 04:30:00",6730.68333,16.28,TRADE
NSW1,"2004/08/09 05:00:00",6855.68167,16.57,TRADE
NSW1,"2004/08/09 05:30:00",7194.25,16.95,TRADE
NSW1,"2004/08/09 06:00:00",7709.14667,16.89,TRADE
NSW1,"2004/08/09 06:30:00",8640.61333,21.66,TRADE
NSW1,"2004/08/09 07:00:00",9662.93667,24.95,TRADE
NSW1,"2004/08/09 07:30:00",10141.49167,24.27,TRADE
NSW1,"2004/08/09 08:00:00",10622.57167,29.36,TRADE
NSW1,"2004/08/09 08:30:00",10527.915,28.82,TRADE
NSW1,"2004/08/09 09:00:00",10468.85333,28.24,TRADE
NSW1,"2004/08/09 09:30:00",10359.46167,25.92,TRADE
NSW1,"2004/08/09 10:00:00",10250.18333,24.36,TRADE
NSW1,"2004/08/09 10:30:00",10123.91333,23.76,TRADE
NSW1,"2004/08/09 11:00:00",10038.36667,23.77,TRADE
NSW1,"2004/08/09 11:30:00",9856.815,23.42,TRADE
NSW1,"2004/08/09 12:00:00",9728.97667,23.2,TRADE
NSW1,"2004/08/09 12:30:00",9649.73333,23.08,TRADE
NSW1,"2004/08/09 13:00:00",9496.39333,21.89,TRADE
NSW1,"2004/08/09 13:30:00",9451.10167,22.93,TRADE
NSW1,"2004/08/09 14:00:00",9331.31667,22.91,TRADE
NSW1,"2004/08/09 14:30:00",9298.55333,22.5,TRADE
NSW1,"2004/08/09 15:00:00",9237.5,21.75,TRADE
NSW1,"2004/08/09 15:30:00",9180.74667,16.77,TRADE
NSW1,"2004/08/09 16:00:00",9243.55833,17.18,TRADE
NSW1,"2004/08/09 16:30:00",9417.12833,18.42,TRADE
NSW1,"2004/08/09 17:00:00",9740.68833,22.77,TRADE
NSW1,"2004/08/09 17:30:00",10247.07333,26.37,TRADE
NSW1,"2004/08/09 18:00:00",11093.42,37.38,TRADE
NSW1,"2004/08/09 18:30:00",11489.81833,42.88,TRADE
NSW1,"2004/08/09 19:00:00",11426.97667,42.64,TRADE
NSW1,"2004/08/09 19:30:00",11280.81667,36.48,TRADE
NSW1,"2004/08/09 20:00:00",11099.925,28.84,TRADE
NSW1,"2004/08/09 20:30:00",10950.775,28.75,TRADE
NSW1,"2004/08/09 21:00:00",10733.41667,29.17,TRADE
NSW1,"2004/08/09 21:30:00",10386.64667,28.7,TRADE
NSW1,"2004/08/09 22:00:00",9955.72667,26.66,TRADE
NSW1,"2004/08/09 22:30:00",9990.37333,31.63,TRADE
NSW1,"2004/08/09 23:00:00",9653.39167,26.04,TRADE
NSW1,"2004/08/09 23:30:00",9530.36833,27.58,TRADE
NSW1,"2004/08/10 00:00:00",9219.41167,23.92,TRADE
NSW1,"2004/08/10 00:30:00",9040.48333,22.63,TRADE
NSW1,"2004/08/10 01:00:00",8869.45333,22.48,TRADE
NSW1,"2004/08/10 01:30:00",8739.28833,21.91,TRADE
NSW1,"2004/08/10 02:00:00",8518.74167,18.22,TRADE
NSW1,"2004/08/10 02:30:00",8194.175,17.96,TRADE
NSW1,"2004/08/10 03:00:00",7771.565,17.1,TRADE
NSW1,"2004/08/10 03:30:00",7460.69,16.56,TRADE
NSW1,"2004/08/10 04:00:00",7215.24833,16.57,TRADE
NSW1,"2004/08/10 04:30:00",7107.35333,16.81,TRADE
NSW1,"2004/08/10 05:00:00",7136.2,16.97,TRADE
NSW1,"2004/08/10 05:30:00",7494.15167,17.37,TRADE
NSW1,"2004/08/10 06:00:00",7959.28833,17.67,TRADE
NSW1,"2004/08/10 06:30:00",8944.28667,24.23,TRADE
NSW1,"2004/08/10 07:00:00",9779.82667,27.64,TRADE
NSW1,"2004/08/10 07:30:00",10334.15,28.64,TRADE
NSW1,"2004/08/10 08:00:00",10747.27333,33.47,TRADE
NSW1,"2004/08/10 08:30:00",10790.57,30.08,TRADE
NSW1,"2004/08/10 09:00:00",10528.35667,26.18,TRADE
NSW1,"2004/08/10 09:30:00",10436.155,25.04,TRADE
NSW1,"2004/08/10 10:00:00",10254.95,24.27,TRADE
NSW1,"2004/08/10 10:30:00",10135.11,24.11,TRADE
NSW1,"2004/08/10 11:00:00",10054.235,23.48,TRADE
NSW1,"2004/08/10 11:30:00",9884.26333,23.04,TRADE
NSW1,"2004/08/10 12:00:00",9747.96833,22.5,TRADE
NSW1,"2004/08/10 12:30:00",9667.93167,22.24,TRADE
NSW1,"2004/08/10 13:00:00",9500.23167,21.55,TRADE
NSW1,"2004/08/10 13:30:00",9441.595,22.18,TRADE
NSW1,"2004/08/10 14:00:00",9297.575,20.91,TRADE
NSW1,"2004/08/10 14:30:00",9274.265,20.86,TRADE
NSW1,"2004/08/10 15:00:00",9253.895,19.93,TRADE
NSW1,"2004/08/10 15:30:00",9120.22333,18,TRADE
NSW1,"2004/08/10 16:00:00",9301.72333,18.5,TRADE
NSW1,"2004/08/10 16:30:00",9435.01667,18.76,TRADE
NSW1,"2004/08/10 17:00:00",9826.54667,21.92,TRADE
NSW1,"2004/08/10 17:30:00",10485.16333,24.44,TRADE
NSW1,"2004/08/10 18:00:00",11336.405,37.39,TRADE
NSW1,"2004/08/10 18:30:00",11724.09167,43.77,TRADE
NSW1,"2004/08/10 19:00:00",11699.98833,43.79,TRADE
NSW1,"2004/08/10 19:30:00",11498.66833,41.67,TRADE
NSW1,"2004/08/10 20:00:00",11319.20667,32.37,TRADE
NSW1,"2004/08/10 20:30:00",11185.21333,31.59,TRADE
NSW1,"2004/08/10 21:00:00",10852.06833,29.38,TRADE
NSW1,"2004/08/10 21:30:00",10507.355,30.11,TRADE
NSW1,"2004/08/10 22:00:00",10085.13,25.96,TRADE
NSW1,"2004/08/10 22:30:00",10084.425,34.45,TRADE
NSW1,"2004/08/10 23:00:00",9735.27333,31.82,TRADE
NSW1,"2004/08/10 23:30:00",9489.09333,30.63,TRADE
NSW1,"2004/08/11 00:00:00",9256.32333,25.84,TRADE
NSW1,"2004/08/11 00:30:00",9054.62167,24.54,TRADE
NSW1,"2004/08/11 01:00:00",8906.29,23.19,TRADE
NSW1,"2004/08/11 01:30:00",8788.55667,22.27,TRADE
NSW1,"2004/08/11 02:00:00",8568.97333,20.84,TRADE
NSW1,"2004/08/11 02:30:00",8133.86,18.19,TRADE
NSW1,"2004/08/11 03:00:00",7780.76167,17.99,TRADE
NSW1,"2004/08/11 03:30:00",7428.96833,18.13,TRADE
NSW1,"2004/08/11 04:00:00",7216.35,17.62,TRADE
NSW1,"2004/08/11 04:30:00",7117.24833,17.65,TRADE
NSW1,"2004/08/11 05:00:00",7076.94,15.69,TRADE
NSW1,"2004/08/11 05:30:00",7424.31167,17.17,TRADE
NSW1,"2004/08/11 06:00:00",7867.085,16.57,TRADE
NSW1,"2004/08/11 06:30:00",8884.15167,21.85,TRADE
NSW1,"2004/08/11 07:00:00",9813.34667,23.92,TRADE
NSW1,"2004/08/11 07:30:00",10275.255,26.33,TRADE
NSW1,"2004/08/11 08:00:00",10814.995,34.23,TRADE
NSW1,"2004/08/11 08:30:00",10757.47167,32.03,TRADE
NSW1,"2004/08/11 09:00:00",10490.24333,26.33,TRADE
NSW1,"2004/08/11 09:30:00",10323.485,24.93,TRADE
NSW1,"2004/08/11 10:00:00",10146.33,24.82,TRADE
NSW1,"2004/08/11 10:30:00",9965.27667,24.65,TRADE
NSW1,"2004/08/11 11:00:00",9842.755,24.33,TRADE
NSW1,"2004/08/11 11:30:00",9607.92833,24.47,TRADE
NSW1,"2004/08/11 12:00:00",9507.91333,24.31,TRADE
NSW1,"2004/08/11 12:30:00",9396.20833,23.37,TRADE
NSW1,"2004/08/11 13:00:00",9256.47,21.35,TRADE
NSW1,"2004/08/11 13:30:00",9214.45167,22.51,TRADE
NSW1,"2004/08/11 14:00:00",9135.5,21.57,TRADE
NSW1,"2004/08/11 14:30:00",9044.86167,20.68,TRADE
NSW1,"2004/08/11 15:00:00",9014.20167,20.58,TRADE
NSW1,"2004/08/11 15:30:00",9002.83833,20.18,TRADE
NSW1,"2004/08/11 16:00:00",9072.675,19.55,TRADE
NSW1,"2004/08/11 16:30:00",9242.235,21.85,TRADE
NSW1,"2004/08/11 17:00:00",9502.20667,23.4,TRADE
NSW1,"2004/08/11 17:30:00",10007.42167,25.86,TRADE
NSW1,"2004/08/11 18:00:00",10897.06167,36.96,TRADE
NSW1,"2004/08/11 18:30:00",11287.20167,42.55,TRADE
NSW1,"2004/08/11 19:00:00",11275.84,43.48,TRADE
NSW1,"2004/08/11 19:30:00",11101.03333,40.48,TRADE
NSW1,"2004/08/11 20:00:00",10857.685,31.07,TRADE
NSW1,"2004/08/11 20:30:00",10744.49333,31.88,TRADE
NSW1,"2004/08/11 21:00:00",10540.28,27.2,TRADE
NSW1,"2004/08/11 21:30:00",10213.73333,26.24,TRADE
NSW1,"2004/08/11 22:00:00",9741.86333,24.15,TRADE
NSW1,"2004/08/11 22:30:00",9790.41333,25.62,TRADE
NSW1,"2004/08/11 23:00:00",9502.03667,23.52,TRADE
NSW1,"2004/08/11 23:30:00",9308.85167,24.38,TRADE
NSW1,"2004/08/12 00:00:00",9207.425,23.65,TRADE
NSW1,"2004/08/12 00:30:00",9080.89667,22.02,TRADE
NSW1,"2004/08/12 01:00:00",8905.74333,20.2,TRADE
NSW1,"2004/08/12 01:30:00",8721.72833,19.57,TRADE
NSW1,"2004/08/12 02:00:00",8485.92,17.87,TRADE
NSW1,"2004/08/12 02:30:00",8041.84667,16.92,TRADE
NSW1,"2004/08/12 03:00:00",7690.16333,16.07,TRADE
NSW1,"2004/08/12 03:30:00",7331.21833,16.75,TRADE
NSW1,"2004/08/12 04:00:00",7105.335,16.65,TRADE
NSW1,"2004/08/12 04:30:00",6988.44333,16.73,TRADE
NSW1,"2004/08/12 05:00:00",7008.82667,17.11,TRADE
NSW1,"2004/08/12 05:30:00",7324.67167,17.13,TRADE
NSW1,"2004/08/12 06:00:00",7775.15667,17.02,TRADE
NSW1,"2004/08/12 06:30:00",8729.42333,22.68,TRADE
NSW1,"2004/08/12 07:00:00",9671.75333,24.01,TRADE
NSW1,"2004/08/12 07:30:00",10073.55333,22.95,TRADE
NSW1,"2004/08/12 08:00:00",10615.33333,28.36,TRADE
NSW1,"2004/08/12 08:30:00",10622.66333,27.39,TRADE
NSW1,"2004/08/12 09:00:00",10325.44667,24.53,TRADE
NSW1,"2004/08/12 09:30:00",10198.51,24.82,TRADE
NSW1,"2004/08/12 10:00:00",10037.99333,23.16,TRADE
NSW1,"2004/08/12 10:30:00",9878.88,21.53,TRADE
NSW1,"2004/08/12 11:00:00",9731.025,19.92,TRADE
NSW1,"2004/08/12 11:30:00",9524.33833,18.52,TRADE
NSW1,"2004/08/12 12:00:00",9430.12333,17.08,TRADE
NSW1,"2004/08/12 12:30:00",9299.84,16.61,TRADE
NSW1,"2004/08/12 13:00:00",9181.595,16.5,TRADE
NSW1,"2004/08/12 13:30:00",9124.57833,16.77,TRADE
NSW1,"2004/08/12 14:00:00",9047.575,16.5,TRADE
NSW1,"2004/08/12 14:30:00",9019.02667,16.51,TRADE
NSW1,"2004/08/12 15:00:00",8951.185,16.5,TRADE
NSW1,"2004/08/12 15:30:00",8888.695,16.53,TRADE
NSW1,"2004/08/12 16:00:00",8936.29667,16.89,TRADE
NSW1,"2004/08/12 16:30:00",9097.30167,17.06,TRADE
NSW1,"2004/08/12 17:00:00",9388.81833,20.25,TRADE
NSW1,"2004/08/12 17:30:00",9855.89167,23.1,TRADE
NSW1,"2004/08/12 18:00:00",10668.19667,33.41,TRADE
NSW1,"2004/08/12 18:30:00",11008.99833,41.6,TRADE
NSW1,"2004/08/12 19:00:00",11055.15333,42.39,TRADE
NSW1,"2004/08/12 19:30:00",10898.86,37.87,TRADE
NSW1,"2004/08/12 20:00:00",10733.42,28.38,TRADE
NSW1,"2004/08/12 20:30:00",10654.61833,28.71,TRADE
NSW1,"2004/08/12 21:00:00",10490.505,25.32,TRADE
NSW1,"2004/08/12 21:30:00",10125.17,25.84,TRADE
NSW1,"2004/08/12 22:00:00",9658.89667,24.45,TRADE
NSW1,"2004/08/12 22:30:00",9737.38833,25.01,TRADE
NSW1,"2004/08/12 23:00:00",9520.27,24,TRADE
NSW1,"2004/08/12 23:30:00",9343.58667,24.83,TRADE
NSW1,"2004/08/13 00:00:00",9095.71,22.05,TRADE
NSW1,"2004/08/13 00:30:00",8967.725,21.92,TRADE
NSW1,"2004/08/13 01:00:00",8812.97167,20.12,TRADE
NSW1,"2004/08/13 01:30:00",8652.14,19.76,TRADE
NSW1,"2004/08/13 02:00:00",8391.14667,17.41,TRADE
NSW1,"2004/08/13 02:30:00",8002.39167,16.97,TRADE
NSW1,"2004/08/13 03:00:00",7616.16667,16.01,TRADE
NSW1,"2004/08/13 03:30:00",7294.76167,16.23,TRADE
NSW1,"2004/08/13 04:00:00",7085.88667,16.48,TRADE
NSW1,"2004/08/13 04:30:00",6980.02833,16.4,TRADE
NSW1,"2004/08/13 05:00:00",7039.84167,16.63,TRADE
NSW1,"2004/08/13 05:30:00",7310.55833,16.59,TRADE
NSW1,"2004/08/13 06:00:00",7752.28667,17.01,TRADE
NSW1,"2004/08/13 06:30:00",8664.51167,23.24,TRADE
NSW1,"2004/08/13 07:00:00",9528.90333,26.93,TRADE
NSW1,"2004/08/13 07:30:00",10000.555,24.89,TRADE
NSW1,"2004/08/13 08:00:00",10438.66333,32.1,TRADE
NSW1,"2004/08/13 08:30:00",10530.955,31.04,TRADE
NSW1,"2004/08/13 09:00:00",10283.685,27.11,TRADE
NSW1,"2004/08/13 09:30:00",10190.98833,25.49,TRADE
NSW1,"2004/08/13 10:00:00",10051.80167,24.72,TRADE
NSW1,"2004/08/13 10:30:00",9860.97167,24.44,TRADE
NSW1,"2004/08/13 11:00:00",9692.815,23.6,TRADE
NSW1,"2004/08/13 11:30:00",9568.54333,23.91,TRADE
NSW1,"2004/08/13 12:00:00",9516.195,23.42,TRADE
NSW1,"2004/08/13 12:30:00",9353.47667,23.15,TRADE
NSW1,"2004/08/13 13:00:00",9351.02833,23.15,TRADE
NSW1,"2004/08/13 13:30:00",9266.18167,23.41,TRADE
NSW1,"2004/08/13 14:00:00",9202.625,23.37,TRADE
NSW1,"2004/08/13 14:30:00",9122.35,23.23,TRADE
NSW1,"2004/08/13 15:00:00",8984.47333,22.57,TRADE
NSW1,"2004/08/13 15:30:00",9012.15,22.47,TRADE
NSW1,"2004/08/13 16:00:00",9048.6,22.46,TRADE
NSW1,"2004/08/13 16:30:00",9131.155,22.5,TRADE
NSW1,"2004/08/13 17:00:00",9366.055,22.62,TRADE
NSW1,"2004/08/13 17:30:00",9816.03667,23.42,TRADE
NSW1,"2004/08/13 18:00:00",10336.51833,27.66,TRADE
NSW1,"2004/08/13 18:30:00",10496.13667,28.93,TRADE
NSW1,"2004/08/13 19:00:00",10481.33333,29.12,TRADE
NSW1,"2004/08/13 19:30:00",10169.92833,25.3,TRADE
NSW1,"2004/08/13 20:00:00",9978.92,24.11,TRADE
NSW1,"2004/08/13 20:30:00",9865.29667,24.02,TRADE
NSW1,"2004/08/13 21:00:00",9675.70333,23.22,TRADE
NSW1,"2004/08/13 21:30:00",9462.20667,23.26,TRADE
NSW1,"2004/08/13 22:00:00",8852.855,31.88,TRADE
NSW1,"2004/08/13 22:30:00",8801.43333,50.86,TRADE
NSW1,"2004/08/13 23:00:00",9020.68333,74.25,TRADE
NSW1,"2004/08/13 23:30:00",9022.04167,81.62,TRADE
NSW1,"2004/08/14 00:00:00",8835.53,60.84,TRADE
NSW1,"2004/08/14 00:30:00",8665.18667,52.4,TRADE
NSW1,"2004/08/14 01:00:00",8533.25333,50.94,TRADE
NSW1,"2004/08/14 01:30:00",8356.695,53.75,TRADE
NSW1,"2004/08/14 02:00:00",8051.75167,37.93,TRADE
NSW1,"2004/08/14 02:30:00",7723.705,28.42,TRADE
NSW1,"2004/08/14 03:00:00",7332.74667,26.41,TRADE
NSW1,"2004/08/14 03:30:00",6992.19333,24.41,TRADE
NSW1,"2004/08/14 04:00:00",6807.63,23.02,TRADE
NSW1,"2004/08/14 04:30:00",6636.05167,24.33,TRADE
NSW1,"2004/08/14 05:00:00",6566.40167,23.76,TRADE
NSW1,"2004/08/14 05:30:00",6675.595,24.27,TRADE
NSW1,"2004/08/14 06:00:00",6716.785,20.08,TRADE
NSW1,"2004/08/14 06:30:00",7092.07167,23.33,TRADE
NSW1,"2004/08/14 07:00:00",7341.265,23.3,TRADE
NSW1,"2004/08/14 07:30:00",7797.825,23.84,TRADE
NSW1,"2004/08/14 08:00:00",8341.57167,28.7,TRADE
NSW1,"2004/08/14 08:30:00",8791.29333,31.06,TRADE
NSW1,"2004/08/14 09:00:00",8931.45833,31.85,TRADE
NSW1,"2004/08/14 09:30:00",9138.19833,41.76,TRADE
NSW1,"2004/08/14 10:00:00",9104.87167,39.47,TRADE
NSW1,"2004/08/14 10:30:00",9085.02167,35.89,TRADE
NSW1,"2004/08/14 11:00:00",8918.91833,30.64,TRADE
NSW1,"2004/08/14 11:30:00",8741.42667,29.6,TRADE
NSW1,"2004/08/14 12:00:00",8640.88167,27.53,TRADE
NSW1,"2004/08/14 12:30:00",8425.81333,24.78,TRADE
NSW1,"2004/08/14 13:00:00",8328.18833,24.54,TRADE
NSW1,"2004/08/14 13:30:00",8257.44333,24.39,TRADE
NSW1,"2004/08/14 14:00:00",8104.935,23.7,TRADE
NSW1,"2004/08/14 14:30:00",8041.70667,23.52,TRADE
NSW1,"2004/08/14 15:00:00",8008.08667,23.24,TRADE
NSW1,"2004/08/14 15:30:00",8017.66,23.28,TRADE
NSW1,"2004/08/14 16:00:00",8091.965,23.97,TRADE
NSW1,"2004/08/14 16:30:00",8212.87167,24.4,TRADE
NSW1,"2004/08/14 17:00:00",8480.965,25.71,TRADE
NSW1,"2004/08/14 17:30:00",8793.67667,27.8,TRADE
NSW1,"2004/08/14 18:00:00",9629.47667,44.42,TRADE
NSW1,"2004/08/14 18:30:00",9989.11667,52.54,TRADE
NSW1,"2004/08/14 19:00:00",9980.58833,55.54,TRADE
NSW1,"2004/08/14 19:30:00",9840.10333,42.83,TRADE
NSW1,"2004/08/14 20:00:00",9685.79167,37.86,TRADE
NSW1,"2004/08/14 20:30:00",9579.98667,34.01,TRADE
NSW1,"2004/08/14 21:00:00",9361.75333,26.68,TRADE
NSW1,"2004/08/14 21:30:00",9219.91333,24.99,TRADE
NSW1,"2004/08/14 22:00:00",9005.73,24.85,TRADE
NSW1,"2004/08/14 22:30:00",9101.955,27.76,TRADE
NSW1,"2004/08/14 23:00:00",8988.365,25.6,TRADE
NSW1,"2004/08/14 23:30:00",8886.43667,27.81,TRADE
NSW1,"2004/08/15 00:00:00",8584.55667,26.5,TRADE
NSW1,"2004/08/15 00:30:00",8357.005,24.8,TRADE
NSW1,"2004/08/15 01:00:00",8100.94833,23.8,TRADE
NSW1,"2004/08/15 01:30:00",7867.13,23.13,TRADE
NSW1,"2004/08/15 02:00:00",7585.96667,21.99,TRADE
NSW1,"2004/08/15 02:30:00",7302.59333,21.28,TRADE
NSW1,"2004/08/15 03:00:00",7008.76333,19.1,TRADE
NSW1,"2004/08/15 03:30:00",6826.33167,17.31,TRADE
NSW1,"2004/08/15 04:00:00",6651.12667,16.75,TRADE
NSW1,"2004/08/15 04:30:00",6581.20333,16.84,TRADE
NSW1,"2004/08/15 05:00:00",6455.865,16.72,TRADE
NSW1,"2004/08/15 05:30:00",6587.67333,16.74,TRADE
NSW1,"2004/08/15 06:00:00",6625.625,16.3,TRADE
NSW1,"2004/08/15 06:30:00",6869.02,16.03,TRADE
NSW1,"2004/08/15 07:00:00",7089.325,17.07,TRADE
NSW1,"2004/08/15 07:30:00",7531.63833,17.7,TRADE
NSW1,"2004/08/15 08:00:00",8054.325,19.91,TRADE
NSW1,"2004/08/15 08:30:00",8628.675,23.56,TRADE
NSW1,"2004/08/15 09:00:00",9039.21833,25,TRADE
NSW1,"2004/08/15 09:30:00",9277.56667,25.27,TRADE
NSW1,"2004/08/15 10:00:00",9281.45667,25.07,TRADE
NSW1,"2004/08/15 10:30:00",9237.805,24.97,TRADE
NSW1,"2004/08/15 11:00:00",9121.01167,23.78,TRADE
NSW1,"2004/08/15 11:30:00",9040.23,23.11,TRADE
NSW1,"2004/08/15 12:00:00",8809.3,21.83,TRADE
NSW1,"2004/08/15 12:30:00",8716.85833,20.66,TRADE
NSW1,"2004/08/15 13:00:00",8622.88833,18.21,TRADE
NSW1,"2004/08/15 13:30:00",8500.54667,17.89,TRADE
NSW1,"2004/08/15 14:00:00",8370.43667,16.93,TRADE
NSW1,"2004/08/15 14:30:00",8231.105,16.68,TRADE
NSW1,"2004/08/15 15:00:00",8232.855,16.67,TRADE
NSW1,"2004/08/15 15:30:00",8302.635,16.82,TRADE
NSW1,"2004/08/15 16:00:00",8428.70333,17.08,TRADE
NSW1,"2004/08/15 16:30:00",8626.965,17.45,TRADE
NSW1,"2004/08/15 17:00:00",8976.44833,20.39,TRADE
NSW1,"2004/08/15 17:30:00",9337.59167,23.59,TRADE
NSW1,"2004/08/15 18:00:00",10292.02667,33.9,TRADE
NSW1,"2004/08/15 18:30:00",10773.52,44.31,TRADE
NSW1,"2004/08/15 19:00:00",10867.82833,53.53,TRADE
NSW1,"2004/08/15 19:30:00",10623.01167,43.02,TRADE
NSW1,"2004/08/15 20:00:00",10526.95833,40.5,TRADE
NSW1,"2004/08/15 20:30:00",10273.50667,38.72,TRADE
NSW1,"2004/08/15 21:00:00",10094.83,34.69,TRADE
NSW1,"2004/08/15 21:30:00",9808.89167,29.58,TRADE
NSW1,"2004/08/15 22:00:00",9357.27333,25.03,TRADE
NSW1,"2004/08/15 22:30:00",9272.03333,25.01,TRADE
NSW1,"2004/08/15 23:00:00",8893.755,22.89,TRADE
NSW1,"2004/08/15 23:30:00",8701.09833,23.53,TRADE
NSW1,"2004/08/16 00:00:00",8374.305,21.64,TRADE
NSW1,"2004/08/16 00:30:00",8173.86667,20.78,TRADE
NSW1,"2004/08/16 01:00:00",7979.065,18.7,TRADE
NSW1,"2004/08/16 01:30:00",7861.07,19.88,TRADE
NSW1,"2004/08/16 02:00:00",7690.865,18.95,TRADE
NSW1,"2004/08/16 02:30:00",7357.97833,17.44,TRADE
NSW1,"2004/08/16 03:00:00",7093.11667,16.73,TRADE
NSW1,"2004/08/16 03:30:00",6902.32,16.64,TRADE
NSW1,"2004/08/16 04:00:00",6812.92,16.39,TRADE
NSW1,"2004/08/16 04:30:00",6821.49833,16.02,TRADE
NSW1,"2004/08/16 05:00:00",6854.46,16.35,TRADE
NSW1,"2004/08/16 05:30:00",7246.28333,16.56,TRADE
NSW1,"2004/08/16 06:00:00",7756.37667,16.73,TRADE
NSW1,"2004/08/16 06:30:00",8752.99833,23.16,TRADE
NSW1,"2004/08/16 07:00:00",9697.86167,25.88,TRADE
NSW1,"2004/08/16 07:30:00",10150.68167,26.04,TRADE
NSW1,"2004/08/16 08:00:00",10577.43167,34.88,TRADE
NSW1,"2004/08/16 08:30:00",10680.14833,37.06,TRADE
NSW1,"2004/08/16 09:00:00",10636.29167,30.26,TRADE
NSW1,"2004/08/16 09:30:00",10689.135,28.53,TRADE
NSW1,"2004/08/16 10:00:00",10636.93333,27.06,TRADE
NSW1,"2004/08/16 10:30:00",10487.41167,26.51,TRADE
NSW1,"2004/08/16 11:00:00",10334.93833,25.55,TRADE
NSW1,"2004/08/16 11:30:00",10144.02,24.72,TRADE
NSW1,"2004/08/16 12:00:00",10091.67833,24.44,TRADE
NSW1,"2004/08/16 12:30:00",10036.33167,24.28,TRADE
NSW1,"2004/08/16 13:00:00",9982.08,24.74,TRADE
NSW1,"2004/08/16 13:30:00",9941.91,26.36,TRADE
NSW1,"2004/08/16 14:00:00",9904.41667,25,TRADE
NSW1,"2004/08/16 14:30:00",9871.01833,25,TRADE
NSW1,"2004/08/16 15:00:00",9828.76333,24.99,TRADE
NSW1,"2004/08/16 15:30:00",9782.155,24.53,TRADE
NSW1,"2004/08/16 16:00:00",9922.37167,24.18,TRADE
NSW1,"2004/08/16 16:30:00",10158.865,24.79,TRADE
NSW1,"2004/08/16 17:00:00",10539.31833,27.93,TRADE
NSW1,"2004/08/16 17:30:00",11052.65167,32.28,TRADE
NSW1,"2004/08/16 18:00:00",11791.45167,47.58,TRADE
NSW1,"2004/08/16 18:30:00",12081.24167,65.86,TRADE
NSW1,"2004/08/16 19:00:00",11977.90167,56.67,TRADE
NSW1,"2004/08/16 19:30:00",11702.52167,41.1,TRADE
NSW1,"2004/08/16 20:00:00",11433.58667,33.78,TRADE
NSW1,"2004/08/16 20:30:00",11253.93167,32.14,TRADE
NSW1,"2004/08/16 21:00:00",10943.11833,28.4,TRADE
NSW1,"2004/08/16 21:30:00",10608.47167,30.21,TRADE
NSW1,"2004/08/16 22:00:00",10071.84667,26.42,TRADE
NSW1,"2004/08/16 22:30:00",10049.62833,28.84,TRADE
NSW1,"2004/08/16 23:00:00",9701.40667,23.27,TRADE
NSW1,"2004/08/16 23:30:00",9509.49333,25.11,TRADE
NSW1,"2004/08/17 00:00:00",9297.86333,23.3,TRADE
NSW1,"2004/08/17 00:30:00",9120.41,22.19,TRADE
NSW1,"2004/08/17 01:00:00",8936.33333,22.29,TRADE
NSW1,"2004/08/17 01:30:00",8807.46,23.08,TRADE
NSW1,"2004/08/17 02:00:00",8546.915,20.66,TRADE
NSW1,"2004/08/17 02:30:00",8184.48667,18.2,TRADE
NSW1,"2004/08/17 03:00:00",7808.54,17.61,TRADE
NSW1,"2004/08/17 03:30:00",7477.74167,17.98,TRADE
NSW1,"2004/08/17 04:00:00",7202.10333,16.95,TRADE
NSW1,"2004/08/17 04:30:00",7081.04667,16.73,TRADE
NSW1,"2004/08/17 05:00:00",7099.515,16.7,TRADE
NSW1,"2004/08/17 05:30:00",7371.07,16.92,TRADE
NSW1,"2004/08/17 06:00:00",7821.07833,16.98,TRADE
NSW1,"2004/08/17 06:30:00",8747.18833,22.21,TRADE
NSW1,"2004/08/17 07:00:00",9687.45333,28.02,TRADE
NSW1,"2004/08/17 07:30:00",10133.95667,27.7,TRADE
NSW1,"2004/08/17 08:00:00",10614.47167,36.31,TRADE
NSW1,"2004/08/17 08:30:00",10719.035,38,TRADE
NSW1,"2004/08/17 09:00:00",10553.64167,28.98,TRADE
NSW1,"2004/08/17 09:30:00",10532.48333,28.21,TRADE
NSW1,"2004/08/17 10:00:00",10482.67167,29.11,TRADE
NSW1,"2004/08/17 10:30:00",10356.67333,29.73,TRADE
NSW1,"2004/08/17 11:00:00",10272.67667,27.76,TRADE
NSW1,"2004/08/17 11:30:00",10065.095,28.45,TRADE
NSW1,"2004/08/17 12:00:00",9961.255,28.65,TRADE
NSW1,"2004/08/17 12:30:00",9835.83333,28.29,TRADE
NSW1,"2004/08/17 13:00:00",9673.29833,26.16,TRADE
NSW1,"2004/08/17 13:30:00",9636.16333,25,TRADE
NSW1,"2004/08/17 14:00:00",9579.53667,24.19,TRADE
NSW1,"2004/08/17 14:30:00",9584.35833,24.34,TRADE
NSW1,"2004/08/17 15:00:00",9529.31667,24.34,TRADE
NSW1,"2004/08/17 15:30:00",9567.955,23.11,TRADE
NSW1,"2004/08/17 16:00:00",9807.43833,24.2,TRADE
NSW1,"2004/08/17 16:30:00",10080.64667,24.66,TRADE
NSW1,"2004/08/17 17:00:00",10548.39833,27.13,TRADE
NSW1,"2004/08/17 17:30:00",11137.94167,33.57,TRADE
NSW1,"2004/08/17 18:00:00",11775.6,64.71,TRADE
NSW1,"2004/08/17 18:30:00",11967.76333,75.22,TRADE
NSW1,"2004/08/17 19:00:00",11854.46333,73.63,TRADE
NSW1,"2004/08/17 19:30:00",11659.08333,43.54,TRADE
NSW1,"2004/08/17 20:00:00",11421.435,41.31,TRADE
NSW1,"2004/08/17 20:30:00",11242.555,41.83,TRADE
NSW1,"2004/08/17 21:00:00",10875.44667,35.19,TRADE
NSW1,"2004/08/17 21:30:00",10551.58833,31.53,TRADE
NSW1,"2004/08/17 22:00:00",10102.09,25.16,TRADE
NSW1,"2004/08/17 22:30:00",10074.58667,29.67,TRADE
NSW1,"2004/08/17 23:00:00",9719.58167,24.76,TRADE
NSW1,"2004/08/17 23:30:00",9563.98833,25.44,TRADE
NSW1,"2004/08/18 00:00:00",9328.445,23.91,TRADE
NSW1,"2004/08/18 00:30:00",9130.96,22.16,TRADE
NSW1,"2004/08/18 01:00:00",9021.33167,21.75,TRADE
NSW1,"2004/08/18 01:30:00",8872.31833,21.76,TRADE
NSW1,"2004/08/18 02:00:00",8545.89833,17.38,TRADE
NSW1,"2004/08/18 02:30:00",8200.89333,17.81,TRADE
NSW1,"2004/08/18 03:00:00",7808.195,17.32,TRADE
NSW1,"2004/08/18 03:30:00",7493.6,17.73,TRADE
NSW1,"2004/08/18 04:00:00",7258.295,17.12,TRADE
NSW1,"2004/08/18 04:30:00",7164.30667,17,TRADE
NSW1,"2004/08/18 05:00:00",7178.28833,17,TRADE
NSW1,"2004/08/18 05:30:00",7464.91833,17.27,TRADE
NSW1,"2004/08/18 06:00:00",7904.57833,16.71,TRADE
NSW1,"2004/08/18 06:30:00",8823.00167,22.77,TRADE
NSW1,"2004/08/18 07:00:00",9749.47167,26.74,TRADE
NSW1,"2004/08/18 07:30:00",10209.37333,28.3,TRADE
NSW1,"2004/08/18 08:00:00",10790.07333,38.54,TRADE
NSW1,"2004/08/18 08:30:00",10928.755,37.4,TRADE
NSW1,"2004/08/18 09:00:00",10834.65667,31.81,TRADE
NSW1,"2004/08/18 09:30:00",10912.54667,30.92,TRADE
NSW1,"2004/08/18 10:00:00",10874.075,30.27,TRADE
NSW1,"2004/08/18 10:30:00",10832.20167,31.99,TRADE
NSW1,"2004/08/18 11:00:00",10770.84833,33.5,TRADE
NSW1,"2004/08/18 11:30:00",10636.73333,31.91,TRADE
NSW1,"2004/08/18 12:00:00",10598.395,31.98,TRADE
NSW1,"2004/08/18 12:30:00",10557.56833,33.54,TRADE
NSW1,"2004/08/18 13:00:00",10492.54833,29.13,TRADE
NSW1,"2004/08/18 13:30:00",10460.43833,31.38,TRADE
NSW1,"2004/08/18 14:00:00",10396.335,32.42,TRADE
NSW1,"2004/08/18 14:30:00",10459.37333,33.15,TRADE
NSW1,"2004/08/18 15:00:00",10269.28833,28.53,TRADE
NSW1,"2004/08/18 15:30:00",10207.94333,26.44,TRADE
NSW1,"2004/08/18 16:00:00",10353.23167,25.08,TRADE
NSW1,"2004/08/18 16:30:00",10619.99833,26.74,TRADE
NSW1,"2004/08/18 17:00:00",10900.90667,28.74,TRADE
NSW1,"2004/08/18 17:30:00",11313.74833,35.03,TRADE
NSW1,"2004/08/18 18:00:00",12033.84,55.55,TRADE
NSW1,"2004/08/18 18:30:00",12272.665,75.19,TRADE
NSW1,"2004/08/18 19:00:00",12196.12667,71.39,TRADE
NSW1,"2004/08/18 19:30:00",11952.87833,44.19,TRADE
NSW1,"2004/08/18 20:00:00",11763.56667,42.74,TRADE
NSW1,"2004/08/18 20:30:00",11486.005,39.74,TRADE
NSW1,"2004/08/18 21:00:00",11184.24833,33.04,TRADE
NSW1,"2004/08/18 21:30:00",10797.71167,34.1,TRADE
NSW1,"2004/08/18 22:00:00",10276.095,26.55,TRADE
NSW1,"2004/08/18 22:30:00",10289.32167,33.61,TRADE
NSW1,"2004/08/18 23:00:00",9893.60333,26.49,TRADE
NSW1,"2004/08/18 23:30:00",9677.58167,28.79,TRADE
NSW1,"2004/08/19 00:00:00",9450.915,25.01,TRADE
NSW1,"2004/08/19 00:30:00",9239.95833,23.35,TRADE
NSW1,"2004/08/19 01:00:00",9087.83833,22.59,TRADE
NSW1,"2004/08/19 01:30:00",8909.16333,23.62,TRADE
NSW1,"2004/08/19 02:00:00",8687.72167,19.25,TRADE
NSW1,"2004/08/19 02:30:00",8282.235,18.46,TRADE
NSW1,"2004/08/19 03:00:00",7860.115,17.7,TRADE
NSW1,"2004/08/19 03:30:00",7539.84833,18.22,TRADE
NSW1,"2004/08/19 04:00:00",7321.9,17.96,TRADE
NSW1,"2004/08/19 04:30:00",7219.30667,17.07,TRADE
NSW1,"2004/08/19 05:00:00",7213.06667,17.18,TRADE
NSW1,"2004/08/19 05:30:00",7533.36667,17.33,TRADE
NSW1,"2004/08/19 06:00:00",7969.19667,17.35,TRADE
NSW1,"2004/08/19 06:30:00",8914.055,23.07,TRADE
NSW1,"2004/08/19 07:00:00",9812.44167,29.32,TRADE
NSW1,"2004/08/19 07:30:00",10173.86,27.55,TRADE
NSW1,"2004/08/19 08:00:00",10631.80833,35.77,TRADE
NSW1,"2004/08/19 08:30:00",10653.99333,29.22,TRADE
NSW1,"2004/08/19 09:00:00",10394.57167,25.38,TRADE
NSW1,"2004/08/19 09:30:00",10295.09667,24.01,TRADE
NSW1,"2004/08/19 10:00:00",10142.62667,23.31,TRADE
NSW1,"2004/08/19 10:30:00",10039.73667,23.02,TRADE
NSW1,"2004/08/19 11:00:00",9907.09167,22.49,TRADE
NSW1,"2004/08/19 11:30:00",9725.64833,23.06,TRADE
NSW1,"2004/08/19 12:00:00",9664.055,22.51,TRADE
NSW1,"2004/08/19 12:30:00",9566.625,22,TRADE
NSW1,"2004/08/19 13:00:00",9497.065,21.87,TRADE
NSW1,"2004/08/19 13:30:00",9482.15,22.79,TRADE
NSW1,"2004/08/19 14:00:00",9453.95167,22.43,TRADE
NSW1,"2004/08/19 14:30:00",9438.57833,22.06,TRADE
NSW1,"2004/08/19 15:00:00",9375.33333,20.13,TRADE
NSW1,"2004/08/19 15:30:00",9308.69,17.72,TRADE
NSW1,"2004/08/19 16:00:00",9355.65667,17.4,TRADE
NSW1,"2004/08/19 16:30:00",9509.97667,20.17,TRADE
NSW1,"2004/08/19 17:00:00",9811.28667,22.47,TRADE
NSW1,"2004/08/19 17:30:00",10297.69833,25.08,TRADE
NSW1,"2004/08/19 18:00:00",11126.56333,34.52,TRADE
NSW1,"2004/08/19 18:30:00",11560.78833,41.07,TRADE
NSW1,"2004/08/19 19:00:00",11533.03833,43.48,TRADE
NSW1,"2004/08/19 19:30:00",11378.51,39.61,TRADE
NSW1,"2004/08/19 20:00:00",11198.975,33.74,TRADE
NSW1,"2004/08/19 20:30:00",11044.01333,34.44,TRADE
NSW1,"2004/08/19 21:00:00",10842.80167,32.75,TRADE
NSW1,"2004/08/19 21:30:00",10465.515,29.1,TRADE
NSW1,"2004/08/19 22:00:00",10026.48333,24.91,TRADE
NSW1,"2004/08/19 22:30:00",10075.58,32.65,TRADE
NSW1,"2004/08/19 23:00:00",9834.59667,26.29,TRADE
NSW1,"2004/08/19 23:30:00",9631.05,31.35,TRADE
NSW1,"2004/08/20 00:00:00",9373.53167,25.6,TRADE
NSW1,"2004/08/20 00:30:00",9120.005,24.41,TRADE
NSW1,"2004/08/20 01:00:00",8996.705,23.01,TRADE
NSW1,"2004/08/20 01:30:00",8828.56667,23.42,TRADE
NSW1,"2004/08/20 02:00:00",8562.24667,19.47,TRADE
NSW1,"2004/08/20 02:30:00",8179.80833,18.04,TRADE
NSW1,"2004/08/20 03:00:00",7831.19167,18.71,TRADE
NSW1,"2004/08/20 03:30:00",7483.795,19.38,TRADE
NSW1,"2004/08/20 04:00:00",7301.705,17.48,TRADE
NSW1,"2004/08/20 04:30:00",7167.18667,17.63,TRADE
NSW1,"2004/08/20 05:00:00",7205.97833,18,TRADE
NSW1,"2004/08/20 05:30:00",7484.23833,18.4,TRADE
NSW1,"2004/08/20 06:00:00",7922.97667,16.88,TRADE
NSW1,"2004/08/20 06:30:00",8821.90333,22.56,TRADE
NSW1,"2004/08/20 07:00:00",9684.54667,27.25,TRADE
NSW1,"2004/08/20 07:30:00",10126.50333,27.09,TRADE
NSW1,"2004/08/20 08:00:00",10531.15333,30.71,TRADE
NSW1,"2004/08/20 08:30:00",10555.48167,29.13,TRADE
NSW1,"2004/08/20 09:00:00",10311.07167,26.25,TRADE
NSW1,"2004/08/20 09:30:00",10246.37167,24,TRADE
NSW1,"2004/08/20 10:00:00",10058.78167,22.9,TRADE
NSW1,"2004/08/20 10:30:00",9902.13667,23.89,TRADE
NSW1,"2004/08/20 11:00:00",9785.375,23.93,TRADE
NSW1,"2004/08/20 11:30:00",9628.83167,23.98,TRADE
NSW1,"2004/08/20 12:00:00",9449.23833,22.97,TRADE
NSW1,"2004/08/20 12:30:00",9353.45833,22.49,TRADE
NSW1,"2004/08/20 13:00:00",9222.95667,19.81,TRADE
NSW1,"2004/08/20 13:30:00",9106.15333,20.95,TRADE
NSW1,"2004/08/20 14:00:00",9022.27667,20.29,TRADE
NSW1,"2004/08/20 14:30:00",8899.61167,19.01,TRADE
NSW1,"2004/08/20 15:00:00",8840.54833,17.93,TRADE
NSW1,"2004/08/20 15:30:00",8802.085,16.64,TRADE
NSW1,"2004/08/20 16:00:00",8580.01667,16.57,TRADE
NSW1,"2004/08/20 16:30:00",8634.91,16.53,TRADE
NSW1,"2004/08/20 17:00:00",8908.775,17.39,TRADE
NSW1,"2004/08/20 17:30:00",9429.12833,19.59,TRADE
NSW1,"2004/08/20 18:00:00",10223.335,24.57,TRADE
NSW1,"2004/08/20 18:30:00",10637.79333,26.9,TRADE
NSW1,"2004/08/20 19:00:00",10671.115,28.7,TRADE
NSW1,"2004/08/20 19:30:00",10493.84,26.24,TRADE
NSW1,"2004/08/20 20:00:00",10362.69,25.69,TRADE
NSW1,"2004/08/20 20:30:00",10199.11167,25.24,TRADE
NSW1,"2004/08/20 21:00:00",10056.79,24.62,TRADE
NSW1,"2004/08/20 21:30:00",9860.59167,24.35,TRADE
NSW1,"2004/08/20 22:00:00",9484.845,20.63,TRADE
NSW1,"2004/08/20 22:30:00",9852.12,26.31,TRADE
NSW1,"2004/08/20 23:00:00",9663.04833,25.26,TRADE
NSW1,"2004/08/20 23:30:00",9551.59667,26.05,TRADE
NSW1,"2004/08/21 00:00:00",9298.99833,24.19,TRADE
NSW1,"2004/08/21 00:30:00",9100.44833,22.72,TRADE
NSW1,"2004/08/21 01:00:00",8919.41833,20.13,TRADE
NSW1,"2004/08/21 01:30:00",8695.44667,20.18,TRADE
NSW1,"2004/08/21 02:00:00",8352.39,16.77,TRADE
NSW1,"2004/08/21 02:30:00",7980.91833,16.63,TRADE
NSW1,"2004/08/21 03:00:00",7573.05167,16.24,TRADE
NSW1,"2004/08/21 03:30:00",7256.63333,16.44,TRADE
NSW1,"2004/08/21 04:00:00",6973.63833,15.92,TRADE
NSW1,"2004/08/21 04:30:00",6827.855,16,TRADE
NSW1,"2004/08/21 05:00:00",6751.165,16.63,TRADE
NSW1,"2004/08/21 05:30:00",6842.89333,16.18,TRADE
NSW1,"2004/08/21 06:00:00",6969.555,14.03,TRADE
NSW1,"2004/08/21 06:30:00",7345.75333,17.47,TRADE
NSW1,"2004/08/21 07:00:00",7679.68,17.34,TRADE
NSW1,"2004/08/21 07:30:00",8224.85667,17.56,TRADE
NSW1,"2004/08/21 08:00:00",8801.63833,21.92,TRADE
NSW1,"2004/08/21 08:30:00",9255.96333,24.76,TRADE
NSW1,"2004/08/21 09:00:00",9436.05833,25.12,TRADE
NSW1,"2004/08/21 09:30:00",9590.16333,27.37,TRADE
NSW1,"2004/08/21 10:00:00",9451.165,25.58,TRADE
NSW1,"2004/08/21 10:30:00",9249.63167,25,TRADE
NSW1,"2004/08/21 11:00:00",8975.24667,23.83,TRADE
NSW1,"2004/08/21 11:30:00",8786.64833,22.16,TRADE
NSW1,"2004/08/21 12:00:00",8541.695,19.86,TRADE
NSW1,"2004/08/21 12:30:00",8364.35333,18.71,TRADE
NSW1,"2004/08/21 13:00:00",8119.99167,17.09,TRADE
NSW1,"2004/08/21 13:30:00",8020.48833,17.04,TRADE
NSW1,"2004/08/21 14:00:00",7925.59167,16.88,TRADE
NSW1,"2004/08/21 14:30:00",7868.58167,16.8,TRADE
NSW1,"2004/08/21 15:00:00",7750.83167,16.6,TRADE
NSW1,"2004/08/21 15:30:00",7775.935,16.63,TRADE
NSW1,"2004/08/21 16:00:00",7801.515,16.69,TRADE
NSW1,"2004/08/21 16:30:00",7870.88667,16.8,TRADE
NSW1,"2004/08/21 17:00:00",8198.52167,17.16,TRADE
NSW1,"2004/08/21 17:30:00",8342.35167,18.29,TRADE
NSW1,"2004/08/21 18:00:00",9141.42,25.19,TRADE
NSW1,"2004/08/21 18:30:00",9550.93833,29.07,TRADE
NSW1,"2004/08/21 19:00:00",9537.79167,30.15,TRADE
NSW1,"2004/08/21 19:30:00",9345.57667,26.73,TRADE
NSW1,"2004/08/21 20:00:00",9190.54167,24.94,TRADE
NSW1,"2004/08/21 20:30:00",9088.68,24.36,TRADE
NSW1,"2004/08/21 21:00:00",8897.48,21.55,TRADE
NSW1,"2004/08/21 21:30:00",8697.15167,21.37,TRADE
NSW1,"2004/08/21 22:00:00",8601.64167,19.87,TRADE
NSW1,"2004/08/21 22:30:00",8736.52,22.1,TRADE
NSW1,"2004/08/21 23:00:00",8643.155,20.94,TRADE
NSW1,"2004/08/21 23:30:00",8565.405,23.97,TRADE
NSW1,"2004/08/22 00:00:00",8354.47333,21.67,TRADE
NSW1,"2004/08/22 00:30:00",8140.265,19.23,TRADE
NSW1,"2004/08/22 01:00:00",7976.67167,19,TRADE
NSW1,"2004/08/22 01:30:00",7669.25333,18.13,TRADE
NSW1,"2004/08/22 02:00:00",7428.365,17.02,TRADE
NSW1,"2004/08/22 02:30:00",7077.25833,15.64,TRADE
NSW1,"2004/08/22 03:00:00",6804.99,16.84,TRADE
NSW1,"2004/08/22 03:30:00",6608.33333,16.82,TRADE
NSW1,"2004/08/22 04:00:00",6395.92333,15.84,TRADE
NSW1,"2004/08/22 04:30:00",6286.99333,13.6,TRADE
NSW1,"2004/08/22 05:00:00",6281.75333,16.41,TRADE
NSW1,"2004/08/22 05:30:00",6345.14833,15.63,TRADE
NSW1,"2004/08/22 06:00:00",6465.48833,12.45,TRADE
NSW1,"2004/08/22 06:30:00",6612.90667,14.77,TRADE
NSW1,"2004/08/22 07:00:00",6835.81667,15.24,TRADE
NSW1,"2004/08/22 07:30:00",7211.73833,15.29,TRADE
NSW1,"2004/08/22 08:00:00",7647.84667,16.35,TRADE
NSW1,"2004/08/22 08:30:00",8052.66,17.78,TRADE
NSW1,"2004/08/22 09:00:00",8252.32167,17.25,TRADE
NSW1,"2004/08/22 09:30:00",8398.86667,17.79,TRADE
NSW1,"2004/08/22 10:00:00",8429.88333,17.4,TRADE
NSW1,"2004/08/22 10:30:00",8375.74167,17.58,TRADE
NSW1,"2004/08/22 11:00:00",8251.09833,16.98,TRADE
NSW1,"2004/08/22 11:30:00",8136.78333,17,TRADE
NSW1,"2004/08/22 12:00:00",7973.93833,16.71,TRADE
NSW1,"2004/08/22 12:30:00",7884.09667,16.66,TRADE
NSW1,"2004/08/22 13:00:00",7761.99667,16.51,TRADE
NSW1,"2004/08/22 13:30:00",7652.88167,16.46,TRADE
NSW1,"2004/08/22 14:00:00",7499.11333,15.45,TRADE
NSW1,"2004/08/22 14:30:00",7462.28667,15.38,TRADE
NSW1,"2004/08/22 15:00:00",7427.99667,15.43,TRADE
NSW1,"2004/08/22 15:30:00",7472.15667,15.61,TRADE
NSW1,"2004/08/22 16:00:00",7526.17833,15.84,TRADE
NSW1,"2004/08/22 16:30:00",7654.91,16.44,TRADE
NSW1,"2004/08/22 17:00:00",7791.46167,16.59,TRADE
NSW1,"2004/08/22 17:30:00",8000.29667,17.19,TRADE
NSW1,"2004/08/22 18:00:00",8730.39,21.52,TRADE
NSW1,"2004/08/22 18:30:00",9258.1,25.59,TRADE
NSW1,"2004/08/22 19:00:00",9283.34,25.96,TRADE
NSW1,"2004/08/22 19:30:00",9112.76,24.9,TRADE
NSW1,"2004/08/22 20:00:00",8962.30167,22.65,TRADE
NSW1,"2004/08/22 20:30:00",8799.64833,21.39,TRADE
NSW1,"2004/08/22 21:00:00",8754.085,22.19,TRADE
NSW1,"2004/08/22 21:30:00",8534.845,20.44,TRADE
NSW1,"2004/08/22 22:00:00",8263.91833,17.42,TRADE
NSW1,"2004/08/22 22:30:00",8223.975,18.52,TRADE
NSW1,"2004/08/22 23:00:00",8119.82,17.5,TRADE
NSW1,"2004/08/22 23:30:00",8017.94,17.97,TRADE
NSW1,"2004/08/23 00:00:00",7789.30667,17.99,TRADE
NSW1,"2004/08/23 00:30:00",7629.18667,17.06,TRADE
NSW1,"2004/08/23 01:00:00",7483.415,17,TRADE
NSW1,"2004/08/23 01:30:00",7342.99833,17.32,TRADE
NSW1,"2004/08/23 02:00:00",7221.53833,16.15,TRADE
NSW1,"2004/08/23 02:30:00",6941.39167,16.68,TRADE
NSW1,"2004/08/23 03:00:00",6643.935,15.54,TRADE
NSW1,"2004/08/23 03:30:00",6472.29167,14.22,TRADE
NSW1,"2004/08/23 04:00:00",6390.84333,12.18,TRADE
NSW1,"2004/08/23 04:30:00",6349.99667,13.76,TRADE
NSW1,"2004/08/23 05:00:00",6445.9,15.83,TRADE
NSW1,"2004/08/23 05:30:00",6812.68167,16.67,TRADE
NSW1,"2004/08/23 06:00:00",7308.475,16.66,TRADE
NSW1,"2004/08/23 06:30:00",8190.19333,18.34,TRADE
NSW1,"2004/08/23 07:00:00",8971.34333,22.37,TRADE
NSW1,"2004/08/23 07:30:00",9301.64833,21.06,TRADE
NSW1,"2004/08/23 08:00:00",9594.46667,24.15,TRADE
NSW1,"2004/08/23 08:30:00",9622.2,23.68,TRADE
NSW1,"2004/08/23 09:00:00",9487.62667,21.83,TRADE
NSW1,"2004/08/23 09:30:00",9520.77833,19.35,TRADE
NSW1,"2004/08/23 10:00:00",9470.07333,18.3,TRADE
NSW1,"2004/08/23 10:30:00",9403.94333,18.97,TRADE
NSW1,"2004/08/23 11:00:00",9357.20333,18.94,TRADE
NSW1,"2004/08/23 11:30:00",9206.76,19.21,TRADE
NSW1,"2004/08/23 12:00:00",9136.54667,18.36,TRADE
NSW1,"2004/08/23 12:30:00",9069.37167,17.93,TRADE
NSW1,"2004/08/23 13:00:00",8906.43167,16.83,TRADE
NSW1,"2004/08/23 13:30:00",8978.72833,19.53,TRADE
NSW1,"2004/08/23 14:00:00",8963.805,17.86,TRADE
NSW1,"2004/08/23 14:30:00",8891.68333,18.4,TRADE
NSW1,"2004/08/23 15:00:00",8821.17167,16.94,TRADE
NSW1,"2004/08/23 15:30:00",8776.12,16.5,TRADE
NSW1,"2004/08/23 16:00:00",8801.72333,16.5,TRADE
NSW1,"2004/08/23 16:30:00",8900.42333,16.7,TRADE
NSW1,"2004/08/23 17:00:00",8984.19333,16.8,TRADE
NSW1,"2004/08/23 17:30:00",9337.48167,18.9,TRADE
NSW1,"2004/08/23 18:00:00",10042.40667,23.51,TRADE
NSW1,"2004/08/23 18:30:00",10457.55333,25,TRADE
NSW1,"2004/08/23 19:00:00",10410.87,25.93,TRADE
NSW1,"2004/08/23 19:30:00",10212.70833,24.07,TRADE
NSW1,"2004/08/23 20:00:00",9962.28333,22.14,TRADE
NSW1,"2004/08/23 20:30:00",9803.00833,22.24,TRADE
NSW1,"2004/08/23 21:00:00",9590.54,19.9,TRADE
NSW1,"2004/08/23 21:30:00",9266.90667,20.27,TRADE
NSW1,"2004/08/23 22:00:00",8913.21833,17.4,TRADE
NSW1,"2004/08/23 22:30:00",9061.29333,22.66,TRADE
NSW1,"2004/08/23 23:00:00",8904.305,18.31,TRADE
NSW1,"2004/08/23 23:30:00",8778.04333,22.34,TRADE
NSW1,"2004/08/24 00:00:00",8666.81833,18.83,TRADE
NSW1,"2004/08/24 00:30:00",8577.19667,18.61,TRADE
NSW1,"2004/08/24 01:00:00",8474.00333,18.19,TRADE
NSW1,"2004/08/24 01:30:00",8291.915,17.96,TRADE
NSW1,"2004/08/24 02:00:00",8103.35833,16.85,TRADE
NSW1,"2004/08/24 02:30:00",7715.18333,16.47,TRADE
NSW1,"2004/08/24 03:00:00",7360.18667,16.32,TRADE
NSW1,"2004/08/24 03:30:00",7020.15,15.88,TRADE
NSW1,"2004/08/24 04:00:00",6648.475,13.11,TRADE
NSW1,"2004/08/24 04:30:00",6462.97167,11.85,TRADE
NSW1,"2004/08/24 05:00:00",6591.15167,13.59,TRADE
NSW1,"2004/08/24 05:30:00",7057.24,16.36,TRADE
NSW1,"2004/08/24 06:00:00",7485.79833,17.13,TRADE
NSW1,"2004/08/24 06:30:00",8349.93167,20.48,TRADE
NSW1,"2004/08/24 07:00:00",9132.99833,20.92,TRADE
NSW1,"2004/08/24 07:30:00",9405.41167,19.85,TRADE
NSW1,"2004/08/24 08:00:00",9746.12667,23.43,TRADE
NSW1,"2004/08/24 08:30:00",9776.67,21.79,TRADE
NSW1,"2004/08/24 09:00:00",9607.53167,19.41,TRADE
NSW1,"2004/08/24 09:30:00",9558.59167,18.11,TRADE
NSW1,"2004/08/24 10:00:00",9501.56833,17.43,TRADE
NSW1,"2004/08/24 10:30:00",9362.565,17.67,TRADE
NSW1,"2004/08/24 11:00:00",9347.875,17.73,TRADE
NSW1,"2004/08/24 11:30:00",9242.65667,18.09,TRADE
NSW1,"2004/08/24 12:00:00",9185.20167,17.34,TRADE
NSW1,"2004/08/24 12:30:00",9088.09833,17.45,TRADE
NSW1,"2004/08/24 13:00:00",9063.99167,17.32,TRADE
NSW1,"2004/08/24 13:30:00",8980.93833,17.5,TRADE
NSW1,"2004/08/24 14:00:00",8925.52,17.02,TRADE
NSW1,"2004/08/24 14:30:00",8860,17.01,TRADE
NSW1,"2004/08/24 15:00:00",8865.39667,17.27,TRADE
NSW1,"2004/08/24 15:30:00",8831.74833,16.74,TRADE
NSW1,"2004/08/24 16:00:00",8887.47,16.82,TRADE
NSW1,"2004/08/24 16:30:00",8882.33667,16.69,TRADE
NSW1,"2004/08/24 17:00:00",9027.73,17.07,TRADE
NSW1,"2004/08/24 17:30:00",9250.82333,17.14,TRADE
NSW1,"2004/08/24 18:00:00",9888.43,22.52,TRADE
NSW1,"2004/08/24 18:30:00",10257.535,24.28,TRADE
NSW1,"2004/08/24 19:00:00",10220.17667,23.38,TRADE
NSW1,"2004/08/24 19:30:00",9984.74167,22.36,TRADE
NSW1,"2004/08/24 20:00:00",9753.80167,17.59,TRADE
NSW1,"2004/08/24 20:30:00",9599.47333,17.69,TRADE
NSW1,"2004/08/24 21:00:00",9362.19333,17.15,TRADE
NSW1,"2004/08/24 21:30:00",9087.335,17.09,TRADE
NSW1,"2004/08/24 22:00:00",8750.78333,16.66,TRADE
NSW1,"2004/08/24 22:30:00",8935.445,17.53,TRADE
NSW1,"2004/08/24 23:00:00",8801.64667,17.09,TRADE
NSW1,"2004/08/24 23:30:00",8759.25333,18.39,TRADE
NSW1,"2004/08/25 00:00:00",8624.47,17.32,TRADE
NSW1,"2004/08/25 00:30:00",8456.42333,16.99,TRADE
NSW1,"2004/08/25 01:00:00",8368.95167,16.81,TRADE
NSW1,"2004/08/25 01:30:00",8243.4,17.79,TRADE
NSW1,"2004/08/25 02:00:00",8020.45167,16.48,TRADE
NSW1,"2004/08/25 02:30:00",7631.16667,16.14,TRADE
NSW1,"2004/08/25 03:00:00",7265.46,15.13,TRADE
NSW1,"2004/08/25 03:30:00",6940.00167,14.64,TRADE
NSW1,"2004/08/25 04:00:00",6733.28,14.29,TRADE
NSW1,"2004/08/25 04:30:00",6661.80833,15.79,TRADE
NSW1,"2004/08/25 05:00:00",6683.545,16.07,TRADE
NSW1,"2004/08/25 05:30:00",6948.61,14.88,TRADE
NSW1,"2004/08/25 06:00:00",7447.37333,16.89,TRADE
NSW1,"2004/08/25 06:30:00",8265.385,20.7,TRADE
NSW1,"2004/08/25 07:00:00",9012.96167,20.69,TRADE
NSW1,"2004/08/25 07:30:00",9281.26667,21.11,TRADE
NSW1,"2004/08/25 08:00:00",9625.36167,24.17,TRADE
NSW1,"2004/08/25 08:30:00",9583.625,21.59,TRADE
NSW1,"2004/08/25 09:00:00",9408.295,18.67,TRADE
NSW1,"2004/08/25 09:30:00",9411.30333,18.1,TRADE
NSW1,"2004/08/25 10:00:00",9313.91,17.82,TRADE
NSW1,"2004/08/25 10:30:00",9253.935,18.38,TRADE
NSW1,"2004/08/25 11:00:00",9216.69667,18.84,TRADE
NSW1,"2004/08/25 11:30:00",9101.925,19,TRADE
NSW1,"2004/08/25 12:00:00",9031.34833,19.16,TRADE
NSW1,"2004/08/25 12:30:00",8989.82,18.04,TRADE
NSW1,"2004/08/25 13:00:00",8912.89667,19.67,TRADE
NSW1,"2004/08/25 13:30:00",8824.91667,20.06,TRADE
NSW1,"2004/08/25 14:00:00",8853.77667,19,TRADE
NSW1,"2004/08/25 14:30:00",8824.625,18.99,TRADE
NSW1,"2004/08/25 15:00:00",8746.14833,18.21,TRADE
NSW1,"2004/08/25 15:30:00",8716.545,18.41,TRADE
NSW1,"2004/08/25 16:00:00",8762.24833,17.52,TRADE
NSW1,"2004/08/25 16:30:00",8802.11,17.86,TRADE
NSW1,"2004/08/25 17:00:00",8906.90167,17.67,TRADE
NSW1,"2004/08/25 17:30:00",9118.175,18.4,TRADE
NSW1,"2004/08/25 18:00:00",9699.55167,20.83,TRADE
NSW1,"2004/08/25 18:30:00",10048.45667,22.88,TRADE
NSW1,"2004/08/25 19:00:00",10005.36167,22.52,TRADE
NSW1,"2004/08/25 19:30:00",9724.33,19.79,TRADE
NSW1,"2004/08/25 20:00:00",9542.095,17,TRADE
NSW1,"2004/08/25 20:30:00",9335.11667,17.09,TRADE
NSW1,"2004/08/25 21:00:00",9192.02333,17,TRADE
NSW1,"2004/08/25 21:30:00",8909.555,17.06,TRADE
NSW1,"2004/08/25 22:00:00",8602.59667,16.63,TRADE
NSW1,"2004/08/25 22:30:00",8763.24667,18.77,TRADE
NSW1,"2004/08/25 23:00:00",8727.795,16.68,TRADE
NSW1,"2004/08/25 23:30:00",8662.74167,18.72,TRADE
NSW1,"2004/08/26 00:00:00",8579.59333,17.32,TRADE
NSW1,"2004/08/26 00:30:00",8435.185,17.2,TRADE
NSW1,"2004/08/26 01:00:00",8298.205,16.74,TRADE
NSW1,"2004/08/26 01:30:00",8165.175,17.22,TRADE
NSW1,"2004/08/26 02:00:00",7959.20167,15.83,TRADE
NSW1,"2004/08/26 02:30:00",7557.005,15.26,TRADE
NSW1,"2004/08/26 03:00:00",7171.5,14.53,TRADE
NSW1,"2004/08/26 03:30:00",6856.86833,13.38,TRADE
NSW1,"2004/08/26 04:00:00",6639.34,11.66,TRADE
NSW1,"2004/08/26 04:30:00",6528.125,11.72,TRADE
NSW1,"2004/08/26 05:00:00",6608.54667,12.96,TRADE
NSW1,"2004/08/26 05:30:00",6900.21,14.53,TRADE
NSW1,"2004/08/26 06:00:00",7295.09833,15.63,TRADE
NSW1,"2004/08/26 06:30:00",8136.87,17.57,TRADE
NSW1,"2004/08/26 07:00:00",8862.76667,18,TRADE
NSW1,"2004/08/26 07:30:00",9148.45167,17.49,TRADE
NSW1,"2004/08/26 08:00:00",9520.53667,19.47,TRADE
NSW1,"2004/08/26 08:30:00",9505.465,17.7,TRADE
NSW1,"2004/08/26 09:00:00",9343.84333,16.95,TRADE
NSW1,"2004/08/26 09:30:00",9343.38,17,TRADE
NSW1,"2004/08/26 10:00:00",9277.00333,16.9,TRADE
NSW1,"2004/08/26 10:30:00",9217.31167,17,TRADE
NSW1,"2004/08/26 11:00:00",9169.59,16.93,TRADE
NSW1,"2004/08/26 11:30:00",9034.98333,17.18,TRADE
NSW1,"2004/08/26 12:00:00",8927.515,16.86,TRADE
NSW1,"2004/08/26 12:30:00",8899.94,16.92,TRADE
NSW1,"2004/08/26 13:00:00",8915.76333,17,TRADE
NSW1,"2004/08/26 13:30:00",8888.72667,17.13,TRADE
NSW1,"2004/08/26 14:00:00",8836.31,16.93,TRADE
NSW1,"2004/08/26 14:30:00",8796.80167,16.68,TRADE
NSW1,"2004/08/26 15:00:00",8768.285,16.94,TRADE
NSW1,"2004/08/26 15:30:00",8707.3,16.72,TRADE
NSW1,"2004/08/26 16:00:00",8646.14,16.58,TRADE
NSW1,"2004/08/26 16:30:00",8786.43667,16.77,TRADE
NSW1,"2004/08/26 17:00:00",8913.23833,17.16,TRADE
NSW1,"2004/08/26 17:30:00",9053.345,17.91,TRADE
NSW1,"2004/08/26 18:00:00",9647.78,23.63,TRADE
NSW1,"2004/08/26 18:30:00",9902.90833,24.44,TRADE
NSW1,"2004/08/26 19:00:00",9805.81333,24.05,TRADE
NSW1,"2004/08/26 19:30:00",9576.43333,22.9,TRADE
NSW1,"2004/08/26 20:00:00",9313.49667,18.16,TRADE
NSW1,"2004/08/26 20:30:00",9228.44333,18.47,TRADE
NSW1,"2004/08/26 21:00:00",9036.99,17.41,TRADE
NSW1,"2004/08/26 21:30:00",8794.3,18.53,TRADE
NSW1,"2004/08/26 22:00:00",8432.26,16.79,TRADE
NSW1,"2004/08/26 22:30:00",8662.135,18.57,TRADE
NSW1,"2004/08/26 23:00:00",8556.17833,17.17,TRADE
NSW1,"2004/08/26 23:30:00",8505.755,21.65,TRADE
NSW1,"2004/08/27 00:00:00",8391.76833,18.17,TRADE
NSW1,"2004/08/27 00:30:00",8120.32,17.26,TRADE
NSW1,"2004/08/27 01:00:00",8170.07333,17.18,TRADE
NSW1,"2004/08/27 01:30:00",8015.98833,17.77,TRADE
NSW1,"2004/08/27 02:00:00",7786.67167,16.37,TRADE
NSW1,"2004/08/27 02:30:00",7349.525,15.47,TRADE
NSW1,"2004/08/27 03:00:00",7022.54833,16.17,TRADE
NSW1,"2004/08/27 03:30:00",6689.85,14.09,TRADE
NSW1,"2004/08/27 04:00:00",6481.84833,13.63,TRADE
NSW1,"2004/08/27 04:30:00",6414.01667,14.59,TRADE
NSW1,"2004/08/27 05:00:00",6501.17833,15.43,TRADE
NSW1,"2004/08/27 05:30:00",6739.99167,16.46,TRADE
NSW1,"2004/08/27 06:00:00",7092.78167,15.93,TRADE
NSW1,"2004/08/27 06:30:00",7861.08833,17.9,TRADE
NSW1,"2004/08/27 07:00:00",8527.345,19.41,TRADE
NSW1,"2004/08/27 07:30:00",8762.905,17.49,TRADE
NSW1,"2004/08/27 08:00:00",9155.92167,19.21,TRADE
NSW1,"2004/08/27 08:30:00",9188.77333,18.8,TRADE
NSW1,"2004/08/27 09:00:00",9129.05333,17.41,TRADE
NSW1,"2004/08/27 09:30:00",9178.39333,17.65,TRADE
NSW1,"2004/08/27 10:00:00",9216.18,17.54,TRADE
NSW1,"2004/08/27 10:30:00",9205.36167,19.17,TRADE
NSW1,"2004/08/27 11:00:00",9187.595,18.37,TRADE
NSW1,"2004/08/27 11:30:00",9045.23333,18.66,TRADE
NSW1,"2004/08/27 12:00:00",9025.79,18.6,TRADE
NSW1,"2004/08/27 12:30:00",8948.58,18.28,TRADE
NSW1,"2004/08/27 13:00:00",8912.795,17.65,TRADE
NSW1,"2004/08/27 13:30:00",8873.48667,18.3,TRADE
NSW1,"2004/08/27 14:00:00",8810.31167,18.38,TRADE
NSW1,"2004/08/27 14:30:00",8787.49333,18.09,TRADE
NSW1,"2004/08/27 15:00:00",8726.685,17.75,TRADE
NSW1,"2004/08/27 15:30:00",8660.46833,17.19,TRADE
NSW1,"2004/08/27 16:00:00",8588.90167,17.46,TRADE
NSW1,"2004/08/27 16:30:00",8672.26,17.5,TRADE
NSW1,"2004/08/27 17:00:00",8726.10167,17.18,TRADE
NSW1,"2004/08/27 17:30:00",8762.80167,16.97,TRADE
NSW1,"2004/08/27 18:00:00",9169.10167,20.52,TRADE
NSW1,"2004/08/27 18:30:00",9317.56,22.56,TRADE
NSW1,"2004/08/27 19:00:00",9238.22,20.35,TRADE
NSW1,"2004/08/27 19:30:00",8958.69833,17.97,TRADE
NSW1,"2004/08/27 20:00:00",8789.185,16.95,TRADE
NSW1,"2004/08/27 20:30:00",8621.22167,17.35,TRADE
NSW1,"2004/08/27 21:00:00",8453.845,17,TRADE
NSW1,"2004/08/27 21:30:00",8230.73167,17.52,TRADE
NSW1,"2004/08/27 22:00:00",8049.01,17.11,TRADE
NSW1,"2004/08/27 22:30:00",8366.285,23.83,TRADE
NSW1,"2004/08/27 23:00:00",8320.895,21.4,TRADE
NSW1,"2004/08/27 23:30:00",8335.67667,24.86,TRADE
NSW1,"2004/08/28 00:00:00",8285.08333,24.36,TRADE
NSW1,"2004/08/28 00:30:00",8148.88,22.09,TRADE
NSW1,"2004/08/28 01:00:00",8008.22,20.2,TRADE
NSW1,"2004/08/28 01:30:00",7844.32833,23.17,TRADE
NSW1,"2004/08/28 02:00:00",7511.3,18.22,TRADE
NSW1,"2004/08/28 02:30:00",7145.79667,17.68,TRADE
NSW1,"2004/08/28 03:00:00",6827.30167,16.47,TRADE
NSW1,"2004/08/28 03:30:00",6542.33833,16.5,TRADE
NSW1,"2004/08/28 04:00:00",6316.36667,16.05,TRADE
NSW1,"2004/08/28 04:30:00",6209.52333,16.25,TRADE
NSW1,"2004/08/28 05:00:00",6169.95667,15.97,TRADE
NSW1,"2004/08/28 05:30:00",6206.555,16,TRADE
NSW1,"2004/08/28 06:00:00",6377.87833,15.23,TRADE
NSW1,"2004/08/28 06:30:00",6677.70667,15.99,TRADE
NSW1,"2004/08/28 07:00:00",6987.735,16.6,TRADE
NSW1,"2004/08/28 07:30:00",7282.16167,16.29,TRADE
NSW1,"2004/08/28 08:00:00",7775.155,19.91,TRADE
NSW1,"2004/08/28 08:30:00",8161.44667,24.08,TRADE
NSW1,"2004/08/28 09:00:00",8394.06,24.72,TRADE
NSW1,"2004/08/28 09:30:00",8660.50333,25.08,TRADE
NSW1,"2004/08/28 10:00:00",8593.46167,25,TRADE
NSW1,"2004/08/28 10:30:00",8590.65833,25.01,TRADE
NSW1,"2004/08/28 11:00:00",8419.25,24.85,TRADE
NSW1,"2004/08/28 11:30:00",8257.60167,23.99,TRADE
NSW1,"2004/08/28 12:00:00",8115.15333,22.46,TRADE
NSW1,"2004/08/28 12:30:00",8028.51,20.26,TRADE
NSW1,"2004/08/28 13:00:00",7936.69167,19.69,TRADE
NSW1,"2004/08/28 13:30:00",7839.46,21.51,TRADE
NSW1,"2004/08/28 14:00:00",7774.96833,20.66,TRADE
NSW1,"2004/08/28 14:30:00",7644.89,19.01,TRADE
NSW1,"2004/08/28 15:00:00",7562.56,18.37,TRADE
NSW1,"2004/08/28 15:30:00",7571.88333,18.2,TRADE
NSW1,"2004/08/28 16:00:00",7576.995,17.96,TRADE
NSW1,"2004/08/28 16:30:00",7647.02333,18.48,TRADE
NSW1,"2004/08/28 17:00:00",7785.42833,18.69,TRADE
NSW1,"2004/08/28 17:30:00",7874.01,19.53,TRADE
NSW1,"2004/08/28 18:00:00",8402.98167,24.41,TRADE
NSW1,"2004/08/28 18:30:00",8806.18,25.85,TRADE
NSW1,"2004/08/28 19:00:00",8745.235,25.47,TRADE
NSW1,"2004/08/28 19:30:00",8490.74833,24.8,TRADE
NSW1,"2004/08/28 20:00:00",8280.49333,23.17,TRADE
NSW1,"2004/08/28 20:30:00",8116.93833,20.46,TRADE
NSW1,"2004/08/28 21:00:00",8029.18333,19.43,TRADE
NSW1,"2004/08/28 21:30:00",7852.87167,19.59,TRADE
NSW1,"2004/08/28 22:00:00",7731.47,18.03,TRADE
NSW1,"2004/08/28 22:30:00",7847.87833,19.6,TRADE
NSW1,"2004/08/28 23:00:00",7843.46333,18.44,TRADE
NSW1,"2004/08/28 23:30:00",7903.60667,23.52,TRADE
NSW1,"2004/08/29 00:00:00",7703.59833,19.73,TRADE
NSW1,"2004/08/29 00:30:00",7542.19,17.99,TRADE
NSW1,"2004/08/29 01:00:00",7330.38333,16.92,TRADE
NSW1,"2004/08/29 01:30:00",7135.74667,16.89,TRADE
NSW1,"2004/08/29 02:00:00",6601.45,12.66,TRADE
NSW1,"2004/08/29 02:30:00",6318.66,12.16,TRADE
NSW1,"2004/08/29 03:00:00",6316.955,14.66,TRADE
NSW1,"2004/08/29 03:30:00",6084.76167,12.36,TRADE
NSW1,"2004/08/29 04:00:00",5937.89833,10.97,TRADE
NSW1,"2004/08/29 04:30:00",5877.59167,11.04,TRADE
NSW1,"2004/08/29 05:00:00",5892.26833,11.22,TRADE
NSW1,"2004/08/29 05:30:00",5958.44333,11.03,TRADE
NSW1,"2004/08/29 06:00:00",6065.87167,11.36,TRADE
NSW1,"2004/08/29 06:30:00",6208.74167,10.96,TRADE
NSW1,"2004/08/29 07:00:00",6362.34667,11.05,TRADE
NSW1,"2004/08/29 07:30:00",6623.77167,12.41,TRADE
NSW1,"2004/08/29 08:00:00",7061.66167,13.09,TRADE
NSW1,"2004/08/29 08:30:00",7448.62,15.19,TRADE
NSW1,"2004/08/29 09:00:00",7773.98,16.81,TRADE
NSW1,"2004/08/29 09:30:00",8022.21167,17.25,TRADE
NSW1,"2004/08/29 10:00:00",8066.99833,18.06,TRADE
NSW1,"2004/08/29 10:30:00",8129.14333,18.68,TRADE
NSW1,"2004/08/29 11:00:00",8110.49667,18.99,TRADE
NSW1,"2004/08/29 11:30:00",8011.34833,18.44,TRADE
NSW1,"2004/08/29 12:00:00",8007.13167,18.04,TRADE
NSW1,"2004/08/29 12:30:00",7983.11,18.35,TRADE
NSW1,"2004/08/29 13:00:00",7969.08167,18.19,TRADE
NSW1,"2004/08/29 13:30:00",7885.85,18.5,TRADE
NSW1,"2004/08/29 14:00:00",7860.65333,17.89,TRADE
NSW1,"2004/08/29 14:30:00",7907.14667,18.79,TRADE
NSW1,"2004/08/29 15:00:00",7891.77,17.78,TRADE
NSW1,"2004/08/29 15:30:00",7954.715,18.14,TRADE
NSW1,"2004/08/29 16:00:00",8087.305,18.67,TRADE
NSW1,"2004/08/29 16:30:00",8195.745,18.69,TRADE
NSW1,"2004/08/29 17:00:00",8470.90833,20.6,TRADE
NSW1,"2004/08/29 17:30:00",8736.62,24.48,TRADE
NSW1,"2004/08/29 18:00:00",9273.25667,28.32,TRADE
NSW1,"2004/08/29 18:30:00",9544.24833,35.6,TRADE
NSW1,"2004/08/29 19:00:00",9402.63833,32.12,TRADE
NSW1,"2004/08/29 19:30:00",9154.16833,25.96,TRADE
NSW1,"2004/08/29 20:00:00",8957.50167,24.88,TRADE
NSW1,"2004/08/29 20:30:00",8748.06667,23.44,TRADE
NSW1,"2004/08/29 21:00:00",8646.72167,22.32,TRADE
NSW1,"2004/08/29 21:30:00",8353.85,19.13,TRADE
NSW1,"2004/08/29 22:00:00",8075.5,16.78,TRADE
NSW1,"2004/08/29 22:30:00",8080.66333,17.2,TRADE
NSW1,"2004/08/29 23:00:00",7954.03,16.58,TRADE
NSW1,"2004/08/29 23:30:00",7904.07167,18.08,TRADE
NSW1,"2004/08/30 00:00:00",7682.735,16.82,TRADE
NSW1,"2004/08/30 00:30:00",7493.23667,16.83,TRADE
NSW1,"2004/08/30 01:00:00",7338.85833,16.51,TRADE
NSW1,"2004/08/30 01:30:00",7175.21833,16.27,TRADE
NSW1,"2004/08/30 02:00:00",6970.68167,14.75,TRADE
NSW1,"2004/08/30 02:30:00",6699.94,14.44,TRADE
NSW1,"2004/08/30 03:00:00",6430.29833,13.4,TRADE
NSW1,"2004/08/30 03:30:00",6261.39,12.34,TRADE
NSW1,"2004/08/30 04:00:00",6189.34667,11.66,TRADE
NSW1,"2004/08/30 04:30:00",6173.34833,11.55,TRADE
NSW1,"2004/08/30 05:00:00",6257.89167,12.8,TRADE
NSW1,"2004/08/30 05:30:00",6537.07167,14.31,TRADE
NSW1,"2004/08/30 06:00:00",6918.535,16.15,TRADE
NSW1,"2004/08/30 06:30:00",7736.17833,17.47,TRADE
NSW1,"2004/08/30 07:00:00",8466.94,19.71,TRADE
NSW1,"2004/08/30 07:30:00",8757.505,18.06,TRADE
NSW1,"2004/08/30 08:00:00",9195.695,22.53,TRADE
NSW1,"2004/08/30 08:30:00",9332.37833,22.64,TRADE
NSW1,"2004/08/30 09:00:00",9297.46,22.28,TRADE
NSW1,"2004/08/30 09:30:00",9386.92667,21.01,TRADE
NSW1,"2004/08/30 10:00:00",9447.24167,19.83,TRADE
NSW1,"2004/08/30 10:30:00",9473.405,21.48,TRADE
NSW1,"2004/08/30 11:00:00",9447.66333,20.99,TRADE
NSW1,"2004/08/30 11:30:00",9334.19333,22.17,TRADE
NSW1,"2004/08/30 12:00:00",9337.535,21.08,TRADE
NSW1,"2004/08/30 12:30:00",9239.78,19.4,TRADE
NSW1,"2004/08/30 13:00:00",9221.62,19.39,TRADE
NSW1,"2004/08/30 13:30:00",9237.125,20.49,TRADE
NSW1,"2004/08/30 14:00:00",9155.435,20.02,TRADE
NSW1,"2004/08/30 14:30:00",9069.63167,20.77,TRADE
NSW1,"2004/08/30 15:00:00",9043.10667,18.2,TRADE
NSW1,"2004/08/30 15:30:00",8979.11167,16.98,TRADE
NSW1,"2004/08/30 16:00:00",9046.57667,16.79,TRADE
NSW1,"2004/08/30 16:30:00",9106.065,17.08,TRADE
NSW1,"2004/08/30 17:00:00",9354.10833,18,TRADE
NSW1,"2004/08/30 17:30:00",9702.49,21.47,TRADE
NSW1,"2004/08/30 18:00:00",10152.50667,25.48,TRADE
NSW1,"2004/08/30 18:30:00",10283.37333,30.32,TRADE
NSW1,"2004/08/30 19:00:00",10141.85333,28.98,TRADE
NSW1,"2004/08/30 19:30:00",9831.125,25.08,TRADE
NSW1,"2004/08/30 20:00:00",9532.16333,20.42,TRADE
NSW1,"2004/08/30 20:30:00",9323.10333,17.93,TRADE
NSW1,"2004/08/30 21:00:00",9129.87667,17.16,TRADE
NSW1,"2004/08/30 21:30:00",8776.64333,17.04,TRADE
NSW1,"2004/08/30 22:00:00",8454.56,16.44,TRADE
NSW1,"2004/08/30 22:30:00",8638.53167,16.91,TRADE
NSW1,"2004/08/30 23:00:00",8541.92833,16.34,TRADE
NSW1,"2004/08/30 23:30:00",8520.09167,17.87,TRADE
NSW1,"2004/08/31 00:00:00",8419.96667,16.04,TRADE
NSW1,"2004/08/31 00:30:00",8227.21667,17.35,TRADE
NSW1,"2004/08/31 01:00:00",8073.38667,16.46,TRADE
NSW1,"2004/08/31 01:30:00",7952.415,17.05,TRADE
NSW1,"2004/08/31 02:00:00",7758.44167,16.17,TRADE
NSW1,"2004/08/31 02:30:00",7362.555,16.96,TRADE
NSW1,"2004/08/31 03:00:00",6965.22167,14.54,TRADE
NSW1,"2004/08/31 03:30:00",6650.17833,11.74,TRADE
NSW1,"2004/08/31 04:00:00",6471.66,12.22,TRADE
NSW1,"2004/08/31 04:30:00",6452.88667,14.69,TRADE
NSW1,"2004/08/31 05:00:00",6527.64,15.75,TRADE
NSW1,"2004/08/31 05:30:00",6784.41167,14.73,TRADE
NSW1,"2004/08/31 06:00:00",7179.71333,16.79,TRADE
NSW1,"2004/08/31 06:30:00",7960.03,19.38,TRADE
NSW1,"2004/08/31 07:00:00",8697.05333,21.81,TRADE
NSW1,"2004/08/31 07:30:00",8909.03667,21.34,TRADE
NSW1,"2004/08/31 08:00:00",9263.80167,24.09,TRADE
NSW1,"2004/08/31 08:30:00",9319.93833,23.88,TRADE
NSW1,"2004/08/31 09:00:00",9205.235,20.54,TRADE
NSW1,"2004/08/31 09:30:00",9286.38667,19.29,TRADE
NSW1,"2004/08/31 10:00:00",9306.27,18.91,TRADE
NSW1,"2004/08/31 10:30:00",9261.16833,19.37,TRADE
NSW1,"2004/08/31 11:00:00",9285.77667,20.02,TRADE
NSW1,"2004/08/31 11:30:00",9142.59,19.48,TRADE
NSW1,"2004/08/31 12:00:00",9087.39333,19.3,TRADE
NSW1,"2004/08/31 12:30:00",9069.35,19.63,TRADE
NSW1,"2004/08/31 13:00:00",9002.78667,19.66,TRADE
NSW1,"2004/08/31 13:30:00",8983.60667,20.82,TRADE
NSW1,"2004/08/31 14:00:00",8910.38167,20.19,TRADE
NSW1,"2004/08/31 14:30:00",8895.945,20.53,TRADE
NSW1,"2004/08/31 15:00:00",8878.955,19.37,TRADE
NSW1,"2004/08/31 15:30:00",8844.53333,18.9,TRADE
NSW1,"2004/08/31 16:00:00",8821.67833,18.28,TRADE
NSW1,"2004/08/31 16:30:00",8974.69167,19.05,TRADE
NSW1,"2004/08/31 17:00:00",9109.26833,19.92,TRADE
NSW1,"2004/08/31 17:30:00",9333.84333,20.82,TRADE
NSW1,"2004/08/31 18:00:00",10045.05167,28.98,TRADE
NSW1,"2004/08/31 18:30:00",10382.47833,40.27,TRADE
NSW1,"2004/08/31 19:00:00",10254.495,33.38,TRADE
NSW1,"2004/08/31 19:30:00",9988.78167,33.82,TRADE
NSW1,"2004/08/31 20:00:00",9784.86,24.29,TRADE
NSW1,"2004/08/31 20:30:00",9647.92,24.1,TRADE
NSW1,"2004/08/31 21:00:00",9413.04833,22.82,TRADE
NSW1,"2004/08/31 21:30:00",9099.67,23.2,TRADE
NSW1,"2004/08/31 22:00:00",8835.26667,17.44,TRADE
NSW1,"2004/08/31 22:30:00",8968.385,23.55,TRADE
NSW1,"2004/08/31 23:00:00",8848.49167,18.41,TRADE
NSW1,"2004/08/31 23:30:00",8746.64,26.3,TRADE
NSW1,"2004/09/01 00:00:00",8635.72667,25,TRADE
