REGION,SETTLEMENTDATE,TOTALDEMAND,RRP,PERIODTYPE
TAS1,"2009/01/01 00:30:00",909.71,25.2,TRADE
TAS1,"2009/01/01 01:00:00",896.63,17.2,TRADE
TAS1,"2009/01/01 01:30:00",897.52,1.65,TRADE
TAS1,"2009/01/01 02:00:00",906.22,7.14,TRADE
TAS1,"2009/01/01 02:30:00",893.19,25.25,TRADE
TAS1,"2009/01/01 03:00:00",891.48,25.22,TRADE
TAS1,"2009/01/01 03:30:00",890.4,25.23,TRADE
TAS1,"2009/01/01 04:00:00",887.37,25.22,TRADE
TAS1,"2009/01/01 04:30:00",885.54,28.28,TRADE
TAS1,"2009/01/01 05:00:00",892.07,28.28,TRADE
TAS1,"2009/01/01 05:30:00",900.44,28.28,TRADE
TAS1,"2009/01/01 06:00:00",892.38,28.28,TRADE
TAS1,"2009/01/01 06:30:00",915.41,28.26,TRADE
TAS1,"2009/01/01 07:00:00",945.1,28.23,TRADE
TAS1,"2009/01/01 07:30:00",962.84,28.28,TRADE
TAS1,"2009/01/01 08:00:00",1004.95,28.28,TRADE
TAS1,"2009/01/01 08:30:00",1026.78,28.23,TRADE
TAS1,"2009/01/01 09:00:00",1059.56,28.28,TRADE
TAS1,"2009/01/01 09:30:00",1044.55,28.28,TRADE
TAS1,"2009/01/01 10:00:00",1050.76,28.28,TRADE
TAS1,"2009/01/01 10:30:00",982.95,28.28,TRADE
TAS1,"2009/01/01 11:00:00",1038.19,28.28,TRADE
TAS1,"2009/01/01 11:30:00",1036.24,28.28,TRADE
TAS1,"2009/01/01 12:00:00",1023.93,28.24,TRADE
TAS1,"2009/01/01 12:30:00",1020.24,28.21,TRADE
TAS1,"2009/01/01 13:00:00",1004.59,28.28,TRADE
TAS1,"2009/01/01 13:30:00",1003.65,28.28,TRADE
TAS1,"2009/01/01 14:00:00",990.26,28.23,TRADE
TAS1,"2009/01/01 14:30:00",1004.42,28.25,TRADE
TAS1,"2009/01/01 15:00:00",1011.74,28.21,TRADE
TAS1,"2009/01/01 15:30:00",1018.04,28.21,TRADE
TAS1,"2009/01/01 16:00:00",1022.86,28.28,TRADE
TAS1,"2009/01/01 16:30:00",1046.26,21.89,TRADE
TAS1,"2009/01/01 17:00:00",1071.88,8.44,TRADE
TAS1,"2009/01/01 17:30:00",1075.22,4.37,TRADE
TAS1,"2009/01/01 18:00:00",1068.59,28.34,TRADE
TAS1,"2009/01/01 18:30:00",1060.69,28.26,TRADE
TAS1,"2009/01/01 19:00:00",1053.44,28.26,TRADE
TAS1,"2009/01/01 19:30:00",1065.58,28.27,TRADE
TAS1,"2009/01/01 20:00:00",1081.47,28.28,TRADE
TAS1,"2009/01/01 20:30:00",1092.04,28.28,TRADE
TAS1,"2009/01/01 21:00:00",1091.31,28.24,TRADE
TAS1,"2009/01/01 21:30:00",1064.84,28.2,TRADE
TAS1,"2009/01/01 22:00:00",1028.44,28.2,TRADE
TAS1,"2009/01/01 22:30:00",986.04,28.14,TRADE
TAS1,"2009/01/01 23:00:00",952.53,28.14,TRADE
TAS1,"2009/01/01 23:30:00",933.39,28.14,TRADE
TAS1,"2009/01/02 00:00:00",910.17,28.14,TRADE
TAS1,"2009/01/02 00:30:00",911.56,28.2,TRADE
TAS1,"2009/01/02 01:00:00",908.74,28.2,TRADE
TAS1,"2009/01/02 01:30:00",898.18,28.2,TRADE
TAS1,"2009/01/02 02:00:00",898.57,28.18,TRADE
TAS1,"2009/01/02 02:30:00",893.04,28.21,TRADE
TAS1,"2009/01/02 03:00:00",896.49,28.22,TRADE
TAS1,"2009/01/02 03:30:00",926.01,28.2,TRADE
TAS1,"2009/01/02 04:00:00",924.42,28.2,TRADE
TAS1,"2009/01/02 04:30:00",930.03,28.27,TRADE
TAS1,"2009/01/02 05:00:00",940.74,28.19,TRADE
TAS1,"2009/01/02 05:30:00",971.03,28.22,TRADE
TAS1,"2009/01/02 06:00:00",1003.01,28.25,TRADE
TAS1,"2009/01/02 06:30:00",1042.38,28.2,TRADE
TAS1,"2009/01/02 07:00:00",1099.9,28.28,TRADE
TAS1,"2009/01/02 07:30:00",1139.88,28.25,TRADE
TAS1,"2009/01/02 08:00:00",1156.37,28.22,TRADE
TAS1,"2009/01/02 08:30:00",1158.28,28.22,TRADE
TAS1,"2009/01/02 09:00:00",1177.95,28.24,TRADE
TAS1,"2009/01/02 09:30:00",1160.85,28.24,TRADE
TAS1,"2009/01/02 10:00:00",1144.1,28.22,TRADE
TAS1,"2009/01/02 10:30:00",1123.78,28.22,TRADE
TAS1,"2009/01/02 11:00:00",1137.37,28.22,TRADE
TAS1,"2009/01/02 11:30:00",1110.25,28.26,TRADE
TAS1,"2009/01/02 12:00:00",1093.47,28.2,TRADE
TAS1,"2009/01/02 12:30:00",1083.49,28.23,TRADE
TAS1,"2009/01/02 13:00:00",1076.98,28.2,TRADE
TAS1,"2009/01/02 13:30:00",1063.89,28.2,TRADE
TAS1,"2009/01/02 14:00:00",1062.23,28.19,TRADE
TAS1,"2009/01/02 14:30:00",1084.82,28.26,TRADE
TAS1,"2009/01/02 15:00:00",1080.71,28.23,TRADE
TAS1,"2009/01/02 15:30:00",1069.54,28.21,TRADE
TAS1,"2009/01/02 16:00:00",1085.48,28.25,TRADE
TAS1,"2009/01/02 16:30:00",1121.46,28.28,TRADE
TAS1,"2009/01/02 17:00:00",1133.16,28.28,TRADE
TAS1,"2009/01/02 17:30:00",1114.1,28.27,TRADE
TAS1,"2009/01/02 18:00:00",1126.24,28.28,TRADE
TAS1,"2009/01/02 18:30:00",1120.01,28.24,TRADE
TAS1,"2009/01/02 19:00:00",1131.1,28.28,TRADE
TAS1,"2009/01/02 19:30:00",1150.66,28.22,TRADE
TAS1,"2009/01/02 20:00:00",1168.86,28.28,TRADE
TAS1,"2009/01/02 20:30:00",1183.97,28.24,TRADE
TAS1,"2009/01/02 21:00:00",1202.28,28.25,TRADE
TAS1,"2009/01/02 21:30:00",1185.55,28.28,TRADE
TAS1,"2009/01/02 22:00:00",1151.42,28.24,TRADE
TAS1,"2009/01/02 22:30:00",1105.59,28.24,TRADE
TAS1,"2009/01/02 23:00:00",1086.95,28.24,TRADE
TAS1,"2009/01/02 23:30:00",1060.44,28.28,TRADE
TAS1,"2009/01/03 00:00:00",1050.41,28.28,TRADE
TAS1,"2009/01/03 00:30:00",1040.69,28.27,TRADE
TAS1,"2009/01/03 01:00:00",1031.29,28.28,TRADE
TAS1,"2009/01/03 01:30:00",1022.97,28.28,TRADE
TAS1,"2009/01/03 02:00:00",1026.47,28.28,TRADE
TAS1,"2009/01/03 02:30:00",1022.92,28.28,TRADE
TAS1,"2009/01/03 03:00:00",1028.73,28.28,TRADE
TAS1,"2009/01/03 03:30:00",1026.92,28.28,TRADE
TAS1,"2009/01/03 04:00:00",1023.83,28.28,TRADE
TAS1,"2009/01/03 04:30:00",1029.19,28.28,TRADE
TAS1,"2009/01/03 05:00:00",1028.19,28.28,TRADE
TAS1,"2009/01/03 05:30:00",1045.04,28.28,TRADE
TAS1,"2009/01/03 06:00:00",1067.13,28.28,TRADE
TAS1,"2009/01/03 06:30:00",1091.66,28.28,TRADE
TAS1,"2009/01/03 07:00:00",1138.38,28.28,TRADE
TAS1,"2009/01/03 07:30:00",1189.74,40.51,TRADE
TAS1,"2009/01/03 08:00:00",1236.85,28.28,TRADE
TAS1,"2009/01/03 08:30:00",1255.71,28.28,TRADE
TAS1,"2009/01/03 09:00:00",1264.06,28.28,TRADE
TAS1,"2009/01/03 09:30:00",1277.16,28.28,TRADE
TAS1,"2009/01/03 10:00:00",1259.79,28.28,TRADE
TAS1,"2009/01/03 10:30:00",1235.07,28.28,TRADE
TAS1,"2009/01/03 11:00:00",1218.34,28.28,TRADE
TAS1,"2009/01/03 11:30:00",1193.53,28.28,TRADE
TAS1,"2009/01/03 12:00:00",1172.59,28.28,TRADE
TAS1,"2009/01/03 12:30:00",1157.45,28.28,TRADE
TAS1,"2009/01/03 13:00:00",1140.24,28.28,TRADE
TAS1,"2009/01/03 13:30:00",1135.29,28.28,TRADE
TAS1,"2009/01/03 14:00:00",1118.81,28.28,TRADE
TAS1,"2009/01/03 14:30:00",1125.79,28.28,TRADE
TAS1,"2009/01/03 15:00:00",1127.99,28.28,TRADE
TAS1,"2009/01/03 15:30:00",1135.95,28.28,TRADE
TAS1,"2009/01/03 16:00:00",1151.36,28.28,TRADE
TAS1,"2009/01/03 16:30:00",1144.68,28.28,TRADE
TAS1,"2009/01/03 17:00:00",1154.71,28.28,TRADE
TAS1,"2009/01/03 17:30:00",1168.63,28.28,TRADE
TAS1,"2009/01/03 18:00:00",1176.35,28.27,TRADE
TAS1,"2009/01/03 18:30:00",1174.31,28.27,TRADE
TAS1,"2009/01/03 19:00:00",1175.35,28.27,TRADE
TAS1,"2009/01/03 19:30:00",1181.81,28.28,TRADE
TAS1,"2009/01/03 20:00:00",1188.17,28.28,TRADE
TAS1,"2009/01/03 20:30:00",1199.53,28.28,TRADE
TAS1,"2009/01/03 21:00:00",1200.8,28.28,TRADE
TAS1,"2009/01/03 21:30:00",1192.68,28.28,TRADE
TAS1,"2009/01/03 22:00:00",1161.37,28.28,TRADE
TAS1,"2009/01/03 22:30:00",1139.1,28.28,TRADE
TAS1,"2009/01/03 23:00:00",1109.88,28.28,TRADE
TAS1,"2009/01/03 23:30:00",1085.8,28.28,TRADE
TAS1,"2009/01/04 00:00:00",1067.37,28.28,TRADE
TAS1,"2009/01/04 00:30:00",1048.47,28.27,TRADE
TAS1,"2009/01/04 01:00:00",1050.87,28.27,TRADE
TAS1,"2009/01/04 01:30:00",1047.29,28.27,TRADE
TAS1,"2009/01/04 02:00:00",1026.3,28.27,TRADE
TAS1,"2009/01/04 02:30:00",1025.23,28.27,TRADE
TAS1,"2009/01/04 03:00:00",1024.58,28.27,TRADE
TAS1,"2009/01/04 03:30:00",1030.42,28.27,TRADE
TAS1,"2009/01/04 04:00:00",1029.53,28.27,TRADE
TAS1,"2009/01/04 04:30:00",1035.9,28.28,TRADE
TAS1,"2009/01/04 05:00:00",1035.94,28.28,TRADE
TAS1,"2009/01/04 05:30:00",1040.58,28.28,TRADE
TAS1,"2009/01/04 06:00:00",1064.01,28.28,TRADE
TAS1,"2009/01/04 06:30:00",1086.39,28.28,TRADE
TAS1,"2009/01/04 07:00:00",1121.44,28.29,TRADE
TAS1,"2009/01/04 07:30:00",1147.74,28.29,TRADE
TAS1,"2009/01/04 08:00:00",1181.68,28.28,TRADE
TAS1,"2009/01/04 08:30:00",1205.97,28.28,TRADE
TAS1,"2009/01/04 09:00:00",1215.25,28.28,TRADE
TAS1,"2009/01/04 09:30:00",1217.84,28.28,TRADE
TAS1,"2009/01/04 10:00:00",1208.16,28.28,TRADE
TAS1,"2009/01/04 10:30:00",1201.09,28.28,TRADE
TAS1,"2009/01/04 11:00:00",1187.87,28.28,TRADE
TAS1,"2009/01/04 11:30:00",1172.48,28.28,TRADE
TAS1,"2009/01/04 12:00:00",1157.79,28.28,TRADE
TAS1,"2009/01/04 12:30:00",1107.35,28.26,TRADE
TAS1,"2009/01/04 13:00:00",1080.95,28.28,TRADE
TAS1,"2009/01/04 13:30:00",1112.37,28.28,TRADE
TAS1,"2009/01/04 14:00:00",1111.15,28.28,TRADE
TAS1,"2009/01/04 14:30:00",1080.07,42.44,TRADE
TAS1,"2009/01/04 15:00:00",1115.21,45.28,TRADE
TAS1,"2009/01/04 15:30:00",1116.73,45.27,TRADE
TAS1,"2009/01/04 16:00:00",1130.16,45.28,TRADE
TAS1,"2009/01/04 16:30:00",1137.05,45.27,TRADE
TAS1,"2009/01/04 17:00:00",1140.1,45.27,TRADE
TAS1,"2009/01/04 17:30:00",1135.59,45.27,TRADE
TAS1,"2009/01/04 18:00:00",1148.56,45.28,TRADE
TAS1,"2009/01/04 18:30:00",1154.13,45.28,TRADE
TAS1,"2009/01/04 19:00:00",1148.04,45.24,TRADE
TAS1,"2009/01/04 19:30:00",1155.95,28.24,TRADE
TAS1,"2009/01/04 20:00:00",1163.99,28.25,TRADE
TAS1,"2009/01/04 20:30:00",1192.19,28.28,TRADE
TAS1,"2009/01/04 21:00:00",1184,28.27,TRADE
TAS1,"2009/01/04 21:30:00",1161.3,28.26,TRADE
TAS1,"2009/01/04 22:00:00",1126.25,45.27,TRADE
TAS1,"2009/01/04 22:30:00",1086.42,28.25,TRADE
TAS1,"2009/01/04 23:00:00",1052.14,28.27,TRADE
TAS1,"2009/01/04 23:30:00",1038.07,28.28,TRADE
TAS1,"2009/01/05 00:00:00",1019.79,45.28,TRADE
TAS1,"2009/01/05 00:30:00",1020.82,45.28,TRADE
TAS1,"2009/01/05 01:00:00",1020.41,28.28,TRADE
TAS1,"2009/01/05 01:30:00",1015.61,28.28,TRADE
TAS1,"2009/01/05 02:00:00",1004.09,28.28,TRADE
TAS1,"2009/01/05 02:30:00",1017.45,28.28,TRADE
TAS1,"2009/01/05 03:00:00",1016.66,28.27,TRADE
TAS1,"2009/01/05 03:30:00",1008.56,28.26,TRADE
TAS1,"2009/01/05 04:00:00",1015.33,28.27,TRADE
TAS1,"2009/01/05 04:30:00",1021.01,28.27,TRADE
TAS1,"2009/01/05 05:00:00",1027.61,28.28,TRADE
TAS1,"2009/01/05 05:30:00",1058.29,28.26,TRADE
TAS1,"2009/01/05 06:00:00",1086.82,28.28,TRADE
TAS1,"2009/01/05 06:30:00",1133.58,28.28,TRADE
TAS1,"2009/01/05 07:00:00",1182.69,45.28,TRADE
TAS1,"2009/01/05 07:30:00",1207.01,45.28,TRADE
TAS1,"2009/01/05 08:00:00",1223.88,45.28,TRADE
TAS1,"2009/01/05 08:30:00",1223.6,45.28,TRADE
TAS1,"2009/01/05 09:00:00",1218.3,45.27,TRADE
TAS1,"2009/01/05 09:30:00",1198.07,65.26,TRADE
TAS1,"2009/01/05 10:00:00",1181.77,65.26,TRADE
TAS1,"2009/01/05 10:30:00",1169.49,65.26,TRADE
TAS1,"2009/01/05 11:00:00",1167.49,65.26,TRADE
TAS1,"2009/01/05 11:30:00",1144.79,65.26,TRADE
TAS1,"2009/01/05 12:00:00",1130.7,65.22,TRADE
TAS1,"2009/01/05 12:30:00",1125.37,65.2,TRADE
TAS1,"2009/01/05 13:00:00",1129,65.2,TRADE
TAS1,"2009/01/05 13:30:00",1121.09,65.2,TRADE
TAS1,"2009/01/05 14:00:00",1113.73,44.11,TRADE
TAS1,"2009/01/05 14:30:00",1118.48,37.77,TRADE
TAS1,"2009/01/05 15:00:00",1116.7,33.07,TRADE
TAS1,"2009/01/05 15:30:00",1117.53,34.23,TRADE
TAS1,"2009/01/05 16:00:00",1110.09,64.71,TRADE
TAS1,"2009/01/05 16:30:00",1116.48,52.88,TRADE
TAS1,"2009/01/05 17:00:00",1114.46,68.13,TRADE
TAS1,"2009/01/05 17:30:00",1100.66,93.5,TRADE
TAS1,"2009/01/05 18:00:00",1098.93,65.27,TRADE
TAS1,"2009/01/05 18:30:00",1084.22,65.28,TRADE
TAS1,"2009/01/05 19:00:00",1064.34,61.95,TRADE
TAS1,"2009/01/05 19:30:00",1071.71,45.3,TRADE
TAS1,"2009/01/05 20:00:00",1082.97,45.3,TRADE
TAS1,"2009/01/05 20:30:00",1104.26,58.62,TRADE
TAS1,"2009/01/05 21:00:00",1088.48,65.28,TRADE
TAS1,"2009/01/05 21:30:00",1069.78,65.26,TRADE
TAS1,"2009/01/05 22:00:00",1036.94,65.26,TRADE
TAS1,"2009/01/05 22:30:00",994.98,65.24,TRADE
TAS1,"2009/01/05 23:00:00",967.13,65.26,TRADE
TAS1,"2009/01/05 23:30:00",961.66,65.26,TRADE
TAS1,"2009/01/06 00:00:00",965.96,65.27,TRADE
TAS1,"2009/01/06 00:30:00",944.13,65.26,TRADE
TAS1,"2009/01/06 01:00:00",939.26,65.28,TRADE
TAS1,"2009/01/06 01:30:00",943.73,45.28,TRADE
TAS1,"2009/01/06 02:00:00",939.48,45.28,TRADE
TAS1,"2009/01/06 02:30:00",937.18,45.28,TRADE
TAS1,"2009/01/06 03:00:00",943.09,28.28,TRADE
TAS1,"2009/01/06 03:30:00",940.48,28.28,TRADE
TAS1,"2009/01/06 04:00:00",939.06,28.28,TRADE
TAS1,"2009/01/06 04:30:00",954.66,29.23,TRADE
TAS1,"2009/01/06 05:00:00",952.42,29.24,TRADE
TAS1,"2009/01/06 05:30:00",994.5,32.59,TRADE
TAS1,"2009/01/06 06:00:00",1055.77,49.24,TRADE
TAS1,"2009/01/06 06:30:00",1114.74,49.26,TRADE
TAS1,"2009/01/06 07:00:00",1163.12,49.27,TRADE
TAS1,"2009/01/06 07:30:00",1205.14,49.28,TRADE
TAS1,"2009/01/06 08:00:00",1195.84,49.28,TRADE
TAS1,"2009/01/06 08:30:00",1213.66,49.29,TRADE
TAS1,"2009/01/06 09:00:00",1172.08,49.28,TRADE
TAS1,"2009/01/06 09:30:00",1134.51,49.26,TRADE
TAS1,"2009/01/06 10:00:00",1135.52,55.93,TRADE
TAS1,"2009/01/06 10:30:00",1130.76,89.27,TRADE
TAS1,"2009/01/06 11:00:00",1141.96,89.29,TRADE
TAS1,"2009/01/06 11:30:00",1129.34,89.27,TRADE
TAS1,"2009/01/06 12:00:00",1120.8,89.28,TRADE
TAS1,"2009/01/06 12:30:00",1110.11,89.94,TRADE
TAS1,"2009/01/06 13:00:00",1118.54,89.27,TRADE
TAS1,"2009/01/06 13:30:00",1112.24,80.02,TRADE
TAS1,"2009/01/06 14:00:00",1122,80.44,TRADE
TAS1,"2009/01/06 14:30:00",1127.9,39.71,TRADE
TAS1,"2009/01/06 15:00:00",1142.44,63.28,TRADE
TAS1,"2009/01/06 15:30:00",1148.78,108.62,TRADE
TAS1,"2009/01/06 16:00:00",1158.7,114.66,TRADE
TAS1,"2009/01/06 16:30:00",1170.54,89.24,TRADE
TAS1,"2009/01/06 17:00:00",1183.92,89.4,TRADE
TAS1,"2009/01/06 17:30:00",1166.31,89.8,TRADE
TAS1,"2009/01/06 18:00:00",1163.6,89.3,TRADE
TAS1,"2009/01/06 18:30:00",1159.67,89.3,TRADE
TAS1,"2009/01/06 19:00:00",1145.33,89.3,TRADE
TAS1,"2009/01/06 19:30:00",1157.34,89.3,TRADE
TAS1,"2009/01/06 20:00:00",1168.16,49.29,TRADE
TAS1,"2009/01/06 20:30:00",1167.85,49.29,TRADE
TAS1,"2009/01/06 21:00:00",1168.55,49.29,TRADE
TAS1,"2009/01/06 21:30:00",1151.2,49.29,TRADE
TAS1,"2009/01/06 22:00:00",1129.24,49.29,TRADE
TAS1,"2009/01/06 22:30:00",1098.86,49.27,TRADE
TAS1,"2009/01/06 23:00:00",1068.34,49.24,TRADE
TAS1,"2009/01/06 23:30:00",1048.84,49.24,TRADE
TAS1,"2009/01/07 00:00:00",1034.88,49.23,TRADE
TAS1,"2009/01/07 00:30:00",1019.44,49.22,TRADE
TAS1,"2009/01/07 01:00:00",1016.01,49.22,TRADE
TAS1,"2009/01/07 01:30:00",1017.29,89.22,TRADE
TAS1,"2009/01/07 02:00:00",1016.51,89.22,TRADE
TAS1,"2009/01/07 02:30:00",1001.2,49.29,TRADE
TAS1,"2009/01/07 03:00:00",1000.19,29.3,TRADE
TAS1,"2009/01/07 03:30:00",1006.12,29.3,TRADE
TAS1,"2009/01/07 04:00:00",1010.89,29.3,TRADE
TAS1,"2009/01/07 04:30:00",1007.26,29.28,TRADE
TAS1,"2009/01/07 05:00:00",1021.87,29.28,TRADE
TAS1,"2009/01/07 05:30:00",1057.84,49.28,TRADE
TAS1,"2009/01/07 06:00:00",1097.64,49.27,TRADE
TAS1,"2009/01/07 06:30:00",1146.86,49.28,TRADE
TAS1,"2009/01/07 07:00:00",1186.44,49.28,TRADE
TAS1,"2009/01/07 07:30:00",1185.85,49.28,TRADE
TAS1,"2009/01/07 08:00:00",1194.18,49.26,TRADE
TAS1,"2009/01/07 08:30:00",1187.73,49.26,TRADE
TAS1,"2009/01/07 09:00:00",1186.7,49.26,TRADE
TAS1,"2009/01/07 09:30:00",1129.1,89.26,TRADE
TAS1,"2009/01/07 10:00:00",1139.65,89.26,TRADE
TAS1,"2009/01/07 10:30:00",1150.61,89.24,TRADE
TAS1,"2009/01/07 11:00:00",1143.23,89.28,TRADE
TAS1,"2009/01/07 11:30:00",1117.43,89.28,TRADE
TAS1,"2009/01/07 12:00:00",1130.17,89.28,TRADE
TAS1,"2009/01/07 12:30:00",1109.82,89.26,TRADE
TAS1,"2009/01/07 13:00:00",1111.55,89.26,TRADE
TAS1,"2009/01/07 13:30:00",1080.55,46.56,TRADE
TAS1,"2009/01/07 14:00:00",1055.23,49.17,TRADE
TAS1,"2009/01/07 14:30:00",1074.08,49.22,TRADE
TAS1,"2009/01/07 15:00:00",1050.01,49.2,TRADE
TAS1,"2009/01/07 15:30:00",1053.79,49.22,TRADE
TAS1,"2009/01/07 16:00:00",1104.51,49.21,TRADE
TAS1,"2009/01/07 16:30:00",1079.51,49.18,TRADE
TAS1,"2009/01/07 17:00:00",1101.07,49.19,TRADE
TAS1,"2009/01/07 17:30:00",1139.56,49.22,TRADE
TAS1,"2009/01/07 18:00:00",1125.39,49.22,TRADE
TAS1,"2009/01/07 18:30:00",1117.19,49.2,TRADE
TAS1,"2009/01/07 19:00:00",1096.25,49.22,TRADE
TAS1,"2009/01/07 19:30:00",1074.02,49.22,TRADE
TAS1,"2009/01/07 20:00:00",1062.83,49.26,TRADE
TAS1,"2009/01/07 20:30:00",1091.29,69.83,TRADE
TAS1,"2009/01/07 21:00:00",1089.6,89.28,TRADE
TAS1,"2009/01/07 21:30:00",1060.28,89.25,TRADE
TAS1,"2009/01/07 22:00:00",1037.12,49.24,TRADE
TAS1,"2009/01/07 22:30:00",1022.37,62.57,TRADE
TAS1,"2009/01/07 23:00:00",989.88,49.23,TRADE
TAS1,"2009/01/07 23:30:00",962.21,49.24,TRADE
TAS1,"2009/01/08 00:00:00",947.1,49.23,TRADE
TAS1,"2009/01/08 00:30:00",931.16,49.22,TRADE
TAS1,"2009/01/08 01:00:00",911.11,49.22,TRADE
TAS1,"2009/01/08 01:30:00",931.15,49.22,TRADE
TAS1,"2009/01/08 02:00:00",919.3,49.22,TRADE
TAS1,"2009/01/08 02:30:00",909.2,49.22,TRADE
TAS1,"2009/01/08 03:00:00",911.86,29.22,TRADE
TAS1,"2009/01/08 03:30:00",909.23,29.22,TRADE
TAS1,"2009/01/08 04:00:00",913.8,29.22,TRADE
TAS1,"2009/01/08 04:30:00",923.71,29.25,TRADE
TAS1,"2009/01/08 05:00:00",955.96,49.28,TRADE
TAS1,"2009/01/08 05:30:00",995.55,49.25,TRADE
TAS1,"2009/01/08 06:00:00",1029.78,29.28,TRADE
TAS1,"2009/01/08 06:30:00",1071.11,29.25,TRADE
TAS1,"2009/01/08 07:00:00",1113.68,49.26,TRADE
TAS1,"2009/01/08 07:30:00",1137.51,49.24,TRADE
TAS1,"2009/01/08 08:00:00",1139.41,49.24,TRADE
TAS1,"2009/01/08 08:30:00",1140.17,49.24,TRADE
TAS1,"2009/01/08 09:00:00",1145.13,49.24,TRADE
TAS1,"2009/01/08 09:30:00",1142.16,49.24,TRADE
TAS1,"2009/01/08 10:00:00",1120.62,49.23,TRADE
TAS1,"2009/01/08 10:30:00",1095.1,49.22,TRADE
TAS1,"2009/01/08 11:00:00",1092.52,49.22,TRADE
TAS1,"2009/01/08 11:30:00",1098.78,49.22,TRADE
TAS1,"2009/01/08 12:00:00",1104.67,49.24,TRADE
TAS1,"2009/01/08 12:30:00",1081.35,49.28,TRADE
TAS1,"2009/01/08 13:00:00",1077.19,49.28,TRADE
TAS1,"2009/01/08 13:30:00",1058.7,49.28,TRADE
TAS1,"2009/01/08 14:00:00",1061.31,49.28,TRADE
TAS1,"2009/01/08 14:30:00",1070.91,35.95,TRADE
TAS1,"2009/01/08 15:00:00",1069.42,29.24,TRADE
TAS1,"2009/01/08 15:30:00",1079.72,29.27,TRADE
TAS1,"2009/01/08 16:00:00",1085.09,29.28,TRADE
TAS1,"2009/01/08 16:30:00",1095.27,29.28,TRADE
TAS1,"2009/01/08 17:00:00",1109.68,29.28,TRADE
TAS1,"2009/01/08 17:30:00",1105.04,29.28,TRADE
TAS1,"2009/01/08 18:00:00",1108.4,29.28,TRADE
TAS1,"2009/01/08 18:30:00",1109.47,29.28,TRADE
TAS1,"2009/01/08 19:00:00",1115.77,29.28,TRADE
TAS1,"2009/01/08 19:30:00",1138.79,29.25,TRADE
TAS1,"2009/01/08 20:00:00",1164.78,29.26,TRADE
TAS1,"2009/01/08 20:30:00",1187.57,29.28,TRADE
TAS1,"2009/01/08 21:00:00",1192.96,29.28,TRADE
TAS1,"2009/01/08 21:30:00",1169.69,29.27,TRADE
TAS1,"2009/01/08 22:00:00",1130.18,29.26,TRADE
TAS1,"2009/01/08 22:30:00",1101.56,29.26,TRADE
TAS1,"2009/01/08 23:00:00",1078.2,29.27,TRADE
TAS1,"2009/01/08 23:30:00",1043.99,29.26,TRADE
TAS1,"2009/01/09 00:00:00",1041.85,29.26,TRADE
TAS1,"2009/01/09 00:30:00",1033.4,29.28,TRADE
TAS1,"2009/01/09 01:00:00",1020.65,29.28,TRADE
TAS1,"2009/01/09 01:30:00",1016.43,29.28,TRADE
TAS1,"2009/01/09 02:00:00",1009.12,29.28,TRADE
TAS1,"2009/01/09 02:30:00",1006.41,29.28,TRADE
TAS1,"2009/01/09 03:00:00",1019.79,29.28,TRADE
TAS1,"2009/01/09 03:30:00",1024.8,29.28,TRADE
TAS1,"2009/01/09 04:00:00",1029.15,29.28,TRADE
TAS1,"2009/01/09 04:30:00",1035.79,29.28,TRADE
TAS1,"2009/01/09 05:00:00",1051.99,29.28,TRADE
TAS1,"2009/01/09 05:30:00",1096.85,29.28,TRADE
TAS1,"2009/01/09 06:00:00",1139.3,29.28,TRADE
TAS1,"2009/01/09 06:30:00",1176.28,43.27,TRADE
TAS1,"2009/01/09 07:00:00",1221.79,52.28,TRADE
TAS1,"2009/01/09 07:30:00",1253.06,43.73,TRADE
TAS1,"2009/01/09 08:00:00",1250.39,44.26,TRADE
TAS1,"2009/01/09 08:30:00",1257.75,44.13,TRADE
TAS1,"2009/01/09 09:00:00",1244.58,44.11,TRADE
TAS1,"2009/01/09 09:30:00",1229.19,43.28,TRADE
TAS1,"2009/01/09 10:00:00",1212.99,43.28,TRADE
TAS1,"2009/01/09 10:30:00",1188.23,43.28,TRADE
TAS1,"2009/01/09 11:00:00",1188.35,43.28,TRADE
TAS1,"2009/01/09 11:30:00",1174.19,33.95,TRADE
TAS1,"2009/01/09 12:00:00",1163.63,43.3,TRADE
TAS1,"2009/01/09 12:30:00",1152.04,43.28,TRADE
TAS1,"2009/01/09 13:00:00",1144.31,43.25,TRADE
TAS1,"2009/01/09 13:30:00",1132.68,43.2,TRADE
TAS1,"2009/01/09 14:00:00",1131.21,43.27,TRADE
TAS1,"2009/01/09 14:30:00",1123.38,43.27,TRADE
TAS1,"2009/01/09 15:00:00",1111.66,43.24,TRADE
TAS1,"2009/01/09 15:30:00",1115.28,43.2,TRADE
TAS1,"2009/01/09 16:00:00",1123.51,43.2,TRADE
TAS1,"2009/01/09 16:30:00",1124.7,43.26,TRADE
TAS1,"2009/01/09 17:00:00",1119.09,43.21,TRADE
TAS1,"2009/01/09 17:30:00",1127.29,43.25,TRADE
TAS1,"2009/01/09 18:00:00",1121.21,29.26,TRADE
TAS1,"2009/01/09 18:30:00",1105.77,29.24,TRADE
TAS1,"2009/01/09 19:00:00",1109.7,29.26,TRADE
TAS1,"2009/01/09 19:30:00",1123.49,29.26,TRADE
TAS1,"2009/01/09 20:00:00",1154,29.27,TRADE
TAS1,"2009/01/09 20:30:00",1170.48,29.28,TRADE
TAS1,"2009/01/09 21:00:00",1154.33,29.28,TRADE
TAS1,"2009/01/09 21:30:00",1132.99,29.28,TRADE
TAS1,"2009/01/09 22:00:00",1116.98,29.27,TRADE
TAS1,"2009/01/09 22:30:00",1085.9,29.28,TRADE
TAS1,"2009/01/09 23:00:00",1058.78,29.28,TRADE
TAS1,"2009/01/09 23:30:00",1032.66,29.28,TRADE
TAS1,"2009/01/10 00:00:00",1027.31,29.28,TRADE
TAS1,"2009/01/10 00:30:00",1033.44,29.28,TRADE
TAS1,"2009/01/10 01:00:00",1016.61,29.28,TRADE
TAS1,"2009/01/10 01:30:00",1007.73,29.28,TRADE
TAS1,"2009/01/10 02:00:00",1001.26,29.28,TRADE
TAS1,"2009/01/10 02:30:00",1017.34,29.28,TRADE
TAS1,"2009/01/10 03:00:00",1015.04,29.28,TRADE
TAS1,"2009/01/10 03:30:00",1012.45,29.28,TRADE
TAS1,"2009/01/10 04:00:00",1009.93,29.28,TRADE
TAS1,"2009/01/10 04:30:00",1014.84,28.28,TRADE
TAS1,"2009/01/10 05:00:00",1017.32,28.28,TRADE
TAS1,"2009/01/10 05:30:00",1030.85,28.28,TRADE
TAS1,"2009/01/10 06:00:00",1044.78,28.28,TRADE
TAS1,"2009/01/10 06:30:00",1075.4,28.28,TRADE
TAS1,"2009/01/10 07:00:00",1114.43,28.28,TRADE
TAS1,"2009/01/10 07:30:00",1144.08,28.28,TRADE
TAS1,"2009/01/10 08:00:00",1171.7,28.28,TRADE
TAS1,"2009/01/10 08:30:00",1198.62,28.29,TRADE
TAS1,"2009/01/10 09:00:00",1193.24,28.28,TRADE
TAS1,"2009/01/10 09:30:00",1193.56,31.11,TRADE
TAS1,"2009/01/10 10:00:00",1193.9,45.28,TRADE
TAS1,"2009/01/10 10:30:00",1179.37,45.28,TRADE
TAS1,"2009/01/10 11:00:00",1166.34,45.28,TRADE
TAS1,"2009/01/10 11:30:00",1155.21,45.28,TRADE
TAS1,"2009/01/10 12:00:00",1136.19,45.28,TRADE
TAS1,"2009/01/10 12:30:00",1118.12,45.28,TRADE
TAS1,"2009/01/10 13:00:00",1105.23,45.28,TRADE
TAS1,"2009/01/10 13:30:00",1093.47,45.28,TRADE
TAS1,"2009/01/10 14:00:00",1081.37,45.27,TRADE
TAS1,"2009/01/10 14:30:00",1068.81,39.6,TRADE
TAS1,"2009/01/10 15:00:00",1069.11,31.11,TRADE
TAS1,"2009/01/10 15:30:00",1077.75,45.27,TRADE
TAS1,"2009/01/10 16:00:00",1083.63,45.27,TRADE
TAS1,"2009/01/10 16:30:00",1098.62,45.28,TRADE
TAS1,"2009/01/10 17:00:00",1113.16,45.28,TRADE
TAS1,"2009/01/10 17:30:00",1116.04,42.45,TRADE
TAS1,"2009/01/10 18:00:00",1106.82,28.28,TRADE
TAS1,"2009/01/10 18:30:00",1095.38,28.28,TRADE
TAS1,"2009/01/10 19:00:00",1101.45,28.28,TRADE
TAS1,"2009/01/10 19:30:00",1100.37,28.28,TRADE
TAS1,"2009/01/10 20:00:00",1112,28.28,TRADE
TAS1,"2009/01/10 20:30:00",1131.44,28.28,TRADE
TAS1,"2009/01/10 21:00:00",1130.42,28.28,TRADE
TAS1,"2009/01/10 21:30:00",1118.34,28.28,TRADE
TAS1,"2009/01/10 22:00:00",1091.18,28.28,TRADE
TAS1,"2009/01/10 22:30:00",1077.02,28.28,TRADE
TAS1,"2009/01/10 23:00:00",1054.72,28.28,TRADE
TAS1,"2009/01/10 23:30:00",1031.2,28.28,TRADE
TAS1,"2009/01/11 00:00:00",1022.71,28.28,TRADE
TAS1,"2009/01/11 00:30:00",1023.41,28.28,TRADE
TAS1,"2009/01/11 01:00:00",1018.15,28.28,TRADE
TAS1,"2009/01/11 01:30:00",1007.8,28.28,TRADE
TAS1,"2009/01/11 02:00:00",1007.56,28.28,TRADE
TAS1,"2009/01/11 02:30:00",996.77,28.28,TRADE
TAS1,"2009/01/11 03:00:00",991.73,28.28,TRADE
TAS1,"2009/01/11 03:30:00",991.12,28.28,TRADE
TAS1,"2009/01/11 04:00:00",995.35,28.28,TRADE
TAS1,"2009/01/11 04:30:00",1003.77,29.28,TRADE
TAS1,"2009/01/11 05:00:00",1003.72,29.28,TRADE
TAS1,"2009/01/11 05:30:00",1012.47,29.28,TRADE
TAS1,"2009/01/11 06:00:00",1009.74,29.28,TRADE
TAS1,"2009/01/11 06:30:00",1038.09,29.28,TRADE
TAS1,"2009/01/11 07:00:00",1065.38,29.28,TRADE
TAS1,"2009/01/11 07:30:00",1095.7,29.28,TRADE
TAS1,"2009/01/11 08:00:00",1125.39,29.28,TRADE
TAS1,"2009/01/11 08:30:00",1143.73,29.28,TRADE
TAS1,"2009/01/11 09:00:00",1150.38,29.28,TRADE
TAS1,"2009/01/11 09:30:00",1153.37,33.95,TRADE
TAS1,"2009/01/11 10:00:00",1144.08,43.28,TRADE
TAS1,"2009/01/11 10:30:00",1145.03,43.28,TRADE
TAS1,"2009/01/11 11:00:00",1138.69,43.28,TRADE
TAS1,"2009/01/11 11:30:00",1125.76,43.28,TRADE
TAS1,"2009/01/11 12:00:00",1114.29,43.28,TRADE
TAS1,"2009/01/11 12:30:00",1106.1,43.28,TRADE
TAS1,"2009/01/11 13:00:00",1066.3,43.28,TRADE
TAS1,"2009/01/11 13:30:00",1039.34,43.28,TRADE
TAS1,"2009/01/11 14:00:00",1030.43,43.28,TRADE
TAS1,"2009/01/11 14:30:00",1041.08,43.28,TRADE
TAS1,"2009/01/11 15:00:00",1059.51,43.28,TRADE
TAS1,"2009/01/11 15:30:00",1075.06,43.28,TRADE
TAS1,"2009/01/11 16:00:00",1086.13,43.28,TRADE
TAS1,"2009/01/11 16:30:00",1126.75,43.28,TRADE
TAS1,"2009/01/11 17:00:00",1154.56,43.28,TRADE
TAS1,"2009/01/11 17:30:00",1162.58,43.28,TRADE
TAS1,"2009/01/11 18:00:00",1170.53,43.28,TRADE
TAS1,"2009/01/11 18:30:00",1147.88,43.28,TRADE
TAS1,"2009/01/11 19:00:00",1132.59,29.28,TRADE
TAS1,"2009/01/11 19:30:00",1135.36,29.28,TRADE
TAS1,"2009/01/11 20:00:00",1132.34,29.28,TRADE
TAS1,"2009/01/11 20:30:00",1139.67,29.28,TRADE
TAS1,"2009/01/11 21:00:00",1124.06,29.28,TRADE
TAS1,"2009/01/11 21:30:00",1125.2,29.28,TRADE
TAS1,"2009/01/11 22:00:00",1101.09,29.28,TRADE
TAS1,"2009/01/11 22:30:00",1084.59,29.28,TRADE
TAS1,"2009/01/11 23:00:00",1054.53,29.28,TRADE
TAS1,"2009/01/11 23:30:00",1035.31,29.28,TRADE
TAS1,"2009/01/12 00:00:00",1020.71,29.28,TRADE
TAS1,"2009/01/12 00:30:00",1014.28,29.28,TRADE
TAS1,"2009/01/12 01:00:00",1016.78,29.28,TRADE
TAS1,"2009/01/12 01:30:00",1016.68,29.28,TRADE
TAS1,"2009/01/12 02:00:00",1006.17,29.28,TRADE
TAS1,"2009/01/12 02:30:00",1003.35,29.28,TRADE
TAS1,"2009/01/12 03:00:00",1008.57,29.28,TRADE
TAS1,"2009/01/12 03:30:00",1013.74,29.28,TRADE
TAS1,"2009/01/12 04:00:00",1021.21,29.28,TRADE
TAS1,"2009/01/12 04:30:00",1030.36,29.28,TRADE
TAS1,"2009/01/12 05:00:00",1041.71,29.28,TRADE
TAS1,"2009/01/12 05:30:00",1088.73,39.28,TRADE
TAS1,"2009/01/12 06:00:00",1134.36,49.28,TRADE
TAS1,"2009/01/12 06:30:00",1170.27,49.28,TRADE
TAS1,"2009/01/12 07:00:00",1216.59,49.28,TRADE
TAS1,"2009/01/12 07:30:00",1247.73,49.28,TRADE
TAS1,"2009/01/12 08:00:00",1242.87,49.28,TRADE
TAS1,"2009/01/12 08:30:00",1241.84,49.28,TRADE
TAS1,"2009/01/12 09:00:00",1234.01,49.28,TRADE
TAS1,"2009/01/12 09:30:00",1209.52,49.28,TRADE
TAS1,"2009/01/12 10:00:00",1199.42,49.28,TRADE
TAS1,"2009/01/12 10:30:00",1196.1,49.28,TRADE
TAS1,"2009/01/12 11:00:00",1197.11,49.28,TRADE
TAS1,"2009/01/12 11:30:00",1194.91,49.28,TRADE
TAS1,"2009/01/12 12:00:00",1186.04,49.28,TRADE
TAS1,"2009/01/12 12:30:00",1176.01,49.28,TRADE
TAS1,"2009/01/12 13:00:00",1168.43,49.28,TRADE
TAS1,"2009/01/12 13:30:00",1166.03,49.28,TRADE
TAS1,"2009/01/12 14:00:00",1171.21,49.28,TRADE
TAS1,"2009/01/12 14:30:00",1169.8,49.28,TRADE
TAS1,"2009/01/12 15:00:00",1174.17,49.28,TRADE
TAS1,"2009/01/12 15:30:00",1177.16,49.28,TRADE
TAS1,"2009/01/12 16:00:00",1183.93,49.28,TRADE
TAS1,"2009/01/12 16:30:00",1206.76,49.28,TRADE
TAS1,"2009/01/12 17:00:00",1215.77,49.28,TRADE
TAS1,"2009/01/12 17:30:00",1217.8,49.28,TRADE
TAS1,"2009/01/12 18:00:00",1210.66,49.28,TRADE
TAS1,"2009/01/12 18:30:00",1191.47,49.28,TRADE
TAS1,"2009/01/12 19:00:00",1189.14,49.28,TRADE
TAS1,"2009/01/12 19:30:00",1167.34,49.28,TRADE
TAS1,"2009/01/12 20:00:00",1191.91,49.28,TRADE
TAS1,"2009/01/12 20:30:00",1213.27,49.28,TRADE
TAS1,"2009/01/12 21:00:00",1210.37,49.28,TRADE
TAS1,"2009/01/12 21:30:00",1179.33,49.28,TRADE
TAS1,"2009/01/12 22:00:00",1145.07,49.28,TRADE
TAS1,"2009/01/12 22:30:00",1114.91,49.28,TRADE
TAS1,"2009/01/12 23:00:00",1098,49.28,TRADE
TAS1,"2009/01/12 23:30:00",1080.21,49.28,TRADE
TAS1,"2009/01/13 00:00:00",1064.49,49.28,TRADE
TAS1,"2009/01/13 00:30:00",1052.78,49.28,TRADE
TAS1,"2009/01/13 01:00:00",1046.24,49.28,TRADE
TAS1,"2009/01/13 01:30:00",1035.9,49.28,TRADE
TAS1,"2009/01/13 02:00:00",1028.27,29.28,TRADE
TAS1,"2009/01/13 02:30:00",1014.16,29.28,TRADE
TAS1,"2009/01/13 03:00:00",1015.77,29.28,TRADE
TAS1,"2009/01/13 03:30:00",1010.86,29.28,TRADE
TAS1,"2009/01/13 04:00:00",990.07,29.28,TRADE
TAS1,"2009/01/13 04:30:00",965.78,29.28,TRADE
TAS1,"2009/01/13 05:00:00",978.69,29.28,TRADE
TAS1,"2009/01/13 05:30:00",1011.17,29.28,TRADE
TAS1,"2009/01/13 06:00:00",1053.56,49.28,TRADE
TAS1,"2009/01/13 06:30:00",1104.9,49.28,TRADE
TAS1,"2009/01/13 07:00:00",1142.78,49.28,TRADE
TAS1,"2009/01/13 07:30:00",1155.14,49.28,TRADE
TAS1,"2009/01/13 08:00:00",1160.31,49.29,TRADE
TAS1,"2009/01/13 08:30:00",1149.56,49.28,TRADE
TAS1,"2009/01/13 09:00:00",1139.01,49.28,TRADE
TAS1,"2009/01/13 09:30:00",1129,49.28,TRADE
TAS1,"2009/01/13 10:00:00",1117.52,49.28,TRADE
TAS1,"2009/01/13 10:30:00",1108.49,49.28,TRADE
TAS1,"2009/01/13 11:00:00",1106.68,49.28,TRADE
TAS1,"2009/01/13 11:30:00",1115.95,49.26,TRADE
TAS1,"2009/01/13 12:00:00",1113.83,69.25,TRADE
TAS1,"2009/01/13 12:30:00",1093.56,89.11,TRADE
TAS1,"2009/01/13 13:00:00",1098.4,11.39,TRADE
TAS1,"2009/01/13 13:30:00",1125.15,42.34,TRADE
TAS1,"2009/01/13 14:00:00",1117.13,42.68,TRADE
TAS1,"2009/01/13 14:30:00",1095.8,118.67,TRADE
TAS1,"2009/01/13 15:00:00",1074.99,85.97,TRADE
TAS1,"2009/01/13 15:30:00",1083.54,94.64,TRADE
TAS1,"2009/01/13 16:00:00",1096.6,310.43,TRADE
TAS1,"2009/01/13 16:30:00",1079.03,83.63,TRADE
TAS1,"2009/01/13 17:00:00",1084.76,57.79,TRADE
TAS1,"2009/01/13 17:30:00",1073.71,64.33,TRADE
TAS1,"2009/01/13 18:00:00",1075.61,49.91,TRADE
TAS1,"2009/01/13 18:30:00",1083.26,77.02,TRADE
TAS1,"2009/01/13 19:00:00",1096,93.08,TRADE
TAS1,"2009/01/13 19:30:00",1107.73,65.92,TRADE
TAS1,"2009/01/13 20:00:00",1103.54,50.57,TRADE
TAS1,"2009/01/13 20:30:00",1130.2,41.01,TRADE
TAS1,"2009/01/13 21:00:00",1121.13,31.74,TRADE
TAS1,"2009/01/13 21:30:00",1103,41.07,TRADE
TAS1,"2009/01/13 22:00:00",1076.34,41.26,TRADE
TAS1,"2009/01/13 22:30:00",1044.11,32.07,TRADE
TAS1,"2009/01/13 23:00:00",1007.74,28.97,TRADE
TAS1,"2009/01/13 23:30:00",974.99,50.64,TRADE
TAS1,"2009/01/14 00:00:00",959.75,39.41,TRADE
TAS1,"2009/01/14 00:30:00",956.01,28.88,TRADE
TAS1,"2009/01/14 01:00:00",949.94,27.83,TRADE
TAS1,"2009/01/14 01:30:00",942.15,43.07,TRADE
TAS1,"2009/01/14 02:00:00",931.29,27.22,TRADE
TAS1,"2009/01/14 02:30:00",914.88,25.71,TRADE
TAS1,"2009/01/14 03:00:00",982.26,25.48,TRADE
TAS1,"2009/01/14 03:30:00",1020.14,25.35,TRADE
TAS1,"2009/01/14 04:00:00",1026.86,25.26,TRADE
TAS1,"2009/01/14 04:30:00",1021.14,25.86,TRADE
TAS1,"2009/01/14 05:00:00",1031.45,28.6,TRADE
TAS1,"2009/01/14 05:30:00",1082.5,35.97,TRADE
TAS1,"2009/01/14 06:00:00",1101.31,27.98,TRADE
TAS1,"2009/01/14 06:30:00",1125.5,38.87,TRADE
TAS1,"2009/01/14 07:00:00",1129.01,43.12,TRADE
TAS1,"2009/01/14 07:30:00",1113.66,42.1,TRADE
TAS1,"2009/01/14 08:00:00",1117.16,45.14,TRADE
TAS1,"2009/01/14 08:30:00",1107.81,55.84,TRADE
TAS1,"2009/01/14 09:00:00",1091.25,60.08,TRADE
TAS1,"2009/01/14 09:30:00",1068.82,59.46,TRADE
TAS1,"2009/01/14 10:00:00",1089.4,73.07,TRADE
TAS1,"2009/01/14 10:30:00",1086.52,64.36,TRADE
TAS1,"2009/01/14 11:00:00",1097.27,78.77,TRADE
TAS1,"2009/01/14 11:30:00",1095.84,82.39,TRADE
TAS1,"2009/01/14 12:00:00",1090.84,80.18,TRADE
TAS1,"2009/01/14 12:30:00",1077.88,86.47,TRADE
TAS1,"2009/01/14 13:00:00",1070.3,63.6,TRADE
TAS1,"2009/01/14 13:30:00",1076.19,74.07,TRADE
TAS1,"2009/01/14 14:00:00",1064.49,74.77,TRADE
TAS1,"2009/01/14 14:30:00",1065.46,85.5,TRADE
TAS1,"2009/01/14 15:00:00",1066.28,91.04,TRADE
TAS1,"2009/01/14 15:30:00",1086.69,99.81,TRADE
TAS1,"2009/01/14 16:00:00",1099.01,80.7,TRADE
TAS1,"2009/01/14 16:30:00",1111.42,78.33,TRADE
TAS1,"2009/01/14 17:00:00",1110.73,69.55,TRADE
TAS1,"2009/01/14 17:30:00",1100.92,62.05,TRADE
TAS1,"2009/01/14 18:00:00",1089.52,52.85,TRADE
TAS1,"2009/01/14 18:30:00",1069.93,90.64,TRADE
TAS1,"2009/01/14 19:00:00",1064.48,89.2,TRADE
TAS1,"2009/01/14 19:30:00",1081.16,89.26,TRADE
TAS1,"2009/01/14 20:00:00",1091.83,89.28,TRADE
TAS1,"2009/01/14 20:30:00",1123.02,89.28,TRADE
TAS1,"2009/01/14 21:00:00",1128.4,89.28,TRADE
TAS1,"2009/01/14 21:30:00",1100.09,89.28,TRADE
TAS1,"2009/01/14 22:00:00",1059.71,89.28,TRADE
TAS1,"2009/01/14 22:30:00",1045.01,89.28,TRADE
TAS1,"2009/01/14 23:00:00",1035.27,89.28,TRADE
TAS1,"2009/01/14 23:30:00",1020.65,96.45,TRADE
TAS1,"2009/01/15 00:00:00",1016.72,90.71,TRADE
TAS1,"2009/01/15 00:30:00",1008.41,89.28,TRADE
TAS1,"2009/01/15 01:00:00",989.56,62.62,TRADE
TAS1,"2009/01/15 01:30:00",979.78,49.28,TRADE
TAS1,"2009/01/15 02:00:00",981.49,49.28,TRADE
TAS1,"2009/01/15 02:30:00",983.08,49.28,TRADE
TAS1,"2009/01/15 03:00:00",991.04,29.28,TRADE
TAS1,"2009/01/15 03:30:00",1006.81,29.28,TRADE
TAS1,"2009/01/15 04:00:00",1010.54,29.28,TRADE
TAS1,"2009/01/15 04:30:00",1032.66,29.28,TRADE
TAS1,"2009/01/15 05:00:00",1038.78,29.28,TRADE
TAS1,"2009/01/15 05:30:00",1058.87,32.63,TRADE
TAS1,"2009/01/15 06:00:00",1086.91,49.28,TRADE
TAS1,"2009/01/15 06:30:00",1124.65,55.95,TRADE
TAS1,"2009/01/15 07:00:00",1149.79,89.28,TRADE
TAS1,"2009/01/15 07:30:00",1153.92,49.28,TRADE
TAS1,"2009/01/15 08:00:00",1194.65,49.28,TRADE
TAS1,"2009/01/15 08:30:00",1189.58,57.53,TRADE
TAS1,"2009/01/15 09:00:00",1215.42,60.15,TRADE
TAS1,"2009/01/15 09:30:00",1183.7,81.77,TRADE
TAS1,"2009/01/15 10:00:00",1146.34,93.75,TRADE
TAS1,"2009/01/15 10:30:00",1150.65,95.36,TRADE
TAS1,"2009/01/15 11:00:00",1132.39,96.79,TRADE
TAS1,"2009/01/15 11:30:00",1110.88,95.05,TRADE
TAS1,"2009/01/15 12:00:00",1092.45,78.76,TRADE
TAS1,"2009/01/15 12:30:00",1112.23,46.98,TRADE
TAS1,"2009/01/15 13:00:00",1114.88,42.49,TRADE
TAS1,"2009/01/15 13:30:00",1114.38,60.87,TRADE
TAS1,"2009/01/15 14:00:00",1056.81,-92.34,TRADE
TAS1,"2009/01/15 14:30:00",1072.46,24.45,TRADE
TAS1,"2009/01/15 15:00:00",1108.12,166.58,TRADE
TAS1,"2009/01/15 15:30:00",1106.26,144.64,TRADE
TAS1,"2009/01/15 16:00:00",1110.93,96.45,TRADE
TAS1,"2009/01/15 16:30:00",1118.56,95.01,TRADE
TAS1,"2009/01/15 17:00:00",1108.61,97.88,TRADE
TAS1,"2009/01/15 17:30:00",1094.69,91.81,TRADE
TAS1,"2009/01/15 18:00:00",1065.22,89.28,TRADE
TAS1,"2009/01/15 18:30:00",1063.77,89.28,TRADE
TAS1,"2009/01/15 19:00:00",1054.01,89.28,TRADE
TAS1,"2009/01/15 19:30:00",1073.73,75.95,TRADE
TAS1,"2009/01/15 20:00:00",1073.78,49.28,TRADE
TAS1,"2009/01/15 20:30:00",1104.46,49.3,TRADE
TAS1,"2009/01/15 21:00:00",1097.89,49.3,TRADE
TAS1,"2009/01/15 21:30:00",1065.3,49.3,TRADE
TAS1,"2009/01/15 22:00:00",1041.39,49.3,TRADE
TAS1,"2009/01/15 22:30:00",1021.28,49.28,TRADE
TAS1,"2009/01/15 23:00:00",993.61,49.28,TRADE
TAS1,"2009/01/15 23:30:00",982.71,49.28,TRADE
TAS1,"2009/01/16 00:00:00",955.53,49.28,TRADE
TAS1,"2009/01/16 00:30:00",950.52,29.28,TRADE
TAS1,"2009/01/16 01:00:00",951.62,29.28,TRADE
TAS1,"2009/01/16 01:30:00",948.54,49.28,TRADE
TAS1,"2009/01/16 02:00:00",949.36,29.28,TRADE
TAS1,"2009/01/16 02:30:00",951.84,29.28,TRADE
TAS1,"2009/01/16 03:00:00",940.68,29.28,TRADE
TAS1,"2009/01/16 03:30:00",936.93,29.28,TRADE
TAS1,"2009/01/16 04:00:00",933.32,29.28,TRADE
TAS1,"2009/01/16 04:30:00",940.89,29.28,TRADE
TAS1,"2009/01/16 05:00:00",955.07,29.28,TRADE
TAS1,"2009/01/16 05:30:00",996.16,29.28,TRADE
TAS1,"2009/01/16 06:00:00",1037.51,49.28,TRADE
TAS1,"2009/01/16 06:30:00",1097.63,58.36,TRADE
TAS1,"2009/01/16 07:00:00",1144.69,65.28,TRADE
TAS1,"2009/01/16 07:30:00",1149.2,65.28,TRADE
TAS1,"2009/01/16 08:00:00",1160.4,65.28,TRADE
TAS1,"2009/01/16 08:30:00",1166.96,65.28,TRADE
TAS1,"2009/01/16 09:00:00",1146.42,65.28,TRADE
TAS1,"2009/01/16 09:30:00",1134.86,49.28,TRADE
TAS1,"2009/01/16 10:00:00",1122.26,49.28,TRADE
TAS1,"2009/01/16 10:30:00",1113.35,54.62,TRADE
TAS1,"2009/01/16 11:00:00",1133.91,65.3,TRADE
TAS1,"2009/01/16 11:30:00",1135.88,65.3,TRADE
TAS1,"2009/01/16 12:00:00",1120.6,69.3,TRADE
TAS1,"2009/01/16 12:30:00",1124.75,89.3,TRADE
TAS1,"2009/01/16 13:00:00",1090.84,89.29,TRADE
TAS1,"2009/01/16 13:30:00",1089.14,89.29,TRADE
TAS1,"2009/01/16 14:00:00",1091.38,89.29,TRADE
TAS1,"2009/01/16 14:30:00",1085.14,65.28,TRADE
TAS1,"2009/01/16 15:00:00",1088.23,65.28,TRADE
TAS1,"2009/01/16 15:30:00",1098.07,65.28,TRADE
TAS1,"2009/01/16 16:00:00",1095.15,65.28,TRADE
TAS1,"2009/01/16 16:30:00",1109.48,65.28,TRADE
TAS1,"2009/01/16 17:00:00",1114.86,65.28,TRADE
TAS1,"2009/01/16 17:30:00",1116.05,65.28,TRADE
TAS1,"2009/01/16 18:00:00",1103.32,49.28,TRADE
TAS1,"2009/01/16 18:30:00",1094.66,49.28,TRADE
TAS1,"2009/01/16 19:00:00",1089.57,49.28,TRADE
TAS1,"2009/01/16 19:30:00",1099.09,49.28,TRADE
TAS1,"2009/01/16 20:00:00",1125.72,49.28,TRADE
TAS1,"2009/01/16 20:30:00",1140.33,49.29,TRADE
TAS1,"2009/01/16 21:00:00",1134.91,49.28,TRADE
TAS1,"2009/01/16 21:30:00",1094.4,49.28,TRADE
TAS1,"2009/01/16 22:00:00",1089.34,49.28,TRADE
TAS1,"2009/01/16 22:30:00",1054.14,49.28,TRADE
TAS1,"2009/01/16 23:00:00",1029.25,49.28,TRADE
TAS1,"2009/01/16 23:30:00",1017.84,49.28,TRADE
TAS1,"2009/01/17 00:00:00",1000.64,49.28,TRADE
TAS1,"2009/01/17 00:30:00",990.33,49.28,TRADE
TAS1,"2009/01/17 01:00:00",964.61,49.28,TRADE
TAS1,"2009/01/17 01:30:00",958.84,49.28,TRADE
TAS1,"2009/01/17 02:00:00",960.57,29.28,TRADE
TAS1,"2009/01/17 02:30:00",963.58,29.28,TRADE
TAS1,"2009/01/17 03:00:00",990.46,29.28,TRADE
TAS1,"2009/01/17 03:30:00",1001.29,29.28,TRADE
TAS1,"2009/01/17 04:00:00",1014.86,52.25,TRADE
TAS1,"2009/01/17 04:30:00",1030.82,29.28,TRADE
TAS1,"2009/01/17 05:00:00",1043.49,40.02,TRADE
TAS1,"2009/01/17 05:30:00",1046.08,236.97,TRADE
TAS1,"2009/01/17 06:00:00",1046.54,208.91,TRADE
TAS1,"2009/01/17 06:30:00",1070.6,240.37,TRADE
TAS1,"2009/01/17 07:00:00",1108.43,143.08,TRADE
TAS1,"2009/01/17 07:30:00",1170.65,143.08,TRADE
TAS1,"2009/01/17 08:00:00",1195.3,143.08,TRADE
TAS1,"2009/01/17 08:30:00",1215.28,242.64,TRADE
TAS1,"2009/01/17 09:00:00",1200.16,277.29,TRADE
TAS1,"2009/01/17 09:30:00",1184.8,277.28,TRADE
TAS1,"2009/01/17 10:00:00",1152.65,277.28,TRADE
TAS1,"2009/01/17 10:30:00",1114.58,277.28,TRADE
TAS1,"2009/01/17 11:00:00",1101.26,277.28,TRADE
TAS1,"2009/01/17 11:30:00",1091.4,277.28,TRADE
TAS1,"2009/01/17 12:00:00",1085.81,277.28,TRADE
TAS1,"2009/01/17 12:30:00",1078.3,277.28,TRADE
TAS1,"2009/01/17 13:00:00",1063.13,277.28,TRADE
TAS1,"2009/01/17 13:30:00",1050.01,277.25,TRADE
TAS1,"2009/01/17 14:00:00",1044.64,277.25,TRADE
TAS1,"2009/01/17 14:30:00",1047.24,277.28,TRADE
TAS1,"2009/01/17 15:00:00",1047.63,82.28,TRADE
TAS1,"2009/01/17 15:30:00",1070.89,43.28,TRADE
TAS1,"2009/01/17 16:00:00",1089.5,43.28,TRADE
TAS1,"2009/01/17 16:30:00",1087.12,43.28,TRADE
TAS1,"2009/01/17 17:00:00",1101.29,43.28,TRADE
TAS1,"2009/01/17 17:30:00",1100.77,43.28,TRADE
TAS1,"2009/01/17 18:00:00",1099.1,43.28,TRADE
TAS1,"2009/01/17 18:30:00",1115.82,43.28,TRADE
TAS1,"2009/01/17 19:00:00",1093.74,29.28,TRADE
TAS1,"2009/01/17 19:30:00",1091.57,29.28,TRADE
TAS1,"2009/01/17 20:00:00",1099.09,29.28,TRADE
TAS1,"2009/01/17 20:30:00",1139.76,29.28,TRADE
TAS1,"2009/01/17 21:00:00",1146.83,43.28,TRADE
TAS1,"2009/01/17 21:30:00",1140.5,43.28,TRADE
TAS1,"2009/01/17 22:00:00",1129.66,43.28,TRADE
TAS1,"2009/01/17 22:30:00",1113.68,43.3,TRADE
TAS1,"2009/01/17 23:00:00",1097.15,43.3,TRADE
TAS1,"2009/01/17 23:30:00",1071.12,65.29,TRADE
TAS1,"2009/01/18 00:00:00",1049.22,65.29,TRADE
TAS1,"2009/01/18 00:30:00",1045.69,43.3,TRADE
TAS1,"2009/01/18 01:00:00",1035.04,43.29,TRADE
TAS1,"2009/01/18 01:30:00",1036.37,65.29,TRADE
TAS1,"2009/01/18 02:00:00",1024.95,43.28,TRADE
TAS1,"2009/01/18 02:30:00",1014.57,29.28,TRADE
TAS1,"2009/01/18 03:00:00",1007.01,29.28,TRADE
TAS1,"2009/01/18 03:30:00",1007.19,29.28,TRADE
TAS1,"2009/01/18 04:00:00",1000.22,29.28,TRADE
TAS1,"2009/01/18 04:30:00",1006.17,20.28,TRADE
TAS1,"2009/01/18 05:00:00",1022.5,63.08,TRADE
TAS1,"2009/01/18 05:30:00",1033.66,167.61,TRADE
TAS1,"2009/01/18 06:00:00",1043.96,20.28,TRADE
TAS1,"2009/01/18 06:30:00",1072.78,30.28,TRADE
TAS1,"2009/01/18 07:00:00",1104.67,30.28,TRADE
TAS1,"2009/01/18 07:30:00",1133.85,30.29,TRADE
TAS1,"2009/01/18 08:00:00",1155.83,30.28,TRADE
TAS1,"2009/01/18 08:30:00",1171.04,30.28,TRADE
TAS1,"2009/01/18 09:00:00",1170.32,30.3,TRADE
TAS1,"2009/01/18 09:30:00",1176.07,30.3,TRADE
TAS1,"2009/01/18 10:00:00",1165.87,30.3,TRADE
TAS1,"2009/01/18 10:30:00",1150.38,30.28,TRADE
TAS1,"2009/01/18 11:00:00",1143.46,30.28,TRADE
TAS1,"2009/01/18 11:30:00",1123.88,45.54,TRADE
TAS1,"2009/01/18 12:00:00",1116.62,30.3,TRADE
TAS1,"2009/01/18 12:30:00",1097.08,30.28,TRADE
TAS1,"2009/01/18 13:00:00",1081.48,30.28,TRADE
TAS1,"2009/01/18 13:30:00",1075.6,30.28,TRADE
TAS1,"2009/01/18 14:00:00",1076.34,30.28,TRADE
TAS1,"2009/01/18 14:30:00",1077.43,30.29,TRADE
TAS1,"2009/01/18 15:00:00",1071.48,30.28,TRADE
TAS1,"2009/01/18 15:30:00",1075.15,30.29,TRADE
TAS1,"2009/01/18 16:00:00",1089.3,30.3,TRADE
TAS1,"2009/01/18 16:30:00",1109.03,30.29,TRADE
TAS1,"2009/01/18 17:00:00",1114.71,30.28,TRADE
TAS1,"2009/01/18 17:30:00",1122.26,30.28,TRADE
TAS1,"2009/01/18 18:00:00",1117.98,45.28,TRADE
TAS1,"2009/01/18 18:30:00",1116.5,45.28,TRADE
TAS1,"2009/01/18 19:00:00",1129.07,45.28,TRADE
TAS1,"2009/01/18 19:30:00",1127.99,54.51,TRADE
TAS1,"2009/01/18 20:00:00",1156.1,45.3,TRADE
TAS1,"2009/01/18 20:30:00",1179.21,101.7,TRADE
TAS1,"2009/01/18 21:00:00",1181.72,101.7,TRADE
TAS1,"2009/01/18 21:30:00",1164.27,101.7,TRADE
TAS1,"2009/01/18 22:00:00",1144.97,101.71,TRADE
TAS1,"2009/01/18 22:30:00",1108.72,101.7,TRADE
TAS1,"2009/01/18 23:00:00",1070.78,45.3,TRADE
TAS1,"2009/01/18 23:30:00",1063.24,101.68,TRADE
TAS1,"2009/01/19 00:00:00",1044.98,101.68,TRADE
TAS1,"2009/01/19 00:30:00",1033.04,45.28,TRADE
TAS1,"2009/01/19 01:00:00",1031.01,45.28,TRADE
TAS1,"2009/01/19 01:30:00",999.32,101.68,TRADE
TAS1,"2009/01/19 02:00:00",1009.49,30.28,TRADE
TAS1,"2009/01/19 02:30:00",1008.13,20.28,TRADE
TAS1,"2009/01/19 03:00:00",1000.47,20.28,TRADE
TAS1,"2009/01/19 03:30:00",989.58,20.28,TRADE
TAS1,"2009/01/19 04:00:00",1011.31,20.28,TRADE
TAS1,"2009/01/19 04:30:00",1022.02,29.28,TRADE
TAS1,"2009/01/19 05:00:00",1038.77,29.28,TRADE
TAS1,"2009/01/19 05:30:00",1076.5,29.28,TRADE
TAS1,"2009/01/19 06:00:00",1141.43,29.28,TRADE
TAS1,"2009/01/19 06:30:00",1199.34,29.76,TRADE
TAS1,"2009/01/19 07:00:00",1255.62,49.28,TRADE
TAS1,"2009/01/19 07:30:00",1264.87,49.3,TRADE
TAS1,"2009/01/19 08:00:00",1279.25,49.3,TRADE
TAS1,"2009/01/19 08:30:00",1294.13,89.3,TRADE
TAS1,"2009/01/19 09:00:00",1277.28,89.3,TRADE
TAS1,"2009/01/19 09:30:00",1262.12,115.26,TRADE
TAS1,"2009/01/19 10:00:00",1256.89,122.34,TRADE
TAS1,"2009/01/19 10:30:00",1246.37,90.27,TRADE
TAS1,"2009/01/19 11:00:00",1241.23,89.31,TRADE
TAS1,"2009/01/19 11:30:00",1220.23,89.59,TRADE
TAS1,"2009/01/19 12:00:00",1219.12,89.3,TRADE
TAS1,"2009/01/19 12:30:00",1222.8,89.3,TRADE
TAS1,"2009/01/19 13:00:00",1223.78,89.3,TRADE
TAS1,"2009/01/19 13:30:00",1215.67,89.3,TRADE
TAS1,"2009/01/19 14:00:00",1210.48,89.3,TRADE
TAS1,"2009/01/19 14:30:00",1222.91,89.28,TRADE
TAS1,"2009/01/19 15:00:00",1222.26,94,TRADE
TAS1,"2009/01/19 15:30:00",1233.81,95.9,TRADE
TAS1,"2009/01/19 16:00:00",1250.12,42.78,TRADE
TAS1,"2009/01/19 16:30:00",1256.03,57.58,TRADE
TAS1,"2009/01/19 17:00:00",1269.03,64.75,TRADE
TAS1,"2009/01/19 17:30:00",1273.83,245.54,TRADE
TAS1,"2009/01/19 18:00:00",1274.26,141.17,TRADE
TAS1,"2009/01/19 18:30:00",1259.78,127.05,TRADE
TAS1,"2009/01/19 19:00:00",1241.16,91.74,TRADE
TAS1,"2009/01/19 19:30:00",1228.18,75.37,TRADE
TAS1,"2009/01/19 20:00:00",1231.05,54.48,TRADE
TAS1,"2009/01/19 20:30:00",1252.09,51.1,TRADE
TAS1,"2009/01/19 21:00:00",1243.9,44.37,TRADE
TAS1,"2009/01/19 21:30:00",1210.62,49.86,TRADE
TAS1,"2009/01/19 22:00:00",1186.66,46.19,TRADE
TAS1,"2009/01/19 22:30:00",1151.37,50.82,TRADE
TAS1,"2009/01/19 23:00:00",1121.31,36.06,TRADE
TAS1,"2009/01/19 23:30:00",1100.42,58.83,TRADE
TAS1,"2009/01/20 00:00:00",1092.37,46.5,TRADE
TAS1,"2009/01/20 00:30:00",1083.24,26.87,TRADE
TAS1,"2009/01/20 01:00:00",1066.15,23.91,TRADE
TAS1,"2009/01/20 01:30:00",1048.54,30.23,TRADE
TAS1,"2009/01/20 02:00:00",1046.3,17.02,TRADE
TAS1,"2009/01/20 02:30:00",1031.69,11.18,TRADE
TAS1,"2009/01/20 03:00:00",1021.2,11.77,TRADE
TAS1,"2009/01/20 03:30:00",1023.02,10.1,TRADE
TAS1,"2009/01/20 04:00:00",1034.5,11.99,TRADE
TAS1,"2009/01/20 04:30:00",1037.41,17.34,TRADE
TAS1,"2009/01/20 05:00:00",1043.76,23.53,TRADE
TAS1,"2009/01/20 05:30:00",1083.99,25.44,TRADE
TAS1,"2009/01/20 06:00:00",1145.65,29.3,TRADE
TAS1,"2009/01/20 06:30:00",1191.45,48.43,TRADE
TAS1,"2009/01/20 07:00:00",1234.42,43.27,TRADE
TAS1,"2009/01/20 07:30:00",1211.61,32.17,TRADE
TAS1,"2009/01/20 08:00:00",1220.98,49.45,TRADE
TAS1,"2009/01/20 08:30:00",1229.11,49.7,TRADE
TAS1,"2009/01/20 09:00:00",1243.16,52.04,TRADE
TAS1,"2009/01/20 09:30:00",1210.92,61.02,TRADE
TAS1,"2009/01/20 10:00:00",1206.65,77.78,TRADE
TAS1,"2009/01/20 10:30:00",1207.58,95.55,TRADE
TAS1,"2009/01/20 11:00:00",1222.8,139.41,TRADE
TAS1,"2009/01/20 11:30:00",1213.4,77.08,TRADE
TAS1,"2009/01/20 12:00:00",1223.02,76.57,TRADE
TAS1,"2009/01/20 12:30:00",1205.14,97.42,TRADE
TAS1,"2009/01/20 13:00:00",1163.75,97.78,TRADE
TAS1,"2009/01/20 13:30:00",1122.31,96.11,TRADE
TAS1,"2009/01/20 14:00:00",1191.58,95.16,TRADE
TAS1,"2009/01/20 14:30:00",1218.69,131.55,TRADE
TAS1,"2009/01/20 15:00:00",1226.97,127.37,TRADE
TAS1,"2009/01/20 15:30:00",1224.04,92.32,TRADE
TAS1,"2009/01/20 16:00:00",1211.75,86.74,TRADE
TAS1,"2009/01/20 16:30:00",1169.43,95.39,TRADE
TAS1,"2009/01/20 17:00:00",1173.5,89.25,TRADE
TAS1,"2009/01/20 17:30:00",1146.14,89.28,TRADE
TAS1,"2009/01/20 18:00:00",1134.02,49.28,TRADE
TAS1,"2009/01/20 18:30:00",1128.5,49.28,TRADE
TAS1,"2009/01/20 19:00:00",1145.81,49.29,TRADE
TAS1,"2009/01/20 19:30:00",1153.45,49.3,TRADE
TAS1,"2009/01/20 20:00:00",1130.53,49.3,TRADE
TAS1,"2009/01/20 20:30:00",1102.99,49.3,TRADE
TAS1,"2009/01/20 21:00:00",1091.72,49.3,TRADE
TAS1,"2009/01/20 21:30:00",1107.46,49.3,TRADE
TAS1,"2009/01/20 22:00:00",1084.44,49.3,TRADE
TAS1,"2009/01/20 22:30:00",1078.96,49.3,TRADE
TAS1,"2009/01/20 23:00:00",1042.41,49.3,TRADE
TAS1,"2009/01/20 23:30:00",1026.56,49.98,TRADE
TAS1,"2009/01/21 00:00:00",1012.49,84.18,TRADE
TAS1,"2009/01/21 00:30:00",1009.66,89.3,TRADE
TAS1,"2009/01/21 01:00:00",1025.42,49.3,TRADE
TAS1,"2009/01/21 01:30:00",1029.98,89.3,TRADE
TAS1,"2009/01/21 02:00:00",1019.99,29.3,TRADE
TAS1,"2009/01/21 02:30:00",1024.06,29.3,TRADE
TAS1,"2009/01/21 03:00:00",1016.68,29.3,TRADE
TAS1,"2009/01/21 03:30:00",1032.61,29.3,TRADE
TAS1,"2009/01/21 04:00:00",1034.31,29.3,TRADE
TAS1,"2009/01/21 04:30:00",1048.01,40.92,TRADE
TAS1,"2009/01/21 05:00:00",1077.74,30.17,TRADE
TAS1,"2009/01/21 05:30:00",1113.92,58.54,TRADE
TAS1,"2009/01/21 06:00:00",1164.73,51.2,TRADE
TAS1,"2009/01/21 06:30:00",1194.37,49.59,TRADE
TAS1,"2009/01/21 07:00:00",1242.68,90.17,TRADE
TAS1,"2009/01/21 07:30:00",1251.48,89.3,TRADE
TAS1,"2009/01/21 08:00:00",1228.55,89.3,TRADE
TAS1,"2009/01/21 08:30:00",1244.44,69.3,TRADE
TAS1,"2009/01/21 09:00:00",1229.86,89.3,TRADE
TAS1,"2009/01/21 09:30:00",1215.17,89.3,TRADE
TAS1,"2009/01/21 10:00:00",1207.61,89.3,TRADE
TAS1,"2009/01/21 10:30:00",1196.51,89.3,TRADE
TAS1,"2009/01/21 11:00:00",1199.11,89.3,TRADE
TAS1,"2009/01/21 11:30:00",1191.52,89.3,TRADE
TAS1,"2009/01/21 12:00:00",1186.05,89.28,TRADE
TAS1,"2009/01/21 12:30:00",1190.83,89.28,TRADE
TAS1,"2009/01/21 13:00:00",1186.44,89.28,TRADE
TAS1,"2009/01/21 13:30:00",1175.27,89.28,TRADE
TAS1,"2009/01/21 14:00:00",1178.76,89.28,TRADE
TAS1,"2009/01/21 14:30:00",1189.87,89.28,TRADE
TAS1,"2009/01/21 15:00:00",1188.23,89.28,TRADE
TAS1,"2009/01/21 15:30:00",1180.3,89.28,TRADE
TAS1,"2009/01/21 16:00:00",1174.51,89.28,TRADE
TAS1,"2009/01/21 16:30:00",1184.81,89.3,TRADE
TAS1,"2009/01/21 17:00:00",1191.46,89.29,TRADE
TAS1,"2009/01/21 17:30:00",1189.95,82.63,TRADE
TAS1,"2009/01/21 18:00:00",1189.82,49.3,TRADE
TAS1,"2009/01/21 18:30:00",1188.42,49.3,TRADE
TAS1,"2009/01/21 19:00:00",1169.92,49.3,TRADE
TAS1,"2009/01/21 19:30:00",1172.57,49.3,TRADE
TAS1,"2009/01/21 20:00:00",1182.01,88,TRADE
TAS1,"2009/01/21 20:30:00",1209.28,50.17,TRADE
TAS1,"2009/01/21 21:00:00",1207.51,50.03,TRADE
TAS1,"2009/01/21 21:30:00",1181.45,49.3,TRADE
TAS1,"2009/01/21 22:00:00",1156.24,49.3,TRADE
TAS1,"2009/01/21 22:30:00",1104.51,49.3,TRADE
TAS1,"2009/01/21 23:00:00",1065.51,49.3,TRADE
TAS1,"2009/01/21 23:30:00",1048.71,49.29,TRADE
TAS1,"2009/01/22 00:00:00",1042.69,29.28,TRADE
TAS1,"2009/01/22 00:30:00",1026.66,49.59,TRADE
TAS1,"2009/01/22 01:00:00",1011.84,49.28,TRADE
TAS1,"2009/01/22 01:30:00",999.42,29.3,TRADE
TAS1,"2009/01/22 02:00:00",1006.39,29.3,TRADE
TAS1,"2009/01/22 02:30:00",1017.2,29.3,TRADE
TAS1,"2009/01/22 03:00:00",1016.43,29.3,TRADE
TAS1,"2009/01/22 03:30:00",1021.47,29.3,TRADE
TAS1,"2009/01/22 04:00:00",1009.69,29.3,TRADE
TAS1,"2009/01/22 04:30:00",1015.53,29.29,TRADE
TAS1,"2009/01/22 05:00:00",1004.79,29.28,TRADE
TAS1,"2009/01/22 05:30:00",1019.5,49.28,TRADE
TAS1,"2009/01/22 06:00:00",1063.86,49.28,TRADE
TAS1,"2009/01/22 06:30:00",1116.3,49.28,TRADE
TAS1,"2009/01/22 07:00:00",1158.12,60.61,TRADE
TAS1,"2009/01/22 07:30:00",1134.92,49.27,TRADE
TAS1,"2009/01/22 08:00:00",1142.89,49.26,TRADE
TAS1,"2009/01/22 08:30:00",1121.88,49.25,TRADE
TAS1,"2009/01/22 09:00:00",1116.33,48.73,TRADE
TAS1,"2009/01/22 09:30:00",1118.59,49.24,TRADE
TAS1,"2009/01/22 10:00:00",1116.81,57.78,TRADE
TAS1,"2009/01/22 10:30:00",1093.92,66.28,TRADE
TAS1,"2009/01/22 11:00:00",1068.01,66.28,TRADE
TAS1,"2009/01/22 11:30:00",1069.48,66.28,TRADE
TAS1,"2009/01/22 12:00:00",1078.99,66.22,TRADE
TAS1,"2009/01/22 12:30:00",1056.38,78.6,TRADE
TAS1,"2009/01/22 13:00:00",1061.24,92.74,TRADE
TAS1,"2009/01/22 13:30:00",1055.57,92.74,TRADE
TAS1,"2009/01/22 14:00:00",1053.77,92.73,TRADE
TAS1,"2009/01/22 14:30:00",1064.28,92.66,TRADE
TAS1,"2009/01/22 15:00:00",1078.05,92.64,TRADE
TAS1,"2009/01/22 15:30:00",1067.31,92.63,TRADE
TAS1,"2009/01/22 16:00:00",1059.56,92.57,TRADE
TAS1,"2009/01/22 16:30:00",1094.89,92.74,TRADE
TAS1,"2009/01/22 17:00:00",1111.24,92.6,TRADE
TAS1,"2009/01/22 17:30:00",1094.1,74.98,TRADE
TAS1,"2009/01/22 18:00:00",1090.7,66.15,TRADE
TAS1,"2009/01/22 18:30:00",1059.33,49.18,TRADE
TAS1,"2009/01/22 19:00:00",1052.79,49.18,TRADE
TAS1,"2009/01/22 19:30:00",1058.33,49.18,TRADE
TAS1,"2009/01/22 20:00:00",1053.6,49.21,TRADE
TAS1,"2009/01/22 20:30:00",1065.53,49.26,TRADE
TAS1,"2009/01/22 21:00:00",1063.95,52.1,TRADE
TAS1,"2009/01/22 21:30:00",1048.44,66.26,TRADE
TAS1,"2009/01/22 22:00:00",1025.71,49.18,TRADE
TAS1,"2009/01/22 22:30:00",1000.02,92.78,TRADE
TAS1,"2009/01/22 23:00:00",974.91,92.77,TRADE
TAS1,"2009/01/22 23:30:00",950.45,92.76,TRADE
TAS1,"2009/01/23 00:00:00",937.65,92.76,TRADE
TAS1,"2009/01/23 00:30:00",931.42,66.27,TRADE
TAS1,"2009/01/23 01:00:00",942.97,49.26,TRADE
TAS1,"2009/01/23 01:30:00",927.75,66.27,TRADE
TAS1,"2009/01/23 02:00:00",942.93,49.26,TRADE
TAS1,"2009/01/23 02:30:00",964.17,49.27,TRADE
TAS1,"2009/01/23 03:00:00",968.48,29.28,TRADE
TAS1,"2009/01/23 03:30:00",983.73,29.28,TRADE
TAS1,"2009/01/23 04:00:00",972.15,29.28,TRADE
TAS1,"2009/01/23 04:30:00",994.86,29.28,TRADE
TAS1,"2009/01/23 05:00:00",1019.45,29.28,TRADE
TAS1,"2009/01/23 05:30:00",1053,49.28,TRADE
TAS1,"2009/01/23 06:00:00",1114.96,52.8,TRADE
TAS1,"2009/01/23 06:30:00",1159.43,49.28,TRADE
TAS1,"2009/01/23 07:00:00",1185.44,66.28,TRADE
TAS1,"2009/01/23 07:30:00",1215.49,60.55,TRADE
TAS1,"2009/01/23 08:00:00",1224.19,66.28,TRADE
TAS1,"2009/01/23 08:30:00",1224.4,66.28,TRADE
TAS1,"2009/01/23 09:00:00",1212.47,66.28,TRADE
TAS1,"2009/01/23 09:30:00",1189.09,66.28,TRADE
TAS1,"2009/01/23 10:00:00",1185.14,66.28,TRADE
TAS1,"2009/01/23 10:30:00",1180.81,66.28,TRADE
TAS1,"2009/01/23 11:00:00",1170.79,66.28,TRADE
TAS1,"2009/01/23 11:30:00",1176.73,66.28,TRADE
TAS1,"2009/01/23 12:00:00",1178.69,66.28,TRADE
TAS1,"2009/01/23 12:30:00",1183.68,66.28,TRADE
TAS1,"2009/01/23 13:00:00",1172.54,66.28,TRADE
TAS1,"2009/01/23 13:30:00",1171.57,66.28,TRADE
TAS1,"2009/01/23 14:00:00",1150.44,66.28,TRADE
TAS1,"2009/01/23 14:30:00",1164.68,92.78,TRADE
TAS1,"2009/01/23 15:00:00",1179.5,92.78,TRADE
TAS1,"2009/01/23 15:30:00",1180.13,92.78,TRADE
TAS1,"2009/01/23 16:00:00",1188.49,92.78,TRADE
TAS1,"2009/01/23 16:30:00",1191.2,66.28,TRADE
TAS1,"2009/01/23 17:00:00",1170.21,66.26,TRADE
TAS1,"2009/01/23 17:30:00",1172.57,66.26,TRADE
TAS1,"2009/01/23 18:00:00",1203.11,66.28,TRADE
TAS1,"2009/01/23 18:30:00",1188.15,49.28,TRADE
TAS1,"2009/01/23 19:00:00",1180,49.28,TRADE
TAS1,"2009/01/23 19:30:00",1190.42,49.28,TRADE
TAS1,"2009/01/23 20:00:00",1185.76,49.28,TRADE
TAS1,"2009/01/23 20:30:00",1176.73,49.28,TRADE
TAS1,"2009/01/23 21:00:00",1146.03,49.28,TRADE
TAS1,"2009/01/23 21:30:00",1128.37,49.28,TRADE
TAS1,"2009/01/23 22:00:00",1094.33,49.28,TRADE
TAS1,"2009/01/23 22:30:00",1056.46,49.28,TRADE
TAS1,"2009/01/23 23:00:00",1055.79,49.28,TRADE
TAS1,"2009/01/23 23:30:00",1031.95,49.28,TRADE
TAS1,"2009/01/24 00:00:00",1028.55,49.28,TRADE
TAS1,"2009/01/24 00:30:00",1019.09,49.28,TRADE
TAS1,"2009/01/24 01:00:00",1001.14,49.28,TRADE
TAS1,"2009/01/24 01:30:00",987.07,49.28,TRADE
TAS1,"2009/01/24 02:00:00",978.7,49.28,TRADE
TAS1,"2009/01/24 02:30:00",940.82,29.28,TRADE
TAS1,"2009/01/24 03:00:00",986.79,29.29,TRADE
TAS1,"2009/01/24 03:30:00",1026.9,29.3,TRADE
TAS1,"2009/01/24 04:00:00",1007.14,29.28,TRADE
TAS1,"2009/01/24 04:30:00",968.96,29.28,TRADE
TAS1,"2009/01/24 05:00:00",944.31,29.28,TRADE
TAS1,"2009/01/24 05:30:00",948.57,29.28,TRADE
TAS1,"2009/01/24 06:00:00",953.37,29.28,TRADE
TAS1,"2009/01/24 06:30:00",965.97,29.28,TRADE
TAS1,"2009/01/24 07:00:00",993.71,29.28,TRADE
TAS1,"2009/01/24 07:30:00",1026.21,29.28,TRADE
TAS1,"2009/01/24 08:00:00",1054.85,29.28,TRADE
TAS1,"2009/01/24 08:30:00",1078.21,43.28,TRADE
TAS1,"2009/01/24 09:00:00",1089.43,57.95,TRADE
TAS1,"2009/01/24 09:30:00",1092.96,65.28,TRADE
TAS1,"2009/01/24 10:00:00",1082.12,65.28,TRADE
TAS1,"2009/01/24 10:30:00",1072.41,65.28,TRADE
TAS1,"2009/01/24 11:00:00",1059.7,65.28,TRADE
TAS1,"2009/01/24 11:30:00",1044.83,65.28,TRADE
TAS1,"2009/01/24 12:00:00",1033.54,83.78,TRADE
TAS1,"2009/01/24 12:30:00",1030.97,77.61,TRADE
TAS1,"2009/01/24 13:00:00",1019.36,65.28,TRADE
TAS1,"2009/01/24 13:30:00",1016.67,65.28,TRADE
TAS1,"2009/01/24 14:00:00",1004.15,65.28,TRADE
TAS1,"2009/01/24 14:30:00",1009.98,77.61,TRADE
TAS1,"2009/01/24 15:00:00",1014.48,65.28,TRADE
TAS1,"2009/01/24 15:30:00",1015.68,65.28,TRADE
TAS1,"2009/01/24 16:00:00",1027.69,65.28,TRADE
TAS1,"2009/01/24 16:30:00",1039.74,65.28,TRADE
TAS1,"2009/01/24 17:00:00",1063.43,65.28,TRADE
TAS1,"2009/01/24 17:30:00",1066.9,65.28,TRADE
TAS1,"2009/01/24 18:00:00",1069.5,65.28,TRADE
TAS1,"2009/01/24 18:30:00",1067.02,46.95,TRADE
TAS1,"2009/01/24 19:00:00",1065.75,43.28,TRADE
TAS1,"2009/01/24 19:30:00",1082.26,43.28,TRADE
TAS1,"2009/01/24 20:00:00",1108.18,43.28,TRADE
TAS1,"2009/01/24 20:30:00",1133.03,43.29,TRADE
TAS1,"2009/01/24 21:00:00",1139.33,43.29,TRADE
TAS1,"2009/01/24 21:30:00",1124.88,43.28,TRADE
TAS1,"2009/01/24 22:00:00",1108.28,43.28,TRADE
TAS1,"2009/01/24 22:30:00",1077.83,29.54,TRADE
TAS1,"2009/01/24 23:00:00",1064.44,29.28,TRADE
TAS1,"2009/01/24 23:30:00",1044.72,29.28,TRADE
TAS1,"2009/01/25 00:00:00",1020.33,29.28,TRADE
TAS1,"2009/01/25 00:30:00",1008.41,29.28,TRADE
TAS1,"2009/01/25 01:00:00",996.49,29.28,TRADE
TAS1,"2009/01/25 01:30:00",987.08,29.28,TRADE
TAS1,"2009/01/25 02:00:00",979.75,29.28,TRADE
TAS1,"2009/01/25 02:30:00",992.9,29.3,TRADE
TAS1,"2009/01/25 03:00:00",988.68,29.29,TRADE
TAS1,"2009/01/25 03:30:00",986.07,29.28,TRADE
TAS1,"2009/01/25 04:00:00",989.18,29.29,TRADE
TAS1,"2009/01/25 04:30:00",992.89,29.28,TRADE
TAS1,"2009/01/25 05:00:00",995.37,29.3,TRADE
TAS1,"2009/01/25 05:30:00",999.42,29.3,TRADE
TAS1,"2009/01/25 06:00:00",1016.88,29.28,TRADE
TAS1,"2009/01/25 06:30:00",1040.25,29.3,TRADE
TAS1,"2009/01/25 07:00:00",1069.74,29.36,TRADE
TAS1,"2009/01/25 07:30:00",1087.11,29.29,TRADE
TAS1,"2009/01/25 08:00:00",1104.75,29.28,TRADE
TAS1,"2009/01/25 08:30:00",1140.79,29.28,TRADE
TAS1,"2009/01/25 09:00:00",1154.95,29.28,TRADE
TAS1,"2009/01/25 09:30:00",1157.86,31.61,TRADE
TAS1,"2009/01/25 10:00:00",1152.68,43.28,TRADE
TAS1,"2009/01/25 10:30:00",1144.72,43.28,TRADE
TAS1,"2009/01/25 11:00:00",1137.38,43.28,TRADE
TAS1,"2009/01/25 11:30:00",1128.14,43.28,TRADE
TAS1,"2009/01/25 12:00:00",1113.81,43.28,TRADE
TAS1,"2009/01/25 12:30:00",1098.59,43.28,TRADE
TAS1,"2009/01/25 13:00:00",1083.84,43.28,TRADE
TAS1,"2009/01/25 13:30:00",1079.33,43.28,TRADE
TAS1,"2009/01/25 14:00:00",1080.75,43.28,TRADE
TAS1,"2009/01/25 14:30:00",1074.99,58.01,TRADE
TAS1,"2009/01/25 15:00:00",1083.05,65.28,TRADE
TAS1,"2009/01/25 15:30:00",1089.04,65.28,TRADE
TAS1,"2009/01/25 16:00:00",1095.03,65.28,TRADE
TAS1,"2009/01/25 16:30:00",1108.16,65.3,TRADE
TAS1,"2009/01/25 17:00:00",1121.52,65.28,TRADE
TAS1,"2009/01/25 17:30:00",1141.31,65.3,TRADE
TAS1,"2009/01/25 18:00:00",1133.36,65.28,TRADE
TAS1,"2009/01/25 18:30:00",1125.97,43.28,TRADE
TAS1,"2009/01/25 19:00:00",1132.27,43.28,TRADE
TAS1,"2009/01/25 19:30:00",1133.6,43.28,TRADE
TAS1,"2009/01/25 20:00:00",1143.22,43.28,TRADE
TAS1,"2009/01/25 20:30:00",1156.48,43.28,TRADE
TAS1,"2009/01/25 21:00:00",1143.42,29.28,TRADE
TAS1,"2009/01/25 21:30:00",1127.46,29.28,TRADE
TAS1,"2009/01/25 22:00:00",1104.84,29.28,TRADE
TAS1,"2009/01/25 22:30:00",1072.83,29.35,TRADE
TAS1,"2009/01/25 23:00:00",1054.08,29.28,TRADE
TAS1,"2009/01/25 23:30:00",1040.14,43.28,TRADE
TAS1,"2009/01/26 00:00:00",1024.02,43.28,TRADE
TAS1,"2009/01/26 00:30:00",1004.26,43.28,TRADE
TAS1,"2009/01/26 01:00:00",999.32,43.28,TRADE
TAS1,"2009/01/26 01:30:00",1003.78,43.28,TRADE
TAS1,"2009/01/26 02:00:00",987.34,43.28,TRADE
TAS1,"2009/01/26 02:30:00",989.88,43.28,TRADE
TAS1,"2009/01/26 03:00:00",991.35,29.28,TRADE
TAS1,"2009/01/26 03:30:00",983.18,29.28,TRADE
TAS1,"2009/01/26 04:00:00",988.44,29.28,TRADE
TAS1,"2009/01/26 04:30:00",980.5,25.3,TRADE
TAS1,"2009/01/26 05:00:00",982.39,25.3,TRADE
TAS1,"2009/01/26 05:30:00",1009.94,25.28,TRADE
TAS1,"2009/01/26 06:00:00",1024.38,25.28,TRADE
TAS1,"2009/01/26 06:30:00",1030.73,25.28,TRADE
TAS1,"2009/01/26 07:00:00",1076.01,25.28,TRADE
TAS1,"2009/01/26 07:30:00",1106.91,25.28,TRADE
TAS1,"2009/01/26 08:00:00",1137.91,35.28,TRADE
TAS1,"2009/01/26 08:30:00",1160.81,35.28,TRADE
TAS1,"2009/01/26 09:00:00",1171.59,35.28,TRADE
TAS1,"2009/01/26 09:30:00",1172.39,45.28,TRADE
TAS1,"2009/01/26 10:00:00",1165.77,45.28,TRADE
TAS1,"2009/01/26 10:30:00",1156.94,45.28,TRADE
TAS1,"2009/01/26 11:00:00",1153.59,55.28,TRADE
TAS1,"2009/01/26 11:30:00",1137.67,61.95,TRADE
TAS1,"2009/01/26 12:00:00",1125.72,65.28,TRADE
TAS1,"2009/01/26 12:30:00",1122.17,65.28,TRADE
TAS1,"2009/01/26 13:00:00",1108.32,65.28,TRADE
TAS1,"2009/01/26 13:30:00",1084.5,65.28,TRADE
TAS1,"2009/01/26 14:00:00",1085.19,65.28,TRADE
TAS1,"2009/01/26 14:30:00",1085.51,65.28,TRADE
TAS1,"2009/01/26 15:00:00",1091.09,65.28,TRADE
TAS1,"2009/01/26 15:30:00",1092.09,65.28,TRADE
TAS1,"2009/01/26 16:00:00",1111.51,65.28,TRADE
TAS1,"2009/01/26 16:30:00",1120.57,65.28,TRADE
TAS1,"2009/01/26 17:00:00",1124.94,65.28,TRADE
TAS1,"2009/01/26 17:30:00",1135.03,65.28,TRADE
TAS1,"2009/01/26 18:00:00",1138.45,65.28,TRADE
TAS1,"2009/01/26 18:30:00",1140.06,65.28,TRADE
TAS1,"2009/01/26 19:00:00",1142.41,65.28,TRADE
TAS1,"2009/01/26 19:30:00",1170.09,65.28,TRADE
TAS1,"2009/01/26 20:00:00",1184.6,65.28,TRADE
TAS1,"2009/01/26 20:30:00",1201,65.28,TRADE
TAS1,"2009/01/26 21:00:00",1193.78,45.28,TRADE
TAS1,"2009/01/26 21:30:00",1161.21,45.28,TRADE
TAS1,"2009/01/26 22:00:00",1122.29,45.28,TRADE
TAS1,"2009/01/26 22:30:00",1059.8,35.28,TRADE
TAS1,"2009/01/26 23:00:00",1007.48,35.26,TRADE
TAS1,"2009/01/26 23:30:00",981.31,35.28,TRADE
TAS1,"2009/01/27 00:00:00",966.57,35.28,TRADE
TAS1,"2009/01/27 00:30:00",963.27,35.28,TRADE
TAS1,"2009/01/27 01:00:00",967.11,35.28,TRADE
TAS1,"2009/01/27 01:30:00",960.73,35.28,TRADE
TAS1,"2009/01/27 02:00:00",951.15,25.28,TRADE
TAS1,"2009/01/27 02:30:00",949.88,25.28,TRADE
TAS1,"2009/01/27 03:00:00",951.36,25.28,TRADE
TAS1,"2009/01/27 03:30:00",956.47,25.28,TRADE
TAS1,"2009/01/27 04:00:00",961.92,25.28,TRADE
TAS1,"2009/01/27 04:30:00",971.97,29.28,TRADE
TAS1,"2009/01/27 05:00:00",981.06,29.28,TRADE
TAS1,"2009/01/27 05:30:00",1017.09,28.23,TRADE
TAS1,"2009/01/27 06:00:00",1067.11,29.28,TRADE
TAS1,"2009/01/27 06:30:00",1106.61,47.42,TRADE
TAS1,"2009/01/27 07:00:00",1144.35,65.28,TRADE
TAS1,"2009/01/27 07:30:00",1168.93,65.28,TRADE
TAS1,"2009/01/27 08:00:00",1175.76,65.28,TRADE
TAS1,"2009/01/27 08:30:00",1168.61,65.28,TRADE
TAS1,"2009/01/27 09:00:00",1161.79,65.28,TRADE
TAS1,"2009/01/27 09:30:00",1151.81,65.28,TRADE
TAS1,"2009/01/27 10:00:00",1150.49,65.28,TRADE
TAS1,"2009/01/27 10:30:00",1139.67,77.28,TRADE
TAS1,"2009/01/27 11:00:00",1136.07,89.28,TRADE
TAS1,"2009/01/27 11:30:00",1130.62,89.89,TRADE
TAS1,"2009/01/27 12:00:00",1125.93,89.23,TRADE
TAS1,"2009/01/27 12:30:00",1108.65,89.28,TRADE
TAS1,"2009/01/27 13:00:00",1106.04,89.2,TRADE
TAS1,"2009/01/27 13:30:00",1129.71,89.28,TRADE
TAS1,"2009/01/27 14:00:00",1121.9,89.26,TRADE
TAS1,"2009/01/27 14:30:00",1138.68,90.55,TRADE
TAS1,"2009/01/27 15:00:00",1144.93,95.11,TRADE
TAS1,"2009/01/27 15:30:00",1195.41,105.73,TRADE
TAS1,"2009/01/27 16:00:00",1179.68,112.03,TRADE
TAS1,"2009/01/27 16:30:00",1157,99.71,TRADE
TAS1,"2009/01/27 17:00:00",1129.12,111.67,TRADE
TAS1,"2009/01/27 17:30:00",1123.1,80.33,TRADE
TAS1,"2009/01/27 18:00:00",1118.19,64.8,TRADE
TAS1,"2009/01/27 18:30:00",1104.27,64.31,TRADE
TAS1,"2009/01/27 19:00:00",1110.49,64.66,TRADE
TAS1,"2009/01/27 19:30:00",1114,67.27,TRADE
TAS1,"2009/01/27 20:00:00",1121.18,65.62,TRADE
TAS1,"2009/01/27 20:30:00",1149.62,63.76,TRADE
TAS1,"2009/01/27 21:00:00",1134.18,76.48,TRADE
TAS1,"2009/01/27 21:30:00",1108.34,65.81,TRADE
TAS1,"2009/01/27 22:00:00",1066.54,46.19,TRADE
TAS1,"2009/01/27 22:30:00",1050.5,46.64,TRADE
TAS1,"2009/01/27 23:00:00",1039.47,44.94,TRADE
TAS1,"2009/01/27 23:30:00",1008.53,46.31,TRADE
TAS1,"2009/01/28 00:00:00",975.79,43.17,TRADE
TAS1,"2009/01/28 00:30:00",982.94,34.75,TRADE
TAS1,"2009/01/28 01:00:00",987.93,26.64,TRADE
TAS1,"2009/01/28 01:30:00",991.22,29.51,TRADE
TAS1,"2009/01/28 02:00:00",984.9,21.64,TRADE
TAS1,"2009/01/28 02:30:00",972.91,13.76,TRADE
TAS1,"2009/01/28 03:00:00",972.23,15.12,TRADE
TAS1,"2009/01/28 03:30:00",979.47,16.89,TRADE
TAS1,"2009/01/28 04:00:00",976.28,17.75,TRADE
TAS1,"2009/01/28 04:30:00",988.26,21.86,TRADE
TAS1,"2009/01/28 05:00:00",1000.66,24.98,TRADE
TAS1,"2009/01/28 05:30:00",1041.5,28.28,TRADE
TAS1,"2009/01/28 06:00:00",1099.35,31.06,TRADE
TAS1,"2009/01/28 06:30:00",1146.22,44.2,TRADE
TAS1,"2009/01/28 07:00:00",1198.44,46.22,TRADE
TAS1,"2009/01/28 07:30:00",1227.14,48.76,TRADE
TAS1,"2009/01/28 08:00:00",1231.11,51.43,TRADE
TAS1,"2009/01/28 08:30:00",1225.59,50.14,TRADE
TAS1,"2009/01/28 09:00:00",1216.02,73.77,TRADE
TAS1,"2009/01/28 09:30:00",1197.57,85.54,TRADE
TAS1,"2009/01/28 10:00:00",1168.86,81.13,TRADE
TAS1,"2009/01/28 10:30:00",1159.19,98.03,TRADE
TAS1,"2009/01/28 11:00:00",1139.42,77.76,TRADE
TAS1,"2009/01/28 11:30:00",1158.06,112.26,TRADE
TAS1,"2009/01/28 12:00:00",1176.52,194.37,TRADE
TAS1,"2009/01/28 12:30:00",1183.31,260.23,TRADE
TAS1,"2009/01/28 13:00:00",1139.45,65.3,TRADE
TAS1,"2009/01/28 13:30:00",1146.51,91.9,TRADE
TAS1,"2009/01/28 14:00:00",1174.49,90.06,TRADE
TAS1,"2009/01/28 14:30:00",1190.61,95.19,TRADE
TAS1,"2009/01/28 15:00:00",1178.08,67.57,TRADE
TAS1,"2009/01/28 15:30:00",1176.15,28.27,TRADE
TAS1,"2009/01/28 16:00:00",1203.35,29.32,TRADE
TAS1,"2009/01/28 16:30:00",1240.27,24.43,TRADE
TAS1,"2009/01/28 17:00:00",1239.2,27.39,TRADE
TAS1,"2009/01/28 17:30:00",1198.13,1.33,TRADE
TAS1,"2009/01/28 18:00:00",1153.29,260.26,TRADE
TAS1,"2009/01/28 18:30:00",1134.42,245.07,TRADE
TAS1,"2009/01/28 19:00:00",1146.28,200.41,TRADE
TAS1,"2009/01/28 19:30:00",1152.39,181.07,TRADE
TAS1,"2009/01/28 20:00:00",1161.76,153.96,TRADE
TAS1,"2009/01/28 20:30:00",1182.46,127.77,TRADE
TAS1,"2009/01/28 21:00:00",1177.95,100.57,TRADE
TAS1,"2009/01/28 21:30:00",1163.52,100.98,TRADE
TAS1,"2009/01/28 22:00:00",1122.6,86.96,TRADE
TAS1,"2009/01/28 22:30:00",1094,92.36,TRADE
TAS1,"2009/01/28 23:00:00",1064.57,57.07,TRADE
TAS1,"2009/01/28 23:30:00",1029.27,93.21,TRADE
TAS1,"2009/01/29 00:00:00",999.26,64.23,TRADE
TAS1,"2009/01/29 00:30:00",1000.19,40.72,TRADE
TAS1,"2009/01/29 01:00:00",982.33,40.26,TRADE
TAS1,"2009/01/29 01:30:00",979.97,118.73,TRADE
TAS1,"2009/01/29 02:00:00",979.74,96.45,TRADE
TAS1,"2009/01/29 02:30:00",972.51,27.81,TRADE
TAS1,"2009/01/29 03:00:00",961.48,33.6,TRADE
TAS1,"2009/01/29 03:30:00",967.8,61.36,TRADE
TAS1,"2009/01/29 04:00:00",945.6,96.09,TRADE
TAS1,"2009/01/29 04:30:00",926.8,83.7,TRADE
TAS1,"2009/01/29 05:00:00",876.53,91.34,TRADE
TAS1,"2009/01/29 05:30:00",996.35,116.62,TRADE
TAS1,"2009/01/29 06:00:00",1058.2,106.37,TRADE
TAS1,"2009/01/29 06:30:00",1164.46,114.63,TRADE
TAS1,"2009/01/29 07:00:00",1212.02,119.31,TRADE
TAS1,"2009/01/29 07:30:00",1213.81,-259.48,TRADE
TAS1,"2009/01/29 08:00:00",1233.16,-696.48,TRADE
TAS1,"2009/01/29 08:30:00",1220.91,191.77,TRADE
TAS1,"2009/01/29 09:00:00",1185.98,-999.72,TRADE
TAS1,"2009/01/29 09:30:00",1170.53,1315.95,TRADE
TAS1,"2009/01/29 10:00:00",1215.66,1136.79,TRADE
TAS1,"2009/01/29 10:30:00",1242.21,1033.53,TRADE
TAS1,"2009/01/29 11:00:00",1259.55,4416.15,TRADE
TAS1,"2009/01/29 11:30:00",1229.54,953.14,TRADE
TAS1,"2009/01/29 12:00:00",1221.48,1.28,TRADE
TAS1,"2009/01/29 12:30:00",1248.92,3491.16,TRADE
TAS1,"2009/01/29 13:00:00",1235.54,-999.65,TRADE
TAS1,"2009/01/29 13:30:00",1236.29,-832.86,TRADE
TAS1,"2009/01/29 14:00:00",1239.07,-999.66,TRADE
TAS1,"2009/01/29 14:30:00",1219.33,-832.96,TRADE
TAS1,"2009/01/29 15:00:00",1235.1,-832.94,TRADE
TAS1,"2009/01/29 15:30:00",1271.38,1286.22,TRADE
TAS1,"2009/01/29 16:00:00",1264.4,-999.7,TRADE
TAS1,"2009/01/29 16:30:00",1275.87,3292.9,TRADE
TAS1,"2009/01/29 17:00:00",1289.95,1125.84,TRADE
TAS1,"2009/01/29 17:30:00",1273.86,452.58,TRADE
TAS1,"2009/01/29 18:00:00",1254.01,271.54,TRADE
TAS1,"2009/01/29 18:30:00",1221.36,2015.35,TRADE
TAS1,"2009/01/29 19:00:00",1229.77,6778.32,TRADE
TAS1,"2009/01/29 19:30:00",1262.85,1754.49,TRADE
TAS1,"2009/01/29 20:00:00",1255.04,319.07,TRADE
TAS1,"2009/01/29 20:30:00",1257.14,320.29,TRADE
TAS1,"2009/01/29 21:00:00",1240.56,237.66,TRADE
TAS1,"2009/01/29 21:30:00",1210.9,195.92,TRADE
TAS1,"2009/01/29 22:00:00",1145.43,108.81,TRADE
TAS1,"2009/01/29 22:30:00",1114.7,92.25,TRADE
TAS1,"2009/01/29 23:00:00",1082.66,60.24,TRADE
TAS1,"2009/01/29 23:30:00",1054.79,58.87,TRADE
TAS1,"2009/01/30 00:00:00",1036.86,45.63,TRADE
TAS1,"2009/01/30 00:30:00",1030.72,30.29,TRADE
TAS1,"2009/01/30 01:00:00",1023.98,30.02,TRADE
TAS1,"2009/01/30 01:30:00",1025.83,57.38,TRADE
TAS1,"2009/01/30 02:00:00",1021.72,28.65,TRADE
TAS1,"2009/01/30 02:30:00",1018.68,27.4,TRADE
TAS1,"2009/01/30 03:00:00",1015.12,26.69,TRADE
TAS1,"2009/01/30 03:30:00",1025.17,26.69,TRADE
TAS1,"2009/01/30 04:00:00",1027.17,26.6,TRADE
TAS1,"2009/01/30 04:30:00",1044.81,26.64,TRADE
TAS1,"2009/01/30 05:00:00",1067.08,30.03,TRADE
TAS1,"2009/01/30 05:30:00",1105.24,44.51,TRADE
TAS1,"2009/01/30 06:00:00",1150.76,36.07,TRADE
TAS1,"2009/01/30 06:30:00",1206.71,49.43,TRADE
TAS1,"2009/01/30 07:00:00",1269.89,52.51,TRADE
TAS1,"2009/01/30 07:30:00",1293.8,55.64,TRADE
TAS1,"2009/01/30 08:00:00",1306.09,99.87,TRADE
TAS1,"2009/01/30 08:30:00",1322.84,178.52,TRADE
TAS1,"2009/01/30 09:00:00",1347.12,1153.61,TRADE
TAS1,"2009/01/30 09:30:00",1338.02,4587.38,TRADE
TAS1,"2009/01/30 10:00:00",1345.6,5442.84,TRADE
TAS1,"2009/01/30 10:30:00",1344.2,4362.56,TRADE
TAS1,"2009/01/30 11:00:00",1328.63,6880.22,TRADE
TAS1,"2009/01/30 11:30:00",1307.81,2537.19,TRADE
TAS1,"2009/01/30 12:00:00",1301.61,1026.43,TRADE
TAS1,"2009/01/30 12:30:00",1275.47,-634.01,TRADE
TAS1,"2009/01/30 13:00:00",1273.76,-999.68,TRADE
TAS1,"2009/01/30 13:30:00",1250.17,-999.72,TRADE
TAS1,"2009/01/30 14:00:00",1237.61,-999.72,TRADE
TAS1,"2009/01/30 14:30:00",1228.46,-999.76,TRADE
TAS1,"2009/01/30 15:00:00",1228.7,-999.74,TRADE
TAS1,"2009/01/30 15:30:00",1220.79,-85.49,TRADE
TAS1,"2009/01/30 16:00:00",1238.31,-451.15,TRADE
TAS1,"2009/01/30 16:30:00",1218.34,-999.73,TRADE
TAS1,"2009/01/30 17:00:00",1221.55,-999.7,TRADE
TAS1,"2009/01/30 17:30:00",1233.75,-633.98,TRADE
TAS1,"2009/01/30 18:00:00",1218.09,-438.55,TRADE
TAS1,"2009/01/30 18:30:00",1163.58,106.38,TRADE
TAS1,"2009/01/30 19:00:00",1173.72,97.4,TRADE
TAS1,"2009/01/30 19:30:00",1169.64,97.44,TRADE
TAS1,"2009/01/30 20:00:00",1171.03,97.6,TRADE
TAS1,"2009/01/30 20:30:00",1195.54,65.32,TRADE
TAS1,"2009/01/30 21:00:00",1185.11,65.32,TRADE
TAS1,"2009/01/30 21:30:00",1184.2,65.32,TRADE
TAS1,"2009/01/30 22:00:00",1155.17,65.32,TRADE
TAS1,"2009/01/30 22:30:00",1130.37,65.32,TRADE
TAS1,"2009/01/30 23:00:00",1098.44,65.32,TRADE
TAS1,"2009/01/30 23:30:00",1071.71,104.96,TRADE
TAS1,"2009/01/31 00:00:00",1057.81,101.3,TRADE
TAS1,"2009/01/31 00:30:00",1041.68,97.62,TRADE
TAS1,"2009/01/31 01:00:00",1007.56,97.62,TRADE
TAS1,"2009/01/31 01:30:00",1001.44,97.62,TRADE
TAS1,"2009/01/31 02:00:00",955.36,65.32,TRADE
TAS1,"2009/01/31 02:30:00",953.2,65.32,TRADE
TAS1,"2009/01/31 03:00:00",966.79,65.32,TRADE
TAS1,"2009/01/31 03:30:00",990.92,65.32,TRADE
TAS1,"2009/01/31 04:00:00",1014.13,65.32,TRADE
TAS1,"2009/01/31 04:30:00",1015.66,45.29,TRADE
TAS1,"2009/01/31 05:00:00",1033.05,45.3,TRADE
TAS1,"2009/01/31 05:30:00",1033.35,45.3,TRADE
TAS1,"2009/01/31 06:00:00",1028.41,45.3,TRADE
TAS1,"2009/01/31 06:30:00",1061.14,45.3,TRADE
TAS1,"2009/01/31 07:00:00",1086.37,45.3,TRADE
TAS1,"2009/01/31 07:30:00",1102.09,45.3,TRADE
TAS1,"2009/01/31 08:00:00",1123.48,45.3,TRADE
TAS1,"2009/01/31 08:30:00",1141.33,65.3,TRADE
TAS1,"2009/01/31 09:00:00",1157.64,65.3,TRADE
TAS1,"2009/01/31 09:30:00",1141.52,85.81,TRADE
TAS1,"2009/01/31 10:00:00",1100.37,106.3,TRADE
TAS1,"2009/01/31 10:30:00",1092.29,106.29,TRADE
TAS1,"2009/01/31 11:00:00",1091.22,104.85,TRADE
TAS1,"2009/01/31 11:30:00",1088.47,65.08,TRADE
TAS1,"2009/01/31 12:00:00",1082.94,50.2,TRADE
TAS1,"2009/01/31 12:30:00",1086.95,72.44,TRADE
TAS1,"2009/01/31 13:00:00",1068.43,77.06,TRADE
TAS1,"2009/01/31 13:30:00",1075.16,114.85,TRADE
TAS1,"2009/01/31 14:00:00",1072.34,101.59,TRADE
TAS1,"2009/01/31 14:30:00",1073.36,125.11,TRADE
TAS1,"2009/01/31 15:00:00",1079.18,162.9,TRADE
TAS1,"2009/01/31 15:30:00",1084.34,202.71,TRADE
TAS1,"2009/01/31 16:00:00",1101.14,70.67,TRADE
TAS1,"2009/01/31 16:30:00",1106.74,70.3,TRADE
TAS1,"2009/01/31 17:00:00",1132.12,54.31,TRADE
TAS1,"2009/01/31 17:30:00",1109.83,56.84,TRADE
TAS1,"2009/01/31 18:00:00",1098.59,65.22,TRADE
TAS1,"2009/01/31 18:30:00",1105.36,65.28,TRADE
TAS1,"2009/01/31 19:00:00",1084.58,65.28,TRADE
TAS1,"2009/01/31 19:30:00",1085.52,65.3,TRADE
TAS1,"2009/01/31 20:00:00",1101.62,65.3,TRADE
TAS1,"2009/01/31 20:30:00",1124.35,65.3,TRADE
TAS1,"2009/01/31 21:00:00",1100.6,65.3,TRADE
TAS1,"2009/01/31 21:30:00",1095.7,65.3,TRADE
TAS1,"2009/01/31 22:00:00",1094.68,65.3,TRADE
TAS1,"2009/01/31 22:30:00",1076.29,45.3,TRADE
TAS1,"2009/01/31 23:00:00",1055.5,45.3,TRADE
TAS1,"2009/01/31 23:30:00",1049.63,45.3,TRADE
TAS1,"2009/02/01 00:00:00",1028.77,45.3,TRADE
