REGION,SETTLEMENTDATE,TOTALDEMAND,RRP,PERIODTYPE
QLD1,"2005/05/01 00:30:00",4868.06,16.49,TRADE
QLD1,"2005/05/01 01:00:00",4751.43667,16.41,TRADE
QLD1,"2005/05/01 01:30:00",4596.715,16.4,TRADE
QLD1,"2005/05/01 02:00:00",4483.90667,15.2,TRADE
QLD1,"2005/05/01 02:30:00",4356.90167,13.81,TRADE
QLD1,"2005/05/01 03:00:00",4305.26,13.1,TRADE
QLD1,"2005/05/01 03:30:00",4270.9,13.08,TRADE
QLD1,"2005/05/01 04:00:00",4265.73833,13,TRADE
QLD1,"2005/05/01 04:30:00",4284.18833,13.93,TRADE
QLD1,"2005/05/01 05:00:00",4262.34,13.84,TRADE
QLD1,"2005/05/01 05:30:00",4314.42833,13.37,TRADE
QLD1,"2005/05/01 06:00:00",4366.495,12.24,TRADE
QLD1,"2005/05/01 06:30:00",4432.38,12.79,TRADE
QLD1,"2005/05/01 07:00:00",4544.49667,12.26,TRADE
QLD1,"2005/05/01 07:30:00",4768.025,13.22,TRADE
QLD1,"2005/05/01 08:00:00",4941.28,14.59,TRADE
QLD1,"2005/05/01 08:30:00",5195.725,16.27,TRADE
QLD1,"2005/05/01 09:00:00",5310.34833,16.07,TRADE
QLD1,"2005/05/01 09:30:00",5413.75667,16.48,TRADE
QLD1,"2005/05/01 10:00:00",5508.06833,16.61,TRADE
QLD1,"2005/05/01 10:30:00",5535.07167,16.45,TRADE
QLD1,"2005/05/01 11:00:00",5461.62833,16.44,TRADE
QLD1,"2005/05/01 11:30:00",5470.01333,16.42,TRADE
QLD1,"2005/05/01 12:00:00",5442.46167,16.44,TRADE
QLD1,"2005/05/01 12:30:00",5449.85333,16.34,TRADE
QLD1,"2005/05/01 13:00:00",5405.9,15.89,TRADE
QLD1,"2005/05/01 13:30:00",5365.925,15.17,TRADE
QLD1,"2005/05/01 14:00:00",5403.32,15.14,TRADE
QLD1,"2005/05/01 14:30:00",5350.155,14.59,TRADE
QLD1,"2005/05/01 15:00:00",5346.00333,14.72,TRADE
QLD1,"2005/05/01 15:30:00",5375.05,14.69,TRADE
QLD1,"2005/05/01 16:00:00",5389.30167,14.72,TRADE
QLD1,"2005/05/01 16:30:00",5404.52833,15.33,TRADE
QLD1,"2005/05/01 17:00:00",5517.53333,16.02,TRADE
QLD1,"2005/05/01 17:30:00",5756.35,19.95,TRADE
QLD1,"2005/05/01 18:00:00",6155.22,34.09,TRADE
QLD1,"2005/05/01 18:30:00",6165.27,36.67,TRADE
QLD1,"2005/05/01 19:00:00",5999.31,33.63,TRADE
QLD1,"2005/05/01 19:30:00",5810.49,23.5,TRADE
QLD1,"2005/05/01 20:00:00",5693.655,20.65,TRADE
QLD1,"2005/05/01 20:30:00",5571.85667,18.8,TRADE
QLD1,"2005/05/01 21:00:00",5423.98833,16.34,TRADE
QLD1,"2005/05/01 21:30:00",5412.21,16.41,TRADE
QLD1,"2005/05/01 22:00:00",5208.22167,14.52,TRADE
QLD1,"2005/05/01 22:30:00",5272.56,16.6,TRADE
QLD1,"2005/05/01 23:00:00",5201.72667,16.21,TRADE
QLD1,"2005/05/01 23:30:00",5243.98833,18.98,TRADE
QLD1,"2005/05/02 00:00:00",5056.71,15.95,TRADE
QLD1,"2005/05/02 00:30:00",4811.65167,16.06,TRADE
QLD1,"2005/05/02 01:00:00",4657.50167,14.99,TRADE
QLD1,"2005/05/02 01:30:00",4550.1,15.47,TRADE
QLD1,"2005/05/02 02:00:00",4423.42,13.65,TRADE
QLD1,"2005/05/02 02:30:00",4329.80667,12.45,TRADE
QLD1,"2005/05/02 03:00:00",4306.145,12.52,TRADE
QLD1,"2005/05/02 03:30:00",4265.94167,12.59,TRADE
QLD1,"2005/05/02 04:00:00",4193.79333,12.2,TRADE
QLD1,"2005/05/02 04:30:00",4222.38833,12.83,TRADE
QLD1,"2005/05/02 05:00:00",4215.93333,12.82,TRADE
QLD1,"2005/05/02 05:30:00",4287.79333,12.3,TRADE
QLD1,"2005/05/02 06:00:00",4323.20667,12.7,TRADE
QLD1,"2005/05/02 06:30:00",4400.39833,9.08,TRADE
QLD1,"2005/05/02 07:00:00",4542.555,15.94,TRADE
QLD1,"2005/05/02 07:30:00",4763.765,15.61,TRADE
QLD1,"2005/05/02 08:00:00",5005.715,16.28,TRADE
QLD1,"2005/05/02 08:30:00",5183.615,16.3,TRADE
QLD1,"2005/05/02 09:00:00",5348.435,16.42,TRADE
QLD1,"2005/05/02 09:30:00",5421.115,16.4,TRADE
QLD1,"2005/05/02 10:00:00",5526.26,16.44,TRADE
QLD1,"2005/05/02 10:30:00",5499.07,16.44,TRADE
QLD1,"2005/05/02 11:00:00",5491.31833,16.44,TRADE
QLD1,"2005/05/02 11:30:00",5472.075,16.43,TRADE
QLD1,"2005/05/02 12:00:00",5458.37,16.44,TRADE
QLD1,"2005/05/02 12:30:00",5418.48,16.4,TRADE
QLD1,"2005/05/02 13:00:00",5389.25833,16.35,TRADE
QLD1,"2005/05/02 13:30:00",5327.75833,16.32,TRADE
QLD1,"2005/05/02 14:00:00",5303.19,16.3,TRADE
QLD1,"2005/05/02 14:30:00",5311.40333,16.33,TRADE
QLD1,"2005/05/02 15:00:00",5290.005,16.28,TRADE
QLD1,"2005/05/02 15:30:00",5327.74667,16.28,TRADE
QLD1,"2005/05/02 16:00:00",5347.985,16.3,TRADE
QLD1,"2005/05/02 16:30:00",5436.685,16.35,TRADE
QLD1,"2005/05/02 17:00:00",5604.35833,16.64,TRADE
QLD1,"2005/05/02 17:30:00",5882.68833,20.91,TRADE
QLD1,"2005/05/02 18:00:00",6295.24333,32.67,TRADE
QLD1,"2005/05/02 18:30:00",6252.325,33.95,TRADE
QLD1,"2005/05/02 19:00:00",6121.18833,26.98,TRADE
QLD1,"2005/05/02 19:30:00",5925.32833,21.62,TRADE
QLD1,"2005/05/02 20:00:00",5809.19,19.42,TRADE
QLD1,"2005/05/02 20:30:00",5652.365,18.19,TRADE
QLD1,"2005/05/02 21:00:00",5475.11,16.42,TRADE
QLD1,"2005/05/02 21:30:00",5446.945,16.41,TRADE
QLD1,"2005/05/02 22:00:00",5273.84667,14.55,TRADE
QLD1,"2005/05/02 22:30:00",5269.03833,16.98,TRADE
QLD1,"2005/05/02 23:00:00",5174.945,16.43,TRADE
QLD1,"2005/05/02 23:30:00",5133.24667,18.27,TRADE
QLD1,"2005/05/03 00:00:00",4976.71167,16.89,TRADE
QLD1,"2005/05/03 00:30:00",4814.77833,16.43,TRADE
QLD1,"2005/05/03 01:00:00",4677.64667,16.35,TRADE
QLD1,"2005/05/03 01:30:00",4560.77,16.34,TRADE
QLD1,"2005/05/03 02:00:00",4450.47333,14.66,TRADE
QLD1,"2005/05/03 02:30:00",4372.61833,12.43,TRADE
QLD1,"2005/05/03 03:00:00",4323.66833,12.65,TRADE
QLD1,"2005/05/03 03:30:00",4252.83833,11.72,TRADE
QLD1,"2005/05/03 04:00:00",4241.07,12.26,TRADE
QLD1,"2005/05/03 04:30:00",4293.81167,12.68,TRADE
QLD1,"2005/05/03 05:00:00",4361.86333,12.83,TRADE
QLD1,"2005/05/03 05:30:00",4538.93167,12.8,TRADE
QLD1,"2005/05/03 06:00:00",4734.61167,14.15,TRADE
QLD1,"2005/05/03 06:30:00",5132.53,16.05,TRADE
QLD1,"2005/05/03 07:00:00",5568.48833,17.65,TRADE
QLD1,"2005/05/03 07:30:00",5995.32333,19,TRADE
QLD1,"2005/05/03 08:00:00",6224.08,23.21,TRADE
QLD1,"2005/05/03 08:30:00",6271.52,21.31,TRADE
QLD1,"2005/05/03 09:00:00",6176.97333,18.48,TRADE
QLD1,"2005/05/03 09:30:00",6129.59333,17.47,TRADE
QLD1,"2005/05/03 10:00:00",6166.10167,18.31,TRADE
QLD1,"2005/05/03 10:30:00",6131.28333,16.35,TRADE
QLD1,"2005/05/03 11:00:00",6101.13,16.4,TRADE
QLD1,"2005/05/03 11:30:00",6141.715,16.44,TRADE
QLD1,"2005/05/03 12:00:00",6128.645,16.41,TRADE
QLD1,"2005/05/03 12:30:00",6097.71833,16.31,TRADE
QLD1,"2005/05/03 13:00:00",6107.00667,16.31,TRADE
QLD1,"2005/05/03 13:30:00",6090.465,16.01,TRADE
QLD1,"2005/05/03 14:00:00",6125.25333,16.28,TRADE
QLD1,"2005/05/03 14:30:00",6118.47333,16.3,TRADE
QLD1,"2005/05/03 15:00:00",6065.30667,16.24,TRADE
QLD1,"2005/05/03 15:30:00",6048.41,15.8,TRADE
QLD1,"2005/05/03 16:00:00",6057.31333,17.83,TRADE
QLD1,"2005/05/03 16:30:00",6152.09333,18.77,TRADE
QLD1,"2005/05/03 17:00:00",6222.095,18.78,TRADE
QLD1,"2005/05/03 17:30:00",6427.58667,24.14,TRADE
QLD1,"2005/05/03 18:00:00",6780.11833,36.61,TRADE
QLD1,"2005/05/03 18:30:00",6782.815,36.94,TRADE
QLD1,"2005/05/03 19:00:00",6605.87,30.41,TRADE
QLD1,"2005/05/03 19:30:00",6349.99833,22.44,TRADE
QLD1,"2005/05/03 20:00:00",6191.31,18.8,TRADE
QLD1,"2005/05/03 20:30:00",6080.47,19.18,TRADE
QLD1,"2005/05/03 21:00:00",5924.21833,17.45,TRADE
QLD1,"2005/05/03 21:30:00",5848.12,16.54,TRADE
QLD1,"2005/05/03 22:00:00",5693.27167,15.7,TRADE
QLD1,"2005/05/03 22:30:00",5645.6,17.57,TRADE
QLD1,"2005/05/03 23:00:00",5513.15333,17.66,TRADE
QLD1,"2005/05/03 23:30:00",5426.695,22.02,TRADE
QLD1,"2005/05/04 00:00:00",5235.00833,18.91,TRADE
QLD1,"2005/05/04 00:30:00",5016.685,16.97,TRADE
QLD1,"2005/05/04 01:00:00",4866.97833,16.43,TRADE
QLD1,"2005/05/04 01:30:00",4698.91,16.31,TRADE
QLD1,"2005/05/04 02:00:00",4569.20333,15.17,TRADE
QLD1,"2005/05/04 02:30:00",4512.78333,13.77,TRADE
QLD1,"2005/05/04 03:00:00",4400.48167,12.37,TRADE
QLD1,"2005/05/04 03:30:00",4372.87333,12.07,TRADE
QLD1,"2005/05/04 04:00:00",4378.62167,12.4,TRADE
QLD1,"2005/05/04 04:30:00",4383.56333,12.55,TRADE
QLD1,"2005/05/04 05:00:00",4460.11167,11.72,TRADE
QLD1,"2005/05/04 05:30:00",4635.28667,13.8,TRADE
QLD1,"2005/05/04 06:00:00",4829.445,14.97,TRADE
QLD1,"2005/05/04 06:30:00",5219.36167,16.11,TRADE
QLD1,"2005/05/04 07:00:00",5623.60833,16.22,TRADE
QLD1,"2005/05/04 07:30:00",6027.515,16.69,TRADE
QLD1,"2005/05/04 08:00:00",6261.64167,18.61,TRADE
QLD1,"2005/05/04 08:30:00",6210.84,16.44,TRADE
QLD1,"2005/05/04 09:00:00",6126.31667,16.42,TRADE
QLD1,"2005/05/04 09:30:00",6129.82,16.44,TRADE
QLD1,"2005/05/04 10:00:00",6106.365,16.38,TRADE
QLD1,"2005/05/04 10:30:00",6078.755,16.36,TRADE
QLD1,"2005/05/04 11:00:00",6075.64333,16.33,TRADE
QLD1,"2005/05/04 11:30:00",6136.88333,16.35,TRADE
QLD1,"2005/05/04 12:00:00",6105.82333,16.44,TRADE
QLD1,"2005/05/04 12:30:00",6071.09833,16.39,TRADE
QLD1,"2005/05/04 13:00:00",6036.83167,16.06,TRADE
QLD1,"2005/05/04 13:30:00",6049.30833,16.28,TRADE
QLD1,"2005/05/04 14:00:00",6043.11833,16.22,TRADE
QLD1,"2005/05/04 14:30:00",6031.23333,16.08,TRADE
QLD1,"2005/05/04 15:00:00",6013.07167,16.05,TRADE
QLD1,"2005/05/04 15:30:00",5992.59167,16.26,TRADE
QLD1,"2005/05/04 16:00:00",6044.335,16.44,TRADE
QLD1,"2005/05/04 16:30:00",6118.97833,16.83,TRADE
QLD1,"2005/05/04 17:00:00",6221.99167,16.37,TRADE
QLD1,"2005/05/04 17:30:00",6383.52167,19.23,TRADE
QLD1,"2005/05/04 18:00:00",6813.85167,34.69,TRADE
QLD1,"2005/05/04 18:30:00",6781.26,31.96,TRADE
QLD1,"2005/05/04 19:00:00",6647.55333,25.73,TRADE
QLD1,"2005/05/04 19:30:00",6391.6,19.74,TRADE
QLD1,"2005/05/04 20:00:00",6217.38167,17.22,TRADE
QLD1,"2005/05/04 20:30:00",6044.69167,16.7,TRADE
QLD1,"2005/05/04 21:00:00",5861.82,15.41,TRADE
QLD1,"2005/05/04 21:30:00",5862.97833,15.14,TRADE
QLD1,"2005/05/04 22:00:00",5745.88833,14.69,TRADE
QLD1,"2005/05/04 22:30:00",5682.415,16.73,TRADE
QLD1,"2005/05/04 23:00:00",5567.23667,16.56,TRADE
QLD1,"2005/05/04 23:30:00",5471.97667,18.46,TRADE
QLD1,"2005/05/05 00:00:00",5301.50833,16.98,TRADE
QLD1,"2005/05/05 00:30:00",5020.84833,16.44,TRADE
QLD1,"2005/05/05 01:00:00",4881.82333,16.42,TRADE
QLD1,"2005/05/05 01:30:00",4704.615,16.28,TRADE
QLD1,"2005/05/05 02:00:00",4562.26167,14.53,TRADE
QLD1,"2005/05/05 02:30:00",4488.26,12.49,TRADE
QLD1,"2005/05/05 03:00:00",4443.695,12.79,TRADE
QLD1,"2005/05/05 03:30:00",4387.34167,12.67,TRADE
QLD1,"2005/05/05 04:00:00",4377.535,12.83,TRADE
QLD1,"2005/05/05 04:30:00",4431.67833,13.19,TRADE
QLD1,"2005/05/05 05:00:00",4511.09667,13.36,TRADE
QLD1,"2005/05/05 05:30:00",4639.09833,13.5,TRADE
QLD1,"2005/05/05 06:00:00",4853.15833,14.96,TRADE
QLD1,"2005/05/05 06:30:00",5273.64333,16.36,TRADE
QLD1,"2005/05/05 07:00:00",5694.91333,16.81,TRADE
QLD1,"2005/05/05 07:30:00",6069.58167,16.4,TRADE
QLD1,"2005/05/05 08:00:00",6285.5,18.77,TRADE
QLD1,"2005/05/05 08:30:00",6345.72167,16.83,TRADE
QLD1,"2005/05/05 09:00:00",6266.60667,16.44,TRADE
QLD1,"2005/05/05 09:30:00",6245.33,18.62,TRADE
QLD1,"2005/05/05 10:00:00",6178.97,19.04,TRADE
QLD1,"2005/05/05 10:30:00",6143.47167,18.8,TRADE
QLD1,"2005/05/05 11:00:00",6138.86333,19.53,TRADE
QLD1,"2005/05/05 11:30:00",6160.445,23.55,TRADE
QLD1,"2005/05/05 12:00:00",6173.73833,23.11,TRADE
QLD1,"2005/05/05 12:30:00",6152.985,20.74,TRADE
QLD1,"2005/05/05 13:00:00",6120.18167,18.81,TRADE
QLD1,"2005/05/05 13:30:00",6145.055,19.02,TRADE
QLD1,"2005/05/05 14:00:00",6130.475,19.52,TRADE
QLD1,"2005/05/05 14:30:00",6108.795,19.95,TRADE
QLD1,"2005/05/05 15:00:00",6103.49667,20.29,TRADE
QLD1,"2005/05/05 15:30:00",6073.85,18.8,TRADE
QLD1,"2005/05/05 16:00:00",6130.6,20.16,TRADE
QLD1,"2005/05/05 16:30:00",6154.3,19.72,TRADE
QLD1,"2005/05/05 17:00:00",6281.04667,23.02,TRADE
QLD1,"2005/05/05 17:30:00",6411.14167,26.05,TRADE
QLD1,"2005/05/05 18:00:00",6795.47167,42.57,TRADE
QLD1,"2005/05/05 18:30:00",6806.70833,39.17,TRADE
QLD1,"2005/05/05 19:00:00",6622.125,32.25,TRADE
QLD1,"2005/05/05 19:30:00",6429.615,26.73,TRADE
QLD1,"2005/05/05 20:00:00",6268.34333,23.33,TRADE
QLD1,"2005/05/05 20:30:00",6114.16833,22.96,TRADE
QLD1,"2005/05/05 21:00:00",5993.70167,20.92,TRADE
QLD1,"2005/05/05 21:30:00",5818.025,18.14,TRADE
QLD1,"2005/05/05 22:00:00",5726.61833,17.35,TRADE
QLD1,"2005/05/05 22:30:00",5703.515,22.21,TRADE
QLD1,"2005/05/05 23:00:00",5503.83667,19.69,TRADE
QLD1,"2005/05/05 23:30:00",5417.17167,22.83,TRADE
QLD1,"2005/05/06 00:00:00",5213.395,20.22,TRADE
QLD1,"2005/05/06 00:30:00",4967.88167,17.55,TRADE
QLD1,"2005/05/06 01:00:00",4881.535,16.83,TRADE
QLD1,"2005/05/06 01:30:00",4688.71833,16.89,TRADE
QLD1,"2005/05/06 02:00:00",4535.4,16.06,TRADE
QLD1,"2005/05/06 02:30:00",4459.78167,15.06,TRADE
QLD1,"2005/05/06 03:00:00",4425.975,14.17,TRADE
QLD1,"2005/05/06 03:30:00",4392.29833,13.03,TRADE
QLD1,"2005/05/06 04:00:00",4370.49667,13.19,TRADE
QLD1,"2005/05/06 04:30:00",4391.14667,13.15,TRADE
QLD1,"2005/05/06 05:00:00",4463.50667,11.91,TRADE
QLD1,"2005/05/06 05:30:00",4652,14.42,TRADE
QLD1,"2005/05/06 06:00:00",4905.00833,15.69,TRADE
QLD1,"2005/05/06 06:30:00",5287.48167,16.73,TRADE
QLD1,"2005/05/06 07:00:00",5720.83,18.58,TRADE
QLD1,"2005/05/06 07:30:00",6082.015,20.1,TRADE
QLD1,"2005/05/06 08:00:00",6311.32667,23.2,TRADE
QLD1,"2005/05/06 08:30:00",6318.83333,22.17,TRADE
QLD1,"2005/05/06 09:00:00",6221.32333,18.8,TRADE
QLD1,"2005/05/06 09:30:00",6219.60667,20.44,TRADE
QLD1,"2005/05/06 10:00:00",6176.89167,19.02,TRADE
QLD1,"2005/05/06 10:30:00",6146.39,17.98,TRADE
QLD1,"2005/05/06 11:00:00",6149.48833,17.62,TRADE
QLD1,"2005/05/06 11:30:00",6123.82,18.38,TRADE
QLD1,"2005/05/06 12:00:00",6119.24167,22.87,TRADE
QLD1,"2005/05/06 12:30:00",6117.575,22.96,TRADE
QLD1,"2005/05/06 13:00:00",6144.08333,22.28,TRADE
QLD1,"2005/05/06 13:30:00",6098.45833,19.66,TRADE
QLD1,"2005/05/06 14:00:00",6104.925,19.75,TRADE
QLD1,"2005/05/06 14:30:00",6068.64667,18.8,TRADE
QLD1,"2005/05/06 15:00:00",6021.49333,18.05,TRADE
QLD1,"2005/05/06 15:30:00",6059.27,18.07,TRADE
QLD1,"2005/05/06 16:00:00",6057.975,18,TRADE
QLD1,"2005/05/06 16:30:00",6077.845,18.02,TRADE
QLD1,"2005/05/06 17:00:00",6151.435,18.28,TRADE
QLD1,"2005/05/06 17:30:00",6358.62833,23.24,TRADE
QLD1,"2005/05/06 18:00:00",6555.815,37.21,TRADE
QLD1,"2005/05/06 18:30:00",6493.34333,31.95,TRADE
QLD1,"2005/05/06 19:00:00",6356.22,26.5,TRADE
QLD1,"2005/05/06 19:30:00",6125.92,22.17,TRADE
QLD1,"2005/05/06 20:00:00",6021.775,20.75,TRADE
QLD1,"2005/05/06 20:30:00",5853.455,18.91,TRADE
QLD1,"2005/05/06 21:00:00",5760.55167,18.43,TRADE
QLD1,"2005/05/06 21:30:00",5691.67833,19.97,TRADE
QLD1,"2005/05/06 22:00:00",5636.36333,17.96,TRADE
QLD1,"2005/05/06 22:30:00",5599.515,27.87,TRADE
QLD1,"2005/05/06 23:00:00",5456.40167,25.07,TRADE
QLD1,"2005/05/06 23:30:00",5437.80667,31.54,TRADE
QLD1,"2005/05/07 00:00:00",5209.465,24.99,TRADE
QLD1,"2005/05/07 00:30:00",5002.25167,21.52,TRADE
QLD1,"2005/05/07 01:00:00",4866.865,18.71,TRADE
QLD1,"2005/05/07 01:30:00",4703.83667,18.1,TRADE
QLD1,"2005/05/07 02:00:00",4533.26667,16.44,TRADE
QLD1,"2005/05/07 02:30:00",4358.39167,16.3,TRADE
QLD1,"2005/05/07 03:00:00",4308.89167,15.06,TRADE
QLD1,"2005/05/07 03:30:00",4257.255,13.59,TRADE
QLD1,"2005/05/07 04:00:00",4238.51333,13.15,TRADE
QLD1,"2005/05/07 04:30:00",4224.23667,12.93,TRADE
QLD1,"2005/05/07 05:00:00",4256.13833,13.16,TRADE
QLD1,"2005/05/07 05:30:00",4332.94667,13.46,TRADE
QLD1,"2005/05/07 06:00:00",4438.79667,14.91,TRADE
QLD1,"2005/05/07 06:30:00",4558.58833,15.98,TRADE
QLD1,"2005/05/07 07:00:00",4738.45,15.53,TRADE
QLD1,"2005/05/07 07:30:00",5029.30333,15.96,TRADE
QLD1,"2005/05/07 08:00:00",5337.49667,17.4,TRADE
QLD1,"2005/05/07 08:30:00",5554.09667,19.25,TRADE
QLD1,"2005/05/07 09:00:00",5746.7,23.59,TRADE
QLD1,"2005/05/07 09:30:00",5784.03167,23.85,TRADE
QLD1,"2005/05/07 10:00:00",5826.16,24.29,TRADE
QLD1,"2005/05/07 10:30:00",5812.28833,24.2,TRADE
QLD1,"2005/05/07 11:00:00",5744.11333,23.77,TRADE
QLD1,"2005/05/07 11:30:00",5691.41333,23,TRADE
QLD1,"2005/05/07 12:00:00",5617.96333,21.16,TRADE
QLD1,"2005/05/07 12:30:00",5639.52833,20.26,TRADE
QLD1,"2005/05/07 13:00:00",5585.29,18.8,TRADE
QLD1,"2005/05/07 13:30:00",5528.66,18.62,TRADE
QLD1,"2005/05/07 14:00:00",5498.69667,18.51,TRADE
QLD1,"2005/05/07 14:30:00",5424.19167,18.79,TRADE
QLD1,"2005/05/07 15:00:00",5423.03167,22.13,TRADE
QLD1,"2005/05/07 15:30:00",5432.3,21.95,TRADE
QLD1,"2005/05/07 16:00:00",5413.76167,20.75,TRADE
QLD1,"2005/05/07 16:30:00",5494.04333,22.97,TRADE
QLD1,"2005/05/07 17:00:00",5562.31,26.67,TRADE
QLD1,"2005/05/07 17:30:00",5783.83667,30.96,TRADE
QLD1,"2005/05/07 18:00:00",6127.53333,53.27,TRADE
QLD1,"2005/05/07 18:30:00",6118.25667,54.94,TRADE
QLD1,"2005/05/07 19:00:00",6021.42,40.82,TRADE
QLD1,"2005/05/07 19:30:00",5835.12833,34.31,TRADE
QLD1,"2005/05/07 20:00:00",5741.84,27.91,TRADE
QLD1,"2005/05/07 20:30:00",5538.32833,24.84,TRADE
QLD1,"2005/05/07 21:00:00",5459.12167,23.33,TRADE
QLD1,"2005/05/07 21:30:00",5419.14167,23.81,TRADE
QLD1,"2005/05/07 22:00:00",5302.84167,23.17,TRADE
QLD1,"2005/05/07 22:30:00",5260.59333,23.88,TRADE
QLD1,"2005/05/07 23:00:00",5222.12667,23.85,TRADE
QLD1,"2005/05/07 23:30:00",5240.49333,25.93,TRADE
QLD1,"2005/05/08 00:00:00",5097.15167,24.09,TRADE
QLD1,"2005/05/08 00:30:00",4846.17333,19.64,TRADE
QLD1,"2005/05/08 01:00:00",4733.24167,18.77,TRADE
QLD1,"2005/05/08 01:30:00",4577.39833,18.14,TRADE
QLD1,"2005/05/08 02:00:00",4453.48333,16.95,TRADE
QLD1,"2005/05/08 02:30:00",4341.06167,16.37,TRADE
QLD1,"2005/05/08 03:00:00",4254.90833,16.25,TRADE
QLD1,"2005/05/08 03:30:00",4233.24,16.36,TRADE
QLD1,"2005/05/08 04:00:00",4197.85167,16.27,TRADE
QLD1,"2005/05/08 04:30:00",4187.24667,15.81,TRADE
QLD1,"2005/05/08 05:00:00",4206.525,15.9,TRADE
QLD1,"2005/05/08 05:30:00",4269.85833,16.16,TRADE
QLD1,"2005/05/08 06:00:00",4322.9,14.47,TRADE
QLD1,"2005/05/08 06:30:00",4403.835,14.25,TRADE
QLD1,"2005/05/08 07:00:00",4502.83833,14.82,TRADE
QLD1,"2005/05/08 07:30:00",4740.80167,15.3,TRADE
QLD1,"2005/05/08 08:00:00",4991.335,16.18,TRADE
QLD1,"2005/05/08 08:30:00",5195.165,17.1,TRADE
QLD1,"2005/05/08 09:00:00",5342.96333,18.44,TRADE
QLD1,"2005/05/08 09:30:00",5464.81833,18.73,TRADE
QLD1,"2005/05/08 10:00:00",5507.22,18.8,TRADE
QLD1,"2005/05/08 10:30:00",5485.24,18.51,TRADE
QLD1,"2005/05/08 11:00:00",5472.97667,18.5,TRADE
QLD1,"2005/05/08 11:30:00",5491.47833,18.55,TRADE
QLD1,"2005/05/08 12:00:00",5467.22,18.43,TRADE
QLD1,"2005/05/08 12:30:00",5358.31667,17.75,TRADE
QLD1,"2005/05/08 13:00:00",5298.35,17.04,TRADE
QLD1,"2005/05/08 13:30:00",5288.725,16.97,TRADE
QLD1,"2005/05/08 14:00:00",5227.97167,16.49,TRADE
QLD1,"2005/05/08 14:30:00",5206.55,16.44,TRADE
QLD1,"2005/05/08 15:00:00",5227.57,16.44,TRADE
QLD1,"2005/05/08 15:30:00",5221.05667,16.44,TRADE
QLD1,"2005/05/08 16:00:00",5243.95667,16.44,TRADE
QLD1,"2005/05/08 16:30:00",5314.30667,16.82,TRADE
QLD1,"2005/05/08 17:00:00",5427.98833,17.69,TRADE
QLD1,"2005/05/08 17:30:00",5760.445,21.85,TRADE
QLD1,"2005/05/08 18:00:00",6117.07,33.09,TRADE
QLD1,"2005/05/08 18:30:00",6159.95167,35.81,TRADE
QLD1,"2005/05/08 19:00:00",6047.78667,34.01,TRADE
QLD1,"2005/05/08 19:30:00",5894.215,27.65,TRADE
QLD1,"2005/05/08 20:00:00",5784.64333,23.67,TRADE
QLD1,"2005/05/08 20:30:00",5639.005,22.53,TRADE
QLD1,"2005/05/08 21:00:00",5496.77167,21.85,TRADE
QLD1,"2005/05/08 21:30:00",5417.70167,21.9,TRADE
QLD1,"2005/05/08 22:00:00",5234.49167,18.68,TRADE
QLD1,"2005/05/08 22:30:00",5330.41167,21.48,TRADE
QLD1,"2005/05/08 23:00:00",5195.26167,19.28,TRADE
QLD1,"2005/05/08 23:30:00",5178.56,20.78,TRADE
QLD1,"2005/05/09 00:00:00",4980.48167,18.33,TRADE
QLD1,"2005/05/09 00:30:00",4807.98,17.27,TRADE
QLD1,"2005/05/09 01:00:00",4678.375,16.43,TRADE
QLD1,"2005/05/09 01:30:00",4576.005,16.52,TRADE
QLD1,"2005/05/09 02:00:00",4453.66167,16.38,TRADE
QLD1,"2005/05/09 02:30:00",4315.55667,16.13,TRADE
QLD1,"2005/05/09 03:00:00",4323.96167,16.34,TRADE
QLD1,"2005/05/09 03:30:00",4243.90333,15.7,TRADE
QLD1,"2005/05/09 04:00:00",4190.07167,15.34,TRADE
QLD1,"2005/05/09 04:30:00",4265.15,16,TRADE
QLD1,"2005/05/09 05:00:00",4351.31833,16.23,TRADE
QLD1,"2005/05/09 05:30:00",4546.68667,16,TRADE
QLD1,"2005/05/09 06:00:00",4734.86833,16.22,TRADE
QLD1,"2005/05/09 06:30:00",5143.81667,17.55,TRADE
QLD1,"2005/05/09 07:00:00",5583.14167,20.9,TRADE
QLD1,"2005/05/09 07:30:00",6054.77833,21.44,TRADE
QLD1,"2005/05/09 08:00:00",6308.50833,22.33,TRADE
QLD1,"2005/05/09 08:30:00",6314.9,22.08,TRADE
QLD1,"2005/05/09 09:00:00",6295.96167,22.35,TRADE
QLD1,"2005/05/09 09:30:00",6301.55167,22.35,TRADE
QLD1,"2005/05/09 10:00:00",6275.61833,19.98,TRADE
QLD1,"2005/05/09 10:30:00",6264.34833,19.53,TRADE
QLD1,"2005/05/09 11:00:00",6256.67,18.79,TRADE
QLD1,"2005/05/09 11:30:00",6241.09,18.61,TRADE
QLD1,"2005/05/09 12:00:00",6214.18833,18.61,TRADE
QLD1,"2005/05/09 12:30:00",6203.02167,18.52,TRADE
QLD1,"2005/05/09 13:00:00",6158.46167,18.67,TRADE
QLD1,"2005/05/09 13:30:00",6159.52333,18.63,TRADE
QLD1,"2005/05/09 14:00:00",6179.39667,18.77,TRADE
QLD1,"2005/05/09 14:30:00",6171.75333,18.57,TRADE
QLD1,"2005/05/09 15:00:00",6094.76833,16.44,TRADE
QLD1,"2005/05/09 15:30:00",6071.10167,16.44,TRADE
QLD1,"2005/05/09 16:00:00",6135.82167,18.42,TRADE
QLD1,"2005/05/09 16:30:00",6205.87833,18.46,TRADE
QLD1,"2005/05/09 17:00:00",6305.835,18.25,TRADE
QLD1,"2005/05/09 17:30:00",6488.44167,20.53,TRADE
QLD1,"2005/05/09 18:00:00",6897.29,30.39,TRADE
QLD1,"2005/05/09 18:30:00",6857.22667,32.24,TRADE
QLD1,"2005/05/09 19:00:00",6658.215,24.56,TRADE
QLD1,"2005/05/09 19:30:00",6372.69333,22.75,TRADE
QLD1,"2005/05/09 20:00:00",6197.36,21,TRADE
QLD1,"2005/05/09 20:30:00",6004.875,18.63,TRADE
QLD1,"2005/05/09 21:00:00",5837.865,17.14,TRADE
QLD1,"2005/05/09 21:30:00",5799.745,16.43,TRADE
QLD1,"2005/05/09 22:00:00",5624.74833,16.09,TRADE
QLD1,"2005/05/09 22:30:00",5591.56667,18.87,TRADE
QLD1,"2005/05/09 23:00:00",5468.35833,17.33,TRADE
QLD1,"2005/05/09 23:30:00",5411.55667,18.69,TRADE
QLD1,"2005/05/10 00:00:00",5197.565,17.31,TRADE
QLD1,"2005/05/10 00:30:00",4960.27667,16.44,TRADE
QLD1,"2005/05/10 01:00:00",4831.05167,16.32,TRADE
QLD1,"2005/05/10 01:30:00",4679.47667,16.23,TRADE
QLD1,"2005/05/10 02:00:00",4528.29333,15.63,TRADE
QLD1,"2005/05/10 02:30:00",4420.32333,14.37,TRADE
QLD1,"2005/05/10 03:00:00",4355.01167,14.22,TRADE
QLD1,"2005/05/10 03:30:00",4310.09,13.28,TRADE
QLD1,"2005/05/10 04:00:00",4317,13.2,TRADE
QLD1,"2005/05/10 04:30:00",4350.36833,13.03,TRADE
QLD1,"2005/05/10 05:00:00",4382.64667,12.91,TRADE
QLD1,"2005/05/10 05:30:00",4561.82833,12.64,TRADE
QLD1,"2005/05/10 06:00:00",4746.78667,14.77,TRADE
QLD1,"2005/05/10 06:30:00",5156.57333,16.51,TRADE
QLD1,"2005/05/10 07:00:00",5598.95167,19.34,TRADE
QLD1,"2005/05/10 07:30:00",6018.01667,19.08,TRADE
QLD1,"2005/05/10 08:00:00",6241.33,23.25,TRADE
QLD1,"2005/05/10 08:30:00",6258.51333,22.42,TRADE
QLD1,"2005/05/10 09:00:00",6194.29833,21.13,TRADE
QLD1,"2005/05/10 09:30:00",6204.7,22.33,TRADE
QLD1,"2005/05/10 10:00:00",6194.45167,21.46,TRADE
QLD1,"2005/05/10 10:30:00",6099.505,19.4,TRADE
QLD1,"2005/05/10 11:00:00",6137.20333,18.41,TRADE
QLD1,"2005/05/10 11:30:00",6134.26667,18.38,TRADE
QLD1,"2005/05/10 12:00:00",6154.02833,18.7,TRADE
QLD1,"2005/05/10 12:30:00",6095.32,18.66,TRADE
QLD1,"2005/05/10 13:00:00",6053.75667,16.68,TRADE
QLD1,"2005/05/10 13:30:00",6098.47,18.58,TRADE
QLD1,"2005/05/10 14:00:00",6059.19667,18.77,TRADE
QLD1,"2005/05/10 14:30:00",6052.69333,18.67,TRADE
QLD1,"2005/05/10 15:00:00",5969.275,17.26,TRADE
QLD1,"2005/05/10 15:30:00",5988.62,16.95,TRADE
QLD1,"2005/05/10 16:00:00",6032.51333,17.33,TRADE
QLD1,"2005/05/10 16:30:00",6085.41,18.21,TRADE
QLD1,"2005/05/10 17:00:00",6191.08667,20.12,TRADE
QLD1,"2005/05/10 17:30:00",6487.88667,23.83,TRADE
QLD1,"2005/05/10 18:00:00",6821.815,32.76,TRADE
QLD1,"2005/05/10 18:30:00",6704.88167,31.73,TRADE
QLD1,"2005/05/10 19:00:00",6565.14667,24.11,TRADE
QLD1,"2005/05/10 19:30:00",6332.85833,22.7,TRADE
QLD1,"2005/05/10 20:00:00",6134.53667,18.47,TRADE
QLD1,"2005/05/10 20:30:00",5999.06333,17.51,TRADE
QLD1,"2005/05/10 21:00:00",5842.78,16.65,TRADE
QLD1,"2005/05/10 21:30:00",5728.51167,16.4,TRADE
QLD1,"2005/05/10 22:00:00",5574.94167,15.62,TRADE
QLD1,"2005/05/10 22:30:00",5506.18667,16.51,TRADE
QLD1,"2005/05/10 23:00:00",5364.84333,16.38,TRADE
QLD1,"2005/05/10 23:30:00",5308.58667,16.77,TRADE
QLD1,"2005/05/11 00:00:00",5093.72167,16.33,TRADE
QLD1,"2005/05/11 00:30:00",4862.40833,16.23,TRADE
QLD1,"2005/05/11 01:00:00",4691.62667,15.99,TRADE
QLD1,"2005/05/11 01:30:00",4559.93833,15.97,TRADE
QLD1,"2005/05/11 02:00:00",4409.99,15.04,TRADE
QLD1,"2005/05/11 02:30:00",4352.36,13.2,TRADE
QLD1,"2005/05/11 03:00:00",4277.84667,11.92,TRADE
QLD1,"2005/05/11 03:30:00",4248.80833,12.52,TRADE
QLD1,"2005/05/11 04:00:00",4234.93833,12.51,TRADE
QLD1,"2005/05/11 04:30:00",4290.795,12.41,TRADE
QLD1,"2005/05/11 05:00:00",4375.69333,12.81,TRADE
QLD1,"2005/05/11 05:30:00",4569.16667,12.58,TRADE
QLD1,"2005/05/11 06:00:00",4755.19833,14.01,TRADE
QLD1,"2005/05/11 06:30:00",5203.30833,15.78,TRADE
QLD1,"2005/05/11 07:00:00",5655.035,17.79,TRADE
QLD1,"2005/05/11 07:30:00",6097.665,17.83,TRADE
QLD1,"2005/05/11 08:00:00",6326.84167,18.74,TRADE
QLD1,"2005/05/11 08:30:00",6360.79833,18.68,TRADE
QLD1,"2005/05/11 09:00:00",6225.19833,18.01,TRADE
QLD1,"2005/05/11 09:30:00",6205.195,18.13,TRADE
QLD1,"2005/05/11 10:00:00",6145.91167,17.99,TRADE
QLD1,"2005/05/11 10:30:00",6088.96667,17.71,TRADE
QLD1,"2005/05/11 11:00:00",6114.08667,17.83,TRADE
QLD1,"2005/05/11 11:30:00",6104.17,17.86,TRADE
QLD1,"2005/05/11 12:00:00",6072.03667,17.85,TRADE
QLD1,"2005/05/11 12:30:00",6025.21667,18.38,TRADE
QLD1,"2005/05/11 13:00:00",6008.00667,18,TRADE
QLD1,"2005/05/11 13:30:00",5995.3,16.91,TRADE
QLD1,"2005/05/11 14:00:00",5981.92833,16.7,TRADE
QLD1,"2005/05/11 14:30:00",5976.98167,18.49,TRADE
QLD1,"2005/05/11 15:00:00",5933.31333,17.29,TRADE
QLD1,"2005/05/11 15:30:00",5944.58167,18.21,TRADE
QLD1,"2005/05/11 16:00:00",6018.45167,18.17,TRADE
QLD1,"2005/05/11 16:30:00",6129.28667,19.12,TRADE
QLD1,"2005/05/11 17:00:00",6312.23,21.02,TRADE
QLD1,"2005/05/11 17:30:00",6632.03167,25.37,TRADE
QLD1,"2005/05/11 18:00:00",6862.86,36.18,TRADE
QLD1,"2005/05/11 18:30:00",6742.86167,37.08,TRADE
QLD1,"2005/05/11 19:00:00",6536.565,30.14,TRADE
QLD1,"2005/05/11 19:30:00",6313.58,25.1,TRADE
QLD1,"2005/05/11 20:00:00",6138.80833,22.98,TRADE
QLD1,"2005/05/11 20:30:00",5985.63333,20.14,TRADE
QLD1,"2005/05/11 21:00:00",5822.625,18.76,TRADE
QLD1,"2005/05/11 21:30:00",5696.72667,18.2,TRADE
QLD1,"2005/05/11 22:00:00",5517.9,16.82,TRADE
QLD1,"2005/05/11 22:30:00",5492.39167,20.04,TRADE
QLD1,"2005/05/11 23:00:00",5359.165,19.03,TRADE
QLD1,"2005/05/11 23:30:00",5322.82167,22,TRADE
QLD1,"2005/05/12 00:00:00",5089.59333,18.77,TRADE
QLD1,"2005/05/12 00:30:00",4868.22333,17.71,TRADE
QLD1,"2005/05/12 01:00:00",4740.89667,16.8,TRADE
QLD1,"2005/05/12 01:30:00",4582.17167,16.95,TRADE
QLD1,"2005/05/12 02:00:00",4388.70833,16.35,TRADE
QLD1,"2005/05/12 02:30:00",4287.74833,15.23,TRADE
QLD1,"2005/05/12 03:00:00",4229.89167,14.35,TRADE
QLD1,"2005/05/12 03:30:00",4202.33167,14.25,TRADE
QLD1,"2005/05/12 04:00:00",4196.255,13.95,TRADE
QLD1,"2005/05/12 04:30:00",4219.72167,13.85,TRADE
QLD1,"2005/05/12 05:00:00",4296.02167,14.29,TRADE
QLD1,"2005/05/12 05:30:00",4485.99,14.65,TRADE
QLD1,"2005/05/12 06:00:00",4709.33,16.29,TRADE
QLD1,"2005/05/12 06:30:00",5150.74667,17.64,TRADE
QLD1,"2005/05/12 07:00:00",5612.71333,21.5,TRADE
QLD1,"2005/05/12 07:30:00",6053.30833,20.34,TRADE
QLD1,"2005/05/12 08:00:00",6295.72,25.02,TRADE
QLD1,"2005/05/12 08:30:00",6318.59167,24.21,TRADE
QLD1,"2005/05/12 09:00:00",6263.595,21.14,TRADE
QLD1,"2005/05/12 09:30:00",6192.74333,19.63,TRADE
QLD1,"2005/05/12 10:00:00",6195.22833,19.11,TRADE
QLD1,"2005/05/12 10:30:00",6166.82833,18.8,TRADE
QLD1,"2005/05/12 11:00:00",6139.25667,18.8,TRADE
QLD1,"2005/05/12 11:30:00",6089.69833,18.8,TRADE
QLD1,"2005/05/12 12:00:00",6109.97167,18.8,TRADE
QLD1,"2005/05/12 12:30:00",6055.445,18.75,TRADE
QLD1,"2005/05/12 13:00:00",6009.04833,18.64,TRADE
QLD1,"2005/05/12 13:30:00",5990.97167,18.54,TRADE
QLD1,"2005/05/12 14:00:00",5966.44167,18.3,TRADE
QLD1,"2005/05/12 14:30:00",5972.03333,18.26,TRADE
QLD1,"2005/05/12 15:00:00",5912.19833,17.67,TRADE
QLD1,"2005/05/12 15:30:00",5913.34167,17.07,TRADE
QLD1,"2005/05/12 16:00:00",5966.90667,18.37,TRADE
QLD1,"2005/05/12 16:30:00",6017.92167,18.72,TRADE
QLD1,"2005/05/12 17:00:00",6068.06833,19.78,TRADE
QLD1,"2005/05/12 17:30:00",6351.74,23.42,TRADE
QLD1,"2005/05/12 18:00:00",6723.33833,35.27,TRADE
QLD1,"2005/05/12 18:30:00",6739.11833,36.97,TRADE
QLD1,"2005/05/12 19:00:00",6615.17,26.17,TRADE
QLD1,"2005/05/12 19:30:00",6438.315,23.64,TRADE
QLD1,"2005/05/12 20:00:00",6264.89167,20.05,TRADE
QLD1,"2005/05/12 20:30:00",6091.23,18.8,TRADE
QLD1,"2005/05/12 21:00:00",5938.49,18.63,TRADE
QLD1,"2005/05/12 21:30:00",5761.66167,17.21,TRADE
QLD1,"2005/05/12 22:00:00",5592.235,16.42,TRADE
QLD1,"2005/05/12 22:30:00",5524.15667,18.38,TRADE
QLD1,"2005/05/12 23:00:00",5373.54333,17.75,TRADE
QLD1,"2005/05/12 23:30:00",5311.60333,18.95,TRADE
QLD1,"2005/05/13 00:00:00",5071.325,17.54,TRADE
QLD1,"2005/05/13 00:30:00",4866.51667,16.71,TRADE
QLD1,"2005/05/13 01:00:00",4674.98667,16.35,TRADE
QLD1,"2005/05/13 01:30:00",4522.03667,16.36,TRADE
QLD1,"2005/05/13 02:00:00",4388.37333,15.76,TRADE
QLD1,"2005/05/13 02:30:00",4281.22333,14.44,TRADE
QLD1,"2005/05/13 03:00:00",4185.53833,13.01,TRADE
QLD1,"2005/05/13 03:30:00",4159.80167,12.94,TRADE
QLD1,"2005/05/13 04:00:00",4173.385,13.06,TRADE
QLD1,"2005/05/13 04:30:00",4217.35333,13.22,TRADE
QLD1,"2005/05/13 05:00:00",4234.645,13.24,TRADE
QLD1,"2005/05/13 05:30:00",4438.72667,14.7,TRADE
QLD1,"2005/05/13 06:00:00",4655.62667,15.95,TRADE
QLD1,"2005/05/13 06:30:00",5098.55833,17.37,TRADE
QLD1,"2005/05/13 07:00:00",5525.34333,18.54,TRADE
QLD1,"2005/05/13 07:30:00",5965.21667,19.71,TRADE
QLD1,"2005/05/13 08:00:00",6202.40167,23.92,TRADE
QLD1,"2005/05/13 08:30:00",6180.85167,23.13,TRADE
QLD1,"2005/05/13 09:00:00",6115.95,21,TRADE
QLD1,"2005/05/13 09:30:00",6074.625,22.43,TRADE
QLD1,"2005/05/13 10:00:00",6031.525,22.54,TRADE
QLD1,"2005/05/13 10:30:00",5963.67167,21.58,TRADE
QLD1,"2005/05/13 11:00:00",5959.06667,20.14,TRADE
QLD1,"2005/05/13 11:30:00",5946.95,19.38,TRADE
QLD1,"2005/05/13 12:00:00",5960.725,19.47,TRADE
QLD1,"2005/05/13 12:30:00",5906.07,18.88,TRADE
QLD1,"2005/05/13 13:00:00",5865.60833,18.72,TRADE
QLD1,"2005/05/13 13:30:00",5831.80667,18.67,TRADE
QLD1,"2005/05/13 14:00:00",5826.255,18.47,TRADE
QLD1,"2005/05/13 14:30:00",5852.42667,17.89,TRADE
QLD1,"2005/05/13 15:00:00",5791.17667,17.04,TRADE
QLD1,"2005/05/13 15:30:00",5748.065,16.66,TRADE
QLD1,"2005/05/13 16:00:00",5811.505,17.53,TRADE
QLD1,"2005/05/13 16:30:00",5907.695,18.35,TRADE
QLD1,"2005/05/13 17:00:00",6023.60333,18.69,TRADE
QLD1,"2005/05/13 17:30:00",6241.52833,21.8,TRADE
QLD1,"2005/05/13 18:00:00",6454.33167,24.57,TRADE
QLD1,"2005/05/13 18:30:00",6348.22167,23.62,TRADE
QLD1,"2005/05/13 19:00:00",6211.095,21.26,TRADE
QLD1,"2005/05/13 19:30:00",5986.97333,18.05,TRADE
QLD1,"2005/05/13 20:00:00",5816.94,16.92,TRADE
QLD1,"2005/05/13 20:30:00",5692.95833,16.59,TRADE
QLD1,"2005/05/13 21:00:00",5528.21667,16.02,TRADE
QLD1,"2005/05/13 21:30:00",5498.125,16.08,TRADE
QLD1,"2005/05/13 22:00:00",5410.26167,16.12,TRADE
QLD1,"2005/05/13 22:30:00",5394.19833,19.39,TRADE
QLD1,"2005/05/13 23:00:00",5336.01833,18.07,TRADE
QLD1,"2005/05/13 23:30:00",5356.59667,22.28,TRADE
QLD1,"2005/05/14 00:00:00",5134.54333,19.32,TRADE
QLD1,"2005/05/14 00:30:00",4864.125,18.01,TRADE
QLD1,"2005/05/14 01:00:00",4708.41333,16.66,TRADE
QLD1,"2005/05/14 01:30:00",4567.19667,16.85,TRADE
QLD1,"2005/05/14 02:00:00",4395.24667,16.46,TRADE
QLD1,"2005/05/14 02:30:00",4270.62333,16.05,TRADE
QLD1,"2005/05/14 03:00:00",4180.21333,15.71,TRADE
QLD1,"2005/05/14 03:30:00",4112.75667,14.01,TRADE
QLD1,"2005/05/14 04:00:00",4075.90667,13.69,TRADE
QLD1,"2005/05/14 04:30:00",4057.22667,13.15,TRADE
QLD1,"2005/05/14 05:00:00",4106.75833,13.77,TRADE
QLD1,"2005/05/14 05:30:00",4181.825,12.67,TRADE
QLD1,"2005/05/14 06:00:00",4247.87833,13.48,TRADE
QLD1,"2005/05/14 06:30:00",4396.645,12.96,TRADE
QLD1,"2005/05/14 07:00:00",4537.59,13.39,TRADE
QLD1,"2005/05/14 07:30:00",4842.07833,14.26,TRADE
QLD1,"2005/05/14 08:00:00",5144.46667,16.19,TRADE
QLD1,"2005/05/14 08:30:00",5376.11833,17.02,TRADE
QLD1,"2005/05/14 09:00:00",5516.80333,17.47,TRADE
QLD1,"2005/05/14 09:30:00",5572.72833,18.8,TRADE
QLD1,"2005/05/14 10:00:00",5567.46833,18.8,TRADE
QLD1,"2005/05/14 10:30:00",5535.98,18.61,TRADE
QLD1,"2005/05/14 11:00:00",5499.97333,18.44,TRADE
QLD1,"2005/05/14 11:30:00",5431.46333,17.52,TRADE
QLD1,"2005/05/14 12:00:00",5378.17833,17.19,TRADE
QLD1,"2005/05/14 12:30:00",5310.815,16.47,TRADE
QLD1,"2005/05/14 13:00:00",5273.27833,16.52,TRADE
QLD1,"2005/05/14 13:30:00",5239.36667,16.42,TRADE
QLD1,"2005/05/14 14:00:00",5187.92833,16.33,TRADE
QLD1,"2005/05/14 14:30:00",5156.185,16.16,TRADE
QLD1,"2005/05/14 15:00:00",5144.63667,16.33,TRADE
QLD1,"2005/05/14 15:30:00",5155.12167,16.21,TRADE
QLD1,"2005/05/14 16:00:00",5145.98333,16.33,TRADE
QLD1,"2005/05/14 16:30:00",5211.46333,16.44,TRADE
QLD1,"2005/05/14 17:00:00",5330.295,17.23,TRADE
QLD1,"2005/05/14 17:30:00",5635.51667,20.68,TRADE
QLD1,"2005/05/14 18:00:00",6042.13,32.07,TRADE
QLD1,"2005/05/14 18:30:00",6038.87167,31.26,TRADE
QLD1,"2005/05/14 19:00:00",5898.57833,24.21,TRADE
QLD1,"2005/05/14 19:30:00",5707.83833,22.74,TRADE
QLD1,"2005/05/14 20:00:00",5626.95167,20.05,TRADE
QLD1,"2005/05/14 20:30:00",5433.35,19.35,TRADE
QLD1,"2005/05/14 21:00:00",5280.52167,18.39,TRADE
QLD1,"2005/05/14 21:30:00",5185.015,17.95,TRADE
QLD1,"2005/05/14 22:00:00",5108.85,17.44,TRADE
QLD1,"2005/05/14 22:30:00",5081.25,18.05,TRADE
QLD1,"2005/05/14 23:00:00",5061.44667,18.42,TRADE
QLD1,"2005/05/14 23:30:00",5111.20833,22.53,TRADE
QLD1,"2005/05/15 00:00:00",4967.95,20.71,TRADE
QLD1,"2005/05/15 00:30:00",4707.18833,18.05,TRADE
QLD1,"2005/05/15 01:00:00",4628.47667,17.22,TRADE
QLD1,"2005/05/15 01:30:00",4439.785,16.65,TRADE
QLD1,"2005/05/15 02:00:00",4295.12333,16.29,TRADE
QLD1,"2005/05/15 02:30:00",4123.32,15.8,TRADE
QLD1,"2005/05/15 03:00:00",4073.85,15.33,TRADE
QLD1,"2005/05/15 03:30:00",4006.60667,13.79,TRADE
QLD1,"2005/05/15 04:00:00",3987.50333,13.47,TRADE
QLD1,"2005/05/15 04:30:00",4025.50333,15.65,TRADE
QLD1,"2005/05/15 05:00:00",4013.74,15.93,TRADE
QLD1,"2005/05/15 05:30:00",4057.265,16.19,TRADE
QLD1,"2005/05/15 06:00:00",4107.98333,14.33,TRADE
QLD1,"2005/05/15 06:30:00",4164.18167,13.78,TRADE
QLD1,"2005/05/15 07:00:00",4279.99167,13.76,TRADE
QLD1,"2005/05/15 07:30:00",4489.17833,13.48,TRADE
QLD1,"2005/05/15 08:00:00",4733.15333,15.34,TRADE
QLD1,"2005/05/15 08:30:00",4943.10667,16.54,TRADE
QLD1,"2005/05/15 09:00:00",5094.66667,17.14,TRADE
QLD1,"2005/05/15 09:30:00",5158.82667,17.64,TRADE
QLD1,"2005/05/15 10:00:00",5197.58,18.12,TRADE
QLD1,"2005/05/15 10:30:00",5229.35833,18.27,TRADE
QLD1,"2005/05/15 11:00:00",5195.035,17.94,TRADE
QLD1,"2005/05/15 11:30:00",5177.58667,17.89,TRADE
QLD1,"2005/05/15 12:00:00",5103.81667,17.55,TRADE
QLD1,"2005/05/15 12:30:00",5110.21667,17.6,TRADE
QLD1,"2005/05/15 13:00:00",5085.97167,17.32,TRADE
QLD1,"2005/05/15 13:30:00",5024.095,16.82,TRADE
QLD1,"2005/05/15 14:00:00",4988.91333,16.53,TRADE
QLD1,"2005/05/15 14:30:00",4954.19,16.45,TRADE
QLD1,"2005/05/15 15:00:00",4988.36833,16.47,TRADE
QLD1,"2005/05/15 15:30:00",4986.18,16.46,TRADE
QLD1,"2005/05/15 16:00:00",5037.85667,16.71,TRADE
QLD1,"2005/05/15 16:30:00",5110.1,17.06,TRADE
QLD1,"2005/05/15 17:00:00",5255.66667,19.66,TRADE
QLD1,"2005/05/15 17:30:00",5609.65167,24.7,TRADE
QLD1,"2005/05/15 18:00:00",6061.78333,44.74,TRADE
QLD1,"2005/05/15 18:30:00",6133.86,41.9,TRADE
QLD1,"2005/05/15 19:00:00",5984.905,33.36,TRADE
QLD1,"2005/05/15 19:30:00",5847.93667,23.89,TRADE
QLD1,"2005/05/15 20:00:00",5728.55333,22.38,TRADE
QLD1,"2005/05/15 20:30:00",5516.845,20.11,TRADE
QLD1,"2005/05/15 21:00:00",5359.29,18.46,TRADE
QLD1,"2005/05/15 21:30:00",5270.72,18.04,TRADE
QLD1,"2005/05/15 22:00:00",5105.68833,16.91,TRADE
QLD1,"2005/05/15 22:30:00",5063.33833,17.66,TRADE
QLD1,"2005/05/15 23:00:00",4972.04167,17.58,TRADE
QLD1,"2005/05/15 23:30:00",4952.595,18.55,TRADE
QLD1,"2005/05/16 00:00:00",4813.31333,17.8,TRADE
QLD1,"2005/05/16 00:30:00",4663.01833,16.98,TRADE
QLD1,"2005/05/16 01:00:00",4472.53333,16.14,TRADE
QLD1,"2005/05/16 01:30:00",4372.69667,16.04,TRADE
QLD1,"2005/05/16 02:00:00",4271.60333,16.09,TRADE
QLD1,"2005/05/16 02:30:00",4178.55,15.7,TRADE
QLD1,"2005/05/16 03:00:00",4114.815,16.08,TRADE
QLD1,"2005/05/16 03:30:00",4069.34833,15.24,TRADE
QLD1,"2005/05/16 04:00:00",4056.44833,15.02,TRADE
QLD1,"2005/05/16 04:30:00",4107.75333,15.42,TRADE
QLD1,"2005/05/16 05:00:00",4152.93667,15.92,TRADE
QLD1,"2005/05/16 05:30:00",4347.12,15.89,TRADE
QLD1,"2005/05/16 06:00:00",4567.995,16.44,TRADE
QLD1,"2005/05/16 06:30:00",5025.78667,17.34,TRADE
QLD1,"2005/05/16 07:00:00",5466.85333,21.28,TRADE
QLD1,"2005/05/16 07:30:00",5950.33667,22.72,TRADE
QLD1,"2005/05/16 08:00:00",6145.39167,27.31,TRADE
QLD1,"2005/05/16 08:30:00",6181.62833,24.73,TRADE
QLD1,"2005/05/16 09:00:00",6074.14333,22.82,TRADE
QLD1,"2005/05/16 09:30:00",6019.20167,22.8,TRADE
QLD1,"2005/05/16 10:00:00",6029.87167,23.07,TRADE
QLD1,"2005/05/16 10:30:00",5979.96667,21.17,TRADE
QLD1,"2005/05/16 11:00:00",5950.40667,20.8,TRADE
QLD1,"2005/05/16 11:30:00",5960.29833,23.07,TRADE
QLD1,"2005/05/16 12:00:00",5969.015,23.66,TRADE
QLD1,"2005/05/16 12:30:00",5972.55333,24.7,TRADE
QLD1,"2005/05/16 13:00:00",5974.965,25.75,TRADE
QLD1,"2005/05/16 13:30:00",5971.03,26.35,TRADE
QLD1,"2005/05/16 14:00:00",5963.88833,25.15,TRADE
QLD1,"2005/05/16 14:30:00",5949.93,21.07,TRADE
QLD1,"2005/05/16 15:00:00",5937.26333,22.36,TRADE
QLD1,"2005/05/16 15:30:00",5934.77167,22.18,TRADE
QLD1,"2005/05/16 16:00:00",5958.95333,22.5,TRADE
QLD1,"2005/05/16 16:30:00",5997.71333,21.76,TRADE
QLD1,"2005/05/16 17:00:00",6115.48333,25.29,TRADE
QLD1,"2005/05/16 17:30:00",6348.87667,31.75,TRADE
QLD1,"2005/05/16 18:00:00",6704.68833,49.68,TRADE
QLD1,"2005/05/16 18:30:00",6666.98,40.95,TRADE
QLD1,"2005/05/16 19:00:00",6465.44667,35.46,TRADE
QLD1,"2005/05/16 19:30:00",6269.35667,34.25,TRADE
QLD1,"2005/05/16 20:00:00",6139.86167,27.2,TRADE
QLD1,"2005/05/16 20:30:00",5916.42167,19.5,TRADE
QLD1,"2005/05/16 21:00:00",5809.835,18.8,TRADE
QLD1,"2005/05/16 21:30:00",5709,18.8,TRADE
QLD1,"2005/05/16 22:00:00",5511.27167,18.03,TRADE
QLD1,"2005/05/16 22:30:00",5495.59,21.38,TRADE
QLD1,"2005/05/16 23:00:00",5397.96667,21.86,TRADE
QLD1,"2005/05/16 23:30:00",5337.97333,22.48,TRADE
QLD1,"2005/05/17 00:00:00",5111.545,19.91,TRADE
QLD1,"2005/05/17 00:30:00",4883.91833,17.58,TRADE
QLD1,"2005/05/17 01:00:00",4713.90833,16.44,TRADE
QLD1,"2005/05/17 01:30:00",4543.73167,16.44,TRADE
QLD1,"2005/05/17 02:00:00",4380.97,16.38,TRADE
QLD1,"2005/05/17 02:30:00",4266.37333,16.05,TRADE
QLD1,"2005/05/17 03:00:00",4224.13167,16.28,TRADE
QLD1,"2005/05/17 03:30:00",4193.65333,16.25,TRADE
QLD1,"2005/05/17 04:00:00",4162.09333,16.08,TRADE
QLD1,"2005/05/17 04:30:00",4215.25167,14.96,TRADE
QLD1,"2005/05/17 05:00:00",4288.81,15.67,TRADE
QLD1,"2005/05/17 05:30:00",4485.81667,16.09,TRADE
QLD1,"2005/05/17 06:00:00",4750.77833,16.64,TRADE
QLD1,"2005/05/17 06:30:00",5226.91,18.11,TRADE
QLD1,"2005/05/17 07:00:00",5633.19833,24,TRADE
QLD1,"2005/05/17 07:30:00",6037.23833,23.25,TRADE
QLD1,"2005/05/17 08:00:00",6210.37333,24.71,TRADE
QLD1,"2005/05/17 08:30:00",6171.335,20.81,TRADE
QLD1,"2005/05/17 09:00:00",6077.31167,18.8,TRADE
QLD1,"2005/05/17 09:30:00",6060.60167,18.97,TRADE
QLD1,"2005/05/17 10:00:00",5982.96333,18.8,TRADE
QLD1,"2005/05/17 10:30:00",5909.655,18.8,TRADE
QLD1,"2005/05/17 11:00:00",5902.15333,18.8,TRADE
QLD1,"2005/05/17 11:30:00",5883.72667,18.8,TRADE
QLD1,"2005/05/17 12:00:00",5918.94667,18.8,TRADE
QLD1,"2005/05/17 12:30:00",5924.265,26.58,TRADE
QLD1,"2005/05/17 13:00:00",5921.57833,27.2,TRADE
QLD1,"2005/05/17 13:30:00",5931.175,26.67,TRADE
QLD1,"2005/05/17 14:00:00",5919.93333,26.13,TRADE
QLD1,"2005/05/17 14:30:00",5913.09667,26.32,TRADE
QLD1,"2005/05/17 15:00:00",5866.06167,24.79,TRADE
QLD1,"2005/05/17 15:30:00",5890.815,25.36,TRADE
QLD1,"2005/05/17 16:00:00",5930.00833,26.32,TRADE
QLD1,"2005/05/17 16:30:00",5980.43833,29.28,TRADE
QLD1,"2005/05/17 17:00:00",6094.02667,36.06,TRADE
QLD1,"2005/05/17 17:30:00",6341.635,42.81,TRADE
QLD1,"2005/05/17 18:00:00",6653.65833,64.41,TRADE
QLD1,"2005/05/17 18:30:00",6644.33167,59.11,TRADE
QLD1,"2005/05/17 19:00:00",6493.19833,46.52,TRADE
QLD1,"2005/05/17 19:30:00",6302.14833,38.32,TRADE
QLD1,"2005/05/17 20:00:00",6153.06,31.74,TRADE
QLD1,"2005/05/17 20:30:00",6013.20833,25.49,TRADE
QLD1,"2005/05/17 21:00:00",5887.12833,25.19,TRADE
QLD1,"2005/05/17 21:30:00",5823.88,22.35,TRADE
QLD1,"2005/05/17 22:00:00",5635.38333,22.16,TRADE
QLD1,"2005/05/17 22:30:00",5526.22333,29.62,TRADE
QLD1,"2005/05/17 23:00:00",5430.73833,24.73,TRADE
QLD1,"2005/05/17 23:30:00",5375.04,29.88,TRADE
QLD1,"2005/05/18 00:00:00",5156.06833,24.26,TRADE
QLD1,"2005/05/18 00:30:00",4978.42167,22.12,TRADE
QLD1,"2005/05/18 01:00:00",4775.415,17.69,TRADE
QLD1,"2005/05/18 01:30:00",4630.86333,18.36,TRADE
QLD1,"2005/05/18 02:00:00",4445.98667,16.54,TRADE
QLD1,"2005/05/18 02:30:00",4326.25,17.25,TRADE
QLD1,"2005/05/18 03:00:00",4281.4,16.5,TRADE
QLD1,"2005/05/18 03:30:00",4198.40167,16.29,TRADE
QLD1,"2005/05/18 04:00:00",4201.585,15.72,TRADE
QLD1,"2005/05/18 04:30:00",4236.69833,15.73,TRADE
QLD1,"2005/05/18 05:00:00",4291.21833,16.29,TRADE
QLD1,"2005/05/18 05:30:00",4515.045,16.14,TRADE
QLD1,"2005/05/18 06:00:00",4761.55333,16.92,TRADE
QLD1,"2005/05/18 06:30:00",5226.88667,20.38,TRADE
QLD1,"2005/05/18 07:00:00",5670.13,27.68,TRADE
QLD1,"2005/05/18 07:30:00",6091.20167,24.41,TRADE
QLD1,"2005/05/18 08:00:00",6264.91833,33.1,TRADE
QLD1,"2005/05/18 08:30:00",6223.44333,25.45,TRADE
QLD1,"2005/05/18 09:00:00",6111.37167,23.27,TRADE
QLD1,"2005/05/18 09:30:00",6058.24167,22.97,TRADE
QLD1,"2005/05/18 10:00:00",5985.16833,22.23,TRADE
QLD1,"2005/05/18 10:30:00",5939.745,18.86,TRADE
QLD1,"2005/05/18 11:00:00",5915.94833,22.12,TRADE
QLD1,"2005/05/18 11:30:00",5884.58833,21.99,TRADE
QLD1,"2005/05/18 12:00:00",5886.54833,21.66,TRADE
QLD1,"2005/05/18 12:30:00",5885.13667,20.9,TRADE
QLD1,"2005/05/18 13:00:00",5882.39833,21.97,TRADE
QLD1,"2005/05/18 13:30:00",5904.63,22.15,TRADE
QLD1,"2005/05/18 14:00:00",5900.72667,23,TRADE
QLD1,"2005/05/18 14:30:00",5861.515,23.18,TRADE
QLD1,"2005/05/18 15:00:00",5830.7,23.31,TRADE
QLD1,"2005/05/18 15:30:00",5832.62833,22.74,TRADE
QLD1,"2005/05/18 16:00:00",5896.71667,20.96,TRADE
QLD1,"2005/05/18 16:30:00",5963.30167,23.11,TRADE
QLD1,"2005/05/18 17:00:00",6109.535,23.79,TRADE
QLD1,"2005/05/18 17:30:00",6378.495,33.2,TRADE
QLD1,"2005/05/18 18:00:00",6651.43333,53.01,TRADE
QLD1,"2005/05/18 18:30:00",6637.64667,39.47,TRADE
QLD1,"2005/05/18 19:00:00",6483.25833,36.52,TRADE
QLD1,"2005/05/18 19:30:00",6291.47167,34.78,TRADE
QLD1,"2005/05/18 20:00:00",6144.39167,25.74,TRADE
QLD1,"2005/05/18 20:30:00",5982.53333,20.34,TRADE
QLD1,"2005/05/18 21:00:00",5842.21833,18.8,TRADE
QLD1,"2005/05/18 21:30:00",5724.14667,18.74,TRADE
QLD1,"2005/05/18 22:00:00",5618.01167,17.49,TRADE
QLD1,"2005/05/18 22:30:00",5532.91667,19.8,TRADE
QLD1,"2005/05/18 23:00:00",5405.66167,18.7,TRADE
QLD1,"2005/05/18 23:30:00",5308.26333,21.84,TRADE
QLD1,"2005/05/19 00:00:00",5137.65833,18.69,TRADE
QLD1,"2005/05/19 00:30:00",4915.05,16.7,TRADE
QLD1,"2005/05/19 01:00:00",4761.49333,16.44,TRADE
QLD1,"2005/05/19 01:30:00",4574.67667,16.44,TRADE
QLD1,"2005/05/19 02:00:00",4441.67333,16.43,TRADE
QLD1,"2005/05/19 02:30:00",4351.80167,16.48,TRADE
QLD1,"2005/05/19 03:00:00",4284.89667,16.41,TRADE
QLD1,"2005/05/19 03:30:00",4236.89167,16.19,TRADE
QLD1,"2005/05/19 04:00:00",4184.92167,15.48,TRADE
QLD1,"2005/05/19 04:30:00",4200.82167,15.47,TRADE
QLD1,"2005/05/19 05:00:00",4305.95833,14.8,TRADE
QLD1,"2005/05/19 05:30:00",4483.88,15.93,TRADE
QLD1,"2005/05/19 06:00:00",4731.16667,17.28,TRADE
QLD1,"2005/05/19 06:30:00",5182.84333,21.06,TRADE
QLD1,"2005/05/19 07:00:00",5621.61667,30.37,TRADE
QLD1,"2005/05/19 07:30:00",6104.71833,30.99,TRADE
QLD1,"2005/05/19 08:00:00",6221.48,35.27,TRADE
QLD1,"2005/05/19 08:30:00",6210.115,33.26,TRADE
QLD1,"2005/05/19 09:00:00",6112.21,28.22,TRADE
QLD1,"2005/05/19 09:30:00",6049.84333,27.73,TRADE
QLD1,"2005/05/19 10:00:00",5987.145,26.06,TRADE
QLD1,"2005/05/19 10:30:00",5938.35,22.69,TRADE
QLD1,"2005/05/19 11:00:00",5856.00833,21.17,TRADE
QLD1,"2005/05/19 11:30:00",5839.90667,22.5,TRADE
QLD1,"2005/05/19 12:00:00",5820.79167,22.15,TRADE
QLD1,"2005/05/19 12:30:00",5778.21833,20.17,TRADE
QLD1,"2005/05/19 13:00:00",5799.41,20.24,TRADE
QLD1,"2005/05/19 13:30:00",5793.24667,21.03,TRADE
QLD1,"2005/05/19 14:00:00",5814.245,20.66,TRADE
QLD1,"2005/05/19 14:30:00",5804.68,19.03,TRADE
QLD1,"2005/05/19 15:00:00",5763.37833,18.5,TRADE
QLD1,"2005/05/19 15:30:00",5773.11667,18.73,TRADE
QLD1,"2005/05/19 16:00:00",5827.44667,18.8,TRADE
QLD1,"2005/05/19 16:30:00",5897.86833,18.69,TRADE
QLD1,"2005/05/19 17:00:00",6062.98667,20.02,TRADE
QLD1,"2005/05/19 17:30:00",6421.315,27.69,TRADE
QLD1,"2005/05/19 18:00:00",6685.325,38.93,TRADE
QLD1,"2005/05/19 18:30:00",6669.41833,36.86,TRADE
QLD1,"2005/05/19 19:00:00",6566.675,33.62,TRADE
QLD1,"2005/05/19 19:30:00",6384.36,25.5,TRADE
QLD1,"2005/05/19 20:00:00",6280.57667,18.92,TRADE
QLD1,"2005/05/19 20:30:00",6121.26333,18.8,TRADE
QLD1,"2005/05/19 21:00:00",5953.34333,17.95,TRADE
QLD1,"2005/05/19 21:30:00",5728.31167,16.37,TRADE
QLD1,"2005/05/19 22:00:00",5592.14333,16.38,TRADE
QLD1,"2005/05/19 22:30:00",5574.66833,20.05,TRADE
QLD1,"2005/05/19 23:00:00",5483.43667,18.7,TRADE
QLD1,"2005/05/19 23:30:00",5382.42667,22.04,TRADE
QLD1,"2005/05/20 00:00:00",5166.47667,18.2,TRADE
QLD1,"2005/05/20 00:30:00",4934.48833,16.64,TRADE
QLD1,"2005/05/20 01:00:00",4746.33333,16.33,TRADE
QLD1,"2005/05/20 01:30:00",4598.595,16.33,TRADE
QLD1,"2005/05/20 02:00:00",4398.525,15.2,TRADE
QLD1,"2005/05/20 02:30:00",4267.24,13.92,TRADE
QLD1,"2005/05/20 03:00:00",4205.995,14.33,TRADE
QLD1,"2005/05/20 03:30:00",4199.10833,13.91,TRADE
QLD1,"2005/05/20 04:00:00",4181.52667,13.97,TRADE
QLD1,"2005/05/20 04:30:00",4262.3,13.77,TRADE
QLD1,"2005/05/20 05:00:00",4326.50833,14.13,TRADE
QLD1,"2005/05/20 05:30:00",4513.215,13.96,TRADE
QLD1,"2005/05/20 06:00:00",4745.56667,15.54,TRADE
QLD1,"2005/05/20 06:30:00",5242.21,18.88,TRADE
QLD1,"2005/05/20 07:00:00",5695.60667,22.66,TRADE
QLD1,"2005/05/20 07:30:00",6164.21167,23.2,TRADE
QLD1,"2005/05/20 08:00:00",6301.47,31.25,TRADE
QLD1,"2005/05/20 08:30:00",6222.675,25.63,TRADE
QLD1,"2005/05/20 09:00:00",6136.02833,18.91,TRADE
QLD1,"2005/05/20 09:30:00",6107.42,18.8,TRADE
QLD1,"2005/05/20 10:00:00",6007.98333,18.8,TRADE
QLD1,"2005/05/20 10:30:00",5957.48667,18.8,TRADE
QLD1,"2005/05/20 11:00:00",5923.105,18.75,TRADE
QLD1,"2005/05/20 11:30:00",5849.82667,17.37,TRADE
QLD1,"2005/05/20 12:00:00",5829.33333,16.77,TRADE
QLD1,"2005/05/20 12:30:00",5786.85833,17.63,TRADE
QLD1,"2005/05/20 13:00:00",5777.36667,18.06,TRADE
QLD1,"2005/05/20 13:30:00",5752.355,18.67,TRADE
QLD1,"2005/05/20 14:00:00",5738.78167,17.63,TRADE
QLD1,"2005/05/20 14:30:00",5725.44333,17.59,TRADE
QLD1,"2005/05/20 15:00:00",5681.81833,17.9,TRADE
QLD1,"2005/05/20 15:30:00",5691.68333,16.79,TRADE
QLD1,"2005/05/20 16:00:00",5702.46167,17.55,TRADE
QLD1,"2005/05/20 16:30:00",5806.215,18.68,TRADE
QLD1,"2005/05/20 17:00:00",5920.81333,18.74,TRADE
QLD1,"2005/05/20 17:30:00",6218.75667,22.02,TRADE
QLD1,"2005/05/20 18:00:00",6497.99833,34.23,TRADE
QLD1,"2005/05/20 18:30:00",6414.95,31.04,TRADE
QLD1,"2005/05/20 19:00:00",6343.94833,26.12,TRADE
QLD1,"2005/05/20 19:30:00",6125.17,18.8,TRADE
QLD1,"2005/05/20 20:00:00",5977.205,18.78,TRADE
QLD1,"2005/05/20 20:30:00",5850.37667,18.8,TRADE
QLD1,"2005/05/20 21:00:00",5699.355,18.72,TRADE
QLD1,"2005/05/20 21:30:00",5685.47833,18.04,TRADE
QLD1,"2005/05/20 22:00:00",5553.61333,16.42,TRADE
QLD1,"2005/05/20 22:30:00",5550.19,20.49,TRADE
QLD1,"2005/05/20 23:00:00",5483.39667,18.39,TRADE
QLD1,"2005/05/20 23:30:00",5409.345,20.86,TRADE
QLD1,"2005/05/21 00:00:00",5152.81333,17.99,TRADE
QLD1,"2005/05/21 00:30:00",4954.32,18.27,TRADE
QLD1,"2005/05/21 01:00:00",4784.99,16.49,TRADE
QLD1,"2005/05/21 01:30:00",4597.64167,16.34,TRADE
QLD1,"2005/05/21 02:00:00",4436.41167,15.76,TRADE
QLD1,"2005/05/21 02:30:00",4312.63,14.73,TRADE
QLD1,"2005/05/21 03:00:00",4214.55,14.31,TRADE
QLD1,"2005/05/21 03:30:00",4148.765,13.44,TRADE
QLD1,"2005/05/21 04:00:00",4104.71667,12.52,TRADE
QLD1,"2005/05/21 04:30:00",4095.005,11.95,TRADE
QLD1,"2005/05/21 05:00:00",4136.40333,13.17,TRADE
QLD1,"2005/05/21 05:30:00",4261.38833,13.72,TRADE
QLD1,"2005/05/21 06:00:00",4325.99167,13.79,TRADE
QLD1,"2005/05/21 06:30:00",4508.42333,14.92,TRADE
QLD1,"2005/05/21 07:00:00",4687.92667,15.18,TRADE
QLD1,"2005/05/21 07:30:00",5019.925,15.06,TRADE
QLD1,"2005/05/21 08:00:00",5314.615,16.74,TRADE
QLD1,"2005/05/21 08:30:00",5542.77667,18.8,TRADE
QLD1,"2005/05/21 09:00:00",5588.95833,18.8,TRADE
QLD1,"2005/05/21 09:30:00",5648.33333,20.43,TRADE
QLD1,"2005/05/21 10:00:00",5627.65167,20.21,TRADE
QLD1,"2005/05/21 10:30:00",5577.65333,19.4,TRADE
QLD1,"2005/05/21 11:00:00",5531.47333,18.8,TRADE
QLD1,"2005/05/21 11:30:00",5447.00667,17.77,TRADE
QLD1,"2005/05/21 12:00:00",5379.30333,16.87,TRADE
QLD1,"2005/05/21 12:30:00",5323.195,16.55,TRADE
QLD1,"2005/05/21 13:00:00",5270.47,16.44,TRADE
QLD1,"2005/05/21 13:30:00",5194.53667,16.4,TRADE
QLD1,"2005/05/21 14:00:00",5127.92,16.27,TRADE
QLD1,"2005/05/21 14:30:00",5079.01,15.99,TRADE
QLD1,"2005/05/21 15:00:00",5060.85167,16.32,TRADE
QLD1,"2005/05/21 15:30:00",5094.79,16.3,TRADE
QLD1,"2005/05/21 16:00:00",5110.42167,16.29,TRADE
QLD1,"2005/05/21 16:30:00",5161.92,16.43,TRADE
QLD1,"2005/05/21 17:00:00",5390.16833,18.4,TRADE
QLD1,"2005/05/21 17:30:00",5768.61167,27.57,TRADE
QLD1,"2005/05/21 18:00:00",6089.78667,39.97,TRADE
QLD1,"2005/05/21 18:30:00",6090.35833,38.97,TRADE
QLD1,"2005/05/21 19:00:00",5943.34667,34.36,TRADE
QLD1,"2005/05/21 19:30:00",5775.21167,24.29,TRADE
QLD1,"2005/05/21 20:00:00",5648.23167,22.31,TRADE
QLD1,"2005/05/21 20:30:00",5496.55333,23.02,TRADE
QLD1,"2005/05/21 21:00:00",5367.60333,20.43,TRADE
QLD1,"2005/05/21 21:30:00",5284.86833,18.72,TRADE
QLD1,"2005/05/21 22:00:00",5162.21333,17.87,TRADE
QLD1,"2005/05/21 22:30:00",5162.84333,23.5,TRADE
QLD1,"2005/05/21 23:00:00",5168.38,25.81,TRADE
QLD1,"2005/05/21 23:30:00",5182.49667,29.73,TRADE
QLD1,"2005/05/22 00:00:00",4991.82,28.63,TRADE
QLD1,"2005/05/22 00:30:00",4792.245,25.78,TRADE
QLD1,"2005/05/22 01:00:00",4669.94333,20.81,TRADE
QLD1,"2005/05/22 01:30:00",4531.125,21.04,TRADE
QLD1,"2005/05/22 02:00:00",4366.505,18.29,TRADE
QLD1,"2005/05/22 02:30:00",4222.27,16.48,TRADE
QLD1,"2005/05/22 03:00:00",4193.75833,16.49,TRADE
QLD1,"2005/05/22 03:30:00",4084.67833,15.27,TRADE
QLD1,"2005/05/22 04:00:00",4055.45833,15.19,TRADE
QLD1,"2005/05/22 04:30:00",4086.91333,16.55,TRADE
QLD1,"2005/05/22 05:00:00",4070.72333,16.37,TRADE
QLD1,"2005/05/22 05:30:00",4102.76667,16.43,TRADE
QLD1,"2005/05/22 06:00:00",4159.43167,15.78,TRADE
QLD1,"2005/05/22 06:30:00",4237.43,16.28,TRADE
QLD1,"2005/05/22 07:00:00",4339.295,15.03,TRADE
QLD1,"2005/05/22 07:30:00",4532.30833,15.53,TRADE
QLD1,"2005/05/22 08:00:00",4809.11,17.36,TRADE
QLD1,"2005/05/22 08:30:00",5029.90333,18.73,TRADE
QLD1,"2005/05/22 09:00:00",5119.37833,18.8,TRADE
QLD1,"2005/05/22 09:30:00",5230.78167,18.8,TRADE
QLD1,"2005/05/22 10:00:00",5261.66667,18.82,TRADE
QLD1,"2005/05/22 10:30:00",5258.77833,18.77,TRADE
QLD1,"2005/05/22 11:00:00",5233.32167,18.62,TRADE
QLD1,"2005/05/22 11:30:00",5203.985,18.38,TRADE
QLD1,"2005/05/22 12:00:00",5154.97833,18.11,TRADE
QLD1,"2005/05/22 12:30:00",5129.795,17.84,TRADE
QLD1,"2005/05/22 13:00:00",5085.55667,16.94,TRADE
QLD1,"2005/05/22 13:30:00",5034.565,16.44,TRADE
QLD1,"2005/05/22 14:00:00",5006.67,16.73,TRADE
QLD1,"2005/05/22 14:30:00",4954.39833,16.92,TRADE
QLD1,"2005/05/22 15:00:00",4978.77333,16.44,TRADE
QLD1,"2005/05/22 15:30:00",5006.84,16.44,TRADE
QLD1,"2005/05/22 16:00:00",5015.045,16.43,TRADE
QLD1,"2005/05/22 16:30:00",5098.67333,16.66,TRADE
QLD1,"2005/05/22 17:00:00",5291.21333,20.17,TRADE
QLD1,"2005/05/22 17:30:00",5692.23833,30.68,TRADE
QLD1,"2005/05/22 18:00:00",6124.03667,56.89,TRADE
QLD1,"2005/05/22 18:30:00",6157.93,51.04,TRADE
QLD1,"2005/05/22 19:00:00",6020.68833,44.4,TRADE
QLD1,"2005/05/22 19:30:00",5878.62333,32.4,TRADE
QLD1,"2005/05/22 20:00:00",5776.88167,27.63,TRADE
QLD1,"2005/05/22 20:30:00",5586.48,24.43,TRADE
QLD1,"2005/05/22 21:00:00",5510.09333,24.13,TRADE
QLD1,"2005/05/22 21:30:00",5452.645,21.47,TRADE
QLD1,"2005/05/22 22:00:00",5251.965,18.26,TRADE
QLD1,"2005/05/22 22:30:00",5126.32833,19.66,TRADE
QLD1,"2005/05/22 23:00:00",5032.93833,18.58,TRADE
QLD1,"2005/05/22 23:30:00",4990.41667,20.26,TRADE
QLD1,"2005/05/23 00:00:00",4878.295,19.02,TRADE
QLD1,"2005/05/23 00:30:00",4689.65667,17.41,TRADE
QLD1,"2005/05/23 01:00:00",4586.79833,16.9,TRADE
QLD1,"2005/05/23 01:30:00",4463.44167,16.65,TRADE
QLD1,"2005/05/23 02:00:00",4339.67667,16.43,TRADE
QLD1,"2005/05/23 02:30:00",4233.92167,16.41,TRADE
QLD1,"2005/05/23 03:00:00",4151.88667,16.34,TRADE
QLD1,"2005/05/23 03:30:00",4120.455,16.29,TRADE
QLD1,"2005/05/23 04:00:00",4084.32833,16.03,TRADE
QLD1,"2005/05/23 04:30:00",4141.46333,14.88,TRADE
QLD1,"2005/05/23 05:00:00",4213.89,15.44,TRADE
QLD1,"2005/05/23 05:30:00",4417.08333,15.61,TRADE
QLD1,"2005/05/23 06:00:00",4685.60667,16.3,TRADE
QLD1,"2005/05/23 06:30:00",5180.61,18.13,TRADE
QLD1,"2005/05/23 07:00:00",5644.58333,24.27,TRADE
QLD1,"2005/05/23 07:30:00",6178.99,22.5,TRADE
QLD1,"2005/05/23 08:00:00",6378.05333,30.07,TRADE
QLD1,"2005/05/23 08:30:00",6319.01,26.69,TRADE
QLD1,"2005/05/23 09:00:00",6157.25167,23.46,TRADE
QLD1,"2005/05/23 09:30:00",6098.1,23.32,TRADE
QLD1,"2005/05/23 10:00:00",6057.14667,20.86,TRADE
QLD1,"2005/05/23 10:30:00",6009.27,18.94,TRADE
QLD1,"2005/05/23 11:00:00",5945.64833,18.38,TRADE
QLD1,"2005/05/23 11:30:00",5908.13,17.81,TRADE
QLD1,"2005/05/23 12:00:00",5917.35167,18.4,TRADE
QLD1,"2005/05/23 12:30:00",5872.275,18.39,TRADE
QLD1,"2005/05/23 13:00:00",5844.78,17.56,TRADE
QLD1,"2005/05/23 13:30:00",5872.71,17.78,TRADE
QLD1,"2005/05/23 14:00:00",5834.77167,17.15,TRADE
QLD1,"2005/05/23 14:30:00",5811.345,17.32,TRADE
QLD1,"2005/05/23 15:00:00",5812.66167,17.18,TRADE
QLD1,"2005/05/23 15:30:00",5825.265,17.04,TRADE
QLD1,"2005/05/23 16:00:00",5837.50833,16.97,TRADE
QLD1,"2005/05/23 16:30:00",5926.88333,18.21,TRADE
QLD1,"2005/05/23 17:00:00",6080.77333,21.7,TRADE
QLD1,"2005/05/23 17:30:00",6389.70833,33.17,TRADE
QLD1,"2005/05/23 18:00:00",6794.99833,54.68,TRADE
QLD1,"2005/05/23 18:30:00",6689.19833,41.98,TRADE
QLD1,"2005/05/23 19:00:00",6508.99333,37.99,TRADE
QLD1,"2005/05/23 19:30:00",6361.30333,29.74,TRADE
QLD1,"2005/05/23 20:00:00",6188.43667,23.76,TRADE
QLD1,"2005/05/23 20:30:00",6006.555,20.53,TRADE
QLD1,"2005/05/23 21:00:00",5877.87167,19.76,TRADE
QLD1,"2005/05/23 21:30:00",5772.55833,18.6,TRADE
QLD1,"2005/05/23 22:00:00",5584.97333,16.3,TRADE
QLD1,"2005/05/23 22:30:00",5551.22,22.74,TRADE
QLD1,"2005/05/23 23:00:00",5409.64833,19.32,TRADE
QLD1,"2005/05/23 23:30:00",5327.40333,21.33,TRADE
QLD1,"2005/05/24 00:00:00",5175.97833,18.32,TRADE
QLD1,"2005/05/24 00:30:00",4907.04167,16.49,TRADE
QLD1,"2005/05/24 01:00:00",4785.70333,16.44,TRADE
QLD1,"2005/05/24 01:30:00",4627.195,16.38,TRADE
QLD1,"2005/05/24 02:00:00",4441.985,16.32,TRADE
QLD1,"2005/05/24 02:30:00",4345.31833,15.45,TRADE
QLD1,"2005/05/24 03:00:00",4262.89833,14.43,TRADE
QLD1,"2005/05/24 03:30:00",4174.03833,14.43,TRADE
QLD1,"2005/05/24 04:00:00",4183.19333,14.42,TRADE
QLD1,"2005/05/24 04:30:00",4249.345,14.43,TRADE
QLD1,"2005/05/24 05:00:00",4304.32333,14.44,TRADE
QLD1,"2005/05/24 05:30:00",4547.99667,14.51,TRADE
QLD1,"2005/05/24 06:00:00",4767.99833,15.76,TRADE
QLD1,"2005/05/24 06:30:00",5291.19833,18.28,TRADE
QLD1,"2005/05/24 07:00:00",5761.42333,24.16,TRADE
QLD1,"2005/05/24 07:30:00",6192.615,22.33,TRADE
QLD1,"2005/05/24 08:00:00",6364.30333,30.33,TRADE
QLD1,"2005/05/24 08:30:00",6303.96667,25.21,TRADE
QLD1,"2005/05/24 09:00:00",6217.00333,21.89,TRADE
QLD1,"2005/05/24 09:30:00",6176.06,21.69,TRADE
QLD1,"2005/05/24 10:00:00",6054.08333,18.8,TRADE
QLD1,"2005/05/24 10:30:00",6009.03667,22.63,TRADE
QLD1,"2005/05/24 11:00:00",6016.10167,22.69,TRADE
QLD1,"2005/05/24 11:30:00",5998.145,23.03,TRADE
QLD1,"2005/05/24 12:00:00",5978.90833,22.81,TRADE
QLD1,"2005/05/24 12:30:00",5972.18667,22.75,TRADE
QLD1,"2005/05/24 13:00:00",5961.46,19.68,TRADE
QLD1,"2005/05/24 13:30:00",5959.64667,21.31,TRADE
QLD1,"2005/05/24 14:00:00",5956.89167,18.91,TRADE
QLD1,"2005/05/24 14:30:00",5921.13667,18.88,TRADE
QLD1,"2005/05/24 15:00:00",5900.24333,18.84,TRADE
QLD1,"2005/05/24 15:30:00",5915.32,19.61,TRADE
QLD1,"2005/05/24 16:00:00",5912.66333,21.54,TRADE
QLD1,"2005/05/24 16:30:00",5992.20833,21.57,TRADE
QLD1,"2005/05/24 17:00:00",6123.99833,24.71,TRADE
QLD1,"2005/05/24 17:30:00",6435.275,38.32,TRADE
QLD1,"2005/05/24 18:00:00",6744.32833,63.05,TRADE
QLD1,"2005/05/24 18:30:00",6615.77167,52.79,TRADE
QLD1,"2005/05/24 19:00:00",6491.47833,39.84,TRADE
QLD1,"2005/05/24 19:30:00",6324.46,29.7,TRADE
QLD1,"2005/05/24 20:00:00",6167.26833,25.26,TRADE
QLD1,"2005/05/24 20:30:00",5990.40333,23.58,TRADE
QLD1,"2005/05/24 21:00:00",5846.77333,21.29,TRADE
QLD1,"2005/05/24 21:30:00",5707.755,18.01,TRADE
QLD1,"2005/05/24 22:00:00",5566.13167,16.39,TRADE
QLD1,"2005/05/24 22:30:00",5520.52667,21,TRADE
QLD1,"2005/05/24 23:00:00",5402.78,17.81,TRADE
QLD1,"2005/05/24 23:30:00",5317.785,22.56,TRADE
QLD1,"2005/05/25 00:00:00",5149.41667,22.55,TRADE
QLD1,"2005/05/25 00:30:00",4943.73833,19.95,TRADE
QLD1,"2005/05/25 01:00:00",4747.72833,16.44,TRADE
QLD1,"2005/05/25 01:30:00",4574.375,16.34,TRADE
QLD1,"2005/05/25 02:00:00",4409.19667,16.32,TRADE
QLD1,"2005/05/25 02:30:00",4313.33833,15.82,TRADE
QLD1,"2005/05/25 03:00:00",4229.32167,15.73,TRADE
QLD1,"2005/05/25 03:30:00",4215.89,15.14,TRADE
QLD1,"2005/05/25 04:00:00",4175.05333,14.53,TRADE
QLD1,"2005/05/25 04:30:00",4240.12667,14.67,TRADE
QLD1,"2005/05/25 05:00:00",4295.00333,14.7,TRADE
QLD1,"2005/05/25 05:30:00",4481.305,14.52,TRADE
QLD1,"2005/05/25 06:00:00",4736.09,15.74,TRADE
QLD1,"2005/05/25 06:30:00",5232.60667,18.05,TRADE
QLD1,"2005/05/25 07:00:00",5734.82,24.09,TRADE
QLD1,"2005/05/25 07:30:00",6137.26333,21.9,TRADE
QLD1,"2005/05/25 08:00:00",6318.32833,26.63,TRADE
QLD1,"2005/05/25 08:30:00",6265.36,25.32,TRADE
QLD1,"2005/05/25 09:00:00",6173.54,22.56,TRADE
QLD1,"2005/05/25 09:30:00",6091.90167,22.25,TRADE
QLD1,"2005/05/25 10:00:00",6046.335,23.73,TRADE
QLD1,"2005/05/25 10:30:00",5962.285,26.47,TRADE
QLD1,"2005/05/25 11:00:00",5917.83,23.5,TRADE
QLD1,"2005/05/25 11:30:00",5871.37167,23.37,TRADE
QLD1,"2005/05/25 12:00:00",5871.34,23.52,TRADE
QLD1,"2005/05/25 12:30:00",5827.725,23.36,TRADE
QLD1,"2005/05/25 13:00:00",5811.505,22.59,TRADE
QLD1,"2005/05/25 13:30:00",5836.39667,23.16,TRADE
QLD1,"2005/05/25 14:00:00",5825.86833,23.35,TRADE
QLD1,"2005/05/25 14:30:00",5827.305,23.48,TRADE
QLD1,"2005/05/25 15:00:00",5807.53833,23.45,TRADE
QLD1,"2005/05/25 15:30:00",5792.30833,21.61,TRADE
QLD1,"2005/05/25 16:00:00",5834.83167,23.5,TRADE
QLD1,"2005/05/25 16:30:00",5878.065,23.6,TRADE
QLD1,"2005/05/25 17:00:00",5998.66333,29.14,TRADE
QLD1,"2005/05/25 17:30:00",6243.36333,41.29,TRADE
QLD1,"2005/05/25 18:00:00",6549.00333,60.21,TRADE
QLD1,"2005/05/25 18:30:00",6499.69333,56.24,TRADE
QLD1,"2005/05/25 19:00:00",6337.5,44.47,TRADE
QLD1,"2005/05/25 19:30:00",6152.495,36.93,TRADE
QLD1,"2005/05/25 20:00:00",6040.75333,30.23,TRADE
QLD1,"2005/05/25 20:30:00",5845.09,28.17,TRADE
QLD1,"2005/05/25 21:00:00",5669.245,24.24,TRADE
QLD1,"2005/05/25 21:30:00",5672.71833,23.91,TRADE
QLD1,"2005/05/25 22:00:00",5531.67333,20.27,TRADE
QLD1,"2005/05/25 22:30:00",5506.79,30.32,TRADE
QLD1,"2005/05/25 23:00:00",5449.205,29.5,TRADE
QLD1,"2005/05/25 23:30:00",5406.23167,32.8,TRADE
QLD1,"2005/05/26 00:00:00",5235.40833,28.6,TRADE
QLD1,"2005/05/26 00:30:00",4988.08,27.85,TRADE
QLD1,"2005/05/26 01:00:00",4858.96333,26.96,TRADE
QLD1,"2005/05/26 01:30:00",4657.21333,22.13,TRADE
QLD1,"2005/05/26 02:00:00",4523.87,18.18,TRADE
QLD1,"2005/05/26 02:30:00",4427.77,16.89,TRADE
QLD1,"2005/05/26 03:00:00",4306.71167,16.44,TRADE
QLD1,"2005/05/26 03:30:00",4269.35,16.38,TRADE
QLD1,"2005/05/26 04:00:00",4257.18333,16.29,TRADE
QLD1,"2005/05/26 04:30:00",4281.785,16.29,TRADE
QLD1,"2005/05/26 05:00:00",4382.995,16.4,TRADE
QLD1,"2005/05/26 05:30:00",4582.97,17.11,TRADE
QLD1,"2005/05/26 06:00:00",4842.16667,19.02,TRADE
QLD1,"2005/05/26 06:30:00",5281.42,27.42,TRADE
QLD1,"2005/05/26 07:00:00",5705.59,36.18,TRADE
QLD1,"2005/05/26 07:30:00",6128.47167,34.26,TRADE
QLD1,"2005/05/26 08:00:00",6282.38167,38.45,TRADE
QLD1,"2005/05/26 08:30:00",6234.63333,35.63,TRADE
QLD1,"2005/05/26 09:00:00",6116.19833,32.33,TRADE
QLD1,"2005/05/26 09:30:00",6081.51,33.46,TRADE
QLD1,"2005/05/26 10:00:00",5970.05,31.68,TRADE
QLD1,"2005/05/26 10:30:00",5965.04167,32.99,TRADE
QLD1,"2005/05/26 11:00:00",5899.545,27.68,TRADE
QLD1,"2005/05/26 11:30:00",5897.96667,27.06,TRADE
QLD1,"2005/05/26 12:00:00",5869.42,26.72,TRADE
QLD1,"2005/05/26 12:30:00",5844.28833,26.51,TRADE
QLD1,"2005/05/26 13:00:00",5838.415,26.03,TRADE
QLD1,"2005/05/26 13:30:00",5817.65167,26.06,TRADE
QLD1,"2005/05/26 14:00:00",5828.61333,27.59,TRADE
QLD1,"2005/05/26 14:30:00",5808.11,26.72,TRADE
QLD1,"2005/05/26 15:00:00",5807.49333,26.69,TRADE
QLD1,"2005/05/26 15:30:00",5819.15667,26.52,TRADE
QLD1,"2005/05/26 16:00:00",5846.43833,23.49,TRADE
QLD1,"2005/05/26 16:30:00",5894.815,23.4,TRADE
QLD1,"2005/05/26 17:00:00",6026.99167,29.54,TRADE
QLD1,"2005/05/26 17:30:00",6307.20333,39.18,TRADE
QLD1,"2005/05/26 18:00:00",6711.44667,61.41,TRADE
QLD1,"2005/05/26 18:30:00",6648.59333,46.37,TRADE
QLD1,"2005/05/26 19:00:00",6518.935,49.16,TRADE
QLD1,"2005/05/26 19:30:00",6374.45667,40.36,TRADE
QLD1,"2005/05/26 20:00:00",6221.57167,36.01,TRADE
QLD1,"2005/05/26 20:30:00",6123.02,34.97,TRADE
QLD1,"2005/05/26 21:00:00",5970.07667,31.24,TRADE
QLD1,"2005/05/26 21:30:00",5833.88333,28.68,TRADE
QLD1,"2005/05/26 22:00:00",5678.91333,23.93,TRADE
QLD1,"2005/05/26 22:30:00",5634.03333,34.01,TRADE
QLD1,"2005/05/26 23:00:00",5452.39167,28.46,TRADE
QLD1,"2005/05/26 23:30:00",5364.12667,32.25,TRADE
QLD1,"2005/05/27 00:00:00",5154.86333,26.32,TRADE
QLD1,"2005/05/27 00:30:00",4975.52,29.16,TRADE
QLD1,"2005/05/27 01:00:00",4832.85,26.52,TRADE
QLD1,"2005/05/27 01:30:00",4661.615,24.27,TRADE
QLD1,"2005/05/27 02:00:00",4528.59167,20.07,TRADE
QLD1,"2005/05/27 02:30:00",4344.42833,16.8,TRADE
QLD1,"2005/05/27 03:00:00",4311.86,16.38,TRADE
QLD1,"2005/05/27 03:30:00",4313.10833,16.31,TRADE
QLD1,"2005/05/27 04:00:00",4288.10333,16.07,TRADE
QLD1,"2005/05/27 04:30:00",4330.33,15.95,TRADE
QLD1,"2005/05/27 05:00:00",4389.74,16.1,TRADE
QLD1,"2005/05/27 05:30:00",4599.10667,16.39,TRADE
QLD1,"2005/05/27 06:00:00",4925.05167,14.2,TRADE
QLD1,"2005/05/27 06:30:00",5344.22667,18.53,TRADE
QLD1,"2005/05/27 07:00:00",5800.695,31.39,TRADE
QLD1,"2005/05/27 07:30:00",6210.125,31.63,TRADE
QLD1,"2005/05/27 08:00:00",6369.325,38.27,TRADE
QLD1,"2005/05/27 08:30:00",6314.585,36.01,TRADE
QLD1,"2005/05/27 09:00:00",6205.06,29.61,TRADE
QLD1,"2005/05/27 09:30:00",6154.045,29.87,TRADE
QLD1,"2005/05/27 10:00:00",6058.7,24.53,TRADE
QLD1,"2005/05/27 10:30:00",5996.00833,23.5,TRADE
QLD1,"2005/05/27 11:00:00",5928.45,22.03,TRADE
QLD1,"2005/05/27 11:30:00",5868.41667,18.87,TRADE
QLD1,"2005/05/27 12:00:00",5807.715,18.8,TRADE
QLD1,"2005/05/27 12:30:00",5799.05167,18.8,TRADE
QLD1,"2005/05/27 13:00:00",5779.98,18.8,TRADE
QLD1,"2005/05/27 13:30:00",5747.69667,18.39,TRADE
QLD1,"2005/05/27 14:00:00",5694.07667,16.76,TRADE
QLD1,"2005/05/27 14:30:00",5684.61167,17.19,TRADE
QLD1,"2005/05/27 15:00:00",5723.73833,16.42,TRADE
QLD1,"2005/05/27 15:30:00",5747.705,17.18,TRADE
QLD1,"2005/05/27 16:00:00",5797.25167,17.62,TRADE
QLD1,"2005/05/27 16:30:00",5849.865,18.01,TRADE
QLD1,"2005/05/27 17:00:00",5963.455,21.67,TRADE
QLD1,"2005/05/27 17:30:00",6297.12667,35.61,TRADE
QLD1,"2005/05/27 18:00:00",6520.85833,42.11,TRADE
QLD1,"2005/05/27 18:30:00",6412.20833,39.69,TRADE
QLD1,"2005/05/27 19:00:00",6319.23333,38.59,TRADE
QLD1,"2005/05/27 19:30:00",6191.19333,31.94,TRADE
QLD1,"2005/05/27 20:00:00",6051.37,29.41,TRADE
QLD1,"2005/05/27 20:30:00",5902.48,27.82,TRADE
QLD1,"2005/05/27 21:00:00",5779.00167,24.48,TRADE
QLD1,"2005/05/27 21:30:00",5785.22,27.41,TRADE
QLD1,"2005/05/27 22:00:00",5673.3,23.97,TRADE
QLD1,"2005/05/27 22:30:00",5651.80833,36.1,TRADE
QLD1,"2005/05/27 23:00:00",5565.08167,33.96,TRADE
QLD1,"2005/05/27 23:30:00",5496.035,36.14,TRADE
QLD1,"2005/05/28 00:00:00",5277.61833,31.93,TRADE
QLD1,"2005/05/28 00:30:00",5090.64333,29.59,TRADE
QLD1,"2005/05/28 01:00:00",4897.69,22.82,TRADE
QLD1,"2005/05/28 01:30:00",4712.71667,18.13,TRADE
QLD1,"2005/05/28 02:00:00",4560.60167,16.42,TRADE
QLD1,"2005/05/28 02:30:00",4411.70167,15.99,TRADE
QLD1,"2005/05/28 03:00:00",4289.91167,15.4,TRADE
QLD1,"2005/05/28 03:30:00",4265.11667,15.13,TRADE
QLD1,"2005/05/28 04:00:00",4228.17833,14.53,TRADE
QLD1,"2005/05/28 04:30:00",4245.68833,14.5,TRADE
QLD1,"2005/05/28 05:00:00",4307.38667,14.5,TRADE
QLD1,"2005/05/28 05:30:00",4365.96833,14.22,TRADE
QLD1,"2005/05/28 06:00:00",4458.00167,14.9,TRADE
QLD1,"2005/05/28 06:30:00",4646.41167,14.8,TRADE
QLD1,"2005/05/28 07:00:00",4808.68333,15.42,TRADE
QLD1,"2005/05/28 07:30:00",5150.22,15.93,TRADE
QLD1,"2005/05/28 08:00:00",5438.90333,18.49,TRADE
QLD1,"2005/05/28 08:30:00",5664.40333,21.51,TRADE
QLD1,"2005/05/28 09:00:00",5746.22,23.5,TRADE
QLD1,"2005/05/28 09:30:00",5807.585,29.88,TRADE
QLD1,"2005/05/28 10:00:00",5777.27333,26.07,TRADE
QLD1,"2005/05/28 10:30:00",5695.51333,22.3,TRADE
QLD1,"2005/05/28 11:00:00",5609.56,20.27,TRADE
QLD1,"2005/05/28 11:30:00",5541.26833,18.8,TRADE
QLD1,"2005/05/28 12:00:00",5523.60333,18.8,TRADE
QLD1,"2005/05/28 12:30:00",5401.97833,18.72,TRADE
QLD1,"2005/05/28 13:00:00",5362.15833,17.87,TRADE
QLD1,"2005/05/28 13:30:00",5276.855,16.44,TRADE
QLD1,"2005/05/28 14:00:00",5211.30667,16.44,TRADE
QLD1,"2005/05/28 14:30:00",5171.47167,16.44,TRADE
QLD1,"2005/05/28 15:00:00",5174.69167,16.44,TRADE
QLD1,"2005/05/28 15:30:00",5197.27167,16.44,TRADE
QLD1,"2005/05/28 16:00:00",5246.82667,16.44,TRADE
QLD1,"2005/05/28 16:30:00",5323.1,16.44,TRADE
QLD1,"2005/05/28 17:00:00",5508.11167,19.64,TRADE
QLD1,"2005/05/28 17:30:00",5940.555,33.99,TRADE
QLD1,"2005/05/28 18:00:00",6263.24167,44.33,TRADE
QLD1,"2005/05/28 18:30:00",6226.19833,42.07,TRADE
QLD1,"2005/05/28 19:00:00",6109.03833,36.2,TRADE
QLD1,"2005/05/28 19:30:00",5930.39333,30.53,TRADE
QLD1,"2005/05/28 20:00:00",5881.98833,31.56,TRADE
QLD1,"2005/05/28 20:30:00",5734.87167,30.18,TRADE
QLD1,"2005/05/28 21:00:00",5588.11667,26.8,TRADE
QLD1,"2005/05/28 21:30:00",5535.84833,24.61,TRADE
QLD1,"2005/05/28 22:00:00",5397,21.61,TRADE
QLD1,"2005/05/28 22:30:00",5375.61667,26.85,TRADE
QLD1,"2005/05/28 23:00:00",5378.91833,26.66,TRADE
QLD1,"2005/05/28 23:30:00",5315.32333,30.73,TRADE
QLD1,"2005/05/29 00:00:00",5158.20333,25.95,TRADE
QLD1,"2005/05/29 00:30:00",4957.58667,23.5,TRADE
QLD1,"2005/05/29 01:00:00",4817.55833,20.25,TRADE
QLD1,"2005/05/29 01:30:00",4671.69667,18.42,TRADE
QLD1,"2005/05/29 02:00:00",4555.11333,17.45,TRADE
QLD1,"2005/05/29 02:30:00",4399.425,16.47,TRADE
QLD1,"2005/05/29 03:00:00",4327.46167,15.9,TRADE
QLD1,"2005/05/29 03:30:00",4208.13167,14.85,TRADE
QLD1,"2005/05/29 04:00:00",4158.375,14.73,TRADE
QLD1,"2005/05/29 04:30:00",4167.14,15.35,TRADE
QLD1,"2005/05/29 05:00:00",4195.625,15.75,TRADE
QLD1,"2005/05/29 05:30:00",4274.72333,16.55,TRADE
QLD1,"2005/05/29 06:00:00",4355.17,15.27,TRADE
QLD1,"2005/05/29 06:30:00",4420.97333,15.59,TRADE
QLD1,"2005/05/29 07:00:00",4601.61167,14.57,TRADE
QLD1,"2005/05/29 07:30:00",4821.45333,15.28,TRADE
QLD1,"2005/05/29 08:00:00",5101.42167,16.57,TRADE
QLD1,"2005/05/29 08:30:00",5348.42833,19.01,TRADE
QLD1,"2005/05/29 09:00:00",5461.86,20.57,TRADE
QLD1,"2005/05/29 09:30:00",5534.04167,25.24,TRADE
QLD1,"2005/05/29 10:00:00",5520.775,25.26,TRADE
QLD1,"2005/05/29 10:30:00",5462.135,24.79,TRADE
QLD1,"2005/05/29 11:00:00",5412.85667,23.5,TRADE
QLD1,"2005/05/29 11:30:00",5365.81167,20.03,TRADE
QLD1,"2005/05/29 12:00:00",5281.43333,17.77,TRADE
QLD1,"2005/05/29 12:30:00",5203.41667,17.45,TRADE
QLD1,"2005/05/29 13:00:00",5152.41,16.99,TRADE
QLD1,"2005/05/29 13:30:00",5126.54,17.2,TRADE
QLD1,"2005/05/29 14:00:00",5084.77167,17.02,TRADE
QLD1,"2005/05/29 14:30:00",5060.55333,16.6,TRADE
QLD1,"2005/05/29 15:00:00",4981.71667,16.35,TRADE
QLD1,"2005/05/29 15:30:00",5027.325,16.39,TRADE
QLD1,"2005/05/29 16:00:00",5070.75167,16.39,TRADE
QLD1,"2005/05/29 16:30:00",5196.905,16.62,TRADE
QLD1,"2005/05/29 17:00:00",5443.39667,22.63,TRADE
QLD1,"2005/05/29 17:30:00",5914.59,40.04,TRADE
QLD1,"2005/05/29 18:00:00",6345.55,62.44,TRADE
QLD1,"2005/05/29 18:30:00",6368.73333,59.13,TRADE
QLD1,"2005/05/29 19:00:00",6217.64,52.05,TRADE
QLD1,"2005/05/29 19:30:00",6035.9,40.11,TRADE
QLD1,"2005/05/29 20:00:00",5967.58833,37.93,TRADE
QLD1,"2005/05/29 20:30:00",5798.31333,34.73,TRADE
QLD1,"2005/05/29 21:00:00",5684.22833,32.2,TRADE
QLD1,"2005/05/29 21:30:00",5574.94667,26.86,TRADE
QLD1,"2005/05/29 22:00:00",5378.54833,22.49,TRADE
QLD1,"2005/05/29 22:30:00",5262.53,23.95,TRADE
QLD1,"2005/05/29 23:00:00",5215.445,22.46,TRADE
QLD1,"2005/05/29 23:30:00",5187.615,24.43,TRADE
QLD1,"2005/05/30 00:00:00",5031.74167,21.14,TRADE
QLD1,"2005/05/30 00:30:00",4876.545,20.53,TRADE
QLD1,"2005/05/30 01:00:00",4762.475,22.05,TRADE
QLD1,"2005/05/30 01:30:00",4637.27167,21.11,TRADE
QLD1,"2005/05/30 02:00:00",4478.76833,17.6,TRADE
QLD1,"2005/05/30 02:30:00",4449.375,17.14,TRADE
QLD1,"2005/05/30 03:00:00",4338.37,16.44,TRADE
QLD1,"2005/05/30 03:30:00",4320.46833,16.36,TRADE
QLD1,"2005/05/30 04:00:00",4282.20833,15.98,TRADE
QLD1,"2005/05/30 04:30:00",4294.13,16.07,TRADE
QLD1,"2005/05/30 05:00:00",4372.42,16.06,TRADE
QLD1,"2005/05/30 05:30:00",4597.39,15.99,TRADE
QLD1,"2005/05/30 06:00:00",4912.20833,17.45,TRADE
QLD1,"2005/05/30 06:30:00",5373.615,22.61,TRADE
QLD1,"2005/05/30 07:00:00",5794.83667,30.54,TRADE
QLD1,"2005/05/30 07:30:00",6300.30667,31.32,TRADE
QLD1,"2005/05/30 08:00:00",6446.34833,37.99,TRADE
QLD1,"2005/05/30 08:30:00",6444.13833,38.8,TRADE
QLD1,"2005/05/30 09:00:00",6284.03333,31.63,TRADE
QLD1,"2005/05/30 09:30:00",6228.375,30.6,TRADE
QLD1,"2005/05/30 10:00:00",6152.705,29.13,TRADE
QLD1,"2005/05/30 10:30:00",6114.29,28.31,TRADE
QLD1,"2005/05/30 11:00:00",6064.36167,26.59,TRADE
QLD1,"2005/05/30 11:30:00",6045.195,24.55,TRADE
QLD1,"2005/05/30 12:00:00",5997.81833,23.43,TRADE
QLD1,"2005/05/30 12:30:00",5968.815,23.28,TRADE
QLD1,"2005/05/30 13:00:00",5942.47833,22.74,TRADE
QLD1,"2005/05/30 13:30:00",5938.81167,23.25,TRADE
QLD1,"2005/05/30 14:00:00",5923.935,22.43,TRADE
QLD1,"2005/05/30 14:30:00",5925.785,21.91,TRADE
QLD1,"2005/05/30 15:00:00",5851.36833,18.34,TRADE
QLD1,"2005/05/30 15:30:00",5905.35667,18.8,TRADE
QLD1,"2005/05/30 16:00:00",5969.35667,18.97,TRADE
QLD1,"2005/05/30 16:30:00",6057.23333,20.27,TRADE
QLD1,"2005/05/30 17:00:00",6221.37,28.17,TRADE
QLD1,"2005/05/30 17:30:00",6523.09833,38.6,TRADE
QLD1,"2005/05/30 18:00:00",6896.43667,60.63,TRADE
QLD1,"2005/05/30 18:30:00",6778.07667,50.41,TRADE
QLD1,"2005/05/30 19:00:00",6658.34833,41.8,TRADE
QLD1,"2005/05/30 19:30:00",6505.74667,34.94,TRADE
QLD1,"2005/05/30 20:00:00",6341.96333,32.73,TRADE
QLD1,"2005/05/30 20:30:00",6163.94667,30.77,TRADE
QLD1,"2005/05/30 21:00:00",6038.00833,26.64,TRADE
QLD1,"2005/05/30 21:30:00",5964.56833,24.18,TRADE
QLD1,"2005/05/30 22:00:00",5759.07667,18.54,TRADE
QLD1,"2005/05/30 22:30:00",5707.15,29.82,TRADE
QLD1,"2005/05/30 23:00:00",5552.85,25.5,TRADE
QLD1,"2005/05/30 23:30:00",5474.04,27.99,TRADE
QLD1,"2005/05/31 00:00:00",5299.97333,25.02,TRADE
QLD1,"2005/05/31 00:30:00",5088.82833,21.77,TRADE
QLD1,"2005/05/31 01:00:00",4974.50333,18.78,TRADE
QLD1,"2005/05/31 01:30:00",4815.71167,16.99,TRADE
QLD1,"2005/05/31 02:00:00",4641.235,16.42,TRADE
QLD1,"2005/05/31 02:30:00",4510.04167,16.62,TRADE
QLD1,"2005/05/31 03:00:00",4416.84833,16.44,TRADE
QLD1,"2005/05/31 03:30:00",4414.02667,16.3,TRADE
QLD1,"2005/05/31 04:00:00",4366.23167,16.29,TRADE
QLD1,"2005/05/31 04:30:00",4406.70333,16.34,TRADE
QLD1,"2005/05/31 05:00:00",4500.785,16.54,TRADE
QLD1,"2005/05/31 05:30:00",4730.16667,15.8,TRADE
QLD1,"2005/05/31 06:00:00",4916.005,17.54,TRADE
QLD1,"2005/05/31 06:30:00",5409.00667,19.89,TRADE
QLD1,"2005/05/31 07:00:00",5880.55167,29.11,TRADE
QLD1,"2005/05/31 07:30:00",6348.86667,28.75,TRADE
QLD1,"2005/05/31 08:00:00",6477.39,25.81,TRADE
QLD1,"2005/05/31 08:30:00",6404.365,19.55,TRADE
QLD1,"2005/05/31 09:00:00",6247.465,18.8,TRADE
QLD1,"2005/05/31 09:30:00",6209.735,18.8,TRADE
QLD1,"2005/05/31 10:00:00",6138.285,18.8,TRADE
QLD1,"2005/05/31 10:30:00",6103.06167,18.8,TRADE
QLD1,"2005/05/31 11:00:00",6106.75,18.8,TRADE
QLD1,"2005/05/31 11:30:00",6082.23833,18.8,TRADE
QLD1,"2005/05/31 12:00:00",6071.52333,18.8,TRADE
QLD1,"2005/05/31 12:30:00",6018.83167,18.8,TRADE
QLD1,"2005/05/31 13:00:00",5986.10333,18.8,TRADE
QLD1,"2005/05/31 13:30:00",5864.28333,18.75,TRADE
QLD1,"2005/05/31 14:00:00",5981.065,18.8,TRADE
QLD1,"2005/05/31 14:30:00",6029.11667,18.8,TRADE
QLD1,"2005/05/31 15:00:00",5979.67167,18.8,TRADE
QLD1,"2005/05/31 15:30:00",5947.15,18.8,TRADE
QLD1,"2005/05/31 16:00:00",5943.22833,19.51,TRADE
QLD1,"2005/05/31 16:30:00",6126.66333,22.53,TRADE
QLD1,"2005/05/31 17:00:00",6162.78833,26.75,TRADE
QLD1,"2005/05/31 17:30:00",6501.97667,36.7,TRADE
QLD1,"2005/05/31 18:00:00",6849.91833,58.08,TRADE
QLD1,"2005/05/31 18:30:00",6798.10167,45.4,TRADE
QLD1,"2005/05/31 19:00:00",6659.645,41.86,TRADE
QLD1,"2005/05/31 19:30:00",6469.43333,34.56,TRADE
QLD1,"2005/05/31 20:00:00",6359.77833,32.3,TRADE
QLD1,"2005/05/31 20:30:00",6203.825,31.2,TRADE
QLD1,"2005/05/31 21:00:00",6023.68833,23.68,TRADE
QLD1,"2005/05/31 21:30:00",5894.185,22.41,TRADE
QLD1,"2005/05/31 22:00:00",5802.38167,21.21,TRADE
QLD1,"2005/05/31 22:30:00",5715.735,27.99,TRADE
QLD1,"2005/05/31 23:00:00",5580.635,20.62,TRADE
QLD1,"2005/05/31 23:30:00",5465.28667,24.86,TRADE
QLD1,"2005/06/01 00:00:00",5317.79333,19.91,TRADE
